<?xml version="1.0" encoding="UTF-8"?>
<kml xmlns="http://www.opengis.net/kml/2.2">
	<Document>
		<name>南投縣草屯鎮</name>
		<Style id="spolygon">
			<LabelStyle>
				<scale>0.0</scale>
			</LabelStyle>
			<LineStyle>
				<color>330030ff</color>
				<width>0</width>
			</LineStyle>
			<PolyStyle>
				<color>330030ff</color>
			</PolyStyle>
		</Style>
		<StyleMap id="spolygon-map">
			<Pair>
				<key>normal</key>
				<styleUrl>#spolygon</styleUrl>
			</Pair>
		</StyleMap>
	<Placemark><Polygon><outerBoundaryIs><LinearRing><coordinates>120.67741,23.968361,0.0 120.676066,23.969144,0.0 120.675069,23.967428,0.0 120.675435,23.966291,0.0 120.675438,23.965172,0.0 120.674567,23.964382,0.0 120.673067,23.963221,0.0 120.672019,23.96232,0.0 120.671205,23.961472,0.0 120.66955,23.961044,0.0 120.668736,23.960101,0.0 120.669159,23.959217,0.0 120.668207,23.958556,0.0 120.666673,23.957735,0.0 120.665043,23.957531,0.0 120.663857,23.956815,0.0 120.663744,23.954781,0.0 120.665488,23.95408,0.0 120.67087,23.954433,0.0 120.674389,23.955277,0.0 120.68185,23.962767,0.0 120.681536,23.969634,0.0 120.679831,23.969766,0.0 120.678548,23.969237,0.0 120.67741,23.968361,0.0</coordinates></LinearRing></outerBoundaryIs></Polygon><styleUrl>#spolygon-map</styleUrl></Placemark><Placemark><Polygon><outerBoundaryIs><LinearRing><coordinates>120.745929,23.993797,0.0 120.744047,23.992814,0.0 120.736354,23.990133,0.0 120.73863,23.979748,0.0 120.740703,23.970433,0.0 120.748633,23.970663,0.0 120.757872,23.972579,0.0 120.764142,23.969512,0.0 120.765808,23.96997,0.0 120.766716,23.97057,0.0 120.767675,23.971319,0.0 120.767959,23.972556,0.0 120.768044,23.973597,0.0 120.768473,23.974108,0.0 120.768468,23.974663,0.0 120.769108,23.975086,0.0 120.768929,23.975659,0.0 120.769769,23.975882,0.0 120.770311,23.97642,0.0 120.770877,23.97619,0.0 120.770677,23.976743,0.0 120.771284,23.977433,0.0 120.770335,23.979287,0.0 120.757752,23.982371,0.0 120.749473,23.9922,0.0 120.745929,23.993797,0.0</coordinates></LinearRing></outerBoundaryIs></Polygon><styleUrl>#spolygon-map</styleUrl></Placemark><Placemark><Polygon><outerBoundaryIs><LinearRing><coordinates>120.688516,23.970662,0.0 120.687552,23.970037,0.0 120.686179,23.969296,0.0 120.685677,23.969816,0.0 120.685326,23.970278,0.0 120.684672,23.970216,0.0 120.683631,23.970484,0.0 120.683081,23.969601,0.0 120.67818,23.955222,0.0 120.671583,23.955267,0.0 120.673363,23.952217,0.0 120.674414,23.949727,0.0 120.675666,23.9504,0.0 120.678596,23.951546,0.0 120.6806,23.953895,0.0 120.681865,23.955826,0.0 120.683649,23.956599,0.0 120.68339,23.957705,0.0 120.684852,23.957751,0.0 120.68523,23.95956,0.0 120.685723,23.960574,0.0 120.686251,23.9613,0.0 120.686975,23.960703,0.0 120.688569,23.959835,0.0 120.689923,23.960136,0.0 120.690683,23.959826,0.0 120.692139,23.961077,0.0 120.693273,23.960556,0.0 120.695511,23.962177,0.0 120.697159,23.962624,0.0 120.69768,23.963133,0.0 120.697876,23.964342,0.0 120.69888,23.964723,0.0 120.695238,23.967047,0.0 120.69362,23.969697,0.0 120.693011,23.973454,0.0 120.691096,23.972705,0.0 120.690395,23.972417,0.0 120.689735,23.971544,0.0 120.68913,23.970789,0.0 120.688516,23.970662,0.0</coordinates></LinearRing></outerBoundaryIs></Polygon><styleUrl>#spolygon-map</styleUrl></Placemark><Placemark><Polygon><outerBoundaryIs><LinearRing><coordinates>120.683085,23.979019,0.0 120.680025,23.980163,0.0 120.679754,23.974577,0.0 120.67741,23.968361,0.0 120.678627,23.969447,0.0 120.679972,23.969497,0.0 120.68178,23.969618,0.0 120.683548,23.974342,0.0 120.683085,23.979019,0.0</coordinates></LinearRing></outerBoundaryIs></Polygon><styleUrl>#spolygon-map</styleUrl></Placemark><Placemark><Polygon><outerBoundaryIs><LinearRing><coordinates>120.682911,23.980847,0.0 120.684613,23.980141,0.0 120.682911,23.980847,0.0</coordinates></LinearRing></outerBoundaryIs></Polygon><styleUrl>#spolygon-map</styleUrl></Placemark><Placemark><Polygon><outerBoundaryIs><LinearRing><coordinates>120.736354,23.990133,0.0 120.733681,23.996497,0.0 120.727497,23.994325,0.0 120.724528,23.992727,0.0 120.719689,23.991108,0.0 120.712539,23.99026,0.0 120.713578,23.986325,0.0 120.714339,23.983439,0.0 120.719388,23.983132,0.0 120.724411,23.983681,0.0 120.728166,23.984182,0.0 120.731556,23.985235,0.0 120.734659,23.986902,0.0 120.736354,23.990133,0.0</coordinates></LinearRing></outerBoundaryIs></Polygon><styleUrl>#spolygon-map</styleUrl></Placemark><Placemark><Polygon><outerBoundaryIs><LinearRing><coordinates>120.660215,24.008344,0.0 120.657322,24.008392,0.0 120.655745,24.008423,0.0 120.652946,24.008467,0.0 120.651375,24.008496,0.0 120.650159,24.00834,0.0 120.648913,24.008372,0.0 120.647347,24.008414,0.0 120.646364,24.009122,0.0 120.644818,24.008971,0.0 120.643658,24.008379,0.0 120.64328,24.008311,0.0 120.651069,24.006103,0.0 120.655635,23.996402,0.0 120.658718,23.996854,0.0 120.665735,23.999993,0.0 120.667115,23.999736,0.0 120.670862,23.999438,0.0 120.672627,24.000399,0.0 120.671827,24.001862,0.0 120.670019,24.003418,0.0 120.669549,24.003866,0.0 120.668643,24.005711,0.0 120.666647,24.007329,0.0 120.665057,24.007877,0.0 120.662442,24.008198,0.0 120.660215,24.008344,0.0</coordinates></LinearRing></outerBoundaryIs></Polygon><styleUrl>#spolygon-map</styleUrl></Placemark><Placemark><Polygon><outerBoundaryIs><LinearRing><coordinates>120.660571,23.992318,0.0 120.643652,23.990733,0.0 120.64499,23.989844,0.0 120.646267,23.988661,0.0 120.647655,23.987224,0.0 120.649663,23.985499,0.0 120.650183,23.983981,0.0 120.649898,23.982546,0.0 120.652766,23.980136,0.0 120.657536,23.980113,0.0 120.661318,23.979958,0.0 120.665429,23.979816,0.0 120.668419,23.985396,0.0 120.665761,23.987716,0.0 120.663729,23.988047,0.0 120.660571,23.992318,0.0</coordinates></LinearRing></outerBoundaryIs></Polygon><styleUrl>#spolygon-map</styleUrl></Placemark><Placemark><Polygon><outerBoundaryIs><LinearRing><coordinates>120.708524,24.005884,0.0 120.714976,24.001296,0.0 120.717496,23.999069,0.0 120.716721,23.99783,0.0 120.716582,23.996163,0.0 120.714957,23.99506,0.0 120.7189,23.990944,0.0 120.724218,23.992527,0.0 120.726859,23.994038,0.0 120.733115,23.996529,0.0 120.735709,23.990468,0.0 120.743351,23.992644,0.0 120.745458,23.993532,0.0 120.750332,23.999479,0.0 120.747938,23.999525,0.0 120.747454,23.999089,0.0 120.746609,23.99878,0.0 120.745872,23.998592,0.0 120.743685,24.002119,0.0 120.734366,24.007638,0.0 120.719232,24.009661,0.0 120.708524,24.005884,0.0</coordinates></LinearRing></outerBoundaryIs></Polygon><styleUrl>#spolygon-map</styleUrl></Placemark><Placemark><Polygon><outerBoundaryIs><LinearRing><coordinates>120.748226,23.999915,0.0 120.746574,23.994144,0.0 120.752967,23.987339,0.0 120.760874,23.981588,0.0 120.771524,23.979991,0.0 120.780474,23.984128,0.0 120.791227,23.988757,0.0 120.79182,23.992008,0.0 120.788124,23.994319,0.0 120.786428,23.997757,0.0 120.784758,24.000886,0.0 120.781455,24.001024,0.0 120.777106,24.005354,0.0 120.773721,24.009812,0.0 120.77094,24.00985,0.0 120.770967,24.009577,0.0 120.77063,24.00913,0.0 120.768601,24.009185,0.0 120.76696,24.00861,0.0 120.765462,24.007896,0.0 120.76364,24.006738,0.0 120.761124,24.006183,0.0 120.759809,24.006474,0.0 120.758433,24.005967,0.0 120.757794,24.005914,0.0 120.757752,24.005519,0.0 120.757589,24.004952,0.0 120.756914,24.004799,0.0 120.756614,24.004632,0.0 120.756374,24.004523,0.0 120.756132,24.004464,0.0 120.756214,24.004071,0.0 120.756034,24.00369,0.0 120.755594,24.003427,0.0 120.754987,24.003431,0.0 120.754449,24.003369,0.0 120.754376,24.002858,0.0 120.754098,24.002628,0.0 120.753416,24.002442,0.0 120.752964,24.002425,0.0 120.752361,24.00269,0.0 120.751758,24.002852,0.0 120.751193,24.002874,0.0 120.750614,24.00257,0.0 120.750022,24.002091,0.0 120.749663,24.001578,0.0 120.749085,24.001173,0.0 120.74856,24.000756,0.0 120.748352,24.000151,0.0 120.748226,23.999915,0.0</coordinates></LinearRing></outerBoundaryIs></Polygon><styleUrl>#spolygon-map</styleUrl></Placemark><Placemark><Polygon><outerBoundaryIs><LinearRing><coordinates>120.693257,23.982485,0.0 120.691557,23.983456,0.0 120.688784,23.985527,0.0 120.685007,23.982436,0.0 120.687937,23.98027,0.0 120.689443,23.982361,0.0 120.693257,23.982485,0.0</coordinates></LinearRing></outerBoundaryIs></Polygon><styleUrl>#spolygon-map</styleUrl></Placemark><Placemark><Polygon><outerBoundaryIs><LinearRing><coordinates>120.640262,24.005751,0.0 120.638973,24.006862,0.0 120.638121,24.007432,0.0 120.63817,24.00566,0.0 120.638209,24.003916,0.0 120.637861,24.002659,0.0 120.637352,24.001501,0.0 120.636927,24.000581,0.0 120.636415,23.99934,0.0 120.636093,23.998088,0.0 120.636171,23.996572,0.0 120.636415,23.995331,0.0 120.636979,23.994284,0.0 120.637931,23.993498,0.0 120.639767,23.992639,0.0 120.640859,23.992182,0.0 120.643017,23.991114,0.0 120.651227,23.992148,0.0 120.659117,23.996712,0.0 120.655793,23.99622,0.0 120.651503,24.005801,0.0 120.643976,24.007646,0.0 120.642797,24.008775,0.0 120.642251,24.008703,0.0 120.641575,24.008174,0.0 120.641219,24.007604,0.0 120.640814,24.006892,0.0 120.640459,24.006223,0.0 120.640432,24.00576,0.0 120.640262,24.005751,0.0</coordinates></LinearRing></outerBoundaryIs></Polygon><styleUrl>#spolygon-map</styleUrl></Placemark><Placemark><Polygon><outerBoundaryIs><LinearRing><coordinates>120.684251,23.979012,0.0 120.685877,23.977911,0.0 120.684251,23.979012,0.0</coordinates></LinearRing></outerBoundaryIs></Polygon><styleUrl>#spolygon-map</styleUrl></Placemark><Placemark><Polygon><outerBoundaryIs><LinearRing><coordinates>120.763997,23.969437,0.0 120.75682,23.971859,0.0 120.747697,23.970339,0.0 120.736386,23.970905,0.0 120.716448,23.969567,0.0 120.710274,23.969194,0.0 120.71036,23.967736,0.0 120.70953,23.966987,0.0 120.709268,23.965589,0.0 120.709481,23.963443,0.0 120.708592,23.962857,0.0 120.708212,23.960765,0.0 120.708984,23.95846,0.0 120.709693,23.957454,0.0 120.71038,23.956528,0.0 120.710538,23.955352,0.0 120.710924,23.954777,0.0 120.711919,23.954161,0.0 120.713127,23.954915,0.0 120.714441,23.954567,0.0 120.715926,23.954078,0.0 120.717136,23.953482,0.0 120.718263,23.953522,0.0 120.719082,23.952993,0.0 120.720335,23.952393,0.0 120.721282,23.9522,0.0 120.722183,23.951933,0.0 120.723215,23.951621,0.0 120.724155,23.952172,0.0 120.72456,23.953786,0.0 120.725804,23.954529,0.0 120.726198,23.955415,0.0 120.726925,23.955554,0.0 120.72807,23.954845,0.0 120.728517,23.95406,0.0 120.729118,23.95372,0.0 120.729976,23.952938,0.0 120.729998,23.952241,0.0 120.730728,23.952089,0.0 120.732286,23.951419,0.0 120.733295,23.950515,0.0 120.734465,23.94926,0.0 120.736144,23.948599,0.0 120.737779,23.948663,0.0 120.739096,23.948943,0.0 120.74016,23.950075,0.0 120.739516,23.951336,0.0 120.74059,23.951837,0.0 120.742317,23.951291,0.0 120.74261,23.951414,0.0 120.741742,23.952758,0.0 120.741498,23.95385,0.0 120.74198,23.954505,0.0 120.742132,23.955693,0.0 120.742985,23.955622,0.0 120.744388,23.95572,0.0 120.745529,23.955265,0.0 120.74656,23.954897,0.0 120.747252,23.955074,0.0 120.748136,23.954398,0.0 120.749043,23.954228,0.0 120.7491,23.955206,0.0 120.748957,23.956476,0.0 120.749839,23.956721,0.0 120.749976,23.957315,0.0 120.751063,23.957613,0.0 120.75091,23.958721,0.0 120.750629,23.959608,0.0 120.750992,23.960556,0.0 120.751492,23.960945,0.0 120.752392,23.96064,0.0 120.753336,23.961231,0.0 120.754175,23.961688,0.0 120.754893,23.96142,0.0 120.755764,23.962864,0.0 120.756706,23.962378,0.0 120.757768,23.962965,0.0 120.758215,23.963719,0.0 120.758375,23.964076,0.0 120.758534,23.964404,0.0 120.758874,23.964447,0.0 120.759317,23.96434,0.0 120.759738,23.964214,0.0 120.760364,23.966637,0.0 120.761146,23.967365,0.0 120.762521,23.968509,0.0 120.763567,23.969414,0.0 120.763997,23.969437,0.0</coordinates></LinearRing></outerBoundaryIs></Polygon><styleUrl>#spolygon-map</styleUrl></Placemark><Placemark><Polygon><outerBoundaryIs><LinearRing><coordinates>120.683253,23.98836,0.0 120.682329,23.983171,0.0 120.684415,23.980667,0.0 120.686762,23.985159,0.0 120.684469,23.987943,0.0 120.683253,23.98836,0.0</coordinates></LinearRing></outerBoundaryIs></Polygon><styleUrl>#spolygon-map</styleUrl></Placemark><Placemark><Polygon><outerBoundaryIs><LinearRing><coordinates>120.687937,23.98027,0.0 120.685035,23.977928,0.0 120.691402,23.976749,0.0 120.688754,23.978938,0.0 120.687937,23.98027,0.0</coordinates></LinearRing></outerBoundaryIs></Polygon><styleUrl>#spolygon-map</styleUrl></Placemark><Placemark><Polygon><outerBoundaryIs><LinearRing><coordinates>120.735863,23.986992,0.0 120.732332,23.98534,0.0 120.728768,23.984226,0.0 120.724918,23.983551,0.0 120.720909,23.983325,0.0 120.714799,23.983778,0.0 120.715188,23.980303,0.0 120.716245,23.976928,0.0 120.71069,23.972818,0.0 120.709098,23.971779,0.0 120.709832,23.97038,0.0 120.713664,23.970004,0.0 120.732565,23.970252,0.0 120.742659,23.973988,0.0 120.735863,23.986992,0.0</coordinates></LinearRing></outerBoundaryIs></Polygon><styleUrl>#spolygon-map</styleUrl></Placemark><Placemark><Polygon><outerBoundaryIs><LinearRing><coordinates>120.691073,24.008457,0.0 120.688952,23.995875,0.0 120.690109,23.984112,0.0 120.692443,23.983537,0.0 120.694865,23.983377,0.0 120.700034,23.983723,0.0 120.706706,23.988023,0.0 120.713267,23.985631,0.0 120.712995,23.989012,0.0 120.714825,23.994965,0.0 120.716707,23.996052,0.0 120.716578,23.997701,0.0 120.717625,23.998971,0.0 120.71545,24.000827,0.0 120.709496,24.00539,0.0 120.697969,24.006629,0.0 120.691073,24.008457,0.0</coordinates></LinearRing></outerBoundaryIs></Polygon><styleUrl>#spolygon-map</styleUrl></Placemark><Placemark><Polygon><outerBoundaryIs><LinearRing><coordinates>120.714339,23.983439,0.0 120.708264,23.987439,0.0 120.703776,23.985733,0.0 120.696376,23.983673,0.0 120.691153,23.982773,0.0 120.687789,23.981475,0.0 120.688754,23.978938,0.0 120.691402,23.976749,0.0 120.688471,23.974158,0.0 120.689331,23.970891,0.0 120.689838,23.971531,0.0 120.69045,23.972417,0.0 120.691206,23.972717,0.0 120.693427,23.973288,0.0 120.693413,23.96929,0.0 120.697215,23.96655,0.0 120.699386,23.964843,0.0 120.700103,23.965447,0.0 120.700916,23.96456,0.0 120.701695,23.962606,0.0 120.701766,23.960916,0.0 120.70318,23.959977,0.0 120.704588,23.958964,0.0 120.705483,23.959322,0.0 120.706945,23.959242,0.0 120.709047,23.962413,0.0 120.708482,23.96299,0.0 120.710136,23.965119,0.0 120.709374,23.965896,0.0 120.709507,23.967267,0.0 120.709739,23.968498,0.0 120.711113,23.96925,0.0 120.71016,23.970205,0.0 120.709238,23.971554,0.0 120.710122,23.972645,0.0 120.714744,23.976283,0.0 120.716574,23.979901,0.0 120.714218,23.982671,0.0 120.714339,23.983439,0.0</coordinates></LinearRing></outerBoundaryIs></Polygon><styleUrl>#spolygon-map</styleUrl></Placemark><Placemark><Polygon><outerBoundaryIs><LinearRing><coordinates>120.668024,23.979258,0.0 120.663671,23.980542,0.0 120.664944,23.975887,0.0 120.667462,23.968807,0.0 120.669489,23.96285,0.0 120.671367,23.961488,0.0 120.672221,23.962298,0.0 120.67335,23.96314,0.0 120.674397,23.964521,0.0 120.675397,23.965266,0.0 120.675532,23.966479,0.0 120.675222,23.967532,0.0 120.676187,23.969205,0.0 120.673471,23.969368,0.0 120.671808,23.977286,0.0 120.670231,23.978524,0.0 120.668024,23.979258,0.0</coordinates></LinearRing></outerBoundaryIs></Polygon><styleUrl>#spolygon-map</styleUrl></Placemark><Placemark><Polygon><outerBoundaryIs><LinearRing><coordinates>120.677874,23.988087,0.0 120.673184,23.98861,0.0 120.668625,23.990925,0.0 120.668024,23.979258,0.0 120.671128,23.977763,0.0 120.672734,23.973211,0.0 120.675428,23.969084,0.0 120.676834,23.968926,0.0 120.679098,23.973266,0.0 120.679595,23.980018,0.0 120.681026,23.980761,0.0 120.682042,23.983838,0.0 120.677874,23.988087,0.0</coordinates></LinearRing></outerBoundaryIs></Polygon><styleUrl>#spolygon-map</styleUrl></Placemark><Placemark><Polygon><outerBoundaryIs><LinearRing><coordinates>120.672989,23.999153,0.0 120.66887,23.999321,0.0 120.666436,24.000282,0.0 120.664055,24.000204,0.0 120.660633,23.991402,0.0 120.664753,23.988594,0.0 120.666925,23.987463,0.0 120.670134,23.991452,0.0 120.674381,23.988434,0.0 120.683253,23.98836,0.0 120.680947,23.99147,0.0 120.677548,23.992644,0.0 120.676595,23.992849,0.0 120.676605,23.998037,0.0 120.674952,23.998857,0.0 120.672989,23.999153,0.0</coordinates></LinearRing></outerBoundaryIs></Polygon><styleUrl>#spolygon-map</styleUrl></Placemark><Placemark><Polygon><outerBoundaryIs><LinearRing><coordinates>120.689164,23.976438,0.0 120.683081,23.969601,0.0 120.683631,23.970484,0.0 120.684672,23.970216,0.0 120.685326,23.970278,0.0 120.685677,23.969816,0.0 120.686179,23.969296,0.0 120.687552,23.970037,0.0 120.688516,23.970662,0.0 120.688724,23.974825,0.0 120.689164,23.976438,0.0</coordinates></LinearRing></outerBoundaryIs></Polygon><styleUrl>#spolygon-map</styleUrl></Placemark><Placemark><Polygon><outerBoundaryIs><LinearRing><coordinates>120.672905,24.010276,0.0 120.67156,24.010365,0.0 120.670531,24.010476,0.0 120.670455,24.009814,0.0 120.67206,24.009398,0.0 120.673686,24.008085,0.0 120.673088,24.006798,0.0 120.672475,24.005863,0.0 120.671693,24.006486,0.0 120.670714,24.006297,0.0 120.669648,24.00656,0.0 120.667938,24.006851,0.0 120.668643,24.005711,0.0 120.669549,24.003866,0.0 120.670019,24.003418,0.0 120.671827,24.001862,0.0 120.672627,24.000399,0.0 120.674327,23.9991,0.0 120.675914,23.998293,0.0 120.676065,23.996907,0.0 120.676895,23.992745,0.0 120.679995,23.991737,0.0 120.683119,23.990308,0.0 120.686268,23.986955,0.0 120.690651,24.001158,0.0 120.683786,24.011686,0.0 120.681033,24.013083,0.0 120.67899,24.014103,0.0 120.678009,24.012941,0.0 120.676832,24.011427,0.0 120.675982,24.010714,0.0 120.674558,24.010457,0.0 120.673807,24.010598,0.0 120.672905,24.010276,0.0</coordinates></LinearRing></outerBoundaryIs></Polygon><styleUrl>#spolygon-map</styleUrl></Placemark><Placemark><Polygon><outerBoundaryIs><LinearRing><coordinates>120.66993,23.961031,0.0 120.666761,23.963383,0.0 120.654593,23.965724,0.0 120.653969,23.957228,0.0 120.656092,23.954037,0.0 120.659403,23.952155,0.0 120.660771,23.951774,0.0 120.662134,23.950386,0.0 120.662172,23.948822,0.0 120.663874,23.946523,0.0 120.665307,23.945854,0.0 120.666614,23.946166,0.0 120.669172,23.945727,0.0 120.670946,23.944888,0.0 120.671429,23.944783,0.0 120.671852,23.94629,0.0 120.672595,23.947675,0.0 120.673579,23.948951,0.0 120.674257,23.951406,0.0 120.671995,23.951805,0.0 120.669053,23.953449,0.0 120.664865,23.954368,0.0 120.663689,23.956162,0.0 120.664537,23.956965,0.0 120.665689,23.957421,0.0 120.667413,23.958583,0.0 120.668392,23.958994,0.0 120.669223,23.959425,0.0 120.66893,23.960374,0.0 120.669825,23.961031,0.0 120.66993,23.961031,0.0</coordinates></LinearRing></outerBoundaryIs></Polygon><styleUrl>#spolygon-map</styleUrl></Placemark><Placemark><Polygon><outerBoundaryIs><LinearRing><coordinates>120.662304,23.980211,0.0 120.658286,23.980078,0.0 120.653684,23.979903,0.0 120.649222,23.98104,0.0 120.648588,23.979702,0.0 120.647699,23.977571,0.0 120.64653,23.974359,0.0 120.646297,23.972974,0.0 120.646937,23.971629,0.0 120.646823,23.970632,0.0 120.646813,23.96928,0.0 120.646846,23.967637,0.0 120.64679,23.966643,0.0 120.646588,23.965773,0.0 120.646676,23.964283,0.0 120.646856,23.963422,0.0 120.648165,23.960938,0.0 120.651157,23.958062,0.0 120.656523,23.959706,0.0 120.657697,23.966472,0.0 120.667948,23.970208,0.0 120.662621,23.979131,0.0 120.662304,23.980211,0.0</coordinates></LinearRing></outerBoundaryIs></Polygon><styleUrl>#spolygon-map</styleUrl></Placemark><Placemark><Polygon><outerBoundaryIs><LinearRing><coordinates>120.770439,24.010393,0.0 120.776449,24.006012,0.0 120.780516,24.002456,0.0 120.784055,24.001481,0.0 120.785126,23.998376,0.0 120.788512,23.995227,0.0 120.790155,23.992293,0.0 120.79302,23.989405,0.0 120.782966,23.986603,0.0 120.775423,23.980823,0.0 120.772018,23.978012,0.0 120.7708,23.977256,0.0 120.770715,23.976499,0.0 120.770671,23.976226,0.0 120.770167,23.976228,0.0 120.769349,23.975863,0.0 120.768972,23.9754,0.0 120.768915,23.974955,0.0 120.768306,23.97448,0.0 120.768254,23.974004,0.0 120.767851,23.973333,0.0 120.768117,23.972202,0.0 120.767253,23.970887,0.0 120.766302,23.970599,0.0 120.765318,23.969699,0.0 120.763567,23.969414,0.0 120.762521,23.968509,0.0 120.761146,23.967365,0.0 120.760364,23.966637,0.0 120.76026,23.964266,0.0 120.760657,23.964459,0.0 120.760873,23.964647,0.0 120.761224,23.964941,0.0 120.761515,23.96521,0.0 120.761767,23.965522,0.0 120.762045,23.965879,0.0 120.762328,23.966238,0.0 120.762607,23.966602,0.0 120.762928,23.966973,0.0 120.763227,23.967355,0.0 120.763595,23.967701,0.0 120.764123,23.967889,0.0 120.764637,23.967833,0.0 120.765184,23.967676,0.0 120.765773,23.967657,0.0 120.766281,23.967743,0.0 120.766849,23.96776,0.0 120.767203,23.967449,0.0 120.767298,23.966964,0.0 120.767057,23.96634,0.0 120.766929,23.965947,0.0 120.76703,23.965625,0.0 120.767545,23.965558,0.0 120.768008,23.96545,0.0 120.768431,23.965308,0.0 120.768962,23.965099,0.0 120.769303,23.964885,0.0 120.769778,23.964719,0.0 120.770127,23.964641,0.0 120.770374,23.964435,0.0 120.770384,23.964131,0.0 120.770289,23.963571,0.0 120.770096,23.963056,0.0 120.769958,23.962624,0.0 120.770172,23.962245,0.0 120.770595,23.962034,0.0 120.771069,23.96192,0.0 120.771502,23.96176,0.0 120.771971,23.961404,0.0 120.772355,23.96117,0.0 120.772815,23.960848,0.0 120.773002,23.96043,0.0 120.773159,23.959789,0.0 120.773542,23.959332,0.0 120.773901,23.959,0.0 120.77419,23.958637,0.0 120.774451,23.958252,0.0 120.77492,23.957851,0.0 120.775259,23.957492,0.0 120.775277,23.956928,0.0 120.775272,23.956151,0.0 120.775467,23.955614,0.0 120.776161,23.955532,0.0 120.77685,23.95565,0.0 120.777482,23.955802,0.0 120.77797,23.956029,0.0 120.778265,23.956451,0.0 120.778425,23.956883,0.0 120.778521,23.95747,0.0 120.77864,23.958197,0.0 120.778724,23.958743,0.0 120.779045,23.959008,0.0 120.779713,23.95921,0.0 120.780396,23.959459,0.0 120.780906,23.959586,0.0 120.781141,23.959155,0.0 120.781723,23.95859,0.0 120.782454,23.958153,0.0 120.78316,23.958271,0.0 120.783525,23.958335,0.0 120.784052,23.958329,0.0 120.784528,23.957858,0.0 120.784717,23.957273,0.0 120.785006,23.956689,0.0 120.785833,23.956272,0.0 120.786837,23.956326,0.0 120.787502,23.956808,0.0 120.78782,23.957639,0.0 120.788237,23.958396,0.0 120.788811,23.958891,0.0 120.789447,23.959287,0.0 120.789964,23.959351,0.0 120.790795,23.959302,0.0 120.791203,23.959483,0.0 120.791828,23.959753,0.0 120.792251,23.960067,0.0 120.792858,23.960576,0.0 120.793266,23.960843,0.0 120.793618,23.960687,0.0 120.793914,23.960345,0.0 120.794177,23.959932,0.0 120.794596,23.959768,0.0 120.795085,23.959802,0.0 120.795471,23.959891,0.0 120.796025,23.96002,0.0 120.796783,23.960091,0.0 120.79757,23.960167,0.0 120.798276,23.960452,0.0 120.799039,23.960999,0.0 120.799613,23.961377,0.0 120.800119,23.961592,0.0 120.800518,23.961771,0.0 120.80128,23.962097,0.0 120.801936,23.962486,0.0 120.802529,23.962855,0.0 120.802973,23.963183,0.0 120.802996,23.963727,0.0 120.803037,23.964291,0.0 120.803315,23.964836,0.0 120.8038,23.965317,0.0 120.803971,23.965755,0.0 120.804534,23.965991,0.0 120.80477,23.966409,0.0 120.804907,23.967334,0.0 120.805116,23.968154,0.0 120.805547,23.968714,0.0 120.806042,23.969214,0.0 120.806597,23.969472,0.0 120.807394,23.969895,0.0 120.807887,23.970399,0.0 120.808088,23.970752,0.0 120.808392,23.970684,0.0 120.808877,23.970845,0.0 120.809443,23.971087,0.0 120.810256,23.971384,0.0 120.810801,23.971579,0.0 120.811097,23.971618,0.0 120.811259,23.971252,0.0 120.811256,23.970803,0.0 120.811379,23.970397,0.0 120.81147,23.969997,0.0 120.811811,23.969815,0.0 120.812327,23.969678,0.0 120.812734,23.969604,0.0 120.813154,23.969616,0.0 120.813585,23.969706,0.0 120.814018,23.969899,0.0 120.814518,23.970021,0.0 120.815117,23.970042,0.0 120.815574,23.96998,0.0 120.816116,23.969815,0.0 120.816645,23.969557,0.0 120.817152,23.969392,0.0 120.81751,23.96942,0.0 120.818008,23.969536,0.0 120.818585,23.969613,0.0 120.819115,23.96958,0.0 120.819746,23.96935,0.0 120.820233,23.969001,0.0 120.820786,23.968686,0.0 120.821427,23.968555,0.0 120.821818,23.968705,0.0 120.822202,23.968974,0.0 120.822634,23.969051,0.0 120.822996,23.969167,0.0 120.823399,23.969415,0.0 120.823783,23.969452,0.0 120.824155,23.969206,0.0 120.824534,23.969159,0.0 120.824901,23.969149,0.0 120.825329,23.969154,0.0 120.82586,23.969217,0.0 120.826426,23.969274,0.0 120.827004,23.969158,0.0 120.827585,23.969,0.0 120.828248,23.9689,0.0 120.828829,23.969031,0.0 120.829552,23.969215,0.0 120.830117,23.969396,0.0 120.830638,23.969629,0.0 120.831015,23.969864,0.0 120.831397,23.970199,0.0 120.831764,23.970285,0.0 120.832375,23.970412,0.0 120.833037,23.970496,0.0 120.834549,23.970498,0.0 120.834861,23.970688,0.0 120.834849,23.971078,0.0 120.834925,23.971433,0.0 120.834582,23.971929,0.0 120.834383,23.97234,0.0 120.834189,23.97273,0.0 120.833816,23.973479,0.0 120.833187,23.974975,0.0 120.833578,23.976488,0.0 120.833807,23.978344,0.0 120.834243,23.979645,0.0 120.834451,23.980983,0.0 120.83557,23.98312,0.0 120.835273,23.98437,0.0 120.834583,23.985521,0.0 120.832903,23.986208,0.0 120.832087,23.987733,0.0 120.831913,23.989033,0.0 120.831729,23.990222,0.0 120.830912,23.992537,0.0 120.829537,23.993306,0.0 120.827904,23.993895,0.0 120.827106,23.992969,0.0 120.826289,23.993781,0.0 120.82554,23.994755,0.0 120.824607,23.994855,0.0 120.823217,23.994594,0.0 120.822539,23.99362,0.0 120.821823,23.994651,0.0 120.820687,23.995912,0.0 120.820187,23.997112,0.0 120.819367,23.998346,0.0 120.818549,23.998657,0.0 120.817833,23.998918,0.0 120.817236,23.999213,0.0 120.816746,23.999397,0.0 120.816278,23.99969,0.0 120.81584,24.000042,0.0 120.815252,24.000443,0.0 120.814681,24.000733,0.0 120.814064,24.000717,0.0 120.813335,24.000675,0.0 120.812639,24.000769,0.0 120.812146,24.000992,0.0 120.811733,24.001339,0.0 120.811322,24.001463,0.0 120.810639,24.001539,0.0 120.810034,24.001619,0.0 120.809412,24.001731,0.0 120.808754,24.001832,0.0 120.808247,24.001865,0.0 120.808237,24.002226,0.0 120.808397,24.002755,0.0 120.808575,24.003347,0.0 120.808739,24.003832,0.0 120.808922,24.004311,0.0 120.809177,24.004927,0.0 120.809381,24.005567,0.0 120.809586,24.006271,0.0 120.809769,24.006901,0.0 120.809793,24.007362,0.0 120.809153,24.007535,0.0 120.808462,24.007714,0.0 120.807919,24.007842,0.0 120.8072,24.00825,0.0 120.80633,24.008457,0.0 120.805374,24.008537,0.0 120.804419,24.00854,0.0 120.80359,24.008498,0.0 120.803163,24.008861,0.0 120.802988,24.009495,0.0 120.802773,24.010118,0.0 120.802593,24.010782,0.0 120.802199,24.011122,0.0 120.801674,24.011489,0.0 120.801443,24.011965,0.0 120.801041,24.012303,0.0 120.800615,24.012547,0.0 120.800191,24.01281,0.0 120.799878,24.013191,0.0 120.799799,24.013661,0.0 120.79964,24.014031,0.0 120.799417,24.014353,0.0 120.799152,24.014802,0.0 120.798817,24.015203,0.0 120.798307,24.015521,0.0 120.797712,24.015818,0.0 120.797318,24.015987,0.0 120.796727,24.016104,0.0 120.7963,24.016148,0.0 120.79582,24.016152,0.0 120.794908,24.01628,0.0 120.794056,24.015816,0.0 120.793358,24.015988,0.0 120.791712,24.015889,0.0 120.790429,24.015896,0.0 120.789755,24.015713,0.0 120.788721,24.015416,0.0 120.78775,24.015629,0.0 120.78673,24.015718,0.0 120.784983,24.01639,0.0 120.784336,24.016978,0.0 120.783577,24.017108,0.0 120.782454,24.017574,0.0 120.781887,24.018047,0.0 120.781016,24.018892,0.0 120.780133,24.019672,0.0 120.77811,24.019516,0.0 120.776118,24.019204,0.0 120.7751,24.018412,0.0 120.774581,24.017452,0.0 120.773491,24.015936,0.0 120.772449,24.015067,0.0 120.772364,24.014774,0.0 120.771431,24.014418,0.0 120.771131,24.013819,0.0 120.77138,24.01284,0.0 120.77133,24.01258,0.0 120.77091,24.012248,0.0 120.77114,24.011548,0.0 120.770513,24.010829,0.0 120.770425,24.010416,0.0 120.770439,24.010393,0.0</coordinates></LinearRing></outerBoundaryIs></Polygon><styleUrl>#spolygon-map</styleUrl></Placemark></Document>
</kml>
