<?xml version="1.0" encoding="UTF-8"?>
<kml xmlns="http://www.opengis.net/kml/2.2">
	<Document>
		<name>嘉義縣民雄鄉</name>
		<Style id="spolygon">
			<LabelStyle>
				<scale>0.0</scale>
			</LabelStyle>
			<LineStyle>
				<color>330030ff</color>
				<width>0</width>
			</LineStyle>
			<PolyStyle>
				<color>330030ff</color>
			</PolyStyle>
		</Style>
		<StyleMap id="spolygon-map">
			<Pair>
				<key>normal</key>
				<styleUrl>#spolygon</styleUrl>
			</Pair>
		</StyleMap>
	<Placemark><Polygon><outerBoundaryIs><LinearRing><coordinates>120.416188,23.538016,0.0 120.418447,23.523967,0.0 120.42009,23.521533,0.0 120.426875,23.525041,0.0 120.428558,23.526567,0.0 120.428609,23.535906,0.0 120.427611,23.534286,0.0 120.426852,23.53026,0.0 120.424912,23.532958,0.0 120.421934,23.532872,0.0 120.417995,23.536264,0.0 120.416188,23.538016,0.0</coordinates></LinearRing></outerBoundaryIs></Polygon><styleUrl>#spolygon-map</styleUrl></Placemark><Placemark><Polygon><outerBoundaryIs><LinearRing><coordinates>120.437436,23.530509,0.0 120.428026,23.526393,0.0 120.423623,23.524097,0.0 120.430878,23.514315,0.0 120.438818,23.520041,0.0 120.437436,23.530509,0.0</coordinates></LinearRing></outerBoundaryIs></Polygon><styleUrl>#spolygon-map</styleUrl></Placemark><Placemark><Polygon><outerBoundaryIs><LinearRing><coordinates>120.456841,23.580275,0.0 120.45663,23.581069,0.0 120.456438,23.581775,0.0 120.455892,23.582322,0.0 120.455242,23.581631,0.0 120.454437,23.580829,0.0 120.454159,23.581214,0.0 120.453852,23.581936,0.0 120.453582,23.582402,0.0 120.452671,23.582735,0.0 120.451801,23.582872,0.0 120.450852,23.582846,0.0 120.449882,23.583179,0.0 120.44861,23.583712,0.0 120.447702,23.58411,0.0 120.446638,23.584531,0.0 120.445751,23.584907,0.0 120.445548,23.584304,0.0 120.444876,23.583872,0.0 120.443586,23.584082,0.0 120.442253,23.584308,0.0 120.441593,23.58394,0.0 120.441246,23.582997,0.0 120.440892,23.582163,0.0 120.440445,23.580978,0.0 120.439989,23.579807,0.0 120.438066,23.574911,0.0 120.447552,23.568339,0.0 120.449961,23.569612,0.0 120.450322,23.57141,0.0 120.456841,23.580275,0.0</coordinates></LinearRing></outerBoundaryIs></Polygon><styleUrl>#spolygon-map</styleUrl></Placemark><Placemark><Polygon><outerBoundaryIs><LinearRing><coordinates>120.451051,23.543147,0.0 120.448106,23.544295,0.0 120.446151,23.544552,0.0 120.442308,23.544678,0.0 120.438723,23.544625,0.0 120.433142,23.54323,0.0 120.436384,23.536167,0.0 120.437753,23.530925,0.0 120.438467,23.531253,0.0 120.439653,23.530794,0.0 120.439637,23.530176,0.0 120.441541,23.528686,0.0 120.442499,23.528507,0.0 120.443738,23.527886,0.0 120.444987,23.528148,0.0 120.447462,23.53084,0.0 120.450294,23.532611,0.0 120.452533,23.539477,0.0 120.451051,23.543147,0.0</coordinates></LinearRing></outerBoundaryIs></Polygon><styleUrl>#spolygon-map</styleUrl></Placemark><Placemark><Polygon><outerBoundaryIs><LinearRing><coordinates>120.483606,23.566197,0.0 120.483026,23.566324,0.0 120.482317,23.567114,0.0 120.481622,23.567603,0.0 120.480996,23.568405,0.0 120.480317,23.56927,0.0 120.479981,23.570011,0.0 120.479452,23.570718,0.0 120.478778,23.571413,0.0 120.478328,23.572209,0.0 120.477988,23.572736,0.0 120.47762,23.57329,0.0 120.477211,23.574106,0.0 120.476691,23.574921,0.0 120.476063,23.575498,0.0 120.470564,23.572417,0.0 120.468188,23.568445,0.0 120.47504,23.559558,0.0 120.467541,23.560205,0.0 120.463185,23.555933,0.0 120.460876,23.551552,0.0 120.461746,23.550889,0.0 120.462711,23.551394,0.0 120.466684,23.548202,0.0 120.470461,23.546298,0.0 120.474664,23.548057,0.0 120.476406,23.547537,0.0 120.477881,23.547827,0.0 120.480067,23.54706,0.0 120.4819,23.546768,0.0 120.482941,23.547209,0.0 120.485319,23.548109,0.0 120.48755,23.550189,0.0 120.502803,23.549825,0.0 120.500238,23.550997,0.0 120.497136,23.551132,0.0 120.495204,23.551426,0.0 120.493467,23.552572,0.0 120.483957,23.559358,0.0 120.484456,23.563619,0.0 120.483606,23.566197,0.0</coordinates></LinearRing></outerBoundaryIs></Polygon><styleUrl>#spolygon-map</styleUrl></Placemark><Placemark><Polygon><outerBoundaryIs><LinearRing><coordinates>120.495956,23.526455,0.0 120.49014,23.528474,0.0 120.488759,23.530544,0.0 120.484601,23.531993,0.0 120.47756,23.534139,0.0 120.473442,23.533362,0.0 120.469295,23.533671,0.0 120.467025,23.53536,0.0 120.466167,23.534827,0.0 120.465302,23.533957,0.0 120.464884,23.533543,0.0 120.464559,23.533259,0.0 120.464143,23.532933,0.0 120.461756,23.532724,0.0 120.460959,23.53264,0.0 120.460705,23.533176,0.0 120.4601,23.53284,0.0 120.459257,23.533318,0.0 120.458611,23.53262,0.0 120.463897,23.527015,0.0 120.462785,23.524115,0.0 120.463602,23.517761,0.0 120.461813,23.518062,0.0 120.45885,23.518929,0.0 120.457614,23.519433,0.0 120.455606,23.516424,0.0 120.456307,23.516013,0.0 120.45741,23.514728,0.0 120.457076,23.513252,0.0 120.456188,23.512428,0.0 120.457417,23.509515,0.0 120.458483,23.508474,0.0 120.460614,23.506217,0.0 120.466183,23.506979,0.0 120.473735,23.51645,0.0 120.478084,23.520792,0.0 120.482402,23.517815,0.0 120.489172,23.513341,0.0 120.490107,23.513533,0.0 120.490405,23.514018,0.0 120.490808,23.514626,0.0 120.491262,23.51535,0.0 120.491918,23.515944,0.0 120.492502,23.516523,0.0 120.493159,23.517311,0.0 120.493916,23.518129,0.0 120.494664,23.518481,0.0 120.495328,23.518935,0.0 120.495628,23.519464,0.0 120.49579,23.520105,0.0 120.496068,23.521124,0.0 120.495931,23.521903,0.0 120.495469,23.522481,0.0 120.495395,23.523292,0.0 120.495351,23.523757,0.0 120.495468,23.524258,0.0 120.495529,23.524714,0.0 120.495727,23.525171,0.0 120.4958,23.525629,0.0 120.495657,23.526067,0.0 120.49569,23.52646,0.0 120.495956,23.526455,0.0</coordinates></LinearRing></outerBoundaryIs></Polygon><styleUrl>#spolygon-map</styleUrl></Placemark><Placemark><Polygon><outerBoundaryIs><LinearRing><coordinates>120.412351,23.527574,0.0 120.400017,23.526443,0.0 120.400039,23.525238,0.0 120.400064,23.52408,0.0 120.400088,23.523197,0.0 120.400112,23.522306,0.0 120.400165,23.521347,0.0 120.400197,23.520401,0.0 120.400638,23.520084,0.0 120.40022,23.519609,0.0 120.400139,23.519179,0.0 120.400583,23.518761,0.0 120.4014,23.518907,0.0 120.401301,23.518599,0.0 120.400965,23.517934,0.0 120.400403,23.517397,0.0 120.399751,23.517036,0.0 120.399493,23.516524,0.0 120.399385,23.515797,0.0 120.399161,23.515101,0.0 120.398718,23.514463,0.0 120.39819,23.514117,0.0 120.397449,23.513963,0.0 120.396383,23.513995,0.0 120.395422,23.514154,0.0 120.39455,23.514367,0.0 120.393869,23.514742,0.0 120.393322,23.514843,0.0 120.3928,23.514783,0.0 120.391996,23.514685,0.0 120.391191,23.514858,0.0 120.390616,23.515095,0.0 120.390118,23.515486,0.0 120.389588,23.515899,0.0 120.388862,23.51605,0.0 120.388414,23.515319,0.0 120.388055,23.514444,0.0 120.388024,23.513486,0.0 120.388009,23.512719,0.0 120.387966,23.511818,0.0 120.387932,23.51061,0.0 120.387916,23.509655,0.0 120.388353,23.508548,0.0 120.388961,23.507621,0.0 120.389408,23.507054,0.0 120.390415,23.506936,0.0 120.391288,23.506831,0.0 120.392259,23.506717,0.0 120.393305,23.506744,0.0 120.394465,23.50722,0.0 120.395403,23.507612,0.0 120.396514,23.508068,0.0 120.397409,23.508435,0.0 120.398625,23.508909,0.0 120.399611,23.509294,0.0 120.400729,23.50973,0.0 120.401926,23.510199,0.0 120.403133,23.510669,0.0 120.404075,23.511054,0.0 120.404988,23.51117,0.0 120.405868,23.511133,0.0 120.406608,23.510876,0.0 120.407182,23.510441,0.0 120.407833,23.509558,0.0 120.40859,23.510089,0.0 120.411365,23.513384,0.0 120.42136,23.518154,0.0 120.42306,23.520584,0.0 120.418735,23.523744,0.0 120.412351,23.527574,0.0</coordinates></LinearRing></outerBoundaryIs></Polygon><styleUrl>#spolygon-map</styleUrl></Placemark><Placemark><Polygon><outerBoundaryIs><LinearRing><coordinates>120.411364,23.541083,0.0 120.4068,23.542874,0.0 120.403286,23.543303,0.0 120.40182,23.541047,0.0 120.396446,23.537405,0.0 120.388328,23.533723,0.0 120.384257,23.531591,0.0 120.385072,23.531606,0.0 120.386226,23.53162,0.0 120.387382,23.531636,0.0 120.389009,23.531658,0.0 120.390313,23.53167,0.0 120.39189,23.531678,0.0 120.394094,23.531685,0.0 120.394311,23.530552,0.0 120.394476,23.529632,0.0 120.39524,23.529651,0.0 120.396602,23.529674,0.0 120.398185,23.52966,0.0 120.399168,23.529673,0.0 120.399963,23.529595,0.0 120.399976,23.528601,0.0 120.4,23.527482,0.0 120.411364,23.541083,0.0</coordinates></LinearRing></outerBoundaryIs></Polygon><styleUrl>#spolygon-map</styleUrl></Placemark><Placemark><Polygon><outerBoundaryIs><LinearRing><coordinates>120.416811,23.555254,0.0 120.413224,23.553389,0.0 120.412151,23.54938,0.0 120.407987,23.547292,0.0 120.40391,23.544951,0.0 120.399228,23.543572,0.0 120.401452,23.542362,0.0 120.404431,23.543285,0.0 120.408196,23.542426,0.0 120.416188,23.538016,0.0 120.418859,23.542893,0.0 120.422893,23.545996,0.0 120.419676,23.549943,0.0 120.418534,23.553303,0.0 120.416811,23.555254,0.0</coordinates></LinearRing></outerBoundaryIs></Polygon><styleUrl>#spolygon-map</styleUrl></Placemark><Placemark><Polygon><outerBoundaryIs><LinearRing><coordinates>120.431522,23.55792,0.0 120.42858,23.558182,0.0 120.42605,23.552118,0.0 120.421411,23.547794,0.0 120.429999,23.552873,0.0 120.431522,23.55792,0.0</coordinates></LinearRing></outerBoundaryIs></Polygon><styleUrl>#spolygon-map</styleUrl></Placemark><Placemark><Polygon><outerBoundaryIs><LinearRing><coordinates>120.433228,23.545332,0.0 120.426025,23.543809,0.0 120.423037,23.546279,0.0 120.419073,23.542878,0.0 120.417097,23.538283,0.0 120.420562,23.533011,0.0 120.423411,23.532697,0.0 120.425781,23.530019,0.0 120.428199,23.531933,0.0 120.427568,23.535545,0.0 120.433213,23.529297,0.0 120.4363,23.536607,0.0 120.433228,23.545332,0.0</coordinates></LinearRing></outerBoundaryIs></Polygon><styleUrl>#spolygon-map</styleUrl></Placemark><Placemark><Polygon><outerBoundaryIs><LinearRing><coordinates>120.460476,23.549691,0.0 120.458455,23.546758,0.0 120.452781,23.544092,0.0 120.452681,23.539963,0.0 120.449475,23.533347,0.0 120.455666,23.527321,0.0 120.448209,23.517973,0.0 120.449222,23.517173,0.0 120.450996,23.516857,0.0 120.45275,23.516064,0.0 120.455606,23.516424,0.0 120.457614,23.519433,0.0 120.45885,23.518929,0.0 120.461813,23.518062,0.0 120.463602,23.517761,0.0 120.462785,23.524115,0.0 120.463897,23.527015,0.0 120.458611,23.53262,0.0 120.459257,23.533318,0.0 120.4601,23.53284,0.0 120.460705,23.533176,0.0 120.460959,23.53264,0.0 120.461756,23.532724,0.0 120.464143,23.532933,0.0 120.464559,23.533259,0.0 120.464884,23.533543,0.0 120.465302,23.533957,0.0 120.466167,23.534827,0.0 120.467025,23.53536,0.0 120.466043,23.536483,0.0 120.466896,23.540423,0.0 120.467781,23.542779,0.0 120.460476,23.549691,0.0</coordinates></LinearRing></outerBoundaryIs></Polygon><styleUrl>#spolygon-map</styleUrl></Placemark><Placemark><Polygon><outerBoundaryIs><LinearRing><coordinates>120.385878,23.5555,0.0 120.384832,23.555426,0.0 120.383798,23.555438,0.0 120.382473,23.555374,0.0 120.381834,23.555407,0.0 120.380988,23.555497,0.0 120.381366,23.554503,0.0 120.384424,23.55277,0.0 120.385614,23.548571,0.0 120.385359,23.546252,0.0 120.385672,23.534715,0.0 120.384165,23.534233,0.0 120.38419,23.532906,0.0 120.384219,23.531698,0.0 120.38913,23.533794,0.0 120.397158,23.537647,0.0 120.402004,23.541118,0.0 120.399915,23.543256,0.0 120.397732,23.545451,0.0 120.397466,23.545958,0.0 120.39727,23.548377,0.0 120.397685,23.550878,0.0 120.385883,23.555484,0.0 120.385878,23.5555,0.0</coordinates></LinearRing></outerBoundaryIs></Polygon><styleUrl>#spolygon-map</styleUrl></Placemark><Placemark><Polygon><outerBoundaryIs><LinearRing><coordinates>120.429385,23.558623,0.0 120.421046,23.55908,0.0 120.416811,23.555254,0.0 120.418534,23.553303,0.0 120.419676,23.549943,0.0 120.423569,23.548676,0.0 120.427801,23.557001,0.0 120.429385,23.558623,0.0</coordinates></LinearRing></outerBoundaryIs></Polygon><styleUrl>#spolygon-map</styleUrl></Placemark><Placemark><Polygon><outerBoundaryIs><LinearRing><coordinates>120.380737,23.555549,0.0 120.380599,23.556472,0.0 120.380223,23.556437,0.0 120.379371,23.556102,0.0 120.378822,23.555854,0.0 120.378745,23.555348,0.0 120.378812,23.554452,0.0 120.378728,23.553422,0.0 120.378796,23.552774,0.0 120.378954,23.552059,0.0 120.378884,23.551226,0.0 120.379035,23.550538,0.0 120.37932,23.549995,0.0 120.379745,23.54943,0.0 120.380367,23.548864,0.0 120.380546,23.548291,0.0 120.38001,23.548025,0.0 120.379592,23.547877,0.0 120.378737,23.548383,0.0 120.378095,23.548566,0.0 120.37737,23.548719,0.0 120.376824,23.548951,0.0 120.376299,23.548773,0.0 120.376162,23.548105,0.0 120.375893,23.546763,0.0 120.37566,23.545617,0.0 120.37549,23.544772,0.0 120.375262,23.543627,0.0 120.375084,23.542741,0.0 120.374877,23.541718,0.0 120.374737,23.540968,0.0 120.374316,23.540381,0.0 120.374265,23.539582,0.0 120.374264,23.538263,0.0 120.37436,23.537304,0.0 120.374435,23.536571,0.0 120.374554,23.535804,0.0 120.374845,23.535049,0.0 120.375293,23.534475,0.0 120.376358,23.534315,0.0 120.377354,23.534355,0.0 120.378604,23.534412,0.0 120.379628,23.53445,0.0 120.380608,23.53449,0.0 120.381574,23.534512,0.0 120.382741,23.534536,0.0 120.383891,23.534588,0.0 120.385423,23.534782,0.0 120.38516,23.546043,0.0 120.385433,23.548266,0.0 120.386059,23.55293,0.0 120.382251,23.554472,0.0 120.380737,23.555549,0.0</coordinates></LinearRing></outerBoundaryIs></Polygon><styleUrl>#spolygon-map</styleUrl></Placemark><Placemark><Polygon><outerBoundaryIs><LinearRing><coordinates>120.489028,23.513352,0.0 120.48191,23.518188,0.0 120.475348,23.521365,0.0 120.472924,23.515205,0.0 120.461515,23.504618,0.0 120.46205,23.503267,0.0 120.462158,23.501545,0.0 120.463502,23.499739,0.0 120.465485,23.498741,0.0 120.467093,23.498801,0.0 120.4686,23.499149,0.0 120.470216,23.500509,0.0 120.470645,23.502937,0.0 120.471552,23.504523,0.0 120.472843,23.505952,0.0 120.474373,23.506874,0.0 120.476551,23.505856,0.0 120.478831,23.504712,0.0 120.481293,23.504386,0.0 120.483141,23.505363,0.0 120.483707,23.505586,0.0 120.484806,23.505915,0.0 120.485335,23.506122,0.0 120.485166,23.506706,0.0 120.485122,23.507453,0.0 120.485664,23.507918,0.0 120.486298,23.508507,0.0 120.486946,23.508981,0.0 120.487819,23.509537,0.0 120.487886,23.51037,0.0 120.488977,23.510961,0.0 120.48965,23.511358,0.0 120.490199,23.511689,0.0 120.490752,23.512068,0.0 120.490344,23.512268,0.0 120.489736,23.512679,0.0 120.489189,23.51295,0.0 120.488664,23.513134,0.0 120.489028,23.513352,0.0</coordinates></LinearRing></outerBoundaryIs></Polygon><styleUrl>#spolygon-map</styleUrl></Placemark><Placemark><Polygon><outerBoundaryIs><LinearRing><coordinates>120.460476,23.549691,0.0 120.458743,23.55068,0.0 120.45626,23.552798,0.0 120.453806,23.553889,0.0 120.449392,23.555923,0.0 120.446134,23.553099,0.0 120.440577,23.555977,0.0 120.436985,23.555497,0.0 120.438029,23.544568,0.0 120.440455,23.545031,0.0 120.443597,23.54618,0.0 120.447534,23.544431,0.0 120.450256,23.542962,0.0 120.452781,23.544092,0.0 120.458455,23.546758,0.0 120.460476,23.549691,0.0</coordinates></LinearRing></outerBoundaryIs></Polygon><styleUrl>#spolygon-map</styleUrl></Placemark><Placemark><Polygon><outerBoundaryIs><LinearRing><coordinates>120.434693,23.563537,0.0 120.432412,23.56009,0.0 120.430076,23.555314,0.0 120.42542,23.548245,0.0 120.425668,23.544191,0.0 120.43101,23.545547,0.0 120.437512,23.555984,0.0 120.437703,23.557342,0.0 120.434645,23.562507,0.0 120.434693,23.563537,0.0</coordinates></LinearRing></outerBoundaryIs></Polygon><styleUrl>#spolygon-map</styleUrl></Placemark><Placemark><Polygon><outerBoundaryIs><LinearRing><coordinates>120.48925,23.567471,0.0 120.488883,23.566858,0.0 120.488397,23.565967,0.0 120.487993,23.565482,0.0 120.48732,23.566067,0.0 120.486915,23.56674,0.0 120.486895,23.567418,0.0 120.486358,23.567619,0.0 120.48543,23.567578,0.0 120.484774,23.56735,0.0 120.484234,23.566763,0.0 120.483759,23.566263,0.0 120.484035,23.560936,0.0 120.487868,23.556407,0.0 120.494088,23.552294,0.0 120.496006,23.551433,0.0 120.498574,23.550918,0.0 120.501618,23.550756,0.0 120.504191,23.549762,0.0 120.506266,23.550827,0.0 120.506792,23.548939,0.0 120.50598,23.547691,0.0 120.506034,23.546388,0.0 120.506347,23.54678,0.0 120.506708,23.547113,0.0 120.5071,23.547362,0.0 120.507789,23.547373,0.0 120.508285,23.547156,0.0 120.50899,23.547199,0.0 120.509276,23.546667,0.0 120.509921,23.546455,0.0 120.510177,23.546022,0.0 120.510352,23.545481,0.0 120.510159,23.544965,0.0 120.510215,23.54441,0.0 120.510138,23.543855,0.0 120.510143,23.543304,0.0 120.510527,23.543179,0.0 120.510885,23.543615,0.0 120.511676,23.543751,0.0 120.51201,23.543355,0.0 120.512063,23.54282,0.0 120.512299,23.542308,0.0 120.512714,23.541707,0.0 120.513332,23.541357,0.0 120.513898,23.541444,0.0 120.513858,23.542047,0.0 120.514074,23.542768,0.0 120.514729,23.543183,0.0 120.515069,23.54399,0.0 120.515561,23.544637,0.0 120.515804,23.545189,0.0 120.516197,23.545727,0.0 120.516883,23.546282,0.0 120.517378,23.546808,0.0 120.518107,23.547379,0.0 120.518015,23.547972,0.0 120.518241,23.549068,0.0 120.518455,23.549791,0.0 120.519164,23.550551,0.0 120.518486,23.550886,0.0 120.517426,23.551176,0.0 120.516848,23.551641,0.0 120.516041,23.551503,0.0 120.515308,23.55119,0.0 120.514478,23.551192,0.0 120.513282,23.551195,0.0 120.512488,23.550978,0.0 120.512667,23.550396,0.0 120.512098,23.550143,0.0 120.511161,23.550186,0.0 120.510425,23.550917,0.0 120.510474,23.551594,0.0 120.510901,23.552013,0.0 120.511243,23.55271,0.0 120.511183,23.553473,0.0 120.511825,23.55459,0.0 120.51234,23.555253,0.0 120.512277,23.556108,0.0 120.511774,23.556326,0.0 120.511092,23.555752,0.0 120.510479,23.55582,0.0 120.510301,23.556434,0.0 120.509569,23.557061,0.0 120.508612,23.557645,0.0 120.507927,23.557627,0.0 120.507783,23.556902,0.0 120.507962,23.556052,0.0 120.50773,23.555311,0.0 120.507092,23.554936,0.0 120.506454,23.555139,0.0 120.505702,23.555618,0.0 120.505052,23.55628,0.0 120.504383,23.556343,0.0 120.503426,23.556143,0.0 120.502528,23.556414,0.0 120.50199,23.556654,0.0 120.501099,23.556793,0.0 120.500121,23.557045,0.0 120.499535,23.557512,0.0 120.499695,23.558123,0.0 120.499884,23.558785,0.0 120.500595,23.559098,0.0 120.501036,23.559671,0.0 120.501513,23.560063,0.0 120.502022,23.560597,0.0 120.502262,23.561395,0.0 120.502432,23.562136,0.0 120.502267,23.563163,0.0 120.502012,23.564216,0.0 120.501726,23.564757,0.0 120.501024,23.565164,0.0 120.500569,23.56492,0.0 120.500309,23.564229,0.0 120.500183,23.563621,0.0 120.499715,23.563324,0.0 120.499108,23.563798,0.0 120.498798,23.564199,0.0 120.497941,23.564045,0.0 120.496812,23.564005,0.0 120.495738,23.56402,0.0 120.495195,23.564361,0.0 120.495241,23.565124,0.0 120.495141,23.565813,0.0 120.494855,23.566516,0.0 120.49453,23.567124,0.0 120.49389,23.567468,0.0 120.493152,23.567761,0.0 120.492321,23.568034,0.0 120.491316,23.568139,0.0 120.490439,23.568228,0.0 120.489625,23.567937,0.0 120.48925,23.567471,0.0</coordinates></LinearRing></outerBoundaryIs></Polygon><styleUrl>#spolygon-map</styleUrl></Placemark><Placemark><Polygon><outerBoundaryIs><LinearRing><coordinates>120.461746,23.550889,0.0 120.466888,23.545609,0.0 120.467838,23.541443,0.0 120.467162,23.538788,0.0 120.466058,23.535899,0.0 120.468488,23.534419,0.0 120.471836,23.533094,0.0 120.475887,23.534291,0.0 120.483686,23.533157,0.0 120.48646,23.529854,0.0 120.489474,23.528602,0.0 120.49248,23.528599,0.0 120.496286,23.526439,0.0 120.496765,23.52649,0.0 120.497197,23.526609,0.0 120.497593,23.526843,0.0 120.497669,23.52729,0.0 120.49762,23.527737,0.0 120.497437,23.528179,0.0 120.497121,23.52862,0.0 120.497038,23.529045,0.0 120.497119,23.529492,0.0 120.497167,23.529928,0.0 120.496884,23.530272,0.0 120.49678,23.530683,0.0 120.496649,23.531161,0.0 120.496713,23.531649,0.0 120.496782,23.5321,0.0 120.496826,23.532572,0.0 120.497009,23.533033,0.0 120.497469,23.533218,0.0 120.49792,23.533477,0.0 120.498257,23.533868,0.0 120.498433,23.534291,0.0 120.498407,23.534767,0.0 120.498575,23.535199,0.0 120.499043,23.535388,0.0 120.499544,23.535482,0.0 120.499973,23.535727,0.0 120.500384,23.535979,0.0 120.500793,23.536339,0.0 120.50122,23.536702,0.0 120.501898,23.536936,0.0 120.502331,23.537229,0.0 120.50289,23.537339,0.0 120.503364,23.537537,0.0 120.503739,23.537859,0.0 120.503864,23.538379,0.0 120.503905,23.53883,0.0 120.504027,23.539323,0.0 120.503822,23.53985,0.0 120.503789,23.540315,0.0 120.503895,23.540747,0.0 120.504181,23.541149,0.0 120.504452,23.541496,0.0 120.504503,23.541961,0.0 120.5047,23.542366,0.0 120.504956,23.542822,0.0 120.505172,23.543261,0.0 120.505465,23.543614,0.0 120.505659,23.544053,0.0 120.50578,23.544523,0.0 120.505612,23.544967,0.0 120.505154,23.545105,0.0 120.504938,23.545452,0.0 120.505219,23.545839,0.0 120.505607,23.546152,0.0 120.50598,23.547691,0.0 120.506792,23.548939,0.0 120.506266,23.550827,0.0 120.504191,23.549762,0.0 120.490813,23.549606,0.0 120.486615,23.54852,0.0 120.48379,23.546939,0.0 120.482374,23.54695,0.0 120.480737,23.547116,0.0 120.478837,23.547478,0.0 120.477285,23.548026,0.0 120.475605,23.547426,0.0 120.472089,23.547168,0.0 120.469586,23.546501,0.0 120.465482,23.548891,0.0 120.462331,23.551282,0.0 120.461746,23.550889,0.0</coordinates></LinearRing></outerBoundaryIs></Polygon><styleUrl>#spolygon-map</styleUrl></Placemark><Placemark><Polygon><outerBoundaryIs><LinearRing><coordinates>120.440707,23.518318,0.0 120.432154,23.51599,0.0 120.432511,23.5137,0.0 120.433575,23.514447,0.0 120.433967,23.515904,0.0 120.433408,23.516575,0.0 120.434644,23.517279,0.0 120.435833,23.516762,0.0 120.436825,23.515754,0.0 120.437439,23.514569,0.0 120.437287,23.513848,0.0 120.439597,23.512157,0.0 120.441342,23.512294,0.0 120.442121,23.513495,0.0 120.441677,23.514981,0.0 120.440974,23.516979,0.0 120.440707,23.518318,0.0</coordinates></LinearRing></outerBoundaryIs></Polygon><styleUrl>#spolygon-map</styleUrl></Placemark><Placemark><Polygon><outerBoundaryIs><LinearRing><coordinates>120.446663,23.567803,0.0 120.43508,23.567042,0.0 120.434482,23.557283,0.0 120.437558,23.558734,0.0 120.438151,23.562021,0.0 120.44068,23.563145,0.0 120.441989,23.564281,0.0 120.44346,23.564282,0.0 120.445901,23.566439,0.0 120.446663,23.567803,0.0</coordinates></LinearRing></outerBoundaryIs></Polygon><styleUrl>#spolygon-map</styleUrl></Placemark><Placemark><Polygon><outerBoundaryIs><LinearRing><coordinates>120.40835,23.560166,0.0 120.40756,23.56014,0.0 120.40659,23.560217,0.0 120.405609,23.560302,0.0 120.404692,23.560533,0.0 120.404225,23.561215,0.0 120.40373,23.561969,0.0 120.402672,23.562128,0.0 120.401654,23.562264,0.0 120.400352,23.562212,0.0 120.399335,23.562348,0.0 120.39827,23.563278,0.0 120.397367,23.564099,0.0 120.396522,23.564619,0.0 120.395625,23.565008,0.0 120.394457,23.565455,0.0 120.393574,23.565748,0.0 120.392548,23.565703,0.0 120.391756,23.565621,0.0 120.390508,23.565291,0.0 120.389357,23.565024,0.0 120.388326,23.565413,0.0 120.387448,23.565283,0.0 120.38662,23.563483,0.0 120.385957,23.562079,0.0 120.385531,23.56116,0.0 120.385066,23.560129,0.0 120.384645,23.559211,0.0 120.384041,23.557915,0.0 120.384196,23.557433,0.0 120.385001,23.557495,0.0 120.386068,23.557571,0.0 120.385956,23.556582,0.0 120.385878,23.5555,0.0 120.397791,23.551068,0.0 120.397234,23.548483,0.0 120.397454,23.546094,0.0 120.397876,23.545684,0.0 120.404165,23.545,0.0 120.408526,23.548739,0.0 120.412236,23.549523,0.0 120.41257,23.554815,0.0 120.414669,23.556365,0.0 120.412414,23.557856,0.0 120.409349,23.559912,0.0 120.40835,23.560166,0.0</coordinates></LinearRing></outerBoundaryIs></Polygon><styleUrl>#spolygon-map</styleUrl></Placemark><Placemark><Polygon><outerBoundaryIs><LinearRing><coordinates>120.464635,23.582486,0.0 120.464079,23.582409,0.0 120.463562,23.581904,0.0 120.463007,23.581401,0.0 120.462434,23.580979,0.0 120.461726,23.580171,0.0 120.461185,23.579523,0.0 120.460571,23.578866,0.0 120.459956,23.578392,0.0 120.459155,23.578299,0.0 120.458432,23.578599,0.0 120.457871,23.579191,0.0 120.457002,23.580102,0.0 120.450161,23.573225,0.0 120.450015,23.570883,0.0 120.448617,23.56921,0.0 120.446074,23.566824,0.0 120.443831,23.564425,0.0 120.442271,23.564363,0.0 120.440879,23.563376,0.0 120.438709,23.562188,0.0 120.437961,23.560036,0.0 120.437564,23.557007,0.0 120.438701,23.556589,0.0 120.444317,23.553289,0.0 120.448363,23.555549,0.0 120.452735,23.556012,0.0 120.455283,23.553361,0.0 120.458224,23.55122,0.0 120.459876,23.550052,0.0 120.461746,23.550889,0.0 120.460876,23.551552,0.0 120.463185,23.555933,0.0 120.467541,23.560205,0.0 120.47504,23.559558,0.0 120.468188,23.568445,0.0 120.470564,23.572417,0.0 120.476063,23.575498,0.0 120.47549,23.576082,0.0 120.475122,23.57658,0.0 120.474732,23.576685,0.0 120.474193,23.575983,0.0 120.473667,23.575787,0.0 120.473222,23.575481,0.0 120.472408,23.575419,0.0 120.471806,23.575318,0.0 120.471143,23.575386,0.0 120.470771,23.575556,0.0 120.470336,23.57562,0.0 120.469875,23.575896,0.0 120.469513,23.576423,0.0 120.469373,23.577122,0.0 120.469438,23.577599,0.0 120.470062,23.578145,0.0 120.470295,23.57862,0.0 120.470048,23.57919,0.0 120.469973,23.579967,0.0 120.469943,23.580705,0.0 120.469506,23.581051,0.0 120.468954,23.581375,0.0 120.468316,23.581489,0.0 120.467568,23.581748,0.0 120.466844,23.58178,0.0 120.466213,23.581805,0.0 120.465642,23.581934,0.0 120.465072,23.582216,0.0 120.464635,23.582486,0.0</coordinates></LinearRing></outerBoundaryIs></Polygon><styleUrl>#spolygon-map</styleUrl></Placemark><Placemark><Polygon><outerBoundaryIs><LinearRing><coordinates>120.450557,23.532283,0.0 120.446391,23.529353,0.0 120.444761,23.528061,0.0 120.443287,23.527834,0.0 120.442207,23.528456,0.0 120.441449,23.52937,0.0 120.439546,23.530248,0.0 120.439264,23.531263,0.0 120.438254,23.531096,0.0 120.437667,23.530792,0.0 120.440275,23.520254,0.0 120.442486,23.518077,0.0 120.444375,23.51728,0.0 120.445428,23.518243,0.0 120.446893,23.518404,0.0 120.448027,23.518189,0.0 120.455666,23.527321,0.0 120.450557,23.532283,0.0</coordinates></LinearRing></outerBoundaryIs></Polygon><styleUrl>#spolygon-map</styleUrl></Placemark><Placemark><Polygon><outerBoundaryIs><LinearRing><coordinates>120.425904,23.519818,0.0 120.421123,23.518674,0.0 120.413324,23.514988,0.0 120.410254,23.511269,0.0 120.408609,23.508909,0.0 120.408967,23.507391,0.0 120.407928,23.503287,0.0 120.407839,23.502456,0.0 120.407909,23.501763,0.0 120.40821,23.500006,0.0 120.408719,23.498407,0.0 120.411601,23.49889,0.0 120.412807,23.500468,0.0 120.413907,23.502755,0.0 120.41615,23.504662,0.0 120.417576,23.505583,0.0 120.420205,23.505887,0.0 120.422796,23.506059,0.0 120.424038,23.506197,0.0 120.425341,23.506989,0.0 120.426034,23.508538,0.0 120.428129,23.509241,0.0 120.430418,23.508934,0.0 120.433267,23.508996,0.0 120.433686,23.5096,0.0 120.433847,23.510271,0.0 120.433804,23.511111,0.0 120.433491,23.51183,0.0 120.432639,23.513278,0.0 120.428024,23.517361,0.0 120.425904,23.519818,0.0</coordinates></LinearRing></outerBoundaryIs></Polygon><styleUrl>#spolygon-map</styleUrl></Placemark><Placemark><Polygon><outerBoundaryIs><LinearRing><coordinates>120.41646,23.574087,0.0 120.416008,23.573482,0.0 120.41551,23.5729,0.0 120.414612,23.572451,0.0 120.413632,23.57206,0.0 120.412432,23.571588,0.0 120.411181,23.571147,0.0 120.410397,23.571047,0.0 120.409352,23.570915,0.0 120.408107,23.570792,0.0 120.40755,23.570551,0.0 120.40662,23.57027,0.0 120.405664,23.570363,0.0 120.404953,23.570444,0.0 120.404309,23.570471,0.0 120.40338,23.570492,0.0 120.40323,23.570162,0.0 120.403401,23.569655,0.0 120.403577,23.569127,0.0 120.403744,23.568491,0.0 120.403593,23.567637,0.0 120.403755,23.567008,0.0 120.403872,23.566383,0.0 120.403959,23.565648,0.0 120.404767,23.565141,0.0 120.405853,23.564474,0.0 120.406885,23.563824,0.0 120.408106,23.563043,0.0 120.408515,23.562186,0.0 120.408394,23.560987,0.0 120.40835,23.560166,0.0 120.409417,23.558415,0.0 120.413675,23.557361,0.0 120.416194,23.555658,0.0 120.41908,23.559084,0.0 120.42225,23.565308,0.0 120.421732,23.570144,0.0 120.41646,23.574087,0.0</coordinates></LinearRing></outerBoundaryIs></Polygon><styleUrl>#spolygon-map</styleUrl></Placemark><Placemark><Polygon><outerBoundaryIs><LinearRing><coordinates>120.439747,23.579331,0.0 120.438939,23.579478,0.0 120.438021,23.579574,0.0 120.436897,23.579518,0.0 120.435726,23.579464,0.0 120.434594,23.579424,0.0 120.433435,23.579364,0.0 120.432662,23.579327,0.0 120.431446,23.579284,0.0 120.430327,23.579228,0.0 120.429193,23.579183,0.0 120.428483,23.579142,0.0 120.428371,23.57818,0.0 120.428308,23.577437,0.0 120.427813,23.577943,0.0 120.427425,23.578495,0.0 120.427056,23.578947,0.0 120.426521,23.579602,0.0 120.425859,23.579582,0.0 120.424627,23.579153,0.0 120.423551,23.578792,0.0 120.422776,23.578541,0.0 120.422028,23.578116,0.0 120.421152,23.577842,0.0 120.420357,23.577724,0.0 120.419541,23.577646,0.0 120.418645,23.577243,0.0 120.418005,23.57683,0.0 120.417408,23.575758,0.0 120.416963,23.574962,0.0 120.41646,23.574087,0.0 120.421928,23.567957,0.0 120.423363,23.560016,0.0 120.430206,23.558409,0.0 120.432525,23.560443,0.0 120.434697,23.56467,0.0 120.439747,23.579331,0.0</coordinates></LinearRing></outerBoundaryIs></Polygon><styleUrl>#spolygon-map</styleUrl></Placemark></Document>
</kml>
