<?xml version="1.0" encoding="UTF-8"?>
<kml xmlns="http://www.opengis.net/kml/2.2">
	<Document>
		<name>嘉義市西區</name>
		<Style id="spolygon">
			<LabelStyle>
				<scale>0.0</scale>
			</LabelStyle>
			<LineStyle>
				<color>330030ff</color>
				<width>0</width>
			</LineStyle>
			<PolyStyle>
				<color>330030ff</color>
			</PolyStyle>
		</Style>
		<StyleMap id="spolygon-map">
			<Pair>
				<key>normal</key>
				<styleUrl>#spolygon</styleUrl>
			</Pair>
		</StyleMap>
	<Placemark><Polygon><outerBoundaryIs><LinearRing><coordinates>120.428836,23.509151,0.0 120.426429,23.508831,0.0 120.425625,23.507451,0.0 120.427131,23.504766,0.0 120.425544,23.503098,0.0 120.425298,23.501861,0.0 120.428642,23.495012,0.0 120.431555,23.493998,0.0 120.44219,23.494998,0.0 120.442656,23.497061,0.0 120.436582,23.507099,0.0 120.433764,23.509806,0.0 120.433382,23.509075,0.0 120.431863,23.508722,0.0 120.428836,23.509151,0.0</coordinates></LinearRing></outerBoundaryIs></Polygon><styleUrl>#spolygon-map</styleUrl></Placemark><Placemark><Polygon><outerBoundaryIs><LinearRing><coordinates>120.425586,23.507387,0.0 120.424751,23.506303,0.0 120.423043,23.506301,0.0 120.421189,23.506078,0.0 120.418653,23.505648,0.0 120.416608,23.50528,0.0 120.415044,23.503578,0.0 120.417461,23.493803,0.0 120.418415,23.48623,0.0 120.424932,23.486847,0.0 120.426908,23.491294,0.0 120.428528,23.492693,0.0 120.429005,23.493729,0.0 120.42843,23.495178,0.0 120.425239,23.501999,0.0 120.425839,23.503331,0.0 120.427131,23.505037,0.0 120.425586,23.507387,0.0</coordinates></LinearRing></outerBoundaryIs></Polygon><styleUrl>#spolygon-map</styleUrl></Placemark><Placemark><Polygon><outerBoundaryIs><LinearRing><coordinates>120.407789,23.49784,0.0 120.408374,23.49853,0.0 120.40797,23.501463,0.0 120.407864,23.502093,0.0 120.407854,23.502867,0.0 120.408065,23.504035,0.0 120.406386,23.504178,0.0 120.403813,23.503739,0.0 120.401842,23.502323,0.0 120.400834,23.501344,0.0 120.400323,23.500344,0.0 120.399836,23.498735,0.0 120.396784,23.500023,0.0 120.394399,23.500795,0.0 120.392758,23.500502,0.0 120.391065,23.49994,0.0 120.390005,23.49936,0.0 120.389328,23.498653,0.0 120.39017,23.497952,0.0 120.389292,23.497174,0.0 120.389343,23.496008,0.0 120.38919,23.494966,0.0 120.389493,23.492719,0.0 120.390269,23.491307,0.0 120.394081,23.490908,0.0 120.396423,23.490964,0.0 120.40451,23.489949,0.0 120.406472,23.497191,0.0 120.407789,23.49784,0.0</coordinates></LinearRing></outerBoundaryIs></Polygon><styleUrl>#spolygon-map</styleUrl></Placemark><Placemark><Polygon><outerBoundaryIs><LinearRing><coordinates>120.447151,23.504951,0.0 120.442375,23.498428,0.0 120.442894,23.496653,0.0 120.443983,23.494587,0.0 120.444781,23.492653,0.0 120.445669,23.490495,0.0 120.446106,23.489438,0.0 120.450073,23.490874,0.0 120.450177,23.492277,0.0 120.449402,23.495678,0.0 120.448895,23.497762,0.0 120.44849,23.499425,0.0 120.447151,23.504951,0.0</coordinates></LinearRing></outerBoundaryIs></Polygon><styleUrl>#spolygon-map</styleUrl></Placemark><Placemark><Polygon><outerBoundaryIs><LinearRing><coordinates>120.408453,23.498438,0.0 120.406659,23.49728,0.0 120.40469,23.489894,0.0 120.412372,23.487579,0.0 120.41694,23.486178,0.0 120.418196,23.487188,0.0 120.413046,23.501512,0.0 120.412233,23.499182,0.0 120.409589,23.498447,0.0 120.408453,23.498438,0.0</coordinates></LinearRing></outerBoundaryIs></Polygon><styleUrl>#spolygon-map</styleUrl></Placemark><Placemark><Polygon><outerBoundaryIs><LinearRing><coordinates>120.44219,23.494998,0.0 120.442562,23.492753,0.0 120.443012,23.489359,0.0 120.442795,23.487704,0.0 120.443092,23.486888,0.0 120.443701,23.486549,0.0 120.444463,23.48745,0.0 120.44578,23.490227,0.0 120.44507,23.491949,0.0 120.44413,23.494231,0.0 120.44219,23.494998,0.0</coordinates></LinearRing></outerBoundaryIs></Polygon><styleUrl>#spolygon-map</styleUrl></Placemark><Placemark><Polygon><outerBoundaryIs><LinearRing><coordinates>120.428884,23.494911,0.0 120.428931,23.493785,0.0 120.428602,23.492757,0.0 120.428074,23.492301,0.0 120.431143,23.488808,0.0 120.435372,23.487144,0.0 120.430557,23.494415,0.0 120.428884,23.494911,0.0</coordinates></LinearRing></outerBoundaryIs></Polygon><styleUrl>#spolygon-map</styleUrl></Placemark><Placemark><Polygon><outerBoundaryIs><LinearRing><coordinates>120.44219,23.494998,0.0 120.437871,23.492273,0.0 120.438957,23.488753,0.0 120.443012,23.489359,0.0 120.442562,23.492753,0.0 120.44219,23.494998,0.0</coordinates></LinearRing></outerBoundaryIs></Polygon><styleUrl>#spolygon-map</styleUrl></Placemark><Placemark><Polygon><outerBoundaryIs><LinearRing><coordinates>120.433698,23.4942,0.0 120.435139,23.489023,0.0 120.437649,23.485997,0.0 120.439842,23.487626,0.0 120.441223,23.488714,0.0 120.438691,23.490865,0.0 120.43767,23.493842,0.0 120.433698,23.4942,0.0</coordinates></LinearRing></outerBoundaryIs></Polygon><styleUrl>#spolygon-map</styleUrl></Placemark><Placemark><Polygon><outerBoundaryIs><LinearRing><coordinates>120.427923,23.490093,0.0 120.427803,23.484356,0.0 120.431738,23.48572,0.0 120.431635,23.488406,0.0 120.427923,23.490093,0.0</coordinates></LinearRing></outerBoundaryIs></Polygon><styleUrl>#spolygon-map</styleUrl></Placemark><Placemark><Polygon><outerBoundaryIs><LinearRing><coordinates>120.398987,23.491607,0.0 120.394766,23.490356,0.0 120.394253,23.488859,0.0 120.39439,23.487097,0.0 120.393848,23.486295,0.0 120.393739,23.48443,0.0 120.393727,23.48297,0.0 120.394136,23.482373,0.0 120.394639,23.481111,0.0 120.396642,23.480988,0.0 120.397717,23.48047,0.0 120.400198,23.48029,0.0 120.402779,23.479045,0.0 120.405528,23.478963,0.0 120.408396,23.476405,0.0 120.410235,23.476198,0.0 120.411581,23.476713,0.0 120.41297,23.47707,0.0 120.413969,23.477884,0.0 120.414364,23.477732,0.0 120.414851,23.477899,0.0 120.415051,23.478087,0.0 120.415953,23.477506,0.0 120.417111,23.477169,0.0 120.418081,23.476925,0.0 120.419061,23.476985,0.0 120.419839,23.478848,0.0 120.420962,23.481884,0.0 120.418713,23.48563,0.0 120.416449,23.486328,0.0 120.411927,23.487712,0.0 120.4037,23.490194,0.0 120.398987,23.491607,0.0</coordinates></LinearRing></outerBoundaryIs></Polygon><styleUrl>#spolygon-map</styleUrl></Placemark><Placemark><Polygon><outerBoundaryIs><LinearRing><coordinates>120.447644,23.489552,0.0 120.444025,23.486934,0.0 120.445147,23.485366,0.0 120.447036,23.486049,0.0 120.448291,23.487468,0.0 120.447644,23.489552,0.0</coordinates></LinearRing></outerBoundaryIs></Polygon><styleUrl>#spolygon-map</styleUrl></Placemark><Placemark><Polygon><outerBoundaryIs><LinearRing><coordinates>120.431602,23.489018,0.0 120.431729,23.486063,0.0 120.430916,23.483365,0.0 120.439284,23.483531,0.0 120.437649,23.485997,0.0 120.4354,23.487129,0.0 120.431602,23.489018,0.0</coordinates></LinearRing></outerBoundaryIs></Polygon><styleUrl>#spolygon-map</styleUrl></Placemark><Placemark><Polygon><outerBoundaryIs><LinearRing><coordinates>120.441176,23.488941,0.0 120.441006,23.488488,0.0 120.438188,23.486398,0.0 120.439485,23.485069,0.0 120.442164,23.484695,0.0 120.442957,23.48565,0.0 120.443146,23.486791,0.0 120.442797,23.487385,0.0 120.443093,23.48843,0.0 120.441176,23.488941,0.0</coordinates></LinearRing></outerBoundaryIs></Polygon><styleUrl>#spolygon-map</styleUrl></Placemark><Placemark><Polygon><outerBoundaryIs><LinearRing><coordinates>120.426867,23.488947,0.0 120.422654,23.484413,0.0 120.424998,23.479508,0.0 120.428369,23.478102,0.0 120.429401,23.483858,0.0 120.427383,23.488434,0.0 120.426867,23.488947,0.0</coordinates></LinearRing></outerBoundaryIs></Polygon><styleUrl>#spolygon-map</styleUrl></Placemark><Placemark><Polygon><outerBoundaryIs><LinearRing><coordinates>120.447582,23.486651,0.0 120.445703,23.484588,0.0 120.44432,23.482804,0.0 120.445838,23.483101,0.0 120.447142,23.481371,0.0 120.449592,23.479917,0.0 120.449163,23.481876,0.0 120.448828,23.4834,0.0 120.448373,23.484861,0.0 120.447582,23.486651,0.0</coordinates></LinearRing></outerBoundaryIs></Polygon><styleUrl>#spolygon-map</styleUrl></Placemark><Placemark><Polygon><outerBoundaryIs><LinearRing><coordinates>120.443701,23.486549,0.0 120.442578,23.485195,0.0 120.441602,23.484018,0.0 120.44399,23.483062,0.0 120.445908,23.484801,0.0 120.445069,23.485497,0.0 120.443701,23.486549,0.0</coordinates></LinearRing></outerBoundaryIs></Polygon><styleUrl>#spolygon-map</styleUrl></Placemark><Placemark><Polygon><outerBoundaryIs><LinearRing><coordinates>120.440242,23.484691,0.0 120.441583,23.480087,0.0 120.443614,23.483212,0.0 120.440247,23.484688,0.0 120.440242,23.484691,0.0</coordinates></LinearRing></outerBoundaryIs></Polygon><styleUrl>#spolygon-map</styleUrl></Placemark><Placemark><Polygon><outerBoundaryIs><LinearRing><coordinates>120.444136,23.482948,0.0 120.441527,23.478545,0.0 120.445213,23.479518,0.0 120.447197,23.48085,0.0 120.445892,23.482588,0.0 120.444339,23.482788,0.0 120.444136,23.482948,0.0</coordinates></LinearRing></outerBoundaryIs></Polygon><styleUrl>#spolygon-map</styleUrl></Placemark><Placemark><Polygon><outerBoundaryIs><LinearRing><coordinates>120.433167,23.482242,0.0 120.430872,23.477177,0.0 120.434051,23.475306,0.0 120.435863,23.474845,0.0 120.437108,23.474958,0.0 120.43632,23.482507,0.0 120.433167,23.482242,0.0</coordinates></LinearRing></outerBoundaryIs></Polygon><styleUrl>#spolygon-map</styleUrl></Placemark><Placemark><Polygon><outerBoundaryIs><LinearRing><coordinates>120.421082,23.482061,0.0 120.419801,23.479389,0.0 120.419092,23.47703,0.0 120.418372,23.476944,0.0 120.417571,23.477101,0.0 120.41595,23.477465,0.0 120.415545,23.47771,0.0 120.414969,23.47806,0.0 120.414445,23.477739,0.0 120.414133,23.477869,0.0 120.413346,23.477135,0.0 120.411866,23.476705,0.0 120.410487,23.476546,0.0 120.409212,23.47574,0.0 120.415251,23.469643,0.0 120.41874,23.470392,0.0 120.423063,23.471363,0.0 120.423707,23.474525,0.0 120.424974,23.478291,0.0 120.424998,23.479508,0.0 120.421082,23.482061,0.0</coordinates></LinearRing></outerBoundaryIs></Polygon><styleUrl>#spolygon-map</styleUrl></Placemark><Placemark><Polygon><outerBoundaryIs><LinearRing><coordinates>120.409212,23.47574,0.0 120.406082,23.478525,0.0 120.403749,23.479153,0.0 120.402272,23.479115,0.0 120.398142,23.480594,0.0 120.398908,23.479096,0.0 120.398811,23.477786,0.0 120.399074,23.477155,0.0 120.398469,23.475958,0.0 120.39887,23.475556,0.0 120.398505,23.473778,0.0 120.398837,23.472725,0.0 120.399178,23.470983,0.0 120.397793,23.470123,0.0 120.397049,23.468379,0.0 120.395262,23.467453,0.0 120.39418,23.465634,0.0 120.395218,23.462546,0.0 120.398208,23.462794,0.0 120.399206,23.463012,0.0 120.400159,23.463244,0.0 120.401378,23.463298,0.0 120.402621,23.463346,0.0 120.404642,23.46337,0.0 120.407369,23.463843,0.0 120.408119,23.464369,0.0 120.410048,23.464672,0.0 120.4116,23.464728,0.0 120.412219,23.465484,0.0 120.412293,23.468045,0.0 120.409212,23.47574,0.0</coordinates></LinearRing></outerBoundaryIs></Polygon><styleUrl>#spolygon-map</styleUrl></Placemark><Placemark><Polygon><outerBoundaryIs><LinearRing><coordinates>120.447319,23.479708,0.0 120.447756,23.475592,0.0 120.449465,23.473795,0.0 120.449856,23.477471,0.0 120.449699,23.479532,0.0 120.447319,23.479708,0.0</coordinates></LinearRing></outerBoundaryIs></Polygon><styleUrl>#spolygon-map</styleUrl></Placemark><Placemark><Polygon><outerBoundaryIs><LinearRing><coordinates>120.44621,23.479607,0.0 120.44445,23.476285,0.0 120.447679,23.476567,0.0 120.446811,23.479664,0.0 120.44621,23.479607,0.0</coordinates></LinearRing></outerBoundaryIs></Polygon><styleUrl>#spolygon-map</styleUrl></Placemark><Placemark><Polygon><outerBoundaryIs><LinearRing><coordinates>120.424998,23.479508,0.0 120.424974,23.478291,0.0 120.430798,23.476181,0.0 120.425078,23.471813,0.0 120.42202,23.470357,0.0 120.429213,23.466444,0.0 120.434043,23.471685,0.0 120.435637,23.47344,0.0 120.436881,23.474709,0.0 120.436009,23.474819,0.0 120.434136,23.475196,0.0 120.431945,23.476538,0.0 120.427098,23.478489,0.0 120.424998,23.479508,0.0</coordinates></LinearRing></outerBoundaryIs></Polygon><styleUrl>#spolygon-map</styleUrl></Placemark><Placemark><Polygon><outerBoundaryIs><LinearRing><coordinates>120.442982,23.479316,0.0 120.438688,23.47677,0.0 120.437915,23.47492,0.0 120.44445,23.476285,0.0 120.442982,23.479316,0.0</coordinates></LinearRing></outerBoundaryIs></Polygon><styleUrl>#spolygon-map</styleUrl></Placemark><Placemark><Polygon><outerBoundaryIs><LinearRing><coordinates>120.425398,23.476715,0.0 120.423994,23.473418,0.0 120.425787,23.471971,0.0 120.430117,23.47656,0.0 120.425398,23.476715,0.0</coordinates></LinearRing></outerBoundaryIs></Polygon><styleUrl>#spolygon-map</styleUrl></Placemark><Placemark><Polygon><outerBoundaryIs><LinearRing><coordinates>120.446625,23.475721,0.0 120.443622,23.473273,0.0 120.447906,23.474166,0.0 120.446625,23.475721,0.0</coordinates></LinearRing></outerBoundaryIs></Polygon><styleUrl>#spolygon-map</styleUrl></Placemark><Placemark><Polygon><outerBoundaryIs><LinearRing><coordinates>120.441171,23.475232,0.0 120.436881,23.474709,0.0 120.437095,23.473064,0.0 120.43795,23.472762,0.0 120.441398,23.473071,0.0 120.441171,23.475232,0.0</coordinates></LinearRing></outerBoundaryIs></Polygon><styleUrl>#spolygon-map</styleUrl></Placemark><Placemark><Polygon><outerBoundaryIs><LinearRing><coordinates>120.451818,23.474013,0.0 120.449268,23.472178,0.0 120.447156,23.470809,0.0 120.44804,23.468751,0.0 120.451301,23.470121,0.0 120.45183,23.474013,0.0 120.451818,23.474013,0.0</coordinates></LinearRing></outerBoundaryIs></Polygon><styleUrl>#spolygon-map</styleUrl></Placemark><Placemark><Polygon><outerBoundaryIs><LinearRing><coordinates>120.43795,23.472762,0.0 120.437095,23.473064,0.0 120.435432,23.473213,0.0 120.432622,23.470217,0.0 120.435274,23.46938,0.0 120.436576,23.470055,0.0 120.437642,23.47063,0.0 120.43795,23.472762,0.0</coordinates></LinearRing></outerBoundaryIs></Polygon><styleUrl>#spolygon-map</styleUrl></Placemark><Placemark><Polygon><outerBoundaryIs><LinearRing><coordinates>120.449096,23.473762,0.0 120.444776,23.473376,0.0 120.44506,23.470828,0.0 120.447104,23.471289,0.0 120.449216,23.472676,0.0 120.449096,23.473762,0.0</coordinates></LinearRing></outerBoundaryIs></Polygon><styleUrl>#spolygon-map</styleUrl></Placemark><Placemark><Polygon><outerBoundaryIs><LinearRing><coordinates>120.444776,23.473376,0.0 120.44257,23.471892,0.0 120.442696,23.470567,0.0 120.445006,23.471307,0.0 120.444776,23.473376,0.0</coordinates></LinearRing></outerBoundaryIs></Polygon><styleUrl>#spolygon-map</styleUrl></Placemark><Placemark><Polygon><outerBoundaryIs><LinearRing><coordinates>120.43952,23.472901,0.0 120.438014,23.471887,0.0 120.438723,23.468471,0.0 120.439946,23.468973,0.0 120.440323,23.470383,0.0 120.441161,23.470507,0.0 120.441919,23.470643,0.0 120.44237,23.470966,0.0 120.442597,23.471578,0.0 120.442435,23.473165,0.0 120.43952,23.472901,0.0</coordinates></LinearRing></outerBoundaryIs></Polygon><styleUrl>#spolygon-map</styleUrl></Placemark><Placemark><Polygon><outerBoundaryIs><LinearRing><coordinates>120.42182,23.471086,0.0 120.417441,23.470116,0.0 120.413278,23.469238,0.0 120.412288,23.466611,0.0 120.412069,23.464768,0.0 120.413016,23.463659,0.0 120.412957,23.462555,0.0 120.414716,23.460627,0.0 120.418267,23.460658,0.0 120.421869,23.461021,0.0 120.42408,23.461366,0.0 120.426205,23.463119,0.0 120.422154,23.469867,0.0 120.42182,23.471086,0.0</coordinates></LinearRing></outerBoundaryIs></Polygon><styleUrl>#spolygon-map</styleUrl></Placemark><Placemark><Polygon><outerBoundaryIs><LinearRing><coordinates>120.442642,23.471066,0.0 120.442275,23.470706,0.0 120.441322,23.470472,0.0 120.440601,23.470555,0.0 120.439818,23.470135,0.0 120.440057,23.467973,0.0 120.442546,23.466352,0.0 120.442952,23.468252,0.0 120.442696,23.470567,0.0 120.442642,23.471066,0.0</coordinates></LinearRing></outerBoundaryIs></Polygon><styleUrl>#spolygon-map</styleUrl></Placemark><Placemark><Polygon><outerBoundaryIs><LinearRing><coordinates>120.438104,23.470666,0.0 120.437051,23.470107,0.0 120.435667,23.469828,0.0 120.432354,23.469792,0.0 120.427882,23.464969,0.0 120.431004,23.464502,0.0 120.435132,23.465463,0.0 120.436967,23.467698,0.0 120.438276,23.469528,0.0 120.438104,23.470666,0.0</coordinates></LinearRing></outerBoundaryIs></Polygon><styleUrl>#spolygon-map</styleUrl></Placemark><Placemark><Polygon><outerBoundaryIs><LinearRing><coordinates>120.445117,23.470314,0.0 120.446175,23.468573,0.0 120.446445,23.470429,0.0 120.445117,23.470314,0.0</coordinates></LinearRing></outerBoundaryIs></Polygon><styleUrl>#spolygon-map</styleUrl></Placemark><Placemark><Polygon><outerBoundaryIs><LinearRing><coordinates>120.443962,23.470204,0.0 120.444162,23.46838,0.0 120.443962,23.470204,0.0</coordinates></LinearRing></outerBoundaryIs></Polygon><styleUrl>#spolygon-map</styleUrl></Placemark><Placemark><Polygon><outerBoundaryIs><LinearRing><coordinates>120.449625,23.468905,0.0 120.444449,23.468406,0.0 120.442952,23.466945,0.0 120.441003,23.466531,0.0 120.44409,23.461928,0.0 120.447684,23.460999,0.0 120.448633,23.461475,0.0 120.450315,23.462061,0.0 120.451336,23.46243,0.0 120.449625,23.468905,0.0</coordinates></LinearRing></outerBoundaryIs></Polygon><styleUrl>#spolygon-map</styleUrl></Placemark><Placemark><Polygon><outerBoundaryIs><LinearRing><coordinates>120.440054,23.467995,0.0 120.436412,23.467646,0.0 120.432543,23.46549,0.0 120.430429,23.463852,0.0 120.432856,23.46122,0.0 120.43404,23.461075,0.0 120.440228,23.466502,0.0 120.440054,23.467995,0.0</coordinates></LinearRing></outerBoundaryIs></Polygon><styleUrl>#spolygon-map</styleUrl></Placemark><Placemark><Polygon><outerBoundaryIs><LinearRing><coordinates>120.429984,23.463351,0.0 120.426205,23.463119,0.0 120.424784,23.460928,0.0 120.426029,23.460748,0.0 120.429433,23.459692,0.0 120.429867,23.455238,0.0 120.430325,23.452106,0.0 120.438109,23.457863,0.0 120.436521,23.461292,0.0 120.433273,23.46109,0.0 120.431034,23.462543,0.0 120.429984,23.463351,0.0</coordinates></LinearRing></outerBoundaryIs></Polygon><styleUrl>#spolygon-map</styleUrl></Placemark><Placemark><Polygon><outerBoundaryIs><LinearRing><coordinates>120.44409,23.461928,0.0 120.436928,23.459081,0.0 120.439497,23.45867,0.0 120.443053,23.459069,0.0 120.443441,23.458463,0.0 120.44371,23.457112,0.0 120.446495,23.458894,0.0 120.447012,23.460214,0.0 120.447684,23.460999,0.0 120.44409,23.461928,0.0</coordinates></LinearRing></outerBoundaryIs></Polygon><styleUrl>#spolygon-map</styleUrl></Placemark><Placemark><Polygon><outerBoundaryIs><LinearRing><coordinates>120.443475,23.458991,0.0 120.441683,23.458834,0.0 120.438936,23.458636,0.0 120.44013,23.456419,0.0 120.443686,23.457405,0.0 120.44346,23.458833,0.0 120.443475,23.458991,0.0</coordinates></LinearRing></outerBoundaryIs></Polygon><styleUrl>#spolygon-map</styleUrl></Placemark><Placemark><Polygon><outerBoundaryIs><LinearRing><coordinates>120.438109,23.457863,0.0 120.432834,23.45011,0.0 120.434449,23.45069,0.0 120.435038,23.449085,0.0 120.436051,23.448093,0.0 120.436407,23.447288,0.0 120.436883,23.446567,0.0 120.437665,23.446667,0.0 120.438536,23.445763,0.0 120.438247,23.444976,0.0 120.437071,23.444554,0.0 120.435946,23.444196,0.0 120.435846,23.443586,0.0 120.436339,23.443484,0.0 120.437077,23.4425,0.0 120.437902,23.441636,0.0 120.438364,23.441403,0.0 120.438703,23.441203,0.0 120.438809,23.440752,0.0 120.439093,23.440367,0.0 120.439549,23.439563,0.0 120.441113,23.440052,0.0 120.442731,23.440836,0.0 120.444666,23.44201,0.0 120.446597,23.443141,0.0 120.448396,23.443633,0.0 120.449623,23.443423,0.0 120.450283,23.444568,0.0 120.450814,23.446037,0.0 120.443515,23.455934,0.0 120.438109,23.457863,0.0</coordinates></LinearRing></outerBoundaryIs></Polygon><styleUrl>#spolygon-map</styleUrl></Placemark></Document>
</kml>
