<?xml version="1.0" encoding="UTF-8"?>
<kml xmlns="http://www.opengis.net/kml/2.2">
	<Document>
		<name>屏東縣車城鄉</name>
		<Style id="spolygon">
			<LabelStyle>
				<scale>0.0</scale>
			</LabelStyle>
			<LineStyle>
				<color>330030ff</color>
				<width>0</width>
			</LineStyle>
			<PolyStyle>
				<color>330030ff</color>
			</PolyStyle>
		</Style>
		<StyleMap id="spolygon-map">
			<Pair>
				<key>normal</key>
				<styleUrl>#spolygon</styleUrl>
			</Pair>
		</StyleMap>
	<Placemark><Polygon><outerBoundaryIs><LinearRing><coordinates>120.738166,22.101524,0.0 120.737682,22.10241,0.0 120.737363,22.102976,0.0 120.736925,22.10368,0.0 120.736927,22.104154,0.0 120.737338,22.104719,0.0 120.73728,22.105397,0.0 120.735271,22.104483,0.0 120.732342,22.099403,0.0 120.729897,22.095865,0.0 120.725643,22.092758,0.0 120.722233,22.086085,0.0 120.710623,22.081567,0.0 120.709871,22.081387,0.0 120.709103,22.082609,0.0 120.708944,22.083058,0.0 120.708011,22.082896,0.0 120.707355,22.081703,0.0 120.708757,22.080685,0.0 120.709756,22.075137,0.0 120.710076,22.07409,0.0 120.712798,22.07586,0.0 120.720051,22.077431,0.0 120.72438,22.082516,0.0 120.725093,22.083574,0.0 120.726257,22.087177,0.0 120.730676,22.089998,0.0 120.730873,22.093232,0.0 120.736451,22.095397,0.0 120.736614,22.099344,0.0 120.738166,22.101524,0.0</coordinates></LinearRing></outerBoundaryIs></Polygon><styleUrl>#spolygon-map</styleUrl></Placemark><Placemark><Polygon><outerBoundaryIs><LinearRing><coordinates>120.79304,22.099685,0.0 120.792781,22.100152,0.0 120.792074,22.100061,0.0 120.791062,22.099949,0.0 120.790392,22.100919,0.0 120.78989,22.101627,0.0 120.788921,22.10171,0.0 120.787969,22.102077,0.0 120.787131,22.102552,0.0 120.78635,22.103111,0.0 120.785505,22.103245,0.0 120.784267,22.103413,0.0 120.783181,22.10352,0.0 120.782568,22.103691,0.0 120.781972,22.104026,0.0 120.781336,22.103967,0.0 120.780665,22.103537,0.0 120.780171,22.101012,0.0 120.778248,22.097986,0.0 120.775512,22.094929,0.0 120.774224,22.091362,0.0 120.772588,22.088777,0.0 120.770616,22.086911,0.0 120.767927,22.084618,0.0 120.762531,22.083129,0.0 120.761207,22.078368,0.0 120.757737,22.073698,0.0 120.753178,22.073445,0.0 120.745988,22.07225,0.0 120.744612,22.067482,0.0 120.739775,22.067635,0.0 120.737687,22.069449,0.0 120.735572,22.06908,0.0 120.729984,22.068989,0.0 120.720449,22.067363,0.0 120.721334,22.054207,0.0 120.721898,22.054204,0.0 120.722447,22.053955,0.0 120.72286,22.053553,0.0 120.723342,22.053177,0.0 120.724007,22.052882,0.0 120.724917,22.052992,0.0 120.725782,22.053396,0.0 120.726735,22.053781,0.0 120.727228,22.053744,0.0 120.727621,22.053388,0.0 120.727436,22.052748,0.0 120.727368,22.052157,0.0 120.727828,22.051895,0.0 120.728268,22.051964,0.0 120.729008,22.051757,0.0 120.72959,22.051501,0.0 120.730211,22.051385,0.0 120.730943,22.051444,0.0 120.731556,22.051667,0.0 120.732137,22.051972,0.0 120.732785,22.05238,0.0 120.733273,22.052539,0.0 120.734163,22.052235,0.0 120.734823,22.051383,0.0 120.735836,22.050269,0.0 120.736687,22.049575,0.0 120.737272,22.049023,0.0 120.737626,22.04819,0.0 120.738164,22.04774,0.0 120.73865,22.047675,0.0 120.739261,22.047967,0.0 120.739852,22.048189,0.0 120.740472,22.048312,0.0 120.741281,22.048169,0.0 120.741923,22.048141,0.0 120.742535,22.048106,0.0 120.743177,22.047926,0.0 120.743621,22.048082,0.0 120.74327,22.049003,0.0 120.743273,22.049726,0.0 120.744214,22.049842,0.0 120.745302,22.049462,0.0 120.746189,22.049303,0.0 120.74704,22.049722,0.0 120.747709,22.050552,0.0 120.748104,22.051456,0.0 120.748533,22.052452,0.0 120.749049,22.053164,0.0 120.749779,22.0538,0.0 120.750311,22.054449,0.0 120.750387,22.055,0.0 120.750086,22.055988,0.0 120.750121,22.057117,0.0 120.750307,22.058231,0.0 120.75079,22.058884,0.0 120.751633,22.059362,0.0 120.752572,22.059704,0.0 120.753009,22.0604,0.0 120.753049,22.060981,0.0 120.753253,22.062306,0.0 120.754057,22.062511,0.0 120.755581,22.062161,0.0 120.757085,22.061707,0.0 120.758349,22.061375,0.0 120.759361,22.061128,0.0 120.760374,22.06091,0.0 120.761557,22.061057,0.0 120.76263,22.061083,0.0 120.763598,22.061586,0.0 120.764501,22.061883,0.0 120.765335,22.061529,0.0 120.766247,22.061192,0.0 120.767041,22.060495,0.0 120.768048,22.060111,0.0 120.769006,22.059904,0.0 120.769978,22.059761,0.0 120.771118,22.060185,0.0 120.772196,22.0605,0.0 120.773147,22.060511,0.0 120.773099,22.059924,0.0 120.772645,22.059349,0.0 120.772039,22.058868,0.0 120.771208,22.058135,0.0 120.77065,22.05738,0.0 120.770274,22.056718,0.0 120.770772,22.056021,0.0 120.771235,22.055579,0.0 120.771979,22.055368,0.0 120.772543,22.054946,0.0 120.773159,22.054925,0.0 120.773972,22.054869,0.0 120.775064,22.054923,0.0 120.776223,22.054971,0.0 120.77666,22.054792,0.0 120.777183,22.053862,0.0 120.777785,22.053089,0.0 120.778797,22.053033,0.0 120.779726,22.052843,0.0 120.780879,22.052366,0.0 120.781907,22.051769,0.0 120.78275,22.051334,0.0 120.783444,22.051105,0.0 120.784157,22.050661,0.0 120.784671,22.050483,0.0 120.785332,22.051215,0.0 120.785657,22.051769,0.0 120.786001,22.052359,0.0 120.786076,22.052991,0.0 120.785949,22.053657,0.0 120.78593,22.054163,0.0 120.786046,22.054669,0.0 120.786214,22.055231,0.0 120.786446,22.055841,0.0 120.786659,22.05646,0.0 120.786967,22.057011,0.0 120.787308,22.057793,0.0 120.787648,22.058451,0.0 120.788048,22.058984,0.0 120.788588,22.059391,0.0 120.788964,22.059938,0.0 120.789407,22.060304,0.0 120.789859,22.060851,0.0 120.790268,22.061376,0.0 120.790428,22.062044,0.0 120.790672,22.062867,0.0 120.791483,22.063479,0.0 120.791951,22.064013,0.0 120.792128,22.064702,0.0 120.792543,22.065208,0.0 120.793067,22.065737,0.0 120.793409,22.066334,0.0 120.7938,22.066833,0.0 120.794236,22.06734,0.0 120.794574,22.06797,0.0 120.794851,22.068605,0.0 120.795178,22.069188,0.0 120.79546,22.069798,0.0 120.795257,22.070333,0.0 120.794946,22.071199,0.0 120.79472,22.071838,0.0 120.794441,22.072709,0.0 120.794302,22.073262,0.0 120.794414,22.074003,0.0 120.794169,22.074554,0.0 120.794236,22.075254,0.0 120.794749,22.075907,0.0 120.794842,22.076492,0.0 120.794785,22.077417,0.0 120.794653,22.078171,0.0 120.794644,22.078725,0.0 120.79483,22.079339,0.0 120.794771,22.079951,0.0 120.794463,22.080456,0.0 120.794074,22.081201,0.0 120.793776,22.081803,0.0 120.793845,22.082456,0.0 120.793796,22.083126,0.0 120.793664,22.083987,0.0 120.793752,22.08475,0.0 120.79429,22.085182,0.0 120.794797,22.085645,0.0 120.795477,22.086168,0.0 120.795595,22.08659,0.0 120.795159,22.087224,0.0 120.794748,22.08779,0.0 120.7943,22.088435,0.0 120.793878,22.089015,0.0 120.793514,22.089584,0.0 120.793753,22.090237,0.0 120.793524,22.091153,0.0 120.793015,22.091963,0.0 120.792977,22.093175,0.0 120.793175,22.094359,0.0 120.793386,22.095217,0.0 120.793561,22.095748,0.0 120.793365,22.096222,0.0 120.793076,22.096804,0.0 120.793051,22.097527,0.0 120.793075,22.098378,0.0 120.792984,22.099283,0.0 120.79304,22.099685,0.0</coordinates></LinearRing></outerBoundaryIs></Polygon><styleUrl>#spolygon-map</styleUrl></Placemark><Placemark><Polygon><outerBoundaryIs><LinearRing><coordinates>120.701739,22.055133,0.0 120.69874,22.055918,0.0 120.695624,22.051209,0.0 120.694917,22.048408,0.0 120.695435,22.046056,0.0 120.695807,22.043491,0.0 120.697009,22.043866,0.0 120.698029,22.042518,0.0 120.696786,22.040829,0.0 120.695374,22.041899,0.0 120.694059,22.039885,0.0 120.690685,22.037207,0.0 120.687517,22.033286,0.0 120.686123,22.029133,0.0 120.685961,22.024947,0.0 120.687282,22.020824,0.0 120.687932,22.019809,0.0 120.688379,22.019038,0.0 120.688938,22.017086,0.0 120.690192,22.014629,0.0 120.691165,22.013071,0.0 120.692603,22.011908,0.0 120.69267,22.009718,0.0 120.69367,22.01002,0.0 120.694625,22.010131,0.0 120.695782,22.009939,0.0 120.697099,22.009805,0.0 120.698106,22.009861,0.0 120.698296,22.010539,0.0 120.698192,22.011519,0.0 120.697917,22.012356,0.0 120.69736,22.013437,0.0 120.69692,22.014242,0.0 120.696229,22.015169,0.0 120.695548,22.016111,0.0 120.694923,22.017054,0.0 120.694455,22.017852,0.0 120.693765,22.018788,0.0 120.693293,22.019598,0.0 120.693013,22.020442,0.0 120.692951,22.020972,0.0 120.692657,22.021877,0.0 120.692374,22.022753,0.0 120.692124,22.023477,0.0 120.691696,22.024289,0.0 120.69138,22.025047,0.0 120.69092,22.025588,0.0 120.690931,22.02608,0.0 120.691092,22.026722,0.0 120.69128,22.027298,0.0 120.691012,22.027799,0.0 120.690712,22.02848,0.0 120.690583,22.029218,0.0 120.690639,22.029921,0.0 120.690737,22.030526,0.0 120.690805,22.031459,0.0 120.690943,22.032102,0.0 120.691326,22.032611,0.0 120.69179,22.033188,0.0 120.692081,22.033674,0.0 120.692462,22.034304,0.0 120.692768,22.034867,0.0 120.692776,22.035709,0.0 120.693294,22.035896,0.0 120.693912,22.035542,0.0 120.694352,22.034958,0.0 120.694686,22.034297,0.0 120.695347,22.034122,0.0 120.696003,22.034124,0.0 120.696663,22.033971,0.0 120.697401,22.033661,0.0 120.698073,22.033595,0.0 120.698704,22.033661,0.0 120.699296,22.033721,0.0 120.699945,22.033903,0.0 120.70068,22.034584,0.0 120.7013,22.035032,0.0 120.701696,22.035602,0.0 120.701796,22.036311,0.0 120.702145,22.037097,0.0 120.702424,22.037762,0.0 120.702996,22.038594,0.0 120.703322,22.039229,0.0 120.70384,22.039792,0.0 120.704435,22.040057,0.0 120.705115,22.040361,0.0 120.705658,22.040782,0.0 120.705736,22.041602,0.0 120.705689,22.042283,0.0 120.705766,22.042954,0.0 120.705691,22.043869,0.0 120.70189,22.04791,0.0 120.701368,22.05385,0.0 120.701739,22.055133,0.0</coordinates></LinearRing></outerBoundaryIs></Polygon><styleUrl>#spolygon-map</styleUrl></Placemark><Placemark><Polygon><outerBoundaryIs><LinearRing><coordinates>120.708563,22.057252,0.0 120.709831,22.05503,0.0 120.710439,22.052272,0.0 120.711242,22.049724,0.0 120.711175,22.048866,0.0 120.71173,22.048192,0.0 120.712015,22.048798,0.0 120.712518,22.049433,0.0 120.713274,22.049653,0.0 120.713879,22.04983,0.0 120.714528,22.049655,0.0 120.715036,22.050115,0.0 120.715843,22.050615,0.0 120.716358,22.050203,0.0 120.716788,22.04986,0.0 120.717376,22.050017,0.0 120.718074,22.050109,0.0 120.718777,22.050144,0.0 120.719075,22.050528,0.0 120.719481,22.051064,0.0 120.719731,22.051566,0.0 120.719639,22.052175,0.0 120.719378,22.052798,0.0 120.718976,22.053192,0.0 120.718261,22.053385,0.0 120.717562,22.053506,0.0 120.714313,22.053801,0.0 120.714353,22.056251,0.0 120.711559,22.057826,0.0 120.708563,22.057252,0.0</coordinates></LinearRing></outerBoundaryIs></Polygon><styleUrl>#spolygon-map</styleUrl></Placemark><Placemark><Polygon><outerBoundaryIs><LinearRing><coordinates>120.704663,22.055503,0.0 120.702812,22.055734,0.0 120.701799,22.054828,0.0 120.70134,22.048878,0.0 120.705047,22.044001,0.0 120.705823,22.044316,0.0 120.706393,22.04468,0.0 120.707052,22.045004,0.0 120.707648,22.045274,0.0 120.708425,22.045549,0.0 120.709148,22.045704,0.0 120.709875,22.046044,0.0 120.710498,22.046456,0.0 120.71113,22.047021,0.0 120.711625,22.04758,0.0 120.711679,22.048074,0.0 120.711198,22.04911,0.0 120.71134,22.050759,0.0 120.710301,22.052692,0.0 120.709626,22.055479,0.0 120.706699,22.056546,0.0 120.704663,22.055503,0.0</coordinates></LinearRing></outerBoundaryIs></Polygon><styleUrl>#spolygon-map</styleUrl></Placemark><Placemark><Polygon><outerBoundaryIs><LinearRing><coordinates>120.700296,22.142566,0.0 120.699796,22.142165,0.0 120.699275,22.142124,0.0 120.698779,22.142529,0.0 120.698091,22.142451,0.0 120.69899,22.139195,0.0 120.702432,22.13828,0.0 120.70323,22.136037,0.0 120.702364,22.131628,0.0 120.705105,22.129194,0.0 120.70859,22.125437,0.0 120.70993,22.124041,0.0 120.709449,22.121437,0.0 120.709738,22.121241,0.0 120.709652,22.119245,0.0 120.710741,22.117698,0.0 120.710533,22.116727,0.0 120.709664,22.116025,0.0 120.711352,22.114658,0.0 120.712163,22.114578,0.0 120.712246,22.114002,0.0 120.712236,22.113682,0.0 120.712733,22.113154,0.0 120.713152,22.112459,0.0 120.713035,22.111863,0.0 120.712974,22.110917,0.0 120.712984,22.109883,0.0 120.71347,22.10859,0.0 120.715764,22.105997,0.0 120.716057,22.105199,0.0 120.715709,22.104252,0.0 120.715519,22.102233,0.0 120.715584,22.101382,0.0 120.715656,22.100657,0.0 120.715706,22.099226,0.0 120.71577,22.097767,0.0 120.717004,22.095419,0.0 120.716892,22.093337,0.0 120.715594,22.091519,0.0 120.714115,22.090781,0.0 120.712966,22.090914,0.0 120.709326,22.089015,0.0 120.70555,22.087114,0.0 120.702287,22.086668,0.0 120.699827,22.084207,0.0 120.700814,22.081316,0.0 120.703009,22.08039,0.0 120.703937,22.079827,0.0 120.705363,22.079776,0.0 120.706044,22.080328,0.0 120.706389,22.080898,0.0 120.706964,22.081147,0.0 120.707205,22.082175,0.0 120.708557,22.083103,0.0 120.708959,22.083011,0.0 120.709443,22.082269,0.0 120.710031,22.081333,0.0 120.71177,22.082061,0.0 120.723703,22.087058,0.0 120.72645,22.093188,0.0 120.730788,22.097626,0.0 120.732616,22.10055,0.0 120.736223,22.105203,0.0 120.737307,22.106135,0.0 120.737666,22.106772,0.0 120.737889,22.107303,0.0 120.738078,22.108252,0.0 120.738198,22.109011,0.0 120.73811,22.109771,0.0 120.738266,22.110616,0.0 120.738279,22.1114,0.0 120.738063,22.112032,0.0 120.73785,22.11286,0.0 120.737426,22.113778,0.0 120.737033,22.114475,0.0 120.736628,22.115256,0.0 120.736336,22.116089,0.0 120.736191,22.117138,0.0 120.736079,22.118165,0.0 120.735504,22.118178,0.0 120.734671,22.118016,0.0 120.73394,22.117934,0.0 120.733168,22.117973,0.0 120.732552,22.118049,0.0 120.731873,22.118012,0.0 120.73119,22.117593,0.0 120.730838,22.11708,0.0 120.729874,22.116647,0.0 120.728724,22.116196,0.0 120.727826,22.116084,0.0 120.726812,22.115992,0.0 120.725858,22.115818,0.0 120.724898,22.115864,0.0 120.723942,22.115863,0.0 120.723158,22.11552,0.0 120.722465,22.115004,0.0 120.7221,22.114403,0.0 120.721814,22.113818,0.0 120.721453,22.113212,0.0 120.720994,22.112922,0.0 120.72046,22.113136,0.0 120.719732,22.112882,0.0 120.719029,22.112526,0.0 120.718674,22.112076,0.0 120.717882,22.111955,0.0 120.717186,22.111692,0.0 120.716503,22.111345,0.0 120.715625,22.111542,0.0 120.715391,22.112326,0.0 120.715797,22.113198,0.0 120.716348,22.114106,0.0 120.716975,22.114792,0.0 120.717299,22.115264,0.0 120.717582,22.116001,0.0 120.717766,22.116816,0.0 120.717935,22.117645,0.0 120.718086,22.11844,0.0 120.718229,22.119341,0.0 120.718284,22.120236,0.0 120.718416,22.121012,0.0 120.718335,22.12183,0.0 120.718062,22.122464,0.0 120.717816,22.123021,0.0 120.717216,22.123533,0.0 120.716359,22.124007,0.0 120.715516,22.12455,0.0 120.714794,22.12514,0.0 120.714214,22.12588,0.0 120.71365,22.126642,0.0 120.712936,22.127452,0.0 120.712416,22.12804,0.0 120.712023,22.128552,0.0 120.711485,22.129192,0.0 120.710855,22.129848,0.0 120.710322,22.130427,0.0 120.709774,22.131002,0.0 120.709113,22.131644,0.0 120.708653,22.132154,0.0 120.708296,22.132835,0.0 120.708018,22.133435,0.0 120.707602,22.134164,0.0 120.707175,22.13484,0.0 120.70694,22.135488,0.0 120.706559,22.136309,0.0 120.706105,22.137236,0.0 120.70559,22.138346,0.0 120.705184,22.139276,0.0 120.704858,22.139959,0.0 120.704599,22.140661,0.0 120.704321,22.141483,0.0 120.704014,22.142028,0.0 120.703824,22.142588,0.0 120.703292,22.142677,0.0 120.702393,22.142407,0.0 120.701803,22.142607,0.0 120.701073,22.142536,0.0 120.700296,22.142566,0.0</coordinates></LinearRing></outerBoundaryIs></Polygon><styleUrl>#spolygon-map</styleUrl></Placemark><Placemark><Polygon><outerBoundaryIs><LinearRing><coordinates>120.720402,22.07761,0.0 120.720701,22.06733,0.0 120.730399,22.068947,0.0 120.736398,22.069359,0.0 120.736677,22.071378,0.0 120.735787,22.074892,0.0 120.734343,22.081973,0.0 120.733841,22.089868,0.0 120.733229,22.09387,0.0 120.731067,22.0923,0.0 120.729803,22.089466,0.0 120.725733,22.086305,0.0 120.724976,22.082951,0.0 120.723973,22.081068,0.0 120.720402,22.07761,0.0</coordinates></LinearRing></outerBoundaryIs></Polygon><styleUrl>#spolygon-map</styleUrl></Placemark><Placemark><Polygon><outerBoundaryIs><LinearRing><coordinates>120.719236,22.067783,0.0 120.714789,22.068189,0.0 120.707484,22.06414,0.0 120.706779,22.0629,0.0 120.706522,22.060243,0.0 120.704752,22.056658,0.0 120.703833,22.056346,0.0 120.704014,22.055993,0.0 120.704621,22.055729,0.0 120.706699,22.056546,0.0 120.712137,22.057714,0.0 120.714571,22.056109,0.0 120.714569,22.053672,0.0 120.717551,22.053729,0.0 120.717524,22.054382,0.0 120.71811,22.054496,0.0 120.71883,22.054393,0.0 120.719625,22.054243,0.0 120.720337,22.054134,0.0 120.721211,22.054131,0.0 120.719236,22.067783,0.0</coordinates></LinearRing></outerBoundaryIs></Polygon><styleUrl>#spolygon-map</styleUrl></Placemark><Placemark><Polygon><outerBoundaryIs><LinearRing><coordinates>120.780593,22.103547,0.0 120.780303,22.104141,0.0 120.780031,22.104949,0.0 120.779781,22.105717,0.0 120.779351,22.105847,0.0 120.778624,22.105684,0.0 120.777921,22.10575,0.0 120.777175,22.106011,0.0 120.776592,22.106135,0.0 120.776037,22.106328,0.0 120.775381,22.106736,0.0 120.774657,22.107207,0.0 120.773938,22.107648,0.0 120.773026,22.107898,0.0 120.772175,22.10828,0.0 120.771414,22.108647,0.0 120.770624,22.108856,0.0 120.769675,22.108792,0.0 120.768964,22.108576,0.0 120.768333,22.108663,0.0 120.767626,22.108985,0.0 120.766898,22.109246,0.0 120.766157,22.109435,0.0 120.765429,22.109637,0.0 120.764683,22.110108,0.0 120.763926,22.11063,0.0 120.763133,22.111009,0.0 120.762372,22.111254,0.0 120.761888,22.111456,0.0 120.761274,22.111686,0.0 120.760575,22.111958,0.0 120.759966,22.112106,0.0 120.75931,22.112202,0.0 120.758627,22.11233,0.0 120.757881,22.112446,0.0 120.757164,22.112571,0.0 120.756159,22.112787,0.0 120.755225,22.112711,0.0 120.754362,22.112599,0.0 120.754366,22.111921,0.0 120.754724,22.111168,0.0 120.754982,22.110306,0.0 120.754868,22.109734,0.0 120.754441,22.109171,0.0 120.754059,22.108466,0.0 120.753835,22.107856,0.0 120.753322,22.107591,0.0 120.752538,22.106967,0.0 120.752047,22.106447,0.0 120.751623,22.105841,0.0 120.751081,22.105179,0.0 120.750885,22.104485,0.0 120.750939,22.103788,0.0 120.750302,22.103378,0.0 120.749781,22.102865,0.0 120.749269,22.102261,0.0 120.748898,22.101766,0.0 120.748666,22.100942,0.0 120.748588,22.100199,0.0 120.748465,22.099546,0.0 120.748224,22.098909,0.0 120.748479,22.098272,0.0 120.747975,22.098062,0.0 120.747225,22.098587,0.0 120.746189,22.098124,0.0 120.745379,22.097527,0.0 120.745295,22.096996,0.0 120.744914,22.097192,0.0 120.744153,22.097638,0.0 120.743592,22.098102,0.0 120.743081,22.09858,0.0 120.742123,22.099184,0.0 120.741182,22.099483,0.0 120.740473,22.099502,0.0 120.73965,22.099537,0.0 120.739191,22.099922,0.0 120.738794,22.100418,0.0 120.738339,22.101144,0.0 120.736818,22.099898,0.0 120.73661,22.095625,0.0 120.733861,22.093067,0.0 120.733503,22.085602,0.0 120.734606,22.081657,0.0 120.736297,22.073831,0.0 120.736838,22.070732,0.0 120.738163,22.068619,0.0 120.740579,22.067746,0.0 120.744839,22.069562,0.0 120.748332,22.073437,0.0 120.755154,22.072775,0.0 120.75836,22.075211,0.0 120.76246,22.080783,0.0 120.764581,22.084609,0.0 120.768881,22.084942,0.0 120.771651,22.088026,0.0 120.773257,22.089376,0.0 120.774953,22.092761,0.0 120.77641,22.095739,0.0 120.778692,22.099569,0.0 120.780592,22.102446,0.0 120.780593,22.103547,0.0</coordinates></LinearRing></outerBoundaryIs></Polygon><styleUrl>#spolygon-map</styleUrl></Placemark><Placemark><Polygon><outerBoundaryIs><LinearRing><coordinates>120.707372,22.081642,0.0 120.706701,22.081144,0.0 120.706089,22.080651,0.0 120.705898,22.080088,0.0 120.704551,22.079738,0.0 120.703812,22.079947,0.0 120.702847,22.080322,0.0 120.70339,22.07825,0.0 120.704916,22.073918,0.0 120.706661,22.068373,0.0 120.707038,22.063891,0.0 120.71345,22.067963,0.0 120.713679,22.070559,0.0 120.712431,22.072439,0.0 120.710936,22.07455,0.0 120.709785,22.073605,0.0 120.709911,22.076297,0.0 120.70857,22.0808,0.0 120.707372,22.081642,0.0</coordinates></LinearRing></outerBoundaryIs></Polygon><styleUrl>#spolygon-map</styleUrl></Placemark><Placemark><Polygon><outerBoundaryIs><LinearRing><coordinates>120.710738,22.074661,0.0 120.711371,22.073375,0.0 120.712612,22.072248,0.0 120.713834,22.070308,0.0 120.716069,22.068537,0.0 120.719924,22.070862,0.0 120.715623,22.075768,0.0 120.711255,22.075097,0.0 120.710738,22.074661,0.0</coordinates></LinearRing></outerBoundaryIs></Polygon><styleUrl>#spolygon-map</styleUrl></Placemark></Document>
</kml>
