<?xml version="1.0" encoding="UTF-8"?>
<kml xmlns="http://www.opengis.net/kml/2.2">
	<Document>
		<name>屏東縣潮州鎮</name>
		<Style id="spolygon">
			<LabelStyle>
				<scale>0.0</scale>
			</LabelStyle>
			<LineStyle>
				<color>330030ff</color>
				<width>0</width>
			</LineStyle>
			<PolyStyle>
				<color>330030ff</color>
			</PolyStyle>
		</Style>
		<StyleMap id="spolygon-map">
			<Pair>
				<key>normal</key>
				<styleUrl>#spolygon</styleUrl>
			</Pair>
		</StyleMap>
	<Placemark><Polygon><outerBoundaryIs><LinearRing><coordinates>120.538399,22.540765,0.0 120.533689,22.533326,0.0 120.525699,22.524147,0.0 120.525873,22.523549,0.0 120.525936,22.522863,0.0 120.526027,22.521954,0.0 120.533298,22.522253,0.0 120.548873,22.523229,0.0 120.549779,22.526059,0.0 120.546099,22.532436,0.0 120.538399,22.540765,0.0</coordinates></LinearRing></outerBoundaryIs></Polygon><styleUrl>#spolygon-map</styleUrl></Placemark><Placemark><Polygon><outerBoundaryIs><LinearRing><coordinates>120.544636,22.551245,0.0 120.543351,22.550345,0.0 120.542657,22.549874,0.0 120.541701,22.548713,0.0 120.541841,22.547411,0.0 120.541582,22.545267,0.0 120.54221,22.543248,0.0 120.541688,22.542504,0.0 120.544865,22.540526,0.0 120.547244,22.54583,0.0 120.548362,22.546792,0.0 120.548675,22.547755,0.0 120.548458,22.548542,0.0 120.548762,22.550424,0.0 120.544636,22.551245,0.0</coordinates></LinearRing></outerBoundaryIs></Polygon><styleUrl>#spolygon-map</styleUrl></Placemark><Placemark><Polygon><outerBoundaryIs><LinearRing><coordinates>120.541735,22.550016,0.0 120.540347,22.551296,0.0 120.540207,22.54874,0.0 120.541873,22.546397,0.0 120.541706,22.548126,0.0 120.541735,22.550016,0.0</coordinates></LinearRing></outerBoundaryIs></Polygon><styleUrl>#spolygon-map</styleUrl></Placemark><Placemark><Polygon><outerBoundaryIs><LinearRing><coordinates>120.55365,22.564352,0.0 120.556178,22.558423,0.0 120.556797,22.547504,0.0 120.557909,22.546451,0.0 120.558199,22.545923,0.0 120.558549,22.545161,0.0 120.559153,22.544364,0.0 120.559058,22.543453,0.0 120.559094,22.542476,0.0 120.560059,22.541971,0.0 120.561694,22.541774,0.0 120.566189,22.540165,0.0 120.589334,22.529066,0.0 120.594223,22.52598,0.0 120.600035,22.526878,0.0 120.600979,22.529224,0.0 120.60161,22.530781,0.0 120.602359,22.532654,0.0 120.602851,22.53371,0.0 120.603333,22.534558,0.0 120.603534,22.535369,0.0 120.57602,22.547579,0.0 120.569176,22.552096,0.0 120.568549,22.553926,0.0 120.567794,22.554059,0.0 120.567213,22.554189,0.0 120.566648,22.554451,0.0 120.566252,22.554773,0.0 120.565628,22.554905,0.0 120.564904,22.554907,0.0 120.564437,22.5551,0.0 120.564013,22.555483,0.0 120.563999,22.5559,0.0 120.563695,22.556356,0.0 120.563359,22.556881,0.0 120.56323,22.557355,0.0 120.562725,22.55766,0.0 120.56223,22.558063,0.0 120.561725,22.558357,0.0 120.560993,22.558534,0.0 120.560391,22.558749,0.0 120.559834,22.559127,0.0 120.55929,22.559315,0.0 120.558819,22.559203,0.0 120.558282,22.5594,0.0 120.55793,22.559699,0.0 120.557165,22.559523,0.0 120.556472,22.559946,0.0 120.555972,22.560532,0.0 120.555274,22.561038,0.0 120.554994,22.561615,0.0 120.555179,22.56267,0.0 120.555426,22.563431,0.0 120.555032,22.56397,0.0 120.554424,22.56407,0.0 120.55365,22.564352,0.0</coordinates></LinearRing></outerBoundaryIs></Polygon><styleUrl>#spolygon-map</styleUrl></Placemark><Placemark><Polygon><outerBoundaryIs><LinearRing><coordinates>120.559135,22.542282,0.0 120.554699,22.536763,0.0 120.55422,22.532266,0.0 120.556346,22.531886,0.0 120.559784,22.532675,0.0 120.568216,22.526315,0.0 120.569929,22.524554,0.0 120.575777,22.513763,0.0 120.577501,22.514204,0.0 120.579363,22.514683,0.0 120.580861,22.51507,0.0 120.582241,22.515431,0.0 120.581723,22.51631,0.0 120.582014,22.516886,0.0 120.583664,22.517378,0.0 120.586631,22.518314,0.0 120.588377,22.518738,0.0 120.589604,22.517522,0.0 120.592384,22.518405,0.0 120.594005,22.518933,0.0 120.596242,22.519628,0.0 120.598118,22.520134,0.0 120.599624,22.520487,0.0 120.601138,22.52085,0.0 120.602043,22.521131,0.0 120.602829,22.521053,0.0 120.603734,22.521071,0.0 120.604597,22.522658,0.0 120.605174,22.523944,0.0 120.60547,22.524927,0.0 120.604044,22.525077,0.0 120.602391,22.525224,0.0 120.600677,22.525391,0.0 120.599266,22.52542,0.0 120.589704,22.528891,0.0 120.569233,22.538491,0.0 120.561914,22.541809,0.0 120.560215,22.54191,0.0 120.559135,22.542282,0.0</coordinates></LinearRing></outerBoundaryIs></Polygon><styleUrl>#spolygon-map</styleUrl></Placemark><Placemark><Polygon><outerBoundaryIs><LinearRing><coordinates>120.542084,22.540586,0.0 120.545181,22.537201,0.0 120.542084,22.540586,0.0</coordinates></LinearRing></outerBoundaryIs></Polygon><styleUrl>#spolygon-map</styleUrl></Placemark><Placemark><Polygon><outerBoundaryIs><LinearRing><coordinates>120.547935,22.5407,0.0 120.545181,22.537201,0.0 120.551763,22.528634,0.0 120.554166,22.532937,0.0 120.557652,22.53809,0.0 120.555998,22.538801,0.0 120.554008,22.539337,0.0 120.552842,22.539652,0.0 120.55259,22.542304,0.0 120.548503,22.541153,0.0 120.547935,22.5407,0.0</coordinates></LinearRing></outerBoundaryIs></Polygon><styleUrl>#spolygon-map</styleUrl></Placemark><Placemark><Polygon><outerBoundaryIs><LinearRing><coordinates>120.53657,22.553963,0.0 120.538517,22.549489,0.0 120.539553,22.552256,0.0 120.53657,22.553963,0.0</coordinates></LinearRing></outerBoundaryIs></Polygon><styleUrl>#spolygon-map</styleUrl></Placemark><Placemark><Polygon><outerBoundaryIs><LinearRing><coordinates>120.540042,22.549514,0.0 120.535986,22.547893,0.0 120.540133,22.548054,0.0 120.540042,22.549514,0.0</coordinates></LinearRing></outerBoundaryIs></Polygon><styleUrl>#spolygon-map</styleUrl></Placemark><Placemark><Polygon><outerBoundaryIs><LinearRing><coordinates>120.540224,22.55145,0.0 120.541804,22.5504,0.0 120.54275,22.550249,0.0 120.544525,22.550739,0.0 120.544653,22.55155,0.0 120.541219,22.552873,0.0 120.540224,22.55145,0.0</coordinates></LinearRing></outerBoundaryIs></Polygon><styleUrl>#spolygon-map</styleUrl></Placemark><Placemark><Polygon><outerBoundaryIs><LinearRing><coordinates>120.536839,22.55561,0.0 120.529135,22.556014,0.0 120.528331,22.556168,0.0 120.527772,22.556636,0.0 120.527112,22.556954,0.0 120.525083,22.556443,0.0 120.523665,22.556278,0.0 120.523219,22.556552,0.0 120.52233,22.556595,0.0 120.522171,22.556341,0.0 120.521649,22.555701,0.0 120.521733,22.555087,0.0 120.521031,22.554412,0.0 120.520952,22.553789,0.0 120.519972,22.553436,0.0 120.519482,22.552913,0.0 120.518974,22.552575,0.0 120.518284,22.552336,0.0 120.517374,22.552374,0.0 120.516643,22.552667,0.0 120.516067,22.553212,0.0 120.515887,22.5539,0.0 120.515888,22.555173,0.0 120.515933,22.555932,0.0 120.515948,22.557158,0.0 120.515212,22.557522,0.0 120.514486,22.557815,0.0 120.513866,22.557883,0.0 120.513116,22.557872,0.0 120.512381,22.557757,0.0 120.511938,22.557629,0.0 120.511353,22.557291,0.0 120.510838,22.556849,0.0 120.510286,22.55631,0.0 120.509519,22.555371,0.0 120.509201,22.554803,0.0 120.509069,22.554177,0.0 120.509153,22.55355,0.0 120.509336,22.55276,0.0 120.509505,22.552183,0.0 120.509486,22.551494,0.0 120.509897,22.551166,0.0 120.510153,22.550503,0.0 120.510109,22.549685,0.0 120.509584,22.548781,0.0 120.509076,22.548217,0.0 120.508433,22.54749,0.0 120.508586,22.546863,0.0 120.508925,22.546733,0.0 120.509463,22.546638,0.0 120.509948,22.54645,0.0 120.510861,22.54633,0.0 120.511491,22.546174,0.0 120.512406,22.546136,0.0 120.513435,22.546112,0.0 120.514082,22.545904,0.0 120.514824,22.545839,0.0 120.516139,22.545746,0.0 120.51717,22.545706,0.0 120.517856,22.545751,0.0 120.518543,22.545995,0.0 120.519406,22.546514,0.0 120.51978,22.547057,0.0 120.520154,22.547514,0.0 120.520636,22.547295,0.0 120.521475,22.547046,0.0 120.522209,22.546922,0.0 120.523355,22.546861,0.0 120.531295,22.547134,0.0 120.536149,22.549476,0.0 120.536839,22.55561,0.0</coordinates></LinearRing></outerBoundaryIs></Polygon><styleUrl>#spolygon-map</styleUrl></Placemark><Placemark><Polygon><outerBoundaryIs><LinearRing><coordinates>120.545192,22.522786,0.0 120.532134,22.522443,0.0 120.525895,22.521764,0.0 120.525174,22.521689,0.0 120.524759,22.521494,0.0 120.524817,22.520896,0.0 120.524927,22.520095,0.0 120.525064,22.519194,0.0 120.524772,22.518665,0.0 120.523448,22.518512,0.0 120.523506,22.517878,0.0 120.523601,22.517009,0.0 120.523741,22.516413,0.0 120.523806,22.515571,0.0 120.523996,22.514874,0.0 120.524207,22.514401,0.0 120.524779,22.514502,0.0 120.525341,22.51446,0.0 120.525583,22.51405,0.0 120.525754,22.513319,0.0 120.526132,22.512984,0.0 120.526162,22.512246,0.0 120.52615,22.511665,0.0 120.526211,22.511047,0.0 120.526742,22.511026,0.0 120.527518,22.511112,0.0 120.528153,22.511154,0.0 120.529195,22.511333,0.0 120.529414,22.510948,0.0 120.529518,22.510361,0.0 120.535258,22.511098,0.0 120.539016,22.509587,0.0 120.539778,22.510145,0.0 120.540275,22.510614,0.0 120.5412,22.510567,0.0 120.542096,22.51061,0.0 120.542965,22.510982,0.0 120.543793,22.51075,0.0 120.544889,22.510873,0.0 120.545669,22.510884,0.0 120.546261,22.510673,0.0 120.546707,22.509997,0.0 120.54727,22.509412,0.0 120.547993,22.509328,0.0 120.545192,22.522786,0.0</coordinates></LinearRing></outerBoundaryIs></Polygon><styleUrl>#spolygon-map</styleUrl></Placemark><Placemark><Polygon><outerBoundaryIs><LinearRing><coordinates>120.538992,22.509579,0.0 120.534748,22.511029,0.0 120.529532,22.509935,0.0 120.529372,22.509205,0.0 120.529531,22.508309,0.0 120.529722,22.507811,0.0 120.529955,22.507156,0.0 120.530102,22.506385,0.0 120.530106,22.505283,0.0 120.529869,22.504643,0.0 120.529741,22.504121,0.0 120.529956,22.503598,0.0 120.530314,22.504198,0.0 120.530951,22.505103,0.0 120.531851,22.506324,0.0 120.532448,22.507141,0.0 120.532937,22.507599,0.0 120.533504,22.507964,0.0 120.534324,22.508172,0.0 120.535892,22.508616,0.0 120.53708,22.50901,0.0 120.538461,22.509421,0.0 120.538992,22.509579,0.0</coordinates></LinearRing></outerBoundaryIs></Polygon><styleUrl>#spolygon-map</styleUrl></Placemark><Placemark><Polygon><outerBoundaryIs><LinearRing><coordinates>120.554246,22.531591,0.0 120.549775,22.526041,0.0 120.545858,22.522851,0.0 120.548184,22.514698,0.0 120.548989,22.509308,0.0 120.550434,22.509233,0.0 120.551476,22.509171,0.0 120.552739,22.509109,0.0 120.553786,22.509046,0.0 120.554646,22.509015,0.0 120.555562,22.508972,0.0 120.556411,22.508997,0.0 120.557677,22.5095,0.0 120.55869,22.509785,0.0 120.560051,22.510066,0.0 120.561345,22.510329,0.0 120.562866,22.510613,0.0 120.564761,22.510966,0.0 120.567284,22.511431,0.0 120.568959,22.511745,0.0 120.569539,22.512126,0.0 120.570899,22.512507,0.0 120.573901,22.513278,0.0 120.573894,22.516301,0.0 120.569902,22.525204,0.0 120.560434,22.532742,0.0 120.557946,22.531958,0.0 120.554433,22.531682,0.0 120.554246,22.531591,0.0</coordinates></LinearRing></outerBoundaryIs></Polygon><styleUrl>#spolygon-map</styleUrl></Placemark><Placemark><Polygon><outerBoundaryIs><LinearRing><coordinates>120.535208,22.540799,0.0 120.520006,22.540999,0.0 120.519877,22.540393,0.0 120.519868,22.539611,0.0 120.519681,22.53887,0.0 120.519346,22.538291,0.0 120.519859,22.537891,0.0 120.520441,22.537331,0.0 120.521233,22.53652,0.0 120.522008,22.535816,0.0 120.522581,22.535086,0.0 120.523194,22.534239,0.0 120.523572,22.533402,0.0 120.52329,22.533149,0.0 120.523452,22.532375,0.0 120.523613,22.531431,0.0 120.523671,22.530675,0.0 120.523613,22.529503,0.0 120.523678,22.528693,0.0 120.523497,22.527929,0.0 120.523441,22.52701,0.0 120.523727,22.526094,0.0 120.52431,22.525956,0.0 120.525188,22.525868,0.0 120.525465,22.525264,0.0 120.532979,22.532366,0.0 120.535208,22.540799,0.0</coordinates></LinearRing></outerBoundaryIs></Polygon><styleUrl>#spolygon-map</styleUrl></Placemark><Placemark><Polygon><outerBoundaryIs><LinearRing><coordinates>120.539742,22.564381,0.0 120.540522,22.552954,0.0 120.543566,22.55147,0.0 120.554133,22.562484,0.0 120.553256,22.564491,0.0 120.552418,22.564787,0.0 120.551964,22.564729,0.0 120.551226,22.564716,0.0 120.550494,22.564874,0.0 120.550191,22.56527,0.0 120.54994,22.565873,0.0 120.549291,22.565923,0.0 120.548637,22.565733,0.0 120.548212,22.565312,0.0 120.547615,22.565162,0.0 120.547352,22.564628,0.0 120.547033,22.564191,0.0 120.546266,22.564221,0.0 120.545647,22.564445,0.0 120.545185,22.564663,0.0 120.54456,22.564898,0.0 120.543763,22.564726,0.0 120.543155,22.564566,0.0 120.542576,22.564269,0.0 120.542108,22.564078,0.0 120.541603,22.56423,0.0 120.541214,22.563872,0.0 120.54069,22.563715,0.0 120.540064,22.563697,0.0 120.539784,22.564272,0.0 120.539742,22.564381,0.0</coordinates></LinearRing></outerBoundaryIs></Polygon><styleUrl>#spolygon-map</styleUrl></Placemark><Placemark><Polygon><outerBoundaryIs><LinearRing><coordinates>120.539709,22.564332,0.0 120.539205,22.563801,0.0 120.538507,22.563537,0.0 120.537965,22.563423,0.0 120.537422,22.563551,0.0 120.538127,22.554013,0.0 120.540241,22.557451,0.0 120.539709,22.564332,0.0</coordinates></LinearRing></outerBoundaryIs></Polygon><styleUrl>#spolygon-map</styleUrl></Placemark><Placemark><Polygon><outerBoundaryIs><LinearRing><coordinates>120.554399,22.562767,0.0 120.544633,22.551525,0.0 120.548801,22.550368,0.0 120.548459,22.548321,0.0 120.548571,22.547477,0.0 120.5482,22.546602,0.0 120.547289,22.544313,0.0 120.549311,22.541758,0.0 120.552712,22.541038,0.0 120.55312,22.539637,0.0 120.554087,22.539175,0.0 120.556205,22.538731,0.0 120.558127,22.539832,0.0 120.558924,22.543026,0.0 120.559326,22.543784,0.0 120.558926,22.54483,0.0 120.55823,22.545549,0.0 120.558188,22.546278,0.0 120.557232,22.547126,0.0 120.55568,22.547928,0.0 120.554993,22.561053,0.0 120.554399,22.562767,0.0</coordinates></LinearRing></outerBoundaryIs></Polygon><styleUrl>#spolygon-map</styleUrl></Placemark><Placemark><Polygon><outerBoundaryIs><LinearRing><coordinates>120.537422,22.563551,0.0 120.536776,22.563674,0.0 120.536163,22.563799,0.0 120.535573,22.564003,0.0 120.534882,22.564044,0.0 120.534132,22.564008,0.0 120.533513,22.563945,0.0 120.533038,22.564183,0.0 120.532498,22.564202,0.0 120.531799,22.564604,0.0 120.531235,22.564851,0.0 120.530769,22.565353,0.0 120.53006,22.565725,0.0 120.529497,22.565536,0.0 120.529157,22.564867,0.0 120.528918,22.564277,0.0 120.528326,22.563639,0.0 120.527469,22.562925,0.0 120.526142,22.561871,0.0 120.525131,22.561209,0.0 120.523962,22.560695,0.0 120.522671,22.560152,0.0 120.521559,22.559656,0.0 120.521082,22.55914,0.0 120.520495,22.559001,0.0 120.519746,22.558425,0.0 120.519378,22.557963,0.0 120.518753,22.557573,0.0 120.518931,22.556792,0.0 120.519352,22.555954,0.0 120.519845,22.555348,0.0 120.52012,22.554432,0.0 120.520029,22.553605,0.0 120.521004,22.553857,0.0 120.52118,22.554413,0.0 120.52181,22.555503,0.0 120.521656,22.555748,0.0 120.522185,22.556448,0.0 120.522774,22.556598,0.0 120.523283,22.556476,0.0 120.523783,22.556362,0.0 120.525924,22.556389,0.0 120.527221,22.557013,0.0 120.527897,22.556406,0.0 120.528563,22.556087,0.0 120.530783,22.556412,0.0 120.536923,22.556518,0.0 120.537422,22.563551,0.0</coordinates></LinearRing></outerBoundaryIs></Polygon><styleUrl>#spolygon-map</styleUrl></Placemark><Placemark><Polygon><outerBoundaryIs><LinearRing><coordinates>120.578185,22.559654,0.0 120.577582,22.559495,0.0 120.577074,22.559354,0.0 120.57645,22.559273,0.0 120.576799,22.558876,0.0 120.576769,22.558197,0.0 120.576295,22.558207,0.0 120.575477,22.558112,0.0 120.574711,22.558065,0.0 120.573903,22.55807,0.0 120.573391,22.558312,0.0 120.572864,22.558611,0.0 120.57233,22.558611,0.0 120.572361,22.558131,0.0 120.572446,22.557551,0.0 120.572541,22.556962,0.0 120.572635,22.556346,0.0 120.572569,22.55577,0.0 120.572378,22.555241,0.0 120.572182,22.554699,0.0 120.572006,22.554082,0.0 120.571792,22.553664,0.0 120.571194,22.553646,0.0 120.570535,22.553671,0.0 120.569879,22.553742,0.0 120.569247,22.553815,0.0 120.569037,22.552448,0.0 120.575885,22.547601,0.0 120.603608,22.535518,0.0 120.603425,22.536152,0.0 120.604261,22.537926,0.0 120.605249,22.54002,0.0 120.603432,22.541076,0.0 120.600665,22.542257,0.0 120.598725,22.543072,0.0 120.595262,22.544535,0.0 120.594003,22.545072,0.0 120.592128,22.545886,0.0 120.592479,22.547028,0.0 120.593109,22.548264,0.0 120.593177,22.549206,0.0 120.592319,22.549574,0.0 120.591612,22.549872,0.0 120.590931,22.550164,0.0 120.590051,22.550532,0.0 120.589668,22.550362,0.0 120.589416,22.549846,0.0 120.588868,22.550037,0.0 120.588122,22.550062,0.0 120.587412,22.550268,0.0 120.587316,22.55057,0.0 120.587862,22.551213,0.0 120.588124,22.55181,0.0 120.588147,22.552467,0.0 120.588453,22.553009,0.0 120.588651,22.553579,0.0 120.588429,22.554005,0.0 120.588017,22.554645,0.0 120.587782,22.555223,0.0 120.587392,22.555734,0.0 120.587115,22.556156,0.0 120.587121,22.556851,0.0 120.587011,22.557379,0.0 120.58701,22.557837,0.0 120.586883,22.55858,0.0 120.586215,22.55914,0.0 120.585817,22.559753,0.0 120.585467,22.560468,0.0 120.584655,22.56064,0.0 120.583883,22.560378,0.0 120.583268,22.559991,0.0 120.583448,22.559406,0.0 120.583339,22.558855,0.0 120.582705,22.559833,0.0 120.582037,22.559798,0.0 120.581375,22.559999,0.0 120.580624,22.559954,0.0 120.579942,22.559903,0.0 120.579186,22.559786,0.0 120.578643,22.559728,0.0 120.578185,22.559654,0.0</coordinates></LinearRing></outerBoundaryIs></Polygon><styleUrl>#spolygon-map</styleUrl></Placemark><Placemark><Polygon><outerBoundaryIs><LinearRing><coordinates>120.535748,22.546562,0.0 120.527525,22.546836,0.0 120.523279,22.546472,0.0 120.523529,22.544971,0.0 120.523712,22.543811,0.0 120.523335,22.543609,0.0 120.523362,22.542859,0.0 120.522838,22.542672,0.0 120.522598,22.542356,0.0 120.522585,22.541891,0.0 120.52206,22.541711,0.0 120.521245,22.541668,0.0 120.520672,22.541413,0.0 120.520147,22.541272,0.0 120.523729,22.541438,0.0 120.538399,22.540765,0.0 120.541664,22.54259,0.0 120.542276,22.543339,0.0 120.541259,22.545641,0.0 120.535748,22.546562,0.0</coordinates></LinearRing></outerBoundaryIs></Polygon><styleUrl>#spolygon-map</styleUrl></Placemark></Document>
</kml>
