<?xml version="1.0" encoding="UTF-8"?>
<kml xmlns="http://www.opengis.net/kml/2.2">
	<Document>
		<name>新北市三芝區</name>
		<Style id="spolygon">
			<LabelStyle>
				<scale>0.0</scale>
			</LabelStyle>
			<LineStyle>
				<color>330030ff</color>
				<width>0</width>
			</LineStyle>
			<PolyStyle>
				<color>330030ff</color>
			</PolyStyle>
		</Style>
		<StyleMap id="spolygon-map">
			<Pair>
				<key>normal</key>
				<styleUrl>#spolygon</styleUrl>
			</Pair>
		</StyleMap>
	<Placemark><Polygon><outerBoundaryIs><LinearRing><coordinates>121.512904,25.240377,0.0 121.512519,25.240875,0.0 121.512332,25.241489,0.0 121.512095,25.242285,0.0 121.511811,25.243233,0.0 121.511586,25.244192,0.0 121.511387,25.244909,0.0 121.511028,25.24533,0.0 121.510602,25.245786,0.0 121.510256,25.246108,0.0 121.509659,25.246327,0.0 121.509377,25.24652,0.0 121.508663,25.247013,0.0 121.508114,25.247832,0.0 121.507117,25.247571,0.0 121.507176,25.246846,0.0 121.507217,25.245888,0.0 121.508051,25.244752,0.0 121.508933,25.243931,0.0 121.508738,25.242552,0.0 121.509651,25.241546,0.0 121.510141,25.240454,0.0 121.510617,25.239391,0.0 121.510968,25.23853,0.0 121.510513,25.238061,0.0 121.510908,25.237107,0.0 121.511388,25.236212,0.0 121.513141,25.23526,0.0 121.513955,25.233787,0.0 121.514633,25.231863,0.0 121.516099,25.230622,0.0 121.516884,25.230071,0.0 121.518169,25.22916,0.0 121.519531,25.228427,0.0 121.521292,25.228288,0.0 121.522685,25.227749,0.0 121.524144,25.226978,0.0 121.525312,25.226802,0.0 121.528206,25.228541,0.0 121.527849,25.22972,0.0 121.527204,25.22985,0.0 121.526582,25.229649,0.0 121.526018,25.229482,0.0 121.525639,25.229402,0.0 121.525357,25.2298,0.0 121.524923,25.230028,0.0 121.524576,25.230626,0.0 121.523709,25.23037,0.0 121.522321,25.23145,0.0 121.521448,25.232103,0.0 121.520457,25.2327,0.0 121.520155,25.233049,0.0 121.52004,25.23346,0.0 121.519574,25.234013,0.0 121.519301,25.234716,0.0 121.519009,25.235153,0.0 121.518954,25.235584,0.0 121.518732,25.235966,0.0 121.518622,25.236201,0.0 121.51845,25.236741,0.0 121.51804,25.237189,0.0 121.517474,25.237547,0.0 121.517156,25.238424,0.0 121.516723,25.238748,0.0 121.516353,25.239096,0.0 121.516171,25.239354,0.0 121.516264,25.239457,0.0 121.516069,25.239521,0.0 121.515766,25.239682,0.0 121.515396,25.23979,0.0 121.515079,25.239967,0.0 121.514767,25.23996,0.0 121.51457,25.240075,0.0 121.51476,25.240528,0.0 121.514602,25.240755,0.0 121.514282,25.240692,0.0 121.513629,25.240636,0.0 121.513071,25.240378,0.0 121.512904,25.240377,0.0</coordinates></LinearRing></outerBoundaryIs></Polygon><styleUrl>#spolygon-map</styleUrl></Placemark><Placemark><Polygon><outerBoundaryIs><LinearRing><coordinates>121.50159,25.261597,0.0 121.501505,25.262089,0.0 121.501247,25.262557,0.0 121.501258,25.262782,0.0 121.5014,25.263781,0.0 121.500706,25.264178,0.0 121.500335,25.264292,0.0 121.497907,25.262614,0.0 121.496853,25.26202,0.0 121.496561,25.261794,0.0 121.495861,25.26161,0.0 121.495514,25.262363,0.0 121.495082,25.262552,0.0 121.494609,25.26267,0.0 121.493855,25.263273,0.0 121.492742,25.262127,0.0 121.490804,25.260902,0.0 121.492678,25.260462,0.0 121.494516,25.258831,0.0 121.494611,25.258113,0.0 121.496366,25.257493,0.0 121.497731,25.255684,0.0 121.498749,25.25348,0.0 121.500492,25.252336,0.0 121.501366,25.251394,0.0 121.503386,25.249868,0.0 121.504931,25.24823,0.0 121.506126,25.247742,0.0 121.507035,25.247443,0.0 121.507891,25.248087,0.0 121.507465,25.248716,0.0 121.507052,25.249282,0.0 121.506324,25.250278,0.0 121.505634,25.251086,0.0 121.504807,25.25201,0.0 121.504063,25.252914,0.0 121.503405,25.253911,0.0 121.503655,25.254822,0.0 121.502682,25.255074,0.0 121.502473,25.255443,0.0 121.502278,25.255898,0.0 121.5025,25.256359,0.0 121.502611,25.256591,0.0 121.502745,25.256913,0.0 121.503177,25.257023,0.0 121.502719,25.258011,0.0 121.502338,25.258474,0.0 121.50225,25.258835,0.0 121.50207,25.25977,0.0 121.501771,25.260748,0.0 121.501623,25.261521,0.0 121.50159,25.261597,0.0</coordinates></LinearRing></outerBoundaryIs></Polygon><styleUrl>#spolygon-map</styleUrl></Placemark><Placemark><Polygon><outerBoundaryIs><LinearRing><coordinates>121.493975,25.273649,0.0 121.493985,25.274153,0.0 121.492977,25.276097,0.0 121.490963,25.2747,0.0 121.489463,25.273521,0.0 121.486597,25.272186,0.0 121.482909,25.270672,0.0 121.482919,25.270133,0.0 121.480665,25.268373,0.0 121.478282,25.266625,0.0 121.477764,25.264809,0.0 121.479371,25.264052,0.0 121.481396,25.263823,0.0 121.481629,25.263704,0.0 121.483588,25.262602,0.0 121.483763,25.262143,0.0 121.484228,25.261512,0.0 121.485001,25.260635,0.0 121.484634,25.259037,0.0 121.485866,25.257388,0.0 121.488145,25.255243,0.0 121.489595,25.255679,0.0 121.490431,25.257218,0.0 121.49092,25.256846,0.0 121.491374,25.256109,0.0 121.491884,25.255203,0.0 121.49404,25.253807,0.0 121.493619,25.252281,0.0 121.493617,25.251936,0.0 121.493785,25.251323,0.0 121.494379,25.25081,0.0 121.49544,25.24981,0.0 121.496292,25.249164,0.0 121.497019,25.248416,0.0 121.497284,25.247808,0.0 121.498949,25.24794,0.0 121.500653,25.250294,0.0 121.501036,25.250887,0.0 121.501043,25.251586,0.0 121.5003,25.252555,0.0 121.498679,25.253749,0.0 121.497275,25.256594,0.0 121.495547,25.257759,0.0 121.494641,25.258292,0.0 121.493911,25.259194,0.0 121.492468,25.260567,0.0 121.490649,25.26112,0.0 121.493183,25.262417,0.0 121.494087,25.263086,0.0 121.494703,25.262624,0.0 121.495283,25.262503,0.0 121.495694,25.262224,0.0 121.496413,25.261691,0.0 121.496645,25.261864,0.0 121.49689,25.262036,0.0 121.498362,25.262997,0.0 121.50001,25.264591,0.0 121.499849,25.264873,0.0 121.499383,25.265443,0.0 121.498832,25.266131,0.0 121.498196,25.266987,0.0 121.49802,25.267295,0.0 121.497511,25.26762,0.0 121.497161,25.267895,0.0 121.49708,25.267973,0.0 121.496449,25.268741,0.0 121.49619,25.269611,0.0 121.495985,25.270268,0.0 121.495712,25.2706,0.0 121.49557,25.271147,0.0 121.495442,25.271451,0.0 121.495839,25.272061,0.0 121.496096,25.27296,0.0 121.496045,25.273595,0.0 121.495253,25.274205,0.0 121.493975,25.273649,0.0</coordinates></LinearRing></outerBoundaryIs></Polygon><styleUrl>#spolygon-map</styleUrl></Placemark><Placemark><Polygon><outerBoundaryIs><LinearRing><coordinates>121.507688,25.282426,0.0 121.507199,25.282555,0.0 121.506562,25.282579,0.0 121.506068,25.282012,0.0 121.506247,25.281193,0.0 121.505667,25.281127,0.0 121.505013,25.281513,0.0 121.504218,25.281423,0.0 121.503605,25.281275,0.0 121.502993,25.280863,0.0 121.502155,25.279706,0.0 121.501198,25.279858,0.0 121.500797,25.279959,0.0 121.499645,25.279554,0.0 121.498934,25.279144,0.0 121.498457,25.278761,0.0 121.497049,25.278669,0.0 121.495458,25.277927,0.0 121.492977,25.276097,0.0 121.493985,25.274153,0.0 121.493975,25.273649,0.0 121.495253,25.274205,0.0 121.496045,25.273595,0.0 121.496096,25.27296,0.0 121.495839,25.272061,0.0 121.495442,25.271451,0.0 121.49557,25.271147,0.0 121.495712,25.2706,0.0 121.495985,25.270268,0.0 121.49619,25.269611,0.0 121.496449,25.268741,0.0 121.49708,25.267973,0.0 121.497161,25.267895,0.0 121.497511,25.26762,0.0 121.49802,25.267295,0.0 121.498196,25.266987,0.0 121.498832,25.266131,0.0 121.499383,25.265443,0.0 121.499849,25.264873,0.0 121.50001,25.264591,0.0 121.500407,25.26425,0.0 121.500818,25.264121,0.0 121.502992,25.263597,0.0 121.507123,25.264593,0.0 121.507843,25.266089,0.0 121.508132,25.266687,0.0 121.509669,25.266289,0.0 121.509838,25.265641,0.0 121.511094,25.264957,0.0 121.511921,25.264375,0.0 121.512459,25.264844,0.0 121.513605,25.265094,0.0 121.514067,25.26463,0.0 121.514525,25.26459,0.0 121.51491,25.264471,0.0 121.515497,25.264345,0.0 121.515987,25.263965,0.0 121.516232,25.263037,0.0 121.51664,25.262619,0.0 121.516926,25.261999,0.0 121.51746,25.261524,0.0 121.518,25.261069,0.0 121.518983,25.260312,0.0 121.519466,25.260097,0.0 121.519622,25.260502,0.0 121.519313,25.260964,0.0 121.519088,25.261653,0.0 121.519374,25.261895,0.0 121.519579,25.262185,0.0 121.518958,25.262623,0.0 121.518991,25.26296,0.0 121.519707,25.262986,0.0 121.520498,25.263013,0.0 121.521505,25.263232,0.0 121.52211,25.263912,0.0 121.522334,25.264652,0.0 121.522722,25.265203,0.0 121.523838,25.265785,0.0 121.523203,25.266133,0.0 121.522392,25.26664,0.0 121.522105,25.267679,0.0 121.521424,25.268522,0.0 121.520962,25.268752,0.0 121.520294,25.269016,0.0 121.52003,25.268869,0.0 121.519761,25.269264,0.0 121.519171,25.269845,0.0 121.518559,25.270479,0.0 121.51781,25.27155,0.0 121.51698,25.27242,0.0 121.516746,25.272676,0.0 121.516225,25.273251,0.0 121.515682,25.274189,0.0 121.515288,25.275019,0.0 121.515549,25.275615,0.0 121.514936,25.276284,0.0 121.514495,25.276149,0.0 121.513556,25.276119,0.0 121.513186,25.276229,0.0 121.51252,25.276649,0.0 121.51226,25.276651,0.0 121.511978,25.276536,0.0 121.511634,25.276616,0.0 121.511365,25.276887,0.0 121.510955,25.27733,0.0 121.5103,25.277574,0.0 121.509712,25.277503,0.0 121.50888,25.277831,0.0 121.508263,25.278469,0.0 121.508073,25.279561,0.0 121.507861,25.280699,0.0 121.507688,25.282426,0.0</coordinates></LinearRing></outerBoundaryIs></Polygon><styleUrl>#spolygon-map</styleUrl></Placemark><Placemark><Polygon><outerBoundaryIs><LinearRing><coordinates>121.509025,25.264716,0.0 121.508339,25.265214,0.0 121.507858,25.266121,0.0 121.507185,25.264704,0.0 121.503545,25.263535,0.0 121.501395,25.263298,0.0 121.501232,25.262607,0.0 121.501482,25.262152,0.0 121.501549,25.261735,0.0 121.501685,25.261382,0.0 121.501887,25.260221,0.0 121.502306,25.259093,0.0 121.502273,25.258669,0.0 121.502359,25.258238,0.0 121.503119,25.257776,0.0 121.502889,25.257057,0.0 121.502795,25.256653,0.0 121.502512,25.256502,0.0 121.502744,25.256119,0.0 121.502392,25.255584,0.0 121.502568,25.255282,0.0 121.502997,25.254625,0.0 121.503152,25.254273,0.0 121.503767,25.253366,0.0 121.504415,25.252441,0.0 121.505197,25.251569,0.0 121.505908,25.250782,0.0 121.506789,25.249641,0.0 121.507242,25.249027,0.0 121.507675,25.248429,0.0 121.508162,25.247774,0.0 121.508745,25.246917,0.0 121.509424,25.246489,0.0 121.509725,25.246308,0.0 121.510372,25.246071,0.0 121.51064,25.245735,0.0 121.511135,25.245246,0.0 121.511425,25.244817,0.0 121.511599,25.244136,0.0 121.511859,25.243028,0.0 121.512118,25.242156,0.0 121.51235,25.241428,0.0 121.512558,25.24081,0.0 121.512985,25.240372,0.0 121.513561,25.240643,0.0 121.514168,25.240637,0.0 121.514563,25.240754,0.0 121.514766,25.240578,0.0 121.514569,25.240101,0.0 121.514736,25.239947,0.0 121.514996,25.239995,0.0 121.515359,25.239807,0.0 121.515737,25.239706,0.0 121.516021,25.239518,0.0 121.516265,25.239471,0.0 121.516169,25.23937,0.0 121.516327,25.239142,0.0 121.516703,25.238761,0.0 121.51708,25.238537,0.0 121.51742,25.237678,0.0 121.517984,25.237238,0.0 121.518424,25.236765,0.0 121.518622,25.236236,0.0 121.518718,25.235979,0.0 121.518955,25.235603,0.0 121.518982,25.235222,0.0 121.519264,25.234763,0.0 121.519544,25.234059,0.0 121.520015,25.233506,0.0 121.520145,25.233073,0.0 121.520349,25.232775,0.0 121.521229,25.232236,0.0 121.522266,25.231491,0.0 121.523667,25.230376,0.0 121.524516,25.230629,0.0 121.524956,25.230306,0.0 121.52526,25.229794,0.0 121.525579,25.229456,0.0 121.525965,25.22943,0.0 121.526544,25.229648,0.0 121.527136,25.229855,0.0 121.527706,25.229743,0.0 121.528823,25.230049,0.0 121.530848,25.230147,0.0 121.532785,25.231053,0.0 121.53278,25.231213,0.0 121.53299,25.231647,0.0 121.532806,25.23246,0.0 121.532577,25.232965,0.0 121.532228,25.233748,0.0 121.53229,25.234378,0.0 121.53178,25.234849,0.0 121.531164,25.235295,0.0 121.53085,25.235681,0.0 121.530342,25.235989,0.0 121.52918,25.236697,0.0 121.529063,25.236675,0.0 121.528941,25.23639,0.0 121.528716,25.236431,0.0 121.528085,25.237015,0.0 121.527817,25.237377,0.0 121.527279,25.23796,0.0 121.527015,25.238839,0.0 121.526702,25.239259,0.0 121.52596,25.239806,0.0 121.525531,25.24038,0.0 121.524937,25.240856,0.0 121.524328,25.241247,0.0 121.523832,25.241808,0.0 121.523676,25.242164,0.0 121.523364,25.242692,0.0 121.523037,25.243546,0.0 121.522494,25.244313,0.0 121.522305,25.244628,0.0 121.52216,25.245033,0.0 121.521831,25.24547,0.0 121.521634,25.24595,0.0 121.521146,25.246185,0.0 121.520631,25.246532,0.0 121.520165,25.247215,0.0 121.519813,25.247648,0.0 121.518665,25.248167,0.0 121.518042,25.248546,0.0 121.516945,25.24927,0.0 121.515952,25.249745,0.0 121.515432,25.250037,0.0 121.514962,25.250057,0.0 121.514407,25.250246,0.0 121.513999,25.250751,0.0 121.513719,25.25038,0.0 121.513353,25.250342,0.0 121.512094,25.250831,0.0 121.511129,25.251935,0.0 121.511044,25.252694,0.0 121.510759,25.253438,0.0 121.510243,25.254003,0.0 121.508143,25.257903,0.0 121.50836,25.258262,0.0 121.508468,25.258809,0.0 121.508648,25.259284,0.0 121.50835,25.259742,0.0 121.508157,25.260236,0.0 121.508039,25.26044,0.0 121.508163,25.260794,0.0 121.50811,25.261136,0.0 121.508256,25.261425,0.0 121.508384,25.262083,0.0 121.508706,25.262308,0.0 121.508955,25.263152,0.0 121.509053,25.263912,0.0 121.509025,25.264716,0.0</coordinates></LinearRing></outerBoundaryIs></Polygon><styleUrl>#spolygon-map</styleUrl></Placemark><Placemark><Polygon><outerBoundaryIs><LinearRing><coordinates>121.51221,25.263891,0.0 121.511846,25.264307,0.0 121.510878,25.26509,0.0 121.50982,25.265654,0.0 121.509558,25.266451,0.0 121.508125,25.266673,0.0 121.508071,25.265583,0.0 121.508646,25.265142,0.0 121.509053,25.263912,0.0 121.508955,25.263152,0.0 121.508706,25.262308,0.0 121.508384,25.262083,0.0 121.508256,25.261425,0.0 121.50811,25.261136,0.0 121.508163,25.260794,0.0 121.508039,25.26044,0.0 121.508157,25.260236,0.0 121.50835,25.259742,0.0 121.508648,25.259284,0.0 121.508468,25.258809,0.0 121.50836,25.258262,0.0 121.508143,25.257903,0.0 121.510243,25.254003,0.0 121.510759,25.253438,0.0 121.511044,25.252694,0.0 121.511129,25.251935,0.0 121.512094,25.250831,0.0 121.513353,25.250342,0.0 121.513719,25.25038,0.0 121.513999,25.250751,0.0 121.514407,25.250246,0.0 121.514962,25.250057,0.0 121.515432,25.250037,0.0 121.515952,25.249745,0.0 121.516945,25.24927,0.0 121.518042,25.248546,0.0 121.518665,25.248167,0.0 121.519813,25.247648,0.0 121.520165,25.247215,0.0 121.520631,25.246532,0.0 121.521146,25.246185,0.0 121.521634,25.24595,0.0 121.521831,25.24547,0.0 121.52216,25.245033,0.0 121.522305,25.244628,0.0 121.522494,25.244313,0.0 121.523037,25.243546,0.0 121.523364,25.242692,0.0 121.523676,25.242164,0.0 121.523832,25.241808,0.0 121.524328,25.241247,0.0 121.524937,25.240856,0.0 121.525531,25.24038,0.0 121.52596,25.239806,0.0 121.526702,25.239259,0.0 121.527015,25.238839,0.0 121.527464,25.237924,0.0 121.528344,25.237075,0.0 121.528715,25.238273,0.0 121.529642,25.239585,0.0 121.53119,25.240256,0.0 121.53201,25.241309,0.0 121.53195,25.242898,0.0 121.531163,25.244489,0.0 121.530093,25.246003,0.0 121.529461,25.247168,0.0 121.528404,25.248498,0.0 121.5286,25.249738,0.0 121.527223,25.251476,0.0 121.526221,25.252499,0.0 121.524539,25.251742,0.0 121.522793,25.252729,0.0 121.522398,25.252976,0.0 121.521417,25.25409,0.0 121.520739,25.254952,0.0 121.520478,25.255347,0.0 121.519958,25.255867,0.0 121.518335,25.257748,0.0 121.514544,25.261751,0.0 121.512702,25.262217,0.0 121.512552,25.263612,0.0 121.51221,25.263891,0.0</coordinates></LinearRing></outerBoundaryIs></Polygon><styleUrl>#spolygon-map</styleUrl></Placemark><Placemark><Polygon><outerBoundaryIs><LinearRing><coordinates>121.543324,25.268034,0.0 121.542627,25.267985,0.0 121.541904,25.268068,0.0 121.541575,25.267468,0.0 121.541382,25.266485,0.0 121.540703,25.266415,0.0 121.540533,25.265716,0.0 121.539939,25.265896,0.0 121.538663,25.266198,0.0 121.537598,25.266067,0.0 121.536027,25.266018,0.0 121.534776,25.265877,0.0 121.533906,25.265895,0.0 121.533457,25.265527,0.0 121.533548,25.266241,0.0 121.532773,25.266185,0.0 121.532049,25.265803,0.0 121.532152,25.265291,0.0 121.532138,25.26473,0.0 121.531737,25.264796,0.0 121.53137,25.264287,0.0 121.530945,25.264001,0.0 121.530926,25.263342,0.0 121.531256,25.262511,0.0 121.531501,25.261809,0.0 121.531661,25.261082,0.0 121.531668,25.260351,0.0 121.531169,25.260831,0.0 121.530375,25.26076,0.0 121.529759,25.260192,0.0 121.529122,25.260237,0.0 121.528703,25.260738,0.0 121.528453,25.261414,0.0 121.527744,25.261417,0.0 121.526589,25.260946,0.0 121.526492,25.261564,0.0 121.526121,25.262194,0.0 121.525282,25.262671,0.0 121.524968,25.26283,0.0 121.524527,25.263074,0.0 121.524101,25.263778,0.0 121.524114,25.264411,0.0 121.523775,25.26515,0.0 121.5222,25.265049,0.0 121.522331,25.264591,0.0 121.522044,25.263728,0.0 121.52141,25.263165,0.0 121.520343,25.263008,0.0 121.519642,25.26298,0.0 121.518972,25.262959,0.0 121.518986,25.262601,0.0 121.519543,25.26209,0.0 121.51932,25.261872,0.0 121.519085,25.261586,0.0 121.519301,25.260952,0.0 121.519634,25.26048,0.0 121.519437,25.260082,0.0 121.51888,25.260394,0.0 121.517934,25.26113,0.0 121.517396,25.261559,0.0 121.516913,25.262027,0.0 121.516634,25.262629,0.0 121.516203,25.26309,0.0 121.515974,25.264008,0.0 121.515459,25.264358,0.0 121.514871,25.264486,0.0 121.514373,25.264585,0.0 121.513986,25.264659,0.0 121.513547,25.265176,0.0 121.512426,25.264832,0.0 121.511846,25.264307,0.0 121.51221,25.263891,0.0 121.512471,25.26236,0.0 121.513253,25.262142,0.0 121.518076,25.258501,0.0 121.51971,25.256261,0.0 121.52041,25.255407,0.0 121.52062,25.255056,0.0 121.521281,25.254357,0.0 121.522101,25.25327,0.0 121.522719,25.252801,0.0 121.523391,25.252093,0.0 121.525902,25.252722,0.0 121.527112,25.251913,0.0 121.528492,25.249939,0.0 121.52882,25.249019,0.0 121.529413,25.247305,0.0 121.530003,25.246198,0.0 121.530748,25.245005,0.0 121.531938,25.24316,0.0 121.532094,25.241637,0.0 121.531358,25.240533,0.0 121.530159,25.239657,0.0 121.528996,25.238557,0.0 121.528491,25.237245,0.0 121.527707,25.237759,0.0 121.527437,25.237665,0.0 121.527962,25.237222,0.0 121.528347,25.236771,0.0 121.528842,25.236384,0.0 121.529003,25.236454,0.0 121.529131,25.236705,0.0 121.529691,25.236393,0.0 121.530594,25.23583,0.0 121.53101,25.235545,0.0 121.531405,25.235065,0.0 121.532151,25.234672,0.0 121.532314,25.234081,0.0 121.532245,25.233538,0.0 121.532681,25.232655,0.0 121.532939,25.232177,0.0 121.532932,25.231328,0.0 121.53275,25.231119,0.0 121.533039,25.231032,0.0 121.533344,25.23096,0.0 121.533421,25.230827,0.0 121.533355,25.230586,0.0 121.533703,25.2301,0.0 121.534351,25.229728,0.0 121.534637,25.229664,0.0 121.534841,25.22974,0.0 121.535045,25.229812,0.0 121.535257,25.229754,0.0 121.536507,25.228967,0.0 121.536878,25.228395,0.0 121.536877,25.227519,0.0 121.53695,25.227176,0.0 121.53734,25.226553,0.0 121.537858,25.226714,0.0 121.538716,25.227285,0.0 121.539293,25.227358,0.0 121.539632,25.2276,0.0 121.539816,25.22792,0.0 121.539831,25.228428,0.0 121.539937,25.228918,0.0 121.539908,25.229748,0.0 121.539706,25.230469,0.0 121.539732,25.230752,0.0 121.539947,25.230797,0.0 121.540239,25.23041,0.0 121.540433,25.230296,0.0 121.540609,25.230337,0.0 121.540631,25.230583,0.0 121.540676,25.230891,0.0 121.541142,25.23131,0.0 121.541184,25.231625,0.0 121.541148,25.231715,0.0 121.540857,25.231861,0.0 121.540765,25.231995,0.0 121.540655,25.232393,0.0 121.540435,25.232722,0.0 121.540334,25.23288,0.0 121.540074,25.232928,0.0 121.539722,25.233075,0.0 121.539354,25.233556,0.0 121.539097,25.233996,0.0 121.538908,25.234231,0.0 121.538531,25.234901,0.0 121.538343,25.23541,0.0 121.538235,25.236044,0.0 121.538132,25.23644,0.0 121.538281,25.236991,0.0 121.53822,25.237254,0.0 121.537901,25.237726,0.0 121.537618,25.238014,0.0 121.537372,25.239034,0.0 121.537472,25.240121,0.0 121.537821,25.241437,0.0 121.538084,25.241958,0.0 121.538575,25.242662,0.0 121.538995,25.243154,0.0 121.538942,25.243677,0.0 121.539,25.243911,0.0 121.538944,25.244109,0.0 121.538693,25.244389,0.0 121.538179,25.24496,0.0 121.537532,25.245306,0.0 121.5367,25.247024,0.0 121.536947,25.248366,0.0 121.537933,25.249539,0.0 121.539385,25.250059,0.0 121.539314,25.250798,0.0 121.538988,25.251233,0.0 121.539011,25.25185,0.0 121.539776,25.252005,0.0 121.540011,25.251321,0.0 121.540843,25.250729,0.0 121.540986,25.2516,0.0 121.542497,25.251922,0.0 121.542956,25.250733,0.0 121.543435,25.249833,0.0 121.543511,25.24857,0.0 121.544658,25.246845,0.0 121.546198,25.246231,0.0 121.546539,25.246727,0.0 121.546636,25.24739,0.0 121.546954,25.247853,0.0 121.54709,25.247925,0.0 121.547446,25.248406,0.0 121.547727,25.249683,0.0 121.547242,25.25084,0.0 121.546931,25.251723,0.0 121.546934,25.252637,0.0 121.546447,25.25342,0.0 121.546625,25.254029,0.0 121.547195,25.25455,0.0 121.547952,25.254955,0.0 121.548043,25.255641,0.0 121.547911,25.256248,0.0 121.547826,25.257013,0.0 121.548161,25.257787,0.0 121.548488,25.258113,0.0 121.548715,25.258206,0.0 121.548886,25.258706,0.0 121.548979,25.258947,0.0 121.549317,25.259062,0.0 121.549691,25.259443,0.0 121.549738,25.259669,0.0 121.549929,25.26036,0.0 121.550082,25.260864,0.0 121.55028,25.260978,0.0 121.550404,25.261467,0.0 121.550324,25.261836,0.0 121.550106,25.26232,0.0 121.550051,25.2629,0.0 121.549893,25.26339,0.0 121.549465,25.264027,0.0 121.549003,25.264531,0.0 121.548685,25.26522,0.0 121.548261,25.266042,0.0 121.547834,25.266054,0.0 121.547573,25.26571,0.0 121.547321,25.265632,0.0 121.546699,25.266148,0.0 121.546015,25.266781,0.0 121.54504,25.267051,0.0 121.543996,25.267552,0.0 121.543324,25.268034,0.0</coordinates></LinearRing></outerBoundaryIs></Polygon><styleUrl>#spolygon-map</styleUrl></Placemark><Placemark><Polygon><outerBoundaryIs><LinearRing><coordinates>121.478384,25.264063,0.0 121.4789,25.263686,0.0 121.477296,25.261274,0.0 121.476028,25.259396,0.0 121.475838,25.257568,0.0 121.475232,25.257342,0.0 121.475744,25.25605,0.0 121.4764,25.255484,0.0 121.476647,25.254889,0.0 121.477159,25.254403,0.0 121.477593,25.254252,0.0 121.479246,25.254081,0.0 121.480971,25.253514,0.0 121.482604,25.252775,0.0 121.484074,25.252123,0.0 121.485584,25.250737,0.0 121.486106,25.250119,0.0 121.486758,25.24918,0.0 121.48774,25.249124,0.0 121.48779,25.248768,0.0 121.488196,25.247837,0.0 121.487944,25.247162,0.0 121.487797,25.246405,0.0 121.48742,25.245818,0.0 121.487381,25.245454,0.0 121.487657,25.245092,0.0 121.488246,25.244553,0.0 121.488863,25.243923,0.0 121.489089,25.243595,0.0 121.489476,25.242495,0.0 121.489709,25.241896,0.0 121.489943,25.241247,0.0 121.490275,25.24001,0.0 121.489855,25.239581,0.0 121.489226,25.2392,0.0 121.489528,25.238631,0.0 121.490284,25.238214,0.0 121.491306,25.237622,0.0 121.492433,25.236449,0.0 121.489927,25.233068,0.0 121.492134,25.231966,0.0 121.493564,25.231428,0.0 121.494446,25.231154,0.0 121.49546,25.230863,0.0 121.496438,25.23055,0.0 121.497461,25.229679,0.0 121.497858,25.229371,0.0 121.498546,25.228972,0.0 121.499595,25.228388,0.0 121.500011,25.228302,0.0 121.500693,25.227809,0.0 121.50139,25.227519,0.0 121.501735,25.227288,0.0 121.502494,25.226719,0.0 121.503123,25.226208,0.0 121.503581,25.225906,0.0 121.503855,25.225557,0.0 121.504165,25.224941,0.0 121.504399,25.224543,0.0 121.504763,25.224339,0.0 121.50495,25.224526,0.0 121.505113,25.224674,0.0 121.50524,25.224685,0.0 121.505365,25.224581,0.0 121.505646,25.224217,0.0 121.506137,25.223816,0.0 121.506331,25.223668,0.0 121.506603,25.223333,0.0 121.509811,25.222987,0.0 121.51167,25.223461,0.0 121.51319,25.223883,0.0 121.514992,25.226279,0.0 121.5146,25.227703,0.0 121.514049,25.228603,0.0 121.512865,25.229687,0.0 121.512058,25.230681,0.0 121.510971,25.232013,0.0 121.509666,25.233835,0.0 121.508749,25.234778,0.0 121.507811,25.235593,0.0 121.507292,25.236103,0.0 121.506866,25.2363,0.0 121.505823,25.236528,0.0 121.505557,25.236633,0.0 121.505103,25.237179,0.0 121.504988,25.237687,0.0 121.504516,25.238045,0.0 121.503941,25.23849,0.0 121.50345,25.239216,0.0 121.503019,25.239801,0.0 121.502463,25.240241,0.0 121.501475,25.240853,0.0 121.500954,25.241491,0.0 121.500189,25.242258,0.0 121.499149,25.24302,0.0 121.498144,25.245756,0.0 121.497622,25.246435,0.0 121.497356,25.247456,0.0 121.497253,25.247912,0.0 121.496919,25.248579,0.0 121.496068,25.249311,0.0 121.495217,25.250037,0.0 121.494233,25.250939,0.0 121.493662,25.25152,0.0 121.493653,25.252079,0.0 121.493453,25.252512,0.0 121.493805,25.254031,0.0 121.491718,25.255481,0.0 121.49128,25.256277,0.0 121.490869,25.256919,0.0 121.490275,25.257088,0.0 121.489094,25.25518,0.0 121.487678,25.25576,0.0 121.485475,25.257877,0.0 121.48472,25.259395,0.0 121.484775,25.2609,0.0 121.484015,25.261762,0.0 121.483735,25.262221,0.0 121.483416,25.262741,0.0 121.481563,25.263739,0.0 121.481322,25.263861,0.0 121.478801,25.264017,0.0 121.478384,25.264063,0.0</coordinates></LinearRing></outerBoundaryIs></Polygon><styleUrl>#spolygon-map</styleUrl></Placemark><Placemark><Polygon><outerBoundaryIs><LinearRing><coordinates>121.477656,25.25422,0.0 121.477191,25.254386,0.0 121.476677,25.254829,0.0 121.476417,25.25546,0.0 121.475797,25.256021,0.0 121.475204,25.257262,0.0 121.471577,25.255994,0.0 121.462514,25.252052,0.0 121.451742,25.251818,0.0 121.445932,25.241876,0.0 121.446951,25.242646,0.0 121.447843,25.2432,0.0 121.448861,25.243695,0.0 121.449683,25.243962,0.0 121.449955,25.244215,0.0 121.450402,25.244329,0.0 121.451109,25.244334,0.0 121.451542,25.244272,0.0 121.452461,25.244084,0.0 121.452731,25.244198,0.0 121.453418,25.24419,0.0 121.453992,25.24391,0.0 121.45486,25.243942,0.0 121.456022,25.243269,0.0 121.457235,25.24265,0.0 121.45748,25.24157,0.0 121.458247,25.240728,0.0 121.458793,25.240305,0.0 121.459423,25.240203,0.0 121.460263,25.239978,0.0 121.460845,25.239913,0.0 121.461361,25.240167,0.0 121.462076,25.239891,0.0 121.462765,25.23954,0.0 121.463352,25.239266,0.0 121.46373,25.239124,0.0 121.464144,25.239035,0.0 121.464552,25.239324,0.0 121.465399,25.239232,0.0 121.465791,25.239037,0.0 121.466495,25.239198,0.0 121.467349,25.239194,0.0 121.467984,25.23891,0.0 121.468232,25.238611,0.0 121.468293,25.238695,0.0 121.468466,25.238896,0.0 121.468559,25.238987,0.0 121.468777,25.239122,0.0 121.468926,25.239485,0.0 121.469257,25.239882,0.0 121.470233,25.239268,0.0 121.471331,25.23884,0.0 121.472322,25.238556,0.0 121.473248,25.238125,0.0 121.473469,25.237484,0.0 121.474395,25.237749,0.0 121.475002,25.23776,0.0 121.475877,25.237415,0.0 121.477053,25.236865,0.0 121.478407,25.236129,0.0 121.480012,25.235464,0.0 121.48199,25.234967,0.0 121.482758,25.234596,0.0 121.484263,25.233986,0.0 121.485326,25.233449,0.0 121.486277,25.233163,0.0 121.487389,25.232764,0.0 121.488651,25.232149,0.0 121.489789,25.231826,0.0 121.490778,25.231846,0.0 121.489952,25.232717,0.0 121.492503,25.236357,0.0 121.491449,25.237492,0.0 121.490535,25.238106,0.0 121.489603,25.238574,0.0 121.48911,25.239197,0.0 121.489805,25.239523,0.0 121.490273,25.239993,0.0 121.489985,25.241042,0.0 121.489751,25.241831,0.0 121.489494,25.242394,0.0 121.489147,25.243412,0.0 121.488922,25.243869,0.0 121.488384,25.244385,0.0 121.487679,25.245056,0.0 121.487397,25.245427,0.0 121.487395,25.245733,0.0 121.487786,25.246384,0.0 121.487918,25.247054,0.0 121.488145,25.247741,0.0 121.487865,25.248614,0.0 121.487731,25.249022,0.0 121.486828,25.249162,0.0 121.486204,25.249867,0.0 121.485644,25.250638,0.0 121.484349,25.251974,0.0 121.48289,25.252646,0.0 121.481323,25.253352,0.0 121.479752,25.253935,0.0 121.477656,25.25422,0.0</coordinates></LinearRing></outerBoundaryIs></Polygon><styleUrl>#spolygon-map</styleUrl></Placemark><Placemark><Polygon><outerBoundaryIs><LinearRing><coordinates>121.506596,25.247492,0.0 121.505431,25.248018,0.0 121.503809,25.249391,0.0 121.501968,25.250991,0.0 121.50112,25.251026,0.0 121.50088,25.250527,0.0 121.499377,25.248284,0.0 121.497456,25.24681,0.0 121.49785,25.246084,0.0 121.498846,25.243724,0.0 121.499771,25.242621,0.0 121.500798,25.241681,0.0 121.501272,25.241057,0.0 121.501919,25.240532,0.0 121.502919,25.239963,0.0 121.503291,25.239442,0.0 121.503735,25.238755,0.0 121.504294,25.238179,0.0 121.504897,25.237803,0.0 121.505063,25.237372,0.0 121.505295,25.236899,0.0 121.505661,25.23657,0.0 121.506451,25.236433,0.0 121.507171,25.236175,0.0 121.507616,25.235813,0.0 121.508264,25.235108,0.0 121.509239,25.234394,0.0 121.510491,25.232757,0.0 121.511701,25.231113,0.0 121.512493,25.230162,0.0 121.51362,25.228993,0.0 121.514385,25.228212,0.0 121.515111,25.226742,0.0 121.513177,25.224386,0.0 121.512266,25.223723,0.0 121.510381,25.22331,0.0 121.506987,25.223159,0.0 121.50638,25.223621,0.0 121.506216,25.22376,0.0 121.505727,25.224135,0.0 121.505412,25.22452,0.0 121.505289,25.224662,0.0 121.505157,25.224688,0.0 121.505019,25.224605,0.0 121.504809,25.224368,0.0 121.504571,25.224361,0.0 121.504239,25.224816,0.0 121.503953,25.225385,0.0 121.503662,25.225809,0.0 121.503301,25.226106,0.0 121.502765,25.226462,0.0 121.502057,25.227064,0.0 121.501466,25.227479,0.0 121.501038,25.227654,0.0 121.500178,25.228185,0.0 121.499681,25.228366,0.0 121.498979,25.228715,0.0 121.497934,25.229316,0.0 121.497541,25.229151,0.0 121.496797,25.228168,0.0 121.496359,25.227212,0.0 121.496438,25.226388,0.0 121.49712,25.225583,0.0 121.497954,25.225284,0.0 121.499188,25.225377,0.0 121.500117,25.225112,0.0 121.500951,25.224544,0.0 121.501094,25.224494,0.0 121.501318,25.224254,0.0 121.501661,25.223786,0.0 121.501991,25.223196,0.0 121.502249,25.222803,0.0 121.502452,25.222703,0.0 121.503295,25.222184,0.0 121.503678,25.221878,0.0 121.504441,25.22163,0.0 121.505214,25.221298,0.0 121.505484,25.221154,0.0 121.506242,25.220994,0.0 121.50968,25.220677,0.0 121.510158,25.220023,0.0 121.51012,25.219312,0.0 121.510482,25.218774,0.0 121.510813,25.218437,0.0 121.510828,25.218048,0.0 121.511546,25.217878,0.0 121.512022,25.217969,0.0 121.512451,25.219219,0.0 121.512655,25.220268,0.0 121.513437,25.220259,0.0 121.513878,25.220088,0.0 121.514685,25.220297,0.0 121.515073,25.220311,0.0 121.515473,25.220264,0.0 121.515753,25.220416,0.0 121.516009,25.220782,0.0 121.516504,25.221391,0.0 121.517145,25.222003,0.0 121.519207,25.221846,0.0 121.519782,25.222411,0.0 121.520587,25.223305,0.0 121.522876,25.222875,0.0 121.524382,25.224629,0.0 121.525269,25.226649,0.0 121.524403,25.227089,0.0 121.522938,25.22759,0.0 121.521448,25.228211,0.0 121.519675,25.228387,0.0 121.5183,25.229111,0.0 121.516894,25.230037,0.0 121.516279,25.230523,0.0 121.514696,25.231723,0.0 121.514376,25.233124,0.0 121.513236,25.235195,0.0 121.511564,25.236019,0.0 121.511017,25.237025,0.0 121.51049,25.238003,0.0 121.510951,25.238474,0.0 121.510748,25.239241,0.0 121.510169,25.240336,0.0 121.509721,25.241486,0.0 121.508746,25.242427,0.0 121.508963,25.243838,0.0 121.508188,25.244587,0.0 121.507395,25.245691,0.0 121.507107,25.24672,0.0 121.507035,25.247443,0.0 121.506596,25.247492,0.0</coordinates></LinearRing></outerBoundaryIs></Polygon><styleUrl>#spolygon-map</styleUrl></Placemark><Placemark><Polygon><outerBoundaryIs><LinearRing><coordinates>121.53931,25.252157,0.0 121.538976,25.251363,0.0 121.539227,25.250996,0.0 121.539414,25.250406,0.0 121.538567,25.249827,0.0 121.537283,25.248978,0.0 121.536674,25.247569,0.0 121.53719,25.24568,0.0 121.537931,25.24514,0.0 121.538545,25.2446,0.0 121.538829,25.244212,0.0 121.539005,25.244011,0.0 121.538943,25.243761,0.0 121.538994,25.243396,0.0 121.538754,25.242872,0.0 121.538196,25.242123,0.0 121.537875,25.24156,0.0 121.537557,25.24063,0.0 121.53737,25.239291,0.0 121.537526,25.238411,0.0 121.537736,25.237875,0.0 121.53811,25.237452,0.0 121.538279,25.237049,0.0 121.538214,25.236715,0.0 121.538146,25.236259,0.0 121.538299,25.235737,0.0 121.53843,25.235117,0.0 121.538836,25.234421,0.0 121.539029,25.23408,0.0 121.539245,25.233717,0.0 121.539589,25.23319,0.0 121.539968,25.232945,0.0 121.540287,25.232911,0.0 121.540401,25.232789,0.0 121.540615,25.232468,0.0 121.540707,25.232219,0.0 121.540815,25.231907,0.0 121.541035,25.231766,0.0 121.541181,25.231666,0.0 121.541144,25.231447,0.0 121.540822,25.231061,0.0 121.540611,25.230699,0.0 121.540658,25.230398,0.0 121.540506,25.230297,0.0 121.54034,25.230327,0.0 121.539998,25.230763,0.0 121.539764,25.230778,0.0 121.539704,25.23068,0.0 121.539837,25.230055,0.0 121.539951,25.229147,0.0 121.539844,25.228602,0.0 121.539826,25.228037,0.0 121.539728,25.227718,0.0 121.539384,25.227403,0.0 121.538839,25.227308,0.0 121.538221,25.226962,0.0 121.537589,25.226616,0.0 121.537147,25.226892,0.0 121.536875,25.227386,0.0 121.536891,25.228209,0.0 121.536699,25.228765,0.0 121.535712,25.229439,0.0 121.53512,25.229813,0.0 121.53491,25.22977,0.0 121.53471,25.229684,0.0 121.534497,25.229662,0.0 121.534027,25.229913,0.0 121.533404,25.230494,0.0 121.533419,25.230782,0.0 121.533399,25.230891,0.0 121.533241,25.231012,0.0 121.531405,25.230694,0.0 121.529247,25.230055,0.0 121.528591,25.228943,0.0 121.525407,25.226939,0.0 121.524865,25.225571,0.0 121.523361,25.22339,0.0 121.521692,25.222919,0.0 121.519592,25.223168,0.0 121.519824,25.221409,0.0 121.517487,25.222245,0.0 121.516792,25.22151,0.0 121.51623,25.221055,0.0 121.515883,25.220434,0.0 121.51556,25.220271,0.0 121.515181,25.220341,0.0 121.514794,25.220329,0.0 121.514236,25.220142,0.0 121.513571,25.220164,0.0 121.51293,25.220422,0.0 121.51247,25.219413,0.0 121.512079,25.218032,0.0 121.511717,25.217869,0.0 121.511035,25.218061,0.0 121.510312,25.217685,0.0 121.509782,25.216954,0.0 121.509719,25.21664,0.0 121.510429,25.215949,0.0 121.510417,25.215701,0.0 121.50967,25.21539,0.0 121.509243,25.215692,0.0 121.508944,25.215808,0.0 121.508423,25.215272,0.0 121.507929,25.214529,0.0 121.507493,25.213949,0.0 121.507592,25.213442,0.0 121.508066,25.213298,0.0 121.509259,25.212597,0.0 121.510764,25.211332,0.0 121.511598,25.210783,0.0 121.511371,25.210324,0.0 121.512031,25.209765,0.0 121.513732,25.209872,0.0 121.514952,25.208707,0.0 121.516166,25.208598,0.0 121.51732,25.207871,0.0 121.518148,25.207028,0.0 121.519036,25.205987,0.0 121.520091,25.204762,0.0 121.521648,25.203863,0.0 121.52293,25.202495,0.0 121.52354,25.200788,0.0 121.525068,25.200711,0.0 121.525592,25.202025,0.0 121.527827,25.202449,0.0 121.529393,25.200801,0.0 121.530456,25.198637,0.0 121.532503,25.19779,0.0 121.533384,25.197114,0.0 121.534169,25.196891,0.0 121.534677,25.19632,0.0 121.535682,25.195262,0.0 121.538236,25.193095,0.0 121.54139,25.189993,0.0 121.542609,25.190614,0.0 121.542998,25.193048,0.0 121.54451,25.195301,0.0 121.546556,25.197024,0.0 121.548593,25.198113,0.0 121.550502,25.196889,0.0 121.552088,25.197502,0.0 121.552453,25.199491,0.0 121.552547,25.201045,0.0 121.551473,25.202662,0.0 121.55324,25.204331,0.0 121.554393,25.206916,0.0 121.554847,25.208318,0.0 121.556302,25.208602,0.0 121.557586,25.20905,0.0 121.558618,25.209789,0.0 121.559575,25.210427,0.0 121.560221,25.21123,0.0 121.560647,25.212035,0.0 121.561115,25.212667,0.0 121.562131,25.213734,0.0 121.562604,25.214164,0.0 121.563452,25.213949,0.0 121.564348,25.213887,0.0 121.565172,25.214532,0.0 121.565907,25.214921,0.0 121.565156,25.215886,0.0 121.564768,25.217053,0.0 121.564312,25.218304,0.0 121.563207,25.219728,0.0 121.562738,25.220848,0.0 121.5627,25.221962,0.0 121.561697,25.222625,0.0 121.560379,25.223179,0.0 121.559266,25.224405,0.0 121.558295,25.225384,0.0 121.557644,25.226351,0.0 121.556952,25.226945,0.0 121.55591,25.227357,0.0 121.555767,25.228476,0.0 121.556068,25.229272,0.0 121.555661,25.230041,0.0 121.555653,25.231073,0.0 121.556052,25.23184,0.0 121.556332,25.233006,0.0 121.556364,25.233989,0.0 121.555878,25.234964,0.0 121.555481,25.235785,0.0 121.555385,25.236549,0.0 121.55511,25.237466,0.0 121.554961,25.238247,0.0 121.554418,25.238685,0.0 121.55417,25.239536,0.0 121.553604,25.24004,0.0 121.552807,25.240684,0.0 121.552405,25.241209,0.0 121.551781,25.241786,0.0 121.55109,25.242214,0.0 121.551066,25.242815,0.0 121.552063,25.243447,0.0 121.552578,25.243911,0.0 121.552154,25.244722,0.0 121.551675,25.245291,0.0 121.550876,25.245494,0.0 121.55015,25.245223,0.0 121.549566,25.244811,0.0 121.549065,25.244519,0.0 121.54877,25.244097,0.0 121.548665,25.243701,0.0 121.548465,25.243231,0.0 121.54795,25.242663,0.0 121.547462,25.242475,0.0 121.546937,25.242237,0.0 121.546335,25.241796,0.0 121.545872,25.241361,0.0 121.545506,25.241005,0.0 121.545089,25.240999,0.0 121.544525,25.241529,0.0 121.544787,25.242208,0.0 121.545439,25.242987,0.0 121.545879,25.24346,0.0 121.545635,25.243928,0.0 121.545335,25.244394,0.0 121.545006,25.244954,0.0 121.544561,25.245137,0.0 121.545165,25.245538,0.0 121.545598,25.245965,0.0 121.545735,25.246137,0.0 121.545817,25.246405,0.0 121.544045,25.247485,0.0 121.543624,25.249107,0.0 121.543179,25.250068,0.0 121.542897,25.251356,0.0 121.541418,25.251935,0.0 121.54107,25.251258,0.0 121.540448,25.250892,0.0 121.539835,25.25154,0.0 121.539562,25.252113,0.0 121.53931,25.252157,0.0</coordinates></LinearRing></outerBoundaryIs></Polygon><styleUrl>#spolygon-map</styleUrl></Placemark><Placemark><Polygon><outerBoundaryIs><LinearRing><coordinates>121.50435,25.221636,0.0 121.503608,25.221915,0.0 121.503137,25.22228,0.0 121.502372,25.222734,0.0 121.502186,25.222882,0.0 121.501926,25.223334,0.0 121.501234,25.223081,0.0 121.500648,25.221972,0.0 121.499975,25.221655,0.0 121.499132,25.221822,0.0 121.498307,25.222051,0.0 121.498425,25.221482,0.0 121.498711,25.220967,0.0 121.498113,25.220819,0.0 121.497629,25.22112,0.0 121.497294,25.221662,0.0 121.496618,25.222087,0.0 121.496292,25.221729,0.0 121.496337,25.220945,0.0 121.496206,25.220313,0.0 121.496403,25.219521,0.0 121.496801,25.218657,0.0 121.496953,25.218138,0.0 121.497254,25.217947,0.0 121.497417,25.217632,0.0 121.497813,25.216869,0.0 121.498504,25.216073,0.0 121.498773,25.215596,0.0 121.499519,25.215376,0.0 121.500144,25.214969,0.0 121.500787,25.214179,0.0 121.500981,25.213798,0.0 121.501349,25.213121,0.0 121.501841,25.212242,0.0 121.502194,25.211001,0.0 121.502166,25.210849,0.0 121.50191,25.210273,0.0 121.501863,25.209957,0.0 121.50197,25.209734,0.0 121.502161,25.209165,0.0 121.502193,25.208993,0.0 121.503012,25.20786,0.0 121.503118,25.207212,0.0 121.503063,25.206747,0.0 121.503036,25.20634,0.0 121.502701,25.20582,0.0 121.502379,25.20505,0.0 121.50208,25.204291,0.0 121.502134,25.20416,0.0 121.502055,25.203883,0.0 121.501151,25.202857,0.0 121.501142,25.202745,0.0 121.501259,25.202636,0.0 121.5019,25.203112,0.0 121.503007,25.203145,0.0 121.503403,25.203053,0.0 121.503988,25.203041,0.0 121.504265,25.20333,0.0 121.504775,25.203476,0.0 121.505672,25.203468,0.0 121.505781,25.203533,0.0 121.505971,25.203825,0.0 121.506231,25.203888,0.0 121.507114,25.202364,0.0 121.509006,25.19848,0.0 121.511544,25.195178,0.0 121.513996,25.193961,0.0 121.515274,25.191874,0.0 121.516703,25.18938,0.0 121.518395,25.188193,0.0 121.521256,25.188076,0.0 121.521671,25.188029,0.0 121.523526,25.18825,0.0 121.525625,25.188641,0.0 121.528676,25.189385,0.0 121.531891,25.190712,0.0 121.533298,25.189289,0.0 121.534382,25.187372,0.0 121.536303,25.186728,0.0 121.539094,25.187043,0.0 121.541278,25.187851,0.0 121.542091,25.189613,0.0 121.53927,25.191911,0.0 121.535917,25.195176,0.0 121.53482,25.196235,0.0 121.534241,25.196535,0.0 121.533846,25.197166,0.0 121.532857,25.197404,0.0 121.531067,25.198633,0.0 121.529435,25.200171,0.0 121.528189,25.202033,0.0 121.525869,25.202488,0.0 121.525063,25.20121,0.0 121.523867,25.200591,0.0 121.522809,25.202074,0.0 121.522178,25.20372,0.0 121.520361,25.204761,0.0 121.519439,25.205428,0.0 121.518311,25.20658,0.0 121.517351,25.207595,0.0 121.516486,25.208548,0.0 121.515109,25.208669,0.0 121.514171,25.209523,0.0 121.512381,25.20968,0.0 121.511307,25.210241,0.0 121.511603,25.210749,0.0 121.511235,25.211367,0.0 121.509533,25.2124,0.0 121.508239,25.213242,0.0 121.507711,25.213362,0.0 121.507466,25.213746,0.0 121.507731,25.214398,0.0 121.508262,25.214853,0.0 121.508902,25.215802,0.0 121.509177,25.215755,0.0 121.509482,25.215451,0.0 121.510042,25.215489,0.0 121.510475,25.215879,0.0 121.50979,25.216487,0.0 121.509748,25.216885,0.0 121.510245,25.217592,0.0 121.510671,25.218201,0.0 121.510712,25.218625,0.0 121.510277,25.219111,0.0 121.510095,25.219588,0.0 121.509982,25.220627,0.0 121.508406,25.22077,0.0 121.505805,25.221152,0.0 121.505351,25.221225,0.0 121.504559,25.221575,0.0 121.50435,25.221636,0.0</coordinates></LinearRing></outerBoundaryIs></Polygon><styleUrl>#spolygon-map</styleUrl></Placemark><Placemark><Polygon><outerBoundaryIs><LinearRing><coordinates>121.500981,25.213798,0.0 121.500787,25.214179,0.0 121.500144,25.214969,0.0 121.499519,25.215376,0.0 121.498773,25.215596,0.0 121.498066,25.215187,0.0 121.497638,25.214335,0.0 121.497716,25.213803,0.0 121.497023,25.214028,0.0 121.496186,25.214502,0.0 121.495573,25.214034,0.0 121.494632,25.213418,0.0 121.493882,25.212853,0.0 121.493037,25.212131,0.0 121.492696,25.212105,0.0 121.491458,25.212873,0.0 121.491202,25.212117,0.0 121.491164,25.211507,0.0 121.491141,25.211354,0.0 121.490937,25.211232,0.0 121.489195,25.211019,0.0 121.488448,25.211164,0.0 121.487266,25.211464,0.0 121.486521,25.210789,0.0 121.485936,25.209847,0.0 121.485395,25.208888,0.0 121.485243,25.20811,0.0 121.486199,25.207409,0.0 121.486298,25.206986,0.0 121.486284,25.206479,0.0 121.486339,25.206078,0.0 121.485398,25.20548,0.0 121.485903,25.204459,0.0 121.486926,25.204521,0.0 121.486929,25.203922,0.0 121.48752,25.203493,0.0 121.488248,25.203097,0.0 121.48861,25.202602,0.0 121.489042,25.20217,0.0 121.489213,25.20158,0.0 121.489332,25.201399,0.0 121.489258,25.201318,0.0 121.489155,25.201188,0.0 121.489135,25.200684,0.0 121.488713,25.200346,0.0 121.487958,25.200175,0.0 121.487158,25.199724,0.0 121.485915,25.199274,0.0 121.485455,25.19796,0.0 121.486063,25.197131,0.0 121.48819,25.196714,0.0 121.491002,25.19633,0.0 121.492098,25.19562,0.0 121.492465,25.195483,0.0 121.492953,25.195068,0.0 121.49301,25.194466,0.0 121.492927,25.19398,0.0 121.49297,25.193406,0.0 121.493309,25.193159,0.0 121.494035,25.193127,0.0 121.494311,25.193243,0.0 121.494801,25.192797,0.0 121.494705,25.192001,0.0 121.495168,25.191233,0.0 121.4958,25.191166,0.0 121.496616,25.191635,0.0 121.497333,25.191974,0.0 121.498279,25.192096,0.0 121.499189,25.19247,0.0 121.50019,25.192742,0.0 121.501074,25.192931,0.0 121.501733,25.192788,0.0 121.501956,25.192492,0.0 121.502613,25.192655,0.0 121.502713,25.192017,0.0 121.502852,25.191407,0.0 121.503103,25.190871,0.0 121.5038,25.190591,0.0 121.504386,25.190321,0.0 121.505302,25.190091,0.0 121.506054,25.190262,0.0 121.506761,25.189866,0.0 121.507371,25.189176,0.0 121.507722,25.188646,0.0 121.50755,25.188125,0.0 121.507729,25.187568,0.0 121.508243,25.187753,0.0 121.509371,25.187545,0.0 121.510248,25.187377,0.0 121.51071,25.186494,0.0 121.511662,25.185561,0.0 121.512897,25.185012,0.0 121.513677,25.184204,0.0 121.514901,25.183594,0.0 121.51647,25.183146,0.0 121.517891,25.182865,0.0 121.5195,25.18238,0.0 121.520031,25.181377,0.0 121.520969,25.17993,0.0 121.521775,25.17909,0.0 121.523877,25.181031,0.0 121.526404,25.183043,0.0 121.528321,25.18315,0.0 121.529866,25.183214,0.0 121.533248,25.183802,0.0 121.535093,25.185034,0.0 121.534558,25.187118,0.0 121.533323,25.189008,0.0 121.532117,25.190742,0.0 121.529541,25.18973,0.0 121.525952,25.188651,0.0 121.523678,25.188311,0.0 121.521715,25.188027,0.0 121.521275,25.18808,0.0 121.51871,25.188222,0.0 121.516854,25.189122,0.0 121.515471,25.191685,0.0 121.514143,25.193599,0.0 121.511821,25.194793,0.0 121.509321,25.198083,0.0 121.507009,25.202057,0.0 121.50627,25.203878,0.0 121.506004,25.203854,0.0 121.505793,25.203548,0.0 121.505717,25.203482,0.0 121.504809,25.203479,0.0 121.504283,25.203346,0.0 121.504,25.203044,0.0 121.503644,25.203057,0.0 121.503238,25.203075,0.0 121.502419,25.203147,0.0 121.50128,25.20265,0.0 121.50115,25.202729,0.0 121.50114,25.20284,0.0 121.502043,25.203867,0.0 121.502134,25.204146,0.0 121.502095,25.204272,0.0 121.502369,25.205041,0.0 121.502658,25.205684,0.0 121.503021,25.206323,0.0 121.503104,25.206734,0.0 121.503139,25.206992,0.0 121.503018,25.207848,0.0 121.502349,25.20874,0.0 121.50216,25.209129,0.0 121.50207,25.2096,0.0 121.501867,25.209941,0.0 121.501895,25.210234,0.0 121.502139,25.210747,0.0 121.502194,25.210982,0.0 121.501948,25.211895,0.0 121.501444,25.21301,0.0 121.501059,25.213618,0.0 121.500981,25.213798,0.0</coordinates></LinearRing></outerBoundaryIs></Polygon><styleUrl>#spolygon-map</styleUrl></Placemark></Document>
</kml>
