<?xml version="1.0" encoding="UTF-8"?>
<kml xmlns="http://www.opengis.net/kml/2.2">
	<Document>
		<name>新北市平溪區</name>
		<Style id="spolygon">
			<LabelStyle>
				<scale>0.0</scale>
			</LabelStyle>
			<LineStyle>
				<color>330030ff</color>
				<width>0</width>
			</LineStyle>
			<PolyStyle>
				<color>330030ff</color>
			</PolyStyle>
		</Style>
		<StyleMap id="spolygon-map">
			<Pair>
				<key>normal</key>
				<styleUrl>#spolygon</styleUrl>
			</Pair>
		</StyleMap>
	<Placemark><Polygon><outerBoundaryIs><LinearRing><coordinates>121.709353,25.033783,0.0 121.70824,25.034017,0.0 121.707135,25.033487,0.0 121.705493,25.032876,0.0 121.704083,25.032369,0.0 121.703033,25.031599,0.0 121.703488,25.030111,0.0 121.703206,25.029488,0.0 121.704149,25.027957,0.0 121.704451,25.026703,0.0 121.703691,25.026313,0.0 121.702302,25.025418,0.0 121.701724,25.024344,0.0 121.701104,25.023316,0.0 121.701757,25.022477,0.0 121.702522,25.021481,0.0 121.703046,25.020552,0.0 121.703605,25.019432,0.0 121.704167,25.018411,0.0 121.704901,25.017972,0.0 121.705715,25.017892,0.0 121.706748,25.017305,0.0 121.706711,25.016433,0.0 121.706464,25.015842,0.0 121.706182,25.014922,0.0 121.707107,25.013858,0.0 121.707905,25.013062,0.0 121.708659,25.012548,0.0 121.709339,25.011846,0.0 121.71014,25.01161,0.0 121.710829,25.010937,0.0 121.711416,25.010186,0.0 121.712103,25.009369,0.0 121.712439,25.008528,0.0 121.712965,25.007458,0.0 121.713361,25.006501,0.0 121.713836,25.00599,0.0 121.71487,25.006363,0.0 121.715532,25.006643,0.0 121.716426,25.0067,0.0 121.717224,25.007047,0.0 121.717904,25.00742,0.0 121.719023,25.007345,0.0 121.719872,25.007639,0.0 121.720383,25.008297,0.0 121.721132,25.008832,0.0 121.720302,25.011629,0.0 121.719211,25.013304,0.0 121.719106,25.014427,0.0 121.7193,25.015501,0.0 121.71935,25.01726,0.0 121.719011,25.019171,0.0 121.718155,25.019726,0.0 121.718106,25.019626,0.0 121.717885,25.019681,0.0 121.717908,25.019989,0.0 121.717876,25.020342,0.0 121.71782,25.020898,0.0 121.717337,25.021234,0.0 121.717235,25.021345,0.0 121.717066,25.021414,0.0 121.717019,25.021524,0.0 121.717103,25.021901,0.0 121.717325,25.022115,0.0 121.717512,25.022153,0.0 121.717781,25.022097,0.0 121.718129,25.022178,0.0 121.718632,25.022012,0.0 121.719005,25.021818,0.0 121.719644,25.021765,0.0 121.720566,25.022041,0.0 121.721348,25.022728,0.0 121.721226,25.023248,0.0 121.720985,25.023557,0.0 121.720798,25.024178,0.0 121.721035,25.02467,0.0 121.721252,25.025216,0.0 121.720607,25.026057,0.0 121.720267,25.026418,0.0 121.719654,25.027193,0.0 121.7184,25.028486,0.0 121.713651,25.028564,0.0 121.714472,25.030235,0.0 121.712855,25.032917,0.0 121.710933,25.033554,0.0 121.709496,25.033775,0.0 121.709353,25.033783,0.0</coordinates></LinearRing></outerBoundaryIs></Polygon><styleUrl>#spolygon-map</styleUrl></Placemark><Placemark><Polygon><outerBoundaryIs><LinearRing><coordinates>121.720466,25.034453,0.0 121.715371,25.036003,0.0 121.714549,25.035603,0.0 121.713558,25.035037,0.0 121.71312,25.033993,0.0 121.712104,25.033381,0.0 121.714298,25.030803,0.0 121.713383,25.0289,0.0 121.717817,25.02833,0.0 121.719626,25.027301,0.0 121.720262,25.026508,0.0 121.720572,25.026115,0.0 121.720967,25.025372,0.0 121.721246,25.024959,0.0 121.720783,25.024255,0.0 121.720991,25.023749,0.0 121.721122,25.023322,0.0 121.721382,25.022948,0.0 121.722123,25.022182,0.0 121.722353,25.022045,0.0 121.722703,25.022098,0.0 121.72304,25.022419,0.0 121.723158,25.023088,0.0 121.724184,25.023348,0.0 121.725379,25.023491,0.0 121.726062,25.023081,0.0 121.726658,25.022528,0.0 121.726784,25.022476,0.0 121.727195,25.022551,0.0 121.727368,25.022636,0.0 121.727692,25.022991,0.0 121.728147,25.024076,0.0 121.728339,25.02451,0.0 121.725278,25.026756,0.0 121.723256,25.027718,0.0 121.721332,25.030813,0.0 121.722228,25.032878,0.0 121.72375,25.034756,0.0 121.720466,25.034453,0.0</coordinates></LinearRing></outerBoundaryIs></Polygon><styleUrl>#spolygon-map</styleUrl></Placemark><Placemark><Polygon><outerBoundaryIs><LinearRing><coordinates>121.730611,25.022759,0.0 121.730011,25.023111,0.0 121.729867,25.023889,0.0 121.728859,25.024622,0.0 121.728147,25.024076,0.0 121.727692,25.022991,0.0 121.727368,25.022636,0.0 121.727195,25.022551,0.0 121.726784,25.022476,0.0 121.726658,25.022528,0.0 121.726062,25.023081,0.0 121.725379,25.023491,0.0 121.724184,25.023348,0.0 121.723158,25.023088,0.0 121.72304,25.022419,0.0 121.722703,25.022098,0.0 121.722353,25.022045,0.0 121.722123,25.022182,0.0 121.720703,25.022115,0.0 121.719832,25.02186,0.0 121.719109,25.02174,0.0 121.718787,25.021903,0.0 121.718244,25.022224,0.0 121.717818,25.0221,0.0 121.717596,25.022122,0.0 121.71735,25.022126,0.0 121.717171,25.02198,0.0 121.717009,25.021603,0.0 121.717057,25.021426,0.0 121.71716,25.021363,0.0 121.717317,25.021292,0.0 121.717821,25.020952,0.0 121.717815,25.020474,0.0 121.717918,25.020118,0.0 121.717855,25.019742,0.0 121.718067,25.019583,0.0 121.718142,25.019691,0.0 121.718725,25.01969,0.0 121.718831,25.017623,0.0 121.719538,25.015993,0.0 121.7188,25.014542,0.0 121.71881,25.013714,0.0 121.719815,25.011966,0.0 121.721219,25.009447,0.0 121.722855,25.009447,0.0 121.725368,25.010412,0.0 121.725323,25.013448,0.0 121.726812,25.016959,0.0 121.728331,25.018984,0.0 121.729927,25.020549,0.0 121.731231,25.021613,0.0 121.731263,25.021666,0.0 121.731479,25.02167,0.0 121.731722,25.021786,0.0 121.731984,25.021908,0.0 121.732145,25.021906,0.0 121.732414,25.021845,0.0 121.732472,25.021867,0.0 121.732513,25.021958,0.0 121.732569,25.022154,0.0 121.732705,25.022221,0.0 121.732753,25.022317,0.0 121.732787,25.022831,0.0 121.73274,25.023177,0.0 121.73246,25.02387,0.0 121.731493,25.023202,0.0 121.730611,25.022759,0.0</coordinates></LinearRing></outerBoundaryIs></Polygon><styleUrl>#spolygon-map</styleUrl></Placemark><Placemark><Polygon><outerBoundaryIs><LinearRing><coordinates>121.730578,25.031738,0.0 121.726319,25.033947,0.0 121.721487,25.032719,0.0 121.721363,25.030114,0.0 121.723679,25.026958,0.0 121.725981,25.026253,0.0 121.72842,25.024384,0.0 121.729508,25.024519,0.0 121.729821,25.023464,0.0 121.730348,25.022872,0.0 121.730945,25.022875,0.0 121.732209,25.02369,0.0 121.732701,25.023333,0.0 121.732784,25.022937,0.0 121.732772,25.022484,0.0 121.732728,25.02225,0.0 121.732616,25.022178,0.0 121.732499,25.022092,0.0 121.732494,25.02189,0.0 121.732435,25.021845,0.0 121.732208,25.021894,0.0 121.73203,25.021914,0.0 121.731899,25.02188,0.0 121.731515,25.021678,0.0 121.731284,25.021676,0.0 121.731238,25.021629,0.0 121.731226,25.021563,0.0 121.728931,25.019224,0.0 121.727229,25.018124,0.0 121.725541,25.014577,0.0 121.726049,25.010656,0.0 121.731014,25.009353,0.0 121.736269,25.010579,0.0 121.737057,25.01225,0.0 121.739471,25.016018,0.0 121.739604,25.019138,0.0 121.743631,25.019375,0.0 121.746915,25.020745,0.0 121.75007,25.023589,0.0 121.743767,25.024025,0.0 121.744006,25.024335,0.0 121.744003,25.024671,0.0 121.743548,25.024995,0.0 121.743382,25.025177,0.0 121.742339,25.025738,0.0 121.740873,25.025414,0.0 121.740005,25.025238,0.0 121.739405,25.024581,0.0 121.738997,25.025411,0.0 121.738463,25.025339,0.0 121.738259,25.025729,0.0 121.737245,25.026503,0.0 121.736551,25.026807,0.0 121.736288,25.027166,0.0 121.736144,25.027623,0.0 121.735209,25.027687,0.0 121.734749,25.02795,0.0 121.734774,25.028382,0.0 121.734541,25.028938,0.0 121.7348,25.029363,0.0 121.734646,25.029703,0.0 121.733728,25.029938,0.0 121.733591,25.030261,0.0 121.734098,25.031178,0.0 121.733884,25.031462,0.0 121.73339,25.031384,0.0 121.732444,25.031465,0.0 121.731573,25.031682,0.0 121.730615,25.031737,0.0 121.730578,25.031738,0.0</coordinates></LinearRing></outerBoundaryIs></Polygon><styleUrl>#spolygon-map</styleUrl></Placemark><Placemark><Polygon><outerBoundaryIs><LinearRing><coordinates>121.728167,25.04845,0.0 121.726606,25.049355,0.0 121.724038,25.048346,0.0 121.722283,25.048199,0.0 121.721359,25.04737,0.0 121.720661,25.04668,0.0 121.719992,25.045695,0.0 121.719125,25.044762,0.0 121.718245,25.043909,0.0 121.717813,25.042959,0.0 121.716595,25.042158,0.0 121.716249,25.041309,0.0 121.716641,25.03954,0.0 121.716147,25.038022,0.0 121.715894,25.03677,0.0 121.716124,25.036053,0.0 121.723013,25.034634,0.0 121.726631,25.033548,0.0 121.730615,25.031737,0.0 121.731573,25.031682,0.0 121.732444,25.031465,0.0 121.73339,25.031384,0.0 121.733884,25.031462,0.0 121.734098,25.031178,0.0 121.733591,25.030261,0.0 121.733728,25.029938,0.0 121.734646,25.029703,0.0 121.7348,25.029363,0.0 121.734541,25.028938,0.0 121.734774,25.028382,0.0 121.734749,25.02795,0.0 121.735209,25.027687,0.0 121.736144,25.027623,0.0 121.736288,25.027166,0.0 121.736551,25.026807,0.0 121.737245,25.026503,0.0 121.738259,25.025729,0.0 121.738463,25.025339,0.0 121.739049,25.025489,0.0 121.738814,25.02641,0.0 121.738345,25.027382,0.0 121.738956,25.027297,0.0 121.739342,25.026825,0.0 121.739044,25.028367,0.0 121.738968,25.028526,0.0 121.738781,25.028854,0.0 121.737993,25.030815,0.0 121.737613,25.031355,0.0 121.737808,25.031577,0.0 121.737753,25.031797,0.0 121.737065,25.034305,0.0 121.734968,25.036515,0.0 121.732315,25.039472,0.0 121.730436,25.042704,0.0 121.72993,25.045355,0.0 121.728167,25.04845,0.0</coordinates></LinearRing></outerBoundaryIs></Polygon><styleUrl>#spolygon-map</styleUrl></Placemark><Placemark><Polygon><outerBoundaryIs><LinearRing><coordinates>121.739945,25.053182,0.0 121.73961,25.053366,0.0 121.739257,25.053948,0.0 121.738969,25.054188,0.0 121.73839,25.054338,0.0 121.737961,25.054558,0.0 121.737621,25.054808,0.0 121.737231,25.054841,0.0 121.736652,25.054552,0.0 121.735996,25.054357,0.0 121.735297,25.054271,0.0 121.733421,25.053719,0.0 121.732786,25.053472,0.0 121.732474,25.053053,0.0 121.732199,25.052745,0.0 121.731811,25.05274,0.0 121.730834,25.053006,0.0 121.730256,25.052999,0.0 121.729892,25.053147,0.0 121.728846,25.05177,0.0 121.72705,25.05016,0.0 121.727562,25.049134,0.0 121.72993,25.045355,0.0 121.730436,25.042704,0.0 121.732315,25.039472,0.0 121.734968,25.036515,0.0 121.737065,25.034305,0.0 121.737753,25.031797,0.0 121.737808,25.031577,0.0 121.737613,25.031355,0.0 121.737993,25.030815,0.0 121.738781,25.028854,0.0 121.738968,25.028526,0.0 121.739044,25.028367,0.0 121.739342,25.026825,0.0 121.738956,25.027297,0.0 121.738345,25.027382,0.0 121.738814,25.02641,0.0 121.739049,25.025489,0.0 121.739125,25.02452,0.0 121.739947,25.025185,0.0 121.740748,25.02547,0.0 121.741989,25.025615,0.0 121.743652,25.025349,0.0 121.743357,25.025073,0.0 121.744001,25.024719,0.0 121.744123,25.024462,0.0 121.743792,25.024163,0.0 121.748639,25.023398,0.0 121.752685,25.0242,0.0 121.755641,25.02808,0.0 121.755753,25.028723,0.0 121.754008,25.029348,0.0 121.753277,25.027718,0.0 121.751078,25.02682,0.0 121.749171,25.027285,0.0 121.748126,25.028418,0.0 121.751239,25.028993,0.0 121.750295,25.034785,0.0 121.750242,25.03494,0.0 121.748385,25.037694,0.0 121.747496,25.040018,0.0 121.747408,25.040397,0.0 121.74642,25.043925,0.0 121.748272,25.046625,0.0 121.748526,25.050101,0.0 121.747916,25.052772,0.0 121.747784,25.054112,0.0 121.747299,25.053992,0.0 121.746798,25.053803,0.0 121.746283,25.053374,0.0 121.745929,25.053222,0.0 121.745037,25.053214,0.0 121.743907,25.053323,0.0 121.743578,25.053151,0.0 121.74331,25.052661,0.0 121.742925,25.05271,0.0 121.742533,25.053053,0.0 121.742088,25.053059,0.0 121.741648,25.053007,0.0 121.740946,25.053161,0.0 121.740206,25.053189,0.0 121.739945,25.053182,0.0</coordinates></LinearRing></outerBoundaryIs></Polygon><styleUrl>#spolygon-map</styleUrl></Placemark><Placemark><Polygon><outerBoundaryIs><LinearRing><coordinates>121.759203,25.01994,0.0 121.757473,25.022998,0.0 121.752685,25.0242,0.0 121.749175,25.022388,0.0 121.746112,25.020395,0.0 121.741918,25.019448,0.0 121.73966,25.017982,0.0 121.739441,25.014781,0.0 121.737312,25.011748,0.0 121.73541,25.010347,0.0 121.730489,25.009395,0.0 121.72564,25.010592,0.0 121.723179,25.009457,0.0 121.721179,25.008821,0.0 121.721935,25.008193,0.0 121.722315,25.007331,0.0 121.722443,25.006362,0.0 121.722642,25.005384,0.0 121.722345,25.004586,0.0 121.722324,25.00397,0.0 121.722186,25.003288,0.0 121.721805,25.002111,0.0 121.721571,25.001127,0.0 121.720509,25.000894,0.0 121.720671,24.999627,0.0 121.721509,24.998306,0.0 121.72218,24.997927,0.0 121.722497,24.997668,0.0 121.722836,24.997336,0.0 121.723173,24.996992,0.0 121.723356,24.996601,0.0 121.723591,24.996291,0.0 121.723809,24.995937,0.0 121.723834,24.995498,0.0 121.723924,24.995225,0.0 121.724051,24.99499,0.0 121.724207,24.994718,0.0 121.724279,24.994422,0.0 121.724398,24.994178,0.0 121.724533,24.993859,0.0 121.724699,24.993512,0.0 121.724825,24.993145,0.0 121.724899,24.992798,0.0 121.725001,24.992404,0.0 121.725116,24.992105,0.0 121.725393,24.991751,0.0 121.725581,24.991447,0.0 121.725777,24.991026,0.0 121.726004,24.990739,0.0 121.726354,24.990416,0.0 121.726654,24.990005,0.0 121.72681,24.989558,0.0 121.726798,24.98916,0.0 121.726349,24.988698,0.0 121.726059,24.988391,0.0 121.725742,24.988109,0.0 121.72537,24.987841,0.0 121.725036,24.987524,0.0 121.724852,24.987102,0.0 121.724591,24.986578,0.0 121.724604,24.986054,0.0 121.7248,24.985418,0.0 121.724848,24.985093,0.0 121.724762,24.984433,0.0 121.724663,24.983952,0.0 121.724483,24.983521,0.0 121.724272,24.983178,0.0 121.723868,24.982752,0.0 121.723531,24.982521,0.0 121.723064,24.982417,0.0 121.722677,24.982437,0.0 121.721885,24.982285,0.0 121.721616,24.982031,0.0 121.721287,24.981755,0.0 121.720959,24.981409,0.0 121.720862,24.981077,0.0 121.720779,24.980635,0.0 121.720577,24.980225,0.0 121.72008,24.980195,0.0 121.719631,24.980122,0.0 121.719167,24.980079,0.0 121.71871,24.980124,0.0 121.718251,24.97987,0.0 121.717895,24.979621,0.0 121.717554,24.979373,0.0 121.717283,24.978871,0.0 121.717326,24.978238,0.0 121.717533,24.977811,0.0 121.717794,24.977538,0.0 121.718085,24.977239,0.0 121.718303,24.976776,0.0 121.718373,24.976352,0.0 121.718423,24.975932,0.0 121.718393,24.975473,0.0 121.718244,24.975044,0.0 121.719249,24.974539,0.0 121.719718,24.974379,0.0 121.72027,24.974215,0.0 121.720774,24.974021,0.0 121.721381,24.974043,0.0 121.721887,24.974194,0.0 121.722742,24.974611,0.0 121.723118,24.974778,0.0 121.723547,24.974948,0.0 121.724006,24.975058,0.0 121.724513,24.975133,0.0 121.724943,24.974965,0.0 121.725412,24.974732,0.0 121.726005,24.97471,0.0 121.7266,24.974759,0.0 121.727099,24.974734,0.0 121.727686,24.975222,0.0 121.728482,24.975092,0.0 121.728975,24.975062,0.0 121.729528,24.975162,0.0 121.73054,24.975576,0.0 121.731091,24.975862,0.0 121.731474,24.975831,0.0 121.731979,24.975857,0.0 121.732366,24.975949,0.0 121.732762,24.975968,0.0 121.73305,24.975951,0.0 121.733365,24.976136,0.0 121.733685,24.976424,0.0 121.734084,24.97639,0.0 121.734703,24.976216,0.0 121.735194,24.976027,0.0 121.735598,24.975808,0.0 121.736009,24.97574,0.0 121.736506,24.975743,0.0 121.736717,24.975977,0.0 121.736796,24.976413,0.0 121.736825,24.976832,0.0 121.736966,24.977242,0.0 121.737125,24.977527,0.0 121.737496,24.977525,0.0 121.737699,24.977737,0.0 121.737872,24.977977,0.0 121.737982,24.978257,0.0 121.737992,24.978537,0.0 121.738277,24.978764,0.0 121.73847,24.978999,0.0 121.738576,24.979323,0.0 121.73878,24.979713,0.0 121.739033,24.979672,0.0 121.739221,24.979403,0.0 121.739503,24.979142,0.0 121.739842,24.97912,0.0 121.740202,24.979316,0.0 121.74057,24.979496,0.0 121.740911,24.979452,0.0 121.74136,24.97927,0.0 121.74213,24.97958,0.0 121.742396,24.979727,0.0 121.74268,24.979456,0.0 121.742714,24.979024,0.0 121.742821,24.978622,0.0 121.743152,24.978139,0.0 121.743243,24.977874,0.0 121.743371,24.977341,0.0 121.743414,24.976989,0.0 121.743593,24.976594,0.0 121.743773,24.976122,0.0 121.743722,24.975916,0.0 121.743918,24.975472,0.0 121.744142,24.975119,0.0 121.744809,24.975257,0.0 121.745403,24.975267,0.0 121.74599,24.975243,0.0 121.746382,24.975157,0.0 121.746706,24.974973,0.0 121.746989,24.974932,0.0 121.747655,24.97444,0.0 121.74839,24.97429,0.0 121.748941,24.974465,0.0 121.749635,24.974908,0.0 121.749992,24.975243,0.0 121.750344,24.975577,0.0 121.750894,24.975973,0.0 121.751338,24.976279,0.0 121.751859,24.976759,0.0 121.752297,24.977078,0.0 121.752808,24.976783,0.0 121.753097,24.976759,0.0 121.753395,24.976583,0.0 121.753904,24.976841,0.0 121.754349,24.976955,0.0 121.754921,24.977037,0.0 121.755569,24.977495,0.0 121.756039,24.977722,0.0 121.756549,24.977622,0.0 121.757038,24.977292,0.0 121.757437,24.977143,0.0 121.75796,24.977065,0.0 121.758573,24.976894,0.0 121.758957,24.977055,0.0 121.759272,24.977323,0.0 121.759616,24.97764,0.0 121.759868,24.97807,0.0 121.76025,24.978377,0.0 121.760675,24.978591,0.0 121.761188,24.978564,0.0 121.761871,24.97873,0.0 121.762357,24.978979,0.0 121.762699,24.979346,0.0 121.76302,24.979799,0.0 121.76341,24.980165,0.0 121.76356,24.980475,0.0 121.76387,24.980696,0.0 121.764288,24.980707,0.0 121.764696,24.980596,0.0 121.764956,24.980314,0.0 121.765447,24.980113,0.0 121.765857,24.979995,0.0 121.766335,24.979866,0.0 121.766911,24.979688,0.0 121.767598,24.979555,0.0 121.768232,24.979637,0.0 121.769118,24.979881,0.0 121.769618,24.97979,0.0 121.770125,24.979593,0.0 121.771056,24.979501,0.0 121.771379,24.979562,0.0 121.771666,24.979837,0.0 121.771949,24.980257,0.0 121.772257,24.980641,0.0 121.772734,24.98117,0.0 121.773133,24.981368,0.0 121.773304,24.981818,0.0 121.773464,24.982287,0.0 121.773813,24.982871,0.0 121.774072,24.983154,0.0 121.774301,24.983493,0.0 121.774573,24.983853,0.0 121.774787,24.984268,0.0 121.774897,24.984694,0.0 121.775012,24.985081,0.0 121.775276,24.98543,0.0 121.77567,24.98601,0.0 121.775456,24.986817,0.0 121.775087,24.987208,0.0 121.774886,24.987646,0.0 121.774705,24.988199,0.0 121.774248,24.98856,0.0 121.773658,24.988586,0.0 121.773276,24.988947,0.0 121.772845,24.9891,0.0 121.772416,24.989003,0.0 121.771748,24.98892,0.0 121.771109,24.988938,0.0 121.77058,24.989127,0.0 121.769753,24.989351,0.0 121.769502,24.989675,0.0 121.769126,24.990018,0.0 121.76873,24.990192,0.0 121.768684,24.990781,0.0 121.768605,24.991176,0.0 121.768372,24.991521,0.0 121.768105,24.991915,0.0 121.767845,24.992262,0.0 121.767534,24.992524,0.0 121.767185,24.992751,0.0 121.766622,24.99294,0.0 121.766243,24.992988,0.0 121.765863,24.993025,0.0 121.765475,24.993118,0.0 121.765058,24.99328,0.0 121.764778,24.993504,0.0 121.76464,24.993773,0.0 121.764554,24.99415,0.0 121.764528,24.994593,0.0 121.764487,24.994997,0.0 121.764374,24.995345,0.0 121.764111,24.9958,0.0 121.763759,24.996012,0.0 121.762962,24.99659,0.0 121.761666,24.998356,0.0 121.762829,24.999531,0.0 121.762868,25.001807,0.0 121.763352,25.004057,0.0 121.763795,25.005607,0.0 121.762358,25.007409,0.0 121.758635,25.009832,0.0 121.758489,25.012899,0.0 121.758483,25.015692,0.0 121.759203,25.01994,0.0</coordinates></LinearRing></outerBoundaryIs></Polygon><styleUrl>#spolygon-map</styleUrl></Placemark><Placemark><Polygon><outerBoundaryIs><LinearRing><coordinates>121.759922,25.059227,0.0 121.759259,25.059401,0.0 121.758698,25.059584,0.0 121.758105,25.05958,0.0 121.757938,25.059248,0.0 121.757613,25.059352,0.0 121.757244,25.059467,0.0 121.756714,25.059252,0.0 121.755209,25.058384,0.0 121.75469,25.058238,0.0 121.75403,25.058254,0.0 121.753134,25.058003,0.0 121.752641,25.05782,0.0 121.752001,25.057788,0.0 121.751375,25.057522,0.0 121.75046,25.056833,0.0 121.749726,25.056003,0.0 121.749284,25.055646,0.0 121.748698,25.055484,0.0 121.748221,25.055227,0.0 121.747898,25.054889,0.0 121.747852,25.054493,0.0 121.747784,25.054112,0.0 121.747916,25.052772,0.0 121.748526,25.050101,0.0 121.748272,25.046625,0.0 121.74642,25.043925,0.0 121.747408,25.040397,0.0 121.747496,25.040018,0.0 121.748385,25.037694,0.0 121.750242,25.03494,0.0 121.750295,25.034785,0.0 121.751239,25.028993,0.0 121.748126,25.028418,0.0 121.749171,25.027285,0.0 121.751078,25.02682,0.0 121.753277,25.027718,0.0 121.754008,25.029348,0.0 121.755753,25.028723,0.0 121.755641,25.02808,0.0 121.758385,25.02231,0.0 121.758775,25.017906,0.0 121.758918,25.015053,0.0 121.758854,25.012025,0.0 121.759304,25.009134,0.0 121.763552,25.007117,0.0 121.763425,25.009461,0.0 121.765114,25.012074,0.0 121.765323,25.014458,0.0 121.766587,25.01638,0.0 121.768155,25.017386,0.0 121.77109,25.017965,0.0 121.773171,25.019945,0.0 121.772306,25.021521,0.0 121.771935,25.02304,0.0 121.772007,25.023308,0.0 121.771324,25.024602,0.0 121.769359,25.02703,0.0 121.766513,25.028478,0.0 121.762955,25.029934,0.0 121.762411,25.030444,0.0 121.762184,25.030886,0.0 121.761999,25.031457,0.0 121.761953,25.032028,0.0 121.761943,25.032572,0.0 121.761881,25.032893,0.0 121.761693,25.033512,0.0 121.762979,25.033694,0.0 121.764079,25.034123,0.0 121.765742,25.034614,0.0 121.76684,25.033927,0.0 121.767243,25.034353,0.0 121.766454,25.035303,0.0 121.766427,25.03536,0.0 121.766197,25.036105,0.0 121.764738,25.041128,0.0 121.763343,25.044637,0.0 121.764193,25.047357,0.0 121.763688,25.052517,0.0 121.762995,25.057145,0.0 121.76413,25.05753,0.0 121.763596,25.057481,0.0 121.762915,25.057772,0.0 121.761797,25.05835,0.0 121.761205,25.059058,0.0 121.760898,25.059277,0.0 121.760366,25.059245,0.0 121.759922,25.059227,0.0</coordinates></LinearRing></outerBoundaryIs></Polygon><styleUrl>#spolygon-map</styleUrl></Placemark><Placemark><Polygon><outerBoundaryIs><LinearRing><coordinates>121.81362,25.054743,0.0 121.813829,25.05546,0.0 121.814075,25.056147,0.0 121.814276,25.05687,0.0 121.814342,25.057697,0.0 121.813813,25.057902,0.0 121.813448,25.057796,0.0 121.813295,25.057762,0.0 121.812799,25.057642,0.0 121.80829,25.055018,0.0 121.80825,25.054983,0.0 121.808148,25.054911,0.0 121.808072,25.054865,0.0 121.807087,25.05473,0.0 121.806745,25.054831,0.0 121.805495,25.055445,0.0 121.804611,25.055548,0.0 121.803538,25.055138,0.0 121.802422,25.054178,0.0 121.801728,25.053351,0.0 121.80015,25.051687,0.0 121.799025,25.050705,0.0 121.797946,25.050529,0.0 121.796688,25.050823,0.0 121.795657,25.050999,0.0 121.794594,25.051554,0.0 121.793601,25.052183,0.0 121.792597,25.052017,0.0 121.791433,25.051663,0.0 121.790767,25.051069,0.0 121.790084,25.049912,0.0 121.789571,25.049666,0.0 121.788398,25.049725,0.0 121.787798,25.049206,0.0 121.787133,25.048972,0.0 121.785891,25.049031,0.0 121.785278,25.048691,0.0 121.785044,25.047961,0.0 121.784759,25.047222,0.0 121.783693,25.047368,0.0 121.78289,25.047929,0.0 121.7822,25.047795,0.0 121.781884,25.047183,0.0 121.781686,25.046363,0.0 121.781251,25.045013,0.0 121.781517,25.044613,0.0 121.781321,25.043892,0.0 121.780691,25.043487,0.0 121.779639,25.043384,0.0 121.778585,25.043115,0.0 121.77783,25.042681,0.0 121.777253,25.042063,0.0 121.776706,25.041724,0.0 121.77608,25.041256,0.0 121.775458,25.039796,0.0 121.774201,25.038362,0.0 121.773029,25.038283,0.0 121.772452,25.038551,0.0 121.771461,25.039059,0.0 121.770875,25.038824,0.0 121.770711,25.038155,0.0 121.770266,25.035853,0.0 121.768793,25.034435,0.0 121.767096,25.033826,0.0 121.765945,25.034552,0.0 121.765188,25.034549,0.0 121.763344,25.033814,0.0 121.761943,25.033603,0.0 121.761734,25.033227,0.0 121.761963,25.032712,0.0 121.761924,25.032243,0.0 121.761995,25.031573,0.0 121.762126,25.031027,0.0 121.76231,25.030601,0.0 121.762803,25.029987,0.0 121.764728,25.029119,0.0 121.768509,25.027314,0.0 121.770825,25.025312,0.0 121.774039,25.02694,0.0 121.773315,25.028452,0.0 121.774154,25.030704,0.0 121.776585,25.032935,0.0 121.778156,25.035393,0.0 121.777565,25.036806,0.0 121.780094,25.039061,0.0 121.782705,25.034566,0.0 121.783256,25.031192,0.0 121.786277,25.032382,0.0 121.78992,25.034634,0.0 121.792564,25.035682,0.0 121.795734,25.036695,0.0 121.798349,25.037735,0.0 121.801296,25.037766,0.0 121.803043,25.036867,0.0 121.805005,25.037057,0.0 121.807477,25.037364,0.0 121.809486,25.037735,0.0 121.810161,25.038868,0.0 121.811449,25.039721,0.0 121.812433,25.040685,0.0 121.813876,25.041305,0.0 121.81523,25.041249,0.0 121.816109,25.04134,0.0 121.816866,25.042301,0.0 121.816163,25.043553,0.0 121.815387,25.044495,0.0 121.81475,25.045848,0.0 121.815283,25.047191,0.0 121.815187,25.048424,0.0 121.815002,25.048892,0.0 121.814562,25.049491,0.0 121.814225,25.050013,0.0 121.814194,25.050659,0.0 121.81396,25.051292,0.0 121.81359,25.051739,0.0 121.813606,25.052522,0.0 121.813489,25.05314,0.0 121.813493,25.05375,0.0 121.813544,25.054386,0.0 121.81362,25.054743,0.0</coordinates></LinearRing></outerBoundaryIs></Polygon><styleUrl>#spolygon-map</styleUrl></Placemark><Placemark><Polygon><outerBoundaryIs><LinearRing><coordinates>121.781078,25.031823,0.0 121.782701,25.037748,0.0 121.779217,25.03862,0.0 121.777334,25.036148,0.0 121.778287,25.034605,0.0 121.775571,25.032008,0.0 121.773622,25.029893,0.0 121.773545,25.027866,0.0 121.773132,25.026241,0.0 121.771615,25.023993,0.0 121.772082,25.023233,0.0 121.771948,25.022923,0.0 121.77287,25.021213,0.0 121.772591,25.019203,0.0 121.770443,25.017931,0.0 121.767583,25.017098,0.0 121.766119,25.015937,0.0 121.765548,25.01379,0.0 121.764551,25.011388,0.0 121.76329,25.008755,0.0 121.764006,25.006011,0.0 121.763285,25.004291,0.0 121.763075,25.002229,0.0 121.762853,25.000285,0.0 121.762054,24.998785,0.0 121.76238,24.997087,0.0 121.764008,24.996184,0.0 121.764384,24.996354,0.0 121.764721,24.996603,0.0 121.764922,24.996959,0.0 121.765224,24.997187,0.0 121.765541,24.997356,0.0 121.765938,24.997733,0.0 121.766341,24.998021,0.0 121.766778,24.998297,0.0 121.767562,24.998864,0.0 121.7682,24.999049,0.0 121.768669,24.999211,0.0 121.769126,24.99982,0.0 121.769808,25.000179,0.0 121.770823,25.00031,0.0 121.771603,25.000772,0.0 121.772169,25.001272,0.0 121.772724,25.001748,0.0 121.77372,25.002159,0.0 121.774814,25.002639,0.0 121.774966,25.003243,0.0 121.775664,25.003713,0.0 121.776297,25.004544,0.0 121.776782,25.005298,0.0 121.777201,25.006087,0.0 121.777713,25.006106,0.0 121.779007,25.006708,0.0 121.778728,25.007453,0.0 121.778946,25.008323,0.0 121.779559,25.009298,0.0 121.780076,25.01028,0.0 121.780617,25.010758,0.0 121.782,25.011166,0.0 121.78225,25.012069,0.0 121.783247,25.012772,0.0 121.783804,25.013132,0.0 121.784395,25.013797,0.0 121.78427,25.014549,0.0 121.784311,25.015333,0.0 121.784558,25.01627,0.0 121.784556,25.01717,0.0 121.784593,25.017945,0.0 121.785014,25.0184,0.0 121.78545,25.018913,0.0 121.786072,25.019462,0.0 121.786634,25.020183,0.0 121.787178,25.020647,0.0 121.788142,25.021162,0.0 121.788408,25.021691,0.0 121.788537,25.022391,0.0 121.78911,25.023004,0.0 121.789907,25.022862,0.0 121.791412,25.022992,0.0 121.79278,25.023634,0.0 121.794385,25.025021,0.0 121.79523,25.025837,0.0 121.795889,25.026579,0.0 121.796597,25.027099,0.0 121.797208,25.028003,0.0 121.798229,25.028975,0.0 121.799323,25.030002,0.0 121.800579,25.030204,0.0 121.801756,25.030532,0.0 121.802801,25.030945,0.0 121.804158,25.031169,0.0 121.805577,25.03167,0.0 121.806793,25.031891,0.0 121.807355,25.032789,0.0 121.807908,25.033696,0.0 121.808348,25.03462,0.0 121.808693,25.035767,0.0 121.808482,25.036904,0.0 121.809048,25.037673,0.0 121.806578,25.037189,0.0 121.804423,25.036555,0.0 121.802318,25.037176,0.0 121.80038,25.037509,0.0 121.797335,25.03732,0.0 121.79507,25.035638,0.0 121.791769,25.034791,0.0 121.788618,25.033538,0.0 121.784714,25.032562,0.0 121.781078,25.031823,0.0</coordinates></LinearRing></outerBoundaryIs></Polygon><styleUrl>#spolygon-map</styleUrl></Placemark><Placemark><Polygon><outerBoundaryIs><LinearRing><coordinates>121.781911,25.051313,0.0 121.780195,25.051217,0.0 121.777468,25.050354,0.0 121.776544,25.049064,0.0 121.772998,25.048953,0.0 121.763948,25.047093,0.0 121.763404,25.044284,0.0 121.765005,25.040718,0.0 121.766274,25.035934,0.0 121.766428,25.035355,0.0 121.766455,25.035301,0.0 121.767277,25.034128,0.0 121.768907,25.034525,0.0 121.770434,25.036185,0.0 121.770726,25.038311,0.0 121.770932,25.038881,0.0 121.7716,25.039043,0.0 121.772516,25.038532,0.0 121.773506,25.038125,0.0 121.77452,25.038644,0.0 121.775728,25.040446,0.0 121.776373,25.041497,0.0 121.777018,25.041893,0.0 121.7774,25.042222,0.0 121.777944,25.042785,0.0 121.778943,25.043226,0.0 121.779996,25.043431,0.0 121.780874,25.043522,0.0 121.78151,25.044306,0.0 121.781403,25.044708,0.0 121.781274,25.045212,0.0 121.781697,25.046495,0.0 121.781998,25.047519,0.0 121.782337,25.047857,0.0 121.783284,25.047803,0.0 121.784063,25.047147,0.0 121.784773,25.047234,0.0 121.785074,25.048193,0.0 121.784845,25.048725,0.0 121.783885,25.048829,0.0 121.783754,25.049514,0.0 121.783834,25.050194,0.0 121.783273,25.050563,0.0 121.782894,25.051249,0.0 121.782685,25.051458,0.0 121.781911,25.051313,0.0</coordinates></LinearRing></outerBoundaryIs></Polygon><styleUrl>#spolygon-map</styleUrl></Placemark><Placemark><Polygon><outerBoundaryIs><LinearRing><coordinates>121.798318,25.075485,0.0 121.797489,25.07614,0.0 121.796851,25.076312,0.0 121.796301,25.07661,0.0 121.795402,25.077309,0.0 121.792537,25.076865,0.0 121.789433,25.075908,0.0 121.788236,25.07515,0.0 121.786087,25.073541,0.0 121.782524,25.072414,0.0 121.781189,25.071505,0.0 121.780869,25.071151,0.0 121.779941,25.071109,0.0 121.779476,25.070968,0.0 121.778846,25.071042,0.0 121.778446,25.071229,0.0 121.777923,25.071151,0.0 121.777369,25.070891,0.0 121.77686,25.070679,0.0 121.776361,25.070477,0.0 121.775934,25.070196,0.0 121.77562,25.06981,0.0 121.774951,25.069009,0.0 121.773431,25.067403,0.0 121.772977,25.066639,0.0 121.772776,25.065896,0.0 121.772701,25.065224,0.0 121.772285,25.06426,0.0 121.771814,25.063554,0.0 121.771441,25.063503,0.0 121.77062,25.063646,0.0 121.770061,25.063379,0.0 121.769266,25.063015,0.0 121.767528,25.06171,0.0 121.766889,25.061099,0.0 121.766548,25.060304,0.0 121.765618,25.058739,0.0 121.765059,25.058052,0.0 121.764467,25.057648,0.0 121.763923,25.057392,0.0 121.762547,25.056958,0.0 121.764992,25.049718,0.0 121.774375,25.048781,0.0 121.776805,25.049326,0.0 121.777935,25.050149,0.0 121.78082,25.051498,0.0 121.782032,25.051321,0.0 121.782858,25.051456,0.0 121.783061,25.050829,0.0 121.783748,25.050282,0.0 121.783921,25.049962,0.0 121.783649,25.04921,0.0 121.784348,25.048822,0.0 121.785278,25.048691,0.0 121.785891,25.049031,0.0 121.787133,25.048972,0.0 121.787798,25.049206,0.0 121.788398,25.049725,0.0 121.789571,25.049666,0.0 121.790084,25.049912,0.0 121.790767,25.051069,0.0 121.791433,25.051663,0.0 121.792597,25.052017,0.0 121.793601,25.052183,0.0 121.794594,25.051554,0.0 121.795657,25.050999,0.0 121.796688,25.050823,0.0 121.797946,25.050529,0.0 121.799025,25.050705,0.0 121.80015,25.051687,0.0 121.801728,25.053351,0.0 121.802422,25.054178,0.0 121.803538,25.055138,0.0 121.804611,25.055548,0.0 121.805495,25.055445,0.0 121.806745,25.054831,0.0 121.807087,25.05473,0.0 121.808072,25.054865,0.0 121.808148,25.054911,0.0 121.80825,25.054983,0.0 121.80829,25.055018,0.0 121.812799,25.057642,0.0 121.813295,25.057762,0.0 121.813448,25.057796,0.0 121.813813,25.057902,0.0 121.813894,25.058391,0.0 121.813408,25.058741,0.0 121.812958,25.059057,0.0 121.812412,25.059281,0.0 121.81166,25.059429,0.0 121.811,25.059534,0.0 121.810289,25.059666,0.0 121.809721,25.059541,0.0 121.809072,25.059299,0.0 121.80839,25.059115,0.0 121.808047,25.058937,0.0 121.807537,25.058612,0.0 121.807089,25.058286,0.0 121.806739,25.058057,0.0 121.806324,25.058162,0.0 121.80597,25.058399,0.0 121.805752,25.05879,0.0 121.80562,25.059281,0.0 121.805445,25.059664,0.0 121.805211,25.060088,0.0 121.805003,25.060537,0.0 121.804909,25.061065,0.0 121.804879,25.061493,0.0 121.805096,25.062096,0.0 121.805045,25.062519,0.0 121.804813,25.062979,0.0 121.804481,25.063349,0.0 121.804578,25.063688,0.0 121.804901,25.064011,0.0 121.805064,25.064341,0.0 121.805213,25.064713,0.0 121.805529,25.064848,0.0 121.805655,25.065215,0.0 121.805671,25.065816,0.0 121.805676,25.066269,0.0 121.805388,25.066711,0.0 121.804948,25.067131,0.0 121.804573,25.067418,0.0 121.804067,25.067503,0.0 121.803586,25.06769,0.0 121.803285,25.068018,0.0 121.803048,25.068398,0.0 121.802765,25.068962,0.0 121.802418,25.069402,0.0 121.802058,25.06983,0.0 121.801768,25.070315,0.0 121.801496,25.070925,0.0 121.801296,25.071385,0.0 121.800968,25.072023,0.0 121.800715,25.072497,0.0 121.800492,25.072859,0.0 121.800084,25.073342,0.0 121.799594,25.073777,0.0 121.799298,25.074231,0.0 121.79909,25.074715,0.0 121.798725,25.075087,0.0 121.798318,25.075485,0.0</coordinates></LinearRing></outerBoundaryIs></Polygon><styleUrl>#spolygon-map</styleUrl></Placemark></Document>
</kml>
