<?xml version="1.0" encoding="UTF-8"?>
<kml xmlns="http://www.opengis.net/kml/2.2">
	<Document>
		<name>新北市八里區</name>
		<Style id="spolygon">
			<LabelStyle>
				<scale>0.0</scale>
			</LabelStyle>
			<LineStyle>
				<color>330030ff</color>
				<width>0</width>
			</LineStyle>
			<PolyStyle>
				<color>330030ff</color>
			</PolyStyle>
		</Style>
		<StyleMap id="spolygon-map">
			<Pair>
				<key>normal</key>
				<styleUrl>#spolygon</styleUrl>
			</Pair>
		</StyleMap>
	<Placemark><Polygon><outerBoundaryIs><LinearRing><coordinates>121.434171,25.135441,0.0 121.430479,25.137747,0.0 121.426107,25.135855,0.0 121.425115,25.131934,0.0 121.425194,25.131245,0.0 121.425533,25.130913,0.0 121.425907,25.130101,0.0 121.426121,25.129592,0.0 121.426599,25.129587,0.0 121.427716,25.129342,0.0 121.428616,25.129115,0.0 121.429432,25.128691,0.0 121.430348,25.128601,0.0 121.431377,25.128947,0.0 121.432324,25.128541,0.0 121.432968,25.127986,0.0 121.43366,25.127828,0.0 121.434658,25.12768,0.0 121.435677,25.127366,0.0 121.43627,25.126957,0.0 121.437094,25.12633,0.0 121.43764,25.125483,0.0 121.438245,25.125047,0.0 121.438935,25.125185,0.0 121.439488,25.125013,0.0 121.440757,25.124078,0.0 121.441381,25.123196,0.0 121.441974,25.12313,0.0 121.442764,25.122942,0.0 121.44358,25.122946,0.0 121.444775,25.123079,0.0 121.445644,25.123114,0.0 121.446721,25.122587,0.0 121.447733,25.122057,0.0 121.448179,25.121065,0.0 121.44901,25.120169,0.0 121.449927,25.120242,0.0 121.451035,25.120357,0.0 121.451834,25.120088,0.0 121.452804,25.120642,0.0 121.453022,25.120391,0.0 121.453337,25.119064,0.0 121.454316,25.118799,0.0 121.455347,25.118526,0.0 121.455779,25.118232,0.0 121.456075,25.117809,0.0 121.455583,25.117608,0.0 121.455464,25.116565,0.0 121.45554,25.116182,0.0 121.456002,25.115755,0.0 121.456521,25.114675,0.0 121.457993,25.114336,0.0 121.458547,25.11327,0.0 121.458759,25.112787,0.0 121.460377,25.113939,0.0 121.458832,25.122648,0.0 121.458729,25.123404,0.0 121.458654,25.124523,0.0 121.457932,25.125207,0.0 121.457305,25.125664,0.0 121.456869,25.126428,0.0 121.456612,25.127766,0.0 121.456353,25.129221,0.0 121.456149,25.130362,0.0 121.455922,25.131636,0.0 121.455379,25.134495,0.0 121.4548,25.13737,0.0 121.454459,25.138958,0.0 121.45003,25.138132,0.0 121.449531,25.138127,0.0 121.445836,25.137977,0.0 121.445637,25.138262,0.0 121.445353,25.138483,0.0 121.44501,25.138738,0.0 121.444394,25.138776,0.0 121.443542,25.138158,0.0 121.438278,25.136336,0.0 121.438116,25.135815,0.0 121.437843,25.135712,0.0 121.437351,25.135377,0.0 121.436372,25.135416,0.0 121.435062,25.135811,0.0 121.434171,25.135441,0.0</coordinates></LinearRing></outerBoundaryIs></Polygon><styleUrl>#spolygon-map</styleUrl></Placemark><Placemark><Polygon><outerBoundaryIs><LinearRing><coordinates>121.442815,25.161067,0.0 121.441502,25.162167,0.0 121.440118,25.163224,0.0 121.438605,25.164234,0.0 121.436393,25.16563,0.0 121.43417,25.167122,0.0 121.432972,25.16775,0.0 121.431779,25.168196,0.0 121.429758,25.161141,0.0 121.430006,25.16088,0.0 121.430268,25.160745,0.0 121.430638,25.160639,0.0 121.430967,25.160539,0.0 121.430513,25.159811,0.0 121.430687,25.159098,0.0 121.430099,25.159075,0.0 121.429592,25.158907,0.0 121.427185,25.157485,0.0 121.426096,25.157866,0.0 121.426191,25.157332,0.0 121.426234,25.156562,0.0 121.425993,25.155877,0.0 121.425494,25.155602,0.0 121.425068,25.155303,0.0 121.425232,25.155084,0.0 121.425211,25.154676,0.0 121.424782,25.154686,0.0 121.424687,25.154459,0.0 121.424852,25.154136,0.0 121.425113,25.153791,0.0 121.425423,25.153081,0.0 121.425927,25.153128,0.0 121.427141,25.152954,0.0 121.427655,25.15308,0.0 121.428304,25.153054,0.0 121.428859,25.153245,0.0 121.429202,25.153145,0.0 121.429318,25.152732,0.0 121.429447,25.152385,0.0 121.429752,25.152024,0.0 121.43018,25.151575,0.0 121.429702,25.151293,0.0 121.429494,25.150721,0.0 121.430767,25.148491,0.0 121.431381,25.147939,0.0 121.430886,25.147049,0.0 121.430023,25.146567,0.0 121.429763,25.145918,0.0 121.427416,25.140663,0.0 121.433777,25.135697,0.0 121.434651,25.135478,0.0 121.435663,25.135878,0.0 121.437032,25.13538,0.0 121.437682,25.135672,0.0 121.43797,25.135755,0.0 121.43819,25.136051,0.0 121.438493,25.136376,0.0 121.444277,25.13878,0.0 121.444803,25.138619,0.0 121.445255,25.138515,0.0 121.445525,25.138399,0.0 121.445788,25.138131,0.0 121.448916,25.137944,0.0 121.450039,25.138199,0.0 121.450989,25.138215,0.0 121.454177,25.139915,0.0 121.453703,25.141852,0.0 121.453382,25.143284,0.0 121.453087,25.144669,0.0 121.452598,25.146808,0.0 121.452047,25.148374,0.0 121.451653,25.14961,0.0 121.451331,25.150482,0.0 121.450831,25.151714,0.0 121.450233,25.153027,0.0 121.449635,25.153975,0.0 121.448973,25.154866,0.0 121.447974,25.156048,0.0 121.446866,25.157265,0.0 121.445807,25.158331,0.0 121.444782,25.159303,0.0 121.443634,25.160348,0.0 121.442815,25.161067,0.0</coordinates></LinearRing></outerBoundaryIs></Polygon><styleUrl>#spolygon-map</styleUrl></Placemark><Placemark><Polygon><outerBoundaryIs><LinearRing><coordinates>121.431695,25.168219,0.0 121.430382,25.168698,0.0 121.428815,25.169387,0.0 121.427055,25.170169,0.0 121.42042,25.167865,0.0 121.416833,25.165039,0.0 121.416434,25.164135,0.0 121.416387,25.163489,0.0 121.416937,25.163172,0.0 121.416756,25.162833,0.0 121.415511,25.162444,0.0 121.41484,25.161314,0.0 121.415102,25.160795,0.0 121.414417,25.159922,0.0 121.414911,25.158187,0.0 121.414631,25.155318,0.0 121.414497,25.153968,0.0 121.414847,25.153558,0.0 121.415447,25.152979,0.0 121.415767,25.1529,0.0 121.41622,25.151477,0.0 121.41982,25.149652,0.0 121.420255,25.149199,0.0 121.420558,25.148425,0.0 121.421876,25.149096,0.0 121.422506,25.149106,0.0 121.422088,25.148391,0.0 121.420754,25.146819,0.0 121.420108,25.146058,0.0 121.419834,25.145595,0.0 121.420499,25.145457,0.0 121.421062,25.145148,0.0 121.421855,25.141118,0.0 121.422071,25.140579,0.0 121.424787,25.136113,0.0 121.427423,25.140686,0.0 121.429821,25.146056,0.0 121.430061,25.146578,0.0 121.430943,25.147147,0.0 121.431343,25.147976,0.0 121.430324,25.149071,0.0 121.429499,25.15077,0.0 121.429736,25.151316,0.0 121.430195,25.151592,0.0 121.429703,25.152057,0.0 121.429412,25.152452,0.0 121.429317,25.152854,0.0 121.429173,25.153156,0.0 121.428805,25.15331,0.0 121.428265,25.153012,0.0 121.427626,25.153073,0.0 121.427008,25.152998,0.0 121.425767,25.153061,0.0 121.425406,25.153131,0.0 121.425075,25.153971,0.0 121.424824,25.154151,0.0 121.42466,25.154553,0.0 121.424873,25.154679,0.0 121.425212,25.154746,0.0 121.425233,25.155105,0.0 121.425091,25.155401,0.0 121.425654,25.155585,0.0 121.425957,25.156075,0.0 121.426246,25.156663,0.0 121.426138,25.157409,0.0 121.426151,25.157869,0.0 121.427664,25.157321,0.0 121.429747,25.158962,0.0 121.430151,25.159061,0.0 121.430714,25.159165,0.0 121.430631,25.159934,0.0 121.430984,25.160556,0.0 121.430599,25.16065,0.0 121.430244,25.160745,0.0 121.429964,25.160929,0.0 121.429743,25.161169,0.0 121.431695,25.168219,0.0</coordinates></LinearRing></outerBoundaryIs></Polygon><styleUrl>#spolygon-map</styleUrl></Placemark><Placemark><Polygon><outerBoundaryIs><LinearRing><coordinates>121.42042,25.167865,0.0 121.423444,25.171946,0.0 121.420761,25.173563,0.0 121.419346,25.174426,0.0 121.417929,25.175256,0.0 121.412533,25.168487,0.0 121.411479,25.166934,0.0 121.4098,25.165878,0.0 121.409513,25.164188,0.0 121.410455,25.163464,0.0 121.412249,25.161998,0.0 121.412674,25.160332,0.0 121.412453,25.160061,0.0 121.412323,25.159743,0.0 121.411928,25.159291,0.0 121.41145,25.158708,0.0 121.410085,25.157017,0.0 121.411737,25.153201,0.0 121.416247,25.147689,0.0 121.416366,25.146748,0.0 121.416704,25.146666,0.0 121.415988,25.146469,0.0 121.415754,25.146239,0.0 121.41566,25.145283,0.0 121.415284,25.144611,0.0 121.414918,25.144509,0.0 121.414464,25.144295,0.0 121.414049,25.144338,0.0 121.413077,25.142186,0.0 121.412912,25.141728,0.0 121.414504,25.13897,0.0 121.418718,25.130386,0.0 121.418935,25.130069,0.0 121.420069,25.130131,0.0 121.420532,25.129873,0.0 121.4211,25.129516,0.0 121.421955,25.129943,0.0 121.42283,25.130742,0.0 121.422955,25.131315,0.0 121.42389,25.131958,0.0 121.424693,25.132171,0.0 121.425105,25.132221,0.0 121.421987,25.140449,0.0 121.422022,25.140703,0.0 121.421653,25.14142,0.0 121.421027,25.145223,0.0 121.420169,25.145474,0.0 121.419853,25.145775,0.0 121.420296,25.146224,0.0 121.42144,25.1476,0.0 121.422299,25.14855,0.0 121.422428,25.149278,0.0 121.421391,25.148881,0.0 121.420327,25.14875,0.0 121.420027,25.149396,0.0 121.416485,25.151189,0.0 121.416216,25.151595,0.0 121.415622,25.152913,0.0 121.415198,25.153185,0.0 121.414678,25.153673,0.0 121.41491,25.154352,0.0 121.415434,25.156485,0.0 121.414354,25.158395,0.0 121.414715,25.159977,0.0 121.415284,25.161169,0.0 121.414351,25.161557,0.0 121.415677,25.162542,0.0 121.417075,25.162932,0.0 121.416738,25.163223,0.0 121.416311,25.16362,0.0 121.416489,25.164441,0.0 121.417058,25.165548,0.0 121.42042,25.167865,0.0</coordinates></LinearRing></outerBoundaryIs></Polygon><styleUrl>#spolygon-map</styleUrl></Placemark><Placemark><Polygon><outerBoundaryIs><LinearRing><coordinates>121.409135,25.164726,0.0 121.405501,25.167995,0.0 121.409079,25.164309,0.0 121.408305,25.164336,0.0 121.406303,25.161634,0.0 121.402403,25.158772,0.0 121.391446,25.167843,0.0 121.399369,25.15574,0.0 121.401987,25.154457,0.0 121.402496,25.153931,0.0 121.402482,25.15338,0.0 121.402695,25.153126,0.0 121.403023,25.15272,0.0 121.402575,25.15231,0.0 121.403036,25.151964,0.0 121.402758,25.151655,0.0 121.402192,25.151277,0.0 121.401754,25.151069,0.0 121.402132,25.150396,0.0 121.402402,25.1502,0.0 121.404909,25.150449,0.0 121.406399,25.153277,0.0 121.408732,25.156102,0.0 121.409821,25.156839,0.0 121.41086,25.158262,0.0 121.41189,25.159179,0.0 121.412287,25.15971,0.0 121.412449,25.160042,0.0 121.412657,25.16033,0.0 121.41236,25.161856,0.0 121.41053,25.163365,0.0 121.409351,25.163971,0.0 121.409135,25.164726,0.0</coordinates></LinearRing></outerBoundaryIs></Polygon><styleUrl>#spolygon-map</styleUrl></Placemark><Placemark><Polygon><outerBoundaryIs><LinearRing><coordinates>121.414556,25.149637,0.0 121.408615,25.155977,0.0 121.406187,25.153045,0.0 121.404853,25.150358,0.0 121.402443,25.148938,0.0 121.401278,25.14826,0.0 121.399546,25.147384,0.0 121.398807,25.146407,0.0 121.398639,25.145587,0.0 121.399958,25.145293,0.0 121.399783,25.144891,0.0 121.399653,25.144369,0.0 121.399625,25.144198,0.0 121.400012,25.143459,0.0 121.400257,25.142979,0.0 121.400244,25.14251,0.0 121.399918,25.14192,0.0 121.399877,25.141383,0.0 121.400701,25.140986,0.0 121.401419,25.140048,0.0 121.401897,25.139308,0.0 121.402476,25.138969,0.0 121.403007,25.139107,0.0 121.404279,25.139517,0.0 121.404508,25.139509,0.0 121.404722,25.13941,0.0 121.409272,25.13552,0.0 121.409532,25.135761,0.0 121.409693,25.135445,0.0 121.409927,25.135672,0.0 121.411755,25.134313,0.0 121.41455,25.130759,0.0 121.414886,25.130705,0.0 121.415204,25.130555,0.0 121.415435,25.130158,0.0 121.4156,25.129814,0.0 121.415569,25.129454,0.0 121.415756,25.1297,0.0 121.416606,25.130037,0.0 121.417786,25.130127,0.0 121.418788,25.130069,0.0 121.418736,25.13029,0.0 121.41535,25.13816,0.0 121.412939,25.141669,0.0 121.413058,25.142143,0.0 121.413989,25.144269,0.0 121.414404,25.144268,0.0 121.414876,25.144513,0.0 121.415279,25.144508,0.0 121.415511,25.145157,0.0 121.415803,25.145952,0.0 121.415911,25.146473,0.0 121.416751,25.146597,0.0 121.416429,25.146703,0.0 121.416291,25.147614,0.0 121.414556,25.149637,0.0</coordinates></LinearRing></outerBoundaryIs></Polygon><styleUrl>#spolygon-map</styleUrl></Placemark><Placemark><Polygon><outerBoundaryIs><LinearRing><coordinates>121.39517,25.155821,0.0 121.38785,25.151979,0.0 121.389899,25.147365,0.0 121.390637,25.14335,0.0 121.39113,25.142424,0.0 121.391372,25.14192,0.0 121.391668,25.141754,0.0 121.391936,25.141479,0.0 121.392056,25.141715,0.0 121.39244,25.141564,0.0 121.392857,25.141625,0.0 121.393286,25.141637,0.0 121.395063,25.141421,0.0 121.397259,25.144202,0.0 121.397933,25.145944,0.0 121.398807,25.146407,0.0 121.399546,25.147384,0.0 121.401278,25.14826,0.0 121.402443,25.148938,0.0 121.402208,25.150366,0.0 121.40181,25.150882,0.0 121.402113,25.151286,0.0 121.402352,25.151216,0.0 121.403053,25.151882,0.0 121.402791,25.152315,0.0 121.403002,25.152657,0.0 121.402714,25.152898,0.0 121.402706,25.153339,0.0 121.402292,25.153615,0.0 121.402572,25.154132,0.0 121.400328,25.155173,0.0 121.39517,25.155821,0.0</coordinates></LinearRing></outerBoundaryIs></Polygon><styleUrl>#spolygon-map</styleUrl></Placemark><Placemark><Polygon><outerBoundaryIs><LinearRing><coordinates>121.398645,25.145116,0.0 121.397692,25.145841,0.0 121.3969,25.143572,0.0 121.394509,25.140777,0.0 121.394836,25.137636,0.0 121.395077,25.135167,0.0 121.395099,25.134582,0.0 121.395706,25.134321,0.0 121.396177,25.132002,0.0 121.396618,25.131766,0.0 121.396844,25.131396,0.0 121.396437,25.130881,0.0 121.39582,25.13042,0.0 121.395492,25.130128,0.0 121.395493,25.129795,0.0 121.396039,25.129919,0.0 121.393558,25.124666,0.0 121.394116,25.124705,0.0 121.394677,25.1241,0.0 121.395334,25.124314,0.0 121.395869,25.124111,0.0 121.39731,25.125023,0.0 121.398138,25.125795,0.0 121.398927,25.125826,0.0 121.39959,25.125422,0.0 121.400216,25.125631,0.0 121.40148,25.125326,0.0 121.402118,25.125488,0.0 121.403215,25.125968,0.0 121.403577,25.125368,0.0 121.403976,25.125017,0.0 121.405785,25.122349,0.0 121.406506,25.122007,0.0 121.407319,25.121912,0.0 121.408171,25.121322,0.0 121.40949,25.121063,0.0 121.410406,25.120967,0.0 121.411895,25.122193,0.0 121.413013,25.122784,0.0 121.414404,25.122996,0.0 121.415067,25.123229,0.0 121.415611,25.123874,0.0 121.415845,25.124653,0.0 121.416006,25.125577,0.0 121.415785,25.127079,0.0 121.415664,25.128845,0.0 121.415572,25.129523,0.0 121.415611,25.129842,0.0 121.415319,25.130257,0.0 121.415202,25.130569,0.0 121.414842,25.130703,0.0 121.414531,25.130768,0.0 121.410295,25.135541,0.0 121.409841,25.135626,0.0 121.409682,25.135463,0.0 121.409514,25.135754,0.0 121.409236,25.135528,0.0 121.404717,25.139412,0.0 121.4045,25.139512,0.0 121.404242,25.139499,0.0 121.402948,25.139092,0.0 121.402397,25.139008,0.0 121.401863,25.139344,0.0 121.4013,25.140084,0.0 121.400657,25.141025,0.0 121.399805,25.141468,0.0 121.400044,25.142071,0.0 121.400261,25.142543,0.0 121.400252,25.143025,0.0 121.399958,25.143562,0.0 121.399572,25.144299,0.0 121.399657,25.144537,0.0 121.399809,25.144914,0.0 121.399917,25.145297,0.0 121.398645,25.145116,0.0</coordinates></LinearRing></outerBoundaryIs></Polygon><styleUrl>#spolygon-map</styleUrl></Placemark><Placemark><Polygon><outerBoundaryIs><LinearRing><coordinates>121.392068,25.137039,0.0 121.391443,25.137693,0.0 121.390613,25.138435,0.0 121.389805,25.138529,0.0 121.389741,25.136513,0.0 121.389383,25.136166,0.0 121.389204,25.13573,0.0 121.388775,25.135279,0.0 121.388441,25.13513,0.0 121.388044,25.135209,0.0 121.380975,25.133173,0.0 121.380208,25.132356,0.0 121.379729,25.131666,0.0 121.376772,25.131234,0.0 121.376266,25.130617,0.0 121.375285,25.129041,0.0 121.374755,25.12782,0.0 121.374452,25.127298,0.0 121.374094,25.12604,0.0 121.374204,25.124703,0.0 121.374156,25.123651,0.0 121.374505,25.122316,0.0 121.374918,25.121532,0.0 121.374674,25.122405,0.0 121.375504,25.121649,0.0 121.376296,25.121382,0.0 121.377019,25.121473,0.0 121.3771,25.121059,0.0 121.376844,25.120024,0.0 121.377638,25.119232,0.0 121.378345,25.118689,0.0 121.379083,25.118119,0.0 121.379748,25.117525,0.0 121.380039,25.116864,0.0 121.380752,25.116594,0.0 121.38158,25.116242,0.0 121.382554,25.115508,0.0 121.383246,25.114803,0.0 121.384029,25.114966,0.0 121.38488,25.114772,0.0 121.385553,25.115033,0.0 121.385881,25.114362,0.0 121.385553,25.113096,0.0 121.385525,25.112397,0.0 121.386254,25.111625,0.0 121.386314,25.111286,0.0 121.385788,25.110733,0.0 121.385162,25.109709,0.0 121.385667,25.109285,0.0 121.386669,25.109224,0.0 121.387542,25.108628,0.0 121.387728,25.107651,0.0 121.388494,25.106729,0.0 121.38926,25.106602,0.0 121.389714,25.105765,0.0 121.389896,25.105047,0.0 121.389815,25.10449,0.0 121.390413,25.103725,0.0 121.390844,25.10279,0.0 121.391262,25.101801,0.0 121.391627,25.101417,0.0 121.391692,25.100776,0.0 121.392012,25.100601,0.0 121.392379,25.100318,0.0 121.392357,25.10098,0.0 121.392691,25.101004,0.0 121.39347,25.100546,0.0 121.393019,25.101836,0.0 121.392774,25.103052,0.0 121.392665,25.103983,0.0 121.392901,25.104757,0.0 121.393056,25.104363,0.0 121.392925,25.103724,0.0 121.393255,25.103097,0.0 121.393971,25.102974,0.0 121.393592,25.102543,0.0 121.393727,25.101799,0.0 121.394449,25.101391,0.0 121.394636,25.100919,0.0 121.395109,25.100346,0.0 121.395381,25.099635,0.0 121.395723,25.098762,0.0 121.395339,25.098013,0.0 121.395012,25.097519,0.0 121.395398,25.097375,0.0 121.395386,25.096978,0.0 121.396046,25.096688,0.0 121.395878,25.096326,0.0 121.395602,25.095829,0.0 121.396116,25.095645,0.0 121.39664,25.095564,0.0 121.397018,25.095565,0.0 121.396739,25.095186,0.0 121.396526,25.094996,0.0 121.396668,25.094712,0.0 121.396736,25.094059,0.0 121.396459,25.093782,0.0 121.396507,25.093509,0.0 121.396431,25.093327,0.0 121.396929,25.093124,0.0 121.396758,25.092505,0.0 121.396556,25.091789,0.0 121.396511,25.09104,0.0 121.39671,25.09082,0.0 121.396071,25.090603,0.0 121.396306,25.090251,0.0 121.396275,25.089125,0.0 121.396328,25.088534,0.0 121.396441,25.087781,0.0 121.396037,25.086834,0.0 121.395262,25.086195,0.0 121.394492,25.086258,0.0 121.394074,25.087446,0.0 121.39428,25.087828,0.0 121.394563,25.088055,0.0 121.393907,25.088399,0.0 121.393617,25.088754,0.0 121.393144,25.08873,0.0 121.392577,25.088916,0.0 121.392628,25.087894,0.0 121.392873,25.087517,0.0 121.391954,25.087562,0.0 121.390914,25.087595,0.0 121.39076,25.088286,0.0 121.390448,25.088116,0.0 121.389971,25.087979,0.0 121.390029,25.087106,0.0 121.390552,25.08677,0.0 121.391183,25.086688,0.0 121.391777,25.086443,0.0 121.392514,25.086412,0.0 121.392766,25.086221,0.0 121.392701,25.085747,0.0 121.392989,25.085451,0.0 121.39272,25.085075,0.0 121.392883,25.084459,0.0 121.393505,25.084262,0.0 121.393368,25.08377,0.0 121.39298,25.082768,0.0 121.392649,25.082124,0.0 121.392603,25.081662,0.0 121.392464,25.081123,0.0 121.392515,25.080537,0.0 121.392824,25.079921,0.0 121.393392,25.079891,0.0 121.393795,25.080242,0.0 121.393909,25.080853,0.0 121.394318,25.081646,0.0 121.394423,25.082072,0.0 121.394944,25.082272,0.0 121.39511,25.082905,0.0 121.395406,25.083048,0.0 121.39532,25.083624,0.0 121.395632,25.083851,0.0 121.395954,25.083439,0.0 121.395784,25.082661,0.0 121.396465,25.081786,0.0 121.397329,25.081591,0.0 121.398144,25.081174,0.0 121.398873,25.081136,0.0 121.398626,25.081557,0.0 121.398558,25.081866,0.0 121.398154,25.082225,0.0 121.397512,25.082627,0.0 121.397269,25.083218,0.0 121.397525,25.083611,0.0 121.397351,25.083888,0.0 121.3973,25.084424,0.0 121.397763,25.084401,0.0 121.398574,25.08408,0.0 121.398614,25.084476,0.0 121.398956,25.085107,0.0 121.39937,25.085744,0.0 121.399969,25.085502,0.0 121.399421,25.086414,0.0 121.399604,25.087079,0.0 121.399734,25.087777,0.0 121.400578,25.087678,0.0 121.401072,25.087559,0.0 121.401556,25.087636,0.0 121.402092,25.087519,0.0 121.402058,25.088056,0.0 121.402355,25.088455,0.0 121.402914,25.088524,0.0 121.40243,25.089153,0.0 121.401549,25.089051,0.0 121.400941,25.089252,0.0 121.400384,25.089474,0.0 121.400533,25.090028,0.0 121.400477,25.090561,0.0 121.400466,25.090928,0.0 121.400795,25.091174,0.0 121.400743,25.091742,0.0 121.401474,25.09193,0.0 121.402111,25.092189,0.0 121.40247,25.09274,0.0 121.402889,25.092919,0.0 121.403095,25.09334,0.0 121.403062,25.093935,0.0 121.402944,25.094662,0.0 121.403281,25.094887,0.0 121.40396,25.095235,0.0 121.403751,25.095681,0.0 121.403559,25.096212,0.0 121.402632,25.097128,0.0 121.401773,25.098013,0.0 121.401815,25.098489,0.0 121.402524,25.098868,0.0 121.402093,25.099772,0.0 121.401229,25.100671,0.0 121.400805,25.101661,0.0 121.40138,25.101349,0.0 121.401968,25.101281,0.0 121.401625,25.10189,0.0 121.401895,25.102121,0.0 121.401759,25.103066,0.0 121.401695,25.103341,0.0 121.401946,25.104358,0.0 121.400962,25.105522,0.0 121.40029,25.106396,0.0 121.401511,25.106273,0.0 121.402106,25.106393,0.0 121.401731,25.107387,0.0 121.401438,25.108291,0.0 121.401256,25.109322,0.0 121.401675,25.110446,0.0 121.401294,25.111333,0.0 121.400964,25.112265,0.0 121.400427,25.113209,0.0 121.400153,25.113572,0.0 121.400204,25.114196,0.0 121.400657,25.114724,0.0 121.400938,25.115857,0.0 121.400958,25.117249,0.0 121.40138,25.118224,0.0 121.40276,25.118834,0.0 121.403225,25.119684,0.0 121.403073,25.120136,0.0 121.402234,25.120227,0.0 121.402546,25.120584,0.0 121.403332,25.121006,0.0 121.403605,25.121399,0.0 121.404062,25.121729,0.0 121.404321,25.122097,0.0 121.404566,25.122427,0.0 121.405575,25.122463,0.0 121.403976,25.125017,0.0 121.403577,25.125368,0.0 121.403215,25.125968,0.0 121.402118,25.125488,0.0 121.40148,25.125326,0.0 121.400216,25.125631,0.0 121.39959,25.125422,0.0 121.398927,25.125826,0.0 121.398138,25.125795,0.0 121.39731,25.125023,0.0 121.395869,25.124111,0.0 121.395334,25.124314,0.0 121.394677,25.1241,0.0 121.394116,25.124705,0.0 121.393558,25.124666,0.0 121.396039,25.129919,0.0 121.395493,25.129795,0.0 121.395492,25.130128,0.0 121.39582,25.13042,0.0 121.396437,25.130881,0.0 121.396844,25.131396,0.0 121.396618,25.131766,0.0 121.396177,25.132002,0.0 121.395706,25.134321,0.0 121.395099,25.134582,0.0 121.395077,25.135167,0.0 121.394836,25.137636,0.0 121.392068,25.137039,0.0</coordinates></LinearRing></outerBoundaryIs></Polygon><styleUrl>#spolygon-map</styleUrl></Placemark><Placemark><Polygon><outerBoundaryIs><LinearRing><coordinates>121.389078,25.146864,0.0 121.388619,25.147104,0.0 121.38764,25.14627,0.0 121.387304,25.146409,0.0 121.386851,25.14559,0.0 121.385675,25.146322,0.0 121.384846,25.144855,0.0 121.384318,25.145362,0.0 121.38321,25.144306,0.0 121.382767,25.14457,0.0 121.381382,25.143883,0.0 121.380885,25.143791,0.0 121.381115,25.142885,0.0 121.379943,25.14341,0.0 121.378728,25.142907,0.0 121.375646,25.142125,0.0 121.373376,25.141368,0.0 121.371056,25.140788,0.0 121.372158,25.14047,0.0 121.373463,25.14014,0.0 121.371485,25.138736,0.0 121.366369,25.136684,0.0 121.36646,25.136203,0.0 121.366498,25.135607,0.0 121.366949,25.135056,0.0 121.367142,25.134491,0.0 121.367132,25.133888,0.0 121.367591,25.133354,0.0 121.368033,25.132902,0.0 121.368361,25.132759,0.0 121.368751,25.132271,0.0 121.369049,25.131622,0.0 121.369502,25.131038,0.0 121.369808,25.130143,0.0 121.37007,25.129663,0.0 121.370317,25.129052,0.0 121.370804,25.128532,0.0 121.37115,25.12812,0.0 121.371553,25.127768,0.0 121.372051,25.127044,0.0 121.372351,25.126492,0.0 121.372608,25.125809,0.0 121.373423,25.125168,0.0 121.374156,25.124762,0.0 121.374181,25.125587,0.0 121.374418,25.127242,0.0 121.37483,25.1277,0.0 121.375221,25.128935,0.0 121.376166,25.130522,0.0 121.376706,25.131217,0.0 121.37926,25.131638,0.0 121.380163,25.132205,0.0 121.380719,25.132809,0.0 121.386205,25.134584,0.0 121.388383,25.135213,0.0 121.388735,25.135233,0.0 121.389172,25.135691,0.0 121.389269,25.136067,0.0 121.389774,25.136444,0.0 121.38981,25.13824,0.0 121.390554,25.138484,0.0 121.3914,25.137734,0.0 121.391993,25.13707,0.0 121.394436,25.140692,0.0 121.393317,25.141603,0.0 121.392917,25.14169,0.0 121.392459,25.141548,0.0 121.392094,25.141741,0.0 121.391952,25.141493,0.0 121.391666,25.141727,0.0 121.391373,25.141863,0.0 121.391159,25.14236,0.0 121.390633,25.14313,0.0 121.389701,25.147195,0.0 121.389078,25.146864,0.0</coordinates></LinearRing></outerBoundaryIs></Polygon><styleUrl>#spolygon-map</styleUrl></Placemark></Document>
</kml>
