<?xml version="1.0" encoding="UTF-8"?>
<kml xmlns="http://www.opengis.net/kml/2.2">
	<Document>
		<name>新竹縣新豐鄉</name>
		<Style id="spolygon">
			<LabelStyle>
				<scale>0.0</scale>
			</LabelStyle>
			<LineStyle>
				<color>330030ff</color>
				<width>0</width>
			</LineStyle>
			<PolyStyle>
				<color>330030ff</color>
			</PolyStyle>
		</Style>
		<StyleMap id="spolygon-map">
			<Pair>
				<key>normal</key>
				<styleUrl>#spolygon</styleUrl>
			</Pair>
		</StyleMap>
	<Placemark><Polygon><outerBoundaryIs><LinearRing><coordinates>120.994533,24.870261,0.0 120.994101,24.870203,0.0 120.993708,24.870887,0.0 120.990825,24.870321,0.0 120.989022,24.868034,0.0 120.990655,24.865931,0.0 120.991543,24.863833,0.0 120.992369,24.864468,0.0 120.99316,24.865299,0.0 120.994046,24.86633,0.0 120.99484,24.867322,0.0 120.995738,24.868191,0.0 120.995566,24.869344,0.0 120.995656,24.869854,0.0 120.99459,24.870268,0.0 120.994533,24.870261,0.0</coordinates></LinearRing></outerBoundaryIs></Polygon><styleUrl>#spolygon-map</styleUrl></Placemark><Placemark><Polygon><outerBoundaryIs><LinearRing><coordinates>121.000475,24.873289,0.0 120.992291,24.875095,0.0 120.993148,24.873607,0.0 120.993372,24.872807,0.0 120.994358,24.871787,0.0 120.993804,24.871497,0.0 120.993814,24.870742,0.0 120.994189,24.870118,0.0 120.99459,24.870268,0.0 120.995656,24.869854,0.0 120.995566,24.869344,0.0 120.996113,24.868554,0.0 120.997267,24.869508,0.0 120.998093,24.870276,0.0 120.999145,24.871257,0.0 120.998919,24.871605,0.0 120.998665,24.871808,0.0 120.999499,24.872489,0.0 121.0004,24.873243,0.0 121.000475,24.873289,0.0</coordinates></LinearRing></outerBoundaryIs></Polygon><styleUrl>#spolygon-map</styleUrl></Placemark><Placemark><Polygon><outerBoundaryIs><LinearRing><coordinates>121.005903,24.878232,0.0 121.001752,24.880881,0.0 120.994565,24.882647,0.0 120.992789,24.883147,0.0 120.991347,24.880375,0.0 120.990561,24.877505,0.0 120.990523,24.875568,0.0 120.992012,24.875221,0.0 121.000475,24.873289,0.0 121.001735,24.874498,0.0 121.003091,24.875611,0.0 121.004056,24.876483,0.0 121.004734,24.877205,0.0 121.00532,24.8778,0.0 121.005706,24.877986,0.0 121.005903,24.878232,0.0</coordinates></LinearRing></outerBoundaryIs></Polygon><styleUrl>#spolygon-map</styleUrl></Placemark><Placemark><Polygon><outerBoundaryIs><LinearRing><coordinates>120.990523,24.875568,0.0 120.987453,24.877718,0.0 120.989034,24.878799,0.0 120.988427,24.879925,0.0 120.987182,24.880226,0.0 120.987725,24.881194,0.0 120.988288,24.882166,0.0 120.986927,24.883467,0.0 120.98703,24.881907,0.0 120.986632,24.879836,0.0 120.985715,24.877964,0.0 120.983951,24.87519,0.0 120.983749,24.868821,0.0 120.982242,24.864949,0.0 120.982009,24.863692,0.0 120.982432,24.863239,0.0 120.98285,24.862727,0.0 120.983132,24.861777,0.0 120.98385,24.861482,0.0 120.984367,24.861799,0.0 120.984429,24.862561,0.0 120.984995,24.863041,0.0 120.985769,24.863524,0.0 120.986374,24.863132,0.0 120.986974,24.862842,0.0 120.987466,24.862562,0.0 120.988561,24.862273,0.0 120.989371,24.862092,0.0 120.989995,24.861836,0.0 120.990476,24.862299,0.0 120.99111,24.862986,0.0 120.991505,24.863963,0.0 120.990259,24.866441,0.0 120.988771,24.868743,0.0 120.992351,24.870896,0.0 120.993932,24.871579,0.0 120.994236,24.871955,0.0 120.993279,24.873067,0.0 120.992625,24.874259,0.0 120.992012,24.875221,0.0 120.990523,24.875568,0.0</coordinates></LinearRing></outerBoundaryIs></Polygon><styleUrl>#spolygon-map</styleUrl></Placemark><Placemark><Polygon><outerBoundaryIs><LinearRing><coordinates>121.010502,24.883306,0.0 121.008442,24.883208,0.0 121.006317,24.884459,0.0 121.003748,24.887281,0.0 121.000528,24.891338,0.0 120.995534,24.888357,0.0 120.994514,24.885549,0.0 120.993987,24.883387,0.0 121.000668,24.88097,0.0 121.004481,24.879265,0.0 121.005884,24.87858,0.0 121.006269,24.879298,0.0 121.00723,24.879991,0.0 121.007906,24.880349,0.0 121.008683,24.880761,0.0 121.009196,24.881416,0.0 121.009943,24.881972,0.0 121.010205,24.882455,0.0 121.010094,24.88325,0.0 121.010502,24.883306,0.0</coordinates></LinearRing></outerBoundaryIs></Polygon><styleUrl>#spolygon-map</styleUrl></Placemark><Placemark><Polygon><outerBoundaryIs><LinearRing><coordinates>120.998022,24.895658,0.0 120.997141,24.896412,0.0 120.993152,24.896678,0.0 120.986538,24.89587,0.0 120.985755,24.894356,0.0 120.986458,24.892363,0.0 120.986664,24.889671,0.0 120.985979,24.88713,0.0 120.984585,24.886136,0.0 120.985159,24.884828,0.0 120.987523,24.883788,0.0 120.988392,24.881432,0.0 120.987242,24.880448,0.0 120.988158,24.879923,0.0 120.989318,24.879277,0.0 120.987748,24.878347,0.0 120.988763,24.876352,0.0 120.990603,24.876666,0.0 120.990849,24.879307,0.0 120.992275,24.882388,0.0 120.993628,24.884227,0.0 120.994944,24.886357,0.0 120.995794,24.889221,0.0 120.997694,24.893784,0.0 120.998022,24.895658,0.0</coordinates></LinearRing></outerBoundaryIs></Polygon><styleUrl>#spolygon-map</styleUrl></Placemark><Placemark><Polygon><outerBoundaryIs><LinearRing><coordinates>120.986011,24.895767,0.0 120.985037,24.896816,0.0 120.984979,24.898536,0.0 120.983631,24.899287,0.0 120.982439,24.899747,0.0 120.982699,24.901041,0.0 120.982041,24.90396,0.0 120.981781,24.905827,0.0 120.979514,24.906405,0.0 120.977623,24.907504,0.0 120.978718,24.903584,0.0 120.979448,24.903234,0.0 120.979361,24.90193,0.0 120.979906,24.900518,0.0 120.979329,24.898954,0.0 120.979498,24.898371,0.0 120.978797,24.897142,0.0 120.978046,24.89618,0.0 120.977203,24.895211,0.0 120.976472,24.894817,0.0 120.974188,24.891648,0.0 120.974038,24.891508,0.0 120.97334,24.889413,0.0 120.971195,24.884649,0.0 120.969812,24.88123,0.0 120.966612,24.878104,0.0 120.966983,24.876984,0.0 120.967864,24.876179,0.0 120.968613,24.875506,0.0 120.968712,24.87441,0.0 120.969,24.873967,0.0 120.969392,24.874628,0.0 120.970049,24.875033,0.0 120.970846,24.875037,0.0 120.971434,24.874522,0.0 120.97195,24.873926,0.0 120.972691,24.87368,0.0 120.973532,24.873542,0.0 120.974621,24.873142,0.0 120.974854,24.872321,0.0 120.974841,24.871852,0.0 120.975437,24.87147,0.0 120.97635,24.871031,0.0 120.97647,24.87023,0.0 120.976604,24.86963,0.0 120.977515,24.869091,0.0 120.978353,24.86873,0.0 120.978917,24.868109,0.0 120.979298,24.867182,0.0 120.979477,24.866183,0.0 120.979591,24.865499,0.0 120.980857,24.864538,0.0 120.982242,24.864949,0.0 120.983749,24.868821,0.0 120.983951,24.87519,0.0 120.985715,24.877964,0.0 120.986632,24.879836,0.0 120.98703,24.881907,0.0 120.986927,24.883467,0.0 120.985055,24.884817,0.0 120.984712,24.886508,0.0 120.986055,24.88717,0.0 120.986601,24.889846,0.0 120.986538,24.89304,0.0 120.985754,24.894519,0.0 120.986011,24.895767,0.0</coordinates></LinearRing></outerBoundaryIs></Polygon><styleUrl>#spolygon-map</styleUrl></Placemark><Placemark><Polygon><outerBoundaryIs><LinearRing><coordinates>121.020336,24.895919,0.0 121.017853,24.895661,0.0 121.016731,24.896866,0.0 121.01603,24.89882,0.0 121.014189,24.898609,0.0 121.011936,24.900598,0.0 121.009544,24.902043,0.0 121.007988,24.901983,0.0 121.006001,24.902992,0.0 121.004763,24.902643,0.0 121.00252,24.903244,0.0 121.001311,24.904409,0.0 120.99912,24.903221,0.0 120.997554,24.905436,0.0 120.997061,24.906943,0.0 120.994653,24.907555,0.0 120.992601,24.90834,0.0 120.990762,24.908004,0.0 120.990028,24.906234,0.0 120.991589,24.904313,0.0 120.992454,24.901611,0.0 120.993901,24.900549,0.0 120.995123,24.899666,0.0 120.996273,24.897317,0.0 120.997297,24.89716,0.0 120.998042,24.896143,0.0 120.997046,24.891838,0.0 120.998968,24.89164,0.0 121.003352,24.887507,0.0 121.005593,24.885418,0.0 121.007765,24.882292,0.0 121.010384,24.883709,0.0 121.010661,24.882785,0.0 121.010971,24.882216,0.0 121.011391,24.883006,0.0 121.012149,24.883581,0.0 121.013204,24.884379,0.0 121.014285,24.885194,0.0 121.014826,24.885781,0.0 121.014934,24.886021,0.0 121.01548,24.886642,0.0 121.015944,24.887101,0.0 121.016882,24.887608,0.0 121.017912,24.88791,0.0 121.018936,24.888585,0.0 121.018539,24.889095,0.0 121.018272,24.889627,0.0 121.018884,24.89029,0.0 121.01946,24.891656,0.0 121.019776,24.893202,0.0 121.020267,24.894523,0.0 121.020461,24.895313,0.0 121.020336,24.895919,0.0</coordinates></LinearRing></outerBoundaryIs></Polygon><styleUrl>#spolygon-map</styleUrl></Placemark><Placemark><Polygon><outerBoundaryIs><LinearRing><coordinates>120.986989,24.908121,0.0 120.986031,24.908028,0.0 120.983427,24.908568,0.0 120.980726,24.908633,0.0 120.977814,24.908151,0.0 120.979687,24.90628,0.0 120.982283,24.905516,0.0 120.982073,24.903422,0.0 120.98249,24.900607,0.0 120.982611,24.899533,0.0 120.984207,24.899257,0.0 120.984885,24.897693,0.0 120.985763,24.896305,0.0 120.986822,24.89601,0.0 120.995916,24.897338,0.0 120.997515,24.896396,0.0 120.998042,24.896143,0.0 120.997297,24.89716,0.0 120.996273,24.897317,0.0 120.995123,24.899666,0.0 120.993901,24.900549,0.0 120.992454,24.901611,0.0 120.991589,24.904313,0.0 120.990028,24.906234,0.0 120.988297,24.907402,0.0 120.986989,24.908121,0.0</coordinates></LinearRing></outerBoundaryIs></Polygon><styleUrl>#spolygon-map</styleUrl></Placemark><Placemark><Polygon><outerBoundaryIs><LinearRing><coordinates>120.977687,24.908087,0.0 120.970896,24.909289,0.0 120.967081,24.909099,0.0 120.960991,24.907851,0.0 120.954711,24.897775,0.0 120.950538,24.888668,0.0 120.946735,24.880175,0.0 120.947781,24.880588,0.0 120.948943,24.880954,0.0 120.950104,24.881222,0.0 120.951266,24.881392,0.0 120.952339,24.881399,0.0 120.953017,24.881496,0.0 120.953814,24.881478,0.0 120.954815,24.881165,0.0 120.955441,24.88115,0.0 120.955978,24.880898,0.0 120.956744,24.880493,0.0 120.957598,24.880533,0.0 120.958345,24.880426,0.0 120.959042,24.880308,0.0 120.959518,24.880194,0.0 120.960332,24.880023,0.0 120.961141,24.880033,0.0 120.961859,24.880125,0.0 120.962625,24.880198,0.0 120.963344,24.879864,0.0 120.964061,24.879593,0.0 120.965209,24.878595,0.0 120.966292,24.877618,0.0 120.968801,24.880446,0.0 120.970973,24.883544,0.0 120.97295,24.888728,0.0 120.973591,24.890472,0.0 120.97417,24.891639,0.0 120.97607,24.894329,0.0 120.97713,24.895063,0.0 120.977581,24.895859,0.0 120.978756,24.896923,0.0 120.979601,24.898205,0.0 120.979202,24.898809,0.0 120.980054,24.900066,0.0 120.979447,24.901684,0.0 120.979114,24.902671,0.0 120.978807,24.903489,0.0 120.977541,24.906704,0.0 120.977687,24.908087,0.0</coordinates></LinearRing></outerBoundaryIs></Polygon><styleUrl>#spolygon-map</styleUrl></Placemark><Placemark><Polygon><outerBoundaryIs><LinearRing><coordinates>121.027606,24.91493,0.0 121.027797,24.916207,0.0 121.027987,24.917313,0.0 121.025434,24.916149,0.0 121.020445,24.916238,0.0 121.013366,24.913166,0.0 121.008186,24.91029,0.0 121.00295,24.910733,0.0 120.995981,24.911949,0.0 120.995933,24.912632,0.0 120.994596,24.914611,0.0 120.993673,24.914633,0.0 120.99247,24.914135,0.0 120.991207,24.913289,0.0 120.989577,24.912714,0.0 120.986688,24.909903,0.0 120.986989,24.908121,0.0 120.989046,24.907125,0.0 120.990409,24.907589,0.0 120.992076,24.908438,0.0 120.993816,24.908014,0.0 120.996623,24.906931,0.0 120.997559,24.906378,0.0 120.998168,24.903775,0.0 121.000666,24.90382,0.0 121.0019,24.904285,0.0 121.004032,24.902633,0.0 121.005507,24.903187,0.0 121.007377,24.902012,0.0 121.008922,24.902332,0.0 121.011011,24.900552,0.0 121.013294,24.899475,0.0 121.015644,24.89877,0.0 121.016511,24.898146,0.0 121.017409,24.895752,0.0 121.019411,24.896112,0.0 121.020713,24.896505,0.0 121.02062,24.897037,0.0 121.020643,24.898139,0.0 121.020956,24.898882,0.0 121.021176,24.899374,0.0 121.021385,24.900277,0.0 121.021542,24.900951,0.0 121.022295,24.901937,0.0 121.023031,24.902984,0.0 121.022804,24.903574,0.0 121.023128,24.904156,0.0 121.023309,24.904771,0.0 121.023631,24.905748,0.0 121.02406,24.906891,0.0 121.024443,24.908061,0.0 121.024885,24.909431,0.0 121.025218,24.910568,0.0 121.025545,24.911714,0.0 121.026117,24.912261,0.0 121.026749,24.912928,0.0 121.026955,24.9138,0.0 121.027253,24.914542,0.0 121.027606,24.91493,0.0</coordinates></LinearRing></outerBoundaryIs></Polygon><styleUrl>#spolygon-map</styleUrl></Placemark><Placemark><Polygon><outerBoundaryIs><LinearRing><coordinates>120.981192,24.920723,0.0 120.978573,24.920901,0.0 120.976248,24.92157,0.0 120.965792,24.92034,0.0 120.960991,24.907851,0.0 120.967081,24.909099,0.0 120.970896,24.909289,0.0 120.977687,24.908087,0.0 120.980422,24.908598,0.0 120.983364,24.908488,0.0 120.98565,24.908189,0.0 120.986943,24.907902,0.0 120.98665,24.909773,0.0 120.989061,24.912297,0.0 120.991028,24.913194,0.0 120.992202,24.91411,0.0 120.993476,24.91462,0.0 120.994305,24.914446,0.0 120.991983,24.914986,0.0 120.988996,24.914967,0.0 120.987839,24.916772,0.0 120.982336,24.919847,0.0 120.981192,24.920723,0.0</coordinates></LinearRing></outerBoundaryIs></Polygon><styleUrl>#spolygon-map</styleUrl></Placemark><Placemark><Polygon><outerBoundaryIs><LinearRing><coordinates>121.026948,24.921903,0.0 121.023117,24.92317,0.0 121.018938,24.924841,0.0 121.016054,24.926263,0.0 121.013048,24.927983,0.0 121.010315,24.930642,0.0 121.008433,24.931543,0.0 121.00415,24.927687,0.0 120.999899,24.921917,0.0 120.995985,24.916315,0.0 120.994304,24.914879,0.0 120.99552,24.912912,0.0 120.99595,24.911986,0.0 121.00098,24.91113,0.0 121.006853,24.910159,0.0 121.011604,24.912706,0.0 121.018554,24.915711,0.0 121.024547,24.916114,0.0 121.027636,24.917284,0.0 121.028687,24.917788,0.0 121.029788,24.918092,0.0 121.030818,24.918525,0.0 121.031684,24.919234,0.0 121.032231,24.920319,0.0 121.029399,24.921319,0.0 121.026999,24.921896,0.0 121.026948,24.921903,0.0</coordinates></LinearRing></outerBoundaryIs></Polygon><styleUrl>#spolygon-map</styleUrl></Placemark><Placemark><Polygon><outerBoundaryIs><LinearRing><coordinates>120.987485,24.938968,0.0 120.984387,24.939475,0.0 120.981739,24.9398,0.0 120.981259,24.939491,0.0 120.980724,24.938894,0.0 120.979689,24.937739,0.0 120.972792,24.931389,0.0 120.976248,24.92157,0.0 120.978573,24.920901,0.0 120.981192,24.920723,0.0 120.983517,24.923821,0.0 120.984209,24.925638,0.0 120.985937,24.928317,0.0 120.988101,24.931507,0.0 120.989157,24.933674,0.0 120.990131,24.935788,0.0 120.989628,24.93639,0.0 120.989026,24.937318,0.0 120.988373,24.938122,0.0 120.987485,24.938968,0.0</coordinates></LinearRing></outerBoundaryIs></Polygon><styleUrl>#spolygon-map</styleUrl></Placemark><Placemark><Polygon><outerBoundaryIs><LinearRing><coordinates>121.001001,24.940223,0.0 120.999492,24.94072,0.0 120.998038,24.940719,0.0 120.997005,24.940065,0.0 120.996043,24.939527,0.0 120.994794,24.93939,0.0 120.993734,24.93882,0.0 120.99328,24.938277,0.0 120.992947,24.937565,0.0 120.992644,24.936679,0.0 120.992788,24.935935,0.0 120.992844,24.935232,0.0 120.992404,24.935027,0.0 120.991626,24.935077,0.0 120.990469,24.935546,0.0 120.989501,24.934421,0.0 120.988626,24.93231,0.0 120.986948,24.929769,0.0 120.984482,24.926363,0.0 120.984083,24.924911,0.0 120.982522,24.922633,0.0 120.985462,24.918221,0.0 120.988544,24.915759,0.0 120.989906,24.915172,0.0 120.993578,24.915266,0.0 120.997435,24.918259,0.0 121.000998,24.923287,0.0 121.001681,24.929857,0.0 120.998072,24.933305,0.0 120.99885,24.935978,0.0 121.001001,24.940223,0.0</coordinates></LinearRing></outerBoundaryIs></Polygon><styleUrl>#spolygon-map</styleUrl></Placemark><Placemark><Polygon><outerBoundaryIs><LinearRing><coordinates>121.012467,24.943475,0.0 121.012276,24.944268,0.0 121.011977,24.944773,0.0 121.010985,24.944738,0.0 121.010393,24.944373,0.0 121.009855,24.944183,0.0 121.009286,24.944452,0.0 121.008753,24.944873,0.0 121.00819,24.945289,0.0 121.007663,24.945839,0.0 121.007093,24.946222,0.0 121.00673,24.946032,0.0 121.006395,24.945657,0.0 121.00612,24.945354,0.0 121.005769,24.94492,0.0 121.005372,24.944426,0.0 121.004794,24.94381,0.0 121.004379,24.943284,0.0 121.004053,24.942728,0.0 121.003664,24.941821,0.0 121.003427,24.941038,0.0 121.0032,24.940391,0.0 121.002611,24.939954,0.0 121.001001,24.940223,0.0 120.99857,24.935335,0.0 120.998234,24.932759,0.0 121.002476,24.929285,0.0 121.007922,24.931323,0.0 121.010112,24.93103,0.0 121.012694,24.928144,0.0 121.015766,24.926394,0.0 121.018656,24.924996,0.0 121.022461,24.92336,0.0 121.026455,24.921963,0.0 121.030717,24.926145,0.0 121.033776,24.92923,0.0 121.031703,24.930154,0.0 121.030273,24.930362,0.0 121.029987,24.931899,0.0 121.029764,24.934722,0.0 121.029648,24.936026,0.0 121.028438,24.937334,0.0 121.027274,24.938745,0.0 121.025733,24.939678,0.0 121.024169,24.940972,0.0 121.023313,24.941174,0.0 121.022214,24.941375,0.0 121.020997,24.941326,0.0 121.020136,24.940935,0.0 121.019584,24.940513,0.0 121.019059,24.940491,0.0 121.01856,24.941063,0.0 121.018122,24.941562,0.0 121.01747,24.941829,0.0 121.016697,24.941693,0.0 121.015955,24.941596,0.0 121.015209,24.941823,0.0 121.014682,24.942289,0.0 121.013863,24.94259,0.0 121.012676,24.943145,0.0 121.012467,24.943475,0.0</coordinates></LinearRing></outerBoundaryIs></Polygon><styleUrl>#spolygon-map</styleUrl></Placemark><Placemark><Polygon><outerBoundaryIs><LinearRing><coordinates>121.044459,24.943526,0.0 121.043613,24.943828,0.0 121.042608,24.944142,0.0 121.041937,24.943984,0.0 121.041066,24.943433,0.0 121.040343,24.943513,0.0 121.039713,24.944139,0.0 121.038992,24.944701,0.0 121.038716,24.945352,0.0 121.03867,24.945954,0.0 121.038221,24.946356,0.0 121.037449,24.946247,0.0 121.036741,24.946044,0.0 121.036022,24.945632,0.0 121.035308,24.945248,0.0 121.034534,24.944911,0.0 121.033533,24.944757,0.0 121.03306,24.944657,0.0 121.032372,24.944506,0.0 121.031531,24.944306,0.0 121.030956,24.943948,0.0 121.030375,24.944033,0.0 121.030153,24.944395,0.0 121.029663,24.945099,0.0 121.029134,24.945233,0.0 121.028578,24.944683,0.0 121.027907,24.943722,0.0 121.027102,24.942915,0.0 121.026658,24.942476,0.0 121.026233,24.941492,0.0 121.025845,24.94051,0.0 121.025259,24.940589,0.0 121.024245,24.940953,0.0 121.025626,24.939816,0.0 121.027012,24.939164,0.0 121.028432,24.937591,0.0 121.029522,24.936133,0.0 121.029752,24.934825,0.0 121.030018,24.932396,0.0 121.030191,24.930472,0.0 121.031571,24.930172,0.0 121.033776,24.929243,0.0 121.031129,24.926609,0.0 121.026948,24.921903,0.0 121.029311,24.921335,0.0 121.032261,24.920404,0.0 121.032734,24.921446,0.0 121.033396,24.922536,0.0 121.034173,24.923769,0.0 121.035286,24.925671,0.0 121.036174,24.927017,0.0 121.03709,24.927986,0.0 121.037737,24.928697,0.0 121.038335,24.929588,0.0 121.039134,24.930641,0.0 121.040514,24.93258,0.0 121.041968,24.934563,0.0 121.042833,24.935858,0.0 121.043275,24.937088,0.0 121.043711,24.938326,0.0 121.04414,24.940058,0.0 121.044797,24.941538,0.0 121.046209,24.942399,0.0 121.046113,24.943114,0.0 121.045651,24.943625,0.0 121.044513,24.943522,0.0 121.044459,24.943526,0.0</coordinates></LinearRing></outerBoundaryIs></Polygon><styleUrl>#spolygon-map</styleUrl></Placemark></Document>
</kml>
