<?xml version="1.0" encoding="UTF-8"?>
<kml xmlns="http://www.opengis.net/kml/2.2">
	<Document>
		<name>臺中市后里區</name>
		<Style id="spolygon">
			<LabelStyle>
				<scale>0.0</scale>
			</LabelStyle>
			<LineStyle>
				<color>330030ff</color>
				<width>0</width>
			</LineStyle>
			<PolyStyle>
				<color>330030ff</color>
			</PolyStyle>
		</Style>
		<StyleMap id="spolygon-map">
			<Pair>
				<key>normal</key>
				<styleUrl>#spolygon</styleUrl>
			</Pair>
		</StyleMap>
	<Placemark><Polygon><outerBoundaryIs><LinearRing><coordinates>120.706262,24.308159,0.0 120.697387,24.310268,0.0 120.69433,24.30344,0.0 120.705665,24.297657,0.0 120.708931,24.301997,0.0 120.709549,24.304563,0.0 120.706262,24.308159,0.0</coordinates></LinearRing></outerBoundaryIs></Polygon><styleUrl>#spolygon-map</styleUrl></Placemark><Placemark><Polygon><outerBoundaryIs><LinearRing><coordinates>120.758779,24.31919,0.0 120.753658,24.321586,0.0 120.74777,24.320732,0.0 120.740391,24.318889,0.0 120.734956,24.313286,0.0 120.73527,24.305777,0.0 120.741803,24.304221,0.0 120.745712,24.304973,0.0 120.752849,24.305955,0.0 120.75768,24.308699,0.0 120.758536,24.313747,0.0 120.764054,24.31216,0.0 120.76339,24.312868,0.0 120.76372,24.313453,0.0 120.763387,24.314416,0.0 120.762917,24.314824,0.0 120.761859,24.315838,0.0 120.76126,24.316508,0.0 120.760739,24.317392,0.0 120.759431,24.318006,0.0 120.758618,24.318513,0.0 120.758785,24.319174,0.0 120.758779,24.31919,0.0</coordinates></LinearRing></outerBoundaryIs></Polygon><styleUrl>#spolygon-map</styleUrl></Placemark><Placemark><Polygon><outerBoundaryIs><LinearRing><coordinates>120.718254,24.355833,0.0 120.71786,24.352597,0.0 120.717652,24.350717,0.0 120.717135,24.349801,0.0 120.717117,24.349158,0.0 120.717267,24.348732,0.0 120.717888,24.347819,0.0 120.718314,24.347336,0.0 120.718025,24.346654,0.0 120.718073,24.34595,0.0 120.718408,24.345203,0.0 120.718384,24.34496,0.0 120.71827,24.344682,0.0 120.718153,24.344415,0.0 120.717745,24.343753,0.0 120.717202,24.342982,0.0 120.717032,24.342761,0.0 120.716986,24.342445,0.0 120.717157,24.34228,0.0 120.717444,24.342089,0.0 120.717549,24.341773,0.0 120.718973,24.341509,0.0 120.719313,24.341092,0.0 120.718939,24.340494,0.0 120.718541,24.339985,0.0 120.71823,24.339912,0.0 120.715684,24.339921,0.0 120.715354,24.33967,0.0 120.71513,24.339385,0.0 120.715155,24.338087,0.0 120.714379,24.337675,0.0 120.714503,24.337474,0.0 120.714719,24.337197,0.0 120.714586,24.336899,0.0 120.715223,24.336426,0.0 120.715405,24.336329,0.0 120.715691,24.336203,0.0 120.715551,24.335273,0.0 120.714697,24.332639,0.0 120.720997,24.328202,0.0 120.728775,24.326108,0.0 120.73213,24.327157,0.0 120.736498,24.328194,0.0 120.743142,24.328537,0.0 120.747941,24.32726,0.0 120.750943,24.328866,0.0 120.753018,24.331481,0.0 120.753298,24.332853,0.0 120.752229,24.334172,0.0 120.749511,24.335736,0.0 120.746779,24.337593,0.0 120.744673,24.339525,0.0 120.743272,24.340511,0.0 120.741946,24.342144,0.0 120.739686,24.343966,0.0 120.737125,24.34611,0.0 120.734444,24.347943,0.0 120.732049,24.3501,0.0 120.729829,24.352134,0.0 120.72816,24.352894,0.0 120.727902,24.352932,0.0 120.725221,24.353783,0.0 120.723141,24.354675,0.0 120.719843,24.355357,0.0 120.718254,24.355833,0.0</coordinates></LinearRing></outerBoundaryIs></Polygon><styleUrl>#spolygon-map</styleUrl></Placemark><Placemark><Polygon><outerBoundaryIs><LinearRing><coordinates>120.68083,24.311153,0.0 120.67421,24.315705,0.0 120.672934,24.316784,0.0 120.671455,24.316697,0.0 120.666935,24.31619,0.0 120.663636,24.316009,0.0 120.660181,24.315381,0.0 120.65815,24.314986,0.0 120.654136,24.314762,0.0 120.65091,24.314936,0.0 120.650332,24.311523,0.0 120.650151,24.308737,0.0 120.65008,24.308399,0.0 120.65081,24.307003,0.0 120.648408,24.305415,0.0 120.646677,24.299479,0.0 120.649994,24.297026,0.0 120.654969,24.296015,0.0 120.658284,24.295993,0.0 120.664849,24.299554,0.0 120.6694,24.30179,0.0 120.670827,24.302398,0.0 120.671629,24.304137,0.0 120.674089,24.304002,0.0 120.676745,24.303941,0.0 120.679489,24.304044,0.0 120.681159,24.307235,0.0 120.68083,24.311153,0.0</coordinates></LinearRing></outerBoundaryIs></Polygon><styleUrl>#spolygon-map</styleUrl></Placemark><Placemark><Polygon><outerBoundaryIs><LinearRing><coordinates>120.702403,24.332819,0.0 120.700968,24.328952,0.0 120.700362,24.326975,0.0 120.698592,24.326949,0.0 120.695968,24.325994,0.0 120.694736,24.325628,0.0 120.693059,24.324584,0.0 120.692,24.323832,0.0 120.689947,24.322216,0.0 120.691945,24.317417,0.0 120.695181,24.316796,0.0 120.699738,24.312665,0.0 120.706542,24.316351,0.0 120.714765,24.319378,0.0 120.718545,24.325247,0.0 120.714763,24.331278,0.0 120.714449,24.331005,0.0 120.714141,24.331431,0.0 120.710555,24.33197,0.0 120.707712,24.332073,0.0 120.703988,24.332646,0.0 120.702403,24.332819,0.0</coordinates></LinearRing></outerBoundaryIs></Polygon><styleUrl>#spolygon-map</styleUrl></Placemark><Placemark><Polygon><outerBoundaryIs><LinearRing><coordinates>120.7271,24.325376,0.0 120.721974,24.32415,0.0 120.720055,24.320478,0.0 120.718251,24.313407,0.0 120.719713,24.309864,0.0 120.721387,24.307515,0.0 120.7236,24.308627,0.0 120.72339,24.310381,0.0 120.725163,24.31037,0.0 120.725898,24.310259,0.0 120.726872,24.31136,0.0 120.728669,24.312494,0.0 120.730672,24.314452,0.0 120.732819,24.314856,0.0 120.734721,24.314593,0.0 120.740391,24.318889,0.0 120.737851,24.320386,0.0 120.7271,24.325376,0.0</coordinates></LinearRing></outerBoundaryIs></Polygon><styleUrl>#spolygon-map</styleUrl></Placemark><Placemark><Polygon><outerBoundaryIs><LinearRing><coordinates>120.725207,24.326169,0.0 120.718545,24.325247,0.0 120.714765,24.319378,0.0 120.709513,24.315465,0.0 120.709779,24.312292,0.0 120.714274,24.30924,0.0 120.718022,24.308666,0.0 120.720331,24.307718,0.0 120.720111,24.310779,0.0 120.718184,24.315777,0.0 120.720324,24.322302,0.0 120.723177,24.323585,0.0 120.725207,24.326169,0.0</coordinates></LinearRing></outerBoundaryIs></Polygon><styleUrl>#spolygon-map</styleUrl></Placemark><Placemark><Polygon><outerBoundaryIs><LinearRing><coordinates>120.689162,24.321883,0.0 120.682572,24.319946,0.0 120.680107,24.318896,0.0 120.676165,24.31782,0.0 120.67324,24.316908,0.0 120.673656,24.316234,0.0 120.678829,24.312175,0.0 120.687634,24.30818,0.0 120.694752,24.30654,0.0 120.69927,24.311229,0.0 120.697008,24.316238,0.0 120.69208,24.316809,0.0 120.68955,24.321292,0.0 120.689162,24.321883,0.0</coordinates></LinearRing></outerBoundaryIs></Polygon><styleUrl>#spolygon-map</styleUrl></Placemark><Placemark><Polygon><outerBoundaryIs><LinearRing><coordinates>120.75454,24.331874,0.0 120.751024,24.330013,0.0 120.749186,24.327039,0.0 120.745043,24.32845,0.0 120.738432,24.328233,0.0 120.733394,24.327129,0.0 120.729906,24.326279,0.0 120.73159,24.323162,0.0 120.74285,24.320396,0.0 120.750932,24.321112,0.0 120.7553,24.320742,0.0 120.758784,24.319353,0.0 120.758936,24.319874,0.0 120.759235,24.320726,0.0 120.759003,24.321748,0.0 120.759005,24.322078,0.0 120.75948,24.322588,0.0 120.761309,24.324424,0.0 120.763252,24.325931,0.0 120.762301,24.326554,0.0 120.761134,24.327564,0.0 120.759468,24.328482,0.0 120.757783,24.329132,0.0 120.754918,24.331522,0.0 120.75454,24.331874,0.0</coordinates></LinearRing></outerBoundaryIs></Polygon><styleUrl>#spolygon-map</styleUrl></Placemark><Placemark><Polygon><outerBoundaryIs><LinearRing><coordinates>120.735797,24.314436,0.0 120.733818,24.315316,0.0 120.730946,24.315017,0.0 120.729203,24.313335,0.0 120.726752,24.310876,0.0 120.727677,24.305269,0.0 120.73236,24.307322,0.0 120.735797,24.314436,0.0</coordinates></LinearRing></outerBoundaryIs></Polygon><styleUrl>#spolygon-map</styleUrl></Placemark><Placemark><Polygon><outerBoundaryIs><LinearRing><coordinates>120.726752,24.310876,0.0 120.72594,24.310814,0.0 120.725483,24.309901,0.0 120.723881,24.310539,0.0 120.723945,24.309567,0.0 120.722315,24.307419,0.0 120.727354,24.305857,0.0 120.726752,24.310876,0.0</coordinates></LinearRing></outerBoundaryIs></Polygon><styleUrl>#spolygon-map</styleUrl></Placemark><Placemark><Polygon><outerBoundaryIs><LinearRing><coordinates>120.710268,24.316602,0.0 120.702887,24.31508,0.0 120.707251,24.307766,0.0 120.714274,24.30924,0.0 120.709779,24.312292,0.0 120.709513,24.315465,0.0 120.710268,24.316602,0.0</coordinates></LinearRing></outerBoundaryIs></Polygon><styleUrl>#spolygon-map</styleUrl></Placemark><Placemark><Polygon><outerBoundaryIs><LinearRing><coordinates>120.713003,24.305185,0.0 120.709549,24.304563,0.0 120.712002,24.30305,0.0 120.712447,24.304049,0.0 120.713003,24.305185,0.0</coordinates></LinearRing></outerBoundaryIs></Polygon><styleUrl>#spolygon-map</styleUrl></Placemark><Placemark><Polygon><outerBoundaryIs><LinearRing><coordinates>120.721985,24.307405,0.0 120.718306,24.30738,0.0 120.715237,24.308803,0.0 120.713707,24.306476,0.0 120.716526,24.304102,0.0 120.721887,24.305369,0.0 120.721985,24.307405,0.0</coordinates></LinearRing></outerBoundaryIs></Polygon><styleUrl>#spolygon-map</styleUrl></Placemark><Placemark><Polygon><outerBoundaryIs><LinearRing><coordinates>120.721998,24.304778,0.0 120.716195,24.304203,0.0 120.712537,24.303218,0.0 120.709298,24.303077,0.0 120.707929,24.301092,0.0 120.704988,24.296461,0.0 120.707977,24.292973,0.0 120.709356,24.284102,0.0 120.718118,24.282979,0.0 120.72388,24.29579,0.0 120.721998,24.304778,0.0</coordinates></LinearRing></outerBoundaryIs></Polygon><styleUrl>#spolygon-map</styleUrl></Placemark><Placemark><Polygon><outerBoundaryIs><LinearRing><coordinates>120.722315,24.307419,0.0 120.722899,24.300807,0.0 120.722622,24.282467,0.0 120.73231,24.282104,0.0 120.739343,24.28175,0.0 120.746727,24.280941,0.0 120.748675,24.283226,0.0 120.748047,24.285083,0.0 120.7486,24.286958,0.0 120.750152,24.287592,0.0 120.751911,24.287139,0.0 120.753322,24.287889,0.0 120.754826,24.289047,0.0 120.756206,24.288986,0.0 120.757772,24.290358,0.0 120.758588,24.290594,0.0 120.759855,24.290068,0.0 120.761148,24.290219,0.0 120.762294,24.290422,0.0 120.763388,24.290677,0.0 120.764155,24.291149,0.0 120.764405,24.291996,0.0 120.765423,24.292571,0.0 120.766003,24.293301,0.0 120.766904,24.296104,0.0 120.767486,24.298482,0.0 120.766846,24.299266,0.0 120.766137,24.299365,0.0 120.765284,24.29911,0.0 120.764554,24.299829,0.0 120.76439,24.300333,0.0 120.763932,24.300858,0.0 120.763668,24.301526,0.0 120.763267,24.302604,0.0 120.763032,24.303479,0.0 120.762822,24.304416,0.0 120.763343,24.305227,0.0 120.764581,24.306163,0.0 120.764665,24.307272,0.0 120.764708,24.308453,0.0 120.764558,24.309403,0.0 120.764836,24.310098,0.0 120.760763,24.312828,0.0 120.757296,24.309906,0.0 120.755182,24.30602,0.0 120.747405,24.3048,0.0 120.74254,24.30538,0.0 120.738612,24.305913,0.0 120.730613,24.3055,0.0 120.72339,24.307505,0.0 120.722315,24.307419,0.0</coordinates></LinearRing></outerBoundaryIs></Polygon><styleUrl>#spolygon-map</styleUrl></Placemark><Placemark><Polygon><outerBoundaryIs><LinearRing><coordinates>120.68083,24.311153,0.0 120.680411,24.304551,0.0 120.678465,24.30392,0.0 120.675731,24.304215,0.0 120.67273,24.304075,0.0 120.671252,24.303912,0.0 120.670636,24.302172,0.0 120.667934,24.300965,0.0 120.671395,24.298833,0.0 120.674888,24.299181,0.0 120.677813,24.29733,0.0 120.678173,24.296944,0.0 120.679111,24.297105,0.0 120.679923,24.297192,0.0 120.681084,24.296909,0.0 120.681547,24.296235,0.0 120.682248,24.296197,0.0 120.683408,24.29514,0.0 120.68519,24.294803,0.0 120.686276,24.294671,0.0 120.687345,24.294004,0.0 120.688471,24.293768,0.0 120.689317,24.293356,0.0 120.690183,24.293721,0.0 120.691077,24.293627,0.0 120.691824,24.294427,0.0 120.692748,24.296585,0.0 120.694752,24.302472,0.0 120.690852,24.305954,0.0 120.68083,24.311153,0.0</coordinates></LinearRing></outerBoundaryIs></Polygon><styleUrl>#spolygon-map</styleUrl></Placemark><Placemark><Polygon><outerBoundaryIs><LinearRing><coordinates>120.704175,24.297518,0.0 120.694252,24.302903,0.0 120.693235,24.296765,0.0 120.692243,24.29624,0.0 120.691295,24.293842,0.0 120.690383,24.293735,0.0 120.689636,24.29344,0.0 120.688768,24.293754,0.0 120.687789,24.293583,0.0 120.686633,24.294187,0.0 120.685527,24.294878,0.0 120.68435,24.295119,0.0 120.682374,24.295998,0.0 120.681618,24.296119,0.0 120.681409,24.29694,0.0 120.680273,24.296633,0.0 120.679421,24.297249,0.0 120.678635,24.297142,0.0 120.677937,24.296943,0.0 120.675952,24.29917,0.0 120.672669,24.298253,0.0 120.66964,24.299971,0.0 120.664849,24.299554,0.0 120.658284,24.295993,0.0 120.654969,24.296015,0.0 120.649994,24.297026,0.0 120.655297,24.293391,0.0 120.659945,24.291361,0.0 120.665765,24.28983,0.0 120.672314,24.287904,0.0 120.683133,24.284698,0.0 120.687538,24.284718,0.0 120.700383,24.284586,0.0 120.708164,24.284307,0.0 120.70901,24.292494,0.0 120.706406,24.294767,0.0 120.704175,24.297518,0.0</coordinates></LinearRing></outerBoundaryIs></Polygon><styleUrl>#spolygon-map</styleUrl></Placemark></Document>
</kml>
