<?xml version="1.0" encoding="UTF-8"?>
<kml xmlns="http://www.opengis.net/kml/2.2">
	<Document>
		<name>臺中市石岡區</name>
		<Style id="spolygon">
			<LabelStyle>
				<scale>0.0</scale>
			</LabelStyle>
			<LineStyle>
				<color>330030ff</color>
				<width>0</width>
			</LineStyle>
			<PolyStyle>
				<color>330030ff</color>
			</PolyStyle>
		</Style>
		<StyleMap id="spolygon-map">
			<Pair>
				<key>normal</key>
				<styleUrl>#spolygon</styleUrl>
			</Pair>
		</StyleMap>
	<Placemark><Polygon><outerBoundaryIs><LinearRing><coordinates>120.784009,24.283433,0.0 120.783734,24.280506,0.0 120.783731,24.277181,0.0 120.781816,24.2774,0.0 120.780417,24.276427,0.0 120.779516,24.275269,0.0 120.778624,24.27363,0.0 120.77679,24.27332,0.0 120.777436,24.270229,0.0 120.780305,24.268194,0.0 120.782457,24.267723,0.0 120.786848,24.267357,0.0 120.789283,24.269516,0.0 120.790356,24.270315,0.0 120.789379,24.272361,0.0 120.788829,24.273793,0.0 120.788686,24.274698,0.0 120.788198,24.276255,0.0 120.787813,24.277376,0.0 120.789435,24.27844,0.0 120.788995,24.281635,0.0 120.788581,24.283039,0.0 120.786674,24.283436,0.0 120.785095,24.283544,0.0 120.784009,24.283433,0.0</coordinates></LinearRing></outerBoundaryIs></Polygon><styleUrl>#spolygon-map</styleUrl></Placemark><Placemark><Polygon><outerBoundaryIs><LinearRing><coordinates>120.812891,24.273523,0.0 120.809622,24.272286,0.0 120.808697,24.272269,0.0 120.807452,24.273118,0.0 120.806192,24.272198,0.0 120.804291,24.271762,0.0 120.804836,24.269986,0.0 120.804284,24.269123,0.0 120.803402,24.268057,0.0 120.803071,24.26681,0.0 120.802406,24.2649,0.0 120.803118,24.263115,0.0 120.804618,24.262225,0.0 120.805444,24.261816,0.0 120.805926,24.261701,0.0 120.806206,24.262142,0.0 120.806312,24.261853,0.0 120.806404,24.261411,0.0 120.806533,24.260725,0.0 120.807655,24.262403,0.0 120.809658,24.264717,0.0 120.811133,24.266168,0.0 120.812068,24.267047,0.0 120.814432,24.268839,0.0 120.813874,24.270469,0.0 120.812996,24.273243,0.0 120.812891,24.273523,0.0</coordinates></LinearRing></outerBoundaryIs></Polygon><styleUrl>#spolygon-map</styleUrl></Placemark><Placemark><Polygon><outerBoundaryIs><LinearRing><coordinates>120.777358,24.283933,0.0 120.774591,24.284168,0.0 120.771794,24.282834,0.0 120.76952,24.281343,0.0 120.765599,24.281301,0.0 120.762688,24.281109,0.0 120.760464,24.280451,0.0 120.760967,24.278709,0.0 120.7617,24.276697,0.0 120.762228,24.276142,0.0 120.76558,24.27731,0.0 120.768597,24.276617,0.0 120.770343,24.276265,0.0 120.774776,24.27436,0.0 120.778849,24.281226,0.0 120.779234,24.283644,0.0 120.777358,24.283933,0.0</coordinates></LinearRing></outerBoundaryIs></Polygon><styleUrl>#spolygon-map</styleUrl></Placemark><Placemark><Polygon><outerBoundaryIs><LinearRing><coordinates>120.818815,24.26287,0.0 120.816579,24.262188,0.0 120.815148,24.261751,0.0 120.814826,24.260511,0.0 120.815112,24.258981,0.0 120.814053,24.258849,0.0 120.814057,24.257501,0.0 120.814653,24.25557,0.0 120.814995,24.254322,0.0 120.814801,24.253055,0.0 120.814157,24.251269,0.0 120.81521,24.249489,0.0 120.81624,24.247382,0.0 120.816487,24.246608,0.0 120.817701,24.244662,0.0 120.81829,24.243685,0.0 120.818812,24.242999,0.0 120.819273,24.241557,0.0 120.819175,24.241286,0.0 120.820113,24.24131,0.0 120.82012,24.241967,0.0 120.821545,24.242492,0.0 120.823586,24.24256,0.0 120.824284,24.243586,0.0 120.823997,24.245441,0.0 120.822985,24.247837,0.0 120.822686,24.2496,0.0 120.822346,24.251324,0.0 120.821753,24.2541,0.0 120.820735,24.257146,0.0 120.818815,24.26287,0.0</coordinates></LinearRing></outerBoundaryIs></Polygon><styleUrl>#spolygon-map</styleUrl></Placemark><Placemark><Polygon><outerBoundaryIs><LinearRing><coordinates>120.774913,24.274076,0.0 120.770706,24.276133,0.0 120.768805,24.27666,0.0 120.765835,24.27731,0.0 120.762229,24.276142,0.0 120.762433,24.275741,0.0 120.762659,24.27489,0.0 120.762615,24.274039,0.0 120.763108,24.27341,0.0 120.764,24.273373,0.0 120.763848,24.272851,0.0 120.763635,24.272056,0.0 120.762796,24.270771,0.0 120.763406,24.269456,0.0 120.764402,24.268719,0.0 120.764041,24.267847,0.0 120.76458,24.267383,0.0 120.765204,24.267264,0.0 120.766146,24.267266,0.0 120.766514,24.26702,0.0 120.767225,24.266861,0.0 120.767218,24.266326,0.0 120.76752,24.265846,0.0 120.767804,24.265406,0.0 120.769102,24.265042,0.0 120.769811,24.264434,0.0 120.769452,24.264054,0.0 120.769023,24.263191,0.0 120.768864,24.261934,0.0 120.769091,24.26141,0.0 120.768756,24.260818,0.0 120.768593,24.260134,0.0 120.768304,24.259059,0.0 120.768012,24.257903,0.0 120.767777,24.257147,0.0 120.768052,24.257495,0.0 120.768622,24.257507,0.0 120.768891,24.257184,0.0 120.768855,24.256119,0.0 120.76916,24.254891,0.0 120.767446,24.253952,0.0 120.766939,24.25329,0.0 120.767402,24.252108,0.0 120.768509,24.251629,0.0 120.768873,24.251024,0.0 120.769254,24.250086,0.0 120.770134,24.249915,0.0 120.770609,24.249984,0.0 120.771248,24.249861,0.0 120.771973,24.249413,0.0 120.772345,24.248824,0.0 120.773289,24.248345,0.0 120.773756,24.247603,0.0 120.773988,24.246429,0.0 120.774039,24.245292,0.0 120.774089,24.244619,0.0 120.774676,24.24439,0.0 120.774782,24.243151,0.0 120.775397,24.242743,0.0 120.776245,24.242514,0.0 120.777444,24.241746,0.0 120.777925,24.242067,0.0 120.777864,24.242857,0.0 120.777852,24.243679,0.0 120.778731,24.243858,0.0 120.779109,24.244604,0.0 120.779525,24.245045,0.0 120.779867,24.245894,0.0 120.779524,24.246841,0.0 120.780029,24.247449,0.0 120.78022,24.248274,0.0 120.780046,24.248883,0.0 120.779937,24.249357,0.0 120.780465,24.249448,0.0 120.780522,24.249992,0.0 120.779985,24.250436,0.0 120.78058,24.250725,0.0 120.78185,24.250653,0.0 120.782222,24.250389,0.0 120.782488,24.250056,0.0 120.782147,24.249464,0.0 120.782266,24.249003,0.0 120.781691,24.248635,0.0 120.781508,24.247842,0.0 120.782034,24.247488,0.0 120.782698,24.247243,0.0 120.783056,24.246668,0.0 120.784278,24.245485,0.0 120.784315,24.24641,0.0 120.784562,24.246819,0.0 120.784041,24.247381,0.0 120.784321,24.247988,0.0 120.785149,24.248448,0.0 120.785997,24.249074,0.0 120.786115,24.249871,0.0 120.78613,24.250383,0.0 120.786434,24.251043,0.0 120.785929,24.25195,0.0 120.786298,24.251993,0.0 120.786635,24.252023,0.0 120.786196,24.25251,0.0 120.786172,24.253264,0.0 120.786112,24.253876,0.0 120.785967,24.254408,0.0 120.786135,24.254853,0.0 120.785432,24.256057,0.0 120.785494,24.259267,0.0 120.78749,24.258758,0.0 120.788261,24.258874,0.0 120.788295,24.261506,0.0 120.785908,24.263453,0.0 120.784227,24.265563,0.0 120.782457,24.267723,0.0 120.780305,24.268194,0.0 120.777436,24.270229,0.0 120.77679,24.27332,0.0 120.774913,24.274076,0.0</coordinates></LinearRing></outerBoundaryIs></Polygon><styleUrl>#spolygon-map</styleUrl></Placemark><Placemark><Polygon><outerBoundaryIs><LinearRing><coordinates>120.794132,24.281318,0.0 120.793922,24.278425,0.0 120.794771,24.276467,0.0 120.796375,24.27481,0.0 120.797372,24.273475,0.0 120.79828,24.271996,0.0 120.799754,24.270521,0.0 120.797662,24.269117,0.0 120.795643,24.268376,0.0 120.796836,24.267877,0.0 120.797454,24.267457,0.0 120.798414,24.267192,0.0 120.799771,24.266531,0.0 120.800181,24.266107,0.0 120.800538,24.265737,0.0 120.801092,24.265327,0.0 120.802045,24.264488,0.0 120.802647,24.263681,0.0 120.802384,24.26499,0.0 120.803105,24.26686,0.0 120.803491,24.268113,0.0 120.804358,24.269234,0.0 120.804821,24.270068,0.0 120.804354,24.271902,0.0 120.806367,24.272352,0.0 120.807694,24.27311,0.0 120.808829,24.272219,0.0 120.809805,24.272451,0.0 120.81283,24.273685,0.0 120.811887,24.275677,0.0 120.811308,24.276705,0.0 120.810787,24.27831,0.0 120.809024,24.279827,0.0 120.806981,24.280309,0.0 120.805124,24.280614,0.0 120.803858,24.280579,0.0 120.801427,24.280833,0.0 120.798092,24.280849,0.0 120.794258,24.281263,0.0 120.794132,24.281318,0.0</coordinates></LinearRing></outerBoundaryIs></Polygon><styleUrl>#spolygon-map</styleUrl></Placemark><Placemark><Polygon><outerBoundaryIs><LinearRing><coordinates>120.779845,24.283623,0.0 120.775849,24.277481,0.0 120.776942,24.273887,0.0 120.779599,24.274935,0.0 120.780742,24.275904,0.0 120.780466,24.276845,0.0 120.782632,24.277049,0.0 120.784126,24.279491,0.0 120.783475,24.281122,0.0 120.783559,24.283458,0.0 120.780873,24.283631,0.0 120.779845,24.283623,0.0</coordinates></LinearRing></outerBoundaryIs></Polygon><styleUrl>#spolygon-map</styleUrl></Placemark><Placemark><Polygon><outerBoundaryIs><LinearRing><coordinates>120.789299,24.282782,0.0 120.789188,24.280236,0.0 120.788965,24.277568,0.0 120.787485,24.276767,0.0 120.788912,24.275764,0.0 120.788113,24.274472,0.0 120.789067,24.272877,0.0 120.790264,24.271312,0.0 120.790582,24.27001,0.0 120.79094,24.270388,0.0 120.791527,24.270086,0.0 120.792651,24.270022,0.0 120.793464,24.27001,0.0 120.794113,24.269139,0.0 120.795049,24.268626,0.0 120.796618,24.268779,0.0 120.799693,24.270054,0.0 120.798729,24.271543,0.0 120.797588,24.272801,0.0 120.796954,24.274339,0.0 120.79561,24.2758,0.0 120.793836,24.277635,0.0 120.793909,24.280125,0.0 120.792595,24.281997,0.0 120.790091,24.2827,0.0 120.789299,24.282782,0.0</coordinates></LinearRing></outerBoundaryIs></Polygon><styleUrl>#spolygon-map</styleUrl></Placemark><Placemark><Polygon><outerBoundaryIs><LinearRing><coordinates>120.818659,24.263265,0.0 120.816995,24.265891,0.0 120.814671,24.268576,0.0 120.812195,24.267138,0.0 120.811255,24.266315,0.0 120.809883,24.264941,0.0 120.807808,24.262588,0.0 120.806537,24.260727,0.0 120.80672,24.260206,0.0 120.806783,24.259393,0.0 120.807096,24.258718,0.0 120.807799,24.258198,0.0 120.808132,24.258221,0.0 120.808547,24.257285,0.0 120.809248,24.256021,0.0 120.810558,24.253991,0.0 120.811602,24.253144,0.0 120.812135,24.252163,0.0 120.813224,24.252243,0.0 120.814801,24.253055,0.0 120.814995,24.254322,0.0 120.814653,24.25557,0.0 120.814057,24.257501,0.0 120.814053,24.258849,0.0 120.815112,24.258981,0.0 120.814826,24.260511,0.0 120.815148,24.261751,0.0 120.816579,24.262188,0.0 120.818815,24.26287,0.0 120.818659,24.263265,0.0</coordinates></LinearRing></outerBoundaryIs></Polygon><styleUrl>#spolygon-map</styleUrl></Placemark><Placemark><Polygon><outerBoundaryIs><LinearRing><coordinates>120.790488,24.26976,0.0 120.788602,24.268922,0.0 120.784277,24.267299,0.0 120.782767,24.267288,0.0 120.784652,24.264769,0.0 120.786742,24.262824,0.0 120.787448,24.261062,0.0 120.78808,24.257991,0.0 120.786129,24.260151,0.0 120.785517,24.257434,0.0 120.786099,24.25537,0.0 120.786728,24.254479,0.0 120.78806,24.2537,0.0 120.788995,24.253193,0.0 120.789422,24.252666,0.0 120.789682,24.252208,0.0 120.789841,24.251917,0.0 120.790326,24.251773,0.0 120.790883,24.25137,0.0 120.791267,24.251034,0.0 120.79167,24.250558,0.0 120.792366,24.249855,0.0 120.792659,24.248941,0.0 120.792872,24.248294,0.0 120.794175,24.247494,0.0 120.796451,24.246786,0.0 120.799215,24.24632,0.0 120.801678,24.245791,0.0 120.801693,24.248089,0.0 120.802344,24.248624,0.0 120.802993,24.249293,0.0 120.803099,24.250014,0.0 120.802221,24.251493,0.0 120.801866,24.252231,0.0 120.802413,24.252609,0.0 120.803063,24.253074,0.0 120.802691,24.253758,0.0 120.801788,24.253721,0.0 120.801724,24.254567,0.0 120.801809,24.255312,0.0 120.801117,24.256164,0.0 120.800428,24.256963,0.0 120.799663,24.258151,0.0 120.800028,24.259052,0.0 120.800097,24.259648,0.0 120.798999,24.25904,0.0 120.798188,24.258486,0.0 120.797445,24.258916,0.0 120.797161,24.260347,0.0 120.796261,24.261097,0.0 120.795394,24.261624,0.0 120.794906,24.262639,0.0 120.794173,24.263575,0.0 120.79424,24.264471,0.0 120.794049,24.265313,0.0 120.793255,24.266181,0.0 120.793294,24.267048,0.0 120.79286,24.267747,0.0 120.791542,24.268592,0.0 120.79041,24.269362,0.0 120.790488,24.26976,0.0</coordinates></LinearRing></outerBoundaryIs></Polygon><styleUrl>#spolygon-map</styleUrl></Placemark></Document>
</kml>
