<?xml version="1.0" encoding="UTF-8"?>
<kml xmlns="http://www.opengis.net/kml/2.2">
	<Document>
		<name>臺中市梧棲區</name>
		<Style id="spolygon">
			<LabelStyle>
				<scale>0.0</scale>
			</LabelStyle>
			<LineStyle>
				<color>330030ff</color>
				<width>0</width>
			</LineStyle>
			<PolyStyle>
				<color>330030ff</color>
			</PolyStyle>
		</Style>
		<StyleMap id="spolygon-map">
			<Pair>
				<key>normal</key>
				<styleUrl>#spolygon</styleUrl>
			</Pair>
		</StyleMap>
	<Placemark><Polygon><outerBoundaryIs><LinearRing><coordinates>120.521476,24.261835,0.0 120.534794,24.257711,0.0 120.53114,24.260753,0.0 120.528369,24.263511,0.0 120.521966,24.262148,0.0 120.521476,24.261835,0.0</coordinates></LinearRing></outerBoundaryIs></Polygon><styleUrl>#spolygon-map</styleUrl></Placemark><Placemark><Polygon><outerBoundaryIs><LinearRing><coordinates>120.534707,24.246407,0.0 120.538587,24.245641,0.0 120.539614,24.246093,0.0 120.540713,24.246676,0.0 120.54406,24.245469,0.0 120.545956,24.24418,0.0 120.549037,24.242595,0.0 120.553875,24.241626,0.0 120.556337,24.241807,0.0 120.558038,24.241962,0.0 120.558999,24.243272,0.0 120.555307,24.246105,0.0 120.543487,24.249231,0.0 120.54064,24.249758,0.0 120.535844,24.249134,0.0 120.534707,24.246407,0.0</coordinates></LinearRing></outerBoundaryIs></Polygon><styleUrl>#spolygon-map</styleUrl></Placemark><Placemark><Polygon><outerBoundaryIs><LinearRing><coordinates>120.55784,24.241469,0.0 120.554943,24.242254,0.0 120.55328,24.241079,0.0 120.547781,24.243265,0.0 120.546108,24.244734,0.0 120.542814,24.245935,0.0 120.540196,24.246559,0.0 120.539538,24.245823,0.0 120.538393,24.245585,0.0 120.533916,24.244498,0.0 120.541762,24.241011,0.0 120.555524,24.238463,0.0 120.556447,24.239664,0.0 120.556905,24.240264,0.0 120.557541,24.241144,0.0 120.55784,24.241469,0.0</coordinates></LinearRing></outerBoundaryIs></Polygon><styleUrl>#spolygon-map</styleUrl></Placemark><Placemark><Polygon><outerBoundaryIs><LinearRing><coordinates>120.521113,24.261008,0.0 120.529915,24.255598,0.0 120.529957,24.254904,0.0 120.533424,24.254027,0.0 120.536293,24.252606,0.0 120.533243,24.257635,0.0 120.521113,24.261008,0.0</coordinates></LinearRing></outerBoundaryIs></Polygon><styleUrl>#spolygon-map</styleUrl></Placemark><Placemark><Polygon><outerBoundaryIs><LinearRing><coordinates>120.510826,24.26132,0.0 120.529551,24.257111,0.0 120.520233,24.259676,0.0 120.517829,24.26358,0.0 120.520395,24.267935,0.0 120.520668,24.276033,0.0 120.510923,24.262258,0.0 120.510826,24.26132,0.0</coordinates></LinearRing></outerBoundaryIs></Polygon><styleUrl>#spolygon-map</styleUrl></Placemark><Placemark><Polygon><outerBoundaryIs><LinearRing><coordinates>120.509933,24.260911,0.0 120.531185,24.253168,0.0 120.534724,24.251181,0.0 120.536016,24.251996,0.0 120.533651,24.254135,0.0 120.531252,24.25443,0.0 120.529834,24.255363,0.0 120.509933,24.260911,0.0</coordinates></LinearRing></outerBoundaryIs></Polygon><styleUrl>#spolygon-map</styleUrl></Placemark><Placemark><Polygon><outerBoundaryIs><LinearRing><coordinates>120.513568,24.22967,0.0 120.512469,24.226376,0.0 120.514491,24.225315,0.0 120.524513,24.221455,0.0 120.528332,24.220447,0.0 120.529024,24.222262,0.0 120.534532,24.220992,0.0 120.546314,24.218477,0.0 120.546813,24.218471,0.0 120.547071,24.219188,0.0 120.547332,24.220012,0.0 120.547591,24.220514,0.0 120.547637,24.220928,0.0 120.547738,24.221291,0.0 120.548128,24.222674,0.0 120.548209,24.222954,0.0 120.548683,24.224073,0.0 120.54902,24.226187,0.0 120.548555,24.227163,0.0 120.548633,24.228294,0.0 120.548148,24.22874,0.0 120.536146,24.225468,0.0 120.533636,24.225295,0.0 120.529977,24.225807,0.0 120.520832,24.228604,0.0 120.514146,24.229814,0.0 120.513568,24.22967,0.0</coordinates></LinearRing></outerBoundaryIs></Polygon><styleUrl>#spolygon-map</styleUrl></Placemark><Placemark><Polygon><outerBoundaryIs><LinearRing><coordinates>120.528971,24.233024,0.0 120.530206,24.225679,0.0 120.534368,24.225233,0.0 120.541117,24.226152,0.0 120.547811,24.22888,0.0 120.54887,24.229622,0.0 120.548687,24.23005,0.0 120.548691,24.230547,0.0 120.544211,24.231477,0.0 120.538787,24.23144,0.0 120.536581,24.2315,0.0 120.533397,24.231697,0.0 120.528971,24.233024,0.0</coordinates></LinearRing></outerBoundaryIs></Polygon><styleUrl>#spolygon-map</styleUrl></Placemark><Placemark><Polygon><outerBoundaryIs><LinearRing><coordinates>120.509346,24.259546,0.0 120.528123,24.252064,0.0 120.537233,24.252278,0.0 120.534933,24.251224,0.0 120.533745,24.251677,0.0 120.525228,24.256551,0.0 120.509346,24.259546,0.0</coordinates></LinearRing></outerBoundaryIs></Polygon><styleUrl>#spolygon-map</styleUrl></Placemark><Placemark><Polygon><outerBoundaryIs><LinearRing><coordinates>120.541761,24.262753,0.0 120.542763,24.256768,0.0 120.561306,24.252533,0.0 120.559562,24.257973,0.0 120.546445,24.261171,0.0 120.543953,24.261812,0.0 120.541761,24.262753,0.0</coordinates></LinearRing></outerBoundaryIs></Polygon><styleUrl>#spolygon-map</styleUrl></Placemark><Placemark><Polygon><outerBoundaryIs><LinearRing><coordinates>120.536214,24.249988,0.0 120.52802,24.252343,0.0 120.508048,24.256675,0.0 120.503235,24.245466,0.0 120.502021,24.239191,0.0 120.502898,24.237742,0.0 120.503924,24.236378,0.0 120.504232,24.234474,0.0 120.504237,24.233101,0.0 120.50587,24.2317,0.0 120.511192,24.229718,0.0 120.513568,24.22967,0.0 120.519324,24.228932,0.0 120.526377,24.226852,0.0 120.53417,24.245091,0.0 120.536214,24.249988,0.0</coordinates></LinearRing></outerBoundaryIs></Polygon><styleUrl>#spolygon-map</styleUrl></Placemark><Placemark><Polygon><outerBoundaryIs><LinearRing><coordinates>120.523816,24.264993,0.0 120.529711,24.26198,0.0 120.540179,24.263428,0.0 120.536928,24.265061,0.0 120.537006,24.265863,0.0 120.536362,24.266064,0.0 120.536295,24.266271,0.0 120.535808,24.267757,0.0 120.53671,24.269591,0.0 120.533318,24.271526,0.0 120.528836,24.275226,0.0 120.526547,24.276237,0.0 120.526029,24.272567,0.0 120.52409,24.267604,0.0 120.523816,24.264993,0.0</coordinates></LinearRing></outerBoundaryIs></Polygon><styleUrl>#spolygon-map</styleUrl></Placemark><Placemark><Polygon><outerBoundaryIs><LinearRing><coordinates>120.538971,24.25623,0.0 120.540567,24.249732,0.0 120.543057,24.249361,0.0 120.553417,24.246357,0.0 120.555662,24.248332,0.0 120.55682,24.252383,0.0 120.550375,24.25509,0.0 120.538971,24.25623,0.0</coordinates></LinearRing></outerBoundaryIs></Polygon><styleUrl>#spolygon-map</styleUrl></Placemark><Placemark><Polygon><outerBoundaryIs><LinearRing><coordinates>120.532234,24.240583,0.0 120.533402,24.231841,0.0 120.535587,24.231517,0.0 120.537833,24.23124,0.0 120.54105,24.231555,0.0 120.547177,24.231057,0.0 120.550504,24.232647,0.0 120.551903,24.234163,0.0 120.552963,24.23527,0.0 120.553985,24.236623,0.0 120.555228,24.238132,0.0 120.541762,24.241011,0.0 120.532234,24.240583,0.0</coordinates></LinearRing></outerBoundaryIs></Polygon><styleUrl>#spolygon-map</styleUrl></Placemark></Document>
</kml>
