<?xml version="1.0" encoding="UTF-8"?>
<kml xmlns="http://www.opengis.net/kml/2.2">
	<Document>
		<name>臺中市西區</name>
		<Style id="spolygon">
			<LabelStyle>
				<scale>0.0</scale>
			</LabelStyle>
			<LineStyle>
				<color>330030ff</color>
				<width>0</width>
			</LineStyle>
			<PolyStyle>
				<color>330030ff</color>
			</PolyStyle>
		</Style>
		<StyleMap id="spolygon-map">
			<Pair>
				<key>normal</key>
				<styleUrl>#spolygon</styleUrl>
			</Pair>
		</StyleMap>
	<Placemark><Polygon><outerBoundaryIs><LinearRing><coordinates>120.666612,24.15084,0.0 120.664283,24.148568,0.0 120.666619,24.144364,0.0 120.668134,24.146139,0.0 120.667556,24.148654,0.0 120.666612,24.15084,0.0</coordinates></LinearRing></outerBoundaryIs></Polygon><styleUrl>#spolygon-map</styleUrl></Placemark><Placemark><Polygon><outerBoundaryIs><LinearRing><coordinates>120.67255,24.133256,0.0 120.673592,24.136157,0.0 120.676936,24.138833,0.0 120.676321,24.139364,0.0 120.674625,24.139087,0.0 120.673701,24.139187,0.0 120.671222,24.135252,0.0 120.669729,24.134707,0.0 120.67255,24.133256,0.0</coordinates></LinearRing></outerBoundaryIs></Polygon><styleUrl>#spolygon-map</styleUrl></Placemark><Placemark><Polygon><outerBoundaryIs><LinearRing><coordinates>120.661677,24.138416,0.0 120.663828,24.140098,0.0 120.664965,24.141154,0.0 120.66241,24.141876,0.0 120.657933,24.142965,0.0 120.657302,24.140083,0.0 120.657312,24.137079,0.0 120.658821,24.136552,0.0 120.660171,24.137634,0.0 120.661677,24.138416,0.0</coordinates></LinearRing></outerBoundaryIs></Polygon><styleUrl>#spolygon-map</styleUrl></Placemark><Placemark><Polygon><outerBoundaryIs><LinearRing><coordinates>120.657318,24.135129,0.0 120.657304,24.139271,0.0 120.657294,24.142959,0.0 120.65573,24.142104,0.0 120.654847,24.140055,0.0 120.654851,24.137597,0.0 120.654858,24.135902,0.0 120.655497,24.134879,0.0 120.657318,24.135129,0.0</coordinates></LinearRing></outerBoundaryIs></Polygon><styleUrl>#spolygon-map</styleUrl></Placemark><Placemark><Polygon><outerBoundaryIs><LinearRing><coordinates>120.663075,24.146737,0.0 120.664278,24.150839,0.0 120.660182,24.150866,0.0 120.660154,24.14674,0.0 120.663075,24.146737,0.0</coordinates></LinearRing></outerBoundaryIs></Polygon><styleUrl>#spolygon-map</styleUrl></Placemark><Placemark><Polygon><outerBoundaryIs><LinearRing><coordinates>120.65867,24.151711,0.0 120.657904,24.152782,0.0 120.656211,24.153636,0.0 120.655643,24.154827,0.0 120.652987,24.153931,0.0 120.654223,24.150869,0.0 120.658671,24.151459,0.0 120.65867,24.151711,0.0</coordinates></LinearRing></outerBoundaryIs></Polygon><styleUrl>#spolygon-map</styleUrl></Placemark><Placemark><Polygon><outerBoundaryIs><LinearRing><coordinates>120.649865,24.146748,0.0 120.649865,24.14387,0.0 120.652954,24.144981,0.0 120.655114,24.147756,0.0 120.655095,24.150884,0.0 120.651339,24.148824,0.0 120.649865,24.146748,0.0</coordinates></LinearRing></outerBoundaryIs></Polygon><styleUrl>#spolygon-map</styleUrl></Placemark><Placemark><Polygon><outerBoundaryIs><LinearRing><coordinates>120.668774,24.137874,0.0 120.67095,24.139877,0.0 120.6708,24.143059,0.0 120.668193,24.140566,0.0 120.665692,24.139576,0.0 120.664003,24.137299,0.0 120.667061,24.136189,0.0 120.669226,24.137286,0.0 120.668774,24.137874,0.0</coordinates></LinearRing></outerBoundaryIs></Polygon><styleUrl>#spolygon-map</styleUrl></Placemark><Placemark><Polygon><outerBoundaryIs><LinearRing><coordinates>120.658874,24.151461,0.0 120.65772,24.149887,0.0 120.656982,24.14787,0.0 120.658316,24.146731,0.0 120.66018,24.149634,0.0 120.658874,24.151461,0.0</coordinates></LinearRing></outerBoundaryIs></Polygon><styleUrl>#spolygon-map</styleUrl></Placemark><Placemark><Polygon><outerBoundaryIs><LinearRing><coordinates>120.656983,24.144219,0.0 120.656982,24.147253,0.0 120.656981,24.149297,0.0 120.658648,24.150566,0.0 120.655095,24.150884,0.0 120.655114,24.147756,0.0 120.655118,24.143814,0.0 120.655184,24.140725,0.0 120.655881,24.142591,0.0 120.656983,24.144017,0.0 120.656983,24.144219,0.0</coordinates></LinearRing></outerBoundaryIs></Polygon><styleUrl>#spolygon-map</styleUrl></Placemark><Placemark><Polygon><outerBoundaryIs><LinearRing><coordinates>120.667445,24.131587,0.0 120.665797,24.134945,0.0 120.664002,24.135139,0.0 120.662617,24.132183,0.0 120.661976,24.129618,0.0 120.66372,24.129389,0.0 120.665718,24.12846,0.0 120.668029,24.130421,0.0 120.667445,24.131587,0.0</coordinates></LinearRing></outerBoundaryIs></Polygon><styleUrl>#spolygon-map</styleUrl></Placemark><Placemark><MultiGeometry><Polygon><outerBoundaryIs><LinearRing><coordinates>120.671171,24.140016,0.0 120.669197,24.137952,0.0 120.670349,24.137929,0.0 120.671134,24.139014,0.0 120.671318,24.139893,0.0 120.671171,24.140016,0.0</coordinates></LinearRing></outerBoundaryIs></Polygon><Polygon><outerBoundaryIs><LinearRing><coordinates>120.674275,24.142832,0.0 120.669732,24.14398,0.0 120.670939,24.140208,0.0 120.673387,24.140776,0.0 120.674288,24.142032,0.0 120.674275,24.142832,0.0</coordinates></LinearRing></outerBoundaryIs></Polygon></MultiGeometry><styleUrl>#spolygon-map</styleUrl></Placemark><Placemark><Polygon><outerBoundaryIs><LinearRing><coordinates>120.679105,24.138609,0.0 120.674754,24.13409,0.0 120.677082,24.133277,0.0 120.681364,24.135075,0.0 120.681742,24.136285,0.0 120.679105,24.138609,0.0</coordinates></LinearRing></outerBoundaryIs></Polygon><styleUrl>#spolygon-map</styleUrl></Placemark><Placemark><Polygon><outerBoundaryIs><LinearRing><coordinates>120.672708,24.15155,0.0 120.672807,24.152408,0.0 120.672055,24.152883,0.0 120.671505,24.153412,0.0 120.671795,24.153801,0.0 120.669967,24.154301,0.0 120.669243,24.153739,0.0 120.668624,24.153627,0.0 120.66732,24.153758,0.0 120.666124,24.15355,0.0 120.663166,24.152543,0.0 120.664284,24.149022,0.0 120.667563,24.150849,0.0 120.671866,24.150763,0.0 120.672708,24.15155,0.0</coordinates></LinearRing></outerBoundaryIs></Polygon><styleUrl>#spolygon-map</styleUrl></Placemark><Placemark><Polygon><outerBoundaryIs><LinearRing><coordinates>120.662826,24.133165,0.0 120.663998,24.136546,0.0 120.665691,24.138655,0.0 120.663828,24.140098,0.0 120.661677,24.138416,0.0 120.66017,24.136546,0.0 120.658831,24.135145,0.0 120.660157,24.132974,0.0 120.662826,24.133165,0.0</coordinates></LinearRing></outerBoundaryIs></Polygon><styleUrl>#spolygon-map</styleUrl></Placemark><Placemark><Polygon><outerBoundaryIs><LinearRing><coordinates>120.666814,24.140102,0.0 120.669924,24.142231,0.0 120.671237,24.145462,0.0 120.668602,24.144397,0.0 120.661683,24.142978,0.0 120.664212,24.141801,0.0 120.666487,24.139774,0.0 120.666814,24.140102,0.0</coordinates></LinearRing></outerBoundaryIs></Polygon><styleUrl>#spolygon-map</styleUrl></Placemark><Placemark><Polygon><outerBoundaryIs><LinearRing><coordinates>120.677826,24.139715,0.0 120.67589,24.137943,0.0 120.674049,24.135761,0.0 120.672267,24.132082,0.0 120.674405,24.132146,0.0 120.676012,24.132993,0.0 120.67717,24.136734,0.0 120.677826,24.139715,0.0</coordinates></LinearRing></outerBoundaryIs></Polygon><styleUrl>#spolygon-map</styleUrl></Placemark><Placemark><Polygon><outerBoundaryIs><LinearRing><coordinates>120.673288,24.152179,0.0 120.671494,24.150374,0.0 120.67355,24.147667,0.0 120.674387,24.147642,0.0 120.674854,24.148286,0.0 120.674895,24.149754,0.0 120.675021,24.15126,0.0 120.674627,24.151372,0.0 120.673288,24.152179,0.0</coordinates></LinearRing></outerBoundaryIs></Polygon><styleUrl>#spolygon-map</styleUrl></Placemark><Placemark><Polygon><outerBoundaryIs><LinearRing><coordinates>120.663151,24.153076,0.0 120.665698,24.1557,0.0 120.665417,24.15907,0.0 120.664695,24.160163,0.0 120.663544,24.160539,0.0 120.662531,24.159297,0.0 120.658773,24.153481,0.0 120.659523,24.151461,0.0 120.663151,24.153076,0.0</coordinates></LinearRing></outerBoundaryIs></Polygon><styleUrl>#spolygon-map</styleUrl></Placemark><Placemark><Polygon><outerBoundaryIs><LinearRing><coordinates>120.655643,24.154827,0.0 120.656211,24.153636,0.0 120.657904,24.152782,0.0 120.659246,24.154202,0.0 120.663045,24.160082,0.0 120.662904,24.161342,0.0 120.662606,24.162176,0.0 120.663362,24.163142,0.0 120.661085,24.162647,0.0 120.659516,24.160743,0.0 120.657422,24.157616,0.0 120.655251,24.156523,0.0 120.655643,24.154827,0.0</coordinates></LinearRing></outerBoundaryIs></Polygon><styleUrl>#spolygon-map</styleUrl></Placemark><Placemark><Polygon><outerBoundaryIs><LinearRing><coordinates>120.66429,24.145528,0.0 120.659512,24.14674,0.0 120.656982,24.146191,0.0 120.656727,24.143398,0.0 120.658811,24.142972,0.0 120.664272,24.144356,0.0 120.66429,24.145528,0.0</coordinates></LinearRing></outerBoundaryIs></Polygon><styleUrl>#spolygon-map</styleUrl></Placemark><Placemark><Polygon><outerBoundaryIs><LinearRing><coordinates>120.667732,24.136849,0.0 120.670079,24.134735,0.0 120.671832,24.135896,0.0 120.669821,24.137702,0.0 120.668963,24.13773,0.0 120.667732,24.136849,0.0</coordinates></LinearRing></outerBoundaryIs></Polygon><styleUrl>#spolygon-map</styleUrl></Placemark><Placemark><Polygon><outerBoundaryIs><LinearRing><coordinates>120.670325,24.146227,0.0 120.672619,24.14527,0.0 120.6732,24.146012,0.0 120.674093,24.147149,0.0 120.671296,24.149579,0.0 120.667554,24.149555,0.0 120.667565,24.146733,0.0 120.669344,24.145281,0.0 120.670325,24.146227,0.0</coordinates></LinearRing></outerBoundaryIs></Polygon><styleUrl>#spolygon-map</styleUrl></Placemark><Placemark><Polygon><outerBoundaryIs><LinearRing><coordinates>120.674722,24.142437,0.0 120.674036,24.140966,0.0 120.671171,24.140016,0.0 120.671198,24.139071,0.0 120.670833,24.137526,0.0 120.674038,24.138896,0.0 120.674778,24.139232,0.0 120.677236,24.140235,0.0 120.674722,24.142437,0.0</coordinates></LinearRing></outerBoundaryIs></Polygon><styleUrl>#spolygon-map</styleUrl></Placemark><Placemark><Polygon><outerBoundaryIs><LinearRing><coordinates>120.672589,24.131814,0.0 120.668042,24.135744,0.0 120.666233,24.134023,0.0 120.668286,24.129896,0.0 120.671403,24.13087,0.0 120.672589,24.131814,0.0</coordinates></LinearRing></outerBoundaryIs></Polygon><styleUrl>#spolygon-map</styleUrl></Placemark></Document>
</kml>
