<?xml version="1.0" encoding="UTF-8"?>
<kml xmlns="http://www.opengis.net/kml/2.2">
	<Document>
		<name>臺南市永康區</name>
		<Style id="spolygon">
			<LabelStyle>
				<scale>0.0</scale>
			</LabelStyle>
			<LineStyle>
				<color>330030ff</color>
				<width>0</width>
			</LineStyle>
			<PolyStyle>
				<color>330030ff</color>
			</PolyStyle>
		</Style>
		<StyleMap id="spolygon-map">
			<Pair>
				<key>normal</key>
				<styleUrl>#spolygon</styleUrl>
			</Pair>
		</StyleMap>
	<Placemark><Polygon><outerBoundaryIs><LinearRing><coordinates>120.246795,22.998646,0.0 120.245101,22.999701,0.0 120.243552,23.000686,0.0 120.24316,22.999342,0.0 120.246403,22.998644,0.0 120.246795,22.998646,0.0</coordinates></LinearRing></outerBoundaryIs></Polygon><styleUrl>#spolygon-map</styleUrl></Placemark><Placemark><Polygon><outerBoundaryIs><LinearRing><coordinates>120.239975,23.00062,0.0 120.239677,23.002107,0.0 120.238077,23.001577,0.0 120.234786,22.999054,0.0 120.237506,22.998502,0.0 120.239964,22.998512,0.0 120.239975,23.00062,0.0</coordinates></LinearRing></outerBoundaryIs></Polygon><styleUrl>#spolygon-map</styleUrl></Placemark><Placemark><Polygon><outerBoundaryIs><LinearRing><coordinates>120.239963,23.004463,0.0 120.238513,23.004486,0.0 120.237005,23.003966,0.0 120.235028,23.001465,0.0 120.238377,23.001679,0.0 120.239962,23.002229,0.0 120.239963,23.004463,0.0</coordinates></LinearRing></outerBoundaryIs></Polygon><styleUrl>#spolygon-map</styleUrl></Placemark><Placemark><Polygon><outerBoundaryIs><LinearRing><coordinates>120.242727,23.005434,0.0 120.24164,23.003924,0.0 120.241978,23.00037,0.0 120.240994,23.000643,0.0 120.239964,22.998512,0.0 120.239805,22.997287,0.0 120.239759,22.994835,0.0 120.239938,22.993236,0.0 120.241181,22.993321,0.0 120.241941,22.993254,0.0 120.243024,22.992307,0.0 120.243571,22.991479,0.0 120.244192,22.991518,0.0 120.24482,22.992017,0.0 120.245668,22.99571,0.0 120.246795,22.998646,0.0 120.243213,22.999294,0.0 120.243354,23.0006,0.0 120.244917,23.001594,0.0 120.245348,23.002796,0.0 120.24363,23.004237,0.0 120.243173,23.005435,0.0 120.242727,23.005434,0.0</coordinates></LinearRing></outerBoundaryIs></Polygon><styleUrl>#spolygon-map</styleUrl></Placemark><Placemark><Polygon><outerBoundaryIs><LinearRing><coordinates>120.273976,23.000617,0.0 120.270711,23.004116,0.0 120.267172,23.006305,0.0 120.26616,23.005097,0.0 120.265079,23.005666,0.0 120.264342,23.005993,0.0 120.2642,23.004765,0.0 120.265185,23.00335,0.0 120.266048,23.00282,0.0 120.266212,23.000994,0.0 120.268123,22.99419,0.0 120.270638,22.99359,0.0 120.271363,22.994006,0.0 120.27202,22.994321,0.0 120.272725,22.993983,0.0 120.27343,22.993725,0.0 120.273547,22.995186,0.0 120.273637,22.996877,0.0 120.273886,22.998997,0.0 120.273976,23.000617,0.0</coordinates></LinearRing></outerBoundaryIs></Polygon><styleUrl>#spolygon-map</styleUrl></Placemark><Placemark><Polygon><outerBoundaryIs><LinearRing><coordinates>120.263763,23.005069,0.0 120.261739,23.00648,0.0 120.260153,23.002452,0.0 120.256622,22.993742,0.0 120.258339,22.99412,0.0 120.260333,22.994627,0.0 120.267272,22.996553,0.0 120.265958,23.00115,0.0 120.265869,23.00293,0.0 120.265074,23.003513,0.0 120.263763,23.005069,0.0</coordinates></LinearRing></outerBoundaryIs></Polygon><styleUrl>#spolygon-map</styleUrl></Placemark><Placemark><Polygon><outerBoundaryIs><LinearRing><coordinates>120.235318,23.00414,0.0 120.235402,23.005756,0.0 120.234427,23.007768,0.0 120.230106,23.006961,0.0 120.230267,23.006161,0.0 120.230018,23.005162,0.0 120.229644,23.003968,0.0 120.229043,23.002862,0.0 120.228562,23.002175,0.0 120.22863,23.001596,0.0 120.230987,23.000589,0.0 120.232428,23.000941,0.0 120.232811,23.00055,0.0 120.232951,22.998541,0.0 120.234539,22.9985,0.0 120.235028,23.001465,0.0 120.235318,23.00414,0.0</coordinates></LinearRing></outerBoundaryIs></Polygon><styleUrl>#spolygon-map</styleUrl></Placemark><Placemark><Polygon><outerBoundaryIs><LinearRing><coordinates>120.242727,23.005434,0.0 120.242582,23.008281,0.0 120.24173,23.00844,0.0 120.241335,23.007453,0.0 120.240699,23.006222,0.0 120.240001,23.005481,0.0 120.23997,23.00309,0.0 120.239967,23.001726,0.0 120.241143,23.000793,0.0 120.242049,23.00078,0.0 120.24193,23.003949,0.0 120.242727,23.005434,0.0</coordinates></LinearRing></outerBoundaryIs></Polygon><styleUrl>#spolygon-map</styleUrl></Placemark><Placemark><Polygon><outerBoundaryIs><LinearRing><coordinates>120.241681,23.008812,0.0 120.241128,23.008727,0.0 120.240655,23.008582,0.0 120.239591,23.008623,0.0 120.236628,23.008559,0.0 120.234616,23.00747,0.0 120.235417,23.005552,0.0 120.23572,23.004147,0.0 120.23819,23.004446,0.0 120.239466,23.004425,0.0 120.240177,23.0055,0.0 120.240876,23.006468,0.0 120.241449,23.007869,0.0 120.24169,23.008724,0.0 120.241681,23.008812,0.0</coordinates></LinearRing></outerBoundaryIs></Polygon><styleUrl>#spolygon-map</styleUrl></Placemark><Placemark><Polygon><outerBoundaryIs><LinearRing><coordinates>120.252305,23.007957,0.0 120.248598,23.009001,0.0 120.248104,23.004183,0.0 120.247632,23.002281,0.0 120.246086,23.002482,0.0 120.244885,23.001824,0.0 120.245163,22.999609,0.0 120.246779,22.998014,0.0 120.245527,22.995558,0.0 120.244919,22.99216,0.0 120.245725,22.992381,0.0 120.247415,22.992445,0.0 120.248967,22.992005,0.0 120.247856,22.990738,0.0 120.249345,22.990938,0.0 120.250483,22.991482,0.0 120.250501,22.996666,0.0 120.250807,23.004689,0.0 120.252305,23.007957,0.0</coordinates></LinearRing></outerBoundaryIs></Polygon><styleUrl>#spolygon-map</styleUrl></Placemark><Placemark><Polygon><outerBoundaryIs><LinearRing><coordinates>120.261739,23.00648,0.0 120.259501,23.007672,0.0 120.25239,23.007929,0.0 120.250788,23.004016,0.0 120.250502,22.993859,0.0 120.250825,22.991901,0.0 120.251797,22.992175,0.0 120.252998,22.992526,0.0 120.253719,22.992723,0.0 120.254814,22.993054,0.0 120.255551,22.99326,0.0 120.256559,22.993577,0.0 120.2598,23.001575,0.0 120.261608,23.006029,0.0 120.261739,23.00648,0.0</coordinates></LinearRing></outerBoundaryIs></Polygon><styleUrl>#spolygon-map</styleUrl></Placemark><Placemark><Polygon><outerBoundaryIs><LinearRing><coordinates>120.248741,23.009575,0.0 120.247186,23.010333,0.0 120.246226,23.007224,0.0 120.246011,23.004014,0.0 120.246141,23.001977,0.0 120.24786,23.002241,0.0 120.248198,23.006242,0.0 120.248741,23.009575,0.0</coordinates></LinearRing></outerBoundaryIs></Polygon><styleUrl>#spolygon-map</styleUrl></Placemark><Placemark><Polygon><outerBoundaryIs><LinearRing><coordinates>120.274572,23.007567,0.0 120.269424,23.007651,0.0 120.268448,23.008346,0.0 120.267479,23.011479,0.0 120.266235,23.011481,0.0 120.264737,23.01138,0.0 120.265801,23.008224,0.0 120.265954,23.006653,0.0 120.266303,23.005447,0.0 120.267999,23.006047,0.0 120.271606,23.003165,0.0 120.273994,23.00106,0.0 120.274301,23.004084,0.0 120.274469,23.006221,0.0 120.274572,23.007567,0.0</coordinates></LinearRing></outerBoundaryIs></Polygon><styleUrl>#spolygon-map</styleUrl></Placemark><Placemark><Polygon><outerBoundaryIs><LinearRing><coordinates>120.233956,23.008513,0.0 120.23163,23.012161,0.0 120.230245,23.012507,0.0 120.228715,23.011792,0.0 120.227282,23.011531,0.0 120.227497,23.011387,0.0 120.22807,23.011114,0.0 120.228652,23.010799,0.0 120.229188,23.010488,0.0 120.229518,23.009347,0.0 120.229962,23.008496,0.0 120.230054,23.007586,0.0 120.233956,23.008513,0.0</coordinates></LinearRing></outerBoundaryIs></Polygon><styleUrl>#spolygon-map</styleUrl></Placemark><Placemark><Polygon><outerBoundaryIs><LinearRing><coordinates>120.242427,23.013436,0.0 120.240538,23.013027,0.0 120.238797,23.013321,0.0 120.238005,23.014247,0.0 120.236524,23.013133,0.0 120.239146,23.008626,0.0 120.240572,23.008577,0.0 120.24102,23.008724,0.0 120.241608,23.008831,0.0 120.241614,23.010398,0.0 120.242059,23.010959,0.0 120.242264,23.012099,0.0 120.242448,23.013097,0.0 120.242427,23.013436,0.0</coordinates></LinearRing></outerBoundaryIs></Polygon><styleUrl>#spolygon-map</styleUrl></Placemark><Placemark><Polygon><outerBoundaryIs><LinearRing><coordinates>120.236261,23.013947,0.0 120.235083,23.015014,0.0 120.233814,23.014404,0.0 120.231404,23.01252,0.0 120.233922,23.008566,0.0 120.236923,23.008561,0.0 120.236711,23.012529,0.0 120.236261,23.013947,0.0</coordinates></LinearRing></outerBoundaryIs></Polygon><styleUrl>#spolygon-map</styleUrl></Placemark><Placemark><Polygon><outerBoundaryIs><LinearRing><coordinates>120.263146,23.016248,0.0 120.262101,23.016571,0.0 120.259695,23.01643,0.0 120.256102,23.015409,0.0 120.25525,23.014415,0.0 120.258872,23.007867,0.0 120.261861,23.006903,0.0 120.263455,23.005202,0.0 120.264342,23.005993,0.0 120.265079,23.005666,0.0 120.26616,23.005097,0.0 120.265285,23.005705,0.0 120.266194,23.007654,0.0 120.265231,23.009737,0.0 120.264274,23.012868,0.0 120.263146,23.016248,0.0</coordinates></LinearRing></outerBoundaryIs></Polygon><styleUrl>#spolygon-map</styleUrl></Placemark><Placemark><Polygon><outerBoundaryIs><LinearRing><coordinates>120.250478,23.016283,0.0 120.247395,23.017127,0.0 120.244853,23.017703,0.0 120.244134,23.017043,0.0 120.243536,23.016859,0.0 120.242774,23.01618,0.0 120.24271,23.014303,0.0 120.242425,23.013414,0.0 120.242248,23.012329,0.0 120.242269,23.011231,0.0 120.241912,23.010604,0.0 120.241697,23.009016,0.0 120.242655,23.008146,0.0 120.243173,23.005435,0.0 120.24363,23.004237,0.0 120.245348,23.002796,0.0 120.246011,23.004014,0.0 120.246226,23.007224,0.0 120.247186,23.010333,0.0 120.248741,23.009575,0.0 120.249908,23.013824,0.0 120.250478,23.016283,0.0</coordinates></LinearRing></outerBoundaryIs></Polygon><styleUrl>#spolygon-map</styleUrl></Placemark><Placemark><Polygon><outerBoundaryIs><LinearRing><coordinates>120.230793,23.013488,0.0 120.228544,23.016744,0.0 120.227298,23.017862,0.0 120.225728,23.016883,0.0 120.225782,23.015905,0.0 120.22691,23.014132,0.0 120.226147,23.011267,0.0 120.226971,23.011446,0.0 120.228459,23.011674,0.0 120.230133,23.012491,0.0 120.230795,23.013485,0.0 120.230793,23.013488,0.0</coordinates></LinearRing></outerBoundaryIs></Polygon><styleUrl>#spolygon-map</styleUrl></Placemark><Placemark><Polygon><outerBoundaryIs><LinearRing><coordinates>120.226728,23.018247,0.0 120.224067,23.019117,0.0 120.223018,23.017174,0.0 120.222853,23.016536,0.0 120.224095,23.016303,0.0 120.224353,23.015616,0.0 120.224266,23.015053,0.0 120.224535,23.014402,0.0 120.225095,23.013543,0.0 120.224721,23.013198,0.0 120.225412,23.012488,0.0 120.226188,23.01239,0.0 120.225586,23.011671,0.0 120.225961,23.011438,0.0 120.227424,23.013313,0.0 120.22579,23.015882,0.0 120.225718,23.016857,0.0 120.226728,23.018247,0.0</coordinates></LinearRing></outerBoundaryIs></Polygon><styleUrl>#spolygon-map</styleUrl></Placemark><Placemark><Polygon><outerBoundaryIs><LinearRing><coordinates>120.275016,23.01107,0.0 120.272401,23.01341,0.0 120.27155,23.013975,0.0 120.27075,23.01466,0.0 120.269889,23.015392,0.0 120.269097,23.01607,0.0 120.268324,23.016731,0.0 120.267685,23.01728,0.0 120.267045,23.017828,0.0 120.266447,23.018352,0.0 120.265968,23.01908,0.0 120.265555,23.019707,0.0 120.263795,23.019524,0.0 120.262834,23.017316,0.0 120.263918,23.013867,0.0 120.266155,23.011975,0.0 120.267236,23.011444,0.0 120.269092,23.009272,0.0 120.269233,23.00764,0.0 120.272565,23.007601,0.0 120.274682,23.008596,0.0 120.274866,23.009961,0.0 120.274979,23.011043,0.0 120.275016,23.01107,0.0</coordinates></LinearRing></outerBoundaryIs></Polygon><styleUrl>#spolygon-map</styleUrl></Placemark><Placemark><Polygon><outerBoundaryIs><LinearRing><coordinates>120.250478,23.016283,0.0 120.249927,23.022218,0.0 120.246433,23.020907,0.0 120.244539,23.020273,0.0 120.242899,23.020031,0.0 120.241211,23.019047,0.0 120.237944,23.016901,0.0 120.236132,23.01427,0.0 120.237551,23.01428,0.0 120.238743,23.013326,0.0 120.24015,23.013081,0.0 120.242336,23.013434,0.0 120.24271,23.014303,0.0 120.242774,23.01618,0.0 120.243536,23.016859,0.0 120.244134,23.017043,0.0 120.244853,23.017703,0.0 120.247395,23.017127,0.0 120.250478,23.016283,0.0</coordinates></LinearRing></outerBoundaryIs></Polygon><styleUrl>#spolygon-map</styleUrl></Placemark><Placemark><Polygon><outerBoundaryIs><LinearRing><coordinates>120.259695,23.01643,0.0 120.257419,23.01926,0.0 120.251467,23.021771,0.0 120.250079,23.022277,0.0 120.250478,23.016283,0.0 120.249466,23.012201,0.0 120.249243,23.008842,0.0 120.253162,23.009638,0.0 120.255225,23.014724,0.0 120.258045,23.015991,0.0 120.259695,23.01643,0.0</coordinates></LinearRing></outerBoundaryIs></Polygon><styleUrl>#spolygon-map</styleUrl></Placemark><Placemark><Polygon><outerBoundaryIs><LinearRing><coordinates>120.235111,23.015032,0.0 120.23205,23.019523,0.0 120.231318,23.021685,0.0 120.227792,23.022374,0.0 120.22491,23.020256,0.0 120.226708,23.018259,0.0 120.228009,23.017284,0.0 120.22948,23.015544,0.0 120.233578,23.014331,0.0 120.234606,23.014719,0.0 120.235111,23.015032,0.0</coordinates></LinearRing></outerBoundaryIs></Polygon><styleUrl>#spolygon-map</styleUrl></Placemark><Placemark><Polygon><outerBoundaryIs><LinearRing><coordinates>120.224461,23.019682,0.0 120.222059,23.021212,0.0 120.220084,23.022444,0.0 120.215139,23.024885,0.0 120.211039,23.023334,0.0 120.209614,23.022975,0.0 120.209635,23.022503,0.0 120.211689,23.021373,0.0 120.212983,23.020398,0.0 120.213646,23.019588,0.0 120.216568,23.019129,0.0 120.217623,23.020129,0.0 120.217653,23.018933,0.0 120.219124,23.018146,0.0 120.220543,23.018841,0.0 120.222889,23.018911,0.0 120.222847,23.018469,0.0 120.223022,23.017623,0.0 120.224461,23.019682,0.0</coordinates></LinearRing></outerBoundaryIs></Polygon><styleUrl>#spolygon-map</styleUrl></Placemark><Placemark><Polygon><outerBoundaryIs><LinearRing><coordinates>120.292485,23.015804,0.0 120.291956,23.016009,0.0 120.291202,23.016327,0.0 120.290262,23.016973,0.0 120.289476,23.017403,0.0 120.288294,23.017758,0.0 120.287239,23.017873,0.0 120.285985,23.018353,0.0 120.2851,23.018941,0.0 120.284402,23.019301,0.0 120.283908,23.019926,0.0 120.283507,23.021116,0.0 120.283262,23.022095,0.0 120.283264,23.023558,0.0 120.283142,23.024925,0.0 120.280939,23.025777,0.0 120.276757,23.020724,0.0 120.275079,23.021704,0.0 120.265584,23.020857,0.0 120.265423,23.019904,0.0 120.265797,23.019344,0.0 120.266267,23.018619,0.0 120.266759,23.018073,0.0 120.267499,23.017441,0.0 120.268125,23.016903,0.0 120.268784,23.01634,0.0 120.269611,23.015631,0.0 120.270434,23.014929,0.0 120.271193,23.014279,0.0 120.271906,23.01367,0.0 120.274883,23.011304,0.0 120.275504,23.011149,0.0 120.277141,23.011152,0.0 120.278612,23.010933,0.0 120.279824,23.010611,0.0 120.282627,23.011152,0.0 120.286204,23.012969,0.0 120.290626,23.012834,0.0 120.291516,23.012806,0.0 120.292013,23.014326,0.0 120.292485,23.015804,0.0</coordinates></LinearRing></outerBoundaryIs></Polygon><styleUrl>#spolygon-map</styleUrl></Placemark><Placemark><Polygon><outerBoundaryIs><LinearRing><coordinates>120.262451,23.030396,0.0 120.258361,23.030247,0.0 120.259052,23.028381,0.0 120.256796,23.027737,0.0 120.255449,23.027178,0.0 120.25373,23.026372,0.0 120.252271,23.024638,0.0 120.250339,23.024239,0.0 120.249586,23.024104,0.0 120.250237,23.022272,0.0 120.253169,23.02102,0.0 120.257774,23.019155,0.0 120.26071,23.016697,0.0 120.262445,23.01666,0.0 120.263062,23.016527,0.0 120.26243,23.019155,0.0 120.263834,23.022132,0.0 120.26195,23.025457,0.0 120.261086,23.027132,0.0 120.261641,23.028559,0.0 120.262451,23.030396,0.0</coordinates></LinearRing></outerBoundaryIs></Polygon><styleUrl>#spolygon-map</styleUrl></Placemark><Placemark><Polygon><outerBoundaryIs><LinearRing><coordinates>120.226843,23.03165,0.0 120.224403,23.032629,0.0 120.223084,23.031936,0.0 120.220579,23.03159,0.0 120.219738,23.028962,0.0 120.215974,23.025524,0.0 120.219823,23.022609,0.0 120.221853,23.021339,0.0 120.224325,23.019768,0.0 120.226234,23.021427,0.0 120.229372,23.023271,0.0 120.233705,23.0295,0.0 120.232831,23.029733,0.0 120.231716,23.030073,0.0 120.230097,23.031757,0.0 120.228883,23.030463,0.0 120.227668,23.031062,0.0 120.226865,23.0316,0.0 120.226843,23.03165,0.0</coordinates></LinearRing></outerBoundaryIs></Polygon><styleUrl>#spolygon-map</styleUrl></Placemark><Placemark><Polygon><outerBoundaryIs><LinearRing><coordinates>120.284116,23.028086,0.0 120.285474,23.028535,0.0 120.286048,23.029115,0.0 120.287522,23.029804,0.0 120.288133,23.030872,0.0 120.2889,23.031878,0.0 120.288716,23.033304,0.0 120.287642,23.03429,0.0 120.280924,23.031908,0.0 120.273218,23.029875,0.0 120.271136,23.027636,0.0 120.273362,23.021027,0.0 120.275696,23.020871,0.0 120.277695,23.023083,0.0 120.283146,23.026197,0.0 120.28406,23.027587,0.0 120.284116,23.028086,0.0</coordinates></LinearRing></outerBoundaryIs></Polygon><styleUrl>#spolygon-map</styleUrl></Placemark><Placemark><Polygon><outerBoundaryIs><LinearRing><coordinates>120.249582,23.024123,0.0 120.24936,23.030108,0.0 120.247326,23.033805,0.0 120.234486,23.026224,0.0 120.232332,23.02034,0.0 120.231929,23.019452,0.0 120.235615,23.015371,0.0 120.239314,23.017794,0.0 120.242175,23.019652,0.0 120.243389,23.020138,0.0 120.24533,23.020513,0.0 120.248623,23.021669,0.0 120.24996,23.022395,0.0 120.249582,23.024123,0.0</coordinates></LinearRing></outerBoundaryIs></Polygon><styleUrl>#spolygon-map</styleUrl></Placemark><Placemark><Polygon><outerBoundaryIs><LinearRing><coordinates>120.256795,23.027737,0.0 120.255226,23.029548,0.0 120.252722,23.032319,0.0 120.251753,23.034938,0.0 120.249481,23.031599,0.0 120.249324,23.026696,0.0 120.249997,23.024183,0.0 120.251708,23.024527,0.0 120.252624,23.026076,0.0 120.255083,23.027027,0.0 120.256859,23.027512,0.0 120.256795,23.027737,0.0</coordinates></LinearRing></outerBoundaryIs></Polygon><styleUrl>#spolygon-map</styleUrl></Placemark><Placemark><Polygon><outerBoundaryIs><LinearRing><coordinates>120.273218,23.029875,0.0 120.268286,23.032009,0.0 120.267395,23.033445,0.0 120.267879,23.035209,0.0 120.26821,23.040638,0.0 120.263927,23.037396,0.0 120.262541,23.033267,0.0 120.261739,23.02878,0.0 120.261102,23.027189,0.0 120.26138,23.02632,0.0 120.264049,23.022182,0.0 120.269592,23.020939,0.0 120.271103,23.028613,0.0 120.273218,23.029875,0.0</coordinates></LinearRing></outerBoundaryIs></Polygon><styleUrl>#spolygon-map</styleUrl></Placemark><Placemark><Polygon><outerBoundaryIs><LinearRing><coordinates>120.262106,23.036056,0.0 120.261243,23.042141,0.0 120.259536,23.043579,0.0 120.251084,23.036795,0.0 120.252365,23.033263,0.0 120.254307,23.030263,0.0 120.256322,23.028648,0.0 120.257581,23.02795,0.0 120.25922,23.029175,0.0 120.260286,23.030664,0.0 120.262825,23.031284,0.0 120.262106,23.036056,0.0</coordinates></LinearRing></outerBoundaryIs></Polygon><styleUrl>#spolygon-map</styleUrl></Placemark><Placemark><Polygon><outerBoundaryIs><LinearRing><coordinates>120.26821,23.040638,0.0 120.261926,23.045516,0.0 120.261239,23.042169,0.0 120.262057,23.036313,0.0 120.26543,23.038564,0.0 120.26821,23.040638,0.0</coordinates></LinearRing></outerBoundaryIs></Polygon><styleUrl>#spolygon-map</styleUrl></Placemark><Placemark><Polygon><outerBoundaryIs><LinearRing><coordinates>120.250282,23.036104,0.0 120.251359,23.041952,0.0 120.247305,23.045396,0.0 120.245402,23.048589,0.0 120.240209,23.046642,0.0 120.238565,23.043161,0.0 120.237238,23.041434,0.0 120.235517,23.039896,0.0 120.233492,23.038176,0.0 120.228641,23.033499,0.0 120.226859,23.031616,0.0 120.22738,23.031014,0.0 120.22884,23.030486,0.0 120.230023,23.031701,0.0 120.23167,23.030095,0.0 120.232797,23.029735,0.0 120.233587,23.029603,0.0 120.240343,23.029642,0.0 120.250282,23.036104,0.0</coordinates></LinearRing></outerBoundaryIs></Polygon><styleUrl>#spolygon-map</styleUrl></Placemark><Placemark><Polygon><outerBoundaryIs><LinearRing><coordinates>120.241308,23.048942,0.0 120.237126,23.049281,0.0 120.235036,23.049246,0.0 120.233053,23.048203,0.0 120.230372,23.046418,0.0 120.228104,23.044881,0.0 120.226153,23.042884,0.0 120.224582,23.040204,0.0 120.2233,23.036818,0.0 120.222003,23.034364,0.0 120.222077,23.032049,0.0 120.223733,23.032675,0.0 120.225492,23.031586,0.0 120.227705,23.032512,0.0 120.231594,23.036487,0.0 120.235276,23.039688,0.0 120.237029,23.041121,0.0 120.238078,23.04231,0.0 120.239504,23.045137,0.0 120.241308,23.048942,0.0</coordinates></LinearRing></outerBoundaryIs></Polygon><styleUrl>#spolygon-map</styleUrl></Placemark><Placemark><Polygon><outerBoundaryIs><LinearRing><coordinates>120.268506,23.05089,0.0 120.265527,23.053335,0.0 120.259205,23.050344,0.0 120.247671,23.049522,0.0 120.252077,23.045621,0.0 120.251197,23.041214,0.0 120.250715,23.036499,0.0 120.258775,23.042973,0.0 120.264598,23.047701,0.0 120.268506,23.05089,0.0</coordinates></LinearRing></outerBoundaryIs></Polygon><styleUrl>#spolygon-map</styleUrl></Placemark><Placemark><Polygon><outerBoundaryIs><LinearRing><coordinates>120.277823,23.058501,0.0 120.272417,23.054051,0.0 120.268224,23.040601,0.0 120.267864,23.035128,0.0 120.267087,23.032641,0.0 120.270474,23.032184,0.0 120.27397,23.030035,0.0 120.282625,23.032394,0.0 120.287548,23.034363,0.0 120.286336,23.034927,0.0 120.285174,23.036243,0.0 120.284334,23.03721,0.0 120.283071,23.037432,0.0 120.282211,23.03825,0.0 120.281802,23.039862,0.0 120.282127,23.042123,0.0 120.283224,23.04358,0.0 120.284773,23.044104,0.0 120.285907,23.045398,0.0 120.286659,23.046259,0.0 120.286796,23.047529,0.0 120.285608,23.048054,0.0 120.284734,23.048576,0.0 120.284119,23.049472,0.0 120.283646,23.050438,0.0 120.282804,23.050972,0.0 120.281613,23.052029,0.0 120.280629,23.053215,0.0 120.279025,23.054518,0.0 120.277947,23.055661,0.0 120.277913,23.057054,0.0 120.277823,23.058501,0.0</coordinates></LinearRing></outerBoundaryIs></Polygon><styleUrl>#spolygon-map</styleUrl></Placemark><Placemark><Polygon><outerBoundaryIs><LinearRing><coordinates>120.272369,23.059275,0.0 120.271768,23.059398,0.0 120.270482,23.059388,0.0 120.26953,23.060158,0.0 120.268189,23.060874,0.0 120.266896,23.060879,0.0 120.265542,23.061056,0.0 120.2643,23.061939,0.0 120.26298,23.061811,0.0 120.262087,23.06173,0.0 120.261202,23.061494,0.0 120.260467,23.061235,0.0 120.26039,23.060524,0.0 120.259819,23.059663,0.0 120.259174,23.059832,0.0 120.258623,23.059509,0.0 120.257802,23.059755,0.0 120.256479,23.060117,0.0 120.255987,23.060941,0.0 120.255325,23.061608,0.0 120.25465,23.061606,0.0 120.253991,23.061374,0.0 120.253235,23.061195,0.0 120.252619,23.061411,0.0 120.252348,23.062678,0.0 120.252032,23.064505,0.0 120.251787,23.065785,0.0 120.252187,23.066603,0.0 120.251469,23.066774,0.0 120.250643,23.066729,0.0 120.249628,23.066693,0.0 120.248892,23.066849,0.0 120.248447,23.06724,0.0 120.248227,23.067607,0.0 120.24777,23.067248,0.0 120.24733,23.067023,0.0 120.247047,23.066053,0.0 120.246321,23.063453,0.0 120.245791,23.06108,0.0 120.245249,23.05905,0.0 120.24384,23.056727,0.0 120.242234,23.054105,0.0 120.240417,23.051383,0.0 120.245402,23.048589,0.0 120.251749,23.049943,0.0 120.261005,23.050873,0.0 120.26768,23.051953,0.0 120.274951,23.056156,0.0 120.277731,23.05899,0.0 120.276594,23.059732,0.0 120.275095,23.059567,0.0 120.27264,23.059287,0.0 120.272369,23.059275,0.0</coordinates></LinearRing></outerBoundaryIs></Polygon><styleUrl>#spolygon-map</styleUrl></Placemark></Document>
</kml>
