<?xml version="1.0" encoding="UTF-8"?>
<kml xmlns="http://www.opengis.net/kml/2.2">
	<Document>
		<name>臺南市新營區</name>
		<Style id="spolygon">
			<LabelStyle>
				<scale>0.0</scale>
			</LabelStyle>
			<LineStyle>
				<color>330030ff</color>
				<width>0</width>
			</LineStyle>
			<PolyStyle>
				<color>330030ff</color>
			</PolyStyle>
		</Style>
		<StyleMap id="spolygon-map">
			<Pair>
				<key>normal</key>
				<styleUrl>#spolygon</styleUrl>
			</Pair>
		</StyleMap>
	<Placemark><Polygon><outerBoundaryIs><LinearRing><coordinates>120.283032,23.274433,0.0 120.280991,23.275628,0.0 120.279798,23.274448,0.0 120.278022,23.273518,0.0 120.276301,23.272021,0.0 120.274186,23.270295,0.0 120.271956,23.268425,0.0 120.269778,23.267644,0.0 120.266633,23.266596,0.0 120.263945,23.266449,0.0 120.262206,23.266452,0.0 120.259248,23.265351,0.0 120.257747,23.265491,0.0 120.256925,23.261237,0.0 120.255432,23.261144,0.0 120.254369,23.259803,0.0 120.255694,23.25949,0.0 120.25641,23.258852,0.0 120.255891,23.25734,0.0 120.255656,23.256488,0.0 120.258381,23.255226,0.0 120.262324,23.254057,0.0 120.264088,23.254405,0.0 120.265077,23.254626,0.0 120.266316,23.255343,0.0 120.267354,23.255702,0.0 120.267675,23.256624,0.0 120.268623,23.257207,0.0 120.270695,23.257115,0.0 120.271819,23.257511,0.0 120.27216,23.2584,0.0 120.272241,23.261238,0.0 120.273562,23.261061,0.0 120.274943,23.260961,0.0 120.276826,23.260884,0.0 120.279752,23.262088,0.0 120.283032,23.274433,0.0</coordinates></LinearRing></outerBoundaryIs></Polygon><styleUrl>#spolygon-map</styleUrl></Placemark><Placemark><Polygon><outerBoundaryIs><LinearRing><coordinates>120.282522,23.276374,0.0 120.284119,23.280217,0.0 120.280541,23.281072,0.0 120.280108,23.279814,0.0 120.279685,23.278474,0.0 120.277584,23.278018,0.0 120.275439,23.278144,0.0 120.273371,23.278264,0.0 120.271647,23.278367,0.0 120.26965,23.278234,0.0 120.268424,23.276794,0.0 120.266974,23.275045,0.0 120.265702,23.273553,0.0 120.266008,23.272992,0.0 120.262206,23.266452,0.0 120.263945,23.266449,0.0 120.266633,23.266596,0.0 120.269778,23.267644,0.0 120.271956,23.268425,0.0 120.274186,23.270295,0.0 120.276301,23.272021,0.0 120.278022,23.273518,0.0 120.279798,23.274448,0.0 120.280991,23.275628,0.0 120.282522,23.276374,0.0</coordinates></LinearRing></outerBoundaryIs></Polygon><styleUrl>#spolygon-map</styleUrl></Placemark><Placemark><Polygon><outerBoundaryIs><LinearRing><coordinates>120.254774,23.284778,0.0 120.254555,23.285759,0.0 120.254974,23.287497,0.0 120.252158,23.286145,0.0 120.249463,23.283658,0.0 120.250313,23.28144,0.0 120.25167,23.277963,0.0 120.253287,23.275961,0.0 120.253355,23.272883,0.0 120.253372,23.271448,0.0 120.2534,23.27024,0.0 120.253437,23.268424,0.0 120.253473,23.26707,0.0 120.254019,23.266456,0.0 120.255893,23.266481,0.0 120.25798,23.266397,0.0 120.258415,23.265528,0.0 120.261563,23.26514,0.0 120.265315,23.272039,0.0 120.265007,23.273091,0.0 120.263162,23.273792,0.0 120.261467,23.274965,0.0 120.261458,23.276325,0.0 120.261407,23.278527,0.0 120.261367,23.280144,0.0 120.261335,23.281824,0.0 120.259774,23.281972,0.0 120.259303,23.282674,0.0 120.258229,23.283956,0.0 120.256893,23.284572,0.0 120.255675,23.284405,0.0 120.254774,23.284778,0.0</coordinates></LinearRing></outerBoundaryIs></Polygon><styleUrl>#spolygon-map</styleUrl></Placemark><Placemark><Polygon><outerBoundaryIs><LinearRing><coordinates>120.268213,23.287132,0.0 120.267114,23.288451,0.0 120.265106,23.290921,0.0 120.259998,23.288402,0.0 120.255442,23.284494,0.0 120.256841,23.284575,0.0 120.258047,23.2841,0.0 120.259167,23.282881,0.0 120.25975,23.281983,0.0 120.261327,23.28192,0.0 120.261364,23.280298,0.0 120.261397,23.278733,0.0 120.261439,23.276956,0.0 120.261472,23.275109,0.0 120.263031,23.27383,0.0 120.264623,23.273221,0.0 120.266016,23.273927,0.0 120.267196,23.275317,0.0 120.268508,23.276895,0.0 120.269748,23.278349,0.0 120.27103,23.28392,0.0 120.269667,23.285381,0.0 120.268213,23.287132,0.0</coordinates></LinearRing></outerBoundaryIs></Polygon><styleUrl>#spolygon-map</styleUrl></Placemark><Placemark><Polygon><outerBoundaryIs><LinearRing><coordinates>120.29054,23.29084,0.0 120.284689,23.292782,0.0 120.281966,23.292378,0.0 120.279753,23.289408,0.0 120.276954,23.284956,0.0 120.275222,23.28221,0.0 120.275837,23.28161,0.0 120.278104,23.281488,0.0 120.280335,23.281372,0.0 120.284204,23.280178,0.0 120.282562,23.27618,0.0 120.291165,23.277716,0.0 120.29054,23.29084,0.0</coordinates></LinearRing></outerBoundaryIs></Polygon><styleUrl>#spolygon-map</styleUrl></Placemark><Placemark><Polygon><outerBoundaryIs><LinearRing><coordinates>120.281306,23.292619,0.0 120.28213,23.295747,0.0 120.27907,23.294654,0.0 120.277658,23.294324,0.0 120.276957,23.29333,0.0 120.275075,23.292604,0.0 120.273114,23.290469,0.0 120.26947,23.285562,0.0 120.270601,23.284389,0.0 120.271389,23.280233,0.0 120.271647,23.278367,0.0 120.273371,23.278264,0.0 120.275439,23.278144,0.0 120.277584,23.278018,0.0 120.279685,23.278474,0.0 120.280108,23.279814,0.0 120.280541,23.281072,0.0 120.27942,23.281419,0.0 120.27732,23.281544,0.0 120.275356,23.281677,0.0 120.275085,23.282519,0.0 120.278107,23.286606,0.0 120.280585,23.291102,0.0 120.281306,23.292619,0.0</coordinates></LinearRing></outerBoundaryIs></Polygon><styleUrl>#spolygon-map</styleUrl></Placemark><Placemark><Polygon><outerBoundaryIs><LinearRing><coordinates>120.309905,23.29979,0.0 120.308039,23.299853,0.0 120.305447,23.300661,0.0 120.303255,23.300602,0.0 120.302559,23.300276,0.0 120.301908,23.299574,0.0 120.301692,23.298877,0.0 120.301256,23.298281,0.0 120.298088,23.298352,0.0 120.305137,23.29572,0.0 120.313307,23.299371,0.0 120.312313,23.299929,0.0 120.309905,23.29979,0.0</coordinates></LinearRing></outerBoundaryIs></Polygon><styleUrl>#spolygon-map</styleUrl></Placemark><Placemark><Polygon><outerBoundaryIs><LinearRing><coordinates>120.32517,23.301627,0.0 120.321781,23.302552,0.0 120.321279,23.302229,0.0 120.320156,23.302531,0.0 120.31863,23.301816,0.0 120.316478,23.301781,0.0 120.314611,23.30103,0.0 120.313996,23.300681,0.0 120.313405,23.300155,0.0 120.313012,23.296969,0.0 120.32517,23.301627,0.0</coordinates></LinearRing></outerBoundaryIs></Polygon><styleUrl>#spolygon-map</styleUrl></Placemark><Placemark><Polygon><outerBoundaryIs><LinearRing><coordinates>120.313456,23.302603,0.0 120.311732,23.303281,0.0 120.31068,23.302753,0.0 120.311127,23.302318,0.0 120.310779,23.301694,0.0 120.312131,23.30093,0.0 120.312659,23.300218,0.0 120.31367,23.302201,0.0 120.313456,23.302603,0.0</coordinates></LinearRing></outerBoundaryIs></Polygon><styleUrl>#spolygon-map</styleUrl></Placemark><Placemark><Polygon><outerBoundaryIs><LinearRing><coordinates>120.310675,23.30338,0.0 120.309906,23.301232,0.0 120.310107,23.299837,0.0 120.312497,23.300461,0.0 120.312078,23.301095,0.0 120.310716,23.301783,0.0 120.311234,23.302373,0.0 120.310686,23.303312,0.0 120.310675,23.30338,0.0</coordinates></LinearRing></outerBoundaryIs></Polygon><styleUrl>#spolygon-map</styleUrl></Placemark><Placemark><Polygon><outerBoundaryIs><LinearRing><coordinates>120.276453,23.303018,0.0 120.267413,23.301282,0.0 120.269765,23.300323,0.0 120.269698,23.297461,0.0 120.269414,23.295454,0.0 120.270032,23.29486,0.0 120.264679,23.291438,0.0 120.266389,23.289358,0.0 120.267839,23.287571,0.0 120.272739,23.290915,0.0 120.27521,23.292692,0.0 120.277212,23.293391,0.0 120.277777,23.294295,0.0 120.279323,23.294754,0.0 120.282772,23.29601,0.0 120.281431,23.299716,0.0 120.278156,23.301949,0.0 120.276453,23.303018,0.0</coordinates></LinearRing></outerBoundaryIs></Polygon><styleUrl>#spolygon-map</styleUrl></Placemark><Placemark><Polygon><outerBoundaryIs><LinearRing><coordinates>120.316911,23.301805,0.0 120.316549,23.304361,0.0 120.314139,23.302706,0.0 120.313741,23.300621,0.0 120.314245,23.300817,0.0 120.314879,23.301158,0.0 120.316911,23.301805,0.0</coordinates></LinearRing></outerBoundaryIs></Polygon><styleUrl>#spolygon-map</styleUrl></Placemark><Placemark><Polygon><outerBoundaryIs><LinearRing><coordinates>120.320329,23.302716,0.0 120.320645,23.304362,0.0 120.318807,23.305308,0.0 120.316935,23.302964,0.0 120.31863,23.301816,0.0 120.320156,23.302531,0.0 120.320329,23.302716,0.0</coordinates></LinearRing></outerBoundaryIs></Polygon><styleUrl>#spolygon-map</styleUrl></Placemark><Placemark><Polygon><outerBoundaryIs><LinearRing><coordinates>120.302574,23.304214,0.0 120.298806,23.3052,0.0 120.297033,23.305613,0.0 120.295095,23.305128,0.0 120.294424,23.304227,0.0 120.295206,23.301718,0.0 120.296217,23.30038,0.0 120.296047,23.29862,0.0 120.299998,23.298349,0.0 120.301669,23.298688,0.0 120.301858,23.299476,0.0 120.302379,23.300132,0.0 120.303094,23.300555,0.0 120.304035,23.300708,0.0 120.307227,23.299901,0.0 120.309799,23.29977,0.0 120.309848,23.302911,0.0 120.308514,23.303203,0.0 120.306507,23.303163,0.0 120.303765,23.303884,0.0 120.302574,23.304214,0.0</coordinates></LinearRing></outerBoundaryIs></Polygon><styleUrl>#spolygon-map</styleUrl></Placemark><Placemark><Polygon><outerBoundaryIs><LinearRing><coordinates>120.295269,23.306072,0.0 120.293322,23.306655,0.0 120.290813,23.307325,0.0 120.286537,23.301695,0.0 120.283044,23.296225,0.0 120.281934,23.292378,0.0 120.284495,23.292849,0.0 120.287904,23.291726,0.0 120.298058,23.297581,0.0 120.29613,23.299733,0.0 120.29605,23.300854,0.0 120.294732,23.303161,0.0 120.294696,23.305173,0.0 120.295291,23.305487,0.0 120.295269,23.306072,0.0</coordinates></LinearRing></outerBoundaryIs></Polygon><styleUrl>#spolygon-map</styleUrl></Placemark><Placemark><Polygon><outerBoundaryIs><LinearRing><coordinates>120.310675,23.30338,0.0 120.310529,23.304906,0.0 120.309922,23.30728,0.0 120.310273,23.307869,0.0 120.308673,23.309699,0.0 120.305053,23.308509,0.0 120.303974,23.307302,0.0 120.302574,23.304214,0.0 120.305896,23.303306,0.0 120.308306,23.30317,0.0 120.309801,23.303411,0.0 120.310675,23.30338,0.0</coordinates></LinearRing></outerBoundaryIs></Polygon><styleUrl>#spolygon-map</styleUrl></Placemark><Placemark><Polygon><outerBoundaryIs><LinearRing><coordinates>120.316466,23.310854,0.0 120.313638,23.310671,0.0 120.311723,23.310426,0.0 120.312659,23.305921,0.0 120.313351,23.302774,0.0 120.313929,23.302595,0.0 120.315366,23.303529,0.0 120.316383,23.305093,0.0 120.316089,23.307232,0.0 120.316191,23.309753,0.0 120.316466,23.310854,0.0</coordinates></LinearRing></outerBoundaryIs></Polygon><styleUrl>#spolygon-map</styleUrl></Placemark><Placemark><Polygon><outerBoundaryIs><LinearRing><coordinates>120.316343,23.305239,0.0 120.317739,23.30558,0.0 120.320449,23.306678,0.0 120.321616,23.30732,0.0 120.322595,23.308039,0.0 120.32413,23.309085,0.0 120.325027,23.309088,0.0 120.327559,23.311843,0.0 120.325324,23.311315,0.0 120.32406,23.31122,0.0 120.318634,23.310969,0.0 120.31614,23.308791,0.0 120.316203,23.306204,0.0 120.316343,23.305239,0.0</coordinates></LinearRing></outerBoundaryIs></Polygon><styleUrl>#spolygon-map</styleUrl></Placemark><Placemark><Polygon><outerBoundaryIs><LinearRing><coordinates>120.292409,23.309767,0.0 120.289062,23.309443,0.0 120.287133,23.311632,0.0 120.285831,23.312127,0.0 120.284848,23.313255,0.0 120.28357,23.313234,0.0 120.283043,23.314038,0.0 120.281692,23.313576,0.0 120.279477,23.3134,0.0 120.276027,23.312181,0.0 120.276839,23.308761,0.0 120.27652,23.303965,0.0 120.28161,23.301593,0.0 120.285944,23.300904,0.0 120.290811,23.307321,0.0 120.292409,23.309767,0.0</coordinates></LinearRing></outerBoundaryIs></Polygon><styleUrl>#spolygon-map</styleUrl></Placemark><Placemark><Polygon><outerBoundaryIs><LinearRing><coordinates>120.305064,23.308517,0.0 120.302801,23.310796,0.0 120.302291,23.312838,0.0 120.300289,23.31556,0.0 120.298845,23.314882,0.0 120.298308,23.314436,0.0 120.297288,23.314229,0.0 120.295808,23.313851,0.0 120.290813,23.307325,0.0 120.293322,23.306655,0.0 120.295269,23.306072,0.0 120.29796,23.305435,0.0 120.30174,23.304436,0.0 120.303487,23.306251,0.0 120.304497,23.308064,0.0 120.305064,23.308517,0.0</coordinates></LinearRing></outerBoundaryIs></Polygon><styleUrl>#spolygon-map</styleUrl></Placemark><Placemark><Polygon><outerBoundaryIs><LinearRing><coordinates>120.341809,23.309004,0.0 120.338696,23.309969,0.0 120.336074,23.309807,0.0 120.334826,23.313845,0.0 120.334158,23.314999,0.0 120.330034,23.31464,0.0 120.327595,23.311858,0.0 120.324742,23.30921,0.0 120.324097,23.309002,0.0 120.322555,23.308027,0.0 120.321628,23.307059,0.0 120.320296,23.306636,0.0 120.317401,23.305456,0.0 120.316368,23.305133,0.0 120.317161,23.30459,0.0 120.32069,23.304485,0.0 120.320402,23.30284,0.0 120.321375,23.302207,0.0 120.321959,23.302655,0.0 120.32668,23.304765,0.0 120.341809,23.309004,0.0</coordinates></LinearRing></outerBoundaryIs></Polygon><styleUrl>#spolygon-map</styleUrl></Placemark><Placemark><Polygon><outerBoundaryIs><LinearRing><coordinates>120.31214,23.319684,0.0 120.308956,23.319501,0.0 120.308831,23.318589,0.0 120.30972,23.316814,0.0 120.310047,23.314411,0.0 120.310173,23.312391,0.0 120.310135,23.311146,0.0 120.310013,23.309609,0.0 120.310171,23.307457,0.0 120.310137,23.306432,0.0 120.31064,23.303988,0.0 120.311714,23.303282,0.0 120.313263,23.302662,0.0 120.313035,23.303997,0.0 120.312426,23.307065,0.0 120.311722,23.310518,0.0 120.312273,23.312324,0.0 120.312186,23.316848,0.0 120.31214,23.319684,0.0</coordinates></LinearRing></outerBoundaryIs></Polygon><styleUrl>#spolygon-map</styleUrl></Placemark><Placemark><Polygon><outerBoundaryIs><LinearRing><coordinates>120.316277,23.319823,0.0 120.313225,23.319681,0.0 120.312186,23.316848,0.0 120.312273,23.312324,0.0 120.313885,23.310679,0.0 120.316713,23.311958,0.0 120.316277,23.319823,0.0</coordinates></LinearRing></outerBoundaryIs></Polygon><styleUrl>#spolygon-map</styleUrl></Placemark><Placemark><Polygon><outerBoundaryIs><LinearRing><coordinates>120.321139,23.311091,0.0 120.317117,23.319862,0.0 120.316713,23.311958,0.0 120.321139,23.311091,0.0</coordinates></LinearRing></outerBoundaryIs></Polygon><styleUrl>#spolygon-map</styleUrl></Placemark><Placemark><Polygon><outerBoundaryIs><LinearRing><coordinates>120.326446,23.320029,0.0 120.321139,23.311091,0.0 120.324801,23.311267,0.0 120.325537,23.31137,0.0 120.328092,23.312633,0.0 120.33024,23.31485,0.0 120.331179,23.318835,0.0 120.328536,23.319637,0.0 120.326446,23.320029,0.0</coordinates></LinearRing></outerBoundaryIs></Polygon><styleUrl>#spolygon-map</styleUrl></Placemark><Placemark><Polygon><outerBoundaryIs><LinearRing><coordinates>120.308727,23.319448,0.0 120.308202,23.321138,0.0 120.306283,23.319974,0.0 120.305721,23.319181,0.0 120.305997,23.31862,0.0 120.305613,23.318472,0.0 120.305057,23.318538,0.0 120.303484,23.318183,0.0 120.303224,23.31774,0.0 120.30235,23.317381,0.0 120.301937,23.316702,0.0 120.300362,23.31565,0.0 120.302291,23.312838,0.0 120.302801,23.310796,0.0 120.305064,23.308517,0.0 120.308999,23.309784,0.0 120.310076,23.310809,0.0 120.310206,23.31233,0.0 120.310033,23.314007,0.0 120.309797,23.316561,0.0 120.308852,23.318504,0.0 120.308727,23.319448,0.0</coordinates></LinearRing></outerBoundaryIs></Polygon><styleUrl>#spolygon-map</styleUrl></Placemark><Placemark><Polygon><outerBoundaryIs><LinearRing><coordinates>120.335547,23.326893,0.0 120.330822,23.327715,0.0 120.325364,23.327303,0.0 120.32659,23.320003,0.0 120.329664,23.319385,0.0 120.332225,23.316819,0.0 120.334376,23.314736,0.0 120.335141,23.311578,0.0 120.338346,23.309975,0.0 120.339436,23.309833,0.0 120.34291,23.310938,0.0 120.34312,23.318107,0.0 120.351161,23.314364,0.0 120.351306,23.319836,0.0 120.351029,23.323351,0.0 120.351236,23.324568,0.0 120.34141,23.322904,0.0 120.33413,23.3245,0.0 120.335547,23.326893,0.0</coordinates></LinearRing></outerBoundaryIs></Polygon><styleUrl>#spolygon-map</styleUrl></Placemark><Placemark><Polygon><outerBoundaryIs><LinearRing><coordinates>120.325654,23.328652,0.0 120.326074,23.329686,0.0 120.32624,23.330596,0.0 120.325648,23.331207,0.0 120.325854,23.332148,0.0 120.325658,23.333034,0.0 120.324561,23.333195,0.0 120.323642,23.333339,0.0 120.322831,23.333837,0.0 120.322333,23.333584,0.0 120.321342,23.332648,0.0 120.320043,23.332861,0.0 120.318856,23.332303,0.0 120.317881,23.332753,0.0 120.317076,23.332966,0.0 120.316003,23.333283,0.0 120.315855,23.334094,0.0 120.316304,23.33474,0.0 120.31633,23.33531,0.0 120.315137,23.335486,0.0 120.313993,23.335384,0.0 120.313432,23.334871,0.0 120.312597,23.334085,0.0 120.312305,23.332461,0.0 120.312452,23.329969,0.0 120.315171,23.329114,0.0 120.316199,23.327837,0.0 120.314938,23.325459,0.0 120.313498,23.322951,0.0 120.316276,23.319868,0.0 120.321384,23.320057,0.0 120.32739,23.324077,0.0 120.325654,23.328652,0.0</coordinates></LinearRing></outerBoundaryIs></Polygon><styleUrl>#spolygon-map</styleUrl></Placemark><Placemark><Polygon><outerBoundaryIs><LinearRing><coordinates>120.312413,23.334023,0.0 120.311222,23.334002,0.0 120.310136,23.332683,0.0 120.309774,23.332583,0.0 120.308142,23.333171,0.0 120.30739,23.333357,0.0 120.307331,23.334317,0.0 120.306283,23.335557,0.0 120.305722,23.335981,0.0 120.305778,23.337103,0.0 120.305557,23.33806,0.0 120.30516,23.338965,0.0 120.305584,23.339836,0.0 120.30698,23.341378,0.0 120.308919,23.343714,0.0 120.30788,23.344985,0.0 120.307449,23.34509,0.0 120.306537,23.344753,0.0 120.30521,23.345073,0.0 120.304628,23.345122,0.0 120.304347,23.344552,0.0 120.304389,23.343892,0.0 120.303994,23.343406,0.0 120.303675,23.342924,0.0 120.304225,23.342302,0.0 120.305106,23.341469,0.0 120.30544,23.340843,0.0 120.303254,23.339679,0.0 120.303086,23.337638,0.0 120.301405,23.335978,0.0 120.299628,23.337285,0.0 120.297625,23.33848,0.0 120.295814,23.340759,0.0 120.29477,23.33933,0.0 120.293907,23.338147,0.0 120.293706,23.337115,0.0 120.292881,23.336328,0.0 120.2932,23.335259,0.0 120.293842,23.334145,0.0 120.294736,23.334282,0.0 120.295367,23.334515,0.0 120.295705,23.333966,0.0 120.296921,23.333635,0.0 120.29784,23.334059,0.0 120.298554,23.333978,0.0 120.297821,23.333706,0.0 120.297032,23.333213,0.0 120.29681,23.332503,0.0 120.296825,23.331219,0.0 120.296239,23.330713,0.0 120.294923,23.330664,0.0 120.294935,23.329781,0.0 120.295483,23.328924,0.0 120.294887,23.328677,0.0 120.293517,23.328809,0.0 120.292847,23.329332,0.0 120.29063,23.329222,0.0 120.289818,23.328677,0.0 120.290091,23.328053,0.0 120.290867,23.327395,0.0 120.291584,23.326719,0.0 120.292671,23.325249,0.0 120.292791,23.324336,0.0 120.29197,23.323659,0.0 120.289442,23.321429,0.0 120.288361,23.321112,0.0 120.287854,23.321006,0.0 120.286957,23.320356,0.0 120.285453,23.320304,0.0 120.284163,23.320551,0.0 120.282707,23.320967,0.0 120.281723,23.32043,0.0 120.282498,23.319711,0.0 120.283297,23.318983,0.0 120.284225,23.318344,0.0 120.283964,23.317717,0.0 120.282963,23.317162,0.0 120.282431,23.317243,0.0 120.281255,23.318267,0.0 120.279765,23.319021,0.0 120.278533,23.318878,0.0 120.277423,23.318956,0.0 120.276799,23.320007,0.0 120.276752,23.320865,0.0 120.275745,23.321849,0.0 120.274023,23.322075,0.0 120.271392,23.321774,0.0 120.272587,23.320152,0.0 120.270782,23.316601,0.0 120.2701,23.315346,0.0 120.270457,23.314865,0.0 120.271565,23.31492,0.0 120.273016,23.315455,0.0 120.273694,23.315223,0.0 120.274455,23.31482,0.0 120.275664,23.314851,0.0 120.276862,23.314775,0.0 120.278778,23.315409,0.0 120.279977,23.315137,0.0 120.27928,23.315093,0.0 120.278846,23.314339,0.0 120.278803,23.313755,0.0 120.280819,23.313349,0.0 120.283002,23.314096,0.0 120.283467,23.313229,0.0 120.284774,23.313312,0.0 120.285806,23.312149,0.0 120.287066,23.311694,0.0 120.288859,23.309535,0.0 120.291386,23.309396,0.0 120.295808,23.313851,0.0 120.297288,23.314229,0.0 120.298308,23.314436,0.0 120.298845,23.314882,0.0 120.300289,23.31556,0.0 120.30112,23.316302,0.0 120.302186,23.317233,0.0 120.303107,23.317707,0.0 120.303429,23.318121,0.0 120.304758,23.318502,0.0 120.305515,23.318507,0.0 120.305927,23.318638,0.0 120.30586,23.319134,0.0 120.305827,23.319685,0.0 120.308076,23.321056,0.0 120.30873,23.319686,0.0 120.311204,23.319707,0.0 120.313548,23.319707,0.0 120.313464,23.323028,0.0 120.315008,23.325462,0.0 120.316214,23.328419,0.0 120.314346,23.329278,0.0 120.312487,23.330066,0.0 120.312341,23.333021,0.0 120.312413,23.334023,0.0</coordinates></LinearRing></outerBoundaryIs></Polygon><styleUrl>#spolygon-map</styleUrl></Placemark></Document>
</kml>
