<?xml version="1.0" encoding="UTF-8"?>
<kml xmlns="http://www.opengis.net/kml/2.2">
	<Document>
		<name>臺南市柳營區</name>
		<Style id="spolygon">
			<LabelStyle>
				<scale>0.0</scale>
			</LabelStyle>
			<LineStyle>
				<color>330030ff</color>
				<width>0</width>
			</LineStyle>
			<PolyStyle>
				<color>330030ff</color>
			</PolyStyle>
		</Style>
		<StyleMap id="spolygon-map">
			<Pair>
				<key>normal</key>
				<styleUrl>#spolygon</styleUrl>
			</Pair>
		</StyleMap>
	<Placemark><Polygon><outerBoundaryIs><LinearRing><coordinates>120.37127,23.269527,0.0 120.36994,23.269564,0.0 120.369052,23.269777,0.0 120.368768,23.26995,0.0 120.368266,23.270305,0.0 120.3674,23.270082,0.0 120.366729,23.269901,0.0 120.365989,23.27022,0.0 120.365133,23.269586,0.0 120.362903,23.268862,0.0 120.362187,23.267957,0.0 120.358568,23.267388,0.0 120.356619,23.267076,0.0 120.354319,23.267313,0.0 120.353128,23.268011,0.0 120.350677,23.268949,0.0 120.349216,23.268587,0.0 120.347431,23.268971,0.0 120.345844,23.268677,0.0 120.344109,23.268477,0.0 120.341273,23.268214,0.0 120.33826,23.266017,0.0 120.335046,23.263444,0.0 120.335635,23.263088,0.0 120.336263,23.261955,0.0 120.336972,23.26098,0.0 120.337624,23.259981,0.0 120.338263,23.258728,0.0 120.338405,23.257898,0.0 120.339,23.256957,0.0 120.340323,23.256175,0.0 120.341091,23.25537,0.0 120.342264,23.254932,0.0 120.342846,23.255248,0.0 120.343449,23.255391,0.0 120.343961,23.255829,0.0 120.344523,23.256197,0.0 120.345073,23.256517,0.0 120.345925,23.256541,0.0 120.34684,23.25648,0.0 120.347871,23.255719,0.0 120.348931,23.25487,0.0 120.349622,23.25408,0.0 120.350035,23.253328,0.0 120.350997,23.252494,0.0 120.351596,23.252138,0.0 120.351625,23.251646,0.0 120.351571,23.250659,0.0 120.351688,23.2497,0.0 120.351853,23.24871,0.0 120.351834,23.248062,0.0 120.351535,23.247494,0.0 120.351548,23.246413,0.0 120.351372,23.24547,0.0 120.350869,23.245087,0.0 120.350464,23.244584,0.0 120.350341,23.244073,0.0 120.35085,23.243692,0.0 120.351766,23.243271,0.0 120.352565,23.242841,0.0 120.355046,23.244314,0.0 120.356264,23.247239,0.0 120.357775,23.246847,0.0 120.358463,23.246721,0.0 120.359757,23.246475,0.0 120.361466,23.247037,0.0 120.362309,23.247443,0.0 120.362884,23.247713,0.0 120.36298,23.248108,0.0 120.363067,23.248334,0.0 120.364457,23.248421,0.0 120.364756,23.248712,0.0 120.364917,23.248876,0.0 120.36514,23.249034,0.0 120.365032,23.249313,0.0 120.364971,23.249544,0.0 120.364898,23.249954,0.0 120.365032,23.252243,0.0 120.365772,23.254546,0.0 120.369314,23.255762,0.0 120.369236,23.256967,0.0 120.369917,23.258223,0.0 120.370374,23.259309,0.0 120.371206,23.259979,0.0 120.371128,23.262185,0.0 120.371562,23.264129,0.0 120.372578,23.264732,0.0 120.373195,23.265668,0.0 120.373142,23.267344,0.0 120.372211,23.268108,0.0 120.371984,23.268345,0.0 120.371706,23.268492,0.0 120.371487,23.268665,0.0 120.371364,23.268966,0.0 120.371236,23.269357,0.0 120.37127,23.269527,0.0</coordinates></LinearRing></outerBoundaryIs></Polygon><styleUrl>#spolygon-map</styleUrl></Placemark><Placemark><Polygon><outerBoundaryIs><LinearRing><coordinates>120.378601,23.270798,0.0 120.378145,23.270813,0.0 120.377942,23.270664,0.0 120.37767,23.270255,0.0 120.377333,23.270116,0.0 120.374589,23.270488,0.0 120.373594,23.270284,0.0 120.372155,23.269509,0.0 120.371331,23.269095,0.0 120.371435,23.268741,0.0 120.371642,23.26852,0.0 120.371925,23.268397,0.0 120.372089,23.268186,0.0 120.372908,23.267766,0.0 120.373525,23.266556,0.0 120.372841,23.264809,0.0 120.372164,23.264587,0.0 120.36973,23.262727,0.0 120.370966,23.260148,0.0 120.370648,23.259178,0.0 120.369903,23.258387,0.0 120.3693,23.257113,0.0 120.369435,23.256255,0.0 120.366839,23.254269,0.0 120.365416,23.253494,0.0 120.364376,23.250072,0.0 120.365001,23.249665,0.0 120.36499,23.24942,0.0 120.365161,23.249113,0.0 120.36507,23.248964,0.0 120.364843,23.248833,0.0 120.364547,23.248462,0.0 120.363661,23.248457,0.0 120.36296,23.2482,0.0 120.363015,23.247977,0.0 120.362538,23.247487,0.0 120.36177,23.247271,0.0 120.359951,23.24645,0.0 120.358661,23.246697,0.0 120.358044,23.246797,0.0 120.356514,23.247631,0.0 120.355594,23.245047,0.0 120.353996,23.242676,0.0 120.35493,23.241989,0.0 120.356493,23.242235,0.0 120.357519,23.242303,0.0 120.359084,23.24156,0.0 120.360432,23.240401,0.0 120.361271,23.23893,0.0 120.362196,23.236706,0.0 120.364942,23.237319,0.0 120.365621,23.237406,0.0 120.366069,23.238252,0.0 120.367353,23.238677,0.0 120.367445,23.239296,0.0 120.368282,23.239897,0.0 120.369246,23.240227,0.0 120.370481,23.240011,0.0 120.371415,23.240427,0.0 120.372715,23.24071,0.0 120.373236,23.240796,0.0 120.373994,23.240158,0.0 120.375249,23.240142,0.0 120.376767,23.239464,0.0 120.377685,23.238628,0.0 120.378748,23.23791,0.0 120.380193,23.237229,0.0 120.381365,23.236762,0.0 120.382509,23.237346,0.0 120.383549,23.237089,0.0 120.384949,23.23622,0.0 120.386162,23.23607,0.0 120.387583,23.23515,0.0 120.387352,23.235944,0.0 120.387126,23.236862,0.0 120.387133,23.238275,0.0 120.386947,23.239453,0.0 120.386044,23.239494,0.0 120.385446,23.239659,0.0 120.384966,23.239869,0.0 120.384347,23.240264,0.0 120.384753,23.240959,0.0 120.384657,23.242236,0.0 120.384438,23.243033,0.0 120.384832,23.245059,0.0 120.384975,23.245623,0.0 120.385153,23.245841,0.0 120.384903,23.246027,0.0 120.38488,23.246355,0.0 120.385043,23.246761,0.0 120.385203,23.246933,0.0 120.384964,23.247423,0.0 120.384773,23.247724,0.0 120.384519,23.247855,0.0 120.384644,23.248111,0.0 120.385168,23.249206,0.0 120.384237,23.249751,0.0 120.383117,23.25011,0.0 120.383269,23.25113,0.0 120.382684,23.251571,0.0 120.38226,23.252239,0.0 120.381542,23.25289,0.0 120.38124,23.253577,0.0 120.381431,23.25435,0.0 120.382821,23.256518,0.0 120.38141,23.25782,0.0 120.382248,23.264513,0.0 120.380744,23.264795,0.0 120.3799,23.267331,0.0 120.377453,23.268307,0.0 120.378601,23.270798,0.0</coordinates></LinearRing></outerBoundaryIs></Polygon><styleUrl>#spolygon-map</styleUrl></Placemark><Placemark><Polygon><outerBoundaryIs><LinearRing><coordinates>120.322375,23.261085,0.0 120.322499,23.270046,0.0 120.317562,23.275825,0.0 120.317157,23.276887,0.0 120.316213,23.27768,0.0 120.314968,23.278942,0.0 120.313886,23.278653,0.0 120.314167,23.277239,0.0 120.314037,23.275881,0.0 120.313734,23.275683,0.0 120.31384,23.275046,0.0 120.315316,23.272037,0.0 120.317476,23.270103,0.0 120.317405,23.268192,0.0 120.317308,23.264154,0.0 120.316315,23.26436,0.0 120.317559,23.261935,0.0 120.318694,23.263363,0.0 120.320502,23.263255,0.0 120.321323,23.262067,0.0 120.322138,23.261077,0.0 120.322375,23.261085,0.0</coordinates></LinearRing></outerBoundaryIs></Polygon><styleUrl>#spolygon-map</styleUrl></Placemark><Placemark><Polygon><outerBoundaryIs><LinearRing><coordinates>120.308981,23.263294,0.0 120.308873,23.268677,0.0 120.308697,23.272637,0.0 120.307479,23.275086,0.0 120.30783,23.276521,0.0 120.305237,23.278531,0.0 120.300956,23.281861,0.0 120.296963,23.279,0.0 120.295389,23.279212,0.0 120.29117,23.277431,0.0 120.28096,23.272214,0.0 120.280715,23.261724,0.0 120.282043,23.260981,0.0 120.283266,23.26041,0.0 120.284717,23.260103,0.0 120.286772,23.26007,0.0 120.287993,23.26029,0.0 120.288251,23.260731,0.0 120.288564,23.261807,0.0 120.28924,23.262241,0.0 120.290386,23.261915,0.0 120.291936,23.261827,0.0 120.293354,23.261625,0.0 120.294624,23.262037,0.0 120.295001,23.263249,0.0 120.295339,23.264179,0.0 120.296566,23.264812,0.0 120.29774,23.264745,0.0 120.298714,23.263419,0.0 120.299462,23.26249,0.0 120.300865,23.262749,0.0 120.302278,23.26285,0.0 120.30372,23.263123,0.0 120.30511,23.263847,0.0 120.306841,23.263634,0.0 120.308437,23.263431,0.0 120.308981,23.263294,0.0</coordinates></LinearRing></outerBoundaryIs></Polygon><styleUrl>#spolygon-map</styleUrl></Placemark><Placemark><Polygon><outerBoundaryIs><LinearRing><coordinates>120.312611,23.259955,0.0 120.313118,23.266071,0.0 120.313535,23.271084,0.0 120.313411,23.273693,0.0 120.31244,23.277017,0.0 120.311713,23.279689,0.0 120.311797,23.281299,0.0 120.312302,23.286983,0.0 120.311297,23.286395,0.0 120.309791,23.286492,0.0 120.308539,23.286537,0.0 120.306988,23.28678,0.0 120.306305,23.28475,0.0 120.30345,23.285169,0.0 120.300612,23.282112,0.0 120.302853,23.280374,0.0 120.306319,23.277685,0.0 120.308047,23.276193,0.0 120.308208,23.272595,0.0 120.308836,23.2699,0.0 120.308947,23.266374,0.0 120.3096,23.262829,0.0 120.309889,23.26215,0.0 120.309566,23.261088,0.0 120.309785,23.260125,0.0 120.311066,23.260047,0.0 120.312611,23.259955,0.0</coordinates></LinearRing></outerBoundaryIs></Polygon><styleUrl>#spolygon-map</styleUrl></Placemark><Placemark><Polygon><outerBoundaryIs><LinearRing><coordinates>120.317595,23.288568,0.0 120.315609,23.288305,0.0 120.31456,23.287861,0.0 120.313547,23.287734,0.0 120.312481,23.287065,0.0 120.311873,23.282172,0.0 120.311701,23.27985,0.0 120.312376,23.277221,0.0 120.313304,23.274079,0.0 120.313595,23.271862,0.0 120.313272,23.267767,0.0 120.312675,23.260731,0.0 120.313592,23.259821,0.0 120.314676,23.259214,0.0 120.315561,23.259241,0.0 120.316102,23.260256,0.0 120.31687,23.260899,0.0 120.317771,23.261582,0.0 120.316259,23.262207,0.0 120.3168,23.264183,0.0 120.317386,23.265584,0.0 120.317449,23.268949,0.0 120.317499,23.27201,0.0 120.313893,23.27388,0.0 120.313984,23.275291,0.0 120.313958,23.275726,0.0 120.313945,23.276783,0.0 120.314137,23.277847,0.0 120.313878,23.279658,0.0 120.31443,23.280847,0.0 120.317482,23.280818,0.0 120.317586,23.28787,0.0 120.317595,23.288568,0.0</coordinates></LinearRing></outerBoundaryIs></Polygon><styleUrl>#spolygon-map</styleUrl></Placemark><Placemark><Polygon><outerBoundaryIs><LinearRing><coordinates>120.334952,23.26452,0.0 120.33455,23.266953,0.0 120.333786,23.268904,0.0 120.333637,23.271722,0.0 120.333451,23.275111,0.0 120.336027,23.276615,0.0 120.336587,23.279369,0.0 120.332991,23.279391,0.0 120.334061,23.280623,0.0 120.325291,23.28262,0.0 120.322526,23.289035,0.0 120.319604,23.287997,0.0 120.318689,23.288185,0.0 120.317594,23.288516,0.0 120.317494,23.281983,0.0 120.314659,23.280846,0.0 120.313872,23.279703,0.0 120.315272,23.279017,0.0 120.316248,23.277604,0.0 120.317265,23.27664,0.0 120.317561,23.275629,0.0 120.322499,23.270039,0.0 120.322491,23.261126,0.0 120.323489,23.262912,0.0 120.324592,23.263594,0.0 120.32576,23.262486,0.0 120.325736,23.261251,0.0 120.326457,23.260441,0.0 120.327725,23.260268,0.0 120.328864,23.260856,0.0 120.329665,23.261049,0.0 120.329786,23.259808,0.0 120.32974,23.258561,0.0 120.330316,23.257846,0.0 120.331443,23.258787,0.0 120.332029,23.260007,0.0 120.332492,23.261835,0.0 120.332995,23.263262,0.0 120.333828,23.263647,0.0 120.334524,23.263559,0.0 120.334952,23.26452,0.0</coordinates></LinearRing></outerBoundaryIs></Polygon><styleUrl>#spolygon-map</styleUrl></Placemark><Placemark><Polygon><outerBoundaryIs><LinearRing><coordinates>120.387442,23.289746,0.0 120.385563,23.289955,0.0 120.384396,23.289936,0.0 120.383748,23.290097,0.0 120.383156,23.28844,0.0 120.383252,23.286567,0.0 120.383402,23.283528,0.0 120.383486,23.281895,0.0 120.382757,23.280974,0.0 120.382332,23.27849,0.0 120.382075,23.276932,0.0 120.38187,23.275651,0.0 120.381814,23.274566,0.0 120.38199,23.273483,0.0 120.382186,23.272469,0.0 120.382388,23.271414,0.0 120.381245,23.271142,0.0 120.38049,23.271014,0.0 120.379426,23.270869,0.0 120.378599,23.270795,0.0 120.378065,23.268079,0.0 120.379896,23.267327,0.0 120.380878,23.264776,0.0 120.381317,23.262052,0.0 120.381456,23.257787,0.0 120.382807,23.256437,0.0 120.381382,23.254308,0.0 120.381279,23.253532,0.0 120.381587,23.252785,0.0 120.382352,23.252217,0.0 120.382737,23.251448,0.0 120.38334,23.250986,0.0 120.383123,23.250031,0.0 120.384374,23.249757,0.0 120.384933,23.248926,0.0 120.384619,23.248077,0.0 120.384534,23.247829,0.0 120.384782,23.247722,0.0 120.385006,23.24737,0.0 120.385187,23.246881,0.0 120.385044,23.246735,0.0 120.384847,23.246298,0.0 120.38493,23.246007,0.0 120.385131,23.245804,0.0 120.384986,23.245559,0.0 120.384465,23.244743,0.0 120.384293,23.242869,0.0 120.384942,23.242102,0.0 120.384525,23.240863,0.0 120.384361,23.240187,0.0 120.385008,23.239856,0.0 120.385531,23.239409,0.0 120.386141,23.239571,0.0 120.387115,23.239185,0.0 120.387162,23.238018,0.0 120.387231,23.236684,0.0 120.387866,23.235309,0.0 120.388561,23.235667,0.0 120.390217,23.235896,0.0 120.391278,23.2356,0.0 120.392632,23.234813,0.0 120.394054,23.234233,0.0 120.394807,23.233593,0.0 120.39548,23.232029,0.0 120.396137,23.231639,0.0 120.396849,23.231013,0.0 120.397676,23.230846,0.0 120.398407,23.230523,0.0 120.399739,23.230848,0.0 120.400872,23.23058,0.0 120.401489,23.230522,0.0 120.402086,23.231467,0.0 120.40195,23.232248,0.0 120.402265,23.233101,0.0 120.403481,23.233417,0.0 120.404166,23.23397,0.0 120.406865,23.233887,0.0 120.409941,23.23428,0.0 120.411402,23.234775,0.0 120.411864,23.23495,0.0 120.412249,23.235241,0.0 120.412551,23.235373,0.0 120.413102,23.235579,0.0 120.415128,23.235753,0.0 120.415119,23.236212,0.0 120.415242,23.236561,0.0 120.416578,23.236993,0.0 120.417654,23.237998,0.0 120.418343,23.237965,0.0 120.419835,23.238941,0.0 120.420814,23.239087,0.0 120.421715,23.238844,0.0 120.422239,23.238796,0.0 120.423143,23.240814,0.0 120.423473,23.241853,0.0 120.423342,23.242279,0.0 120.423182,23.243554,0.0 120.42247,23.243939,0.0 120.421728,23.244611,0.0 120.423347,23.24464,0.0 120.424504,23.245461,0.0 120.42464,23.246552,0.0 120.424505,23.247732,0.0 120.424606,23.24857,0.0 120.424587,23.249906,0.0 120.424318,23.250264,0.0 120.424016,23.251413,0.0 120.423585,23.252262,0.0 120.423473,23.252872,0.0 120.422821,23.253659,0.0 120.421106,23.254648,0.0 120.41974,23.25493,0.0 120.418183,23.25505,0.0 120.418077,23.255966,0.0 120.417122,23.256267,0.0 120.41686,23.256734,0.0 120.416195,23.257121,0.0 120.415613,23.257021,0.0 120.414769,23.257615,0.0 120.414064,23.258376,0.0 120.413558,23.259021,0.0 120.413522,23.259977,0.0 120.412672,23.260922,0.0 120.41251,23.261692,0.0 120.412681,23.262956,0.0 120.41174,23.263238,0.0 120.410801,23.263503,0.0 120.410019,23.263759,0.0 120.409147,23.263292,0.0 120.408336,23.263606,0.0 120.407334,23.263298,0.0 120.406572,23.263034,0.0 120.405778,23.26248,0.0 120.404563,23.26297,0.0 120.404063,23.263182,0.0 120.402453,23.263583,0.0 120.400914,23.264915,0.0 120.40063,23.265381,0.0 120.399937,23.264913,0.0 120.399407,23.264198,0.0 120.397845,23.263991,0.0 120.396911,23.263261,0.0 120.395817,23.262988,0.0 120.393981,23.264993,0.0 120.393261,23.26637,0.0 120.392564,23.265419,0.0 120.390694,23.265274,0.0 120.390526,23.264979,0.0 120.390557,23.265419,0.0 120.391985,23.266644,0.0 120.39323,23.267345,0.0 120.393258,23.268039,0.0 120.392622,23.268116,0.0 120.392197,23.268299,0.0 120.391684,23.268362,0.0 120.391143,23.268762,0.0 120.390675,23.269857,0.0 120.390163,23.270518,0.0 120.38967,23.271787,0.0 120.389293,23.273864,0.0 120.389783,23.276344,0.0 120.391681,23.275887,0.0 120.393736,23.277425,0.0 120.39431,23.280258,0.0 120.393173,23.284187,0.0 120.391922,23.28667,0.0 120.388848,23.288998,0.0 120.387442,23.289746,0.0</coordinates></LinearRing></outerBoundaryIs></Polygon><styleUrl>#spolygon-map</styleUrl></Placemark><Placemark><Polygon><outerBoundaryIs><LinearRing><coordinates>120.365464,23.285344,0.0 120.360726,23.28595,0.0 120.358029,23.286075,0.0 120.356162,23.286271,0.0 120.350755,23.287755,0.0 120.344763,23.290285,0.0 120.344498,23.288786,0.0 120.346371,23.277762,0.0 120.346572,23.271299,0.0 120.347431,23.268971,0.0 120.349216,23.268587,0.0 120.350677,23.268949,0.0 120.353128,23.268011,0.0 120.354319,23.267313,0.0 120.356619,23.267076,0.0 120.358568,23.267388,0.0 120.362187,23.267957,0.0 120.362903,23.268862,0.0 120.365133,23.269586,0.0 120.365989,23.27022,0.0 120.366729,23.269901,0.0 120.3674,23.270082,0.0 120.368266,23.270305,0.0 120.368768,23.26995,0.0 120.369052,23.269777,0.0 120.36994,23.269564,0.0 120.37127,23.269527,0.0 120.373317,23.269801,0.0 120.374312,23.270502,0.0 120.376301,23.270255,0.0 120.377609,23.270185,0.0 120.377846,23.270525,0.0 120.378098,23.270801,0.0 120.378372,23.27081,0.0 120.379238,23.270853,0.0 120.380369,23.270994,0.0 120.381046,23.271107,0.0 120.382401,23.271347,0.0 120.382226,23.272234,0.0 120.382022,23.273333,0.0 120.381836,23.274384,0.0 120.38186,23.27556,0.0 120.382047,23.276763,0.0 120.382304,23.278321,0.0 120.382747,23.280919,0.0 120.383494,23.281726,0.0 120.383406,23.283479,0.0 120.383277,23.285938,0.0 120.378156,23.287251,0.0 120.377772,23.284799,0.0 120.373544,23.285337,0.0 120.371429,23.284971,0.0 120.370148,23.283789,0.0 120.36983,23.282422,0.0 120.369441,23.280673,0.0 120.368836,23.278067,0.0 120.363406,23.279255,0.0 120.364145,23.282081,0.0 120.365464,23.285344,0.0</coordinates></LinearRing></outerBoundaryIs></Polygon><styleUrl>#spolygon-map</styleUrl></Placemark><Placemark><Polygon><outerBoundaryIs><LinearRing><coordinates>120.322783,23.289171,0.0 120.321936,23.296117,0.0 120.294062,23.293918,0.0 120.291203,23.279153,0.0 120.296209,23.279017,0.0 120.300674,23.282182,0.0 120.303998,23.284781,0.0 120.306313,23.28551,0.0 120.307494,23.286702,0.0 120.308847,23.286719,0.0 120.310364,23.286094,0.0 120.311465,23.286569,0.0 120.312694,23.287181,0.0 120.313907,23.287652,0.0 120.315137,23.288006,0.0 120.316383,23.288394,0.0 120.317937,23.288517,0.0 120.31913,23.28841,0.0 120.321121,23.288276,0.0 120.322783,23.289171,0.0</coordinates></LinearRing></outerBoundaryIs></Polygon><styleUrl>#spolygon-map</styleUrl></Placemark><Placemark><Polygon><outerBoundaryIs><LinearRing><coordinates>120.367422,23.297662,0.0 120.366797,23.298435,0.0 120.366136,23.298667,0.0 120.366291,23.296058,0.0 120.366646,23.293756,0.0 120.367405,23.2925,0.0 120.367354,23.29063,0.0 120.366793,23.289447,0.0 120.368634,23.289436,0.0 120.368021,23.288348,0.0 120.367793,23.287205,0.0 120.367622,23.284907,0.0 120.364965,23.284134,0.0 120.363696,23.280637,0.0 120.366965,23.277406,0.0 120.369339,23.280298,0.0 120.369696,23.281782,0.0 120.370026,23.283335,0.0 120.370426,23.285131,0.0 120.373381,23.284597,0.0 120.375786,23.28519,0.0 120.378103,23.287078,0.0 120.383238,23.286654,0.0 120.383222,23.289825,0.0 120.379106,23.288758,0.0 120.372195,23.291594,0.0 120.371106,23.29224,0.0 120.370479,23.29313,0.0 120.369317,23.295034,0.0 120.36891,23.295873,0.0 120.367422,23.297662,0.0</coordinates></LinearRing></outerBoundaryIs></Polygon><styleUrl>#spolygon-map</styleUrl></Placemark><Placemark><Polygon><outerBoundaryIs><LinearRing><coordinates>120.365872,23.298645,0.0 120.364099,23.297832,0.0 120.361048,23.296967,0.0 120.356413,23.298552,0.0 120.354081,23.302853,0.0 120.350116,23.304357,0.0 120.343039,23.29651,0.0 120.343732,23.29277,0.0 120.348659,23.288692,0.0 120.352964,23.28715,0.0 120.356889,23.286076,0.0 120.359265,23.28608,0.0 120.365299,23.285353,0.0 120.367073,23.285045,0.0 120.367776,23.287205,0.0 120.367987,23.288132,0.0 120.368651,23.289436,0.0 120.366786,23.28941,0.0 120.367232,23.290538,0.0 120.367404,23.292463,0.0 120.367362,23.293632,0.0 120.366303,23.295482,0.0 120.365872,23.298645,0.0</coordinates></LinearRing></outerBoundaryIs></Polygon><styleUrl>#spolygon-map</styleUrl></Placemark><Placemark><Polygon><outerBoundaryIs><LinearRing><coordinates>120.342815,23.297647,0.0 120.334074,23.298333,0.0 120.32517,23.301627,0.0 120.3223,23.294951,0.0 120.322698,23.282654,0.0 120.335207,23.281843,0.0 120.333283,23.279845,0.0 120.33598,23.279372,0.0 120.336779,23.27906,0.0 120.335488,23.275741,0.0 120.333561,23.273173,0.0 120.334438,23.270433,0.0 120.334064,23.267841,0.0 120.334921,23.265461,0.0 120.337092,23.265402,0.0 120.339438,23.267608,0.0 120.343225,23.268277,0.0 120.345412,23.268594,0.0 120.346602,23.273952,0.0 120.345658,23.28256,0.0 120.344395,23.289284,0.0 120.343715,23.292776,0.0 120.342815,23.297647,0.0</coordinates></LinearRing></outerBoundaryIs></Polygon><styleUrl>#spolygon-map</styleUrl></Placemark></Document>
</kml>
