<?xml version="1.0" encoding="UTF-8"?>
<kml xmlns="http://www.opengis.net/kml/2.2">
	<Document>
		<name>臺北市文山區</name>
		<Style id="spolygon">
			<LabelStyle>
				<scale>0.0</scale>
			</LabelStyle>
			<LineStyle>
				<color>330030ff</color>
				<width>0</width>
			</LineStyle>
			<PolyStyle>
				<color>330030ff</color>
			</PolyStyle>
		</Style>
		<StyleMap id="spolygon-map">
			<Pair>
				<key>normal</key>
				<styleUrl>#spolygon</styleUrl>
			</Pair>
		</StyleMap>
	<Placemark><Polygon><outerBoundaryIs><LinearRing><coordinates>121.559088,24.980558,0.0 121.558469,24.98115,0.0 121.55609,24.980511,0.0 121.553308,24.979261,0.0 121.556978,24.976873,0.0 121.557851,24.979348,0.0 121.559088,24.980558,0.0</coordinates></LinearRing></outerBoundaryIs></Polygon><styleUrl>#spolygon-map</styleUrl></Placemark><Placemark><Polygon><outerBoundaryIs><LinearRing><coordinates>121.57155,24.982072,0.0 121.569548,24.982359,0.0 121.567488,24.981336,0.0 121.566112,24.981506,0.0 121.562833,24.980477,0.0 121.560361,24.979581,0.0 121.558232,24.979701,0.0 121.557351,24.977465,0.0 121.555689,24.974897,0.0 121.557824,24.970309,0.0 121.560466,24.965115,0.0 121.564188,24.964453,0.0 121.570374,24.964289,0.0 121.575371,24.96699,0.0 121.579621,24.970301,0.0 121.580152,24.971606,0.0 121.579743,24.972702,0.0 121.579294,24.974414,0.0 121.578821,24.975278,0.0 121.57743,24.979523,0.0 121.572399,24.98193,0.0 121.57155,24.982072,0.0</coordinates></LinearRing></outerBoundaryIs></Polygon><styleUrl>#spolygon-map</styleUrl></Placemark><Placemark><Polygon><outerBoundaryIs><LinearRing><coordinates>121.569104,24.982105,0.0 121.568135,24.982853,0.0 121.566767,24.983284,0.0 121.563569,24.982349,0.0 121.560748,24.981691,0.0 121.559088,24.980558,0.0 121.561187,24.979413,0.0 121.564544,24.981333,0.0 121.566859,24.981286,0.0 121.568637,24.981845,0.0 121.569104,24.982105,0.0</coordinates></LinearRing></outerBoundaryIs></Polygon><styleUrl>#spolygon-map</styleUrl></Placemark><Placemark><Polygon><outerBoundaryIs><LinearRing><coordinates>121.559955,24.981538,0.0 121.559145,24.984105,0.0 121.557036,24.983588,0.0 121.555426,24.983183,0.0 121.553643,24.98328,0.0 121.553129,24.97983,0.0 121.555933,24.980469,0.0 121.558083,24.981047,0.0 121.559955,24.981538,0.0</coordinates></LinearRing></outerBoundaryIs></Polygon><styleUrl>#spolygon-map</styleUrl></Placemark><Placemark><Polygon><outerBoundaryIs><LinearRing><coordinates>121.56257,24.982131,0.0 121.56185,24.984088,0.0 121.559967,24.984217,0.0 121.559652,24.982535,0.0 121.561966,24.98197,0.0 121.56257,24.982131,0.0</coordinates></LinearRing></outerBoundaryIs></Polygon><styleUrl>#spolygon-map</styleUrl></Placemark><Placemark><Polygon><outerBoundaryIs><LinearRing><coordinates>121.568767,24.983978,0.0 121.567184,24.985168,0.0 121.564854,24.984994,0.0 121.563415,24.98479,0.0 121.562035,24.983585,0.0 121.563569,24.982349,0.0 121.566767,24.983284,0.0 121.568767,24.983978,0.0</coordinates></LinearRing></outerBoundaryIs></Polygon><styleUrl>#spolygon-map</styleUrl></Placemark><Placemark><Polygon><outerBoundaryIs><LinearRing><coordinates>121.579867,24.985554,0.0 121.577966,24.985211,0.0 121.57646,24.985478,0.0 121.573847,24.983791,0.0 121.571938,24.982615,0.0 121.57247,24.981884,0.0 121.57799,24.978772,0.0 121.578934,24.975126,0.0 121.579326,24.974256,0.0 121.580067,24.972334,0.0 121.579962,24.971427,0.0 121.579587,24.969749,0.0 121.583231,24.964663,0.0 121.588452,24.963275,0.0 121.594557,24.961988,0.0 121.603592,24.962403,0.0 121.609254,24.963934,0.0 121.615414,24.966572,0.0 121.617829,24.970694,0.0 121.61132,24.97491,0.0 121.602266,24.9759,0.0 121.597002,24.976807,0.0 121.594021,24.976945,0.0 121.591855,24.979351,0.0 121.588915,24.981264,0.0 121.586808,24.982653,0.0 121.582713,24.984171,0.0 121.580197,24.985325,0.0 121.579867,24.985554,0.0</coordinates></LinearRing></outerBoundaryIs></Polygon><styleUrl>#spolygon-map</styleUrl></Placemark><Placemark><Polygon><outerBoundaryIs><LinearRing><coordinates>121.558513,24.986343,0.0 121.55722,24.986307,0.0 121.556562,24.986251,0.0 121.555334,24.986504,0.0 121.554691,24.986645,0.0 121.553336,24.986699,0.0 121.553293,24.985598,0.0 121.553643,24.98328,0.0 121.555426,24.983183,0.0 121.557036,24.983588,0.0 121.559145,24.984105,0.0 121.561517,24.984481,0.0 121.56101,24.986406,0.0 121.559592,24.986457,0.0 121.558819,24.986355,0.0 121.558513,24.986343,0.0</coordinates></LinearRing></outerBoundaryIs></Polygon><styleUrl>#spolygon-map</styleUrl></Placemark><Placemark><Polygon><outerBoundaryIs><LinearRing><coordinates>121.566133,24.987016,0.0 121.564696,24.986973,0.0 121.560968,24.986619,0.0 121.56155,24.984879,0.0 121.564117,24.984912,0.0 121.566126,24.984976,0.0 121.567652,24.985913,0.0 121.566333,24.986993,0.0 121.566133,24.987016,0.0</coordinates></LinearRing></outerBoundaryIs></Polygon><styleUrl>#spolygon-map</styleUrl></Placemark><Placemark><Polygon><outerBoundaryIs><LinearRing><coordinates>121.545233,24.990303,0.0 121.544255,24.990064,0.0 121.543624,24.989397,0.0 121.543152,24.988161,0.0 121.545376,24.983546,0.0 121.549985,24.984352,0.0 121.550182,24.987472,0.0 121.549471,24.988415,0.0 121.548889,24.989801,0.0 121.546893,24.989974,0.0 121.545275,24.990277,0.0 121.545233,24.990303,0.0</coordinates></LinearRing></outerBoundaryIs></Polygon><styleUrl>#spolygon-map</styleUrl></Placemark><Placemark><Polygon><outerBoundaryIs><LinearRing><coordinates>121.558925,24.991135,0.0 121.557463,24.991255,0.0 121.557128,24.990722,0.0 121.556632,24.9902,0.0 121.556828,24.989355,0.0 121.557739,24.989394,0.0 121.558865,24.988951,0.0 121.557746,24.988354,0.0 121.558273,24.987685,0.0 121.558819,24.986355,0.0 121.559592,24.986457,0.0 121.560968,24.986619,0.0 121.564696,24.986973,0.0 121.56394,24.988776,0.0 121.560749,24.988752,0.0 121.559494,24.990243,0.0 121.558925,24.991135,0.0</coordinates></LinearRing></outerBoundaryIs></Polygon><styleUrl>#spolygon-map</styleUrl></Placemark><Placemark><Polygon><outerBoundaryIs><LinearRing><coordinates>121.571938,24.982615,0.0 121.572556,24.986945,0.0 121.571061,24.989228,0.0 121.571166,24.991666,0.0 121.568528,24.988899,0.0 121.568314,24.98679,0.0 121.567109,24.985186,0.0 121.568832,24.984001,0.0 121.567999,24.983175,0.0 121.56899,24.982366,0.0 121.570939,24.982327,0.0 121.571847,24.982462,0.0 121.571938,24.982615,0.0</coordinates></LinearRing></outerBoundaryIs></Polygon><styleUrl>#spolygon-map</styleUrl></Placemark><Placemark><Polygon><outerBoundaryIs><LinearRing><coordinates>121.544176,24.99256,0.0 121.542371,24.992905,0.0 121.540672,24.99247,0.0 121.539933,24.990662,0.0 121.539629,24.989753,0.0 121.539878,24.987602,0.0 121.542179,24.988346,0.0 121.542297,24.98927,0.0 121.542926,24.990171,0.0 121.543472,24.991059,0.0 121.544176,24.99256,0.0</coordinates></LinearRing></outerBoundaryIs></Polygon><styleUrl>#spolygon-map</styleUrl></Placemark><Placemark><Polygon><outerBoundaryIs><LinearRing><coordinates>121.551704,24.99395,0.0 121.550375,24.993583,0.0 121.549808,24.993049,0.0 121.549074,24.992674,0.0 121.548069,24.992484,0.0 121.54681,24.991819,0.0 121.545856,24.991644,0.0 121.54522,24.991222,0.0 121.545233,24.990303,0.0 121.546836,24.989967,0.0 121.54844,24.989867,0.0 121.549444,24.988559,0.0 121.550144,24.987466,0.0 121.55273,24.986332,0.0 121.553637,24.986522,0.0 121.55475,24.986731,0.0 121.555645,24.986287,0.0 121.556694,24.986326,0.0 121.55748,24.986251,0.0 121.558399,24.986882,0.0 121.557864,24.988237,0.0 121.55849,24.988752,0.0 121.558233,24.989521,0.0 121.556892,24.98935,0.0 121.556636,24.989742,0.0 121.55702,24.990566,0.0 121.556722,24.991199,0.0 121.554759,24.991061,0.0 121.55361,24.992068,0.0 121.552597,24.993217,0.0 121.551704,24.99395,0.0</coordinates></LinearRing></outerBoundaryIs></Polygon><styleUrl>#spolygon-map</styleUrl></Placemark><Placemark><Polygon><outerBoundaryIs><LinearRing><coordinates>121.56415,24.990635,0.0 121.56424,24.991774,0.0 121.563447,24.993282,0.0 121.562339,24.993791,0.0 121.561365,24.993001,0.0 121.560555,24.992132,0.0 121.559383,24.991206,0.0 121.559398,24.990379,0.0 121.559947,24.989199,0.0 121.563073,24.989035,0.0 121.564358,24.989866,0.0 121.56415,24.990635,0.0</coordinates></LinearRing></outerBoundaryIs></Polygon><styleUrl>#spolygon-map</styleUrl></Placemark><Placemark><Polygon><outerBoundaryIs><LinearRing><coordinates>121.540543,24.99212,0.0 121.538932,24.99322,0.0 121.537147,24.99443,0.0 121.536138,24.995353,0.0 121.535488,24.995375,0.0 121.536874,24.992785,0.0 121.536842,24.990378,0.0 121.539878,24.987602,0.0 121.539629,24.989753,0.0 121.539933,24.990662,0.0 121.540543,24.99212,0.0</coordinates></LinearRing></outerBoundaryIs></Polygon><styleUrl>#spolygon-map</styleUrl></Placemark><Placemark><Polygon><outerBoundaryIs><LinearRing><coordinates>121.568688,24.994965,0.0 121.564362,24.99565,0.0 121.563332,24.995276,0.0 121.5631,24.993732,0.0 121.563856,24.99261,0.0 121.564177,24.990835,0.0 121.564252,24.990173,0.0 121.563917,24.989342,0.0 121.564516,24.987958,0.0 121.565776,24.987038,0.0 121.56859,24.987143,0.0 121.569222,24.989396,0.0 121.571032,24.99167,0.0 121.570144,24.992465,0.0 121.5701,24.993596,0.0 121.569135,24.9948,0.0 121.568688,24.994965,0.0</coordinates></LinearRing></outerBoundaryIs></Polygon><styleUrl>#spolygon-map</styleUrl></Placemark><Placemark><Polygon><outerBoundaryIs><LinearRing><coordinates>121.550635,24.993697,0.0 121.549261,24.995339,0.0 121.547537,24.996376,0.0 121.546439,24.995488,0.0 121.545758,24.995259,0.0 121.544681,24.994565,0.0 121.544587,24.993677,0.0 121.544176,24.99256,0.0 121.543471,24.991058,0.0 121.542839,24.990036,0.0 121.542194,24.989028,0.0 121.542186,24.98829,0.0 121.543624,24.989397,0.0 121.544255,24.990064,0.0 121.54522,24.991222,0.0 121.545856,24.991644,0.0 121.54681,24.991819,0.0 121.548069,24.992484,0.0 121.549074,24.992674,0.0 121.549808,24.993049,0.0 121.550375,24.993583,0.0 121.550635,24.993697,0.0</coordinates></LinearRing></outerBoundaryIs></Polygon><styleUrl>#spolygon-map</styleUrl></Placemark><Placemark><Polygon><outerBoundaryIs><LinearRing><coordinates>121.563607,24.996017,0.0 121.562373,24.996652,0.0 121.561264,24.996491,0.0 121.560064,24.996233,0.0 121.559658,24.994864,0.0 121.559144,24.993519,0.0 121.558664,24.992241,0.0 121.559256,24.991267,0.0 121.560288,24.99199,0.0 121.56102,24.992621,0.0 121.562233,24.993612,0.0 121.562836,24.99464,0.0 121.563607,24.996017,0.0</coordinates></LinearRing></outerBoundaryIs></Polygon><styleUrl>#spolygon-map</styleUrl></Placemark><Placemark><Polygon><outerBoundaryIs><LinearRing><coordinates>121.598243,24.99513,0.0 121.596065,24.996521,0.0 121.594336,24.99617,0.0 121.592635,24.991598,0.0 121.59099,24.992166,0.0 121.590449,24.990546,0.0 121.589999,24.988874,0.0 121.589058,24.991197,0.0 121.58767,24.990467,0.0 121.585304,24.990747,0.0 121.582901,24.99087,0.0 121.580366,24.990369,0.0 121.578412,24.989677,0.0 121.577355,24.989154,0.0 121.576571,24.988458,0.0 121.57723,24.987361,0.0 121.578368,24.987048,0.0 121.57961,24.986107,0.0 121.580197,24.985325,0.0 121.582713,24.984171,0.0 121.586808,24.982653,0.0 121.588915,24.981264,0.0 121.591855,24.979351,0.0 121.594021,24.976945,0.0 121.597002,24.976807,0.0 121.600052,24.976935,0.0 121.600274,24.982202,0.0 121.601708,24.987836,0.0 121.598095,24.994449,0.0 121.598243,24.99513,0.0</coordinates></LinearRing></outerBoundaryIs></Polygon><styleUrl>#spolygon-map</styleUrl></Placemark><Placemark><Polygon><outerBoundaryIs><LinearRing><coordinates>121.540464,24.994576,0.0 121.538637,24.99561,0.0 121.537719,24.996119,0.0 121.535311,24.997452,0.0 121.5314,24.995559,0.0 121.531783,24.990165,0.0 121.535143,24.995019,0.0 121.535581,24.995802,0.0 121.536929,24.994633,0.0 121.538109,24.993769,0.0 121.539453,24.99275,0.0 121.540835,24.992912,0.0 121.541148,24.994174,0.0 121.540464,24.994576,0.0</coordinates></LinearRing></outerBoundaryIs></Polygon><styleUrl>#spolygon-map</styleUrl></Placemark><Placemark><Polygon><outerBoundaryIs><LinearRing><coordinates>121.544712,24.995128,0.0 121.544724,24.996997,0.0 121.544319,24.9982,0.0 121.54396,24.997835,0.0 121.543281,24.997776,0.0 121.542408,24.997161,0.0 121.541199,24.99518,0.0 121.540918,24.993205,0.0 121.542685,24.992909,0.0 121.5443,24.992866,0.0 121.544609,24.993776,0.0 121.544689,24.994712,0.0 121.544712,24.995128,0.0</coordinates></LinearRing></outerBoundaryIs></Polygon><styleUrl>#spolygon-map</styleUrl></Placemark><Placemark><Polygon><outerBoundaryIs><LinearRing><coordinates>121.547566,24.99642,0.0 121.547836,24.99704,0.0 121.547854,24.997919,0.0 121.547426,24.999102,0.0 121.545619,24.998822,0.0 121.544562,24.998423,0.0 121.544721,24.996763,0.0 121.545311,24.995192,0.0 121.546121,24.995362,0.0 121.547017,24.995836,0.0 121.547566,24.99642,0.0</coordinates></LinearRing></outerBoundaryIs></Polygon><styleUrl>#spolygon-map</styleUrl></Placemark><Placemark><Polygon><outerBoundaryIs><LinearRing><coordinates>121.540917,24.997131,0.0 121.53992,24.999677,0.0 121.538834,24.999308,0.0 121.537174,24.99864,0.0 121.53566,24.998627,0.0 121.53516,24.998808,0.0 121.533234,24.997913,0.0 121.536824,24.996614,0.0 121.538571,24.995647,0.0 121.539769,24.994997,0.0 121.541002,24.994269,0.0 121.541174,24.995968,0.0 121.540917,24.997131,0.0</coordinates></LinearRing></outerBoundaryIs></Polygon><styleUrl>#spolygon-map</styleUrl></Placemark><Placemark><Polygon><outerBoundaryIs><LinearRing><coordinates>121.560064,24.996233,0.0 121.559677,24.997383,0.0 121.558412,24.998557,0.0 121.557607,24.999231,0.0 121.556032,25.000204,0.0 121.554097,24.999907,0.0 121.553102,24.998221,0.0 121.552002,24.997063,0.0 121.551845,24.996095,0.0 121.552597,24.993217,0.0 121.55361,24.992068,0.0 121.554759,24.991061,0.0 121.556722,24.991199,0.0 121.558509,24.991499,0.0 121.558743,24.992567,0.0 121.559468,24.994135,0.0 121.559708,24.995109,0.0 121.560064,24.996233,0.0</coordinates></LinearRing></outerBoundaryIs></Polygon><styleUrl>#spolygon-map</styleUrl></Placemark><Placemark><Polygon><outerBoundaryIs><LinearRing><coordinates>121.550996,24.997334,0.0 121.551289,24.997728,0.0 121.551454,24.998181,0.0 121.551224,24.999248,0.0 121.55062,24.999783,0.0 121.550368,25.00008,0.0 121.551022,25.001573,0.0 121.549806,25.0008,0.0 121.547929,24.999828,0.0 121.547727,24.998372,0.0 121.547909,24.997627,0.0 121.547784,24.996871,0.0 121.547716,24.996294,0.0 121.549562,24.995183,0.0 121.55145,24.993911,0.0 121.551871,24.996504,0.0 121.550981,24.997036,0.0 121.550996,24.997334,0.0</coordinates></LinearRing></outerBoundaryIs></Polygon><styleUrl>#spolygon-map</styleUrl></Placemark><Placemark><Polygon><outerBoundaryIs><LinearRing><coordinates>121.552528,25.001578,0.0 121.551403,25.001812,0.0 121.551291,25.001189,0.0 121.550417,24.999965,0.0 121.550854,24.999689,0.0 121.551296,24.998914,0.0 121.551438,24.998033,0.0 121.551219,24.997611,0.0 121.550985,24.997281,0.0 121.551004,24.996915,0.0 121.551924,24.996849,0.0 121.552456,24.997611,0.0 121.553494,24.998781,0.0 121.554472,25.000892,0.0 121.552528,25.001578,0.0</coordinates></LinearRing></outerBoundaryIs></Polygon><styleUrl>#spolygon-map</styleUrl></Placemark><Placemark><Polygon><outerBoundaryIs><LinearRing><coordinates>121.544526,24.998557,0.0 121.543218,25.000591,0.0 121.541801,25.001849,0.0 121.541497,25.001484,0.0 121.540512,25.000196,0.0 121.54027,24.998783,0.0 121.541318,24.995958,0.0 121.542761,24.99745,0.0 121.543781,24.997653,0.0 121.543851,24.998222,0.0 121.544526,24.998557,0.0</coordinates></LinearRing></outerBoundaryIs></Polygon><styleUrl>#spolygon-map</styleUrl></Placemark><Placemark><Polygon><outerBoundaryIs><LinearRing><coordinates>121.561597,25.001985,0.0 121.559914,25.002559,0.0 121.55808,25.001619,0.0 121.556736,25.00194,0.0 121.55528,25.001973,0.0 121.555239,25.000616,0.0 121.557137,24.999553,0.0 121.558343,24.99863,0.0 121.559456,24.9976,0.0 121.560032,24.99639,0.0 121.56081,24.996394,0.0 121.56226,24.996708,0.0 121.563118,24.996268,0.0 121.563849,24.997743,0.0 121.562395,24.99993,0.0 121.561708,25.001213,0.0 121.561597,25.001985,0.0</coordinates></LinearRing></outerBoundaryIs></Polygon><styleUrl>#spolygon-map</styleUrl></Placemark><Placemark><Polygon><outerBoundaryIs><LinearRing><coordinates>121.538684,25.0028,0.0 121.53729,25.00302,0.0 121.536766,25.001586,0.0 121.536174,24.999399,0.0 121.536925,24.998214,0.0 121.538528,24.999203,0.0 121.539634,24.999578,0.0 121.539134,25.00158,0.0 121.538684,25.0028,0.0</coordinates></LinearRing></outerBoundaryIs></Polygon><styleUrl>#spolygon-map</styleUrl></Placemark><Placemark><Polygon><outerBoundaryIs><LinearRing><coordinates>121.572176,24.994578,0.0 121.570685,24.996103,0.0 121.571114,24.997663,0.0 121.572137,24.999222,0.0 121.572822,24.999424,0.0 121.57283,25.000347,0.0 121.572009,25.001829,0.0 121.571358,25.002822,0.0 121.569665,25.002956,0.0 121.567166,25.002791,0.0 121.566819,25.002081,0.0 121.567277,25.001607,0.0 121.568402,25.00088,0.0 121.569101,24.999635,0.0 121.56996,24.998325,0.0 121.569082,24.996563,0.0 121.56863,24.995105,0.0 121.570025,24.993818,0.0 121.570045,24.992895,0.0 121.570557,24.99195,0.0 121.571733,24.99229,0.0 121.572176,24.994578,0.0</coordinates></LinearRing></outerBoundaryIs></Polygon><styleUrl>#spolygon-map</styleUrl></Placemark><Placemark><Polygon><outerBoundaryIs><LinearRing><coordinates>121.542022,25.001975,0.0 121.540882,25.003712,0.0 121.540137,25.004191,0.0 121.538715,25.003997,0.0 121.538926,25.002084,0.0 121.53963,25.00038,0.0 121.540811,25.000669,0.0 121.541546,25.001535,0.0 121.541829,25.001865,0.0 121.542022,25.001975,0.0</coordinates></LinearRing></outerBoundaryIs></Polygon><styleUrl>#spolygon-map</styleUrl></Placemark><Placemark><Polygon><outerBoundaryIs><LinearRing><coordinates>121.547905,24.999809,0.0 121.546896,25.001627,0.0 121.546487,25.002397,0.0 121.545125,25.003211,0.0 121.544249,25.004519,0.0 121.543963,25.003445,0.0 121.54322,25.00155,0.0 121.542207,25.002086,0.0 121.543218,25.000591,0.0 121.544526,24.998557,0.0 121.546042,24.998938,0.0 121.547773,24.999702,0.0 121.547905,24.999809,0.0</coordinates></LinearRing></outerBoundaryIs></Polygon><styleUrl>#spolygon-map</styleUrl></Placemark><Placemark><Polygon><outerBoundaryIs><LinearRing><coordinates>121.598243,24.99513,0.0 121.600618,24.999545,0.0 121.597458,25.004426,0.0 121.595494,25.003299,0.0 121.594123,24.996951,0.0 121.591267,24.997966,0.0 121.588453,25.000235,0.0 121.586013,25.002879,0.0 121.582167,25.000534,0.0 121.577752,24.999935,0.0 121.575167,24.998212,0.0 121.573891,24.99623,0.0 121.571756,24.992746,0.0 121.57216,24.990367,0.0 121.572087,24.987931,0.0 121.571794,24.985399,0.0 121.572904,24.983136,0.0 121.575179,24.984871,0.0 121.577261,24.985207,0.0 121.57938,24.985575,0.0 121.579492,24.986223,0.0 121.578205,24.987136,0.0 121.576101,24.987976,0.0 121.57671,24.988537,0.0 121.577473,24.989244,0.0 121.578987,24.99008,0.0 121.581079,24.990268,0.0 121.583553,24.990925,0.0 121.585933,24.990642,0.0 121.588013,24.99069,0.0 121.589229,24.990714,0.0 121.59034,24.988976,0.0 121.59053,24.990918,0.0 121.591465,24.991927,0.0 121.593455,24.995016,0.0 121.59455,24.996305,0.0 121.596846,24.996072,0.0 121.598243,24.99513,0.0</coordinates></LinearRing></outerBoundaryIs></Polygon><styleUrl>#spolygon-map</styleUrl></Placemark><Placemark><Polygon><outerBoundaryIs><LinearRing><coordinates>121.549129,25.003615,0.0 121.548522,25.003944,0.0 121.547937,25.004959,0.0 121.5466,25.005079,0.0 121.545516,25.005238,0.0 121.544703,25.003884,0.0 121.545901,25.002738,0.0 121.546701,25.002217,0.0 121.546873,25.00132,0.0 121.548291,25.000121,0.0 121.550303,25.001074,0.0 121.551306,25.001773,0.0 121.551813,25.001975,0.0 121.550936,25.002704,0.0 121.54937,25.003411,0.0 121.549129,25.003615,0.0</coordinates></LinearRing></outerBoundaryIs></Polygon><styleUrl>#spolygon-map</styleUrl></Placemark><Placemark><Polygon><outerBoundaryIs><LinearRing><coordinates>121.536503,25.006708,0.0 121.533982,25.006561,0.0 121.532419,25.006282,0.0 121.534124,25.00336,0.0 121.532564,25.001434,0.0 121.533234,24.999138,0.0 121.535524,24.998697,0.0 121.536174,24.999399,0.0 121.536766,25.001586,0.0 121.536729,25.003453,0.0 121.535839,25.005137,0.0 121.536503,25.006708,0.0</coordinates></LinearRing></outerBoundaryIs></Polygon><styleUrl>#spolygon-map</styleUrl></Placemark><Placemark><Polygon><outerBoundaryIs><LinearRing><coordinates>121.571947,25.003088,0.0 121.570035,25.00483,0.0 121.56847,25.004876,0.0 121.567039,25.005616,0.0 121.565499,25.007151,0.0 121.564247,25.006138,0.0 121.563978,25.005514,0.0 121.564562,25.005412,0.0 121.564772,25.004669,0.0 121.562849,25.003462,0.0 121.562036,25.003424,0.0 121.561522,25.002592,0.0 121.561708,25.001213,0.0 121.562395,24.99993,0.0 121.563849,24.997743,0.0 121.56396,24.995856,0.0 121.568435,24.995198,0.0 121.568655,24.996201,0.0 121.570235,24.99809,0.0 121.56911,24.99918,0.0 121.568578,25.000665,0.0 121.567315,25.001586,0.0 121.566996,25.001837,0.0 121.567124,25.002583,0.0 121.568986,25.003004,0.0 121.570932,25.002745,0.0 121.571947,25.003088,0.0</coordinates></LinearRing></outerBoundaryIs></Polygon><styleUrl>#spolygon-map</styleUrl></Placemark><Placemark><Polygon><outerBoundaryIs><LinearRing><coordinates>121.545218,25.00801,0.0 121.539371,25.008507,0.0 121.538835,25.008468,0.0 121.53826,25.007967,0.0 121.538985,25.006377,0.0 121.538901,25.005007,0.0 121.538959,25.004344,0.0 121.540665,25.003974,0.0 121.541887,25.002178,0.0 121.54289,25.001672,0.0 121.543626,25.001902,0.0 121.544097,25.003487,0.0 121.54479,25.005084,0.0 121.545218,25.00801,0.0</coordinates></LinearRing></outerBoundaryIs></Polygon><styleUrl>#spolygon-map</styleUrl></Placemark><Placemark><Polygon><outerBoundaryIs><LinearRing><coordinates>121.552585,25.008856,0.0 121.546629,25.008399,0.0 121.545516,25.005238,0.0 121.5466,25.005079,0.0 121.547937,25.004959,0.0 121.548522,25.003944,0.0 121.549129,25.003615,0.0 121.550378,25.003088,0.0 121.551317,25.002445,0.0 121.552528,25.001578,0.0 121.551971,25.003473,0.0 121.552977,25.004183,0.0 121.55279,25.006743,0.0 121.552585,25.008856,0.0</coordinates></LinearRing></outerBoundaryIs></Polygon><styleUrl>#spolygon-map</styleUrl></Placemark><Placemark><Polygon><outerBoundaryIs><LinearRing><coordinates>121.53803,25.008368,0.0 121.537415,25.009852,0.0 121.537098,25.011176,0.0 121.535814,25.010865,0.0 121.532488,25.008927,0.0 121.533235,25.006428,0.0 121.533993,25.006574,0.0 121.536387,25.006488,0.0 121.536472,25.00474,0.0 121.536769,25.003006,0.0 121.538323,25.00268,0.0 121.538715,25.003997,0.0 121.538918,25.005133,0.0 121.538945,25.006544,0.0 121.53803,25.008368,0.0</coordinates></LinearRing></outerBoundaryIs></Polygon><styleUrl>#spolygon-map</styleUrl></Placemark><Placemark><Polygon><outerBoundaryIs><LinearRing><coordinates>121.555701,25.002635,0.0 121.557312,25.00538,0.0 121.558126,25.006107,0.0 121.55866,25.007612,0.0 121.558189,25.008941,0.0 121.554532,25.010437,0.0 121.55279,25.006743,0.0 121.552977,25.004183,0.0 121.551971,25.003473,0.0 121.552528,25.001578,0.0 121.554595,25.000861,0.0 121.555689,25.002616,0.0 121.555701,25.002635,0.0</coordinates></LinearRing></outerBoundaryIs></Polygon><styleUrl>#spolygon-map</styleUrl></Placemark><Placemark><Polygon><outerBoundaryIs><LinearRing><coordinates>121.558279,25.012119,0.0 121.557432,25.009829,0.0 121.558618,25.008164,0.0 121.558551,25.006581,0.0 121.557414,25.005525,0.0 121.556311,25.003597,0.0 121.556752,25.001769,0.0 121.558216,25.001684,0.0 121.560164,25.002638,0.0 121.561656,25.00199,0.0 121.561596,25.002921,0.0 121.562393,25.003547,0.0 121.563469,25.004063,0.0 121.564864,25.004956,0.0 121.564098,25.005433,0.0 121.564234,25.005798,0.0 121.564871,25.007213,0.0 121.561935,25.00886,0.0 121.558279,25.012119,0.0</coordinates></LinearRing></outerBoundaryIs></Polygon><styleUrl>#spolygon-map</styleUrl></Placemark><Placemark><Polygon><outerBoundaryIs><LinearRing><coordinates>121.597537,25.014585,0.0 121.592966,25.014541,0.0 121.585752,25.013451,0.0 121.581489,25.012675,0.0 121.578195,25.013233,0.0 121.572026,25.01232,0.0 121.567867,25.008954,0.0 121.565082,25.007399,0.0 121.566374,25.006966,0.0 121.56807,25.004972,0.0 121.568965,25.004917,0.0 121.571771,25.003878,0.0 121.571962,25.001916,0.0 121.572716,25.00058,0.0 121.572816,24.99955,0.0 121.572209,24.999263,0.0 121.571255,24.997724,0.0 121.570688,24.996133,0.0 121.571912,24.9948,0.0 121.575266,24.99704,0.0 121.575843,24.998893,0.0 121.579482,25.000106,0.0 121.584055,25.001577,0.0 121.587439,25.002223,0.0 121.58928,24.999321,0.0 121.592716,24.996744,0.0 121.595086,25.001438,0.0 121.595808,25.003823,0.0 121.595563,25.007425,0.0 121.597537,25.014585,0.0</coordinates></LinearRing></outerBoundaryIs></Polygon><styleUrl>#spolygon-map</styleUrl></Placemark></Document>
</kml>
