<?xml version="1.0" encoding="UTF-8"?>
<kml xmlns="http://www.opengis.net/kml/2.2">
	<Document>
		<name>臺東縣金峰鄉</name>
		<Style id="spolygon">
			<LabelStyle>
				<scale>0.0</scale>
			</LabelStyle>
			<LineStyle>
				<color>330030ff</color>
				<width>0</width>
			</LineStyle>
			<PolyStyle>
				<color>330030ff</color>
			</PolyStyle>
		</Style>
		<StyleMap id="spolygon-map">
			<Pair>
				<key>normal</key>
				<styleUrl>#spolygon</styleUrl>
			</Pair>
		</StyleMap>
	<Placemark><Polygon><outerBoundaryIs><LinearRing><coordinates>120.996304,22.602524,0.0 120.9997,22.604699,0.0 120.999317,22.606091,0.0 120.996092,22.60705,0.0 120.996304,22.602524,0.0</coordinates></LinearRing></outerBoundaryIs></Polygon><styleUrl>#spolygon-map</styleUrl></Placemark><Placemark><Polygon><outerBoundaryIs><LinearRing><coordinates>121.000573,22.641758,0.0 120.999426,22.642536,0.0 120.997755,22.643067,0.0 120.997135,22.64411,0.0 120.99718,22.644816,0.0 120.995888,22.645272,0.0 120.994556,22.644706,0.0 120.99484,22.643125,0.0 120.99387,22.642915,0.0 120.992528,22.643906,0.0 120.991696,22.644742,0.0 120.990601,22.645633,0.0 120.989158,22.646315,0.0 120.987599,22.644845,0.0 120.985568,22.643915,0.0 120.983492,22.643831,0.0 120.982752,22.644046,0.0 120.98173,22.643824,0.0 120.980182,22.643104,0.0 120.978972,22.643445,0.0 120.977837,22.643797,0.0 120.977022,22.645594,0.0 120.976831,22.646944,0.0 120.975682,22.647501,0.0 120.975319,22.648111,0.0 120.970598,22.637483,0.0 120.975934,22.630742,0.0 120.977511,22.630762,0.0 120.978453,22.631124,0.0 120.979512,22.631422,0.0 120.981155,22.631492,0.0 120.983191,22.631508,0.0 120.984477,22.630815,0.0 120.985752,22.630431,0.0 120.987128,22.630152,0.0 120.989787,22.629314,0.0 120.990143,22.628985,0.0 120.990892,22.62889,0.0 120.991513,22.62891,0.0 120.991773,22.629258,0.0 120.992431,22.629402,0.0 120.992958,22.629493,0.0 120.99309,22.629152,0.0 120.99388,22.62947,0.0 120.994764,22.628705,0.0 120.995402,22.628985,0.0 120.995381,22.628434,0.0 120.995246,22.627544,0.0 120.996219,22.627867,0.0 120.997006,22.626817,0.0 120.997363,22.625756,0.0 120.998618,22.625722,0.0 120.99955,22.625463,0.0 121.000351,22.625697,0.0 121.000154,22.626415,0.0 121.000025,22.627443,0.0 121.000067,22.627991,0.0 121.000524,22.628797,0.0 121.000968,22.629242,0.0 121.00137,22.629827,0.0 121.002261,22.6298,0.0 121.003349,22.628707,0.0 121.003425,22.629621,0.0 121.004319,22.630527,0.0 121.004763,22.631152,0.0 121.005252,22.631796,0.0 121.005217,22.633019,0.0 121.004458,22.63439,0.0 121.002566,22.636293,0.0 121.000667,22.638095,0.0 120.999939,22.639707,0.0 121.000615,22.641172,0.0 121.000573,22.641758,0.0</coordinates></LinearRing></outerBoundaryIs></Polygon><styleUrl>#spolygon-map</styleUrl></Placemark><Placemark><Polygon><outerBoundaryIs><LinearRing><coordinates>121.000343,22.676597,0.0 120.999414,22.677387,0.0 120.998232,22.677852,0.0 120.996992,22.678882,0.0 120.995971,22.679785,0.0 120.995619,22.680848,0.0 120.996582,22.681675,0.0 120.997767,22.682914,0.0 120.998105,22.68407,0.0 120.998318,22.685021,0.0 120.997119,22.686082,0.0 120.996275,22.687242,0.0 120.995049,22.688008,0.0 120.994548,22.688994,0.0 120.994077,22.690175,0.0 120.992912,22.691688,0.0 120.992174,22.692076,0.0 120.992338,22.690794,0.0 120.992529,22.689565,0.0 120.9928,22.687879,0.0 120.992842,22.686996,0.0 120.992017,22.686005,0.0 120.991339,22.685251,0.0 120.990877,22.683912,0.0 120.990539,22.682544,0.0 120.989628,22.681821,0.0 120.988145,22.680846,0.0 120.987043,22.680618,0.0 120.986299,22.68113,0.0 120.98567,22.68206,0.0 120.984552,22.682252,0.0 120.983287,22.681895,0.0 120.982219,22.681818,0.0 120.980965,22.681111,0.0 120.981095,22.679962,0.0 120.981491,22.679005,0.0 120.980542,22.678481,0.0 120.978931,22.678253,0.0 120.977619,22.678973,0.0 120.976161,22.678717,0.0 120.975826,22.677771,0.0 120.975084,22.677162,0.0 120.973374,22.676656,0.0 120.971116,22.67587,0.0 120.969602,22.675513,0.0 120.968481,22.67467,0.0 120.967224,22.674595,0.0 120.96622,22.674017,0.0 120.965038,22.673349,0.0 120.963225,22.673321,0.0 120.961963,22.672495,0.0 120.960693,22.672636,0.0 120.959218,22.672851,0.0 120.95808,22.672625,0.0 120.957212,22.672082,0.0 120.956224,22.670615,0.0 120.955765,22.668973,0.0 120.954736,22.668749,0.0 120.953142,22.669647,0.0 120.951885,22.669372,0.0 120.950543,22.668461,0.0 120.949442,22.667644,0.0 120.948734,22.666867,0.0 120.947071,22.666663,0.0 120.945964,22.665992,0.0 120.945328,22.664673,0.0 120.94522,22.663576,0.0 120.944512,22.662765,0.0 120.943366,22.662264,0.0 120.942235,22.661943,0.0 120.940984,22.661527,0.0 120.940004,22.660856,0.0 120.939169,22.659821,0.0 120.937888,22.659394,0.0 120.936753,22.659509,0.0 120.9356,22.658804,0.0 120.934183,22.658088,0.0 120.932221,22.657825,0.0 120.930284,22.657352,0.0 120.928115,22.656681,0.0 120.926189,22.656657,0.0 120.924968,22.657102,0.0 120.923737,22.656523,0.0 120.923151,22.654581,0.0 120.92274,22.653479,0.0 120.921323,22.653151,0.0 120.920108,22.652879,0.0 120.918794,22.65266,0.0 120.9181,22.651567,0.0 120.91621,22.651234,0.0 120.914923,22.651624,0.0 120.914651,22.652737,0.0 120.914781,22.654383,0.0 120.914315,22.654879,0.0 120.913624,22.65412,0.0 120.913226,22.653248,0.0 120.912047,22.653478,0.0 120.911256,22.652762,0.0 120.910623,22.652089,0.0 120.909773,22.651964,0.0 120.908017,22.652588,0.0 120.906291,22.653206,0.0 120.904039,22.65316,0.0 120.903608,22.651762,0.0 120.903168,22.651287,0.0 120.901424,22.652106,0.0 120.899118,22.652992,0.0 120.896949,22.653169,0.0 120.895421,22.653342,0.0 120.894813,22.652598,0.0 120.894088,22.652182,0.0 120.892729,22.651877,0.0 120.890782,22.651485,0.0 120.889802,22.651577,0.0 120.888932,22.6525,0.0 120.887895,22.651995,0.0 120.887,22.650286,0.0 120.886015,22.649427,0.0 120.885282,22.64886,0.0 120.884117,22.649252,0.0 120.882514,22.649752,0.0 120.881072,22.650918,0.0 120.879881,22.652109,0.0 120.87952,22.65368,0.0 120.878592,22.654231,0.0 120.877524,22.654498,0.0 120.876334,22.654656,0.0 120.874897,22.65509,0.0 120.873287,22.654994,0.0 120.87212,22.654338,0.0 120.871619,22.654087,0.0 120.870882,22.654751,0.0 120.870076,22.655402,0.0 120.869444,22.656842,0.0 120.869197,22.658039,0.0 120.868222,22.658377,0.0 120.866899,22.65871,0.0 120.865707,22.658151,0.0 120.865272,22.658699,0.0 120.865437,22.660345,0.0 120.865076,22.661558,0.0 120.863891,22.662241,0.0 120.862509,22.662686,0.0 120.861524,22.663067,0.0 120.860575,22.66243,0.0 120.859319,22.662537,0.0 120.858369,22.663338,0.0 120.857253,22.664321,0.0 120.856372,22.664835,0.0 120.855642,22.664469,0.0 120.854831,22.664073,0.0 120.853653,22.663636,0.0 120.852585,22.662693,0.0 120.852855,22.661307,0.0 120.852942,22.660497,0.0 120.853131,22.659497,0.0 120.853375,22.658754,0.0 120.852355,22.658085,0.0 120.85132,22.657935,0.0 120.850642,22.65805,0.0 120.84987,22.658004,0.0 120.848891,22.657522,0.0 120.848379,22.657237,0.0 120.848886,22.656443,0.0 120.848995,22.655806,0.0 120.848478,22.655135,0.0 120.847417,22.655877,0.0 120.846675,22.656806,0.0 120.84578,22.657189,0.0 120.845227,22.657139,0.0 120.844439,22.656332,0.0 120.843448,22.656747,0.0 120.842125,22.657208,0.0 120.841311,22.65728,0.0 120.840417,22.657037,0.0 120.839465,22.657027,0.0 120.838234,22.657121,0.0 120.837302,22.65679,0.0 120.835972,22.655333,0.0 120.83507,22.655199,0.0 120.833817,22.654949,0.0 120.832759,22.655722,0.0 120.831527,22.655929,0.0 120.830207,22.655873,0.0 120.829382,22.656168,0.0 120.828474,22.656941,0.0 120.827723,22.657851,0.0 120.826768,22.657775,0.0 120.826067,22.658131,0.0 120.824628,22.658735,0.0 120.823042,22.658798,0.0 120.822108,22.659865,0.0 120.821724,22.661389,0.0 120.821731,22.662549,0.0 120.82124,22.663612,0.0 120.820249,22.663871,0.0 120.818422,22.66386,0.0 120.81721,22.663901,0.0 120.81643,22.663422,0.0 120.815401,22.663228,0.0 120.814615,22.663273,0.0 120.81389,22.663312,0.0 120.813463,22.664023,0.0 120.811847,22.663773,0.0 120.810472,22.662927,0.0 120.80894,22.663031,0.0 120.807937,22.66378,0.0 120.805985,22.664163,0.0 120.80423,22.664872,0.0 120.802572,22.665116,0.0 120.80185,22.666868,0.0 120.80072,22.667534,0.0 120.798721,22.667807,0.0 120.797268,22.667794,0.0 120.795726,22.668108,0.0 120.793944,22.668404,0.0 120.792443,22.668716,0.0 120.79,22.670153,0.0 120.787571,22.671451,0.0 120.786414,22.670535,0.0 120.786226,22.663727,0.0 120.784619,22.659977,0.0 120.781333,22.654545,0.0 120.776993,22.650051,0.0 120.774146,22.646635,0.0 120.772558,22.643617,0.0 120.769259,22.63925,0.0 120.764883,22.634114,0.0 120.762139,22.630592,0.0 120.761449,22.626956,0.0 120.758041,22.623092,0.0 120.754875,22.616987,0.0 120.753082,22.611209,0.0 120.754244,22.606781,0.0 120.754745,22.602004,0.0 120.763989,22.598756,0.0 120.769769,22.597545,0.0 120.770526,22.597374,0.0 120.771377,22.597326,0.0 120.772096,22.597453,0.0 120.77261,22.597515,0.0 120.773258,22.5975,0.0 120.773985,22.597427,0.0 120.775092,22.597455,0.0 120.776686,22.597857,0.0 120.777659,22.597682,0.0 120.778529,22.596934,0.0 120.779011,22.596894,0.0 120.780033,22.595974,0.0 120.781291,22.595509,0.0 120.7824,22.59532,0.0 120.784323,22.595097,0.0 120.785768,22.595059,0.0 120.787763,22.593962,0.0 120.789945,22.593718,0.0 120.791123,22.59323,0.0 120.792159,22.593507,0.0 120.79315,22.593298,0.0 120.794001,22.592134,0.0 120.793868,22.590825,0.0 120.794727,22.590451,0.0 120.795427,22.590605,0.0 120.79594,22.590638,0.0 120.796606,22.590566,0.0 120.796987,22.590467,0.0 120.797635,22.589707,0.0 120.797181,22.588058,0.0 120.797411,22.58777,0.0 120.797737,22.587662,0.0 120.798149,22.587581,0.0 120.798624,22.587505,0.0 120.799109,22.587384,0.0 120.800335,22.586109,0.0 120.80103,22.585934,0.0 120.8015,22.585973,0.0 120.801961,22.586516,0.0 120.803054,22.587628,0.0 120.805106,22.588299,0.0 120.807779,22.588516,0.0 120.811346,22.58995,0.0 120.815424,22.586613,0.0 120.818061,22.582213,0.0 120.817496,22.578024,0.0 120.821795,22.575844,0.0 120.826184,22.572934,0.0 120.827795,22.57529,0.0 120.830763,22.574043,0.0 120.836034,22.573447,0.0 120.837992,22.570855,0.0 120.840894,22.570138,0.0 120.842676,22.570341,0.0 120.843895,22.569838,0.0 120.84601,22.569635,0.0 120.851377,22.570473,0.0 120.85233,22.576285,0.0 120.859307,22.576565,0.0 120.86069,22.577831,0.0 120.864021,22.579558,0.0 120.865013,22.576888,0.0 120.866619,22.578316,0.0 120.868801,22.577835,0.0 120.870766,22.573714,0.0 120.875608,22.574774,0.0 120.878202,22.574036,0.0 120.88097,22.573184,0.0 120.882408,22.573601,0.0 120.88491,22.575213,0.0 120.888713,22.575238,0.0 120.891411,22.578963,0.0 120.896104,22.578465,0.0 120.899351,22.579103,0.0 120.904985,22.578527,0.0 120.909825,22.579536,0.0 120.913257,22.583537,0.0 120.92231,22.585596,0.0 120.923972,22.58839,0.0 120.928782,22.588223,0.0 120.931047,22.589529,0.0 120.932837,22.589369,0.0 120.935113,22.589824,0.0 120.938683,22.59076,0.0 120.939206,22.593348,0.0 120.941077,22.594452,0.0 120.94779,22.594904,0.0 120.956334,22.594825,0.0 120.961238,22.592551,0.0 120.968026,22.5939,0.0 120.971373,22.591747,0.0 120.97369,22.591499,0.0 120.973998,22.593199,0.0 120.974259,22.594978,0.0 120.974544,22.596757,0.0 120.97464,22.598189,0.0 120.975076,22.600867,0.0 120.975357,22.603481,0.0 120.97575,22.606522,0.0 120.976592,22.608756,0.0 120.977417,22.612163,0.0 120.977728,22.6141,0.0 120.976803,22.616419,0.0 120.975658,22.62172,0.0 120.975575,22.623643,0.0 120.976,22.625592,0.0 120.976295,22.627073,0.0 120.97596,22.628597,0.0 120.976209,22.63001,0.0 120.972561,22.633245,0.0 120.968634,22.646096,0.0 120.968968,22.648202,0.0 120.968908,22.649469,0.0 120.970199,22.651564,0.0 120.971389,22.653369,0.0 120.972642,22.654714,0.0 120.974731,22.656392,0.0 120.976328,22.657492,0.0 120.976953,22.658531,0.0 120.977302,22.65963,0.0 120.977999,22.661094,0.0 120.978514,22.662292,0.0 120.979109,22.663225,0.0 120.980202,22.663968,0.0 120.981212,22.664812,0.0 120.982551,22.664526,0.0 120.983893,22.664452,0.0 120.984995,22.664312,0.0 120.986591,22.664567,0.0 120.987992,22.66438,0.0 120.990296,22.664488,0.0 120.992099,22.665044,0.0 120.994271,22.666058,0.0 120.995713,22.665968,0.0 120.996563,22.666669,0.0 120.997598,22.668288,0.0 120.998716,22.670176,0.0 120.999629,22.670959,0.0 121.000891,22.672641,0.0 121.001893,22.674278,0.0 121.001473,22.675175,0.0 121.00051,22.676484,0.0 121.000343,22.676597,0.0</coordinates></LinearRing></outerBoundaryIs></Polygon><styleUrl>#spolygon-map</styleUrl></Placemark><Placemark><Polygon><outerBoundaryIs><LinearRing><coordinates>120.962181,22.530579,0.0 120.962477,22.532358,0.0 120.961373,22.534645,0.0 120.959258,22.532973,0.0 120.961957,22.530597,0.0 120.962181,22.530579,0.0</coordinates></LinearRing></outerBoundaryIs></Polygon><styleUrl>#spolygon-map</styleUrl></Placemark><Placemark><Polygon><outerBoundaryIs><LinearRing><coordinates>120.743964,22.56959,0.0 120.741347,22.567938,0.0 120.73985,22.563495,0.0 120.739884,22.559582,0.0 120.739624,22.55645,0.0 120.739141,22.552866,0.0 120.740588,22.549845,0.0 120.74182,22.547041,0.0 120.743961,22.543107,0.0 120.746968,22.539449,0.0 120.748839,22.535819,0.0 120.749988,22.532303,0.0 120.750462,22.527782,0.0 120.751601,22.524205,0.0 120.752254,22.519837,0.0 120.753049,22.516655,0.0 120.753562,22.512544,0.0 120.756394,22.509322,0.0 120.758618,22.506939,0.0 120.760185,22.504223,0.0 120.761845,22.503435,0.0 120.763067,22.503157,0.0 120.7648,22.503121,0.0 120.766,22.502846,0.0 120.766602,22.50251,0.0 120.767449,22.502592,0.0 120.768183,22.502839,0.0 120.769495,22.502586,0.0 120.770413,22.502411,0.0 120.770999,22.502208,0.0 120.771869,22.501321,0.0 120.772715,22.500981,0.0 120.773105,22.500482,0.0 120.773262,22.49904,0.0 120.773147,22.498394,0.0 120.773703,22.49767,0.0 120.775086,22.496461,0.0 120.77605,22.495691,0.0 120.776881,22.493886,0.0 120.777816,22.492345,0.0 120.778514,22.492481,0.0 120.779244,22.492622,0.0 120.779631,22.492999,0.0 120.780865,22.494106,0.0 120.783192,22.495739,0.0 120.784487,22.495291,0.0 120.786619,22.494709,0.0 120.787972,22.494206,0.0 120.789731,22.493838,0.0 120.791541,22.493582,0.0 120.792829,22.493602,0.0 120.794021,22.493867,0.0 120.794476,22.49358,0.0 120.794614,22.49167,0.0 120.795171,22.491,0.0 120.79656,22.490421,0.0 120.798661,22.489313,0.0 120.80052,22.488466,0.0 120.801317,22.488264,0.0 120.802722,22.488352,0.0 120.803832,22.487542,0.0 120.806535,22.485753,0.0 120.808221,22.484721,0.0 120.809111,22.484663,0.0 120.809786,22.484106,0.0 120.81019,22.483459,0.0 120.810962,22.48304,0.0 120.811906,22.482773,0.0 120.812637,22.482766,0.0 120.814058,22.482533,0.0 120.816306,22.481899,0.0 120.817777,22.481779,0.0 120.819092,22.481728,0.0 120.821083,22.481454,0.0 120.822523,22.481082,0.0 120.824162,22.480993,0.0 120.82593,22.481159,0.0 120.826751,22.48088,0.0 120.828513,22.480108,0.0 120.831552,22.47899,0.0 120.833251,22.478366,0.0 120.834998,22.477683,0.0 120.836009,22.47738,0.0 120.83725,22.477386,0.0 120.838774,22.476834,0.0 120.839389,22.476568,0.0 120.840783,22.476748,0.0 120.84164,22.477107,0.0 120.842509,22.477585,0.0 120.843751,22.477196,0.0 120.845014,22.476863,0.0 120.84602,22.476674,0.0 120.847129,22.476943,0.0 120.848115,22.477733,0.0 120.849098,22.478121,0.0 120.849705,22.478293,0.0 120.850419,22.479009,0.0 120.852166,22.480037,0.0 120.853339,22.480257,0.0 120.854297,22.480206,0.0 120.855554,22.480496,0.0 120.856364,22.480883,0.0 120.85748,22.48094,0.0 120.857863,22.481384,0.0 120.85805,22.48232,0.0 120.859828,22.483277,0.0 120.861066,22.484187,0.0 120.861735,22.485376,0.0 120.862762,22.486441,0.0 120.8632,22.488367,0.0 120.864237,22.489953,0.0 120.865602,22.491889,0.0 120.86686,22.491381,0.0 120.868256,22.492092,0.0 120.869816,22.492028,0.0 120.870653,22.491195,0.0 120.871406,22.489664,0.0 120.873101,22.488756,0.0 120.87453,22.488602,0.0 120.87548,22.489305,0.0 120.876227,22.490351,0.0 120.877064,22.490482,0.0 120.877895,22.490169,0.0 120.879927,22.490912,0.0 120.881012,22.491352,0.0 120.882159,22.491071,0.0 120.882909,22.49154,0.0 120.885488,22.492037,0.0 120.88681,22.492266,0.0 120.888015,22.492394,0.0 120.889357,22.493512,0.0 120.890809,22.494504,0.0 120.892014,22.49558,0.0 120.892775,22.497608,0.0 120.892987,22.49825,0.0 120.893577,22.498287,0.0 120.894963,22.498562,0.0 120.896054,22.498567,0.0 120.897716,22.498623,0.0 120.898417,22.499088,0.0 120.899427,22.499902,0.0 120.900956,22.500686,0.0 120.901949,22.500652,0.0 120.902991,22.500635,0.0 120.904554,22.500939,0.0 120.905251,22.501599,0.0 120.90637,22.50199,0.0 120.90765,22.502303,0.0 120.909087,22.502661,0.0 120.910227,22.503284,0.0 120.911815,22.504046,0.0 120.912467,22.504524,0.0 120.913478,22.506053,0.0 120.913817,22.506602,0.0 120.914068,22.507356,0.0 120.914619,22.507878,0.0 120.915819,22.50838,0.0 120.916252,22.509121,0.0 120.914829,22.510818,0.0 120.912869,22.512562,0.0 120.912047,22.513309,0.0 120.910374,22.514792,0.0 120.909208,22.516661,0.0 120.908311,22.518238,0.0 120.908765,22.519706,0.0 120.910036,22.520156,0.0 120.911515,22.519588,0.0 120.913025,22.519754,0.0 120.914517,22.519217,0.0 120.916553,22.518687,0.0 120.9183,22.518562,0.0 120.919528,22.518427,0.0 120.920988,22.519945,0.0 120.921989,22.521002,0.0 120.92296,22.521917,0.0 120.923679,22.522897,0.0 120.926522,22.523698,0.0 120.929452,22.524742,0.0 120.931741,22.524917,0.0 120.932868,22.524744,0.0 120.932863,22.526555,0.0 120.932792,22.528422,0.0 120.932279,22.530282,0.0 120.930337,22.531489,0.0 120.928311,22.533789,0.0 120.925344,22.53658,0.0 120.923397,22.537562,0.0 120.922095,22.538067,0.0 120.920734,22.539053,0.0 120.921106,22.540363,0.0 120.92184,22.543402,0.0 120.921596,22.544716,0.0 120.920761,22.545524,0.0 120.920184,22.546395,0.0 120.919682,22.547418,0.0 120.919043,22.548447,0.0 120.919071,22.550235,0.0 120.919144,22.552242,0.0 120.919353,22.553504,0.0 120.918722,22.555958,0.0 120.918988,22.556706,0.0 120.919768,22.557873,0.0 120.920703,22.559007,0.0 120.921716,22.559814,0.0 120.923142,22.560966,0.0 120.924568,22.561734,0.0 120.927094,22.562664,0.0 120.929081,22.564453,0.0 120.930929,22.565727,0.0 120.932459,22.565935,0.0 120.934003,22.564909,0.0 120.9353,22.564257,0.0 120.936736,22.564788,0.0 120.938174,22.566775,0.0 120.938689,22.56801,0.0 120.939109,22.569196,0.0 120.940689,22.570725,0.0 120.941534,22.572168,0.0 120.942319,22.571818,0.0 120.94424,22.571433,0.0 120.945848,22.570666,0.0 120.947788,22.569361,0.0 120.949339,22.568779,0.0 120.95132,22.568283,0.0 120.953703,22.568189,0.0 120.955242,22.569194,0.0 120.956276,22.569192,0.0 120.957702,22.56852,0.0 120.958678,22.568328,0.0 120.959385,22.567897,0.0 120.960282,22.567712,0.0 120.961378,22.567056,0.0 120.96236,22.567512,0.0 120.963309,22.567961,0.0 120.963587,22.569201,0.0 120.964167,22.569813,0.0 120.964542,22.570829,0.0 120.964341,22.571976,0.0 120.965015,22.57257,0.0 120.966687,22.573875,0.0 120.969377,22.575282,0.0 120.970843,22.577066,0.0 120.972149,22.578704,0.0 120.974046,22.579589,0.0 120.975165,22.580707,0.0 120.973831,22.582657,0.0 120.972868,22.58424,0.0 120.97072,22.585813,0.0 120.969566,22.587032,0.0 120.972278,22.587778,0.0 120.973896,22.588848,0.0 120.973507,22.589984,0.0 120.971721,22.590963,0.0 120.968961,22.593909,0.0 120.961804,22.592576,0.0 120.956586,22.594724,0.0 120.948985,22.595026,0.0 120.941521,22.594313,0.0 120.93935,22.593494,0.0 120.938833,22.590932,0.0 120.935254,22.589986,0.0 120.932973,22.589274,0.0 120.931286,22.589768,0.0 120.929382,22.587929,0.0 120.924446,22.588702,0.0 120.922371,22.585921,0.0 120.91376,22.584458,0.0 120.910603,22.579991,0.0 120.905489,22.578583,0.0 120.899852,22.579074,0.0 120.897062,22.578479,0.0 120.891703,22.578986,0.0 120.888952,22.575981,0.0 120.8854,22.575138,0.0 120.882472,22.57403,0.0 120.881154,22.572968,0.0 120.878716,22.573917,0.0 120.876111,22.574924,0.0 120.870956,22.573642,0.0 120.868989,22.577621,0.0 120.866979,22.578382,0.0 120.865213,22.576879,0.0 120.864306,22.579489,0.0 120.861404,22.578089,0.0 120.859501,22.576662,0.0 120.852594,22.576432,0.0 120.851219,22.57283,0.0 120.846969,22.570004,0.0 120.844084,22.56987,0.0 120.842869,22.570438,0.0 120.841336,22.569885,0.0 120.838329,22.570835,0.0 120.836202,22.573366,0.0 120.832479,22.574137,0.0 120.828032,22.575252,0.0 120.826366,22.573207,0.0 120.822218,22.575397,0.0 120.817769,22.57767,0.0 120.818025,22.581707,0.0 120.815902,22.586013,0.0 120.811837,22.589067,0.0 120.809963,22.591183,0.0 120.805525,22.588179,0.0 120.803217,22.587745,0.0 120.801961,22.586534,0.0 120.801519,22.585971,0.0 120.80108,22.585932,0.0 120.800421,22.586051,0.0 120.799293,22.587289,0.0 120.798642,22.587505,0.0 120.798242,22.587561,0.0 120.797841,22.587637,0.0 120.797436,22.587756,0.0 120.797186,22.587957,0.0 120.797694,22.589506,0.0 120.797031,22.590456,0.0 120.796643,22.590553,0.0 120.796039,22.590638,0.0 120.795501,22.59061,0.0 120.794782,22.59046,0.0 120.793916,22.590721,0.0 120.794043,22.592008,0.0 120.793327,22.59317,0.0 120.79219,22.593518,0.0 120.791197,22.593219,0.0 120.79005,22.593716,0.0 120.787924,22.593966,0.0 120.786002,22.595002,0.0 120.784397,22.595102,0.0 120.782712,22.595176,0.0 120.781487,22.595403,0.0 120.780212,22.595965,0.0 120.77912,22.596806,0.0 120.778591,22.596945,0.0 120.777768,22.597558,0.0 120.776883,22.597848,0.0 120.775203,22.597464,0.0 120.774346,22.597581,0.0 120.773301,22.5975,0.0 120.772702,22.59752,0.0 120.772114,22.597453,0.0 120.77139,22.597326,0.0 120.770587,22.597361,0.0 120.769824,22.597538,0.0 120.765398,22.59869,0.0 120.75338,22.598909,0.0 120.751491,22.596364,0.0 120.747735,22.592231,0.0 120.745802,22.589207,0.0 120.746202,22.586868,0.0 120.74667,22.584011,0.0 120.74839,22.580688,0.0 120.749202,22.577736,0.0 120.748856,22.573601,0.0 120.746805,22.570785,0.0 120.743964,22.56959,0.0</coordinates></LinearRing></outerBoundaryIs></Polygon><styleUrl>#spolygon-map</styleUrl></Placemark></Document>
</kml>
