<?xml version="1.0" encoding="UTF-8"?>
<kml xmlns="http://www.opengis.net/kml/2.2">
	<Document>
		<name>花蓮縣豐濱鄉</name>
		<Style id="spolygon">
			<LabelStyle>
				<scale>0.0</scale>
			</LabelStyle>
			<LineStyle>
				<color>330030ff</color>
				<width>0</width>
			</LineStyle>
			<PolyStyle>
				<color>330030ff</color>
			</PolyStyle>
		</Style>
		<StyleMap id="spolygon-map">
			<Pair>
				<key>normal</key>
				<styleUrl>#spolygon</styleUrl>
			</Pair>
		</StyleMap>
	<Placemark><MultiGeometry><Polygon><outerBoundaryIs><LinearRing><coordinates>121.515699,23.481827,0.0 121.51605,23.482228,0.0 121.516397,23.482606,0.0 121.516338,23.483285,0.0 121.515614,23.481854,0.0 121.515699,23.481827,0.0</coordinates></LinearRing></outerBoundaryIs></Polygon><Polygon><outerBoundaryIs><LinearRing><coordinates>121.506499,23.507132,0.0 121.506742,23.507292,0.0 121.506382,23.507435,0.0 121.506357,23.507151,0.0 121.506499,23.507132,0.0</coordinates></LinearRing></outerBoundaryIs></Polygon><Polygon><outerBoundaryIs><LinearRing><coordinates>121.512028,23.491404,0.0 121.512905,23.491711,0.0 121.512955,23.492142,0.0 121.513694,23.492475,0.0 121.513777,23.492816,0.0 121.512685,23.492361,0.0 121.511821,23.491956,0.0 121.512028,23.491404,0.0</coordinates></LinearRing></outerBoundaryIs></Polygon><Polygon><outerBoundaryIs><LinearRing><coordinates>121.514162,23.492885,0.0 121.513868,23.492999,0.0 121.514162,23.492885,0.0</coordinates></LinearRing></outerBoundaryIs></Polygon><Polygon><outerBoundaryIs><LinearRing><coordinates>121.514328,23.481258,0.0 121.514831,23.482046,0.0 121.515325,23.482047,0.0 121.514867,23.48257,0.0 121.514328,23.481258,0.0</coordinates></LinearRing></outerBoundaryIs></Polygon><Polygon><outerBoundaryIs><LinearRing><coordinates>121.488319,23.527,0.0 121.487128,23.524889,0.0 121.486349,23.523038,0.0 121.486286,23.521923,0.0 121.485197,23.518506,0.0 121.485051,23.517007,0.0 121.484665,23.515857,0.0 121.486439,23.514395,0.0 121.488322,23.513916,0.0 121.488386,23.51301,0.0 121.487669,23.510805,0.0 121.487347,23.509049,0.0 121.488914,23.505753,0.0 121.489169,23.504397,0.0 121.489005,23.503301,0.0 121.487691,23.502305,0.0 121.487013,23.499867,0.0 121.487168,23.498313,0.0 121.486893,23.497311,0.0 121.48712,23.49573,0.0 121.485894,23.494362,0.0 121.485632,23.493243,0.0 121.484674,23.492119,0.0 121.485334,23.491189,0.0 121.485261,23.490289,0.0 121.485575,23.487351,0.0 121.486663,23.485277,0.0 121.485965,23.484909,0.0 121.484344,23.483668,0.0 121.483663,23.48344,0.0 121.48279,23.483104,0.0 121.481534,23.483767,0.0 121.480874,23.48523,0.0 121.479857,23.486174,0.0 121.479389,23.486808,0.0 121.478566,23.487558,0.0 121.477635,23.487831,0.0 121.476929,23.48722,0.0 121.476011,23.487182,0.0 121.475205,23.487464,0.0 121.474056,23.48768,0.0 121.473732,23.487243,0.0 121.473194,23.486508,0.0 121.472624,23.486235,0.0 121.472107,23.486004,0.0 121.471946,23.485467,0.0 121.471858,23.484153,0.0 121.469806,23.482342,0.0 121.468931,23.481647,0.0 121.468332,23.480825,0.0 121.467691,23.480222,0.0 121.466498,23.479147,0.0 121.465288,23.476766,0.0 121.464708,23.476113,0.0 121.483801,23.47037,0.0 121.500938,23.461058,0.0 121.501647,23.461541,0.0 121.503583,23.467929,0.0 121.504213,23.469227,0.0 121.50448,23.469831,0.0 121.504701,23.470187,0.0 121.504914,23.470877,0.0 121.505262,23.47114,0.0 121.505624,23.471362,0.0 121.505766,23.471883,0.0 121.506582,23.471504,0.0 121.506695,23.471774,0.0 121.506942,23.471807,0.0 121.507568,23.472011,0.0 121.50763,23.472668,0.0 121.508218,23.473634,0.0 121.508369,23.474873,0.0 121.508758,23.476059,0.0 121.509021,23.47746,0.0 121.508792,23.479177,0.0 121.509624,23.479555,0.0 121.509953,23.480331,0.0 121.510635,23.48095,0.0 121.511692,23.482007,0.0 121.512972,23.482838,0.0 121.513338,23.483257,0.0 121.512876,23.483583,0.0 121.512465,23.483876,0.0 121.513122,23.484513,0.0 121.513805,23.484657,0.0 121.513165,23.484917,0.0 121.512164,23.4849,0.0 121.51268,23.485738,0.0 121.513063,23.486737,0.0 121.513596,23.487369,0.0 121.513143,23.487583,0.0 121.513663,23.488035,0.0 121.513795,23.488423,0.0 121.514579,23.488596,0.0 121.513793,23.489152,0.0 121.51354,23.489313,0.0 121.513084,23.489658,0.0 121.513523,23.490634,0.0 121.513201,23.491242,0.0 121.512468,23.491249,0.0 121.511948,23.49128,0.0 121.511698,23.492137,0.0 121.511073,23.492486,0.0 121.510827,23.492279,0.0 121.510409,23.492484,0.0 121.509199,23.491456,0.0 121.508113,23.491322,0.0 121.507659,23.49175,0.0 121.507499,23.492731,0.0 121.506943,23.494552,0.0 121.506907,23.495055,0.0 121.506522,23.494989,0.0 121.506622,23.494652,0.0 121.506873,23.49348,0.0 121.507105,23.491547,0.0 121.506378,23.493143,0.0 121.505498,23.494107,0.0 121.505774,23.494533,0.0 121.505232,23.494345,0.0 121.504587,23.493808,0.0 121.504509,23.493921,0.0 121.505056,23.494332,0.0 121.505099,23.494614,0.0 121.504813,23.495828,0.0 121.505174,23.496425,0.0 121.506295,23.496094,0.0 121.507316,23.495835,0.0 121.506196,23.49653,0.0 121.505405,23.497013,0.0 121.505364,23.497435,0.0 121.505568,23.49794,0.0 121.50512,23.498529,0.0 121.505079,23.500116,0.0 121.50527,23.501921,0.0 121.504648,23.504204,0.0 121.504292,23.505293,0.0 121.504373,23.506446,0.0 121.503917,23.506985,0.0 121.50379,23.508279,0.0 121.503947,23.508651,0.0 121.504523,23.509396,0.0 121.504194,23.510312,0.0 121.504229,23.510499,0.0 121.50453,23.510737,0.0 121.504526,23.510947,0.0 121.504446,23.511162,0.0 121.504303,23.512122,0.0 121.504547,23.512423,0.0 121.504359,23.513187,0.0 121.504087,23.513721,0.0 121.503878,23.514572,0.0 121.503581,23.515732,0.0 121.502986,23.516867,0.0 121.503334,23.517949,0.0 121.503195,23.518449,0.0 121.50276,23.518759,0.0 121.502759,23.51919,0.0 121.502513,23.519686,0.0 121.50307,23.520196,0.0 121.503311,23.520814,0.0 121.503278,23.521491,0.0 121.503371,23.522157,0.0 121.496125,23.525944,0.0 121.488319,23.527,0.0</coordinates></LinearRing></outerBoundaryIs></Polygon><Polygon><outerBoundaryIs><LinearRing><coordinates>121.509123,23.49163,0.0 121.5096,23.491999,0.0 121.509055,23.491859,0.0 121.509123,23.49163,0.0</coordinates></LinearRing></outerBoundaryIs></Polygon></MultiGeometry><styleUrl>#spolygon-map</styleUrl></Placemark><Placemark><Polygon><outerBoundaryIs><LinearRing><coordinates>121.52308,23.679909,0.0 121.521244,23.677901,0.0 121.520735,23.674688,0.0 121.519995,23.673101,0.0 121.520623,23.671506,0.0 121.519279,23.670715,0.0 121.517844,23.668842,0.0 121.517223,23.667304,0.0 121.516671,23.665439,0.0 121.516126,23.663574,0.0 121.515147,23.661248,0.0 121.514714,23.659143,0.0 121.513996,23.657337,0.0 121.513562,23.655262,0.0 121.512555,23.653674,0.0 121.511519,23.652918,0.0 121.510868,23.651833,0.0 121.509921,23.650553,0.0 121.509224,23.648948,0.0 121.509025,23.648188,0.0 121.50874,23.647295,0.0 121.518258,23.632529,0.0 121.512363,23.618397,0.0 121.518661,23.612647,0.0 121.526713,23.612113,0.0 121.529476,23.614416,0.0 121.53005,23.616888,0.0 121.529773,23.617905,0.0 121.529674,23.620002,0.0 121.529797,23.621526,0.0 121.529877,23.623189,0.0 121.530243,23.626994,0.0 121.530945,23.630305,0.0 121.531946,23.633467,0.0 121.53298,23.635579,0.0 121.533137,23.636535,0.0 121.533232,23.637506,0.0 121.533277,23.638806,0.0 121.534011,23.642185,0.0 121.534375,23.643313,0.0 121.534379,23.64441,0.0 121.534857,23.646336,0.0 121.535423,23.647731,0.0 121.535775,23.648861,0.0 121.536608,23.650303,0.0 121.538073,23.6516,0.0 121.538891,23.652088,0.0 121.539782,23.652547,0.0 121.540651,23.652734,0.0 121.541973,23.652892,0.0 121.542872,23.654347,0.0 121.543267,23.656111,0.0 121.542216,23.657602,0.0 121.541593,23.658706,0.0 121.541086,23.660026,0.0 121.541557,23.661045,0.0 121.541466,23.661461,0.0 121.541769,23.661532,0.0 121.541909,23.661865,0.0 121.542062,23.662165,0.0 121.542859,23.662487,0.0 121.542507,23.663206,0.0 121.542713,23.663921,0.0 121.543617,23.664654,0.0 121.544254,23.665376,0.0 121.544463,23.666459,0.0 121.544145,23.667587,0.0 121.543638,23.66867,0.0 121.54418,23.669361,0.0 121.544806,23.670059,0.0 121.545139,23.670744,0.0 121.545488,23.671203,0.0 121.54614,23.672442,0.0 121.546424,23.673137,0.0 121.546257,23.673569,0.0 121.537739,23.668419,0.0 121.527506,23.674431,0.0 121.52308,23.679909,0.0</coordinates></LinearRing></outerBoundaryIs></Polygon><styleUrl>#spolygon-map</styleUrl></Placemark><Placemark><Polygon><outerBoundaryIs><LinearRing><coordinates>121.479265,23.432203,0.0 121.480276,23.430859,0.0 121.480844,23.430866,0.0 121.481304,23.430719,0.0 121.482187,23.430318,0.0 121.483365,23.430226,0.0 121.484881,23.431154,0.0 121.486161,23.432462,0.0 121.486986,23.433536,0.0 121.488461,23.433933,0.0 121.490143,23.435036,0.0 121.49122,23.435107,0.0 121.492184,23.434474,0.0 121.493167,23.434744,0.0 121.493809,23.434887,0.0 121.495198,23.434851,0.0 121.496162,23.437523,0.0 121.496491,23.43994,0.0 121.497217,23.442525,0.0 121.497408,23.446229,0.0 121.497612,23.447585,0.0 121.497589,23.449163,0.0 121.497959,23.450975,0.0 121.498656,23.452381,0.0 121.498853,23.453426,0.0 121.498871,23.454001,0.0 121.499,23.454461,0.0 121.499201,23.454666,0.0 121.499051,23.45573,0.0 121.49949,23.457311,0.0 121.500242,23.45883,0.0 121.500938,23.461058,0.0 121.483801,23.47037,0.0 121.464708,23.476113,0.0 121.464897,23.474571,0.0 121.465326,23.472675,0.0 121.466594,23.470466,0.0 121.466446,23.468137,0.0 121.466531,23.466698,0.0 121.466197,23.465018,0.0 121.465269,23.462756,0.0 121.464655,23.461315,0.0 121.464706,23.460008,0.0 121.463653,23.459379,0.0 121.463762,23.458078,0.0 121.463275,23.456533,0.0 121.462994,23.455173,0.0 121.462473,23.454441,0.0 121.461416,23.453977,0.0 121.459952,23.453873,0.0 121.458123,23.452948,0.0 121.455386,23.453337,0.0 121.453328,23.453547,0.0 121.450656,23.45364,0.0 121.448172,23.452923,0.0 121.446092,23.451958,0.0 121.445573,23.451372,0.0 121.444653,23.4497,0.0 121.444553,23.448188,0.0 121.444861,23.445265,0.0 121.447316,23.443723,0.0 121.448266,23.442944,0.0 121.450461,23.443151,0.0 121.451407,23.442585,0.0 121.454058,23.441254,0.0 121.455667,23.441471,0.0 121.457057,23.44221,0.0 121.458726,23.442015,0.0 121.461516,23.441571,0.0 121.461922,23.440042,0.0 121.463462,23.438877,0.0 121.464845,23.439728,0.0 121.468518,23.440128,0.0 121.469811,23.440357,0.0 121.470388,23.440707,0.0 121.472216,23.440659,0.0 121.473327,23.440642,0.0 121.473679,23.440079,0.0 121.47447,23.439171,0.0 121.475344,23.43717,0.0 121.476172,23.436144,0.0 121.476832,23.435665,0.0 121.477596,23.434852,0.0 121.478025,23.434236,0.0 121.478623,23.433323,0.0 121.479154,23.432256,0.0 121.479265,23.432203,0.0</coordinates></LinearRing></outerBoundaryIs></Polygon><styleUrl>#spolygon-map</styleUrl></Placemark><Placemark><Polygon><outerBoundaryIs><LinearRing><coordinates>121.567015,23.746412,0.0 121.56535,23.747099,0.0 121.564514,23.746563,0.0 121.563646,23.747061,0.0 121.562991,23.748187,0.0 121.562094,23.748931,0.0 121.561023,23.74847,0.0 121.560212,23.747947,0.0 121.559358,23.747947,0.0 121.558738,23.74846,0.0 121.558442,23.748578,0.0 121.557841,23.747328,0.0 121.556734,23.744853,0.0 121.555553,23.743914,0.0 121.553792,23.743841,0.0 121.55249,23.743787,0.0 121.550612,23.742509,0.0 121.549267,23.741595,0.0 121.547065,23.741754,0.0 121.545733,23.741682,0.0 121.545189,23.740476,0.0 121.544706,23.739153,0.0 121.543623,23.737545,0.0 121.542496,23.735973,0.0 121.540979,23.734303,0.0 121.539085,23.733364,0.0 121.537408,23.732885,0.0 121.536059,23.733294,0.0 121.533304,23.733312,0.0 121.531843,23.732166,0.0 121.529252,23.732087,0.0 121.52789,23.732035,0.0 121.526659,23.731107,0.0 121.526465,23.728927,0.0 121.525417,23.727799,0.0 121.525188,23.726109,0.0 121.525252,23.724648,0.0 121.525713,23.723017,0.0 121.525248,23.72119,0.0 121.523904,23.720414,0.0 121.522555,23.720208,0.0 121.521443,23.71881,0.0 121.519775,23.717461,0.0 121.519153,23.716057,0.0 121.518988,23.713637,0.0 121.518129,23.712288,0.0 121.518832,23.710789,0.0 121.519949,23.710596,0.0 121.520942,23.710042,0.0 121.521189,23.708402,0.0 121.52029,23.706691,0.0 121.519771,23.705043,0.0 121.520901,23.702958,0.0 121.521071,23.701628,0.0 121.521355,23.699972,0.0 121.520216,23.69961,0.0 121.519706,23.698478,0.0 121.519092,23.697426,0.0 121.51782,23.695575,0.0 121.516691,23.694204,0.0 121.518088,23.692721,0.0 121.520479,23.691564,0.0 121.521939,23.690227,0.0 121.522164,23.687555,0.0 121.523229,23.685012,0.0 121.524692,23.6831,0.0 121.524309,23.6816,0.0 121.523801,23.680193,0.0 121.527506,23.674431,0.0 121.537739,23.668419,0.0 121.546072,23.674061,0.0 121.545872,23.674818,0.0 121.545832,23.675656,0.0 121.545932,23.675967,0.0 121.54599,23.676599,0.0 121.54596,23.67696,0.0 121.546113,23.677362,0.0 121.546401,23.678234,0.0 121.546274,23.679282,0.0 121.546495,23.679541,0.0 121.546884,23.680765,0.0 121.547022,23.681733,0.0 121.54765,23.682596,0.0 121.547803,23.683119,0.0 121.547727,23.683695,0.0 121.547727,23.684176,0.0 121.548331,23.685013,0.0 121.548486,23.685523,0.0 121.548549,23.686818,0.0 121.548366,23.687995,0.0 121.549173,23.688965,0.0 121.550012,23.68985,0.0 121.549969,23.69168,0.0 121.550101,23.692879,0.0 121.550601,23.693746,0.0 121.551164,23.693796,0.0 121.551693,23.694135,0.0 121.552216,23.694447,0.0 121.552505,23.695328,0.0 121.552483,23.695967,0.0 121.552598,23.69671,0.0 121.55284,23.697287,0.0 121.553218,23.698387,0.0 121.55319,23.698976,0.0 121.55341,23.699341,0.0 121.552926,23.699244,0.0 121.5523,23.699436,0.0 121.551817,23.699243,0.0 121.550823,23.699463,0.0 121.550355,23.70009,0.0 121.55004,23.700796,0.0 121.5497,23.701802,0.0 121.54939,23.702715,0.0 121.549324,23.703279,0.0 121.549166,23.704928,0.0 121.549181,23.705749,0.0 121.549221,23.706147,0.0 121.54924,23.70718,0.0 121.548851,23.708394,0.0 121.548733,23.711171,0.0 121.54894,23.713367,0.0 121.54902,23.713951,0.0 121.548836,23.713957,0.0 121.54879,23.714205,0.0 121.54913,23.714761,0.0 121.549181,23.715102,0.0 121.549202,23.715585,0.0 121.549346,23.715912,0.0 121.549494,23.716516,0.0 121.549577,23.716681,0.0 121.549609,23.716967,0.0 121.549764,23.717369,0.0 121.549942,23.717862,0.0 121.550381,23.718457,0.0 121.55054,23.718714,0.0 121.550777,23.719083,0.0 121.550977,23.719807,0.0 121.551073,23.720337,0.0 121.55131,23.720939,0.0 121.551623,23.72159,0.0 121.551777,23.722043,0.0 121.551917,23.722528,0.0 121.552249,23.723186,0.0 121.552747,23.723681,0.0 121.552931,23.724222,0.0 121.553432,23.724485,0.0 121.554485,23.724964,0.0 121.556059,23.725166,0.0 121.556517,23.724948,0.0 121.556829,23.725594,0.0 121.557115,23.72604,0.0 121.557705,23.726912,0.0 121.557873,23.727857,0.0 121.558215,23.728362,0.0 121.558878,23.728648,0.0 121.55943,23.728872,0.0 121.560034,23.729466,0.0 121.560041,23.730712,0.0 121.560941,23.732286,0.0 121.56102,23.733516,0.0 121.56137,23.734274,0.0 121.56259,23.735436,0.0 121.563226,23.736574,0.0 121.563483,23.738347,0.0 121.564983,23.740015,0.0 121.565317,23.741402,0.0 121.566405,23.743028,0.0 121.566887,23.743985,0.0 121.567042,23.745457,0.0 121.566991,23.746371,0.0 121.567015,23.746412,0.0</coordinates></LinearRing></outerBoundaryIs></Polygon><styleUrl>#spolygon-map</styleUrl></Placemark><Placemark><Polygon><outerBoundaryIs><LinearRing><coordinates>121.475623,23.62853,0.0 121.474736,23.626018,0.0 121.473672,23.624249,0.0 121.471566,23.622894,0.0 121.470215,23.620485,0.0 121.468135,23.620557,0.0 121.466365,23.619569,0.0 121.466658,23.614924,0.0 121.465185,23.613412,0.0 121.463712,23.613698,0.0 121.461896,23.613214,0.0 121.461221,23.612762,0.0 121.45867,23.611657,0.0 121.458006,23.611503,0.0 121.457732,23.610772,0.0 121.456576,23.610767,0.0 121.456659,23.610076,0.0 121.456551,23.609762,0.0 121.455376,23.609752,0.0 121.45461,23.609278,0.0 121.454218,23.608821,0.0 121.453466,23.608814,0.0 121.451899,23.608909,0.0 121.44992,23.608847,0.0 121.447799,23.608278,0.0 121.447542,23.607075,0.0 121.447357,23.605667,0.0 121.447331,23.603784,0.0 121.445724,23.60224,0.0 121.44497,23.600448,0.0 121.444514,23.599277,0.0 121.443345,23.59838,0.0 121.441748,23.598229,0.0 121.440107,23.598274,0.0 121.438861,23.597557,0.0 121.437537,23.597231,0.0 121.435493,23.597025,0.0 121.433467,23.596469,0.0 121.432667,23.596252,0.0 121.431625,23.596259,0.0 121.430569,23.595779,0.0 121.430503,23.595021,0.0 121.429872,23.593754,0.0 121.428714,23.592628,0.0 121.428559,23.592193,0.0 121.428244,23.591115,0.0 121.427302,23.589659,0.0 121.4266,23.588663,0.0 121.425547,23.587404,0.0 121.426082,23.586775,0.0 121.426256,23.585151,0.0 121.425508,23.583828,0.0 121.424571,23.582777,0.0 121.424313,23.58105,0.0 121.423872,23.578728,0.0 121.423192,23.577498,0.0 121.424489,23.577203,0.0 121.426042,23.576199,0.0 121.427395,23.575019,0.0 121.428725,23.573794,0.0 121.429277,23.572722,0.0 121.428541,23.570889,0.0 121.427131,23.569692,0.0 121.425843,23.568907,0.0 121.423947,23.568,0.0 121.42286,23.566505,0.0 121.42188,23.564347,0.0 121.421241,23.563488,0.0 121.421536,23.561616,0.0 121.421753,23.560683,0.0 121.423056,23.560598,0.0 121.424444,23.560163,0.0 121.42618,23.560077,0.0 121.428035,23.559472,0.0 121.428029,23.557496,0.0 121.427819,23.556725,0.0 121.427352,23.555509,0.0 121.427678,23.554265,0.0 121.42907,23.553403,0.0 121.428733,23.551537,0.0 121.428822,23.550478,0.0 121.429328,23.549623,0.0 121.430812,23.548445,0.0 121.43269,23.547833,0.0 121.434609,23.54794,0.0 121.436509,23.548063,0.0 121.439213,23.547645,0.0 121.44121,23.547256,0.0 121.443264,23.547825,0.0 121.444126,23.546003,0.0 121.446719,23.544632,0.0 121.449319,23.544823,0.0 121.450821,23.54393,0.0 121.452369,23.542812,0.0 121.454698,23.543316,0.0 121.458118,23.54486,0.0 121.460052,23.544663,0.0 121.462517,23.542771,0.0 121.464779,23.543347,0.0 121.467256,23.543188,0.0 121.470954,23.543265,0.0 121.473321,23.542319,0.0 121.476036,23.541425,0.0 121.480018,23.54284,0.0 121.484093,23.545211,0.0 121.485629,23.54417,0.0 121.486665,23.544623,0.0 121.487829,23.545513,0.0 121.489861,23.543764,0.0 121.491148,23.542767,0.0 121.492419,23.542325,0.0 121.492189,23.541104,0.0 121.492146,23.539355,0.0 121.491266,23.537572,0.0 121.490553,23.53598,0.0 121.490096,23.53493,0.0 121.489944,23.533829,0.0 121.489811,23.531544,0.0 121.489396,23.52862,0.0 121.488696,23.527256,0.0 121.497706,23.52614,0.0 121.503842,23.523185,0.0 121.504213,23.523771,0.0 121.504294,23.524452,0.0 121.504482,23.525917,0.0 121.504384,23.52701,0.0 121.504588,23.527445,0.0 121.504728,23.528289,0.0 121.504533,23.528551,0.0 121.504628,23.529262,0.0 121.506365,23.531069,0.0 121.507755,23.531746,0.0 121.50725,23.533229,0.0 121.506489,23.534356,0.0 121.506882,23.536643,0.0 121.50813,23.540224,0.0 121.508462,23.542228,0.0 121.509226,23.544639,0.0 121.50987,23.547169,0.0 121.510271,23.548825,0.0 121.510557,23.550592,0.0 121.510992,23.552419,0.0 121.511757,23.553985,0.0 121.512793,23.555032,0.0 121.513276,23.555985,0.0 121.513825,23.557374,0.0 121.514415,23.558239,0.0 121.515319,23.559884,0.0 121.516273,23.56114,0.0 121.516582,23.562058,0.0 121.517126,23.56286,0.0 121.517822,23.564084,0.0 121.518363,23.56491,0.0 121.518786,23.565552,0.0 121.519489,23.566196,0.0 121.520553,23.567436,0.0 121.521889,23.568226,0.0 121.521943,23.57093,0.0 121.522606,23.572666,0.0 121.523413,23.573616,0.0 121.524711,23.574933,0.0 121.525493,23.576341,0.0 121.526074,23.578082,0.0 121.52566,23.580625,0.0 121.52588,23.582092,0.0 121.526566,23.584396,0.0 121.527047,23.58658,0.0 121.527783,23.589503,0.0 121.528219,23.591186,0.0 121.528827,23.593532,0.0 121.529337,23.595325,0.0 121.529696,23.597588,0.0 121.529743,23.59947,0.0 121.529841,23.60145,0.0 121.52975,23.603163,0.0 121.529639,23.605611,0.0 121.529427,23.60784,0.0 121.529646,23.609794,0.0 121.529875,23.612132,0.0 121.525507,23.611911,0.0 121.517459,23.613222,0.0 121.513142,23.622839,0.0 121.516746,23.635458,0.0 121.508643,23.647115,0.0 121.506559,23.646025,0.0 121.505313,23.644787,0.0 121.503752,23.643961,0.0 121.502466,23.644668,0.0 121.499631,23.645273,0.0 121.497808,23.646437,0.0 121.496106,23.647345,0.0 121.493587,23.647602,0.0 121.491536,23.647884,0.0 121.490111,23.646567,0.0 121.487833,23.645487,0.0 121.486263,23.644216,0.0 121.484845,23.642918,0.0 121.483351,23.641155,0.0 121.482582,23.639974,0.0 121.480409,23.638017,0.0 121.478988,23.636511,0.0 121.477978,23.634668,0.0 121.478046,23.632137,0.0 121.476694,23.630342,0.0 121.47627,23.628878,0.0 121.475623,23.62853,0.0</coordinates></LinearRing></outerBoundaryIs></Polygon><styleUrl>#spolygon-map</styleUrl></Placemark></Document>
</kml>
