<?xml version="1.0" encoding="UTF-8"?>
<kml xmlns="http://www.opengis.net/kml/2.2">
	<Document>
		<name>花蓮縣富里鄉</name>
		<Style id="spolygon">
			<LabelStyle>
				<scale>0.0</scale>
			</LabelStyle>
			<LineStyle>
				<color>330030ff</color>
				<width>0</width>
			</LineStyle>
			<PolyStyle>
				<color>330030ff</color>
			</PolyStyle>
		</Style>
		<StyleMap id="spolygon-map">
			<Pair>
				<key>normal</key>
				<styleUrl>#spolygon</styleUrl>
			</Pair>
		</StyleMap>
	<Placemark><Polygon><outerBoundaryIs><LinearRing><coordinates>121.252621,23.178605,0.0 121.246573,23.168463,0.0 121.253797,23.153456,0.0 121.264346,23.153987,0.0 121.27105,23.154687,0.0 121.279611,23.150608,0.0 121.285235,23.159945,0.0 121.291266,23.154245,0.0 121.308086,23.155445,0.0 121.326832,23.152533,0.0 121.325764,23.153461,0.0 121.325087,23.154239,0.0 121.324225,23.154902,0.0 121.323577,23.155119,0.0 121.322432,23.155109,0.0 121.32205,23.155651,0.0 121.322186,23.156538,0.0 121.321995,23.157562,0.0 121.321499,23.158831,0.0 121.320953,23.159564,0.0 121.320312,23.160028,0.0 121.320017,23.160681,0.0 121.319632,23.161418,0.0 121.319068,23.162126,0.0 121.318511,23.16307,0.0 121.317882,23.163923,0.0 121.314037,23.166108,0.0 121.300193,23.16644,0.0 121.285154,23.173783,0.0 121.271089,23.174051,0.0 121.264393,23.178127,0.0 121.252621,23.178605,0.0</coordinates></LinearRing></outerBoundaryIs></Polygon><styleUrl>#spolygon-map</styleUrl></Placemark><Placemark><Polygon><outerBoundaryIs><LinearRing><coordinates>121.250233,23.186643,0.0 121.25934,23.179049,0.0 121.269111,23.174461,0.0 121.282736,23.173523,0.0 121.279008,23.177451,0.0 121.271249,23.199003,0.0 121.256729,23.192729,0.0 121.250233,23.186643,0.0</coordinates></LinearRing></outerBoundaryIs></Polygon><styleUrl>#spolygon-map</styleUrl></Placemark><Placemark><Polygon><outerBoundaryIs><LinearRing><coordinates>121.34284,23.198178,0.0 121.343132,23.198419,0.0 121.343104,23.199584,0.0 121.343088,23.200193,0.0 121.343627,23.20073,0.0 121.343461,23.201051,0.0 121.343374,23.201998,0.0 121.343652,23.203093,0.0 121.343783,23.203616,0.0 121.343942,23.204595,0.0 121.344343,23.205838,0.0 121.34467,23.206422,0.0 121.344958,23.207232,0.0 121.345147,23.207934,0.0 121.34592,23.208578,0.0 121.346535,23.208872,0.0 121.331624,23.212928,0.0 121.320529,23.215796,0.0 121.317898,23.218849,0.0 121.3156,23.223426,0.0 121.313619,23.222617,0.0 121.307222,23.223198,0.0 121.302398,23.21888,0.0 121.286032,23.225006,0.0 121.278156,23.223198,0.0 121.267172,23.22303,0.0 121.266071,23.219838,0.0 121.263948,23.21631,0.0 121.262482,23.214597,0.0 121.260321,23.211711,0.0 121.283088,23.206398,0.0 121.301052,23.20665,0.0 121.312026,23.199009,0.0 121.324423,23.189535,0.0 121.336374,23.18381,0.0 121.336919,23.18464,0.0 121.337413,23.185153,0.0 121.337821,23.185536,0.0 121.337999,23.186069,0.0 121.337757,23.187049,0.0 121.337624,23.188106,0.0 121.337688,23.188695,0.0 121.338267,23.189547,0.0 121.338262,23.190319,0.0 121.338434,23.190958,0.0 121.339133,23.191694,0.0 121.33905,23.192309,0.0 121.339372,23.192868,0.0 121.339784,23.193824,0.0 121.34065,23.194378,0.0 121.341173,23.194679,0.0 121.342079,23.195693,0.0 121.342198,23.196431,0.0 121.342375,23.19739,0.0 121.342752,23.198071,0.0 121.34284,23.198178,0.0</coordinates></LinearRing></outerBoundaryIs></Polygon><styleUrl>#spolygon-map</styleUrl></Placemark><Placemark><Polygon><outerBoundaryIs><LinearRing><coordinates>121.374836,23.2692,0.0 121.375403,23.269341,0.0 121.37596,23.269439,0.0 121.376423,23.269492,0.0 121.377417,23.269562,0.0 121.377889,23.269667,0.0 121.377848,23.270019,0.0 121.377776,23.270459,0.0 121.377695,23.270868,0.0 121.377752,23.27132,0.0 121.377879,23.271757,0.0 121.378114,23.272264,0.0 121.378277,23.272637,0.0 121.378555,23.273654,0.0 121.378604,23.274284,0.0 121.378551,23.274959,0.0 121.378397,23.27558,0.0 121.378359,23.276127,0.0 121.378316,23.276675,0.0 121.378294,23.277276,0.0 121.378203,23.277696,0.0 121.378013,23.278168,0.0 121.377834,23.278844,0.0 121.377691,23.279535,0.0 121.377435,23.279906,0.0 121.377261,23.280407,0.0 121.377154,23.28108,0.0 121.376922,23.281571,0.0 121.376886,23.282217,0.0 121.377026,23.282772,0.0 121.377101,23.283205,0.0 121.37657,23.283317,0.0 121.373712,23.283028,0.0 121.370325,23.282765,0.0 121.367535,23.282383,0.0 121.365176,23.282427,0.0 121.362669,23.282618,0.0 121.360879,23.283568,0.0 121.359518,23.282779,0.0 121.35838,23.282107,0.0 121.357455,23.280447,0.0 121.356546,23.280955,0.0 121.35531,23.282398,0.0 121.353826,23.283232,0.0 121.351656,23.282307,0.0 121.35079,23.280726,0.0 121.349697,23.280602,0.0 121.348103,23.279193,0.0 121.346898,23.279227,0.0 121.346901,23.280636,0.0 121.346016,23.281976,0.0 121.343773,23.280633,0.0 121.341723,23.280333,0.0 121.339992,23.282008,0.0 121.34078,23.284839,0.0 121.341136,23.286933,0.0 121.339635,23.288878,0.0 121.338766,23.290474,0.0 121.340345,23.291426,0.0 121.338823,23.292034,0.0 121.335335,23.291949,0.0 121.335425,23.295629,0.0 121.334563,23.298035,0.0 121.333237,23.298464,0.0 121.332065,23.298763,0.0 121.331087,23.299492,0.0 121.329798,23.297709,0.0 121.328164,23.29545,0.0 121.326383,23.29395,0.0 121.324643,23.292308,0.0 121.324777,23.290635,0.0 121.324242,23.287732,0.0 121.322736,23.284805,0.0 121.320595,23.28266,0.0 121.318457,23.281197,0.0 121.316255,23.278949,0.0 121.314606,23.277096,0.0 121.311743,23.276111,0.0 121.317902,23.267188,0.0 121.322734,23.264232,0.0 121.330746,23.258018,0.0 121.33404,23.256081,0.0 121.341069,23.252916,0.0 121.346679,23.254022,0.0 121.35809,23.254108,0.0 121.359609,23.252864,0.0 121.360493,23.253166,0.0 121.361232,23.25346,0.0 121.361649,23.253895,0.0 121.362012,23.25456,0.0 121.362343,23.255268,0.0 121.362605,23.256083,0.0 121.362859,23.256723,0.0 121.363196,23.257131,0.0 121.363622,23.25764,0.0 121.364323,23.257962,0.0 121.365523,23.257972,0.0 121.36596,23.258267,0.0 121.366038,23.258829,0.0 121.366376,23.259546,0.0 121.366935,23.260236,0.0 121.367513,23.260519,0.0 121.367959,23.260807,0.0 121.368396,23.261194,0.0 121.369015,23.261524,0.0 121.369727,23.261798,0.0 121.370325,23.262,0.0 121.370704,23.262394,0.0 121.370939,23.262771,0.0 121.371138,23.263161,0.0 121.371216,23.263664,0.0 121.371212,23.264237,0.0 121.371347,23.26465,0.0 121.371486,23.265056,0.0 121.371635,23.265558,0.0 121.37164,23.266029,0.0 121.371606,23.266589,0.0 121.371742,23.267092,0.0 121.371937,23.267373,0.0 121.372225,23.267672,0.0 121.372628,23.268054,0.0 121.373188,23.268466,0.0 121.373688,23.268848,0.0 121.374146,23.26908,0.0 121.374622,23.26913,0.0 121.374836,23.2692,0.0</coordinates></LinearRing></outerBoundaryIs></Polygon><styleUrl>#spolygon-map</styleUrl></Placemark><Placemark><Polygon><outerBoundaryIs><LinearRing><coordinates>121.267753,23.209555,0.0 121.258007,23.20845,0.0 121.256235,23.209169,0.0 121.254525,23.210072,0.0 121.254193,23.209436,0.0 121.256271,23.208017,0.0 121.25658,23.206362,0.0 121.25412,23.207987,0.0 121.252362,23.209021,0.0 121.251188,23.208687,0.0 121.249702,23.208886,0.0 121.250159,23.20832,0.0 121.251563,23.207733,0.0 121.252758,23.206359,0.0 121.253761,23.205621,0.0 121.252586,23.205461,0.0 121.252976,23.204259,0.0 121.252555,23.203627,0.0 121.252001,23.203276,0.0 121.252188,23.202452,0.0 121.250979,23.201991,0.0 121.249283,23.202556,0.0 121.248579,23.201796,0.0 121.248543,23.200013,0.0 121.249218,23.199325,0.0 121.249988,23.1988,0.0 121.250656,23.198253,0.0 121.250374,23.196804,0.0 121.247749,23.193564,0.0 121.245978,23.18978,0.0 121.245503,23.189499,0.0 121.245059,23.188317,0.0 121.244276,23.187169,0.0 121.249357,23.188575,0.0 121.263337,23.199829,0.0 121.267753,23.209555,0.0</coordinates></LinearRing></outerBoundaryIs></Polygon><styleUrl>#spolygon-map</styleUrl></Placemark><Placemark><Polygon><outerBoundaryIs><LinearRing><coordinates>121.359777,23.248781,0.0 121.359374,23.248999,0.0 121.359003,23.249521,0.0 121.358947,23.250066,0.0 121.358969,23.250732,0.0 121.359083,23.251465,0.0 121.359238,23.252162,0.0 121.35809,23.254108,0.0 121.346679,23.254022,0.0 121.341069,23.252916,0.0 121.33404,23.256081,0.0 121.330746,23.258018,0.0 121.322734,23.264232,0.0 121.317902,23.267188,0.0 121.311743,23.276111,0.0 121.309959,23.275706,0.0 121.308092,23.276967,0.0 121.306499,23.278018,0.0 121.304933,23.277863,0.0 121.303697,23.277562,0.0 121.301251,23.277761,0.0 121.299593,23.277636,0.0 121.298015,23.275783,0.0 121.296798,23.275146,0.0 121.295644,23.27371,0.0 121.293938,23.272488,0.0 121.2925,23.270851,0.0 121.290101,23.267397,0.0 121.288183,23.266186,0.0 121.296882,23.25963,0.0 121.307536,23.254306,0.0 121.318637,23.252456,0.0 121.32853,23.251419,0.0 121.335329,23.244192,0.0 121.339476,23.231585,0.0 121.35262,23.231212,0.0 121.352773,23.231827,0.0 121.353203,23.232451,0.0 121.353453,23.233298,0.0 121.354133,23.233869,0.0 121.354664,23.234381,0.0 121.355218,23.23507,0.0 121.355702,23.235611,0.0 121.356499,23.236429,0.0 121.356815,23.237096,0.0 121.357262,23.237427,0.0 121.35775,23.23809,0.0 121.357893,23.238931,0.0 121.357765,23.240119,0.0 121.358023,23.240706,0.0 121.35976,23.242365,0.0 121.359945,23.242976,0.0 121.360666,23.243905,0.0 121.361041,23.244843,0.0 121.36119,23.245482,0.0 121.361459,23.246188,0.0 121.361551,23.246856,0.0 121.361334,23.247252,0.0 121.360967,23.247799,0.0 121.360839,23.248197,0.0 121.360451,23.248448,0.0 121.359986,23.248681,0.0 121.359777,23.248781,0.0</coordinates></LinearRing></outerBoundaryIs></Polygon><styleUrl>#spolygon-map</styleUrl></Placemark><Placemark><Polygon><outerBoundaryIs><LinearRing><coordinates>121.243373,23.186217,0.0 121.24141,23.184328,0.0 121.240047,23.182913,0.0 121.241675,23.179698,0.0 121.242127,23.179137,0.0 121.241046,23.177687,0.0 121.239029,23.176909,0.0 121.237396,23.175403,0.0 121.245146,23.169583,0.0 121.251856,23.173027,0.0 121.243745,23.184723,0.0 121.243373,23.186217,0.0</coordinates></LinearRing></outerBoundaryIs></Polygon><styleUrl>#spolygon-map</styleUrl></Placemark><Placemark><Polygon><outerBoundaryIs><LinearRing><coordinates>121.23702,23.175106,0.0 121.235987,23.174225,0.0 121.234981,23.172962,0.0 121.234013,23.170773,0.0 121.232444,23.169358,0.0 121.237651,23.156468,0.0 121.230158,23.143881,0.0 121.230435,23.139431,0.0 121.231741,23.138363,0.0 121.233374,23.136426,0.0 121.23427,23.134104,0.0 121.235176,23.132791,0.0 121.237,23.130929,0.0 121.238026,23.129676,0.0 121.239511,23.12868,0.0 121.241176,23.128285,0.0 121.243262,23.128223,0.0 121.245557,23.128596,0.0 121.247157,23.129405,0.0 121.248317,23.12959,0.0 121.249141,23.131489,0.0 121.249761,23.131145,0.0 121.251327,23.13014,0.0 121.252184,23.129601,0.0 121.253279,23.128943,0.0 121.253998,23.128306,0.0 121.255583,23.127563,0.0 121.255934,23.127232,0.0 121.260683,23.134771,0.0 121.259051,23.143084,0.0 121.256317,23.149794,0.0 121.24613,23.166737,0.0 121.237902,23.174268,0.0 121.23702,23.175106,0.0</coordinates></LinearRing></outerBoundaryIs></Polygon><styleUrl>#spolygon-map</styleUrl></Placemark><Placemark><Polygon><outerBoundaryIs><LinearRing><coordinates>121.34677,23.211082,0.0 121.346174,23.211548,0.0 121.345972,23.21237,0.0 121.345729,23.213398,0.0 121.345965,23.214536,0.0 121.346105,23.215393,0.0 121.34661,23.216167,0.0 121.346469,23.2169,0.0 121.342298,23.217477,0.0 121.332641,23.224102,0.0 121.318695,23.230429,0.0 121.311444,23.232476,0.0 121.299359,23.23636,0.0 121.28838,23.243188,0.0 121.280808,23.250008,0.0 121.274369,23.250798,0.0 121.273931,23.248609,0.0 121.273539,23.247368,0.0 121.273405,23.24546,0.0 121.272286,23.241611,0.0 121.271418,23.239097,0.0 121.270619,23.237521,0.0 121.269813,23.235488,0.0 121.268197,23.232673,0.0 121.267129,23.230314,0.0 121.279069,23.223198,0.0 121.288445,23.22236,0.0 121.302401,23.219896,0.0 121.308088,23.223782,0.0 121.314275,23.220888,0.0 121.317249,23.223321,0.0 121.318663,23.21712,0.0 121.324377,23.216296,0.0 121.334369,23.211703,0.0 121.346783,23.209079,0.0 121.34687,23.209707,0.0 121.346799,23.210941,0.0 121.34677,23.211082,0.0</coordinates></LinearRing></outerBoundaryIs></Polygon><styleUrl>#spolygon-map</styleUrl></Placemark><Placemark><Polygon><outerBoundaryIs><LinearRing><coordinates>121.28093,23.261406,0.0 121.27925,23.259748,0.0 121.277737,23.258714,0.0 121.277162,23.256943,0.0 121.277321,23.254929,0.0 121.276367,23.252971,0.0 121.280808,23.250008,0.0 121.28838,23.243188,0.0 121.299359,23.23636,0.0 121.311444,23.232476,0.0 121.318695,23.230429,0.0 121.332641,23.224102,0.0 121.342298,23.217477,0.0 121.347434,23.217275,0.0 121.348456,23.217174,0.0 121.349086,23.217518,0.0 121.350027,23.217943,0.0 121.350199,23.218341,0.0 121.350773,23.219128,0.0 121.351353,23.219636,0.0 121.351718,23.220239,0.0 121.352532,23.220111,0.0 121.353336,23.220046,0.0 121.353678,23.220564,0.0 121.354338,23.221091,0.0 121.354576,23.22163,0.0 121.355095,23.22213,0.0 121.355721,23.222729,0.0 121.356288,23.223073,0.0 121.356929,23.223625,0.0 121.357059,23.223809,0.0 121.355819,23.224018,0.0 121.355068,23.224731,0.0 121.35452,23.225333,0.0 121.354235,23.226087,0.0 121.354219,23.226947,0.0 121.354473,23.227755,0.0 121.35417,23.228648,0.0 121.353461,23.228944,0.0 121.353118,23.229476,0.0 121.352734,23.230141,0.0 121.352686,23.230863,0.0 121.343866,23.228832,0.0 121.336305,23.238805,0.0 121.332384,23.248198,0.0 121.32281,23.25011,0.0 121.310725,23.254402,0.0 121.299075,23.256863,0.0 121.289084,23.263709,0.0 121.287384,23.266292,0.0 121.285894,23.26575,0.0 121.284665,23.264694,0.0 121.28308,23.262827,0.0 121.281518,23.261665,0.0 121.28093,23.261406,0.0</coordinates></LinearRing></outerBoundaryIs></Polygon><styleUrl>#spolygon-map</styleUrl></Placemark><Placemark><Polygon><outerBoundaryIs><LinearRing><coordinates>121.232179,23.169103,0.0 121.230547,23.167938,0.0 121.229448,23.167206,0.0 121.227634,23.166152,0.0 121.225607,23.166036,0.0 121.224915,23.1654,0.0 121.223228,23.164781,0.0 121.223527,23.163354,0.0 121.22383,23.162539,0.0 121.22284,23.161732,0.0 121.223598,23.161467,0.0 121.224725,23.162368,0.0 121.226387,23.162339,0.0 121.227398,23.160682,0.0 121.226226,23.159122,0.0 121.224552,23.1577,0.0 121.22289,23.157677,0.0 121.221671,23.156839,0.0 121.221157,23.155562,0.0 121.221818,23.154051,0.0 121.22285,23.153884,0.0 121.222724,23.15227,0.0 121.220835,23.150672,0.0 121.218945,23.150381,0.0 121.216681,23.149931,0.0 121.215118,23.149156,0.0 121.214249,23.148193,0.0 121.213647,23.146293,0.0 121.213297,23.145156,0.0 121.211991,23.144241,0.0 121.21288,23.144058,0.0 121.214416,23.14394,0.0 121.218201,23.142709,0.0 121.222196,23.141206,0.0 121.2251,23.139856,0.0 121.226528,23.139812,0.0 121.228026,23.139689,0.0 121.229293,23.139636,0.0 121.2372,23.149763,0.0 121.233089,23.166399,0.0 121.232179,23.169103,0.0</coordinates></LinearRing></outerBoundaryIs></Polygon><styleUrl>#spolygon-map</styleUrl></Placemark><Placemark><Polygon><outerBoundaryIs><LinearRing><coordinates>121.268439,23.102391,0.0 121.269451,23.102041,0.0 121.270377,23.101392,0.0 121.27087,23.101061,0.0 121.271367,23.099873,0.0 121.271863,23.098874,0.0 121.273269,23.098176,0.0 121.273606,23.098386,0.0 121.274293,23.098412,0.0 121.275058,23.098773,0.0 121.276471,23.099819,0.0 121.27719,23.100235,0.0 121.278134,23.100699,0.0 121.278634,23.1011,0.0 121.278762,23.101517,0.0 121.279118,23.102144,0.0 121.279852,23.102861,0.0 121.280415,23.10353,0.0 121.281079,23.104048,0.0 121.282054,23.103825,0.0 121.282893,23.103802,0.0 121.283224,23.104259,0.0 121.283941,23.105666,0.0 121.284508,23.106593,0.0 121.285984,23.106929,0.0 121.287334,23.106703,0.0 121.28815,23.107214,0.0 121.289036,23.107769,0.0 121.289856,23.107995,0.0 121.290865,23.108878,0.0 121.291818,23.109416,0.0 121.293075,23.109707,0.0 121.294551,23.109732,0.0 121.295921,23.109821,0.0 121.297169,23.109408,0.0 121.298067,23.109905,0.0 121.298602,23.109646,0.0 121.299434,23.1093,0.0 121.300089,23.10947,0.0 121.301083,23.109834,0.0 121.302001,23.110275,0.0 121.302889,23.111,0.0 121.303728,23.111171,0.0 121.304564,23.111241,0.0 121.30566,23.111266,0.0 121.306617,23.111252,0.0 121.308027,23.111259,0.0 121.310597,23.11115,0.0 121.313022,23.110804,0.0 121.314861,23.110371,0.0 121.315811,23.109735,0.0 121.316161,23.110711,0.0 121.319706,23.113773,0.0 121.320267,23.11474,0.0 121.320752,23.115496,0.0 121.321245,23.116307,0.0 121.321716,23.116785,0.0 121.321959,23.117414,0.0 121.321943,23.118405,0.0 121.322289,23.11901,0.0 121.322577,23.11991,0.0 121.322408,23.121134,0.0 121.322329,23.121665,0.0 121.322828,23.123187,0.0 121.322924,23.123673,0.0 121.322825,23.124614,0.0 121.322579,23.125554,0.0 121.321873,23.127499,0.0 121.321671,23.128346,0.0 121.321541,23.129284,0.0 121.321609,23.130089,0.0 121.322095,23.131238,0.0 121.322116,23.132154,0.0 121.321961,23.132613,0.0 121.321628,23.133273,0.0 121.321311,23.134059,0.0 121.321238,23.134748,0.0 121.32085,23.135378,0.0 121.320532,23.136135,0.0 121.320439,23.136959,0.0 121.320361,23.137705,0.0 121.320493,23.138201,0.0 121.32085,23.138582,0.0 121.321731,23.1393,0.0 121.322215,23.139943,0.0 121.322516,23.140646,0.0 121.322661,23.141484,0.0 121.322913,23.142325,0.0 121.32338,23.142882,0.0 121.32382,23.143292,0.0 121.323442,23.144069,0.0 121.323342,23.144733,0.0 121.32367,23.145491,0.0 121.324174,23.146047,0.0 121.324441,23.146474,0.0 121.32449,23.147038,0.0 121.324342,23.1477,0.0 121.324275,23.148427,0.0 121.324768,23.149523,0.0 121.325288,23.149992,0.0 121.325656,23.150601,0.0 121.32606,23.150993,0.0 121.32678,23.151606,0.0 121.327084,23.152304,0.0 121.310054,23.15431,0.0 121.293135,23.154749,0.0 121.286556,23.161263,0.0 121.280603,23.151724,0.0 121.271487,23.153467,0.0 121.265556,23.1549,0.0 121.255986,23.148677,0.0 121.259269,23.14217,0.0 121.260682,23.134365,0.0 121.256335,23.12689,0.0 121.257789,23.125938,0.0 121.258133,23.12545,0.0 121.258337,23.124284,0.0 121.258907,23.123669,0.0 121.259018,23.123432,0.0 121.259044,23.122711,0.0 121.259506,23.121263,0.0 121.260819,23.120031,0.0 121.261783,23.119131,0.0 121.262595,23.118773,0.0 121.263687,23.118168,0.0 121.264265,23.117655,0.0 121.264438,23.116541,0.0 121.264268,23.115435,0.0 121.264998,23.114847,0.0 121.265931,23.114575,0.0 121.266889,23.114384,0.0 121.267302,23.113887,0.0 121.267543,23.112624,0.0 121.267675,23.112176,0.0 121.267631,23.111331,0.0 121.267461,23.110508,0.0 121.267386,23.109409,0.0 121.267081,23.108859,0.0 121.266607,23.108114,0.0 121.266406,23.107262,0.0 121.266177,23.106709,0.0 121.265591,23.106118,0.0 121.265094,23.105145,0.0 121.26473,23.1047,0.0 121.264369,23.104096,0.0 121.264324,23.103915,0.0 121.265627,23.103416,0.0 121.266397,23.103198,0.0 121.266849,23.103049,0.0 121.267688,23.102737,0.0 121.268439,23.102391,0.0</coordinates></LinearRing></outerBoundaryIs></Polygon><styleUrl>#spolygon-map</styleUrl></Placemark><Placemark><Polygon><outerBoundaryIs><LinearRing><coordinates>121.330344,23.179542,0.0 121.330948,23.179123,0.0 121.331608,23.17891,0.0 121.332389,23.178951,0.0 121.332685,23.178536,0.0 121.333052,23.178091,0.0 121.333579,23.178046,0.0 121.334616,23.177843,0.0 121.335206,23.178887,0.0 121.335401,23.179638,0.0 121.335258,23.18058,0.0 121.335322,23.181293,0.0 121.335894,23.181861,0.0 121.336802,23.182466,0.0 121.336627,23.18313,0.0 121.331337,23.185762,0.0 121.316304,23.195343,0.0 121.308411,23.204502,0.0 121.291048,23.205958,0.0 121.276981,23.207202,0.0 121.269163,23.200429,0.0 121.27857,23.178062,0.0 121.285747,23.1732,0.0 121.302169,23.165725,0.0 121.317452,23.164486,0.0 121.317396,23.165226,0.0 121.317885,23.16598,0.0 121.318152,23.166954,0.0 121.318482,23.167913,0.0 121.318965,23.168312,0.0 121.319519,23.168457,0.0 121.320526,23.16871,0.0 121.321504,23.169119,0.0 121.321929,23.169624,0.0 121.322019,23.170331,0.0 121.321954,23.171044,0.0 121.322066,23.171893,0.0 121.322108,23.172561,0.0 121.322222,23.173227,0.0 121.322921,23.173449,0.0 121.323125,23.174035,0.0 121.323938,23.174783,0.0 121.32397,23.175455,0.0 121.323927,23.176614,0.0 121.323873,23.177628,0.0 121.323938,23.178215,0.0 121.323305,23.178629,0.0 121.32438,23.178826,0.0 121.325304,23.179205,0.0 121.326361,23.179095,0.0 121.327438,23.17919,0.0 121.328375,23.179285,0.0 121.32899,23.179868,0.0 121.329801,23.18035,0.0 121.330221,23.179777,0.0 121.330344,23.179542,0.0</coordinates></LinearRing></outerBoundaryIs></Polygon><styleUrl>#spolygon-map</styleUrl></Placemark></Document>
</kml>
