<?xml version="1.0" encoding="UTF-8"?>
<kml xmlns="http://www.opengis.net/kml/2.2">
	<Document>
		<name>苗栗縣泰安鄉</name>
		<Style id="spolygon">
			<LabelStyle>
				<scale>0.0</scale>
			</LabelStyle>
			<LineStyle>
				<color>330030ff</color>
				<width>0</width>
			</LineStyle>
			<PolyStyle>
				<color>330030ff</color>
			</PolyStyle>
		</Style>
		<StyleMap id="spolygon-map">
			<Pair>
				<key>normal</key>
				<styleUrl>#spolygon</styleUrl>
			</Pair>
		</StyleMap>
	<Placemark><Polygon><outerBoundaryIs><LinearRing><coordinates>120.931608,24.363997,0.0 120.923415,24.366972,0.0 120.918431,24.365761,0.0 120.913127,24.366192,0.0 120.91136,24.364671,0.0 120.908939,24.364334,0.0 120.908717,24.359037,0.0 120.909347,24.357343,0.0 120.909857,24.354897,0.0 120.909493,24.35232,0.0 120.908477,24.349355,0.0 120.908536,24.347375,0.0 120.907493,24.346497,0.0 120.906978,24.345806,0.0 120.907022,24.344551,0.0 120.906948,24.343413,0.0 120.906354,24.342662,0.0 120.905647,24.341327,0.0 120.905447,24.340309,0.0 120.905778,24.339381,0.0 120.906291,24.338601,0.0 120.906484,24.337846,0.0 120.905899,24.337003,0.0 120.906513,24.336379,0.0 120.908167,24.336445,0.0 120.911103,24.336541,0.0 120.910227,24.334371,0.0 120.907883,24.332927,0.0 120.906825,24.332212,0.0 120.906139,24.331359,0.0 120.907002,24.330709,0.0 120.907486,24.330274,0.0 120.906476,24.329538,0.0 120.905815,24.329049,0.0 120.904781,24.328426,0.0 120.903402,24.327848,0.0 120.90325,24.327008,0.0 120.904748,24.325654,0.0 120.90537,24.324294,0.0 120.906404,24.322909,0.0 120.907353,24.321383,0.0 120.907973,24.3204,0.0 120.909131,24.316995,0.0 120.911644,24.314418,0.0 120.91291,24.310564,0.0 120.914335,24.307554,0.0 120.913908,24.302231,0.0 120.911867,24.298235,0.0 120.910517,24.295802,0.0 120.91003,24.293955,0.0 120.912155,24.294384,0.0 120.918487,24.299955,0.0 120.92244,24.303596,0.0 120.921382,24.307155,0.0 120.920083,24.311771,0.0 120.9202,24.316074,0.0 120.920561,24.319514,0.0 120.919647,24.324225,0.0 120.916972,24.331954,0.0 120.917005,24.335724,0.0 120.920114,24.337259,0.0 120.926749,24.338896,0.0 120.93209,24.341655,0.0 120.935638,24.342917,0.0 120.937196,24.342062,0.0 120.937587,24.347911,0.0 120.933916,24.36045,0.0 120.931608,24.363997,0.0</coordinates></LinearRing></outerBoundaryIs></Polygon><styleUrl>#spolygon-map</styleUrl></Placemark><Placemark><Polygon><outerBoundaryIs><LinearRing><coordinates>121.009773,24.391179,0.0 120.999642,24.390199,0.0 120.992576,24.384457,0.0 120.981119,24.381978,0.0 120.967748,24.377595,0.0 120.958703,24.375477,0.0 120.956159,24.381097,0.0 120.951872,24.382515,0.0 120.944833,24.384357,0.0 120.938761,24.37686,0.0 120.934338,24.375408,0.0 120.929522,24.367005,0.0 120.933916,24.36045,0.0 120.937587,24.347911,0.0 120.938394,24.341493,0.0 120.939705,24.340254,0.0 120.94107,24.339679,0.0 120.943706,24.339441,0.0 120.945396,24.339726,0.0 120.947314,24.339069,0.0 120.951771,24.339055,0.0 120.955298,24.339012,0.0 120.957807,24.338094,0.0 120.960155,24.335055,0.0 120.963384,24.334446,0.0 120.968123,24.333376,0.0 120.972359,24.333508,0.0 120.975988,24.334441,0.0 120.979939,24.334474,0.0 120.982656,24.335572,0.0 120.985581,24.331661,0.0 120.991022,24.329764,0.0 120.994356,24.329938,0.0 120.995965,24.330251,0.0 120.997691,24.330216,0.0 120.999869,24.332341,0.0 121.003566,24.332525,0.0 121.009344,24.334627,0.0 121.008784,24.341396,0.0 121.005484,24.346019,0.0 120.999813,24.361833,0.0 121.002084,24.369227,0.0 121.009844,24.385394,0.0 121.009773,24.391179,0.0</coordinates></LinearRing></outerBoundaryIs></Polygon><styleUrl>#spolygon-map</styleUrl></Placemark><Placemark><Polygon><outerBoundaryIs><LinearRing><coordinates>120.91381,24.433801,0.0 120.913592,24.433798,0.0 120.913114,24.433733,0.0 120.91249,24.433353,0.0 120.912464,24.433533,0.0 120.91243,24.43358,0.0 120.91194,24.432821,0.0 120.911673,24.431141,0.0 120.911683,24.429451,0.0 120.911444,24.428128,0.0 120.910817,24.426407,0.0 120.909039,24.424576,0.0 120.907851,24.42372,0.0 120.907142,24.42333,0.0 120.907471,24.423077,0.0 120.907839,24.422897,0.0 120.908142,24.422143,0.0 120.908016,24.421537,0.0 120.907524,24.420753,0.0 120.907588,24.41971,0.0 120.907965,24.418967,0.0 120.907709,24.418079,0.0 120.907111,24.417435,0.0 120.907047,24.416738,0.0 120.907421,24.416221,0.0 120.908077,24.415663,0.0 120.909264,24.415029,0.0 120.91084,24.414349,0.0 120.910722,24.414043,0.0 120.910765,24.413768,0.0 120.910711,24.41365,0.0 120.910568,24.413259,0.0 120.910536,24.41305,0.0 120.910385,24.412984,0.0 120.91003,24.412711,0.0 120.909864,24.41227,0.0 120.910114,24.412137,0.0 120.910535,24.411922,0.0 120.910773,24.411743,0.0 120.911176,24.411779,0.0 120.911205,24.411823,0.0 120.911071,24.411933,0.0 120.911313,24.412091,0.0 120.911926,24.412082,0.0 120.91177,24.409263,0.0 120.910595,24.408626,0.0 120.910294,24.408072,0.0 120.910747,24.408056,0.0 120.911281,24.407698,0.0 120.91113,24.407037,0.0 120.911013,24.406452,0.0 120.910652,24.405906,0.0 120.910568,24.405225,0.0 120.911036,24.404566,0.0 120.911562,24.40416,0.0 120.912062,24.403976,0.0 120.912713,24.403949,0.0 120.913387,24.40381,0.0 120.913595,24.403551,0.0 120.913675,24.403283,0.0 120.913987,24.402836,0.0 120.914371,24.402633,0.0 120.915144,24.402498,0.0 120.9157,24.402842,0.0 120.916711,24.403206,0.0 120.917287,24.40359,0.0 120.917282,24.403478,0.0 120.917436,24.403484,0.0 120.917474,24.403422,0.0 120.917457,24.40321,0.0 120.917827,24.403041,0.0 120.918567,24.401572,0.0 120.920225,24.400845,0.0 120.924646,24.407526,0.0 120.93369,24.415719,0.0 120.938967,24.420856,0.0 120.947195,24.422524,0.0 120.956736,24.43274,0.0 120.941512,24.427387,0.0 120.939824,24.427686,0.0 120.939666,24.42753,0.0 120.939525,24.427554,0.0 120.938982,24.427881,0.0 120.938597,24.428303,0.0 120.938217,24.428435,0.0 120.938259,24.428093,0.0 120.937985,24.428012,0.0 120.937767,24.427818,0.0 120.937614,24.427194,0.0 120.937738,24.427252,0.0 120.93794,24.427403,0.0 120.937953,24.42728,0.0 120.937617,24.42681,0.0 120.937592,24.42648,0.0 120.937437,24.426426,0.0 120.937284,24.426509,0.0 120.937109,24.426751,0.0 120.936846,24.426793,0.0 120.936759,24.427083,0.0 120.93654,24.427138,0.0 120.93645,24.427538,0.0 120.93633,24.42765,0.0 120.935919,24.427532,0.0 120.935644,24.427522,0.0 120.935309,24.427812,0.0 120.934856,24.427778,0.0 120.934504,24.427679,0.0 120.933959,24.427581,0.0 120.933527,24.427633,0.0 120.933139,24.427557,0.0 120.933,24.427215,0.0 120.932851,24.42673,0.0 120.93286,24.426527,0.0 120.932727,24.426725,0.0 120.932448,24.426877,0.0 120.931864,24.426936,0.0 120.931175,24.42613,0.0 120.93095,24.426552,0.0 120.930856,24.426691,0.0 120.930564,24.426771,0.0 120.930682,24.427046,0.0 120.930709,24.428259,0.0 120.93067,24.428584,0.0 120.930159,24.428638,0.0 120.928669,24.429122,0.0 120.925748,24.430305,0.0 120.925259,24.430454,0.0 120.924926,24.430649,0.0 120.924644,24.431285,0.0 120.924611,24.431656,0.0 120.924774,24.432005,0.0 120.924796,24.432449,0.0 120.924351,24.43261,0.0 120.923706,24.432892,0.0 120.923453,24.433445,0.0 120.923174,24.43352,0.0 120.923208,24.433233,0.0 120.922953,24.433294,0.0 120.922746,24.433334,0.0 120.922446,24.432804,0.0 120.922043,24.432415,0.0 120.921927,24.43206,0.0 120.921303,24.431847,0.0 120.92102,24.43159,0.0 120.921058,24.431282,0.0 120.920749,24.4312,0.0 120.920622,24.430576,0.0 120.920507,24.43081,0.0 120.918988,24.430122,0.0 120.918445,24.43008,0.0 120.918358,24.430235,0.0 120.918722,24.430738,0.0 120.918577,24.431042,0.0 120.91876,24.431282,0.0 120.91839,24.431452,0.0 120.917743,24.431078,0.0 120.917612,24.431349,0.0 120.917571,24.431738,0.0 120.917412,24.431698,0.0 120.917169,24.431637,0.0 120.915915,24.432103,0.0 120.915039,24.432804,0.0 120.914781,24.433041,0.0 120.914813,24.433222,0.0 120.914162,24.433559,0.0 120.913864,24.43377,0.0 120.91381,24.433801,0.0</coordinates></LinearRing></outerBoundaryIs></Polygon><styleUrl>#spolygon-map</styleUrl></Placemark><Placemark><Polygon><outerBoundaryIs><LinearRing><coordinates>120.999168,24.44508,0.0 120.997462,24.449064,0.0 120.983059,24.44852,0.0 120.975097,24.45157,0.0 120.970769,24.452899,0.0 120.962282,24.443832,0.0 120.958353,24.436367,0.0 120.956043,24.430081,0.0 120.943528,24.422929,0.0 120.936166,24.41844,0.0 120.933756,24.415175,0.0 120.923655,24.406299,0.0 120.919598,24.399817,0.0 120.919471,24.396517,0.0 120.917612,24.393538,0.0 120.915775,24.39134,0.0 120.914687,24.389033,0.0 120.914952,24.386553,0.0 120.914314,24.38272,0.0 120.914038,24.379782,0.0 120.914452,24.377631,0.0 120.914094,24.374703,0.0 120.913658,24.371351,0.0 120.913697,24.367677,0.0 120.918431,24.365761,0.0 120.923415,24.366972,0.0 120.936435,24.376282,0.0 120.940346,24.377314,0.0 120.945053,24.385697,0.0 120.948926,24.388196,0.0 120.951698,24.392125,0.0 120.955401,24.396431,0.0 120.964931,24.40103,0.0 120.970483,24.401498,0.0 120.974701,24.406612,0.0 120.984121,24.407272,0.0 120.989867,24.407272,0.0 120.995611,24.409478,0.0 120.999014,24.409297,0.0 121.002911,24.408391,0.0 121.004598,24.414349,0.0 121.010952,24.424267,0.0 121.01325,24.428243,0.0 121.017643,24.4348,0.0 121.018173,24.445467,0.0 120.999543,24.444773,0.0 120.999168,24.44508,0.0</coordinates></LinearRing></outerBoundaryIs></Polygon><styleUrl>#spolygon-map</styleUrl></Placemark><Placemark><Polygon><outerBoundaryIs><LinearRing><coordinates>120.91488,24.455026,0.0 120.914669,24.455866,0.0 120.91438,24.456002,0.0 120.911174,24.455098,0.0 120.911102,24.452938,0.0 120.910069,24.451489,0.0 120.908879,24.450455,0.0 120.907487,24.449379,0.0 120.906349,24.448239,0.0 120.905077,24.447544,0.0 120.904401,24.446751,0.0 120.905047,24.445951,0.0 120.905548,24.446025,0.0 120.906224,24.44625,0.0 120.907363,24.445806,0.0 120.908288,24.444944,0.0 120.909555,24.444008,0.0 120.910494,24.441886,0.0 120.911468,24.439732,0.0 120.912746,24.436904,0.0 120.91271,24.435185,0.0 120.912044,24.433662,0.0 120.91243,24.43358,0.0 120.912464,24.433533,0.0 120.91249,24.433353,0.0 120.913114,24.433733,0.0 120.913592,24.433798,0.0 120.91381,24.433801,0.0 120.914123,24.433577,0.0 120.914768,24.433262,0.0 120.914763,24.433094,0.0 120.914996,24.432866,0.0 120.915664,24.432266,0.0 120.916977,24.431675,0.0 120.917341,24.43164,0.0 120.917564,24.431768,0.0 120.917539,24.431445,0.0 120.917666,24.431203,0.0 120.918272,24.43126,0.0 120.918763,24.431317,0.0 120.918592,24.43109,0.0 120.918709,24.430817,0.0 120.918455,24.43032,0.0 120.91819,24.430066,0.0 120.918883,24.430078,0.0 120.919447,24.430688,0.0 120.92055,24.430479,0.0 120.920736,24.43118,0.0 120.92103,24.431269,0.0 120.921046,24.431456,0.0 120.921261,24.431832,0.0 120.921741,24.431948,0.0 120.922012,24.432297,0.0 120.922283,24.43273,0.0 120.922695,24.433225,0.0 120.922885,24.433374,0.0 120.923202,24.433191,0.0 120.923137,24.43347,0.0 120.923382,24.433509,0.0 120.923642,24.433004,0.0 120.924068,24.432691,0.0 120.924704,24.432541,0.0 120.924844,24.432162,0.0 120.924606,24.4317,0.0 120.924615,24.431395,0.0 120.924845,24.430871,0.0 120.925224,24.43046,0.0 120.925552,24.430461,0.0 120.928593,24.429155,0.0 120.930089,24.428662,0.0 120.930633,24.428614,0.0 120.93069,24.428334,0.0 120.930717,24.427199,0.0 120.930559,24.426817,0.0 120.930729,24.426691,0.0 120.930943,24.426624,0.0 120.931065,24.426279,0.0 120.931525,24.426163,0.0 120.932256,24.426991,0.0 120.932688,24.426746,0.0 120.93284,24.426554,0.0 120.932908,24.426565,0.0 120.932886,24.427006,0.0 120.93308,24.427477,0.0 120.933352,24.427635,0.0 120.933864,24.427637,0.0 120.934428,24.427699,0.0 120.934742,24.427726,0.0 120.935259,24.427832,0.0 120.935565,24.427575,0.0 120.935827,24.427506,0.0 120.936214,24.427645,0.0 120.936448,24.427601,0.0 120.93651,24.427165,0.0 120.936737,24.427096,0.0 120.936826,24.426839,0.0 120.937076,24.426751,0.0 120.937203,24.426671,0.0 120.937378,24.426433,0.0 120.937574,24.426463,0.0 120.937602,24.426769,0.0 120.937929,24.427215,0.0 120.937951,24.427391,0.0 120.937832,24.427375,0.0 120.937627,24.42718,0.0 120.937733,24.427724,0.0 120.937912,24.427984,0.0 120.938248,24.428074,0.0 120.938227,24.428398,0.0 120.938558,24.428339,0.0 120.938898,24.427941,0.0 120.939353,24.427696,0.0 120.939628,24.427522,0.0 120.939825,24.427635,0.0 120.939751,24.427995,0.0 120.951519,24.429143,0.0 120.958353,24.436367,0.0 120.962282,24.443832,0.0 120.970769,24.452899,0.0 120.963567,24.454469,0.0 120.956764,24.447094,0.0 120.952865,24.450417,0.0 120.948438,24.451443,0.0 120.944041,24.451577,0.0 120.936281,24.452949,0.0 120.930598,24.451171,0.0 120.924814,24.448294,0.0 120.920496,24.452334,0.0 120.919732,24.453034,0.0 120.919331,24.453529,0.0 120.918198,24.453676,0.0 120.917818,24.453908,0.0 120.917341,24.454171,0.0 120.916771,24.454408,0.0 120.916313,24.454575,0.0 120.916008,24.454695,0.0 120.916073,24.454839,0.0 120.916088,24.454974,0.0 120.91488,24.455026,0.0</coordinates></LinearRing></outerBoundaryIs></Polygon><styleUrl>#spolygon-map</styleUrl></Placemark><Placemark><Polygon><outerBoundaryIs><LinearRing><coordinates>120.954116,24.506261,0.0 120.953179,24.50666,0.0 120.951821,24.506351,0.0 120.950407,24.506498,0.0 120.949629,24.506527,0.0 120.948774,24.505933,0.0 120.947724,24.50473,0.0 120.947066,24.503749,0.0 120.94601,24.502951,0.0 120.94456,24.50303,0.0 120.943539,24.503391,0.0 120.942746,24.503018,0.0 120.94184,24.501958,0.0 120.941033,24.501142,0.0 120.94026,24.500174,0.0 120.939381,24.499331,0.0 120.938076,24.498856,0.0 120.936662,24.498413,0.0 120.935202,24.497819,0.0 120.933532,24.497201,0.0 120.932601,24.496878,0.0 120.93126,24.49749,0.0 120.930194,24.497906,0.0 120.929705,24.497902,0.0 120.928998,24.497227,0.0 120.927834,24.496776,0.0 120.92715,24.496482,0.0 120.926754,24.496273,0.0 120.925785,24.496222,0.0 120.924995,24.496114,0.0 120.924244,24.496116,0.0 120.923224,24.495812,0.0 120.922929,24.495715,0.0 120.922092,24.495613,0.0 120.921326,24.495555,0.0 120.92101,24.494737,0.0 120.920596,24.49353,0.0 120.920276,24.492927,0.0 120.919923,24.492245,0.0 120.919814,24.491436,0.0 120.919524,24.490794,0.0 120.919214,24.49024,0.0 120.919605,24.489533,0.0 120.919506,24.488811,0.0 120.919817,24.487922,0.0 120.92018,24.487372,0.0 120.920398,24.486863,0.0 120.920505,24.485922,0.0 120.920628,24.484979,0.0 120.920766,24.484247,0.0 120.920504,24.483395,0.0 120.920533,24.482513,0.0 120.921158,24.481976,0.0 120.921809,24.481264,0.0 120.921648,24.480525,0.0 120.92118,24.479429,0.0 120.920293,24.478731,0.0 120.919742,24.477915,0.0 120.919253,24.476832,0.0 120.918339,24.476049,0.0 120.917325,24.475489,0.0 120.916801,24.47432,0.0 120.916445,24.473707,0.0 120.916556,24.472943,0.0 120.916642,24.47152,0.0 120.916453,24.470496,0.0 120.916409,24.469336,0.0 120.916085,24.468211,0.0 120.91552,24.467699,0.0 120.915081,24.467666,0.0 120.914893,24.467465,0.0 120.915428,24.466893,0.0 120.916251,24.466194,0.0 120.919741,24.46732,0.0 120.923254,24.471044,0.0 120.933856,24.479147,0.0 120.941056,24.485315,0.0 120.948227,24.484804,0.0 120.962766,24.485352,0.0 120.969274,24.490158,0.0 120.977501,24.499739,0.0 120.978097,24.502186,0.0 120.975447,24.503077,0.0 120.972946,24.503917,0.0 120.970478,24.505156,0.0 120.968218,24.505788,0.0 120.966386,24.506403,0.0 120.964917,24.505754,0.0 120.963123,24.504488,0.0 120.96069,24.50452,0.0 120.958101,24.50491,0.0 120.956858,24.504985,0.0 120.955798,24.504813,0.0 120.954712,24.50497,0.0 120.954192,24.505971,0.0 120.954116,24.506261,0.0</coordinates></LinearRing></outerBoundaryIs></Polygon><styleUrl>#spolygon-map</styleUrl></Placemark><Placemark><Polygon><outerBoundaryIs><LinearRing><coordinates>121.067705,24.495623,0.0 121.06624,24.495265,0.0 121.065069,24.496316,0.0 121.063474,24.496528,0.0 121.061651,24.496914,0.0 121.060272,24.498214,0.0 121.059037,24.499942,0.0 121.05811,24.500349,0.0 121.05732,24.498754,0.0 121.055669,24.496992,0.0 121.052954,24.497038,0.0 121.050877,24.497262,0.0 121.048981,24.496744,0.0 121.046832,24.495915,0.0 121.042949,24.495035,0.0 121.039545,24.49407,0.0 121.03813,24.493323,0.0 121.035591,24.493114,0.0 121.033352,24.492437,0.0 121.031526,24.492213,0.0 121.029855,24.492819,0.0 121.027675,24.492545,0.0 121.026374,24.493367,0.0 121.025655,24.49602,0.0 121.025807,24.498233,0.0 121.025483,24.499272,0.0 121.024041,24.5015,0.0 121.022534,24.502324,0.0 121.021387,24.50329,0.0 121.021244,24.505564,0.0 121.019919,24.507316,0.0 121.017899,24.508221,0.0 121.016556,24.508778,0.0 121.015015,24.509594,0.0 121.012951,24.510289,0.0 121.011285,24.510387,0.0 121.009678,24.5103,0.0 121.008184,24.509409,0.0 121.006235,24.508548,0.0 121.004521,24.506941,0.0 121.002827,24.505959,0.0 121.001274,24.50464,0.0 120.999447,24.502351,0.0 120.997436,24.501744,0.0 120.995459,24.50171,0.0 120.993103,24.50114,0.0 120.990744,24.50116,0.0 120.9888,24.502281,0.0 120.986591,24.502382,0.0 120.984409,24.502435,0.0 120.982636,24.502161,0.0 120.979283,24.50185,0.0 120.971223,24.491971,0.0 120.966121,24.488273,0.0 120.954538,24.485591,0.0 120.942873,24.485648,0.0 120.935606,24.481656,0.0 120.92688,24.473496,0.0 120.921537,24.46926,0.0 120.916509,24.465466,0.0 120.915828,24.464634,0.0 120.914738,24.463511,0.0 120.913605,24.462294,0.0 120.912841,24.460822,0.0 120.912253,24.45959,0.0 120.911514,24.457806,0.0 120.911217,24.456098,0.0 120.914594,24.455976,0.0 120.914745,24.455432,0.0 120.91581,24.455008,0.0 120.9161,24.454906,0.0 120.916004,24.454748,0.0 120.916093,24.454616,0.0 120.916479,24.454541,0.0 120.917146,24.454305,0.0 120.917662,24.453988,0.0 120.917855,24.453864,0.0 120.918952,24.453563,0.0 120.919404,24.453473,0.0 120.920046,24.452802,0.0 120.922077,24.449326,0.0 120.928752,24.450197,0.0 120.933513,24.452191,0.0 120.939577,24.452192,0.0 120.946654,24.451533,0.0 120.950751,24.451957,0.0 120.955145,24.448212,0.0 120.960991,24.453773,0.0 120.971628,24.453715,0.0 120.97817,24.448942,0.0 120.988278,24.448973,0.0 120.998023,24.447433,0.0 121.007801,24.447825,0.0 121.025111,24.447007,0.0 121.032909,24.455497,0.0 121.041171,24.465618,0.0 121.046877,24.473705,0.0 121.049668,24.480906,0.0 121.055387,24.486072,0.0 121.066558,24.490902,0.0 121.06824,24.495976,0.0 121.067705,24.495623,0.0</coordinates></LinearRing></outerBoundaryIs></Polygon><styleUrl>#spolygon-map</styleUrl></Placemark><Placemark><Polygon><outerBoundaryIs><LinearRing><coordinates>121.22737,24.492911,0.0 121.225234,24.49362,0.0 121.223505,24.494393,0.0 121.222411,24.495291,0.0 121.221459,24.496391,0.0 121.220148,24.497152,0.0 121.219187,24.498008,0.0 121.218837,24.498816,0.0 121.219482,24.500005,0.0 121.22028,24.5011,0.0 121.220915,24.502362,0.0 121.221585,24.503608,0.0 121.22202,24.504941,0.0 121.222969,24.505701,0.0 121.223598,24.506513,0.0 121.222379,24.507363,0.0 121.220926,24.508,0.0 121.219802,24.508335,0.0 121.218503,24.509079,0.0 121.217385,24.509804,0.0 121.217627,24.51108,0.0 121.217519,24.512487,0.0 121.217618,24.513902,0.0 121.216744,24.515046,0.0 121.215233,24.515449,0.0 121.213976,24.514781,0.0 121.212657,24.513758,0.0 121.211253,24.51268,0.0 121.209942,24.511627,0.0 121.208576,24.511594,0.0 121.207934,24.511843,0.0 121.206867,24.512913,0.0 121.205405,24.512772,0.0 121.204467,24.512161,0.0 121.203288,24.512517,0.0 121.202601,24.511883,0.0 121.201214,24.511576,0.0 121.19968,24.510786,0.0 121.198937,24.509779,0.0 121.19795,24.50874,0.0 121.196782,24.507873,0.0 121.195421,24.507081,0.0 121.194276,24.507049,0.0 121.192566,24.507333,0.0 121.191258,24.507332,0.0 121.189854,24.50661,0.0 121.188566,24.506175,0.0 121.187344,24.505701,0.0 121.186556,24.505521,0.0 121.18547,24.506062,0.0 121.184238,24.506636,0.0 121.183555,24.507597,0.0 121.182267,24.507989,0.0 121.180631,24.507989,0.0 121.179131,24.507896,0.0 121.17748,24.50747,0.0 121.176652,24.506506,0.0 121.175252,24.505175,0.0 121.173793,24.504774,0.0 121.172172,24.504602,0.0 121.171103,24.50412,0.0 121.170214,24.503824,0.0 121.16946,24.502764,0.0 121.167999,24.502802,0.0 121.165677,24.503368,0.0 121.163727,24.503555,0.0 121.161783,24.503511,0.0 121.159759,24.50449,0.0 121.158134,24.505122,0.0 121.157072,24.506094,0.0 121.15502,24.506799,0.0 121.153519,24.506632,0.0 121.150963,24.506138,0.0 121.149539,24.506872,0.0 121.148166,24.507992,0.0 121.146871,24.508945,0.0 121.145696,24.510173,0.0 121.145123,24.511468,0.0 121.14439,24.511542,0.0 121.14321,24.510675,0.0 121.141802,24.509681,0.0 121.140386,24.508703,0.0 121.138843,24.507691,0.0 121.13735,24.506789,0.0 121.135327,24.506652,0.0 121.132599,24.506765,0.0 121.130233,24.506664,0.0 121.128936,24.507164,0.0 121.12745,24.508256,0.0 121.12597,24.508289,0.0 121.124816,24.508968,0.0 121.123699,24.510075,0.0 121.122693,24.509741,0.0 121.120729,24.508355,0.0 121.11839,24.508471,0.0 121.116436,24.508148,0.0 121.114646,24.507241,0.0 121.113226,24.506327,0.0 121.112299,24.505003,0.0 121.111098,24.503543,0.0 121.110355,24.502717,0.0 121.109509,24.501779,0.0 121.108611,24.500821,0.0 121.107053,24.500662,0.0 121.105559,24.500668,0.0 121.104761,24.500008,0.0 121.103257,24.499249,0.0 121.102649,24.498419,0.0 121.101348,24.498417,0.0 121.100009,24.498075,0.0 121.098516,24.496619,0.0 121.096199,24.496384,0.0 121.093315,24.497046,0.0 121.091581,24.497608,0.0 121.090128,24.498097,0.0 121.087975,24.499322,0.0 121.087135,24.50034,0.0 121.085553,24.501308,0.0 121.082457,24.500581,0.0 121.08079,24.499816,0.0 121.078917,24.499069,0.0 121.077238,24.499149,0.0 121.075219,24.49943,0.0 121.073413,24.498927,0.0 121.071139,24.497724,0.0 121.069703,24.496645,0.0 121.067484,24.492412,0.0 121.057535,24.486252,0.0 121.049801,24.481692,0.0 121.047121,24.473896,0.0 121.043451,24.467431,0.0 121.033207,24.456646,0.0 121.025111,24.447219,0.0 121.017643,24.4348,0.0 121.01325,24.428243,0.0 121.010952,24.424267,0.0 121.004598,24.414349,0.0 121.002911,24.408391,0.0 120.999014,24.409297,0.0 120.995611,24.409478,0.0 120.989867,24.407272,0.0 120.984121,24.407272,0.0 120.974701,24.406612,0.0 120.970483,24.401498,0.0 120.964931,24.40103,0.0 120.955401,24.396431,0.0 120.951698,24.392125,0.0 120.948926,24.388196,0.0 120.950661,24.38365,0.0 120.95583,24.381247,0.0 120.958557,24.375789,0.0 120.964942,24.376415,0.0 120.979237,24.383127,0.0 120.99175,24.384336,0.0 120.998453,24.390622,0.0 121.009679,24.391196,0.0 121.009646,24.384487,0.0 121.000863,24.367384,0.0 121.000169,24.360827,0.0 121.005797,24.345321,0.0 121.008883,24.341245,0.0 121.007298,24.332058,0.0 121.007876,24.327289,0.0 121.010272,24.325055,0.0 121.011828,24.323583,0.0 121.014264,24.320336,0.0 121.015898,24.317159,0.0 121.017557,24.312094,0.0 121.020764,24.308943,0.0 121.026981,24.306326,0.0 121.031257,24.302559,0.0 121.03311,24.298824,0.0 121.038129,24.296379,0.0 121.045438,24.29537,0.0 121.046749,24.296042,0.0 121.048381,24.296063,0.0 121.049568,24.29628,0.0 121.052096,24.299011,0.0 121.052072,24.301212,0.0 121.052529,24.304041,0.0 121.052897,24.304888,0.0 121.053912,24.306049,0.0 121.054119,24.306765,0.0 121.055045,24.308232,0.0 121.05535,24.3104,0.0 121.056826,24.310892,0.0 121.058025,24.31234,0.0 121.060897,24.313118,0.0 121.063183,24.314398,0.0 121.066016,24.315654,0.0 121.070024,24.315665,0.0 121.071012,24.316885,0.0 121.072007,24.317331,0.0 121.072438,24.318206,0.0 121.073602,24.31882,0.0 121.073691,24.320866,0.0 121.075303,24.322604,0.0 121.079711,24.323393,0.0 121.082062,24.323183,0.0 121.083305,24.32139,0.0 121.085457,24.318967,0.0 121.087505,24.317539,0.0 121.088414,24.318408,0.0 121.091922,24.318629,0.0 121.095055,24.320755,0.0 121.095163,24.321669,0.0 121.095709,24.322567,0.0 121.098051,24.323629,0.0 121.101063,24.324177,0.0 121.10261,24.324926,0.0 121.103296,24.32592,0.0 121.10359,24.326557,0.0 121.104257,24.327209,0.0 121.105551,24.328273,0.0 121.107284,24.329617,0.0 121.108298,24.330841,0.0 121.113297,24.329195,0.0 121.117136,24.329551,0.0 121.121186,24.330594,0.0 121.121546,24.333478,0.0 121.121796,24.335222,0.0 121.123323,24.339078,0.0 121.125154,24.341906,0.0 121.127413,24.341658,0.0 121.129645,24.343754,0.0 121.1308,24.347131,0.0 121.13131,24.34862,0.0 121.131128,24.348985,0.0 121.131337,24.349458,0.0 121.132057,24.349938,0.0 121.133496,24.351607,0.0 121.135988,24.352766,0.0 121.137066,24.353964,0.0 121.137671,24.354973,0.0 121.137639,24.355529,0.0 121.138841,24.357168,0.0 121.140857,24.359583,0.0 121.144343,24.358233,0.0 121.147932,24.357892,0.0 121.150573,24.358622,0.0 121.153503,24.358918,0.0 121.155818,24.359127,0.0 121.159412,24.360797,0.0 121.166479,24.360604,0.0 121.168827,24.363346,0.0 121.172131,24.36663,0.0 121.173932,24.368827,0.0 121.173015,24.371748,0.0 121.176967,24.376663,0.0 121.182446,24.380239,0.0 121.187773,24.381368,0.0 121.190895,24.383569,0.0 121.195305,24.390024,0.0 121.197113,24.396404,0.0 121.203763,24.397702,0.0 121.208736,24.396584,0.0 121.210816,24.39504,0.0 121.210597,24.390733,0.0 121.213456,24.384025,0.0 121.213639,24.381712,0.0 121.21681,24.380501,0.0 121.220569,24.381632,0.0 121.224353,24.382652,0.0 121.227847,24.383166,0.0 121.23186,24.383858,0.0 121.231617,24.387606,0.0 121.234633,24.391125,0.0 121.234968,24.392056,0.0 121.234949,24.393286,0.0 121.234614,24.396219,0.0 121.235407,24.398133,0.0 121.237096,24.399649,0.0 121.238085,24.400543,0.0 121.238979,24.402278,0.0 121.241688,24.40431,0.0 121.243568,24.405718,0.0 121.242903,24.409081,0.0 121.243062,24.412085,0.0 121.241987,24.414095,0.0 121.243113,24.415542,0.0 121.2433,24.418756,0.0 121.245651,24.422352,0.0 121.249146,24.423793,0.0 121.252242,24.424959,0.0 121.257981,24.425426,0.0 121.258939,24.440724,0.0 121.260925,24.442825,0.0 121.261514,24.443895,0.0 121.261447,24.444693,0.0 121.26089,24.445681,0.0 121.261336,24.446449,0.0 121.26189,24.447222,0.0 121.262195,24.448032,0.0 121.26076,24.449815,0.0 121.260829,24.452209,0.0 121.262344,24.454668,0.0 121.261515,24.45598,0.0 121.259569,24.456582,0.0 121.258101,24.457312,0.0 121.258045,24.459029,0.0 121.257969,24.463353,0.0 121.25599,24.464132,0.0 121.253115,24.464517,0.0 121.25118,24.465273,0.0 121.249796,24.465651,0.0 121.248,24.467193,0.0 121.246913,24.468287,0.0 121.245739,24.469229,0.0 121.244406,24.470272,0.0 121.244464,24.472338,0.0 121.244129,24.474351,0.0 121.243569,24.476582,0.0 121.242686,24.47815,0.0 121.240874,24.479261,0.0 121.238983,24.480718,0.0 121.237723,24.481792,0.0 121.235744,24.483063,0.0 121.23463,24.484239,0.0 121.234603,24.485979,0.0 121.234583,24.487872,0.0 121.23343,24.487456,0.0 121.231465,24.488207,0.0 121.229752,24.489116,0.0 121.229658,24.490122,0.0 121.229159,24.49135,0.0 121.228348,24.492577,0.0 121.22737,24.492911,0.0</coordinates></LinearRing></outerBoundaryIs></Polygon><styleUrl>#spolygon-map</styleUrl></Placemark></Document>
</kml>
