<?xml version="1.0" encoding="UTF-8"?>
<kml xmlns="http://www.opengis.net/kml/2.2">
	<Document>
		<name>雲林縣大埤鄉</name>
		<Style id="spolygon">
			<LabelStyle>
				<scale>0.0</scale>
			</LabelStyle>
			<LineStyle>
				<color>330030ff</color>
				<width>0</width>
			</LineStyle>
			<PolyStyle>
				<color>330030ff</color>
			</PolyStyle>
		</Style>
		<StyleMap id="spolygon-map">
			<Pair>
				<key>normal</key>
				<styleUrl>#spolygon</styleUrl>
			</Pair>
		</StyleMap>
	<Placemark><Polygon><outerBoundaryIs><LinearRing><coordinates>120.43032,23.669688,0.0 120.431822,23.662711,0.0 120.436655,23.65795,0.0 120.447805,23.663297,0.0 120.458681,23.662554,0.0 120.46415,23.665632,0.0 120.46348,23.665571,0.0 120.46276,23.665643,0.0 120.461954,23.665532,0.0 120.461315,23.665266,0.0 120.460457,23.665078,0.0 120.459771,23.664829,0.0 120.459162,23.664777,0.0 120.458487,23.66484,0.0 120.458113,23.665394,0.0 120.458463,23.665818,0.0 120.458975,23.66616,0.0 120.458925,23.666792,0.0 120.459227,23.667211,0.0 120.459157,23.668019,0.0 120.458509,23.668527,0.0 120.458046,23.669022,0.0 120.457176,23.669531,0.0 120.456399,23.670246,0.0 120.455463,23.671263,0.0 120.454769,23.672141,0.0 120.453902,23.672739,0.0 120.45334,23.673121,0.0 120.452809,23.673376,0.0 120.452424,23.673553,0.0 120.451804,23.673871,0.0 120.450992,23.67413,0.0 120.450117,23.674105,0.0 120.44928,23.67395,0.0 120.448755,23.673651,0.0 120.448635,23.673178,0.0 120.448857,23.672475,0.0 120.449537,23.672103,0.0 120.449753,23.671744,0.0 120.449403,23.671355,0.0 120.449116,23.670801,0.0 120.448973,23.669949,0.0 120.449434,23.669635,0.0 120.448897,23.669326,0.0 120.448343,23.668924,0.0 120.447537,23.668797,0.0 120.44695,23.668807,0.0 120.44637,23.669127,0.0 120.446071,23.66981,0.0 120.446534,23.670338,0.0 120.44693,23.670868,0.0 120.446884,23.671556,0.0 120.446776,23.67223,0.0 120.446651,23.672952,0.0 120.446251,23.67336,0.0 120.445823,23.673647,0.0 120.445152,23.673787,0.0 120.444668,23.673349,0.0 120.444839,23.672494,0.0 120.444956,23.671429,0.0 120.444685,23.670647,0.0 120.444266,23.670242,0.0 120.443636,23.669996,0.0 120.442959,23.669808,0.0 120.442603,23.670265,0.0 120.442254,23.670695,0.0 120.441565,23.671099,0.0 120.441027,23.671524,0.0 120.440367,23.671842,0.0 120.439598,23.671717,0.0 120.438806,23.671518,0.0 120.437931,23.671445,0.0 120.437163,23.671618,0.0 120.436482,23.672071,0.0 120.435769,23.672143,0.0 120.434956,23.671581,0.0 120.434337,23.671246,0.0 120.433439,23.670923,0.0 120.432613,23.670804,0.0 120.431916,23.670741,0.0 120.431186,23.670734,0.0 120.43032,23.669688,0.0</coordinates></LinearRing></outerBoundaryIs></Polygon><styleUrl>#spolygon-map</styleUrl></Placemark><Placemark><Polygon><outerBoundaryIs><LinearRing><coordinates>120.43524,23.641271,0.0 120.415223,23.636969,0.0 120.406473,23.628816,0.0 120.407649,23.62515,0.0 120.409738,23.625146,0.0 120.412775,23.623968,0.0 120.413789,23.623281,0.0 120.41441,23.622144,0.0 120.416099,23.621466,0.0 120.416928,23.622995,0.0 120.418663,23.624223,0.0 120.419813,23.625105,0.0 120.421,23.62443,0.0 120.421098,23.622428,0.0 120.425328,23.629735,0.0 120.436817,23.636268,0.0 120.43524,23.641271,0.0</coordinates></LinearRing></outerBoundaryIs></Polygon><styleUrl>#spolygon-map</styleUrl></Placemark><Placemark><Polygon><outerBoundaryIs><LinearRing><coordinates>120.434521,23.65847,0.0 120.425585,23.655078,0.0 120.423562,23.648285,0.0 120.434047,23.651488,0.0 120.434521,23.65847,0.0</coordinates></LinearRing></outerBoundaryIs></Polygon><styleUrl>#spolygon-map</styleUrl></Placemark><Placemark><Polygon><outerBoundaryIs><LinearRing><coordinates>120.386621,23.648493,0.0 120.386282,23.647605,0.0 120.386116,23.646803,0.0 120.38534,23.644504,0.0 120.384591,23.642189,0.0 120.383879,23.639868,0.0 120.383266,23.637832,0.0 120.382581,23.636301,0.0 120.38154,23.634084,0.0 120.380727,23.632451,0.0 120.379612,23.630264,0.0 120.388633,23.630385,0.0 120.395659,23.634693,0.0 120.400426,23.643443,0.0 120.386621,23.648493,0.0</coordinates></LinearRing></outerBoundaryIs></Polygon><styleUrl>#spolygon-map</styleUrl></Placemark><Placemark><Polygon><outerBoundaryIs><LinearRing><coordinates>120.417542,23.667006,0.0 120.409994,23.65888,0.0 120.419381,23.652064,0.0 120.432988,23.657331,0.0 120.431822,23.662711,0.0 120.43032,23.669688,0.0 120.417542,23.667006,0.0</coordinates></LinearRing></outerBoundaryIs></Polygon><styleUrl>#spolygon-map</styleUrl></Placemark><Placemark><Polygon><outerBoundaryIs><LinearRing><coordinates>120.37942,23.629902,0.0 120.378321,23.62783,0.0 120.377139,23.625674,0.0 120.375975,23.623508,0.0 120.374922,23.621716,0.0 120.373659,23.619603,0.0 120.372557,23.617761,0.0 120.371767,23.616446,0.0 120.371106,23.615852,0.0 120.370242,23.615503,0.0 120.369225,23.614883,0.0 120.368685,23.613811,0.0 120.368295,23.612843,0.0 120.367933,23.611816,0.0 120.367657,23.610994,0.0 120.367164,23.609976,0.0 120.366902,23.608975,0.0 120.366548,23.607946,0.0 120.3676,23.607801,0.0 120.368629,23.608167,0.0 120.370434,23.609276,0.0 120.373259,23.609678,0.0 120.377352,23.609897,0.0 120.380128,23.610213,0.0 120.380618,23.611662,0.0 120.382562,23.612492,0.0 120.383391,23.613156,0.0 120.382721,23.614088,0.0 120.383234,23.615246,0.0 120.384119,23.617428,0.0 120.383644,23.619419,0.0 120.382122,23.625535,0.0 120.37942,23.629902,0.0</coordinates></LinearRing></outerBoundaryIs></Polygon><styleUrl>#spolygon-map</styleUrl></Placemark><Placemark><Polygon><outerBoundaryIs><LinearRing><coordinates>120.434047,23.651488,0.0 120.436413,23.640625,0.0 120.445239,23.636005,0.0 120.448991,23.629755,0.0 120.451062,23.62984,0.0 120.453638,23.630348,0.0 120.453255,23.628439,0.0 120.451067,23.627088,0.0 120.454255,23.626314,0.0 120.457768,23.627407,0.0 120.460379,23.629342,0.0 120.465434,23.629994,0.0 120.46852,23.630278,0.0 120.468281,23.631956,0.0 120.468189,23.633067,0.0 120.468412,23.634088,0.0 120.468894,23.636234,0.0 120.459542,23.638732,0.0 120.442786,23.645798,0.0 120.43425,23.651859,0.0 120.434047,23.651488,0.0</coordinates></LinearRing></outerBoundaryIs></Polygon><styleUrl>#spolygon-map</styleUrl></Placemark><Placemark><Polygon><outerBoundaryIs><LinearRing><coordinates>120.400166,23.64649,0.0 120.398911,23.637279,0.0 120.394608,23.629973,0.0 120.39449,23.624066,0.0 120.396942,23.625084,0.0 120.399396,23.625872,0.0 120.401852,23.629243,0.0 120.402201,23.63324,0.0 120.405173,23.633987,0.0 120.406439,23.631651,0.0 120.407571,23.643927,0.0 120.400166,23.64649,0.0</coordinates></LinearRing></outerBoundaryIs></Polygon><styleUrl>#spolygon-map</styleUrl></Placemark><Placemark><Polygon><outerBoundaryIs><LinearRing><coordinates>120.439224,23.639353,0.0 120.427498,23.630929,0.0 120.421127,23.621437,0.0 120.422602,23.618951,0.0 120.425618,23.618063,0.0 120.427311,23.619316,0.0 120.430326,23.618471,0.0 120.431797,23.621563,0.0 120.433247,23.622543,0.0 120.435175,23.622193,0.0 120.43715,23.62204,0.0 120.437236,23.623257,0.0 120.435476,23.624298,0.0 120.435446,23.625655,0.0 120.437588,23.626487,0.0 120.440641,23.625958,0.0 120.442236,23.628163,0.0 120.443531,23.629759,0.0 120.445203,23.630544,0.0 120.4471,23.629641,0.0 120.448014,23.632556,0.0 120.43981,23.639197,0.0 120.439224,23.639353,0.0</coordinates></LinearRing></outerBoundaryIs></Polygon><styleUrl>#spolygon-map</styleUrl></Placemark><Placemark><Polygon><outerBoundaryIs><LinearRing><coordinates>120.406869,23.648023,0.0 120.415223,23.636969,0.0 120.43524,23.641271,0.0 120.433603,23.650674,0.0 120.422099,23.648006,0.0 120.406869,23.648023,0.0</coordinates></LinearRing></outerBoundaryIs></Polygon><styleUrl>#spolygon-map</styleUrl></Placemark><Placemark><Polygon><outerBoundaryIs><LinearRing><coordinates>120.434521,23.65847,0.0 120.437497,23.647686,0.0 120.445333,23.645308,0.0 120.466819,23.637017,0.0 120.469335,23.638331,0.0 120.469767,23.640393,0.0 120.47026,23.642621,0.0 120.470679,23.64453,0.0 120.47114,23.646588,0.0 120.471466,23.648076,0.0 120.471869,23.650037,0.0 120.47227,23.651973,0.0 120.472487,23.653012,0.0 120.471313,23.655203,0.0 120.45981,23.655856,0.0 120.454768,23.65861,0.0 120.447108,23.663042,0.0 120.435731,23.658055,0.0 120.434521,23.65847,0.0</coordinates></LinearRing></outerBoundaryIs></Polygon><styleUrl>#spolygon-map</styleUrl></Placemark><Placemark><Polygon><outerBoundaryIs><LinearRing><coordinates>120.383353,23.629942,0.0 120.382347,23.620371,0.0 120.384704,23.618505,0.0 120.385789,23.620369,0.0 120.388392,23.621465,0.0 120.39239,23.622388,0.0 120.39219,23.623462,0.0 120.393149,23.624211,0.0 120.39466,23.628407,0.0 120.387516,23.630232,0.0 120.383353,23.629942,0.0</coordinates></LinearRing></outerBoundaryIs></Polygon><styleUrl>#spolygon-map</styleUrl></Placemark><Placemark><Polygon><outerBoundaryIs><LinearRing><coordinates>120.407343,23.668608,0.0 120.40596,23.667716,0.0 120.404727,23.666923,0.0 120.403795,23.666328,0.0 120.402741,23.665654,0.0 120.401658,23.66497,0.0 120.400588,23.664284,0.0 120.399541,23.663628,0.0 120.398833,23.663169,0.0 120.398319,23.662767,0.0 120.397812,23.66221,0.0 120.397249,23.661569,0.0 120.396664,23.660899,0.0 120.395982,23.660192,0.0 120.394793,23.65907,0.0 120.39364,23.657995,0.0 120.39197,23.656372,0.0 120.390261,23.65456,0.0 120.389012,23.653169,0.0 120.387759,23.651764,0.0 120.387242,23.650344,0.0 120.386756,23.648891,0.0 120.397751,23.646254,0.0 120.409994,23.65888,0.0 120.417542,23.667006,0.0 120.407402,23.668647,0.0 120.407343,23.668608,0.0</coordinates></LinearRing></outerBoundaryIs></Polygon><styleUrl>#spolygon-map</styleUrl></Placemark><Placemark><Polygon><outerBoundaryIs><LinearRing><coordinates>120.4545,23.662829,0.0 120.456688,23.656703,0.0 120.46841,23.656204,0.0 120.473085,23.655875,0.0 120.47358,23.658195,0.0 120.474052,23.660402,0.0 120.474424,23.662184,0.0 120.474183,23.662495,0.0 120.473531,23.662709,0.0 120.472832,23.663036,0.0 120.472046,23.663282,0.0 120.471407,23.663709,0.0 120.471172,23.664446,0.0 120.471117,23.66494,0.0 120.47076,23.665648,0.0 120.470314,23.666222,0.0 120.46958,23.666294,0.0 120.469168,23.666613,0.0 120.468487,23.666685,0.0 120.467963,23.66711,0.0 120.46742,23.667404,0.0 120.466948,23.667405,0.0 120.466437,23.667207,0.0 120.46651,23.666518,0.0 120.466566,23.665771,0.0 120.466427,23.665179,0.0 120.465823,23.664735,0.0 120.465212,23.664807,0.0 120.464781,23.665255,0.0 120.458156,23.662507,0.0 120.4545,23.662829,0.0</coordinates></LinearRing></outerBoundaryIs></Polygon><styleUrl>#spolygon-map</styleUrl></Placemark><Placemark><Polygon><outerBoundaryIs><LinearRing><coordinates>120.416759,23.679538,0.0 120.415808,23.677939,0.0 120.414877,23.676303,0.0 120.414019,23.674823,0.0 120.413324,23.673636,0.0 120.412765,23.672848,0.0 120.411917,23.671644,0.0 120.410258,23.670543,0.0 120.408409,23.669294,0.0 120.408332,23.667838,0.0 120.424839,23.668381,0.0 120.430313,23.670742,0.0 120.429545,23.670847,0.0 120.428984,23.67122,0.0 120.429249,23.671853,0.0 120.428978,23.67224,0.0 120.428595,23.672704,0.0 120.428615,23.673244,0.0 120.428447,23.67378,0.0 120.428087,23.674318,0.0 120.427021,23.674454,0.0 120.425971,23.674238,0.0 120.424833,23.673848,0.0 120.423572,23.673509,0.0 120.422506,23.673415,0.0 120.42179,23.673728,0.0 120.421491,23.674165,0.0 120.421355,23.674743,0.0 120.421158,23.675485,0.0 120.420487,23.67613,0.0 120.419729,23.676843,0.0 120.41909,23.677414,0.0 120.418291,23.678144,0.0 120.417381,23.678951,0.0 120.416759,23.679538,0.0</coordinates></LinearRing></outerBoundaryIs></Polygon><styleUrl>#spolygon-map</styleUrl></Placemark></Document>
</kml>
