<?xml version="1.0" encoding="UTF-8"?>
<kml xmlns="http://www.opengis.net/kml/2.2">
	<Document>
		<name>高雄市路竹區</name>
		<Style id="spolygon">
			<LabelStyle>
				<scale>0.0</scale>
			</LabelStyle>
			<LineStyle>
				<color>330030ff</color>
				<width>0</width>
			</LineStyle>
			<PolyStyle>
				<color>330030ff</color>
			</PolyStyle>
		</Style>
		<StyleMap id="spolygon-map">
			<Pair>
				<key>normal</key>
				<styleUrl>#spolygon</styleUrl>
			</Pair>
		</StyleMap>
	<Placemark><Polygon><outerBoundaryIs><LinearRing><coordinates>120.225805,22.872803,0.0 120.225751,22.870405,0.0 120.226537,22.866908,0.0 120.227417,22.862372,0.0 120.227726,22.859664,0.0 120.227434,22.858137,0.0 120.228296,22.855127,0.0 120.229531,22.853194,0.0 120.229609,22.852149,0.0 120.230334,22.851821,0.0 120.231112,22.852098,0.0 120.232318,22.852679,0.0 120.234201,22.852738,0.0 120.234486,22.851154,0.0 120.236403,22.851595,0.0 120.237838,22.851715,0.0 120.239691,22.852378,0.0 120.240133,22.852477,0.0 120.241393,22.852824,0.0 120.241592,22.853356,0.0 120.24302,22.853561,0.0 120.242869,22.856141,0.0 120.241368,22.857461,0.0 120.240129,22.860246,0.0 120.241665,22.861797,0.0 120.241679,22.866046,0.0 120.241751,22.866593,0.0 120.241673,22.868118,0.0 120.240651,22.868398,0.0 120.240011,22.868727,0.0 120.239136,22.869479,0.0 120.237934,22.869117,0.0 120.236981,22.870557,0.0 120.235614,22.869977,0.0 120.234834,22.869661,0.0 120.233269,22.868419,0.0 120.231446,22.868404,0.0 120.230132,22.86898,0.0 120.228881,22.87052,0.0 120.2281,22.871837,0.0 120.227612,22.872392,0.0 120.226873,22.872671,0.0 120.225805,22.872803,0.0</coordinates></LinearRing></outerBoundaryIs></Polygon><styleUrl>#spolygon-map</styleUrl></Placemark><Placemark><Polygon><outerBoundaryIs><LinearRing><coordinates>120.225629,22.870951,0.0 120.224585,22.87263,0.0 120.222806,22.872285,0.0 120.222289,22.871632,0.0 120.221593,22.871096,0.0 120.220754,22.870677,0.0 120.219643,22.870649,0.0 120.218674,22.870653,0.0 120.21819,22.869989,0.0 120.217494,22.868751,0.0 120.216774,22.866993,0.0 120.217446,22.866154,0.0 120.218899,22.865204,0.0 120.220425,22.864216,0.0 120.219619,22.862835,0.0 120.219057,22.8605,0.0 120.218979,22.859118,0.0 120.218175,22.856667,0.0 120.216267,22.854479,0.0 120.214754,22.85274,0.0 120.221535,22.85085,0.0 120.224636,22.851116,0.0 120.225256,22.850965,0.0 120.225814,22.851731,0.0 120.2269,22.852389,0.0 120.228487,22.853668,0.0 120.22787,22.857882,0.0 120.227379,22.859229,0.0 120.227545,22.861244,0.0 120.226707,22.866159,0.0 120.22608,22.868942,0.0 120.225629,22.870951,0.0</coordinates></LinearRing></outerBoundaryIs></Polygon><styleUrl>#spolygon-map</styleUrl></Placemark><Placemark><Polygon><outerBoundaryIs><LinearRing><coordinates>120.229562,22.852966,0.0 120.228543,22.853196,0.0 120.22687,22.852359,0.0 120.22597,22.851296,0.0 120.225163,22.850931,0.0 120.22459,22.851177,0.0 120.22143,22.850847,0.0 120.214081,22.851969,0.0 120.215493,22.84987,0.0 120.218164,22.848176,0.0 120.219125,22.847262,0.0 120.220873,22.846366,0.0 120.222903,22.845775,0.0 120.223857,22.845346,0.0 120.224868,22.843136,0.0 120.225744,22.841231,0.0 120.229034,22.841434,0.0 120.228902,22.842224,0.0 120.229343,22.84191,0.0 120.23002,22.841321,0.0 120.230305,22.84081,0.0 120.230855,22.840316,0.0 120.231381,22.83968,0.0 120.231918,22.838985,0.0 120.233245,22.83945,0.0 120.234669,22.839707,0.0 120.236199,22.839997,0.0 120.234532,22.842005,0.0 120.233711,22.843637,0.0 120.233954,22.844226,0.0 120.237205,22.84604,0.0 120.237558,22.847589,0.0 120.236979,22.848724,0.0 120.236537,22.850435,0.0 120.235421,22.851382,0.0 120.234224,22.851918,0.0 120.232896,22.852659,0.0 120.231128,22.852563,0.0 120.23059,22.851915,0.0 120.229928,22.851579,0.0 120.229719,22.8527,0.0 120.229562,22.852966,0.0</coordinates></LinearRing></outerBoundaryIs></Polygon><styleUrl>#spolygon-map</styleUrl></Placemark><Placemark><Polygon><outerBoundaryIs><LinearRing><coordinates>120.24344,22.852577,0.0 120.24241,22.853452,0.0 120.241312,22.853194,0.0 120.240787,22.852679,0.0 120.239936,22.852501,0.0 120.239306,22.852103,0.0 120.236947,22.851667,0.0 120.236676,22.849853,0.0 120.237104,22.848733,0.0 120.237567,22.847489,0.0 120.23668,22.845767,0.0 120.233838,22.843988,0.0 120.233716,22.843613,0.0 120.234671,22.841748,0.0 120.236644,22.839547,0.0 120.237949,22.838637,0.0 120.238957,22.837238,0.0 120.239027,22.836292,0.0 120.239635,22.835475,0.0 120.240538,22.834624,0.0 120.240681,22.833555,0.0 120.240795,22.832221,0.0 120.241109,22.831543,0.0 120.241934,22.83168,0.0 120.242706,22.831438,0.0 120.24304,22.830757,0.0 120.243466,22.829247,0.0 120.244785,22.829434,0.0 120.246323,22.829391,0.0 120.24714,22.829296,0.0 120.247717,22.829518,0.0 120.25031,22.829035,0.0 120.256153,22.832079,0.0 120.247916,22.839842,0.0 120.248003,22.846166,0.0 120.244769,22.843995,0.0 120.244377,22.84654,0.0 120.243601,22.851539,0.0 120.24344,22.852577,0.0</coordinates></LinearRing></outerBoundaryIs></Polygon><styleUrl>#spolygon-map</styleUrl></Placemark><Placemark><Polygon><outerBoundaryIs><LinearRing><coordinates>120.268458,22.838857,0.0 120.264169,22.839065,0.0 120.264032,22.83375,0.0 120.256153,22.832079,0.0 120.256662,22.828918,0.0 120.253888,22.826655,0.0 120.254837,22.82504,0.0 120.25625,22.824767,0.0 120.258117,22.824446,0.0 120.260414,22.823698,0.0 120.262762,22.823373,0.0 120.265062,22.823056,0.0 120.266391,22.8228,0.0 120.267479,22.821636,0.0 120.266866,22.821206,0.0 120.266884,22.820321,0.0 120.267759,22.820194,0.0 120.268856,22.82026,0.0 120.269635,22.820284,0.0 120.270985,22.820074,0.0 120.271665,22.819452,0.0 120.27232,22.819005,0.0 120.272995,22.81846,0.0 120.273784,22.817754,0.0 120.274396,22.817075,0.0 120.274872,22.816658,0.0 120.276026,22.816676,0.0 120.27714,22.816724,0.0 120.277781,22.816854,0.0 120.278686,22.816777,0.0 120.279591,22.817022,0.0 120.280162,22.817601,0.0 120.280404,22.818394,0.0 120.281235,22.818456,0.0 120.282263,22.818484,0.0 120.28298,22.818593,0.0 120.283483,22.818866,0.0 120.283778,22.82019,0.0 120.28393,22.821196,0.0 120.283837,22.8226,0.0 120.283761,22.823453,0.0 120.282805,22.824311,0.0 120.282113,22.824468,0.0 120.281108,22.825105,0.0 120.28074,22.825642,0.0 120.2809,22.826551,0.0 120.280642,22.827349,0.0 120.279538,22.828473,0.0 120.279353,22.828923,0.0 120.280165,22.829862,0.0 120.277725,22.828379,0.0 120.275099,22.828884,0.0 120.273705,22.829512,0.0 120.273338,22.830777,0.0 120.271839,22.833817,0.0 120.27226,22.835054,0.0 120.272954,22.836098,0.0 120.273674,22.83649,0.0 120.273437,22.837656,0.0 120.273044,22.837993,0.0 120.271104,22.838512,0.0 120.268458,22.838857,0.0</coordinates></LinearRing></outerBoundaryIs></Polygon><styleUrl>#spolygon-map</styleUrl></Placemark><Placemark><Polygon><outerBoundaryIs><LinearRing><coordinates>120.256556,22.873738,0.0 120.256381,22.872279,0.0 120.257402,22.869516,0.0 120.257779,22.869075,0.0 120.258286,22.869179,0.0 120.257988,22.86804,0.0 120.258659,22.865672,0.0 120.26061,22.86234,0.0 120.262442,22.863502,0.0 120.264127,22.863178,0.0 120.266599,22.863384,0.0 120.266663,22.864702,0.0 120.266811,22.865608,0.0 120.267007,22.866546,0.0 120.266816,22.867381,0.0 120.266565,22.868129,0.0 120.267762,22.869439,0.0 120.267062,22.870351,0.0 120.265458,22.871316,0.0 120.264557,22.871326,0.0 120.259147,22.873246,0.0 120.256556,22.873738,0.0</coordinates></LinearRing></outerBoundaryIs></Polygon><styleUrl>#spolygon-map</styleUrl></Placemark><Placemark><Polygon><outerBoundaryIs><LinearRing><coordinates>120.274041,22.895252,0.0 120.271549,22.895988,0.0 120.2689,22.897186,0.0 120.266926,22.89852,0.0 120.264743,22.899431,0.0 120.261633,22.901153,0.0 120.258975,22.901885,0.0 120.257499,22.901201,0.0 120.256859,22.899744,0.0 120.257081,22.898802,0.0 120.258767,22.896866,0.0 120.258961,22.894973,0.0 120.259228,22.894179,0.0 120.259529,22.893269,0.0 120.259815,22.892566,0.0 120.260223,22.891775,0.0 120.260537,22.891217,0.0 120.260869,22.890697,0.0 120.260639,22.889881,0.0 120.260688,22.889222,0.0 120.260155,22.888619,0.0 120.261282,22.887809,0.0 120.261083,22.886717,0.0 120.262188,22.885199,0.0 120.263647,22.884686,0.0 120.263924,22.883626,0.0 120.264033,22.882695,0.0 120.26372,22.88051,0.0 120.268628,22.880147,0.0 120.270359,22.878477,0.0 120.270344,22.875407,0.0 120.270324,22.872792,0.0 120.271299,22.872664,0.0 120.27179,22.871944,0.0 120.272268,22.871357,0.0 120.273647,22.871575,0.0 120.27458,22.871658,0.0 120.277811,22.87058,0.0 120.281311,22.869382,0.0 120.282048,22.87045,0.0 120.282578,22.871243,0.0 120.282255,22.873775,0.0 120.277917,22.883018,0.0 120.277124,22.888584,0.0 120.274041,22.895252,0.0</coordinates></LinearRing></outerBoundaryIs></Polygon><styleUrl>#spolygon-map</styleUrl></Placemark><Placemark><Polygon><outerBoundaryIs><LinearRing><coordinates>120.260398,22.888213,0.0 120.259698,22.887625,0.0 120.259636,22.886234,0.0 120.259292,22.885402,0.0 120.258106,22.88532,0.0 120.256052,22.884904,0.0 120.254138,22.884409,0.0 120.2528,22.882728,0.0 120.252441,22.882015,0.0 120.252638,22.880027,0.0 120.252901,22.87806,0.0 120.252792,22.876569,0.0 120.256556,22.873738,0.0 120.2607,22.872908,0.0 120.26511,22.871317,0.0 120.265989,22.871461,0.0 120.267417,22.870167,0.0 120.268686,22.869572,0.0 120.270255,22.867828,0.0 120.271765,22.867394,0.0 120.272587,22.866761,0.0 120.273341,22.866363,0.0 120.274536,22.866095,0.0 120.275408,22.865907,0.0 120.275935,22.866025,0.0 120.276721,22.866069,0.0 120.277102,22.866084,0.0 120.277485,22.865978,0.0 120.27811,22.865773,0.0 120.278917,22.865668,0.0 120.279836,22.865688,0.0 120.280699,22.865487,0.0 120.281203,22.866259,0.0 120.281763,22.867544,0.0 120.28136,22.868714,0.0 120.278824,22.870228,0.0 120.275094,22.871485,0.0 120.274283,22.871698,0.0 120.272926,22.871452,0.0 120.271717,22.871713,0.0 120.271597,22.87264,0.0 120.270727,22.872715,0.0 120.270337,22.874289,0.0 120.270353,22.877138,0.0 120.270352,22.880091,0.0 120.265488,22.880283,0.0 120.264188,22.882508,0.0 120.263847,22.882974,0.0 120.264025,22.884663,0.0 120.262447,22.884776,0.0 120.262173,22.886307,0.0 120.26149,22.887338,0.0 120.260398,22.888213,0.0</coordinates></LinearRing></outerBoundaryIs></Polygon><styleUrl>#spolygon-map</styleUrl></Placemark><Placemark><Polygon><outerBoundaryIs><LinearRing><coordinates>120.288684,22.870591,0.0 120.282578,22.871243,0.0 120.282048,22.87045,0.0 120.281311,22.869382,0.0 120.281514,22.86836,0.0 120.281574,22.866969,0.0 120.280632,22.865859,0.0 120.281598,22.865382,0.0 120.285407,22.864478,0.0 120.286197,22.860454,0.0 120.286509,22.860815,0.0 120.286693,22.861147,0.0 120.288673,22.858237,0.0 120.289935,22.855107,0.0 120.293522,22.848495,0.0 120.297394,22.843719,0.0 120.29723,22.844551,0.0 120.297559,22.845925,0.0 120.298739,22.849224,0.0 120.300754,22.85027,0.0 120.303084,22.851291,0.0 120.304852,22.851782,0.0 120.305826,22.852441,0.0 120.305872,22.85392,0.0 120.305549,22.855047,0.0 120.305189,22.855594,0.0 120.304879,22.856645,0.0 120.304628,22.857224,0.0 120.305564,22.859113,0.0 120.306057,22.86254,0.0 120.305919,22.86414,0.0 120.30577,22.86521,0.0 120.304918,22.865734,0.0 120.303932,22.866793,0.0 120.3008,22.867798,0.0 120.294302,22.868227,0.0 120.29366,22.868351,0.0 120.291872,22.869293,0.0 120.289944,22.870116,0.0 120.288684,22.870591,0.0</coordinates></LinearRing></outerBoundaryIs></Polygon><styleUrl>#spolygon-map</styleUrl></Placemark><Placemark><Polygon><outerBoundaryIs><LinearRing><coordinates>120.278173,22.896185,0.0 120.276372,22.896039,0.0 120.27526,22.895355,0.0 120.278662,22.883403,0.0 120.27922,22.879574,0.0 120.288684,22.870591,0.0 120.290887,22.869691,0.0 120.292611,22.868965,0.0 120.293873,22.868266,0.0 120.29729,22.868031,0.0 120.303865,22.867962,0.0 120.303613,22.869171,0.0 120.303441,22.870175,0.0 120.304029,22.870733,0.0 120.303642,22.871874,0.0 120.303245,22.87282,0.0 120.303677,22.87298,0.0 120.304303,22.873098,0.0 120.304985,22.873591,0.0 120.305067,22.874569,0.0 120.30487,22.875959,0.0 120.304488,22.877029,0.0 120.304048,22.878012,0.0 120.304474,22.878623,0.0 120.304319,22.879325,0.0 120.304449,22.879987,0.0 120.304499,22.88103,0.0 120.303849,22.881704,0.0 120.302443,22.881816,0.0 120.301906,22.882391,0.0 120.301831,22.883303,0.0 120.299025,22.881726,0.0 120.292569,22.88216,0.0 120.292441,22.885221,0.0 120.291771,22.886577,0.0 120.29083,22.886424,0.0 120.290309,22.885988,0.0 120.28947,22.885537,0.0 120.288847,22.886167,0.0 120.28871,22.887099,0.0 120.289247,22.887932,0.0 120.288816,22.888693,0.0 120.288296,22.889664,0.0 120.287962,22.891066,0.0 120.287986,22.892109,0.0 120.287299,22.892316,0.0 120.286744,22.893124,0.0 120.285773,22.893183,0.0 120.284566,22.893336,0.0 120.283227,22.893262,0.0 120.281606,22.893729,0.0 120.280634,22.89384,0.0 120.279681,22.894255,0.0 120.278757,22.894486,0.0 120.278087,22.895345,0.0 120.278173,22.896185,0.0</coordinates></LinearRing></outerBoundaryIs></Polygon><styleUrl>#spolygon-map</styleUrl></Placemark><Placemark><Polygon><outerBoundaryIs><LinearRing><coordinates>120.25412,22.873754,0.0 120.255313,22.870619,0.0 120.255887,22.868034,0.0 120.256617,22.865663,0.0 120.257742,22.863243,0.0 120.259293,22.860356,0.0 120.260126,22.858947,0.0 120.26096,22.857506,0.0 120.262539,22.857755,0.0 120.263399,22.857671,0.0 120.263713,22.858284,0.0 120.262618,22.859855,0.0 120.261286,22.86174,0.0 120.259297,22.864296,0.0 120.258147,22.867004,0.0 120.258138,22.868788,0.0 120.257979,22.86913,0.0 120.257651,22.86939,0.0 120.257205,22.870059,0.0 120.256111,22.873002,0.0 120.25412,22.873754,0.0</coordinates></LinearRing></outerBoundaryIs></Polygon><styleUrl>#spolygon-map</styleUrl></Placemark><Placemark><Polygon><outerBoundaryIs><LinearRing><coordinates>120.25409,22.873512,0.0 120.251924,22.873594,0.0 120.251802,22.873011,0.0 120.251067,22.872493,0.0 120.250371,22.872198,0.0 120.248911,22.872049,0.0 120.248225,22.871527,0.0 120.246727,22.871741,0.0 120.245712,22.871858,0.0 120.244406,22.872112,0.0 120.243468,22.871629,0.0 120.2438,22.870517,0.0 120.244038,22.870105,0.0 120.244322,22.869472,0.0 120.244533,22.868913,0.0 120.24469,22.868934,0.0 120.244828,22.868689,0.0 120.244813,22.868526,0.0 120.244755,22.868402,0.0 120.244907,22.867804,0.0 120.244875,22.867569,0.0 120.245042,22.866816,0.0 120.245183,22.866749,0.0 120.245519,22.866344,0.0 120.245752,22.86642,0.0 120.245767,22.866481,0.0 120.247059,22.86581,0.0 120.248137,22.865237,0.0 120.254099,22.862305,0.0 120.255324,22.861216,0.0 120.256466,22.860616,0.0 120.257348,22.860124,0.0 120.257414,22.859151,0.0 120.257948,22.858729,0.0 120.258525,22.858102,0.0 120.259925,22.859332,0.0 120.258686,22.861489,0.0 120.257468,22.863759,0.0 120.256482,22.866046,0.0 120.255801,22.868671,0.0 120.254794,22.871887,0.0 120.25409,22.873512,0.0</coordinates></LinearRing></outerBoundaryIs></Polygon><styleUrl>#spolygon-map</styleUrl></Placemark><Placemark><Polygon><outerBoundaryIs><LinearRing><coordinates>120.244529,22.868922,0.0 120.244255,22.869628,0.0 120.244032,22.87011,0.0 120.243768,22.870585,0.0 120.243206,22.871501,0.0 120.242513,22.870728,0.0 120.241941,22.870357,0.0 120.241289,22.870013,0.0 120.241627,22.868881,0.0 120.241719,22.867417,0.0 120.241729,22.866563,0.0 120.241878,22.863401,0.0 120.240587,22.861214,0.0 120.240177,22.859776,0.0 120.241654,22.857031,0.0 120.246308,22.857302,0.0 120.251332,22.857113,0.0 120.253989,22.857379,0.0 120.255193,22.857926,0.0 120.25624,22.858252,0.0 120.257066,22.858032,0.0 120.257954,22.858903,0.0 120.257689,22.859322,0.0 120.257031,22.860009,0.0 120.255894,22.860885,0.0 120.254874,22.86144,0.0 120.250938,22.86441,0.0 120.247581,22.864934,0.0 120.246185,22.866108,0.0 120.245756,22.866458,0.0 120.245768,22.866183,0.0 120.245276,22.866641,0.0 120.245073,22.866785,0.0 120.245032,22.86685,0.0 120.244876,22.867599,0.0 120.244832,22.868131,0.0 120.244761,22.868456,0.0 120.244836,22.86856,0.0 120.244768,22.868898,0.0 120.244612,22.868918,0.0 120.244529,22.868922,0.0</coordinates></LinearRing></outerBoundaryIs></Polygon><styleUrl>#spolygon-map</styleUrl></Placemark><Placemark><Polygon><outerBoundaryIs><LinearRing><coordinates>120.257729,22.857988,0.0 120.256428,22.858252,0.0 120.255286,22.85794,0.0 120.25425,22.857409,0.0 120.251834,22.857109,0.0 120.247711,22.857225,0.0 120.241996,22.856742,0.0 120.243231,22.853833,0.0 120.243769,22.850494,0.0 120.244598,22.844963,0.0 120.246423,22.845396,0.0 120.250632,22.844806,0.0 120.254035,22.839878,0.0 120.255737,22.844358,0.0 120.25483,22.845115,0.0 120.255444,22.845479,0.0 120.256649,22.846798,0.0 120.258469,22.846574,0.0 120.259462,22.846597,0.0 120.258706,22.849386,0.0 120.257893,22.850089,0.0 120.256594,22.8513,0.0 120.255933,22.852938,0.0 120.257882,22.854491,0.0 120.25766,22.857163,0.0 120.257729,22.857988,0.0</coordinates></LinearRing></outerBoundaryIs></Polygon><styleUrl>#spolygon-map</styleUrl></Placemark><Placemark><Polygon><outerBoundaryIs><LinearRing><coordinates>120.277386,22.841665,0.0 120.273879,22.839378,0.0 120.273408,22.83978,0.0 120.27295,22.838157,0.0 120.273069,22.837636,0.0 120.273613,22.836812,0.0 120.273188,22.836305,0.0 120.272454,22.835538,0.0 120.272051,22.834735,0.0 120.272203,22.833318,0.0 120.273565,22.830019,0.0 120.274559,22.829419,0.0 120.276742,22.829009,0.0 120.279365,22.829639,0.0 120.279663,22.82915,0.0 120.27924,22.828677,0.0 120.280307,22.827844,0.0 120.280739,22.82695,0.0 120.280767,22.82597,0.0 120.281026,22.825436,0.0 120.281779,22.824448,0.0 120.282499,22.824418,0.0 120.283207,22.824202,0.0 120.284291,22.823744,0.0 120.285636,22.82436,0.0 120.286645,22.823987,0.0 120.287608,22.824425,0.0 120.289211,22.825342,0.0 120.290381,22.825864,0.0 120.291469,22.826785,0.0 120.292509,22.826835,0.0 120.293874,22.827451,0.0 120.294731,22.828617,0.0 120.295154,22.82912,0.0 120.294519,22.830255,0.0 120.293782,22.830627,0.0 120.293139,22.831771,0.0 120.292362,22.83254,0.0 120.291463,22.833308,0.0 120.292037,22.834816,0.0 120.292083,22.835796,0.0 120.292083,22.836509,0.0 120.292993,22.83711,0.0 120.293439,22.837665,0.0 120.293644,22.838415,0.0 120.291157,22.839485,0.0 120.289716,22.841533,0.0 120.286794,22.839619,0.0 120.283818,22.840067,0.0 120.282929,22.84016,0.0 120.281792,22.84108,0.0 120.277386,22.841665,0.0</coordinates></LinearRing></outerBoundaryIs></Polygon><styleUrl>#spolygon-map</styleUrl></Placemark><Placemark><Polygon><outerBoundaryIs><LinearRing><coordinates>120.266488,22.854021,0.0 120.265851,22.852476,0.0 120.265848,22.851033,0.0 120.264813,22.845762,0.0 120.263611,22.844343,0.0 120.265755,22.843608,0.0 120.266342,22.838933,0.0 120.270966,22.838638,0.0 120.272962,22.838776,0.0 120.273715,22.839773,0.0 120.274529,22.839343,0.0 120.278428,22.841284,0.0 120.282552,22.840616,0.0 120.283407,22.840142,0.0 120.284577,22.839655,0.0 120.288337,22.840775,0.0 120.287472,22.842794,0.0 120.28628,22.84369,0.0 120.281877,22.847869,0.0 120.278742,22.849451,0.0 120.277091,22.848764,0.0 120.276006,22.849062,0.0 120.272325,22.850095,0.0 120.271224,22.850896,0.0 120.270361,22.85116,0.0 120.269126,22.851692,0.0 120.266488,22.854021,0.0</coordinates></LinearRing></outerBoundaryIs></Polygon><styleUrl>#spolygon-map</styleUrl></Placemark><Placemark><Polygon><outerBoundaryIs><LinearRing><coordinates>120.270492,22.867763,0.0 120.269187,22.869593,0.0 120.268546,22.867924,0.0 120.268579,22.866915,0.0 120.268525,22.866158,0.0 120.268088,22.866052,0.0 120.267957,22.865417,0.0 120.267908,22.864762,0.0 120.268038,22.863415,0.0 120.268231,22.862179,0.0 120.268362,22.861053,0.0 120.269849,22.859175,0.0 120.270749,22.858165,0.0 120.273001,22.854902,0.0 120.274219,22.853169,0.0 120.277735,22.853212,0.0 120.278527,22.851945,0.0 120.278713,22.850135,0.0 120.278751,22.848386,0.0 120.284006,22.847247,0.0 120.286959,22.842961,0.0 120.288268,22.842039,0.0 120.291007,22.840787,0.0 120.293885,22.838667,0.0 120.294045,22.83941,0.0 120.294212,22.839921,0.0 120.294992,22.840098,0.0 120.296564,22.839929,0.0 120.298143,22.83946,0.0 120.299601,22.838918,0.0 120.29699,22.843406,0.0 120.290176,22.854548,0.0 120.289485,22.856196,0.0 120.287452,22.860519,0.0 120.286514,22.860912,0.0 120.286727,22.860464,0.0 120.285964,22.863479,0.0 120.283706,22.864642,0.0 120.280699,22.865487,0.0 120.279836,22.865688,0.0 120.278917,22.865668,0.0 120.27811,22.865773,0.0 120.277485,22.865978,0.0 120.277102,22.866084,0.0 120.276721,22.866069,0.0 120.275935,22.866025,0.0 120.275408,22.865907,0.0 120.274536,22.866095,0.0 120.273341,22.866363,0.0 120.272587,22.866761,0.0 120.271765,22.867394,0.0 120.270492,22.867763,0.0</coordinates></LinearRing></outerBoundaryIs></Polygon><styleUrl>#spolygon-map</styleUrl></Placemark><Placemark><Polygon><outerBoundaryIs><LinearRing><coordinates>120.268754,22.868582,0.0 120.267469,22.868783,0.0 120.266575,22.867644,0.0 120.267017,22.867054,0.0 120.266899,22.866103,0.0 120.266727,22.865389,0.0 120.266375,22.864243,0.0 120.26693,22.863101,0.0 120.268018,22.864223,0.0 120.267949,22.865033,0.0 120.268003,22.865919,0.0 120.268363,22.866284,0.0 120.26846,22.866664,0.0 120.268594,22.867583,0.0 120.268754,22.868582,0.0</coordinates></LinearRing></outerBoundaryIs></Polygon><styleUrl>#spolygon-map</styleUrl></Placemark><Placemark><Polygon><outerBoundaryIs><LinearRing><coordinates>120.260614,22.857671,0.0 120.258284,22.858056,0.0 120.257746,22.85666,0.0 120.257789,22.853326,0.0 120.256005,22.852796,0.0 120.256986,22.850498,0.0 120.258385,22.850261,0.0 120.259023,22.848379,0.0 120.259509,22.846241,0.0 120.258043,22.846604,0.0 120.256116,22.846812,0.0 120.255066,22.845513,0.0 120.254785,22.84478,0.0 120.256972,22.841754,0.0 120.262739,22.833186,0.0 120.263695,22.836004,0.0 120.266716,22.840499,0.0 120.265699,22.843892,0.0 120.263854,22.845211,0.0 120.2655,22.846379,0.0 120.265809,22.8519,0.0 120.265884,22.852643,0.0 120.264746,22.856812,0.0 120.263299,22.857747,0.0 120.262391,22.857709,0.0 120.260926,22.857535,0.0 120.260614,22.857671,0.0</coordinates></LinearRing></outerBoundaryIs></Polygon><styleUrl>#spolygon-map</styleUrl></Placemark><Placemark><Polygon><outerBoundaryIs><LinearRing><coordinates>120.262801,22.863217,0.0 120.261083,22.862006,0.0 120.262607,22.859871,0.0 120.263589,22.858457,0.0 120.265925,22.854978,0.0 120.269616,22.851525,0.0 120.270676,22.851094,0.0 120.271403,22.850766,0.0 120.272913,22.849653,0.0 120.276334,22.849025,0.0 120.277272,22.849822,0.0 120.278739,22.849589,0.0 120.278565,22.851525,0.0 120.277982,22.853209,0.0 120.274379,22.85268,0.0 120.273166,22.854715,0.0 120.271072,22.85748,0.0 120.270236,22.859549,0.0 120.268495,22.860679,0.0 120.268234,22.862095,0.0 120.268082,22.863361,0.0 120.266714,22.863052,0.0 120.264127,22.863178,0.0 120.262801,22.863217,0.0</coordinates></LinearRing></outerBoundaryIs></Polygon><styleUrl>#spolygon-map</styleUrl></Placemark></Document>
</kml>
