<?xml version="1.0" encoding="UTF-8"?>
<kml xmlns="http://www.opengis.net/kml/2.2">
	<Document>
		<name>高雄市茂林區</name>
		<Style id="spolygon">
			<LabelStyle>
				<scale>0.0</scale>
			</LabelStyle>
			<LineStyle>
				<color>330030ff</color>
				<width>0</width>
			</LineStyle>
			<PolyStyle>
				<color>330030ff</color>
			</PolyStyle>
		</Style>
		<StyleMap id="spolygon-map">
			<Pair>
				<key>normal</key>
				<styleUrl>#spolygon</styleUrl>
			</Pair>
		</StyleMap>
	<Placemark><Polygon><outerBoundaryIs><LinearRing><coordinates>120.675899,22.89965,0.0 120.673473,22.901779,0.0 120.663042,22.905875,0.0 120.661717,22.903413,0.0 120.659867,22.900614,0.0 120.65916,22.898229,0.0 120.657636,22.895512,0.0 120.655965,22.893767,0.0 120.654839,22.892419,0.0 120.653611,22.891015,0.0 120.651934,22.88878,0.0 120.651159,22.887171,0.0 120.65011,22.88569,0.0 120.649777,22.883655,0.0 120.649468,22.88172,0.0 120.649495,22.880063,0.0 120.649523,22.878392,0.0 120.649099,22.876967,0.0 120.651129,22.877325,0.0 120.652109,22.878784,0.0 120.65327,22.880389,0.0 120.655867,22.881619,0.0 120.65805,22.879711,0.0 120.658361,22.875275,0.0 120.659093,22.867888,0.0 120.65948,22.861921,0.0 120.662593,22.859239,0.0 120.66699,22.85891,0.0 120.669882,22.856868,0.0 120.675611,22.856909,0.0 120.678824,22.862343,0.0 120.684036,22.863514,0.0 120.690347,22.864791,0.0 120.692823,22.869081,0.0 120.698297,22.873604,0.0 120.701364,22.876484,0.0 120.699879,22.883272,0.0 120.689236,22.892633,0.0 120.6825,22.901237,0.0 120.675899,22.89965,0.0</coordinates></LinearRing></outerBoundaryIs></Polygon><styleUrl>#spolygon-map</styleUrl></Placemark><Placemark><Polygon><outerBoundaryIs><LinearRing><coordinates>120.691198,22.953088,0.0 120.68728,22.952884,0.0 120.676806,22.95003,0.0 120.672576,22.945072,0.0 120.671559,22.944126,0.0 120.671088,22.941899,0.0 120.671264,22.939592,0.0 120.671418,22.937134,0.0 120.671451,22.934928,0.0 120.671395,22.933199,0.0 120.670916,22.931798,0.0 120.670258,22.929763,0.0 120.670434,22.927415,0.0 120.670225,22.925444,0.0 120.6696,22.923196,0.0 120.669613,22.920381,0.0 120.670544,22.918482,0.0 120.669482,22.915696,0.0 120.667905,22.913222,0.0 120.666392,22.911278,0.0 120.664649,22.909271,0.0 120.663433,22.907061,0.0 120.672258,22.902796,0.0 120.675513,22.899744,0.0 120.68075,22.902295,0.0 120.678239,22.904766,0.0 120.680709,22.905629,0.0 120.684942,22.902305,0.0 120.690022,22.901378,0.0 120.69266,22.898563,0.0 120.692549,22.902376,0.0 120.690996,22.90457,0.0 120.696396,22.904267,0.0 120.699513,22.910818,0.0 120.695323,22.911124,0.0 120.692356,22.907393,0.0 120.687203,22.908717,0.0 120.686899,22.910992,0.0 120.688649,22.910837,0.0 120.690362,22.91527,0.0 120.687306,22.915729,0.0 120.686577,22.918397,0.0 120.684811,22.920725,0.0 120.68466,22.923258,0.0 120.686235,22.92572,0.0 120.687415,22.92803,0.0 120.689301,22.92988,0.0 120.690836,22.933829,0.0 120.692825,22.937335,0.0 120.693401,22.939488,0.0 120.693278,22.94128,0.0 120.693857,22.94316,0.0 120.69367,22.946087,0.0 120.691198,22.953088,0.0</coordinates></LinearRing></outerBoundaryIs></Polygon><styleUrl>#spolygon-map</styleUrl></Placemark><Placemark><Polygon><outerBoundaryIs><LinearRing><coordinates>120.737807,22.990498,0.0 120.734791,22.993166,0.0 120.731849,22.994645,0.0 120.728317,22.995991,0.0 120.726723,22.998034,0.0 120.725804,22.999768,0.0 120.725069,23.001492,0.0 120.723725,23.00216,0.0 120.721156,23.000794,0.0 120.719287,22.998849,0.0 120.716993,22.99736,0.0 120.71408,22.995571,0.0 120.712198,22.993524,0.0 120.709867,22.991535,0.0 120.706607,22.990317,0.0 120.702019,22.988491,0.0 120.695962,22.983413,0.0 120.691374,22.981844,0.0 120.687339,22.978707,0.0 120.682433,22.978156,0.0 120.675867,22.980536,0.0 120.670361,22.981628,0.0 120.665933,22.973476,0.0 120.663044,22.967421,0.0 120.665494,22.961836,0.0 120.665717,22.957394,0.0 120.668933,22.953052,0.0 120.671392,22.947264,0.0 120.682971,22.953808,0.0 120.689662,22.953753,0.0 120.693276,22.944648,0.0 120.693856,22.942776,0.0 120.693164,22.941016,0.0 120.69349,22.938899,0.0 120.692346,22.936943,0.0 120.690071,22.93264,0.0 120.688164,22.929501,0.0 120.687602,22.927384,0.0 120.685893,22.924976,0.0 120.684464,22.92238,0.0 120.685186,22.920184,0.0 120.686986,22.917476,0.0 120.687865,22.915922,0.0 120.688844,22.912798,0.0 120.688252,22.910428,0.0 120.686587,22.910689,0.0 120.688633,22.907699,0.0 120.693322,22.907988,0.0 120.696463,22.912419,0.0 120.699007,22.909954,0.0 120.695212,22.903872,0.0 120.690742,22.903671,0.0 120.693017,22.901594,0.0 120.692347,22.898655,0.0 120.688925,22.902324,0.0 120.683705,22.9024,0.0 120.680225,22.905854,0.0 120.678508,22.904372,0.0 120.681381,22.901004,0.0 120.686199,22.896605,0.0 120.698441,22.886532,0.0 120.703678,22.880175,0.0 120.708003,22.881581,0.0 120.711055,22.8812,0.0 120.718257,22.881315,0.0 120.723066,22.881111,0.0 120.727002,22.879016,0.0 120.731771,22.875886,0.0 120.737469,22.874297,0.0 120.742678,22.873553,0.0 120.745795,22.869835,0.0 120.748644,22.866192,0.0 120.753397,22.865206,0.0 120.755891,22.862974,0.0 120.758767,22.860926,0.0 120.761006,22.858203,0.0 120.763005,22.854586,0.0 120.763933,22.850273,0.0 120.765496,22.848758,0.0 120.767625,22.846305,0.0 120.770739,22.843503,0.0 120.772891,22.841095,0.0 120.774409,22.837652,0.0 120.779307,22.835225,0.0 120.783393,22.837832,0.0 120.787257,22.840029,0.0 120.792496,22.841,0.0 120.792349,22.844553,0.0 120.791594,22.848235,0.0 120.792828,22.851176,0.0 120.795681,22.851753,0.0 120.799846,22.851009,0.0 120.802641,22.852371,0.0 120.806243,22.854225,0.0 120.81079,22.856592,0.0 120.813845,22.857873,0.0 120.814753,22.861191,0.0 120.819089,22.862345,0.0 120.824337,22.866363,0.0 120.82957,22.865768,0.0 120.834295,22.865306,0.0 120.838018,22.863411,0.0 120.8412,22.859917,0.0 120.841341,22.85675,0.0 120.845572,22.852645,0.0 120.848747,22.852912,0.0 120.852299,22.856616,0.0 120.854777,22.85597,0.0 120.857631,22.85255,0.0 120.859615,22.850332,0.0 120.861356,22.847634,0.0 120.863162,22.844761,0.0 120.864666,22.8438,0.0 120.864997,22.845718,0.0 120.865576,22.847091,0.0 120.866511,22.84811,0.0 120.868349,22.850746,0.0 120.866604,22.853817,0.0 120.869581,22.857428,0.0 120.86605,22.859443,0.0 120.862284,22.861154,0.0 120.859199,22.863616,0.0 120.862213,22.865725,0.0 120.864646,22.86773,0.0 120.864958,22.871343,0.0 120.863202,22.87424,0.0 120.861073,22.876399,0.0 120.859275,22.878402,0.0 120.855159,22.878719,0.0 120.850164,22.878714,0.0 120.845373,22.880261,0.0 120.840526,22.881949,0.0 120.838787,22.885797,0.0 120.83794,22.890433,0.0 120.834783,22.893535,0.0 120.833244,22.898184,0.0 120.832477,22.900768,0.0 120.82887,22.903607,0.0 120.829014,22.906777,0.0 120.830751,22.910481,0.0 120.833227,22.912502,0.0 120.832099,22.916831,0.0 120.830717,22.920228,0.0 120.828683,22.922528,0.0 120.827588,22.926279,0.0 120.825374,22.929761,0.0 120.82245,22.934413,0.0 120.822043,22.937255,0.0 120.821698,22.940474,0.0 120.82182,22.944454,0.0 120.822645,22.948214,0.0 120.823848,22.951047,0.0 120.823901,22.954185,0.0 120.822497,22.957231,0.0 120.820861,22.96235,0.0 120.823044,22.965199,0.0 120.828718,22.968915,0.0 120.829335,22.972167,0.0 120.829391,22.975169,0.0 120.826447,22.977049,0.0 120.82443,22.977627,0.0 120.822856,22.978041,0.0 120.820878,22.978779,0.0 120.819063,22.9791,0.0 120.81721,22.979421,0.0 120.816289,22.979693,0.0 120.81456,22.981659,0.0 120.81235,22.983465,0.0 120.811142,22.984268,0.0 120.809877,22.986194,0.0 120.808627,22.98901,0.0 120.807498,22.988295,0.0 120.804487,22.987009,0.0 120.802036,22.985825,0.0 120.798182,22.986064,0.0 120.794249,22.987263,0.0 120.791957,22.988714,0.0 120.789138,22.989351,0.0 120.786223,22.99114,0.0 120.783706,22.992304,0.0 120.782068,22.993496,0.0 120.779322,22.992124,0.0 120.77639,22.990449,0.0 120.774504,22.987277,0.0 120.772462,22.984603,0.0 120.768837,22.983013,0.0 120.765902,22.982929,0.0 120.762048,22.983443,0.0 120.759455,22.983568,0.0 120.755732,22.983627,0.0 120.749966,22.984158,0.0 120.746744,22.981936,0.0 120.743674,22.983859,0.0 120.740318,22.985088,0.0 120.738392,22.989494,0.0 120.737807,22.990498,0.0</coordinates></LinearRing></outerBoundaryIs></Polygon><styleUrl>#spolygon-map</styleUrl></Placemark></Document>
</kml>
