<?xml version="1.0" encoding="UTF-8"?>
<kml xmlns="http://www.opengis.net/kml/2.2">
	<Document>
		<name>高雄市那瑪夏區</name>
		<Style id="spolygon">
			<LabelStyle>
				<scale>0.0</scale>
			</LabelStyle>
			<LineStyle>
				<color>330030ff</color>
				<width>0</width>
			</LineStyle>
			<PolyStyle>
				<color>330030ff</color>
			</PolyStyle>
		</Style>
		<StyleMap id="spolygon-map">
			<Pair>
				<key>normal</key>
				<styleUrl>#spolygon</styleUrl>
			</Pair>
		</StyleMap>
	<Placemark><Polygon><outerBoundaryIs><LinearRing><coordinates>120.813455,23.36066,0.0 120.810877,23.362262,0.0 120.809005,23.364634,0.0 120.807148,23.367133,0.0 120.805389,23.369924,0.0 120.803269,23.369463,0.0 120.804691,23.367214,0.0 120.800829,23.363299,0.0 120.800154,23.360862,0.0 120.797434,23.359696,0.0 120.795983,23.356761,0.0 120.792678,23.357552,0.0 120.79181,23.3552,0.0 120.79131,23.35324,0.0 120.788259,23.351999,0.0 120.78851,23.348283,0.0 120.785537,23.3456,0.0 120.783443,23.342319,0.0 120.779269,23.342509,0.0 120.775556,23.34329,0.0 120.772028,23.342142,0.0 120.767915,23.343714,0.0 120.764423,23.341673,0.0 120.762216,23.343227,0.0 120.758064,23.344266,0.0 120.757905,23.342356,0.0 120.758319,23.340614,0.0 120.757119,23.338393,0.0 120.757733,23.334447,0.0 120.754721,23.331758,0.0 120.752256,23.330829,0.0 120.752965,23.328814,0.0 120.752148,23.326388,0.0 120.75032,23.325189,0.0 120.749743,23.323793,0.0 120.747851,23.321911,0.0 120.74351,23.321547,0.0 120.740381,23.320434,0.0 120.740067,23.317778,0.0 120.738204,23.316267,0.0 120.735567,23.315737,0.0 120.733117,23.314423,0.0 120.731605,23.312759,0.0 120.730103,23.310413,0.0 120.730801,23.307814,0.0 120.730624,23.305614,0.0 120.724643,23.307146,0.0 120.719299,23.308067,0.0 120.714482,23.308196,0.0 120.710295,23.306752,0.0 120.707121,23.304972,0.0 120.704371,23.301978,0.0 120.703066,23.298218,0.0 120.70232,23.294095,0.0 120.703338,23.290311,0.0 120.701379,23.286051,0.0 120.695585,23.284462,0.0 120.689318,23.285495,0.0 120.683893,23.28711,0.0 120.679591,23.288686,0.0 120.67653,23.288318,0.0 120.674543,23.29089,0.0 120.670529,23.290469,0.0 120.668388,23.291975,0.0 120.665613,23.294086,0.0 120.663597,23.293886,0.0 120.661904,23.294907,0.0 120.659124,23.295124,0.0 120.656901,23.29451,0.0 120.654891,23.291629,0.0 120.651092,23.291495,0.0 120.648508,23.294848,0.0 120.647017,23.297441,0.0 120.644893,23.296605,0.0 120.643325,23.294949,0.0 120.642123,23.293249,0.0 120.642762,23.29193,0.0 120.643497,23.290263,0.0 120.64311,23.288648,0.0 120.641883,23.287356,0.0 120.643215,23.286264,0.0 120.643407,23.284309,0.0 120.644044,23.282229,0.0 120.643038,23.28062,0.0 120.642097,23.279263,0.0 120.659893,23.270342,0.0 120.67325,23.266648,0.0 120.673653,23.265917,0.0 120.674503,23.265258,0.0 120.675681,23.264432,0.0 120.676106,23.263137,0.0 120.676378,23.262218,0.0 120.676232,23.261663,0.0 120.676572,23.261404,0.0 120.677282,23.260927,0.0 120.677586,23.261297,0.0 120.67836,23.262301,0.0 120.679392,23.263182,0.0 120.680099,23.262881,0.0 120.680795,23.263063,0.0 120.681493,23.263172,0.0 120.682111,23.262729,0.0 120.682891,23.26294,0.0 120.684015,23.262469,0.0 120.685156,23.262509,0.0 120.686278,23.263372,0.0 120.687724,23.265102,0.0 120.690006,23.264587,0.0 120.697985,23.25571,0.0 120.714167,23.25092,0.0 120.734162,23.246277,0.0 120.752809,23.242736,0.0 120.760407,23.245256,0.0 120.759807,23.24822,0.0 120.761479,23.251392,0.0 120.762873,23.253764,0.0 120.764704,23.255806,0.0 120.765318,23.258764,0.0 120.764908,23.261175,0.0 120.766182,23.262504,0.0 120.768537,23.267,0.0 120.768173,23.269113,0.0 120.769271,23.270857,0.0 120.77073,23.271444,0.0 120.772018,23.273534,0.0 120.773222,23.275999,0.0 120.774065,23.279308,0.0 120.775987,23.281724,0.0 120.774759,23.284989,0.0 120.774907,23.287499,0.0 120.776344,23.28782,0.0 120.77611,23.290653,0.0 120.777849,23.293976,0.0 120.780203,23.295257,0.0 120.782487,23.294843,0.0 120.783841,23.296913,0.0 120.785378,23.299913,0.0 120.786952,23.302229,0.0 120.789812,23.303034,0.0 120.792136,23.305035,0.0 120.793258,23.307608,0.0 120.795525,23.310842,0.0 120.797411,23.312971,0.0 120.797644,23.315138,0.0 120.798355,23.31844,0.0 120.800937,23.319854,0.0 120.803729,23.320677,0.0 120.806222,23.321398,0.0 120.807011,23.323347,0.0 120.807189,23.325093,0.0 120.80809,23.32632,0.0 120.808757,23.328612,0.0 120.81061,23.331477,0.0 120.811938,23.333393,0.0 120.813799,23.33521,0.0 120.817439,23.337858,0.0 120.82019,23.339963,0.0 120.82332,23.340949,0.0 120.823156,23.343714,0.0 120.822949,23.346139,0.0 120.819752,23.349864,0.0 120.81635,23.352387,0.0 120.813714,23.354199,0.0 120.812772,23.355785,0.0 120.813633,23.358301,0.0 120.813455,23.36066,0.0</coordinates></LinearRing></outerBoundaryIs></Polygon><styleUrl>#spolygon-map</styleUrl></Placemark><Placemark><Polygon><outerBoundaryIs><LinearRing><coordinates>120.651432,23.274992,0.0 120.642106,23.27741,0.0 120.643156,23.276333,0.0 120.64225,23.275283,0.0 120.641119,23.274488,0.0 120.640604,23.273489,0.0 120.641049,23.271984,0.0 120.64053,23.270737,0.0 120.638821,23.270243,0.0 120.638511,23.268825,0.0 120.639704,23.267455,0.0 120.640768,23.265985,0.0 120.641274,23.263307,0.0 120.642082,23.261031,0.0 120.641926,23.258527,0.0 120.642244,23.256491,0.0 120.644233,23.254428,0.0 120.645734,23.252528,0.0 120.647157,23.250502,0.0 120.648443,23.249254,0.0 120.648146,23.248264,0.0 120.649035,23.246553,0.0 120.656405,23.24365,0.0 120.668245,23.24373,0.0 120.670719,23.237635,0.0 120.678733,23.234755,0.0 120.686357,23.22949,0.0 120.695459,23.227769,0.0 120.705135,23.224848,0.0 120.710092,23.227987,0.0 120.718271,23.223511,0.0 120.734206,23.218617,0.0 120.744923,23.214901,0.0 120.745389,23.21685,0.0 120.745448,23.21927,0.0 120.747793,23.220794,0.0 120.749664,23.222585,0.0 120.750296,23.224859,0.0 120.752105,23.22718,0.0 120.753561,23.228716,0.0 120.755593,23.230046,0.0 120.756152,23.232284,0.0 120.754834,23.234368,0.0 120.754285,23.235939,0.0 120.75584,23.237269,0.0 120.758358,23.238763,0.0 120.759328,23.241934,0.0 120.744673,23.244421,0.0 120.721265,23.248009,0.0 120.703132,23.254977,0.0 120.694603,23.259336,0.0 120.68806,23.265965,0.0 120.686836,23.264375,0.0 120.685881,23.262549,0.0 120.684792,23.262344,0.0 120.683394,23.26289,0.0 120.682703,23.262825,0.0 120.681809,23.263029,0.0 120.681157,23.263081,0.0 120.680317,23.262804,0.0 120.679856,23.263196,0.0 120.678671,23.262781,0.0 120.677904,23.261743,0.0 120.677544,23.260857,0.0 120.676777,23.261221,0.0 120.676335,23.261469,0.0 120.676231,23.262152,0.0 120.676217,23.262785,0.0 120.675754,23.263472,0.0 120.674964,23.264834,0.0 120.673992,23.265683,0.0 120.673436,23.266244,0.0 120.673003,23.267467,0.0 120.651432,23.274992,0.0</coordinates></LinearRing></outerBoundaryIs></Polygon><styleUrl>#spolygon-map</styleUrl></Placemark><Placemark><Polygon><outerBoundaryIs><LinearRing><coordinates>120.650764,23.245475,0.0 120.64849,23.245346,0.0 120.648034,23.244358,0.0 120.648534,23.24412,0.0 120.648637,23.24305,0.0 120.64914,23.242309,0.0 120.649289,23.241361,0.0 120.64925,23.240329,0.0 120.649838,23.239707,0.0 120.65067,23.238251,0.0 120.650514,23.237092,0.0 120.650911,23.236389,0.0 120.650972,23.235779,0.0 120.65089,23.235269,0.0 120.650189,23.233911,0.0 120.650204,23.233265,0.0 120.650019,23.232276,0.0 120.649849,23.231104,0.0 120.649665,23.229654,0.0 120.64962,23.228216,0.0 120.651608,23.226439,0.0 120.653211,23.224693,0.0 120.654613,23.223996,0.0 120.655677,23.222102,0.0 120.656004,23.219662,0.0 120.655998,23.217432,0.0 120.654413,23.215911,0.0 120.653534,23.213582,0.0 120.652639,23.211144,0.0 120.651457,23.209179,0.0 120.652218,23.208249,0.0 120.654004,23.207054,0.0 120.654936,23.206214,0.0 120.655943,23.204995,0.0 120.6571,23.203819,0.0 120.657324,23.202966,0.0 120.657812,23.201502,0.0 120.658271,23.200773,0.0 120.660579,23.200162,0.0 120.662284,23.199994,0.0 120.664462,23.199834,0.0 120.66696,23.199241,0.0 120.668686,23.198527,0.0 120.67093,23.19859,0.0 120.673751,23.198418,0.0 120.677061,23.196959,0.0 120.680498,23.196212,0.0 120.682538,23.194544,0.0 120.681473,23.192087,0.0 120.68107,23.189163,0.0 120.68097,23.186777,0.0 120.681021,23.183914,0.0 120.681966,23.181421,0.0 120.683507,23.17988,0.0 120.685012,23.177957,0.0 120.687704,23.176301,0.0 120.689914,23.175933,0.0 120.690809,23.1737,0.0 120.69143,23.171588,0.0 120.693963,23.171098,0.0 120.69661,23.170577,0.0 120.698815,23.169275,0.0 120.699891,23.171157,0.0 120.701773,23.173624,0.0 120.704621,23.174957,0.0 120.706989,23.176821,0.0 120.708829,23.177689,0.0 120.710503,23.179049,0.0 120.712134,23.181001,0.0 120.714143,23.182269,0.0 120.715803,23.183671,0.0 120.717429,23.181618,0.0 120.719439,23.182382,0.0 120.722134,23.183509,0.0 120.723989,23.184562,0.0 120.724839,23.185988,0.0 120.72582,23.188401,0.0 120.727104,23.189916,0.0 120.72996,23.190869,0.0 120.731875,23.192141,0.0 120.733593,23.193566,0.0 120.73543,23.195366,0.0 120.736285,23.198149,0.0 120.738274,23.200387,0.0 120.740752,23.202274,0.0 120.7421,23.205164,0.0 120.74342,23.207286,0.0 120.744107,23.209996,0.0 120.744566,23.212853,0.0 120.743983,23.216148,0.0 120.730146,23.219051,0.0 120.717389,23.224966,0.0 120.709342,23.227796,0.0 120.704074,23.225133,0.0 120.69215,23.227666,0.0 120.686004,23.230139,0.0 120.678059,23.234803,0.0 120.670411,23.238018,0.0 120.667796,23.243871,0.0 120.65501,23.24336,0.0 120.650764,23.245475,0.0</coordinates></LinearRing></outerBoundaryIs></Polygon><styleUrl>#spolygon-map</styleUrl></Placemark></Document>
</kml>
