<?xml version="1.0" encoding="UTF-8"?>
<kml xmlns="http://www.opengis.net/kml/2.2">
	<Document>
		<name>高雄市永安區</name>
		<Style id="spolygon">
			<LabelStyle>
				<scale>0.0</scale>
			</LabelStyle>
			<LineStyle>
				<color>330030ff</color>
				<width>0</width>
			</LineStyle>
			<PolyStyle>
				<color>330030ff</color>
			</PolyStyle>
		</Style>
		<StyleMap id="spolygon-map">
			<Pair>
				<key>normal</key>
				<styleUrl>#spolygon</styleUrl>
			</Pair>
		</StyleMap>
	<Placemark><Polygon><outerBoundaryIs><LinearRing><coordinates>120.228234,22.834145,0.0 120.227273,22.834283,0.0 120.226317,22.833772,0.0 120.223721,22.832638,0.0 120.221445,22.833606,0.0 120.216245,22.82928,0.0 120.217136,22.827569,0.0 120.216966,22.826859,0.0 120.220315,22.825155,0.0 120.223321,22.823542,0.0 120.221215,22.82283,0.0 120.219895,22.822866,0.0 120.219039,22.82283,0.0 120.217584,22.819155,0.0 120.219091,22.815952,0.0 120.221495,22.816241,0.0 120.223529,22.816822,0.0 120.224084,22.817737,0.0 120.225693,22.818652,0.0 120.228733,22.82053,0.0 120.228399,22.824506,0.0 120.22841,22.829335,0.0 120.228234,22.834145,0.0</coordinates></LinearRing></outerBoundaryIs></Polygon><styleUrl>#spolygon-map</styleUrl></Placemark><Placemark><Polygon><outerBoundaryIs><LinearRing><coordinates>120.230647,22.818344,0.0 120.231028,22.820085,0.0 120.229023,22.820732,0.0 120.226204,22.818824,0.0 120.224515,22.817861,0.0 120.223687,22.816879,0.0 120.221643,22.816285,0.0 120.219093,22.815595,0.0 120.216777,22.813956,0.0 120.216353,22.812857,0.0 120.2135,22.811115,0.0 120.212203,22.807569,0.0 120.213675,22.80484,0.0 120.214394,22.804282,0.0 120.217019,22.804166,0.0 120.224877,22.803414,0.0 120.22925,22.805826,0.0 120.232901,22.803796,0.0 120.234076,22.806743,0.0 120.23422,22.809096,0.0 120.234554,22.811663,0.0 120.234589,22.813896,0.0 120.232749,22.816664,0.0 120.23118,22.818311,0.0 120.230647,22.818344,0.0</coordinates></LinearRing></outerBoundaryIs></Polygon><styleUrl>#spolygon-map</styleUrl></Placemark><Placemark><Polygon><outerBoundaryIs><LinearRing><coordinates>120.201475,22.844265,0.0 120.198327,22.843662,0.0 120.198083,22.843622,0.0 120.19888,22.843168,0.0 120.200589,22.840235,0.0 120.20007,22.838494,0.0 120.201823,22.83415,0.0 120.201308,22.835583,0.0 120.201292,22.838679,0.0 120.201196,22.836811,0.0 120.203115,22.834026,0.0 120.203131,22.831558,0.0 120.204303,22.830639,0.0 120.204591,22.827561,0.0 120.205633,22.82695,0.0 120.205612,22.825335,0.0 120.206743,22.823921,0.0 120.206848,22.82212,0.0 120.206022,22.820777,0.0 120.190123,22.813592,0.0 120.205658,22.806469,0.0 120.212294,22.807795,0.0 120.213539,22.810946,0.0 120.216677,22.812926,0.0 120.217378,22.814117,0.0 120.219091,22.815952,0.0 120.217584,22.819155,0.0 120.21836,22.823631,0.0 120.213698,22.826976,0.0 120.212005,22.828997,0.0 120.209777,22.830388,0.0 120.20837,22.830941,0.0 120.207599,22.831637,0.0 120.205763,22.83291,0.0 120.203984,22.8355,0.0 120.203808,22.837002,0.0 120.204682,22.837932,0.0 120.204667,22.841192,0.0 120.202601,22.842898,0.0 120.201475,22.844265,0.0</coordinates></LinearRing></outerBoundaryIs></Polygon><styleUrl>#spolygon-map</styleUrl></Placemark><Placemark><Polygon><outerBoundaryIs><LinearRing><coordinates>120.203387,22.855228,0.0 120.203843,22.851797,0.0 120.198114,22.850032,0.0 120.197043,22.848934,0.0 120.198514,22.845984,0.0 120.198166,22.845395,0.0 120.194764,22.846944,0.0 120.194027,22.84727,0.0 120.196542,22.84468,0.0 120.198268,22.844743,0.0 120.19662,22.844087,0.0 120.193381,22.843086,0.0 120.191131,22.842312,0.0 120.190682,22.84244,0.0 120.189763,22.84188,0.0 120.190314,22.841892,0.0 120.195987,22.843828,0.0 120.198153,22.844228,0.0 120.198659,22.843953,0.0 120.201991,22.84347,0.0 120.204143,22.841713,0.0 120.204785,22.838238,0.0 120.203952,22.837127,0.0 120.203777,22.836,0.0 120.205062,22.833864,0.0 120.206918,22.832139,0.0 120.208027,22.831149,0.0 120.209543,22.830403,0.0 120.211511,22.829013,0.0 120.214074,22.828204,0.0 120.216143,22.824703,0.0 120.219421,22.82297,0.0 120.220657,22.822782,0.0 120.221898,22.822919,0.0 120.221375,22.824833,0.0 120.218437,22.826543,0.0 120.216701,22.827307,0.0 120.216695,22.828302,0.0 120.215562,22.831184,0.0 120.222457,22.832365,0.0 120.225913,22.833533,0.0 120.22711,22.834151,0.0 120.227381,22.834475,0.0 120.227407,22.836685,0.0 120.225744,22.841231,0.0 120.224868,22.843136,0.0 120.223857,22.845346,0.0 120.222903,22.845775,0.0 120.220873,22.846366,0.0 120.219125,22.847262,0.0 120.218164,22.848176,0.0 120.215493,22.84987,0.0 120.21176,22.85212,0.0 120.20785,22.854467,0.0 120.206792,22.854897,0.0 120.204599,22.854801,0.0 120.203387,22.855228,0.0</coordinates></LinearRing></outerBoundaryIs></Polygon><styleUrl>#spolygon-map</styleUrl></Placemark><Placemark><Polygon><outerBoundaryIs><LinearRing><coordinates>120.231798,22.839023,0.0 120.23121,22.839835,0.0 120.230725,22.840499,0.0 120.230212,22.840963,0.0 120.22991,22.841434,0.0 120.229249,22.842063,0.0 120.228761,22.842108,0.0 120.227667,22.840987,0.0 120.227407,22.836685,0.0 120.229779,22.829779,0.0 120.228296,22.825372,0.0 120.229894,22.821201,0.0 120.231093,22.819886,0.0 120.23201,22.818423,0.0 120.235459,22.819083,0.0 120.237124,22.819482,0.0 120.238294,22.819824,0.0 120.23929,22.819463,0.0 120.239792,22.819921,0.0 120.24235,22.820536,0.0 120.244065,22.820556,0.0 120.244555,22.820964,0.0 120.245591,22.820768,0.0 120.246649,22.820042,0.0 120.247909,22.819352,0.0 120.253221,22.820974,0.0 120.254301,22.822284,0.0 120.255484,22.823711,0.0 120.254851,22.825,0.0 120.253897,22.826621,0.0 120.256682,22.828751,0.0 120.25433,22.831111,0.0 120.249611,22.830107,0.0 120.2476,22.829447,0.0 120.246874,22.829446,0.0 120.245831,22.829452,0.0 120.244309,22.829389,0.0 120.243265,22.829496,0.0 120.242912,22.830883,0.0 120.242608,22.831828,0.0 120.241705,22.831636,0.0 120.240887,22.83168,0.0 120.240823,22.832578,0.0 120.240437,22.834,0.0 120.24066,22.834855,0.0 120.239163,22.835455,0.0 120.239011,22.836606,0.0 120.23885,22.837982,0.0 120.23779,22.83895,0.0 120.236405,22.839779,0.0 120.23556,22.839849,0.0 120.234184,22.839558,0.0 120.232608,22.839246,0.0 120.231798,22.839023,0.0</coordinates></LinearRing></outerBoundaryIs></Polygon><styleUrl>#spolygon-map</styleUrl></Placemark><Placemark><Polygon><outerBoundaryIs><LinearRing><coordinates>120.244724,22.82092,0.0 120.244117,22.820924,0.0 120.242954,22.820496,0.0 120.24078,22.819991,0.0 120.239429,22.819624,0.0 120.238435,22.819712,0.0 120.237613,22.819701,0.0 120.235907,22.819155,0.0 120.232766,22.818587,0.0 120.232848,22.816407,0.0 120.234596,22.813805,0.0 120.234371,22.810761,0.0 120.234276,22.808876,0.0 120.233362,22.806544,0.0 120.232607,22.803801,0.0 120.232256,22.800747,0.0 120.239166,22.79692,0.0 120.246817,22.797749,0.0 120.249745,22.797266,0.0 120.251856,22.796393,0.0 120.253348,22.79545,0.0 120.255206,22.795323,0.0 120.257708,22.795558,0.0 120.259757,22.79631,0.0 120.261261,22.797898,0.0 120.260983,22.79921,0.0 120.261247,22.799692,0.0 120.261896,22.800188,0.0 120.261529,22.801093,0.0 120.261256,22.802368,0.0 120.26214,22.803539,0.0 120.260772,22.805858,0.0 120.260469,22.806818,0.0 120.26022,22.807869,0.0 120.258184,22.809167,0.0 120.25663,22.807658,0.0 120.25572,22.806945,0.0 120.25514,22.807588,0.0 120.255914,22.808177,0.0 120.256407,22.808942,0.0 120.255694,22.810517,0.0 120.255528,22.811441,0.0 120.255631,22.812483,0.0 120.255911,22.812904,0.0 120.256434,22.813893,0.0 120.256359,22.814633,0.0 120.255748,22.815612,0.0 120.255192,22.816443,0.0 120.255104,22.816986,0.0 120.254681,22.817603,0.0 120.253882,22.817981,0.0 120.253188,22.818138,0.0 120.253436,22.819534,0.0 120.253443,22.820327,0.0 120.252034,22.82093,0.0 120.247601,22.819396,0.0 120.246406,22.820264,0.0 120.245157,22.820918,0.0 120.244724,22.82092,0.0</coordinates></LinearRing></outerBoundaryIs></Polygon><styleUrl>#spolygon-map</styleUrl></Placemark></Document>
</kml>
