<?xml version="1.0" encoding="UTF-8"?>
<kml xmlns="http://www.opengis.net/kml/2.2">
	<Document>
		<name>高雄市茄萣區</name>
		<Style id="spolygon">
			<LabelStyle>
				<scale>0.0</scale>
			</LabelStyle>
			<LineStyle>
				<color>330030ff</color>
				<width>0</width>
			</LineStyle>
			<PolyStyle>
				<color>330030ff</color>
			</PolyStyle>
		</Style>
		<StyleMap id="spolygon-map">
			<Pair>
				<key>normal</key>
				<styleUrl>#spolygon</styleUrl>
			</Pair>
		</StyleMap>
	<Placemark><Polygon><outerBoundaryIs><LinearRing><coordinates>120.188926,22.91873,0.0 120.188353,22.919488,0.0 120.186032,22.919316,0.0 120.182441,22.917076,0.0 120.181302,22.914916,0.0 120.182396,22.914931,0.0 120.182808,22.914802,0.0 120.183443,22.914695,0.0 120.184164,22.914712,0.0 120.185427,22.914425,0.0 120.186294,22.914407,0.0 120.190212,22.915863,0.0 120.189693,22.91835,0.0 120.188926,22.91873,0.0</coordinates></LinearRing></outerBoundaryIs></Polygon><styleUrl>#spolygon-map</styleUrl></Placemark><Placemark><Polygon><outerBoundaryIs><LinearRing><coordinates>120.180974,22.914967,0.0 120.178558,22.914053,0.0 120.176144,22.91212,0.0 120.175756,22.911786,0.0 120.175725,22.911382,0.0 120.17582,22.910721,0.0 120.176087,22.910135,0.0 120.176374,22.909583,0.0 120.176528,22.908837,0.0 120.176718,22.907865,0.0 120.176717,22.907529,0.0 120.177801,22.908466,0.0 120.178995,22.910001,0.0 120.179539,22.91013,0.0 120.180043,22.910354,0.0 120.180827,22.91053,0.0 120.181072,22.910856,0.0 120.181552,22.910996,0.0 120.181893,22.911463,0.0 120.182793,22.912569,0.0 120.182956,22.913001,0.0 120.184259,22.913053,0.0 120.186104,22.913467,0.0 120.190354,22.913915,0.0 120.190281,22.915432,0.0 120.186294,22.914389,0.0 120.185387,22.914423,0.0 120.184107,22.914673,0.0 120.183289,22.914717,0.0 120.182766,22.914825,0.0 120.182314,22.914861,0.0 120.181108,22.914802,0.0 120.180974,22.914967,0.0</coordinates></LinearRing></outerBoundaryIs></Polygon><styleUrl>#spolygon-map</styleUrl></Placemark><Placemark><Polygon><outerBoundaryIs><LinearRing><coordinates>120.190729,22.91303,0.0 120.189138,22.913798,0.0 120.185862,22.913441,0.0 120.184063,22.913086,0.0 120.18283,22.912856,0.0 120.182484,22.912487,0.0 120.182014,22.911143,0.0 120.181348,22.910975,0.0 120.181058,22.910712,0.0 120.180653,22.910502,0.0 120.179888,22.910288,0.0 120.179381,22.910098,0.0 120.178891,22.909998,0.0 120.177532,22.908027,0.0 120.179081,22.906931,0.0 120.180217,22.906829,0.0 120.182767,22.905921,0.0 120.183709,22.905172,0.0 120.186892,22.906154,0.0 120.188153,22.906429,0.0 120.189512,22.907089,0.0 120.191577,22.907386,0.0 120.193519,22.907655,0.0 120.196406,22.907722,0.0 120.197258,22.908476,0.0 120.192777,22.91062,0.0 120.191193,22.912335,0.0 120.190729,22.91303,0.0</coordinates></LinearRing></outerBoundaryIs></Polygon><styleUrl>#spolygon-map</styleUrl></Placemark><Placemark><Polygon><outerBoundaryIs><LinearRing><coordinates>120.178001,22.90784,0.0 120.176906,22.906886,0.0 120.177121,22.906214,0.0 120.177298,22.9058,0.0 120.177408,22.905464,0.0 120.177722,22.904881,0.0 120.177782,22.904369,0.0 120.177951,22.90393,0.0 120.178069,22.903612,0.0 120.177899,22.903496,0.0 120.178025,22.9033,0.0 120.178135,22.90307,0.0 120.178072,22.902901,0.0 120.178302,22.902715,0.0 120.178407,22.902501,0.0 120.178457,22.902192,0.0 120.178492,22.901763,0.0 120.178346,22.901173,0.0 120.178346,22.900796,0.0 120.179726,22.900629,0.0 120.181203,22.900994,0.0 120.182222,22.900947,0.0 120.183271,22.900889,0.0 120.183998,22.901595,0.0 120.188624,22.902406,0.0 120.192171,22.904086,0.0 120.193794,22.903586,0.0 120.194455,22.903908,0.0 120.194692,22.905234,0.0 120.197048,22.905145,0.0 120.197586,22.906996,0.0 120.197286,22.90767,0.0 120.19525,22.907829,0.0 120.192684,22.907583,0.0 120.190675,22.907244,0.0 120.188794,22.90688,0.0 120.187683,22.906039,0.0 120.185238,22.9059,0.0 120.183474,22.905317,0.0 120.180533,22.906061,0.0 120.179346,22.906483,0.0 120.178161,22.907191,0.0 120.178001,22.90784,0.0</coordinates></LinearRing></outerBoundaryIs></Polygon><styleUrl>#spolygon-map</styleUrl></Placemark><Placemark><Polygon><outerBoundaryIs><LinearRing><coordinates>120.194067,22.903502,0.0 120.192318,22.904044,0.0 120.188952,22.902456,0.0 120.184407,22.901683,0.0 120.18327,22.90088,0.0 120.182696,22.900913,0.0 120.18162,22.900982,0.0 120.180035,22.900694,0.0 120.178069,22.900158,0.0 120.17781,22.900222,0.0 120.178017,22.899661,0.0 120.17815,22.899822,0.0 120.17824,22.900098,0.0 120.178811,22.899961,0.0 120.179072,22.899348,0.0 120.180894,22.899764,0.0 120.181678,22.899865,0.0 120.182323,22.900085,0.0 120.183248,22.900264,0.0 120.184196,22.900384,0.0 120.192773,22.902382,0.0 120.194173,22.903478,0.0 120.194067,22.903502,0.0</coordinates></LinearRing></outerBoundaryIs></Polygon><styleUrl>#spolygon-map</styleUrl></Placemark><Placemark><Polygon><outerBoundaryIs><LinearRing><coordinates>120.184275,22.897269,0.0 120.183453,22.89726,0.0 120.182681,22.897032,0.0 120.181375,22.896509,0.0 120.180602,22.895243,0.0 120.180691,22.894586,0.0 120.181043,22.894658,0.0 120.182911,22.894981,0.0 120.183752,22.895211,0.0 120.184819,22.895389,0.0 120.184275,22.897269,0.0</coordinates></LinearRing></outerBoundaryIs></Polygon><styleUrl>#spolygon-map</styleUrl></Placemark><Placemark><Polygon><outerBoundaryIs><LinearRing><coordinates>120.199221,22.905758,0.0 120.199183,22.907424,0.0 120.198181,22.908248,0.0 120.197286,22.90767,0.0 120.197586,22.906996,0.0 120.197048,22.905145,0.0 120.194692,22.905234,0.0 120.194455,22.903908,0.0 120.194026,22.903118,0.0 120.193341,22.902189,0.0 120.191211,22.900471,0.0 120.190105,22.898657,0.0 120.187955,22.898048,0.0 120.186489,22.897968,0.0 120.18534,22.897141,0.0 120.184528,22.897268,0.0 120.184523,22.895204,0.0 120.183344,22.895144,0.0 120.181086,22.894426,0.0 120.180845,22.893912,0.0 120.18119,22.893882,0.0 120.181602,22.893394,0.0 120.183261,22.893733,0.0 120.184183,22.893959,0.0 120.185342,22.893989,0.0 120.187037,22.894705,0.0 120.188371,22.895651,0.0 120.189433,22.896875,0.0 120.190923,22.897822,0.0 120.192052,22.897796,0.0 120.192787,22.898845,0.0 120.193477,22.899569,0.0 120.197323,22.900753,0.0 120.199221,22.905758,0.0</coordinates></LinearRing></outerBoundaryIs></Polygon><styleUrl>#spolygon-map</styleUrl></Placemark><Placemark><Polygon><outerBoundaryIs><LinearRing><coordinates>120.191071,22.89398,0.0 120.188238,22.893036,0.0 120.186386,22.892516,0.0 120.185143,22.892643,0.0 120.184207,22.892615,0.0 120.183603,22.892583,0.0 120.181847,22.891644,0.0 120.182329,22.891768,0.0 120.1823,22.891278,0.0 120.182798,22.890793,0.0 120.184681,22.890902,0.0 120.185704,22.891013,0.0 120.187154,22.890472,0.0 120.188405,22.890856,0.0 120.189415,22.891231,0.0 120.190134,22.891359,0.0 120.1911,22.891894,0.0 120.191071,22.89398,0.0</coordinates></LinearRing></outerBoundaryIs></Polygon><styleUrl>#spolygon-map</styleUrl></Placemark><Placemark><Polygon><outerBoundaryIs><LinearRing><coordinates>120.197381,22.898502,0.0 120.196104,22.900372,0.0 120.193135,22.899386,0.0 120.19252,22.898268,0.0 120.191809,22.897682,0.0 120.190411,22.897681,0.0 120.189145,22.896515,0.0 120.187807,22.895201,0.0 120.186764,22.89459,0.0 120.185243,22.894194,0.0 120.1838,22.893864,0.0 120.182861,22.893701,0.0 120.18132,22.89323,0.0 120.18155,22.892728,0.0 120.181944,22.892333,0.0 120.183151,22.89245,0.0 120.184091,22.892567,0.0 120.184758,22.892639,0.0 120.185746,22.892596,0.0 120.187227,22.892658,0.0 120.189699,22.893508,0.0 120.191931,22.89256,0.0 120.192848,22.892039,0.0 120.197908,22.893525,0.0 120.197419,22.895482,0.0 120.197007,22.896974,0.0 120.196941,22.898462,0.0 120.197381,22.898502,0.0</coordinates></LinearRing></outerBoundaryIs></Polygon><styleUrl>#spolygon-map</styleUrl></Placemark><Placemark><Polygon><outerBoundaryIs><LinearRing><coordinates>120.198366,22.892071,0.0 120.195079,22.892581,0.0 120.192125,22.892394,0.0 120.191482,22.892233,0.0 120.190544,22.891533,0.0 120.189766,22.891244,0.0 120.188586,22.891299,0.0 120.187566,22.890569,0.0 120.185899,22.890841,0.0 120.185114,22.8909,0.0 120.183375,22.890773,0.0 120.182703,22.890235,0.0 120.182936,22.889809,0.0 120.183405,22.889439,0.0 120.183042,22.889291,0.0 120.184004,22.887919,0.0 120.185815,22.885797,0.0 120.186854,22.887335,0.0 120.190968,22.887699,0.0 120.197923,22.887804,0.0 120.199521,22.88949,0.0 120.198366,22.892071,0.0</coordinates></LinearRing></outerBoundaryIs></Polygon><styleUrl>#spolygon-map</styleUrl></Placemark><Placemark><Polygon><outerBoundaryIs><LinearRing><coordinates>120.191211,22.900471,0.0 120.193341,22.902189,0.0 120.189214,22.90159,0.0 120.183953,22.90033,0.0 120.183092,22.900303,0.0 120.182157,22.900012,0.0 120.181498,22.899846,0.0 120.180748,22.89972,0.0 120.179071,22.89926,0.0 120.17935,22.898819,0.0 120.180782,22.89891,0.0 120.181495,22.899051,0.0 120.182338,22.899148,0.0 120.182971,22.899318,0.0 120.184506,22.899146,0.0 120.189626,22.89975,0.0 120.19118,22.900243,0.0 120.191211,22.900471,0.0</coordinates></LinearRing></outerBoundaryIs></Polygon><styleUrl>#spolygon-map</styleUrl></Placemark><Placemark><Polygon><outerBoundaryIs><LinearRing><coordinates>120.18449,22.899209,0.0 120.182904,22.899314,0.0 120.18232,22.899243,0.0 120.181476,22.89911,0.0 120.180595,22.898868,0.0 120.179476,22.898334,0.0 120.178837,22.898333,0.0 120.179167,22.897917,0.0 120.179857,22.897724,0.0 120.181066,22.897593,0.0 120.181895,22.897841,0.0 120.182361,22.898008,0.0 120.183377,22.898219,0.0 120.184555,22.898952,0.0 120.18449,22.899209,0.0</coordinates></LinearRing></outerBoundaryIs></Polygon><styleUrl>#spolygon-map</styleUrl></Placemark><Placemark><Polygon><outerBoundaryIs><LinearRing><coordinates>120.184419,22.897949,0.0 120.183328,22.898216,0.0 120.182288,22.897983,0.0 120.181811,22.897807,0.0 120.180884,22.897547,0.0 120.179414,22.897356,0.0 120.179799,22.896652,0.0 120.180249,22.896546,0.0 120.179894,22.896338,0.0 120.180421,22.895899,0.0 120.182333,22.896902,0.0 120.1832,22.897193,0.0 120.183931,22.897294,0.0 120.184419,22.897949,0.0</coordinates></LinearRing></outerBoundaryIs></Polygon><styleUrl>#spolygon-map</styleUrl></Placemark><Placemark><Polygon><outerBoundaryIs><LinearRing><coordinates>120.189014,22.89818,0.0 120.191455,22.899712,0.0 120.189901,22.899799,0.0 120.186408,22.899718,0.0 120.184878,22.897179,0.0 120.185904,22.897593,0.0 120.187187,22.897999,0.0 120.188613,22.898097,0.0 120.189014,22.89818,0.0</coordinates></LinearRing></outerBoundaryIs></Polygon><styleUrl>#spolygon-map</styleUrl></Placemark><Placemark><Polygon><outerBoundaryIs><LinearRing><coordinates>120.210667,22.887439,0.0 120.210535,22.888685,0.0 120.210023,22.890005,0.0 120.209484,22.89117,0.0 120.208667,22.89196,0.0 120.20739,22.89232,0.0 120.204577,22.891834,0.0 120.203784,22.890588,0.0 120.203507,22.8889,0.0 120.203031,22.887512,0.0 120.201439,22.887906,0.0 120.196421,22.887517,0.0 120.190019,22.88787,0.0 120.186924,22.886719,0.0 120.185616,22.885821,0.0 120.185371,22.884722,0.0 120.185635,22.883775,0.0 120.185994,22.883086,0.0 120.186132,22.882687,0.0 120.186421,22.881754,0.0 120.187727,22.879535,0.0 120.188243,22.87751,0.0 120.189606,22.874404,0.0 120.190979,22.870546,0.0 120.192592,22.865037,0.0 120.189053,22.863353,0.0 120.193143,22.860062,0.0 120.189469,22.857458,0.0 120.192308,22.850149,0.0 120.193294,22.848269,0.0 120.196675,22.850047,0.0 120.198016,22.850054,0.0 120.202413,22.851354,0.0 120.202521,22.858233,0.0 120.205364,22.85485,0.0 120.207139,22.85484,0.0 120.208986,22.853784,0.0 120.21332,22.851187,0.0 120.214664,22.852634,0.0 120.216043,22.854219,0.0 120.217657,22.856069,0.0 120.218883,22.858316,0.0 120.219012,22.860227,0.0 120.219408,22.862356,0.0 120.22027,22.863942,0.0 120.219607,22.864944,0.0 120.217365,22.865773,0.0 120.217049,22.866897,0.0 120.217333,22.8684,0.0 120.217987,22.869713,0.0 120.21847,22.870571,0.0 120.219268,22.870683,0.0 120.219961,22.871246,0.0 120.218566,22.873768,0.0 120.218416,22.877104,0.0 120.218345,22.880555,0.0 120.216991,22.881738,0.0 120.213642,22.882058,0.0 120.210717,22.882466,0.0 120.208938,22.882787,0.0 120.207442,22.883497,0.0 120.206607,22.884109,0.0 120.208451,22.885114,0.0 120.209878,22.885898,0.0 120.210667,22.887439,0.0</coordinates></LinearRing></outerBoundaryIs></Polygon><styleUrl>#spolygon-map</styleUrl></Placemark></Document>
</kml>
