<?xml version="1.0" encoding="UTF-8"?>
<kml xmlns="http://www.opengis.net/kml/2.2">
	<Document>
		<name>高雄市阿蓮區</name>
		<Style id="spolygon">
			<LabelStyle>
				<scale>0.0</scale>
			</LabelStyle>
			<LineStyle>
				<color>330030ff</color>
				<width>0</width>
			</LineStyle>
			<PolyStyle>
				<color>330030ff</color>
			</PolyStyle>
		</Style>
		<StyleMap id="spolygon-map">
			<Pair>
				<key>normal</key>
				<styleUrl>#spolygon</styleUrl>
			</Pair>
		</StyleMap>
	<Placemark><Polygon><outerBoundaryIs><LinearRing><coordinates>120.309099,22.900574,0.0 120.307458,22.900465,0.0 120.302916,22.900456,0.0 120.302802,22.894175,0.0 120.304552,22.887137,0.0 120.304993,22.885392,0.0 120.303976,22.882834,0.0 120.301894,22.882881,0.0 120.301885,22.881953,0.0 120.303156,22.881774,0.0 120.304182,22.881557,0.0 120.307598,22.881929,0.0 120.310636,22.883244,0.0 120.313446,22.883875,0.0 120.31732,22.884639,0.0 120.313243,22.890672,0.0 120.314359,22.892729,0.0 120.317059,22.897773,0.0 120.315669,22.89913,0.0 120.311654,22.90014,0.0 120.309099,22.900574,0.0</coordinates></LinearRing></outerBoundaryIs></Polygon><styleUrl>#spolygon-map</styleUrl></Placemark><Placemark><Polygon><outerBoundaryIs><LinearRing><coordinates>120.280251,22.904873,0.0 120.277975,22.904411,0.0 120.27789,22.901663,0.0 120.279089,22.898664,0.0 120.279469,22.897505,0.0 120.278333,22.896191,0.0 120.278147,22.895449,0.0 120.278624,22.894596,0.0 120.279545,22.894313,0.0 120.2805,22.89395,0.0 120.281373,22.893737,0.0 120.283056,22.893234,0.0 120.284458,22.893333,0.0 120.285522,22.893123,0.0 120.286657,22.893192,0.0 120.287187,22.892377,0.0 120.287909,22.892177,0.0 120.287941,22.89129,0.0 120.288203,22.889756,0.0 120.288763,22.888808,0.0 120.289236,22.888033,0.0 120.288739,22.887214,0.0 120.288743,22.886417,0.0 120.28934,22.885449,0.0 120.29018,22.88597,0.0 120.29071,22.886331,0.0 120.291676,22.88659,0.0 120.292465,22.88591,0.0 120.292349,22.882191,0.0 120.298187,22.881781,0.0 120.30141,22.883398,0.0 120.304711,22.88358,0.0 120.304888,22.886274,0.0 120.30277,22.888985,0.0 120.302822,22.896144,0.0 120.299759,22.900944,0.0 120.296527,22.901991,0.0 120.290974,22.903366,0.0 120.286408,22.904307,0.0 120.283353,22.90472,0.0 120.280251,22.904873,0.0</coordinates></LinearRing></outerBoundaryIs></Polygon><styleUrl>#spolygon-map</styleUrl></Placemark><Placemark><Polygon><outerBoundaryIs><LinearRing><coordinates>120.354723,22.886484,0.0 120.353814,22.88679,0.0 120.352727,22.88695,0.0 120.352173,22.886117,0.0 120.352737,22.8852,0.0 120.353845,22.884234,0.0 120.35331,22.883356,0.0 120.352324,22.882623,0.0 120.351342,22.882192,0.0 120.350233,22.882339,0.0 120.349426,22.883098,0.0 120.34894,22.884058,0.0 120.347556,22.884443,0.0 120.34634,22.881056,0.0 120.344055,22.881189,0.0 120.341957,22.880435,0.0 120.342411,22.878848,0.0 120.342657,22.878368,0.0 120.341663,22.878127,0.0 120.340693,22.877644,0.0 120.3392,22.877891,0.0 120.339127,22.877125,0.0 120.337865,22.87556,0.0 120.337251,22.874706,0.0 120.336962,22.87308,0.0 120.336036,22.872473,0.0 120.33506,22.871514,0.0 120.335282,22.87009,0.0 120.335515,22.864948,0.0 120.33745,22.865498,0.0 120.339281,22.866041,0.0 120.340592,22.866534,0.0 120.341534,22.867737,0.0 120.342106,22.867737,0.0 120.342161,22.86697,0.0 120.342619,22.866215,0.0 120.345311,22.86347,0.0 120.346489,22.862377,0.0 120.34711,22.861493,0.0 120.348863,22.859985,0.0 120.349298,22.861161,0.0 120.349743,22.86207,0.0 120.352368,22.864806,0.0 120.353564,22.866608,0.0 120.356171,22.868162,0.0 120.35692,22.870116,0.0 120.357191,22.871011,0.0 120.35775,22.871627,0.0 120.357113,22.87349,0.0 120.356631,22.873799,0.0 120.356757,22.875125,0.0 120.356352,22.876489,0.0 120.355361,22.877384,0.0 120.354786,22.878467,0.0 120.35496,22.879676,0.0 120.355764,22.880216,0.0 120.357627,22.880617,0.0 120.357929,22.881557,0.0 120.357525,22.882325,0.0 120.356287,22.882849,0.0 120.35613,22.88378,0.0 120.356736,22.885189,0.0 120.356739,22.886316,0.0 120.355632,22.886655,0.0 120.354723,22.886484,0.0</coordinates></LinearRing></outerBoundaryIs></Polygon><styleUrl>#spolygon-map</styleUrl></Placemark><Placemark><Polygon><outerBoundaryIs><LinearRing><coordinates>120.3242,22.873403,0.0 120.325261,22.874812,0.0 120.325597,22.87535,0.0 120.324133,22.876638,0.0 120.321152,22.879032,0.0 120.318864,22.882444,0.0 120.315912,22.884279,0.0 120.311866,22.883618,0.0 120.309523,22.882637,0.0 120.304505,22.881032,0.0 120.304506,22.880068,0.0 120.304255,22.879442,0.0 120.304475,22.878684,0.0 120.304044,22.878077,0.0 120.304462,22.87723,0.0 120.304893,22.876133,0.0 120.305035,22.874788,0.0 120.305055,22.873616,0.0 120.304386,22.87316,0.0 120.303725,22.872992,0.0 120.303293,22.872882,0.0 120.303534,22.871952,0.0 120.304058,22.870779,0.0 120.303419,22.870229,0.0 120.303594,22.869246,0.0 120.303816,22.868204,0.0 120.303923,22.86666,0.0 120.305074,22.86567,0.0 120.30581,22.865163,0.0 120.306007,22.863883,0.0 120.306045,22.862407,0.0 120.305381,22.858776,0.0 120.304645,22.857127,0.0 120.304908,22.856566,0.0 120.305228,22.855482,0.0 120.305578,22.855009,0.0 120.305886,22.853762,0.0 120.305785,22.852249,0.0 120.308842,22.853269,0.0 120.310668,22.854659,0.0 120.312071,22.855636,0.0 120.313864,22.856014,0.0 120.316741,22.856024,0.0 120.317787,22.858419,0.0 120.317564,22.861658,0.0 120.32046,22.86304,0.0 120.324089,22.863255,0.0 120.32318,22.867746,0.0 120.324141,22.87159,0.0 120.324054,22.872937,0.0 120.3242,22.873403,0.0</coordinates></LinearRing></outerBoundaryIs></Polygon><styleUrl>#spolygon-map</styleUrl></Placemark><Placemark><Polygon><outerBoundaryIs><LinearRing><coordinates>120.335183,22.870381,0.0 120.334386,22.870416,0.0 120.334242,22.870147,0.0 120.333547,22.869977,0.0 120.333013,22.869029,0.0 120.332652,22.869537,0.0 120.332304,22.869412,0.0 120.332461,22.868846,0.0 120.331934,22.868672,0.0 120.331095,22.868793,0.0 120.330581,22.86861,0.0 120.329818,22.868932,0.0 120.328128,22.86862,0.0 120.326888,22.868479,0.0 120.324776,22.867953,0.0 120.32382,22.867024,0.0 120.322302,22.863152,0.0 120.317746,22.862873,0.0 120.317726,22.859362,0.0 120.317885,22.856965,0.0 120.324424,22.858418,0.0 120.325442,22.858555,0.0 120.327265,22.857906,0.0 120.331094,22.856859,0.0 120.339478,22.853591,0.0 120.341203,22.852524,0.0 120.34107,22.851426,0.0 120.34298,22.85182,0.0 120.345016,22.852472,0.0 120.345875,22.853376,0.0 120.347323,22.855086,0.0 120.347716,22.857558,0.0 120.34845,22.859683,0.0 120.34777,22.860701,0.0 120.346735,22.861972,0.0 120.3458,22.862785,0.0 120.342545,22.865748,0.0 120.342102,22.866631,0.0 120.342253,22.867383,0.0 120.341931,22.867957,0.0 120.341056,22.867155,0.0 120.340221,22.866314,0.0 120.33845,22.865791,0.0 120.336279,22.865153,0.0 120.335303,22.868576,0.0 120.335183,22.870381,0.0</coordinates></LinearRing></outerBoundaryIs></Polygon><styleUrl>#spolygon-map</styleUrl></Placemark><Placemark><Polygon><outerBoundaryIs><LinearRing><coordinates>120.350508,22.889709,0.0 120.348876,22.890582,0.0 120.347463,22.890085,0.0 120.345725,22.889578,0.0 120.343103,22.88969,0.0 120.340593,22.889264,0.0 120.338145,22.889373,0.0 120.335669,22.88941,0.0 120.333098,22.889291,0.0 120.331824,22.889683,0.0 120.329798,22.888846,0.0 120.325839,22.8882,0.0 120.324158,22.88724,0.0 120.326314,22.884174,0.0 120.328328,22.882645,0.0 120.329121,22.881551,0.0 120.33047,22.880692,0.0 120.332668,22.880681,0.0 120.336998,22.881282,0.0 120.340307,22.881738,0.0 120.344055,22.881189,0.0 120.34634,22.881056,0.0 120.347556,22.884443,0.0 120.349261,22.885836,0.0 120.350378,22.887694,0.0 120.35105,22.888433,0.0 120.350704,22.889457,0.0 120.350508,22.889709,0.0</coordinates></LinearRing></outerBoundaryIs></Polygon><styleUrl>#spolygon-map</styleUrl></Placemark><Placemark><Polygon><outerBoundaryIs><LinearRing><coordinates>120.326989,22.883238,0.0 120.32504,22.885995,0.0 120.323511,22.886049,0.0 120.325157,22.883758,0.0 120.326259,22.882115,0.0 120.327504,22.881368,0.0 120.327455,22.879165,0.0 120.326283,22.876523,0.0 120.325572,22.875339,0.0 120.324975,22.874492,0.0 120.324173,22.873222,0.0 120.324152,22.871967,0.0 120.323087,22.868964,0.0 120.325987,22.873061,0.0 120.327851,22.877432,0.0 120.328996,22.880018,0.0 120.329121,22.881551,0.0 120.328328,22.882645,0.0 120.326989,22.883238,0.0</coordinates></LinearRing></outerBoundaryIs></Polygon><styleUrl>#spolygon-map</styleUrl></Placemark><Placemark><Polygon><outerBoundaryIs><LinearRing><coordinates>120.326259,22.882115,0.0 120.325157,22.883758,0.0 120.323511,22.886049,0.0 120.318234,22.88577,0.0 120.317716,22.884097,0.0 120.32046,22.880144,0.0 120.322078,22.87762,0.0 120.326283,22.876523,0.0 120.327455,22.879165,0.0 120.327504,22.881368,0.0 120.326259,22.882115,0.0</coordinates></LinearRing></outerBoundaryIs></Polygon><styleUrl>#spolygon-map</styleUrl></Placemark><Placemark><Polygon><outerBoundaryIs><LinearRing><coordinates>120.324868,22.900463,0.0 120.323933,22.899951,0.0 120.322775,22.898289,0.0 120.321287,22.896285,0.0 120.319852,22.894951,0.0 120.318564,22.895702,0.0 120.31711,22.897696,0.0 120.313721,22.892715,0.0 120.314625,22.888619,0.0 120.31824,22.885772,0.0 120.324388,22.887372,0.0 120.326304,22.888276,0.0 120.329824,22.888821,0.0 120.330768,22.890692,0.0 120.329035,22.893832,0.0 120.327944,22.896422,0.0 120.327097,22.898341,0.0 120.325213,22.900293,0.0 120.324868,22.900463,0.0</coordinates></LinearRing></outerBoundaryIs></Polygon><styleUrl>#spolygon-map</styleUrl></Placemark><Placemark><Polygon><outerBoundaryIs><LinearRing><coordinates>120.330615,22.856846,0.0 120.326087,22.858289,0.0 120.325101,22.858662,0.0 120.32368,22.857733,0.0 120.319351,22.850826,0.0 120.317139,22.847367,0.0 120.323293,22.845795,0.0 120.321347,22.843288,0.0 120.320262,22.842638,0.0 120.319838,22.841543,0.0 120.32001,22.840871,0.0 120.320675,22.839991,0.0 120.321324,22.839486,0.0 120.322124,22.839873,0.0 120.32317,22.839205,0.0 120.324111,22.839249,0.0 120.325497,22.838646,0.0 120.325915,22.839257,0.0 120.327002,22.838548,0.0 120.327678,22.838224,0.0 120.328116,22.83756,0.0 120.32866,22.837058,0.0 120.329563,22.83606,0.0 120.32986,22.835354,0.0 120.331157,22.835326,0.0 120.332608,22.83554,0.0 120.333788,22.835445,0.0 120.334821,22.835339,0.0 120.335956,22.836021,0.0 120.336296,22.836822,0.0 120.33811,22.836421,0.0 120.339827,22.836435,0.0 120.340966,22.836916,0.0 120.341426,22.838222,0.0 120.342386,22.839888,0.0 120.343253,22.841127,0.0 120.344078,22.84232,0.0 120.344227,22.843883,0.0 120.344322,22.845499,0.0 120.344548,22.846923,0.0 120.344874,22.847805,0.0 120.345253,22.848632,0.0 120.344851,22.850028,0.0 120.345084,22.850837,0.0 120.343034,22.851964,0.0 120.341404,22.851145,0.0 120.341335,22.852515,0.0 120.339502,22.853302,0.0 120.332204,22.856837,0.0 120.330615,22.856846,0.0</coordinates></LinearRing></outerBoundaryIs></Polygon><styleUrl>#spolygon-map</styleUrl></Placemark><Placemark><Polygon><outerBoundaryIs><LinearRing><coordinates>120.322932,22.856296,0.0 120.319206,22.85628,0.0 120.316138,22.855922,0.0 120.312782,22.856011,0.0 120.311679,22.855593,0.0 120.309725,22.854526,0.0 120.307839,22.852222,0.0 120.305321,22.851703,0.0 120.303571,22.851767,0.0 120.301456,22.850652,0.0 120.298894,22.849392,0.0 120.297796,22.846644,0.0 120.297213,22.844793,0.0 120.297471,22.843927,0.0 120.296927,22.843376,0.0 120.300895,22.837562,0.0 120.305479,22.835492,0.0 120.307904,22.834669,0.0 120.307228,22.835472,0.0 120.309072,22.837051,0.0 120.311607,22.836882,0.0 120.312872,22.837007,0.0 120.313391,22.836266,0.0 120.315387,22.836322,0.0 120.317655,22.836808,0.0 120.319597,22.841165,0.0 120.320203,22.842588,0.0 120.320995,22.842923,0.0 120.323146,22.845515,0.0 120.317839,22.847237,0.0 120.319147,22.850532,0.0 120.322932,22.856296,0.0</coordinates></LinearRing></outerBoundaryIs></Polygon><styleUrl>#spolygon-map</styleUrl></Placemark><Placemark><Polygon><outerBoundaryIs><LinearRing><coordinates>120.342134,22.880804,0.0 120.339521,22.881647,0.0 120.335993,22.881124,0.0 120.332034,22.880649,0.0 120.329843,22.880771,0.0 120.328663,22.879285,0.0 120.327311,22.876179,0.0 120.32384,22.868083,0.0 120.324776,22.867953,0.0 120.326888,22.868479,0.0 120.328128,22.86862,0.0 120.329818,22.868932,0.0 120.330581,22.86861,0.0 120.331095,22.868793,0.0 120.331934,22.868672,0.0 120.332461,22.868846,0.0 120.332304,22.869412,0.0 120.332652,22.869537,0.0 120.333013,22.869029,0.0 120.333547,22.869977,0.0 120.334242,22.870147,0.0 120.334386,22.870416,0.0 120.335039,22.870719,0.0 120.33532,22.87161,0.0 120.336308,22.87272,0.0 120.336637,22.873645,0.0 120.33715,22.875063,0.0 120.338278,22.875616,0.0 120.338827,22.877144,0.0 120.339846,22.877964,0.0 120.341158,22.877885,0.0 120.341788,22.878193,0.0 120.342929,22.878563,0.0 120.341867,22.879123,0.0 120.342134,22.880804,0.0</coordinates></LinearRing></outerBoundaryIs></Polygon><styleUrl>#spolygon-map</styleUrl></Placemark></Document>
</kml>
