<?xml version="1.0" encoding="UTF-8"?>
<kml xmlns="http://www.opengis.net/kml/2.2">
	<Document>
		<name>高雄市田寮區</name>
		<Style id="spolygon">
			<LabelStyle>
				<scale>0.0</scale>
			</LabelStyle>
			<LineStyle>
				<color>330030ff</color>
				<width>0</width>
			</LineStyle>
			<PolyStyle>
				<color>330030ff</color>
			</PolyStyle>
		</Style>
		<StyleMap id="spolygon-map">
			<Pair>
				<key>normal</key>
				<styleUrl>#spolygon</styleUrl>
			</Pair>
		</StyleMap>
	<Placemark><Polygon><outerBoundaryIs><LinearRing><coordinates>120.430486,22.89386,0.0 120.429936,22.895244,0.0 120.429518,22.895888,0.0 120.428637,22.895454,0.0 120.427869,22.894925,0.0 120.42786,22.894316,0.0 120.427379,22.89377,0.0 120.427185,22.894279,0.0 120.426616,22.893523,0.0 120.425758,22.893662,0.0 120.425208,22.893292,0.0 120.423644,22.894,0.0 120.422937,22.89365,0.0 120.422286,22.893187,0.0 120.422301,22.894018,0.0 120.41934,22.89181,0.0 120.415705,22.891732,0.0 120.413204,22.891187,0.0 120.410645,22.8899,0.0 120.408737,22.886556,0.0 120.405945,22.885347,0.0 120.405258,22.883103,0.0 120.40663,22.88406,0.0 120.406111,22.882783,0.0 120.407635,22.882926,0.0 120.408549,22.881982,0.0 120.408144,22.880625,0.0 120.410039,22.880556,0.0 120.409145,22.881413,0.0 120.410437,22.88212,0.0 120.411385,22.882315,0.0 120.41298,22.881341,0.0 120.413814,22.881448,0.0 120.415659,22.881078,0.0 120.415906,22.880259,0.0 120.415829,22.878439,0.0 120.417284,22.878235,0.0 120.418213,22.877999,0.0 120.417381,22.877131,0.0 120.418471,22.876428,0.0 120.419351,22.875226,0.0 120.420292,22.875688,0.0 120.421795,22.876594,0.0 120.423348,22.876311,0.0 120.423555,22.873979,0.0 120.424734,22.874153,0.0 120.425695,22.873416,0.0 120.427069,22.874218,0.0 120.427175,22.872561,0.0 120.428155,22.872129,0.0 120.429419,22.872014,0.0 120.429681,22.872532,0.0 120.43132,22.870898,0.0 120.432067,22.870583,0.0 120.433179,22.870621,0.0 120.434147,22.870518,0.0 120.434899,22.87036,0.0 120.435419,22.871224,0.0 120.436062,22.871859,0.0 120.436654,22.87222,0.0 120.437789,22.872538,0.0 120.438737,22.872812,0.0 120.439156,22.873412,0.0 120.440464,22.873626,0.0 120.440863,22.873865,0.0 120.44094,22.87461,0.0 120.441277,22.87467,0.0 120.44207,22.875334,0.0 120.443686,22.874613,0.0 120.446357,22.873205,0.0 120.447628,22.873229,0.0 120.448275,22.874164,0.0 120.448035,22.874691,0.0 120.446851,22.875227,0.0 120.44578,22.876806,0.0 120.445174,22.877531,0.0 120.443655,22.878785,0.0 120.44253,22.878799,0.0 120.442963,22.880717,0.0 120.442517,22.882389,0.0 120.442824,22.883169,0.0 120.442906,22.884433,0.0 120.443189,22.885346,0.0 120.441406,22.886173,0.0 120.439858,22.885971,0.0 120.436719,22.885836,0.0 120.433526,22.886771,0.0 120.431009,22.884524,0.0 120.429734,22.884578,0.0 120.430755,22.887002,0.0 120.431299,22.88814,0.0 120.432389,22.889559,0.0 120.432627,22.890775,0.0 120.431908,22.892305,0.0 120.431065,22.892826,0.0 120.430486,22.89386,0.0</coordinates></LinearRing></outerBoundaryIs></Polygon><styleUrl>#spolygon-map</styleUrl></Placemark><Placemark><Polygon><outerBoundaryIs><LinearRing><coordinates>120.418566,22.875589,0.0 120.418158,22.876716,0.0 120.417715,22.877611,0.0 120.417867,22.878433,0.0 120.414439,22.875623,0.0 120.411365,22.873876,0.0 120.408392,22.872675,0.0 120.407785,22.871521,0.0 120.407756,22.871108,0.0 120.407421,22.870617,0.0 120.406678,22.870395,0.0 120.406141,22.870082,0.0 120.405335,22.869995,0.0 120.404983,22.869578,0.0 120.40448,22.869283,0.0 120.403967,22.869572,0.0 120.403371,22.869701,0.0 120.402788,22.86973,0.0 120.401991,22.869856,0.0 120.40144,22.869671,0.0 120.400475,22.86985,0.0 120.399933,22.870313,0.0 120.399699,22.870816,0.0 120.399443,22.871176,0.0 120.398556,22.870839,0.0 120.397507,22.869966,0.0 120.396761,22.869067,0.0 120.396432,22.868442,0.0 120.395867,22.868011,0.0 120.395517,22.867294,0.0 120.395242,22.86665,0.0 120.394624,22.865846,0.0 120.393602,22.864785,0.0 120.392387,22.864451,0.0 120.390405,22.865218,0.0 120.389812,22.865351,0.0 120.387558,22.865252,0.0 120.383691,22.862187,0.0 120.381949,22.861347,0.0 120.382662,22.862872,0.0 120.383014,22.86423,0.0 120.382106,22.864624,0.0 120.380562,22.864591,0.0 120.380519,22.865647,0.0 120.379931,22.864956,0.0 120.380973,22.862906,0.0 120.379016,22.86281,0.0 120.377936,22.863176,0.0 120.376987,22.863064,0.0 120.376755,22.863325,0.0 120.377723,22.864875,0.0 120.376488,22.865512,0.0 120.374765,22.864834,0.0 120.374052,22.864303,0.0 120.373264,22.864763,0.0 120.373312,22.865867,0.0 120.373585,22.8665,0.0 120.372882,22.867315,0.0 120.374269,22.86793,0.0 120.373501,22.8682,0.0 120.372587,22.868549,0.0 120.371105,22.86938,0.0 120.369234,22.867831,0.0 120.368144,22.866752,0.0 120.368827,22.865716,0.0 120.367129,22.865581,0.0 120.363039,22.869879,0.0 120.360506,22.875497,0.0 120.356757,22.875125,0.0 120.356631,22.873799,0.0 120.357113,22.87349,0.0 120.35775,22.871627,0.0 120.357191,22.871011,0.0 120.35692,22.870116,0.0 120.356171,22.868162,0.0 120.353564,22.866608,0.0 120.352368,22.864806,0.0 120.349743,22.86207,0.0 120.349298,22.861161,0.0 120.348863,22.859985,0.0 120.347611,22.859036,0.0 120.347735,22.856147,0.0 120.34648,22.854182,0.0 120.345249,22.852978,0.0 120.344864,22.85185,0.0 120.345125,22.850777,0.0 120.34486,22.849985,0.0 120.345167,22.848481,0.0 120.344727,22.847671,0.0 120.345437,22.846809,0.0 120.346664,22.846769,0.0 120.347522,22.845657,0.0 120.34891,22.847087,0.0 120.349652,22.845955,0.0 120.351699,22.847374,0.0 120.354617,22.848386,0.0 120.355731,22.84882,0.0 120.356033,22.849514,0.0 120.357223,22.850031,0.0 120.358074,22.85017,0.0 120.35906,22.850725,0.0 120.359628,22.85058,0.0 120.360229,22.851141,0.0 120.361517,22.850972,0.0 120.363634,22.851134,0.0 120.364356,22.851791,0.0 120.365163,22.85163,0.0 120.365599,22.849855,0.0 120.366117,22.849085,0.0 120.367179,22.847064,0.0 120.366991,22.845503,0.0 120.367225,22.84384,0.0 120.368426,22.842926,0.0 120.370815,22.845214,0.0 120.371931,22.846354,0.0 120.372831,22.846298,0.0 120.373658,22.846629,0.0 120.374184,22.847401,0.0 120.375169,22.84757,0.0 120.376048,22.848248,0.0 120.377304,22.849474,0.0 120.379154,22.851066,0.0 120.379543,22.852149,0.0 120.381638,22.852404,0.0 120.382989,22.852858,0.0 120.3848,22.854651,0.0 120.387012,22.854533,0.0 120.388317,22.85585,0.0 120.38909,22.855999,0.0 120.390154,22.855737,0.0 120.392235,22.854424,0.0 120.393908,22.853884,0.0 120.395255,22.853738,0.0 120.398992,22.85606,0.0 120.401167,22.857781,0.0 120.402461,22.856791,0.0 120.404019,22.857174,0.0 120.405602,22.857803,0.0 120.406278,22.857182,0.0 120.406949,22.856137,0.0 120.408899,22.855871,0.0 120.411374,22.856131,0.0 120.413214,22.855862,0.0 120.415101,22.854426,0.0 120.416689,22.853078,0.0 120.419226,22.852579,0.0 120.42092,22.853965,0.0 120.42248,22.856171,0.0 120.423408,22.857322,0.0 120.424296,22.858397,0.0 120.424957,22.859165,0.0 120.426366,22.860227,0.0 120.430808,22.861523,0.0 120.435133,22.861328,0.0 120.438649,22.861733,0.0 120.441728,22.862404,0.0 120.44332,22.863077,0.0 120.443798,22.864167,0.0 120.44401,22.864669,0.0 120.444583,22.864901,0.0 120.44545,22.865683,0.0 120.446175,22.866338,0.0 120.445536,22.866616,0.0 120.444738,22.866742,0.0 120.4444,22.867317,0.0 120.443979,22.8678,0.0 120.44346,22.868045,0.0 120.443008,22.868416,0.0 120.443105,22.868998,0.0 120.443401,22.869839,0.0 120.444074,22.870016,0.0 120.444757,22.870386,0.0 120.445121,22.871078,0.0 120.44678,22.872459,0.0 120.444763,22.874082,0.0 120.44309,22.875211,0.0 120.441642,22.875062,0.0 120.441205,22.874537,0.0 120.440776,22.874531,0.0 120.440867,22.873614,0.0 120.43979,22.873676,0.0 120.43919,22.873211,0.0 120.43879,22.872537,0.0 120.437236,22.872457,0.0 120.436321,22.872138,0.0 120.436144,22.871543,0.0 120.434819,22.871042,0.0 120.434745,22.870278,0.0 120.433954,22.870197,0.0 120.432502,22.871045,0.0 120.431854,22.871031,0.0 120.430349,22.871475,0.0 120.429343,22.872519,0.0 120.428675,22.872341,0.0 120.427985,22.871634,0.0 120.42705,22.873407,0.0 120.426598,22.874117,0.0 120.425526,22.87386,0.0 120.423778,22.873416,0.0 120.423692,22.875756,0.0 120.422284,22.875984,0.0 120.421329,22.876572,0.0 120.420133,22.875432,0.0 120.418672,22.875519,0.0 120.418566,22.875589,0.0</coordinates></LinearRing></outerBoundaryIs></Polygon><styleUrl>#spolygon-map</styleUrl></Placemark><Placemark><Polygon><outerBoundaryIs><LinearRing><coordinates>120.406356,22.856848,0.0 120.405873,22.857892,0.0 120.404313,22.857385,0.0 120.40303,22.856763,0.0 120.401503,22.85737,0.0 120.400013,22.857348,0.0 120.396974,22.853959,0.0 120.394288,22.853931,0.0 120.392873,22.854472,0.0 120.390678,22.855265,0.0 120.389421,22.856195,0.0 120.388377,22.856134,0.0 120.387523,22.855212,0.0 120.385259,22.855095,0.0 120.384052,22.853824,0.0 120.381996,22.852294,0.0 120.380315,22.852663,0.0 120.379315,22.851677,0.0 120.377817,22.849887,0.0 120.376671,22.848921,0.0 120.375406,22.847699,0.0 120.37441,22.847661,0.0 120.373712,22.847047,0.0 120.373187,22.846302,0.0 120.372161,22.846494,0.0 120.371491,22.846103,0.0 120.368687,22.843932,0.0 120.368005,22.842656,0.0 120.367173,22.844955,0.0 120.367464,22.846261,0.0 120.366579,22.848768,0.0 120.366036,22.849674,0.0 120.365254,22.850456,0.0 120.36478,22.851906,0.0 120.36373,22.851448,0.0 120.363533,22.850732,0.0 120.362763,22.849381,0.0 120.361013,22.848733,0.0 120.36092,22.847621,0.0 120.361093,22.8468,0.0 120.360365,22.845962,0.0 120.361306,22.845307,0.0 120.362,22.844447,0.0 120.361297,22.843774,0.0 120.361229,22.842766,0.0 120.362161,22.842621,0.0 120.362572,22.840864,0.0 120.363487,22.839823,0.0 120.365282,22.839489,0.0 120.366695,22.839901,0.0 120.367554,22.840096,0.0 120.368238,22.839227,0.0 120.369954,22.839681,0.0 120.369442,22.838302,0.0 120.370374,22.837651,0.0 120.371031,22.837683,0.0 120.376336,22.836537,0.0 120.377077,22.836808,0.0 120.376866,22.837597,0.0 120.377264,22.839008,0.0 120.378293,22.840147,0.0 120.379779,22.840429,0.0 120.381177,22.841883,0.0 120.382656,22.841248,0.0 120.38443,22.843339,0.0 120.386402,22.842028,0.0 120.38733,22.84468,0.0 120.387929,22.844971,0.0 120.388705,22.845705,0.0 120.389672,22.845585,0.0 120.390168,22.845244,0.0 120.390507,22.847223,0.0 120.390761,22.846361,0.0 120.391691,22.846563,0.0 120.392564,22.84567,0.0 120.393493,22.846139,0.0 120.39421,22.846074,0.0 120.395283,22.84641,0.0 120.396423,22.84485,0.0 120.399538,22.846155,0.0 120.402307,22.847145,0.0 120.403834,22.848745,0.0 120.405379,22.848554,0.0 120.407316,22.84972,0.0 120.408326,22.848105,0.0 120.410348,22.849205,0.0 120.412045,22.8502,0.0 120.414409,22.851322,0.0 120.416126,22.852333,0.0 120.415776,22.854129,0.0 120.413961,22.855212,0.0 120.412032,22.856156,0.0 120.409877,22.855886,0.0 120.407361,22.856044,0.0 120.406356,22.856848,0.0</coordinates></LinearRing></outerBoundaryIs></Polygon><styleUrl>#spolygon-map</styleUrl></Placemark><Placemark><Polygon><outerBoundaryIs><LinearRing><coordinates>120.443117,22.861336,0.0 120.443027,22.861841,0.0 120.442971,22.862426,0.0 120.440385,22.862223,0.0 120.437978,22.861374,0.0 120.433503,22.861221,0.0 120.429725,22.861201,0.0 120.425316,22.859688,0.0 120.424682,22.858902,0.0 120.423831,22.857944,0.0 120.423171,22.856921,0.0 120.421791,22.855049,0.0 120.420412,22.853308,0.0 120.41805,22.85285,0.0 120.416126,22.852333,0.0 120.414409,22.851322,0.0 120.412045,22.8502,0.0 120.410348,22.849205,0.0 120.408326,22.848105,0.0 120.407316,22.84972,0.0 120.405379,22.848554,0.0 120.403834,22.848745,0.0 120.402307,22.847145,0.0 120.399538,22.846155,0.0 120.396423,22.84485,0.0 120.395155,22.843314,0.0 120.39398,22.842569,0.0 120.394761,22.842064,0.0 120.395737,22.842125,0.0 120.396047,22.841241,0.0 120.396779,22.840546,0.0 120.396708,22.840288,0.0 120.397162,22.840331,0.0 120.398035,22.83969,0.0 120.398729,22.839752,0.0 120.399497,22.840585,0.0 120.398835,22.838971,0.0 120.399118,22.837864,0.0 120.399783,22.837223,0.0 120.399484,22.835937,0.0 120.400879,22.83624,0.0 120.401768,22.835605,0.0 120.403121,22.8367,0.0 120.40457,22.835773,0.0 120.406241,22.836059,0.0 120.408269,22.83557,0.0 120.408234,22.835322,0.0 120.40908,22.834404,0.0 120.40974,22.832747,0.0 120.411115,22.831632,0.0 120.412885,22.831115,0.0 120.415591,22.829671,0.0 120.418513,22.828955,0.0 120.421489,22.82811,0.0 120.427054,22.830329,0.0 120.431474,22.829731,0.0 120.432895,22.831506,0.0 120.433142,22.832157,0.0 120.433921,22.831988,0.0 120.435841,22.833557,0.0 120.43679,22.835193,0.0 120.437665,22.835986,0.0 120.439356,22.836735,0.0 120.440433,22.838132,0.0 120.442364,22.838872,0.0 120.443697,22.839737,0.0 120.444162,22.841484,0.0 120.445091,22.842735,0.0 120.446613,22.843608,0.0 120.44705,22.84474,0.0 120.447096,22.845668,0.0 120.447453,22.846877,0.0 120.448117,22.84739,0.0 120.448688,22.848132,0.0 120.448426,22.84924,0.0 120.448112,22.850009,0.0 120.44724,22.850493,0.0 120.446758,22.850955,0.0 120.446657,22.851521,0.0 120.446185,22.852612,0.0 120.44579,22.85352,0.0 120.445227,22.854365,0.0 120.445263,22.855085,0.0 120.445105,22.8558,0.0 120.44485,22.856213,0.0 120.444909,22.856877,0.0 120.445099,22.857446,0.0 120.444802,22.857992,0.0 120.444474,22.858503,0.0 120.444178,22.858951,0.0 120.444446,22.859471,0.0 120.444286,22.860087,0.0 120.443692,22.860412,0.0 120.443108,22.860717,0.0 120.443117,22.861336,0.0</coordinates></LinearRing></outerBoundaryIs></Polygon><styleUrl>#spolygon-map</styleUrl></Placemark><Placemark><Polygon><outerBoundaryIs><LinearRing><coordinates>120.397595,22.836664,0.0 120.396308,22.836614,0.0 120.395106,22.835214,0.0 120.391879,22.83514,0.0 120.390689,22.836409,0.0 120.389639,22.835279,0.0 120.387662,22.833867,0.0 120.385951,22.834093,0.0 120.385213,22.833099,0.0 120.384182,22.832896,0.0 120.383387,22.831611,0.0 120.382475,22.83086,0.0 120.382529,22.830151,0.0 120.382223,22.829245,0.0 120.381578,22.828181,0.0 120.381065,22.827725,0.0 120.380241,22.826686,0.0 120.379523,22.825927,0.0 120.379277,22.825553,0.0 120.37871,22.824795,0.0 120.378641,22.824199,0.0 120.37866,22.824081,0.0 120.378626,22.823659,0.0 120.377921,22.823911,0.0 120.377474,22.823747,0.0 120.377992,22.823327,0.0 120.37824,22.822147,0.0 120.377678,22.82161,0.0 120.37836,22.820888,0.0 120.379173,22.821916,0.0 120.380702,22.820511,0.0 120.381485,22.820051,0.0 120.382888,22.819352,0.0 120.383724,22.820127,0.0 120.384203,22.820606,0.0 120.38512,22.820508,0.0 120.385859,22.819905,0.0 120.38672,22.819299,0.0 120.387487,22.818458,0.0 120.388016,22.817767,0.0 120.388614,22.818444,0.0 120.389441,22.818637,0.0 120.39026,22.818681,0.0 120.391107,22.818009,0.0 120.392058,22.817554,0.0 120.392709,22.817243,0.0 120.39348,22.816882,0.0 120.393652,22.816226,0.0 120.392924,22.816221,0.0 120.393103,22.815926,0.0 120.393665,22.815528,0.0 120.393974,22.814997,0.0 120.394759,22.813995,0.0 120.395109,22.81403,0.0 120.395602,22.813657,0.0 120.395685,22.814224,0.0 120.39661,22.81397,0.0 120.397218,22.814508,0.0 120.397463,22.815046,0.0 120.39795,22.815725,0.0 120.398629,22.815978,0.0 120.399403,22.816363,0.0 120.400078,22.816453,0.0 120.400905,22.816061,0.0 120.401341,22.816485,0.0 120.401874,22.816386,0.0 120.402353,22.816101,0.0 120.403108,22.815839,0.0 120.403796,22.815397,0.0 120.404658,22.815369,0.0 120.405369,22.815338,0.0 120.406273,22.815454,0.0 120.407043,22.815346,0.0 120.407855,22.815602,0.0 120.408611,22.815702,0.0 120.409486,22.81571,0.0 120.410113,22.815082,0.0 120.410168,22.814412,0.0 120.410012,22.813761,0.0 120.409912,22.813138,0.0 120.410569,22.812637,0.0 120.411117,22.812065,0.0 120.411792,22.811636,0.0 120.41212,22.8111,0.0 120.412653,22.810759,0.0 120.413522,22.810636,0.0 120.414202,22.810796,0.0 120.414957,22.810869,0.0 120.415839,22.810694,0.0 120.416237,22.810248,0.0 120.416613,22.809828,0.0 120.417101,22.809064,0.0 120.417894,22.808604,0.0 120.418408,22.808543,0.0 120.41893,22.808895,0.0 120.419382,22.809576,0.0 120.419635,22.810143,0.0 120.420172,22.81071,0.0 120.420733,22.811118,0.0 120.42119,22.81159,0.0 120.421561,22.812632,0.0 120.421442,22.81332,0.0 120.421479,22.813954,0.0 120.421498,22.814647,0.0 120.421794,22.815003,0.0 120.421922,22.815624,0.0 120.42185,22.816333,0.0 120.422395,22.816707,0.0 120.422839,22.817163,0.0 120.42311,22.817816,0.0 120.42359,22.818477,0.0 120.423921,22.819133,0.0 120.424523,22.819102,0.0 120.424991,22.819002,0.0 120.42514,22.81984,0.0 120.426103,22.82055,0.0 120.426922,22.821165,0.0 120.427374,22.821629,0.0 120.427397,22.822223,0.0 120.427217,22.822836,0.0 120.427059,22.823414,0.0 120.426788,22.824334,0.0 120.427573,22.824815,0.0 120.428865,22.825217,0.0 120.430257,22.826281,0.0 120.430292,22.82809,0.0 120.430632,22.829802,0.0 120.426082,22.830161,0.0 120.421309,22.828091,0.0 120.418298,22.829019,0.0 120.415372,22.829754,0.0 120.412729,22.831155,0.0 120.411026,22.83167,0.0 120.40972,22.833252,0.0 120.408936,22.834512,0.0 120.408252,22.835365,0.0 120.408099,22.835563,0.0 120.406136,22.835928,0.0 120.404088,22.835776,0.0 120.402983,22.836627,0.0 120.401526,22.835678,0.0 120.400721,22.836149,0.0 120.399483,22.836095,0.0 120.397595,22.836664,0.0</coordinates></LinearRing></outerBoundaryIs></Polygon><styleUrl>#spolygon-map</styleUrl></Placemark><Placemark><Polygon><outerBoundaryIs><LinearRing><coordinates>120.379928,22.896725,0.0 120.37786,22.897817,0.0 120.377227,22.895354,0.0 120.377267,22.892222,0.0 120.376277,22.888636,0.0 120.380185,22.885689,0.0 120.380146,22.88181,0.0 120.378487,22.878745,0.0 120.378152,22.878145,0.0 120.378476,22.875884,0.0 120.380466,22.874869,0.0 120.382813,22.873461,0.0 120.383068,22.87618,0.0 120.385954,22.876484,0.0 120.388715,22.874673,0.0 120.390979,22.875476,0.0 120.391464,22.87924,0.0 120.395691,22.882229,0.0 120.395031,22.883701,0.0 120.393613,22.885513,0.0 120.395561,22.886042,0.0 120.396235,22.888101,0.0 120.393419,22.888262,0.0 120.391672,22.888838,0.0 120.390578,22.889472,0.0 120.390555,22.890626,0.0 120.389536,22.891877,0.0 120.388763,22.893364,0.0 120.388246,22.894286,0.0 120.387717,22.894245,0.0 120.386533,22.894114,0.0 120.385389,22.89371,0.0 120.384449,22.894262,0.0 120.383745,22.894194,0.0 120.382682,22.895129,0.0 120.380627,22.895457,0.0 120.379928,22.896725,0.0</coordinates></LinearRing></outerBoundaryIs></Polygon><styleUrl>#spolygon-map</styleUrl></Placemark><Placemark><Polygon><outerBoundaryIs><LinearRing><coordinates>120.380166,22.918465,0.0 120.377823,22.918266,0.0 120.377207,22.917616,0.0 120.376508,22.916173,0.0 120.376659,22.915385,0.0 120.376454,22.914378,0.0 120.373901,22.914201,0.0 120.373159,22.912444,0.0 120.371605,22.912654,0.0 120.371555,22.911024,0.0 120.372796,22.909683,0.0 120.372917,22.908374,0.0 120.372499,22.907576,0.0 120.372077,22.906479,0.0 120.37105,22.907218,0.0 120.369419,22.906037,0.0 120.368651,22.904562,0.0 120.367666,22.904251,0.0 120.366472,22.905123,0.0 120.365655,22.904368,0.0 120.365942,22.903059,0.0 120.365574,22.90213,0.0 120.364295,22.9018,0.0 120.362454,22.902,0.0 120.361534,22.901035,0.0 120.36117,22.90211,0.0 120.360431,22.901475,0.0 120.3592,22.900486,0.0 120.36025,22.899637,0.0 120.361348,22.900673,0.0 120.361586,22.899373,0.0 120.361043,22.897924,0.0 120.360353,22.897461,0.0 120.359447,22.896723,0.0 120.35838,22.89608,0.0 120.357777,22.89536,0.0 120.357537,22.894481,0.0 120.357007,22.893979,0.0 120.357133,22.893257,0.0 120.356489,22.892751,0.0 120.355959,22.893095,0.0 120.355543,22.893872,0.0 120.354955,22.893544,0.0 120.354562,22.892875,0.0 120.354903,22.892377,0.0 120.355486,22.892,0.0 120.354743,22.891841,0.0 120.353899,22.892296,0.0 120.353276,22.892384,0.0 120.353078,22.891706,0.0 120.353526,22.891026,0.0 120.354691,22.89097,0.0 120.3551,22.89036,0.0 120.35419,22.889893,0.0 120.353026,22.889633,0.0 120.351721,22.8891,0.0 120.351913,22.888261,0.0 120.351894,22.887509,0.0 120.351108,22.888156,0.0 120.350264,22.887563,0.0 120.349148,22.885355,0.0 120.348961,22.884,0.0 120.349513,22.882968,0.0 120.350356,22.88229,0.0 120.351448,22.882222,0.0 120.35254,22.8827,0.0 120.353398,22.883442,0.0 120.353764,22.884383,0.0 120.352617,22.885299,0.0 120.352193,22.886191,0.0 120.352826,22.887002,0.0 120.353961,22.886738,0.0 120.354831,22.88648,0.0 120.356239,22.886666,0.0 120.356869,22.885892,0.0 120.356471,22.884685,0.0 120.356059,22.883193,0.0 120.356745,22.882704,0.0 120.357747,22.882116,0.0 120.357884,22.881004,0.0 120.357345,22.880478,0.0 120.355297,22.880104,0.0 120.354861,22.879287,0.0 120.354826,22.878129,0.0 120.355657,22.877055,0.0 120.35647,22.876133,0.0 120.359804,22.875517,0.0 120.362798,22.870379,0.0 120.366879,22.865812,0.0 120.368806,22.865511,0.0 120.368169,22.866678,0.0 120.368971,22.867688,0.0 120.370643,22.86895,0.0 120.372097,22.871703,0.0 120.374079,22.871311,0.0 120.376781,22.871394,0.0 120.378908,22.871314,0.0 120.377762,22.874066,0.0 120.377843,22.877065,0.0 120.378707,22.878662,0.0 120.379406,22.881241,0.0 120.381196,22.884474,0.0 120.37641,22.887918,0.0 120.377116,22.891314,0.0 120.377592,22.894447,0.0 120.377294,22.897528,0.0 120.379327,22.898538,0.0 120.379512,22.903271,0.0 120.381192,22.908079,0.0 120.383545,22.912414,0.0 120.383046,22.914467,0.0 120.380166,22.918465,0.0</coordinates></LinearRing></outerBoundaryIs></Polygon><styleUrl>#spolygon-map</styleUrl></Placemark><Placemark><Polygon><outerBoundaryIs><LinearRing><coordinates>120.401187,22.888474,0.0 120.401296,22.889407,0.0 120.40033,22.8906,0.0 120.399754,22.888891,0.0 120.398411,22.887574,0.0 120.395924,22.886174,0.0 120.39383,22.885773,0.0 120.394575,22.883787,0.0 120.395847,22.882342,0.0 120.391275,22.879638,0.0 120.391118,22.875956,0.0 120.388962,22.874586,0.0 120.386339,22.876201,0.0 120.383425,22.876215,0.0 120.382904,22.873671,0.0 120.380726,22.874389,0.0 120.378969,22.875952,0.0 120.377841,22.873685,0.0 120.378756,22.871128,0.0 120.376581,22.87149,0.0 120.373854,22.871518,0.0 120.372049,22.871583,0.0 120.372014,22.869018,0.0 120.373035,22.868307,0.0 120.373797,22.868364,0.0 120.374083,22.867568,0.0 120.372777,22.866978,0.0 120.373724,22.866054,0.0 120.373208,22.86537,0.0 120.37361,22.864408,0.0 120.374187,22.864649,0.0 120.375699,22.865093,0.0 120.377433,22.865247,0.0 120.377009,22.863967,0.0 120.376591,22.862995,0.0 120.377629,22.863482,0.0 120.3779,22.862803,0.0 120.38048,22.862601,0.0 120.380269,22.86398,0.0 120.380185,22.865573,0.0 120.380879,22.86524,0.0 120.381036,22.864554,0.0 120.382579,22.8643,0.0 120.383222,22.863723,0.0 120.382152,22.861989,0.0 120.382357,22.861227,0.0 120.38571,22.865046,0.0 120.388412,22.864761,0.0 120.390735,22.866352,0.0 120.392041,22.864156,0.0 120.392735,22.864592,0.0 120.394288,22.865481,0.0 120.395094,22.866164,0.0 120.395524,22.866924,0.0 120.395697,22.867819,0.0 120.39611,22.868236,0.0 120.396683,22.868737,0.0 120.396911,22.869394,0.0 120.398001,22.870369,0.0 120.399168,22.87113,0.0 120.399598,22.871071,0.0 120.399844,22.870507,0.0 120.400154,22.870021,0.0 120.400876,22.869775,0.0 120.401718,22.869717,0.0 120.402313,22.869842,0.0 120.403111,22.869653,0.0 120.403762,22.869662,0.0 120.404195,22.869338,0.0 120.40476,22.869471,0.0 120.405119,22.869712,0.0 120.405613,22.870012,0.0 120.406394,22.870306,0.0 120.407045,22.870516,0.0 120.407596,22.870843,0.0 120.407772,22.871309,0.0 120.407987,22.87173,0.0 120.409776,22.873276,0.0 120.41362,22.875704,0.0 120.41571,22.876192,0.0 120.417284,22.878235,0.0 120.415829,22.878439,0.0 120.415906,22.880259,0.0 120.415659,22.881078,0.0 120.413814,22.881448,0.0 120.41298,22.881341,0.0 120.411385,22.882315,0.0 120.410437,22.88212,0.0 120.409145,22.881413,0.0 120.410039,22.880556,0.0 120.408144,22.880625,0.0 120.408549,22.881982,0.0 120.407635,22.882926,0.0 120.406111,22.882783,0.0 120.40663,22.88406,0.0 120.405258,22.883103,0.0 120.404432,22.884204,0.0 120.405346,22.887248,0.0 120.404007,22.886877,0.0 120.403047,22.887648,0.0 120.403066,22.889861,0.0 120.402025,22.888717,0.0 120.401187,22.888474,0.0</coordinates></LinearRing></outerBoundaryIs></Polygon><styleUrl>#spolygon-map</styleUrl></Placemark><Placemark><Polygon><outerBoundaryIs><LinearRing><coordinates>120.396877,22.922595,0.0 120.395379,22.922637,0.0 120.39428,22.922274,0.0 120.39282,22.922112,0.0 120.391839,22.921917,0.0 120.390803,22.921737,0.0 120.39057,22.921271,0.0 120.389741,22.920676,0.0 120.388965,22.920502,0.0 120.388342,22.920075,0.0 120.387651,22.919449,0.0 120.387344,22.918651,0.0 120.386183,22.918464,0.0 120.385474,22.918754,0.0 120.384537,22.919252,0.0 120.383976,22.919839,0.0 120.383336,22.919945,0.0 120.382482,22.920565,0.0 120.381652,22.921169,0.0 120.381805,22.919909,0.0 120.38063,22.920223,0.0 120.380414,22.91889,0.0 120.381403,22.916023,0.0 120.383377,22.913504,0.0 120.382758,22.909686,0.0 120.379841,22.904514,0.0 120.378915,22.900866,0.0 120.379785,22.896994,0.0 120.38099,22.895425,0.0 120.38279,22.895287,0.0 120.383741,22.894076,0.0 120.384529,22.894208,0.0 120.38566,22.893838,0.0 120.386581,22.894033,0.0 120.387873,22.894505,0.0 120.388326,22.894164,0.0 120.388875,22.89327,0.0 120.389807,22.891691,0.0 120.390504,22.890483,0.0 120.39065,22.889405,0.0 120.392125,22.888419,0.0 120.393698,22.888385,0.0 120.396433,22.888038,0.0 120.398766,22.888221,0.0 120.39982,22.889013,0.0 120.400838,22.89057,0.0 120.401085,22.889025,0.0 120.401473,22.888446,0.0 120.402658,22.889511,0.0 120.403141,22.888678,0.0 120.403545,22.886623,0.0 120.405114,22.887455,0.0 120.40523,22.885231,0.0 120.404416,22.883463,0.0 120.407936,22.88584,0.0 120.4103,22.8887,0.0 120.412243,22.89099,0.0 120.415144,22.892215,0.0 120.418202,22.891041,0.0 120.421746,22.893948,0.0 120.422557,22.894696,0.0 120.422897,22.895246,0.0 120.423151,22.895491,0.0 120.422772,22.896144,0.0 120.423744,22.896549,0.0 120.423487,22.897517,0.0 120.423841,22.898345,0.0 120.423684,22.899376,0.0 120.42345,22.899754,0.0 120.422829,22.899962,0.0 120.422941,22.900339,0.0 120.42226,22.899456,0.0 120.421639,22.899567,0.0 120.421341,22.900708,0.0 120.421647,22.901561,0.0 120.421673,22.902166,0.0 120.421169,22.902726,0.0 120.421914,22.9029,0.0 120.421538,22.90342,0.0 120.420584,22.903726,0.0 120.420178,22.903158,0.0 120.419185,22.904114,0.0 120.419348,22.904979,0.0 120.418718,22.905749,0.0 120.418287,22.905063,0.0 120.41775,22.904754,0.0 120.417079,22.90496,0.0 120.416781,22.904372,0.0 120.416432,22.904826,0.0 120.416989,22.90609,0.0 120.416622,22.906872,0.0 120.417088,22.908001,0.0 120.417103,22.908753,0.0 120.416544,22.909694,0.0 120.415601,22.910025,0.0 120.414429,22.909524,0.0 120.413908,22.908228,0.0 120.413241,22.907844,0.0 120.411867,22.908494,0.0 120.411072,22.908859,0.0 120.410234,22.909425,0.0 120.409397,22.909817,0.0 120.408113,22.909805,0.0 120.407711,22.910334,0.0 120.408063,22.911661,0.0 120.408499,22.912432,0.0 120.407837,22.913222,0.0 120.407242,22.913669,0.0 120.406655,22.914396,0.0 120.406324,22.915188,0.0 120.405723,22.915695,0.0 120.405899,22.916642,0.0 120.405582,22.917817,0.0 120.404187,22.918221,0.0 120.402402,22.918252,0.0 120.401097,22.918523,0.0 120.40043,22.919035,0.0 120.400217,22.91993,0.0 120.39996,22.920943,0.0 120.399455,22.921916,0.0 120.398323,22.922386,0.0 120.397277,22.922531,0.0 120.396877,22.922595,0.0</coordinates></LinearRing></outerBoundaryIs></Polygon><styleUrl>#spolygon-map</styleUrl></Placemark><Placemark><Polygon><outerBoundaryIs><LinearRing><coordinates>120.360586,22.850982,0.0 120.359926,22.850561,0.0 120.359168,22.850942,0.0 120.358348,22.850589,0.0 120.357551,22.849999,0.0 120.356134,22.849684,0.0 120.355985,22.848886,0.0 120.355113,22.84881,0.0 120.352812,22.847033,0.0 120.350453,22.845861,0.0 120.348773,22.846154,0.0 120.348186,22.84729,0.0 120.346745,22.846146,0.0 120.345877,22.846836,0.0 120.344559,22.846688,0.0 120.344305,22.845048,0.0 120.344178,22.843571,0.0 120.344122,22.842069,0.0 120.344793,22.841257,0.0 120.345038,22.840093,0.0 120.346073,22.839355,0.0 120.34684,22.837321,0.0 120.346979,22.835518,0.0 120.347217,22.834099,0.0 120.347316,22.83267,0.0 120.347892,22.831591,0.0 120.346427,22.830344,0.0 120.346489,22.829538,0.0 120.348611,22.82851,0.0 120.351041,22.827676,0.0 120.352142,22.828667,0.0 120.353685,22.830157,0.0 120.355048,22.830453,0.0 120.356574,22.83029,0.0 120.357783,22.83104,0.0 120.358518,22.830905,0.0 120.35886,22.830177,0.0 120.359093,22.829325,0.0 120.359751,22.828576,0.0 120.360086,22.827591,0.0 120.360641,22.826925,0.0 120.361414,22.826528,0.0 120.361628,22.825587,0.0 120.362412,22.825333,0.0 120.363012,22.825751,0.0 120.363155,22.826531,0.0 120.364012,22.82739,0.0 120.36468,22.828099,0.0 120.365145,22.828214,0.0 120.365647,22.827791,0.0 120.36616,22.826978,0.0 120.366374,22.82627,0.0 120.367085,22.826106,0.0 120.367731,22.826194,0.0 120.368334,22.826097,0.0 120.368581,22.825351,0.0 120.369187,22.825302,0.0 120.36996,22.825548,0.0 120.370645,22.825032,0.0 120.37126,22.824341,0.0 120.371777,22.82451,0.0 120.372396,22.825014,0.0 120.37292,22.824964,0.0 120.373267,22.825453,0.0 120.373718,22.825514,0.0 120.37455,22.825347,0.0 120.375395,22.82582,0.0 120.376119,22.825952,0.0 120.375776,22.825194,0.0 120.376221,22.824961,0.0 120.376978,22.824883,0.0 120.377775,22.824909,0.0 120.378154,22.824594,0.0 120.378112,22.823926,0.0 120.378769,22.823802,0.0 120.378808,22.824082,0.0 120.378566,22.824219,0.0 120.378882,22.82501,0.0 120.379352,22.825606,0.0 120.379693,22.826115,0.0 120.380352,22.826779,0.0 120.381109,22.827847,0.0 120.381755,22.828376,0.0 120.382367,22.82962,0.0 120.382603,22.830301,0.0 120.382696,22.831055,0.0 120.383881,22.831735,0.0 120.384452,22.832778,0.0 120.385509,22.833342,0.0 120.386226,22.834024,0.0 120.388135,22.834024,0.0 120.390229,22.835358,0.0 120.390819,22.836306,0.0 120.393005,22.834646,0.0 120.395422,22.835289,0.0 120.396862,22.836916,0.0 120.39785,22.836626,0.0 120.399641,22.836698,0.0 120.39953,22.837513,0.0 120.398609,22.838444,0.0 120.399749,22.840137,0.0 120.399035,22.840283,0.0 120.398363,22.839615,0.0 120.397357,22.840295,0.0 120.3967,22.840211,0.0 120.396792,22.840447,0.0 120.396282,22.84107,0.0 120.395795,22.841587,0.0 120.39515,22.84212,0.0 120.394043,22.842199,0.0 120.394599,22.843168,0.0 120.395804,22.843872,0.0 120.395329,22.846038,0.0 120.394729,22.84616,0.0 120.393608,22.846512,0.0 120.393129,22.845449,0.0 120.39248,22.846474,0.0 120.391014,22.845897,0.0 120.390936,22.847274,0.0 120.390415,22.845771,0.0 120.389793,22.845373,0.0 120.389124,22.84608,0.0 120.38861,22.844741,0.0 120.387391,22.845077,0.0 120.386435,22.843335,0.0 120.385257,22.842922,0.0 120.383452,22.841892,0.0 120.381802,22.841683,0.0 120.380482,22.840806,0.0 120.379311,22.839899,0.0 120.377179,22.839789,0.0 120.377192,22.838075,0.0 120.376748,22.837091,0.0 120.376777,22.83599,0.0 120.372062,22.837224,0.0 120.370714,22.838,0.0 120.369793,22.837888,0.0 120.369967,22.839151,0.0 120.368702,22.839685,0.0 120.367477,22.839683,0.0 120.367221,22.840393,0.0 120.366357,22.839378,0.0 120.36392,22.839824,0.0 120.362505,22.840494,0.0 120.362369,22.841992,0.0 120.361579,22.842784,0.0 120.361039,22.84314,0.0 120.361831,22.844148,0.0 120.361792,22.844927,0.0 120.360766,22.84572,0.0 120.360659,22.846507,0.0 120.36119,22.847381,0.0 120.360767,22.848312,0.0 120.362058,22.849211,0.0 120.363541,22.850079,0.0 120.362802,22.850582,0.0 120.360586,22.850982,0.0</coordinates></LinearRing></outerBoundaryIs></Polygon><styleUrl>#spolygon-map</styleUrl></Placemark></Document>
</kml>
