<?xml version="1.0" encoding="UTF-8"?>
<kml xmlns="http://www.opengis.net/kml/2.2">
	<Document>
		<name>南投縣南投市</name>
		<Style id="spolygon">
			<LabelStyle>
				<scale>0.0</scale>
			</LabelStyle>
			<LineStyle>
				<color>330030ff</color>
				<width>0</width>
			</LineStyle>
			<PolyStyle>
				<color>330030ff</color>
			</PolyStyle>
		</Style>
		<StyleMap id="spolygon-map">
			<Pair>
				<key>normal</key>
				<styleUrl>#spolygon</styleUrl>
			</Pair>
		</StyleMap>
	<Placemark><Polygon><outerBoundaryIs><LinearRing><coordinates>120.680942,23.912827,0.0 120.679217,23.911212,0.0 120.682337,23.908117,0.0 120.682682,23.911504,0.0 120.680942,23.912827,0.0</coordinates></LinearRing></outerBoundaryIs></Polygon><styleUrl>#spolygon-map</styleUrl></Placemark><Placemark><Polygon><outerBoundaryIs><LinearRing><coordinates>120.690697,23.907276,0.0 120.687699,23.905561,0.0 120.685961,23.90551,0.0 120.685642,23.904363,0.0 120.685858,23.901535,0.0 120.68595,23.899357,0.0 120.688947,23.899862,0.0 120.690456,23.900501,0.0 120.69224,23.901884,0.0 120.691674,23.904097,0.0 120.691615,23.904479,0.0 120.691454,23.904743,0.0 120.691332,23.905047,0.0 120.690697,23.907276,0.0</coordinates></LinearRing></outerBoundaryIs></Polygon><styleUrl>#spolygon-map</styleUrl></Placemark><Placemark><Polygon><outerBoundaryIs><LinearRing><coordinates>120.682337,23.908117,0.0 120.678443,23.91082,0.0 120.671425,23.907597,0.0 120.670363,23.906782,0.0 120.667895,23.9047,0.0 120.661954,23.903331,0.0 120.659335,23.902648,0.0 120.657682,23.902418,0.0 120.656161,23.901422,0.0 120.65767,23.897908,0.0 120.65867,23.893181,0.0 120.660333,23.890817,0.0 120.662673,23.891438,0.0 120.6648,23.892136,0.0 120.666499,23.893616,0.0 120.667743,23.893874,0.0 120.669329,23.894631,0.0 120.67165,23.896442,0.0 120.672255,23.896775,0.0 120.673138,23.897287,0.0 120.67565,23.897062,0.0 120.680457,23.898937,0.0 120.683962,23.900585,0.0 120.685858,23.901535,0.0 120.685642,23.904363,0.0 120.68334,23.904728,0.0 120.682337,23.908117,0.0</coordinates></LinearRing></outerBoundaryIs></Polygon><styleUrl>#spolygon-map</styleUrl></Placemark><Placemark><Polygon><outerBoundaryIs><LinearRing><coordinates>120.707111,23.895713,0.0 120.700291,23.899092,0.0 120.698233,23.90111,0.0 120.695832,23.90151,0.0 120.695559,23.90115,0.0 120.6956,23.899491,0.0 120.697032,23.89918,0.0 120.697824,23.898507,0.0 120.698307,23.896675,0.0 120.696149,23.893201,0.0 120.694079,23.892319,0.0 120.694623,23.889886,0.0 120.696879,23.889821,0.0 120.699579,23.889733,0.0 120.70057,23.889144,0.0 120.700275,23.887385,0.0 120.70058,23.887069,0.0 120.700901,23.887729,0.0 120.701695,23.888212,0.0 120.70266,23.888672,0.0 120.703011,23.889045,0.0 120.703383,23.888736,0.0 120.703952,23.887875,0.0 120.704155,23.887735,0.0 120.70504,23.888543,0.0 120.705556,23.888797,0.0 120.706211,23.889096,0.0 120.706836,23.889012,0.0 120.707425,23.888988,0.0 120.708294,23.889026,0.0 120.708753,23.888911,0.0 120.709108,23.888185,0.0 120.71103,23.889053,0.0 120.71334,23.889958,0.0 120.713755,23.890104,0.0 120.714161,23.890068,0.0 120.714394,23.890288,0.0 120.715096,23.890002,0.0 120.715176,23.889747,0.0 120.715344,23.889601,0.0 120.715688,23.889606,0.0 120.715988,23.889394,0.0 120.71622,23.888878,0.0 120.716785,23.888527,0.0 120.716989,23.888026,0.0 120.717168,23.887349,0.0 120.717438,23.886657,0.0 120.718139,23.885565,0.0 120.718363,23.884026,0.0 120.718766,23.883535,0.0 120.719937,23.882494,0.0 120.72066,23.88217,0.0 120.721654,23.881434,0.0 120.722618,23.881092,0.0 120.723104,23.880843,0.0 120.723255,23.880288,0.0 120.723788,23.879736,0.0 120.724465,23.878809,0.0 120.724879,23.878717,0.0 120.726026,23.879735,0.0 120.726576,23.880497,0.0 120.727572,23.880876,0.0 120.726913,23.881208,0.0 120.725809,23.881787,0.0 120.725215,23.882497,0.0 120.724349,23.882994,0.0 120.724418,23.883884,0.0 120.724716,23.884929,0.0 120.724575,23.885615,0.0 120.724572,23.886329,0.0 120.724677,23.886891,0.0 120.724378,23.888234,0.0 120.724302,23.888987,0.0 120.724437,23.88983,0.0 120.724171,23.890552,0.0 120.722893,23.890813,0.0 120.721776,23.891105,0.0 120.720846,23.891927,0.0 120.719242,23.892954,0.0 120.71691,23.893798,0.0 120.714439,23.893972,0.0 120.713139,23.893847,0.0 120.712561,23.89388,0.0 120.709861,23.894342,0.0 120.708306,23.894983,0.0 120.707411,23.895437,0.0 120.707111,23.895713,0.0</coordinates></LinearRing></outerBoundaryIs></Polygon><styleUrl>#spolygon-map</styleUrl></Placemark><Placemark><Polygon><outerBoundaryIs><LinearRing><coordinates>120.686987,23.910589,0.0 120.685538,23.909191,0.0 120.687103,23.910628,0.0 120.686987,23.910589,0.0</coordinates></LinearRing></outerBoundaryIs></Polygon><styleUrl>#spolygon-map</styleUrl></Placemark><Placemark><Polygon><outerBoundaryIs><LinearRing><coordinates>120.695679,23.940693,0.0 120.695041,23.941726,0.0 120.694086,23.941056,0.0 120.693017,23.940878,0.0 120.692513,23.941129,0.0 120.692299,23.941206,0.0 120.691833,23.940751,0.0 120.691145,23.940714,0.0 120.687907,23.938147,0.0 120.686226,23.938263,0.0 120.685174,23.937625,0.0 120.683919,23.937313,0.0 120.682511,23.937123,0.0 120.681463,23.936938,0.0 120.682603,23.932854,0.0 120.689321,23.933549,0.0 120.690949,23.935706,0.0 120.692009,23.938205,0.0 120.695679,23.940693,0.0</coordinates></LinearRing></outerBoundaryIs></Polygon><styleUrl>#spolygon-map</styleUrl></Placemark><Placemark><Polygon><outerBoundaryIs><LinearRing><coordinates>120.723072,23.951646,0.0 120.722431,23.951783,0.0 120.72213,23.951963,0.0 120.721557,23.951991,0.0 120.721166,23.95232,0.0 120.720819,23.952473,0.0 120.720037,23.952505,0.0 120.719586,23.952762,0.0 120.718979,23.953171,0.0 120.718576,23.953521,0.0 120.70711,23.940962,0.0 120.703935,23.935055,0.0 120.700855,23.936649,0.0 120.696821,23.938743,0.0 120.692594,23.938649,0.0 120.691926,23.935774,0.0 120.690695,23.934934,0.0 120.682696,23.930823,0.0 120.682553,23.927557,0.0 120.683499,23.925771,0.0 120.68673,23.923642,0.0 120.693448,23.923526,0.0 120.698874,23.925927,0.0 120.701959,23.927285,0.0 120.704868,23.927411,0.0 120.7081,23.928171,0.0 120.709582,23.927964,0.0 120.710423,23.927744,0.0 120.713848,23.930378,0.0 120.713944,23.934083,0.0 120.716567,23.93509,0.0 120.71679,23.940418,0.0 120.722088,23.942459,0.0 120.721509,23.945634,0.0 120.723072,23.951646,0.0</coordinates></LinearRing></outerBoundaryIs></Polygon><styleUrl>#spolygon-map</styleUrl></Placemark><Placemark><Polygon><outerBoundaryIs><LinearRing><coordinates>120.682696,23.930823,0.0 120.67842,23.931446,0.0 120.673694,23.927959,0.0 120.666285,23.925571,0.0 120.666085,23.923857,0.0 120.664489,23.920924,0.0 120.659829,23.920006,0.0 120.656081,23.919837,0.0 120.654399,23.917596,0.0 120.651315,23.915648,0.0 120.654625,23.911978,0.0 120.651565,23.909678,0.0 120.650146,23.905756,0.0 120.652065,23.906279,0.0 120.653775,23.906965,0.0 120.655869,23.907834,0.0 120.658398,23.908921,0.0 120.660363,23.910135,0.0 120.663719,23.91319,0.0 120.665217,23.914629,0.0 120.666069,23.915164,0.0 120.667054,23.915437,0.0 120.667594,23.915551,0.0 120.668149,23.915846,0.0 120.669074,23.916245,0.0 120.671027,23.916662,0.0 120.672409,23.91669,0.0 120.67339,23.917202,0.0 120.67657,23.917252,0.0 120.677765,23.918096,0.0 120.678323,23.919484,0.0 120.680585,23.920533,0.0 120.68353,23.923185,0.0 120.684845,23.924458,0.0 120.682655,23.926877,0.0 120.682649,23.929277,0.0 120.682696,23.930823,0.0</coordinates></LinearRing></outerBoundaryIs></Polygon><styleUrl>#spolygon-map</styleUrl></Placemark><Placemark><Polygon><outerBoundaryIs><LinearRing><coordinates>120.689825,23.92089,0.0 120.688696,23.918132,0.0 120.687503,23.916891,0.0 120.688056,23.916018,0.0 120.687678,23.91525,0.0 120.687473,23.913699,0.0 120.687949,23.912334,0.0 120.688511,23.911091,0.0 120.689221,23.908542,0.0 120.690392,23.907998,0.0 120.693972,23.911172,0.0 120.694,23.915409,0.0 120.691387,23.918805,0.0 120.689825,23.92089,0.0</coordinates></LinearRing></outerBoundaryIs></Polygon><styleUrl>#spolygon-map</styleUrl></Placemark><Placemark><Polygon><outerBoundaryIs><LinearRing><coordinates>120.632928,23.896724,0.0 120.632743,23.896169,0.0 120.632901,23.895799,0.0 120.633128,23.895578,0.0 120.633569,23.895503,0.0 120.634075,23.895296,0.0 120.634253,23.894949,0.0 120.63419,23.894628,0.0 120.634214,23.894379,0.0 120.633747,23.894093,0.0 120.634214,23.893689,0.0 120.634382,23.893475,0.0 120.634017,23.893334,0.0 120.63351,23.893198,0.0 120.632916,23.893038,0.0 120.632466,23.892672,0.0 120.632198,23.892282,0.0 120.632509,23.892025,0.0 120.633086,23.891955,0.0 120.633746,23.891925,0.0 120.634089,23.891835,0.0 120.633701,23.891444,0.0 120.633247,23.891341,0.0 120.633082,23.89099,0.0 120.632736,23.890719,0.0 120.632256,23.890428,0.0 120.632263,23.890165,0.0 120.632698,23.889834,0.0 120.632358,23.889531,0.0 120.631767,23.889448,0.0 120.630964,23.889566,0.0 120.630457,23.889811,0.0 120.630114,23.889678,0.0 120.629664,23.889451,0.0 120.629368,23.889449,0.0 120.628809,23.889568,0.0 120.628302,23.889555,0.0 120.627592,23.889675,0.0 120.627375,23.889431,0.0 120.628213,23.889206,0.0 120.629277,23.889113,0.0 120.630145,23.888925,0.0 120.630916,23.889184,0.0 120.631634,23.888879,0.0 120.633093,23.888528,0.0 120.633496,23.888717,0.0 120.634134,23.889208,0.0 120.634504,23.88917,0.0 120.634751,23.889074,0.0 120.634806,23.889422,0.0 120.635279,23.889597,0.0 120.635711,23.889516,0.0 120.636198,23.889134,0.0 120.63612,23.888633,0.0 120.636566,23.888426,0.0 120.636925,23.888429,0.0 120.636987,23.888854,0.0 120.63742,23.888748,0.0 120.637862,23.888713,0.0 120.63826,23.888755,0.0 120.638758,23.888469,0.0 120.639094,23.888181,0.0 120.639102,23.888845,0.0 120.639524,23.889018,0.0 120.639887,23.888772,0.0 120.640301,23.888821,0.0 120.640747,23.888632,0.0 120.641132,23.888626,0.0 120.641634,23.888287,0.0 120.641806,23.887975,0.0 120.641914,23.887752,0.0 120.642021,23.888168,0.0 120.641872,23.888583,0.0 120.642099,23.888823,0.0 120.642588,23.888855,0.0 120.643111,23.888595,0.0 120.643478,23.888289,0.0 120.643903,23.887933,0.0 120.644111,23.887473,0.0 120.644531,23.887259,0.0 120.645197,23.886974,0.0 120.64593,23.886714,0.0 120.646774,23.886488,0.0 120.647707,23.886082,0.0 120.647997,23.886236,0.0 120.648004,23.886471,0.0 120.648488,23.886625,0.0 120.649153,23.886396,0.0 120.650083,23.88599,0.0 120.650777,23.885815,0.0 120.651551,23.88537,0.0 120.652343,23.884731,0.0 120.653203,23.884429,0.0 120.654034,23.88559,0.0 120.654307,23.886103,0.0 120.654403,23.886578,0.0 120.653826,23.886834,0.0 120.652254,23.887433,0.0 120.651678,23.888346,0.0 120.651448,23.889873,0.0 120.650988,23.889983,0.0 120.651163,23.890755,0.0 120.651356,23.891067,0.0 120.652259,23.891693,0.0 120.655725,23.892028,0.0 120.658795,23.890409,0.0 120.657911,23.895114,0.0 120.656624,23.900558,0.0 120.655849,23.901206,0.0 120.655372,23.900747,0.0 120.654478,23.9001,0.0 120.653829,23.899942,0.0 120.653089,23.899844,0.0 120.652631,23.899596,0.0 120.651773,23.89926,0.0 120.650205,23.898618,0.0 120.649565,23.898174,0.0 120.649196,23.897907,0.0 120.649011,23.897828,0.0 120.648759,23.897771,0.0 120.648124,23.897688,0.0 120.647283,23.897584,0.0 120.646838,23.897615,0.0 120.646295,23.897625,0.0 120.645741,23.897479,0.0 120.645392,23.8973,0.0 120.644822,23.897353,0.0 120.644443,23.897539,0.0 120.644042,23.897491,0.0 120.643431,23.897533,0.0 120.642703,23.897553,0.0 120.642118,23.897575,0.0 120.641457,23.897824,0.0 120.639541,23.898377,0.0 120.63756,23.899201,0.0 120.634483,23.899469,0.0 120.634601,23.899197,0.0 120.634626,23.898896,0.0 120.635003,23.898709,0.0 120.634913,23.8983,0.0 120.63486,23.898025,0.0 120.634761,23.897792,0.0 120.634085,23.897741,0.0 120.634102,23.897434,0.0 120.634395,23.897207,0.0 120.634251,23.896977,0.0 120.634279,23.896725,0.0 120.633674,23.896836,0.0 120.633328,23.8967,0.0 120.632928,23.896724,0.0</coordinates></LinearRing></outerBoundaryIs></Polygon><styleUrl>#spolygon-map</styleUrl></Placemark><Placemark><Polygon><outerBoundaryIs><LinearRing><coordinates>120.671254,23.944764,0.0 120.671038,23.94484,0.0 120.670533,23.945087,0.0 120.670315,23.944099,0.0 120.66862,23.942802,0.0 120.66633,23.94156,0.0 120.665176,23.937779,0.0 120.659424,23.933897,0.0 120.656448,23.930678,0.0 120.6554,23.928134,0.0 120.653119,23.923691,0.0 120.651538,23.921326,0.0 120.654266,23.917592,0.0 120.655497,23.919436,0.0 120.658832,23.920071,0.0 120.659493,23.922845,0.0 120.662009,23.92523,0.0 120.66495,23.928631,0.0 120.668759,23.93124,0.0 120.670393,23.93365,0.0 120.67154,23.935804,0.0 120.676155,23.938723,0.0 120.67559,23.940814,0.0 120.674054,23.942472,0.0 120.672744,23.944073,0.0 120.671254,23.944764,0.0</coordinates></LinearRing></outerBoundaryIs></Polygon><styleUrl>#spolygon-map</styleUrl></Placemark><Placemark><Polygon><outerBoundaryIs><LinearRing><coordinates>120.718576,23.953521,0.0 120.718245,23.95352,0.0 120.717679,23.953474,0.0 120.716968,23.953518,0.0 120.716387,23.953729,0.0 120.715696,23.954294,0.0 120.715036,23.954575,0.0 120.714317,23.954574,0.0 120.713629,23.954789,0.0 120.713035,23.954914,0.0 120.710931,23.951556,0.0 120.704191,23.946922,0.0 120.699807,23.945189,0.0 120.699923,23.94444,0.0 120.699519,23.94308,0.0 120.697965,23.942068,0.0 120.696756,23.942208,0.0 120.696208,23.941961,0.0 120.695515,23.941682,0.0 120.697078,23.93917,0.0 120.700932,23.937198,0.0 120.703768,23.935273,0.0 120.707631,23.940414,0.0 120.718351,23.953295,0.0 120.718576,23.953521,0.0</coordinates></LinearRing></outerBoundaryIs></Polygon><styleUrl>#spolygon-map</styleUrl></Placemark><Placemark><Polygon><outerBoundaryIs><LinearRing><coordinates>120.699102,23.964741,0.0 120.698475,23.964695,0.0 120.698072,23.964532,0.0 120.697798,23.964086,0.0 120.697773,23.963262,0.0 120.697495,23.963031,0.0 120.697249,23.962805,0.0 120.697057,23.962511,0.0 120.696258,23.962334,0.0 120.695093,23.961982,0.0 120.693693,23.960839,0.0 120.692957,23.960706,0.0 120.692388,23.961089,0.0 120.691716,23.960862,0.0 120.691031,23.960113,0.0 120.690417,23.959936,0.0 120.689692,23.95984,0.0 120.688273,23.958835,0.0 120.687717,23.95787,0.0 120.686956,23.955256,0.0 120.68947,23.950798,0.0 120.692723,23.947417,0.0 120.695188,23.949765,0.0 120.697766,23.950919,0.0 120.708697,23.958375,0.0 120.70814,23.958806,0.0 120.707405,23.958958,0.0 120.706565,23.95937,0.0 120.705807,23.959397,0.0 120.705079,23.959191,0.0 120.704676,23.95893,0.0 120.704358,23.959225,0.0 120.703625,23.959777,0.0 120.702598,23.960242,0.0 120.701816,23.96076,0.0 120.701727,23.961324,0.0 120.70179,23.961997,0.0 120.701632,23.962924,0.0 120.701105,23.963892,0.0 120.700731,23.964925,0.0 120.700208,23.965416,0.0 120.699922,23.965429,0.0 120.699561,23.965087,0.0 120.699167,23.964757,0.0 120.699102,23.964741,0.0</coordinates></LinearRing></outerBoundaryIs></Polygon><styleUrl>#spolygon-map</styleUrl></Placemark><Placemark><Polygon><outerBoundaryIs><LinearRing><coordinates>120.713035,23.954914,0.0 120.712357,23.954274,0.0 120.711833,23.954188,0.0 120.711351,23.954568,0.0 120.710824,23.954809,0.0 120.710507,23.955106,0.0 120.710541,23.955497,0.0 120.710384,23.956169,0.0 120.710411,23.956663,0.0 120.710244,23.957074,0.0 120.709517,23.957619,0.0 120.70924,23.958212,0.0 120.708811,23.958527,0.0 120.70055,23.951766,0.0 120.695425,23.949901,0.0 120.692944,23.947661,0.0 120.694504,23.943973,0.0 120.695611,23.94223,0.0 120.696323,23.94181,0.0 120.696985,23.94229,0.0 120.698399,23.942516,0.0 120.699735,23.943139,0.0 120.699655,23.944778,0.0 120.701004,23.945589,0.0 120.705329,23.946803,0.0 120.711761,23.952874,0.0 120.713035,23.954914,0.0</coordinates></LinearRing></outerBoundaryIs></Polygon><styleUrl>#spolygon-map</styleUrl></Placemark><Placemark><Polygon><outerBoundaryIs><LinearRing><coordinates>120.69039,23.960019,0.0 120.690012,23.960172,0.0 120.689379,23.960008,0.0 120.688768,23.959838,0.0 120.687949,23.960024,0.0 120.686996,23.960595,0.0 120.687047,23.961141,0.0 120.686599,23.961265,0.0 120.685984,23.961268,0.0 120.685757,23.960667,0.0 120.685507,23.960373,0.0 120.685381,23.960152,0.0 120.684989,23.958571,0.0 120.684982,23.957814,0.0 120.68399,23.957815,0.0 120.683453,23.957791,0.0 120.683723,23.957324,0.0 120.683669,23.956753,0.0 120.683471,23.956161,0.0 120.682405,23.955908,0.0 120.680964,23.955677,0.0 120.680642,23.954148,0.0 120.681379,23.953046,0.0 120.682477,23.953838,0.0 120.6836,23.954184,0.0 120.684508,23.955362,0.0 120.686195,23.956736,0.0 120.687862,23.958175,0.0 120.68875,23.959093,0.0 120.689957,23.959951,0.0 120.69039,23.960019,0.0</coordinates></LinearRing></outerBoundaryIs></Polygon><styleUrl>#spolygon-map</styleUrl></Placemark><Placemark><Polygon><outerBoundaryIs><LinearRing><coordinates>120.734465,23.94926,0.0 120.733507,23.949994,0.0 120.733295,23.950515,0.0 120.732716,23.951185,0.0 120.732286,23.951419,0.0 120.731501,23.951643,0.0 120.730728,23.952089,0.0 120.730256,23.952009,0.0 120.729998,23.952241,0.0 120.730079,23.952672,0.0 120.729976,23.952938,0.0 120.729447,23.953454,0.0 120.729118,23.95372,0.0 120.728841,23.953724,0.0 120.728517,23.95406,0.0 120.728301,23.954622,0.0 120.72807,23.954845,0.0 120.727528,23.955176,0.0 120.726925,23.955554,0.0 120.726494,23.955573,0.0 120.726198,23.955415,0.0 120.726245,23.954939,0.0 120.725804,23.954529,0.0 120.725028,23.954097,0.0 120.72456,23.953786,0.0 120.724291,23.953294,0.0 120.724155,23.952172,0.0 120.723801,23.951839,0.0 120.723215,23.951621,0.0 120.721404,23.946137,0.0 120.722372,23.943152,0.0 120.717386,23.941137,0.0 120.716852,23.935472,0.0 120.714402,23.934372,0.0 120.714237,23.931024,0.0 120.711045,23.928605,0.0 120.710235,23.925744,0.0 120.711855,23.92244,0.0 120.712397,23.922138,0.0 120.713084,23.922589,0.0 120.713727,23.922804,0.0 120.714692,23.922858,0.0 120.715635,23.92304,0.0 120.716611,23.924076,0.0 120.716881,23.924668,0.0 120.716499,23.92608,0.0 120.716608,23.927304,0.0 120.71679,23.927704,0.0 120.717869,23.928496,0.0 120.718219,23.928093,0.0 120.718838,23.92811,0.0 120.719813,23.927624,0.0 120.720605,23.927758,0.0 120.720711,23.928165,0.0 120.72071,23.928774,0.0 120.721318,23.929008,0.0 120.721841,23.929467,0.0 120.722544,23.929566,0.0 120.723353,23.92998,0.0 120.723859,23.930803,0.0 120.724271,23.931368,0.0 120.724162,23.932505,0.0 120.72407,23.932905,0.0 120.724844,23.932818,0.0 120.725659,23.933059,0.0 120.726129,23.93354,0.0 120.726546,23.93392,0.0 120.727013,23.933109,0.0 120.727761,23.932649,0.0 120.727973,23.932381,0.0 120.728749,23.930486,0.0 120.729369,23.929616,0.0 120.729361,23.92879,0.0 120.729318,23.928381,0.0 120.73029,23.928433,0.0 120.731511,23.928843,0.0 120.732485,23.928919,0.0 120.733277,23.929314,0.0 120.733928,23.929495,0.0 120.73469,23.929551,0.0 120.734843,23.930131,0.0 120.734774,23.931131,0.0 120.734322,23.93265,0.0 120.734081,23.933742,0.0 120.734009,23.934455,0.0 120.734184,23.93532,0.0 120.734086,23.935789,0.0 120.733746,23.935999,0.0 120.733083,23.93614,0.0 120.732936,23.936419,0.0 120.732859,23.93695,0.0 120.732952,23.937386,0.0 120.732622,23.937934,0.0 120.732333,23.938825,0.0 120.732416,23.939075,0.0 120.732844,23.939564,0.0 120.732981,23.940225,0.0 120.732799,23.941428,0.0 120.732512,23.942301,0.0 120.732001,23.942612,0.0 120.731779,23.942871,0.0 120.732209,23.943229,0.0 120.732521,23.943536,0.0 120.732589,23.943977,0.0 120.73286,23.944641,0.0 120.733462,23.945188,0.0 120.7338,23.945733,0.0 120.733633,23.946631,0.0 120.733568,23.947421,0.0 120.733886,23.948929,0.0 120.734465,23.94926,0.0</coordinates></LinearRing></outerBoundaryIs></Polygon><styleUrl>#spolygon-map</styleUrl></Placemark><Placemark><Polygon><outerBoundaryIs><LinearRing><coordinates>120.687753,23.909015,0.0 120.682337,23.908117,0.0 120.687753,23.909015,0.0</coordinates></LinearRing></outerBoundaryIs></Polygon><styleUrl>#spolygon-map</styleUrl></Placemark><Placemark><Polygon><outerBoundaryIs><LinearRing><coordinates>120.709879,23.927578,0.0 120.709228,23.928083,0.0 120.707389,23.928063,0.0 120.703707,23.927196,0.0 120.702351,23.929194,0.0 120.698074,23.923465,0.0 120.691661,23.92326,0.0 120.689825,23.92089,0.0 120.693427,23.91612,0.0 120.695893,23.91384,0.0 120.698812,23.913769,0.0 120.701067,23.9128,0.0 120.705203,23.914619,0.0 120.706801,23.916073,0.0 120.706457,23.916917,0.0 120.70647,23.917761,0.0 120.709093,23.919177,0.0 120.711346,23.920655,0.0 120.71177,23.921178,0.0 120.712769,23.921574,0.0 120.713178,23.921993,0.0 120.713721,23.921741,0.0 120.714698,23.921323,0.0 120.715624,23.921214,0.0 120.71599,23.920989,0.0 120.716654,23.92146,0.0 120.717487,23.922105,0.0 120.718415,23.922373,0.0 120.719176,23.922785,0.0 120.71928,23.923137,0.0 120.71937,23.923842,0.0 120.720896,23.923915,0.0 120.722105,23.923939,0.0 120.722149,23.92468,0.0 120.722586,23.925638,0.0 120.72316,23.926826,0.0 120.723471,23.927727,0.0 120.724226,23.928271,0.0 120.724751,23.92903,0.0 120.724867,23.92941,0.0 120.725385,23.929614,0.0 120.725624,23.930321,0.0 120.725879,23.93066,0.0 120.726365,23.930615,0.0 120.726592,23.930304,0.0 120.727033,23.930005,0.0 120.727777,23.929579,0.0 120.728612,23.929518,0.0 120.728998,23.928938,0.0 120.729183,23.928463,0.0 120.729462,23.929228,0.0 120.729057,23.930171,0.0 120.728156,23.931366,0.0 120.727878,23.932544,0.0 120.727273,23.932843,0.0 120.726763,23.93379,0.0 120.726319,23.933823,0.0 120.725955,23.933136,0.0 120.725231,23.932873,0.0 120.7245,23.932876,0.0 120.724067,23.932744,0.0 120.724179,23.932058,0.0 120.723997,23.930934,0.0 120.72368,23.930317,0.0 120.722946,23.92976,0.0 120.721999,23.929553,0.0 120.721672,23.92918,0.0 120.720847,23.928897,0.0 120.720668,23.928535,0.0 120.720733,23.927946,0.0 120.720432,23.927675,0.0 120.719432,23.927727,0.0 120.718584,23.928147,0.0 120.71807,23.92837,0.0 120.717636,23.928453,0.0 120.716703,23.927566,0.0 120.716484,23.9265,0.0 120.716853,23.92511,0.0 120.71674,23.924176,0.0 120.716352,23.923568,0.0 120.715117,23.922818,0.0 120.714159,23.922685,0.0 120.713399,23.922761,0.0 120.712776,23.922234,0.0 120.712062,23.922149,0.0 120.710816,23.924449,0.0 120.709879,23.927578,0.0</coordinates></LinearRing></outerBoundaryIs></Polygon><styleUrl>#spolygon-map</styleUrl></Placemark><Placemark><Polygon><outerBoundaryIs><LinearRing><coordinates>120.711346,23.920655,0.0 120.709093,23.919177,0.0 120.70647,23.917761,0.0 120.706457,23.916917,0.0 120.706801,23.916073,0.0 120.705203,23.914619,0.0 120.701067,23.9128,0.0 120.698812,23.913769,0.0 120.695893,23.91384,0.0 120.691047,23.905882,0.0 120.691439,23.904792,0.0 120.691639,23.904517,0.0 120.691683,23.904147,0.0 120.691803,23.903229,0.0 120.695559,23.90115,0.0 120.695832,23.90151,0.0 120.698233,23.90111,0.0 120.700291,23.899092,0.0 120.707111,23.895713,0.0 120.707345,23.896541,0.0 120.707799,23.89744,0.0 120.708492,23.897868,0.0 120.709598,23.898358,0.0 120.710683,23.898879,0.0 120.712035,23.899457,0.0 120.712332,23.899968,0.0 120.712665,23.901086,0.0 120.713157,23.901272,0.0 120.713877,23.902734,0.0 120.714256,23.903741,0.0 120.71425,23.90431,0.0 120.714199,23.904667,0.0 120.714804,23.905623,0.0 120.715174,23.906165,0.0 120.715857,23.906311,0.0 120.716301,23.90696,0.0 120.71705,23.907101,0.0 120.717272,23.907546,0.0 120.717423,23.908747,0.0 120.717189,23.909664,0.0 120.717144,23.910395,0.0 120.716733,23.911491,0.0 120.717078,23.911803,0.0 120.717888,23.91218,0.0 120.719258,23.913816,0.0 120.719835,23.914027,0.0 120.720422,23.914119,0.0 120.7199,23.914368,0.0 120.719145,23.915105,0.0 120.718329,23.91505,0.0 120.718149,23.915679,0.0 120.718248,23.916113,0.0 120.717555,23.916251,0.0 120.717256,23.916165,0.0 120.716893,23.916252,0.0 120.717095,23.91693,0.0 120.717261,23.917729,0.0 120.717621,23.917549,0.0 120.717813,23.9179,0.0 120.717517,23.918473,0.0 120.717212,23.919084,0.0 120.716965,23.919307,0.0 120.716707,23.919239,0.0 120.715794,23.920011,0.0 120.715517,23.9199,0.0 120.714889,23.919418,0.0 120.714451,23.919681,0.0 120.713906,23.920409,0.0 120.71325,23.920248,0.0 120.713271,23.920846,0.0 120.71281,23.921128,0.0 120.712362,23.920729,0.0 120.712226,23.920533,0.0 120.712359,23.920215,0.0 120.712266,23.920061,0.0 120.711761,23.920313,0.0 120.711346,23.920655,0.0</coordinates></LinearRing></outerBoundaryIs></Polygon><styleUrl>#spolygon-map</styleUrl></Placemark><Placemark><Polygon><outerBoundaryIs><LinearRing><coordinates>120.685067,23.908082,0.0 120.68334,23.904728,0.0 120.685961,23.90551,0.0 120.687699,23.905561,0.0 120.685067,23.908082,0.0</coordinates></LinearRing></outerBoundaryIs></Polygon><styleUrl>#spolygon-map</styleUrl></Placemark><Placemark><Polygon><outerBoundaryIs><LinearRing><coordinates>120.686311,23.914879,0.0 120.684166,23.914317,0.0 120.682013,23.913437,0.0 120.680942,23.912827,0.0 120.685345,23.910071,0.0 120.686433,23.912552,0.0 120.686311,23.914879,0.0</coordinates></LinearRing></outerBoundaryIs></Polygon><styleUrl>#spolygon-map</styleUrl></Placemark><Placemark><Polygon><outerBoundaryIs><LinearRing><coordinates>120.677153,23.940145,0.0 120.67393,23.936759,0.0 120.670791,23.933971,0.0 120.669449,23.931576,0.0 120.665393,23.929287,0.0 120.663694,23.926674,0.0 120.659679,23.923058,0.0 120.658786,23.920796,0.0 120.661531,23.920055,0.0 120.667142,23.922103,0.0 120.665599,23.92436,0.0 120.669729,23.926804,0.0 120.675147,23.928073,0.0 120.681965,23.934306,0.0 120.681211,23.937806,0.0 120.679046,23.939309,0.0 120.677153,23.940145,0.0</coordinates></LinearRing></outerBoundaryIs></Polygon><styleUrl>#spolygon-map</styleUrl></Placemark><Placemark><Polygon><outerBoundaryIs><LinearRing><coordinates>120.690654,23.900502,0.0 120.689393,23.899919,0.0 120.686436,23.899455,0.0 120.684472,23.900342,0.0 120.6811,23.899322,0.0 120.676964,23.897342,0.0 120.673482,23.897319,0.0 120.672435,23.896895,0.0 120.671781,23.896623,0.0 120.669705,23.895097,0.0 120.668053,23.89419,0.0 120.666646,23.89363,0.0 120.665895,23.892813,0.0 120.663,23.891529,0.0 120.66098,23.890976,0.0 120.659365,23.890557,0.0 120.656168,23.89155,0.0 120.653153,23.891832,0.0 120.65155,23.891142,0.0 120.651179,23.890785,0.0 120.650591,23.890517,0.0 120.651416,23.889896,0.0 120.652458,23.888831,0.0 120.656404,23.887871,0.0 120.663539,23.888733,0.0 120.670802,23.890706,0.0 120.676655,23.893326,0.0 120.68172,23.89288,0.0 120.684978,23.893722,0.0 120.685804,23.894629,0.0 120.687261,23.895395,0.0 120.689892,23.894493,0.0 120.690654,23.900502,0.0</coordinates></LinearRing></outerBoundaryIs></Polygon><styleUrl>#spolygon-map</styleUrl></Placemark><Placemark><Polygon><outerBoundaryIs><LinearRing><coordinates>120.695559,23.90115,0.0 120.690654,23.900502,0.0 120.688251,23.893585,0.0 120.686604,23.895441,0.0 120.685832,23.893869,0.0 120.683217,23.893633,0.0 120.681708,23.892555,0.0 120.6758,23.893008,0.0 120.669594,23.890415,0.0 120.662763,23.888695,0.0 120.65484,23.887784,0.0 120.651971,23.888888,0.0 120.651678,23.888346,0.0 120.652254,23.887433,0.0 120.653826,23.886834,0.0 120.654403,23.886578,0.0 120.654307,23.886103,0.0 120.654034,23.88559,0.0 120.653319,23.884426,0.0 120.654232,23.88434,0.0 120.654902,23.88424,0.0 120.655837,23.883951,0.0 120.657252,23.883424,0.0 120.657942,23.883211,0.0 120.658731,23.882917,0.0 120.659721,23.882768,0.0 120.660379,23.882649,0.0 120.661286,23.882297,0.0 120.662016,23.882095,0.0 120.662628,23.882223,0.0 120.663687,23.882329,0.0 120.664471,23.882568,0.0 120.665406,23.882748,0.0 120.665927,23.882978,0.0 120.666879,23.883059,0.0 120.667521,23.882913,0.0 120.668421,23.882877,0.0 120.669365,23.882574,0.0 120.669846,23.882307,0.0 120.669817,23.882011,0.0 120.670757,23.881812,0.0 120.671353,23.881563,0.0 120.67215,23.881682,0.0 120.672609,23.881495,0.0 120.673447,23.881637,0.0 120.674397,23.8817,0.0 120.676003,23.881545,0.0 120.67658,23.88157,0.0 120.678109,23.881344,0.0 120.679061,23.88115,0.0 120.679739,23.881104,0.0 120.680611,23.880815,0.0 120.681278,23.880687,0.0 120.68198,23.88072,0.0 120.682462,23.880525,0.0 120.683142,23.880411,0.0 120.685619,23.881378,0.0 120.686389,23.881637,0.0 120.687047,23.881618,0.0 120.688739,23.882138,0.0 120.689766,23.882664,0.0 120.690558,23.883122,0.0 120.691756,23.883643,0.0 120.69255,23.883814,0.0 120.693907,23.884058,0.0 120.694906,23.884537,0.0 120.696187,23.884844,0.0 120.696686,23.885132,0.0 120.697513,23.885847,0.0 120.698271,23.885951,0.0 120.698786,23.886495,0.0 120.699478,23.886613,0.0 120.700318,23.886769,0.0 120.700409,23.887169,0.0 120.700331,23.888243,0.0 120.700512,23.889534,0.0 120.699023,23.889884,0.0 120.695203,23.889666,0.0 120.694105,23.891271,0.0 120.694704,23.892826,0.0 120.697079,23.894167,0.0 120.698199,23.897485,0.0 120.697385,23.898982,0.0 120.696141,23.899411,0.0 120.695449,23.899622,0.0 120.695559,23.90115,0.0</coordinates></LinearRing></outerBoundaryIs></Polygon><styleUrl>#spolygon-map</styleUrl></Placemark><Placemark><Polygon><outerBoundaryIs><LinearRing><coordinates>120.687753,23.909015,0.0 120.687877,23.908582,0.0 120.687753,23.909015,0.0</coordinates></LinearRing></outerBoundaryIs></Polygon><styleUrl>#spolygon-map</styleUrl></Placemark><Placemark><Polygon><outerBoundaryIs><LinearRing><coordinates>120.68673,23.923642,0.0 120.684301,23.923846,0.0 120.681119,23.921532,0.0 120.67918,23.919781,0.0 120.678195,23.918201,0.0 120.67729,23.917563,0.0 120.675896,23.917621,0.0 120.672988,23.917041,0.0 120.671945,23.916542,0.0 120.669915,23.916624,0.0 120.668562,23.915984,0.0 120.66782,23.915691,0.0 120.667336,23.91548,0.0 120.666641,23.915287,0.0 120.665427,23.91486,0.0 120.664729,23.914129,0.0 120.66207,23.91183,0.0 120.659564,23.909524,0.0 120.657054,23.908327,0.0 120.654337,23.907485,0.0 120.653103,23.906546,0.0 120.653273,23.904783,0.0 120.651652,23.904129,0.0 120.650204,23.903453,0.0 120.651326,23.901842,0.0 120.653625,23.90268,0.0 120.655433,23.902831,0.0 120.656028,23.902218,0.0 120.657224,23.902146,0.0 120.659008,23.902679,0.0 120.661398,23.903194,0.0 120.664606,23.903517,0.0 120.670315,23.906466,0.0 120.671066,23.907312,0.0 120.675239,23.908479,0.0 120.679786,23.91183,0.0 120.680621,23.913635,0.0 120.680472,23.915371,0.0 120.680544,23.916619,0.0 120.681388,23.917194,0.0 120.681864,23.917839,0.0 120.682468,23.918655,0.0 120.683505,23.918973,0.0 120.684239,23.918979,0.0 120.685892,23.919892,0.0 120.68603,23.920567,0.0 120.686076,23.921148,0.0 120.686416,23.922509,0.0 120.68673,23.923642,0.0</coordinates></LinearRing></outerBoundaryIs></Polygon><styleUrl>#spolygon-map</styleUrl></Placemark><Placemark><Polygon><outerBoundaryIs><LinearRing><coordinates>120.688226,23.922941,0.0 120.686645,23.923133,0.0 120.685964,23.921558,0.0 120.685937,23.920797,0.0 120.685763,23.920257,0.0 120.685066,23.919367,0.0 120.68389,23.91885,0.0 120.682969,23.918879,0.0 120.681869,23.918471,0.0 120.681708,23.917355,0.0 120.681062,23.917076,0.0 120.680201,23.916512,0.0 120.680365,23.914228,0.0 120.681264,23.91302,0.0 120.682611,23.913772,0.0 120.684717,23.914528,0.0 120.686577,23.91488,0.0 120.687327,23.915249,0.0 120.688121,23.915937,0.0 120.687418,23.916771,0.0 120.688315,23.917748,0.0 120.689546,23.920317,0.0 120.688226,23.922941,0.0</coordinates></LinearRing></outerBoundaryIs></Polygon><styleUrl>#spolygon-map</styleUrl></Placemark><Placemark><Polygon><outerBoundaryIs><LinearRing><coordinates>120.630917,23.90826,0.0 120.631434,23.908421,0.0 120.631799,23.908413,0.0 120.632145,23.908268,0.0 120.632654,23.908112,0.0 120.633265,23.908062,0.0 120.63397,23.907901,0.0 120.634224,23.907574,0.0 120.633743,23.907259,0.0 120.633281,23.907248,0.0 120.633378,23.907024,0.0 120.633533,23.906516,0.0 120.63327,23.906177,0.0 120.632932,23.906311,0.0 120.632718,23.906695,0.0 120.632361,23.906845,0.0 120.632113,23.906753,0.0 120.63238,23.906292,0.0 120.632634,23.905789,0.0 120.632296,23.905425,0.0 120.632269,23.905224,0.0 120.632574,23.904835,0.0 120.63228,23.90466,0.0 120.632185,23.904355,0.0 120.632497,23.904484,0.0 120.632855,23.90446,0.0 120.632992,23.904118,0.0 120.632872,23.903928,0.0 120.632596,23.903778,0.0 120.632234,23.903511,0.0 120.631884,23.903424,0.0 120.631536,23.903532,0.0 120.631356,23.903433,0.0 120.631503,23.903024,0.0 120.631743,23.90283,0.0 120.632246,23.903059,0.0 120.632708,23.902961,0.0 120.633146,23.902848,0.0 120.633477,23.902638,0.0 120.633582,23.902162,0.0 120.63392,23.90195,0.0 120.634118,23.901608,0.0 120.634839,23.901503,0.0 120.634955,23.90127,0.0 120.63472,23.900866,0.0 120.634176,23.900574,0.0 120.6337,23.900377,0.0 120.633815,23.900021,0.0 120.633758,23.899713,0.0 120.634156,23.899669,0.0 120.634483,23.899469,0.0 120.63756,23.899201,0.0 120.639541,23.898377,0.0 120.641457,23.897824,0.0 120.642118,23.897575,0.0 120.642703,23.897553,0.0 120.643431,23.897533,0.0 120.644042,23.897491,0.0 120.644443,23.897539,0.0 120.644822,23.897353,0.0 120.645392,23.8973,0.0 120.645741,23.897479,0.0 120.646295,23.897625,0.0 120.646838,23.897615,0.0 120.647283,23.897584,0.0 120.648124,23.897688,0.0 120.648759,23.897771,0.0 120.649011,23.897828,0.0 120.649196,23.897907,0.0 120.649565,23.898174,0.0 120.650205,23.898618,0.0 120.651773,23.89926,0.0 120.652631,23.899596,0.0 120.653089,23.899844,0.0 120.653829,23.899942,0.0 120.654478,23.9001,0.0 120.655372,23.900747,0.0 120.655849,23.901206,0.0 120.65586,23.90266,0.0 120.654928,23.902927,0.0 120.653091,23.902537,0.0 120.650873,23.901866,0.0 120.650248,23.903702,0.0 120.651958,23.904216,0.0 120.653267,23.90495,0.0 120.651793,23.906173,0.0 120.649362,23.907569,0.0 120.654508,23.910935,0.0 120.654369,23.912104,0.0 120.652986,23.917977,0.0 120.647285,23.920987,0.0 120.639223,23.921609,0.0 120.637204,23.922746,0.0 120.637156,23.922471,0.0 120.637234,23.921898,0.0 120.636756,23.921714,0.0 120.636335,23.921754,0.0 120.635829,23.92156,0.0 120.635361,23.921688,0.0 120.635394,23.921424,0.0 120.635792,23.921054,0.0 120.635987,23.920606,0.0 120.636347,23.920235,0.0 120.636557,23.919802,0.0 120.636233,23.919356,0.0 120.635667,23.919808,0.0 120.635139,23.920078,0.0 120.634854,23.919765,0.0 120.634758,23.919252,0.0 120.634298,23.919415,0.0 120.633724,23.91968,0.0 120.63352,23.919542,0.0 120.633757,23.919217,0.0 120.634241,23.918978,0.0 120.634605,23.918713,0.0 120.634873,23.918235,0.0 120.634883,23.917756,0.0 120.634165,23.917877,0.0 120.633874,23.917716,0.0 120.634165,23.917179,0.0 120.634333,23.916837,0.0 120.634158,23.916372,0.0 120.633998,23.916125,0.0 120.63351,23.916284,0.0 120.633299,23.915879,0.0 120.633603,23.915734,0.0 120.634035,23.915583,0.0 120.633868,23.915321,0.0 120.633623,23.915275,0.0 120.633342,23.915122,0.0 120.633772,23.914846,0.0 120.634208,23.914376,0.0 120.63442,23.913995,0.0 120.634602,23.913469,0.0 120.634701,23.913119,0.0 120.634239,23.913316,0.0 120.63371,23.913767,0.0 120.633403,23.914139,0.0 120.633087,23.91422,0.0 120.633064,23.913856,0.0 120.632971,23.913365,0.0 120.633109,23.913241,0.0 120.633336,23.913091,0.0 120.633121,23.912456,0.0 120.632573,23.912525,0.0 120.63271,23.912244,0.0 120.633103,23.912005,0.0 120.633355,23.911765,0.0 120.633119,23.911538,0.0 120.632589,23.91151,0.0 120.632703,23.911205,0.0 120.632415,23.910769,0.0 120.631831,23.910756,0.0 120.631383,23.910888,0.0 120.630887,23.910925,0.0 120.630356,23.910969,0.0 120.63001,23.911122,0.0 120.629624,23.911098,0.0 120.629468,23.910883,0.0 120.629532,23.910629,0.0 120.629936,23.910347,0.0 120.630356,23.910383,0.0 120.6309,23.910594,0.0 120.631296,23.910462,0.0 120.631759,23.910448,0.0 120.632094,23.91002,0.0 120.632713,23.909853,0.0 120.63302,23.909533,0.0 120.632758,23.909262,0.0 120.632131,23.909262,0.0 120.631681,23.90928,0.0 120.631783,23.908953,0.0 120.631614,23.908704,0.0 120.631191,23.908648,0.0 120.6305,23.908634,0.0 120.630616,23.908247,0.0 120.630917,23.90826,0.0</coordinates></LinearRing></outerBoundaryIs></Polygon><styleUrl>#spolygon-map</styleUrl></Placemark><Placemark><Polygon><outerBoundaryIs><LinearRing><coordinates>120.645753,23.96286,0.0 120.645096,23.962648,0.0 120.644419,23.962295,0.0 120.644167,23.961979,0.0 120.644008,23.96155,0.0 120.643863,23.961219,0.0 120.643532,23.960751,0.0 120.643274,23.960224,0.0 120.642894,23.959605,0.0 120.642813,23.959246,0.0 120.642741,23.95868,0.0 120.642646,23.958275,0.0 120.642023,23.957734,0.0 120.641447,23.957188,0.0 120.64093,23.956638,0.0 120.64033,23.956164,0.0 120.640026,23.955736,0.0 120.639737,23.955305,0.0 120.639381,23.955012,0.0 120.638774,23.954577,0.0 120.63832,23.954217,0.0 120.64367,23.94939,0.0 120.644188,23.944766,0.0 120.64531,23.942172,0.0 120.648045,23.937458,0.0 120.647125,23.932246,0.0 120.649223,23.926513,0.0 120.647285,23.920987,0.0 120.652297,23.922574,0.0 120.654893,23.92704,0.0 120.655519,23.928692,0.0 120.657368,23.931393,0.0 120.661787,23.934715,0.0 120.666138,23.941002,0.0 120.667627,23.942154,0.0 120.669795,23.943419,0.0 120.67052,23.944691,0.0 120.670075,23.945315,0.0 120.668596,23.945904,0.0 120.667501,23.946046,0.0 120.666494,23.946184,0.0 120.666027,23.946088,0.0 120.665054,23.945819,0.0 120.664374,23.946107,0.0 120.663541,23.9468,0.0 120.662375,23.947764,0.0 120.662096,23.949307,0.0 120.662195,23.949971,0.0 120.662027,23.950558,0.0 120.661279,23.95138,0.0 120.660724,23.951812,0.0 120.660242,23.952109,0.0 120.65814,23.952109,0.0 120.657284,23.952647,0.0 120.655774,23.954501,0.0 120.653848,23.95621,0.0 120.65132,23.95794,0.0 120.649796,23.959232,0.0 120.648451,23.96055,0.0 120.647587,23.961889,0.0 120.646738,23.963327,0.0 120.645753,23.96286,0.0</coordinates></LinearRing></outerBoundaryIs></Polygon><styleUrl>#spolygon-map</styleUrl></Placemark><Placemark><Polygon><outerBoundaryIs><LinearRing><coordinates>120.629998,23.952407,0.0 120.629165,23.952162,0.0 120.628432,23.952556,0.0 120.628002,23.952663,0.0 120.627639,23.952182,0.0 120.62766,23.951646,0.0 120.628077,23.951055,0.0 120.628688,23.950363,0.0 120.628918,23.950047,0.0 120.629208,23.949556,0.0 120.629871,23.94884,0.0 120.63065,23.948116,0.0 120.631362,23.94739,0.0 120.631877,23.946902,0.0 120.632192,23.946435,0.0 120.632717,23.945991,0.0 120.632906,23.945592,0.0 120.633258,23.945171,0.0 120.634053,23.944378,0.0 120.63459,23.943797,0.0 120.634121,23.943254,0.0 120.633353,23.942885,0.0 120.633091,23.943157,0.0 120.632472,23.943381,0.0 120.631794,23.943721,0.0 120.631555,23.943963,0.0 120.631322,23.94427,0.0 120.630901,23.944654,0.0 120.63076,23.944771,0.0 120.630153,23.944285,0.0 120.630482,23.943984,0.0 120.630688,23.943727,0.0 120.63039,23.943351,0.0 120.630148,23.942958,0.0 120.63097,23.942461,0.0 120.631416,23.942157,0.0 120.632146,23.94166,0.0 120.632711,23.941185,0.0 120.63309,23.940699,0.0 120.633343,23.94023,0.0 120.633843,23.939563,0.0 120.634696,23.939085,0.0 120.635285,23.938747,0.0 120.635753,23.938193,0.0 120.636378,23.937722,0.0 120.636772,23.937233,0.0 120.636743,23.93654,0.0 120.637314,23.93598,0.0 120.637646,23.935435,0.0 120.637174,23.935665,0.0 120.636597,23.936009,0.0 120.636124,23.936738,0.0 120.635533,23.937415,0.0 120.635348,23.936911,0.0 120.635,23.937104,0.0 120.634577,23.936935,0.0 120.634663,23.936569,0.0 120.634201,23.936038,0.0 120.636892,23.933378,0.0 120.647125,23.932246,0.0 120.648045,23.937458,0.0 120.64531,23.942172,0.0 120.644188,23.944766,0.0 120.64367,23.94939,0.0 120.637988,23.953739,0.0 120.637467,23.95329,0.0 120.636911,23.952868,0.0 120.636565,23.952644,0.0 120.636011,23.952577,0.0 120.635645,23.952387,0.0 120.635276,23.952345,0.0 120.635142,23.952824,0.0 120.635038,23.953212,0.0 120.634711,23.95357,0.0 120.634329,23.954,0.0 120.633791,23.954384,0.0 120.633168,23.954812,0.0 120.632707,23.955079,0.0 120.631776,23.955448,0.0 120.63132,23.955782,0.0 120.631173,23.956139,0.0 120.630958,23.956351,0.0 120.630197,23.956074,0.0 120.629581,23.956121,0.0 120.628949,23.956236,0.0 120.6281,23.956439,0.0 120.627635,23.956548,0.0 120.627021,23.956502,0.0 120.626968,23.956205,0.0 120.626945,23.955759,0.0 120.627203,23.955629,0.0 120.627852,23.955835,0.0 120.627889,23.955514,0.0 120.628076,23.955361,0.0 120.628446,23.955455,0.0 120.628655,23.955476,0.0 120.628973,23.955323,0.0 120.62948,23.955302,0.0 120.629812,23.955165,0.0 120.629357,23.954905,0.0 120.629202,23.954651,0.0 120.629389,23.954559,0.0 120.630055,23.95482,0.0 120.630403,23.954699,0.0 120.630981,23.954473,0.0 120.631344,23.95474,0.0 120.632037,23.95466,0.0 120.632948,23.954284,0.0 120.633398,23.953964,0.0 120.633746,23.953477,0.0 120.633991,23.952909,0.0 120.634073,23.952363,0.0 120.633534,23.952406,0.0 120.633168,23.952615,0.0 120.632861,23.952996,0.0 120.63228,23.953158,0.0 120.631817,23.953434,0.0 120.631311,23.953425,0.0 120.630806,23.953032,0.0 120.630539,23.952609,0.0 120.629998,23.952407,0.0</coordinates></LinearRing></outerBoundaryIs></Polygon><styleUrl>#spolygon-map</styleUrl></Placemark><Placemark><Polygon><outerBoundaryIs><LinearRing><coordinates>120.634129,23.93612,0.0 120.633586,23.936037,0.0 120.633135,23.935834,0.0 120.632831,23.935694,0.0 120.632705,23.935461,0.0 120.632709,23.935049,0.0 120.632685,23.934282,0.0 120.632593,23.933883,0.0 120.632292,23.933224,0.0 120.631846,23.932743,0.0 120.631327,23.93245,0.0 120.630929,23.932152,0.0 120.630459,23.932634,0.0 120.630124,23.931989,0.0 120.629883,23.931455,0.0 120.62971,23.931173,0.0 120.629218,23.931215,0.0 120.62846,23.931369,0.0 120.627955,23.931269,0.0 120.627838,23.930914,0.0 120.628125,23.930518,0.0 120.628589,23.930094,0.0 120.629192,23.929678,0.0 120.629753,23.929467,0.0 120.630265,23.929428,0.0 120.630798,23.929379,0.0 120.630998,23.929154,0.0 120.631228,23.928794,0.0 120.631471,23.928717,0.0 120.631853,23.928865,0.0 120.631888,23.928684,0.0 120.631703,23.92839,0.0 120.63201,23.928398,0.0 120.632433,23.928426,0.0 120.632876,23.928264,0.0 120.633079,23.927926,0.0 120.63317,23.927626,0.0 120.633508,23.927426,0.0 120.633756,23.927224,0.0 120.633325,23.927029,0.0 120.633126,23.926598,0.0 120.633691,23.926494,0.0 120.634203,23.926629,0.0 120.63475,23.926255,0.0 120.635106,23.926331,0.0 120.635556,23.926192,0.0 120.635799,23.925795,0.0 120.635889,23.925444,0.0 120.636519,23.92527,0.0 120.636854,23.924986,0.0 120.636853,23.924746,0.0 120.637252,23.924563,0.0 120.637397,23.924086,0.0 120.636986,23.923536,0.0 120.636951,23.923186,0.0 120.637218,23.922905,0.0 120.639223,23.921609,0.0 120.647285,23.920987,0.0 120.649223,23.926513,0.0 120.647125,23.932246,0.0 120.636892,23.933378,0.0 120.634201,23.936038,0.0 120.634129,23.93612,0.0</coordinates></LinearRing></outerBoundaryIs></Polygon><styleUrl>#spolygon-map</styleUrl></Placemark><Placemark><Polygon><outerBoundaryIs><LinearRing><coordinates>120.687678,23.91525,0.0 120.686729,23.91488,0.0 120.686318,23.91241,0.0 120.687191,23.910461,0.0 120.687877,23.908582,0.0 120.690039,23.906866,0.0 120.690221,23.90818,0.0 120.688704,23.909586,0.0 120.688143,23.911671,0.0 120.688137,23.912935,0.0 120.68732,23.914195,0.0 120.687678,23.91525,0.0</coordinates></LinearRing></outerBoundaryIs></Polygon><styleUrl>#spolygon-map</styleUrl></Placemark><Placemark><Polygon><outerBoundaryIs><LinearRing><coordinates>120.680362,23.952427,0.0 120.68013,23.952161,0.0 120.678709,23.951371,0.0 120.685996,23.942155,0.0 120.691145,23.940714,0.0 120.691833,23.940751,0.0 120.692299,23.941206,0.0 120.692513,23.941129,0.0 120.693017,23.940878,0.0 120.694086,23.941056,0.0 120.695041,23.941726,0.0 120.695639,23.942368,0.0 120.695209,23.944478,0.0 120.690207,23.949872,0.0 120.687669,23.953429,0.0 120.685383,23.956131,0.0 120.684536,23.955019,0.0 120.683223,23.954102,0.0 120.682495,23.953667,0.0 120.680362,23.952427,0.0</coordinates></LinearRing></outerBoundaryIs></Polygon><styleUrl>#spolygon-map</styleUrl></Placemark><Placemark><Polygon><outerBoundaryIs><LinearRing><coordinates>120.678594,23.951545,0.0 120.676566,23.950675,0.0 120.675603,23.950393,0.0 120.675211,23.950031,0.0 120.674351,23.949704,0.0 120.673853,23.949256,0.0 120.673325,23.9486,0.0 120.673021,23.948211,0.0 120.672812,23.947518,0.0 120.672418,23.946937,0.0 120.67182,23.945841,0.0 120.671656,23.944927,0.0 120.671313,23.944756,0.0 120.672744,23.944073,0.0 120.674054,23.942472,0.0 120.67559,23.940814,0.0 120.677601,23.939941,0.0 120.680976,23.93811,0.0 120.681711,23.936924,0.0 120.683035,23.937284,0.0 120.684666,23.937592,0.0 120.685295,23.937736,0.0 120.686798,23.938098,0.0 120.688133,23.938229,0.0 120.682854,23.945862,0.0 120.678594,23.951545,0.0</coordinates></LinearRing></outerBoundaryIs></Polygon><styleUrl>#spolygon-map</styleUrl></Placemark></Document>
</kml>
