<?xml version="1.0" encoding="UTF-8"?>
<kml xmlns="http://www.opengis.net/kml/2.2">
	<Document>
		<name>南投縣中寮鄉</name>
		<Style id="spolygon">
			<LabelStyle>
				<scale>0.0</scale>
			</LabelStyle>
			<LineStyle>
				<color>330030ff</color>
				<width>0</width>
			</LineStyle>
			<PolyStyle>
				<color>330030ff</color>
			</PolyStyle>
		</Style>
		<StyleMap id="spolygon-map">
			<Pair>
				<key>normal</key>
				<styleUrl>#spolygon</styleUrl>
			</Pair>
		</StyleMap>
	<Placemark><Polygon><outerBoundaryIs><LinearRing><coordinates>120.775422,23.878131,0.0 120.779034,23.875723,0.0 120.784826,23.873377,0.0 120.78596,23.871913,0.0 120.791679,23.869054,0.0 120.80302,23.864498,0.0 120.809329,23.863481,0.0 120.811005,23.864858,0.0 120.812738,23.866402,0.0 120.814146,23.867837,0.0 120.819607,23.867177,0.0 120.822216,23.867506,0.0 120.82277,23.869755,0.0 120.818708,23.871888,0.0 120.807524,23.873605,0.0 120.801877,23.875677,0.0 120.79403,23.879432,0.0 120.792202,23.882241,0.0 120.789743,23.884217,0.0 120.786011,23.88548,0.0 120.782435,23.884676,0.0 120.779217,23.883733,0.0 120.776409,23.882083,0.0 120.772731,23.881513,0.0 120.770331,23.880006,0.0 120.76861,23.878058,0.0 120.772907,23.878035,0.0 120.775422,23.878131,0.0</coordinates></LinearRing></outerBoundaryIs></Polygon><styleUrl>#spolygon-map</styleUrl></Placemark><Placemark><Polygon><outerBoundaryIs><LinearRing><coordinates>120.761436,23.892133,0.0 120.758398,23.88876,0.0 120.755939,23.890158,0.0 120.7532,23.891064,0.0 120.750712,23.892719,0.0 120.749471,23.892121,0.0 120.746708,23.890482,0.0 120.74476,23.89105,0.0 120.744765,23.886944,0.0 120.751559,23.883519,0.0 120.754002,23.879715,0.0 120.756843,23.880107,0.0 120.759663,23.882656,0.0 120.763796,23.884324,0.0 120.764055,23.886412,0.0 120.761436,23.892133,0.0</coordinates></LinearRing></outerBoundaryIs></Polygon><styleUrl>#spolygon-map</styleUrl></Placemark><Placemark><Polygon><outerBoundaryIs><LinearRing><coordinates>120.792137,23.959981,0.0 120.791962,23.959839,0.0 120.791645,23.95966,0.0 120.791287,23.959533,0.0 120.791094,23.959408,0.0 120.790869,23.959331,0.0 120.790555,23.959297,0.0 120.79009,23.959337,0.0 120.789793,23.959359,0.0 120.789555,23.959316,0.0 120.789338,23.959246,0.0 120.789051,23.959063,0.0 120.788651,23.958775,0.0 120.788351,23.958511,0.0 120.788114,23.958244,0.0 120.787891,23.957828,0.0 120.787775,23.957402,0.0 120.787608,23.956986,0.0 120.787354,23.956613,0.0 120.787003,23.956373,0.0 120.786617,23.956271,0.0 120.786093,23.95625,0.0 120.785627,23.956306,0.0 120.78514,23.956524,0.0 120.784906,23.956813,0.0 120.784814,23.957061,0.0 120.78466,23.957429,0.0 120.784585,23.957731,0.0 120.784436,23.958016,0.0 120.784171,23.958284,0.0 120.783951,23.958344,0.0 120.783666,23.958346,0.0 120.783439,23.958319,0.0 120.783254,23.958282,0.0 120.783054,23.958257,0.0 120.782662,23.958155,0.0 120.782304,23.958211,0.0 120.781943,23.958443,0.0 120.781526,23.958741,0.0 120.781274,23.959018,0.0 120.781094,23.959209,0.0 120.781004,23.959498,0.0 120.780809,23.959593,0.0 120.780559,23.959527,0.0 120.780219,23.959387,0.0 120.779842,23.959248,0.0 120.779598,23.959185,0.0 120.7792,23.95906,0.0 120.77896,23.95896,0.0 120.778796,23.958836,0.0 120.778697,23.95863,0.0 120.778662,23.958378,0.0 120.778608,23.958012,0.0 120.778541,23.957617,0.0 120.778502,23.957346,0.0 120.778437,23.956953,0.0 120.778395,23.956797,0.0 120.778306,23.956555,0.0 120.778202,23.956334,0.0 120.77805,23.956121,0.0 120.777885,23.955981,0.0 120.777638,23.955879,0.0 120.777271,23.955748,0.0 120.776982,23.955675,0.0 120.776712,23.955618,0.0 120.776379,23.955541,0.0 120.775884,23.955518,0.0 120.775601,23.955554,0.0 120.775361,23.955741,0.0 120.775281,23.955935,0.0 120.77526,23.956348,0.0 120.775263,23.956792,0.0 120.775275,23.957051,0.0 120.772343,23.952783,0.0 120.775086,23.948438,0.0 120.783654,23.940608,0.0 120.788231,23.929221,0.0 120.793154,23.924715,0.0 120.799626,23.923085,0.0 120.802304,23.926,0.0 120.801321,23.934087,0.0 120.795289,23.942666,0.0 120.790525,23.944599,0.0 120.789589,23.948122,0.0 120.792266,23.951042,0.0 120.793921,23.955545,0.0 120.792137,23.959981,0.0</coordinates></LinearRing></outerBoundaryIs></Polygon><styleUrl>#spolygon-map</styleUrl></Placemark><Placemark><Polygon><outerBoundaryIs><LinearRing><coordinates>120.793689,23.897846,0.0 120.787866,23.894964,0.0 120.781026,23.891688,0.0 120.772326,23.886799,0.0 120.766652,23.883739,0.0 120.764437,23.884431,0.0 120.760974,23.882927,0.0 120.757189,23.881903,0.0 120.756179,23.875835,0.0 120.759479,23.873987,0.0 120.768112,23.876707,0.0 120.769209,23.878736,0.0 120.77125,23.880994,0.0 120.774825,23.882033,0.0 120.77789,23.882462,0.0 120.780288,23.884673,0.0 120.784631,23.885384,0.0 120.787954,23.884779,0.0 120.792044,23.883703,0.0 120.795575,23.891076,0.0 120.793689,23.897846,0.0</coordinates></LinearRing></outerBoundaryIs></Polygon><styleUrl>#spolygon-map</styleUrl></Placemark><Placemark><Polygon><outerBoundaryIs><LinearRing><coordinates>120.729183,23.928463,0.0 120.728998,23.928938,0.0 120.728612,23.929518,0.0 120.727777,23.929579,0.0 120.727033,23.930005,0.0 120.726592,23.930304,0.0 120.726365,23.930615,0.0 120.725879,23.93066,0.0 120.725624,23.930321,0.0 120.725385,23.929614,0.0 120.724867,23.92941,0.0 120.724751,23.92903,0.0 120.724226,23.928271,0.0 120.723471,23.927727,0.0 120.72316,23.926826,0.0 120.722586,23.925638,0.0 120.722149,23.92468,0.0 120.722105,23.923939,0.0 120.720896,23.923915,0.0 120.71937,23.923842,0.0 120.71928,23.923137,0.0 120.719176,23.922785,0.0 120.718415,23.922373,0.0 120.717487,23.922105,0.0 120.716654,23.92146,0.0 120.71599,23.920989,0.0 120.715624,23.921214,0.0 120.714698,23.921323,0.0 120.713721,23.921741,0.0 120.713178,23.921993,0.0 120.712769,23.921574,0.0 120.71177,23.921178,0.0 120.711346,23.920655,0.0 120.712044,23.920153,0.0 120.712304,23.920075,0.0 120.712321,23.920276,0.0 120.712248,23.920614,0.0 120.712448,23.920759,0.0 120.713023,23.921142,0.0 120.713257,23.920686,0.0 120.713269,23.920239,0.0 120.714014,23.920371,0.0 120.714498,23.919555,0.0 120.715068,23.919445,0.0 120.71562,23.919982,0.0 120.715913,23.919921,0.0 120.716763,23.91923,0.0 120.717048,23.919302,0.0 120.717259,23.918978,0.0 120.717705,23.918184,0.0 120.71781,23.917751,0.0 120.717508,23.917558,0.0 120.71725,23.917677,0.0 120.717014,23.916677,0.0 120.716923,23.916201,0.0 120.717321,23.916185,0.0 120.717663,23.916236,0.0 120.718251,23.916077,0.0 120.718166,23.915498,0.0 120.718409,23.91505,0.0 120.719275,23.915004,0.0 120.720146,23.914288,0.0 120.720325,23.914073,0.0 120.719588,23.91402,0.0 120.718931,23.913394,0.0 120.717793,23.912071,0.0 120.716938,23.911711,0.0 120.71688,23.91111,0.0 120.717158,23.910241,0.0 120.717244,23.9094,0.0 120.717457,23.908362,0.0 120.717192,23.9073,0.0 120.722455,23.905664,0.0 120.726568,23.90766,0.0 120.730817,23.907771,0.0 120.73794,23.907678,0.0 120.740789,23.908764,0.0 120.746477,23.919017,0.0 120.747362,23.923055,0.0 120.744975,23.925446,0.0 120.740025,23.929792,0.0 120.735718,23.931979,0.0 120.734322,23.93265,0.0 120.734774,23.931131,0.0 120.734843,23.930131,0.0 120.73469,23.929551,0.0 120.733928,23.929495,0.0 120.733277,23.929314,0.0 120.732485,23.928919,0.0 120.731511,23.928843,0.0 120.73029,23.928433,0.0 120.729318,23.928381,0.0 120.729183,23.928463,0.0</coordinates></LinearRing></outerBoundaryIs></Polygon><styleUrl>#spolygon-map</styleUrl></Placemark><Placemark><Polygon><outerBoundaryIs><LinearRing><coordinates>120.749101,23.954225,0.0 120.748764,23.954311,0.0 120.748178,23.954364,0.0 120.747921,23.954822,0.0 120.7477,23.955063,0.0 120.746928,23.955015,0.0 120.746601,23.954863,0.0 120.74637,23.955131,0.0 120.745713,23.95528,0.0 120.745267,23.955319,0.0 120.744463,23.955701,0.0 120.743915,23.955694,0.0 120.743144,23.95567,0.0 120.742637,23.955542,0.0 120.742271,23.955935,0.0 120.741854,23.955135,0.0 120.741938,23.954593,0.0 120.741908,23.954288,0.0 120.741557,23.953958,0.0 120.741589,23.953586,0.0 120.741731,23.952846,0.0 120.741905,23.952397,0.0 120.742506,23.951538,0.0 120.74281,23.951114,0.0 120.742448,23.951228,0.0 120.74173,23.951654,0.0 120.740807,23.951819,0.0 120.739821,23.951903,0.0 120.739564,23.951472,0.0 120.739568,23.951115,0.0 120.740163,23.950184,0.0 120.739971,23.949741,0.0 120.739189,23.948988,0.0 120.73848,23.948407,0.0 120.73811,23.94848,0.0 120.737333,23.9487,0.0 120.736334,23.948672,0.0 120.735514,23.948704,0.0 120.734593,23.949183,0.0 120.733896,23.949024,0.0 120.733653,23.947674,0.0 120.733537,23.946935,0.0 120.733781,23.945992,0.0 120.733642,23.945351,0.0 120.732905,23.944681,0.0 120.732596,23.944085,0.0 120.732538,23.943579,0.0 120.732351,23.943312,0.0 120.731822,23.943023,0.0 120.731929,23.94263,0.0 120.732415,23.942401,0.0 120.732698,23.941783,0.0 120.73297,23.940666,0.0 120.732951,23.939702,0.0 120.732513,23.939096,0.0 120.732329,23.938938,0.0 120.732515,23.938161,0.0 120.73293,23.937449,0.0 120.73289,23.93706,0.0 120.732885,23.936539,0.0 120.733008,23.936201,0.0 120.733484,23.936077,0.0 120.734016,23.935852,0.0 120.734189,23.935455,0.0 120.734054,23.934708,0.0 120.734059,23.933902,0.0 120.734313,23.93269,0.0 120.737259,23.931761,0.0 120.740205,23.929411,0.0 120.745461,23.924763,0.0 120.7477,23.921654,0.0 120.749855,23.920919,0.0 120.752551,23.92396,0.0 120.755282,23.920912,0.0 120.760117,23.92487,0.0 120.758975,23.932139,0.0 120.756798,23.937026,0.0 120.75496,23.941786,0.0 120.753835,23.944899,0.0 120.750286,23.952681,0.0 120.749101,23.954225,0.0</coordinates></LinearRing></outerBoundaryIs></Polygon><styleUrl>#spolygon-map</styleUrl></Placemark><Placemark><Polygon><outerBoundaryIs><LinearRing><coordinates>120.755282,23.920912,0.0 120.752551,23.92396,0.0 120.749855,23.920919,0.0 120.747219,23.919976,0.0 120.741766,23.910935,0.0 120.738758,23.907918,0.0 120.736345,23.904973,0.0 120.733157,23.899254,0.0 120.729219,23.896134,0.0 120.728375,23.89025,0.0 120.72467,23.885757,0.0 120.724716,23.885069,0.0 120.724427,23.88396,0.0 120.72426,23.883238,0.0 120.724941,23.882679,0.0 120.725692,23.881958,0.0 120.726321,23.881417,0.0 120.727704,23.880953,0.0 120.72743,23.88069,0.0 120.727175,23.880085,0.0 120.727013,23.879396,0.0 120.726738,23.877994,0.0 120.727092,23.876531,0.0 120.727549,23.876191,0.0 120.728579,23.876085,0.0 120.729344,23.875517,0.0 120.729627,23.875035,0.0 120.729995,23.874527,0.0 120.730514,23.873763,0.0 120.731116,23.872879,0.0 120.731256,23.872324,0.0 120.73153,23.871921,0.0 120.731467,23.871442,0.0 120.731482,23.871031,0.0 120.731282,23.870166,0.0 120.731141,23.869606,0.0 120.731224,23.869236,0.0 120.731447,23.869058,0.0 120.732174,23.868416,0.0 120.73269,23.86808,0.0 120.732648,23.867715,0.0 120.732903,23.866918,0.0 120.733042,23.866074,0.0 120.733395,23.865425,0.0 120.733746,23.864768,0.0 120.734239,23.864424,0.0 120.734517,23.864002,0.0 120.734627,23.863373,0.0 120.73459,23.862991,0.0 120.734314,23.862559,0.0 120.733683,23.861856,0.0 120.73372,23.861439,0.0 120.735319,23.860374,0.0 120.735741,23.860122,0.0 120.736605,23.859947,0.0 120.736813,23.859627,0.0 120.736673,23.859195,0.0 120.736802,23.858893,0.0 120.737179,23.858761,0.0 120.737286,23.859052,0.0 120.737513,23.85949,0.0 120.737911,23.859687,0.0 120.738838,23.859669,0.0 120.740057,23.859574,0.0 120.741096,23.859738,0.0 120.741436,23.859416,0.0 120.741998,23.859249,0.0 120.742315,23.858742,0.0 120.742621,23.858463,0.0 120.743068,23.858527,0.0 120.743544,23.858272,0.0 120.744374,23.858265,0.0 120.744775,23.858439,0.0 120.745203,23.858623,0.0 120.745637,23.858461,0.0 120.746363,23.857789,0.0 120.746865,23.857341,0.0 120.747296,23.857484,0.0 120.747805,23.857534,0.0 120.748264,23.857689,0.0 120.748856,23.858311,0.0 120.750326,23.865516,0.0 120.752704,23.867992,0.0 120.75328,23.870167,0.0 120.752862,23.8752,0.0 120.755538,23.876893,0.0 120.75222,23.882633,0.0 120.749224,23.88454,0.0 120.744059,23.888003,0.0 120.743514,23.89307,0.0 120.741136,23.896931,0.0 120.744178,23.902128,0.0 120.749634,23.90879,0.0 120.755414,23.91644,0.0 120.755282,23.920912,0.0</coordinates></LinearRing></outerBoundaryIs></Polygon><styleUrl>#spolygon-map</styleUrl></Placemark><Placemark><Polygon><outerBoundaryIs><LinearRing><coordinates>120.828699,23.938069,0.0 120.825533,23.934728,0.0 120.82178,23.933744,0.0 120.815067,23.926678,0.0 120.808145,23.925475,0.0 120.802304,23.926,0.0 120.799057,23.921897,0.0 120.796566,23.9196,0.0 120.79406,23.912619,0.0 120.797697,23.902456,0.0 120.801878,23.897188,0.0 120.807408,23.896067,0.0 120.814316,23.897491,0.0 120.820237,23.896827,0.0 120.823494,23.898845,0.0 120.828317,23.899353,0.0 120.830792,23.901706,0.0 120.838559,23.90476,0.0 120.844621,23.907351,0.0 120.845141,23.907728,0.0 120.845247,23.90792,0.0 120.84545,23.908148,0.0 120.845705,23.908316,0.0 120.845945,23.908476,0.0 120.846241,23.908659,0.0 120.846513,23.908829,0.0 120.846717,23.909028,0.0 120.846826,23.909278,0.0 120.846895,23.909579,0.0 120.846919,23.90992,0.0 120.846887,23.910202,0.0 120.846785,23.910432,0.0 120.846622,23.910642,0.0 120.84639,23.910854,0.0 120.846174,23.911081,0.0 120.845886,23.911377,0.0 120.845711,23.911645,0.0 120.845581,23.911896,0.0 120.845507,23.912106,0.0 120.84545,23.912367,0.0 120.845384,23.912607,0.0 120.845279,23.912796,0.0 120.844982,23.913031,0.0 120.84479,23.913272,0.0 120.844603,23.913531,0.0 120.844473,23.913755,0.0 120.844338,23.913976,0.0 120.844167,23.914296,0.0 120.843967,23.91466,0.0 120.843808,23.914993,0.0 120.843516,23.915208,0.0 120.843166,23.915343,0.0 120.842878,23.915485,0.0 120.84273,23.915661,0.0 120.842836,23.915941,0.0 120.843047,23.916207,0.0 120.843225,23.916541,0.0 120.843464,23.916781,0.0 120.843996,23.917023,0.0 120.84444,23.917279,0.0 120.844537,23.917545,0.0 120.844244,23.918152,0.0 120.844093,23.918506,0.0 120.843987,23.918804,0.0 120.843914,23.919199,0.0 120.843674,23.919515,0.0 120.843632,23.919854,0.0 120.843587,23.920151,0.0 120.84338,23.920499,0.0 120.843152,23.9207,0.0 120.842835,23.920699,0.0 120.842567,23.92083,0.0 120.842505,23.921015,0.0 120.842541,23.921299,0.0 120.842545,23.921654,0.0 120.842577,23.9219,0.0 120.842715,23.922146,0.0 120.843032,23.922277,0.0 120.843149,23.922483,0.0 120.843084,23.922666,0.0 120.84297,23.922853,0.0 120.842953,23.923045,0.0 120.843086,23.923246,0.0 120.843417,23.923415,0.0 120.843615,23.923705,0.0 120.843457,23.923989,0.0 120.843102,23.924327,0.0 120.842793,23.924638,0.0 120.842588,23.924918,0.0 120.842634,23.925252,0.0 120.842683,23.925548,0.0 120.842723,23.925975,0.0 120.842719,23.926426,0.0 120.842669,23.926769,0.0 120.842595,23.927002,0.0 120.842535,23.927363,0.0 120.842547,23.927668,0.0 120.842581,23.927932,0.0 120.842639,23.928252,0.0 120.842825,23.92858,0.0 120.843041,23.928975,0.0 120.84314,23.929361,0.0 120.843124,23.929749,0.0 120.843071,23.93002,0.0 120.842894,23.930287,0.0 120.842643,23.930523,0.0 120.842438,23.930805,0.0 120.842373,23.931103,0.0 120.84236,23.931358,0.0 120.842357,23.931704,0.0 120.842353,23.932033,0.0 120.842331,23.932363,0.0 120.842278,23.932683,0.0 120.84216,23.932965,0.0 120.841955,23.933317,0.0 120.841924,23.933617,0.0 120.841908,23.933909,0.0 120.841839,23.93424,0.0 120.84174,23.934383,0.0 120.841514,23.934461,0.0 120.841226,23.934545,0.0 120.840969,23.934671,0.0 120.840702,23.934786,0.0 120.840393,23.934812,0.0 120.839924,23.934852,0.0 120.839571,23.934872,0.0 120.839162,23.934962,0.0 120.838865,23.935064,0.0 120.838615,23.935203,0.0 120.838367,23.935399,0.0 120.838116,23.935663,0.0 120.837927,23.935875,0.0 120.837701,23.93606,0.0 120.837407,23.936094,0.0 120.837026,23.936037,0.0 120.836743,23.936021,0.0 120.836402,23.936054,0.0 120.836086,23.936201,0.0 120.835825,23.936327,0.0 120.835478,23.936403,0.0 120.835233,23.936396,0.0 120.83493,23.93636,0.0 120.834561,23.936391,0.0 120.834227,23.936551,0.0 120.83397,23.936672,0.0 120.833649,23.936724,0.0 120.833365,23.936717,0.0 120.833142,23.93664,0.0 120.832742,23.936536,0.0 120.832464,23.936587,0.0 120.832078,23.9367,0.0 120.831624,23.936889,0.0 120.831174,23.937053,0.0 120.830829,23.937116,0.0 120.830417,23.937158,0.0 120.830078,23.937115,0.0 120.829663,23.937013,0.0 120.829209,23.936965,0.0 120.828865,23.937089,0.0 120.828789,23.937448,0.0 120.828733,23.937856,0.0 120.828699,23.938069,0.0</coordinates></LinearRing></outerBoundaryIs></Polygon><styleUrl>#spolygon-map</styleUrl></Placemark><Placemark><Polygon><outerBoundaryIs><LinearRing><coordinates>120.775422,23.878131,0.0 120.768112,23.876707,0.0 120.759479,23.873987,0.0 120.756179,23.875835,0.0 120.753704,23.875502,0.0 120.753131,23.871774,0.0 120.752875,23.868317,0.0 120.750831,23.866637,0.0 120.748888,23.858692,0.0 120.749199,23.85853,0.0 120.749522,23.858887,0.0 120.750187,23.859024,0.0 120.751321,23.85891,0.0 120.751971,23.858476,0.0 120.752602,23.858095,0.0 120.753277,23.857945,0.0 120.753686,23.858246,0.0 120.754544,23.858331,0.0 120.754799,23.858106,0.0 120.754974,23.857469,0.0 120.755192,23.856874,0.0 120.755247,23.856314,0.0 120.755229,23.855718,0.0 120.755727,23.855753,0.0 120.756043,23.855184,0.0 120.756504,23.854745,0.0 120.756792,23.854084,0.0 120.757076,23.853197,0.0 120.757042,23.852448,0.0 120.757189,23.852163,0.0 120.757879,23.852404,0.0 120.758346,23.85261,0.0 120.758934,23.852629,0.0 120.759241,23.852397,0.0 120.759496,23.851715,0.0 120.759789,23.851253,0.0 120.760163,23.850958,0.0 120.760538,23.850543,0.0 120.760759,23.850128,0.0 120.760956,23.849788,0.0 120.761334,23.849576,0.0 120.761741,23.849516,0.0 120.762152,23.849762,0.0 120.762611,23.849982,0.0 120.763121,23.85015,0.0 120.763538,23.850029,0.0 120.763969,23.849625,0.0 120.764229,23.849018,0.0 120.764565,23.848536,0.0 120.764848,23.848281,0.0 120.76525,23.848304,0.0 120.765413,23.848379,0.0 120.765545,23.848481,0.0 120.765551,23.848661,0.0 120.765638,23.848909,0.0 120.765738,23.848964,0.0 120.765954,23.849014,0.0 120.766332,23.849037,0.0 120.766662,23.848936,0.0 120.766806,23.848835,0.0 120.767094,23.848537,0.0 120.767432,23.848039,0.0 120.767697,23.847536,0.0 120.767935,23.847171,0.0 120.768137,23.846884,0.0 120.768216,23.846803,0.0 120.768352,23.846803,0.0 120.76862,23.846815,0.0 120.768857,23.846824,0.0 120.769023,23.846829,0.0 120.769372,23.846832,0.0 120.769719,23.846841,0.0 120.770035,23.846874,0.0 120.77032,23.846878,0.0 120.770466,23.846844,0.0 120.770659,23.846735,0.0 120.770812,23.846525,0.0 120.770887,23.846387,0.0 120.770984,23.846223,0.0 120.77118,23.846022,0.0 120.771491,23.845789,0.0 120.771694,23.845684,0.0 120.772001,23.845488,0.0 120.772431,23.845408,0.0 120.772848,23.845359,0.0 120.773414,23.845301,0.0 120.773682,23.845501,0.0 120.773831,23.845689,0.0 120.773984,23.845927,0.0 120.774217,23.846392,0.0 120.774217,23.846561,0.0 120.774071,23.847026,0.0 120.774028,23.847242,0.0 120.774158,23.847453,0.0 120.774421,23.847503,0.0 120.774666,23.847559,0.0 120.774905,23.847614,0.0 120.775314,23.847633,0.0 120.775599,23.847646,0.0 120.775862,23.847663,0.0 120.776249,23.847772,0.0 120.776573,23.847885,0.0 120.776861,23.848022,0.0 120.777109,23.848175,0.0 120.777506,23.84835,0.0 120.777714,23.84844,0.0 120.777987,23.848476,0.0 120.778272,23.848427,0.0 120.778561,23.84866,0.0 120.778572,23.848955,0.0 120.778768,23.849155,0.0 120.77887,23.849298,0.0 120.778657,23.849405,0.0 120.778466,23.849498,0.0 120.778261,23.849653,0.0 120.778036,23.849615,0.0 120.777971,23.849529,0.0 120.777779,23.84958,0.0 120.777597,23.849754,0.0 120.777296,23.84993,0.0 120.776993,23.850123,0.0 120.776841,23.850335,0.0 120.776984,23.850426,0.0 120.777453,23.850528,0.0 120.778095,23.850768,0.0 120.778345,23.850809,0.0 120.778789,23.850848,0.0 120.779232,23.850993,0.0 120.779491,23.851462,0.0 120.77961,23.857053,0.0 120.774935,23.861554,0.0 120.775644,23.864246,0.0 120.775907,23.866206,0.0 120.775067,23.867988,0.0 120.775368,23.869808,0.0 120.776109,23.874096,0.0 120.775317,23.877688,0.0 120.775422,23.878131,0.0</coordinates></LinearRing></outerBoundaryIs></Polygon><styleUrl>#spolygon-map</styleUrl></Placemark><Placemark><Polygon><outerBoundaryIs><LinearRing><coordinates>120.834763,23.970478,0.0 120.834113,23.970527,0.0 120.833143,23.970505,0.0 120.832954,23.970485,0.0 120.832595,23.970428,0.0 120.832322,23.970396,0.0 120.831997,23.97033,0.0 120.831706,23.970276,0.0 120.831514,23.970244,0.0 120.831337,23.970165,0.0 120.831168,23.970011,0.0 120.830957,23.969821,0.0 120.830803,23.96972,0.0 120.830576,23.969593,0.0 120.830332,23.96948,0.0 120.830074,23.969378,0.0 120.829793,23.969285,0.0 120.829433,23.969185,0.0 120.829057,23.969095,0.0 120.828756,23.969015,0.0 120.828456,23.96894,0.0 120.828177,23.968897,0.0 120.827835,23.968926,0.0 120.827526,23.969014,0.0 120.827247,23.969097,0.0 120.826898,23.969187,0.0 120.826624,23.969245,0.0 120.82637,23.969277,0.0 120.826107,23.969258,0.0 120.825792,23.969204,0.0 120.825543,23.969174,0.0 120.825242,23.969149,0.0 120.825042,23.969155,0.0 120.824822,23.969148,0.0 120.824694,23.969156,0.0 120.824492,23.969164,0.0 120.824315,23.969179,0.0 120.824107,23.969227,0.0 120.823978,23.969315,0.0 120.82371,23.969493,0.0 120.823546,23.969488,0.0 120.82337,23.969393,0.0 120.823128,23.969244,0.0 120.822937,23.96914,0.0 120.822768,23.969081,0.0 120.82258,23.969044,0.0 120.822347,23.968999,0.0 120.82215,23.968958,0.0 120.821944,23.968836,0.0 120.821772,23.968666,0.0 120.821588,23.968585,0.0 120.821337,23.968551,0.0 120.821002,23.96862,0.0 120.820721,23.968713,0.0 120.820444,23.968859,0.0 120.820169,23.969053,0.0 120.819906,23.969242,0.0 120.819678,23.969389,0.0 120.819326,23.96953,0.0 120.819057,23.969586,0.0 120.818797,23.969611,0.0 120.818505,23.969611,0.0 120.818195,23.96957,0.0 120.817922,23.969511,0.0 120.817643,23.969443,0.0 120.817443,23.969413,0.0 120.817296,23.9694,0.0 120.817079,23.969395,0.0 120.816853,23.969455,0.0 120.816562,23.969597,0.0 120.816329,23.969721,0.0 120.81606,23.969833,0.0 120.815769,23.969919,0.0 120.815505,23.969991,0.0 120.815306,23.970024,0.0 120.815032,23.97004,0.0 120.814737,23.970035,0.0 120.814464,23.970008,0.0 120.81418,23.969946,0.0 120.813974,23.969876,0.0 120.813741,23.969763,0.0 120.813557,23.969691,0.0 120.813333,23.969634,0.0 120.813078,23.969604,0.0 120.812896,23.969604,0.0 120.81268,23.96961,0.0 120.812504,23.96964,0.0 120.812267,23.969693,0.0 120.812005,23.969759,0.0 120.811761,23.969833,0.0 120.811575,23.969905,0.0 120.811436,23.970036,0.0 120.811384,23.970261,0.0 120.811362,23.970437,0.0 120.811284,23.970692,0.0 120.811246,23.97085,0.0 120.811254,23.971083,0.0 120.811255,23.971311,0.0 120.811194,23.971516,0.0 120.811066,23.971636,0.0 120.810921,23.971629,0.0 120.810752,23.971563,0.0 120.810519,23.971484,0.0 120.810163,23.97135,0.0 120.809694,23.971178,0.0 120.809415,23.971076,0.0 120.809169,23.970974,0.0 120.808763,23.970798,0.0 120.808495,23.970675,0.0 120.808354,23.970704,0.0 120.808187,23.970729,0.0 120.808034,23.97074,0.0 120.807929,23.97058,0.0 120.807878,23.970354,0.0 120.807639,23.970101,0.0 120.807328,23.969845,0.0 120.80695,23.969635,0.0 120.8065,23.969438,0.0 120.806218,23.969322,0.0 120.805985,23.969171,0.0 120.805767,23.968911,0.0 120.805475,23.96864,0.0 120.805232,23.96838,0.0 120.805074,23.968048,0.0 120.804966,23.967612,0.0 120.804886,23.967219,0.0 120.804818,23.966752,0.0 120.804749,23.9663,0.0 120.804681,23.966095,0.0 120.804483,23.965961,0.0 120.804109,23.965898,0.0 120.803917,23.965692,0.0 120.803866,23.965464,0.0 120.803776,23.965276,0.0 120.803522,23.965023,0.0 120.803262,23.964768,0.0 120.803094,23.964503,0.0 120.803019,23.964242,0.0 120.802995,23.963962,0.0 120.803011,23.963609,0.0 120.80302,23.963298,0.0 120.802934,23.963133,0.0 120.80278,23.962993,0.0 120.802433,23.962814,0.0 120.802157,23.962629,0.0 120.801837,23.962427,0.0 120.801564,23.962267,0.0 120.801187,23.962045,0.0 120.80082,23.961877,0.0 120.800452,23.961748,0.0 120.800281,23.961665,0.0 120.800042,23.961558,0.0 120.799796,23.961456,0.0 120.79955,23.961352,0.0 120.799254,23.961162,0.0 120.798947,23.960918,0.0 120.798543,23.960633,0.0 120.798133,23.960368,0.0 120.797749,23.960212,0.0 120.797447,23.960155,0.0 120.7971,23.960107,0.0 120.796561,23.960091,0.0 120.796291,23.960068,0.0 120.795971,23.960011,0.0 120.795644,23.959936,0.0 120.795396,23.959875,0.0 120.795236,23.959832,0.0 120.795019,23.9598,0.0 120.794752,23.959775,0.0 120.794534,23.959779,0.0 120.794306,23.959846,0.0 120.794147,23.959968,0.0 120.794036,23.960151,0.0 120.793872,23.960394,0.0 120.793744,23.960561,0.0 120.793586,23.960717,0.0 120.793417,23.960829,0.0 120.793214,23.96084,0.0 120.793036,23.960727,0.0 120.792787,23.960503,0.0 120.792468,23.960234,0.0 120.792169,23.960004,0.0 120.793423,23.957813,0.0 120.793117,23.952695,0.0 120.790371,23.948599,0.0 120.789204,23.945266,0.0 120.793895,23.943656,0.0 120.800914,23.935985,0.0 120.80267,23.928838,0.0 120.807079,23.926173,0.0 120.813319,23.925669,0.0 120.821071,23.933184,0.0 120.82466,23.93461,0.0 120.828454,23.93784,0.0 120.828648,23.938305,0.0 120.828558,23.938694,0.0 120.82837,23.939328,0.0 120.828276,23.939772,0.0 120.828289,23.940052,0.0 120.828607,23.940479,0.0 120.829047,23.940848,0.0 120.829314,23.941205,0.0 120.829497,23.941598,0.0 120.829602,23.941986,0.0 120.829631,23.942354,0.0 120.829635,23.942679,0.0 120.829554,23.942966,0.0 120.829337,23.943318,0.0 120.829239,23.943658,0.0 120.829285,23.944103,0.0 120.829302,23.944658,0.0 120.829182,23.945119,0.0 120.82911,23.945484,0.0 120.829093,23.946026,0.0 120.829305,23.94674,0.0 120.829414,23.947392,0.0 120.829069,23.948029,0.0 120.828696,23.948346,0.0 120.827774,23.948456,0.0 120.827488,23.948684,0.0 120.827233,23.949085,0.0 120.827135,23.949376,0.0 120.827129,23.949683,0.0 120.827258,23.949957,0.0 120.827477,23.950259,0.0 120.827555,23.950584,0.0 120.827506,23.950876,0.0 120.82739,23.951316,0.0 120.827321,23.951647,0.0 120.827249,23.951966,0.0 120.827229,23.952236,0.0 120.82744,23.952413,0.0 120.827671,23.95258,0.0 120.827784,23.952822,0.0 120.827786,23.95309,0.0 120.82767,23.953483,0.0 120.827655,23.95377,0.0 120.827758,23.953969,0.0 120.828057,23.954102,0.0 120.828405,23.9541,0.0 120.828658,23.954024,0.0 120.828902,23.953841,0.0 120.82922,23.953566,0.0 120.829542,23.953404,0.0 120.829776,23.953406,0.0 120.82995,23.953497,0.0 120.8301,23.953657,0.0 120.8302,23.95387,0.0 120.830283,23.9541,0.0 120.830413,23.954362,0.0 120.830531,23.95457,0.0 120.830732,23.954798,0.0 120.830999,23.955083,0.0 120.831227,23.955302,0.0 120.831546,23.955654,0.0 120.831813,23.955842,0.0 120.832044,23.955867,0.0 120.832286,23.955958,0.0 120.832487,23.955944,0.0 120.832691,23.955818,0.0 120.832985,23.955722,0.0 120.833196,23.955681,0.0 120.833611,23.955643,0.0 120.833916,23.955664,0.0 120.83416,23.955716,0.0 120.834567,23.955861,0.0 120.834999,23.956015,0.0 120.835371,23.956178,0.0 120.835799,23.9564,0.0 120.835978,23.95663,0.0 120.836255,23.956809,0.0 120.836488,23.95701,0.0 120.836583,23.957215,0.0 120.836564,23.957502,0.0 120.836593,23.957759,0.0 120.836715,23.95799,0.0 120.836873,23.958234,0.0 120.836837,23.958502,0.0 120.836785,23.958784,0.0 120.836673,23.959107,0.0 120.836553,23.959342,0.0 120.836311,23.959621,0.0 120.836242,23.959845,0.0 120.836109,23.960222,0.0 120.836027,23.960472,0.0 120.835977,23.960939,0.0 120.83599,23.961386,0.0 120.836039,23.961768,0.0 120.836055,23.962118,0.0 120.836079,23.962346,0.0 120.836141,23.962655,0.0 120.836083,23.962958,0.0 120.835912,23.96324,0.0 120.8357,23.963551,0.0 120.835508,23.963921,0.0 120.835391,23.964264,0.0 120.835439,23.964548,0.0 120.835513,23.964758,0.0 120.835616,23.965002,0.0 120.835733,23.965219,0.0 120.835909,23.965398,0.0 120.83611,23.965635,0.0 120.836243,23.965849,0.0 120.8364,23.966087,0.0 120.83648,23.966276,0.0 120.836577,23.966563,0.0 120.836667,23.966805,0.0 120.83674,23.96704,0.0 120.836769,23.96727,0.0 120.83675,23.96752,0.0 120.836649,23.967778,0.0 120.836453,23.968078,0.0 120.836196,23.968394,0.0 120.835984,23.968662,0.0 120.835755,23.968924,0.0 120.83561,23.96907,0.0 120.835381,23.969255,0.0 120.835232,23.969429,0.0 120.835063,23.969672,0.0 120.834826,23.969932,0.0 120.834739,23.970139,0.0 120.834744,23.970424,0.0 120.834763,23.970478,0.0</coordinates></LinearRing></outerBoundaryIs></Polygon><styleUrl>#spolygon-map</styleUrl></Placemark><Placemark><Polygon><outerBoundaryIs><LinearRing><coordinates>120.758596,23.935171,0.0 120.759631,23.925725,0.0 120.75649,23.920801,0.0 120.755414,23.91644,0.0 120.759816,23.915942,0.0 120.767608,23.917832,0.0 120.776752,23.920164,0.0 120.775917,23.930373,0.0 120.776086,23.938897,0.0 120.772182,23.940819,0.0 120.763172,23.937756,0.0 120.760131,23.93518,0.0 120.758596,23.935171,0.0</coordinates></LinearRing></outerBoundaryIs></Polygon><styleUrl>#spolygon-map</styleUrl></Placemark><Placemark><Polygon><outerBoundaryIs><LinearRing><coordinates>120.80054,23.922528,0.0 120.794703,23.924245,0.0 120.786711,23.919948,0.0 120.776638,23.909608,0.0 120.773191,23.900729,0.0 120.773675,23.897858,0.0 120.769904,23.897774,0.0 120.763658,23.896782,0.0 120.761779,23.892768,0.0 120.764055,23.886412,0.0 120.765982,23.883711,0.0 120.768569,23.886313,0.0 120.780357,23.89115,0.0 120.784575,23.894531,0.0 120.792872,23.897355,0.0 120.793317,23.901538,0.0 120.796126,23.916938,0.0 120.796777,23.919932,0.0 120.80054,23.922528,0.0</coordinates></LinearRing></outerBoundaryIs></Polygon><styleUrl>#spolygon-map</styleUrl></Placemark><Placemark><Polygon><outerBoundaryIs><LinearRing><coordinates>120.736973,23.907168,0.0 120.729734,23.908379,0.0 120.724926,23.905551,0.0 120.721921,23.905984,0.0 120.717168,23.90723,0.0 120.716714,23.907013,0.0 120.716115,23.906887,0.0 120.715672,23.906171,0.0 120.715006,23.906088,0.0 120.714615,23.905221,0.0 120.714157,23.904507,0.0 120.714323,23.903985,0.0 120.714067,23.903217,0.0 120.713525,23.902011,0.0 120.713005,23.901186,0.0 120.712512,23.900567,0.0 120.71216,23.899611,0.0 120.711814,23.899288,0.0 120.709765,23.898534,0.0 120.709021,23.89816,0.0 120.708083,23.897648,0.0 120.707603,23.897142,0.0 120.707082,23.895906,0.0 120.707215,23.895586,0.0 120.708142,23.895059,0.0 120.709427,23.894493,0.0 120.711731,23.893971,0.0 120.71302,23.893816,0.0 120.713993,23.893924,0.0 120.716186,23.893934,0.0 120.718775,23.893183,0.0 120.720559,23.892125,0.0 120.721675,23.891188,0.0 120.722416,23.890914,0.0 120.723893,23.890592,0.0 120.724366,23.890094,0.0 120.724363,23.88922,0.0 120.724316,23.888385,0.0 120.724592,23.887218,0.0 120.724607,23.886394,0.0 120.724551,23.885669,0.0 120.726109,23.888636,0.0 120.729412,23.892816,0.0 120.730442,23.898326,0.0 120.73449,23.902301,0.0 120.736973,23.907168,0.0</coordinates></LinearRing></outerBoundaryIs></Polygon><styleUrl>#spolygon-map</styleUrl></Placemark><Placemark><Polygon><outerBoundaryIs><LinearRing><coordinates>120.793329,23.904651,0.0 120.793689,23.897846,0.0 120.795575,23.891076,0.0 120.792202,23.882241,0.0 120.79403,23.879432,0.0 120.801877,23.875677,0.0 120.807524,23.873605,0.0 120.818708,23.871888,0.0 120.82277,23.869755,0.0 120.824685,23.866348,0.0 120.827891,23.864785,0.0 120.83005,23.862494,0.0 120.83235,23.860076,0.0 120.83172,23.856076,0.0 120.832118,23.856047,0.0 120.832834,23.856185,0.0 120.833141,23.856226,0.0 120.833537,23.856348,0.0 120.833869,23.856477,0.0 120.834042,23.856475,0.0 120.834298,23.856482,0.0 120.834744,23.856467,0.0 120.835149,23.856434,0.0 120.835525,23.856364,0.0 120.836026,23.856272,0.0 120.836471,23.855997,0.0 120.837033,23.855795,0.0 120.837406,23.85565,0.0 120.837715,23.855283,0.0 120.837919,23.854893,0.0 120.838184,23.854823,0.0 120.838352,23.854898,0.0 120.838468,23.85502,0.0 120.838544,23.855178,0.0 120.838747,23.85537,0.0 120.839029,23.855555,0.0 120.839317,23.855639,0.0 120.839825,23.855827,0.0 120.840289,23.856031,0.0 120.840583,23.856229,0.0 120.840771,23.856214,0.0 120.841112,23.856045,0.0 120.8414,23.855851,0.0 120.841693,23.855619,0.0 120.842009,23.855389,0.0 120.842261,23.855556,0.0 120.84257,23.855789,0.0 120.84287,23.855947,0.0 120.843118,23.856117,0.0 120.843271,23.856286,0.0 120.843347,23.856487,0.0 120.843459,23.856767,0.0 120.843596,23.857138,0.0 120.843648,23.857355,0.0 120.84382,23.857558,0.0 120.84406,23.85768,0.0 120.844336,23.857759,0.0 120.844592,23.857821,0.0 120.84486,23.857841,0.0 120.845149,23.857817,0.0 120.845499,23.857749,0.0 120.845831,23.8577,0.0 120.846232,23.857662,0.0 120.846652,23.857674,0.0 120.846912,23.85776,0.0 120.847088,23.858071,0.0 120.847117,23.858281,0.0 120.847153,23.858512,0.0 120.847357,23.858598,0.0 120.847629,23.858758,0.0 120.847901,23.859032,0.0 120.847989,23.859242,0.0 120.848025,23.859494,0.0 120.848036,23.859741,0.0 120.84806,23.860165,0.0 120.848031,23.860515,0.0 120.847923,23.860844,0.0 120.847866,23.861251,0.0 120.847813,23.861639,0.0 120.847737,23.86221,0.0 120.847704,23.862636,0.0 120.847733,23.862962,0.0 120.84792,23.863194,0.0 120.848128,23.863486,0.0 120.848284,23.863736,0.0 120.84828,23.864048,0.0 120.848264,23.864346,0.0 120.848323,23.864648,0.0 120.848435,23.864883,0.0 120.848587,23.865046,0.0 120.848655,23.865195,0.0 120.848671,23.865376,0.0 120.848539,23.865531,0.0 120.848478,23.865845,0.0 120.848526,23.866254,0.0 120.84863,23.866464,0.0 120.848822,23.866814,0.0 120.849061,23.867182,0.0 120.849121,23.867397,0.0 120.849097,23.867778,0.0 120.849177,23.868105,0.0 120.849036,23.868356,0.0 120.848856,23.868694,0.0 120.848875,23.869035,0.0 120.848862,23.869392,0.0 120.848766,23.869676,0.0 120.84867,23.870076,0.0 120.848513,23.870308,0.0 120.84822,23.8705,0.0 120.847979,23.870714,0.0 120.847731,23.871041,0.0 120.847438,23.871354,0.0 120.847353,23.871616,0.0 120.847164,23.87214,0.0 120.847103,23.872905,0.0 120.847143,23.873359,0.0 120.847151,23.873736,0.0 120.847471,23.874,0.0 120.847768,23.874497,0.0 120.848025,23.874899,0.0 120.848184,23.875498,0.0 120.848146,23.875981,0.0 120.847814,23.87622,0.0 120.847707,23.876547,0.0 120.84764,23.876917,0.0 120.84769,23.877287,0.0 120.847879,23.877798,0.0 120.848021,23.878091,0.0 120.848054,23.878369,0.0 120.847831,23.87856,0.0 120.847428,23.878829,0.0 120.847183,23.879088,0.0 120.84704,23.87939,0.0 120.846943,23.879756,0.0 120.847009,23.88,0.0 120.847522,23.880165,0.0 120.847858,23.880344,0.0 120.848236,23.880509,0.0 120.848637,23.880564,0.0 120.848851,23.880708,0.0 120.848994,23.880959,0.0 120.849216,23.881183,0.0 120.849508,23.881409,0.0 120.849856,23.881707,0.0 120.85034,23.882044,0.0 120.850789,23.882315,0.0 120.851243,23.882663,0.0 120.851509,23.882896,0.0 120.851992,23.882955,0.0 120.852446,23.882863,0.0 120.852871,23.882685,0.0 120.853311,23.882625,0.0 120.85362,23.882817,0.0 120.853636,23.883067,0.0 120.853535,23.883252,0.0 120.85345,23.883559,0.0 120.853332,23.883878,0.0 120.853182,23.884243,0.0 120.85311,23.884518,0.0 120.852975,23.885017,0.0 120.85289,23.885304,0.0 120.852825,23.885602,0.0 120.852903,23.885992,0.0 120.852974,23.886266,0.0 120.853035,23.886629,0.0 120.853133,23.886925,0.0 120.853136,23.8872,0.0 120.853168,23.887501,0.0 120.853363,23.88783,0.0 120.853552,23.88816,0.0 120.85383,23.888519,0.0 120.854087,23.888781,0.0 120.854347,23.889037,0.0 120.854559,23.889423,0.0 120.854784,23.889809,0.0 120.85495,23.890139,0.0 120.854728,23.890292,0.0 120.854285,23.890423,0.0 120.853959,23.890687,0.0 120.853819,23.890923,0.0 120.853564,23.891205,0.0 120.853343,23.891483,0.0 120.853356,23.891672,0.0 120.85336,23.891925,0.0 120.853282,23.892169,0.0 120.853138,23.892462,0.0 120.853004,23.892629,0.0 120.852604,23.89271,0.0 120.852351,23.89276,0.0 120.852128,23.892996,0.0 120.851987,23.893328,0.0 120.851616,23.893727,0.0 120.851482,23.894034,0.0 120.851399,23.894447,0.0 120.851398,23.894738,0.0 120.851468,23.894994,0.0 120.851568,23.895339,0.0 120.851731,23.895678,0.0 120.851927,23.896035,0.0 120.85214,23.896371,0.0 120.852172,23.896579,0.0 120.852086,23.896829,0.0 120.851898,23.897123,0.0 120.85159,23.897229,0.0 120.851027,23.897388,0.0 120.850726,23.897471,0.0 120.850504,23.897449,0.0 120.850065,23.897326,0.0 120.849793,23.897782,0.0 120.849688,23.898173,0.0 120.849644,23.898434,0.0 120.849684,23.898811,0.0 120.849879,23.899071,0.0 120.850029,23.899254,0.0 120.849989,23.899507,0.0 120.84985,23.899751,0.0 120.849655,23.900066,0.0 120.849525,23.900421,0.0 120.84939,23.900764,0.0 120.849305,23.901091,0.0 120.849256,23.901321,0.0 120.849215,23.901551,0.0 120.849202,23.901834,0.0 120.849181,23.902086,0.0 120.849164,23.902389,0.0 120.849176,23.902734,0.0 120.849172,23.902996,0.0 120.849098,23.903287,0.0 120.848915,23.903614,0.0 120.848647,23.90382,0.0 120.848272,23.903995,0.0 120.847926,23.904135,0.0 120.847589,23.904266,0.0 120.847317,23.904484,0.0 120.847028,23.904746,0.0 120.846793,23.904919,0.0 120.846527,23.904962,0.0 120.846223,23.904932,0.0 120.845922,23.904973,0.0 120.845565,23.90504,0.0 120.845167,23.905092,0.0 120.844862,23.90508,0.0 120.844537,23.905091,0.0 120.84434,23.905181,0.0 120.844283,23.905404,0.0 120.844242,23.905714,0.0 120.8441,23.905948,0.0 120.844047,23.906206,0.0 120.844176,23.906486,0.0 120.844322,23.90666,0.0 120.844594,23.906904,0.0 120.844805,23.907139,0.0 120.844951,23.907335,0.0 120.844621,23.907351,0.0 120.838559,23.90476,0.0 120.830792,23.901706,0.0 120.828317,23.899353,0.0 120.823494,23.898845,0.0 120.820237,23.896827,0.0 120.814316,23.897491,0.0 120.807408,23.896067,0.0 120.801878,23.897188,0.0 120.797697,23.902456,0.0 120.793329,23.904651,0.0</coordinates></LinearRing></outerBoundaryIs></Polygon><styleUrl>#spolygon-map</styleUrl></Placemark><Placemark><Polygon><outerBoundaryIs><LinearRing><coordinates>120.793154,23.924715,0.0 120.787313,23.926091,0.0 120.782635,23.920777,0.0 120.778595,23.920557,0.0 120.773457,23.918759,0.0 120.763237,23.917292,0.0 120.755409,23.912996,0.0 120.749634,23.90879,0.0 120.744178,23.902128,0.0 120.741136,23.896931,0.0 120.743514,23.89307,0.0 120.74476,23.89105,0.0 120.746708,23.890482,0.0 120.749471,23.892121,0.0 120.750712,23.892719,0.0 120.7532,23.891064,0.0 120.755939,23.890158,0.0 120.758398,23.88876,0.0 120.761436,23.892133,0.0 120.763264,23.896341,0.0 120.768243,23.897875,0.0 120.772915,23.897546,0.0 120.773474,23.899668,0.0 120.775095,23.906527,0.0 120.783928,23.917499,0.0 120.793154,23.924715,0.0</coordinates></LinearRing></outerBoundaryIs></Polygon><styleUrl>#spolygon-map</styleUrl></Placemark><Placemark><Polygon><outerBoundaryIs><LinearRing><coordinates>120.823328,23.868189,0.0 120.820177,23.866668,0.0 120.815315,23.867804,0.0 120.813135,23.866897,0.0 120.811592,23.86505,0.0 120.809681,23.863619,0.0 120.806397,23.863972,0.0 120.794129,23.867897,0.0 120.787519,23.871385,0.0 120.785198,23.872867,0.0 120.779621,23.875281,0.0 120.775474,23.878129,0.0 120.77584,23.8761,0.0 120.776011,23.871712,0.0 120.775021,23.868638,0.0 120.775601,23.867045,0.0 120.776023,23.86505,0.0 120.775114,23.862706,0.0 120.776925,23.859787,0.0 120.78003,23.855848,0.0 120.779557,23.851122,0.0 120.779685,23.851222,0.0 120.780041,23.851125,0.0 120.780336,23.850986,0.0 120.780651,23.850889,0.0 120.781667,23.850852,0.0 120.782181,23.850832,0.0 120.782666,23.850942,0.0 120.783012,23.851051,0.0 120.783267,23.851108,0.0 120.783517,23.851198,0.0 120.783789,23.851343,0.0 120.784156,23.851468,0.0 120.784475,23.851688,0.0 120.784598,23.852143,0.0 120.784681,23.852432,0.0 120.785076,23.852496,0.0 120.785682,23.852727,0.0 120.786149,23.85275,0.0 120.786568,23.852724,0.0 120.786908,23.852322,0.0 120.787473,23.85179,0.0 120.787731,23.851475,0.0 120.788184,23.851363,0.0 120.788781,23.851113,0.0 120.789203,23.850743,0.0 120.789632,23.850495,0.0 120.7901,23.850435,0.0 120.790472,23.850214,0.0 120.790882,23.85014,0.0 120.791392,23.850159,0.0 120.792068,23.850174,0.0 120.792635,23.850387,0.0 120.793149,23.85071,0.0 120.79363,23.8509,0.0 120.794002,23.851237,0.0 120.794292,23.851581,0.0 120.794641,23.85189,0.0 120.794941,23.852198,0.0 120.795122,23.852455,0.0 120.795227,23.852451,0.0 120.795523,23.852316,0.0 120.79589,23.852199,0.0 120.796214,23.852125,0.0 120.796517,23.851988,0.0 120.796866,23.851774,0.0 120.797271,23.851537,0.0 120.797624,23.851398,0.0 120.797906,23.851358,0.0 120.798229,23.851318,0.0 120.798564,23.851214,0.0 120.79902,23.851178,0.0 120.799387,23.851145,0.0 120.799697,23.851145,0.0 120.800173,23.851198,0.0 120.800445,23.85111,0.0 120.800851,23.851032,0.0 120.801223,23.850985,0.0 120.801666,23.851008,0.0 120.802171,23.851052,0.0 120.802579,23.851029,0.0 120.803223,23.851263,0.0 120.803618,23.851171,0.0 120.8038,23.851008,0.0 120.804019,23.850887,0.0 120.804487,23.850887,0.0 120.805172,23.850879,0.0 120.805501,23.850704,0.0 120.806035,23.850722,0.0 120.806487,23.85089,0.0 120.80663,23.851073,0.0 120.806892,23.851073,0.0 120.80726,23.850965,0.0 120.807665,23.851049,0.0 120.808141,23.851264,0.0 120.80852,23.851576,0.0 120.808955,23.851597,0.0 120.809313,23.851277,0.0 120.809536,23.851,0.0 120.809989,23.850879,0.0 120.810582,23.850721,0.0 120.811131,23.850356,0.0 120.811582,23.850221,0.0 120.811939,23.850409,0.0 120.812478,23.850823,0.0 120.813118,23.85109,0.0 120.813575,23.851454,0.0 120.813734,23.851766,0.0 120.814033,23.852181,0.0 120.814227,23.852502,0.0 120.814711,23.852898,0.0 120.815191,23.853169,0.0 120.81579,23.853385,0.0 120.816252,23.853505,0.0 120.81675,23.853593,0.0 120.817325,23.853599,0.0 120.817821,23.853863,0.0 120.818183,23.854263,0.0 120.818535,23.854758,0.0 120.818838,23.854966,0.0 120.819348,23.854964,0.0 120.819869,23.854825,0.0 120.820318,23.854733,0.0 120.820522,23.85455,0.0 120.821002,23.854368,0.0 120.821455,23.854364,0.0 120.821797,23.854222,0.0 120.822106,23.853893,0.0 120.82245,23.853535,0.0 120.822849,23.853452,0.0 120.823286,23.853389,0.0 120.823707,23.853342,0.0 120.824115,23.853223,0.0 120.824563,23.85309,0.0 120.824903,23.853066,0.0 120.82541,23.85324,0.0 120.825838,23.853459,0.0 120.826141,23.853758,0.0 120.826349,23.854079,0.0 120.826594,23.854555,0.0 120.826761,23.854905,0.0 120.82701,23.855131,0.0 120.827354,23.855328,0.0 120.827811,23.855577,0.0 120.828273,23.855749,0.0 120.828642,23.855901,0.0 120.829095,23.856088,0.0 120.8295,23.856236,0.0 120.829867,23.856365,0.0 120.830202,23.856478,0.0 120.830659,23.856449,0.0 120.831076,23.856278,0.0 120.831493,23.85612,0.0 120.832251,23.860397,0.0 120.829434,23.863428,0.0 120.827469,23.864999,0.0 120.823328,23.868189,0.0</coordinates></LinearRing></outerBoundaryIs></Polygon><styleUrl>#spolygon-map</styleUrl></Placemark><Placemark><Polygon><outerBoundaryIs><LinearRing><coordinates>120.760028,23.964223,0.0 120.759826,23.964191,0.0 120.759625,23.964247,0.0 120.759465,23.964125,0.0 120.760705,23.958624,0.0 120.76425,23.952239,0.0 120.766504,23.946729,0.0 120.770562,23.941424,0.0 120.775643,23.939707,0.0 120.775803,23.931928,0.0 120.779946,23.920913,0.0 120.783547,23.921758,0.0 120.788655,23.926397,0.0 120.786634,23.936621,0.0 120.77662,23.947442,0.0 120.772345,23.951535,0.0 120.774906,23.956665,0.0 120.77527,23.957273,0.0 120.775232,23.957537,0.0 120.775097,23.957711,0.0 120.774872,23.957887,0.0 120.774602,23.958105,0.0 120.774415,23.958292,0.0 120.774281,23.958479,0.0 120.774138,23.958703,0.0 120.774022,23.958876,0.0 120.773867,23.959025,0.0 120.773705,23.959174,0.0 120.773497,23.959375,0.0 120.773293,23.959568,0.0 120.773139,23.959844,0.0 120.773059,23.960121,0.0 120.772987,23.960502,0.0 120.77292,23.960701,0.0 120.772772,23.960893,0.0 120.77254,23.961066,0.0 120.772326,23.961188,0.0 120.772114,23.961309,0.0 120.771936,23.96144,0.0 120.77171,23.961616,0.0 120.771429,23.961785,0.0 120.771195,23.961881,0.0 120.771018,23.961922,0.0 120.770803,23.961976,0.0 120.770539,23.962054,0.0 120.770342,23.962149,0.0 120.770112,23.962297,0.0 120.769999,23.962453,0.0 120.769968,23.96271,0.0 120.770025,23.9629,0.0 120.770124,23.963117,0.0 120.770225,23.96337,0.0 120.770311,23.963632,0.0 120.770364,23.963937,0.0 120.770384,23.964174,0.0 120.770391,23.964316,0.0 120.770348,23.964476,0.0 120.770276,23.964589,0.0 120.770119,23.964654,0.0 120.769946,23.964692,0.0 120.769724,23.964737,0.0 120.769458,23.964831,0.0 120.769276,23.964908,0.0 120.769097,23.965016,0.0 120.768895,23.965126,0.0 120.768614,23.965236,0.0 120.768385,23.96532,0.0 120.768171,23.965396,0.0 120.767939,23.965472,0.0 120.767722,23.96554,0.0 120.7675,23.965567,0.0 120.767204,23.9656,0.0 120.767,23.965658,0.0 120.766928,23.965785,0.0 120.766938,23.966001,0.0 120.767004,23.966157,0.0 120.767085,23.966394,0.0 120.767187,23.966627,0.0 120.767305,23.967013,0.0 120.76729,23.967298,0.0 120.767175,23.967501,0.0 120.767019,23.967688,0.0 120.766807,23.967785,0.0 120.766594,23.967777,0.0 120.766194,23.967723,0.0 120.765927,23.967675,0.0 120.765705,23.967652,0.0 120.765408,23.967652,0.0 120.765074,23.967694,0.0 120.764839,23.967754,0.0 120.76458,23.967856,0.0 120.764344,23.967882,0.0 120.764057,23.96788,0.0 120.763773,23.967827,0.0 120.763512,23.967642,0.0 120.763352,23.967493,0.0 120.763174,23.967291,0.0 120.763017,23.967081,0.0 120.762887,23.966928,0.0 120.762745,23.966767,0.0 120.762558,23.96655,0.0 120.762403,23.966356,0.0 120.762296,23.966204,0.0 120.76217,23.966037,0.0 120.762007,23.965831,0.0 120.761873,23.965651,0.0 120.761744,23.965483,0.0 120.761652,23.965354,0.0 120.76147,23.965176,0.0 120.761318,23.965029,0.0 120.761177,23.964905,0.0 120.760977,23.964735,0.0 120.760846,23.964629,0.0 120.760758,23.96454,0.0 120.76059,23.96443,0.0 120.760396,23.964305,0.0 120.760213,23.964253,0.0 120.760053,23.964226,0.0 120.760028,23.964223,0.0</coordinates></LinearRing></outerBoundaryIs></Polygon><styleUrl>#spolygon-map</styleUrl></Placemark><Placemark><Polygon><outerBoundaryIs><LinearRing><coordinates>120.759466,23.964297,0.0 120.759264,23.964351,0.0 120.759053,23.964414,0.0 120.758825,23.964463,0.0 120.758646,23.964451,0.0 120.758501,23.964377,0.0 120.758427,23.964203,0.0 120.758356,23.964045,0.0 120.758284,23.963853,0.0 120.758197,23.963679,0.0 120.757988,23.963344,0.0 120.757648,23.962795,0.0 120.757093,23.962189,0.0 120.756393,23.962346,0.0 120.755961,23.962479,0.0 120.755712,23.962864,0.0 120.755199,23.962213,0.0 120.754855,23.961294,0.0 120.754541,23.961271,0.0 120.753982,23.961685,0.0 120.753776,23.96143,0.0 120.753012,23.961142,0.0 120.752623,23.960814,0.0 120.752333,23.96071,0.0 120.751705,23.961,0.0 120.751444,23.960851,0.0 120.751213,23.960446,0.0 120.750903,23.960538,0.0 120.750628,23.959973,0.0 120.750629,23.959556,0.0 120.750819,23.95908,0.0 120.75091,23.958522,0.0 120.750901,23.957972,0.0 120.751033,23.957489,0.0 120.750555,23.957301,0.0 120.749856,23.957299,0.0 120.749701,23.957031,0.0 120.749867,23.956597,0.0 120.749682,23.95636,0.0 120.748878,23.956442,0.0 120.748889,23.956025,0.0 120.749235,23.954736,0.0 120.749216,23.954237,0.0 120.750286,23.952681,0.0 120.753835,23.944899,0.0 120.75496,23.941786,0.0 120.756798,23.937026,0.0 120.75961,23.934626,0.0 120.762777,23.937405,0.0 120.768687,23.942453,0.0 120.764731,23.950546,0.0 120.763217,23.953691,0.0 120.759448,23.961599,0.0 120.759466,23.964297,0.0</coordinates></LinearRing></outerBoundaryIs></Polygon><styleUrl>#spolygon-map</styleUrl></Placemark></Document>
</kml>
