<?xml version="1.0" encoding="UTF-8"?>
<kml xmlns="http://www.opengis.net/kml/2.2">
	<Document>
		<name>嘉義縣竹崎鄉</name>
		<Style id="spolygon">
			<LabelStyle>
				<scale>0.0</scale>
			</LabelStyle>
			<LineStyle>
				<color>330030ff</color>
				<width>0</width>
			</LineStyle>
			<PolyStyle>
				<color>330030ff</color>
			</PolyStyle>
		</Style>
		<StyleMap id="spolygon-map">
			<Pair>
				<key>normal</key>
				<styleUrl>#spolygon</styleUrl>
			</Pair>
		</StyleMap>
	<Placemark><Polygon><outerBoundaryIs><LinearRing><coordinates>120.692297,23.51158,0.0 120.691852,23.511706,0.0 120.691463,23.511247,0.0 120.690963,23.510619,0.0 120.690108,23.509716,0.0 120.689277,23.508879,0.0 120.688644,23.508415,0.0 120.687511,23.508154,0.0 120.686141,23.507866,0.0 120.685487,23.507763,0.0 120.686102,23.505825,0.0 120.68427,23.493875,0.0 120.68805,23.484211,0.0 120.686574,23.475962,0.0 120.686105,23.467463,0.0 120.687733,23.460543,0.0 120.68847,23.460165,0.0 120.688903,23.4608,0.0 120.689237,23.461462,0.0 120.689576,23.462246,0.0 120.689738,23.462775,0.0 120.689771,23.463452,0.0 120.689717,23.464364,0.0 120.689611,23.465046,0.0 120.68958,23.465558,0.0 120.68966,23.466263,0.0 120.69004,23.466918,0.0 120.690542,23.467377,0.0 120.690871,23.4678,0.0 120.691192,23.468279,0.0 120.691533,23.468461,0.0 120.692441,23.468731,0.0 120.693841,23.46884,0.0 120.694419,23.468959,0.0 120.694951,23.469226,0.0 120.695245,23.469701,0.0 120.695478,23.47053,0.0 120.695842,23.471038,0.0 120.696275,23.471385,0.0 120.696709,23.471487,0.0 120.69727,23.471522,0.0 120.697698,23.47157,0.0 120.698016,23.471544,0.0 120.698624,23.471423,0.0 120.699312,23.47144,0.0 120.700041,23.471387,0.0 120.700822,23.471371,0.0 120.701667,23.471478,0.0 120.702551,23.471832,0.0 120.703158,23.472181,0.0 120.703896,23.472993,0.0 120.704196,23.473605,0.0 120.704399,23.474075,0.0 120.704722,23.474546,0.0 120.705091,23.47509,0.0 120.705547,23.475619,0.0 120.705806,23.476117,0.0 120.706025,23.476736,0.0 120.70603,23.47737,0.0 120.706035,23.47786,0.0 120.706068,23.478573,0.0 120.706153,23.479508,0.0 120.706255,23.480206,0.0 120.706225,23.480836,0.0 120.706084,23.481474,0.0 120.705881,23.482025,0.0 120.705862,23.4826,0.0 120.706179,23.48335,0.0 120.706438,23.483954,0.0 120.706692,23.484509,0.0 120.706893,23.484916,0.0 120.707396,23.485924,0.0 120.707729,23.486884,0.0 120.707947,23.487663,0.0 120.708107,23.487892,0.0 120.708602,23.488617,0.0 120.708959,23.489343,0.0 120.709377,23.490585,0.0 120.709997,23.492187,0.0 120.710605,23.493655,0.0 120.711327,23.494878,0.0 120.712171,23.495959,0.0 120.712959,23.496353,0.0 120.714427,23.496805,0.0 120.715198,23.497404,0.0 120.716124,23.498505,0.0 120.715621,23.498441,0.0 120.71539,23.498886,0.0 120.715107,23.49942,0.0 120.714563,23.500051,0.0 120.713892,23.500325,0.0 120.713255,23.500473,0.0 120.712643,23.500802,0.0 120.71201,23.501566,0.0 120.711694,23.502001,0.0 120.71137,23.502371,0.0 120.710978,23.502821,0.0 120.71062,23.50297,0.0 120.710146,23.50287,0.0 120.709471,23.502891,0.0 120.708954,23.503262,0.0 120.708806,23.503689,0.0 120.708702,23.504176,0.0 120.708603,23.504781,0.0 120.708601,23.505646,0.0 120.708648,23.506307,0.0 120.708829,23.506924,0.0 120.708984,23.507511,0.0 120.709056,23.507974,0.0 120.70907,23.508651,0.0 120.709004,23.509358,0.0 120.708861,23.509981,0.0 120.708743,23.510276,0.0 120.708327,23.51019,0.0 120.707983,23.510128,0.0 120.707017,23.509898,0.0 120.706317,23.509818,0.0 120.705483,23.509884,0.0 120.704306,23.509909,0.0 120.703116,23.50997,0.0 120.70122,23.510016,0.0 120.700013,23.509763,0.0 120.69921,23.509951,0.0 120.698598,23.51074,0.0 120.697933,23.511289,0.0 120.696938,23.511166,0.0 120.695966,23.51094,0.0 120.695224,23.510688,0.0 120.694246,23.510759,0.0 120.693321,23.510987,0.0 120.692469,23.511441,0.0 120.692297,23.51158,0.0</coordinates></LinearRing></outerBoundaryIs></Polygon><styleUrl>#spolygon-map</styleUrl></Placemark><Placemark><Polygon><outerBoundaryIs><LinearRing><coordinates>120.65492,23.541771,0.0 120.654617,23.541732,0.0 120.65344,23.540312,0.0 120.652731,23.539421,0.0 120.651448,23.537833,0.0 120.650533,23.537423,0.0 120.648923,23.536177,0.0 120.64797,23.536223,0.0 120.646605,23.535612,0.0 120.644812,23.534389,0.0 120.643994,23.534033,0.0 120.643468,23.533934,0.0 120.642046,23.53276,0.0 120.640677,23.531978,0.0 120.639341,23.531482,0.0 120.637915,23.530885,0.0 120.635814,23.53053,0.0 120.634682,23.530532,0.0 120.633957,23.531118,0.0 120.633472,23.531782,0.0 120.633012,23.532048,0.0 120.632904,23.53237,0.0 120.632911,23.532842,0.0 120.632813,23.533289,0.0 120.632574,23.533507,0.0 120.632307,23.533644,0.0 120.632012,23.533829,0.0 120.631746,23.533979,0.0 120.631498,23.534168,0.0 120.631187,23.534308,0.0 120.630953,23.534382,0.0 120.63059,23.534532,0.0 120.63018,23.534646,0.0 120.629949,23.534754,0.0 120.629627,23.534909,0.0 120.629366,23.53506,0.0 120.629025,23.535228,0.0 120.628711,23.535392,0.0 120.628422,23.535586,0.0 120.628394,23.535852,0.0 120.628376,23.536132,0.0 120.628123,23.536506,0.0 120.627765,23.536722,0.0 120.627459,23.536924,0.0 120.627206,23.537095,0.0 120.626859,23.53725,0.0 120.626623,23.53746,0.0 120.622652,23.535502,0.0 120.619596,23.533494,0.0 120.618916,23.532991,0.0 120.61755,23.533342,0.0 120.615825,23.533056,0.0 120.614835,23.532796,0.0 120.61329,23.531591,0.0 120.612767,23.530777,0.0 120.612333,23.529361,0.0 120.611379,23.529325,0.0 120.610279,23.528493,0.0 120.609043,23.527881,0.0 120.608006,23.527711,0.0 120.607003,23.527435,0.0 120.607004,23.526866,0.0 120.607116,23.526025,0.0 120.606943,23.524616,0.0 120.607718,23.524807,0.0 120.609506,23.524622,0.0 120.610555,23.524794,0.0 120.611718,23.524944,0.0 120.613309,23.524182,0.0 120.616781,23.522692,0.0 120.618516,23.522121,0.0 120.6222,23.522069,0.0 120.625003,23.520924,0.0 120.626728,23.519637,0.0 120.629625,23.520129,0.0 120.633377,23.521109,0.0 120.635774,23.518875,0.0 120.640505,23.51831,0.0 120.645389,23.517396,0.0 120.645109,23.515842,0.0 120.644183,23.513113,0.0 120.643671,23.509123,0.0 120.645123,23.504579,0.0 120.642276,23.500135,0.0 120.641737,23.496627,0.0 120.64045,23.494603,0.0 120.640704,23.494386,0.0 120.640917,23.494217,0.0 120.641169,23.494136,0.0 120.641656,23.493993,0.0 120.642004,23.493901,0.0 120.642202,23.493748,0.0 120.642225,23.493502,0.0 120.642341,23.493184,0.0 120.642423,23.492918,0.0 120.642543,23.492579,0.0 120.642631,23.492349,0.0 120.642789,23.492089,0.0 120.64441,23.494997,0.0 120.648478,23.497708,0.0 120.652873,23.501421,0.0 120.65565,23.505515,0.0 120.659791,23.503438,0.0 120.666419,23.502737,0.0 120.67367,23.503369,0.0 120.677878,23.502271,0.0 120.682163,23.505429,0.0 120.685487,23.507763,0.0 120.684898,23.507787,0.0 120.683804,23.508162,0.0 120.682941,23.508627,0.0 120.682306,23.509055,0.0 120.682093,23.509648,0.0 120.68173,23.510061,0.0 120.680914,23.510393,0.0 120.680212,23.510954,0.0 120.679428,23.511697,0.0 120.678738,23.512384,0.0 120.67826,23.513124,0.0 120.677763,23.513651,0.0 120.67702,23.5139,0.0 120.675933,23.514031,0.0 120.675298,23.514224,0.0 120.674628,23.51499,0.0 120.674072,23.515406,0.0 120.672863,23.515704,0.0 120.671558,23.51599,0.0 120.670871,23.516276,0.0 120.670121,23.516893,0.0 120.669624,23.517542,0.0 120.66923,23.518232,0.0 120.668762,23.518802,0.0 120.668211,23.519435,0.0 120.667497,23.51995,0.0 120.666886,23.520351,0.0 120.665834,23.520744,0.0 120.665177,23.521246,0.0 120.664656,23.521802,0.0 120.664251,23.522235,0.0 120.663634,23.52255,0.0 120.662667,23.522805,0.0 120.661549,23.523186,0.0 120.660517,23.524017,0.0 120.660043,23.525091,0.0 120.659388,23.5261,0.0 120.658853,23.527117,0.0 120.658912,23.52768,0.0 120.659206,23.528403,0.0 120.659168,23.529042,0.0 120.659154,23.529843,0.0 120.659122,23.530398,0.0 120.65891,23.530838,0.0 120.658619,23.531165,0.0 120.658108,23.531484,0.0 120.657753,23.53207,0.0 120.65712,23.532561,0.0 120.655926,23.533617,0.0 120.655108,23.534864,0.0 120.655183,23.535309,0.0 120.655502,23.536361,0.0 120.655545,23.537068,0.0 120.655241,23.538015,0.0 120.654888,23.539595,0.0 120.655052,23.540609,0.0 120.655151,23.541453,0.0 120.65492,23.541771,0.0</coordinates></LinearRing></outerBoundaryIs></Polygon><styleUrl>#spolygon-map</styleUrl></Placemark><Placemark><Polygon><outerBoundaryIs><LinearRing><coordinates>120.564599,23.491557,0.0 120.563333,23.492116,0.0 120.562456,23.4917,0.0 120.561547,23.491571,0.0 120.560365,23.491559,0.0 120.560243,23.49199,0.0 120.560455,23.49316,0.0 120.558203,23.493733,0.0 120.557359,23.493241,0.0 120.557212,23.492532,0.0 120.555709,23.491602,0.0 120.554341,23.491,0.0 120.553097,23.490339,0.0 120.552459,23.490974,0.0 120.551279,23.491605,0.0 120.55052,23.491366,0.0 120.551017,23.490593,0.0 120.550946,23.489983,0.0 120.549413,23.489667,0.0 120.549889,23.489102,0.0 120.551681,23.488225,0.0 120.552039,23.487178,0.0 120.552053,23.485918,0.0 120.55489,23.484482,0.0 120.556033,23.483923,0.0 120.556869,23.483381,0.0 120.5577,23.483137,0.0 120.558444,23.483957,0.0 120.559333,23.483361,0.0 120.558546,23.482957,0.0 120.55883,23.482179,0.0 120.55982,23.48243,0.0 120.560089,23.48172,0.0 120.559624,23.48068,0.0 120.560534,23.480163,0.0 120.561405,23.480665,0.0 120.56222,23.480667,0.0 120.563709,23.479125,0.0 120.567375,23.478397,0.0 120.571291,23.481216,0.0 120.573648,23.483182,0.0 120.574979,23.485838,0.0 120.573514,23.486568,0.0 120.572084,23.487277,0.0 120.571024,23.487204,0.0 120.570093,23.487489,0.0 120.569229,23.487974,0.0 120.56749,23.487488,0.0 120.566974,23.487945,0.0 120.567363,23.489183,0.0 120.566688,23.489705,0.0 120.565836,23.490658,0.0 120.565171,23.491082,0.0 120.564599,23.491557,0.0</coordinates></LinearRing></outerBoundaryIs></Polygon><styleUrl>#spolygon-map</styleUrl></Placemark><Placemark><Polygon><outerBoundaryIs><LinearRing><coordinates>120.593384,23.518854,0.0 120.591984,23.514888,0.0 120.592248,23.5119,0.0 120.593131,23.506035,0.0 120.596673,23.50126,0.0 120.5996,23.500336,0.0 120.603804,23.499692,0.0 120.605114,23.498618,0.0 120.612423,23.494939,0.0 120.616468,23.493461,0.0 120.618337,23.49317,0.0 120.618748,23.491132,0.0 120.619909,23.489064,0.0 120.62015,23.489359,0.0 120.620323,23.489698,0.0 120.620416,23.489987,0.0 120.620508,23.490243,0.0 120.620581,23.490518,0.0 120.620628,23.490773,0.0 120.620731,23.491243,0.0 120.620944,23.491528,0.0 120.621293,23.491687,0.0 120.621696,23.491796,0.0 120.62212,23.491892,0.0 120.622507,23.49197,0.0 120.622925,23.492005,0.0 120.623249,23.491929,0.0 120.623694,23.49184,0.0 120.624116,23.491805,0.0 120.624454,23.491819,0.0 120.624873,23.491915,0.0 120.625356,23.491963,0.0 120.625671,23.492011,0.0 120.625976,23.492057,0.0 120.626353,23.492047,0.0 120.626791,23.492053,0.0 120.627142,23.492078,0.0 120.627723,23.492197,0.0 120.628078,23.492313,0.0 120.628148,23.492593,0.0 120.628198,23.492939,0.0 120.628285,23.493481,0.0 120.628327,23.493826,0.0 120.628356,23.494097,0.0 120.628387,23.494434,0.0 120.628379,23.494788,0.0 120.628472,23.495192,0.0 120.628542,23.495547,0.0 120.628659,23.496003,0.0 120.628779,23.496437,0.0 120.628862,23.496733,0.0 120.62895,23.49723,0.0 120.629071,23.497514,0.0 120.629207,23.497817,0.0 120.629413,23.498125,0.0 120.629662,23.498204,0.0 120.629925,23.498209,0.0 120.630297,23.498104,0.0 120.630748,23.497871,0.0 120.63113,23.497646,0.0 120.631566,23.497446,0.0 120.632061,23.497363,0.0 120.632451,23.497285,0.0 120.632752,23.497101,0.0 120.632976,23.496774,0.0 120.633219,23.496398,0.0 120.633467,23.496152,0.0 120.633672,23.495886,0.0 120.633933,23.495575,0.0 120.634178,23.495242,0.0 120.634335,23.495055,0.0 120.634573,23.494841,0.0 120.634976,23.494781,0.0 120.6354,23.494802,0.0 120.635687,23.494904,0.0 120.636014,23.495027,0.0 120.636365,23.495026,0.0 120.636649,23.494952,0.0 120.637191,23.494806,0.0 120.637601,23.494862,0.0 120.638026,23.494957,0.0 120.638395,23.494983,0.0 120.638869,23.494968,0.0 120.639195,23.494892,0.0 120.639751,23.494833,0.0 120.640137,23.494743,0.0 120.640401,23.494631,0.0 120.641192,23.495231,0.0 120.641808,23.498425,0.0 120.641667,23.50158,0.0 120.640522,23.503029,0.0 120.639011,23.50403,0.0 120.637605,23.505054,0.0 120.636119,23.506297,0.0 120.632719,23.507379,0.0 120.629727,23.508072,0.0 120.628286,23.5075,0.0 120.627265,23.507152,0.0 120.626725,23.507243,0.0 120.626032,23.506932,0.0 120.625099,23.507192,0.0 120.624557,23.508629,0.0 120.624018,23.509341,0.0 120.622824,23.509168,0.0 120.622053,23.50832,0.0 120.620667,23.506926,0.0 120.620247,23.507022,0.0 120.619137,23.507518,0.0 120.618201,23.506967,0.0 120.616283,23.507766,0.0 120.614722,23.507927,0.0 120.614471,23.508459,0.0 120.613775,23.508941,0.0 120.612831,23.508661,0.0 120.611042,23.509485,0.0 120.610164,23.510203,0.0 120.608811,23.510888,0.0 120.60772,23.511648,0.0 120.606024,23.511396,0.0 120.604133,23.511673,0.0 120.60259,23.512154,0.0 120.601626,23.511951,0.0 120.600229,23.51199,0.0 120.598888,23.513089,0.0 120.598189,23.514247,0.0 120.597778,23.515831,0.0 120.596123,23.516716,0.0 120.595161,23.51793,0.0 120.593637,23.518518,0.0 120.593384,23.518854,0.0</coordinates></LinearRing></outerBoundaryIs></Polygon><styleUrl>#spolygon-map</styleUrl></Placemark><Placemark><Polygon><outerBoundaryIs><LinearRing><coordinates>120.618748,23.491132,0.0 120.618337,23.49317,0.0 120.616468,23.493461,0.0 120.612423,23.494939,0.0 120.605114,23.498618,0.0 120.603804,23.499692,0.0 120.59666,23.497784,0.0 120.595269,23.496055,0.0 120.593894,23.495691,0.0 120.593388,23.495452,0.0 120.592606,23.495304,0.0 120.592313,23.494978,0.0 120.592018,23.49476,0.0 120.591403,23.494684,0.0 120.591086,23.494541,0.0 120.590185,23.494457,0.0 120.589411,23.494187,0.0 120.587414,23.493714,0.0 120.585167,23.492853,0.0 120.581623,23.491087,0.0 120.579814,23.488122,0.0 120.579248,23.487534,0.0 120.578276,23.487303,0.0 120.577464,23.487073,0.0 120.5765,23.486899,0.0 120.574521,23.487011,0.0 120.574722,23.485991,0.0 120.575685,23.485551,0.0 120.576827,23.485523,0.0 120.577476,23.485664,0.0 120.577886,23.486347,0.0 120.578473,23.486929,0.0 120.579139,23.487109,0.0 120.579569,23.486907,0.0 120.579515,23.486431,0.0 120.579429,23.485855,0.0 120.579723,23.485296,0.0 120.58018,23.485211,0.0 120.580967,23.485136,0.0 120.581572,23.485384,0.0 120.58258,23.485177,0.0 120.583747,23.484363,0.0 120.586514,23.483178,0.0 120.58941,23.484035,0.0 120.590272,23.485136,0.0 120.59096,23.485346,0.0 120.591622,23.485752,0.0 120.592229,23.486268,0.0 120.593101,23.485968,0.0 120.594235,23.486551,0.0 120.594673,23.487013,0.0 120.595044,23.487214,0.0 120.596085,23.487161,0.0 120.597059,23.487344,0.0 120.597808,23.487558,0.0 120.599423,23.486673,0.0 120.600205,23.486221,0.0 120.601973,23.485995,0.0 120.603291,23.486446,0.0 120.604401,23.48629,0.0 120.605479,23.486266,0.0 120.607418,23.48623,0.0 120.608735,23.486658,0.0 120.609317,23.487328,0.0 120.610835,23.487889,0.0 120.61147,23.488563,0.0 120.612136,23.48929,0.0 120.61214,23.489951,0.0 120.612614,23.490368,0.0 120.618748,23.491132,0.0</coordinates></LinearRing></outerBoundaryIs></Polygon><styleUrl>#spolygon-map</styleUrl></Placemark><Placemark><Polygon><outerBoundaryIs><LinearRing><coordinates>120.685504,23.507583,0.0 120.679528,23.502954,0.0 120.676539,23.502474,0.0 120.671115,23.503422,0.0 120.662403,23.503243,0.0 120.657185,23.504825,0.0 120.654759,23.50505,0.0 120.651233,23.499464,0.0 120.645961,23.496375,0.0 120.643611,23.493483,0.0 120.642774,23.492022,0.0 120.642709,23.491783,0.0 120.642569,23.491534,0.0 120.642203,23.491335,0.0 120.64189,23.491226,0.0 120.641355,23.490985,0.0 120.640988,23.490828,0.0 120.640647,23.490701,0.0 120.640286,23.490545,0.0 120.639739,23.490333,0.0 120.639382,23.490143,0.0 120.639031,23.48979,0.0 120.638813,23.489514,0.0 120.638595,23.489175,0.0 120.638486,23.488854,0.0 120.63843,23.488531,0.0 120.638224,23.488303,0.0 120.637895,23.487891,0.0 120.637744,23.487559,0.0 120.637781,23.487353,0.0 120.63807,23.487187,0.0 120.638228,23.486928,0.0 120.638387,23.48673,0.0 120.638477,23.486529,0.0 120.638502,23.486263,0.0 120.638487,23.485946,0.0 120.638481,23.485669,0.0 120.638379,23.48535,0.0 120.638303,23.485099,0.0 120.63822,23.484797,0.0 120.638276,23.484528,0.0 120.63856,23.484048,0.0 120.638724,23.483678,0.0 120.638594,23.483285,0.0 120.638389,23.48295,0.0 120.638137,23.482555,0.0 120.638111,23.482279,0.0 120.638153,23.481715,0.0 120.638297,23.481445,0.0 120.638557,23.481156,0.0 120.63881,23.480845,0.0 120.639042,23.480512,0.0 120.639208,23.480144,0.0 120.639209,23.479833,0.0 120.639154,23.47951,0.0 120.639122,23.479112,0.0 120.639115,23.478774,0.0 120.639173,23.478546,0.0 120.639331,23.478338,0.0 120.639698,23.478057,0.0 120.640088,23.477819,0.0 120.640531,23.477562,0.0 120.64074,23.477353,0.0 120.640772,23.476901,0.0 120.640767,23.476402,0.0 120.640801,23.476159,0.0 120.640891,23.47578,0.0 120.64098,23.475475,0.0 120.641045,23.475168,0.0 120.641246,23.474864,0.0 120.6415,23.474618,0.0 120.641748,23.474332,0.0 120.641956,23.474062,0.0 120.642103,23.473705,0.0 120.642192,23.473376,0.0 120.642244,23.473013,0.0 120.642231,23.472507,0.0 120.642166,23.472245,0.0 120.641967,23.471886,0.0 120.641618,23.471533,0.0 120.641222,23.471182,0.0 120.641063,23.470992,0.0 120.641111,23.470694,0.0 120.641304,23.470338,0.0 120.641495,23.470137,0.0 120.641791,23.469923,0.0 120.642164,23.469766,0.0 120.64252,23.469731,0.0 120.643049,23.469482,0.0 120.643197,23.469249,0.0 120.643366,23.46895,0.0 120.643628,23.468609,0.0 120.643866,23.468163,0.0 120.644108,23.467956,0.0 120.644491,23.467774,0.0 120.644986,23.467558,0.0 120.645302,23.46738,0.0 120.645753,23.467113,0.0 120.646072,23.466845,0.0 120.646318,23.466645,0.0 120.646699,23.466426,0.0 120.647076,23.466387,0.0 120.647458,23.466351,0.0 120.647743,23.466208,0.0 120.648099,23.466132,0.0 120.648437,23.465927,0.0 120.648571,23.465704,0.0 120.648398,23.465525,0.0 120.647898,23.465167,0.0 120.647616,23.464812,0.0 120.64728,23.464378,0.0 120.646981,23.463919,0.0 120.646684,23.463498,0.0 120.646449,23.46313,0.0 120.646271,23.462786,0.0 120.646233,23.462466,0.0 120.646266,23.462179,0.0 120.646352,23.46173,0.0 120.646467,23.461374,0.0 120.646622,23.460902,0.0 120.6467,23.460512,0.0 120.646907,23.46028,0.0 120.647124,23.46007,0.0 120.647267,23.459829,0.0 120.647343,23.459486,0.0 120.647413,23.458933,0.0 120.647536,23.458692,0.0 120.647793,23.458604,0.0 120.648412,23.458443,0.0 120.648646,23.458342,0.0 120.648963,23.458049,0.0 120.649243,23.457592,0.0 120.649441,23.457125,0.0 120.649613,23.456681,0.0 120.649814,23.456356,0.0 120.650215,23.455808,0.0 120.650469,23.455511,0.0 120.65072,23.455344,0.0 120.651102,23.455192,0.0 120.651375,23.454969,0.0 120.651653,23.454604,0.0 120.651867,23.454356,0.0 120.652199,23.45411,0.0 120.652546,23.454003,0.0 120.652878,23.453866,0.0 120.653259,23.453616,0.0 120.653626,23.453324,0.0 120.653943,23.452995,0.0 120.654173,23.452828,0.0 120.654519,23.452732,0.0 120.655241,23.452526,0.0 120.656019,23.452266,0.0 120.656507,23.452131,0.0 120.656899,23.452127,0.0 120.657488,23.452061,0.0 120.658103,23.451979,0.0 120.658641,23.452115,0.0 120.659162,23.452099,0.0 120.659486,23.451885,0.0 120.660046,23.451516,0.0 120.66061,23.451235,0.0 120.661571,23.45091,0.0 120.662299,23.451024,0.0 120.66313,23.451177,0.0 120.663901,23.451217,0.0 120.66453,23.451139,0.0 120.66546,23.450855,0.0 120.666219,23.450683,0.0 120.667232,23.450466,0.0 120.668606,23.450277,0.0 120.669416,23.450222,0.0 120.6702,23.450086,0.0 120.671135,23.449937,0.0 120.672464,23.449723,0.0 120.673235,23.449792,0.0 120.67389,23.449904,0.0 120.674255,23.450149,0.0 120.674276,23.450943,0.0 120.674425,23.451671,0.0 120.674857,23.45229,0.0 120.675365,23.452826,0.0 120.675921,23.453611,0.0 120.676498,23.454294,0.0 120.677076,23.454541,0.0 120.677683,23.454605,0.0 120.678799,23.454732,0.0 120.679971,23.455046,0.0 120.680543,23.455243,0.0 120.681809,23.455634,0.0 120.682544,23.45583,0.0 120.683382,23.455915,0.0 120.684184,23.456091,0.0 120.685184,23.456461,0.0 120.685721,23.456852,0.0 120.685981,23.457248,0.0 120.686147,23.457738,0.0 120.686297,23.45821,0.0 120.686805,23.45876,0.0 120.687365,23.459278,0.0 120.688066,23.459828,0.0 120.687037,23.463129,0.0 120.686252,23.470554,0.0 120.688235,23.481758,0.0 120.684701,23.489011,0.0 120.685594,23.500675,0.0 120.685504,23.507583,0.0</coordinates></LinearRing></outerBoundaryIs></Polygon><styleUrl>#spolygon-map</styleUrl></Placemark><Placemark><Polygon><outerBoundaryIs><LinearRing><coordinates>120.560646,23.525061,0.0 120.558466,23.52738,0.0 120.553668,23.529242,0.0 120.552422,23.52874,0.0 120.550817,23.52785,0.0 120.550215,23.527191,0.0 120.547472,23.526219,0.0 120.545148,23.525971,0.0 120.542957,23.516486,0.0 120.545116,23.515271,0.0 120.549292,23.517346,0.0 120.550971,23.517134,0.0 120.553613,23.515464,0.0 120.555784,23.514913,0.0 120.558864,23.514951,0.0 120.559748,23.517166,0.0 120.555993,23.520354,0.0 120.560646,23.525061,0.0</coordinates></LinearRing></outerBoundaryIs></Polygon><styleUrl>#spolygon-map</styleUrl></Placemark><Placemark><Polygon><outerBoundaryIs><LinearRing><coordinates>120.540838,23.547112,0.0 120.540595,23.546916,0.0 120.540255,23.546746,0.0 120.540052,23.546474,0.0 120.539966,23.546187,0.0 120.539608,23.546191,0.0 120.538989,23.546686,0.0 120.538596,23.547283,0.0 120.538442,23.547953,0.0 120.538228,23.548196,0.0 120.537963,23.548337,0.0 120.537672,23.54851,0.0 120.537393,23.548877,0.0 120.537194,23.549159,0.0 120.536829,23.549379,0.0 120.536559,23.54941,0.0 120.536436,23.54924,0.0 120.536091,23.549018,0.0 120.535693,23.548884,0.0 120.53531,23.548763,0.0 120.534985,23.548733,0.0 120.534554,23.548779,0.0 120.534091,23.548904,0.0 120.533823,23.548896,0.0 120.533537,23.54888,0.0 120.533192,23.548978,0.0 120.532844,23.548943,0.0 120.532471,23.548849,0.0 120.532008,23.548742,0.0 120.53161,23.548637,0.0 120.531268,23.548665,0.0 120.53085,23.548501,0.0 120.530411,23.548412,0.0 120.530266,23.54824,0.0 120.530023,23.548016,0.0 120.529664,23.547976,0.0 120.529449,23.548032,0.0 120.529201,23.548349,0.0 120.528961,23.548475,0.0 120.528732,23.548405,0.0 120.528221,23.5482,0.0 120.527549,23.548324,0.0 120.527267,23.548502,0.0 120.526989,23.54855,0.0 120.526818,23.548351,0.0 120.527193,23.542849,0.0 120.529366,23.534462,0.0 120.531226,23.533228,0.0 120.536606,23.532332,0.0 120.54381,23.532776,0.0 120.547647,23.534988,0.0 120.551622,23.535826,0.0 120.55425,23.536583,0.0 120.556042,23.539753,0.0 120.555818,23.541391,0.0 120.555292,23.541286,0.0 120.555147,23.541529,0.0 120.555175,23.541812,0.0 120.555338,23.542435,0.0 120.555314,23.542889,0.0 120.555138,23.543161,0.0 120.554546,23.543701,0.0 120.553872,23.544228,0.0 120.553629,23.544618,0.0 120.553387,23.544755,0.0 120.552965,23.544821,0.0 120.55246,23.544655,0.0 120.552135,23.544379,0.0 120.551645,23.544079,0.0 120.551035,23.543673,0.0 120.550716,23.54356,0.0 120.55008,23.543788,0.0 120.549878,23.544031,0.0 120.549526,23.544531,0.0 120.549251,23.544964,0.0 120.549015,23.545297,0.0 120.548734,23.545477,0.0 120.548601,23.545978,0.0 120.548413,23.546336,0.0 120.548151,23.546521,0.0 120.547528,23.546571,0.0 120.546208,23.546567,0.0 120.545818,23.546717,0.0 120.545402,23.546761,0.0 120.544242,23.546539,0.0 120.54387,23.546325,0.0 120.543422,23.546089,0.0 120.543057,23.545939,0.0 120.542709,23.545821,0.0 120.542131,23.546052,0.0 120.541665,23.546305,0.0 120.541393,23.546821,0.0 120.541206,23.547062,0.0 120.540838,23.547112,0.0</coordinates></LinearRing></outerBoundaryIs></Polygon><styleUrl>#spolygon-map</styleUrl></Placemark><Placemark><Polygon><outerBoundaryIs><LinearRing><coordinates>120.526809,23.548309,0.0 120.526659,23.548028,0.0 120.52657,23.54777,0.0 120.526491,23.547416,0.0 120.526218,23.547196,0.0 120.526061,23.546988,0.0 120.525848,23.546813,0.0 120.525621,23.547187,0.0 120.525279,23.547286,0.0 120.524962,23.547217,0.0 120.524512,23.547182,0.0 120.524129,23.547031,0.0 120.523854,23.546861,0.0 120.523452,23.546544,0.0 120.52322,23.546291,0.0 120.52284,23.546129,0.0 120.522521,23.546101,0.0 120.522232,23.54615,0.0 120.521809,23.546139,0.0 120.521392,23.546138,0.0 120.521108,23.546018,0.0 120.520822,23.545714,0.0 120.520705,23.545359,0.0 120.520596,23.545081,0.0 120.520406,23.544778,0.0 120.520217,23.54438,0.0 120.519932,23.544371,0.0 120.519584,23.544245,0.0 120.519355,23.543996,0.0 120.519209,23.543739,0.0 120.51897,23.543826,0.0 120.518774,23.544031,0.0 120.518614,23.544267,0.0 120.518506,23.544459,0.0 120.518216,23.54439,0.0 120.517891,23.544301,0.0 120.517718,23.544106,0.0 120.517507,23.543882,0.0 120.51714,23.543696,0.0 120.516843,23.543627,0.0 120.516429,23.54352,0.0 120.516089,23.543503,0.0 120.51557,23.543359,0.0 120.51527,23.543178,0.0 120.514978,23.543109,0.0 120.514618,23.543074,0.0 120.514199,23.542865,0.0 120.513975,23.542641,0.0 120.513838,23.542148,0.0 120.51401,23.541772,0.0 120.51405,23.541558,0.0 120.513751,23.541347,0.0 120.513468,23.541305,0.0 120.51342,23.540361,0.0 120.513347,23.534796,0.0 120.515443,23.530207,0.0 120.515121,23.52484,0.0 120.515761,23.524616,0.0 120.517887,23.525821,0.0 120.518745,23.526463,0.0 120.520391,23.526249,0.0 120.524758,23.528057,0.0 120.525449,23.527721,0.0 120.526643,23.528191,0.0 120.527125,23.52771,0.0 120.527711,23.527583,0.0 120.528048,23.528026,0.0 120.528973,23.5286,0.0 120.529734,23.528871,0.0 120.52997,23.529391,0.0 120.531167,23.530043,0.0 120.532048,23.530174,0.0 120.532541,23.53048,0.0 120.533448,23.529833,0.0 120.534694,23.530062,0.0 120.535547,23.530135,0.0 120.537694,23.531162,0.0 120.538567,23.531376,0.0 120.539186,23.531536,0.0 120.540027,23.530749,0.0 120.541362,23.530184,0.0 120.543353,23.531481,0.0 120.541548,23.532593,0.0 120.535331,23.532455,0.0 120.530295,23.533686,0.0 120.528777,23.534912,0.0 120.527026,23.54625,0.0 120.526809,23.548309,0.0</coordinates></LinearRing></outerBoundaryIs></Polygon><styleUrl>#spolygon-map</styleUrl></Placemark><Placemark><Polygon><outerBoundaryIs><LinearRing><coordinates>120.54381,23.532776,0.0 120.543447,23.531057,0.0 120.542109,23.528226,0.0 120.533708,23.519822,0.0 120.526499,23.518287,0.0 120.525243,23.517977,0.0 120.52608,23.516936,0.0 120.526765,23.516674,0.0 120.527662,23.516081,0.0 120.527694,23.514885,0.0 120.525808,23.513728,0.0 120.525102,23.511888,0.0 120.526054,23.509773,0.0 120.528223,23.510315,0.0 120.529162,23.509521,0.0 120.530313,23.509608,0.0 120.532669,23.509317,0.0 120.534249,23.509802,0.0 120.536392,23.511929,0.0 120.539354,23.514179,0.0 120.540988,23.513202,0.0 120.541593,23.510271,0.0 120.543867,23.508756,0.0 120.545433,23.508533,0.0 120.546798,23.508724,0.0 120.547913,23.507888,0.0 120.549582,23.507184,0.0 120.550238,23.507739,0.0 120.551452,23.507361,0.0 120.553058,23.507094,0.0 120.553788,23.507139,0.0 120.560299,23.512355,0.0 120.558864,23.514951,0.0 120.555784,23.514913,0.0 120.553613,23.515464,0.0 120.550971,23.517134,0.0 120.549292,23.517346,0.0 120.545116,23.515271,0.0 120.542957,23.516486,0.0 120.545148,23.525971,0.0 120.547349,23.532276,0.0 120.546104,23.53436,0.0 120.54381,23.532776,0.0</coordinates></LinearRing></outerBoundaryIs></Polygon><styleUrl>#spolygon-map</styleUrl></Placemark><Placemark><Polygon><outerBoundaryIs><LinearRing><coordinates>120.552053,23.485918,0.0 120.550645,23.48398,0.0 120.549452,23.483322,0.0 120.548042,23.48429,0.0 120.546544,23.485823,0.0 120.544879,23.485898,0.0 120.543393,23.485771,0.0 120.540684,23.486129,0.0 120.539347,23.485877,0.0 120.539543,23.485713,0.0 120.539849,23.485596,0.0 120.540311,23.485415,0.0 120.540659,23.485267,0.0 120.540933,23.485091,0.0 120.541194,23.48481,0.0 120.541376,23.484621,0.0 120.541636,23.484448,0.0 120.542004,23.484453,0.0 120.542345,23.484529,0.0 120.54257,23.48469,0.0 120.542851,23.484804,0.0 120.543051,23.484773,0.0 120.543307,23.484554,0.0 120.543549,23.484264,0.0 120.543828,23.483942,0.0 120.544088,23.4839,0.0 120.544329,23.483903,0.0 120.544559,23.483809,0.0 120.544766,23.483565,0.0 120.544735,23.483321,0.0 120.544708,23.483071,0.0 120.544976,23.48299,0.0 120.545445,23.482953,0.0 120.545695,23.4829,0.0 120.545923,23.482652,0.0 120.545938,23.482447,0.0 120.546033,23.482007,0.0 120.546006,23.481743,0.0 120.545929,23.481517,0.0 120.545854,23.48125,0.0 120.545623,23.48117,0.0 120.545339,23.481192,0.0 120.545117,23.481239,0.0 120.544839,23.481407,0.0 120.544563,23.481456,0.0 120.54433,23.481404,0.0 120.544043,23.48124,0.0 120.543806,23.48105,0.0 120.543621,23.480767,0.0 120.543724,23.480469,0.0 120.543927,23.480186,0.0 120.544096,23.479848,0.0 120.544199,23.479516,0.0 120.544416,23.479085,0.0 120.544406,23.47883,0.0 120.544127,23.478649,0.0 120.54388,23.478538,0.0 120.543677,23.478359,0.0 120.543362,23.478168,0.0 120.543073,23.477912,0.0 120.542968,23.4776,0.0 120.542971,23.477323,0.0 120.542996,23.477004,0.0 120.543043,23.476679,0.0 120.543272,23.476427,0.0 120.543652,23.476252,0.0 120.543919,23.476023,0.0 120.544086,23.475565,0.0 120.544169,23.475337,0.0 120.544274,23.475049,0.0 120.544285,23.474676,0.0 120.544226,23.474233,0.0 120.544423,23.473997,0.0 120.544732,23.473813,0.0 120.545134,23.473739,0.0 120.545504,23.473691,0.0 120.545814,23.473468,0.0 120.546086,23.473237,0.0 120.546441,23.472985,0.0 120.546779,23.472616,0.0 120.5469,23.472309,0.0 120.546997,23.472016,0.0 120.54728,23.471883,0.0 120.547406,23.471692,0.0 120.54745,23.471414,0.0 120.547506,23.471177,0.0 120.547799,23.470961,0.0 120.548021,23.470824,0.0 120.548394,23.470787,0.0 120.548685,23.47098,0.0 120.549091,23.471046,0.0 120.549482,23.470887,0.0 120.549852,23.470814,0.0 120.550361,23.470847,0.0 120.550831,23.470866,0.0 120.551155,23.470951,0.0 120.551441,23.471071,0.0 120.551788,23.47128,0.0 120.552118,23.47141,0.0 120.552451,23.471345,0.0 120.552747,23.47112,0.0 120.553208,23.470842,0.0 120.55346,23.470641,0.0 120.553549,23.470303,0.0 120.553715,23.470019,0.0 120.553985,23.469855,0.0 120.55432,23.469705,0.0 120.554876,23.469487,0.0 120.555257,23.469353,0.0 120.555723,23.469122,0.0 120.556025,23.468881,0.0 120.556298,23.4686,0.0 120.556768,23.468299,0.0 120.557194,23.468033,0.0 120.557735,23.467773,0.0 120.558101,23.467612,0.0 120.558329,23.467752,0.0 120.558515,23.467712,0.0 120.558716,23.46743,0.0 120.558905,23.467183,0.0 120.559145,23.466985,0.0 120.559361,23.4668,0.0 120.559665,23.466578,0.0 120.560029,23.466393,0.0 120.560474,23.466207,0.0 120.560716,23.466068,0.0 120.560966,23.466202,0.0 120.561105,23.466367,0.0 120.561028,23.466636,0.0 120.561023,23.466868,0.0 120.561135,23.467162,0.0 120.561193,23.467395,0.0 120.561365,23.467603,0.0 120.561671,23.467762,0.0 120.561964,23.467972,0.0 120.562209,23.468237,0.0 120.562311,23.468619,0.0 120.562337,23.468895,0.0 120.562361,23.469163,0.0 120.562437,23.46945,0.0 120.562569,23.469697,0.0 120.562738,23.46999,0.0 120.56286,23.470246,0.0 120.562998,23.47042,0.0 120.563143,23.470786,0.0 120.563255,23.471071,0.0 120.563349,23.471302,0.0 120.563521,23.471386,0.0 120.563809,23.471226,0.0 120.564098,23.471037,0.0 120.564341,23.47088,0.0 120.564642,23.47093,0.0 120.564922,23.471069,0.0 120.565255,23.471176,0.0 120.565588,23.471206,0.0 120.565952,23.471115,0.0 120.566168,23.47095,0.0 120.566406,23.470757,0.0 120.566666,23.470541,0.0 120.566965,23.470452,0.0 120.567466,23.470412,0.0 120.567715,23.470241,0.0 120.567933,23.470116,0.0 120.56816,23.469895,0.0 120.568283,23.469651,0.0 120.568545,23.469623,0.0 120.568838,23.469755,0.0 120.569072,23.469769,0.0 120.569326,23.46976,0.0 120.569636,23.469657,0.0 120.569887,23.469498,0.0 120.569964,23.46922,0.0 120.570035,23.468896,0.0 120.570022,23.468541,0.0 120.570067,23.468214,0.0 120.570229,23.467946,0.0 120.570471,23.467739,0.0 120.570838,23.467555,0.0 120.571176,23.467531,0.0 120.571416,23.467398,0.0 120.57174,23.467176,0.0 120.571889,23.466995,0.0 120.57199,23.466668,0.0 120.571981,23.466212,0.0 120.571903,23.46586,0.0 120.571826,23.465555,0.0 120.571726,23.465248,0.0 120.571671,23.464902,0.0 120.571789,23.464674,0.0 120.572036,23.46451,0.0 120.572365,23.464475,0.0 120.572642,23.464442,0.0 120.572905,23.464321,0.0 120.573128,23.464107,0.0 120.573307,23.463875,0.0 120.573537,23.463584,0.0 120.573801,23.463459,0.0 120.574213,23.463478,0.0 120.574609,23.463574,0.0 120.57497,23.463715,0.0 120.575209,23.463848,0.0 120.575426,23.464059,0.0 120.575629,23.464145,0.0 120.575905,23.464092,0.0 120.576185,23.463849,0.0 120.576393,23.463587,0.0 120.576701,23.463266,0.0 120.576933,23.463018,0.0 120.577076,23.462844,0.0 120.577296,23.46268,0.0 120.577575,23.462643,0.0 120.577758,23.462812,0.0 120.577951,23.463,0.0 120.57823,23.463028,0.0 120.578394,23.462771,0.0 120.578495,23.462489,0.0 120.578721,23.462316,0.0 120.57902,23.462222,0.0 120.579306,23.462218,0.0 120.579637,23.462156,0.0 120.579874,23.461981,0.0 120.580106,23.461821,0.0 120.580452,23.46189,0.0 120.580687,23.462073,0.0 120.580904,23.46232,0.0 120.581207,23.462399,0.0 120.581536,23.462425,0.0 120.581878,23.462453,0.0 120.582164,23.462578,0.0 120.582416,23.462683,0.0 120.582648,23.462525,0.0 120.582791,23.46225,0.0 120.583058,23.461867,0.0 120.583191,23.46161,0.0 120.583318,23.461349,0.0 120.583699,23.461219,0.0 120.58392,23.461407,0.0 120.58423,23.461457,0.0 120.584541,23.461523,0.0 120.584893,23.46161,0.0 120.585205,23.461765,0.0 120.5855,23.461808,0.0 120.58573,23.461671,0.0 120.586054,23.461595,0.0 120.586289,23.461754,0.0 120.586556,23.461872,0.0 120.5868,23.461934,0.0 120.587088,23.461873,0.0 120.587386,23.461858,0.0 120.58756,23.462042,0.0 120.587843,23.462137,0.0 120.588095,23.462246,0.0 120.588563,23.462225,0.0 120.589021,23.462253,0.0 120.589326,23.462317,0.0 120.589529,23.46253,0.0 120.589776,23.462835,0.0 120.589929,23.463086,0.0 120.590006,23.463362,0.0 120.590192,23.463505,0.0 120.590466,23.46363,0.0 120.590562,23.463842,0.0 120.590704,23.46403,0.0 120.590931,23.464188,0.0 120.591091,23.464421,0.0 120.591064,23.464719,0.0 120.591295,23.464921,0.0 120.59152,23.464962,0.0 120.591846,23.464931,0.0 120.592087,23.464995,0.0 120.592222,23.465194,0.0 120.592466,23.465364,0.0 120.592757,23.465466,0.0 120.593021,23.465639,0.0 120.59331,23.465779,0.0 120.593646,23.46576,0.0 120.593905,23.465639,0.0 120.594217,23.465615,0.0 120.594636,23.465679,0.0 120.594985,23.465678,0.0 120.59531,23.465584,0.0 120.59569,23.46556,0.0 120.595938,23.465533,0.0 120.596213,23.465453,0.0 120.596459,23.465383,0.0 120.596695,23.465343,0.0 120.596929,23.46527,0.0 120.597235,23.465189,0.0 120.597526,23.465093,0.0 120.597848,23.464938,0.0 120.598139,23.464873,0.0 120.598388,23.464982,0.0 120.59863,23.465211,0.0 120.598855,23.465367,0.0 120.599127,23.465535,0.0 120.599394,23.465757,0.0 120.59954,23.466005,0.0 120.599746,23.466227,0.0 120.600119,23.466528,0.0 120.600555,23.466588,0.0 120.600867,23.466693,0.0 120.601084,23.466879,0.0 120.601252,23.46704,0.0 120.593193,23.470615,0.0 120.591632,23.469292,0.0 120.590653,23.468712,0.0 120.588896,23.469046,0.0 120.588012,23.468605,0.0 120.587251,23.468026,0.0 120.586583,23.468349,0.0 120.5856,23.469075,0.0 120.584428,23.469361,0.0 120.583257,23.469383,0.0 120.58256,23.470322,0.0 120.581813,23.469756,0.0 120.579102,23.470252,0.0 120.577521,23.470724,0.0 120.577626,23.471856,0.0 120.576456,23.471638,0.0 120.574845,23.472927,0.0 120.57411,23.472812,0.0 120.573143,23.472898,0.0 120.571862,23.473109,0.0 120.572499,23.474077,0.0 120.573616,23.475491,0.0 120.568076,23.477719,0.0 120.563709,23.479125,0.0 120.56222,23.480667,0.0 120.561405,23.480665,0.0 120.560534,23.480163,0.0 120.559624,23.48068,0.0 120.560089,23.48172,0.0 120.55982,23.48243,0.0 120.55883,23.482179,0.0 120.558546,23.482957,0.0 120.559333,23.483361,0.0 120.558444,23.483957,0.0 120.5577,23.483137,0.0 120.556869,23.483381,0.0 120.556033,23.483923,0.0 120.55489,23.484482,0.0 120.552053,23.485918,0.0</coordinates></LinearRing></outerBoundaryIs></Polygon><styleUrl>#spolygon-map</styleUrl></Placemark><Placemark><Polygon><outerBoundaryIs><LinearRing><coordinates>120.593179,23.520167,0.0 120.593637,23.518518,0.0 120.595161,23.51793,0.0 120.596123,23.516716,0.0 120.597778,23.515831,0.0 120.598189,23.514247,0.0 120.598888,23.513089,0.0 120.600229,23.51199,0.0 120.601626,23.511951,0.0 120.60259,23.512154,0.0 120.604133,23.511673,0.0 120.606024,23.511396,0.0 120.60772,23.511648,0.0 120.608811,23.510888,0.0 120.610164,23.510203,0.0 120.611042,23.509485,0.0 120.612831,23.508661,0.0 120.613775,23.508941,0.0 120.614471,23.508459,0.0 120.614722,23.507927,0.0 120.616283,23.507766,0.0 120.618201,23.506967,0.0 120.619137,23.507518,0.0 120.620247,23.507022,0.0 120.620667,23.506926,0.0 120.622053,23.50832,0.0 120.622824,23.509168,0.0 120.624018,23.509341,0.0 120.624557,23.508629,0.0 120.625099,23.507192,0.0 120.626032,23.506932,0.0 120.626725,23.507243,0.0 120.627265,23.507152,0.0 120.628286,23.5075,0.0 120.629727,23.508072,0.0 120.632719,23.507379,0.0 120.636119,23.506297,0.0 120.637605,23.505054,0.0 120.639011,23.50403,0.0 120.640522,23.503029,0.0 120.641667,23.50158,0.0 120.645123,23.504579,0.0 120.643671,23.509123,0.0 120.644183,23.513113,0.0 120.645109,23.515842,0.0 120.645389,23.517396,0.0 120.640505,23.51831,0.0 120.635774,23.518875,0.0 120.633377,23.521109,0.0 120.629625,23.520129,0.0 120.626728,23.519637,0.0 120.625003,23.520924,0.0 120.6222,23.522069,0.0 120.618516,23.522121,0.0 120.616781,23.522692,0.0 120.613309,23.524182,0.0 120.611718,23.524944,0.0 120.610555,23.524794,0.0 120.609506,23.524622,0.0 120.607718,23.524807,0.0 120.606943,23.524616,0.0 120.606385,23.523896,0.0 120.604399,23.522966,0.0 120.601676,23.52122,0.0 120.599937,23.520726,0.0 120.596811,23.521244,0.0 120.593179,23.520167,0.0</coordinates></LinearRing></outerBoundaryIs></Polygon><styleUrl>#spolygon-map</styleUrl></Placemark><Placemark><Polygon><outerBoundaryIs><LinearRing><coordinates>120.619909,23.489064,0.0 120.618748,23.491132,0.0 120.612614,23.490368,0.0 120.61214,23.489951,0.0 120.612136,23.48929,0.0 120.61147,23.488563,0.0 120.610835,23.487889,0.0 120.609317,23.487328,0.0 120.608735,23.486658,0.0 120.607418,23.48623,0.0 120.605479,23.486266,0.0 120.604401,23.48629,0.0 120.603291,23.486446,0.0 120.601973,23.485995,0.0 120.600205,23.486221,0.0 120.599423,23.486673,0.0 120.597808,23.487558,0.0 120.597059,23.487344,0.0 120.596085,23.487161,0.0 120.595044,23.487214,0.0 120.594673,23.487013,0.0 120.594235,23.486551,0.0 120.593101,23.485968,0.0 120.592229,23.486268,0.0 120.591622,23.485752,0.0 120.59096,23.485346,0.0 120.590272,23.485136,0.0 120.58941,23.484035,0.0 120.586514,23.483178,0.0 120.583747,23.484363,0.0 120.58258,23.485177,0.0 120.581572,23.485384,0.0 120.580967,23.485136,0.0 120.58018,23.485211,0.0 120.579723,23.485296,0.0 120.579429,23.485855,0.0 120.579515,23.486431,0.0 120.579569,23.486907,0.0 120.579139,23.487109,0.0 120.578473,23.486929,0.0 120.577886,23.486347,0.0 120.577476,23.485664,0.0 120.576827,23.485523,0.0 120.575685,23.485551,0.0 120.573049,23.482625,0.0 120.570532,23.480512,0.0 120.566913,23.478326,0.0 120.57372,23.475956,0.0 120.573046,23.474579,0.0 120.571957,23.473271,0.0 120.572748,23.472998,0.0 120.573879,23.472787,0.0 120.57464,23.473003,0.0 120.576292,23.471764,0.0 120.57749,23.47188,0.0 120.577451,23.471139,0.0 120.578624,23.470626,0.0 120.581172,23.469994,0.0 120.582356,23.47036,0.0 120.583053,23.469432,0.0 120.584306,23.469386,0.0 120.585259,23.469262,0.0 120.586433,23.468412,0.0 120.587033,23.468086,0.0 120.587864,23.46814,0.0 120.588597,23.468745,0.0 120.590339,23.468824,0.0 120.591169,23.469192,0.0 120.592841,23.470061,0.0 120.601072,23.467132,0.0 120.601495,23.467184,0.0 120.601827,23.467267,0.0 120.602187,23.467331,0.0 120.602417,23.467338,0.0 120.602651,23.467375,0.0 120.603012,23.467556,0.0 120.60326,23.46769,0.0 120.603536,23.467903,0.0 120.603786,23.468023,0.0 120.604108,23.468148,0.0 120.604415,23.468108,0.0 120.604682,23.467976,0.0 120.604977,23.467819,0.0 120.605272,23.467639,0.0 120.605568,23.467529,0.0 120.605845,23.467408,0.0 120.606156,23.467352,0.0 120.606433,23.467183,0.0 120.606623,23.466938,0.0 120.606776,23.46669,0.0 120.606948,23.466442,0.0 120.607083,23.466217,0.0 120.60728,23.465982,0.0 120.607438,23.465831,0.0 120.607653,23.465548,0.0 120.607975,23.465289,0.0 120.608253,23.465177,0.0 120.608792,23.46537,0.0 120.609117,23.465601,0.0 120.60951,23.465846,0.0 120.609696,23.466142,0.0 120.6098,23.466438,0.0 120.61001,23.466811,0.0 120.610153,23.467233,0.0 120.610235,23.467561,0.0 120.610452,23.468015,0.0 120.610631,23.468275,0.0 120.610678,23.468555,0.0 120.610653,23.46891,0.0 120.610645,23.469314,0.0 120.610608,23.469682,0.0 120.610558,23.47,0.0 120.610602,23.470339,0.0 120.610798,23.470637,0.0 120.611005,23.470956,0.0 120.611207,23.471223,0.0 120.611351,23.471566,0.0 120.611531,23.471887,0.0 120.61165,23.472149,0.0 120.611619,23.472427,0.0 120.611691,23.472734,0.0 120.611699,23.473044,0.0 120.611739,23.473281,0.0 120.611797,23.47354,0.0 120.611863,23.473839,0.0 120.611882,23.474184,0.0 120.611938,23.474579,0.0 120.612115,23.474812,0.0 120.612222,23.475034,0.0 120.612296,23.475443,0.0 120.612345,23.475966,0.0 120.612353,23.476393,0.0 120.61231,23.476752,0.0 120.612255,23.477054,0.0 120.612208,23.477397,0.0 120.612223,23.477668,0.0 120.612364,23.477917,0.0 120.61282,23.478085,0.0 120.613471,23.478292,0.0 120.613916,23.478388,0.0 120.614326,23.478427,0.0 120.614661,23.478478,0.0 120.614964,23.478616,0.0 120.615306,23.47882,0.0 120.61555,23.47913,0.0 120.61605,23.479892,0.0 120.616316,23.480272,0.0 120.616468,23.480656,0.0 120.616526,23.480955,0.0 120.616617,23.481316,0.0 120.616753,23.481547,0.0 120.616932,23.481895,0.0 120.617078,23.48213,0.0 120.617296,23.482431,0.0 120.617578,23.482686,0.0 120.617867,23.48292,0.0 120.618102,23.483117,0.0 120.618448,23.483506,0.0 120.618694,23.483728,0.0 120.618984,23.483979,0.0 120.619298,23.48421,0.0 120.619552,23.484405,0.0 120.619787,23.484773,0.0 120.619788,23.485055,0.0 120.619628,23.485385,0.0 120.619385,23.485601,0.0 120.619109,23.485756,0.0 120.61879,23.485904,0.0 120.618609,23.486202,0.0 120.618564,23.486585,0.0 120.61859,23.487204,0.0 120.618633,23.487536,0.0 120.618719,23.487843,0.0 120.618962,23.488187,0.0 120.619224,23.48851,0.0 120.619665,23.488854,0.0 120.619909,23.489064,0.0</coordinates></LinearRing></outerBoundaryIs></Polygon><styleUrl>#spolygon-map</styleUrl></Placemark><Placemark><Polygon><outerBoundaryIs><LinearRing><coordinates>120.544597,23.508241,0.0 120.542145,23.50988,0.0 120.541453,23.511971,0.0 120.540491,23.513873,0.0 120.537953,23.513547,0.0 120.534841,23.510066,0.0 120.533079,23.509645,0.0 120.531576,23.509305,0.0 120.529554,23.509217,0.0 120.527135,23.508417,0.0 120.525455,23.508218,0.0 120.525077,23.503007,0.0 120.521352,23.499941,0.0 120.522109,23.49844,0.0 120.524258,23.497329,0.0 120.525114,23.497392,0.0 120.526304,23.497376,0.0 120.528396,23.497366,0.0 120.529785,23.497608,0.0 120.531909,23.497503,0.0 120.533804,23.495956,0.0 120.53427,23.495436,0.0 120.534257,23.494104,0.0 120.534708,23.492902,0.0 120.534868,23.491868,0.0 120.534762,23.490988,0.0 120.534874,23.490744,0.0 120.535047,23.490496,0.0 120.535297,23.490242,0.0 120.535574,23.490022,0.0 120.535983,23.490894,0.0 120.536103,23.493139,0.0 120.537357,23.49468,0.0 120.536344,23.497413,0.0 120.535696,23.499677,0.0 120.537508,23.500547,0.0 120.541028,23.50142,0.0 120.542148,23.504026,0.0 120.542195,23.504948,0.0 120.542638,23.504989,0.0 120.543611,23.506141,0.0 120.544051,23.506836,0.0 120.54443,23.507313,0.0 120.544597,23.508241,0.0</coordinates></LinearRing></outerBoundaryIs></Polygon><styleUrl>#spolygon-map</styleUrl></Placemark><Placemark><Polygon><outerBoundaryIs><LinearRing><coordinates>120.566797,23.542142,0.0 120.566908,23.54235,0.0 120.566945,23.542626,0.0 120.566987,23.542928,0.0 120.566984,23.543224,0.0 120.566691,23.543366,0.0 120.566385,23.543435,0.0 120.56612,23.543495,0.0 120.565902,23.543657,0.0 120.565515,23.543633,0.0 120.565235,23.543418,0.0 120.565042,23.543316,0.0 120.564818,23.543277,0.0 120.564459,23.543344,0.0 120.564166,23.543356,0.0 120.563825,23.543272,0.0 120.563517,23.543187,0.0 120.56324,23.543252,0.0 120.562833,23.543571,0.0 120.562551,23.543756,0.0 120.562259,23.544026,0.0 120.56202,23.544176,0.0 120.561773,23.544198,0.0 120.561517,23.544031,0.0 120.56123,23.543962,0.0 120.560877,23.543938,0.0 120.560692,23.544168,0.0 120.560467,23.544355,0.0 120.559953,23.544241,0.0 120.559493,23.544061,0.0 120.559149,23.543891,0.0 120.558884,23.543748,0.0 120.558629,23.543379,0.0 120.558587,23.543178,0.0 120.558588,23.542912,0.0 120.558645,23.542632,0.0 120.558499,23.542424,0.0 120.558257,23.542439,0.0 120.558105,23.542186,0.0 120.557856,23.541946,0.0 120.5573,23.541574,0.0 120.556879,23.541568,0.0 120.55662,23.541597,0.0 120.556161,23.541469,0.0 120.555595,23.538715,0.0 120.553745,23.536295,0.0 120.550516,23.535746,0.0 120.547349,23.532276,0.0 120.54555,23.526189,0.0 120.548666,23.526451,0.0 120.550488,23.527547,0.0 120.551793,23.528386,0.0 120.553158,23.52885,0.0 120.554358,23.52917,0.0 120.559582,23.52648,0.0 120.562465,23.524109,0.0 120.566805,23.522671,0.0 120.573002,23.522269,0.0 120.577858,23.520476,0.0 120.58082,23.519755,0.0 120.582477,23.51994,0.0 120.582376,23.520299,0.0 120.58241,23.520606,0.0 120.582697,23.521272,0.0 120.583,23.522443,0.0 120.584193,23.523613,0.0 120.586108,23.524663,0.0 120.58677,23.525521,0.0 120.588083,23.5271,0.0 120.589112,23.528771,0.0 120.590889,23.530837,0.0 120.591068,23.532833,0.0 120.589721,23.534301,0.0 120.585883,23.535975,0.0 120.587634,23.541559,0.0 120.587339,23.541528,0.0 120.587075,23.541624,0.0 120.586809,23.5417,0.0 120.58652,23.541846,0.0 120.586227,23.541974,0.0 120.585898,23.541993,0.0 120.585575,23.542058,0.0 120.585158,23.542226,0.0 120.584846,23.542343,0.0 120.584552,23.542459,0.0 120.584217,23.542705,0.0 120.583992,23.543011,0.0 120.583841,23.543259,0.0 120.583579,23.54345,0.0 120.583166,23.543661,0.0 120.582966,23.542737,0.0 120.582602,23.542684,0.0 120.582021,23.542672,0.0 120.581652,23.542634,0.0 120.581389,23.542525,0.0 120.580958,23.542371,0.0 120.580412,23.542114,0.0 120.579983,23.541975,0.0 120.579509,23.541811,0.0 120.579183,23.541693,0.0 120.57895,23.541715,0.0 120.578693,23.541823,0.0 120.578378,23.541887,0.0 120.578013,23.541911,0.0 120.577648,23.541964,0.0 120.577258,23.541943,0.0 120.577031,23.541961,0.0 120.576697,23.541901,0.0 120.57626,23.541929,0.0 120.575949,23.541888,0.0 120.575703,23.541842,0.0 120.575425,23.541922,0.0 120.57506,23.541939,0.0 120.574843,23.54181,0.0 120.574488,23.541624,0.0 120.57414,23.541492,0.0 120.57376,23.541319,0.0 120.573444,23.541115,0.0 120.573094,23.540841,0.0 120.572913,23.540692,0.0 120.572567,23.540725,0.0 120.572246,23.540719,0.0 120.571925,23.540497,0.0 120.571616,23.540266,0.0 120.571251,23.540003,0.0 120.570948,23.539869,0.0 120.570586,23.539841,0.0 120.570326,23.539949,0.0 120.569963,23.539891,0.0 120.569752,23.539778,0.0 120.569237,23.539799,0.0 120.568926,23.539837,0.0 120.568703,23.539989,0.0 120.568725,23.540326,0.0 120.568738,23.540595,0.0 120.568785,23.540987,0.0 120.56874,23.541186,0.0 120.568371,23.541259,0.0 120.567841,23.54124,0.0 120.567579,23.541246,0.0 120.567318,23.541281,0.0 120.566981,23.541095,0.0 120.56669,23.540835,0.0 120.566329,23.540579,0.0 120.566062,23.540434,0.0 120.565757,23.54034,0.0 120.565717,23.540588,0.0 120.565668,23.540841,0.0 120.565548,23.541157,0.0 120.565516,23.541376,0.0 120.565727,23.541557,0.0 120.565994,23.541664,0.0 120.566259,23.5418,0.0 120.566503,23.541965,0.0 120.566797,23.542142,0.0</coordinates></LinearRing></outerBoundaryIs></Polygon><styleUrl>#spolygon-map</styleUrl></Placemark><Placemark><Polygon><outerBoundaryIs><LinearRing><coordinates>120.541119,23.501481,0.0 120.538774,23.500766,0.0 120.535823,23.499933,0.0 120.536129,23.497945,0.0 120.537463,23.495113,0.0 120.536273,23.493455,0.0 120.535904,23.492093,0.0 120.535809,23.489862,0.0 120.536125,23.489667,0.0 120.536581,23.489429,0.0 120.537085,23.48925,0.0 120.537461,23.489154,0.0 120.537994,23.489088,0.0 120.538315,23.489125,0.0 120.538609,23.489218,0.0 120.539086,23.489321,0.0 120.539455,23.489225,0.0 120.539636,23.489059,0.0 120.539779,23.488747,0.0 120.53982,23.488321,0.0 120.53981,23.487887,0.0 120.539777,23.487558,0.0 120.539728,23.487275,0.0 120.539623,23.486905,0.0 120.539426,23.486697,0.0 120.539251,23.486515,0.0 120.539226,23.48622,0.0 120.539289,23.485976,0.0 120.5401,23.48608,0.0 120.542861,23.486136,0.0 120.54464,23.48575,0.0 120.546152,23.485901,0.0 120.547349,23.485318,0.0 120.549045,23.483451,0.0 120.550354,23.483563,0.0 120.5517,23.485721,0.0 120.552281,23.487043,0.0 120.551754,23.488024,0.0 120.55063,23.488856,0.0 120.549073,23.489734,0.0 120.548168,23.490795,0.0 120.54842,23.493346,0.0 120.552277,23.499236,0.0 120.548724,23.500438,0.0 120.544774,23.50279,0.0 120.541119,23.501481,0.0</coordinates></LinearRing></outerBoundaryIs></Polygon><styleUrl>#spolygon-map</styleUrl></Placemark><Placemark><Polygon><outerBoundaryIs><LinearRing><coordinates>120.603804,23.499692,0.0 120.5996,23.500336,0.0 120.596673,23.50126,0.0 120.593275,23.505071,0.0 120.591107,23.505321,0.0 120.58979,23.506125,0.0 120.589172,23.506225,0.0 120.588091,23.506656,0.0 120.586758,23.507725,0.0 120.585959,23.508316,0.0 120.585035,23.508266,0.0 120.584396,23.508569,0.0 120.583833,23.508209,0.0 120.583358,23.50809,0.0 120.582859,23.508141,0.0 120.581687,23.507029,0.0 120.580899,23.50695,0.0 120.580403,23.507015,0.0 120.579828,23.506553,0.0 120.579328,23.506596,0.0 120.578165,23.506126,0.0 120.577542,23.506047,0.0 120.576932,23.505863,0.0 120.57567,23.50527,0.0 120.575019,23.505018,0.0 120.574578,23.505107,0.0 120.573902,23.504913,0.0 120.573576,23.504493,0.0 120.573156,23.504101,0.0 120.572641,23.502027,0.0 120.572707,23.500476,0.0 120.571822,23.499731,0.0 120.571151,23.499707,0.0 120.570986,23.498693,0.0 120.570579,23.498529,0.0 120.57042,23.498384,0.0 120.570693,23.498227,0.0 120.570636,23.497917,0.0 120.568049,23.497161,0.0 120.565887,23.492148,0.0 120.565171,23.491082,0.0 120.565836,23.490658,0.0 120.566688,23.489705,0.0 120.567363,23.489183,0.0 120.566974,23.487945,0.0 120.56749,23.487488,0.0 120.569229,23.487974,0.0 120.570093,23.487489,0.0 120.571024,23.487204,0.0 120.572084,23.487277,0.0 120.573514,23.486568,0.0 120.575584,23.487391,0.0 120.576731,23.486852,0.0 120.577684,23.487114,0.0 120.578387,23.487333,0.0 120.579355,23.487597,0.0 120.58055,23.489612,0.0 120.581983,23.491363,0.0 120.585856,23.493105,0.0 120.587829,23.493914,0.0 120.589667,23.494278,0.0 120.590806,23.4945,0.0 120.591158,23.494607,0.0 120.591449,23.494686,0.0 120.592069,23.494835,0.0 120.592404,23.495082,0.0 120.592796,23.495372,0.0 120.593547,23.495663,0.0 120.594059,23.495678,0.0 120.595402,23.496135,0.0 120.597865,23.498236,0.0 120.603804,23.499692,0.0</coordinates></LinearRing></outerBoundaryIs></Polygon><styleUrl>#spolygon-map</styleUrl></Placemark><Placemark><Polygon><outerBoundaryIs><LinearRing><coordinates>120.513332,23.541357,0.0 120.513039,23.541505,0.0 120.512714,23.541707,0.0 120.512421,23.542008,0.0 120.512299,23.542308,0.0 120.512097,23.542574,0.0 120.512063,23.54282,0.0 120.512056,23.543129,0.0 120.51201,23.543355,0.0 120.511912,23.543585,0.0 120.511676,23.543751,0.0 120.511427,23.543714,0.0 120.510885,23.543615,0.0 120.510631,23.543459,0.0 120.510527,23.543179,0.0 120.510353,23.543101,0.0 120.510143,23.543304,0.0 120.510049,23.543579,0.0 120.510138,23.543855,0.0 120.510192,23.544162,0.0 120.510215,23.54441,0.0 120.510184,23.544668,0.0 120.510159,23.544965,0.0 120.510251,23.545237,0.0 120.510352,23.545481,0.0 120.510323,23.545729,0.0 120.510177,23.546022,0.0 120.510119,23.546275,0.0 120.509921,23.546455,0.0 120.509566,23.546526,0.0 120.509276,23.546667,0.0 120.509124,23.546906,0.0 120.50899,23.547199,0.0 120.508607,23.547141,0.0 120.508285,23.547156,0.0 120.508033,23.547334,0.0 120.507789,23.547373,0.0 120.507395,23.547395,0.0 120.5071,23.547362,0.0 120.506878,23.547253,0.0 120.506708,23.547113,0.0 120.50649,23.546927,0.0 120.506347,23.54678,0.0 120.50621,23.546599,0.0 120.506034,23.546388,0.0 120.505849,23.546261,0.0 120.505697,23.546191,0.0 120.505499,23.546075,0.0 120.505292,23.545923,0.0 120.505149,23.54574,0.0 120.505001,23.545559,0.0 120.504918,23.545348,0.0 120.505049,23.545132,0.0 120.505259,23.545067,0.0 120.505508,23.545,0.0 120.505712,23.544924,0.0 120.505796,23.544649,0.0 120.505762,23.544426,0.0 120.505691,23.544172,0.0 120.505626,23.543958,0.0 120.505538,23.543721,0.0 120.50539,23.543519,0.0 120.505244,23.543352,0.0 120.505092,23.543159,0.0 120.504981,23.542933,0.0 120.504923,23.542707,0.0 120.504825,23.542492,0.0 120.504619,23.542273,0.0 120.504499,23.542071,0.0 120.504515,23.541832,0.0 120.504499,23.541593,0.0 120.504384,23.541407,0.0 120.504236,23.541233,0.0 120.504108,23.541052,0.0 120.503958,23.540876,0.0 120.50385,23.540647,0.0 120.503807,23.540417,0.0 120.503786,23.540209,0.0 120.503797,23.539961,0.0 120.503849,23.539735,0.0 120.503958,23.539485,0.0 120.504054,23.539212,0.0 120.503953,23.538932,0.0 120.503878,23.538744,0.0 120.503852,23.538503,0.0 120.503865,23.538216,0.0 120.503815,23.537963,0.0 120.503654,23.537786,0.0 120.503492,23.537632,0.0 120.503272,23.537476,0.0 120.503002,23.53736,0.0 120.502755,23.537332,0.0 120.502441,23.537281,0.0 120.502203,23.537138,0.0 120.501998,23.536995,0.0 120.501768,23.536875,0.0 120.501536,23.536825,0.0 120.501099,23.536629,0.0 120.500946,23.53648,0.0 120.500713,23.536262,0.0 120.500527,23.536077,0.0 120.500279,23.535931,0.0 120.500083,23.535811,0.0 120.49988,23.535648,0.0 120.499657,23.53553,0.0 120.499412,23.535448,0.0 120.499165,23.535411,0.0 120.498923,23.53536,0.0 120.498688,23.535265,0.0 120.498495,23.535133,0.0 120.498403,23.534909,0.0 120.498431,23.534643,0.0 120.498449,23.534408,0.0 120.498407,23.534191,0.0 120.4983,23.533965,0.0 120.498204,23.533773,0.0 120.498013,23.533558,0.0 120.497822,23.533404,0.0 120.497599,23.533266,0.0 120.497359,23.533186,0.0 120.497082,23.533108,0.0 120.496938,23.532898,0.0 120.496854,23.532683,0.0 120.496797,23.532459,0.0 120.49678,23.532211,0.0 120.496781,23.531992,0.0 120.496752,23.531766,0.0 120.49669,23.531533,0.0 120.496661,23.531321,0.0 120.496651,23.531034,0.0 120.496743,23.530795,0.0 120.496801,23.530577,0.0 120.496805,23.530349,0.0 120.497,23.530212,0.0 120.497138,23.530038,0.0 120.497166,23.529817,0.0 120.49714,23.529605,0.0 120.4971,23.529386,0.0 120.497051,23.529148,0.0 120.497039,23.528918,0.0 120.497082,23.528711,0.0 120.497215,23.52851,0.0 120.497353,23.528321,0.0 120.497501,23.528075,0.0 120.497594,23.52785,0.0 120.497637,23.527629,0.0 120.497655,23.527408,0.0 120.49767,23.527155,0.0 120.497631,23.52694,0.0 120.497522,23.526739,0.0 120.497305,23.526659,0.0 120.497099,23.526566,0.0 120.496877,23.526509,0.0 120.496628,23.526483,0.0 120.49644,23.526451,0.0 120.496154,23.526446,0.0 120.495942,23.526456,0.0 120.49576,23.526462,0.0 120.495565,23.526369,0.0 120.495653,23.526128,0.0 120.495698,23.525889,0.0 120.495786,23.525684,0.0 120.495784,23.525442,0.0 120.49575,23.525216,0.0 120.495658,23.524988,0.0 120.495551,23.524757,0.0 120.49545,23.524552,0.0 120.495458,23.524317,0.0 120.495438,23.524062,0.0 120.495374,23.523829,0.0 120.495345,23.523592,0.0 120.495373,23.523366,0.0 120.49541,23.523005,0.0 120.495451,23.522531,0.0 120.495604,23.52231,0.0 120.495869,23.521979,0.0 120.496062,23.52158,0.0 120.496077,23.521174,0.0 120.495969,23.520774,0.0 120.495814,23.520189,0.0 120.495727,23.519857,0.0 120.495646,23.519523,0.0 120.495556,23.519274,0.0 120.495366,23.518978,0.0 120.495129,23.51876,0.0 120.49481,23.51856,0.0 120.494453,23.518401,0.0 120.494063,23.518235,0.0 120.493598,23.517818,0.0 120.493306,23.51747,0.0 120.49288,23.517021,0.0 120.492542,23.516605,0.0 120.492416,23.516313,0.0 120.491961,23.51598,0.0 120.491718,23.515758,0.0 120.491387,23.515461,0.0 120.491058,23.515101,0.0 120.490837,23.514683,0.0 120.490646,23.514477,0.0 120.4905,23.514205,0.0 120.490299,23.51378,0.0 120.49015,23.51357,0.0 120.48979,23.513372,0.0 120.489361,23.513353,0.0 120.488852,23.513353,0.0 120.48865,23.513219,0.0 120.488764,23.513008,0.0 120.489003,23.51295,0.0 120.489383,23.512926,0.0 120.489602,23.512789,0.0 120.489982,23.512483,0.0 120.490303,23.512297,0.0 120.490542,23.512169,0.0 120.490749,23.51212,0.0 120.490609,23.511941,0.0 120.490337,23.511762,0.0 120.492221,23.512445,0.0 120.493256,23.514494,0.0 120.494754,23.515528,0.0 120.497714,23.516132,0.0 120.503007,23.518822,0.0 120.507584,23.520536,0.0 120.513585,23.520505,0.0 120.514535,23.519984,0.0 120.515743,23.51906,0.0 120.52075,23.51934,0.0 120.521154,23.517759,0.0 120.522164,23.516936,0.0 120.523243,23.517627,0.0 120.523853,23.517446,0.0 120.526499,23.518287,0.0 120.533708,23.519822,0.0 120.542109,23.528226,0.0 120.540638,23.530308,0.0 120.539894,23.531128,0.0 120.539029,23.531495,0.0 120.538392,23.531374,0.0 120.537031,23.531056,0.0 120.535328,23.530073,0.0 120.534531,23.529951,0.0 120.533298,23.529875,0.0 120.532324,23.530525,0.0 120.531946,23.530086,0.0 120.530857,23.52992,0.0 120.529895,23.529303,0.0 120.529559,23.52876,0.0 120.528798,23.528568,0.0 120.527962,23.527986,0.0 120.52758,23.527517,0.0 120.526976,23.528064,0.0 120.52639,23.528157,0.0 120.525388,23.527696,0.0 120.522691,23.527066,0.0 120.519817,23.526137,0.0 120.518626,23.52653,0.0 120.516808,23.524836,0.0 120.515185,23.524549,0.0 120.515304,23.526836,0.0 120.515048,23.530991,0.0 120.513249,23.53648,0.0 120.513351,23.540982,0.0 120.513332,23.541357,0.0</coordinates></LinearRing></outerBoundaryIs></Polygon><styleUrl>#spolygon-map</styleUrl></Placemark><Placemark><Polygon><outerBoundaryIs><LinearRing><coordinates>120.524868,23.518596,0.0 120.523407,23.517066,0.0 120.522796,23.517443,0.0 120.521863,23.517716,0.0 120.520829,23.518205,0.0 120.51929,23.519374,0.0 120.515267,23.519127,0.0 120.510159,23.514196,0.0 120.509162,23.51231,0.0 120.50658,23.509209,0.0 120.504718,23.498465,0.0 120.506338,23.496106,0.0 120.507654,23.493862,0.0 120.51036,23.491832,0.0 120.51184,23.491974,0.0 120.513362,23.492929,0.0 120.517717,23.496758,0.0 120.519122,23.498399,0.0 120.520938,23.499533,0.0 120.524721,23.502376,0.0 120.525275,23.50794,0.0 120.526175,23.508349,0.0 120.529305,23.50893,0.0 120.530143,23.509616,0.0 120.529035,23.509642,0.0 120.527945,23.510129,0.0 120.525623,23.509991,0.0 120.525112,23.512524,0.0 120.526159,23.51392,0.0 120.527849,23.515145,0.0 120.527277,23.516105,0.0 120.526665,23.516812,0.0 120.526117,23.517212,0.0 120.524982,23.518091,0.0 120.524868,23.518596,0.0</coordinates></LinearRing></outerBoundaryIs></Polygon><styleUrl>#spolygon-map</styleUrl></Placemark><Placemark><Polygon><outerBoundaryIs><LinearRing><coordinates>120.515267,23.519127,0.0 120.514389,23.520144,0.0 120.513017,23.520571,0.0 120.505866,23.519413,0.0 120.501504,23.517767,0.0 120.497051,23.516032,0.0 120.494549,23.514993,0.0 120.492833,23.514147,0.0 120.490481,23.511677,0.0 120.490004,23.511567,0.0 120.48965,23.511358,0.0 120.489342,23.51117,0.0 120.488977,23.510961,0.0 120.488429,23.51065,0.0 120.487886,23.51037,0.0 120.487831,23.510038,0.0 120.487819,23.509537,0.0 120.487492,23.509308,0.0 120.486946,23.508981,0.0 120.486603,23.508772,0.0 120.486298,23.508507,0.0 120.485979,23.508172,0.0 120.485664,23.507918,0.0 120.485406,23.50773,0.0 120.485122,23.507453,0.0 120.485157,23.50725,0.0 120.485166,23.506706,0.0 120.485234,23.506343,0.0 120.485335,23.506122,0.0 120.485115,23.505993,0.0 120.484806,23.505915,0.0 120.487689,23.506746,0.0 120.491573,23.506341,0.0 120.494037,23.505036,0.0 120.497013,23.505255,0.0 120.501051,23.503031,0.0 120.504119,23.499578,0.0 120.50641,23.50857,0.0 120.508095,23.511063,0.0 120.509832,23.513836,0.0 120.51457,23.518452,0.0 120.515267,23.519127,0.0</coordinates></LinearRing></outerBoundaryIs></Polygon><styleUrl>#spolygon-map</styleUrl></Placemark><Placemark><Polygon><outerBoundaryIs><LinearRing><coordinates>120.557257,23.509465,0.0 120.553586,23.507116,0.0 120.552879,23.506918,0.0 120.550893,23.507797,0.0 120.550133,23.507339,0.0 120.549442,23.50724,0.0 120.547429,23.508146,0.0 120.546529,23.50862,0.0 120.544951,23.50841,0.0 120.54443,23.507313,0.0 120.544051,23.506836,0.0 120.543611,23.506141,0.0 120.542638,23.504989,0.0 120.542195,23.504948,0.0 120.542148,23.504026,0.0 120.541756,23.501386,0.0 120.545696,23.502247,0.0 120.549514,23.500077,0.0 120.552345,23.498509,0.0 120.547834,23.492155,0.0 120.548405,23.490267,0.0 120.549413,23.489667,0.0 120.550946,23.489983,0.0 120.551017,23.490593,0.0 120.55052,23.491366,0.0 120.551279,23.491605,0.0 120.552459,23.490974,0.0 120.553097,23.490339,0.0 120.554341,23.491,0.0 120.555709,23.491602,0.0 120.557212,23.492532,0.0 120.557359,23.493241,0.0 120.558203,23.493733,0.0 120.560455,23.49316,0.0 120.560243,23.49199,0.0 120.560365,23.491559,0.0 120.561547,23.491571,0.0 120.562456,23.4917,0.0 120.563333,23.492116,0.0 120.564599,23.491557,0.0 120.566364,23.49917,0.0 120.566771,23.501031,0.0 120.568525,23.504226,0.0 120.571891,23.508278,0.0 120.569413,23.509915,0.0 120.561253,23.510463,0.0 120.557257,23.509465,0.0</coordinates></LinearRing></outerBoundaryIs></Polygon><styleUrl>#spolygon-map</styleUrl></Placemark><Placemark><Polygon><outerBoundaryIs><LinearRing><coordinates>120.615126,23.548191,0.0 120.614586,23.548415,0.0 120.614042,23.548818,0.0 120.613395,23.549218,0.0 120.612924,23.549865,0.0 120.612816,23.550117,0.0 120.612369,23.550193,0.0 120.611789,23.550533,0.0 120.611279,23.550856,0.0 120.611011,23.55116,0.0 120.610872,23.551424,0.0 120.610638,23.551523,0.0 120.610069,23.551637,0.0 120.609599,23.551882,0.0 120.609093,23.552165,0.0 120.608644,23.552331,0.0 120.608106,23.55265,0.0 120.607831,23.552785,0.0 120.607448,23.552811,0.0 120.607088,23.552957,0.0 120.606767,23.553057,0.0 120.606431,23.553124,0.0 120.606287,23.552661,0.0 120.606194,23.55227,0.0 120.605979,23.551922,0.0 120.605609,23.551691,0.0 120.605407,23.55155,0.0 120.60525,23.551284,0.0 120.605115,23.550848,0.0 120.604872,23.55049,0.0 120.604605,23.550205,0.0 120.60432,23.550026,0.0 120.604058,23.549847,0.0 120.603698,23.549607,0.0 120.603409,23.549606,0.0 120.603132,23.549517,0.0 120.60289,23.549363,0.0 120.602578,23.549288,0.0 120.602268,23.549445,0.0 120.601768,23.549661,0.0 120.60146,23.549777,0.0 120.601223,23.549865,0.0 120.600895,23.549934,0.0 120.600453,23.549872,0.0 120.600062,23.549821,0.0 120.599683,23.549766,0.0 120.599107,23.549507,0.0 120.598745,23.549348,0.0 120.59842,23.549171,0.0 120.597988,23.548976,0.0 120.597506,23.548713,0.0 120.597033,23.548511,0.0 120.596608,23.54837,0.0 120.596206,23.548355,0.0 120.595549,23.548336,0.0 120.595177,23.548303,0.0 120.594857,23.548081,0.0 120.59481,23.547841,0.0 120.594785,23.54757,0.0 120.59481,23.547299,0.0 120.594921,23.547067,0.0 120.595028,23.546792,0.0 120.595025,23.546494,0.0 120.594828,23.54632,0.0 120.594482,23.54612,0.0 120.594172,23.545934,0.0 120.593918,23.54587,0.0 120.593613,23.545772,0.0 120.593337,23.545677,0.0 120.593078,23.545586,0.0 120.59286,23.54538,0.0 120.592693,23.545172,0.0 120.59237,23.544984,0.0 120.59212,23.544881,0.0 120.591766,23.544749,0.0 120.59148,23.544683,0.0 120.591114,23.544653,0.0 120.590738,23.544623,0.0 120.590469,23.544593,0.0 120.590231,23.544488,0.0 120.590056,23.544273,0.0 120.589902,23.544015,0.0 120.589803,23.543731,0.0 120.589723,23.543507,0.0 120.589547,23.543321,0.0 120.58928,23.543154,0.0 120.589016,23.542932,0.0 120.588863,23.542712,0.0 120.588695,23.542461,0.0 120.588522,23.54221,0.0 120.588437,23.541973,0.0 120.588308,23.541799,0.0 120.588143,23.541654,0.0 120.587816,23.541585,0.0 120.587625,23.541361,0.0 120.586003,23.535612,0.0 120.59027,23.533907,0.0 120.591099,23.53239,0.0 120.590783,23.530308,0.0 120.58894,23.528547,0.0 120.587381,23.526328,0.0 120.586454,23.525423,0.0 120.58577,23.524098,0.0 120.583737,23.523418,0.0 120.582855,23.522088,0.0 120.582645,23.52108,0.0 120.582368,23.520515,0.0 120.582425,23.520145,0.0 120.5824,23.519809,0.0 120.583168,23.519432,0.0 120.584318,23.519902,0.0 120.585601,23.520248,0.0 120.588331,23.519109,0.0 120.589747,23.520097,0.0 120.591055,23.521073,0.0 120.592784,23.520504,0.0 120.595381,23.520888,0.0 120.598738,23.521143,0.0 120.601314,23.520922,0.0 120.603294,23.522439,0.0 120.606216,23.52374,0.0 120.606906,23.524399,0.0 120.607062,23.525528,0.0 120.607036,23.526788,0.0 120.60694,23.527331,0.0 120.607737,23.527677,0.0 120.608762,23.52776,0.0 120.61011,23.528227,0.0 120.611218,23.529223,0.0 120.612192,23.529279,0.0 120.612755,23.530418,0.0 120.613116,23.531408,0.0 120.613533,23.532206,0.0 120.615426,23.532861,0.0 120.617267,23.533394,0.0 120.618697,23.532957,0.0 120.619264,23.533353,0.0 120.620753,23.534368,0.0 120.626518,23.537617,0.0 120.626316,23.537806,0.0 120.626035,23.538045,0.0 120.625727,23.538123,0.0 120.62543,23.538161,0.0 120.62509,23.538217,0.0 120.624803,23.538333,0.0 120.624432,23.538457,0.0 120.624143,23.538627,0.0 120.623895,23.538841,0.0 120.62368,23.539026,0.0 120.623224,23.539025,0.0 120.622892,23.539069,0.0 120.622506,23.539116,0.0 120.622223,23.539194,0.0 120.621814,23.539342,0.0 120.621522,23.539447,0.0 120.621173,23.539611,0.0 120.620859,23.539893,0.0 120.62063,23.540098,0.0 120.620453,23.540348,0.0 120.620292,23.540623,0.0 120.620129,23.541024,0.0 120.620046,23.541324,0.0 120.619919,23.541547,0.0 120.619759,23.541802,0.0 120.619588,23.542023,0.0 120.619386,23.542237,0.0 120.619123,23.542539,0.0 120.619048,23.54283,0.0 120.618962,23.543125,0.0 120.618923,23.543369,0.0 120.618727,23.543583,0.0 120.618474,23.54361,0.0 120.618148,23.543778,0.0 120.617823,23.543996,0.0 120.617404,23.54435,0.0 120.61722,23.544543,0.0 120.617021,23.544771,0.0 120.616722,23.545111,0.0 120.616614,23.545384,0.0 120.616421,23.545833,0.0 120.616359,23.54625,0.0 120.616333,23.54651,0.0 120.616382,23.54681,0.0 120.616383,23.547142,0.0 120.616157,23.547304,0.0 120.615769,23.547497,0.0 120.615441,23.547787,0.0 120.615217,23.548085,0.0 120.615126,23.548191,0.0</coordinates></LinearRing></outerBoundaryIs></Polygon><styleUrl>#spolygon-map</styleUrl></Placemark><Placemark><Polygon><outerBoundaryIs><LinearRing><coordinates>120.581846,23.519493,0.0 120.578431,23.520116,0.0 120.575202,23.52183,0.0 120.567566,23.522608,0.0 120.563796,23.523604,0.0 120.558577,23.523201,0.0 120.556861,23.519451,0.0 120.560451,23.515951,0.0 120.557257,23.509465,0.0 120.565421,23.510613,0.0 120.571433,23.509063,0.0 120.571303,23.507159,0.0 120.567104,23.501924,0.0 120.566499,23.50008,0.0 120.568049,23.497161,0.0 120.570636,23.497917,0.0 120.570693,23.498227,0.0 120.57042,23.498384,0.0 120.570579,23.498529,0.0 120.570986,23.498693,0.0 120.571151,23.499707,0.0 120.571822,23.499731,0.0 120.572707,23.500476,0.0 120.572641,23.502027,0.0 120.573156,23.504101,0.0 120.573576,23.504493,0.0 120.573902,23.504913,0.0 120.574578,23.505107,0.0 120.575019,23.505018,0.0 120.57567,23.50527,0.0 120.576932,23.505863,0.0 120.577542,23.506047,0.0 120.578165,23.506126,0.0 120.579328,23.506596,0.0 120.579828,23.506553,0.0 120.580403,23.507015,0.0 120.580899,23.50695,0.0 120.581687,23.507029,0.0 120.582859,23.508141,0.0 120.583358,23.50809,0.0 120.583833,23.508209,0.0 120.584396,23.508569,0.0 120.585035,23.508266,0.0 120.585959,23.508316,0.0 120.586758,23.507725,0.0 120.588091,23.506656,0.0 120.589172,23.506225,0.0 120.58979,23.506125,0.0 120.591107,23.505321,0.0 120.593275,23.505071,0.0 120.59203,23.510204,0.0 120.591908,23.513764,0.0 120.592493,23.517117,0.0 120.593135,23.519559,0.0 120.592109,23.520898,0.0 120.59031,23.520753,0.0 120.588974,23.51919,0.0 120.587417,23.519319,0.0 120.585034,23.520466,0.0 120.583839,23.51958,0.0 120.581846,23.519493,0.0</coordinates></LinearRing></outerBoundaryIs></Polygon><styleUrl>#spolygon-map</styleUrl></Placemark><Placemark><Polygon><outerBoundaryIs><LinearRing><coordinates>120.484707,23.505874,0.0 120.484198,23.505694,0.0 120.483655,23.50557,0.0 120.483408,23.505502,0.0 120.483275,23.505219,0.0 120.483327,23.504829,0.0 120.483421,23.504323,0.0 120.483901,23.504068,0.0 120.484041,23.503576,0.0 120.483978,23.503027,0.0 120.484423,23.502566,0.0 120.484668,23.501885,0.0 120.484632,23.50119,0.0 120.484395,23.500205,0.0 120.484521,23.499404,0.0 120.484652,23.499047,0.0 120.48424,23.498628,0.0 120.48385,23.498365,0.0 120.483754,23.498033,0.0 120.483678,23.497392,0.0 120.483638,23.496908,0.0 120.483647,23.496493,0.0 120.484323,23.49513,0.0 120.484946,23.494597,0.0 120.485409,23.494099,0.0 120.485922,23.493557,0.0 120.486383,23.493249,0.0 120.486846,23.492984,0.0 120.487253,23.492588,0.0 120.487378,23.492148,0.0 120.488047,23.491961,0.0 120.488542,23.491974,0.0 120.489055,23.491569,0.0 120.489548,23.491442,0.0 120.490246,23.491311,0.0 120.491549,23.491153,0.0 120.492539,23.491337,0.0 120.493648,23.491029,0.0 120.494096,23.490308,0.0 120.494971,23.490096,0.0 120.49603,23.490098,0.0 120.496918,23.490502,0.0 120.497482,23.490646,0.0 120.497888,23.490738,0.0 120.49875,23.490813,0.0 120.499174,23.490663,0.0 120.500017,23.490709,0.0 120.500369,23.490321,0.0 120.500731,23.490002,0.0 120.501242,23.489909,0.0 120.501476,23.489372,0.0 120.50193,23.488694,0.0 120.502755,23.487683,0.0 120.50352,23.487313,0.0 120.50395,23.487502,0.0 120.504197,23.487171,0.0 120.504588,23.486721,0.0 120.505003,23.486471,0.0 120.505489,23.485511,0.0 120.506053,23.484725,0.0 120.506665,23.484384,0.0 120.507356,23.483964,0.0 120.507742,23.48311,0.0 120.50817,23.482739,0.0 120.508393,23.48296,0.0 120.508504,23.483205,0.0 120.508578,23.483548,0.0 120.508837,23.483395,0.0 120.509056,23.483209,0.0 120.509317,23.483234,0.0 120.509646,23.483312,0.0 120.509973,23.483417,0.0 120.510346,23.483666,0.0 120.510809,23.483526,0.0 120.511054,23.483434,0.0 120.511409,23.483661,0.0 120.511771,23.483982,0.0 120.511938,23.484161,0.0 120.512174,23.484343,0.0 120.512533,23.484163,0.0 120.512883,23.483882,0.0 120.513118,23.483662,0.0 120.513432,23.48352,0.0 120.51357,23.48325,0.0 120.513629,23.482972,0.0 120.513844,23.482659,0.0 120.514281,23.482259,0.0 120.514649,23.481905,0.0 120.514886,23.481692,0.0 120.515287,23.481431,0.0 120.515575,23.48136,0.0 120.515977,23.481345,0.0 120.516253,23.48138,0.0 120.516533,23.481401,0.0 120.51696,23.481396,0.0 120.517337,23.481438,0.0 120.517658,23.481499,0.0 120.51801,23.481501,0.0 120.518389,23.481375,0.0 120.518688,23.481297,0.0 120.51896,23.481149,0.0 120.519282,23.481055,0.0 120.519559,23.480943,0.0 120.519864,23.480856,0.0 120.520156,23.48085,0.0 120.520546,23.48086,0.0 120.52097,23.480943,0.0 120.521364,23.480897,0.0 120.521724,23.480749,0.0 120.521977,23.480687,0.0 120.522304,23.48066,0.0 120.522601,23.48051,0.0 120.52294,23.480373,0.0 120.523332,23.48032,0.0 120.523727,23.480335,0.0 120.524113,23.480334,0.0 120.524496,23.480329,0.0 120.524929,23.48033,0.0 120.525192,23.480448,0.0 120.525343,23.480683,0.0 120.52554,23.480957,0.0 120.525682,23.481253,0.0 120.525877,23.481387,0.0 120.526157,23.481234,0.0 120.526438,23.481136,0.0 120.526792,23.481067,0.0 120.526912,23.480896,0.0 120.526867,23.480647,0.0 120.526969,23.480435,0.0 120.526995,23.480194,0.0 120.527104,23.480018,0.0 120.527312,23.479881,0.0 120.527466,23.479726,0.0 120.527761,23.479738,0.0 120.528094,23.479917,0.0 120.528357,23.480087,0.0 120.528667,23.479946,0.0 120.528929,23.479714,0.0 120.529208,23.479505,0.0 120.529455,23.479298,0.0 120.529708,23.479168,0.0 120.529936,23.47902,0.0 120.530215,23.478874,0.0 120.530499,23.478879,0.0 120.530869,23.478786,0.0 120.531209,23.478818,0.0 120.531594,23.478862,0.0 120.531906,23.478829,0.0 120.532241,23.478961,0.0 120.532478,23.479145,0.0 120.532702,23.479432,0.0 120.532862,23.479751,0.0 120.532868,23.480119,0.0 120.532849,23.480431,0.0 120.532815,23.480717,0.0 120.532753,23.481157,0.0 120.532709,23.481399,0.0 120.532722,23.481669,0.0 120.532815,23.481914,0.0 120.53277,23.482128,0.0 120.532819,23.482361,0.0 120.532824,23.482744,0.0 120.532832,23.483006,0.0 120.532822,23.483376,0.0 120.532829,23.483715,0.0 120.532817,23.48409,0.0 120.532787,23.484478,0.0 120.532769,23.484778,0.0 120.532762,23.485081,0.0 120.532786,23.485422,0.0 120.532779,23.485706,0.0 120.532952,23.48577,0.0 120.533017,23.486077,0.0 120.533066,23.486344,0.0 120.533273,23.48664,0.0 120.53338,23.486889,0.0 120.533461,23.4872,0.0 120.533553,23.487485,0.0 120.533692,23.487711,0.0 120.533994,23.487983,0.0 120.534236,23.488074,0.0 120.534621,23.488066,0.0 120.534844,23.487979,0.0 120.535132,23.487955,0.0 120.535388,23.488028,0.0 120.535802,23.488189,0.0 120.536075,23.488375,0.0 120.535612,23.488392,0.0 120.535278,23.488443,0.0 120.534851,23.488566,0.0 120.534419,23.488756,0.0 120.534127,23.488916,0.0 120.533821,23.48912,0.0 120.533572,23.489293,0.0 120.533365,23.489482,0.0 120.533288,23.489737,0.0 120.533315,23.489986,0.0 120.533455,23.490318,0.0 120.533722,23.490502,0.0 120.534067,23.49064,0.0 120.53443,23.490788,0.0 120.534772,23.490902,0.0 120.534749,23.491726,0.0 120.535019,23.492467,0.0 120.534247,23.493582,0.0 120.534304,23.495316,0.0 120.534045,23.495799,0.0 120.532408,23.497211,0.0 120.53024,23.49769,0.0 120.528638,23.497354,0.0 120.526501,23.497455,0.0 120.525525,23.497297,0.0 120.524417,23.497338,0.0 120.522807,23.498051,0.0 120.519992,23.499176,0.0 120.518796,23.497357,0.0 120.515521,23.495826,0.0 120.512296,23.491976,0.0 120.511404,23.492212,0.0 120.509423,23.492095,0.0 120.507334,23.494664,0.0 120.505284,23.497252,0.0 120.503274,23.50074,0.0 120.50042,23.503494,0.0 120.496322,23.505589,0.0 120.493472,23.505097,0.0 120.491327,23.506578,0.0 120.486817,23.506534,0.0 120.484707,23.505874,0.0</coordinates></LinearRing></outerBoundaryIs></Polygon><styleUrl>#spolygon-map</styleUrl></Placemark></Document>
</kml>
