<?xml version="1.0" encoding="UTF-8"?>
<kml xmlns="http://www.opengis.net/kml/2.2">
	<Document>
		<name>宜蘭縣宜蘭市</name>
		<Style id="spolygon">
			<LabelStyle>
				<scale>0.0</scale>
			</LabelStyle>
			<LineStyle>
				<color>330030ff</color>
				<width>0</width>
			</LineStyle>
			<PolyStyle>
				<color>330030ff</color>
			</PolyStyle>
		</Style>
		<StyleMap id="spolygon-map">
			<Pair>
				<key>normal</key>
				<styleUrl>#spolygon</styleUrl>
			</Pair>
		</StyleMap>
	<Placemark><Polygon><outerBoundaryIs><LinearRing><coordinates>121.756534,24.75462,0.0 121.755663,24.755056,0.0 121.755055,24.754728,0.0 121.753966,24.754475,0.0 121.753051,24.754355,0.0 121.751569,24.753117,0.0 121.75345,24.751211,0.0 121.753886,24.750001,0.0 121.754902,24.750455,0.0 121.755636,24.752354,0.0 121.756086,24.753509,0.0 121.756534,24.75462,0.0</coordinates></LinearRing></outerBoundaryIs></Polygon><styleUrl>#spolygon-map</styleUrl></Placemark><Placemark><Polygon><outerBoundaryIs><LinearRing><coordinates>121.753765,24.750358,0.0 121.752829,24.752858,0.0 121.751507,24.753074,0.0 121.75127,24.752343,0.0 121.751126,24.751915,0.0 121.750853,24.75094,0.0 121.750647,24.750181,0.0 121.751649,24.750125,0.0 121.752043,24.749854,0.0 121.7523,24.749805,0.0 121.752759,24.749738,0.0 121.752941,24.749336,0.0 121.753344,24.748431,0.0 121.753343,24.747486,0.0 121.752646,24.747267,0.0 121.752952,24.746477,0.0 121.753203,24.745881,0.0 121.754635,24.744996,0.0 121.755076,24.744806,0.0 121.755214,24.744685,0.0 121.755497,24.743993,0.0 121.755414,24.74369,0.0 121.75579,24.743368,0.0 121.756334,24.743473,0.0 121.755477,24.745892,0.0 121.754861,24.747399,0.0 121.754022,24.7497,0.0 121.753765,24.750358,0.0</coordinates></LinearRing></outerBoundaryIs></Polygon><styleUrl>#spolygon-map</styleUrl></Placemark><Placemark><Polygon><outerBoundaryIs><LinearRing><coordinates>121.752861,24.756341,0.0 121.752793,24.756399,0.0 121.75246,24.756525,0.0 121.752059,24.754914,0.0 121.752644,24.754388,0.0 121.753137,24.754698,0.0 121.753282,24.75526,0.0 121.753455,24.75591,0.0 121.75314,24.756358,0.0 121.752997,24.756358,0.0 121.752861,24.756341,0.0</coordinates></LinearRing></outerBoundaryIs></Polygon><styleUrl>#spolygon-map</styleUrl></Placemark><Placemark><Polygon><outerBoundaryIs><LinearRing><coordinates>121.755279,24.755643,0.0 121.755407,24.755991,0.0 121.753571,24.756377,0.0 121.753354,24.755538,0.0 121.75319,24.754899,0.0 121.753051,24.754355,0.0 121.753966,24.754475,0.0 121.755055,24.754728,0.0 121.755663,24.755056,0.0 121.755565,24.755761,0.0 121.755279,24.755643,0.0</coordinates></LinearRing></outerBoundaryIs></Polygon><styleUrl>#spolygon-map</styleUrl></Placemark><Placemark><Polygon><outerBoundaryIs><LinearRing><coordinates>121.756945,24.755718,0.0 121.75758,24.758273,0.0 121.756228,24.757017,0.0 121.755758,24.755685,0.0 121.756945,24.755718,0.0</coordinates></LinearRing></outerBoundaryIs></Polygon><styleUrl>#spolygon-map</styleUrl></Placemark><Placemark><Polygon><outerBoundaryIs><LinearRing><coordinates>121.761477,24.756315,0.0 121.760389,24.757584,0.0 121.759853,24.757904,0.0 121.758822,24.758057,0.0 121.756945,24.755718,0.0 121.758342,24.754626,0.0 121.759362,24.753984,0.0 121.761935,24.75536,0.0 121.761477,24.756315,0.0</coordinates></LinearRing></outerBoundaryIs></Polygon><styleUrl>#spolygon-map</styleUrl></Placemark><Placemark><Polygon><outerBoundaryIs><LinearRing><coordinates>121.756614,24.750167,0.0 121.756794,24.750829,0.0 121.756954,24.75494,0.0 121.756355,24.754176,0.0 121.755899,24.753049,0.0 121.755351,24.751608,0.0 121.754563,24.749844,0.0 121.754713,24.747808,0.0 121.755463,24.745926,0.0 121.756226,24.743781,0.0 121.756467,24.743971,0.0 121.756918,24.744182,0.0 121.757429,24.744179,0.0 121.757637,24.744183,0.0 121.757926,24.744446,0.0 121.758362,24.74518,0.0 121.759585,24.744874,0.0 121.759588,24.744702,0.0 121.763244,24.746605,0.0 121.763242,24.747876,0.0 121.759275,24.747882,0.0 121.758255,24.750333,0.0 121.756614,24.750167,0.0</coordinates></LinearRing></outerBoundaryIs></Polygon><styleUrl>#spolygon-map</styleUrl></Placemark><Placemark><Polygon><outerBoundaryIs><LinearRing><coordinates>121.754294,24.745934,0.0 121.752348,24.745299,0.0 121.75032,24.744751,0.0 121.749794,24.744961,0.0 121.749556,24.744773,0.0 121.748354,24.74479,0.0 121.745444,24.744947,0.0 121.744447,24.745075,0.0 121.74252,24.745534,0.0 121.742008,24.74457,0.0 121.740092,24.742707,0.0 121.738987,24.740172,0.0 121.737395,24.740069,0.0 121.736856,24.737904,0.0 121.73457,24.734059,0.0 121.737392,24.732332,0.0 121.73985,24.731723,0.0 121.73994,24.73064,0.0 121.740914,24.730864,0.0 121.741095,24.728464,0.0 121.744811,24.726954,0.0 121.74325,24.728429,0.0 121.743101,24.730621,0.0 121.742137,24.731897,0.0 121.741412,24.732859,0.0 121.740554,24.735967,0.0 121.741296,24.736285,0.0 121.741998,24.736595,0.0 121.743001,24.737157,0.0 121.743255,24.737689,0.0 121.744553,24.737713,0.0 121.745621,24.737661,0.0 121.746321,24.737767,0.0 121.746836,24.737759,0.0 121.747493,24.737296,0.0 121.747886,24.737278,0.0 121.749291,24.737471,0.0 121.749754,24.737894,0.0 121.749985,24.738299,0.0 121.750743,24.738703,0.0 121.751363,24.73904,0.0 121.752111,24.73987,0.0 121.75215,24.740324,0.0 121.753191,24.740595,0.0 121.75369,24.740754,0.0 121.754489,24.741732,0.0 121.755324,24.742291,0.0 121.75586,24.743221,0.0 121.755475,24.743558,0.0 121.755395,24.743904,0.0 121.755238,24.744599,0.0 121.755146,24.744772,0.0 121.754739,24.745038,0.0 121.754294,24.745934,0.0</coordinates></LinearRing></outerBoundaryIs></Polygon><styleUrl>#spolygon-map</styleUrl></Placemark><Placemark><Polygon><outerBoundaryIs><LinearRing><coordinates>121.744335,24.737713,0.0 121.743273,24.73757,0.0 121.742893,24.737073,0.0 121.74212,24.736354,0.0 121.741221,24.736215,0.0 121.740581,24.735345,0.0 121.741435,24.732677,0.0 121.742595,24.731394,0.0 121.743139,24.730503,0.0 121.743348,24.728226,0.0 121.74238,24.726993,0.0 121.741013,24.729558,0.0 121.74036,24.730671,0.0 121.739916,24.730809,0.0 121.740341,24.73176,0.0 121.736479,24.732374,0.0 121.734772,24.731471,0.0 121.733292,24.73018,0.0 121.733494,24.728208,0.0 121.733771,24.727332,0.0 121.734308,24.725851,0.0 121.734806,24.724345,0.0 121.735957,24.724759,0.0 121.736415,24.725696,0.0 121.736908,24.726174,0.0 121.73768,24.726426,0.0 121.738375,24.726416,0.0 121.739242,24.725794,0.0 121.740044,24.725221,0.0 121.740599,24.7253,0.0 121.741241,24.725226,0.0 121.743403,24.724158,0.0 121.744568,24.724268,0.0 121.746791,24.722566,0.0 121.752835,24.722405,0.0 121.755019,24.72356,0.0 121.755206,24.724139,0.0 121.750181,24.72508,0.0 121.749828,24.727435,0.0 121.749745,24.728149,0.0 121.749498,24.728997,0.0 121.748683,24.731599,0.0 121.75088,24.73462,0.0 121.746407,24.733733,0.0 121.744335,24.737713,0.0</coordinates></LinearRing></outerBoundaryIs></Polygon><styleUrl>#spolygon-map</styleUrl></Placemark><Placemark><Polygon><outerBoundaryIs><LinearRing><coordinates>121.758664,24.744603,0.0 121.75793,24.74441,0.0 121.757532,24.744115,0.0 121.757353,24.744214,0.0 121.756708,24.744108,0.0 121.756371,24.743877,0.0 121.756334,24.743473,0.0 121.755242,24.742766,0.0 121.754648,24.741807,0.0 121.753763,24.740799,0.0 121.753303,24.74062,0.0 121.752245,24.740354,0.0 121.752126,24.739993,0.0 121.751452,24.739078,0.0 121.750943,24.738743,0.0 121.749993,24.738305,0.0 121.749777,24.737977,0.0 121.749469,24.737546,0.0 121.748403,24.737395,0.0 121.747582,24.737233,0.0 121.747021,24.737637,0.0 121.746495,24.737766,0.0 121.745793,24.737693,0.0 121.745044,24.737693,0.0 121.747351,24.734138,0.0 121.751419,24.733824,0.0 121.749423,24.730182,0.0 121.749755,24.728579,0.0 121.750095,24.72765,0.0 121.749755,24.727074,0.0 121.750398,24.724145,0.0 121.75521,24.723856,0.0 121.75503,24.72326,0.0 121.7563,24.723638,0.0 121.758125,24.723209,0.0 121.759214,24.722328,0.0 121.759735,24.722439,0.0 121.759272,24.724049,0.0 121.760916,24.724819,0.0 121.761024,24.725746,0.0 121.762316,24.726964,0.0 121.760951,24.730907,0.0 121.761508,24.732159,0.0 121.760453,24.734193,0.0 121.760879,24.734901,0.0 121.759972,24.736179,0.0 121.759519,24.736957,0.0 121.759537,24.737101,0.0 121.759319,24.737169,0.0 121.759571,24.739816,0.0 121.758477,24.740626,0.0 121.759355,24.743281,0.0 121.758664,24.744603,0.0</coordinates></LinearRing></outerBoundaryIs></Polygon><styleUrl>#spolygon-map</styleUrl></Placemark><Placemark><Polygon><outerBoundaryIs><LinearRing><coordinates>121.764128,24.725825,0.0 121.763505,24.727403,0.0 121.76165,24.725923,0.0 121.761019,24.725372,0.0 121.760001,24.724422,0.0 121.759988,24.723509,0.0 121.759691,24.721328,0.0 121.76032,24.719652,0.0 121.761152,24.719002,0.0 121.761949,24.718114,0.0 121.761719,24.717259,0.0 121.761371,24.716442,0.0 121.763238,24.715511,0.0 121.764713,24.713759,0.0 121.76749,24.713298,0.0 121.769222,24.713271,0.0 121.772345,24.713731,0.0 121.775894,24.714826,0.0 121.774155,24.715758,0.0 121.773508,24.718792,0.0 121.774039,24.72148,0.0 121.774902,24.724977,0.0 121.770783,24.719623,0.0 121.767922,24.725079,0.0 121.766315,24.725749,0.0 121.765382,24.725763,0.0 121.764128,24.725825,0.0</coordinates></LinearRing></outerBoundaryIs></Polygon><styleUrl>#spolygon-map</styleUrl></Placemark><Placemark><Polygon><outerBoundaryIs><LinearRing><coordinates>121.766312,24.737717,0.0 121.760587,24.742381,0.0 121.758477,24.740626,0.0 121.759571,24.739816,0.0 121.759319,24.737169,0.0 121.759537,24.737101,0.0 121.759519,24.736957,0.0 121.759972,24.736179,0.0 121.760879,24.734901,0.0 121.760453,24.734193,0.0 121.761508,24.732159,0.0 121.760951,24.730907,0.0 121.762316,24.726964,0.0 121.763529,24.726892,0.0 121.764599,24.725698,0.0 121.765937,24.72597,0.0 121.767132,24.725691,0.0 121.769338,24.720695,0.0 121.771698,24.722199,0.0 121.774932,24.725105,0.0 121.775573,24.729276,0.0 121.775696,24.73491,0.0 121.773684,24.736648,0.0 121.772551,24.736272,0.0 121.771984,24.735855,0.0 121.771478,24.73569,0.0 121.770103,24.735897,0.0 121.768063,24.736798,0.0 121.766312,24.737717,0.0</coordinates></LinearRing></outerBoundaryIs></Polygon><styleUrl>#spolygon-map</styleUrl></Placemark><Placemark><Polygon><outerBoundaryIs><LinearRing><coordinates>121.783612,24.744388,0.0 121.782543,24.747672,0.0 121.781055,24.748335,0.0 121.779724,24.748915,0.0 121.777581,24.749376,0.0 121.7754,24.749808,0.0 121.773405,24.750235,0.0 121.772066,24.750505,0.0 121.768229,24.751334,0.0 121.767865,24.750165,0.0 121.768058,24.747855,0.0 121.768955,24.742908,0.0 121.763573,24.742542,0.0 121.763795,24.739497,0.0 121.767439,24.736827,0.0 121.769939,24.735915,0.0 121.771334,24.735697,0.0 121.771893,24.735834,0.0 121.77247,24.736147,0.0 121.773483,24.736629,0.0 121.775934,24.735872,0.0 121.776865,24.738177,0.0 121.777927,24.738348,0.0 121.778967,24.738028,0.0 121.78041,24.738509,0.0 121.785319,24.738817,0.0 121.783612,24.744388,0.0</coordinates></LinearRing></outerBoundaryIs></Polygon><styleUrl>#spolygon-map</styleUrl></Placemark><Placemark><Polygon><outerBoundaryIs><LinearRing><coordinates>121.761812,24.755424,0.0 121.759454,24.754217,0.0 121.758225,24.754267,0.0 121.756607,24.750167,0.0 121.75787,24.75022,0.0 121.759266,24.747923,0.0 121.763212,24.748137,0.0 121.763559,24.746675,0.0 121.759609,24.744545,0.0 121.759585,24.744833,0.0 121.759031,24.745045,0.0 121.759355,24.743281,0.0 121.761095,24.742365,0.0 121.76785,24.742838,0.0 121.76827,24.745611,0.0 121.767933,24.749367,0.0 121.76778,24.751441,0.0 121.766017,24.751797,0.0 121.765229,24.752019,0.0 121.764927,24.752298,0.0 121.763913,24.753493,0.0 121.7628,24.7548,0.0 121.762257,24.755431,0.0 121.761812,24.755424,0.0</coordinates></LinearRing></outerBoundaryIs></Polygon><styleUrl>#spolygon-map</styleUrl></Placemark><Placemark><Polygon><outerBoundaryIs><LinearRing><coordinates>121.768109,24.761808,0.0 121.765734,24.761812,0.0 121.765199,24.761498,0.0 121.765385,24.761196,0.0 121.765516,24.759599,0.0 121.765591,24.759129,0.0 121.76559,24.758263,0.0 121.764406,24.757819,0.0 121.764336,24.757402,0.0 121.764043,24.75718,0.0 121.764151,24.756813,0.0 121.763707,24.756366,0.0 121.763872,24.756059,0.0 121.763636,24.755515,0.0 121.763332,24.755299,0.0 121.762549,24.755096,0.0 121.763792,24.753625,0.0 121.764642,24.752627,0.0 121.765142,24.752074,0.0 121.765851,24.75183,0.0 121.767128,24.751575,0.0 121.770819,24.750779,0.0 121.772361,24.750456,0.0 121.774006,24.750103,0.0 121.776502,24.749576,0.0 121.778737,24.749135,0.0 121.780961,24.748378,0.0 121.782528,24.747758,0.0 121.782837,24.747891,0.0 121.783111,24.748572,0.0 121.785071,24.748679,0.0 121.785241,24.748767,0.0 121.785892,24.750451,0.0 121.786511,24.751102,0.0 121.78453,24.751224,0.0 121.782055,24.753842,0.0 121.782075,24.75622,0.0 121.781162,24.757079,0.0 121.779733,24.758219,0.0 121.778487,24.75932,0.0 121.776927,24.759782,0.0 121.775023,24.760875,0.0 121.772842,24.761715,0.0 121.771397,24.761548,0.0 121.769172,24.761555,0.0 121.768109,24.761808,0.0</coordinates></LinearRing></outerBoundaryIs></Polygon><styleUrl>#spolygon-map</styleUrl></Placemark><Placemark><Polygon><outerBoundaryIs><LinearRing><coordinates>121.776817,24.768216,0.0 121.776557,24.768486,0.0 121.774698,24.767908,0.0 121.773985,24.76772,0.0 121.772377,24.766532,0.0 121.771338,24.764434,0.0 121.766678,24.76506,0.0 121.765414,24.761854,0.0 121.767594,24.761916,0.0 121.7701,24.761486,0.0 121.771803,24.761622,0.0 121.773399,24.761631,0.0 121.775597,24.760373,0.0 121.777308,24.759646,0.0 121.777911,24.760112,0.0 121.778423,24.760495,0.0 121.785913,24.755065,0.0 121.788527,24.756371,0.0 121.788432,24.756992,0.0 121.788174,24.757794,0.0 121.789208,24.758581,0.0 121.788652,24.758979,0.0 121.787585,24.760885,0.0 121.787095,24.761867,0.0 121.78675,24.761925,0.0 121.785968,24.763487,0.0 121.782965,24.763119,0.0 121.781093,24.763851,0.0 121.780685,24.766144,0.0 121.77923,24.766777,0.0 121.777826,24.767635,0.0 121.776817,24.768216,0.0</coordinates></LinearRing></outerBoundaryIs></Polygon><styleUrl>#spolygon-map</styleUrl></Placemark><Placemark><Polygon><outerBoundaryIs><LinearRing><coordinates>121.763888,24.76199,0.0 121.761817,24.763418,0.0 121.760458,24.762005,0.0 121.759273,24.760364,0.0 121.758907,24.758091,0.0 121.759853,24.757904,0.0 121.760389,24.757584,0.0 121.761477,24.756315,0.0 121.762468,24.755188,0.0 121.763297,24.755295,0.0 121.763555,24.755451,0.0 121.763917,24.75597,0.0 121.763691,24.756364,0.0 121.764057,24.756696,0.0 121.764116,24.757163,0.0 121.76422,24.757376,0.0 121.764351,24.757685,0.0 121.765387,24.758158,0.0 121.76559,24.758666,0.0 121.765539,24.759475,0.0 121.765403,24.761068,0.0 121.76523,24.761339,0.0 121.765171,24.761914,0.0 121.763888,24.76199,0.0</coordinates></LinearRing></outerBoundaryIs></Polygon><styleUrl>#spolygon-map</styleUrl></Placemark><Placemark><Polygon><outerBoundaryIs><LinearRing><coordinates>121.756228,24.757017,0.0 121.753525,24.757669,0.0 121.75254,24.756505,0.0 121.752789,24.756373,0.0 121.752985,24.756315,0.0 121.753136,24.756341,0.0 121.753571,24.756377,0.0 121.755407,24.755991,0.0 121.755279,24.755643,0.0 121.755565,24.755761,0.0 121.756228,24.757017,0.0</coordinates></LinearRing></outerBoundaryIs></Polygon><styleUrl>#spolygon-map</styleUrl></Placemark><Placemark><Polygon><outerBoundaryIs><LinearRing><coordinates>121.756321,24.757259,0.0 121.753858,24.758884,0.0 121.753525,24.757669,0.0 121.756228,24.757017,0.0 121.756321,24.757259,0.0</coordinates></LinearRing></outerBoundaryIs></Polygon><styleUrl>#spolygon-map</styleUrl></Placemark><Placemark><Polygon><outerBoundaryIs><LinearRing><coordinates>121.756776,24.758587,0.0 121.755426,24.759418,0.0 121.754389,24.760057,0.0 121.75391,24.760253,0.0 121.753412,24.760459,0.0 121.753858,24.758884,0.0 121.756776,24.758587,0.0</coordinates></LinearRing></outerBoundaryIs></Polygon><styleUrl>#spolygon-map</styleUrl></Placemark><Placemark><Polygon><outerBoundaryIs><LinearRing><coordinates>121.76064,24.762472,0.0 121.75971,24.76303,0.0 121.758789,24.762529,0.0 121.757584,24.762891,0.0 121.756426,24.761847,0.0 121.757123,24.759571,0.0 121.75758,24.758273,0.0 121.758907,24.758091,0.0 121.759273,24.760364,0.0 121.760458,24.762005,0.0 121.76064,24.762472,0.0</coordinates></LinearRing></outerBoundaryIs></Polygon><styleUrl>#spolygon-map</styleUrl></Placemark><Placemark><Polygon><outerBoundaryIs><LinearRing><coordinates>121.759284,24.763277,0.0 121.757928,24.763964,0.0 121.756381,24.764359,0.0 121.756487,24.763244,0.0 121.755509,24.762137,0.0 121.755495,24.761641,0.0 121.755453,24.761261,0.0 121.755382,24.760848,0.0 121.755426,24.759418,0.0 121.756776,24.758587,0.0 121.757063,24.761625,0.0 121.757093,24.763047,0.0 121.758571,24.762599,0.0 121.759284,24.763277,0.0</coordinates></LinearRing></outerBoundaryIs></Polygon><styleUrl>#spolygon-map</styleUrl></Placemark><Placemark><Polygon><outerBoundaryIs><LinearRing><coordinates>121.756487,24.763244,0.0 121.755375,24.763579,0.0 121.754519,24.763623,0.0 121.754754,24.763386,0.0 121.754636,24.762899,0.0 121.754461,24.762041,0.0 121.753686,24.760347,0.0 121.754052,24.760195,0.0 121.755148,24.760336,0.0 121.755491,24.761174,0.0 121.755425,24.761441,0.0 121.755431,24.761969,0.0 121.756319,24.762755,0.0 121.756487,24.763244,0.0</coordinates></LinearRing></outerBoundaryIs></Polygon><styleUrl>#spolygon-map</styleUrl></Placemark><Placemark><Polygon><outerBoundaryIs><LinearRing><coordinates>121.760974,24.782925,0.0 121.760603,24.782644,0.0 121.760012,24.780695,0.0 121.759035,24.777385,0.0 121.757938,24.773756,0.0 121.757314,24.771768,0.0 121.756413,24.768786,0.0 121.756096,24.767475,0.0 121.756005,24.766911,0.0 121.755824,24.766821,0.0 121.756464,24.766103,0.0 121.757635,24.765844,0.0 121.759421,24.764783,0.0 121.762535,24.762981,0.0 121.764108,24.761915,0.0 121.765954,24.763389,0.0 121.767424,24.765709,0.0 121.770952,24.766252,0.0 121.77174,24.767821,0.0 121.770582,24.770261,0.0 121.771186,24.770524,0.0 121.77186,24.770911,0.0 121.77071,24.771789,0.0 121.769465,24.771542,0.0 121.76837,24.771128,0.0 121.767949,24.77116,0.0 121.768262,24.772047,0.0 121.767616,24.772102,0.0 121.767047,24.772534,0.0 121.767416,24.773266,0.0 121.76708,24.773778,0.0 121.766753,24.774725,0.0 121.766065,24.77509,0.0 121.765709,24.775423,0.0 121.765279,24.775337,0.0 121.764876,24.775841,0.0 121.765,24.776506,0.0 121.764495,24.776975,0.0 121.763991,24.777858,0.0 121.763906,24.778358,0.0 121.763327,24.778193,0.0 121.763163,24.779054,0.0 121.762208,24.779716,0.0 121.762145,24.780299,0.0 121.762367,24.78071,0.0 121.762365,24.781358,0.0 121.762617,24.781513,0.0 121.762788,24.781735,0.0 121.761986,24.78233,0.0 121.760974,24.782925,0.0</coordinates></LinearRing></outerBoundaryIs></Polygon><styleUrl>#spolygon-map</styleUrl></Placemark><Placemark><Polygon><outerBoundaryIs><LinearRing><coordinates>121.760603,24.782644,0.0 121.760509,24.782898,0.0 121.759377,24.782606,0.0 121.758931,24.782504,0.0 121.759101,24.781912,0.0 121.758068,24.780972,0.0 121.757698,24.780612,0.0 121.756682,24.780286,0.0 121.755844,24.780488,0.0 121.75472,24.781031,0.0 121.753539,24.780875,0.0 121.75261,24.780823,0.0 121.751734,24.780448,0.0 121.751143,24.780221,0.0 121.750304,24.780627,0.0 121.749722,24.781038,0.0 121.749412,24.780643,0.0 121.748091,24.780324,0.0 121.747287,24.780098,0.0 121.746465,24.780332,0.0 121.745851,24.77986,0.0 121.745446,24.778916,0.0 121.744973,24.778591,0.0 121.744572,24.778667,0.0 121.744328,24.777901,0.0 121.743807,24.777856,0.0 121.743551,24.777365,0.0 121.745757,24.775642,0.0 121.749792,24.772961,0.0 121.75126,24.77152,0.0 121.752033,24.771013,0.0 121.752621,24.770561,0.0 121.753235,24.770093,0.0 121.753651,24.76978,0.0 121.754402,24.769283,0.0 121.754829,24.769044,0.0 121.755059,24.768923,0.0 121.755299,24.768576,0.0 121.7557,24.767846,0.0 121.756422,24.768811,0.0 121.757413,24.772075,0.0 121.758334,24.775064,0.0 121.759289,24.778294,0.0 121.760078,24.780908,0.0 121.760603,24.782644,0.0</coordinates></LinearRing></outerBoundaryIs></Polygon><styleUrl>#spolygon-map</styleUrl></Placemark><Placemark><Polygon><outerBoundaryIs><LinearRing><coordinates>121.75605,24.767037,0.0 121.755981,24.767677,0.0 121.755666,24.76815,0.0 121.755205,24.768802,0.0 121.7549,24.769018,0.0 121.754459,24.769254,0.0 121.754138,24.769415,0.0 121.753588,24.769871,0.0 121.753099,24.770185,0.0 121.752277,24.770828,0.0 121.751615,24.771292,0.0 121.750593,24.771951,0.0 121.748813,24.773061,0.0 121.745509,24.769746,0.0 121.747869,24.765898,0.0 121.748209,24.76565,0.0 121.749295,24.764676,0.0 121.752405,24.765544,0.0 121.755366,24.765997,0.0 121.755909,24.766882,0.0 121.75605,24.767037,0.0</coordinates></LinearRing></outerBoundaryIs></Polygon><styleUrl>#spolygon-map</styleUrl></Placemark><Placemark><Polygon><outerBoundaryIs><LinearRing><coordinates>121.735697,24.78253,0.0 121.734168,24.783138,0.0 121.732075,24.784471,0.0 121.73043,24.784459,0.0 121.729606,24.782835,0.0 121.729523,24.781962,0.0 121.730389,24.780628,0.0 121.731367,24.778306,0.0 121.732482,24.776874,0.0 121.733651,24.775152,0.0 121.733241,24.771334,0.0 121.734093,24.769047,0.0 121.732656,24.767294,0.0 121.732172,24.76519,0.0 121.732573,24.764167,0.0 121.73428,24.762927,0.0 121.735206,24.761971,0.0 121.735317,24.761639,0.0 121.735501,24.761104,0.0 121.735941,24.760524,0.0 121.736345,24.760064,0.0 121.736649,24.75948,0.0 121.736546,24.759264,0.0 121.737111,24.758676,0.0 121.73942,24.758513,0.0 121.742506,24.757324,0.0 121.743763,24.757666,0.0 121.745772,24.760012,0.0 121.749372,24.763046,0.0 121.748795,24.765112,0.0 121.748101,24.765792,0.0 121.74863,24.767211,0.0 121.748747,24.772975,0.0 121.748237,24.773934,0.0 121.744247,24.776845,0.0 121.743408,24.777417,0.0 121.742163,24.778033,0.0 121.741053,24.778942,0.0 121.739946,24.780178,0.0 121.73769,24.781872,0.0 121.736857,24.782062,0.0 121.73609,24.782104,0.0 121.735697,24.78253,0.0</coordinates></LinearRing></outerBoundaryIs></Polygon><styleUrl>#spolygon-map</styleUrl></Placemark><Placemark><Polygon><outerBoundaryIs><LinearRing><coordinates>121.759421,24.764783,0.0 121.757635,24.765844,0.0 121.756464,24.766103,0.0 121.754836,24.764573,0.0 121.754284,24.764531,0.0 121.753366,24.763578,0.0 121.75293,24.762021,0.0 121.753576,24.761145,0.0 121.753637,24.760368,0.0 121.754461,24.762041,0.0 121.754636,24.762899,0.0 121.754754,24.763386,0.0 121.754519,24.763623,0.0 121.755375,24.763579,0.0 121.756381,24.764359,0.0 121.757928,24.763964,0.0 121.759284,24.763277,0.0 121.760635,24.762475,0.0 121.760535,24.764086,0.0 121.759421,24.764783,0.0</coordinates></LinearRing></outerBoundaryIs></Polygon><styleUrl>#spolygon-map</styleUrl></Placemark><Placemark><Polygon><outerBoundaryIs><LinearRing><coordinates>121.755365,24.765994,0.0 121.753249,24.765842,0.0 121.750315,24.763843,0.0 121.749613,24.762044,0.0 121.749847,24.761766,0.0 121.750651,24.761385,0.0 121.751768,24.761506,0.0 121.751543,24.760606,0.0 121.75212,24.760498,0.0 121.75293,24.762021,0.0 121.753366,24.763578,0.0 121.754284,24.764531,0.0 121.754836,24.764573,0.0 121.755365,24.765994,0.0</coordinates></LinearRing></outerBoundaryIs></Polygon><styleUrl>#spolygon-map</styleUrl></Placemark><Placemark><Polygon><outerBoundaryIs><LinearRing><coordinates>121.749613,24.762044,0.0 121.746177,24.760373,0.0 121.749609,24.759938,0.0 121.750042,24.759451,0.0 121.751173,24.75928,0.0 121.752213,24.759683,0.0 121.75212,24.760498,0.0 121.751543,24.760606,0.0 121.751768,24.761506,0.0 121.750651,24.761385,0.0 121.749847,24.761766,0.0 121.749613,24.762044,0.0</coordinates></LinearRing></outerBoundaryIs></Polygon><styleUrl>#spolygon-map</styleUrl></Placemark><Placemark><Polygon><outerBoundaryIs><LinearRing><coordinates>121.753345,24.760484,0.0 121.753114,24.76134,0.0 121.752295,24.760091,0.0 121.752104,24.759141,0.0 121.750868,24.759324,0.0 121.750713,24.758607,0.0 121.750929,24.758297,0.0 121.751927,24.757963,0.0 121.753345,24.760484,0.0</coordinates></LinearRing></outerBoundaryIs></Polygon><styleUrl>#spolygon-map</styleUrl></Placemark><Placemark><Polygon><outerBoundaryIs><LinearRing><coordinates>121.75072,24.758366,0.0 121.75074,24.75873,0.0 121.750042,24.759451,0.0 121.749609,24.759938,0.0 121.746177,24.760373,0.0 121.74399,24.758122,0.0 121.746073,24.758171,0.0 121.747714,24.758262,0.0 121.748911,24.758317,0.0 121.750671,24.758134,0.0 121.75072,24.758366,0.0</coordinates></LinearRing></outerBoundaryIs></Polygon><styleUrl>#spolygon-map</styleUrl></Placemark><Placemark><Polygon><outerBoundaryIs><LinearRing><coordinates>121.751146,24.758199,0.0 121.75072,24.758366,0.0 121.74924,24.758315,0.0 121.747825,24.758267,0.0 121.746188,24.758177,0.0 121.744821,24.757696,0.0 121.744678,24.756846,0.0 121.744551,24.756336,0.0 121.745981,24.757107,0.0 121.746842,24.757085,0.0 121.747147,24.757146,0.0 121.749049,24.756838,0.0 121.749665,24.756212,0.0 121.749697,24.75688,0.0 121.751927,24.757963,0.0 121.751146,24.758199,0.0</coordinates></LinearRing></outerBoundaryIs></Polygon><styleUrl>#spolygon-map</styleUrl></Placemark><Placemark><Polygon><outerBoundaryIs><LinearRing><coordinates>121.752769,24.757828,0.0 121.749692,24.757189,0.0 121.749703,24.756158,0.0 121.74908,24.756519,0.0 121.747891,24.757204,0.0 121.746985,24.757036,0.0 121.74667,24.756758,0.0 121.746107,24.754805,0.0 121.746899,24.754351,0.0 121.748397,24.754463,0.0 121.749204,24.753963,0.0 121.750848,24.753298,0.0 121.752042,24.754745,0.0 121.752458,24.756518,0.0 121.752769,24.757828,0.0</coordinates></LinearRing></outerBoundaryIs></Polygon><styleUrl>#spolygon-map</styleUrl></Placemark><Placemark><Polygon><outerBoundaryIs><LinearRing><coordinates>121.744492,24.756438,0.0 121.744696,24.756864,0.0 121.74319,24.756456,0.0 121.743098,24.75278,0.0 121.744946,24.752317,0.0 121.74615,24.751941,0.0 121.746147,24.752156,0.0 121.746326,24.752551,0.0 121.746608,24.753489,0.0 121.746412,24.754313,0.0 121.746056,24.755652,0.0 121.746475,24.756857,0.0 121.744942,24.756027,0.0 121.744492,24.756438,0.0</coordinates></LinearRing></outerBoundaryIs></Polygon><styleUrl>#spolygon-map</styleUrl></Placemark><Placemark><Polygon><outerBoundaryIs><LinearRing><coordinates>121.75127,24.752343,0.0 121.751507,24.753074,0.0 121.750151,24.753551,0.0 121.74907,24.754031,0.0 121.748121,24.754718,0.0 121.746679,24.753707,0.0 121.746533,24.753241,0.0 121.746218,24.752373,0.0 121.746128,24.752025,0.0 121.747209,24.751543,0.0 121.748237,24.751055,0.0 121.749627,24.750568,0.0 121.750719,24.750443,0.0 121.750866,24.750984,0.0 121.75113,24.751929,0.0 121.75127,24.752343,0.0</coordinates></LinearRing></outerBoundaryIs></Polygon><styleUrl>#spolygon-map</styleUrl></Placemark><Placemark><Polygon><outerBoundaryIs><LinearRing><coordinates>121.737697,24.758619,0.0 121.736563,24.759107,0.0 121.73663,24.759436,0.0 121.736521,24.759812,0.0 121.73604,24.760445,0.0 121.735616,24.761,0.0 121.735305,24.761576,0.0 121.735263,24.761884,0.0 121.734441,24.762827,0.0 121.732676,24.764072,0.0 121.732188,24.764127,0.0 121.73158,24.761214,0.0 121.731021,24.75961,0.0 121.729416,24.757861,0.0 121.729466,24.756957,0.0 121.72867,24.755999,0.0 121.727528,24.754607,0.0 121.729442,24.75279,0.0 121.729228,24.751863,0.0 121.728051,24.751418,0.0 121.729801,24.751325,0.0 121.731561,24.75223,0.0 121.732482,24.752788,0.0 121.732895,24.752638,0.0 121.733139,24.752216,0.0 121.733833,24.750727,0.0 121.733988,24.750519,0.0 121.734466,24.750564,0.0 121.734906,24.749994,0.0 121.736092,24.751208,0.0 121.736909,24.751241,0.0 121.736907,24.7507,0.0 121.737658,24.750449,0.0 121.738363,24.750258,0.0 121.738946,24.750101,0.0 121.739967,24.749838,0.0 121.741296,24.749496,0.0 121.741822,24.749342,0.0 121.741965,24.749068,0.0 121.742146,24.748855,0.0 121.742902,24.748676,0.0 121.743727,24.750185,0.0 121.74402,24.751144,0.0 121.744322,24.75211,0.0 121.743006,24.752809,0.0 121.743451,24.756644,0.0 121.743763,24.757666,0.0 121.742506,24.757324,0.0 121.73942,24.758513,0.0 121.737697,24.758619,0.0</coordinates></LinearRing></outerBoundaryIs></Polygon><styleUrl>#spolygon-map</styleUrl></Placemark><Placemark><Polygon><outerBoundaryIs><LinearRing><coordinates>121.733219,24.752027,0.0 121.732943,24.752591,0.0 121.732578,24.752759,0.0 121.731922,24.752687,0.0 121.730828,24.751728,0.0 121.728782,24.751301,0.0 121.728847,24.750767,0.0 121.731784,24.748389,0.0 121.733508,24.746997,0.0 121.734245,24.746454,0.0 121.73632,24.745657,0.0 121.738138,24.745153,0.0 121.740508,24.744886,0.0 121.742008,24.74457,0.0 121.74252,24.745534,0.0 121.744447,24.745075,0.0 121.745444,24.744947,0.0 121.748354,24.74479,0.0 121.749402,24.746931,0.0 121.748702,24.747119,0.0 121.747925,24.74733,0.0 121.74516,24.748095,0.0 121.743757,24.748461,0.0 121.742269,24.748838,0.0 121.742037,24.74895,0.0 121.741968,24.749169,0.0 121.741489,24.749456,0.0 121.740287,24.749751,0.0 121.739437,24.749982,0.0 121.738591,24.750196,0.0 121.738077,24.750344,0.0 121.737307,24.750549,0.0 121.737144,24.751008,0.0 121.736479,24.751387,0.0 121.734932,24.750629,0.0 121.734651,24.750304,0.0 121.734201,24.750526,0.0 121.733924,24.750609,0.0 121.733219,24.752027,0.0</coordinates></LinearRing></outerBoundaryIs></Polygon><styleUrl>#spolygon-map</styleUrl></Placemark><Placemark><Polygon><outerBoundaryIs><LinearRing><coordinates>121.745773,24.752042,0.0 121.744752,24.752366,0.0 121.744322,24.75211,0.0 121.74402,24.751144,0.0 121.743727,24.750185,0.0 121.743757,24.748461,0.0 121.74516,24.748095,0.0 121.747925,24.74733,0.0 121.748702,24.747119,0.0 121.749299,24.747217,0.0 121.749421,24.747648,0.0 121.749927,24.748112,0.0 121.750118,24.748769,0.0 121.750553,24.749879,0.0 121.750647,24.750181,0.0 121.749214,24.750684,0.0 121.748149,24.751116,0.0 121.746978,24.751645,0.0 121.745773,24.752042,0.0</coordinates></LinearRing></outerBoundaryIs></Polygon><styleUrl>#spolygon-map</styleUrl></Placemark><Placemark><Polygon><outerBoundaryIs><LinearRing><coordinates>121.751127,24.750058,0.0 121.75064,24.750155,0.0 121.750376,24.749425,0.0 121.750043,24.748394,0.0 121.749613,24.748146,0.0 121.749331,24.747515,0.0 121.749208,24.746983,0.0 121.748941,24.745989,0.0 121.749556,24.744773,0.0 121.749794,24.744961,0.0 121.75032,24.744751,0.0 121.752348,24.745299,0.0 121.753191,24.745908,0.0 121.752908,24.746586,0.0 121.752669,24.747274,0.0 121.753613,24.747571,0.0 121.753228,24.748593,0.0 121.752921,24.749388,0.0 121.752702,24.749725,0.0 121.752196,24.749825,0.0 121.752004,24.749805,0.0 121.751328,24.750016,0.0 121.751127,24.750058,0.0</coordinates></LinearRing></outerBoundaryIs></Polygon><styleUrl>#spolygon-map</styleUrl></Placemark></Document>
</kml>
