<?xml version="1.0" encoding="UTF-8"?>
<kml xmlns="http://www.opengis.net/kml/2.2">
	<Document>
		<name>屏東縣內埔鄉</name>
		<Style id="spolygon">
			<LabelStyle>
				<scale>0.0</scale>
			</LabelStyle>
			<LineStyle>
				<color>330030ff</color>
				<width>0</width>
			</LineStyle>
			<PolyStyle>
				<color>330030ff</color>
			</PolyStyle>
		</Style>
		<StyleMap id="spolygon-map">
			<Pair>
				<key>normal</key>
				<styleUrl>#spolygon</styleUrl>
			</Pair>
		</StyleMap>
	<Placemark><Polygon><outerBoundaryIs><LinearRing><coordinates>120.569358,22.634792,0.0 120.567157,22.634172,0.0 120.562004,22.633584,0.0 120.556645,22.632716,0.0 120.553894,22.628206,0.0 120.565005,22.626343,0.0 120.570721,22.625785,0.0 120.571569,22.626442,0.0 120.571345,22.62731,0.0 120.570857,22.629452,0.0 120.570467,22.631133,0.0 120.570343,22.632035,0.0 120.570452,22.632261,0.0 120.570538,22.633009,0.0 120.570177,22.633981,0.0 120.569358,22.634792,0.0</coordinates></LinearRing></outerBoundaryIs></Polygon><styleUrl>#spolygon-map</styleUrl></Placemark><Placemark><Polygon><outerBoundaryIs><LinearRing><coordinates>120.601626,22.68415,0.0 120.601471,22.685507,0.0 120.601864,22.686941,0.0 120.597568,22.687504,0.0 120.59439,22.688487,0.0 120.592589,22.690174,0.0 120.59231,22.689972,0.0 120.592025,22.6897,0.0 120.591747,22.689467,0.0 120.591249,22.689053,0.0 120.590922,22.68879,0.0 120.590472,22.68841,0.0 120.590233,22.688199,0.0 120.589946,22.687941,0.0 120.589682,22.687678,0.0 120.589422,22.687411,0.0 120.589121,22.687237,0.0 120.588904,22.687094,0.0 120.588614,22.686863,0.0 120.58833,22.686605,0.0 120.58802,22.686358,0.0 120.587667,22.686138,0.0 120.58738,22.68599,0.0 120.587094,22.685879,0.0 120.58663,22.68581,0.0 120.586302,22.685764,0.0 120.585766,22.685643,0.0 120.585431,22.685586,0.0 120.585085,22.685513,0.0 120.584628,22.685383,0.0 120.584087,22.685176,0.0 120.583782,22.68501,0.0 120.58349,22.68479,0.0 120.583231,22.684541,0.0 120.583013,22.684322,0.0 120.582471,22.683824,0.0 120.581999,22.6834,0.0 120.581391,22.682846,0.0 120.581086,22.682574,0.0 120.580698,22.682234,0.0 120.580467,22.681893,0.0 120.580371,22.68157,0.0 120.580237,22.681059,0.0 120.580099,22.680684,0.0 120.579943,22.680415,0.0 120.579726,22.68008,0.0 120.579384,22.679546,0.0 120.579228,22.679146,0.0 120.579122,22.678889,0.0 120.578942,22.678626,0.0 120.578512,22.678241,0.0 120.57794,22.677775,0.0 120.577405,22.677333,0.0 120.576747,22.676792,0.0 120.576352,22.676468,0.0 120.575659,22.675893,0.0 120.575316,22.675621,0.0 120.574813,22.675206,0.0 120.574288,22.674762,0.0 120.578306,22.670565,0.0 120.578592,22.66947,0.0 120.578659,22.666323,0.0 120.581228,22.664896,0.0 120.585887,22.66683,0.0 120.58709,22.666453,0.0 120.589046,22.664429,0.0 120.590774,22.664178,0.0 120.594854,22.664414,0.0 120.592966,22.666042,0.0 120.593903,22.666889,0.0 120.593967,22.667534,0.0 120.594084,22.669284,0.0 120.595504,22.669487,0.0 120.596614,22.675545,0.0 120.596786,22.678101,0.0 120.601413,22.682154,0.0 120.601616,22.683423,0.0 120.601626,22.68415,0.0</coordinates></LinearRing></outerBoundaryIs></Polygon><styleUrl>#spolygon-map</styleUrl></Placemark><Placemark><Polygon><outerBoundaryIs><LinearRing><coordinates>120.62498,22.668926,0.0 120.618745,22.668288,0.0 120.614275,22.665657,0.0 120.612962,22.665186,0.0 120.612061,22.665572,0.0 120.608349,22.666771,0.0 120.607111,22.66698,0.0 120.60456,22.663061,0.0 120.59876,22.660152,0.0 120.596358,22.646004,0.0 120.597929,22.641492,0.0 120.59858,22.641686,0.0 120.599487,22.642955,0.0 120.600148,22.643505,0.0 120.601259,22.643892,0.0 120.604367,22.643965,0.0 120.610424,22.643643,0.0 120.613759,22.643529,0.0 120.615811,22.644884,0.0 120.61844,22.648788,0.0 120.62024,22.660304,0.0 120.6214,22.660478,0.0 120.623935,22.660956,0.0 120.62413,22.661126,0.0 120.62447,22.662558,0.0 120.624613,22.664453,0.0 120.62488,22.667655,0.0 120.62498,22.668926,0.0</coordinates></LinearRing></outerBoundaryIs></Polygon><styleUrl>#spolygon-map</styleUrl></Placemark><Placemark><Polygon><outerBoundaryIs><LinearRing><coordinates>120.566115,22.615513,0.0 120.565237,22.615418,0.0 120.56506,22.614966,0.0 120.564284,22.614537,0.0 120.564168,22.614219,0.0 120.564392,22.613831,0.0 120.565151,22.612521,0.0 120.564741,22.611375,0.0 120.56356,22.610252,0.0 120.561289,22.609847,0.0 120.559555,22.610282,0.0 120.556998,22.61153,0.0 120.55632,22.611547,0.0 120.555325,22.610844,0.0 120.555298,22.609659,0.0 120.555888,22.606973,0.0 120.557971,22.604333,0.0 120.5614,22.602534,0.0 120.564721,22.60868,0.0 120.566723,22.61239,0.0 120.566387,22.614575,0.0 120.566115,22.615513,0.0</coordinates></LinearRing></outerBoundaryIs></Polygon><styleUrl>#spolygon-map</styleUrl></Placemark><Placemark><Polygon><outerBoundaryIs><LinearRing><coordinates>120.57178,22.620642,0.0 120.571185,22.620049,0.0 120.570786,22.619642,0.0 120.570688,22.619479,0.0 120.570305,22.618613,0.0 120.570068,22.618486,0.0 120.569725,22.618632,0.0 120.569394,22.618538,0.0 120.568788,22.617873,0.0 120.567692,22.617344,0.0 120.567505,22.617088,0.0 120.567022,22.61554,0.0 120.566285,22.614969,0.0 120.566751,22.612577,0.0 120.565949,22.610977,0.0 120.565978,22.608139,0.0 120.567441,22.607368,0.0 120.569855,22.606458,0.0 120.571454,22.606316,0.0 120.572076,22.606159,0.0 120.572417,22.60586,0.0 120.572739,22.605689,0.0 120.573268,22.605661,0.0 120.573365,22.605379,0.0 120.573701,22.605649,0.0 120.574055,22.606239,0.0 120.574628,22.606789,0.0 120.574978,22.60756,0.0 120.575593,22.608451,0.0 120.575905,22.609294,0.0 120.575892,22.609814,0.0 120.575568,22.6103,0.0 120.574924,22.611145,0.0 120.575278,22.611363,0.0 120.574734,22.612021,0.0 120.577417,22.616571,0.0 120.5753,22.618213,0.0 120.57193,22.620475,0.0 120.57178,22.620642,0.0</coordinates></LinearRing></outerBoundaryIs></Polygon><styleUrl>#spolygon-map</styleUrl></Placemark><Placemark><Polygon><outerBoundaryIs><LinearRing><coordinates>120.629076,22.713684,0.0 120.628252,22.713229,0.0 120.627074,22.712571,0.0 120.625773,22.711877,0.0 120.62443,22.711163,0.0 120.623456,22.710294,0.0 120.628615,22.705083,0.0 120.629749,22.704905,0.0 120.63627,22.704812,0.0 120.638957,22.706044,0.0 120.640186,22.704071,0.0 120.64257,22.695581,0.0 120.643091,22.695598,0.0 120.64345,22.695745,0.0 120.643746,22.695895,0.0 120.644075,22.696,0.0 120.644437,22.696068,0.0 120.64473,22.696096,0.0 120.645151,22.696128,0.0 120.645537,22.696202,0.0 120.645773,22.696315,0.0 120.646085,22.696501,0.0 120.646432,22.696646,0.0 120.646784,22.696751,0.0 120.64697,22.696938,0.0 120.647246,22.697176,0.0 120.647629,22.697389,0.0 120.647826,22.697609,0.0 120.647911,22.697936,0.0 120.648042,22.698212,0.0 120.649355,22.700202,0.0 120.650125,22.70147,0.0 120.651222,22.702849,0.0 120.650926,22.703695,0.0 120.650804,22.705264,0.0 120.650406,22.706329,0.0 120.650478,22.70786,0.0 120.650307,22.708799,0.0 120.650155,22.709437,0.0 120.649387,22.710226,0.0 120.647638,22.711155,0.0 120.645976,22.711668,0.0 120.643574,22.711967,0.0 120.642398,22.711981,0.0 120.640075,22.711822,0.0 120.638801,22.711094,0.0 120.63734,22.7111,0.0 120.636159,22.711048,0.0 120.634278,22.711113,0.0 120.632771,22.71158,0.0 120.63235,22.711897,0.0 120.63193,22.712189,0.0 120.631397,22.712389,0.0 120.630543,22.712873,0.0 120.629651,22.713358,0.0 120.629076,22.713684,0.0</coordinates></LinearRing></outerBoundaryIs></Polygon><styleUrl>#spolygon-map</styleUrl></Placemark><Placemark><Polygon><outerBoundaryIs><LinearRing><coordinates>120.571909,22.648164,0.0 120.57222,22.649664,0.0 120.570356,22.65196,0.0 120.569923,22.652268,0.0 120.569181,22.652659,0.0 120.567724,22.652933,0.0 120.560622,22.654519,0.0 120.559115,22.655226,0.0 120.558741,22.65599,0.0 120.556794,22.65845,0.0 120.555991,22.658823,0.0 120.555434,22.658354,0.0 120.554757,22.657787,0.0 120.55422,22.657357,0.0 120.553736,22.656945,0.0 120.553415,22.656677,0.0 120.553004,22.656324,0.0 120.552454,22.655851,0.0 120.552166,22.655606,0.0 120.551777,22.655255,0.0 120.551282,22.654843,0.0 120.550808,22.654453,0.0 120.550272,22.654016,0.0 120.549728,22.65357,0.0 120.549178,22.653132,0.0 120.548548,22.652638,0.0 120.54823,22.652364,0.0 120.547818,22.652015,0.0 120.547298,22.651576,0.0 120.546738,22.651118,0.0 120.546447,22.65091,0.0 120.546162,22.65069,0.0 120.545897,22.650402,0.0 120.545664,22.650011,0.0 120.545397,22.649367,0.0 120.545283,22.649005,0.0 120.54512,22.64856,0.0 120.544947,22.648221,0.0 120.544695,22.647611,0.0 120.544532,22.647129,0.0 120.544334,22.646824,0.0 120.543874,22.646407,0.0 120.543557,22.646131,0.0 120.543134,22.64575,0.0 120.542758,22.645422,0.0 120.542323,22.645044,0.0 120.542002,22.64477,0.0 120.541578,22.644387,0.0 120.540784,22.643691,0.0 120.543703,22.640799,0.0 120.544947,22.639813,0.0 120.546337,22.638058,0.0 120.546974,22.637453,0.0 120.548027,22.63746,0.0 120.549074,22.637617,0.0 120.549596,22.637751,0.0 120.55076,22.637802,0.0 120.554775,22.637843,0.0 120.556285,22.638908,0.0 120.557983,22.639199,0.0 120.559869,22.638688,0.0 120.560088,22.637943,0.0 120.558113,22.637249,0.0 120.55577,22.635868,0.0 120.554671,22.632492,0.0 120.560198,22.633329,0.0 120.564804,22.633906,0.0 120.568702,22.634329,0.0 120.569756,22.635181,0.0 120.569923,22.63575,0.0 120.570712,22.635728,0.0 120.571655,22.635952,0.0 120.571838,22.636189,0.0 120.57168,22.636322,0.0 120.571792,22.636742,0.0 120.571363,22.637441,0.0 120.57127,22.637698,0.0 120.571002,22.641226,0.0 120.5711,22.642933,0.0 120.571909,22.648164,0.0</coordinates></LinearRing></outerBoundaryIs></Polygon><styleUrl>#spolygon-map</styleUrl></Placemark><Placemark><Polygon><outerBoundaryIs><LinearRing><coordinates>120.63167,22.66656,0.0 120.625431,22.668896,0.0 120.62488,22.667655,0.0 120.624613,22.664453,0.0 120.62447,22.662558,0.0 120.62413,22.661126,0.0 120.623935,22.660956,0.0 120.6214,22.660478,0.0 120.62024,22.660304,0.0 120.61844,22.648788,0.0 120.615811,22.644884,0.0 120.613759,22.643529,0.0 120.610424,22.643643,0.0 120.604367,22.643965,0.0 120.601259,22.643892,0.0 120.600148,22.643505,0.0 120.599487,22.642955,0.0 120.59858,22.641686,0.0 120.597929,22.641492,0.0 120.595185,22.641596,0.0 120.594379,22.641863,0.0 120.592999,22.640692,0.0 120.589229,22.633638,0.0 120.589175,22.629299,0.0 120.590231,22.625906,0.0 120.59149,22.624211,0.0 120.59129,22.621348,0.0 120.592566,22.619746,0.0 120.5931,22.619912,0.0 120.593432,22.620125,0.0 120.593747,22.620365,0.0 120.594072,22.62079,0.0 120.594216,22.621134,0.0 120.594321,22.621448,0.0 120.594606,22.622304,0.0 120.594733,22.622677,0.0 120.594834,22.622982,0.0 120.595014,22.623319,0.0 120.595117,22.62376,0.0 120.595202,22.624175,0.0 120.595384,22.624837,0.0 120.595703,22.625263,0.0 120.59599,22.625643,0.0 120.596479,22.62605,0.0 120.596844,22.626293,0.0 120.597376,22.626463,0.0 120.597625,22.626507,0.0 120.597927,22.626536,0.0 120.598447,22.626525,0.0 120.598744,22.626424,0.0 120.599066,22.625892,0.0 120.59926,22.625865,0.0 120.599632,22.626126,0.0 120.600012,22.626461,0.0 120.600292,22.626857,0.0 120.600425,22.627304,0.0 120.600561,22.627548,0.0 120.600856,22.627712,0.0 120.601154,22.627891,0.0 120.601418,22.627909,0.0 120.602149,22.627864,0.0 120.602477,22.628027,0.0 120.602733,22.628242,0.0 120.602934,22.628487,0.0 120.603176,22.628918,0.0 120.603312,22.629321,0.0 120.603446,22.629664,0.0 120.603841,22.629823,0.0 120.604422,22.629978,0.0 120.605063,22.63007,0.0 120.605565,22.63015,0.0 120.60604,22.63045,0.0 120.606491,22.630871,0.0 120.607141,22.631439,0.0 120.607785,22.631994,0.0 120.608049,22.63222,0.0 120.608236,22.632448,0.0 120.608414,22.632745,0.0 120.608572,22.632978,0.0 120.608792,22.633226,0.0 120.608993,22.633446,0.0 120.609178,22.633641,0.0 120.609472,22.633953,0.0 120.609654,22.634175,0.0 120.609866,22.634392,0.0 120.610175,22.63465,0.0 120.610465,22.634849,0.0 120.610835,22.635058,0.0 120.611179,22.635194,0.0 120.611521,22.63524,0.0 120.61198,22.635278,0.0 120.6123,22.635353,0.0 120.612585,22.635403,0.0 120.612847,22.635451,0.0 120.613211,22.635506,0.0 120.613553,22.635561,0.0 120.613903,22.635603,0.0 120.614344,22.635635,0.0 120.614792,22.635661,0.0 120.615171,22.635696,0.0 120.615696,22.635837,0.0 120.615949,22.635989,0.0 120.616332,22.63622,0.0 120.616722,22.636508,0.0 120.616959,22.63671,0.0 120.617402,22.63716,0.0 120.617686,22.637556,0.0 120.617869,22.637947,0.0 120.617965,22.638261,0.0 120.618036,22.638523,0.0 120.618174,22.638799,0.0 120.618374,22.639165,0.0 120.618614,22.639443,0.0 120.618973,22.639828,0.0 120.619252,22.640147,0.0 120.619306,22.640391,0.0 120.619204,22.640623,0.0 120.619052,22.640914,0.0 120.619014,22.641221,0.0 120.619058,22.641481,0.0 120.619206,22.641784,0.0 120.619419,22.642001,0.0 120.619669,22.642193,0.0 120.619931,22.642379,0.0 120.620476,22.642728,0.0 120.620833,22.643018,0.0 120.621011,22.643285,0.0 120.621055,22.643554,0.0 120.621024,22.64389,0.0 120.620914,22.644305,0.0 120.620823,22.644822,0.0 120.620847,22.645061,0.0 120.620955,22.645378,0.0 120.621096,22.645787,0.0 120.621214,22.646069,0.0 120.62131,22.6463,0.0 120.621391,22.646566,0.0 120.621482,22.646959,0.0 120.621585,22.647352,0.0 120.621649,22.647603,0.0 120.621727,22.647863,0.0 120.621803,22.6481,0.0 120.621865,22.648299,0.0 120.622046,22.648708,0.0 120.622198,22.649052,0.0 120.622273,22.649273,0.0 120.622362,22.649574,0.0 120.622318,22.649849,0.0 120.622294,22.650151,0.0 120.622307,22.650427,0.0 120.622423,22.650648,0.0 120.622857,22.650787,0.0 120.62327,22.650975,0.0 120.623595,22.651161,0.0 120.623899,22.651284,0.0 120.624144,22.651531,0.0 120.624407,22.651635,0.0 120.624781,22.651704,0.0 120.625192,22.651716,0.0 120.62558,22.651719,0.0 120.625942,22.65172,0.0 120.62634,22.651549,0.0 120.626605,22.651484,0.0 120.626854,22.651431,0.0 120.627232,22.651432,0.0 120.627441,22.651536,0.0 120.627666,22.651379,0.0 120.628034,22.651386,0.0 120.628379,22.651473,0.0 120.62868,22.651677,0.0 120.628832,22.651923,0.0 120.628975,22.652352,0.0 120.629233,22.652531,0.0 120.629445,22.652439,0.0 120.629741,22.652302,0.0 120.630022,22.652454,0.0 120.630372,22.652613,0.0 120.630681,22.652733,0.0 120.63097,22.652991,0.0 120.631251,22.653047,0.0 120.631444,22.653011,0.0 120.631721,22.652989,0.0 120.63199,22.65315,0.0 120.632286,22.653274,0.0 120.632683,22.65328,0.0 120.632967,22.653249,0.0 120.632861,22.653493,0.0 120.632693,22.653871,0.0 120.632406,22.653977,0.0 120.632049,22.654114,0.0 120.631724,22.654203,0.0 120.631478,22.654343,0.0 120.631165,22.654462,0.0 120.630831,22.654578,0.0 120.630717,22.65482,0.0 120.630868,22.6551,0.0 120.631069,22.655489,0.0 120.63122,22.655778,0.0 120.63129,22.655981,0.0 120.631193,22.656225,0.0 120.631007,22.656561,0.0 120.630895,22.65685,0.0 120.630962,22.657134,0.0 120.630859,22.657367,0.0 120.630701,22.657552,0.0 120.630409,22.657824,0.0 120.630239,22.658029,0.0 120.629926,22.658234,0.0 120.629788,22.658434,0.0 120.629907,22.658726,0.0 120.630176,22.658842,0.0 120.630501,22.658793,0.0 120.630696,22.658859,0.0 120.630663,22.659087,0.0 120.630689,22.659376,0.0 120.630638,22.659656,0.0 120.630515,22.659956,0.0 120.630485,22.660238,0.0 120.63063,22.660665,0.0 120.630747,22.660911,0.0 120.63103,22.660991,0.0 120.631386,22.66115,0.0 120.63152,22.661383,0.0 120.631669,22.661564,0.0 120.632008,22.661713,0.0 120.632239,22.661852,0.0 120.632516,22.662082,0.0 120.632732,22.662313,0.0 120.632308,22.662362,0.0 120.632038,22.662472,0.0 120.631921,22.662745,0.0 120.631885,22.663,0.0 120.632124,22.66321,0.0 120.632363,22.663405,0.0 120.632574,22.663478,0.0 120.632895,22.66358,0.0 120.632871,22.663842,0.0 120.632814,22.664142,0.0 120.632784,22.664526,0.0 120.632655,22.664975,0.0 120.632416,22.665096,0.0 120.632283,22.665344,0.0 120.6322,22.665581,0.0 120.632248,22.665827,0.0 120.632095,22.666125,0.0 120.6318,22.66624,0.0 120.631672,22.666413,0.0 120.63167,22.66656,0.0</coordinates></LinearRing></outerBoundaryIs></Polygon><styleUrl>#spolygon-map</styleUrl></Placemark><Placemark><Polygon><outerBoundaryIs><LinearRing><coordinates>120.579115,22.60576,0.0 120.575288,22.60811,0.0 120.574825,22.607072,0.0 120.574319,22.606486,0.0 120.573902,22.605896,0.0 120.573502,22.605378,0.0 120.573303,22.605549,0.0 120.573061,22.605704,0.0 120.572587,22.605736,0.0 120.572189,22.606067,0.0 120.571892,22.606263,0.0 120.57075,22.606291,0.0 120.568132,22.607018,0.0 120.566832,22.607721,0.0 120.564871,22.608626,0.0 120.561784,22.603251,0.0 120.561714,22.602564,0.0 120.562437,22.602474,0.0 120.562875,22.602698,0.0 120.563015,22.603067,0.0 120.563464,22.602989,0.0 120.563629,22.602746,0.0 120.564175,22.602219,0.0 120.564722,22.602191,0.0 120.565112,22.602115,0.0 120.565707,22.602498,0.0 120.566316,22.602319,0.0 120.563991,22.596127,0.0 120.562639,22.593859,0.0 120.560977,22.591465,0.0 120.561247,22.589653,0.0 120.560525,22.587881,0.0 120.561117,22.586828,0.0 120.562749,22.5876,0.0 120.563868,22.587743,0.0 120.564102,22.588042,0.0 120.56441,22.588248,0.0 120.564834,22.588322,0.0 120.56516,22.588318,0.0 120.565556,22.588251,0.0 120.565966,22.588052,0.0 120.566487,22.587954,0.0 120.566918,22.587887,0.0 120.567326,22.587863,0.0 120.567959,22.587806,0.0 120.568355,22.587771,0.0 120.568767,22.587739,0.0 120.569103,22.587715,0.0 120.569738,22.587662,0.0 120.570365,22.587639,0.0 120.571053,22.587733,0.0 120.571472,22.587967,0.0 120.571921,22.588345,0.0 120.572083,22.588617,0.0 120.572328,22.589148,0.0 120.572559,22.589708,0.0 120.572794,22.590357,0.0 120.572913,22.590773,0.0 120.573004,22.591412,0.0 120.573055,22.591726,0.0 120.573129,22.592254,0.0 120.573088,22.592683,0.0 120.57302,22.59299,0.0 120.572972,22.593306,0.0 120.57304,22.593566,0.0 120.573385,22.594127,0.0 120.573875,22.594973,0.0 120.574125,22.595502,0.0 120.574235,22.595759,0.0 120.574421,22.596302,0.0 120.574607,22.5966,0.0 120.574949,22.596402,0.0 120.575306,22.595972,0.0 120.575551,22.595555,0.0 120.575952,22.595111,0.0 120.576301,22.594911,0.0 120.576628,22.594849,0.0 120.576969,22.594877,0.0 120.577361,22.594998,0.0 120.577954,22.595315,0.0 120.578405,22.595632,0.0 120.578547,22.595859,0.0 120.578603,22.596204,0.0 120.578592,22.596462,0.0 120.578551,22.596775,0.0 120.578465,22.597035,0.0 120.57811,22.597314,0.0 120.577747,22.597575,0.0 120.577284,22.597894,0.0 120.576929,22.598071,0.0 120.576507,22.598219,0.0 120.576552,22.598436,0.0 120.576695,22.598712,0.0 120.576851,22.599004,0.0 120.577234,22.599391,0.0 120.577453,22.599507,0.0 120.577682,22.599566,0.0 120.577682,22.599999,0.0 120.577654,22.600309,0.0 120.577528,22.60071,0.0 120.577337,22.600967,0.0 120.577044,22.601131,0.0 120.576752,22.601207,0.0 120.576481,22.601251,0.0 120.576213,22.601309,0.0 120.576512,22.601753,0.0 120.576885,22.60221,0.0 120.577111,22.60261,0.0 120.577335,22.602857,0.0 120.577705,22.603223,0.0 120.577918,22.603547,0.0 120.5782,22.604065,0.0 120.57827,22.604437,0.0 120.57836,22.604968,0.0 120.578416,22.605273,0.0 120.578484,22.605483,0.0 120.578765,22.605583,0.0 120.579092,22.605738,0.0 120.579115,22.60576,0.0</coordinates></LinearRing></outerBoundaryIs></Polygon><styleUrl>#spolygon-map</styleUrl></Placemark><Placemark><Polygon><outerBoundaryIs><LinearRing><coordinates>120.595578,22.641509,0.0 120.59687,22.649033,0.0 120.589736,22.656185,0.0 120.589573,22.655261,0.0 120.58931,22.653206,0.0 120.588414,22.652204,0.0 120.584228,22.648174,0.0 120.583131,22.645162,0.0 120.584349,22.644768,0.0 120.585688,22.644279,0.0 120.585587,22.640901,0.0 120.585486,22.639862,0.0 120.585686,22.638488,0.0 120.586355,22.636408,0.0 120.588625,22.634172,0.0 120.588989,22.63382,0.0 120.590263,22.635546,0.0 120.593701,22.64194,0.0 120.594971,22.641758,0.0 120.595578,22.641509,0.0</coordinates></LinearRing></outerBoundaryIs></Polygon><styleUrl>#spolygon-map</styleUrl></Placemark><Placemark><Polygon><outerBoundaryIs><LinearRing><coordinates>120.596276,22.663772,0.0 120.58626,22.660383,0.0 120.587333,22.658746,0.0 120.585142,22.656137,0.0 120.583931,22.654822,0.0 120.583782,22.654463,0.0 120.583625,22.653408,0.0 120.581015,22.655912,0.0 120.578934,22.654094,0.0 120.571909,22.648164,0.0 120.5711,22.642933,0.0 120.571002,22.641226,0.0 120.57127,22.637698,0.0 120.571363,22.637441,0.0 120.571792,22.636742,0.0 120.57168,22.636322,0.0 120.571838,22.636189,0.0 120.571655,22.635952,0.0 120.570712,22.635728,0.0 120.569923,22.63575,0.0 120.569756,22.635181,0.0 120.569997,22.634175,0.0 120.570513,22.633239,0.0 120.570473,22.632304,0.0 120.570368,22.632144,0.0 120.570409,22.631315,0.0 120.570575,22.630462,0.0 120.571072,22.628378,0.0 120.571351,22.626843,0.0 120.572478,22.626794,0.0 120.575043,22.626458,0.0 120.58051,22.62554,0.0 120.582184,22.625269,0.0 120.582325,22.625648,0.0 120.582286,22.626143,0.0 120.582307,22.627357,0.0 120.58201,22.628569,0.0 120.582045,22.629587,0.0 120.582344,22.629877,0.0 120.582533,22.630218,0.0 120.582888,22.630341,0.0 120.583491,22.630946,0.0 120.58411,22.631509,0.0 120.584488,22.632143,0.0 120.584365,22.63244,0.0 120.584466,22.632831,0.0 120.584518,22.633355,0.0 120.585352,22.633671,0.0 120.586618,22.633701,0.0 120.588318,22.633692,0.0 120.588861,22.63389,0.0 120.588496,22.634327,0.0 120.585902,22.636851,0.0 120.585631,22.638842,0.0 120.585497,22.640025,0.0 120.585687,22.643301,0.0 120.585692,22.644378,0.0 120.583194,22.644835,0.0 120.583324,22.645948,0.0 120.584937,22.648833,0.0 120.58902,22.652808,0.0 120.589344,22.653349,0.0 120.589592,22.655767,0.0 120.590301,22.656866,0.0 120.599287,22.663306,0.0 120.596276,22.663772,0.0</coordinates></LinearRing></outerBoundaryIs></Polygon><styleUrl>#spolygon-map</styleUrl></Placemark><Placemark><Polygon><outerBoundaryIs><LinearRing><coordinates>120.553894,22.628206,0.0 120.550115,22.622972,0.0 120.549898,22.620826,0.0 120.549798,22.619837,0.0 120.549645,22.619417,0.0 120.549432,22.617115,0.0 120.550864,22.616954,0.0 120.55049,22.612442,0.0 120.550689,22.612093,0.0 120.552908,22.611934,0.0 120.554351,22.611758,0.0 120.555111,22.610798,0.0 120.555485,22.611032,0.0 120.556636,22.61159,0.0 120.558105,22.610985,0.0 120.560578,22.609982,0.0 120.562369,22.610005,0.0 120.563943,22.610628,0.0 120.564846,22.611547,0.0 120.565125,22.612916,0.0 120.564232,22.614045,0.0 120.564181,22.614388,0.0 120.564836,22.614853,0.0 120.565151,22.615258,0.0 120.565403,22.615477,0.0 120.566938,22.615515,0.0 120.567259,22.616178,0.0 120.56763,22.617294,0.0 120.568691,22.617791,0.0 120.569241,22.618443,0.0 120.569682,22.618636,0.0 120.570027,22.618493,0.0 120.570264,22.618547,0.0 120.570597,22.619185,0.0 120.570746,22.619594,0.0 120.571147,22.619995,0.0 120.571667,22.620624,0.0 120.571692,22.621288,0.0 120.571643,22.621847,0.0 120.57189,22.622385,0.0 120.572451,22.624152,0.0 120.572619,22.624573,0.0 120.572578,22.624929,0.0 120.571188,22.625912,0.0 120.56689,22.626061,0.0 120.555641,22.627895,0.0 120.553894,22.628206,0.0</coordinates></LinearRing></outerBoundaryIs></Polygon><styleUrl>#spolygon-map</styleUrl></Placemark><Placemark><Polygon><outerBoundaryIs><LinearRing><coordinates>120.590774,22.664178,0.0 120.589046,22.664429,0.0 120.58709,22.666453,0.0 120.585887,22.66683,0.0 120.581228,22.664896,0.0 120.578659,22.666323,0.0 120.578592,22.66947,0.0 120.578306,22.670565,0.0 120.574288,22.674762,0.0 120.573984,22.674515,0.0 120.573665,22.674246,0.0 120.573259,22.673917,0.0 120.572994,22.673695,0.0 120.572406,22.673218,0.0 120.572039,22.672907,0.0 120.571661,22.672581,0.0 120.571024,22.672031,0.0 120.570588,22.671662,0.0 120.570288,22.671412,0.0 120.570012,22.671175,0.0 120.569792,22.670984,0.0 120.569398,22.670651,0.0 120.569063,22.670373,0.0 120.5685,22.669893,0.0 120.56817,22.669612,0.0 120.567729,22.66924,0.0 120.567346,22.668912,0.0 120.567055,22.668663,0.0 120.566764,22.668418,0.0 120.566409,22.66811,0.0 120.566128,22.667872,0.0 120.565735,22.667535,0.0 120.565334,22.667197,0.0 120.564888,22.666817,0.0 120.564508,22.6665,0.0 120.564161,22.666199,0.0 120.563677,22.66578,0.0 120.563251,22.665419,0.0 120.562792,22.66503,0.0 120.562519,22.664788,0.0 120.562157,22.664486,0.0 120.561668,22.664072,0.0 120.561196,22.663673,0.0 120.560844,22.663376,0.0 120.560328,22.662951,0.0 120.559863,22.662545,0.0 120.559382,22.66214,0.0 120.558675,22.661535,0.0 120.557942,22.660926,0.0 120.557555,22.660595,0.0 120.557478,22.660218,0.0 120.557085,22.659758,0.0 120.556724,22.659437,0.0 120.556226,22.659023,0.0 120.557572,22.657649,0.0 120.558828,22.655374,0.0 120.560103,22.654973,0.0 120.561087,22.653917,0.0 120.568698,22.652793,0.0 120.56958,22.652484,0.0 120.570002,22.652221,0.0 120.570693,22.651656,0.0 120.572038,22.649011,0.0 120.575708,22.651376,0.0 120.579815,22.654898,0.0 120.583471,22.653421,0.0 120.584251,22.654087,0.0 120.583715,22.654594,0.0 120.58524,22.655959,0.0 120.584713,22.656561,0.0 120.587517,22.659033,0.0 120.590774,22.664178,0.0</coordinates></LinearRing></outerBoundaryIs></Polygon><styleUrl>#spolygon-map</styleUrl></Placemark><Placemark><Polygon><outerBoundaryIs><LinearRing><coordinates>120.555276,22.606121,0.0 120.553169,22.604947,0.0 120.552926,22.6045,0.0 120.552836,22.604222,0.0 120.552934,22.603723,0.0 120.553229,22.60315,0.0 120.553257,22.602837,0.0 120.553188,22.602134,0.0 120.553107,22.601127,0.0 120.553284,22.600523,0.0 120.553679,22.600007,0.0 120.553752,22.599709,0.0 120.55368,22.599406,0.0 120.553697,22.599189,0.0 120.553826,22.598975,0.0 120.554122,22.598847,0.0 120.554464,22.598763,0.0 120.55464,22.598537,0.0 120.5547,22.598221,0.0 120.554664,22.59802,0.0 120.554495,22.597749,0.0 120.554225,22.597536,0.0 120.554051,22.597129,0.0 120.554076,22.596754,0.0 120.554051,22.596438,0.0 120.554004,22.596219,0.0 120.553778,22.595453,0.0 120.553575,22.594762,0.0 120.553525,22.594466,0.0 120.553644,22.594161,0.0 120.554067,22.593663,0.0 120.554679,22.59297,0.0 120.555151,22.592411,0.0 120.555366,22.592175,0.0 120.555772,22.591792,0.0 120.555995,22.591488,0.0 120.556252,22.591197,0.0 120.556472,22.590947,0.0 120.556636,22.590675,0.0 120.556736,22.590368,0.0 120.556754,22.590054,0.0 120.55677,22.589749,0.0 120.557046,22.589707,0.0 120.557159,22.589486,0.0 120.557238,22.589118,0.0 120.557408,22.588839,0.0 120.557533,22.588584,0.0 120.55761,22.58823,0.0 120.557559,22.587918,0.0 120.557422,22.587559,0.0 120.557277,22.587263,0.0 120.557162,22.586964,0.0 120.556951,22.586225,0.0 120.556598,22.585827,0.0 120.556325,22.585384,0.0 120.556246,22.585076,0.0 120.556079,22.584789,0.0 120.555956,22.58429,0.0 120.555904,22.584075,0.0 120.555933,22.583818,0.0 120.555865,22.583583,0.0 120.55608,22.583245,0.0 120.556297,22.582997,0.0 120.556462,22.582718,0.0 120.556572,22.582472,0.0 120.556649,22.582113,0.0 120.55667,22.581725,0.0 120.556719,22.581416,0.0 120.556839,22.580915,0.0 120.557235,22.580541,0.0 120.557495,22.580339,0.0 120.557846,22.58008,0.0 120.558203,22.579927,0.0 120.558428,22.579833,0.0 120.558816,22.579669,0.0 120.55925,22.579465,0.0 120.559599,22.579281,0.0 120.559969,22.579122,0.0 120.560301,22.579046,0.0 120.560627,22.579039,0.0 120.560994,22.579082,0.0 120.561325,22.579157,0.0 120.561716,22.579219,0.0 120.562232,22.579281,0.0 120.562721,22.579387,0.0 120.563246,22.579442,0.0 120.563514,22.579432,0.0 120.563764,22.57944,0.0 120.564153,22.579454,0.0 120.564684,22.579439,0.0 120.565291,22.579558,0.0 120.56566,22.57979,0.0 120.566016,22.580138,0.0 120.566596,22.580673,0.0 120.566815,22.58098,0.0 120.566949,22.581279,0.0 120.567097,22.581848,0.0 120.567013,22.582157,0.0 120.566889,22.582385,0.0 120.566678,22.582651,0.0 120.566425,22.582941,0.0 120.566142,22.583214,0.0 120.565746,22.583572,0.0 120.565412,22.583878,0.0 120.564937,22.584344,0.0 120.564552,22.584817,0.0 120.564218,22.585302,0.0 120.564011,22.585631,0.0 120.563737,22.586142,0.0 120.563652,22.58644,0.0 120.56359,22.586785,0.0 120.563595,22.587158,0.0 120.563675,22.587416,0.0 120.56379,22.587646,0.0 120.563384,22.587753,0.0 120.561549,22.586931,0.0 120.560526,22.587509,0.0 120.56117,22.588971,0.0 120.561009,22.591036,0.0 120.561959,22.593304,0.0 120.563373,22.5954,0.0 120.566164,22.601515,0.0 120.565945,22.60249,0.0 120.565348,22.602387,0.0 120.564715,22.602064,0.0 120.564347,22.602199,0.0 120.563721,22.602714,0.0 120.563499,22.60289,0.0 120.563093,22.603074,0.0 120.562852,22.602804,0.0 120.562686,22.602481,0.0 120.562035,22.602725,0.0 120.561096,22.602477,0.0 120.555276,22.606121,0.0</coordinates></LinearRing></outerBoundaryIs></Polygon><styleUrl>#spolygon-map</styleUrl></Placemark><Placemark><Polygon><outerBoundaryIs><LinearRing><coordinates>120.552297,22.625938,0.0 120.544476,22.630557,0.0 120.54331,22.630109,0.0 120.542936,22.628088,0.0 120.542802,22.62771,0.0 120.54235,22.627456,0.0 120.542147,22.626654,0.0 120.542273,22.625993,0.0 120.541559,22.625216,0.0 120.540696,22.624652,0.0 120.540509,22.625021,0.0 120.540183,22.624804,0.0 120.539791,22.624505,0.0 120.539306,22.623903,0.0 120.53908,22.623464,0.0 120.539159,22.62124,0.0 120.538586,22.620162,0.0 120.537567,22.618137,0.0 120.537667,22.618057,0.0 120.542384,22.617448,0.0 120.549432,22.617115,0.0 120.549645,22.619417,0.0 120.549798,22.619837,0.0 120.549898,22.620826,0.0 120.550115,22.622972,0.0 120.552297,22.625938,0.0</coordinates></LinearRing></outerBoundaryIs></Polygon><styleUrl>#spolygon-map</styleUrl></Placemark><Placemark><Polygon><outerBoundaryIs><LinearRing><coordinates>120.549432,22.617115,0.0 120.542384,22.617448,0.0 120.537667,22.618057,0.0 120.537757,22.617856,0.0 120.537673,22.617524,0.0 120.537611,22.617258,0.0 120.537149,22.616672,0.0 120.53689,22.616319,0.0 120.536482,22.615606,0.0 120.536412,22.615301,0.0 120.536405,22.614927,0.0 120.536444,22.614678,0.0 120.536552,22.614403,0.0 120.536758,22.614038,0.0 120.536946,22.613693,0.0 120.53712,22.613217,0.0 120.536789,22.613074,0.0 120.536497,22.612942,0.0 120.536308,22.612754,0.0 120.536089,22.61256,0.0 120.53605,22.612135,0.0 120.536029,22.611713,0.0 120.536007,22.611117,0.0 120.535971,22.610432,0.0 120.535933,22.609516,0.0 120.535906,22.608608,0.0 120.535882,22.608179,0.0 120.535854,22.607596,0.0 120.535837,22.607009,0.0 120.535809,22.606312,0.0 120.535769,22.605844,0.0 120.535727,22.605521,0.0 120.535641,22.604974,0.0 120.535584,22.604667,0.0 120.535602,22.604234,0.0 120.535955,22.603515,0.0 120.536221,22.602924,0.0 120.536499,22.602279,0.0 120.536726,22.60225,0.0 120.537389,22.602431,0.0 120.5383,22.60267,0.0 120.538978,22.602848,0.0 120.539374,22.602951,0.0 120.539969,22.603124,0.0 120.540297,22.603207,0.0 120.540764,22.6033,0.0 120.54136,22.603462,0.0 120.541947,22.603631,0.0 120.5426,22.603809,0.0 120.543011,22.603916,0.0 120.544007,22.604186,0.0 120.544606,22.604348,0.0 120.544915,22.604482,0.0 120.545578,22.604617,0.0 120.54604,22.60474,0.0 120.546368,22.60496,0.0 120.546386,22.60538,0.0 120.546456,22.605568,0.0 120.54698,22.605574,0.0 120.54767,22.605582,0.0 120.547793,22.605384,0.0 120.547873,22.605176,0.0 120.54872,22.605411,0.0 120.549412,22.605592,0.0 120.550049,22.605756,0.0 120.550934,22.605998,0.0 120.551593,22.606178,0.0 120.552038,22.606306,0.0 120.552588,22.606461,0.0 120.55278,22.606446,0.0 120.552988,22.606302,0.0 120.553294,22.606036,0.0 120.55353,22.605831,0.0 120.553651,22.60559,0.0 120.553452,22.605422,0.0 120.554077,22.605268,0.0 120.555888,22.606973,0.0 120.555298,22.609659,0.0 120.555111,22.610798,0.0 120.554351,22.611758,0.0 120.552908,22.611934,0.0 120.550689,22.612093,0.0 120.55049,22.612442,0.0 120.550864,22.616954,0.0 120.549432,22.617115,0.0</coordinates></LinearRing></outerBoundaryIs></Polygon><styleUrl>#spolygon-map</styleUrl></Placemark><Placemark><Polygon><outerBoundaryIs><LinearRing><coordinates>120.589229,22.633638,0.0 120.58847,22.63372,0.0 120.586929,22.633689,0.0 120.585518,22.633719,0.0 120.584565,22.633369,0.0 120.584583,22.633046,0.0 120.584295,22.632467,0.0 120.584501,22.632269,0.0 120.584246,22.631636,0.0 120.583647,22.631106,0.0 120.582961,22.630375,0.0 120.582572,22.63025,0.0 120.58239,22.629952,0.0 120.582112,22.629682,0.0 120.581965,22.628898,0.0 120.582241,22.627754,0.0 120.582377,22.626421,0.0 120.5823,22.625734,0.0 120.582288,22.62535,0.0 120.582642,22.624762,0.0 120.58559,22.622108,0.0 120.585914,22.618665,0.0 120.586028,22.615706,0.0 120.586432,22.615596,0.0 120.586794,22.615796,0.0 120.587145,22.615984,0.0 120.587566,22.616209,0.0 120.588043,22.616465,0.0 120.588517,22.61673,0.0 120.588822,22.616891,0.0 120.589357,22.61731,0.0 120.589909,22.617836,0.0 120.59034,22.618268,0.0 120.590626,22.618555,0.0 120.591045,22.618972,0.0 120.591327,22.619255,0.0 120.591773,22.619559,0.0 120.592102,22.619659,0.0 120.591182,22.622269,0.0 120.591362,22.624694,0.0 120.589483,22.626755,0.0 120.589113,22.632502,0.0 120.589229,22.633638,0.0</coordinates></LinearRing></outerBoundaryIs></Polygon><styleUrl>#spolygon-map</styleUrl></Placemark><Placemark><Polygon><outerBoundaryIs><LinearRing><coordinates>120.619802,22.708667,0.0 120.624408,22.703453,0.0 120.624391,22.702899,0.0 120.622035,22.701011,0.0 120.62046,22.699068,0.0 120.620456,22.698779,0.0 120.620853,22.698317,0.0 120.621373,22.697634,0.0 120.622112,22.697006,0.0 120.622655,22.696531,0.0 120.624003,22.694782,0.0 120.624212,22.693784,0.0 120.624068,22.693658,0.0 120.62288,22.692747,0.0 120.621944,22.691725,0.0 120.621814,22.689548,0.0 120.62294,22.686792,0.0 120.627958,22.682186,0.0 120.633694,22.679596,0.0 120.634862,22.679321,0.0 120.635063,22.679724,0.0 120.635384,22.680167,0.0 120.635761,22.680556,0.0 120.636061,22.680959,0.0 120.63589,22.681254,0.0 120.63566,22.681504,0.0 120.63535,22.681935,0.0 120.63527,22.682235,0.0 120.63493,22.682306,0.0 120.634539,22.682206,0.0 120.634431,22.682488,0.0 120.634417,22.682851,0.0 120.634416,22.683334,0.0 120.634535,22.683694,0.0 120.634838,22.683952,0.0 120.635197,22.684176,0.0 120.635635,22.684421,0.0 120.636078,22.684684,0.0 120.636544,22.684972,0.0 120.636897,22.685171,0.0 120.637362,22.685482,0.0 120.637671,22.685742,0.0 120.637945,22.686142,0.0 120.638117,22.686486,0.0 120.638236,22.686881,0.0 120.638334,22.687351,0.0 120.638338,22.687735,0.0 120.638297,22.688078,0.0 120.638104,22.68838,0.0 120.637872,22.688641,0.0 120.63753,22.688948,0.0 120.637171,22.689206,0.0 120.636835,22.689483,0.0 120.636541,22.689656,0.0 120.63623,22.689735,0.0 120.635625,22.689858,0.0 120.635298,22.689925,0.0 120.634984,22.689809,0.0 120.634705,22.68958,0.0 120.634486,22.68967,0.0 120.634403,22.69009,0.0 120.634442,22.690374,0.0 120.634697,22.690596,0.0 120.635072,22.690604,0.0 120.635604,22.690546,0.0 120.636139,22.690453,0.0 120.636579,22.690359,0.0 120.637018,22.690333,0.0 120.637387,22.690469,0.0 120.637794,22.690795,0.0 120.638099,22.691094,0.0 120.638549,22.691397,0.0 120.639058,22.691728,0.0 120.639532,22.691905,0.0 120.639918,22.691879,0.0 120.640211,22.692096,0.0 120.64042,22.692302,0.0 120.640702,22.692587,0.0 120.640982,22.692911,0.0 120.641229,22.693207,0.0 120.641484,22.693506,0.0 120.641814,22.693929,0.0 120.642223,22.694388,0.0 120.642563,22.694671,0.0 120.642749,22.694897,0.0 120.642661,22.695204,0.0 120.642638,22.6954,0.0 120.640579,22.703192,0.0 120.638985,22.706015,0.0 120.636935,22.705127,0.0 120.635346,22.704731,0.0 120.628796,22.705014,0.0 120.626013,22.707721,0.0 120.622859,22.710317,0.0 120.621392,22.709535,0.0 120.619834,22.708684,0.0 120.619802,22.708667,0.0</coordinates></LinearRing></outerBoundaryIs></Polygon><styleUrl>#spolygon-map</styleUrl></Placemark><Placemark><Polygon><outerBoundaryIs><LinearRing><coordinates>120.615767,22.70653,0.0 120.614511,22.705818,0.0 120.613217,22.705126,0.0 120.612006,22.704471,0.0 120.610905,22.703876,0.0 120.609586,22.703169,0.0 120.60847,22.70259,0.0 120.607915,22.702341,0.0 120.607552,22.70215,0.0 120.607283,22.701998,0.0 120.606809,22.701735,0.0 120.606336,22.701477,0.0 120.605774,22.701145,0.0 120.605464,22.700887,0.0 120.605109,22.700593,0.0 120.604622,22.700185,0.0 120.604212,22.699852,0.0 120.603751,22.699463,0.0 120.603288,22.699098,0.0 120.60286,22.698797,0.0 120.602444,22.698543,0.0 120.602069,22.698292,0.0 120.601616,22.697909,0.0 120.601341,22.697664,0.0 120.600926,22.69732,0.0 120.600222,22.696693,0.0 120.599904,22.696439,0.0 120.599602,22.696174,0.0 120.599182,22.695817,0.0 120.598785,22.695486,0.0 120.598441,22.695198,0.0 120.598123,22.694927,0.0 120.597748,22.694592,0.0 120.597455,22.694336,0.0 120.597169,22.694089,0.0 120.596709,22.693711,0.0 120.596273,22.693342,0.0 120.595986,22.693097,0.0 120.595801,22.692887,0.0 120.595685,22.692606,0.0 120.595335,22.692303,0.0 120.59509,22.692178,0.0 120.594887,22.692234,0.0 120.594583,22.692195,0.0 120.594221,22.691993,0.0 120.593957,22.69183,0.0 120.593723,22.691624,0.0 120.593547,22.691402,0.0 120.593451,22.691084,0.0 120.593403,22.690727,0.0 120.593159,22.690451,0.0 120.592889,22.690254,0.0 120.592642,22.690194,0.0 120.595419,22.688149,0.0 120.601797,22.687016,0.0 120.601591,22.686065,0.0 120.601546,22.684739,0.0 120.603078,22.683908,0.0 120.606407,22.682753,0.0 120.614568,22.681498,0.0 120.615189,22.682228,0.0 120.616863,22.683684,0.0 120.618384,22.685503,0.0 120.62094,22.6872,0.0 120.621799,22.689744,0.0 120.622131,22.69231,0.0 120.623632,22.693388,0.0 120.624174,22.693699,0.0 120.624188,22.694024,0.0 120.623722,22.695097,0.0 120.62263,22.696528,0.0 120.622039,22.697078,0.0 120.621309,22.69772,0.0 120.620559,22.698576,0.0 120.620446,22.698824,0.0 120.620499,22.699147,0.0 120.623146,22.701844,0.0 120.624474,22.703021,0.0 120.623974,22.704084,0.0 120.619435,22.708469,0.0 120.617782,22.70758,0.0 120.616095,22.706668,0.0 120.615767,22.70653,0.0</coordinates></LinearRing></outerBoundaryIs></Polygon><styleUrl>#spolygon-map</styleUrl></Placemark><Placemark><Polygon><outerBoundaryIs><LinearRing><coordinates>120.581874,22.625087,0.0 120.577948,22.62612,0.0 120.572806,22.62677,0.0 120.571724,22.626164,0.0 120.572609,22.624814,0.0 120.572507,22.624358,0.0 120.572225,22.622698,0.0 120.571768,22.622112,0.0 120.571618,22.621698,0.0 120.571869,22.620814,0.0 120.572391,22.6201,0.0 120.577337,22.616846,0.0 120.57409,22.611988,0.0 120.575243,22.61169,0.0 120.575112,22.611266,0.0 120.574912,22.611012,0.0 120.575918,22.610085,0.0 120.575831,22.609633,0.0 120.575718,22.608935,0.0 120.575288,22.60811,0.0 120.579115,22.60576,0.0 120.579332,22.605964,0.0 120.579583,22.606229,0.0 120.579745,22.606469,0.0 120.579828,22.606688,0.0 120.579921,22.607,0.0 120.580227,22.607416,0.0 120.580483,22.607642,0.0 120.580675,22.607805,0.0 120.580947,22.607978,0.0 120.581174,22.608048,0.0 120.581491,22.607959,0.0 120.581813,22.60793,0.0 120.58209,22.607983,0.0 120.582366,22.608065,0.0 120.582674,22.608185,0.0 120.58299,22.608301,0.0 120.583099,22.607931,0.0 120.583139,22.608268,0.0 120.58331,22.608639,0.0 120.58351,22.608892,0.0 120.583775,22.608877,0.0 120.58412,22.60876,0.0 120.58435,22.608682,0.0 120.584698,22.608617,0.0 120.584697,22.608893,0.0 120.584678,22.609403,0.0 120.584666,22.609832,0.0 120.58465,22.610358,0.0 120.584623,22.610983,0.0 120.584644,22.611293,0.0 120.58487,22.611627,0.0 120.585065,22.61182,0.0 120.585355,22.611985,0.0 120.585653,22.611986,0.0 120.586046,22.611935,0.0 120.586619,22.611871,0.0 120.586958,22.611832,0.0 120.587111,22.611877,0.0 120.587273,22.612223,0.0 120.587396,22.612521,0.0 120.58753,22.612849,0.0 120.587713,22.613308,0.0 120.587815,22.613559,0.0 120.587959,22.613909,0.0 120.588079,22.614214,0.0 120.588096,22.614471,0.0 120.587826,22.614753,0.0 120.587747,22.615012,0.0 120.58766,22.615238,0.0 120.587351,22.615346,0.0 120.586882,22.615428,0.0 120.586403,22.615515,0.0 120.586276,22.615551,0.0 120.585866,22.617209,0.0 120.585905,22.621576,0.0 120.583474,22.624125,0.0 120.581874,22.625087,0.0</coordinates></LinearRing></outerBoundaryIs></Polygon><styleUrl>#spolygon-map</styleUrl></Placemark><Placemark><Polygon><outerBoundaryIs><LinearRing><coordinates>120.622175,22.688047,0.0 120.618527,22.685618,0.0 120.616953,22.683795,0.0 120.61535,22.682414,0.0 120.614683,22.681534,0.0 120.608978,22.682021,0.0 120.608657,22.680605,0.0 120.607387,22.679069,0.0 120.606958,22.678361,0.0 120.606344,22.677262,0.0 120.605751,22.67671,0.0 120.605464,22.675413,0.0 120.60368,22.673368,0.0 120.603144,22.672247,0.0 120.602612,22.671643,0.0 120.602328,22.67117,0.0 120.601931,22.670765,0.0 120.60048,22.670928,0.0 120.600115,22.670909,0.0 120.599956,22.669536,0.0 120.599938,22.669335,0.0 120.597731,22.669393,0.0 120.598139,22.671821,0.0 120.596733,22.671863,0.0 120.596523,22.674827,0.0 120.595504,22.669487,0.0 120.594084,22.669284,0.0 120.593967,22.667534,0.0 120.593903,22.666889,0.0 120.592966,22.666042,0.0 120.594854,22.664414,0.0 120.600326,22.663482,0.0 120.607048,22.666951,0.0 120.607597,22.666975,0.0 120.61133,22.665902,0.0 120.612755,22.665188,0.0 120.613799,22.665441,0.0 120.616899,22.6673,0.0 120.62219,22.668759,0.0 120.625431,22.668896,0.0 120.63167,22.66656,0.0 120.631768,22.66675,0.0 120.631867,22.66696,0.0 120.632029,22.667186,0.0 120.63226,22.667412,0.0 120.632534,22.667413,0.0 120.632842,22.66736,0.0 120.633132,22.667372,0.0 120.63354,22.667386,0.0 120.633795,22.667513,0.0 120.633944,22.667714,0.0 120.633971,22.667929,0.0 120.633704,22.668154,0.0 120.633407,22.66828,0.0 120.633046,22.668342,0.0 120.632808,22.668418,0.0 120.633052,22.668943,0.0 120.633132,22.669144,0.0 120.63251,22.669255,0.0 120.632654,22.669897,0.0 120.6328,22.670805,0.0 120.632988,22.671921,0.0 120.633122,22.672223,0.0 120.633227,22.67251,0.0 120.633384,22.672928,0.0 120.633484,22.673213,0.0 120.633684,22.673489,0.0 120.633912,22.67383,0.0 120.634206,22.674201,0.0 120.634562,22.674496,0.0 120.63505,22.674953,0.0 120.635142,22.6754,0.0 120.635207,22.675818,0.0 120.635361,22.676121,0.0 120.635512,22.676433,0.0 120.63582,22.676675,0.0 120.635588,22.676889,0.0 120.635475,22.677189,0.0 120.635346,22.677577,0.0 120.635195,22.677981,0.0 120.63509,22.678441,0.0 120.635263,22.678794,0.0 120.635595,22.678996,0.0 120.635805,22.67919,0.0 120.635509,22.679271,0.0 120.635195,22.679243,0.0 120.634895,22.679098,0.0 120.633694,22.679596,0.0 120.627958,22.682186,0.0 120.62294,22.686792,0.0 120.622175,22.688047,0.0</coordinates></LinearRing></outerBoundaryIs></Polygon><styleUrl>#spolygon-map</styleUrl></Placemark><Placemark><Polygon><outerBoundaryIs><LinearRing><coordinates>120.608978,22.682021,0.0 120.603692,22.683704,0.0 120.601629,22.683875,0.0 120.601486,22.682249,0.0 120.599935,22.680857,0.0 120.596639,22.677493,0.0 120.596523,22.674827,0.0 120.596733,22.671863,0.0 120.598139,22.671821,0.0 120.597731,22.669393,0.0 120.599938,22.669335,0.0 120.599956,22.669536,0.0 120.600115,22.670909,0.0 120.60048,22.670928,0.0 120.601931,22.670765,0.0 120.602328,22.67117,0.0 120.602612,22.671643,0.0 120.603144,22.672247,0.0 120.60368,22.673368,0.0 120.605464,22.675413,0.0 120.605751,22.67671,0.0 120.606344,22.677262,0.0 120.606958,22.678361,0.0 120.607387,22.679069,0.0 120.608657,22.680605,0.0 120.608978,22.682021,0.0</coordinates></LinearRing></outerBoundaryIs></Polygon><styleUrl>#spolygon-map</styleUrl></Placemark><Placemark><Polygon><outerBoundaryIs><LinearRing><coordinates>120.536467,22.64001,0.0 120.536752,22.639711,0.0 120.537016,22.639425,0.0 120.537423,22.638977,0.0 120.537864,22.638486,0.0 120.53811,22.638204,0.0 120.538478,22.637806,0.0 120.538906,22.63734,0.0 120.539186,22.637067,0.0 120.538995,22.636823,0.0 120.538813,22.636547,0.0 120.538643,22.636282,0.0 120.53851,22.636067,0.0 120.538266,22.635721,0.0 120.538058,22.635375,0.0 120.538069,22.634906,0.0 120.538037,22.634583,0.0 120.538058,22.63428,0.0 120.538052,22.633815,0.0 120.538061,22.633323,0.0 120.53804,22.632761,0.0 120.538036,22.63244,0.0 120.537963,22.631826,0.0 120.537998,22.631223,0.0 120.538077,22.630853,0.0 120.538145,22.630483,0.0 120.538211,22.630156,0.0 120.538272,22.629749,0.0 120.538278,22.629345,0.0 120.538269,22.629124,0.0 120.538298,22.628824,0.0 120.538234,22.628562,0.0 120.538225,22.628212,0.0 120.538244,22.627921,0.0 120.53808,22.627712,0.0 120.537951,22.627416,0.0 120.537903,22.627087,0.0 120.537891,22.626854,0.0 120.537835,22.626605,0.0 120.537763,22.626386,0.0 120.537677,22.626077,0.0 120.537579,22.625817,0.0 120.537469,22.625469,0.0 120.53739,22.625222,0.0 120.537257,22.62487,0.0 120.537157,22.624619,0.0 120.537088,22.624413,0.0 120.53696,22.624054,0.0 120.536874,22.623733,0.0 120.536764,22.623401,0.0 120.536658,22.622987,0.0 120.536574,22.622624,0.0 120.536436,22.622165,0.0 120.536401,22.621885,0.0 120.536465,22.621583,0.0 120.536683,22.621082,0.0 120.536819,22.620674,0.0 120.536847,22.620405,0.0 120.536873,22.620082,0.0 120.536704,22.619849,0.0 120.536609,22.619413,0.0 120.536589,22.61905,0.0 120.536486,22.618681,0.0 120.536441,22.618313,0.0 120.536627,22.618221,0.0 120.537079,22.618144,0.0 120.537567,22.618137,0.0 120.538586,22.620162,0.0 120.539159,22.62124,0.0 120.53908,22.623464,0.0 120.539306,22.623903,0.0 120.539791,22.624505,0.0 120.540183,22.624804,0.0 120.540509,22.625021,0.0 120.540696,22.624652,0.0 120.541559,22.625216,0.0 120.542273,22.625993,0.0 120.542147,22.626654,0.0 120.54235,22.627456,0.0 120.542802,22.62771,0.0 120.542936,22.628088,0.0 120.54331,22.630109,0.0 120.544476,22.630557,0.0 120.552297,22.625938,0.0 120.554643,22.632207,0.0 120.554631,22.63483,0.0 120.556727,22.635927,0.0 120.559162,22.637769,0.0 120.560488,22.638461,0.0 120.558881,22.638744,0.0 120.557087,22.639312,0.0 120.555669,22.638448,0.0 120.553726,22.637639,0.0 120.549782,22.637743,0.0 120.549494,22.637738,0.0 120.548582,22.637532,0.0 120.547511,22.637432,0.0 120.546707,22.637452,0.0 120.545664,22.63893,0.0 120.544719,22.640113,0.0 120.542953,22.641747,0.0 120.54063,22.643556,0.0 120.539966,22.642973,0.0 120.539179,22.642303,0.0 120.538651,22.641857,0.0 120.537792,22.641141,0.0 120.536763,22.640271,0.0 120.536467,22.64001,0.0</coordinates></LinearRing></outerBoundaryIs></Polygon><styleUrl>#spolygon-map</styleUrl></Placemark></Document>
</kml>
