<?xml version="1.0" encoding="UTF-8"?>
<kml xmlns="http://www.opengis.net/kml/2.2">
	<Document>
		<name>彰化縣伸港鄉</name>
		<Style id="spolygon">
			<LabelStyle>
				<scale>0.0</scale>
			</LabelStyle>
			<LineStyle>
				<color>330030ff</color>
				<width>0</width>
			</LineStyle>
			<PolyStyle>
				<color>330030ff</color>
			</PolyStyle>
		</Style>
		<StyleMap id="spolygon-map">
			<Pair>
				<key>normal</key>
				<styleUrl>#spolygon</styleUrl>
			</Pair>
		</StyleMap>
	<Placemark><Polygon><outerBoundaryIs><LinearRing><coordinates>120.496484,24.145464,0.0 120.496108,24.145742,0.0 120.495846,24.145523,0.0 120.495615,24.145051,0.0 120.494489,24.14524,0.0 120.494028,24.145267,0.0 120.49374,24.144969,0.0 120.493352,24.144333,0.0 120.492245,24.144911,0.0 120.491147,24.145568,0.0 120.489206,24.14557,0.0 120.490048,24.14156,0.0 120.49011,24.139351,0.0 120.49022,24.138924,0.0 120.48982,24.13677,0.0 120.490644,24.136444,0.0 120.491067,24.136249,0.0 120.491518,24.136095,0.0 120.491973,24.135869,0.0 120.492406,24.135694,0.0 120.493189,24.135333,0.0 120.493607,24.135145,0.0 120.494541,24.134779,0.0 120.496789,24.140228,0.0 120.495718,24.140349,0.0 120.495509,24.140633,0.0 120.495527,24.141034,0.0 120.496891,24.144784,0.0 120.49677,24.145139,0.0 120.496493,24.145391,0.0 120.496484,24.145464,0.0</coordinates></LinearRing></outerBoundaryIs></Polygon><styleUrl>#spolygon-map</styleUrl></Placemark><Placemark><Polygon><outerBoundaryIs><LinearRing><coordinates>120.484206,24.149013,0.0 120.483327,24.148518,0.0 120.482608,24.148278,0.0 120.480112,24.148298,0.0 120.478703,24.148558,0.0 120.478389,24.148485,0.0 120.477809,24.147771,0.0 120.477638,24.146257,0.0 120.477004,24.145777,0.0 120.477541,24.144924,0.0 120.476999,24.14204,0.0 120.477355,24.141215,0.0 120.481755,24.140253,0.0 120.482536,24.140756,0.0 120.482653,24.141147,0.0 120.482825,24.141564,0.0 120.483253,24.14185,0.0 120.483839,24.142186,0.0 120.484188,24.145541,0.0 120.484172,24.146761,0.0 120.484144,24.148386,0.0 120.484206,24.149013,0.0</coordinates></LinearRing></outerBoundaryIs></Polygon><styleUrl>#spolygon-map</styleUrl></Placemark><Placemark><Polygon><outerBoundaryIs><LinearRing><coordinates>120.501556,24.14988,0.0 120.499723,24.149774,0.0 120.496974,24.148928,0.0 120.496511,24.145687,0.0 120.496599,24.145327,0.0 120.496827,24.145032,0.0 120.496886,24.144699,0.0 120.495486,24.140891,0.0 120.495532,24.140561,0.0 120.495838,24.140309,0.0 120.4966,24.139159,0.0 120.494735,24.134738,0.0 120.495634,24.134449,0.0 120.496422,24.13417,0.0 120.497097,24.133895,0.0 120.498182,24.133471,0.0 120.499062,24.133093,0.0 120.499932,24.132645,0.0 120.501201,24.132018,0.0 120.501861,24.132471,0.0 120.502321,24.133609,0.0 120.502649,24.134421,0.0 120.502884,24.134826,0.0 120.503755,24.136174,0.0 120.503962,24.137421,0.0 120.50412,24.138278,0.0 120.504361,24.139157,0.0 120.504552,24.139896,0.0 120.504781,24.140801,0.0 120.504677,24.140941,0.0 120.505114,24.142207,0.0 120.505409,24.143157,0.0 120.506005,24.144984,0.0 120.50619,24.145674,0.0 120.506257,24.14743,0.0 120.506222,24.148146,0.0 120.506011,24.14818,0.0 120.505638,24.148392,0.0 120.505137,24.148634,0.0 120.504264,24.148727,0.0 120.503826,24.148522,0.0 120.502725,24.148512,0.0 120.502259,24.148688,0.0 120.501545,24.149366,0.0 120.501457,24.149676,0.0 120.501556,24.14988,0.0</coordinates></LinearRing></outerBoundaryIs></Polygon><styleUrl>#spolygon-map</styleUrl></Placemark><Placemark><Polygon><outerBoundaryIs><LinearRing><coordinates>120.495032,24.153275,0.0 120.493998,24.153285,0.0 120.494144,24.150937,0.0 120.493998,24.149984,0.0 120.493604,24.150014,0.0 120.493441,24.149881,0.0 120.492687,24.149811,0.0 120.492528,24.149502,0.0 120.491991,24.148822,0.0 120.490538,24.14844,0.0 120.490367,24.147712,0.0 120.490163,24.147162,0.0 120.489084,24.147446,0.0 120.488938,24.146749,0.0 120.489292,24.145738,0.0 120.492272,24.145343,0.0 120.492217,24.14462,0.0 120.49361,24.144459,0.0 120.493824,24.14514,0.0 120.494205,24.145273,0.0 120.495266,24.145031,0.0 120.495756,24.145181,0.0 120.495928,24.145698,0.0 120.496411,24.145557,0.0 120.496511,24.145687,0.0 120.496974,24.148928,0.0 120.499723,24.149774,0.0 120.501556,24.14988,0.0 120.501533,24.150766,0.0 120.501088,24.151741,0.0 120.497749,24.153013,0.0 120.496454,24.153287,0.0 120.495032,24.153275,0.0</coordinates></LinearRing></outerBoundaryIs></Polygon><styleUrl>#spolygon-map</styleUrl></Placemark><Placemark><Polygon><outerBoundaryIs><LinearRing><coordinates>120.494136,24.151077,0.0 120.488591,24.152359,0.0 120.486183,24.155134,0.0 120.485876,24.154699,0.0 120.485577,24.153632,0.0 120.485381,24.152921,0.0 120.484786,24.151747,0.0 120.484145,24.150709,0.0 120.484206,24.149013,0.0 120.484171,24.147025,0.0 120.48425,24.146007,0.0 120.484125,24.142126,0.0 120.485176,24.141819,0.0 120.485838,24.141582,0.0 120.486127,24.141199,0.0 120.486353,24.140559,0.0 120.486364,24.14028,0.0 120.486376,24.139899,0.0 120.486404,24.139618,0.0 120.486409,24.13913,0.0 120.486447,24.138881,0.0 120.486441,24.138497,0.0 120.48662,24.138104,0.0 120.487134,24.137833,0.0 120.488137,24.137427,0.0 120.488849,24.137115,0.0 120.489876,24.136918,0.0 120.490192,24.139054,0.0 120.490188,24.1403,0.0 120.489769,24.141735,0.0 120.489,24.146347,0.0 120.489037,24.147407,0.0 120.489497,24.147356,0.0 120.490339,24.147213,0.0 120.490379,24.148288,0.0 120.491527,24.14863,0.0 120.492528,24.149385,0.0 120.492586,24.149762,0.0 120.493372,24.149839,0.0 120.493564,24.150043,0.0 120.493934,24.149955,0.0 120.494144,24.15044,0.0 120.494136,24.151077,0.0</coordinates></LinearRing></outerBoundaryIs></Polygon><styleUrl>#spolygon-map</styleUrl></Placemark><Placemark><Polygon><outerBoundaryIs><LinearRing><coordinates>120.483132,24.156416,0.0 120.482029,24.156866,0.0 120.481265,24.156389,0.0 120.478876,24.152909,0.0 120.477094,24.151903,0.0 120.477329,24.15277,0.0 120.476859,24.152831,0.0 120.476277,24.153315,0.0 120.473108,24.150356,0.0 120.474881,24.150698,0.0 120.474511,24.148229,0.0 120.477032,24.148085,0.0 120.477976,24.148511,0.0 120.478457,24.1485,0.0 120.478918,24.148546,0.0 120.480393,24.148274,0.0 120.482799,24.148314,0.0 120.48364,24.148967,0.0 120.484247,24.149417,0.0 120.484198,24.150866,0.0 120.485027,24.152145,0.0 120.485479,24.153113,0.0 120.485652,24.153779,0.0 120.485913,24.154836,0.0 120.486318,24.155197,0.0 120.485398,24.155761,0.0 120.48338,24.156353,0.0 120.483132,24.156416,0.0</coordinates></LinearRing></outerBoundaryIs></Polygon><styleUrl>#spolygon-map</styleUrl></Placemark><Placemark><Polygon><outerBoundaryIs><LinearRing><coordinates>120.460933,24.159619,0.0 120.459502,24.159001,0.0 120.456478,24.159164,0.0 120.45472,24.159395,0.0 120.45259,24.159367,0.0 120.451249,24.159371,0.0 120.449449,24.159243,0.0 120.446151,24.159116,0.0 120.443083,24.159357,0.0 120.440477,24.15898,0.0 120.439994,24.158962,0.0 120.438855,24.158394,0.0 120.439661,24.155907,0.0 120.443323,24.153117,0.0 120.445082,24.15178,0.0 120.450839,24.14751,0.0 120.450681,24.147112,0.0 120.45171,24.146459,0.0 120.454926,24.145759,0.0 120.455474,24.145628,0.0 120.455736,24.146868,0.0 120.455958,24.147299,0.0 120.458068,24.146983,0.0 120.45876,24.146831,0.0 120.459053,24.14678,0.0 120.45928,24.146892,0.0 120.461463,24.147331,0.0 120.464308,24.147928,0.0 120.465212,24.149935,0.0 120.465147,24.151244,0.0 120.465597,24.154507,0.0 120.463662,24.156836,0.0 120.460933,24.159619,0.0</coordinates></LinearRing></outerBoundaryIs></Polygon><styleUrl>#spolygon-map</styleUrl></Placemark><Placemark><Polygon><outerBoundaryIs><LinearRing><coordinates>120.466549,24.15849,0.0 120.466379,24.158904,0.0 120.46382,24.161278,0.0 120.463485,24.161078,0.0 120.462537,24.160481,0.0 120.462024,24.160292,0.0 120.461941,24.160204,0.0 120.461857,24.160221,0.0 120.46151,24.160001,0.0 120.461336,24.160136,0.0 120.46131,24.160037,0.0 120.461237,24.159772,0.0 120.460958,24.159611,0.0 120.465092,24.155422,0.0 120.465595,24.154203,0.0 120.465113,24.150968,0.0 120.465595,24.148188,0.0 120.465806,24.147663,0.0 120.465841,24.147603,0.0 120.466003,24.14749,0.0 120.46627,24.147266,0.0 120.466413,24.14703,0.0 120.466234,24.146409,0.0 120.466428,24.146103,0.0 120.466586,24.145952,0.0 120.466608,24.145629,0.0 120.46726,24.144899,0.0 120.467921,24.144155,0.0 120.468301,24.143781,0.0 120.468363,24.142806,0.0 120.47038,24.142147,0.0 120.471321,24.141878,0.0 120.473117,24.141375,0.0 120.474078,24.141094,0.0 120.474782,24.142666,0.0 120.475452,24.141994,0.0 120.47623,24.141487,0.0 120.47668,24.141366,0.0 120.477627,24.144676,0.0 120.476963,24.145621,0.0 120.477469,24.146007,0.0 120.477776,24.147608,0.0 120.477032,24.148085,0.0 120.474511,24.148229,0.0 120.474881,24.150698,0.0 120.473108,24.150356,0.0 120.475709,24.153483,0.0 120.475263,24.153234,0.0 120.475082,24.15337,0.0 120.474969,24.154483,0.0 120.474815,24.154861,0.0 120.473398,24.155882,0.0 120.472605,24.156232,0.0 120.472407,24.157542,0.0 120.472128,24.157779,0.0 120.471852,24.157882,0.0 120.470133,24.15789,0.0 120.467343,24.158232,0.0 120.46657,24.158465,0.0 120.466549,24.15849,0.0</coordinates></LinearRing></outerBoundaryIs></Polygon><styleUrl>#spolygon-map</styleUrl></Placemark><Placemark><Polygon><outerBoundaryIs><LinearRing><coordinates>120.494959,24.164555,0.0 120.491347,24.164854,0.0 120.490169,24.164724,0.0 120.4899,24.164239,0.0 120.489503,24.163778,0.0 120.489031,24.163606,0.0 120.48841,24.163602,0.0 120.487847,24.163372,0.0 120.487482,24.162961,0.0 120.486619,24.162922,0.0 120.485679,24.16055,0.0 120.484715,24.159339,0.0 120.483612,24.158277,0.0 120.48338,24.156353,0.0 120.485398,24.155761,0.0 120.486318,24.155197,0.0 120.489129,24.152191,0.0 120.494059,24.152437,0.0 120.494339,24.153335,0.0 120.494852,24.154984,0.0 120.494948,24.163909,0.0 120.494959,24.164555,0.0</coordinates></LinearRing></outerBoundaryIs></Polygon><styleUrl>#spolygon-map</styleUrl></Placemark><Placemark><Polygon><outerBoundaryIs><LinearRing><coordinates>120.486393,24.16297,0.0 120.468604,24.166859,0.0 120.462176,24.168177,0.0 120.46442,24.167154,0.0 120.466298,24.166298,0.0 120.467093,24.165928,0.0 120.466807,24.165785,0.0 120.466895,24.165596,0.0 120.467042,24.165357,0.0 120.466157,24.164178,0.0 120.465225,24.16375,0.0 120.465361,24.163326,0.0 120.464491,24.162163,0.0 120.463744,24.161639,0.0 120.463496,24.161726,0.0 120.463778,24.161499,0.0 120.464012,24.161174,0.0 120.46644,24.158635,0.0 120.466702,24.158394,0.0 120.468173,24.158132,0.0 120.470407,24.157877,0.0 120.471941,24.157864,0.0 120.472239,24.157707,0.0 120.472418,24.157535,0.0 120.472679,24.156184,0.0 120.47345,24.155862,0.0 120.474815,24.154861,0.0 120.474943,24.154578,0.0 120.475048,24.153406,0.0 120.475227,24.153242,0.0 120.475663,24.15347,0.0 120.476277,24.153315,0.0 120.476859,24.152831,0.0 120.477329,24.15277,0.0 120.477094,24.151903,0.0 120.478876,24.152909,0.0 120.481265,24.156389,0.0 120.482029,24.156866,0.0 120.483132,24.156416,0.0 120.483493,24.158311,0.0 120.484715,24.159339,0.0 120.485679,24.16055,0.0 120.486393,24.16297,0.0</coordinates></LinearRing></outerBoundaryIs></Polygon><styleUrl>#spolygon-map</styleUrl></Placemark><Placemark><Polygon><outerBoundaryIs><LinearRing><coordinates>120.470864,24.177501,0.0 120.47043,24.177511,0.0 120.469161,24.17803,0.0 120.469081,24.177962,0.0 120.468979,24.177781,0.0 120.469183,24.177396,0.0 120.469024,24.176869,0.0 120.467913,24.175619,0.0 120.467423,24.17483,0.0 120.463957,24.170626,0.0 120.470656,24.166308,0.0 120.486619,24.162922,0.0 120.487482,24.162961,0.0 120.487847,24.163372,0.0 120.48841,24.163602,0.0 120.489031,24.163606,0.0 120.489503,24.163778,0.0 120.4899,24.164239,0.0 120.490169,24.164724,0.0 120.491347,24.164854,0.0 120.494959,24.164555,0.0 120.495204,24.171889,0.0 120.494907,24.173102,0.0 120.492582,24.171922,0.0 120.492265,24.171722,0.0 120.492184,24.17138,0.0 120.491852,24.17106,0.0 120.491181,24.170981,0.0 120.491158,24.170709,0.0 120.490322,24.170279,0.0 120.487453,24.170431,0.0 120.486689,24.17171,0.0 120.480768,24.172854,0.0 120.479256,24.173465,0.0 120.478273,24.173878,0.0 120.477986,24.174491,0.0 120.477788,24.175112,0.0 120.477193,24.175254,0.0 120.475694,24.175629,0.0 120.470864,24.177501,0.0</coordinates></LinearRing></outerBoundaryIs></Polygon><styleUrl>#spolygon-map</styleUrl></Placemark><Placemark><Polygon><outerBoundaryIs><LinearRing><coordinates>120.501084,24.152734,0.0 120.500886,24.158884,0.0 120.501718,24.17227,0.0 120.501633,24.177621,0.0 120.5018,24.179393,0.0 120.498391,24.176306,0.0 120.495204,24.171889,0.0 120.494959,24.164555,0.0 120.494906,24.155672,0.0 120.495203,24.153276,0.0 120.497001,24.153133,0.0 120.501017,24.152892,0.0 120.501084,24.152734,0.0</coordinates></LinearRing></outerBoundaryIs></Polygon><styleUrl>#spolygon-map</styleUrl></Placemark><Placemark><Polygon><outerBoundaryIs><LinearRing><coordinates>120.519697,24.161484,0.0 120.51933,24.162397,0.0 120.518987,24.163143,0.0 120.518059,24.164432,0.0 120.51729,24.165797,0.0 120.516564,24.167534,0.0 120.515897,24.16919,0.0 120.515451,24.170299,0.0 120.515009,24.171232,0.0 120.514187,24.173022,0.0 120.514008,24.173546,0.0 120.513664,24.174289,0.0 120.512595,24.17696,0.0 120.5111,24.180644,0.0 120.509048,24.185161,0.0 120.507085,24.188241,0.0 120.501282,24.179562,0.0 120.501663,24.178095,0.0 120.502041,24.176327,0.0 120.501035,24.162278,0.0 120.501016,24.153969,0.0 120.501323,24.15077,0.0 120.502047,24.150873,0.0 120.502905,24.151301,0.0 120.50372,24.151689,0.0 120.505113,24.151831,0.0 120.506479,24.151988,0.0 120.507859,24.152088,0.0 120.509501,24.152145,0.0 120.509452,24.15341,0.0 120.509326,24.154805,0.0 120.510099,24.155533,0.0 120.511604,24.156295,0.0 120.513099,24.157061,0.0 120.513834,24.157626,0.0 120.51442,24.158093,0.0 120.514669,24.158624,0.0 120.514948,24.15903,0.0 120.515431,24.159526,0.0 120.516102,24.16004,0.0 120.51646,24.160275,0.0 120.516774,24.160456,0.0 120.517273,24.160736,0.0 120.517606,24.160913,0.0 120.51805,24.161119,0.0 120.518413,24.161267,0.0 120.519008,24.161405,0.0 120.519507,24.161465,0.0 120.519697,24.161484,0.0</coordinates></LinearRing></outerBoundaryIs></Polygon><styleUrl>#spolygon-map</styleUrl></Placemark><Placemark><Polygon><outerBoundaryIs><LinearRing><coordinates>120.507085,24.188241,0.0 120.497902,24.193368,0.0 120.492599,24.195125,0.0 120.484446,24.196294,0.0 120.482252,24.19346,0.0 120.481219,24.19141,0.0 120.479797,24.188683,0.0 120.477284,24.184365,0.0 120.477146,24.184281,0.0 120.476763,24.183792,0.0 120.475106,24.182755,0.0 120.4736,24.183345,0.0 120.474793,24.182438,0.0 120.473741,24.181055,0.0 120.471049,24.177741,0.0 120.467515,24.179087,0.0 120.467426,24.179471,0.0 120.467669,24.179654,0.0 120.467877,24.179994,0.0 120.468068,24.180365,0.0 120.468312,24.180672,0.0 120.46845,24.181039,0.0 120.46868,24.181308,0.0 120.468723,24.181532,0.0 120.468879,24.181641,0.0 120.468946,24.181819,0.0 120.469141,24.182253,0.0 120.469128,24.182361,0.0 120.467848,24.180321,0.0 120.467097,24.179219,0.0 120.467161,24.179054,0.0 120.467364,24.178996,0.0 120.467566,24.178905,0.0 120.469412,24.178175,0.0 120.470923,24.177557,0.0 120.475389,24.17573,0.0 120.477032,24.175277,0.0 120.477707,24.175163,0.0 120.477937,24.174772,0.0 120.478174,24.173985,0.0 120.478784,24.173571,0.0 120.480324,24.1729,0.0 120.482915,24.172494,0.0 120.487583,24.171786,0.0 120.490018,24.170293,0.0 120.491119,24.170692,0.0 120.491175,24.170947,0.0 120.491275,24.17106,0.0 120.492026,24.171192,0.0 120.492211,24.17143,0.0 120.492313,24.171898,0.0 120.492767,24.173106,0.0 120.495232,24.173013,0.0 120.501137,24.179742,0.0 120.507085,24.188241,0.0</coordinates></LinearRing></outerBoundaryIs></Polygon><styleUrl>#spolygon-map</styleUrl></Placemark></Document>
</kml>
