<?xml version="1.0" encoding="UTF-8"?>
<kml xmlns="http://www.opengis.net/kml/2.2">
	<Document>
		<name>彰化縣二林鎮</name>
		<Style id="spolygon">
			<LabelStyle>
				<scale>0.0</scale>
			</LabelStyle>
			<LineStyle>
				<color>330030ff</color>
				<width>0</width>
			</LineStyle>
			<PolyStyle>
				<color>330030ff</color>
			</PolyStyle>
		</Style>
		<StyleMap id="spolygon-map">
			<Pair>
				<key>normal</key>
				<styleUrl>#spolygon</styleUrl>
			</Pair>
		</StyleMap>
	<Placemark><Polygon><outerBoundaryIs><LinearRing><coordinates>120.393614,23.88072,0.0 120.388837,23.880125,0.0 120.385247,23.881333,0.0 120.383195,23.881425,0.0 120.382221,23.879923,0.0 120.382605,23.877943,0.0 120.383267,23.876864,0.0 120.383896,23.874027,0.0 120.383641,23.871473,0.0 120.381503,23.86819,0.0 120.380762,23.862878,0.0 120.381696,23.862675,0.0 120.382826,23.862417,0.0 120.383295,23.86215,0.0 120.383599,23.862307,0.0 120.383774,23.862678,0.0 120.384053,23.863303,0.0 120.384734,23.863416,0.0 120.386098,23.863487,0.0 120.388281,23.86284,0.0 120.388983,23.863842,0.0 120.389576,23.863942,0.0 120.393354,23.863945,0.0 120.396983,23.863946,0.0 120.397893,23.864358,0.0 120.39974,23.864656,0.0 120.399692,23.869024,0.0 120.400128,23.86999,0.0 120.4014,23.870002,0.0 120.402868,23.870492,0.0 120.403117,23.871675,0.0 120.403622,23.873254,0.0 120.403701,23.873879,0.0 120.403665,23.874316,0.0 120.4035,23.87485,0.0 120.401859,23.875326,0.0 120.400343,23.875606,0.0 120.399753,23.876294,0.0 120.397578,23.876567,0.0 120.395501,23.876845,0.0 120.392805,23.877267,0.0 120.393079,23.879166,0.0 120.393614,23.88072,0.0</coordinates></LinearRing></outerBoundaryIs></Polygon><styleUrl>#spolygon-map</styleUrl></Placemark><Placemark><Polygon><outerBoundaryIs><LinearRing><coordinates>120.361797,23.882909,0.0 120.358954,23.887735,0.0 120.356792,23.88558,0.0 120.356398,23.883225,0.0 120.35843,23.882219,0.0 120.358322,23.880285,0.0 120.356412,23.875191,0.0 120.354808,23.871722,0.0 120.352467,23.871919,0.0 120.350833,23.867561,0.0 120.350295,23.865945,0.0 120.34955,23.863785,0.0 120.348817,23.861694,0.0 120.349443,23.860586,0.0 120.34914,23.858661,0.0 120.350779,23.859009,0.0 120.351791,23.859643,0.0 120.352126,23.85928,0.0 120.352441,23.859221,0.0 120.352882,23.858728,0.0 120.35362,23.858947,0.0 120.354836,23.8595,0.0 120.354934,23.859288,0.0 120.355543,23.858649,0.0 120.355568,23.858216,0.0 120.355775,23.857586,0.0 120.355143,23.857028,0.0 120.35512,23.856213,0.0 120.355294,23.855865,0.0 120.355517,23.855796,0.0 120.356005,23.855856,0.0 120.356284,23.855449,0.0 120.356412,23.854892,0.0 120.357079,23.855341,0.0 120.357676,23.855124,0.0 120.358263,23.854979,0.0 120.358964,23.855385,0.0 120.359397,23.855836,0.0 120.359708,23.856348,0.0 120.360285,23.856615,0.0 120.360851,23.856619,0.0 120.36139,23.85631,0.0 120.362027,23.855943,0.0 120.362296,23.855507,0.0 120.362529,23.855579,0.0 120.36281,23.85576,0.0 120.363023,23.855603,0.0 120.363405,23.85527,0.0 120.363816,23.855163,0.0 120.364224,23.854695,0.0 120.364698,23.854371,0.0 120.365058,23.854098,0.0 120.365202,23.853521,0.0 120.365498,23.853199,0.0 120.366114,23.853443,0.0 120.366224,23.853956,0.0 120.366318,23.854356,0.0 120.366548,23.854922,0.0 120.366799,23.854982,0.0 120.367094,23.854993,0.0 120.36734,23.855191,0.0 120.367742,23.854279,0.0 120.368029,23.853739,0.0 120.368404,23.853858,0.0 120.368572,23.854598,0.0 120.368816,23.855102,0.0 120.368921,23.855825,0.0 120.369102,23.856052,0.0 120.369401,23.8563,0.0 120.369697,23.857289,0.0 120.369469,23.857884,0.0 120.369653,23.858711,0.0 120.36987,23.859258,0.0 120.370318,23.85963,0.0 120.370818,23.861874,0.0 120.371113,23.863033,0.0 120.370125,23.865115,0.0 120.368649,23.869288,0.0 120.366762,23.870439,0.0 120.366984,23.872096,0.0 120.367455,23.874302,0.0 120.365218,23.875842,0.0 120.364131,23.878715,0.0 120.36304,23.881949,0.0 120.361797,23.882909,0.0</coordinates></LinearRing></outerBoundaryIs></Polygon><styleUrl>#spolygon-map</styleUrl></Placemark><Placemark><Polygon><outerBoundaryIs><LinearRing><coordinates>120.373877,23.887217,0.0 120.373498,23.886746,0.0 120.375057,23.885581,0.0 120.374919,23.88517,0.0 120.372778,23.885649,0.0 120.37146,23.886397,0.0 120.369075,23.887199,0.0 120.366399,23.889564,0.0 120.365246,23.891311,0.0 120.364241,23.890888,0.0 120.363172,23.889236,0.0 120.361843,23.883941,0.0 120.36304,23.881949,0.0 120.364131,23.878715,0.0 120.365218,23.875842,0.0 120.367455,23.874302,0.0 120.366984,23.872096,0.0 120.366762,23.870439,0.0 120.368649,23.869288,0.0 120.370125,23.865115,0.0 120.372539,23.86311,0.0 120.374028,23.863441,0.0 120.376656,23.86293,0.0 120.377869,23.862649,0.0 120.378502,23.863426,0.0 120.379806,23.863189,0.0 120.381062,23.864204,0.0 120.382006,23.869339,0.0 120.383834,23.872164,0.0 120.383868,23.875109,0.0 120.383015,23.877028,0.0 120.38252,23.878522,0.0 120.382073,23.880429,0.0 120.380392,23.882226,0.0 120.376283,23.885561,0.0 120.373877,23.887217,0.0</coordinates></LinearRing></outerBoundaryIs></Polygon><styleUrl>#spolygon-map</styleUrl></Placemark><Placemark><Polygon><outerBoundaryIs><LinearRing><coordinates>120.441079,23.894666,0.0 120.435076,23.895658,0.0 120.435485,23.892804,0.0 120.436615,23.889177,0.0 120.435651,23.888892,0.0 120.432833,23.889974,0.0 120.428653,23.892377,0.0 120.428088,23.892223,0.0 120.428295,23.889892,0.0 120.427763,23.887543,0.0 120.428289,23.885701,0.0 120.428693,23.883061,0.0 120.429769,23.882628,0.0 120.431277,23.881106,0.0 120.432531,23.880381,0.0 120.432722,23.879682,0.0 120.432123,23.878488,0.0 120.432958,23.878041,0.0 120.433673,23.877659,0.0 120.434587,23.87682,0.0 120.435692,23.876015,0.0 120.437085,23.875975,0.0 120.438004,23.876195,0.0 120.440561,23.875008,0.0 120.442009,23.874632,0.0 120.443066,23.874585,0.0 120.443813,23.874794,0.0 120.445107,23.875813,0.0 120.445467,23.875599,0.0 120.446452,23.875197,0.0 120.4471,23.875307,0.0 120.447482,23.875871,0.0 120.447665,23.876591,0.0 120.447926,23.878386,0.0 120.447644,23.879499,0.0 120.446942,23.880721,0.0 120.446443,23.883049,0.0 120.445549,23.884709,0.0 120.444973,23.88506,0.0 120.445944,23.885231,0.0 120.446418,23.88525,0.0 120.447044,23.885431,0.0 120.447635,23.885655,0.0 120.448045,23.885941,0.0 120.447952,23.886477,0.0 120.447436,23.886837,0.0 120.446985,23.88724,0.0 120.446922,23.887676,0.0 120.446769,23.888263,0.0 120.446771,23.888692,0.0 120.446076,23.889106,0.0 120.446463,23.890759,0.0 120.446054,23.891931,0.0 120.444326,23.892628,0.0 120.443448,23.894319,0.0 120.441079,23.894666,0.0</coordinates></LinearRing></outerBoundaryIs></Polygon><styleUrl>#spolygon-map</styleUrl></Placemark><Placemark><Polygon><outerBoundaryIs><LinearRing><coordinates>120.434622,23.895749,0.0 120.431716,23.895993,0.0 120.42985,23.895506,0.0 120.428222,23.893101,0.0 120.427482,23.892728,0.0 120.424832,23.893425,0.0 120.422201,23.891731,0.0 120.420919,23.889157,0.0 120.420927,23.88578,0.0 120.421071,23.885468,0.0 120.422265,23.88367,0.0 120.424053,23.880965,0.0 120.425655,23.878527,0.0 120.42725,23.878864,0.0 120.428257,23.879275,0.0 120.428407,23.87908,0.0 120.428742,23.878877,0.0 120.429155,23.879109,0.0 120.429693,23.880193,0.0 120.430235,23.879874,0.0 120.43127,23.879008,0.0 120.432123,23.878488,0.0 120.432722,23.879682,0.0 120.432531,23.880381,0.0 120.431277,23.881106,0.0 120.429769,23.882628,0.0 120.428693,23.883061,0.0 120.428289,23.885701,0.0 120.427763,23.887543,0.0 120.428295,23.889892,0.0 120.428088,23.892223,0.0 120.428653,23.892377,0.0 120.432833,23.889974,0.0 120.435651,23.888892,0.0 120.436615,23.889177,0.0 120.435485,23.892804,0.0 120.434622,23.895749,0.0</coordinates></LinearRing></outerBoundaryIs></Polygon><styleUrl>#spolygon-map</styleUrl></Placemark><Placemark><Polygon><outerBoundaryIs><LinearRing><coordinates>120.411657,23.8915,0.0 120.410576,23.892381,0.0 120.406084,23.893514,0.0 120.406114,23.896024,0.0 120.402352,23.896863,0.0 120.396929,23.895364,0.0 120.39312,23.895888,0.0 120.391847,23.895067,0.0 120.394846,23.892107,0.0 120.395798,23.891451,0.0 120.395562,23.890394,0.0 120.394039,23.887541,0.0 120.396353,23.886618,0.0 120.394799,23.883456,0.0 120.393614,23.88072,0.0 120.392803,23.877814,0.0 120.393469,23.877108,0.0 120.396561,23.876662,0.0 120.399073,23.876375,0.0 120.40036,23.876329,0.0 120.400544,23.877429,0.0 120.401921,23.877352,0.0 120.402719,23.877933,0.0 120.402843,23.879073,0.0 120.403013,23.880335,0.0 120.402942,23.88074,0.0 120.40278,23.881921,0.0 120.402332,23.882403,0.0 120.401872,23.882975,0.0 120.40134,23.884584,0.0 120.401526,23.885223,0.0 120.403168,23.886316,0.0 120.404705,23.886831,0.0 120.40697,23.886748,0.0 120.407913,23.887301,0.0 120.408734,23.888869,0.0 120.409461,23.889927,0.0 120.410359,23.890636,0.0 120.410781,23.891224,0.0 120.411657,23.8915,0.0</coordinates></LinearRing></outerBoundaryIs></Polygon><styleUrl>#spolygon-map</styleUrl></Placemark><Placemark><Polygon><outerBoundaryIs><LinearRing><coordinates>120.391683,23.894318,0.0 120.387367,23.897616,0.0 120.385445,23.898705,0.0 120.384732,23.896292,0.0 120.378115,23.89756,0.0 120.375507,23.897665,0.0 120.374397,23.89677,0.0 120.373323,23.894316,0.0 120.373798,23.891317,0.0 120.373708,23.890711,0.0 120.374508,23.890096,0.0 120.37452,23.889053,0.0 120.374612,23.888506,0.0 120.374384,23.887776,0.0 120.374147,23.887081,0.0 120.377866,23.883929,0.0 120.381806,23.881644,0.0 120.384187,23.881311,0.0 120.388341,23.880312,0.0 120.392354,23.880389,0.0 120.394358,23.882409,0.0 120.396051,23.885921,0.0 120.395229,23.887204,0.0 120.394299,23.888482,0.0 120.395897,23.891323,0.0 120.395334,23.891859,0.0 120.391683,23.894318,0.0</coordinates></LinearRing></outerBoundaryIs></Polygon><styleUrl>#spolygon-map</styleUrl></Placemark><Placemark><Polygon><outerBoundaryIs><LinearRing><coordinates>120.373869,23.895627,0.0 120.373141,23.896762,0.0 120.371492,23.898654,0.0 120.369691,23.898838,0.0 120.367684,23.897834,0.0 120.365963,23.897503,0.0 120.364658,23.895641,0.0 120.362907,23.895311,0.0 120.358867,23.895872,0.0 120.356742,23.896239,0.0 120.356163,23.894911,0.0 120.358445,23.893784,0.0 120.362743,23.892587,0.0 120.365444,23.89091,0.0 120.367391,23.888821,0.0 120.369458,23.886919,0.0 120.371917,23.886023,0.0 120.373178,23.885565,0.0 120.375003,23.885188,0.0 120.374805,23.885777,0.0 120.373488,23.887019,0.0 120.374244,23.887529,0.0 120.374405,23.888077,0.0 120.374633,23.888814,0.0 120.374547,23.889566,0.0 120.374228,23.890468,0.0 120.373647,23.890869,0.0 120.373737,23.892004,0.0 120.373734,23.895333,0.0 120.373869,23.895627,0.0</coordinates></LinearRing></outerBoundaryIs></Polygon><styleUrl>#spolygon-map</styleUrl></Placemark><Placemark><Polygon><outerBoundaryIs><LinearRing><coordinates>120.356956,23.896309,0.0 120.353226,23.900389,0.0 120.353515,23.899345,0.0 120.353493,23.898744,0.0 120.353639,23.897615,0.0 120.354457,23.895543,0.0 120.352002,23.896319,0.0 120.349998,23.896951,0.0 120.349516,23.895061,0.0 120.349566,23.893785,0.0 120.349057,23.892609,0.0 120.349713,23.891625,0.0 120.349283,23.890691,0.0 120.348793,23.889644,0.0 120.348332,23.888659,0.0 120.347734,23.887363,0.0 120.347225,23.886262,0.0 120.346695,23.885145,0.0 120.346039,23.883697,0.0 120.345012,23.882428,0.0 120.344062,23.87975,0.0 120.343621,23.877856,0.0 120.342936,23.875221,0.0 120.342389,23.873032,0.0 120.34189,23.87101,0.0 120.342565,23.869559,0.0 120.345519,23.868668,0.0 120.346298,23.867432,0.0 120.349061,23.866622,0.0 120.351461,23.868926,0.0 120.352672,23.87204,0.0 120.35522,23.871707,0.0 120.356788,23.875769,0.0 120.358659,23.880887,0.0 120.358233,23.88247,0.0 120.356083,23.883668,0.0 120.358107,23.887252,0.0 120.359231,23.887196,0.0 120.361843,23.883941,0.0 120.363172,23.889236,0.0 120.364241,23.890888,0.0 120.361135,23.893248,0.0 120.356763,23.89388,0.0 120.356002,23.895336,0.0 120.356956,23.896309,0.0</coordinates></LinearRing></outerBoundaryIs></Polygon><styleUrl>#spolygon-map</styleUrl></Placemark><Placemark><Polygon><outerBoundaryIs><LinearRing><coordinates>120.361959,23.900557,0.0 120.361233,23.900429,0.0 120.358934,23.900617,0.0 120.357921,23.900685,0.0 120.356975,23.900746,0.0 120.355988,23.900886,0.0 120.354571,23.901013,0.0 120.353407,23.900846,0.0 120.354935,23.898394,0.0 120.3572,23.896092,0.0 120.360972,23.895557,0.0 120.364211,23.895324,0.0 120.365466,23.896811,0.0 120.366626,23.897739,0.0 120.368437,23.898136,0.0 120.367807,23.900652,0.0 120.36593,23.900408,0.0 120.361959,23.900557,0.0</coordinates></LinearRing></outerBoundaryIs></Polygon><styleUrl>#spolygon-map</styleUrl></Placemark><Placemark><Polygon><outerBoundaryIs><LinearRing><coordinates>120.433214,23.899178,0.0 120.431088,23.899078,0.0 120.427091,23.89922,0.0 120.424494,23.89983,0.0 120.419836,23.902384,0.0 120.418255,23.899963,0.0 120.4169,23.896817,0.0 120.412264,23.891129,0.0 120.412502,23.890075,0.0 120.412647,23.889177,0.0 120.412542,23.88859,0.0 120.412541,23.888044,0.0 120.412911,23.887664,0.0 120.413,23.886116,0.0 120.417365,23.885944,0.0 120.420321,23.885819,0.0 120.421024,23.886259,0.0 120.421154,23.890591,0.0 120.424113,23.893039,0.0 120.42544,23.893317,0.0 120.42782,23.892814,0.0 120.429014,23.894676,0.0 120.430677,23.895892,0.0 120.433222,23.895907,0.0 120.435807,23.895584,0.0 120.441094,23.895103,0.0 120.441163,23.896282,0.0 120.441226,23.897503,0.0 120.436379,23.898668,0.0 120.433214,23.899178,0.0</coordinates></LinearRing></outerBoundaryIs></Polygon><styleUrl>#spolygon-map</styleUrl></Placemark><Placemark><Polygon><outerBoundaryIs><LinearRing><coordinates>120.371841,23.901589,0.0 120.368519,23.901466,0.0 120.367797,23.902363,0.0 120.365641,23.902214,0.0 120.363168,23.902077,0.0 120.361729,23.90125,0.0 120.36226,23.900501,0.0 120.366593,23.900636,0.0 120.368148,23.899945,0.0 120.368809,23.898305,0.0 120.370893,23.898933,0.0 120.373033,23.897204,0.0 120.373624,23.895755,0.0 120.374495,23.897243,0.0 120.374447,23.898618,0.0 120.372388,23.898922,0.0 120.372069,23.899564,0.0 120.373047,23.900417,0.0 120.37259,23.901544,0.0 120.371841,23.901589,0.0</coordinates></LinearRing></outerBoundaryIs></Polygon><styleUrl>#spolygon-map</styleUrl></Placemark><Placemark><Polygon><outerBoundaryIs><LinearRing><coordinates>120.406529,23.905703,0.0 120.405865,23.905589,0.0 120.403095,23.906448,0.0 120.400766,23.906457,0.0 120.397379,23.907759,0.0 120.394657,23.908021,0.0 120.392065,23.907825,0.0 120.389746,23.907526,0.0 120.383676,23.904544,0.0 120.379649,23.902334,0.0 120.379031,23.901,0.0 120.379048,23.899745,0.0 120.378495,23.899408,0.0 120.375955,23.899435,0.0 120.375521,23.898485,0.0 120.378115,23.89756,0.0 120.384732,23.896292,0.0 120.385445,23.898705,0.0 120.387367,23.897616,0.0 120.391683,23.894318,0.0 120.392403,23.896143,0.0 120.396278,23.895221,0.0 120.401118,23.896782,0.0 120.402753,23.898702,0.0 120.402855,23.902154,0.0 120.406578,23.902257,0.0 120.406565,23.904973,0.0 120.406529,23.905703,0.0</coordinates></LinearRing></outerBoundaryIs></Polygon><styleUrl>#spolygon-map</styleUrl></Placemark><Placemark><Polygon><outerBoundaryIs><LinearRing><coordinates>120.412964,23.909653,0.0 120.410825,23.912276,0.0 120.408711,23.909384,0.0 120.406763,23.90602,0.0 120.406656,23.902668,0.0 120.403638,23.902304,0.0 120.402816,23.900379,0.0 120.4025,23.897323,0.0 120.406002,23.89624,0.0 120.406,23.893692,0.0 120.408467,23.892883,0.0 120.411702,23.891863,0.0 120.412077,23.891213,0.0 120.414824,23.893595,0.0 120.417575,23.89809,0.0 120.419161,23.901573,0.0 120.414612,23.907047,0.0 120.412964,23.909653,0.0</coordinates></LinearRing></outerBoundaryIs></Polygon><styleUrl>#spolygon-map</styleUrl></Placemark><Placemark><Polygon><outerBoundaryIs><LinearRing><coordinates>120.397145,23.921436,0.0 120.393783,23.921517,0.0 120.392605,23.920048,0.0 120.391765,23.918165,0.0 120.388995,23.919469,0.0 120.386753,23.92195,0.0 120.38363,23.919633,0.0 120.382757,23.918067,0.0 120.380201,23.919801,0.0 120.379172,23.919588,0.0 120.377779,23.916554,0.0 120.378197,23.915755,0.0 120.379729,23.915164,0.0 120.377525,23.910362,0.0 120.37458,23.904792,0.0 120.372983,23.902966,0.0 120.371994,23.902049,0.0 120.373025,23.901373,0.0 120.372393,23.899929,0.0 120.372046,23.899148,0.0 120.373846,23.898928,0.0 120.374625,23.898327,0.0 120.374397,23.89677,0.0 120.375507,23.897665,0.0 120.375691,23.899136,0.0 120.37779,23.899368,0.0 120.3788,23.89951,0.0 120.379047,23.899946,0.0 120.379085,23.90158,0.0 120.381135,23.903258,0.0 120.387724,23.906438,0.0 120.390496,23.907666,0.0 120.39367,23.907941,0.0 120.396239,23.907968,0.0 120.398886,23.907104,0.0 120.40221,23.906377,0.0 120.404,23.906291,0.0 120.406333,23.905556,0.0 120.407169,23.90673,0.0 120.409252,23.910183,0.0 120.411267,23.912855,0.0 120.407498,23.915221,0.0 120.404581,23.916039,0.0 120.40299,23.91691,0.0 120.402695,23.918487,0.0 120.403117,23.920046,0.0 120.399923,23.92122,0.0 120.397145,23.921436,0.0</coordinates></LinearRing></outerBoundaryIs></Polygon><styleUrl>#spolygon-map</styleUrl></Placemark><Placemark><Polygon><outerBoundaryIs><LinearRing><coordinates>120.375728,23.923057,0.0 120.375008,23.923088,0.0 120.374336,23.923223,0.0 120.373237,23.922979,0.0 120.372016,23.9226,0.0 120.370988,23.92304,0.0 120.369475,23.922779,0.0 120.36853,23.922677,0.0 120.368347,23.922394,0.0 120.367802,23.922229,0.0 120.367324,23.921597,0.0 120.366222,23.920512,0.0 120.365642,23.921251,0.0 120.364695,23.921459,0.0 120.36426,23.92079,0.0 120.363866,23.919602,0.0 120.364663,23.918662,0.0 120.365371,23.918404,0.0 120.365075,23.917633,0.0 120.36478,23.916622,0.0 120.364414,23.915804,0.0 120.364287,23.915048,0.0 120.363631,23.913923,0.0 120.362832,23.913919,0.0 120.361128,23.914486,0.0 120.361016,23.913795,0.0 120.36126,23.91261,0.0 120.361427,23.911589,0.0 120.361401,23.910544,0.0 120.361398,23.90964,0.0 120.362011,23.908585,0.0 120.362884,23.907678,0.0 120.363049,23.907128,0.0 120.362578,23.906814,0.0 120.361227,23.906491,0.0 120.360484,23.906001,0.0 120.360988,23.905079,0.0 120.36137,23.903916,0.0 120.361471,23.902117,0.0 120.36499,23.902057,0.0 120.367301,23.902459,0.0 120.368205,23.901938,0.0 120.368968,23.901281,0.0 120.3725,23.903004,0.0 120.373199,23.902888,0.0 120.375693,23.906877,0.0 120.377977,23.911347,0.0 120.379668,23.91533,0.0 120.377843,23.915865,0.0 120.378421,23.917516,0.0 120.379122,23.919841,0.0 120.377258,23.921184,0.0 120.375728,23.923057,0.0</coordinates></LinearRing></outerBoundaryIs></Polygon><styleUrl>#spolygon-map</styleUrl></Placemark><Placemark><Polygon><outerBoundaryIs><LinearRing><coordinates>120.433214,23.899178,0.0 120.43131,23.901778,0.0 120.428569,23.904951,0.0 120.426996,23.908454,0.0 120.426335,23.911665,0.0 120.426109,23.914623,0.0 120.42631,23.919548,0.0 120.424577,23.921252,0.0 120.42099,23.924876,0.0 120.419479,23.922376,0.0 120.419614,23.920039,0.0 120.419903,23.918267,0.0 120.419518,23.918179,0.0 120.417566,23.919891,0.0 120.415268,23.920228,0.0 120.414575,23.91604,0.0 120.414007,23.912168,0.0 120.413581,23.910712,0.0 120.412964,23.909653,0.0 120.41583,23.905797,0.0 120.421657,23.90113,0.0 120.425182,23.899644,0.0 120.427579,23.899146,0.0 120.431775,23.899143,0.0 120.433214,23.899178,0.0</coordinates></LinearRing></outerBoundaryIs></Polygon><styleUrl>#spolygon-map</styleUrl></Placemark><Placemark><Polygon><outerBoundaryIs><LinearRing><coordinates>120.445729,23.93027,0.0 120.436333,23.930475,0.0 120.429768,23.931954,0.0 120.427433,23.933623,0.0 120.425192,23.93174,0.0 120.423089,23.930629,0.0 120.422639,23.928165,0.0 120.422251,23.926255,0.0 120.421403,23.924462,0.0 120.42545,23.920495,0.0 120.426247,23.918853,0.0 120.426082,23.913305,0.0 120.426348,23.911257,0.0 120.427334,23.907311,0.0 120.429028,23.904227,0.0 120.432227,23.900622,0.0 120.433983,23.899134,0.0 120.436808,23.8985,0.0 120.441245,23.897786,0.0 120.44129,23.898835,0.0 120.441694,23.898918,0.0 120.441659,23.900602,0.0 120.442557,23.90049,0.0 120.442661,23.900876,0.0 120.443747,23.900906,0.0 120.4438,23.902761,0.0 120.443776,23.904315,0.0 120.443731,23.907101,0.0 120.444142,23.908048,0.0 120.445778,23.908022,0.0 120.446928,23.908221,0.0 120.447325,23.908825,0.0 120.446728,23.909209,0.0 120.445942,23.910743,0.0 120.446683,23.912373,0.0 120.447177,23.915065,0.0 120.447407,23.915294,0.0 120.447466,23.915801,0.0 120.447242,23.916667,0.0 120.447061,23.917401,0.0 120.44663,23.918398,0.0 120.4463,23.918827,0.0 120.445523,23.919257,0.0 120.445557,23.920641,0.0 120.445565,23.921271,0.0 120.44558,23.921946,0.0 120.445608,23.923016,0.0 120.445711,23.92528,0.0 120.44583,23.929921,0.0 120.445729,23.93027,0.0</coordinates></LinearRing></outerBoundaryIs></Polygon><styleUrl>#spolygon-map</styleUrl></Placemark><Placemark><Polygon><outerBoundaryIs><LinearRing><coordinates>120.42422,23.942366,0.0 120.420652,23.943623,0.0 120.417678,23.944754,0.0 120.41377,23.945418,0.0 120.413929,23.943936,0.0 120.415929,23.9417,0.0 120.416792,23.940866,0.0 120.416473,23.93989,0.0 120.414932,23.938006,0.0 120.41394,23.937351,0.0 120.413522,23.935796,0.0 120.412177,23.934212,0.0 120.410626,23.93251,0.0 120.410076,23.932102,0.0 120.408895,23.932167,0.0 120.407315,23.929706,0.0 120.405691,23.927792,0.0 120.404782,23.925707,0.0 120.401089,23.923965,0.0 120.397482,23.922195,0.0 120.398309,23.921345,0.0 120.402275,23.920497,0.0 120.403149,23.919802,0.0 120.402624,23.917554,0.0 120.403405,23.916548,0.0 120.40625,23.915521,0.0 120.409203,23.914632,0.0 120.412875,23.909841,0.0 120.413383,23.910578,0.0 120.413969,23.911315,0.0 120.414484,23.91555,0.0 120.415093,23.919491,0.0 120.416426,23.920242,0.0 120.419307,23.918648,0.0 120.419789,23.918103,0.0 120.419795,23.919283,0.0 120.419305,23.921467,0.0 120.420399,23.924287,0.0 120.422251,23.926255,0.0 120.422639,23.928165,0.0 120.423089,23.930629,0.0 120.425192,23.93174,0.0 120.427433,23.933623,0.0 120.425785,23.936344,0.0 120.42467,23.93886,0.0 120.423918,23.940596,0.0 120.42422,23.942366,0.0</coordinates></LinearRing></outerBoundaryIs></Polygon><styleUrl>#spolygon-map</styleUrl></Placemark><Placemark><Polygon><outerBoundaryIs><LinearRing><coordinates>120.445729,23.93027,0.0 120.445844,23.933163,0.0 120.445166,23.934181,0.0 120.445191,23.935636,0.0 120.443315,23.938287,0.0 120.443197,23.939575,0.0 120.442,23.941029,0.0 120.441263,23.944076,0.0 120.440919,23.944966,0.0 120.434905,23.948234,0.0 120.433022,23.949196,0.0 120.431916,23.947071,0.0 120.429037,23.946696,0.0 120.426722,23.946536,0.0 120.424868,23.943821,0.0 120.423916,23.941103,0.0 120.424539,23.939282,0.0 120.425239,23.937245,0.0 120.427578,23.933873,0.0 120.431294,23.931177,0.0 120.438923,23.930424,0.0 120.445729,23.93027,0.0</coordinates></LinearRing></outerBoundaryIs></Polygon><styleUrl>#spolygon-map</styleUrl></Placemark><Placemark><Polygon><outerBoundaryIs><LinearRing><coordinates>120.396819,23.951223,0.0 120.394818,23.951849,0.0 120.393555,23.952048,0.0 120.392435,23.952503,0.0 120.391478,23.95308,0.0 120.388635,23.948119,0.0 120.387657,23.946571,0.0 120.386816,23.945302,0.0 120.385737,23.945578,0.0 120.385523,23.946929,0.0 120.385292,23.94734,0.0 120.384506,23.947384,0.0 120.384101,23.947696,0.0 120.384201,23.94833,0.0 120.383039,23.947727,0.0 120.382638,23.947634,0.0 120.381782,23.947888,0.0 120.381495,23.948057,0.0 120.381547,23.948326,0.0 120.38039,23.947751,0.0 120.381404,23.947422,0.0 120.381876,23.946964,0.0 120.381686,23.946146,0.0 120.381835,23.944875,0.0 120.381879,23.944172,0.0 120.381717,23.942838,0.0 120.381562,23.9422,0.0 120.381578,23.94096,0.0 120.381641,23.939511,0.0 120.381738,23.938413,0.0 120.382332,23.936366,0.0 120.382538,23.934916,0.0 120.382321,23.934311,0.0 120.382287,23.933827,0.0 120.3827,23.933087,0.0 120.382765,23.932398,0.0 120.383053,23.931963,0.0 120.382758,23.931568,0.0 120.382421,23.930619,0.0 120.382004,23.928887,0.0 120.38174,23.927595,0.0 120.381538,23.926567,0.0 120.381423,23.925767,0.0 120.381129,23.925463,0.0 120.380002,23.925046,0.0 120.379293,23.924914,0.0 120.378815,23.924839,0.0 120.37806,23.924775,0.0 120.377425,23.924708,0.0 120.376906,23.924616,0.0 120.376588,23.923978,0.0 120.376218,23.923339,0.0 120.376349,23.922315,0.0 120.378573,23.920273,0.0 120.380885,23.919359,0.0 120.38293,23.918182,0.0 120.384596,23.920001,0.0 120.386902,23.922432,0.0 120.387464,23.925083,0.0 120.385989,23.925894,0.0 120.385596,23.926693,0.0 120.386829,23.933033,0.0 120.388423,23.938213,0.0 120.389558,23.938608,0.0 120.392387,23.937875,0.0 120.394317,23.94371,0.0 120.395749,23.944627,0.0 120.396778,23.946843,0.0 120.396628,23.948215,0.0 120.397558,23.949594,0.0 120.396819,23.951223,0.0</coordinates></LinearRing></outerBoundaryIs></Polygon><styleUrl>#spolygon-map</styleUrl></Placemark><Placemark><Polygon><outerBoundaryIs><LinearRing><coordinates>120.461063,23.935176,0.0 120.458884,23.936794,0.0 120.458299,23.937434,0.0 120.45755,23.938196,0.0 120.455848,23.939757,0.0 120.45516,23.940688,0.0 120.454615,23.941746,0.0 120.454307,23.942792,0.0 120.45363,23.944179,0.0 120.452893,23.946152,0.0 120.452459,23.947359,0.0 120.451925,23.948715,0.0 120.45119,23.950213,0.0 120.450392,23.951537,0.0 120.449599,23.952892,0.0 120.448667,23.954541,0.0 120.447437,23.956068,0.0 120.446784,23.957135,0.0 120.444772,23.956829,0.0 120.440574,23.956587,0.0 120.437347,23.956506,0.0 120.43451,23.956777,0.0 120.433947,23.956347,0.0 120.433804,23.953806,0.0 120.430693,23.954108,0.0 120.430175,23.953636,0.0 120.431022,23.951318,0.0 120.433713,23.94885,0.0 120.43771,23.946682,0.0 120.44122,23.94455,0.0 120.441319,23.943109,0.0 120.442686,23.940099,0.0 120.443241,23.938831,0.0 120.444357,23.936929,0.0 120.445091,23.934871,0.0 120.445734,23.933711,0.0 120.445838,23.932857,0.0 120.445828,23.930348,0.0 120.453897,23.930191,0.0 120.454129,23.929884,0.0 120.457882,23.929277,0.0 120.459478,23.927914,0.0 120.461333,23.92824,0.0 120.464899,23.93036,0.0 120.466563,23.931635,0.0 120.465496,23.93298,0.0 120.463684,23.933905,0.0 120.461063,23.935176,0.0</coordinates></LinearRing></outerBoundaryIs></Polygon><styleUrl>#spolygon-map</styleUrl></Placemark><Placemark><Polygon><outerBoundaryIs><LinearRing><coordinates>120.412519,23.945815,0.0 120.410198,23.947661,0.0 120.408326,23.948896,0.0 120.407512,23.949651,0.0 120.405294,23.951388,0.0 120.403692,23.952603,0.0 120.403097,23.954278,0.0 120.402521,23.956605,0.0 120.398391,23.95769,0.0 120.396947,23.952806,0.0 120.396738,23.951913,0.0 120.397221,23.950539,0.0 120.39743,23.948785,0.0 120.39669,23.947304,0.0 120.396034,23.944971,0.0 120.394558,23.944213,0.0 120.392674,23.938134,0.0 120.390039,23.938484,0.0 120.388629,23.938404,0.0 120.387043,23.93374,0.0 120.385877,23.927812,0.0 120.38561,23.925956,0.0 120.387325,23.925325,0.0 120.387298,23.923712,0.0 120.387701,23.921096,0.0 120.390222,23.918497,0.0 120.392224,23.918477,0.0 120.392999,23.921054,0.0 120.395648,23.921495,0.0 120.397482,23.922195,0.0 120.401089,23.923965,0.0 120.404782,23.925707,0.0 120.405691,23.927792,0.0 120.407315,23.929706,0.0 120.408895,23.932167,0.0 120.410076,23.932102,0.0 120.410626,23.93251,0.0 120.412177,23.934212,0.0 120.413522,23.935796,0.0 120.41394,23.937351,0.0 120.414932,23.938006,0.0 120.416473,23.93989,0.0 120.416792,23.940866,0.0 120.415929,23.9417,0.0 120.413929,23.943936,0.0 120.412519,23.945815,0.0</coordinates></LinearRing></outerBoundaryIs></Polygon><styleUrl>#spolygon-map</styleUrl></Placemark><Placemark><Polygon><outerBoundaryIs><LinearRing><coordinates>120.424802,23.954968,0.0 120.418832,23.954978,0.0 120.415363,23.955555,0.0 120.413856,23.955957,0.0 120.409406,23.957132,0.0 120.403766,23.958036,0.0 120.402057,23.957702,0.0 120.402922,23.955234,0.0 120.403349,23.953072,0.0 120.404368,23.951997,0.0 120.40689,23.950247,0.0 120.407951,23.94922,0.0 120.408869,23.948567,0.0 120.411377,23.946933,0.0 120.41377,23.945418,0.0 120.417678,23.944754,0.0 120.420652,23.943623,0.0 120.42422,23.942366,0.0 120.425945,23.945697,0.0 120.426274,23.946762,0.0 120.426797,23.948092,0.0 120.427021,23.949997,0.0 120.426466,23.952506,0.0 120.424802,23.954968,0.0</coordinates></LinearRing></outerBoundaryIs></Polygon><styleUrl>#spolygon-map</styleUrl></Placemark><Placemark><Polygon><outerBoundaryIs><LinearRing><coordinates>120.425984,23.959254,0.0 120.423131,23.959746,0.0 120.419721,23.96023,0.0 120.419167,23.958575,0.0 120.418605,23.957231,0.0 120.417092,23.957202,0.0 120.415461,23.957531,0.0 120.41409,23.958137,0.0 120.414187,23.959956,0.0 120.413207,23.961237,0.0 120.409356,23.962419,0.0 120.406783,23.962845,0.0 120.400514,23.964398,0.0 120.399818,23.963812,0.0 120.399647,23.963307,0.0 120.400151,23.962522,0.0 120.400018,23.960012,0.0 120.401615,23.958321,0.0 120.405253,23.957926,0.0 120.410719,23.956787,0.0 120.414148,23.955928,0.0 120.416595,23.955281,0.0 120.419903,23.954953,0.0 120.424809,23.955109,0.0 120.425984,23.959254,0.0</coordinates></LinearRing></outerBoundaryIs></Polygon><styleUrl>#spolygon-map</styleUrl></Placemark><Placemark><Polygon><outerBoundaryIs><LinearRing><coordinates>120.425984,23.959254,0.0 120.42583,23.962157,0.0 120.422406,23.962895,0.0 120.419924,23.963117,0.0 120.419369,23.964365,0.0 120.419328,23.965984,0.0 120.419018,23.967435,0.0 120.418468,23.970844,0.0 120.417603,23.974447,0.0 120.41796,23.975349,0.0 120.4184,23.976748,0.0 120.415381,23.980571,0.0 120.408754,23.988049,0.0 120.40409,23.98683,0.0 120.403127,23.985792,0.0 120.402549,23.984481,0.0 120.402183,23.984027,0.0 120.401996,23.983548,0.0 120.40184,23.983095,0.0 120.402167,23.982071,0.0 120.402307,23.981258,0.0 120.402528,23.979836,0.0 120.402673,23.979124,0.0 120.402702,23.978406,0.0 120.402471,23.977469,0.0 120.402121,23.976151,0.0 120.40191,23.975372,0.0 120.401811,23.974938,0.0 120.401582,23.974128,0.0 120.401522,23.973328,0.0 120.402686,23.971223,0.0 120.402134,23.967655,0.0 120.400514,23.964398,0.0 120.406783,23.962845,0.0 120.409356,23.962419,0.0 120.413207,23.961237,0.0 120.414187,23.959956,0.0 120.41409,23.958137,0.0 120.415461,23.957531,0.0 120.417092,23.957202,0.0 120.418605,23.957231,0.0 120.419167,23.958575,0.0 120.419721,23.96023,0.0 120.423131,23.959746,0.0 120.425984,23.959254,0.0</coordinates></LinearRing></outerBoundaryIs></Polygon><styleUrl>#spolygon-map</styleUrl></Placemark><Placemark><Polygon><outerBoundaryIs><LinearRing><coordinates>120.412553,23.996406,0.0 120.411571,23.996976,0.0 120.410565,23.997925,0.0 120.40998,23.99846,0.0 120.40913,23.998761,0.0 120.408813,23.998693,0.0 120.408619,23.998332,0.0 120.408388,23.997888,0.0 120.407956,23.996964,0.0 120.406773,23.993914,0.0 120.40567,23.991442,0.0 120.407501,23.989248,0.0 120.41433,23.981715,0.0 120.417799,23.977705,0.0 120.418346,23.975822,0.0 120.417449,23.974674,0.0 120.418089,23.973107,0.0 120.418686,23.968806,0.0 120.419327,23.966195,0.0 120.419396,23.964888,0.0 120.419625,23.963339,0.0 120.420738,23.9629,0.0 120.425744,23.962436,0.0 120.426084,23.959722,0.0 120.424809,23.955109,0.0 120.425803,23.953724,0.0 120.42693,23.950867,0.0 120.426973,23.948618,0.0 120.426282,23.94696,0.0 120.426381,23.946167,0.0 120.428559,23.946686,0.0 120.431641,23.946901,0.0 120.432595,23.948241,0.0 120.431612,23.950726,0.0 120.43035,23.952834,0.0 120.430343,23.954161,0.0 120.433642,23.953735,0.0 120.433911,23.954691,0.0 120.434299,23.956848,0.0 120.436078,23.956511,0.0 120.439639,23.956613,0.0 120.444042,23.95658,0.0 120.446454,23.95785,0.0 120.445557,23.959258,0.0 120.444532,23.961008,0.0 120.443346,23.963273,0.0 120.442222,23.965385,0.0 120.441414,23.96632,0.0 120.44008,23.967625,0.0 120.437485,23.968872,0.0 120.433132,23.96968,0.0 120.431862,23.970028,0.0 120.430688,23.970452,0.0 120.429552,23.971009,0.0 120.429206,23.971432,0.0 120.429217,23.972157,0.0 120.429129,23.972698,0.0 120.428618,23.973093,0.0 120.427976,23.973883,0.0 120.427061,23.974751,0.0 120.425521,23.975568,0.0 120.424327,23.976493,0.0 120.423536,23.977448,0.0 120.423304,23.97816,0.0 120.423544,23.978597,0.0 120.424212,23.979176,0.0 120.424197,23.979678,0.0 120.423731,23.980178,0.0 120.422723,23.980591,0.0 120.421991,23.981556,0.0 120.421797,23.982575,0.0 120.421755,23.983424,0.0 120.420928,23.984444,0.0 120.41913,23.986435,0.0 120.417556,23.988246,0.0 120.41698,23.989202,0.0 120.416294,23.990292,0.0 120.415563,23.991876,0.0 120.414901,23.993105,0.0 120.413401,23.995358,0.0 120.412553,23.996406,0.0</coordinates></LinearRing></outerBoundaryIs></Polygon><styleUrl>#spolygon-map</styleUrl></Placemark></Document>
</kml>
