<?xml version="1.0" encoding="UTF-8"?>
<kml xmlns="http://www.opengis.net/kml/2.2">
	<Document>
		<name>彰化縣田尾鄉</name>
		<Style id="spolygon">
			<LabelStyle>
				<scale>0.0</scale>
			</LabelStyle>
			<LineStyle>
				<color>330030ff</color>
				<width>0</width>
			</LineStyle>
			<PolyStyle>
				<color>330030ff</color>
			</PolyStyle>
		</Style>
		<StyleMap id="spolygon-map">
			<Pair>
				<key>normal</key>
				<styleUrl>#spolygon</styleUrl>
			</Pair>
		</StyleMap>
	<Placemark><Polygon><outerBoundaryIs><LinearRing><coordinates>120.558819,23.885958,0.0 120.557961,23.886052,0.0 120.552715,23.886781,0.0 120.548744,23.886713,0.0 120.547727,23.885554,0.0 120.545802,23.884599,0.0 120.543341,23.883777,0.0 120.543325,23.883559,0.0 120.543536,23.883392,0.0 120.543718,23.883269,0.0 120.5439,23.883178,0.0 120.544066,23.883136,0.0 120.544267,23.883045,0.0 120.544549,23.882922,0.0 120.544815,23.882766,0.0 120.545006,23.882613,0.0 120.545214,23.882383,0.0 120.545389,23.882173,0.0 120.545503,23.88196,0.0 120.545618,23.88176,0.0 120.545695,23.8816,0.0 120.545743,23.881447,0.0 120.545828,23.881208,0.0 120.545885,23.880989,0.0 120.545943,23.880832,0.0 120.54607,23.880546,0.0 120.546156,23.88029,0.0 120.546255,23.88008,0.0 120.54649,23.87962,0.0 120.546578,23.879439,0.0 120.546628,23.879277,0.0 120.546689,23.87909,0.0 120.546711,23.878869,0.0 120.54675,23.878743,0.0 120.546765,23.878571,0.0 120.546798,23.878349,0.0 120.546815,23.878232,0.0 120.546882,23.878001,0.0 120.546939,23.877849,0.0 120.54708,23.877594,0.0 120.547176,23.877358,0.0 120.547199,23.877151,0.0 120.547232,23.876925,0.0 120.547244,23.876708,0.0 120.547289,23.876455,0.0 120.547326,23.876089,0.0 120.547324,23.875796,0.0 120.547358,23.875393,0.0 120.547392,23.875099,0.0 120.54743,23.87463,0.0 120.547411,23.874501,0.0 120.547294,23.874231,0.0 120.547333,23.874106,0.0 120.547666,23.873835,0.0 120.547832,23.873438,0.0 120.547976,23.872879,0.0 120.547927,23.872555,0.0 120.547778,23.872251,0.0 120.547546,23.871974,0.0 120.547542,23.871802,0.0 120.54763,23.871688,0.0 120.547844,23.871662,0.0 120.548,23.871644,0.0 120.548066,23.871413,0.0 120.548169,23.870687,0.0 120.548678,23.870646,0.0 120.549829,23.87063,0.0 120.550711,23.870594,0.0 120.552557,23.870331,0.0 120.55435,23.870037,0.0 120.555416,23.86994,0.0 120.555188,23.870332,0.0 120.554946,23.870682,0.0 120.554661,23.871005,0.0 120.554304,23.871188,0.0 120.553763,23.871353,0.0 120.553487,23.871353,0.0 120.553159,23.871257,0.0 120.553056,23.871277,0.0 120.552556,23.872076,0.0 120.55221,23.872648,0.0 120.551887,23.873106,0.0 120.551703,23.873601,0.0 120.551702,23.874276,0.0 120.551736,23.874539,0.0 120.551821,23.874847,0.0 120.551936,23.875227,0.0 120.551995,23.875342,0.0 120.552031,23.875577,0.0 120.552008,23.875841,0.0 120.55205,23.87627,0.0 120.552097,23.876383,0.0 120.552096,23.876539,0.0 120.552209,23.876552,0.0 120.552732,23.876442,0.0 120.552871,23.876361,0.0 120.55291,23.876288,0.0 120.553056,23.876134,0.0 120.553252,23.875813,0.0 120.553513,23.875638,0.0 120.55398,23.875474,0.0 120.554633,23.875035,0.0 120.554716,23.875028,0.0 120.554748,23.875308,0.0 120.554821,23.87534,0.0 120.554967,23.875268,0.0 120.555252,23.875133,0.0 120.555655,23.874982,0.0 120.555983,23.874795,0.0 120.555981,23.874724,0.0 120.555838,23.87459,0.0 120.55591,23.874511,0.0 120.556355,23.874309,0.0 120.55643,23.874418,0.0 120.556485,23.874752,0.0 120.556513,23.875085,0.0 120.556553,23.875294,0.0 120.556679,23.875628,0.0 120.556789,23.875929,0.0 120.556917,23.876214,0.0 120.556995,23.876541,0.0 120.557062,23.876853,0.0 120.557116,23.877216,0.0 120.55721,23.877803,0.0 120.557279,23.878201,0.0 120.557345,23.878691,0.0 120.557372,23.878945,0.0 120.557411,23.879162,0.0 120.557481,23.87955,0.0 120.557527,23.879902,0.0 120.557616,23.880381,0.0 120.557741,23.880891,0.0 120.557853,23.881211,0.0 120.558127,23.881411,0.0 120.558342,23.881514,0.0 120.558423,23.881683,0.0 120.558567,23.881936,0.0 120.558799,23.882153,0.0 120.559017,23.882121,0.0 120.559419,23.882024,0.0 120.559466,23.882211,0.0 120.559597,23.882251,0.0 120.560018,23.882334,0.0 120.560447,23.882446,0.0 120.560691,23.88262,0.0 120.560712,23.882926,0.0 120.560734,23.883145,0.0 120.560754,23.883378,0.0 120.560629,23.883432,0.0 120.560272,23.883523,0.0 120.559723,23.883821,0.0 120.559566,23.883939,0.0 120.559636,23.884155,0.0 120.559654,23.884332,0.0 120.559698,23.884532,0.0 120.559756,23.884833,0.0 120.559903,23.885083,0.0 120.55994,23.885297,0.0 120.559966,23.885711,0.0 120.558819,23.885958,0.0</coordinates></LinearRing></outerBoundaryIs></Polygon><styleUrl>#spolygon-map</styleUrl></Placemark><Placemark><Polygon><outerBoundaryIs><LinearRing><coordinates>120.568074,23.88874,0.0 120.56784,23.889209,0.0 120.567817,23.889451,0.0 120.567791,23.889746,0.0 120.567701,23.890024,0.0 120.56749,23.890408,0.0 120.567133,23.891341,0.0 120.566149,23.893816,0.0 120.558333,23.892335,0.0 120.560064,23.891,0.0 120.558673,23.889036,0.0 120.559019,23.888363,0.0 120.559319,23.888034,0.0 120.560891,23.887664,0.0 120.561334,23.887518,0.0 120.562252,23.887472,0.0 120.562325,23.886446,0.0 120.562958,23.885957,0.0 120.563277,23.886005,0.0 120.56366,23.886023,0.0 120.564093,23.886045,0.0 120.564644,23.886076,0.0 120.565684,23.886168,0.0 120.566098,23.886182,0.0 120.566489,23.885965,0.0 120.567324,23.885579,0.0 120.568316,23.885251,0.0 120.569923,23.884742,0.0 120.570428,23.884587,0.0 120.570557,23.884577,0.0 120.570625,23.884721,0.0 120.570356,23.884892,0.0 120.570028,23.885024,0.0 120.569777,23.88527,0.0 120.568987,23.886424,0.0 120.568687,23.886941,0.0 120.56861,23.887329,0.0 120.568138,23.888389,0.0 120.56808,23.888707,0.0 120.568074,23.88874,0.0</coordinates></LinearRing></outerBoundaryIs></Polygon><styleUrl>#spolygon-map</styleUrl></Placemark><Placemark><Polygon><outerBoundaryIs><LinearRing><coordinates>120.535161,23.890849,0.0 120.535161,23.891609,0.0 120.534971,23.892316,0.0 120.533736,23.894339,0.0 120.533224,23.894544,0.0 120.530081,23.893937,0.0 120.52982,23.892525,0.0 120.529956,23.891536,0.0 120.527414,23.892373,0.0 120.523137,23.890585,0.0 120.519852,23.888025,0.0 120.520143,23.887705,0.0 120.520392,23.887371,0.0 120.520572,23.887059,0.0 120.520657,23.88672,0.0 120.520695,23.886147,0.0 120.520945,23.885895,0.0 120.521289,23.885683,0.0 120.521735,23.88537,0.0 120.521999,23.884768,0.0 120.522354,23.884306,0.0 120.522933,23.88393,0.0 120.523509,23.88366,0.0 120.524223,23.883425,0.0 120.524836,23.883246,0.0 120.525609,23.882835,0.0 120.526192,23.882942,0.0 120.526656,23.883273,0.0 120.526957,23.883329,0.0 120.527243,23.883244,0.0 120.527615,23.88316,0.0 120.527887,23.883139,0.0 120.528422,23.883248,0.0 120.529084,23.883423,0.0 120.530018,23.883683,0.0 120.530608,23.88391,0.0 120.531206,23.88427,0.0 120.531585,23.884433,0.0 120.532086,23.884373,0.0 120.532699,23.884268,0.0 120.533055,23.884195,0.0 120.533514,23.884134,0.0 120.533944,23.884125,0.0 120.534381,23.884133,0.0 120.534648,23.884184,0.0 120.534848,23.884334,0.0 120.534962,23.884453,0.0 120.535081,23.884596,0.0 120.535237,23.884776,0.0 120.535401,23.884905,0.0 120.535687,23.885029,0.0 120.535887,23.885065,0.0 120.536045,23.885076,0.0 120.536365,23.885097,0.0 120.536766,23.885133,0.0 120.536949,23.885156,0.0 120.537173,23.885196,0.0 120.537431,23.885192,0.0 120.537611,23.885154,0.0 120.537773,23.885086,0.0 120.538028,23.884907,0.0 120.538246,23.884858,0.0 120.538399,23.884905,0.0 120.538626,23.885026,0.0 120.536061,23.887212,0.0 120.535793,23.888849,0.0 120.535553,23.889864,0.0 120.535161,23.890849,0.0</coordinates></LinearRing></outerBoundaryIs></Polygon><styleUrl>#spolygon-map</styleUrl></Placemark><Placemark><Polygon><outerBoundaryIs><LinearRing><coordinates>120.548297,23.886578,0.0 120.548821,23.88706,0.0 120.546419,23.88738,0.0 120.543405,23.89444,0.0 120.53888,23.893833,0.0 120.538521,23.892914,0.0 120.53853,23.892183,0.0 120.535161,23.890849,0.0 120.535553,23.889864,0.0 120.535793,23.888849,0.0 120.536061,23.887212,0.0 120.538761,23.885035,0.0 120.539045,23.885009,0.0 120.539369,23.88494,0.0 120.539653,23.884897,0.0 120.540074,23.884816,0.0 120.540283,23.884785,0.0 120.540485,23.884744,0.0 120.540707,23.884713,0.0 120.541012,23.884693,0.0 120.541243,23.88458,0.0 120.541393,23.884437,0.0 120.541501,23.884356,0.0 120.54178,23.884215,0.0 120.541995,23.884139,0.0 120.542164,23.884034,0.0 120.542266,23.88401,0.0 120.54243,23.883957,0.0 120.542675,23.883862,0.0 120.542861,23.883815,0.0 120.543077,23.883764,0.0 120.544222,23.883779,0.0 120.546219,23.88465,0.0 120.548134,23.886245,0.0 120.548297,23.886578,0.0</coordinates></LinearRing></outerBoundaryIs></Polygon><styleUrl>#spolygon-map</styleUrl></Placemark><Placemark><Polygon><outerBoundaryIs><LinearRing><coordinates>120.558449,23.892693,0.0 120.557581,23.892941,0.0 120.557341,23.894623,0.0 120.556135,23.895329,0.0 120.555377,23.894583,0.0 120.552105,23.89297,0.0 120.552991,23.891067,0.0 120.554491,23.890465,0.0 120.55561,23.887969,0.0 120.557139,23.88716,0.0 120.558755,23.886838,0.0 120.558819,23.885958,0.0 120.56001,23.885983,0.0 120.560822,23.885975,0.0 120.56216,23.885958,0.0 120.562325,23.886446,0.0 120.562252,23.887472,0.0 120.561334,23.887518,0.0 120.560891,23.887664,0.0 120.559319,23.888034,0.0 120.559019,23.888363,0.0 120.558673,23.889036,0.0 120.560064,23.891,0.0 120.558333,23.892335,0.0 120.558449,23.892693,0.0</coordinates></LinearRing></outerBoundaryIs></Polygon><styleUrl>#spolygon-map</styleUrl></Placemark><Placemark><Polygon><outerBoundaryIs><LinearRing><coordinates>120.551915,23.893545,0.0 120.551157,23.89586,0.0 120.545552,23.894695,0.0 120.546419,23.88738,0.0 120.548821,23.88706,0.0 120.548297,23.886578,0.0 120.551669,23.886916,0.0 120.55471,23.886183,0.0 120.558403,23.885974,0.0 120.558826,23.886382,0.0 120.557591,23.886966,0.0 120.556738,23.888293,0.0 120.555322,23.888031,0.0 120.554084,23.891353,0.0 120.552634,23.891229,0.0 120.551915,23.893545,0.0</coordinates></LinearRing></outerBoundaryIs></Polygon><styleUrl>#spolygon-map</styleUrl></Placemark><Placemark><Polygon><outerBoundaryIs><LinearRing><coordinates>120.525418,23.892514,0.0 120.523414,23.893901,0.0 120.520711,23.89635,0.0 120.517066,23.894799,0.0 120.51626,23.893685,0.0 120.515734,23.892489,0.0 120.515779,23.890001,0.0 120.516161,23.889652,0.0 120.516538,23.889297,0.0 120.516882,23.889038,0.0 120.517226,23.888778,0.0 120.517485,23.888605,0.0 120.517869,23.888396,0.0 120.518199,23.88823,0.0 120.51847,23.8882,0.0 120.518791,23.888232,0.0 120.51923,23.888196,0.0 120.519509,23.888147,0.0 120.519826,23.888036,0.0 120.522446,23.889946,0.0 120.525418,23.892514,0.0</coordinates></LinearRing></outerBoundaryIs></Polygon><styleUrl>#spolygon-map</styleUrl></Placemark><Placemark><Polygon><outerBoundaryIs><LinearRing><coordinates>120.498991,23.900715,0.0 120.496124,23.897276,0.0 120.496634,23.897235,0.0 120.497451,23.896989,0.0 120.498534,23.896292,0.0 120.499949,23.895028,0.0 120.500393,23.8948,0.0 120.501066,23.894222,0.0 120.501617,23.893932,0.0 120.502454,23.894021,0.0 120.503771,23.894136,0.0 120.505061,23.893828,0.0 120.506762,23.893445,0.0 120.507974,23.893315,0.0 120.508603,23.893225,0.0 120.509115,23.893069,0.0 120.509726,23.892851,0.0 120.510264,23.892623,0.0 120.510836,23.892395,0.0 120.511337,23.892193,0.0 120.511575,23.892097,0.0 120.512412,23.891664,0.0 120.513159,23.891252,0.0 120.513646,23.890983,0.0 120.514149,23.890772,0.0 120.514729,23.89056,0.0 120.515254,23.890364,0.0 120.515604,23.890141,0.0 120.515981,23.890621,0.0 120.515846,23.893252,0.0 120.512778,23.897845,0.0 120.510005,23.90003,0.0 120.508883,23.899551,0.0 120.508401,23.898605,0.0 120.50909,23.898494,0.0 120.506069,23.897841,0.0 120.5055,23.897987,0.0 120.504351,23.898389,0.0 120.501733,23.899406,0.0 120.498991,23.900715,0.0</coordinates></LinearRing></outerBoundaryIs></Polygon><styleUrl>#spolygon-map</styleUrl></Placemark><Placemark><Polygon><outerBoundaryIs><LinearRing><coordinates>120.547107,23.901763,0.0 120.543048,23.901219,0.0 120.540177,23.900821,0.0 120.53791,23.901822,0.0 120.537268,23.901791,0.0 120.534979,23.89788,0.0 120.532856,23.894601,0.0 120.533611,23.894616,0.0 120.533724,23.894159,0.0 120.535219,23.892082,0.0 120.535111,23.891347,0.0 120.535839,23.891218,0.0 120.538686,23.892189,0.0 120.539142,23.89311,0.0 120.538904,23.893883,0.0 120.545307,23.894666,0.0 120.547891,23.896599,0.0 120.547107,23.901763,0.0</coordinates></LinearRing></outerBoundaryIs></Polygon><styleUrl>#spolygon-map</styleUrl></Placemark><Placemark><Polygon><outerBoundaryIs><LinearRing><coordinates>120.564511,23.903339,0.0 120.564424,23.903564,0.0 120.563856,23.903473,0.0 120.56236,23.903239,0.0 120.561656,23.903117,0.0 120.561074,23.903002,0.0 120.560378,23.902891,0.0 120.559946,23.902827,0.0 120.559516,23.902725,0.0 120.558921,23.902555,0.0 120.558371,23.902416,0.0 120.558007,23.902306,0.0 120.557186,23.90207,0.0 120.556881,23.901467,0.0 120.557224,23.899889,0.0 120.556343,23.898327,0.0 120.556794,23.896,0.0 120.557292,23.895599,0.0 120.557293,23.894552,0.0 120.557795,23.892942,0.0 120.566124,23.893928,0.0 120.566042,23.894433,0.0 120.565484,23.898245,0.0 120.565295,23.899282,0.0 120.565173,23.899901,0.0 120.56505,23.900378,0.0 120.564917,23.900855,0.0 120.564759,23.901642,0.0 120.564719,23.901982,0.0 120.564644,23.902418,0.0 120.564569,23.902941,0.0 120.564511,23.903339,0.0</coordinates></LinearRing></outerBoundaryIs></Polygon><styleUrl>#spolygon-map</styleUrl></Placemark><Placemark><Polygon><outerBoundaryIs><LinearRing><coordinates>120.522692,23.903049,0.0 120.517904,23.902079,0.0 120.514742,23.899219,0.0 120.516063,23.893902,0.0 120.516719,23.89501,0.0 120.520071,23.896034,0.0 120.522194,23.894937,0.0 120.524929,23.892946,0.0 120.527414,23.892373,0.0 120.529956,23.891536,0.0 120.52982,23.892525,0.0 120.530081,23.893937,0.0 120.532863,23.894709,0.0 120.5332,23.896262,0.0 120.533309,23.897769,0.0 120.531797,23.898699,0.0 120.530655,23.899411,0.0 120.528674,23.900439,0.0 120.527252,23.901159,0.0 120.524113,23.902327,0.0 120.522692,23.903049,0.0</coordinates></LinearRing></outerBoundaryIs></Polygon><styleUrl>#spolygon-map</styleUrl></Placemark><Placemark><Polygon><outerBoundaryIs><LinearRing><coordinates>120.510576,23.900416,0.0 120.506741,23.904069,0.0 120.507293,23.903364,0.0 120.50248,23.902674,0.0 120.499842,23.902138,0.0 120.501733,23.899406,0.0 120.504351,23.898389,0.0 120.5055,23.897987,0.0 120.506069,23.897841,0.0 120.50909,23.898494,0.0 120.508401,23.898605,0.0 120.508883,23.899551,0.0 120.510005,23.90003,0.0 120.510576,23.900416,0.0</coordinates></LinearRing></outerBoundaryIs></Polygon><styleUrl>#spolygon-map</styleUrl></Placemark><Placemark><Polygon><outerBoundaryIs><LinearRing><coordinates>120.556343,23.898327,0.0 120.555334,23.903654,0.0 120.554248,23.905553,0.0 120.553687,23.906407,0.0 120.553527,23.906849,0.0 120.553356,23.907274,0.0 120.552188,23.907355,0.0 120.551757,23.907369,0.0 120.551516,23.907502,0.0 120.551341,23.907286,0.0 120.551195,23.907035,0.0 120.550365,23.907141,0.0 120.549507,23.906524,0.0 120.548418,23.906806,0.0 120.547319,23.907057,0.0 120.546183,23.907022,0.0 120.546865,23.90311,0.0 120.547588,23.898516,0.0 120.551157,23.89586,0.0 120.551915,23.893545,0.0 120.555376,23.894941,0.0 120.557292,23.895599,0.0 120.556794,23.896,0.0 120.556343,23.898327,0.0</coordinates></LinearRing></outerBoundaryIs></Polygon><styleUrl>#spolygon-map</styleUrl></Placemark><Placemark><Polygon><outerBoundaryIs><LinearRing><coordinates>120.538609,23.907551,0.0 120.537857,23.908006,0.0 120.536182,23.908181,0.0 120.53568,23.905227,0.0 120.534822,23.902754,0.0 120.533981,23.900036,0.0 120.533794,23.897802,0.0 120.533408,23.896486,0.0 120.532807,23.895115,0.0 120.533548,23.895676,0.0 120.536074,23.899514,0.0 120.538032,23.902119,0.0 120.538483,23.903373,0.0 120.538631,23.903884,0.0 120.538364,23.904493,0.0 120.538425,23.905129,0.0 120.538604,23.906119,0.0 120.538672,23.906816,0.0 120.538765,23.907321,0.0 120.538609,23.907551,0.0</coordinates></LinearRing></outerBoundaryIs></Polygon><styleUrl>#spolygon-map</styleUrl></Placemark><Placemark><Polygon><outerBoundaryIs><LinearRing><coordinates>120.520985,23.90438,0.0 120.515615,23.907487,0.0 120.508325,23.90547,0.0 120.50766,23.905714,0.0 120.507101,23.905416,0.0 120.506668,23.905303,0.0 120.508018,23.903505,0.0 120.512778,23.897845,0.0 120.517699,23.902278,0.0 120.520985,23.90438,0.0</coordinates></LinearRing></outerBoundaryIs></Polygon><styleUrl>#spolygon-map</styleUrl></Placemark><Placemark><Polygon><outerBoundaryIs><LinearRing><coordinates>120.532511,23.911725,0.0 120.531246,23.912421,0.0 120.529739,23.912872,0.0 120.528354,23.912927,0.0 120.527335,23.913432,0.0 120.525391,23.909879,0.0 120.524489,23.906837,0.0 120.524299,23.905171,0.0 120.523141,23.902799,0.0 120.524361,23.902239,0.0 120.527794,23.900705,0.0 120.529105,23.900313,0.0 120.530929,23.899074,0.0 120.532322,23.898707,0.0 120.533794,23.897802,0.0 120.533981,23.900036,0.0 120.534822,23.902754,0.0 120.53568,23.905227,0.0 120.536182,23.908181,0.0 120.534808,23.90966,0.0 120.533628,23.910846,0.0 120.533063,23.911329,0.0 120.532511,23.911725,0.0</coordinates></LinearRing></outerBoundaryIs></Polygon><styleUrl>#spolygon-map</styleUrl></Placemark><Placemark><Polygon><outerBoundaryIs><LinearRing><coordinates>120.509942,23.908675,0.0 120.502712,23.914098,0.0 120.500535,23.911616,0.0 120.498761,23.909995,0.0 120.493193,23.90837,0.0 120.491094,23.907595,0.0 120.484861,23.903277,0.0 120.484661,23.902542,0.0 120.485829,23.901994,0.0 120.488537,23.900635,0.0 120.490196,23.899615,0.0 120.490123,23.898473,0.0 120.49091,23.89809,0.0 120.492021,23.897809,0.0 120.492918,23.897998,0.0 120.49344,23.897952,0.0 120.494701,23.89762,0.0 120.495553,23.897362,0.0 120.496124,23.897276,0.0 120.498991,23.900715,0.0 120.500512,23.903236,0.0 120.506904,23.902367,0.0 120.506708,23.903959,0.0 120.506652,23.905172,0.0 120.506932,23.905425,0.0 120.507511,23.905714,0.0 120.508229,23.905411,0.0 120.509942,23.908675,0.0</coordinates></LinearRing></outerBoundaryIs></Polygon><styleUrl>#spolygon-map</styleUrl></Placemark><Placemark><Polygon><outerBoundaryIs><LinearRing><coordinates>120.525996,23.913789,0.0 120.524741,23.914228,0.0 120.524096,23.914392,0.0 120.523962,23.913981,0.0 120.523985,23.913408,0.0 120.522749,23.913419,0.0 120.521218,23.913386,0.0 120.520243,23.913554,0.0 120.51948,23.913972,0.0 120.516749,23.913919,0.0 120.515722,23.913642,0.0 120.515486,23.913349,0.0 120.514183,23.914191,0.0 120.512841,23.91522,0.0 120.510989,23.913716,0.0 120.517413,23.906768,0.0 120.5224,23.903276,0.0 120.524299,23.905171,0.0 120.524489,23.906837,0.0 120.525391,23.909879,0.0 120.526261,23.913709,0.0 120.525996,23.913789,0.0</coordinates></LinearRing></outerBoundaryIs></Polygon><styleUrl>#spolygon-map</styleUrl></Placemark><Placemark><Polygon><outerBoundaryIs><LinearRing><coordinates>120.507115,23.91847,0.0 120.505536,23.919093,0.0 120.50419,23.920102,0.0 120.5027,23.920627,0.0 120.502014,23.918354,0.0 120.501606,23.916382,0.0 120.500957,23.916282,0.0 120.502712,23.914098,0.0 120.509942,23.908675,0.0 120.511806,23.915395,0.0 120.510979,23.91557,0.0 120.511078,23.916323,0.0 120.511252,23.916705,0.0 120.511372,23.91719,0.0 120.511269,23.917413,0.0 120.510085,23.917693,0.0 120.508593,23.917972,0.0 120.507169,23.91845,0.0 120.507115,23.91847,0.0</coordinates></LinearRing></outerBoundaryIs></Polygon><styleUrl>#spolygon-map</styleUrl></Placemark><Placemark><Polygon><outerBoundaryIs><LinearRing><coordinates>120.503252,23.920943,0.0 120.502584,23.921606,0.0 120.50197,23.923251,0.0 120.501739,23.923494,0.0 120.501211,23.923432,0.0 120.500848,23.923343,0.0 120.50037,23.923733,0.0 120.50005,23.923995,0.0 120.499385,23.924355,0.0 120.498813,23.924751,0.0 120.498126,23.92511,0.0 120.497287,23.92533,0.0 120.496573,23.925509,0.0 120.495976,23.925526,0.0 120.49552,23.92536,0.0 120.495017,23.925205,0.0 120.494551,23.925138,0.0 120.494316,23.925041,0.0 120.493842,23.925064,0.0 120.49375,23.924944,0.0 120.493844,23.924673,0.0 120.493899,23.924223,0.0 120.493739,23.923837,0.0 120.49264,23.923898,0.0 120.491299,23.923919,0.0 120.490763,23.923873,0.0 120.490647,23.923439,0.0 120.490283,23.922407,0.0 120.490263,23.921265,0.0 120.489804,23.92046,0.0 120.48831,23.920306,0.0 120.486658,23.920474,0.0 120.485428,23.920381,0.0 120.484778,23.920303,0.0 120.484067,23.919689,0.0 120.483132,23.920139,0.0 120.482008,23.920707,0.0 120.481498,23.920441,0.0 120.480519,23.920524,0.0 120.479596,23.921001,0.0 120.478891,23.920898,0.0 120.478129,23.921311,0.0 120.477466,23.921245,0.0 120.476886,23.921151,0.0 120.476201,23.921594,0.0 120.475911,23.922026,0.0 120.475201,23.922138,0.0 120.474882,23.921988,0.0 120.475495,23.919681,0.0 120.475531,23.918788,0.0 120.474985,23.917063,0.0 120.474315,23.915053,0.0 120.473942,23.913605,0.0 120.475,23.912146,0.0 120.47688,23.910264,0.0 120.478049,23.908998,0.0 120.479595,23.90707,0.0 120.481294,23.904955,0.0 120.482452,23.903637,0.0 120.483318,23.903266,0.0 120.484443,23.902933,0.0 120.489523,23.906546,0.0 120.491725,23.908179,0.0 120.4984,23.909818,0.0 120.499823,23.911144,0.0 120.501892,23.914452,0.0 120.500999,23.91636,0.0 120.501648,23.916568,0.0 120.50232,23.918922,0.0 120.503252,23.920943,0.0</coordinates></LinearRing></outerBoundaryIs></Polygon><styleUrl>#spolygon-map</styleUrl></Placemark></Document>
</kml>
