<?xml version="1.0" encoding="UTF-8"?>
<kml xmlns="http://www.opengis.net/kml/2.2">
	<Document>
		<name>新北市新莊區</name>
		<Style id="spolygon">
			<LabelStyle>
				<scale>0.0</scale>
			</LabelStyle>
			<LineStyle>
				<color>330030ff</color>
				<width>0</width>
			</LineStyle>
			<PolyStyle>
				<color>330030ff</color>
			</PolyStyle>
		</Style>
		<StyleMap id="spolygon-map">
			<Pair>
				<key>normal</key>
				<styleUrl>#spolygon</styleUrl>
			</Pair>
		</StyleMap>
	<Placemark><Polygon><outerBoundaryIs><LinearRing><coordinates>121.446303,25.033261,0.0 121.446296,25.034085,0.0 121.445788,25.034695,0.0 121.444593,25.034448,0.0 121.443645,25.034244,0.0 121.44249,25.033991,0.0 121.442307,25.032904,0.0 121.44216,25.032806,0.0 121.442474,25.0328,0.0 121.442969,25.032605,0.0 121.442954,25.03163,0.0 121.443177,25.031616,0.0 121.443368,25.031626,0.0 121.443775,25.031594,0.0 121.444156,25.031614,0.0 121.444714,25.031632,0.0 121.445539,25.031514,0.0 121.446445,25.03188,0.0 121.446362,25.032572,0.0 121.446303,25.033261,0.0</coordinates></LinearRing></outerBoundaryIs></Polygon><styleUrl>#spolygon-map</styleUrl></Placemark><Placemark><Polygon><outerBoundaryIs><LinearRing><coordinates>121.46348,25.057842,0.0 121.459831,25.056138,0.0 121.459859,25.053411,0.0 121.459869,25.050567,0.0 121.462929,25.049457,0.0 121.467395,25.049311,0.0 121.467581,25.049918,0.0 121.467748,25.050672,0.0 121.467813,25.051104,0.0 121.467983,25.051673,0.0 121.46806,25.051954,0.0 121.468222,25.052212,0.0 121.468566,25.05266,0.0 121.468688,25.052981,0.0 121.468596,25.053557,0.0 121.468234,25.053981,0.0 121.467984,25.054535,0.0 121.467759,25.055126,0.0 121.467636,25.055406,0.0 121.467424,25.055921,0.0 121.467359,25.056214,0.0 121.467303,25.056814,0.0 121.467278,25.057058,0.0 121.467293,25.057414,0.0 121.466483,25.057258,0.0 121.46562,25.057272,0.0 121.464337,25.057227,0.0 121.46348,25.057842,0.0</coordinates></LinearRing></outerBoundaryIs></Polygon><styleUrl>#spolygon-map</styleUrl></Placemark><Placemark><Polygon><outerBoundaryIs><LinearRing><coordinates>121.442235,25.032801,0.0 121.442263,25.0329,0.0 121.442493,25.032937,0.0 121.440582,25.032688,0.0 121.439156,25.030437,0.0 121.438253,25.028992,0.0 121.438983,25.027518,0.0 121.439784,25.027305,0.0 121.440186,25.027324,0.0 121.440827,25.027505,0.0 121.441104,25.027651,0.0 121.44132,25.027751,0.0 121.441477,25.028276,0.0 121.441585,25.028658,0.0 121.44168,25.028828,0.0 121.441922,25.029094,0.0 121.442802,25.029467,0.0 121.443209,25.030043,0.0 121.443375,25.03137,0.0 121.443244,25.031621,0.0 121.443002,25.031627,0.0 121.442959,25.032018,0.0 121.44297,25.032843,0.0 121.44231,25.032794,0.0 121.442235,25.032801,0.0</coordinates></LinearRing></outerBoundaryIs></Polygon><styleUrl>#spolygon-map</styleUrl></Placemark><Placemark><Polygon><outerBoundaryIs><LinearRing><coordinates>121.448446,25.033641,0.0 121.448356,25.034285,0.0 121.448334,25.034643,0.0 121.448304,25.034819,0.0 121.447509,25.035068,0.0 121.446574,25.034864,0.0 121.446308,25.033486,0.0 121.446362,25.032572,0.0 121.446445,25.03188,0.0 121.447384,25.031882,0.0 121.447952,25.031958,0.0 121.448984,25.032036,0.0 121.449241,25.032744,0.0 121.449025,25.033402,0.0 121.44868,25.033468,0.0 121.448446,25.033641,0.0</coordinates></LinearRing></outerBoundaryIs></Polygon><styleUrl>#spolygon-map</styleUrl></Placemark><Placemark><Polygon><outerBoundaryIs><LinearRing><coordinates>121.465201,25.063237,0.0 121.465137,25.063832,0.0 121.465275,25.064179,0.0 121.465354,25.064759,0.0 121.465356,25.065202,0.0 121.46553,25.065493,0.0 121.465149,25.065872,0.0 121.465092,25.066516,0.0 121.464975,25.067064,0.0 121.46468,25.067611,0.0 121.464341,25.067853,0.0 121.463755,25.068146,0.0 121.463299,25.068465,0.0 121.462909,25.068645,0.0 121.462594,25.068756,0.0 121.462062,25.068807,0.0 121.461672,25.068817,0.0 121.461338,25.068755,0.0 121.460929,25.068618,0.0 121.460588,25.068495,0.0 121.460278,25.068379,0.0 121.46071,25.06811,0.0 121.462108,25.067405,0.0 121.462665,25.066933,0.0 121.462658,25.065038,0.0 121.459819,25.064035,0.0 121.457836,25.063243,0.0 121.454645,25.063218,0.0 121.454749,25.060894,0.0 121.45773,25.060436,0.0 121.45934,25.060409,0.0 121.459825,25.059361,0.0 121.463077,25.057784,0.0 121.464503,25.057145,0.0 121.465769,25.057314,0.0 121.466557,25.057035,0.0 121.467298,25.057443,0.0 121.467391,25.057872,0.0 121.467402,25.058263,0.0 121.46736,25.058766,0.0 121.467117,25.059161,0.0 121.466821,25.059477,0.0 121.466572,25.059847,0.0 121.46634,25.060176,0.0 121.46602,25.06067,0.0 121.465896,25.060932,0.0 121.465762,25.061302,0.0 121.465708,25.061469,0.0 121.465557,25.061923,0.0 121.465385,25.062403,0.0 121.465304,25.062739,0.0 121.465219,25.063128,0.0 121.465201,25.063237,0.0</coordinates></LinearRing></outerBoundaryIs></Polygon><styleUrl>#spolygon-map</styleUrl></Placemark><Placemark><Polygon><outerBoundaryIs><LinearRing><coordinates>121.447952,25.031958,0.0 121.447384,25.031882,0.0 121.446445,25.03188,0.0 121.445539,25.031514,0.0 121.444714,25.031632,0.0 121.444156,25.031614,0.0 121.443775,25.031594,0.0 121.443368,25.031626,0.0 121.44336,25.030972,0.0 121.445367,25.029838,0.0 121.446539,25.029553,0.0 121.446507,25.030458,0.0 121.448198,25.030585,0.0 121.448074,25.030991,0.0 121.447958,25.031514,0.0 121.447952,25.031958,0.0</coordinates></LinearRing></outerBoundaryIs></Polygon><styleUrl>#spolygon-map</styleUrl></Placemark><Placemark><Polygon><outerBoundaryIs><LinearRing><coordinates>121.444135,25.03918,0.0 121.443432,25.039471,0.0 121.442786,25.038908,0.0 121.442472,25.035355,0.0 121.443144,25.034134,0.0 121.444269,25.034378,0.0 121.445508,25.034639,0.0 121.446319,25.034806,0.0 121.445785,25.036529,0.0 121.445701,25.037291,0.0 121.445467,25.038076,0.0 121.444166,25.038897,0.0 121.444135,25.03918,0.0</coordinates></LinearRing></outerBoundaryIs></Polygon><styleUrl>#spolygon-map</styleUrl></Placemark><Placemark><Polygon><outerBoundaryIs><LinearRing><coordinates>121.457592,25.039243,0.0 121.457703,25.039897,0.0 121.457726,25.040136,0.0 121.45757,25.04082,0.0 121.456216,25.040576,0.0 121.454722,25.040222,0.0 121.45395,25.040009,0.0 121.453969,25.039171,0.0 121.454678,25.03892,0.0 121.455371,25.038395,0.0 121.457069,25.037804,0.0 121.458065,25.037464,0.0 121.45875,25.038329,0.0 121.458276,25.038687,0.0 121.457592,25.039243,0.0</coordinates></LinearRing></outerBoundaryIs></Polygon><styleUrl>#spolygon-map</styleUrl></Placemark><Placemark><Polygon><outerBoundaryIs><LinearRing><coordinates>121.4261,25.023962,0.0 121.427719,25.024934,0.0 121.428924,25.025702,0.0 121.428834,25.026239,0.0 121.428001,25.026885,0.0 121.426286,25.02636,0.0 121.424874,25.02592,0.0 121.424306,25.025538,0.0 121.42507,25.024151,0.0 121.425488,25.023615,0.0 121.4261,25.023962,0.0</coordinates></LinearRing></outerBoundaryIs></Polygon><styleUrl>#spolygon-map</styleUrl></Placemark><Placemark><Polygon><outerBoundaryIs><LinearRing><coordinates>121.450171,25.033541,0.0 121.450163,25.034338,0.0 121.449759,25.035558,0.0 121.44825,25.035228,0.0 121.448348,25.034768,0.0 121.448209,25.034621,0.0 121.44838,25.034226,0.0 121.448462,25.033459,0.0 121.448925,25.033393,0.0 121.449158,25.03302,0.0 121.44942,25.032168,0.0 121.450272,25.032578,0.0 121.450171,25.033541,0.0</coordinates></LinearRing></outerBoundaryIs></Polygon><styleUrl>#spolygon-map</styleUrl></Placemark><Placemark><Polygon><outerBoundaryIs><LinearRing><coordinates>121.453128,25.044021,0.0 121.452587,25.043222,0.0 121.452638,25.04244,0.0 121.45263,25.041076,0.0 121.452238,25.039585,0.0 121.453401,25.039861,0.0 121.454096,25.040061,0.0 121.454707,25.040358,0.0 121.45656,25.040612,0.0 121.456408,25.041814,0.0 121.45633,25.042356,0.0 121.455997,25.04278,0.0 121.455658,25.043061,0.0 121.455069,25.043565,0.0 121.454528,25.044061,0.0 121.453567,25.043949,0.0 121.453128,25.044021,0.0</coordinates></LinearRing></outerBoundaryIs></Polygon><styleUrl>#spolygon-map</styleUrl></Placemark><Placemark><Polygon><outerBoundaryIs><LinearRing><coordinates>121.42507,25.024151,0.0 121.424471,25.024203,0.0 121.424702,25.023807,0.0 121.424416,25.023205,0.0 121.424153,25.022742,0.0 121.423777,25.021927,0.0 121.424657,25.02125,0.0 121.425635,25.020759,0.0 121.425797,25.021097,0.0 121.425948,25.021406,0.0 121.426014,25.021532,0.0 121.426099,25.021684,0.0 121.426174,25.021798,0.0 121.426366,25.022096,0.0 121.426369,25.022138,0.0 121.425342,25.023831,0.0 121.42507,25.024151,0.0</coordinates></LinearRing></outerBoundaryIs></Polygon><styleUrl>#spolygon-map</styleUrl></Placemark><Placemark><Polygon><outerBoundaryIs><LinearRing><coordinates>121.452142,25.039276,0.0 121.452136,25.03956,0.0 121.451061,25.03941,0.0 121.449892,25.039197,0.0 121.449953,25.038653,0.0 121.450007,25.037791,0.0 121.45009,25.036395,0.0 121.450133,25.034913,0.0 121.450194,25.034148,0.0 121.450286,25.032708,0.0 121.450305,25.032511,0.0 121.45074,25.032334,0.0 121.45277,25.031357,0.0 121.451754,25.032887,0.0 121.451435,25.033487,0.0 121.451322,25.033862,0.0 121.451444,25.035927,0.0 121.451391,25.037523,0.0 121.451374,25.037916,0.0 121.451346,25.038364,0.0 121.451335,25.038674,0.0 121.451391,25.039124,0.0 121.452142,25.039276,0.0</coordinates></LinearRing></outerBoundaryIs></Polygon><styleUrl>#spolygon-map</styleUrl></Placemark><Placemark><Polygon><outerBoundaryIs><LinearRing><coordinates>121.449167,25.042957,0.0 121.45171,25.043511,0.0 121.45291,25.044415,0.0 121.452483,25.04505,0.0 121.451352,25.045257,0.0 121.449627,25.044994,0.0 121.448047,25.044577,0.0 121.448145,25.044082,0.0 121.448236,25.043645,0.0 121.448486,25.042718,0.0 121.449167,25.042957,0.0</coordinates></LinearRing></outerBoundaryIs></Polygon><styleUrl>#spolygon-map</styleUrl></Placemark><Placemark><Polygon><outerBoundaryIs><LinearRing><coordinates>121.434872,25.023531,0.0 121.433261,25.024389,0.0 121.431816,25.024887,0.0 121.430738,25.025216,0.0 121.430526,25.024541,0.0 121.430404,25.023668,0.0 121.430307,25.022799,0.0 121.430625,25.021775,0.0 121.429653,25.021413,0.0 121.429524,25.020247,0.0 121.42964,25.018059,0.0 121.42948,25.014189,0.0 121.429446,25.012085,0.0 121.43,25.011417,0.0 121.429907,25.011351,0.0 121.429256,25.011218,0.0 121.430595,25.008777,0.0 121.429323,25.007492,0.0 121.429157,25.007394,0.0 121.429295,25.007195,0.0 121.429524,25.007139,0.0 121.429728,25.006992,0.0 121.429897,25.006974,0.0 121.429849,25.006716,0.0 121.429661,25.006545,0.0 121.429696,25.006437,0.0 121.429934,25.006295,0.0 121.430005,25.006028,0.0 121.43014,25.005771,0.0 121.430067,25.00559,0.0 121.430141,25.005436,0.0 121.430517,25.005242,0.0 121.43085,25.004861,0.0 121.431365,25.004204,0.0 121.431625,25.003885,0.0 121.431874,25.003756,0.0 121.432039,25.003504,0.0 121.431971,25.003255,0.0 121.431593,25.002924,0.0 121.431557,25.002668,0.0 121.431376,25.002333,0.0 121.43127,25.002075,0.0 121.431302,25.001861,0.0 121.431254,25.001624,0.0 121.431132,25.001385,0.0 121.431043,25.001075,0.0 121.431107,25.000427,0.0 121.431089,25.000098,0.0 121.430979,24.999713,0.0 121.430523,24.9983,0.0 121.430454,24.998039,0.0 121.430428,24.99768,0.0 121.430419,24.997373,0.0 121.430397,24.997227,0.0 121.430408,24.996902,0.0 121.429755,24.996314,0.0 121.429736,24.99612,0.0 121.429642,24.995608,0.0 121.429865,24.995245,0.0 121.43012,24.995266,0.0 121.430264,24.995444,0.0 121.430443,24.995673,0.0 121.430639,24.995916,0.0 121.43082,24.996123,0.0 121.430945,24.996369,0.0 121.430803,24.996664,0.0 121.430632,24.996939,0.0 121.430651,24.997089,0.0 121.430673,24.997276,0.0 121.430686,24.997533,0.0 121.430728,24.997778,0.0 121.430809,24.998104,0.0 121.431064,24.998523,0.0 121.431359,24.998908,0.0 121.431778,24.999282,0.0 121.432158,24.999485,0.0 121.433246,24.999957,0.0 121.434499,25.00016,0.0 121.435318,24.999795,0.0 121.435414,25.000013,0.0 121.436066,25.000045,0.0 121.436371,25.00017,0.0 121.436428,25.000623,0.0 121.436593,25.001286,0.0 121.436734,25.001962,0.0 121.43685,25.0025,0.0 121.436991,25.00314,0.0 121.437001,25.003566,0.0 121.436937,25.003926,0.0 121.436893,25.004193,0.0 121.43685,25.004614,0.0 121.436819,25.005057,0.0 121.436824,25.005466,0.0 121.436794,25.006095,0.0 121.436799,25.006525,0.0 121.436834,25.007066,0.0 121.436904,25.007402,0.0 121.436955,25.007821,0.0 121.437144,25.00841,0.0 121.437231,25.00889,0.0 121.436455,25.009313,0.0 121.435879,25.010627,0.0 121.435668,25.011049,0.0 121.434871,25.011188,0.0 121.43558,25.012709,0.0 121.43446,25.01256,0.0 121.433943,25.01346,0.0 121.434587,25.014245,0.0 121.435366,25.016055,0.0 121.435588,25.017607,0.0 121.434494,25.018369,0.0 121.435393,25.018348,0.0 121.435427,25.019243,0.0 121.435247,25.019787,0.0 121.435516,25.020688,0.0 121.435732,25.023239,0.0 121.434872,25.023531,0.0</coordinates></LinearRing></outerBoundaryIs></Polygon><styleUrl>#spolygon-map</styleUrl></Placemark><Placemark><Polygon><outerBoundaryIs><LinearRing><coordinates>121.452648,25.039199,0.0 121.452238,25.039585,0.0 121.452111,25.039135,0.0 121.451397,25.039031,0.0 121.451349,25.038595,0.0 121.451349,25.038257,0.0 121.451379,25.037902,0.0 121.451396,25.037378,0.0 121.451482,25.034953,0.0 121.451347,25.033787,0.0 121.451565,25.033153,0.0 121.451852,25.032779,0.0 121.45338,25.03181,0.0 121.453999,25.032249,0.0 121.454773,25.032795,0.0 121.45457,25.033768,0.0 121.454065,25.034774,0.0 121.453745,25.035757,0.0 121.453287,25.036319,0.0 121.452576,25.037352,0.0 121.452619,25.037888,0.0 121.452662,25.038377,0.0 121.452646,25.039047,0.0 121.452648,25.039199,0.0</coordinates></LinearRing></outerBoundaryIs></Polygon><styleUrl>#spolygon-map</styleUrl></Placemark><Placemark><Polygon><outerBoundaryIs><LinearRing><coordinates>121.448675,25.044846,0.0 121.450407,25.045106,0.0 121.452273,25.045434,0.0 121.451701,25.046624,0.0 121.451276,25.0468,0.0 121.449609,25.046435,0.0 121.447867,25.045538,0.0 121.448675,25.044846,0.0</coordinates></LinearRing></outerBoundaryIs></Polygon><styleUrl>#spolygon-map</styleUrl></Placemark><Placemark><Polygon><outerBoundaryIs><LinearRing><coordinates>121.445524,25.029801,0.0 121.443357,25.030107,0.0 121.443219,25.029617,0.0 121.442043,25.029177,0.0 121.441725,25.028891,0.0 121.441607,25.028704,0.0 121.441517,25.028427,0.0 121.441328,25.027772,0.0 121.441283,25.027648,0.0 121.440937,25.027568,0.0 121.44052,25.027414,0.0 121.439903,25.027316,0.0 121.4392,25.027428,0.0 121.437883,25.028423,0.0 121.437681,25.027867,0.0 121.437679,25.02727,0.0 121.436428,25.024966,0.0 121.435541,25.023334,0.0 121.435608,25.020938,0.0 121.435274,25.019928,0.0 121.435355,25.01939,0.0 121.435383,25.018999,0.0 121.434654,25.018323,0.0 121.435618,25.017864,0.0 121.435616,25.016742,0.0 121.434811,25.014284,0.0 121.433909,25.013848,0.0 121.434315,25.012646,0.0 121.435561,25.012761,0.0 121.434991,25.012013,0.0 121.435627,25.011097,0.0 121.435873,25.010758,0.0 121.436386,25.009353,0.0 121.437174,25.008931,0.0 121.43731,25.009201,0.0 121.437364,25.009564,0.0 121.437468,25.010118,0.0 121.437616,25.010544,0.0 121.437829,25.010973,0.0 121.438027,25.011376,0.0 121.438232,25.011801,0.0 121.438469,25.012194,0.0 121.438737,25.012662,0.0 121.438986,25.012995,0.0 121.43931,25.013452,0.0 121.439654,25.013988,0.0 121.439966,25.014495,0.0 121.440331,25.015093,0.0 121.440724,25.015622,0.0 121.441124,25.016085,0.0 121.441599,25.016594,0.0 121.441894,25.016982,0.0 121.442127,25.017304,0.0 121.442328,25.017585,0.0 121.442663,25.018062,0.0 121.443028,25.018653,0.0 121.443475,25.019326,0.0 121.443861,25.019969,0.0 121.444234,25.020557,0.0 121.444643,25.021153,0.0 121.444951,25.021655,0.0 121.445164,25.022018,0.0 121.445271,25.022207,0.0 121.44541,25.022506,0.0 121.445703,25.023068,0.0 121.445923,25.023494,0.0 121.446288,25.024064,0.0 121.446722,25.024616,0.0 121.447322,25.025377,0.0 121.447984,25.026249,0.0 121.448637,25.02717,0.0 121.449061,25.027694,0.0 121.446576,25.029278,0.0 121.445867,25.029529,0.0 121.445524,25.029801,0.0</coordinates></LinearRing></outerBoundaryIs></Polygon><styleUrl>#spolygon-map</styleUrl></Placemark><Placemark><Polygon><outerBoundaryIs><LinearRing><coordinates>121.454814,25.036481,0.0 121.453731,25.035986,0.0 121.453781,25.035489,0.0 121.454506,25.033894,0.0 121.455073,25.033008,0.0 121.455656,25.033366,0.0 121.456292,25.033749,0.0 121.457078,25.034217,0.0 121.456458,25.03527,0.0 121.456069,25.035964,0.0 121.454814,25.036481,0.0</coordinates></LinearRing></outerBoundaryIs></Polygon><styleUrl>#spolygon-map</styleUrl></Placemark><Placemark><Polygon><outerBoundaryIs><LinearRing><coordinates>121.452541,25.04814,0.0 121.452362,25.049242,0.0 121.451197,25.048867,0.0 121.45017,25.048044,0.0 121.450644,25.047914,0.0 121.451438,25.047036,0.0 121.452061,25.047062,0.0 121.452541,25.04814,0.0</coordinates></LinearRing></outerBoundaryIs></Polygon><styleUrl>#spolygon-map</styleUrl></Placemark><Placemark><Polygon><outerBoundaryIs><LinearRing><coordinates>121.419245,25.021559,0.0 121.419546,25.023033,0.0 121.419655,25.024203,0.0 121.419958,25.025098,0.0 121.419769,25.026011,0.0 121.418536,25.02638,0.0 121.417596,25.026094,0.0 121.417099,25.02501,0.0 121.41641,25.024391,0.0 121.416519,25.023019,0.0 121.417181,25.022043,0.0 121.417814,25.020743,0.0 121.419245,25.021559,0.0</coordinates></LinearRing></outerBoundaryIs></Polygon><styleUrl>#spolygon-map</styleUrl></Placemark><Placemark><Polygon><outerBoundaryIs><LinearRing><coordinates>121.460344,25.036064,0.0 121.460862,25.036345,0.0 121.461339,25.036601,0.0 121.461825,25.036847,0.0 121.462493,25.03716,0.0 121.4633,25.037492,0.0 121.46403,25.037736,0.0 121.464668,25.037988,0.0 121.465378,25.038251,0.0 121.466082,25.038469,0.0 121.466205,25.039262,0.0 121.466161,25.040124,0.0 121.466166,25.04051,0.0 121.466241,25.040991,0.0 121.46636,25.041313,0.0 121.466346,25.041801,0.0 121.466172,25.042538,0.0 121.466065,25.042446,0.0 121.465447,25.042011,0.0 121.463338,25.040705,0.0 121.46185,25.03981,0.0 121.460567,25.039018,0.0 121.460022,25.038678,0.0 121.458423,25.037694,0.0 121.457629,25.037197,0.0 121.456898,25.036866,0.0 121.456183,25.036763,0.0 121.454856,25.036626,0.0 121.45598,25.035915,0.0 121.456152,25.035605,0.0 121.4573,25.034346,0.0 121.457947,25.034726,0.0 121.458493,25.035009,0.0 121.459163,25.035356,0.0 121.459731,25.035706,0.0 121.460344,25.036064,0.0</coordinates></LinearRing></outerBoundaryIs></Polygon><styleUrl>#spolygon-map</styleUrl></Placemark><Placemark><Polygon><outerBoundaryIs><LinearRing><coordinates>121.452049,25.050656,0.0 121.450726,25.050312,0.0 121.448532,25.050061,0.0 121.448171,25.050291,0.0 121.447509,25.050014,0.0 121.447341,25.049116,0.0 121.447448,25.048108,0.0 121.448701,25.048116,0.0 121.449639,25.048425,0.0 121.450648,25.048765,0.0 121.451816,25.049231,0.0 121.452201,25.050089,0.0 121.452049,25.050656,0.0</coordinates></LinearRing></outerBoundaryIs></Polygon><styleUrl>#spolygon-map</styleUrl></Placemark><Placemark><Polygon><outerBoundaryIs><LinearRing><coordinates>121.422018,25.025908,0.0 121.420544,25.026521,0.0 121.42044,25.026798,0.0 121.420907,25.027911,0.0 121.419645,25.028073,0.0 121.418759,25.027722,0.0 121.418015,25.026979,0.0 121.418784,25.026305,0.0 121.420362,25.025825,0.0 121.422018,25.025908,0.0</coordinates></LinearRing></outerBoundaryIs></Polygon><styleUrl>#spolygon-map</styleUrl></Placemark><Placemark><Polygon><outerBoundaryIs><LinearRing><coordinates>121.460509,25.046918,0.0 121.460393,25.04724,0.0 121.459955,25.047391,0.0 121.459408,25.047069,0.0 121.459053,25.046879,0.0 121.458918,25.046806,0.0 121.459196,25.046398,0.0 121.458812,25.04633,0.0 121.458613,25.04664,0.0 121.45797,25.046673,0.0 121.457844,25.046054,0.0 121.457878,25.044619,0.0 121.457881,25.044171,0.0 121.457913,25.043027,0.0 121.457584,25.04224,0.0 121.457694,25.0409,0.0 121.457728,25.040016,0.0 121.457551,25.039692,0.0 121.457796,25.039134,0.0 121.458501,25.038497,0.0 121.458772,25.037905,0.0 121.460327,25.038869,0.0 121.460933,25.039245,0.0 121.463111,25.040565,0.0 121.464159,25.04121,0.0 121.465948,25.042348,0.0 121.466166,25.042552,0.0 121.46442,25.041852,0.0 121.463861,25.042489,0.0 121.462138,25.042521,0.0 121.460788,25.043463,0.0 121.461623,25.043492,0.0 121.461739,25.044143,0.0 121.4613,25.0445,0.0 121.461544,25.045833,0.0 121.46153,25.046085,0.0 121.461615,25.046865,0.0 121.460509,25.046918,0.0</coordinates></LinearRing></outerBoundaryIs></Polygon><styleUrl>#spolygon-map</styleUrl></Placemark><Placemark><Polygon><outerBoundaryIs><LinearRing><coordinates>121.453989,25.039481,0.0 121.453401,25.039861,0.0 121.452656,25.039632,0.0 121.45266,25.038885,0.0 121.452654,25.038205,0.0 121.4526,25.037689,0.0 121.452587,25.036805,0.0 121.453777,25.036419,0.0 121.455827,25.036734,0.0 121.456513,25.036801,0.0 121.457306,25.037011,0.0 121.456866,25.038024,0.0 121.455093,25.038452,0.0 121.454672,25.039152,0.0 121.453989,25.039481,0.0</coordinates></LinearRing></outerBoundaryIs></Polygon><styleUrl>#spolygon-map</styleUrl></Placemark><Placemark><Polygon><outerBoundaryIs><LinearRing><coordinates>121.424042,25.02523,0.0 121.423816,25.025872,0.0 121.42343,25.025145,0.0 121.422188,25.025231,0.0 121.422159,25.024426,0.0 121.421859,25.023432,0.0 121.422196,25.023196,0.0 121.421645,25.022619,0.0 121.421644,25.021969,0.0 121.420962,25.021817,0.0 121.420993,25.020915,0.0 121.421117,25.02049,0.0 121.420985,25.019977,0.0 121.420816,25.018409,0.0 121.421696,25.018493,0.0 121.421853,25.018422,0.0 121.421943,25.018427,0.0 121.421461,25.019522,0.0 121.421894,25.020489,0.0 121.422362,25.021528,0.0 121.422726,25.022332,0.0 121.423335,25.023654,0.0 121.424042,25.02523,0.0</coordinates></LinearRing></outerBoundaryIs></Polygon><styleUrl>#spolygon-map</styleUrl></Placemark><Placemark><Polygon><outerBoundaryIs><LinearRing><coordinates>121.458186,25.048269,0.0 121.458241,25.049456,0.0 121.457139,25.049417,0.0 121.456124,25.049205,0.0 121.456067,25.048306,0.0 121.455789,25.047685,0.0 121.455802,25.046351,0.0 121.455826,25.045438,0.0 121.457134,25.045537,0.0 121.457784,25.046579,0.0 121.457701,25.047102,0.0 121.457814,25.047687,0.0 121.458186,25.048269,0.0</coordinates></LinearRing></outerBoundaryIs></Polygon><styleUrl>#spolygon-map</styleUrl></Placemark><Placemark><Polygon><outerBoundaryIs><LinearRing><coordinates>121.452679,25.041743,0.0 121.452589,25.04278,0.0 121.452659,25.043685,0.0 121.449775,25.043146,0.0 121.44707,25.042182,0.0 121.445274,25.041304,0.0 121.445625,25.040722,0.0 121.445915,25.040236,0.0 121.446513,25.039241,0.0 121.447292,25.038627,0.0 121.448085,25.038766,0.0 121.449129,25.039071,0.0 121.450427,25.039309,0.0 121.451318,25.039424,0.0 121.452399,25.040088,0.0 121.452679,25.041743,0.0</coordinates></LinearRing></outerBoundaryIs></Polygon><styleUrl>#spolygon-map</styleUrl></Placemark><Placemark><Polygon><outerBoundaryIs><LinearRing><coordinates>121.457623,25.051433,0.0 121.457947,25.05236,0.0 121.456135,25.052296,0.0 121.456784,25.050786,0.0 121.456316,25.050337,0.0 121.456121,25.049779,0.0 121.456401,25.049382,0.0 121.457259,25.049421,0.0 121.459405,25.049473,0.0 121.459866,25.051387,0.0 121.457798,25.051244,0.0 121.457623,25.051433,0.0</coordinates></LinearRing></outerBoundaryIs></Polygon><styleUrl>#spolygon-map</styleUrl></Placemark><Placemark><Polygon><outerBoundaryIs><LinearRing><coordinates>121.445797,25.040436,0.0 121.4455,25.040581,0.0 121.44375,25.040429,0.0 121.443144,25.040341,0.0 121.44291,25.040037,0.0 121.442857,25.039539,0.0 121.44363,25.039494,0.0 121.444166,25.038897,0.0 121.445467,25.038076,0.0 121.446497,25.038274,0.0 121.446569,25.039151,0.0 121.446141,25.039855,0.0 121.445797,25.040436,0.0</coordinates></LinearRing></outerBoundaryIs></Polygon><styleUrl>#spolygon-map</styleUrl></Placemark><Placemark><Polygon><outerBoundaryIs><LinearRing><coordinates>121.427802,25.020151,0.0 121.428067,25.020474,0.0 121.428071,25.020965,0.0 121.426781,25.021453,0.0 121.426379,25.022116,0.0 121.426274,25.02195,0.0 121.426121,25.021718,0.0 121.42608,25.021651,0.0 121.425985,25.021477,0.0 121.425875,25.021259,0.0 121.42573,25.020957,0.0 121.425475,25.020447,0.0 121.425044,25.019569,0.0 121.424611,25.018953,0.0 121.424531,25.018621,0.0 121.42569,25.018154,0.0 121.427063,25.017763,0.0 121.427153,25.018059,0.0 121.427529,25.018265,0.0 121.427783,25.018317,0.0 121.427548,25.019102,0.0 121.427167,25.019663,0.0 121.427466,25.0201,0.0 121.427802,25.020151,0.0</coordinates></LinearRing></outerBoundaryIs></Polygon><styleUrl>#spolygon-map</styleUrl></Placemark><Placemark><Polygon><outerBoundaryIs><LinearRing><coordinates>121.458177,25.051391,0.0 121.459862,25.052509,0.0 121.459853,25.054004,0.0 121.459821,25.059148,0.0 121.457823,25.058788,0.0 121.45686,25.055982,0.0 121.457091,25.055649,0.0 121.457621,25.055298,0.0 121.457994,25.055122,0.0 121.458014,25.054336,0.0 121.458031,25.053428,0.0 121.457997,25.052545,0.0 121.457649,25.051502,0.0 121.458177,25.051391,0.0</coordinates></LinearRing></outerBoundaryIs></Polygon><styleUrl>#spolygon-map</styleUrl></Placemark><Placemark><Polygon><outerBoundaryIs><LinearRing><coordinates>121.448304,25.04336,0.0 121.446708,25.043302,0.0 121.445892,25.043296,0.0 121.445251,25.043321,0.0 121.444546,25.043324,0.0 121.444185,25.043144,0.0 121.44478,25.04213,0.0 121.445274,25.041304,0.0 121.44707,25.042182,0.0 121.448346,25.043189,0.0 121.448304,25.04336,0.0</coordinates></LinearRing></outerBoundaryIs></Polygon><styleUrl>#spolygon-map</styleUrl></Placemark><Placemark><Polygon><outerBoundaryIs><LinearRing><coordinates>121.429524,25.020247,0.0 121.429213,25.021046,0.0 121.428795,25.021149,0.0 121.428067,25.020474,0.0 121.427802,25.020151,0.0 121.427423,25.01992,0.0 121.427101,25.019441,0.0 121.427792,25.01926,0.0 121.429701,25.01918,0.0 121.429524,25.020247,0.0</coordinates></LinearRing></outerBoundaryIs></Polygon><styleUrl>#spolygon-map</styleUrl></Placemark><Placemark><Polygon><outerBoundaryIs><LinearRing><coordinates>121.465857,25.043599,0.0 121.465882,25.044028,0.0 121.466136,25.044612,0.0 121.466272,25.045136,0.0 121.466551,25.045907,0.0 121.467065,25.046778,0.0 121.467248,25.047319,0.0 121.467279,25.04797,0.0 121.467221,25.04835,0.0 121.467275,25.048912,0.0 121.465813,25.049366,0.0 121.461329,25.049464,0.0 121.459955,25.047391,0.0 121.460393,25.04724,0.0 121.460509,25.046918,0.0 121.461491,25.046232,0.0 121.461557,25.045861,0.0 121.4613,25.044714,0.0 121.461672,25.044147,0.0 121.461654,25.043556,0.0 121.461024,25.043478,0.0 121.460713,25.042548,0.0 121.463497,25.042487,0.0 121.464354,25.041754,0.0 121.466055,25.042919,0.0 121.465857,25.043599,0.0</coordinates></LinearRing></outerBoundaryIs></Polygon><styleUrl>#spolygon-map</styleUrl></Placemark><Placemark><Polygon><outerBoundaryIs><LinearRing><coordinates>121.448014,25.044752,0.0 121.447746,25.04612,0.0 121.447271,25.046908,0.0 121.446226,25.046435,0.0 121.446418,25.044878,0.0 121.444782,25.044613,0.0 121.444423,25.044741,0.0 121.443355,25.044546,0.0 121.443772,25.043866,0.0 121.44418,25.043152,0.0 121.444591,25.043326,0.0 121.445464,25.043315,0.0 121.446131,25.04328,0.0 121.446699,25.043436,0.0 121.448145,25.044082,0.0 121.448047,25.044577,0.0 121.448014,25.044752,0.0</coordinates></LinearRing></outerBoundaryIs></Polygon><styleUrl>#spolygon-map</styleUrl></Placemark><Placemark><Polygon><outerBoundaryIs><LinearRing><coordinates>121.427671,25.012961,0.0 121.427274,25.013067,0.0 121.426765,25.013201,0.0 121.426057,25.013287,0.0 121.426216,25.012556,0.0 121.42627,25.011747,0.0 121.426184,25.011501,0.0 121.426365,25.011306,0.0 121.426489,25.011068,0.0 121.426519,25.010745,0.0 121.426661,25.010633,0.0 121.426791,25.010462,0.0 121.426976,25.01056,0.0 121.427095,25.010376,0.0 121.426966,25.010211,0.0 121.426737,25.010338,0.0 121.426509,25.010341,0.0 121.426517,25.010128,0.0 121.426723,25.009866,0.0 121.426522,25.009884,0.0 121.426331,25.009882,0.0 121.42639,25.009696,0.0 121.426492,25.009437,0.0 121.426532,25.008951,0.0 121.426732,25.008665,0.0 121.426877,25.008381,0.0 121.427111,25.008181,0.0 121.427215,25.008273,0.0 121.427218,25.008461,0.0 121.427414,25.008535,0.0 121.427686,25.008509,0.0 121.427896,25.008606,0.0 121.428027,25.008796,0.0 121.428083,25.008705,0.0 121.428115,25.008563,0.0 121.428287,25.008435,0.0 121.428673,25.008298,0.0 121.428809,25.008228,0.0 121.429013,25.008235,0.0 121.42916,25.008284,0.0 121.429093,25.00815,0.0 121.429015,25.007984,0.0 121.42918,25.007765,0.0 121.430595,25.008777,0.0 121.429256,25.011218,0.0 121.429907,25.011351,0.0 121.43,25.011417,0.0 121.429333,25.011776,0.0 121.428833,25.012157,0.0 121.427835,25.012852,0.0 121.427671,25.012961,0.0</coordinates></LinearRing></outerBoundaryIs></Polygon><styleUrl>#spolygon-map</styleUrl></Placemark><Placemark><Polygon><outerBoundaryIs><LinearRing><coordinates>121.456903,25.040657,0.0 121.45762,25.041201,0.0 121.457482,25.04272,0.0 121.457899,25.043384,0.0 121.457882,25.044395,0.0 121.456543,25.044428,0.0 121.455168,25.044261,0.0 121.454605,25.043921,0.0 121.455205,25.043471,0.0 121.455694,25.04301,0.0 121.456161,25.042674,0.0 121.456335,25.042338,0.0 121.456438,25.041336,0.0 121.456903,25.040657,0.0</coordinates></LinearRing></outerBoundaryIs></Polygon><styleUrl>#spolygon-map</styleUrl></Placemark><Placemark><Polygon><outerBoundaryIs><LinearRing><coordinates>121.440493,25.04145,0.0 121.439716,25.041879,0.0 121.439185,25.042187,0.0 121.438592,25.04253,0.0 121.437951,25.042894,0.0 121.437353,25.043168,0.0 121.437251,25.042478,0.0 121.437117,25.041621,0.0 121.437032,25.041126,0.0 121.436932,25.040464,0.0 121.436734,25.039222,0.0 121.436576,25.038881,0.0 121.435826,25.039279,0.0 121.434788,25.039921,0.0 121.433146,25.040925,0.0 121.432357,25.040727,0.0 121.431547,25.039784,0.0 121.430687,25.039029,0.0 121.430179,25.03823,0.0 121.429026,25.036654,0.0 121.428577,25.036019,0.0 121.427883,25.035304,0.0 121.427342,25.034704,0.0 121.426595,25.033981,0.0 121.425825,25.03306,0.0 121.424464,25.032177,0.0 121.424858,25.031252,0.0 121.426086,25.030282,0.0 121.427804,25.030545,0.0 121.430607,25.031422,0.0 121.433629,25.032391,0.0 121.436959,25.033,0.0 121.441235,25.033739,0.0 121.442453,25.036829,0.0 121.442842,25.03941,0.0 121.442429,25.039944,0.0 121.44228,25.041483,0.0 121.441912,25.041733,0.0 121.441812,25.041413,0.0 121.441534,25.041467,0.0 121.441212,25.041522,0.0 121.440987,25.041529,0.0 121.440933,25.041456,0.0 121.440661,25.041522,0.0 121.44053,25.041432,0.0 121.440493,25.04145,0.0</coordinates></LinearRing></outerBoundaryIs></Polygon><styleUrl>#spolygon-map</styleUrl></Placemark><Placemark><Polygon><outerBoundaryIs><LinearRing><coordinates>121.429443,25.011887,0.0 121.429479,25.014163,0.0 121.428966,25.017031,0.0 121.42857,25.01751,0.0 121.428113,25.016634,0.0 121.42807,25.01566,0.0 121.42801,25.014143,0.0 121.427944,25.01308,0.0 121.428738,25.012246,0.0 121.42917,25.011901,0.0 121.429443,25.011887,0.0</coordinates></LinearRing></outerBoundaryIs></Polygon><styleUrl>#spolygon-map</styleUrl></Placemark><Placemark><Polygon><outerBoundaryIs><LinearRing><coordinates>121.453127,25.048589,0.0 121.452681,25.049256,0.0 121.45278,25.047903,0.0 121.453329,25.046726,0.0 121.453738,25.045749,0.0 121.453612,25.044563,0.0 121.454227,25.044362,0.0 121.454692,25.045183,0.0 121.454752,25.045756,0.0 121.454738,25.046618,0.0 121.454739,25.04764,0.0 121.454118,25.048253,0.0 121.453127,25.048589,0.0</coordinates></LinearRing></outerBoundaryIs></Polygon><styleUrl>#spolygon-map</styleUrl></Placemark><Placemark><Polygon><outerBoundaryIs><LinearRing><coordinates>121.403473,25.045274,0.0 121.403019,25.045418,0.0 121.403046,25.045491,0.0 121.40291,25.045401,0.0 121.401962,25.045191,0.0 121.401405,25.044999,0.0 121.400407,25.044722,0.0 121.399257,25.044535,0.0 121.398912,25.044222,0.0 121.39828,25.044106,0.0 121.398474,25.04379,0.0 121.400657,25.043285,0.0 121.400488,25.043142,0.0 121.399667,25.042928,0.0 121.398944,25.043095,0.0 121.397876,25.043586,0.0 121.397025,25.043538,0.0 121.397069,25.043209,0.0 121.396742,25.043098,0.0 121.396138,25.043622,0.0 121.395591,25.043454,0.0 121.394339,25.043451,0.0 121.393874,25.043764,0.0 121.393609,25.043597,0.0 121.392658,25.043392,0.0 121.392105,25.042868,0.0 121.391727,25.042629,0.0 121.391126,25.042394,0.0 121.390798,25.042176,0.0 121.39084,25.041528,0.0 121.39142,25.041538,0.0 121.392017,25.041692,0.0 121.392248,25.041813,0.0 121.392523,25.041987,0.0 121.393117,25.041992,0.0 121.393552,25.041431,0.0 121.394061,25.041248,0.0 121.394328,25.040167,0.0 121.395951,25.039542,0.0 121.397378,25.038703,0.0 121.398422,25.038596,0.0 121.399042,25.038513,0.0 121.399279,25.03766,0.0 121.400111,25.037571,0.0 121.400667,25.037912,0.0 121.40106,25.037711,0.0 121.401175,25.037311,0.0 121.400794,25.036953,0.0 121.40115,25.036456,0.0 121.400784,25.036199,0.0 121.399681,25.036056,0.0 121.399893,25.035022,0.0 121.40059,25.034645,0.0 121.401148,25.034416,0.0 121.401126,25.034367,0.0 121.401325,25.034478,0.0 121.401532,25.034538,0.0 121.401686,25.034515,0.0 121.402191,25.034248,0.0 121.402533,25.034002,0.0 121.40266,25.033935,0.0 121.402817,25.033635,0.0 121.402874,25.033424,0.0 121.402905,25.033235,0.0 121.402993,25.033111,0.0 121.403123,25.03307,0.0 121.403268,25.032984,0.0 121.403347,25.032871,0.0 121.403505,25.032757,0.0 121.403611,25.032559,0.0 121.404633,25.032589,0.0 121.404888,25.032451,0.0 121.405009,25.032459,0.0 121.405189,25.032547,0.0 121.405585,25.032552,0.0 121.406013,25.032468,0.0 121.406408,25.032269,0.0 121.406871,25.031993,0.0 121.407003,25.031835,0.0 121.407106,25.031674,0.0 121.407298,25.031629,0.0 121.407692,25.031687,0.0 121.407837,25.031631,0.0 121.407929,25.031496,0.0 121.40836,25.031138,0.0 121.408512,25.030953,0.0 121.408825,25.030836,0.0 121.409302,25.030689,0.0 121.409555,25.030571,0.0 121.40986,25.030636,0.0 121.410143,25.030608,0.0 121.41028,25.030575,0.0 121.410712,25.030435,0.0 121.41089,25.030362,0.0 121.411039,25.030244,0.0 121.411119,25.030214,0.0 121.411215,25.030188,0.0 121.411299,25.030137,0.0 121.411372,25.030101,0.0 121.411753,25.03003,0.0 121.412172,25.030085,0.0 121.412815,25.029666,0.0 121.413339,25.030041,0.0 121.414233,25.029827,0.0 121.415039,25.029576,0.0 121.416207,25.029135,0.0 121.416906,25.028753,0.0 121.417296,25.028287,0.0 121.417404,25.027851,0.0 121.418402,25.027454,0.0 121.41898,25.027828,0.0 121.420634,25.028338,0.0 121.422689,25.02894,0.0 121.423175,25.029639,0.0 121.422532,25.030165,0.0 121.421819,25.030053,0.0 121.421517,25.02938,0.0 121.420521,25.029068,0.0 121.419993,25.029316,0.0 121.41879,25.030004,0.0 121.418201,25.0303,0.0 121.417832,25.030352,0.0 121.417807,25.030321,0.0 121.417404,25.030305,0.0 121.41728,25.030321,0.0 121.416933,25.030437,0.0 121.41684,25.030811,0.0 121.417059,25.03114,0.0 121.417181,25.031347,0.0 121.417358,25.031378,0.0 121.417565,25.031892,0.0 121.417716,25.032251,0.0 121.417873,25.032773,0.0 121.418078,25.033193,0.0 121.418176,25.03354,0.0 121.417697,25.033725,0.0 121.417328,25.033918,0.0 121.417043,25.03446,0.0 121.416843,25.034748,0.0 121.416271,25.034832,0.0 121.415916,25.03495,0.0 121.41556,25.034999,0.0 121.415317,25.03484,0.0 121.414976,25.03465,0.0 121.414849,25.034448,0.0 121.414457,25.034554,0.0 121.413818,25.034721,0.0 121.412842,25.035081,0.0 121.412674,25.03523,0.0 121.412786,25.035751,0.0 121.412881,25.036194,0.0 121.412925,25.036377,0.0 121.413017,25.036823,0.0 121.413148,25.037363,0.0 121.413266,25.038078,0.0 121.413287,25.038526,0.0 121.413242,25.038842,0.0 121.412665,25.039095,0.0 121.412193,25.039043,0.0 121.411832,25.039056,0.0 121.411319,25.039623,0.0 121.4114,25.039879,0.0 121.411682,25.040058,0.0 121.411983,25.040428,0.0 121.411754,25.040714,0.0 121.411548,25.040934,0.0 121.411365,25.040724,0.0 121.411078,25.040779,0.0 121.410785,25.040738,0.0 121.410663,25.040853,0.0 121.410772,25.04154,0.0 121.41059,25.041606,0.0 121.410095,25.041179,0.0 121.409737,25.040866,0.0 121.409536,25.040825,0.0 121.409561,25.041105,0.0 121.409847,25.041574,0.0 121.410167,25.041895,0.0 121.41047,25.042335,0.0 121.410477,25.042648,0.0 121.410379,25.042931,0.0 121.409874,25.043355,0.0 121.40914,25.044124,0.0 121.408632,25.044422,0.0 121.408138,25.044624,0.0 121.407749,25.044736,0.0 121.407132,25.044752,0.0 121.406469,25.044757,0.0 121.40548,25.045086,0.0 121.404727,25.045306,0.0 121.404011,25.045289,0.0 121.403473,25.045274,0.0</coordinates></LinearRing></outerBoundaryIs></Polygon><styleUrl>#spolygon-map</styleUrl></Placemark><Placemark><Polygon><outerBoundaryIs><LinearRing><coordinates>121.426002,25.015382,0.0 121.426177,25.016516,0.0 121.426554,25.017872,0.0 121.424542,25.018518,0.0 121.423919,25.018351,0.0 121.42369,25.017667,0.0 121.42357,25.017222,0.0 121.423357,25.016772,0.0 121.423415,25.016646,0.0 121.423416,25.016344,0.0 121.423425,25.015873,0.0 121.423425,25.015467,0.0 121.42349,25.014982,0.0 121.423666,25.014963,0.0 121.424065,25.015161,0.0 121.424056,25.01455,0.0 121.424308,25.013494,0.0 121.424315,25.013374,0.0 121.424445,25.013113,0.0 121.424604,25.013089,0.0 121.424795,25.013381,0.0 121.42494,25.013246,0.0 121.424808,25.013003,0.0 121.424775,25.012819,0.0 121.424951,25.012891,0.0 121.425073,25.01288,0.0 121.425146,25.012699,0.0 121.425342,25.01267,0.0 121.425404,25.012543,0.0 121.42527,25.012323,0.0 121.425278,25.012134,0.0 121.425676,25.011939,0.0 121.426005,25.01176,0.0 121.42627,25.011747,0.0 121.426216,25.012556,0.0 121.426057,25.013287,0.0 121.426002,25.015382,0.0</coordinates></LinearRing></outerBoundaryIs></Polygon><styleUrl>#spolygon-map</styleUrl></Placemark><Placemark><Polygon><outerBoundaryIs><LinearRing><coordinates>121.455822,25.045595,0.0 121.455796,25.046614,0.0 121.455783,25.047942,0.0 121.454739,25.047917,0.0 121.454739,25.046859,0.0 121.454746,25.046074,0.0 121.454536,25.045229,0.0 121.454843,25.044577,0.0 121.454391,25.044179,0.0 121.45521,25.044268,0.0 121.456771,25.044441,0.0 121.457878,25.044619,0.0 121.457336,25.045486,0.0 121.456118,25.045515,0.0 121.455822,25.045595,0.0</coordinates></LinearRing></outerBoundaryIs></Polygon><styleUrl>#spolygon-map</styleUrl></Placemark><Placemark><Polygon><outerBoundaryIs><LinearRing><coordinates>121.417154,25.02849,0.0 121.416692,25.028904,0.0 121.415571,25.02939,0.0 121.414832,25.029636,0.0 121.413961,25.028514,0.0 121.414235,25.028092,0.0 121.415091,25.027645,0.0 121.4171,25.026828,0.0 121.417379,25.027559,0.0 121.417377,25.028075,0.0 121.417154,25.02849,0.0</coordinates></LinearRing></outerBoundaryIs></Polygon><styleUrl>#spolygon-map</styleUrl></Placemark><Placemark><Polygon><outerBoundaryIs><LinearRing><coordinates>121.453777,25.050871,0.0 121.4529,25.05065,0.0 121.453231,25.049947,0.0 121.454608,25.04932,0.0 121.456117,25.049369,0.0 121.456123,25.049954,0.0 121.456322,25.050551,0.0 121.45678,25.050872,0.0 121.454863,25.050873,0.0 121.453777,25.050871,0.0</coordinates></LinearRing></outerBoundaryIs></Polygon><styleUrl>#spolygon-map</styleUrl></Placemark><Placemark><Polygon><outerBoundaryIs><LinearRing><coordinates>121.400294,25.03424,0.0 121.39893,25.034765,0.0 121.398552,25.034721,0.0 121.398435,25.033631,0.0 121.398249,25.032607,0.0 121.398767,25.031438,0.0 121.398265,25.031505,0.0 121.397962,25.031215,0.0 121.398451,25.030789,0.0 121.398239,25.030158,0.0 121.400352,25.029051,0.0 121.400755,25.029086,0.0 121.401469,25.028023,0.0 121.401031,25.026945,0.0 121.401728,25.02604,0.0 121.403461,25.025415,0.0 121.403962,25.024606,0.0 121.404645,25.023697,0.0 121.40596,25.022876,0.0 121.406207,25.022694,0.0 121.407005,25.022096,0.0 121.407749,25.021517,0.0 121.408986,25.020762,0.0 121.409389,25.020916,0.0 121.410153,25.02091,0.0 121.410473,25.02108,0.0 121.411603,25.021738,0.0 121.41239,25.022176,0.0 121.413707,25.022924,0.0 121.415489,25.023884,0.0 121.416668,25.024564,0.0 121.417141,25.025075,0.0 121.417603,25.026112,0.0 121.416245,25.027119,0.0 121.414877,25.027766,0.0 121.414018,25.028138,0.0 121.413318,25.028041,0.0 121.412156,25.028472,0.0 121.412481,25.029217,0.0 121.412815,25.029666,0.0 121.412172,25.030085,0.0 121.411753,25.03003,0.0 121.411372,25.030101,0.0 121.411299,25.030137,0.0 121.411215,25.030188,0.0 121.411119,25.030214,0.0 121.411039,25.030244,0.0 121.41089,25.030362,0.0 121.410712,25.030435,0.0 121.41028,25.030575,0.0 121.410143,25.030608,0.0 121.40986,25.030636,0.0 121.409555,25.030571,0.0 121.409302,25.030689,0.0 121.408825,25.030836,0.0 121.408512,25.030953,0.0 121.40836,25.031138,0.0 121.407929,25.031496,0.0 121.407837,25.031631,0.0 121.407692,25.031687,0.0 121.407298,25.031629,0.0 121.407106,25.031674,0.0 121.407003,25.031835,0.0 121.406871,25.031993,0.0 121.406408,25.032269,0.0 121.406013,25.032468,0.0 121.405585,25.032552,0.0 121.405189,25.032547,0.0 121.405009,25.032459,0.0 121.404888,25.032451,0.0 121.404633,25.032589,0.0 121.403611,25.032559,0.0 121.403505,25.032757,0.0 121.403347,25.032871,0.0 121.403268,25.032984,0.0 121.403123,25.03307,0.0 121.402993,25.033111,0.0 121.402905,25.033235,0.0 121.402874,25.033424,0.0 121.402817,25.033635,0.0 121.40266,25.033935,0.0 121.402533,25.034002,0.0 121.402191,25.034248,0.0 121.401686,25.034515,0.0 121.401532,25.034538,0.0 121.401325,25.034478,0.0 121.401126,25.034367,0.0 121.400803,25.034228,0.0 121.400294,25.03424,0.0</coordinates></LinearRing></outerBoundaryIs></Polygon><styleUrl>#spolygon-map</styleUrl></Placemark><Placemark><Polygon><outerBoundaryIs><LinearRing><coordinates>121.456067,25.048306,0.0 121.456124,25.049205,0.0 121.456087,25.049368,0.0 121.454466,25.049315,0.0 121.453127,25.048589,0.0 121.454118,25.048253,0.0 121.455781,25.048178,0.0 121.456067,25.048306,0.0</coordinates></LinearRing></outerBoundaryIs></Polygon><styleUrl>#spolygon-map</styleUrl></Placemark><Placemark><Polygon><outerBoundaryIs><LinearRing><coordinates>121.418856,25.020203,0.0 121.417814,25.020743,0.0 121.417181,25.022043,0.0 121.416519,25.023019,0.0 121.415832,25.024065,0.0 121.414162,25.023186,0.0 121.412797,25.022418,0.0 121.411838,25.021862,0.0 121.412414,25.020908,0.0 121.413164,25.019895,0.0 121.413451,25.019386,0.0 121.413727,25.018971,0.0 121.41395,25.01897,0.0 121.414184,25.019304,0.0 121.414468,25.019503,0.0 121.414819,25.019457,0.0 121.415209,25.019304,0.0 121.415579,25.019222,0.0 121.416124,25.019274,0.0 121.416493,25.019318,0.0 121.416772,25.019329,0.0 121.417019,25.01946,0.0 121.417557,25.020006,0.0 121.417664,25.019982,0.0 121.417783,25.019721,0.0 121.417952,25.019462,0.0 121.418103,25.019402,0.0 121.418464,25.019367,0.0 121.418815,25.019977,0.0 121.418856,25.020203,0.0</coordinates></LinearRing></outerBoundaryIs></Polygon><styleUrl>#spolygon-map</styleUrl></Placemark><Placemark><Polygon><outerBoundaryIs><LinearRing><coordinates>121.453349,25.044836,0.0 121.453723,25.045955,0.0 121.453171,25.046999,0.0 121.452728,25.048158,0.0 121.452362,25.049242,0.0 121.452541,25.04814,0.0 121.452019,25.047011,0.0 121.452085,25.045794,0.0 121.452483,25.04505,0.0 121.45291,25.044415,0.0 121.453594,25.043869,0.0 121.454453,25.044126,0.0 121.454227,25.044362,0.0 121.453612,25.044563,0.0 121.453349,25.044836,0.0</coordinates></LinearRing></outerBoundaryIs></Polygon><styleUrl>#spolygon-map</styleUrl></Placemark><Placemark><Polygon><outerBoundaryIs><LinearRing><coordinates>121.454176,25.061952,0.0 121.453345,25.061699,0.0 121.452558,25.061713,0.0 121.451648,25.061592,0.0 121.450962,25.061476,0.0 121.450779,25.061071,0.0 121.450513,25.060822,0.0 121.450155,25.060827,0.0 121.450411,25.06029,0.0 121.450446,25.059883,0.0 121.450394,25.058946,0.0 121.450319,25.058488,0.0 121.450334,25.058324,0.0 121.450411,25.057972,0.0 121.450636,25.057157,0.0 121.450795,25.056342,0.0 121.451007,25.055286,0.0 121.451093,25.054616,0.0 121.451153,25.054186,0.0 121.451252,25.053832,0.0 121.451426,25.053213,0.0 121.451451,25.052977,0.0 121.451479,25.052501,0.0 121.451844,25.051284,0.0 121.452201,25.050089,0.0 121.452681,25.049256,0.0 121.453172,25.04995,0.0 121.452896,25.050885,0.0 121.452839,25.051334,0.0 121.452811,25.051563,0.0 121.45268,25.051985,0.0 121.452516,25.052366,0.0 121.452324,25.052696,0.0 121.452231,25.052883,0.0 121.452125,25.053155,0.0 121.452078,25.053377,0.0 121.452042,25.053581,0.0 121.452013,25.053804,0.0 121.452005,25.053971,0.0 121.452017,25.054317,0.0 121.451662,25.055053,0.0 121.45166,25.055479,0.0 121.45167,25.055744,0.0 121.45206,25.056538,0.0 121.45317,25.058287,0.0 121.453137,25.058523,0.0 121.453357,25.058665,0.0 121.453602,25.05875,0.0 121.453516,25.058939,0.0 121.453428,25.060497,0.0 121.454977,25.060474,0.0 121.454176,25.061952,0.0</coordinates></LinearRing></outerBoundaryIs></Polygon><styleUrl>#spolygon-map</styleUrl></Placemark><Placemark><Polygon><outerBoundaryIs><LinearRing><coordinates>121.450241,25.060483,0.0 121.449971,25.060897,0.0 121.449694,25.061059,0.0 121.449414,25.061403,0.0 121.449157,25.06172,0.0 121.448823,25.062022,0.0 121.448478,25.062321,0.0 121.448116,25.062614,0.0 121.447913,25.062626,0.0 121.447659,25.062575,0.0 121.447598,25.062458,0.0 121.447581,25.062279,0.0 121.4477,25.062081,0.0 121.447772,25.061718,0.0 121.447745,25.061322,0.0 121.447794,25.061192,0.0 121.447941,25.0611,0.0 121.448086,25.060919,0.0 121.448086,25.06053,0.0 121.447816,25.060533,0.0 121.447658,25.060617,0.0 121.447419,25.060725,0.0 121.447164,25.060671,0.0 121.446977,25.060456,0.0 121.446883,25.059922,0.0 121.447006,25.059575,0.0 121.446499,25.059391,0.0 121.446287,25.059543,0.0 121.446184,25.059613,0.0 121.44591,25.059616,0.0 121.445784,25.059388,0.0 121.445413,25.058925,0.0 121.445239,25.058908,0.0 121.445159,25.059032,0.0 121.44495,25.059274,0.0 121.444643,25.059427,0.0 121.444545,25.059496,0.0 121.444628,25.059722,0.0 121.444585,25.059764,0.0 121.444277,25.059711,0.0 121.444115,25.059516,0.0 121.444168,25.059423,0.0 121.444337,25.059254,0.0 121.444416,25.059156,0.0 121.44427,25.059056,0.0 121.444205,25.058935,0.0 121.444261,25.05886,0.0 121.444384,25.058774,0.0 121.444419,25.058648,0.0 121.444101,25.058391,0.0 121.443778,25.058254,0.0 121.443129,25.05813,0.0 121.442704,25.058091,0.0 121.441881,25.057778,0.0 121.440886,25.057395,0.0 121.43985,25.056978,0.0 121.439598,25.056887,0.0 121.439328,25.056605,0.0 121.439013,25.056246,0.0 121.438674,25.055885,0.0 121.438656,25.055529,0.0 121.438699,25.055139,0.0 121.439067,25.054562,0.0 121.439287,25.054198,0.0 121.439455,25.053946,0.0 121.439583,25.053652,0.0 121.439638,25.053393,0.0 121.439669,25.053207,0.0 121.439657,25.052803,0.0 121.43951,25.052524,0.0 121.439461,25.05241,0.0 121.439859,25.052796,0.0 121.440675,25.053493,0.0 121.441368,25.054052,0.0 121.441727,25.054343,0.0 121.444636,25.054335,0.0 121.444713,25.052772,0.0 121.445348,25.052776,0.0 121.445967,25.052784,0.0 121.447241,25.052782,0.0 121.449465,25.05277,0.0 121.451253,25.053397,0.0 121.451252,25.053832,0.0 121.451153,25.054186,0.0 121.451093,25.054616,0.0 121.451007,25.055286,0.0 121.450795,25.056342,0.0 121.450636,25.057157,0.0 121.450411,25.057972,0.0 121.450334,25.058324,0.0 121.450319,25.058488,0.0 121.450394,25.058946,0.0 121.450446,25.059883,0.0 121.450411,25.06029,0.0 121.450241,25.060483,0.0</coordinates></LinearRing></outerBoundaryIs></Polygon><styleUrl>#spolygon-map</styleUrl></Placemark><Placemark><Polygon><outerBoundaryIs><LinearRing><coordinates>121.451456,25.052784,0.0 121.451448,25.053007,0.0 121.451349,25.053477,0.0 121.451253,25.053397,0.0 121.449465,25.05277,0.0 121.448058,25.05252,0.0 121.448202,25.052084,0.0 121.448419,25.051665,0.0 121.448047,25.050955,0.0 121.448171,25.050291,0.0 121.448532,25.050061,0.0 121.450726,25.050312,0.0 121.452049,25.050656,0.0 121.451755,25.051549,0.0 121.451477,25.052534,0.0 121.451456,25.052784,0.0</coordinates></LinearRing></outerBoundaryIs></Polygon><styleUrl>#spolygon-map</styleUrl></Placemark><Placemark><Polygon><outerBoundaryIs><LinearRing><coordinates>121.425011,25.024327,0.0 121.424084,25.025282,0.0 121.423468,25.023973,0.0 121.422847,25.022607,0.0 121.422421,25.021676,0.0 121.422002,25.02074,0.0 121.421622,25.01992,0.0 121.422523,25.019171,0.0 121.42278,25.019793,0.0 121.42316,25.020596,0.0 121.423647,25.021659,0.0 121.424006,25.022478,0.0 121.424277,25.022886,0.0 121.424062,25.02339,0.0 121.424624,25.02401,0.0 121.424829,25.024148,0.0 121.425011,25.024327,0.0</coordinates></LinearRing></outerBoundaryIs></Polygon><styleUrl>#spolygon-map</styleUrl></Placemark><Placemark><Polygon><outerBoundaryIs><LinearRing><coordinates>121.427658,25.026784,0.0 121.428959,25.027171,0.0 121.430303,25.027571,0.0 121.426472,25.028221,0.0 121.426613,25.027628,0.0 121.427658,25.026784,0.0</coordinates></LinearRing></outerBoundaryIs></Polygon><styleUrl>#spolygon-map</styleUrl></Placemark><Placemark><Polygon><outerBoundaryIs><LinearRing><coordinates>121.447448,25.048108,0.0 121.447341,25.049116,0.0 121.446178,25.047655,0.0 121.44632,25.046868,0.0 121.446928,25.046846,0.0 121.44817,25.047394,0.0 121.449094,25.047567,0.0 121.450359,25.047853,0.0 121.450131,25.048583,0.0 121.449024,25.048206,0.0 121.447813,25.047872,0.0 121.447448,25.048108,0.0</coordinates></LinearRing></outerBoundaryIs></Polygon><styleUrl>#spolygon-map</styleUrl></Placemark><Placemark><Polygon><outerBoundaryIs><LinearRing><coordinates>121.448621,25.046269,0.0 121.45089,25.046741,0.0 121.451438,25.047036,0.0 121.450644,25.047914,0.0 121.449386,25.047635,0.0 121.448254,25.047408,0.0 121.447612,25.046821,0.0 121.448621,25.046269,0.0</coordinates></LinearRing></outerBoundaryIs></Polygon><styleUrl>#spolygon-map</styleUrl></Placemark><Placemark><Polygon><outerBoundaryIs><LinearRing><coordinates>121.445165,25.040535,0.0 121.445625,25.040722,0.0 121.445274,25.041304,0.0 121.44478,25.04213,0.0 121.444185,25.043144,0.0 121.443831,25.043745,0.0 121.443439,25.044398,0.0 121.443243,25.044747,0.0 121.442881,25.045359,0.0 121.44249,25.046014,0.0 121.441618,25.04747,0.0 121.441456,25.047603,0.0 121.441117,25.047527,0.0 121.440496,25.047349,0.0 121.439999,25.047175,0.0 121.439877,25.047041,0.0 121.44035,25.046655,0.0 121.440892,25.046186,0.0 121.441398,25.045633,0.0 121.441614,25.045332,0.0 121.441841,25.04487,0.0 121.441866,25.044026,0.0 121.441892,25.043143,0.0 121.441911,25.04212,0.0 121.442021,25.041641,0.0 121.442354,25.041442,0.0 121.442429,25.039665,0.0 121.44291,25.040037,0.0 121.443144,25.040341,0.0 121.44375,25.040429,0.0 121.445165,25.040535,0.0</coordinates></LinearRing></outerBoundaryIs></Polygon><styleUrl>#spolygon-map</styleUrl></Placemark><Placemark><Polygon><outerBoundaryIs><LinearRing><coordinates>121.447685,25.038737,0.0 121.446664,25.038342,0.0 121.445647,25.038096,0.0 121.445726,25.037014,0.0 121.44596,25.036524,0.0 121.446574,25.034864,0.0 121.447509,25.035068,0.0 121.448138,25.036009,0.0 121.448186,25.0372,0.0 121.447933,25.037687,0.0 121.44816,25.037925,0.0 121.448146,25.0383,0.0 121.447685,25.038737,0.0</coordinates></LinearRing></outerBoundaryIs></Polygon><styleUrl>#spolygon-map</styleUrl></Placemark><Placemark><Polygon><outerBoundaryIs><LinearRing><coordinates>121.459895,25.047395,0.0 121.458671,25.049454,0.0 121.458221,25.048536,0.0 121.457685,25.047587,0.0 121.457727,25.046921,0.0 121.45797,25.046673,0.0 121.458613,25.04664,0.0 121.458812,25.04633,0.0 121.459196,25.046398,0.0 121.458918,25.046806,0.0 121.459053,25.046879,0.0 121.459408,25.047069,0.0 121.459895,25.047395,0.0</coordinates></LinearRing></outerBoundaryIs></Polygon><styleUrl>#spolygon-map</styleUrl></Placemark><Placemark><Polygon><outerBoundaryIs><LinearRing><coordinates>121.444842,25.049068,0.0 121.443624,25.049006,0.0 121.442675,25.049007,0.0 121.442407,25.048998,0.0 121.441588,25.049054,0.0 121.44153,25.04885,0.0 121.441839,25.048176,0.0 121.44174,25.047648,0.0 121.441577,25.047533,0.0 121.442396,25.046181,0.0 121.442657,25.045716,0.0 121.443186,25.04484,0.0 121.443355,25.044546,0.0 121.444423,25.044741,0.0 121.444782,25.044613,0.0 121.446418,25.044878,0.0 121.446226,25.046435,0.0 121.445495,25.046726,0.0 121.444809,25.046687,0.0 121.444824,25.047185,0.0 121.444842,25.048895,0.0 121.444842,25.049068,0.0</coordinates></LinearRing></outerBoundaryIs></Polygon><styleUrl>#spolygon-map</styleUrl></Placemark><Placemark><Polygon><outerBoundaryIs><LinearRing><coordinates>121.457401,25.05376,0.0 121.456401,25.053718,0.0 121.45554,25.053708,0.0 121.455565,25.052581,0.0 121.456766,25.052324,0.0 121.457997,25.052545,0.0 121.458031,25.053428,0.0 121.457401,25.05376,0.0</coordinates></LinearRing></outerBoundaryIs></Polygon><styleUrl>#spolygon-map</styleUrl></Placemark><Placemark><Polygon><outerBoundaryIs><LinearRing><coordinates>121.459045,25.060414,0.0 121.457688,25.060437,0.0 121.45378,25.060491,0.0 121.453466,25.058999,0.0 121.453607,25.058778,0.0 121.453411,25.058684,0.0 121.453208,25.058588,0.0 121.453132,25.058318,0.0 121.452617,25.057288,0.0 121.451673,25.055787,0.0 121.451659,25.055571,0.0 121.451663,25.055119,0.0 121.451719,25.054316,0.0 121.452008,25.054056,0.0 121.452011,25.053841,0.0 121.452036,25.053623,0.0 121.452059,25.053472,0.0 121.452118,25.053178,0.0 121.452166,25.053039,0.0 121.452794,25.053135,0.0 121.453037,25.053127,0.0 121.453382,25.053125,0.0 121.454033,25.053137,0.0 121.454747,25.053199,0.0 121.454704,25.053398,0.0 121.4546,25.053919,0.0 121.455402,25.054318,0.0 121.458014,25.054336,0.0 121.457994,25.055122,0.0 121.457621,25.055298,0.0 121.457091,25.055649,0.0 121.45686,25.055982,0.0 121.457823,25.058788,0.0 121.459821,25.059148,0.0 121.459847,25.060429,0.0 121.459045,25.060414,0.0</coordinates></LinearRing></outerBoundaryIs></Polygon><styleUrl>#spolygon-map</styleUrl></Placemark><Placemark><Polygon><outerBoundaryIs><LinearRing><coordinates>121.448833,25.035354,0.0 121.450136,25.035645,0.0 121.450015,25.037536,0.0 121.449953,25.038648,0.0 121.44992,25.03894,0.0 121.449119,25.039069,0.0 121.448144,25.038355,0.0 121.448209,25.037931,0.0 121.447911,25.037915,0.0 121.448108,25.037327,0.0 121.448359,25.036123,0.0 121.448833,25.035354,0.0</coordinates></LinearRing></outerBoundaryIs></Polygon><styleUrl>#spolygon-map</styleUrl></Placemark><Placemark><Polygon><outerBoundaryIs><LinearRing><coordinates>121.422665,25.025494,0.0 121.421271,25.025519,0.0 121.419825,25.02481,0.0 121.41963,25.024,0.0 121.420491,25.023058,0.0 121.421721,25.022271,0.0 121.421876,25.023208,0.0 121.421857,25.023401,0.0 121.421904,25.023858,0.0 121.422448,25.024966,0.0 121.422665,25.025494,0.0</coordinates></LinearRing></outerBoundaryIs></Polygon><styleUrl>#spolygon-map</styleUrl></Placemark><Placemark><Polygon><outerBoundaryIs><LinearRing><coordinates>121.421667,25.022056,0.0 121.419887,25.023227,0.0 121.419441,25.022534,0.0 121.418856,25.020203,0.0 121.418739,25.019353,0.0 121.418967,25.019327,0.0 121.419235,25.019258,0.0 121.419564,25.019082,0.0 121.419845,25.018993,0.0 121.420143,25.018907,0.0 121.420321,25.018777,0.0 121.420645,25.018476,0.0 121.421338,25.019556,0.0 121.421102,25.020206,0.0 121.420696,25.020932,0.0 121.421173,25.021321,0.0 121.421061,25.022035,0.0 121.421667,25.022056,0.0</coordinates></LinearRing></outerBoundaryIs></Polygon><styleUrl>#spolygon-map</styleUrl></Placemark><Placemark><Polygon><outerBoundaryIs><LinearRing><coordinates>121.437883,25.028423,0.0 121.438895,25.030005,0.0 121.440545,25.032631,0.0 121.441152,25.033722,0.0 121.435741,25.032783,0.0 121.433013,25.032207,0.0 121.430485,25.031382,0.0 121.427506,25.030455,0.0 121.424287,25.02946,0.0 121.422839,25.028471,0.0 121.423284,25.027242,0.0 121.424023,25.027572,0.0 121.424751,25.028005,0.0 121.425215,25.028223,0.0 121.425649,25.028328,0.0 121.430569,25.027758,0.0 121.432307,25.028018,0.0 121.433355,25.028016,0.0 121.43405,25.028178,0.0 121.434888,25.028306,0.0 121.435982,25.02825,0.0 121.437173,25.028196,0.0 121.437883,25.028423,0.0</coordinates></LinearRing></outerBoundaryIs></Polygon><styleUrl>#spolygon-map</styleUrl></Placemark><Placemark><Polygon><outerBoundaryIs><LinearRing><coordinates>121.426613,25.027628,0.0 121.426472,25.028221,0.0 121.42551,25.028302,0.0 121.424944,25.02811,0.0 121.42455,25.027884,0.0 121.423776,25.02741,0.0 121.423438,25.026954,0.0 121.424306,25.025538,0.0 121.424874,25.02592,0.0 121.426286,25.02636,0.0 121.42673,25.027283,0.0 121.426613,25.027628,0.0</coordinates></LinearRing></outerBoundaryIs></Polygon><styleUrl>#spolygon-map</styleUrl></Placemark><Placemark><Polygon><outerBoundaryIs><LinearRing><coordinates>121.435293,25.028282,0.0 121.434514,25.028275,0.0 121.433551,25.028032,0.0 121.433153,25.028076,0.0 121.430927,25.027693,0.0 121.429418,25.027305,0.0 121.428743,25.026504,0.0 121.428936,25.025798,0.0 121.428315,25.025276,0.0 121.42665,25.024294,0.0 121.42629,25.022257,0.0 121.427016,25.022831,0.0 121.427715,25.023354,0.0 121.42867,25.023762,0.0 121.429302,25.024164,0.0 121.430117,25.024685,0.0 121.430659,25.025064,0.0 121.431519,25.02563,0.0 121.432811,25.024463,0.0 121.434117,25.023884,0.0 121.435541,25.023334,0.0 121.436428,25.024966,0.0 121.437679,25.02727,0.0 121.437681,25.027867,0.0 121.437173,25.028196,0.0 121.435982,25.02825,0.0 121.435293,25.028282,0.0</coordinates></LinearRing></outerBoundaryIs></Polygon><styleUrl>#spolygon-map</styleUrl></Placemark><Placemark><Polygon><outerBoundaryIs><LinearRing><coordinates>121.425044,25.019569,0.0 121.425475,25.020447,0.0 121.425277,25.020967,0.0 121.424338,25.021473,0.0 121.423395,25.021133,0.0 121.423037,25.020335,0.0 121.422712,25.019628,0.0 121.422153,25.018921,0.0 121.421884,25.018414,0.0 121.421722,25.01848,0.0 121.421288,25.017934,0.0 121.422364,25.017134,0.0 121.423276,25.016793,0.0 121.423463,25.01687,0.0 121.423668,25.017499,0.0 121.423815,25.018025,0.0 121.424371,25.018575,0.0 121.424555,25.018857,0.0 121.424767,25.019214,0.0 121.425044,25.019569,0.0</coordinates></LinearRing></outerBoundaryIs></Polygon><styleUrl>#spolygon-map</styleUrl></Placemark><Placemark><Polygon><outerBoundaryIs><LinearRing><coordinates>121.459819,25.064035,0.0 121.462658,25.065038,0.0 121.462665,25.066933,0.0 121.462108,25.067405,0.0 121.46071,25.06811,0.0 121.46016,25.068387,0.0 121.458167,25.067657,0.0 121.455859,25.065291,0.0 121.454534,25.063685,0.0 121.453537,25.063605,0.0 121.452868,25.064029,0.0 121.450801,25.061726,0.0 121.451416,25.061704,0.0 121.452305,25.061664,0.0 121.453217,25.061758,0.0 121.454048,25.0619,0.0 121.454645,25.063218,0.0 121.457836,25.063243,0.0 121.459819,25.064035,0.0</coordinates></LinearRing></outerBoundaryIs></Polygon><styleUrl>#spolygon-map</styleUrl></Placemark><Placemark><Polygon><outerBoundaryIs><LinearRing><coordinates>121.458022,25.053818,0.0 121.45683,25.054326,0.0 121.454555,25.054313,0.0 121.454671,25.053552,0.0 121.454719,25.053329,0.0 121.454758,25.053149,0.0 121.454789,25.052861,0.0 121.455125,25.052258,0.0 121.455564,25.05294,0.0 121.455836,25.053709,0.0 121.456399,25.053809,0.0 121.457379,25.05373,0.0 121.458022,25.053818,0.0</coordinates></LinearRing></outerBoundaryIs></Polygon><styleUrl>#spolygon-map</styleUrl></Placemark><Placemark><Polygon><outerBoundaryIs><LinearRing><coordinates>121.454758,25.053149,0.0 121.454033,25.053137,0.0 121.453382,25.053125,0.0 121.453037,25.053127,0.0 121.452794,25.053135,0.0 121.452166,25.053039,0.0 121.452284,25.052765,0.0 121.452497,25.052398,0.0 121.45264,25.052099,0.0 121.452807,25.051575,0.0 121.452833,25.051385,0.0 121.452879,25.051017,0.0 121.453777,25.050871,0.0 121.455498,25.050868,0.0 121.456135,25.052296,0.0 121.45481,25.052509,0.0 121.454783,25.052957,0.0 121.454758,25.053149,0.0</coordinates></LinearRing></outerBoundaryIs></Polygon><styleUrl>#spolygon-map</styleUrl></Placemark><Placemark><Polygon><outerBoundaryIs><LinearRing><coordinates>121.448009,25.052779,0.0 121.445987,25.052785,0.0 121.445376,25.052773,0.0 121.444716,25.052772,0.0 121.444737,25.05208,0.0 121.44478,25.050909,0.0 121.444798,25.050436,0.0 121.444833,25.04944,0.0 121.444931,25.04939,0.0 121.444968,25.049069,0.0 121.445531,25.049073,0.0 121.44647,25.049095,0.0 121.447377,25.049421,0.0 121.44766,25.050391,0.0 121.448109,25.051032,0.0 121.448415,25.051671,0.0 121.448201,25.052087,0.0 121.448009,25.052779,0.0</coordinates></LinearRing></outerBoundaryIs></Polygon><styleUrl>#spolygon-map</styleUrl></Placemark><Placemark><Polygon><outerBoundaryIs><LinearRing><coordinates>121.444719,25.052596,0.0 121.44468,25.053428,0.0 121.44249,25.054342,0.0 121.441405,25.054087,0.0 121.441274,25.053959,0.0 121.440019,25.052917,0.0 121.439744,25.052745,0.0 121.439445,25.052391,0.0 121.43955,25.052272,0.0 121.439996,25.05227,0.0 121.440281,25.052349,0.0 121.4404,25.052317,0.0 121.440554,25.052025,0.0 121.44092,25.051117,0.0 121.441091,25.050838,0.0 121.441104,25.05063,0.0 121.440775,25.050603,0.0 121.440693,25.050521,0.0 121.440912,25.050038,0.0 121.441139,25.049623,0.0 121.441437,25.049045,0.0 121.442,25.049054,0.0 121.442524,25.048999,0.0 121.442694,25.049007,0.0 121.444228,25.049021,0.0 121.444843,25.048505,0.0 121.444814,25.046984,0.0 121.444907,25.046702,0.0 121.446141,25.046714,0.0 121.446284,25.04739,0.0 121.446637,25.048562,0.0 121.446133,25.049086,0.0 121.445512,25.049073,0.0 121.444964,25.049069,0.0 121.44491,25.049415,0.0 121.44483,25.049439,0.0 121.444797,25.050463,0.0 121.444768,25.051228,0.0 121.444719,25.052596,0.0</coordinates></LinearRing></outerBoundaryIs></Polygon><styleUrl>#spolygon-map</styleUrl></Placemark><Placemark><Polygon><outerBoundaryIs><LinearRing><coordinates>121.451939,25.030671,0.0 121.45074,25.032334,0.0 121.450305,25.032511,0.0 121.44975,25.032268,0.0 121.448329,25.031854,0.0 121.447958,25.031514,0.0 121.448074,25.030991,0.0 121.448198,25.030585,0.0 121.446507,25.030458,0.0 121.446539,25.029553,0.0 121.446576,25.029278,0.0 121.449061,25.027694,0.0 121.449565,25.028185,0.0 121.450059,25.028702,0.0 121.450552,25.029251,0.0 121.451019,25.029765,0.0 121.451507,25.030282,0.0 121.451939,25.030671,0.0</coordinates></LinearRing></outerBoundaryIs></Polygon><styleUrl>#spolygon-map</styleUrl></Placemark><Placemark><Polygon><outerBoundaryIs><LinearRing><coordinates>121.42343,25.025145,0.0 121.423816,25.025872,0.0 121.423438,25.026954,0.0 121.423164,25.02754,0.0 121.421528,25.028583,0.0 121.420738,25.027989,0.0 121.42129,25.027433,0.0 121.420517,25.026636,0.0 121.420674,25.026354,0.0 121.422494,25.025142,0.0 121.42343,25.025145,0.0</coordinates></LinearRing></outerBoundaryIs></Polygon><styleUrl>#spolygon-map</styleUrl></Placemark><Placemark><Polygon><outerBoundaryIs><LinearRing><coordinates>121.412414,25.020908,0.0 121.411838,25.021862,0.0 121.410528,25.021117,0.0 121.41059,25.021026,0.0 121.410608,25.020579,0.0 121.410648,25.019997,0.0 121.410694,25.019789,0.0 121.411002,25.01981,0.0 121.411146,25.019587,0.0 121.411283,25.019282,0.0 121.411695,25.019381,0.0 121.412136,25.019673,0.0 121.412332,25.020279,0.0 121.412624,25.020305,0.0 121.412414,25.020908,0.0</coordinates></LinearRing></outerBoundaryIs></Polygon><styleUrl>#spolygon-map</styleUrl></Placemark><Placemark><Polygon><outerBoundaryIs><LinearRing><coordinates>121.414385,25.028817,0.0 121.414233,25.029827,0.0 121.413339,25.030041,0.0 121.412815,25.029666,0.0 121.412481,25.029217,0.0 121.412156,25.028472,0.0 121.413318,25.028041,0.0 121.413833,25.028245,0.0 121.414385,25.028817,0.0</coordinates></LinearRing></outerBoundaryIs></Polygon><styleUrl>#spolygon-map</styleUrl></Placemark><Placemark><Polygon><outerBoundaryIs><LinearRing><coordinates>121.430422,25.023493,0.0 121.430509,25.024031,0.0 121.430324,25.024783,0.0 121.429533,25.024324,0.0 121.42888,25.023899,0.0 121.428125,25.023612,0.0 121.427167,25.022989,0.0 121.426369,25.022138,0.0 121.426781,25.021453,0.0 121.428071,25.020965,0.0 121.428969,25.021145,0.0 121.429255,25.020854,0.0 121.429698,25.021455,0.0 121.43056,25.022888,0.0 121.430422,25.023493,0.0</coordinates></LinearRing></outerBoundaryIs></Polygon><styleUrl>#spolygon-map</styleUrl></Placemark><Placemark><Polygon><outerBoundaryIs><LinearRing><coordinates>121.428222,25.019192,0.0 121.427321,25.019384,0.0 121.427444,25.018702,0.0 121.427765,25.018125,0.0 121.427415,25.018308,0.0 121.427187,25.017903,0.0 121.427723,25.01757,0.0 121.42857,25.01751,0.0 121.428966,25.017031,0.0 121.429653,25.018251,0.0 121.428222,25.019192,0.0</coordinates></LinearRing></outerBoundaryIs></Polygon><styleUrl>#spolygon-map</styleUrl></Placemark><Placemark><Polygon><outerBoundaryIs><LinearRing><coordinates>121.428062,25.015283,0.0 121.428087,25.016099,0.0 121.428146,25.017531,0.0 121.427425,25.017636,0.0 121.426456,25.017597,0.0 121.426131,25.016279,0.0 121.42598,25.014831,0.0 121.428037,25.014717,0.0 121.428062,25.015283,0.0</coordinates></LinearRing></outerBoundaryIs></Polygon><styleUrl>#spolygon-map</styleUrl></Placemark><Placemark><Polygon><outerBoundaryIs><LinearRing><coordinates>121.427975,25.013331,0.0 121.427333,25.014743,0.0 121.425984,25.014254,0.0 121.426665,25.013274,0.0 121.426921,25.013074,0.0 121.427472,25.013043,0.0 121.427878,25.012902,0.0 121.427975,25.013331,0.0</coordinates></LinearRing></outerBoundaryIs></Polygon><styleUrl>#spolygon-map</styleUrl></Placemark></Document>
</kml>
