<?xml version="1.0" encoding="UTF-8"?>
<kml xmlns="http://www.opengis.net/kml/2.2">
	<Document>
		<name>新北市泰山區</name>
		<Style id="spolygon">
			<LabelStyle>
				<scale>0.0</scale>
			</LabelStyle>
			<LineStyle>
				<color>330030ff</color>
				<width>0</width>
			</LineStyle>
			<PolyStyle>
				<color>330030ff</color>
			</PolyStyle>
		</Style>
		<StyleMap id="spolygon-map">
			<Pair>
				<key>normal</key>
				<styleUrl>#spolygon</styleUrl>
			</Pair>
		</StyleMap>
	<Placemark><Polygon><outerBoundaryIs><LinearRing><coordinates>121.397055,25.072067,0.0 121.397078,25.072511,0.0 121.396884,25.072777,0.0 121.396416,25.072926,0.0 121.396288,25.073144,0.0 121.396073,25.073145,0.0 121.39567,25.072809,0.0 121.39483,25.072097,0.0 121.394108,25.07199,0.0 121.393933,25.071919,0.0 121.393934,25.071815,0.0 121.39393,25.071683,0.0 121.393464,25.071428,0.0 121.392743,25.070839,0.0 121.392185,25.070415,0.0 121.392228,25.070301,0.0 121.392205,25.069695,0.0 121.39193,25.069503,0.0 121.391581,25.069321,0.0 121.391257,25.069224,0.0 121.390707,25.069352,0.0 121.390112,25.069574,0.0 121.389808,25.069398,0.0 121.38978,25.068747,0.0 121.389892,25.06813,0.0 121.389822,25.067944,0.0 121.389557,25.067786,0.0 121.38837,25.067983,0.0 121.388254,25.068063,0.0 121.388453,25.068165,0.0 121.388576,25.068466,0.0 121.388708,25.068787,0.0 121.388744,25.069119,0.0 121.388509,25.069231,0.0 121.388524,25.069406,0.0 121.388427,25.069775,0.0 121.387913,25.069861,0.0 121.387676,25.069963,0.0 121.387649,25.070145,0.0 121.387633,25.070741,0.0 121.387537,25.071098,0.0 121.387235,25.07134,0.0 121.387041,25.071774,0.0 121.386957,25.07219,0.0 121.387234,25.072248,0.0 121.387959,25.072307,0.0 121.388163,25.072444,0.0 121.387921,25.072714,0.0 121.387464,25.07267,0.0 121.387015,25.072972,0.0 121.38639,25.072856,0.0 121.385834,25.072541,0.0 121.385852,25.071602,0.0 121.385716,25.071415,0.0 121.38559,25.071265,0.0 121.385773,25.070914,0.0 121.3859,25.070644,0.0 121.38542,25.069957,0.0 121.385279,25.070262,0.0 121.384931,25.070673,0.0 121.384485,25.071256,0.0 121.383945,25.07155,0.0 121.383324,25.071487,0.0 121.38296,25.071465,0.0 121.38245,25.071439,0.0 121.382219,25.071601,0.0 121.381792,25.071695,0.0 121.381507,25.071739,0.0 121.38105,25.071915,0.0 121.380647,25.072027,0.0 121.38003,25.071965,0.0 121.379265,25.071915,0.0 121.378566,25.072015,0.0 121.377933,25.072285,0.0 121.377454,25.072745,0.0 121.377067,25.072673,0.0 121.377021,25.072432,0.0 121.377344,25.071906,0.0 121.377708,25.071557,0.0 121.378539,25.071158,0.0 121.378945,25.070899,0.0 121.378979,25.070792,0.0 121.378926,25.070494,0.0 121.379024,25.070442,0.0 121.379125,25.070318,0.0 121.379212,25.070381,0.0 121.379403,25.070595,0.0 121.379649,25.070682,0.0 121.379939,25.070684,0.0 121.380278,25.070765,0.0 121.380729,25.07071,0.0 121.380801,25.070382,0.0 121.380927,25.070155,0.0 121.381219,25.070247,0.0 121.3815,25.070228,0.0 121.381985,25.070093,0.0 121.382523,25.069917,0.0 121.382863,25.069536,0.0 121.3829,25.069223,0.0 121.382888,25.068979,0.0 121.382476,25.068658,0.0 121.382463,25.068368,0.0 121.382876,25.068082,0.0 121.383232,25.067846,0.0 121.382874,25.067467,0.0 121.382713,25.067051,0.0 121.382726,25.06634,0.0 121.382662,25.066027,0.0 121.381729,25.066082,0.0 121.381072,25.066152,0.0 121.380525,25.066136,0.0 121.379857,25.066047,0.0 121.380035,25.065655,0.0 121.380124,25.065095,0.0 121.38222,25.063819,0.0 121.382891,25.062918,0.0 121.384002,25.062726,0.0 121.385929,25.063141,0.0 121.386509,25.063184,0.0 121.387262,25.062565,0.0 121.38789,25.062837,0.0 121.388327,25.062997,0.0 121.387958,25.06193,0.0 121.388404,25.0615,0.0 121.388984,25.061596,0.0 121.390021,25.061661,0.0 121.391052,25.061389,0.0 121.390637,25.061156,0.0 121.390894,25.060812,0.0 121.390655,25.060743,0.0 121.389934,25.060761,0.0 121.389309,25.060664,0.0 121.38893,25.060684,0.0 121.388596,25.060311,0.0 121.388553,25.060096,0.0 121.388141,25.059871,0.0 121.387738,25.059789,0.0 121.387906,25.059387,0.0 121.388743,25.059207,0.0 121.389692,25.058901,0.0 121.389098,25.058474,0.0 121.388592,25.058394,0.0 121.388489,25.058329,0.0 121.388542,25.057383,0.0 121.388541,25.05685,0.0 121.38768,25.057293,0.0 121.387126,25.05745,0.0 121.386441,25.057782,0.0 121.38592,25.058108,0.0 121.385597,25.058113,0.0 121.385686,25.057815,0.0 121.385796,25.056691,0.0 121.387215,25.055524,0.0 121.387453,25.0551,0.0 121.38706,25.054532,0.0 121.386728,25.05438,0.0 121.386643,25.053919,0.0 121.386144,25.053719,0.0 121.386014,25.053649,0.0 121.385703,25.053034,0.0 121.385185,25.052916,0.0 121.38461,25.052745,0.0 121.384439,25.052565,0.0 121.385534,25.052509,0.0 121.386242,25.052609,0.0 121.386969,25.052864,0.0 121.387754,25.053218,0.0 121.388068,25.052913,0.0 121.388356,25.052992,0.0 121.388825,25.053304,0.0 121.38975,25.053338,0.0 121.389321,25.052978,0.0 121.389478,25.052835,0.0 121.390151,25.052984,0.0 121.390533,25.053129,0.0 121.39082,25.05336,0.0 121.390855,25.054447,0.0 121.39111,25.054642,0.0 121.391408,25.054805,0.0 121.392714,25.055034,0.0 121.392329,25.054737,0.0 121.391967,25.054437,0.0 121.391463,25.054046,0.0 121.391074,25.053674,0.0 121.39139,25.053532,0.0 121.391728,25.053912,0.0 121.392433,25.053732,0.0 121.392778,25.053886,0.0 121.392975,25.053914,0.0 121.394067,25.05327,0.0 121.394514,25.053063,0.0 121.395356,25.052756,0.0 121.396468,25.052342,0.0 121.397605,25.051391,0.0 121.398769,25.051348,0.0 121.399204,25.051581,0.0 121.400638,25.051388,0.0 121.400521,25.051151,0.0 121.400182,25.050956,0.0 121.400267,25.049608,0.0 121.399751,25.049339,0.0 121.399362,25.049827,0.0 121.398396,25.050595,0.0 121.398383,25.050824,0.0 121.398146,25.051121,0.0 121.397476,25.050401,0.0 121.398097,25.049765,0.0 121.398685,25.048757,0.0 121.398549,25.048488,0.0 121.398062,25.04874,0.0 121.396605,25.0496,0.0 121.396547,25.049433,0.0 121.39625,25.049321,0.0 121.39543,25.049529,0.0 121.394913,25.049977,0.0 121.394618,25.050361,0.0 121.394542,25.050034,0.0 121.394367,25.050421,0.0 121.393951,25.050277,0.0 121.39424,25.049394,0.0 121.393924,25.049336,0.0 121.394447,25.048768,0.0 121.394326,25.047572,0.0 121.39463,25.047538,0.0 121.394956,25.047708,0.0 121.395744,25.048582,0.0 121.395995,25.048491,0.0 121.397192,25.048156,0.0 121.398602,25.0481,0.0 121.399394,25.047748,0.0 121.398252,25.046885,0.0 121.397747,25.046443,0.0 121.397774,25.046234,0.0 121.398626,25.046044,0.0 121.399069,25.045806,0.0 121.399539,25.045994,0.0 121.399763,25.045226,0.0 121.39994,25.044889,0.0 121.400461,25.045132,0.0 121.401056,25.04553,0.0 121.401586,25.045411,0.0 121.402286,25.045641,0.0 121.402949,25.045683,0.0 121.403022,25.0455,0.0 121.403028,25.045438,0.0 121.403431,25.045278,0.0 121.403755,25.04528,0.0 121.404664,25.045314,0.0 121.405097,25.045207,0.0 121.406284,25.044814,0.0 121.406984,25.044726,0.0 121.407545,25.044754,0.0 121.408007,25.044676,0.0 121.408539,25.04445,0.0 121.40907,25.044189,0.0 121.409775,25.04348,0.0 121.410298,25.042973,0.0 121.410473,25.042661,0.0 121.410491,25.042449,0.0 121.410253,25.041988,0.0 121.409933,25.041672,0.0 121.409599,25.041193,0.0 121.40951,25.040876,0.0 121.40966,25.040829,0.0 121.410044,25.041106,0.0 121.41048,25.041538,0.0 121.410764,25.04162,0.0 121.410706,25.04098,0.0 121.410716,25.040736,0.0 121.411027,25.040791,0.0 121.411309,25.040712,0.0 121.411503,25.040902,0.0 121.411677,25.04085,0.0 121.411901,25.04053,0.0 121.411873,25.040187,0.0 121.411443,25.039905,0.0 121.411274,25.039723,0.0 121.411749,25.039117,0.0 121.412011,25.039009,0.0 121.412534,25.039093,0.0 121.413104,25.038977,0.0 121.413288,25.038614,0.0 121.413279,25.038171,0.0 121.413178,25.037596,0.0 121.413061,25.036954,0.0 121.412925,25.036462,0.0 121.412888,25.036236,0.0 121.412848,25.035995,0.0 121.412693,25.035384,0.0 121.412765,25.035115,0.0 121.413473,25.034835,0.0 121.414318,25.034591,0.0 121.414819,25.034445,0.0 121.414954,25.034584,0.0 121.415425,25.03582,0.0 121.415716,25.036223,0.0 121.415695,25.036602,0.0 121.41561,25.037001,0.0 121.415821,25.037082,0.0 121.416395,25.037499,0.0 121.41656,25.037915,0.0 121.416473,25.03805,0.0 121.416225,25.038188,0.0 121.416099,25.038344,0.0 121.416153,25.038477,0.0 121.416363,25.038553,0.0 121.416705,25.038679,0.0 121.416924,25.039191,0.0 121.416795,25.039424,0.0 121.416224,25.039896,0.0 121.416005,25.039973,0.0 121.415744,25.040068,0.0 121.415679,25.04021,0.0 121.415496,25.040525,0.0 121.415321,25.040615,0.0 121.414772,25.040564,0.0 121.414636,25.040602,0.0 121.414314,25.040897,0.0 121.414294,25.041029,0.0 121.414465,25.041096,0.0 121.414754,25.041102,0.0 121.414869,25.041211,0.0 121.414836,25.04141,0.0 121.41466,25.041666,0.0 121.414137,25.042047,0.0 121.413803,25.042362,0.0 121.413859,25.042492,0.0 121.414129,25.042495,0.0 121.414471,25.042482,0.0 121.414584,25.042622,0.0 121.414571,25.042997,0.0 121.414475,25.043404,0.0 121.414594,25.043533,0.0 121.414763,25.043474,0.0 121.415004,25.043255,0.0 121.41529,25.043168,0.0 121.415542,25.042823,0.0 121.41562,25.042616,0.0 121.416272,25.04242,0.0 121.416575,25.042409,0.0 121.41669,25.042581,0.0 121.41662,25.042732,0.0 121.416471,25.043134,0.0 121.416501,25.043371,0.0 121.416526,25.043597,0.0 121.416352,25.04381,0.0 121.415965,25.043939,0.0 121.41566,25.044018,0.0 121.415495,25.044094,0.0 121.415392,25.044238,0.0 121.415431,25.044394,0.0 121.415463,25.044596,0.0 121.415271,25.044846,0.0 121.414893,25.045185,0.0 121.414879,25.045407,0.0 121.415196,25.045656,0.0 121.415423,25.045752,0.0 121.415479,25.045875,0.0 121.415376,25.046008,0.0 121.414963,25.046478,0.0 121.415072,25.046764,0.0 121.415864,25.047204,0.0 121.416116,25.047435,0.0 121.416041,25.047776,0.0 121.415708,25.048288,0.0 121.415646,25.049806,0.0 121.41567,25.050186,0.0 121.415593,25.050409,0.0 121.415885,25.050427,0.0 121.416396,25.050463,0.0 121.416996,25.050668,0.0 121.417103,25.050987,0.0 121.416522,25.051463,0.0 121.41605,25.051986,0.0 121.415594,25.052199,0.0 121.420596,25.058441,0.0 121.42072,25.05862,0.0 121.4209,25.058741,0.0 121.42118,25.058892,0.0 121.421745,25.058856,0.0 121.421825,25.059185,0.0 121.421751,25.059501,0.0 121.421529,25.059712,0.0 121.421379,25.060194,0.0 121.421003,25.060718,0.0 121.420773,25.060916,0.0 121.420779,25.061036,0.0 121.420321,25.061589,0.0 121.420233,25.061873,0.0 121.418214,25.061287,0.0 121.417982,25.061258,0.0 121.417504,25.06098,0.0 121.417291,25.060958,0.0 121.416487,25.062812,0.0 121.405604,25.063382,0.0 121.405326,25.063142,0.0 121.404942,25.063082,0.0 121.404595,25.063019,0.0 121.404075,25.062852,0.0 121.403727,25.062562,0.0 121.403599,25.06261,0.0 121.403772,25.062867,0.0 121.403701,25.0633,0.0 121.403595,25.06384,0.0 121.403766,25.064154,0.0 121.40357,25.064352,0.0 121.403389,25.064217,0.0 121.4031,25.063974,0.0 121.402892,25.063971,0.0 121.402854,25.063796,0.0 121.402868,25.06356,0.0 121.402224,25.063533,0.0 121.401913,25.063506,0.0 121.401575,25.063444,0.0 121.401056,25.063231,0.0 121.400564,25.063086,0.0 121.400232,25.063074,0.0 121.400172,25.063446,0.0 121.400281,25.063891,0.0 121.400457,25.064222,0.0 121.400644,25.064499,0.0 121.400528,25.064647,0.0 121.400211,25.064685,0.0 121.400116,25.064863,0.0 121.40005,25.06539,0.0 121.399705,25.065502,0.0 121.399507,25.065413,0.0 121.399166,25.065558,0.0 121.398864,25.065571,0.0 121.398433,25.065657,0.0 121.398117,25.065746,0.0 121.397656,25.065633,0.0 121.397095,25.065786,0.0 121.39652,25.066129,0.0 121.396117,25.066259,0.0 121.395622,25.06643,0.0 121.394999,25.066683,0.0 121.394714,25.066825,0.0 121.394758,25.066994,0.0 121.395056,25.067147,0.0 121.395507,25.06721,0.0 121.395798,25.067148,0.0 121.396034,25.067211,0.0 121.396366,25.067483,0.0 121.396578,25.067728,0.0 121.396652,25.068091,0.0 121.396454,25.068364,0.0 121.39613,25.068415,0.0 121.395839,25.068445,0.0 121.395595,25.068589,0.0 121.395493,25.068692,0.0 121.39569,25.068823,0.0 121.395844,25.069017,0.0 121.395897,25.069245,0.0 121.396034,25.069367,0.0 121.39628,25.069604,0.0 121.396661,25.070058,0.0 121.396934,25.070587,0.0 121.396973,25.071133,0.0 121.397018,25.071405,0.0 121.397039,25.071781,0.0 121.397055,25.072067,0.0</coordinates></LinearRing></outerBoundaryIs></Polygon><styleUrl>#spolygon-map</styleUrl></Placemark><Placemark><Polygon><outerBoundaryIs><LinearRing><coordinates>121.40229,25.074978,0.0 121.401868,25.075051,0.0 121.401393,25.075192,0.0 121.400743,25.075465,0.0 121.400316,25.075612,0.0 121.39987,25.075795,0.0 121.399269,25.076084,0.0 121.398978,25.076318,0.0 121.39856,25.076642,0.0 121.398362,25.076665,0.0 121.398175,25.076561,0.0 121.398144,25.076394,0.0 121.398183,25.07619,0.0 121.398264,25.076042,0.0 121.398426,25.075877,0.0 121.398566,25.075718,0.0 121.398767,25.075495,0.0 121.398971,25.075248,0.0 121.399094,25.075089,0.0 121.399139,25.07492,0.0 121.399334,25.074747,0.0 121.399421,25.074544,0.0 121.399404,25.074236,0.0 121.399502,25.073849,0.0 121.399499,25.073696,0.0 121.399405,25.073568,0.0 121.399202,25.073226,0.0 121.398982,25.072849,0.0 121.399064,25.072656,0.0 121.399166,25.072518,0.0 121.399078,25.071801,0.0 121.399206,25.071424,0.0 121.399399,25.071083,0.0 121.399373,25.070821,0.0 121.399298,25.070636,0.0 121.399386,25.070425,0.0 121.399306,25.069997,0.0 121.399181,25.06965,0.0 121.399211,25.069239,0.0 121.398827,25.068559,0.0 121.398574,25.06842,0.0 121.398403,25.068212,0.0 121.398689,25.067995,0.0 121.398925,25.068053,0.0 121.399181,25.068116,0.0 121.399529,25.068385,0.0 121.399861,25.068631,0.0 121.400167,25.069032,0.0 121.400477,25.069437,0.0 121.400566,25.069693,0.0 121.400776,25.06978,0.0 121.400968,25.069912,0.0 121.401228,25.070131,0.0 121.401414,25.070061,0.0 121.401607,25.069908,0.0 121.401741,25.069937,0.0 121.401968,25.06991,0.0 121.402021,25.070076,0.0 121.401875,25.070599,0.0 121.401753,25.07099,0.0 121.401682,25.071393,0.0 121.401511,25.071677,0.0 121.401423,25.071917,0.0 121.401438,25.0721,0.0 121.401617,25.07194,0.0 121.402151,25.071448,0.0 121.402633,25.071023,0.0 121.403177,25.070589,0.0 121.403396,25.070722,0.0 121.403492,25.070839,0.0 121.403617,25.07074,0.0 121.403803,25.070504,0.0 121.403992,25.070126,0.0 121.404182,25.070082,0.0 121.404654,25.070205,0.0 121.405048,25.070274,0.0 121.405703,25.070254,0.0 121.405918,25.070184,0.0 121.405957,25.069621,0.0 121.406156,25.069101,0.0 121.406167,25.068794,0.0 121.405484,25.068279,0.0 121.404844,25.068026,0.0 121.404115,25.067877,0.0 121.403996,25.068044,0.0 121.403871,25.068137,0.0 121.403212,25.068055,0.0 121.403014,25.068084,0.0 121.402868,25.06796,0.0 121.402812,25.067661,0.0 121.40265,25.067426,0.0 121.402691,25.067272,0.0 121.402649,25.067076,0.0 121.402704,25.066782,0.0 121.402973,25.066521,0.0 121.403461,25.066335,0.0 121.403329,25.066025,0.0 121.40348,25.06585,0.0 121.403824,25.065921,0.0 121.40408,25.065923,0.0 121.404466,25.06545,0.0 121.40465,25.06531,0.0 121.405178,25.064969,0.0 121.405574,25.064737,0.0 121.405651,25.064492,0.0 121.405315,25.064188,0.0 121.405235,25.063875,0.0 121.405444,25.063465,0.0 121.41611,25.062781,0.0 121.41715,25.061159,0.0 121.417354,25.060936,0.0 121.417778,25.06116,0.0 121.418096,25.061283,0.0 121.418261,25.061257,0.0 121.420306,25.061721,0.0 121.420566,25.061238,0.0 121.420764,25.060985,0.0 121.420833,25.060854,0.0 121.421176,25.060487,0.0 121.421466,25.059942,0.0 121.421621,25.059613,0.0 121.42182,25.059345,0.0 121.421819,25.058951,0.0 121.421911,25.058558,0.0 121.421879,25.058081,0.0 121.422157,25.057885,0.0 121.422323,25.057879,0.0 121.422545,25.05782,0.0 121.422788,25.057721,0.0 121.423053,25.057958,0.0 121.423208,25.058037,0.0 121.423493,25.05797,0.0 121.423634,25.058057,0.0 121.423514,25.063754,0.0 121.424648,25.063915,0.0 121.42455,25.06466,0.0 121.424894,25.065916,0.0 121.425413,25.066222,0.0 121.425648,25.066343,0.0 121.42602,25.066453,0.0 121.42626,25.066494,0.0 121.427027,25.066502,0.0 121.427568,25.066398,0.0 121.427988,25.065974,0.0 121.429238,25.065714,0.0 121.429865,25.065936,0.0 121.430427,25.065992,0.0 121.43095,25.066016,0.0 121.431265,25.066,0.0 121.431879,25.066369,0.0 121.431875,25.066799,0.0 121.431914,25.067025,0.0 121.431986,25.067337,0.0 121.431926,25.067515,0.0 121.431671,25.067945,0.0 121.431587,25.068325,0.0 121.431505,25.068597,0.0 121.431096,25.068876,0.0 121.430711,25.069034,0.0 121.430194,25.069136,0.0 121.429704,25.069126,0.0 121.429248,25.069112,0.0 121.428446,25.069147,0.0 121.427928,25.069158,0.0 121.427181,25.069168,0.0 121.426249,25.069202,0.0 121.425225,25.069188,0.0 121.424575,25.069173,0.0 121.424106,25.069214,0.0 121.423729,25.069343,0.0 121.423292,25.0694,0.0 121.422941,25.069296,0.0 121.42218,25.069283,0.0 121.421658,25.069191,0.0 121.420926,25.069026,0.0 121.420333,25.068969,0.0 121.419689,25.068966,0.0 121.419344,25.069009,0.0 121.419078,25.069243,0.0 121.418471,25.069516,0.0 121.418072,25.069677,0.0 121.417555,25.069788,0.0 121.417139,25.069908,0.0 121.416633,25.070234,0.0 121.416189,25.070429,0.0 121.415744,25.070537,0.0 121.415499,25.070702,0.0 121.41515,25.071394,0.0 121.4145,25.072352,0.0 121.413593,25.07303,0.0 121.413196,25.073313,0.0 121.4127,25.073743,0.0 121.412185,25.074091,0.0 121.411775,25.074324,0.0 121.411356,25.074522,0.0 121.410899,25.075055,0.0 121.410489,25.075531,0.0 121.410292,25.075653,0.0 121.409894,25.07567,0.0 121.409361,25.075699,0.0 121.408904,25.075756,0.0 121.408415,25.075823,0.0 121.408274,25.075867,0.0 121.408067,25.075886,0.0 121.407795,25.075807,0.0 121.407626,25.075811,0.0 121.407473,25.075909,0.0 121.407067,25.07597,0.0 121.406205,25.075888,0.0 121.40572,25.07569,0.0 121.405274,25.075459,0.0 121.404927,25.075182,0.0 121.404637,25.075147,0.0 121.40434,25.075175,0.0 121.403585,25.075162,0.0 121.403158,25.07514,0.0 121.402742,25.075037,0.0 121.40235,25.074975,0.0 121.40229,25.074978,0.0</coordinates></LinearRing></outerBoundaryIs></Polygon><styleUrl>#spolygon-map</styleUrl></Placemark><Placemark><Polygon><outerBoundaryIs><LinearRing><coordinates>121.429723,25.06658,0.0 121.429233,25.065684,0.0 121.427795,25.066036,0.0 121.427422,25.066456,0.0 121.42682,25.066504,0.0 121.426226,25.066488,0.0 121.425978,25.066446,0.0 121.42554,25.066297,0.0 121.425357,25.066188,0.0 121.424732,25.06584,0.0 121.424558,25.064623,0.0 121.423974,25.06382,0.0 121.423638,25.063166,0.0 121.430848,25.060302,0.0 121.431614,25.060086,0.0 121.43204,25.060086,0.0 121.432128,25.060374,0.0 121.432691,25.061504,0.0 121.43304,25.062463,0.0 121.432943,25.063348,0.0 121.431807,25.063885,0.0 121.431504,25.064595,0.0 121.432161,25.066032,0.0 121.431265,25.066,0.0 121.43095,25.066016,0.0 121.430427,25.065992,0.0 121.429865,25.065936,0.0 121.429723,25.06658,0.0</coordinates></LinearRing></outerBoundaryIs></Polygon><styleUrl>#spolygon-map</styleUrl></Placemark><Placemark><Polygon><outerBoundaryIs><LinearRing><coordinates>121.433858,25.062172,0.0 121.433809,25.062423,0.0 121.432969,25.062044,0.0 121.432303,25.060732,0.0 121.433008,25.060159,0.0 121.434456,25.059259,0.0 121.434733,25.058985,0.0 121.435413,25.057851,0.0 121.435654,25.057441,0.0 121.436353,25.056278,0.0 121.43694,25.05529,0.0 121.437814,25.053843,0.0 121.438775,25.05226,0.0 121.4396,25.053559,0.0 121.43948,25.053892,0.0 121.439368,25.054093,0.0 121.439207,25.054329,0.0 121.438909,25.054833,0.0 121.438673,25.055322,0.0 121.438644,25.055703,0.0 121.438804,25.056129,0.0 121.43844,25.05681,0.0 121.438039,25.057143,0.0 121.437777,25.056913,0.0 121.43579,25.059399,0.0 121.43444,25.061488,0.0 121.434331,25.061674,0.0 121.434206,25.06189,0.0 121.433857,25.06214,0.0 121.433858,25.062172,0.0</coordinates></LinearRing></outerBoundaryIs></Polygon><styleUrl>#spolygon-map</styleUrl></Placemark><Placemark><Polygon><outerBoundaryIs><LinearRing><coordinates>121.445427,25.069363,0.0 121.444593,25.06911,0.0 121.444304,25.069099,0.0 121.443925,25.069164,0.0 121.443532,25.069297,0.0 121.443112,25.069242,0.0 121.442832,25.068977,0.0 121.442822,25.068628,0.0 121.442909,25.068301,0.0 121.442626,25.06782,0.0 121.442381,25.067415,0.0 121.4419,25.067488,0.0 121.441219,25.067768,0.0 121.440735,25.067808,0.0 121.440392,25.06761,0.0 121.440446,25.067335,0.0 121.440423,25.067108,0.0 121.440143,25.067053,0.0 121.439341,25.067283,0.0 121.438921,25.067389,0.0 121.438548,25.067376,0.0 121.438185,25.067044,0.0 121.438204,25.066769,0.0 121.438634,25.06627,0.0 121.438792,25.065717,0.0 121.438502,25.065298,0.0 121.43815,25.064762,0.0 121.437734,25.064506,0.0 121.437388,25.064494,0.0 121.436966,25.064672,0.0 121.436312,25.065372,0.0 121.435567,25.06627,0.0 121.435029,25.066604,0.0 121.434657,25.066619,0.0 121.433933,25.066528,0.0 121.433427,25.066396,0.0 121.43313,25.066264,0.0 121.432643,25.066003,0.0 121.432231,25.066019,0.0 121.431375,25.064274,0.0 121.432072,25.063793,0.0 121.432837,25.063007,0.0 121.433168,25.062419,0.0 121.433889,25.06242,0.0 121.433857,25.06214,0.0 121.434206,25.06189,0.0 121.434331,25.061674,0.0 121.43444,25.061488,0.0 121.43579,25.059399,0.0 121.437777,25.056913,0.0 121.438039,25.057143,0.0 121.43844,25.05681,0.0 121.438804,25.056129,0.0 121.439227,25.056433,0.0 121.439389,25.056786,0.0 121.439731,25.056968,0.0 121.440537,25.057249,0.0 121.441439,25.057616,0.0 121.442494,25.058014,0.0 121.442844,25.058111,0.0 121.443496,25.058203,0.0 121.444011,25.058291,0.0 121.444201,25.058484,0.0 121.444417,25.05872,0.0 121.444348,25.058797,0.0 121.444223,25.058905,0.0 121.444213,25.059007,0.0 121.444385,25.059086,0.0 121.44438,25.059219,0.0 121.44425,25.059325,0.0 121.444127,25.059483,0.0 121.444148,25.059609,0.0 121.444444,25.059767,0.0 121.444613,25.059745,0.0 121.444581,25.059582,0.0 121.444558,25.059468,0.0 121.44478,25.059368,0.0 121.445052,25.059166,0.0 121.445208,25.058948,0.0 121.445298,25.05889,0.0 121.44565,25.059151,0.0 121.4458,25.059507,0.0 121.446046,25.05966,0.0 121.446249,25.059569,0.0 121.446381,25.059473,0.0 121.44657,25.059327,0.0 121.446971,25.059725,0.0 121.446857,25.06016,0.0 121.447084,25.060628,0.0 121.447281,25.06073,0.0 121.447527,25.06069,0.0 121.447755,25.060568,0.0 121.447977,25.060471,0.0 121.448125,25.060759,0.0 121.448028,25.06101,0.0 121.447855,25.061159,0.0 121.447764,25.061247,0.0 121.447733,25.061481,0.0 121.44778,25.061874,0.0 121.447629,25.062205,0.0 121.447546,25.062368,0.0 121.447574,25.06248,0.0 121.447785,25.062612,0.0 121.448035,25.062635,0.0 121.448317,25.062851,0.0 121.448467,25.063093,0.0 121.447586,25.063342,0.0 121.446693,25.063636,0.0 121.445622,25.064596,0.0 121.445441,25.06899,0.0 121.445427,25.069363,0.0</coordinates></LinearRing></outerBoundaryIs></Polygon><styleUrl>#spolygon-map</styleUrl></Placemark><Placemark><Polygon><outerBoundaryIs><LinearRing><coordinates>121.430788,25.058023,0.0 121.431085,25.058621,0.0 121.431785,25.059543,0.0 121.431961,25.059872,0.0 121.43136,25.060289,0.0 121.423634,25.058057,0.0 121.423493,25.05797,0.0 121.423208,25.058037,0.0 121.423053,25.057958,0.0 121.422788,25.057721,0.0 121.422545,25.05782,0.0 121.422323,25.057879,0.0 121.422157,25.057885,0.0 121.421879,25.058081,0.0 121.421911,25.058558,0.0 121.421745,25.058856,0.0 121.42118,25.058892,0.0 121.4209,25.058741,0.0 121.42072,25.05862,0.0 121.420596,25.058441,0.0 121.415594,25.052199,0.0 121.41605,25.051986,0.0 121.416522,25.051463,0.0 121.417103,25.050987,0.0 121.416996,25.050668,0.0 121.416396,25.050463,0.0 121.415885,25.050427,0.0 121.415593,25.050409,0.0 121.41567,25.050186,0.0 121.415646,25.049806,0.0 121.426018,25.049268,0.0 121.42491,25.050771,0.0 121.42512,25.052064,0.0 121.425095,25.052178,0.0 121.426953,25.05396,0.0 121.428622,25.054534,0.0 121.429258,25.054236,0.0 121.430516,25.054375,0.0 121.430607,25.054965,0.0 121.430586,25.055161,0.0 121.430725,25.055595,0.0 121.430755,25.056826,0.0 121.430775,25.057688,0.0 121.430788,25.058023,0.0</coordinates></LinearRing></outerBoundaryIs></Polygon><styleUrl>#spolygon-map</styleUrl></Placemark><Placemark><Polygon><outerBoundaryIs><LinearRing><coordinates>121.427539,25.049608,0.0 121.427677,25.05091,0.0 121.428065,25.051639,0.0 121.429369,25.052866,0.0 121.430096,25.053699,0.0 121.429258,25.054236,0.0 121.428622,25.054534,0.0 121.426953,25.05396,0.0 121.425095,25.052178,0.0 121.42512,25.052064,0.0 121.42491,25.050771,0.0 121.42608,25.049099,0.0 121.426181,25.049065,0.0 121.426258,25.049113,0.0 121.426542,25.049239,0.0 121.426333,25.048599,0.0 121.427407,25.048905,0.0 121.427539,25.049608,0.0</coordinates></LinearRing></outerBoundaryIs></Polygon><styleUrl>#spolygon-map</styleUrl></Placemark><Placemark><Polygon><outerBoundaryIs><LinearRing><coordinates>121.426542,25.049239,0.0 121.426258,25.049113,0.0 121.426181,25.049065,0.0 121.42608,25.049099,0.0 121.425768,25.049244,0.0 121.415708,25.048288,0.0 121.416041,25.047776,0.0 121.416116,25.047435,0.0 121.415864,25.047204,0.0 121.415072,25.046764,0.0 121.414963,25.046478,0.0 121.415376,25.046008,0.0 121.415479,25.045875,0.0 121.418809,25.044959,0.0 121.419349,25.044752,0.0 121.419938,25.044563,0.0 121.420078,25.044409,0.0 121.420293,25.044365,0.0 121.42052,25.04441,0.0 121.420649,25.044556,0.0 121.420745,25.044846,0.0 121.420841,25.044932,0.0 121.421108,25.044997,0.0 121.421235,25.045003,0.0 121.422539,25.044643,0.0 121.42294,25.044259,0.0 121.423143,25.043966,0.0 121.423161,25.043834,0.0 121.42307,25.043743,0.0 121.423065,25.043628,0.0 121.423473,25.043286,0.0 121.423662,25.043375,0.0 121.42363,25.043067,0.0 121.424588,25.042541,0.0 121.424882,25.042545,0.0 121.424903,25.043658,0.0 121.425361,25.044423,0.0 121.425759,25.045086,0.0 121.426593,25.046482,0.0 121.427174,25.048185,0.0 121.426333,25.048599,0.0 121.426542,25.049239,0.0</coordinates></LinearRing></outerBoundaryIs></Polygon><styleUrl>#spolygon-map</styleUrl></Placemark><Placemark><Polygon><outerBoundaryIs><LinearRing><coordinates>121.420184,25.044376,0.0 121.420018,25.044474,0.0 121.419862,25.044592,0.0 121.418963,25.044879,0.0 121.415423,25.045752,0.0 121.415196,25.045656,0.0 121.414879,25.045407,0.0 121.414893,25.045185,0.0 121.415271,25.044846,0.0 121.415463,25.044596,0.0 121.415431,25.044394,0.0 121.415392,25.044238,0.0 121.415495,25.044094,0.0 121.41566,25.044018,0.0 121.415965,25.043939,0.0 121.416352,25.04381,0.0 121.416526,25.043597,0.0 121.416501,25.043371,0.0 121.416471,25.043134,0.0 121.41662,25.042732,0.0 121.41669,25.042581,0.0 121.416575,25.042409,0.0 121.416272,25.04242,0.0 121.41562,25.042616,0.0 121.415542,25.042823,0.0 121.41529,25.043168,0.0 121.415004,25.043255,0.0 121.414763,25.043474,0.0 121.414594,25.043533,0.0 121.414475,25.043404,0.0 121.414571,25.042997,0.0 121.414584,25.042622,0.0 121.414471,25.042482,0.0 121.414129,25.042495,0.0 121.413859,25.042492,0.0 121.413803,25.042362,0.0 121.414137,25.042047,0.0 121.41466,25.041666,0.0 121.414836,25.04141,0.0 121.414869,25.041211,0.0 121.414754,25.041102,0.0 121.414465,25.041096,0.0 121.414294,25.041029,0.0 121.414314,25.040897,0.0 121.414636,25.040602,0.0 121.414772,25.040564,0.0 121.415321,25.040615,0.0 121.415496,25.040525,0.0 121.415679,25.04021,0.0 121.415744,25.040068,0.0 121.416005,25.039973,0.0 121.416224,25.039896,0.0 121.416795,25.039424,0.0 121.416924,25.039191,0.0 121.416705,25.038679,0.0 121.416363,25.038553,0.0 121.416153,25.038477,0.0 121.416099,25.038344,0.0 121.416225,25.038188,0.0 121.416473,25.03805,0.0 121.41656,25.037915,0.0 121.416395,25.037499,0.0 121.415821,25.037082,0.0 121.41561,25.037001,0.0 121.415695,25.036602,0.0 121.415716,25.036223,0.0 121.415425,25.03582,0.0 121.415043,25.034699,0.0 121.41536,25.034876,0.0 121.415603,25.035002,0.0 121.416024,25.034909,0.0 121.416468,25.034787,0.0 121.416901,25.034722,0.0 121.41741,25.035041,0.0 121.417874,25.03563,0.0 121.418765,25.036656,0.0 121.419227,25.037194,0.0 121.419737,25.037836,0.0 121.421485,25.038093,0.0 121.422463,25.038193,0.0 121.423404,25.03843,0.0 121.424072,25.038569,0.0 121.424766,25.03981,0.0 121.425008,25.040595,0.0 121.425038,25.041197,0.0 121.424884,25.042531,0.0 121.424069,25.042709,0.0 121.423849,25.043231,0.0 121.423613,25.043391,0.0 121.423345,25.043378,0.0 121.423038,25.043663,0.0 121.423116,25.043769,0.0 121.42316,25.043857,0.0 121.423126,25.043998,0.0 121.422781,25.044449,0.0 121.422462,25.044674,0.0 121.42121,25.045006,0.0 121.421046,25.044974,0.0 121.420809,25.04492,0.0 121.420727,25.044792,0.0 121.420636,25.044534,0.0 121.420486,25.044401,0.0 121.420251,25.044365,0.0 121.420184,25.044376,0.0</coordinates></LinearRing></outerBoundaryIs></Polygon><styleUrl>#spolygon-map</styleUrl></Placemark><Placemark><Polygon><outerBoundaryIs><LinearRing><coordinates>121.424014,25.038458,0.0 121.423256,25.038392,0.0 121.422277,25.038193,0.0 121.420868,25.038007,0.0 121.419531,25.037576,0.0 121.419225,25.037193,0.0 121.418375,25.036224,0.0 121.417756,25.035479,0.0 121.417092,25.034659,0.0 121.41721,25.034101,0.0 121.417488,25.033786,0.0 121.418122,25.033606,0.0 121.418149,25.033326,0.0 121.417956,25.032926,0.0 121.417838,25.032625,0.0 121.417678,25.032104,0.0 121.417471,25.031699,0.0 121.417241,25.031349,0.0 121.417106,25.031295,0.0 121.41699,25.030996,0.0 121.416647,25.030503,0.0 121.417202,25.030307,0.0 121.417326,25.030306,0.0 121.41759,25.030309,0.0 121.41782,25.030329,0.0 121.417886,25.030352,0.0 121.418408,25.030219,0.0 121.419265,25.029733,0.0 121.420212,25.029195,0.0 121.420957,25.028893,0.0 121.42155,25.029453,0.0 121.421994,25.03046,0.0 121.422816,25.02997,0.0 121.42351,25.029332,0.0 121.425925,25.029971,0.0 121.425492,25.030753,0.0 121.42415,25.031817,0.0 121.425193,25.032614,0.0 121.426071,25.033359,0.0 121.427237,25.034714,0.0 121.4277,25.035071,0.0 121.428355,25.035779,0.0 121.428652,25.036142,0.0 121.428611,25.036205,0.0 121.427061,25.03697,0.0 121.424715,25.038128,0.0 121.424014,25.038458,0.0</coordinates></LinearRing></outerBoundaryIs></Polygon><styleUrl>#spolygon-map</styleUrl></Placemark><Placemark><Polygon><outerBoundaryIs><LinearRing><coordinates>121.431299,25.053998,0.0 121.431335,25.054449,0.0 121.431441,25.054637,0.0 121.4315,25.055204,0.0 121.432487,25.056263,0.0 121.432236,25.057178,0.0 121.432727,25.058347,0.0 121.432192,25.059224,0.0 121.431939,25.05962,0.0 121.431683,25.059414,0.0 121.430965,25.058462,0.0 121.430784,25.057926,0.0 121.43077,25.057208,0.0 121.430745,25.056036,0.0 121.430632,25.055304,0.0 121.430581,25.055046,0.0 121.430579,25.054539,0.0 121.430513,25.053931,0.0 121.431228,25.053866,0.0 121.431299,25.053998,0.0</coordinates></LinearRing></outerBoundaryIs></Polygon><styleUrl>#spolygon-map</styleUrl></Placemark><Placemark><Polygon><outerBoundaryIs><LinearRing><coordinates>121.438421,25.052016,0.0 121.435668,25.05532,0.0 121.435218,25.055028,0.0 121.434865,25.054757,0.0 121.435094,25.054358,0.0 121.435395,25.053844,0.0 121.43398,25.052292,0.0 121.432544,25.052313,0.0 121.432311,25.052577,0.0 121.431642,25.053326,0.0 121.430776,25.053915,0.0 121.430212,25.053868,0.0 121.429507,25.053023,0.0 121.42821,25.051825,0.0 121.42773,25.051081,0.0 121.427541,25.049628,0.0 121.427231,25.048362,0.0 121.428053,25.047976,0.0 121.428503,25.046997,0.0 121.429973,25.046267,0.0 121.431464,25.045526,0.0 121.432388,25.044867,0.0 121.432537,25.044701,0.0 121.432692,25.044589,0.0 121.432709,25.044366,0.0 121.432124,25.043597,0.0 121.43307,25.042031,0.0 121.433908,25.041254,0.0 121.435343,25.040404,0.0 121.436096,25.039899,0.0 121.435958,25.039726,0.0 121.435716,25.039361,0.0 121.436437,25.038957,0.0 121.436702,25.038975,0.0 121.436878,25.040131,0.0 121.437001,25.04093,0.0 121.437094,25.04147,0.0 121.437211,25.042215,0.0 121.43733,25.042975,0.0 121.437709,25.043021,0.0 121.438413,25.04263,0.0 121.438974,25.042303,0.0 121.439568,25.041966,0.0 121.440382,25.041499,0.0 121.440612,25.041468,0.0 121.440768,25.041514,0.0 121.440978,25.041484,0.0 121.441062,25.041537,0.0 121.441341,25.041502,0.0 121.441717,25.041422,0.0 121.441893,25.041524,0.0 121.44191,25.041892,0.0 121.441896,25.042906,0.0 121.44187,25.043858,0.0 121.441858,25.044694,0.0 121.4417,25.045186,0.0 121.441448,25.045568,0.0 121.440989,25.046097,0.0 121.440458,25.046566,0.0 121.439881,25.047019,0.0 121.439944,25.047134,0.0 121.440363,25.047303,0.0 121.441015,25.047497,0.0 121.441392,25.047583,0.0 121.44174,25.047648,0.0 121.441839,25.048176,0.0 121.44153,25.04885,0.0 121.441327,25.049251,0.0 121.441001,25.049862,0.0 121.440792,25.050271,0.0 121.44069,25.05059,0.0 121.441014,25.050597,0.0 121.441132,25.050674,0.0 121.440989,25.050984,0.0 121.440676,25.051705,0.0 121.440437,25.052268,0.0 121.440345,25.052363,0.0 121.44014,25.052296,0.0 121.439768,25.052259,0.0 121.439457,25.052326,0.0 121.439448,25.052406,0.0 121.439608,25.052675,0.0 121.43968,25.052938,0.0 121.439656,25.053309,0.0 121.438775,25.05226,0.0 121.438421,25.052016,0.0</coordinates></LinearRing></outerBoundaryIs></Polygon><styleUrl>#spolygon-map</styleUrl></Placemark><Placemark><Polygon><outerBoundaryIs><LinearRing><coordinates>121.427672,25.048057,0.0 121.426719,25.046825,0.0 121.425948,25.045406,0.0 121.427033,25.044424,0.0 121.431003,25.042127,0.0 121.432774,25.041203,0.0 121.434037,25.04038,0.0 121.435552,25.039458,0.0 121.435919,25.039675,0.0 121.436087,25.039849,0.0 121.435658,25.040205,0.0 121.434664,25.040808,0.0 121.433269,25.04168,0.0 121.43251,25.042946,0.0 121.432544,25.044153,0.0 121.432837,25.044526,0.0 121.43258,25.044663,0.0 121.432426,25.044834,0.0 121.431617,25.045452,0.0 121.430398,25.046057,0.0 121.428851,25.046824,0.0 121.428072,25.047984,0.0 121.427672,25.048057,0.0</coordinates></LinearRing></outerBoundaryIs></Polygon><styleUrl>#spolygon-map</styleUrl></Placemark><Placemark><Polygon><outerBoundaryIs><LinearRing><coordinates>121.428033,25.043956,0.0 121.426478,25.044707,0.0 121.42548,25.044627,0.0 121.425041,25.043874,0.0 121.424805,25.043156,0.0 121.425522,25.042722,0.0 121.425665,25.042837,0.0 121.425899,25.042823,0.0 121.426244,25.042785,0.0 121.426716,25.042481,0.0 121.427842,25.043037,0.0 121.429199,25.042365,0.0 121.430032,25.041968,0.0 121.431003,25.042127,0.0 121.428033,25.043956,0.0</coordinates></LinearRing></outerBoundaryIs></Polygon><styleUrl>#spolygon-map</styleUrl></Placemark><Placemark><Polygon><outerBoundaryIs><LinearRing><coordinates>121.429199,25.042365,0.0 121.427842,25.043037,0.0 121.426716,25.042481,0.0 121.426244,25.042785,0.0 121.425899,25.042823,0.0 121.425665,25.042837,0.0 121.425522,25.042722,0.0 121.424884,25.042531,0.0 121.425038,25.041197,0.0 121.425008,25.040595,0.0 121.424766,25.03981,0.0 121.424072,25.038569,0.0 121.424611,25.038182,0.0 121.426048,25.037478,0.0 121.428104,25.03645,0.0 121.428655,25.036163,0.0 121.430008,25.037953,0.0 121.430559,25.038833,0.0 121.431332,25.03954,0.0 121.43229,25.040647,0.0 121.430643,25.04167,0.0 121.429903,25.042022,0.0 121.429199,25.042365,0.0</coordinates></LinearRing></outerBoundaryIs></Polygon><styleUrl>#spolygon-map</styleUrl></Placemark><Placemark><Polygon><outerBoundaryIs><LinearRing><coordinates>121.434318,25.059376,0.0 121.432606,25.060395,0.0 121.432101,25.060281,0.0 121.432013,25.060004,0.0 121.431874,25.059684,0.0 121.432084,25.059411,0.0 121.432543,25.058645,0.0 121.43287,25.058078,0.0 121.433165,25.05759,0.0 121.433746,25.056619,0.0 121.434536,25.0553,0.0 121.434975,25.054841,0.0 121.435267,25.055061,0.0 121.435834,25.055419,0.0 121.43851,25.051924,0.0 121.438091,25.053373,0.0 121.437222,25.054819,0.0 121.436555,25.055948,0.0 121.435847,25.057114,0.0 121.435612,25.057512,0.0 121.434888,25.058726,0.0 121.434554,25.059301,0.0 121.434318,25.059376,0.0</coordinates></LinearRing></outerBoundaryIs></Polygon><styleUrl>#spolygon-map</styleUrl></Placemark><Placemark><Polygon><outerBoundaryIs><LinearRing><coordinates>121.43398,25.052292,0.0 121.435395,25.053844,0.0 121.435094,25.054358,0.0 121.434865,25.054757,0.0 121.434218,25.055824,0.0 121.433608,25.056844,0.0 121.433103,25.057693,0.0 121.432817,25.058164,0.0 121.431831,25.057735,0.0 121.432634,25.056446,0.0 121.431841,25.055928,0.0 121.431386,25.054714,0.0 121.431396,25.054586,0.0 121.43122,25.054385,0.0 121.431228,25.053866,0.0 121.431642,25.053326,0.0 121.432311,25.052577,0.0 121.432544,25.052313,0.0 121.43398,25.052292,0.0</coordinates></LinearRing></outerBoundaryIs></Polygon><styleUrl>#spolygon-map</styleUrl></Placemark></Document>
</kml>
