<?xml version="1.0" encoding="UTF-8"?>
<kml xmlns="http://www.opengis.net/kml/2.2">
	<Document>
		<name>新北市金山區</name>
		<Style id="spolygon">
			<LabelStyle>
				<scale>0.0</scale>
			</LabelStyle>
			<LineStyle>
				<color>330030ff</color>
				<width>0</width>
			</LineStyle>
			<PolyStyle>
				<color>330030ff</color>
			</PolyStyle>
		</Style>
		<StyleMap id="spolygon-map">
			<Pair>
				<key>normal</key>
				<styleUrl>#spolygon</styleUrl>
			</Pair>
		</StyleMap>
	<Placemark><Polygon><outerBoundaryIs><LinearRing><coordinates>121.637824,25.222296,0.0 121.637485,25.222573,0.0 121.637427,25.222495,0.0 121.637397,25.222388,0.0 121.637443,25.222285,0.0 121.637573,25.222072,0.0 121.637657,25.22202,0.0 121.637732,25.221958,0.0 121.637835,25.221871,0.0 121.637923,25.221773,0.0 121.637998,25.221844,0.0 121.638118,25.221792,0.0 121.638176,25.221718,0.0 121.638253,25.221674,0.0 121.638353,25.221482,0.0 121.638799,25.221185,0.0 121.638858,25.221026,0.0 121.638898,25.220934,0.0 121.639253,25.22062,0.0 121.639396,25.220422,0.0 121.63942,25.220309,0.0 121.639467,25.22,0.0 121.639376,25.219792,0.0 121.639755,25.219366,0.0 121.640337,25.218749,0.0 121.641077,25.217988,0.0 121.642332,25.216694,0.0 121.642548,25.21661,0.0 121.64261,25.216777,0.0 121.642628,25.216894,0.0 121.642628,25.216979,0.0 121.642776,25.217232,0.0 121.642963,25.217247,0.0 121.643314,25.217301,0.0 121.643496,25.21756,0.0 121.643453,25.217737,0.0 121.643335,25.217985,0.0 121.643257,25.218117,0.0 121.643241,25.218197,0.0 121.643013,25.218376,0.0 121.642767,25.218595,0.0 121.642601,25.218823,0.0 121.642312,25.219176,0.0 121.641188,25.219853,0.0 121.640281,25.220081,0.0 121.640465,25.220325,0.0 121.639977,25.220707,0.0 121.639739,25.220835,0.0 121.638975,25.221423,0.0 121.63828,25.221866,0.0 121.637824,25.222296,0.0</coordinates></LinearRing></outerBoundaryIs></Polygon><styleUrl>#spolygon-map</styleUrl></Placemark><Placemark><Polygon><outerBoundaryIs><LinearRing><coordinates>121.638173,25.222697,0.0 121.638053,25.222731,0.0 121.637749,25.22282,0.0 121.637751,25.222779,0.0 121.637739,25.22275,0.0 121.637824,25.222296,0.0 121.63895,25.221443,0.0 121.639204,25.221249,0.0 121.639891,25.220742,0.0 121.640087,25.220643,0.0 121.640306,25.220128,0.0 121.64078,25.220099,0.0 121.641879,25.219776,0.0 121.641924,25.220303,0.0 121.641869,25.220385,0.0 121.641433,25.220747,0.0 121.641674,25.220876,0.0 121.642485,25.22117,0.0 121.642746,25.221683,0.0 121.641611,25.222365,0.0 121.639534,25.222262,0.0 121.638901,25.222233,0.0 121.638775,25.222452,0.0 121.638686,25.222581,0.0 121.638613,25.222678,0.0 121.638396,25.222721,0.0 121.638173,25.222697,0.0</coordinates></LinearRing></outerBoundaryIs></Polygon><styleUrl>#spolygon-map</styleUrl></Placemark><Placemark><Polygon><outerBoundaryIs><LinearRing><coordinates>121.652271,25.229272,0.0 121.651145,25.230534,0.0 121.650462,25.231053,0.0 121.650839,25.228964,0.0 121.649922,25.228268,0.0 121.64913,25.227763,0.0 121.647981,25.226574,0.0 121.646752,25.224977,0.0 121.644664,25.223164,0.0 121.642577,25.222184,0.0 121.642794,25.221376,0.0 121.642131,25.221036,0.0 121.641424,25.220789,0.0 121.641643,25.220538,0.0 121.641928,25.220355,0.0 121.641908,25.220113,0.0 121.641855,25.219471,0.0 121.642378,25.218997,0.0 121.642724,25.218753,0.0 121.642785,25.21855,0.0 121.643167,25.218332,0.0 121.643529,25.218196,0.0 121.643853,25.218331,0.0 121.643798,25.218503,0.0 121.643534,25.218798,0.0 121.643654,25.219224,0.0 121.643536,25.219642,0.0 121.643636,25.220079,0.0 121.64407,25.22026,0.0 121.644493,25.220474,0.0 121.644971,25.220772,0.0 121.645418,25.221195,0.0 121.646856,25.221863,0.0 121.649495,25.22359,0.0 121.649931,25.223798,0.0 121.65014,25.224084,0.0 121.651381,25.224911,0.0 121.651129,25.225115,0.0 121.651313,25.225419,0.0 121.650984,25.225364,0.0 121.650337,25.225428,0.0 121.651379,25.225933,0.0 121.651472,25.225534,0.0 121.651987,25.225145,0.0 121.652177,25.225345,0.0 121.651736,25.226108,0.0 121.651836,25.22643,0.0 121.651793,25.226656,0.0 121.651528,25.227158,0.0 121.652026,25.227858,0.0 121.652679,25.228577,0.0 121.653393,25.228942,0.0 121.653786,25.229335,0.0 121.653458,25.229233,0.0 121.653523,25.229399,0.0 121.653004,25.229305,0.0 121.652271,25.229272,0.0</coordinates></LinearRing></outerBoundaryIs></Polygon><styleUrl>#spolygon-map</styleUrl></Placemark><Placemark><Polygon><outerBoundaryIs><LinearRing><coordinates>121.650836,25.231594,0.0 121.651696,25.233306,0.0 121.651189,25.233145,0.0 121.650224,25.232642,0.0 121.649446,25.232112,0.0 121.648789,25.231533,0.0 121.6472,25.233043,0.0 121.646911,25.233022,0.0 121.647184,25.232213,0.0 121.64849,25.231306,0.0 121.648601,25.230818,0.0 121.649557,25.230426,0.0 121.649508,25.229697,0.0 121.647908,25.228546,0.0 121.646808,25.22784,0.0 121.645846,25.228309,0.0 121.645836,25.228808,0.0 121.648456,25.229702,0.0 121.648898,25.229781,0.0 121.648825,25.23024,0.0 121.647561,25.230081,0.0 121.646545,25.230072,0.0 121.646256,25.230813,0.0 121.646482,25.230919,0.0 121.647256,25.231037,0.0 121.646482,25.231279,0.0 121.646253,25.231449,0.0 121.645737,25.230339,0.0 121.645357,25.230259,0.0 121.644415,25.230421,0.0 121.642872,25.230821,0.0 121.639196,25.230099,0.0 121.637847,25.230066,0.0 121.636473,25.230555,0.0 121.635494,25.230104,0.0 121.635232,25.229554,0.0 121.634229,25.22922,0.0 121.632606,25.228606,0.0 121.632989,25.228117,0.0 121.634141,25.22802,0.0 121.635099,25.227514,0.0 121.635625,25.227405,0.0 121.63627,25.227668,0.0 121.637172,25.227542,0.0 121.637604,25.226648,0.0 121.637754,25.226541,0.0 121.637832,25.226438,0.0 121.637866,25.226337,0.0 121.638031,25.226165,0.0 121.637952,25.225994,0.0 121.63791,25.22568,0.0 121.63787,25.225188,0.0 121.637902,25.225022,0.0 121.637891,25.224865,0.0 121.637893,25.224764,0.0 121.637953,25.224613,0.0 121.637979,25.224498,0.0 121.637963,25.224264,0.0 121.637778,25.223769,0.0 121.637567,25.223472,0.0 121.637543,25.223333,0.0 121.637993,25.222761,0.0 121.638153,25.222699,0.0 121.638551,25.22276,0.0 121.638641,25.222637,0.0 121.638694,25.222565,0.0 121.638836,25.222335,0.0 121.638989,25.222315,0.0 121.639852,25.222313,0.0 121.641841,25.222334,0.0 121.644032,25.222924,0.0 121.644854,25.223418,0.0 121.647647,25.226084,0.0 121.648642,25.22707,0.0 121.649241,25.227885,0.0 121.650464,25.228711,0.0 121.650758,25.229314,0.0 121.650764,25.231234,0.0 121.650836,25.231594,0.0</coordinates></LinearRing></outerBoundaryIs></Polygon><styleUrl>#spolygon-map</styleUrl></Placemark><Placemark><Polygon><outerBoundaryIs><LinearRing><coordinates>121.635466,25.227405,0.0 121.634866,25.227636,0.0 121.633907,25.228074,0.0 121.632738,25.228156,0.0 121.632224,25.2284,0.0 121.630909,25.227472,0.0 121.630173,25.226548,0.0 121.629008,25.225164,0.0 121.628706,25.223554,0.0 121.62806,25.221784,0.0 121.628681,25.22076,0.0 121.629704,25.220973,0.0 121.630522,25.221137,0.0 121.631794,25.22141,0.0 121.632903,25.221629,0.0 121.633954,25.221849,0.0 121.634889,25.222043,0.0 121.635947,25.222256,0.0 121.636916,25.222463,0.0 121.637238,25.222393,0.0 121.637359,25.222317,0.0 121.637398,25.222383,0.0 121.637425,25.222481,0.0 121.637436,25.222569,0.0 121.637737,25.222747,0.0 121.63775,25.222773,0.0 121.637751,25.222807,0.0 121.637543,25.223333,0.0 121.637567,25.223472,0.0 121.637778,25.223769,0.0 121.637963,25.224264,0.0 121.637979,25.224498,0.0 121.637953,25.224613,0.0 121.637893,25.224764,0.0 121.637891,25.224865,0.0 121.637902,25.225022,0.0 121.63787,25.225188,0.0 121.63791,25.22568,0.0 121.637952,25.225994,0.0 121.638031,25.226165,0.0 121.637866,25.226337,0.0 121.637832,25.226438,0.0 121.637754,25.226541,0.0 121.637604,25.226648,0.0 121.637172,25.227542,0.0 121.63627,25.227668,0.0 121.635625,25.227405,0.0 121.635466,25.227405,0.0</coordinates></LinearRing></outerBoundaryIs></Polygon><styleUrl>#spolygon-map</styleUrl></Placemark><Placemark><Polygon><outerBoundaryIs><LinearRing><coordinates>121.628517,25.22121,0.0 121.627439,25.221291,0.0 121.623971,25.220771,0.0 121.621817,25.220334,0.0 121.620631,25.219504,0.0 121.619084,25.218733,0.0 121.617595,25.218757,0.0 121.614862,25.219301,0.0 121.612304,25.219213,0.0 121.608942,25.218403,0.0 121.607248,25.217767,0.0 121.607074,25.217124,0.0 121.6061,25.216614,0.0 121.605972,25.216118,0.0 121.605555,25.2158,0.0 121.605037,25.215325,0.0 121.60486,25.21451,0.0 121.604663,25.213995,0.0 121.603638,25.213245,0.0 121.603218,25.212845,0.0 121.603138,25.211829,0.0 121.603179,25.210933,0.0 121.602908,25.210599,0.0 121.602955,25.210162,0.0 121.602915,25.209723,0.0 121.603005,25.209071,0.0 121.603293,25.208154,0.0 121.603554,25.207383,0.0 121.603477,25.206831,0.0 121.603487,25.206007,0.0 121.604623,25.204528,0.0 121.604396,25.202689,0.0 121.604912,25.20223,0.0 121.606197,25.201897,0.0 121.607062,25.201285,0.0 121.608509,25.199841,0.0 121.60997,25.198063,0.0 121.61088,25.19637,0.0 121.611455,25.196156,0.0 121.611646,25.196361,0.0 121.611865,25.196701,0.0 121.612083,25.19683,0.0 121.612397,25.196892,0.0 121.612728,25.196954,0.0 121.613013,25.196688,0.0 121.613239,25.196523,0.0 121.613536,25.196782,0.0 121.61388,25.197138,0.0 121.614238,25.197578,0.0 121.614661,25.198013,0.0 121.614978,25.198355,0.0 121.615359,25.198849,0.0 121.61584,25.199309,0.0 121.615968,25.199854,0.0 121.616231,25.200144,0.0 121.616559,25.200663,0.0 121.616932,25.201158,0.0 121.617108,25.201247,0.0 121.617337,25.201355,0.0 121.618004,25.201817,0.0 121.618441,25.202119,0.0 121.618777,25.20261,0.0 121.61926,25.202979,0.0 121.619735,25.203202,0.0 121.619785,25.203509,0.0 121.620191,25.203362,0.0 121.620688,25.203246,0.0 121.621278,25.203089,0.0 121.62178,25.203338,0.0 121.62226,25.203684,0.0 121.622623,25.204322,0.0 121.623057,25.204875,0.0 121.623438,25.205461,0.0 121.623848,25.206163,0.0 121.624353,25.20639,0.0 121.624758,25.20668,0.0 121.625042,25.207098,0.0 121.625163,25.207173,0.0 121.625273,25.20719,0.0 121.625455,25.207419,0.0 121.626028,25.207712,0.0 121.626473,25.208031,0.0 121.626595,25.208137,0.0 121.626733,25.208326,0.0 121.627322,25.208846,0.0 121.627835,25.209336,0.0 121.628056,25.209494,0.0 121.628214,25.209592,0.0 121.62864,25.210061,0.0 121.629111,25.210388,0.0 121.629574,25.210391,0.0 121.629708,25.210445,0.0 121.629902,25.210614,0.0 121.629931,25.210769,0.0 121.629822,25.211092,0.0 121.62982,25.211322,0.0 121.629859,25.211381,0.0 121.629957,25.211431,0.0 121.63016,25.211667,0.0 121.630383,25.211786,0.0 121.630764,25.211969,0.0 121.631116,25.21222,0.0 121.631389,25.212303,0.0 121.631605,25.212451,0.0 121.63176,25.212501,0.0 121.632061,25.212733,0.0 121.632188,25.212825,0.0 121.632409,25.21296,0.0 121.632592,25.213107,0.0 121.633068,25.213297,0.0 121.633404,25.213431,0.0 121.633612,25.213494,0.0 121.634396,25.213468,0.0 121.634587,25.213559,0.0 121.634686,25.213637,0.0 121.634808,25.213785,0.0 121.635111,25.213928,0.0 121.635451,25.214342,0.0 121.635617,25.214459,0.0 121.635901,25.214755,0.0 121.636278,25.214846,0.0 121.636551,25.214929,0.0 121.636795,25.215115,0.0 121.637424,25.215496,0.0 121.637714,25.215598,0.0 121.63779,25.215658,0.0 121.638088,25.215707,0.0 121.638417,25.215697,0.0 121.638836,25.215652,0.0 121.63925,25.215567,0.0 121.640096,25.215441,0.0 121.640194,25.21549,0.0 121.640484,25.21564,0.0 121.641214,25.21577,0.0 121.641853,25.215944,0.0 121.642336,25.216272,0.0 121.642509,25.216508,0.0 121.641568,25.217491,0.0 121.64091,25.218161,0.0 121.639907,25.219193,0.0 121.639449,25.219707,0.0 121.639232,25.219681,0.0 121.638934,25.21939,0.0 121.638712,25.219174,0.0 121.638425,25.218724,0.0 121.638537,25.218296,0.0 121.638301,25.218069,0.0 121.637901,25.217773,0.0 121.637643,25.217721,0.0 121.637322,25.217582,0.0 121.637138,25.217424,0.0 121.635591,25.217161,0.0 121.63518,25.217152,0.0 121.634907,25.216992,0.0 121.634482,25.216908,0.0 121.634407,25.216988,0.0 121.63436,25.217101,0.0 121.634309,25.217225,0.0 121.634274,25.217372,0.0 121.634215,25.217618,0.0 121.633843,25.217608,0.0 121.632775,25.218293,0.0 121.632831,25.218382,0.0 121.632903,25.218466,0.0 121.63279,25.218622,0.0 121.632581,25.218691,0.0 121.632466,25.218651,0.0 121.6324,25.218662,0.0 121.632117,25.219028,0.0 121.630597,25.218846,0.0 121.62973,25.220289,0.0 121.629094,25.220846,0.0 121.628517,25.22121,0.0</coordinates></LinearRing></outerBoundaryIs></Polygon><styleUrl>#spolygon-map</styleUrl></Placemark><Placemark><Polygon><outerBoundaryIs><LinearRing><coordinates>121.607154,25.224252,0.0 121.606018,25.22477,0.0 121.605219,25.22487,0.0 121.604973,25.225345,0.0 121.604808,25.225535,0.0 121.603918,25.225698,0.0 121.603505,25.226002,0.0 121.602819,25.226441,0.0 121.602232,25.226048,0.0 121.601804,25.225587,0.0 121.600992,25.225202,0.0 121.599873,25.224449,0.0 121.598764,25.224209,0.0 121.597387,25.224397,0.0 121.596126,25.224646,0.0 121.594431,25.224859,0.0 121.592591,25.224404,0.0 121.591772,25.224499,0.0 121.59076,25.224115,0.0 121.589596,25.223565,0.0 121.588337,25.224149,0.0 121.58562,25.225621,0.0 121.5848,25.225427,0.0 121.584169,25.224472,0.0 121.583094,25.223328,0.0 121.581422,25.223031,0.0 121.580399,25.222903,0.0 121.580126,25.222714,0.0 121.579864,25.222338,0.0 121.579579,25.221872,0.0 121.579234,25.221588,0.0 121.578722,25.2213,0.0 121.578244,25.220982,0.0 121.57793,25.220854,0.0 121.57746,25.220798,0.0 121.576718,25.220835,0.0 121.576157,25.220769,0.0 121.575592,25.22053,0.0 121.575017,25.220441,0.0 121.574476,25.220424,0.0 121.574081,25.220578,0.0 121.573466,25.220748,0.0 121.572972,25.220715,0.0 121.572594,25.220568,0.0 121.572193,25.220432,0.0 121.571548,25.220442,0.0 121.571195,25.220268,0.0 121.570752,25.21991,0.0 121.570256,25.219474,0.0 121.569861,25.219205,0.0 121.569353,25.21896,0.0 121.56883,25.218712,0.0 121.568271,25.218417,0.0 121.567893,25.218243,0.0 121.567577,25.217788,0.0 121.567373,25.217284,0.0 121.567313,25.216895,0.0 121.56711,25.216485,0.0 121.566666,25.215966,0.0 121.566262,25.21553,0.0 121.566033,25.215054,0.0 121.565857,25.214885,0.0 121.5655,25.21472,0.0 121.565068,25.214452,0.0 121.564646,25.214138,0.0 121.564244,25.213865,0.0 121.563691,25.213871,0.0 121.563303,25.213999,0.0 121.562894,25.214139,0.0 121.562519,25.214142,0.0 121.562335,25.213958,0.0 121.561897,25.213536,0.0 121.561364,25.213082,0.0 121.56106,25.212568,0.0 121.56083,25.212253,0.0 121.560522,25.211879,0.0 121.560369,25.211615,0.0 121.560197,25.211163,0.0 121.559884,25.210701,0.0 121.559491,25.21036,0.0 121.560518,25.209938,0.0 121.562679,25.209322,0.0 121.562889,25.207363,0.0 121.564753,25.203351,0.0 121.564695,25.201152,0.0 121.564011,25.19877,0.0 121.564315,25.196485,0.0 121.569587,25.195039,0.0 121.572248,25.193585,0.0 121.573284,25.194017,0.0 121.575591,25.194411,0.0 121.579108,25.194389,0.0 121.583372,25.194949,0.0 121.582629,25.19298,0.0 121.583748,25.189438,0.0 121.582865,25.188391,0.0 121.58186,25.186398,0.0 121.58292,25.183531,0.0 121.58094,25.181989,0.0 121.581371,25.180264,0.0 121.582384,25.178668,0.0 121.582758,25.176493,0.0 121.577513,25.170255,0.0 121.583248,25.16509,0.0 121.589867,25.163847,0.0 121.590238,25.163772,0.0 121.590644,25.163802,0.0 121.59112,25.163831,0.0 121.59176,25.163923,0.0 121.592227,25.164023,0.0 121.592696,25.164192,0.0 121.592992,25.164458,0.0 121.593265,25.164736,0.0 121.593516,25.164868,0.0 121.59388,25.164961,0.0 121.594289,25.165094,0.0 121.59477,25.165301,0.0 121.595281,25.165503,0.0 121.5957,25.165595,0.0 121.596219,25.165593,0.0 121.596817,25.165845,0.0 121.597001,25.166355,0.0 121.597155,25.166842,0.0 121.597374,25.167225,0.0 121.597674,25.167566,0.0 121.59803,25.167938,0.0 121.598303,25.168208,0.0 121.598661,25.168554,0.0 121.599052,25.168942,0.0 121.599269,25.169239,0.0 121.599408,25.169451,0.0 121.599792,25.169833,0.0 121.600204,25.170094,0.0 121.600581,25.170336,0.0 121.60089,25.170701,0.0 121.600991,25.171121,0.0 121.601337,25.171743,0.0 121.601685,25.172136,0.0 121.60202,25.172473,0.0 121.602249,25.172918,0.0 121.602663,25.173436,0.0 121.603064,25.173762,0.0 121.603424,25.174322,0.0 121.603784,25.174884,0.0 121.603972,25.175279,0.0 121.603875,25.175797,0.0 121.603994,25.176241,0.0 121.604587,25.17631,0.0 121.605233,25.176382,0.0 121.60576,25.176536,0.0 121.606204,25.176781,0.0 121.606648,25.17724,0.0 121.606994,25.177585,0.0 121.6072,25.178039,0.0 121.607306,25.178473,0.0 121.607373,25.179149,0.0 121.607347,25.179698,0.0 121.607311,25.180352,0.0 121.607152,25.180758,0.0 121.607216,25.181253,0.0 121.607439,25.181657,0.0 121.607848,25.182098,0.0 121.608249,25.182499,0.0 121.608632,25.182904,0.0 121.608898,25.183258,0.0 121.609261,25.183761,0.0 121.609382,25.183987,0.0 121.609559,25.184255,0.0 121.609676,25.184528,0.0 121.609723,25.184738,0.0 121.609772,25.185122,0.0 121.609713,25.185438,0.0 121.609789,25.185717,0.0 121.609939,25.186153,0.0 121.610182,25.186585,0.0 121.610447,25.18684,0.0 121.610827,25.187099,0.0 121.610957,25.187346,0.0 121.611005,25.187628,0.0 121.611048,25.188051,0.0 121.611116,25.188643,0.0 121.6111,25.189044,0.0 121.611143,25.189287,0.0 121.611232,25.189594,0.0 121.611285,25.189955,0.0 121.611296,25.19034,0.0 121.611053,25.190862,0.0 121.610865,25.191044,0.0 121.611157,25.191173,0.0 121.611528,25.191353,0.0 121.611867,25.191512,0.0 121.61191,25.191806,0.0 121.611888,25.192176,0.0 121.611945,25.192444,0.0 121.61202,25.192629,0.0 121.612118,25.192864,0.0 121.612355,25.193151,0.0 121.612305,25.193236,0.0 121.611871,25.193355,0.0 121.611553,25.193596,0.0 121.611273,25.193988,0.0 121.61109,25.1943,0.0 121.610688,25.194472,0.0 121.610578,25.194767,0.0 121.610649,25.195115,0.0 121.610752,25.195342,0.0 121.61092,25.195526,0.0 121.611091,25.195718,0.0 121.611162,25.195957,0.0 121.611036,25.196219,0.0 121.610292,25.197369,0.0 121.608891,25.19952,0.0 121.607153,25.201034,0.0 121.606497,25.20179,0.0 121.605379,25.202122,0.0 121.604471,25.202574,0.0 121.604613,25.204239,0.0 121.603408,25.205781,0.0 121.60348,25.206462,0.0 121.603564,25.207318,0.0 121.603336,25.207876,0.0 121.603032,25.20901,0.0 121.602909,25.209584,0.0 121.602959,25.210096,0.0 121.602892,25.210558,0.0 121.603144,25.210859,0.0 121.603146,25.211565,0.0 121.603175,25.212673,0.0 121.603414,25.213075,0.0 121.604604,25.213919,0.0 121.604826,25.214382,0.0 121.604974,25.215197,0.0 121.605404,25.215696,0.0 121.605958,25.216072,0.0 121.60604,25.21653,0.0 121.606956,25.217013,0.0 121.607183,25.217359,0.0 121.605216,25.218134,0.0 121.605002,25.218318,0.0 121.605063,25.218483,0.0 121.605209,25.21858,0.0 121.605488,25.21861,0.0 121.605801,25.218626,0.0 121.605949,25.218657,0.0 121.606536,25.218849,0.0 121.606785,25.21893,0.0 121.60712,25.219051,0.0 121.607434,25.219109,0.0 121.60755,25.219171,0.0 121.607865,25.219427,0.0 121.607906,25.219446,0.0 121.608028,25.219448,0.0 121.608068,25.219468,0.0 121.608235,25.21953,0.0 121.608411,25.219661,0.0 121.608765,25.219916,0.0 121.608908,25.219994,0.0 121.608757,25.220901,0.0 121.609593,25.221287,0.0 121.61042,25.221784,0.0 121.61071,25.222176,0.0 121.610463,25.222724,0.0 121.609255,25.223421,0.0 121.60883,25.224061,0.0 121.608666,25.224163,0.0 121.608461,25.224187,0.0 121.608329,25.224154,0.0 121.607999,25.223996,0.0 121.60782,25.223978,0.0 121.607154,25.224252,0.0</coordinates></LinearRing></outerBoundaryIs></Polygon><styleUrl>#spolygon-map</styleUrl></Placemark><Placemark><Polygon><outerBoundaryIs><LinearRing><coordinates>121.597799,25.243238,0.0 121.597366,25.243044,0.0 121.59691,25.242955,0.0 121.596518,25.242957,0.0 121.596121,25.242953,0.0 121.595782,25.242886,0.0 121.595478,25.242675,0.0 121.595079,25.24249,0.0 121.594768,25.242469,0.0 121.594359,25.242492,0.0 121.594189,25.242328,0.0 121.594017,25.241851,0.0 121.593733,25.241653,0.0 121.593451,25.241384,0.0 121.593181,25.241077,0.0 121.592812,25.240755,0.0 121.592325,25.240438,0.0 121.592108,25.240264,0.0 121.592014,25.240031,0.0 121.591619,25.2397,0.0 121.591309,25.239489,0.0 121.590998,25.239305,0.0 121.590793,25.239083,0.0 121.590686,25.238807,0.0 121.590574,25.238463,0.0 121.590267,25.238094,0.0 121.58988,25.237798,0.0 121.589522,25.237587,0.0 121.589142,25.237329,0.0 121.588749,25.23707,0.0 121.588315,25.23678,0.0 121.588162,25.236547,0.0 121.587798,25.236013,0.0 121.587548,25.235763,0.0 121.587319,25.235502,0.0 121.586932,25.235201,0.0 121.586553,25.234945,0.0 121.586223,25.234616,0.0 121.585982,25.234406,0.0 121.585622,25.234231,0.0 121.585242,25.234092,0.0 121.584942,25.233954,0.0 121.584635,25.23373,0.0 121.584303,25.233503,0.0 121.583999,25.233307,0.0 121.583826,25.23312,0.0 121.583712,25.232784,0.0 121.583613,25.232524,0.0 121.583496,25.232273,0.0 121.583178,25.232019,0.0 121.582955,25.231608,0.0 121.582842,25.231028,0.0 121.582514,25.230262,0.0 121.582181,25.229597,0.0 121.581786,25.228895,0.0 121.581605,25.228317,0.0 121.581658,25.227834,0.0 121.581808,25.227222,0.0 121.581959,25.226623,0.0 121.581962,25.225944,0.0 121.581953,25.225328,0.0 121.581747,25.224697,0.0 121.581518,25.22407,0.0 121.581258,25.223504,0.0 121.580953,25.223141,0.0 121.582375,25.223149,0.0 121.583606,25.223729,0.0 121.584405,25.224927,0.0 121.585211,25.225646,0.0 121.587062,25.224847,0.0 121.589153,25.22359,0.0 121.590182,25.223814,0.0 121.591228,25.224296,0.0 121.592148,25.224413,0.0 121.593344,25.224568,0.0 121.595308,25.224749,0.0 121.596953,25.224612,0.0 121.597878,25.224205,0.0 121.5994,25.22432,0.0 121.600463,25.224726,0.0 121.601369,25.225436,0.0 121.601956,25.225709,0.0 121.602585,25.226366,0.0 121.603081,25.2264,0.0 121.603621,25.225827,0.0 121.604394,25.225555,0.0 121.604924,25.225464,0.0 121.605123,25.2249,0.0 121.605458,25.226201,0.0 121.605164,25.22745,0.0 121.604576,25.228654,0.0 121.604599,25.22984,0.0 121.603558,25.230491,0.0 121.603136,25.231329,0.0 121.601946,25.232278,0.0 121.601653,25.233907,0.0 121.602195,25.23525,0.0 121.603329,25.236583,0.0 121.60161,25.238606,0.0 121.599634,25.241117,0.0 121.597799,25.243238,0.0</coordinates></LinearRing></outerBoundaryIs></Polygon><styleUrl>#spolygon-map</styleUrl></Placemark><Placemark><Polygon><outerBoundaryIs><LinearRing><coordinates>121.616315,25.226801,0.0 121.615694,25.228743,0.0 121.61442,25.229624,0.0 121.612918,25.230018,0.0 121.611417,25.23055,0.0 121.61041,25.231444,0.0 121.610315,25.232395,0.0 121.609658,25.233113,0.0 121.60834,25.233439,0.0 121.607466,25.234135,0.0 121.605897,25.234644,0.0 121.604782,25.235493,0.0 121.602909,25.236038,0.0 121.601917,25.23478,0.0 121.601648,25.232857,0.0 121.602728,25.231681,0.0 121.603402,25.230978,0.0 121.60416,25.230106,0.0 121.604689,25.229475,0.0 121.604608,25.228311,0.0 121.605395,25.226825,0.0 121.605909,25.224803,0.0 121.606587,25.224513,0.0 121.607697,25.224014,0.0 121.607943,25.223978,0.0 121.608205,25.224097,0.0 121.608413,25.22418,0.0 121.608618,25.224183,0.0 121.608802,25.224074,0.0 121.6092,25.223492,0.0 121.609815,25.223396,0.0 121.610611,25.222376,0.0 121.610751,25.221996,0.0 121.609792,25.221372,0.0 121.608857,25.221037,0.0 121.608918,25.219996,0.0 121.6088,25.219943,0.0 121.608585,25.219814,0.0 121.608248,25.219535,0.0 121.608094,25.219478,0.0 121.608038,25.219452,0.0 121.607913,25.219448,0.0 121.607881,25.219437,0.0 121.607613,25.219226,0.0 121.607471,25.219122,0.0 121.607303,25.219071,0.0 121.606932,25.219015,0.0 121.606703,25.218891,0.0 121.606053,25.218686,0.0 121.605818,25.218625,0.0 121.605753,25.218629,0.0 121.605238,25.218593,0.0 121.60508,25.218493,0.0 121.604994,25.218377,0.0 121.605143,25.218149,0.0 121.607248,25.217767,0.0 121.608942,25.218403,0.0 121.612304,25.219213,0.0 121.614862,25.219301,0.0 121.617595,25.218757,0.0 121.619084,25.218733,0.0 121.620631,25.219504,0.0 121.621817,25.220334,0.0 121.623971,25.220771,0.0 121.627439,25.221291,0.0 121.62806,25.221784,0.0 121.628706,25.223554,0.0 121.628261,25.224311,0.0 121.627919,25.224423,0.0 121.627644,25.224619,0.0 121.627475,25.224742,0.0 121.627031,25.224915,0.0 121.626843,25.225012,0.0 121.626649,25.225279,0.0 121.626508,25.225614,0.0 121.626443,25.225706,0.0 121.626408,25.225738,0.0 121.625963,25.226126,0.0 121.625627,25.226447,0.0 121.625478,25.226582,0.0 121.62519,25.227035,0.0 121.624954,25.227505,0.0 121.62494,25.227633,0.0 121.624985,25.227703,0.0 121.624963,25.227841,0.0 121.624779,25.227879,0.0 121.624587,25.227834,0.0 121.624296,25.227617,0.0 121.624092,25.227344,0.0 121.623931,25.227079,0.0 121.623585,25.226652,0.0 121.623425,25.226506,0.0 121.623077,25.226217,0.0 121.622877,25.226203,0.0 121.622716,25.226334,0.0 121.62268,25.226351,0.0 121.622564,25.22633,0.0 121.622301,25.226164,0.0 121.621888,25.226054,0.0 121.621629,25.22597,0.0 121.621123,25.22593,0.0 121.620864,25.225961,0.0 121.620417,25.225849,0.0 121.61889,25.225898,0.0 121.617551,25.226294,0.0 121.617445,25.226528,0.0 121.617378,25.226887,0.0 121.616805,25.226822,0.0 121.616315,25.226801,0.0</coordinates></LinearRing></outerBoundaryIs></Polygon><styleUrl>#spolygon-map</styleUrl></Placemark><Placemark><Polygon><outerBoundaryIs><LinearRing><coordinates>121.604625,25.248045,0.0 121.603463,25.248918,0.0 121.603212,25.248729,0.0 121.603086,25.248543,0.0 121.602821,25.247883,0.0 121.602568,25.247837,0.0 121.602468,25.247855,0.0 121.601538,25.248136,0.0 121.600147,25.248131,0.0 121.600041,25.247412,0.0 121.60005,25.246898,0.0 121.599914,25.246553,0.0 121.599561,25.246109,0.0 121.599225,25.245454,0.0 121.599124,25.245125,0.0 121.599017,25.244749,0.0 121.598863,25.244394,0.0 121.598493,25.24395,0.0 121.598086,25.243476,0.0 121.597799,25.243238,0.0 121.600689,25.239858,0.0 121.601841,25.23805,0.0 121.603471,25.236446,0.0 121.605023,25.235279,0.0 121.606415,25.234474,0.0 121.607615,25.233952,0.0 121.608732,25.233308,0.0 121.609925,25.232975,0.0 121.61033,25.232205,0.0 121.610568,25.231178,0.0 121.611733,25.230396,0.0 121.61326,25.229986,0.0 121.614862,25.229416,0.0 121.616117,25.228224,0.0 121.616451,25.226628,0.0 121.617065,25.226957,0.0 121.617397,25.226693,0.0 121.617488,25.226469,0.0 121.617619,25.226038,0.0 121.6197,25.225879,0.0 121.620483,25.225876,0.0 121.620934,25.225972,0.0 121.621202,25.225931,0.0 121.621677,25.225982,0.0 121.622036,25.226071,0.0 121.622324,25.226179,0.0 121.622641,25.226352,0.0 121.622695,25.226348,0.0 121.622779,25.226259,0.0 121.622903,25.226197,0.0 121.623148,25.226283,0.0 121.623524,25.226592,0.0 121.623638,25.226716,0.0 121.623973,25.227141,0.0 121.624146,25.227419,0.0 121.62433,25.227651,0.0 121.624617,25.22785,0.0 121.624824,25.227875,0.0 121.625007,25.227826,0.0 121.625089,25.227877,0.0 121.625081,25.228557,0.0 121.625054,25.22867,0.0 121.624605,25.228834,0.0 121.624442,25.228968,0.0 121.624235,25.229334,0.0 121.623589,25.229567,0.0 121.623158,25.229487,0.0 121.622463,25.229892,0.0 121.622125,25.230869,0.0 121.621921,25.231492,0.0 121.62125,25.233063,0.0 121.620524,25.233301,0.0 121.619919,25.233671,0.0 121.619295,25.233839,0.0 121.619141,25.233924,0.0 121.61905,25.234138,0.0 121.619175,25.23464,0.0 121.619311,25.234982,0.0 121.619646,25.235311,0.0 121.619731,25.235542,0.0 121.61971,25.235651,0.0 121.61959,25.235809,0.0 121.618909,25.236442,0.0 121.618106,25.237264,0.0 121.617483,25.237495,0.0 121.617236,25.237525,0.0 121.616745,25.237564,0.0 121.616453,25.237792,0.0 121.61639,25.237925,0.0 121.616394,25.238078,0.0 121.616476,25.238371,0.0 121.616454,25.238633,0.0 121.616382,25.238899,0.0 121.616114,25.239146,0.0 121.615961,25.239318,0.0 121.615991,25.239715,0.0 121.616055,25.240075,0.0 121.616143,25.240348,0.0 121.616175,25.240698,0.0 121.615133,25.240939,0.0 121.614917,25.241073,0.0 121.614317,25.241489,0.0 121.61287,25.242684,0.0 121.612471,25.242967,0.0 121.611909,25.242292,0.0 121.610768,25.241909,0.0 121.610186,25.24173,0.0 121.610022,25.241872,0.0 121.609844,25.242106,0.0 121.609795,25.242375,0.0 121.609655,25.242728,0.0 121.609596,25.243045,0.0 121.609611,25.243199,0.0 121.609677,25.2433,0.0 121.609997,25.243471,0.0 121.610168,25.243935,0.0 121.610104,25.244096,0.0 121.60973,25.244332,0.0 121.609661,25.244523,0.0 121.60692,25.24585,0.0 121.605574,25.2471,0.0 121.605271,25.24766,0.0 121.604625,25.248045,0.0</coordinates></LinearRing></outerBoundaryIs></Polygon><styleUrl>#spolygon-map</styleUrl></Placemark><Placemark><Polygon><outerBoundaryIs><LinearRing><coordinates>121.625119,25.237235,0.0 121.622808,25.237915,0.0 121.62093,25.238319,0.0 121.620081,25.237411,0.0 121.619983,25.236316,0.0 121.619636,25.235763,0.0 121.619722,25.235622,0.0 121.619704,25.235416,0.0 121.619423,25.235101,0.0 121.619263,25.234892,0.0 121.619058,25.234221,0.0 121.619073,25.234034,0.0 121.619179,25.233886,0.0 121.619688,25.233737,0.0 121.620139,25.23354,0.0 121.62086,25.233182,0.0 121.620909,25.232032,0.0 121.622096,25.230929,0.0 121.622111,25.230814,0.0 121.62293,25.229612,0.0 121.623386,25.229559,0.0 121.623884,25.229505,0.0 121.624376,25.229123,0.0 121.62449,25.228895,0.0 121.625049,25.22872,0.0 121.625075,25.228586,0.0 121.625096,25.228089,0.0 121.625079,25.22785,0.0 121.624983,25.227699,0.0 121.624932,25.227608,0.0 121.624995,25.227407,0.0 121.625267,25.226901,0.0 121.625504,25.226554,0.0 121.625719,25.22637,0.0 121.626109,25.225997,0.0 121.626423,25.225725,0.0 121.62646,25.225687,0.0 121.62653,25.225564,0.0 121.626716,25.225168,0.0 121.626869,25.224992,0.0 121.627221,25.224856,0.0 121.627522,25.224714,0.0 121.627715,25.22456,0.0 121.627964,25.224404,0.0 121.628357,25.224298,0.0 121.629283,25.225593,0.0 121.630438,25.22685,0.0 121.631008,25.227578,0.0 121.632606,25.228606,0.0 121.634229,25.22922,0.0 121.635232,25.229554,0.0 121.635494,25.230104,0.0 121.636473,25.230555,0.0 121.637847,25.230066,0.0 121.639196,25.230099,0.0 121.638845,25.230904,0.0 121.63867,25.231212,0.0 121.638485,25.231429,0.0 121.638186,25.231655,0.0 121.637815,25.231849,0.0 121.637335,25.232106,0.0 121.63688,25.232358,0.0 121.636638,25.232587,0.0 121.636439,25.232808,0.0 121.63624,25.233181,0.0 121.636044,25.233471,0.0 121.635887,25.233618,0.0 121.635714,25.233777,0.0 121.635462,25.233959,0.0 121.635132,25.234162,0.0 121.634668,25.234356,0.0 121.63424,25.234518,0.0 121.633587,25.23495,0.0 121.632709,25.235293,0.0 121.631887,25.235086,0.0 121.631405,25.235114,0.0 121.630955,25.235449,0.0 121.630134,25.235907,0.0 121.629701,25.236113,0.0 121.628852,25.236219,0.0 121.628175,25.236177,0.0 121.627085,25.236918,0.0 121.625737,25.237187,0.0 121.625119,25.237235,0.0</coordinates></LinearRing></outerBoundaryIs></Polygon><styleUrl>#spolygon-map</styleUrl></Placemark><Placemark><Polygon><outerBoundaryIs><LinearRing><coordinates>121.634125,25.250075,0.0 121.632959,25.250223,0.0 121.632908,25.250275,0.0 121.632843,25.250337,0.0 121.632673,25.250458,0.0 121.632524,25.250611,0.0 121.632464,25.250718,0.0 121.632377,25.250901,0.0 121.632283,25.251175,0.0 121.632095,25.251384,0.0 121.631952,25.251528,0.0 121.631301,25.250829,0.0 121.62755,25.249401,0.0 121.626379,25.249171,0.0 121.625435,25.249351,0.0 121.624577,25.247215,0.0 121.624748,25.246362,0.0 121.624285,25.243984,0.0 121.62432,25.243595,0.0 121.624507,25.243403,0.0 121.624745,25.24327,0.0 121.625003,25.242533,0.0 121.625052,25.241739,0.0 121.624244,25.24102,0.0 121.624794,25.240152,0.0 121.627238,25.238237,0.0 121.627819,25.23758,0.0 121.627085,25.236918,0.0 121.628175,25.236177,0.0 121.628852,25.236219,0.0 121.629701,25.236113,0.0 121.630134,25.235907,0.0 121.630955,25.235449,0.0 121.631405,25.235114,0.0 121.631887,25.235086,0.0 121.632709,25.235293,0.0 121.633587,25.23495,0.0 121.63424,25.234518,0.0 121.634668,25.234356,0.0 121.635132,25.234162,0.0 121.635462,25.233959,0.0 121.635714,25.233777,0.0 121.635887,25.233618,0.0 121.636044,25.233471,0.0 121.63624,25.233181,0.0 121.636439,25.232808,0.0 121.636638,25.232587,0.0 121.63688,25.232358,0.0 121.637335,25.232106,0.0 121.637815,25.231849,0.0 121.638186,25.231655,0.0 121.638485,25.231429,0.0 121.63867,25.231212,0.0 121.638845,25.230904,0.0 121.639196,25.230099,0.0 121.640985,25.232124,0.0 121.638666,25.234125,0.0 121.637639,25.235378,0.0 121.637736,25.235901,0.0 121.638091,25.235961,0.0 121.638087,25.23657,0.0 121.637941,25.236831,0.0 121.637564,25.236427,0.0 121.63712,25.236102,0.0 121.636164,25.236589,0.0 121.635056,25.238084,0.0 121.633832,25.241346,0.0 121.63414,25.242473,0.0 121.634475,25.242627,0.0 121.634251,25.243131,0.0 121.634682,25.246163,0.0 121.634904,25.248681,0.0 121.634738,25.250034,0.0 121.634125,25.250075,0.0</coordinates></LinearRing></outerBoundaryIs></Polygon><styleUrl>#spolygon-map</styleUrl></Placemark><Placemark><Polygon><outerBoundaryIs><LinearRing><coordinates>121.618066,25.255676,0.0 121.618249,25.255869,0.0 121.61829,25.255931,0.0 121.61831,25.25599,0.0 121.618315,25.256057,0.0 121.618299,25.256217,0.0 121.618218,25.256584,0.0 121.618185,25.256126,0.0 121.618139,25.255957,0.0 121.617831,25.255803,0.0 121.617467,25.255666,0.0 121.61738,25.255655,0.0 121.617003,25.255368,0.0 121.616332,25.254532,0.0 121.615824,25.253404,0.0 121.61523,25.253488,0.0 121.61365,25.253998,0.0 121.611058,25.253973,0.0 121.610714,25.253922,0.0 121.610358,25.253851,0.0 121.610012,25.253785,0.0 121.609655,25.253672,0.0 121.609176,25.253481,0.0 121.608947,25.253434,0.0 121.608535,25.253435,0.0 121.608164,25.253444,0.0 121.607666,25.253492,0.0 121.60758,25.253478,0.0 121.607259,25.253358,0.0 121.606998,25.253271,0.0 121.606488,25.253161,0.0 121.605817,25.253014,0.0 121.605191,25.252886,0.0 121.604946,25.252872,0.0 121.604226,25.252741,0.0 121.60356,25.252428,0.0 121.603165,25.252088,0.0 121.602715,25.25154,0.0 121.602073,25.25066,0.0 121.601698,25.2502,0.0 121.601286,25.249836,0.0 121.600896,25.24949,0.0 121.600522,25.249104,0.0 121.600282,25.248822,0.0 121.600193,25.248672,0.0 121.600198,25.248595,0.0 121.600178,25.248213,0.0 121.601895,25.248056,0.0 121.60251,25.247845,0.0 121.602618,25.247835,0.0 121.602868,25.247981,0.0 121.603114,25.248597,0.0 121.60327,25.248789,0.0 121.603526,25.248948,0.0 121.605271,25.24766,0.0 121.605574,25.2471,0.0 121.60692,25.24585,0.0 121.609661,25.244523,0.0 121.60973,25.244332,0.0 121.610104,25.244096,0.0 121.610168,25.243935,0.0 121.609997,25.243471,0.0 121.609677,25.2433,0.0 121.609611,25.243199,0.0 121.609596,25.243045,0.0 121.609655,25.242728,0.0 121.609795,25.242375,0.0 121.609844,25.242106,0.0 121.610022,25.241872,0.0 121.610186,25.24173,0.0 121.610768,25.241909,0.0 121.611909,25.242292,0.0 121.612471,25.242967,0.0 121.61287,25.242684,0.0 121.614317,25.241489,0.0 121.614917,25.241073,0.0 121.615133,25.240939,0.0 121.616175,25.240698,0.0 121.616143,25.240348,0.0 121.616055,25.240075,0.0 121.615991,25.239715,0.0 121.615961,25.239318,0.0 121.616114,25.239146,0.0 121.616382,25.238899,0.0 121.616454,25.238633,0.0 121.616476,25.238371,0.0 121.616394,25.238078,0.0 121.61639,25.237925,0.0 121.616453,25.237792,0.0 121.616745,25.237564,0.0 121.617236,25.237525,0.0 121.617483,25.237495,0.0 121.618106,25.237264,0.0 121.618909,25.236442,0.0 121.61959,25.235809,0.0 121.619983,25.236316,0.0 121.620081,25.237411,0.0 121.62093,25.238319,0.0 121.622808,25.237915,0.0 121.625119,25.237235,0.0 121.627091,25.237294,0.0 121.627812,25.237725,0.0 121.626414,25.238971,0.0 121.624738,25.240236,0.0 121.624263,25.241125,0.0 121.625108,25.241911,0.0 121.624987,25.243128,0.0 121.624658,25.243329,0.0 121.624442,25.243437,0.0 121.624286,25.243633,0.0 121.624437,25.244394,0.0 121.624737,25.246717,0.0 121.624579,25.247557,0.0 121.625319,25.249496,0.0 121.624748,25.250669,0.0 121.623207,25.251566,0.0 121.622376,25.251742,0.0 121.620372,25.251101,0.0 121.61941,25.25093,0.0 121.617588,25.251685,0.0 121.617329,25.252418,0.0 121.617545,25.252507,0.0 121.617788,25.252604,0.0 121.618054,25.25276,0.0 121.618424,25.252945,0.0 121.618711,25.253109,0.0 121.618949,25.253405,0.0 121.619126,25.253847,0.0 121.619158,25.254059,0.0 121.619288,25.254295,0.0 121.619495,25.254611,0.0 121.619543,25.254875,0.0 121.619507,25.255293,0.0 121.619498,25.255677,0.0 121.619483,25.255971,0.0 121.619401,25.256099,0.0 121.619226,25.256154,0.0 121.619113,25.256136,0.0 121.61899,25.256064,0.0 121.618805,25.255794,0.0 121.618563,25.255451,0.0 121.618422,25.255378,0.0 121.6182,25.255383,0.0 121.618061,25.255431,0.0 121.618008,25.255504,0.0 121.618019,25.255585,0.0 121.618066,25.255676,0.0</coordinates></LinearRing></outerBoundaryIs></Polygon><styleUrl>#spolygon-map</styleUrl></Placemark><Placemark><Polygon><outerBoundaryIs><LinearRing><coordinates>121.629705,25.26546,0.0 121.628608,25.266709,0.0 121.626943,25.268968,0.0 121.624816,25.27095,0.0 121.622707,25.272764,0.0 121.620314,25.275064,0.0 121.620222,25.274938,0.0 121.620104,25.274782,0.0 121.619955,25.274566,0.0 121.619679,25.274221,0.0 121.619272,25.273882,0.0 121.618876,25.273594,0.0 121.618273,25.273394,0.0 121.617803,25.273211,0.0 121.617534,25.272255,0.0 121.617536,25.271517,0.0 121.617438,25.271149,0.0 121.617209,25.270529,0.0 121.617041,25.269156,0.0 121.617113,25.268227,0.0 121.616607,25.26748,0.0 121.616236,25.266756,0.0 121.616922,25.266029,0.0 121.61726,25.265348,0.0 121.617184,25.264383,0.0 121.617047,25.263964,0.0 121.617471,25.263773,0.0 121.61753,25.263758,0.0 121.617564,25.263707,0.0 121.617572,25.263613,0.0 121.617384,25.263021,0.0 121.617274,25.261747,0.0 121.618092,25.260464,0.0 121.618288,25.259691,0.0 121.61804,25.25896,0.0 121.618321,25.25852,0.0 121.618706,25.258297,0.0 121.618399,25.257409,0.0 121.618218,25.256584,0.0 121.618299,25.256217,0.0 121.618315,25.256057,0.0 121.61831,25.25599,0.0 121.61829,25.255931,0.0 121.618249,25.255869,0.0 121.618066,25.255676,0.0 121.618013,25.255563,0.0 121.618011,25.25549,0.0 121.618087,25.255415,0.0 121.618262,25.255375,0.0 121.618472,25.255393,0.0 121.618608,25.255501,0.0 121.618876,25.255921,0.0 121.619007,25.256077,0.0 121.619132,25.256143,0.0 121.619276,25.256148,0.0 121.619435,25.256069,0.0 121.619491,25.25593,0.0 121.619497,25.255558,0.0 121.619527,25.255144,0.0 121.61954,25.254808,0.0 121.619459,25.254541,0.0 121.619249,25.254238,0.0 121.619149,25.254022,0.0 121.619114,25.253797,0.0 121.618897,25.253316,0.0 121.618669,25.253076,0.0 121.61834,25.252905,0.0 121.617985,25.252721,0.0 121.617736,25.252577,0.0 121.617491,25.252488,0.0 121.617206,25.252351,0.0 121.617907,25.251582,0.0 121.61956,25.250899,0.0 121.621226,25.251454,0.0 121.622756,25.251667,0.0 121.623758,25.251374,0.0 121.624989,25.250349,0.0 121.625435,25.249351,0.0 121.626379,25.249171,0.0 121.62755,25.249401,0.0 121.631301,25.250829,0.0 121.631952,25.251528,0.0 121.632095,25.251384,0.0 121.632283,25.251175,0.0 121.632377,25.250901,0.0 121.632464,25.250718,0.0 121.632524,25.250611,0.0 121.632673,25.250458,0.0 121.632843,25.250337,0.0 121.632908,25.250275,0.0 121.632959,25.250223,0.0 121.634125,25.250075,0.0 121.635155,25.250055,0.0 121.634821,25.252143,0.0 121.634271,25.254154,0.0 121.63386,25.256645,0.0 121.634011,25.258671,0.0 121.633323,25.259656,0.0 121.632457,25.261194,0.0 121.631702,25.262775,0.0 121.631254,25.263786,0.0 121.63064,25.264522,0.0 121.630351,25.264672,0.0 121.630637,25.26517,0.0 121.629911,25.265099,0.0 121.630171,25.265258,0.0 121.630194,25.265504,0.0 121.629705,25.26546,0.0</coordinates></LinearRing></outerBoundaryIs></Polygon><styleUrl>#spolygon-map</styleUrl></Placemark><Placemark><Polygon><outerBoundaryIs><LinearRing><coordinates>121.637228,25.222406,0.0 121.63686,25.222445,0.0 121.635678,25.222202,0.0 121.634745,25.222014,0.0 121.633853,25.221828,0.0 121.632878,25.221625,0.0 121.631623,25.221365,0.0 121.63007,25.221044,0.0 121.629557,25.220943,0.0 121.62973,25.220289,0.0 121.630597,25.218846,0.0 121.632117,25.219028,0.0 121.6324,25.218662,0.0 121.632466,25.218651,0.0 121.632581,25.218691,0.0 121.63279,25.218622,0.0 121.632903,25.218466,0.0 121.632831,25.218382,0.0 121.632775,25.218293,0.0 121.633843,25.217608,0.0 121.634215,25.217618,0.0 121.634274,25.217372,0.0 121.634309,25.217225,0.0 121.63436,25.217101,0.0 121.634407,25.216988,0.0 121.634482,25.216908,0.0 121.634907,25.216992,0.0 121.63518,25.217152,0.0 121.635591,25.217161,0.0 121.637138,25.217424,0.0 121.637322,25.217582,0.0 121.637643,25.217721,0.0 121.637901,25.217773,0.0 121.638301,25.218069,0.0 121.638537,25.218296,0.0 121.638425,25.218724,0.0 121.638712,25.219174,0.0 121.638934,25.21939,0.0 121.639232,25.219681,0.0 121.639454,25.219927,0.0 121.639445,25.220104,0.0 121.639409,25.220392,0.0 121.639354,25.220518,0.0 121.638988,25.220818,0.0 121.638872,25.220988,0.0 121.638827,25.221084,0.0 121.638762,25.22122,0.0 121.638389,25.221572,0.0 121.638226,25.221686,0.0 121.638147,25.221767,0.0 121.638039,25.221868,0.0 121.637969,25.221823,0.0 121.637907,25.221825,0.0 121.637766,25.22193,0.0 121.63769,25.221989,0.0 121.6376,25.222053,0.0 121.637513,25.222153,0.0 121.637394,25.222366,0.0 121.637343,25.222329,0.0 121.637228,25.222406,0.0</coordinates></LinearRing></outerBoundaryIs></Polygon><styleUrl>#spolygon-map</styleUrl></Placemark></Document>
</kml>
