<?xml version="1.0" encoding="UTF-8"?>
<kml xmlns="http://www.opengis.net/kml/2.2">
	<Document>
		<name>桃園縣大溪鎮</name>
		<Style id="spolygon">
			<LabelStyle>
				<scale>0.0</scale>
			</LabelStyle>
			<LineStyle>
				<color>330030ff</color>
				<width>0</width>
			</LineStyle>
			<PolyStyle>
				<color>330030ff</color>
			</PolyStyle>
		</Style>
		<StyleMap id="spolygon-map">
			<Pair>
				<key>normal</key>
				<styleUrl>#spolygon</styleUrl>
			</Pair>
		</StyleMap>
	<Placemark><Polygon><outerBoundaryIs><LinearRing><coordinates>121.285931,24.883289,0.0 121.285674,24.883779,0.0 121.285329,24.8846,0.0 121.285151,24.885805,0.0 121.284481,24.884724,0.0 121.282395,24.881694,0.0 121.28757,24.879312,0.0 121.288101,24.879204,0.0 121.288642,24.880179,0.0 121.288611,24.881151,0.0 121.288851,24.881697,0.0 121.288864,24.882835,0.0 121.288881,24.883505,0.0 121.288738,24.883646,0.0 121.287666,24.883542,0.0 121.286318,24.883514,0.0 121.28606,24.883249,0.0 121.285931,24.883289,0.0</coordinates></LinearRing></outerBoundaryIs></Polygon><styleUrl>#spolygon-map</styleUrl></Placemark><Placemark><Polygon><outerBoundaryIs><LinearRing><coordinates>121.286007,24.887651,0.0 121.285545,24.887213,0.0 121.285008,24.886167,0.0 121.285283,24.885753,0.0 121.285338,24.884248,0.0 121.285614,24.883622,0.0 121.28606,24.883249,0.0 121.286318,24.883514,0.0 121.287666,24.883542,0.0 121.288738,24.883646,0.0 121.289094,24.884552,0.0 121.288801,24.885467,0.0 121.2877,24.886456,0.0 121.286251,24.887564,0.0 121.286007,24.887651,0.0</coordinates></LinearRing></outerBoundaryIs></Polygon><styleUrl>#spolygon-map</styleUrl></Placemark><Placemark><Polygon><outerBoundaryIs><LinearRing><coordinates>121.28921,24.883636,0.0 121.288931,24.883492,0.0 121.288856,24.882954,0.0 121.288904,24.881689,0.0 121.288638,24.881202,0.0 121.288751,24.880842,0.0 121.288455,24.879096,0.0 121.288867,24.878716,0.0 121.290359,24.877756,0.0 121.291386,24.876684,0.0 121.292938,24.875715,0.0 121.29304,24.875399,0.0 121.2929,24.875275,0.0 121.293054,24.875036,0.0 121.293297,24.874018,0.0 121.293646,24.873958,0.0 121.293948,24.874061,0.0 121.294234,24.873898,0.0 121.294203,24.873604,0.0 121.293988,24.873419,0.0 121.294345,24.873058,0.0 121.294567,24.873943,0.0 121.295304,24.873628,0.0 121.295886,24.873619,0.0 121.297316,24.874681,0.0 121.297139,24.875463,0.0 121.297292,24.875747,0.0 121.297351,24.875868,0.0 121.297611,24.87613,0.0 121.29782,24.876604,0.0 121.2979,24.876626,0.0 121.29806,24.876449,0.0 121.298185,24.876325,0.0 121.298231,24.876307,0.0 121.298351,24.876462,0.0 121.298448,24.87653,0.0 121.29836,24.877644,0.0 121.29845,24.878586,0.0 121.298288,24.878761,0.0 121.298059,24.878581,0.0 121.297906,24.878639,0.0 121.297869,24.878877,0.0 121.297623,24.878599,0.0 121.297395,24.878661,0.0 121.297452,24.879015,0.0 121.297475,24.879236,0.0 121.297918,24.880208,0.0 121.298141,24.880902,0.0 121.297544,24.880791,0.0 121.297249,24.880735,0.0 121.297029,24.880887,0.0 121.296755,24.880822,0.0 121.296,24.88042,0.0 121.295123,24.879904,0.0 121.293063,24.881191,0.0 121.291226,24.882404,0.0 121.289867,24.883267,0.0 121.28921,24.883636,0.0</coordinates></LinearRing></outerBoundaryIs></Polygon><styleUrl>#spolygon-map</styleUrl></Placemark><Placemark><Polygon><outerBoundaryIs><LinearRing><coordinates>121.287826,24.879229,0.0 121.285151,24.88047,0.0 121.282285,24.881507,0.0 121.279208,24.874334,0.0 121.281058,24.873158,0.0 121.281642,24.87113,0.0 121.282453,24.870721,0.0 121.28287,24.870009,0.0 121.282613,24.869758,0.0 121.282624,24.869298,0.0 121.282917,24.86897,0.0 121.282894,24.868814,0.0 121.282759,24.86861,0.0 121.282746,24.868404,0.0 121.282778,24.868057,0.0 121.282855,24.867935,0.0 121.282821,24.867729,0.0 121.282648,24.867543,0.0 121.282637,24.867395,0.0 121.282932,24.867142,0.0 121.282847,24.866963,0.0 121.282668,24.866759,0.0 121.282469,24.866604,0.0 121.282205,24.866592,0.0 121.281954,24.866393,0.0 121.281917,24.866253,0.0 121.281993,24.865967,0.0 121.282482,24.865497,0.0 121.28259,24.865124,0.0 121.282652,24.864936,0.0 121.282621,24.864813,0.0 121.282361,24.864612,0.0 121.282405,24.864438,0.0 121.282445,24.864185,0.0 121.282563,24.863811,0.0 121.282542,24.863601,0.0 121.282493,24.863136,0.0 121.282534,24.862865,0.0 121.282543,24.86251,0.0 121.282753,24.862143,0.0 121.28283,24.861998,0.0 121.283174,24.861638,0.0 121.283255,24.861489,0.0 121.283319,24.861082,0.0 121.285887,24.859733,0.0 121.286402,24.859456,0.0 121.287486,24.859845,0.0 121.288422,24.860184,0.0 121.289403,24.860744,0.0 121.289772,24.861224,0.0 121.290753,24.862023,0.0 121.292457,24.866374,0.0 121.29108,24.86743,0.0 121.291221,24.867762,0.0 121.291368,24.868228,0.0 121.291396,24.868903,0.0 121.291354,24.869405,0.0 121.2914,24.86979,0.0 121.293421,24.869778,0.0 121.293513,24.871028,0.0 121.29327,24.871582,0.0 121.294144,24.872695,0.0 121.2939,24.873311,0.0 121.294132,24.87358,0.0 121.294239,24.873656,0.0 121.2942,24.873977,0.0 121.293787,24.874039,0.0 121.293466,24.873942,0.0 121.293343,24.874609,0.0 121.293027,24.875139,0.0 121.292945,24.875329,0.0 121.293002,24.87564,0.0 121.292382,24.876071,0.0 121.29102,24.876893,0.0 121.289163,24.878539,0.0 121.288403,24.87896,0.0 121.288105,24.879245,0.0 121.287826,24.879229,0.0</coordinates></LinearRing></outerBoundaryIs></Polygon><styleUrl>#spolygon-map</styleUrl></Placemark><Placemark><Polygon><outerBoundaryIs><LinearRing><coordinates>121.315258,24.899469,0.0 121.312347,24.905445,0.0 121.312479,24.908202,0.0 121.303803,24.907078,0.0 121.300711,24.902166,0.0 121.299623,24.899289,0.0 121.293146,24.895789,0.0 121.287377,24.889598,0.0 121.286008,24.888147,0.0 121.286198,24.88754,0.0 121.28741,24.886673,0.0 121.288583,24.885714,0.0 121.28977,24.885178,0.0 121.294263,24.885851,0.0 121.295731,24.886769,0.0 121.296069,24.887737,0.0 121.297454,24.888762,0.0 121.298803,24.888521,0.0 121.298806,24.888368,0.0 121.300768,24.888434,0.0 121.30596,24.886462,0.0 121.309043,24.888256,0.0 121.309603,24.888774,0.0 121.310304,24.889715,0.0 121.312579,24.89322,0.0 121.311558,24.893012,0.0 121.310488,24.893319,0.0 121.310224,24.893365,0.0 121.309393,24.893132,0.0 121.308613,24.893081,0.0 121.30867,24.892371,0.0 121.308668,24.891449,0.0 121.307988,24.891427,0.0 121.30737,24.891799,0.0 121.307488,24.892072,0.0 121.307417,24.892278,0.0 121.3071,24.892505,0.0 121.306829,24.892646,0.0 121.306514,24.892788,0.0 121.306098,24.893205,0.0 121.305912,24.893848,0.0 121.304555,24.894828,0.0 121.306428,24.89622,0.0 121.307491,24.896893,0.0 121.306744,24.89766,0.0 121.307414,24.898384,0.0 121.308649,24.898991,0.0 121.310974,24.898471,0.0 121.312091,24.898129,0.0 121.313658,24.897246,0.0 121.315094,24.896907,0.0 121.315258,24.899469,0.0</coordinates></LinearRing></outerBoundaryIs></Polygon><styleUrl>#spolygon-map</styleUrl></Placemark><Placemark><Polygon><outerBoundaryIs><LinearRing><coordinates>121.323581,24.909867,0.0 121.323107,24.911286,0.0 121.322555,24.91186,0.0 121.321795,24.913015,0.0 121.320419,24.913447,0.0 121.319858,24.91425,0.0 121.319485,24.914973,0.0 121.317937,24.916095,0.0 121.315676,24.911268,0.0 121.312881,24.910026,0.0 121.312324,24.90556,0.0 121.314879,24.901295,0.0 121.315094,24.896907,0.0 121.313658,24.897246,0.0 121.312091,24.898129,0.0 121.310974,24.898471,0.0 121.308649,24.898991,0.0 121.307414,24.898384,0.0 121.306744,24.89766,0.0 121.307491,24.896893,0.0 121.306428,24.89622,0.0 121.304555,24.894828,0.0 121.305912,24.893848,0.0 121.306098,24.893205,0.0 121.306514,24.892788,0.0 121.306829,24.892646,0.0 121.3071,24.892505,0.0 121.307417,24.892278,0.0 121.307488,24.892072,0.0 121.30737,24.891799,0.0 121.307988,24.891427,0.0 121.308668,24.891449,0.0 121.30867,24.892371,0.0 121.308613,24.893081,0.0 121.309393,24.893132,0.0 121.310224,24.893365,0.0 121.310488,24.893319,0.0 121.311558,24.893012,0.0 121.312579,24.89322,0.0 121.310304,24.889715,0.0 121.310957,24.888246,0.0 121.314318,24.886014,0.0 121.317486,24.885228,0.0 121.318028,24.883921,0.0 121.318446,24.883493,0.0 121.317988,24.882993,0.0 121.318139,24.88253,0.0 121.318446,24.881759,0.0 121.321756,24.881472,0.0 121.328438,24.874714,0.0 121.33408,24.863341,0.0 121.345229,24.867286,0.0 121.34537,24.867835,0.0 121.345496,24.867958,0.0 121.345888,24.86818,0.0 121.347654,24.868282,0.0 121.347985,24.868386,0.0 121.349301,24.868738,0.0 121.349876,24.869523,0.0 121.350585,24.870093,0.0 121.352144,24.870524,0.0 121.35318,24.871213,0.0 121.353791,24.872227,0.0 121.354386,24.873228,0.0 121.353954,24.874187,0.0 121.353371,24.875171,0.0 121.353064,24.876662,0.0 121.35204,24.876761,0.0 121.350555,24.878559,0.0 121.349205,24.878732,0.0 121.347184,24.878671,0.0 121.345588,24.880248,0.0 121.345605,24.881358,0.0 121.345359,24.883232,0.0 121.344896,24.88426,0.0 121.34457,24.885969,0.0 121.343075,24.887013,0.0 121.341398,24.887415,0.0 121.341085,24.888237,0.0 121.341471,24.889078,0.0 121.341644,24.889994,0.0 121.341981,24.8907,0.0 121.341767,24.891404,0.0 121.342154,24.892539,0.0 121.34023,24.892532,0.0 121.339244,24.892902,0.0 121.3383,24.893273,0.0 121.337653,24.892748,0.0 121.336792,24.892518,0.0 121.335748,24.8923,0.0 121.33525,24.89178,0.0 121.334602,24.89173,0.0 121.333835,24.891508,0.0 121.333325,24.891777,0.0 121.333464,24.892342,0.0 121.333117,24.893229,0.0 121.332159,24.893392,0.0 121.332093,24.893615,0.0 121.332664,24.895032,0.0 121.332706,24.895544,0.0 121.33328,24.896139,0.0 121.333258,24.896976,0.0 121.332956,24.897586,0.0 121.333236,24.898231,0.0 121.333496,24.898458,0.0 121.33373,24.898765,0.0 121.333291,24.899373,0.0 121.332788,24.899446,0.0 121.331672,24.899708,0.0 121.331529,24.899506,0.0 121.33115,24.898646,0.0 121.330634,24.898221,0.0 121.329609,24.897447,0.0 121.328236,24.89622,0.0 121.327625,24.895903,0.0 121.326682,24.895934,0.0 121.325999,24.896893,0.0 121.322709,24.898444,0.0 121.321493,24.899719,0.0 121.320356,24.900288,0.0 121.321466,24.901369,0.0 121.321868,24.902294,0.0 121.321918,24.903628,0.0 121.323296,24.904222,0.0 121.324042,24.904745,0.0 121.324488,24.905146,0.0 121.324901,24.905662,0.0 121.325874,24.906899,0.0 121.326218,24.90727,0.0 121.326009,24.908056,0.0 121.326154,24.908261,0.0 121.3261,24.909295,0.0 121.324427,24.909895,0.0 121.323581,24.909867,0.0</coordinates></LinearRing></outerBoundaryIs></Polygon><styleUrl>#spolygon-map</styleUrl></Placemark><Placemark><Polygon><outerBoundaryIs><LinearRing><coordinates>121.310957,24.888246,0.0 121.309849,24.889018,0.0 121.309224,24.888364,0.0 121.307184,24.88708,0.0 121.302736,24.888071,0.0 121.300627,24.888141,0.0 121.300926,24.88649,0.0 121.30066,24.885123,0.0 121.299986,24.884199,0.0 121.300232,24.883424,0.0 121.299443,24.883302,0.0 121.298741,24.883071,0.0 121.298649,24.882771,0.0 121.298647,24.882177,0.0 121.29841,24.881798,0.0 121.29809,24.880799,0.0 121.297649,24.87982,0.0 121.297504,24.879211,0.0 121.297429,24.878855,0.0 121.297425,24.878582,0.0 121.29768,24.878663,0.0 121.297925,24.878865,0.0 121.297939,24.878588,0.0 121.29815,24.878707,0.0 121.298314,24.878724,0.0 121.298459,24.87851,0.0 121.298423,24.877476,0.0 121.298415,24.876525,0.0 121.298328,24.87642,0.0 121.298225,24.876303,0.0 121.29814,24.876365,0.0 121.298028,24.876505,0.0 121.297889,24.876629,0.0 121.297768,24.876484,0.0 121.297494,24.875971,0.0 121.297322,24.875839,0.0 121.297288,24.87566,0.0 121.296941,24.875257,0.0 121.296726,24.874012,0.0 121.295696,24.873642,0.0 121.295305,24.873715,0.0 121.294563,24.873924,0.0 121.294239,24.872783,0.0 121.293413,24.871954,0.0 121.293475,24.871067,0.0 121.293514,24.870444,0.0 121.291431,24.869878,0.0 121.291354,24.869453,0.0 121.291392,24.869149,0.0 121.291372,24.868258,0.0 121.291257,24.867892,0.0 121.291127,24.867512,0.0 121.292717,24.866591,0.0 121.291186,24.862697,0.0 121.289894,24.861174,0.0 121.292945,24.859378,0.0 121.29459,24.8593,0.0 121.295677,24.859483,0.0 121.295924,24.859966,0.0 121.29622,24.860234,0.0 121.297231,24.860053,0.0 121.297372,24.858554,0.0 121.296527,24.857263,0.0 121.29947,24.856483,0.0 121.304235,24.856433,0.0 121.309244,24.854565,0.0 121.321605,24.853464,0.0 121.332183,24.854635,0.0 121.341038,24.86337,0.0 121.345036,24.866932,0.0 121.33408,24.863341,0.0 121.328438,24.874714,0.0 121.321756,24.881472,0.0 121.318446,24.881759,0.0 121.318139,24.88253,0.0 121.317988,24.882993,0.0 121.318446,24.883493,0.0 121.318028,24.883921,0.0 121.317486,24.885228,0.0 121.314318,24.886014,0.0 121.310957,24.888246,0.0</coordinates></LinearRing></outerBoundaryIs></Polygon><styleUrl>#spolygon-map</styleUrl></Placemark><Placemark><Polygon><outerBoundaryIs><LinearRing><coordinates>121.292409,24.859682,0.0 121.289886,24.861178,0.0 121.289572,24.861003,0.0 121.288948,24.860483,0.0 121.287797,24.859956,0.0 121.286659,24.859514,0.0 121.286193,24.859499,0.0 121.285756,24.859446,0.0 121.285074,24.858156,0.0 121.284375,24.856533,0.0 121.284877,24.855428,0.0 121.285221,24.854222,0.0 121.285255,24.853032,0.0 121.285171,24.850435,0.0 121.283559,24.849049,0.0 121.28341,24.847917,0.0 121.283416,24.847402,0.0 121.283341,24.846879,0.0 121.282686,24.846713,0.0 121.282241,24.846021,0.0 121.281837,24.84538,0.0 121.279949,24.843015,0.0 121.279741,24.84067,0.0 121.279091,24.838965,0.0 121.277927,24.836768,0.0 121.27748,24.836626,0.0 121.276529,24.836439,0.0 121.276047,24.836358,0.0 121.275574,24.836303,0.0 121.275186,24.836215,0.0 121.275038,24.835823,0.0 121.274814,24.835449,0.0 121.27464,24.83567,0.0 121.274707,24.836643,0.0 121.274731,24.837175,0.0 121.274535,24.837257,0.0 121.273772,24.82934,0.0 121.279946,24.825785,0.0 121.286815,24.826608,0.0 121.298318,24.832083,0.0 121.30304,24.834665,0.0 121.306381,24.837651,0.0 121.309332,24.847111,0.0 121.31069,24.849573,0.0 121.317705,24.853558,0.0 121.306459,24.855746,0.0 121.301179,24.856613,0.0 121.297934,24.856831,0.0 121.297038,24.857959,0.0 121.298017,24.859686,0.0 121.296693,24.860091,0.0 121.295983,24.860259,0.0 121.295769,24.859691,0.0 121.295065,24.859196,0.0 121.293879,24.859959,0.0 121.292409,24.859682,0.0</coordinates></LinearRing></outerBoundaryIs></Polygon><styleUrl>#spolygon-map</styleUrl></Placemark><Placemark><Polygon><outerBoundaryIs><LinearRing><coordinates>121.320165,24.8171,0.0 121.319031,24.818378,0.0 121.319326,24.818839,0.0 121.319649,24.819352,0.0 121.320851,24.820169,0.0 121.321173,24.820592,0.0 121.320741,24.821419,0.0 121.321005,24.822094,0.0 121.315968,24.828359,0.0 121.310548,24.835087,0.0 121.305446,24.8365,0.0 121.302923,24.834593,0.0 121.297996,24.831887,0.0 121.285892,24.82637,0.0 121.280859,24.823793,0.0 121.26949,24.819855,0.0 121.248012,24.811394,0.0 121.245691,24.809219,0.0 121.24823,24.809707,0.0 121.250207,24.810065,0.0 121.252761,24.810704,0.0 121.25384,24.810226,0.0 121.255371,24.807533,0.0 121.25709,24.805957,0.0 121.258656,24.805889,0.0 121.261267,24.805029,0.0 121.264346,24.805569,0.0 121.265725,24.807086,0.0 121.265892,24.809018,0.0 121.265143,24.810985,0.0 121.264652,24.813645,0.0 121.266275,24.814491,0.0 121.273996,24.815012,0.0 121.276397,24.815678,0.0 121.279006,24.816704,0.0 121.283315,24.815737,0.0 121.28602,24.816224,0.0 121.288076,24.814511,0.0 121.291978,24.812165,0.0 121.295069,24.80978,0.0 121.297077,24.809169,0.0 121.300595,24.808067,0.0 121.30337,24.808807,0.0 121.305189,24.809965,0.0 121.308534,24.808121,0.0 121.313225,24.8048,0.0 121.315825,24.803515,0.0 121.317388,24.804496,0.0 121.319881,24.806705,0.0 121.321995,24.808258,0.0 121.322024,24.809702,0.0 121.321842,24.8123,0.0 121.321529,24.813854,0.0 121.320414,24.816238,0.0 121.320165,24.8171,0.0</coordinates></LinearRing></outerBoundaryIs></Polygon><styleUrl>#spolygon-map</styleUrl></Placemark><Placemark><Polygon><outerBoundaryIs><LinearRing><coordinates>121.350694,24.859279,0.0 121.349633,24.859647,0.0 121.34917,24.859946,0.0 121.348301,24.86086,0.0 121.348195,24.861422,0.0 121.347622,24.861778,0.0 121.347365,24.86202,0.0 121.34735,24.862136,0.0 121.34728,24.863103,0.0 121.34681,24.863517,0.0 121.346571,24.864686,0.0 121.345691,24.866287,0.0 121.342242,24.864562,0.0 121.333266,24.855636,0.0 121.330219,24.853845,0.0 121.312878,24.850898,0.0 121.309365,24.847175,0.0 121.307003,24.838966,0.0 121.313188,24.831983,0.0 121.317053,24.826999,0.0 121.321283,24.822129,0.0 121.322188,24.821915,0.0 121.323727,24.821533,0.0 121.324019,24.821015,0.0 121.324477,24.820187,0.0 121.325095,24.820175,0.0 121.325579,24.82158,0.0 121.327647,24.822183,0.0 121.328056,24.822435,0.0 121.327505,24.823061,0.0 121.327249,24.824396,0.0 121.32791,24.825004,0.0 121.328983,24.824546,0.0 121.32924,24.824584,0.0 121.329576,24.82535,0.0 121.331368,24.825055,0.0 121.331799,24.825174,0.0 121.331456,24.826023,0.0 121.332878,24.826941,0.0 121.333643,24.827531,0.0 121.332867,24.827591,0.0 121.331454,24.827553,0.0 121.330418,24.8281,0.0 121.330823,24.828717,0.0 121.330696,24.830674,0.0 121.331376,24.831285,0.0 121.330901,24.832073,0.0 121.330434,24.832785,0.0 121.330316,24.833522,0.0 121.330429,24.83474,0.0 121.330818,24.835209,0.0 121.331639,24.836656,0.0 121.332397,24.838787,0.0 121.332016,24.840165,0.0 121.331913,24.841472,0.0 121.333106,24.841325,0.0 121.333242,24.842094,0.0 121.333451,24.841968,0.0 121.333281,24.842747,0.0 121.332954,24.843354,0.0 121.333103,24.844029,0.0 121.33363,24.844407,0.0 121.334768,24.84468,0.0 121.335158,24.844665,0.0 121.335421,24.844728,0.0 121.335571,24.844842,0.0 121.335785,24.844737,0.0 121.335951,24.845195,0.0 121.336116,24.846557,0.0 121.336309,24.847215,0.0 121.337078,24.848308,0.0 121.337374,24.848425,0.0 121.33813,24.848412,0.0 121.338615,24.848784,0.0 121.338842,24.848754,0.0 121.338897,24.848526,0.0 121.339085,24.848506,0.0 121.339656,24.848707,0.0 121.340271,24.848789,0.0 121.3406,24.84893,0.0 121.341249,24.848718,0.0 121.342075,24.848593,0.0 121.343068,24.848823,0.0 121.343768,24.849122,0.0 121.344773,24.849625,0.0 121.345811,24.849905,0.0 121.346689,24.850179,0.0 121.347222,24.850038,0.0 121.34757,24.849923,0.0 121.347704,24.850237,0.0 121.347863,24.850913,0.0 121.348228,24.850764,0.0 121.348137,24.849956,0.0 121.348514,24.848594,0.0 121.348653,24.84835,0.0 121.349124,24.848394,0.0 121.350232,24.848719,0.0 121.350402,24.848842,0.0 121.349757,24.849571,0.0 121.349996,24.84959,0.0 121.350289,24.849452,0.0 121.35183,24.849114,0.0 121.352832,24.849166,0.0 121.352873,24.849383,0.0 121.351842,24.850055,0.0 121.351793,24.85028,0.0 121.351914,24.850658,0.0 121.352837,24.85028,0.0 121.353307,24.850561,0.0 121.353525,24.850939,0.0 121.35356,24.85151,0.0 121.353758,24.851861,0.0 121.354189,24.852163,0.0 121.354586,24.853113,0.0 121.354729,24.853312,0.0 121.355537,24.853566,0.0 121.355976,24.853382,0.0 121.356651,24.853602,0.0 121.356889,24.853208,0.0 121.357595,24.853102,0.0 121.358052,24.853264,0.0 121.358145,24.853505,0.0 121.357881,24.854393,0.0 121.357335,24.85444,0.0 121.357113,24.854405,0.0 121.355799,24.854985,0.0 121.35554,24.855114,0.0 121.355592,24.855452,0.0 121.355115,24.855677,0.0 121.354682,24.856251,0.0 121.354155,24.856708,0.0 121.353849,24.857526,0.0 121.353769,24.858077,0.0 121.353132,24.858806,0.0 121.352221,24.859124,0.0 121.351258,24.859356,0.0 121.350701,24.859276,0.0 121.350694,24.859279,0.0</coordinates></LinearRing></outerBoundaryIs></Polygon><styleUrl>#spolygon-map</styleUrl></Placemark><Placemark><Polygon><outerBoundaryIs><LinearRing><coordinates>121.28269,24.86919,0.0 121.282606,24.869412,0.0 121.282584,24.869876,0.0 121.282719,24.870404,0.0 121.281896,24.871022,0.0 121.281652,24.87225,0.0 121.280108,24.873758,0.0 121.278137,24.875037,0.0 121.276634,24.87253,0.0 121.272093,24.869061,0.0 121.272221,24.869798,0.0 121.271613,24.870063,0.0 121.270419,24.870837,0.0 121.270171,24.870138,0.0 121.269871,24.869749,0.0 121.269116,24.869237,0.0 121.269202,24.868799,0.0 121.269599,24.868283,0.0 121.269247,24.867824,0.0 121.269114,24.867328,0.0 121.260697,24.865209,0.0 121.258973,24.864314,0.0 121.259446,24.863577,0.0 121.26046,24.8614,0.0 121.261132,24.860168,0.0 121.261481,24.859755,0.0 121.26129,24.859356,0.0 121.261325,24.858924,0.0 121.262108,24.858657,0.0 121.262642,24.85813,0.0 121.263857,24.858789,0.0 121.264777,24.857493,0.0 121.265667,24.855849,0.0 121.266759,24.853186,0.0 121.267584,24.851025,0.0 121.267378,24.848402,0.0 121.270562,24.847797,0.0 121.274264,24.848575,0.0 121.274626,24.848989,0.0 121.275008,24.849323,0.0 121.275298,24.85043,0.0 121.275248,24.853143,0.0 121.278975,24.856118,0.0 121.280232,24.857092,0.0 121.281276,24.856762,0.0 121.281693,24.856926,0.0 121.282111,24.857372,0.0 121.282611,24.857552,0.0 121.282625,24.857684,0.0 121.282645,24.858024,0.0 121.282661,24.85826,0.0 121.282791,24.858631,0.0 121.283052,24.858981,0.0 121.283313,24.859185,0.0 121.283353,24.859458,0.0 121.283306,24.859752,0.0 121.283344,24.859915,0.0 121.283465,24.860113,0.0 121.283484,24.860331,0.0 121.283371,24.860543,0.0 121.283277,24.861327,0.0 121.283209,24.861595,0.0 121.282871,24.861956,0.0 121.28277,24.862114,0.0 121.282553,24.862485,0.0 121.282518,24.86266,0.0 121.282518,24.863028,0.0 121.282527,24.863441,0.0 121.282572,24.863767,0.0 121.282489,24.864012,0.0 121.282424,24.864395,0.0 121.282352,24.864587,0.0 121.282581,24.864765,0.0 121.282655,24.864909,0.0 121.282616,24.86507,0.0 121.282502,24.865418,0.0 121.282077,24.865844,0.0 121.281918,24.866193,0.0 121.281943,24.866373,0.0 121.282081,24.866539,0.0 121.282419,24.866604,0.0 121.282575,24.866644,0.0 121.282825,24.866931,0.0 121.282933,24.867125,0.0 121.282678,24.867325,0.0 121.282635,24.867517,0.0 121.282791,24.867674,0.0 121.282871,24.867892,0.0 121.282793,24.868025,0.0 121.282766,24.868204,0.0 121.282749,24.86857,0.0 121.282854,24.868745,0.0 121.282922,24.86893,0.0 121.28269,24.86919,0.0</coordinates></LinearRing></outerBoundaryIs></Polygon><styleUrl>#spolygon-map</styleUrl></Placemark><Placemark><Polygon><outerBoundaryIs><LinearRing><coordinates>121.284477,24.856948,0.0 121.285355,24.858842,0.0 121.284925,24.860003,0.0 121.283397,24.860482,0.0 121.283487,24.860202,0.0 121.283432,24.860047,0.0 121.283311,24.859808,0.0 121.283336,24.859624,0.0 121.283335,24.859267,0.0 121.283248,24.859101,0.0 121.282912,24.858797,0.0 121.282746,24.858466,0.0 121.282639,24.858146,0.0 121.282623,24.857869,0.0 121.282629,24.857594,0.0 121.282179,24.857434,0.0 121.281813,24.857073,0.0 121.281456,24.856548,0.0 121.280804,24.857115,0.0 121.27929,24.856879,0.0 121.275979,24.853633,0.0 121.275038,24.851647,0.0 121.275288,24.849525,0.0 121.274854,24.849231,0.0 121.274377,24.848726,0.0 121.272827,24.84806,0.0 121.269063,24.848013,0.0 121.266365,24.847386,0.0 121.264762,24.844859,0.0 121.263003,24.842695,0.0 121.261058,24.840159,0.0 121.260279,24.838231,0.0 121.259554,24.836252,0.0 121.256035,24.832415,0.0 121.254527,24.829363,0.0 121.253815,24.825575,0.0 121.252622,24.823365,0.0 121.252183,24.822833,0.0 121.249594,24.821079,0.0 121.247652,24.819274,0.0 121.244456,24.814742,0.0 121.243678,24.81266,0.0 121.243466,24.81155,0.0 121.243252,24.809372,0.0 121.243706,24.808889,0.0 121.248015,24.811396,0.0 121.270024,24.820048,0.0 121.282407,24.824496,0.0 121.275582,24.82706,0.0 121.273441,24.833792,0.0 121.274654,24.837241,0.0 121.27476,24.837051,0.0 121.27459,24.835914,0.0 121.274705,24.835489,0.0 121.274956,24.835559,0.0 121.275102,24.836112,0.0 121.275397,24.836294,0.0 121.275831,24.836316,0.0 121.276298,24.836407,0.0 121.276955,24.836519,0.0 121.277803,24.836714,0.0 121.278237,24.838156,0.0 121.279909,24.839393,0.0 121.279815,24.841967,0.0 121.281627,24.845221,0.0 121.282001,24.845581,0.0 121.282559,24.846593,0.0 121.283191,24.846807,0.0 121.283375,24.847064,0.0 121.28338,24.847662,0.0 121.283501,24.848226,0.0 121.284294,24.850184,0.0 121.285231,24.85178,0.0 121.285429,24.853723,0.0 121.285134,24.854836,0.0 121.284641,24.855957,0.0 121.284477,24.856948,0.0</coordinates></LinearRing></outerBoundaryIs></Polygon><styleUrl>#spolygon-map</styleUrl></Placemark><Placemark><Polygon><outerBoundaryIs><LinearRing><coordinates>121.307952,24.929957,0.0 121.304226,24.928482,0.0 121.301507,24.926131,0.0 121.298271,24.924185,0.0 121.29721,24.924997,0.0 121.296932,24.923677,0.0 121.297606,24.923195,0.0 121.29806,24.922798,0.0 121.297912,24.922499,0.0 121.297529,24.92211,0.0 121.297548,24.921988,0.0 121.297022,24.92153,0.0 121.296899,24.92129,0.0 121.296764,24.920578,0.0 121.294266,24.916033,0.0 121.290909,24.910564,0.0 121.289616,24.909524,0.0 121.289476,24.908965,0.0 121.288011,24.907595,0.0 121.287695,24.906975,0.0 121.287745,24.905821,0.0 121.2878,24.904393,0.0 121.28788,24.903909,0.0 121.288322,24.903432,0.0 121.288256,24.902602,0.0 121.288182,24.90109,0.0 121.288035,24.90042,0.0 121.287547,24.899222,0.0 121.287178,24.898302,0.0 121.286436,24.896793,0.0 121.285675,24.895337,0.0 121.284518,24.894732,0.0 121.282448,24.89437,0.0 121.281396,24.894022,0.0 121.282082,24.896269,0.0 121.279862,24.895641,0.0 121.279006,24.896146,0.0 121.278028,24.894966,0.0 121.277225,24.894173,0.0 121.276999,24.893958,0.0 121.276683,24.894092,0.0 121.276445,24.893957,0.0 121.276208,24.893811,0.0 121.27603,24.89379,0.0 121.275744,24.893553,0.0 121.275447,24.893264,0.0 121.274808,24.892625,0.0 121.274056,24.891784,0.0 121.273829,24.891334,0.0 121.272867,24.889903,0.0 121.272476,24.889392,0.0 121.276074,24.889884,0.0 121.275588,24.887658,0.0 121.2742,24.883409,0.0 121.276012,24.881142,0.0 121.275821,24.880907,0.0 121.275767,24.880519,0.0 121.275782,24.880178,0.0 121.275716,24.879492,0.0 121.275822,24.879122,0.0 121.275917,24.878862,0.0 121.275523,24.877807,0.0 121.275836,24.876702,0.0 121.276897,24.875852,0.0 121.282285,24.881507,0.0 121.28442,24.884652,0.0 121.285008,24.886167,0.0 121.285545,24.887213,0.0 121.285856,24.88784,0.0 121.286655,24.888991,0.0 121.290599,24.893406,0.0 121.29654,24.897961,0.0 121.300785,24.901182,0.0 121.30202,24.905935,0.0 121.312411,24.921692,0.0 121.311894,24.924663,0.0 121.312325,24.925869,0.0 121.313391,24.927048,0.0 121.312989,24.927301,0.0 121.312301,24.927307,0.0 121.312217,24.92725,0.0 121.312115,24.927285,0.0 121.311616,24.927544,0.0 121.311255,24.927783,0.0 121.311067,24.927865,0.0 121.31025,24.928343,0.0 121.309904,24.928553,0.0 121.309428,24.928947,0.0 121.309301,24.928979,0.0 121.309018,24.929038,0.0 121.30916,24.929248,0.0 121.308324,24.929337,0.0 121.307952,24.929957,0.0</coordinates></LinearRing></outerBoundaryIs></Polygon><styleUrl>#spolygon-map</styleUrl></Placemark><Placemark><Polygon><outerBoundaryIs><LinearRing><coordinates>121.317056,24.93631,0.0 121.315761,24.938466,0.0 121.309923,24.93351,0.0 121.307952,24.929957,0.0 121.309177,24.929259,0.0 121.308919,24.929127,0.0 121.309208,24.928977,0.0 121.309396,24.928968,0.0 121.309861,24.928605,0.0 121.310176,24.928386,0.0 121.310721,24.928053,0.0 121.311236,24.927796,0.0 121.311438,24.927633,0.0 121.311922,24.927401,0.0 121.312201,24.927249,0.0 121.312281,24.927293,0.0 121.312663,24.92752,0.0 121.313358,24.927073,0.0 121.312665,24.926178,0.0 121.311302,24.925222,0.0 121.312668,24.922081,0.0 121.304359,24.909481,0.0 121.307489,24.908515,0.0 121.314827,24.910568,0.0 121.317541,24.916338,0.0 121.319273,24.917906,0.0 121.320595,24.919276,0.0 121.321148,24.920049,0.0 121.322378,24.92126,0.0 121.32451,24.923249,0.0 121.325899,24.923869,0.0 121.326763,24.924283,0.0 121.330989,24.924935,0.0 121.334294,24.924752,0.0 121.336289,24.925578,0.0 121.33945,24.92848,0.0 121.337552,24.928603,0.0 121.335872,24.92899,0.0 121.334665,24.929585,0.0 121.334109,24.929761,0.0 121.33354,24.92983,0.0 121.330985,24.929571,0.0 121.323713,24.928429,0.0 121.322024,24.928018,0.0 121.322673,24.929802,0.0 121.323158,24.931265,0.0 121.321891,24.932295,0.0 121.321421,24.931953,0.0 121.320976,24.932376,0.0 121.320525,24.932849,0.0 121.320509,24.933307,0.0 121.320713,24.933616,0.0 121.320279,24.933673,0.0 121.320046,24.933597,0.0 121.319949,24.934071,0.0 121.319378,24.934384,0.0 121.318109,24.934782,0.0 121.317723,24.935418,0.0 121.31755,24.935727,0.0 121.317056,24.93631,0.0</coordinates></LinearRing></outerBoundaryIs></Polygon><styleUrl>#spolygon-map</styleUrl></Placemark><Placemark><Polygon><outerBoundaryIs><LinearRing><coordinates>121.294426,24.924574,0.0 121.293854,24.9246,0.0 121.292841,24.924467,0.0 121.291336,24.923765,0.0 121.289871,24.922992,0.0 121.289782,24.922793,0.0 121.290292,24.921846,0.0 121.29243,24.919639,0.0 121.293941,24.918481,0.0 121.295245,24.917624,0.0 121.296811,24.920883,0.0 121.296952,24.921431,0.0 121.297227,24.921722,0.0 121.29752,24.922047,0.0 121.29762,24.92224,0.0 121.298006,24.922645,0.0 121.297744,24.923094,0.0 121.297446,24.92332,0.0 121.296812,24.923734,0.0 121.296258,24.923191,0.0 121.295472,24.923206,0.0 121.294449,24.92189,0.0 121.293504,24.920849,0.0 121.292139,24.921656,0.0 121.292117,24.922229,0.0 121.293052,24.923177,0.0 121.294201,24.924354,0.0 121.294426,24.924574,0.0</coordinates></LinearRing></outerBoundaryIs></Polygon><styleUrl>#spolygon-map</styleUrl></Placemark><Placemark><Polygon><outerBoundaryIs><LinearRing><coordinates>121.294201,24.924354,0.0 121.293052,24.923177,0.0 121.292117,24.922229,0.0 121.292139,24.921656,0.0 121.293504,24.920849,0.0 121.294449,24.92189,0.0 121.295472,24.923206,0.0 121.295437,24.923866,0.0 121.294201,24.924354,0.0</coordinates></LinearRing></outerBoundaryIs></Polygon><styleUrl>#spolygon-map</styleUrl></Placemark><Placemark><Polygon><outerBoundaryIs><LinearRing><coordinates>121.277302,24.92272,0.0 121.276808,24.924005,0.0 121.275986,24.924914,0.0 121.275504,24.925676,0.0 121.275266,24.9261,0.0 121.274415,24.925273,0.0 121.273975,24.924444,0.0 121.273822,24.923719,0.0 121.273582,24.923241,0.0 121.273294,24.922926,0.0 121.27297,24.92278,0.0 121.272686,24.922597,0.0 121.272415,24.922593,0.0 121.271966,24.922396,0.0 121.271623,24.921875,0.0 121.271519,24.921618,0.0 121.271694,24.921017,0.0 121.271911,24.920493,0.0 121.271989,24.919753,0.0 121.271652,24.918871,0.0 121.272078,24.917285,0.0 121.270728,24.916511,0.0 121.270088,24.916611,0.0 121.270036,24.916601,0.0 121.269926,24.916527,0.0 121.268986,24.916807,0.0 121.26876,24.916921,0.0 121.267986,24.917112,0.0 121.267144,24.916867,0.0 121.266678,24.916151,0.0 121.266601,24.915843,0.0 121.266289,24.915345,0.0 121.266033,24.915157,0.0 121.265772,24.914993,0.0 121.265639,24.914558,0.0 121.265606,24.914204,0.0 121.265879,24.913793,0.0 121.265905,24.913611,0.0 121.265779,24.913321,0.0 121.265701,24.913122,0.0 121.265774,24.912951,0.0 121.266083,24.912827,0.0 121.266574,24.91263,0.0 121.266587,24.912472,0.0 121.266587,24.912024,0.0 121.266743,24.911743,0.0 121.267035,24.91153,0.0 121.267416,24.911418,0.0 121.267633,24.911108,0.0 121.267714,24.910882,0.0 121.267641,24.910775,0.0 121.267441,24.910551,0.0 121.267383,24.910334,0.0 121.267259,24.909801,0.0 121.266955,24.909277,0.0 121.269146,24.908729,0.0 121.271356,24.908128,0.0 121.271371,24.908291,0.0 121.271361,24.908419,0.0 121.271444,24.908828,0.0 121.271608,24.909167,0.0 121.271633,24.90936,0.0 121.27161,24.909493,0.0 121.271718,24.909742,0.0 121.271886,24.909999,0.0 121.271602,24.910357,0.0 121.271458,24.910563,0.0 121.271373,24.91077,0.0 121.271245,24.91098,0.0 121.271196,24.911138,0.0 121.271215,24.911387,0.0 121.271159,24.911506,0.0 121.271206,24.911707,0.0 121.271312,24.911819,0.0 121.271515,24.911819,0.0 121.271722,24.912097,0.0 121.271254,24.912411,0.0 121.270891,24.912616,0.0 121.271005,24.912778,0.0 121.270867,24.913145,0.0 121.270788,24.913353,0.0 121.270814,24.913513,0.0 121.270936,24.913685,0.0 121.271092,24.91411,0.0 121.271545,24.914583,0.0 121.27245,24.914256,0.0 121.272967,24.912221,0.0 121.273554,24.910705,0.0 121.273861,24.91003,0.0 121.274014,24.908757,0.0 121.274602,24.906619,0.0 121.275431,24.905442,0.0 121.277895,24.906382,0.0 121.279556,24.906702,0.0 121.281818,24.905989,0.0 121.283107,24.907564,0.0 121.283857,24.909041,0.0 121.285881,24.908191,0.0 121.289253,24.909295,0.0 121.290853,24.910404,0.0 121.293102,24.915122,0.0 121.294808,24.917901,0.0 121.293661,24.918698,0.0 121.291854,24.920166,0.0 121.290025,24.922152,0.0 121.28979,24.922834,0.0 121.288309,24.922198,0.0 121.285197,24.920814,0.0 121.283281,24.920253,0.0 121.28249,24.920295,0.0 121.281725,24.921089,0.0 121.280234,24.92085,0.0 121.276858,24.920432,0.0 121.277066,24.921224,0.0 121.27747,24.921733,0.0 121.277302,24.92272,0.0</coordinates></LinearRing></outerBoundaryIs></Polygon><styleUrl>#spolygon-map</styleUrl></Placemark><Placemark><Polygon><outerBoundaryIs><LinearRing><coordinates>121.27283,24.912709,0.0 121.272423,24.914566,0.0 121.271225,24.914544,0.0 121.271062,24.913885,0.0 121.270932,24.913611,0.0 121.270802,24.913489,0.0 121.270795,24.913296,0.0 121.270926,24.912982,0.0 121.271008,24.912738,0.0 121.270962,24.912503,0.0 121.271363,24.912438,0.0 121.271732,24.91191,0.0 121.271416,24.911848,0.0 121.271277,24.911792,0.0 121.27118,24.911659,0.0 121.271181,24.911468,0.0 121.271215,24.911371,0.0 121.271199,24.9111,0.0 121.271303,24.910901,0.0 121.271425,24.910719,0.0 121.27146,24.910552,0.0 121.271692,24.910252,0.0 121.271886,24.909978,0.0 121.271644,24.909602,0.0 121.271611,24.909463,0.0 121.271638,24.909279,0.0 121.271568,24.90909,0.0 121.271442,24.908719,0.0 121.271352,24.908375,0.0 121.271386,24.908261,0.0 121.271311,24.908091,0.0 121.271116,24.907977,0.0 121.270721,24.907576,0.0 121.270643,24.907386,0.0 121.27055,24.907164,0.0 121.270543,24.906869,0.0 121.270524,24.906726,0.0 121.270623,24.906552,0.0 121.270685,24.906341,0.0 121.270801,24.906032,0.0 121.270979,24.905828,0.0 121.27108,24.90566,0.0 121.271102,24.905562,0.0 121.27103,24.9054,0.0 121.271023,24.905236,0.0 121.270978,24.905044,0.0 121.271043,24.904829,0.0 121.271015,24.904506,0.0 121.270901,24.904245,0.0 121.270707,24.903935,0.0 121.270647,24.903706,0.0 121.270698,24.903321,0.0 121.270583,24.903203,0.0 121.270406,24.902993,0.0 121.27136,24.902704,0.0 121.272293,24.902512,0.0 121.275241,24.901548,0.0 121.276684,24.899741,0.0 121.280736,24.899923,0.0 121.281476,24.900411,0.0 121.280926,24.901073,0.0 121.28018,24.901796,0.0 121.280276,24.902045,0.0 121.280606,24.90307,0.0 121.281602,24.903603,0.0 121.283096,24.904268,0.0 121.282093,24.905408,0.0 121.279556,24.906702,0.0 121.277895,24.906382,0.0 121.275431,24.905442,0.0 121.274602,24.906619,0.0 121.274014,24.908757,0.0 121.273861,24.91003,0.0 121.273554,24.910705,0.0 121.272967,24.912221,0.0 121.27283,24.912709,0.0</coordinates></LinearRing></outerBoundaryIs></Polygon><styleUrl>#spolygon-map</styleUrl></Placemark><Placemark><Polygon><outerBoundaryIs><LinearRing><coordinates>121.285715,24.908265,0.0 121.283632,24.908522,0.0 121.283059,24.907505,0.0 121.281541,24.90566,0.0 121.283361,24.904871,0.0 121.28214,24.903458,0.0 121.280669,24.90326,0.0 121.280297,24.902035,0.0 121.280132,24.901828,0.0 121.28055,24.901495,0.0 121.281213,24.900717,0.0 121.281613,24.899872,0.0 121.277482,24.898851,0.0 121.279269,24.897396,0.0 121.280548,24.898479,0.0 121.28212,24.89863,0.0 121.282997,24.898597,0.0 121.284333,24.898963,0.0 121.283997,24.899601,0.0 121.283893,24.900134,0.0 121.283818,24.901069,0.0 121.283839,24.901238,0.0 121.284135,24.902583,0.0 121.284226,24.902937,0.0 121.284717,24.904371,0.0 121.285303,24.905797,0.0 121.285785,24.906843,0.0 121.286609,24.90788,0.0 121.285881,24.908191,0.0 121.285715,24.908265,0.0</coordinates></LinearRing></outerBoundaryIs></Polygon><styleUrl>#spolygon-map</styleUrl></Placemark><Placemark><Polygon><outerBoundaryIs><LinearRing><coordinates>121.272274,24.892369,0.0 121.272001,24.892325,0.0 121.271661,24.892327,0.0 121.269587,24.891974,0.0 121.269152,24.891361,0.0 121.268777,24.890718,0.0 121.267473,24.890459,0.0 121.26551,24.88894,0.0 121.263782,24.886723,0.0 121.263993,24.885972,0.0 121.264336,24.88594,0.0 121.264339,24.885678,0.0 121.264301,24.884864,0.0 121.264351,24.884745,0.0 121.264602,24.884553,0.0 121.264542,24.884327,0.0 121.264183,24.883882,0.0 121.263795,24.883583,0.0 121.264439,24.883318,0.0 121.264727,24.883207,0.0 121.26519,24.882985,0.0 121.26593,24.882428,0.0 121.267263,24.883539,0.0 121.268192,24.884237,0.0 121.269834,24.885482,0.0 121.270168,24.887829,0.0 121.269998,24.88871,0.0 121.270417,24.889734,0.0 121.27251,24.891141,0.0 121.272314,24.892159,0.0 121.272274,24.892369,0.0</coordinates></LinearRing></outerBoundaryIs></Polygon><styleUrl>#spolygon-map</styleUrl></Placemark><Placemark><Polygon><outerBoundaryIs><LinearRing><coordinates>121.273458,24.927426,0.0 121.27365,24.928302,0.0 121.273409,24.929297,0.0 121.271244,24.926828,0.0 121.270195,24.9259,0.0 121.269867,24.924618,0.0 121.268584,24.924072,0.0 121.268214,24.923206,0.0 121.268134,24.921922,0.0 121.267391,24.921223,0.0 121.265843,24.920583,0.0 121.265786,24.919969,0.0 121.265225,24.919437,0.0 121.263567,24.918215,0.0 121.26218,24.91719,0.0 121.261719,24.917148,0.0 121.260995,24.917023,0.0 121.258571,24.916635,0.0 121.257366,24.916384,0.0 121.256576,24.91585,0.0 121.257082,24.915019,0.0 121.256922,24.913672,0.0 121.254743,24.91168,0.0 121.254126,24.911103,0.0 121.253638,24.909522,0.0 121.253072,24.908866,0.0 121.253295,24.907254,0.0 121.253148,24.9062,0.0 121.253052,24.905408,0.0 121.252502,24.903639,0.0 121.252571,24.903016,0.0 121.252782,24.90182,0.0 121.252466,24.900981,0.0 121.252369,24.899006,0.0 121.251246,24.895999,0.0 121.250842,24.895532,0.0 121.250559,24.895082,0.0 121.250256,24.894227,0.0 121.249939,24.89332,0.0 121.249708,24.892569,0.0 121.249569,24.891431,0.0 121.249479,24.89047,0.0 121.249458,24.889472,0.0 121.249457,24.887795,0.0 121.249313,24.885931,0.0 121.24986,24.885896,0.0 121.250208,24.886212,0.0 121.250457,24.886746,0.0 121.251704,24.886457,0.0 121.255952,24.886671,0.0 121.259345,24.886377,0.0 121.259929,24.885473,0.0 121.260763,24.885298,0.0 121.261262,24.884942,0.0 121.262045,24.884286,0.0 121.263258,24.883661,0.0 121.263974,24.883708,0.0 121.264336,24.884043,0.0 121.264606,24.884494,0.0 121.264526,24.884625,0.0 121.264314,24.884809,0.0 121.264296,24.8853,0.0 121.26437,24.885747,0.0 121.264255,24.885952,0.0 121.26398,24.886303,0.0 121.264989,24.886796,0.0 121.264661,24.891705,0.0 121.26574,24.89476,0.0 121.266678,24.895479,0.0 121.267056,24.895422,0.0 121.267272,24.89541,0.0 121.26782,24.895274,0.0 121.268054,24.895605,0.0 121.268458,24.895954,0.0 121.26863,24.895972,0.0 121.268732,24.896227,0.0 121.268751,24.896489,0.0 121.268934,24.896894,0.0 121.269033,24.897199,0.0 121.269338,24.897408,0.0 121.26959,24.897613,0.0 121.26985,24.897832,0.0 121.270031,24.897908,0.0 121.270167,24.898147,0.0 121.270205,24.898334,0.0 121.270337,24.898624,0.0 121.270416,24.898808,0.0 121.270289,24.899262,0.0 121.269762,24.900075,0.0 121.271334,24.902144,0.0 121.27136,24.902704,0.0 121.270406,24.902993,0.0 121.270583,24.903203,0.0 121.270698,24.903321,0.0 121.270647,24.903706,0.0 121.270707,24.903935,0.0 121.270901,24.904245,0.0 121.271015,24.904506,0.0 121.271043,24.904829,0.0 121.270978,24.905044,0.0 121.271023,24.905236,0.0 121.27103,24.9054,0.0 121.271102,24.905562,0.0 121.27108,24.90566,0.0 121.270979,24.905828,0.0 121.270801,24.906032,0.0 121.270685,24.906341,0.0 121.270623,24.906552,0.0 121.270524,24.906726,0.0 121.270543,24.906869,0.0 121.27055,24.907164,0.0 121.270643,24.907386,0.0 121.270721,24.907576,0.0 121.271116,24.907977,0.0 121.269725,24.908627,0.0 121.266925,24.909197,0.0 121.267065,24.909508,0.0 121.267352,24.910027,0.0 121.267417,24.9105,0.0 121.267565,24.910715,0.0 121.267711,24.910865,0.0 121.267678,24.911024,0.0 121.267484,24.911343,0.0 121.267078,24.911516,0.0 121.266857,24.911648,0.0 121.266615,24.911935,0.0 121.266566,24.912282,0.0 121.266583,24.912604,0.0 121.266405,24.912768,0.0 121.265838,24.912906,0.0 121.265702,24.913074,0.0 121.265742,24.913248,0.0 121.265899,24.913561,0.0 121.265887,24.913765,0.0 121.26563,24.914151,0.0 121.265599,24.914344,0.0 121.265752,24.914954,0.0 121.265915,24.915114,0.0 121.266193,24.915247,0.0 121.266545,24.915723,0.0 121.266672,24.916065,0.0 121.267018,24.916798,0.0 121.267595,24.917169,0.0 121.268328,24.916996,0.0 121.268913,24.916833,0.0 121.269823,24.916582,0.0 121.270013,24.916565,0.0 121.27007,24.916614,0.0 121.270674,24.916503,0.0 121.271024,24.916896,0.0 121.271744,24.918498,0.0 121.271979,24.919441,0.0 121.271994,24.920391,0.0 121.271694,24.920879,0.0 121.271538,24.9215,0.0 121.271526,24.921769,0.0 121.271895,24.922321,0.0 121.272355,24.922587,0.0 121.272626,24.922591,0.0 121.272903,24.922769,0.0 121.273227,24.922809,0.0 121.273454,24.923124,0.0 121.273806,24.923656,0.0 121.273896,24.924234,0.0 121.274308,24.925125,0.0 121.27521,24.926019,0.0 121.27547,24.926292,0.0 121.276,24.927033,0.0 121.275441,24.928127,0.0 121.274509,24.927686,0.0 121.273458,24.927426,0.0</coordinates></LinearRing></outerBoundaryIs></Polygon><styleUrl>#spolygon-map</styleUrl></Placemark><Placemark><Polygon><outerBoundaryIs><LinearRing><coordinates>121.259884,24.885364,0.0 121.259366,24.886216,0.0 121.259265,24.886666,0.0 121.252768,24.886501,0.0 121.250826,24.885678,0.0 121.250157,24.883776,0.0 121.250825,24.882222,0.0 121.250039,24.879156,0.0 121.249923,24.877563,0.0 121.248963,24.874964,0.0 121.24896,24.872951,0.0 121.248748,24.871008,0.0 121.249,24.870807,0.0 121.248713,24.868663,0.0 121.247426,24.865643,0.0 121.246743,24.863423,0.0 121.246384,24.860852,0.0 121.245765,24.859933,0.0 121.24621,24.859593,0.0 121.247868,24.858297,0.0 121.248673,24.85875,0.0 121.249486,24.859649,0.0 121.250198,24.859345,0.0 121.251167,24.860149,0.0 121.251775,24.860498,0.0 121.252654,24.86012,0.0 121.254171,24.861519,0.0 121.254858,24.862585,0.0 121.255482,24.862939,0.0 121.257536,24.86384,0.0 121.258282,24.864502,0.0 121.260697,24.865209,0.0 121.269114,24.867328,0.0 121.269247,24.867824,0.0 121.269599,24.868283,0.0 121.269202,24.868799,0.0 121.269116,24.869237,0.0 121.269871,24.869749,0.0 121.270171,24.870138,0.0 121.270419,24.870837,0.0 121.271613,24.870063,0.0 121.272221,24.869798,0.0 121.272093,24.869061,0.0 121.276634,24.87253,0.0 121.278137,24.875037,0.0 121.276643,24.876019,0.0 121.275553,24.877369,0.0 121.272551,24.879938,0.0 121.269768,24.880444,0.0 121.26659,24.878906,0.0 121.265088,24.880597,0.0 121.265591,24.881985,0.0 121.265643,24.882621,0.0 121.265069,24.883031,0.0 121.264633,24.883273,0.0 121.264001,24.8835,0.0 121.26294,24.88379,0.0 121.261618,24.884511,0.0 121.26099,24.885182,0.0 121.260455,24.885077,0.0 121.259884,24.885364,0.0</coordinates></LinearRing></outerBoundaryIs></Polygon><styleUrl>#spolygon-map</styleUrl></Placemark><Placemark><Polygon><outerBoundaryIs><LinearRing><coordinates>121.272841,24.889353,0.0 121.272863,24.889766,0.0 121.272958,24.890442,0.0 121.272851,24.890634,0.0 121.272997,24.891006,0.0 121.272232,24.89096,0.0 121.270343,24.889621,0.0 121.270001,24.888516,0.0 121.270229,24.887147,0.0 121.269706,24.885268,0.0 121.268711,24.88415,0.0 121.271933,24.883681,0.0 121.274168,24.883355,0.0 121.27539,24.887,0.0 121.275919,24.889035,0.0 121.274705,24.889152,0.0 121.272841,24.889353,0.0</coordinates></LinearRing></outerBoundaryIs></Polygon><styleUrl>#spolygon-map</styleUrl></Placemark><Placemark><Polygon><outerBoundaryIs><LinearRing><coordinates>121.276012,24.881142,0.0 121.274168,24.883355,0.0 121.271933,24.883681,0.0 121.268711,24.88415,0.0 121.267672,24.883866,0.0 121.266742,24.883116,0.0 121.26571,24.882246,0.0 121.265103,24.880632,0.0 121.266348,24.879098,0.0 121.26896,24.881111,0.0 121.272131,24.88014,0.0 121.2755,24.87736,0.0 121.27566,24.878289,0.0 121.275883,24.878896,0.0 121.275788,24.87921,0.0 121.275738,24.879553,0.0 121.275778,24.880325,0.0 121.275746,24.880616,0.0 121.275866,24.880968,0.0 121.276012,24.881142,0.0</coordinates></LinearRing></outerBoundaryIs></Polygon><styleUrl>#spolygon-map</styleUrl></Placemark><Placemark><Polygon><outerBoundaryIs><LinearRing><coordinates>121.297454,24.888762,0.0 121.296069,24.887737,0.0 121.295731,24.886769,0.0 121.294263,24.885851,0.0 121.28977,24.885178,0.0 121.289084,24.884525,0.0 121.288723,24.883604,0.0 121.28921,24.883636,0.0 121.290316,24.882975,0.0 121.291981,24.881926,0.0 121.294421,24.880339,0.0 121.295529,24.879942,0.0 121.296313,24.880566,0.0 121.29694,24.880908,0.0 121.297087,24.88084,0.0 121.297401,24.880731,0.0 121.297739,24.880768,0.0 121.298347,24.881492,0.0 121.298618,24.882103,0.0 121.298661,24.882651,0.0 121.298647,24.883033,0.0 121.299279,24.883225,0.0 121.300224,24.883201,0.0 121.299971,24.884091,0.0 121.300459,24.884835,0.0 121.300962,24.885881,0.0 121.300842,24.887495,0.0 121.299094,24.888437,0.0 121.29881,24.888486,0.0 121.297782,24.88845,0.0 121.297454,24.888762,0.0</coordinates></LinearRing></outerBoundaryIs></Polygon><styleUrl>#spolygon-map</styleUrl></Placemark><Placemark><Polygon><outerBoundaryIs><LinearRing><coordinates>121.287432,24.898866,0.0 121.287994,24.900278,0.0 121.288154,24.900959,0.0 121.288333,24.902089,0.0 121.28835,24.903317,0.0 121.287954,24.903817,0.0 121.2878,24.904204,0.0 121.287811,24.905361,0.0 121.287685,24.906919,0.0 121.287925,24.90746,0.0 121.289356,24.90887,0.0 121.289613,24.909402,0.0 121.287847,24.908638,0.0 121.286609,24.90788,0.0 121.285785,24.906843,0.0 121.285303,24.905797,0.0 121.284717,24.904371,0.0 121.284226,24.902937,0.0 121.284135,24.902583,0.0 121.283839,24.901238,0.0 121.283818,24.901069,0.0 121.283893,24.900134,0.0 121.283997,24.899601,0.0 121.284333,24.898963,0.0 121.282997,24.898597,0.0 121.28212,24.89863,0.0 121.281687,24.89768,0.0 121.282082,24.896269,0.0 121.281396,24.894022,0.0 121.282448,24.89437,0.0 121.284518,24.894732,0.0 121.285675,24.895337,0.0 121.286436,24.896793,0.0 121.287178,24.898302,0.0 121.287432,24.898866,0.0</coordinates></LinearRing></outerBoundaryIs></Polygon><styleUrl>#spolygon-map</styleUrl></Placemark><Placemark><Polygon><outerBoundaryIs><LinearRing><coordinates>121.278859,24.897325,0.0 121.276538,24.899943,0.0 121.274572,24.901761,0.0 121.272009,24.902567,0.0 121.270621,24.901479,0.0 121.27022,24.899524,0.0 121.270376,24.89902,0.0 121.270415,24.898795,0.0 121.27025,24.898484,0.0 121.270193,24.898297,0.0 121.270162,24.898069,0.0 121.269987,24.897885,0.0 121.26979,24.89779,0.0 121.269547,24.897567,0.0 121.269164,24.897327,0.0 121.268992,24.897076,0.0 121.268915,24.896805,0.0 121.268738,24.896458,0.0 121.268722,24.896194,0.0 121.268596,24.895968,0.0 121.268402,24.895937,0.0 121.267986,24.895532,0.0 121.267687,24.895306,0.0 121.267229,24.895414,0.0 121.26695,24.895446,0.0 121.266572,24.895478,0.0 121.265106,24.893386,0.0 121.264964,24.891574,0.0 121.268388,24.890053,0.0 121.268855,24.890885,0.0 121.269233,24.891496,0.0 121.269596,24.891987,0.0 121.271833,24.892364,0.0 121.272066,24.89234,0.0 121.272314,24.892159,0.0 121.27251,24.891141,0.0 121.272925,24.890907,0.0 121.272849,24.890562,0.0 121.272978,24.89042,0.0 121.273829,24.891334,0.0 121.274056,24.891784,0.0 121.274808,24.892625,0.0 121.275447,24.893264,0.0 121.275744,24.893553,0.0 121.27603,24.89379,0.0 121.276208,24.893811,0.0 121.276445,24.893957,0.0 121.276683,24.894092,0.0 121.276999,24.893958,0.0 121.277225,24.894173,0.0 121.278028,24.894966,0.0 121.279006,24.896146,0.0 121.279862,24.895641,0.0 121.281584,24.89692,0.0 121.281784,24.898357,0.0 121.280548,24.898479,0.0 121.279269,24.897396,0.0 121.278859,24.897325,0.0</coordinates></LinearRing></outerBoundaryIs></Polygon><styleUrl>#spolygon-map</styleUrl></Placemark></Document>
</kml>
