<?xml version="1.0" encoding="UTF-8"?>
<kml xmlns="http://www.opengis.net/kml/2.2">
	<Document>
		<name>臺中市大雅區</name>
		<Style id="spolygon">
			<LabelStyle>
				<scale>0.0</scale>
			</LabelStyle>
			<LineStyle>
				<color>330030ff</color>
				<width>0</width>
			</LineStyle>
			<PolyStyle>
				<color>330030ff</color>
			</PolyStyle>
		</Style>
		<StyleMap id="spolygon-map">
			<Pair>
				<key>normal</key>
				<styleUrl>#spolygon</styleUrl>
			</Pair>
		</StyleMap>
	<Placemark><Polygon><outerBoundaryIs><LinearRing><coordinates>120.655097,24.224246,0.0 120.653585,24.223925,0.0 120.652757,24.223154,0.0 120.652091,24.223219,0.0 120.649904,24.222955,0.0 120.648803,24.221368,0.0 120.648756,24.218985,0.0 120.651109,24.219146,0.0 120.654795,24.219052,0.0 120.655686,24.218982,0.0 120.656286,24.219,0.0 120.657263,24.219019,0.0 120.658367,24.219004,0.0 120.659516,24.218925,0.0 120.659983,24.219601,0.0 120.66048,24.221313,0.0 120.660725,24.222256,0.0 120.661025,24.22395,0.0 120.661702,24.226854,0.0 120.661817,24.229792,0.0 120.661542,24.229355,0.0 120.660753,24.228995,0.0 120.659865,24.228521,0.0 120.659189,24.228639,0.0 120.659392,24.227451,0.0 120.659273,24.227282,0.0 120.658442,24.226935,0.0 120.658367,24.226323,0.0 120.658008,24.225788,0.0 120.658014,24.225129,0.0 120.657367,24.224562,0.0 120.655844,24.224649,0.0 120.655097,24.224246,0.0</coordinates></LinearRing></outerBoundaryIs></Polygon><styleUrl>#spolygon-map</styleUrl></Placemark><Placemark><Polygon><outerBoundaryIs><LinearRing><coordinates>120.668863,24.221228,0.0 120.660635,24.221788,0.0 120.660007,24.220032,0.0 120.659699,24.219106,0.0 120.659116,24.218907,0.0 120.657891,24.218957,0.0 120.65673,24.218972,0.0 120.65583,24.21894,0.0 120.655334,24.21829,0.0 120.655153,24.21758,0.0 120.654971,24.216936,0.0 120.654901,24.216196,0.0 120.654654,24.215366,0.0 120.654349,24.214187,0.0 120.653999,24.212388,0.0 120.654186,24.211432,0.0 120.65438,24.209947,0.0 120.654237,24.209292,0.0 120.654259,24.20873,0.0 120.655061,24.208217,0.0 120.655653,24.208056,0.0 120.656574,24.208643,0.0 120.658358,24.207907,0.0 120.659249,24.207236,0.0 120.659766,24.207167,0.0 120.660393,24.207153,0.0 120.66157,24.207106,0.0 120.662726,24.20707,0.0 120.664146,24.207136,0.0 120.664726,24.207148,0.0 120.665222,24.208519,0.0 120.665875,24.209732,0.0 120.666346,24.210712,0.0 120.667283,24.211759,0.0 120.668127,24.212982,0.0 120.668235,24.213793,0.0 120.668394,24.215024,0.0 120.668679,24.215957,0.0 120.667595,24.215714,0.0 120.668654,24.219921,0.0 120.668868,24.221069,0.0 120.668863,24.221228,0.0</coordinates></LinearRing></outerBoundaryIs></Polygon><styleUrl>#spolygon-map</styleUrl></Placemark><Placemark><Polygon><outerBoundaryIs><LinearRing><coordinates>120.655924,24.228613,0.0 120.654354,24.229348,0.0 120.652328,24.229415,0.0 120.651297,24.230169,0.0 120.650151,24.23052,0.0 120.648879,24.230768,0.0 120.64857,24.230929,0.0 120.648402,24.231188,0.0 120.647527,24.231343,0.0 120.647286,24.230093,0.0 120.646816,24.229249,0.0 120.646145,24.22848,0.0 120.644801,24.226496,0.0 120.650777,24.227456,0.0 120.65334,24.2255,0.0 120.653589,24.224313,0.0 120.65425,24.224111,0.0 120.654966,24.225667,0.0 120.655709,24.227183,0.0 120.655889,24.22832,0.0 120.655924,24.228613,0.0</coordinates></LinearRing></outerBoundaryIs></Polygon><styleUrl>#spolygon-map</styleUrl></Placemark><Placemark><Polygon><outerBoundaryIs><LinearRing><coordinates>120.674555,24.235639,0.0 120.668627,24.231824,0.0 120.664216,24.230684,0.0 120.661912,24.227951,0.0 120.661602,24.22654,0.0 120.660793,24.222745,0.0 120.660635,24.221788,0.0 120.668863,24.221228,0.0 120.669541,24.223228,0.0 120.670281,24.225362,0.0 120.671162,24.227672,0.0 120.671997,24.228928,0.0 120.673005,24.230544,0.0 120.673699,24.23128,0.0 120.674688,24.232144,0.0 120.675325,24.232497,0.0 120.675654,24.233134,0.0 120.675314,24.233282,0.0 120.67497,24.233365,0.0 120.674788,24.23322,0.0 120.6747,24.233098,0.0 120.674515,24.233414,0.0 120.674475,24.233696,0.0 120.674541,24.233983,0.0 120.674268,24.234373,0.0 120.674327,24.23466,0.0 120.674558,24.234683,0.0 120.674694,24.234667,0.0 120.674718,24.235089,0.0 120.674546,24.235509,0.0 120.674555,24.235639,0.0</coordinates></LinearRing></outerBoundaryIs></Polygon><styleUrl>#spolygon-map</styleUrl></Placemark><Placemark><Polygon><outerBoundaryIs><LinearRing><coordinates>120.645258,24.225556,0.0 120.64829,24.219813,0.0 120.648803,24.221216,0.0 120.649712,24.222968,0.0 120.651608,24.223043,0.0 120.652547,24.223103,0.0 120.653375,24.223816,0.0 120.653514,24.225099,0.0 120.652525,24.226786,0.0 120.645258,24.225556,0.0</coordinates></LinearRing></outerBoundaryIs></Polygon><styleUrl>#spolygon-map</styleUrl></Placemark><Placemark><Polygon><outerBoundaryIs><LinearRing><coordinates>120.669417,24.245619,0.0 120.669144,24.244892,0.0 120.668693,24.2444,0.0 120.668261,24.243995,0.0 120.667778,24.244003,0.0 120.667241,24.243675,0.0 120.665902,24.24292,0.0 120.66567,24.24242,0.0 120.665057,24.241761,0.0 120.664045,24.241474,0.0 120.663426,24.24103,0.0 120.66163,24.241076,0.0 120.660728,24.240614,0.0 120.660283,24.23986,0.0 120.659929,24.239333,0.0 120.659878,24.237861,0.0 120.660582,24.237486,0.0 120.660994,24.23676,0.0 120.659638,24.235728,0.0 120.659195,24.234331,0.0 120.660284,24.231645,0.0 120.662493,24.231708,0.0 120.670158,24.232718,0.0 120.67457,24.235814,0.0 120.674524,24.236087,0.0 120.674267,24.236339,0.0 120.674277,24.236655,0.0 120.674483,24.236854,0.0 120.674438,24.237159,0.0 120.67434,24.237504,0.0 120.674568,24.237628,0.0 120.674777,24.237828,0.0 120.67462,24.238042,0.0 120.674563,24.238163,0.0 120.674659,24.23838,0.0 120.674875,24.238555,0.0 120.674833,24.2387,0.0 120.674669,24.238954,0.0 120.674729,24.23915,0.0 120.675073,24.239438,0.0 120.675302,24.239736,0.0 120.675543,24.239633,0.0 120.675926,24.239604,0.0 120.675975,24.239807,0.0 120.675907,24.239986,0.0 120.676083,24.24016,0.0 120.676018,24.240347,0.0 120.67578,24.24052,0.0 120.675725,24.240857,0.0 120.675622,24.240795,0.0 120.675061,24.241419,0.0 120.674612,24.241811,0.0 120.674546,24.241915,0.0 120.675116,24.242914,0.0 120.673003,24.244083,0.0 120.669499,24.245593,0.0 120.669417,24.245619,0.0</coordinates></LinearRing></outerBoundaryIs></Polygon><styleUrl>#spolygon-map</styleUrl></Placemark><Placemark><Polygon><outerBoundaryIs><LinearRing><coordinates>120.64406,24.243167,0.0 120.643302,24.243276,0.0 120.641935,24.243488,0.0 120.640934,24.243801,0.0 120.640646,24.243992,0.0 120.640072,24.244101,0.0 120.639214,24.244307,0.0 120.63951,24.245057,0.0 120.639869,24.245762,0.0 120.640862,24.246896,0.0 120.641619,24.247789,0.0 120.642022,24.248266,0.0 120.641122,24.248819,0.0 120.639592,24.250394,0.0 120.637959,24.252065,0.0 120.637465,24.254068,0.0 120.63654,24.2567,0.0 120.635553,24.258772,0.0 120.633148,24.259267,0.0 120.629179,24.256411,0.0 120.625615,24.2534,0.0 120.623991,24.250521,0.0 120.623606,24.248285,0.0 120.623513,24.245804,0.0 120.624087,24.245327,0.0 120.624252,24.244736,0.0 120.623871,24.244051,0.0 120.622854,24.242369,0.0 120.622577,24.241779,0.0 120.623136,24.240541,0.0 120.623534,24.240014,0.0 120.623366,24.239551,0.0 120.623088,24.237916,0.0 120.623194,24.237725,0.0 120.625337,24.236482,0.0 120.625713,24.235992,0.0 120.626068,24.235538,0.0 120.626664,24.234936,0.0 120.627121,24.234238,0.0 120.629102,24.233465,0.0 120.630572,24.232816,0.0 120.633684,24.231695,0.0 120.635018,24.231084,0.0 120.636313,24.23102,0.0 120.637278,24.231499,0.0 120.639234,24.233226,0.0 120.641491,24.235554,0.0 120.641688,24.23729,0.0 120.642395,24.237983,0.0 120.642613,24.238351,0.0 120.643496,24.239727,0.0 120.643632,24.240166,0.0 120.643392,24.240951,0.0 120.643364,24.241459,0.0 120.643872,24.242624,0.0 120.644067,24.242949,0.0 120.64406,24.243167,0.0</coordinates></LinearRing></outerBoundaryIs></Polygon><styleUrl>#spolygon-map</styleUrl></Placemark><Placemark><Polygon><outerBoundaryIs><LinearRing><coordinates>120.643072,24.227923,0.0 120.642436,24.227459,0.0 120.64176,24.226368,0.0 120.641729,24.225233,0.0 120.641962,24.223947,0.0 120.642612,24.222672,0.0 120.641538,24.221986,0.0 120.640614,24.221154,0.0 120.640738,24.219472,0.0 120.640923,24.21855,0.0 120.639899,24.216468,0.0 120.641084,24.212448,0.0 120.641812,24.212604,0.0 120.643273,24.212929,0.0 120.644305,24.213432,0.0 120.64515,24.214488,0.0 120.646196,24.21536,0.0 120.647005,24.216415,0.0 120.647887,24.217379,0.0 120.647884,24.21829,0.0 120.647836,24.219251,0.0 120.646987,24.221861,0.0 120.64461,24.226428,0.0 120.643072,24.227923,0.0</coordinates></LinearRing></outerBoundaryIs></Polygon><styleUrl>#spolygon-map</styleUrl></Placemark><Placemark><Polygon><outerBoundaryIs><LinearRing><coordinates>120.648549,24.220101,0.0 120.647972,24.219494,0.0 120.647774,24.218566,0.0 120.647959,24.217546,0.0 120.647223,24.21665,0.0 120.646351,24.215494,0.0 120.645414,24.214864,0.0 120.644505,24.21365,0.0 120.643963,24.213035,0.0 120.642974,24.211168,0.0 120.643059,24.210073,0.0 120.647585,24.206531,0.0 120.647977,24.206808,0.0 120.648356,24.20708,0.0 120.648661,24.207198,0.0 120.649038,24.207576,0.0 120.649564,24.208036,0.0 120.649841,24.208305,0.0 120.65014,24.208567,0.0 120.650741,24.209149,0.0 120.651276,24.209651,0.0 120.651768,24.20986,0.0 120.652031,24.209754,0.0 120.6531,24.209556,0.0 120.65401,24.209136,0.0 120.654092,24.208784,0.0 120.654463,24.20846,0.0 120.654127,24.208967,0.0 120.654289,24.209647,0.0 120.654332,24.210474,0.0 120.654033,24.212069,0.0 120.65409,24.212962,0.0 120.654504,24.214837,0.0 120.654895,24.215793,0.0 120.654965,24.216557,0.0 120.655048,24.217315,0.0 120.655197,24.218001,0.0 120.655654,24.218868,0.0 120.655601,24.219054,0.0 120.652303,24.219116,0.0 120.650107,24.218982,0.0 120.648549,24.220101,0.0</coordinates></LinearRing></outerBoundaryIs></Polygon><styleUrl>#spolygon-map</styleUrl></Placemark><Placemark><Polygon><outerBoundaryIs><LinearRing><coordinates>120.675778,24.233137,0.0 120.675152,24.232396,0.0 120.674178,24.231742,0.0 120.67346,24.231063,0.0 120.672488,24.229723,0.0 120.671516,24.228313,0.0 120.670799,24.226952,0.0 120.669717,24.223413,0.0 120.66917,24.221961,0.0 120.668819,24.220633,0.0 120.668358,24.218928,0.0 120.667763,24.215782,0.0 120.668598,24.21579,0.0 120.668432,24.214889,0.0 120.668217,24.213567,0.0 120.668028,24.212772,0.0 120.666856,24.211206,0.0 120.666156,24.210452,0.0 120.665657,24.209414,0.0 120.665013,24.208133,0.0 120.664802,24.207147,0.0 120.66468,24.206158,0.0 120.664613,24.205546,0.0 120.664655,24.20488,0.0 120.664722,24.204318,0.0 120.664992,24.203716,0.0 120.665036,24.203405,0.0 120.664839,24.202964,0.0 120.664596,24.202501,0.0 120.664569,24.202056,0.0 120.664459,24.201568,0.0 120.665326,24.201784,0.0 120.666197,24.202087,0.0 120.667291,24.202204,0.0 120.668322,24.202859,0.0 120.668883,24.203314,0.0 120.6693,24.203482,0.0 120.669689,24.203636,0.0 120.670221,24.204762,0.0 120.670459,24.205769,0.0 120.670622,24.206517,0.0 120.670629,24.207616,0.0 120.670841,24.208111,0.0 120.671399,24.20869,0.0 120.671829,24.208571,0.0 120.672734,24.208487,0.0 120.673753,24.208492,0.0 120.674179,24.208585,0.0 120.674524,24.209003,0.0 120.67492,24.209589,0.0 120.675225,24.21005,0.0 120.675703,24.210496,0.0 120.676398,24.211059,0.0 120.676704,24.211369,0.0 120.677465,24.21303,0.0 120.677622,24.213771,0.0 120.677705,24.21406,0.0 120.677919,24.214792,0.0 120.678279,24.216068,0.0 120.678617,24.217281,0.0 120.678594,24.217579,0.0 120.677272,24.217585,0.0 120.675959,24.217638,0.0 120.674951,24.217733,0.0 120.674549,24.218471,0.0 120.673561,24.218466,0.0 120.673061,24.218465,0.0 120.673412,24.220213,0.0 120.673813,24.221896,0.0 120.674095,24.222641,0.0 120.674603,24.223164,0.0 120.675233,24.223368,0.0 120.676106,24.223591,0.0 120.676649,24.223908,0.0 120.67722,24.224736,0.0 120.677822,24.226089,0.0 120.677919,24.226697,0.0 120.677845,24.227715,0.0 120.677636,24.228901,0.0 120.67773,24.229509,0.0 120.677966,24.229916,0.0 120.678397,24.230156,0.0 120.679291,24.230167,0.0 120.680132,24.230092,0.0 120.680335,24.230198,0.0 120.68085,24.231375,0.0 120.68148,24.232244,0.0 120.682551,24.233738,0.0 120.682681,24.234059,0.0 120.681961,24.234141,0.0 120.681441,24.23402,0.0 120.681057,24.233703,0.0 120.680883,24.233628,0.0 120.680461,24.235826,0.0 120.680472,24.236099,0.0 120.680683,24.23651,0.0 120.681013,24.237441,0.0 120.681188,24.237945,0.0 120.68138,24.238216,0.0 120.682027,24.239139,0.0 120.682372,24.239661,0.0 120.682326,24.239731,0.0 120.682,24.239534,0.0 120.681741,24.239287,0.0 120.681213,24.238627,0.0 120.680983,24.238326,0.0 120.680612,24.238285,0.0 120.68023,24.23832,0.0 120.67952,24.23821,0.0 120.67913,24.238074,0.0 120.679008,24.237909,0.0 120.678918,24.237717,0.0 120.678701,24.237728,0.0 120.678514,24.237571,0.0 120.678368,24.237379,0.0 120.678326,24.236878,0.0 120.678181,24.236514,0.0 120.677884,24.236387,0.0 120.677533,24.236041,0.0 120.677378,24.235716,0.0 120.6773,24.235311,0.0 120.677135,24.23486,0.0 120.676672,24.23413,0.0 120.676166,24.233481,0.0 120.675848,24.233175,0.0 120.675778,24.233137,0.0</coordinates></LinearRing></outerBoundaryIs></Polygon><styleUrl>#spolygon-map</styleUrl></Placemark><Placemark><Polygon><outerBoundaryIs><LinearRing><coordinates>120.625964,24.235698,0.0 120.623038,24.22741,0.0 120.622267,24.226121,0.0 120.621917,24.224364,0.0 120.621091,24.222972,0.0 120.620033,24.221434,0.0 120.620271,24.220291,0.0 120.620888,24.219271,0.0 120.62201,24.219051,0.0 120.622499,24.219251,0.0 120.623119,24.219161,0.0 120.623612,24.219003,0.0 120.624101,24.217944,0.0 120.62468,24.217259,0.0 120.626767,24.216933,0.0 120.627331,24.21653,0.0 120.6276,24.216382,0.0 120.628147,24.215536,0.0 120.628143,24.215239,0.0 120.627846,24.215028,0.0 120.627938,24.214653,0.0 120.627884,24.21415,0.0 120.627902,24.213417,0.0 120.628893,24.213368,0.0 120.629601,24.213143,0.0 120.630153,24.213038,0.0 120.630581,24.21316,0.0 120.630708,24.213519,0.0 120.630833,24.214249,0.0 120.630835,24.214686,0.0 120.631093,24.215144,0.0 120.631422,24.215321,0.0 120.632463,24.216123,0.0 120.633384,24.216814,0.0 120.634059,24.217201,0.0 120.634398,24.217403,0.0 120.635708,24.219188,0.0 120.636087,24.219442,0.0 120.636686,24.219645,0.0 120.640738,24.219472,0.0 120.640614,24.221154,0.0 120.641538,24.221986,0.0 120.642612,24.222672,0.0 120.641962,24.223947,0.0 120.641729,24.225233,0.0 120.64176,24.226368,0.0 120.642436,24.227459,0.0 120.643072,24.227923,0.0 120.639592,24.231163,0.0 120.636878,24.231204,0.0 120.636003,24.230969,0.0 120.634825,24.231092,0.0 120.63291,24.23206,0.0 120.630042,24.23299,0.0 120.62821,24.233604,0.0 120.626956,24.234371,0.0 120.62649,24.235187,0.0 120.625964,24.235698,0.0</coordinates></LinearRing></outerBoundaryIs></Polygon><styleUrl>#spolygon-map</styleUrl></Placemark><Placemark><Polygon><outerBoundaryIs><LinearRing><coordinates>120.608289,24.238286,0.0 120.60579,24.239229,0.0 120.605596,24.239057,0.0 120.605411,24.238603,0.0 120.605196,24.238234,0.0 120.605055,24.238139,0.0 120.604736,24.23721,0.0 120.604465,24.236521,0.0 120.604179,24.235854,0.0 120.60367,24.234693,0.0 120.603347,24.233828,0.0 120.60321,24.232692,0.0 120.603254,24.232263,0.0 120.603261,24.2319,0.0 120.602849,24.23068,0.0 120.602854,24.230217,0.0 120.602279,24.228353,0.0 120.601393,24.226929,0.0 120.601173,24.226551,0.0 120.601011,24.22625,0.0 120.600672,24.225818,0.0 120.600053,24.224943,0.0 120.599823,24.224396,0.0 120.599742,24.224015,0.0 120.599593,24.223114,0.0 120.599539,24.222432,0.0 120.59985,24.222148,0.0 120.60057,24.221974,0.0 120.601829,24.221902,0.0 120.602657,24.222256,0.0 120.603467,24.222935,0.0 120.604497,24.222946,0.0 120.60582,24.22269,0.0 120.606568,24.222466,0.0 120.607809,24.222386,0.0 120.609935,24.221773,0.0 120.610702,24.221348,0.0 120.611907,24.220841,0.0 120.613029,24.220811,0.0 120.613741,24.220419,0.0 120.614436,24.219694,0.0 120.615239,24.219445,0.0 120.615511,24.220156,0.0 120.616349,24.220217,0.0 120.616988,24.220093,0.0 120.617963,24.220229,0.0 120.618537,24.220406,0.0 120.619922,24.221649,0.0 120.621518,24.223477,0.0 120.622016,24.224732,0.0 120.622367,24.226347,0.0 120.623111,24.227578,0.0 120.625871,24.235858,0.0 120.625426,24.236394,0.0 120.623502,24.237578,0.0 120.623118,24.237773,0.0 120.622224,24.238747,0.0 120.616684,24.235717,0.0 120.61547,24.236017,0.0 120.613511,24.236639,0.0 120.611815,24.237344,0.0 120.61045,24.2382,0.0 120.610218,24.23782,0.0 120.608289,24.238286,0.0</coordinates></LinearRing></outerBoundaryIs></Polygon><styleUrl>#spolygon-map</styleUrl></Placemark><Placemark><Polygon><outerBoundaryIs><LinearRing><coordinates>120.652756,24.251059,0.0 120.651919,24.250255,0.0 120.65124,24.249191,0.0 120.649944,24.248206,0.0 120.649115,24.247556,0.0 120.648248,24.246958,0.0 120.647963,24.246662,0.0 120.648114,24.246418,0.0 120.647849,24.246499,0.0 120.647583,24.246588,0.0 120.647113,24.246165,0.0 120.646611,24.245552,0.0 120.646254,24.245301,0.0 120.645776,24.24507,0.0 120.645772,24.244668,0.0 120.645692,24.2443,0.0 120.645023,24.243838,0.0 120.644692,24.243683,0.0 120.644207,24.243321,0.0 120.644071,24.243043,0.0 120.643981,24.242767,0.0 120.6434,24.241595,0.0 120.643372,24.241039,0.0 120.643638,24.240296,0.0 120.643552,24.239839,0.0 120.642702,24.238539,0.0 120.64245,24.238056,0.0 120.641823,24.23745,0.0 120.641888,24.23605,0.0 120.640116,24.234131,0.0 120.639592,24.231163,0.0 120.643072,24.227923,0.0 120.64461,24.226428,0.0 120.645801,24.227652,0.0 120.646597,24.22913,0.0 120.647223,24.2298,0.0 120.64751,24.231323,0.0 120.647797,24.231316,0.0 120.648519,24.231087,0.0 120.648786,24.230812,0.0 120.649524,24.23064,0.0 120.65096,24.230277,0.0 120.652147,24.229677,0.0 120.654299,24.229423,0.0 120.655372,24.228942,0.0 120.655925,24.229683,0.0 120.656595,24.231181,0.0 120.657185,24.232161,0.0 120.658213,24.233091,0.0 120.659584,24.235561,0.0 120.660967,24.236668,0.0 120.660719,24.237378,0.0 120.659933,24.237727,0.0 120.659676,24.238412,0.0 120.660174,24.239735,0.0 120.660474,24.240387,0.0 120.66152,24.24105,0.0 120.662825,24.24102,0.0 120.664014,24.241321,0.0 120.664719,24.241751,0.0 120.665575,24.242238,0.0 120.665738,24.242786,0.0 120.66704,24.243625,0.0 120.66766,24.243944,0.0 120.668115,24.244003,0.0 120.668556,24.244316,0.0 120.669071,24.244683,0.0 120.669405,24.245622,0.0 120.669275,24.245588,0.0 120.669228,24.245348,0.0 120.669124,24.245086,0.0 120.668987,24.244856,0.0 120.662776,24.24749,0.0 120.662467,24.247518,0.0 120.662222,24.2474,0.0 120.660627,24.247991,0.0 120.659981,24.24821,0.0 120.655152,24.250394,0.0 120.652756,24.251059,0.0</coordinates></LinearRing></outerBoundaryIs></Polygon><styleUrl>#spolygon-map</styleUrl></Placemark><Placemark><Polygon><outerBoundaryIs><LinearRing><coordinates>120.662428,24.231382,0.0 120.657609,24.232529,0.0 120.656685,24.231608,0.0 120.656187,24.230327,0.0 120.655924,24.228864,0.0 120.655818,24.227651,0.0 120.655264,24.22668,0.0 120.654968,24.22479,0.0 120.655534,24.224573,0.0 120.657111,24.224544,0.0 120.657948,24.225028,0.0 120.658055,24.225506,0.0 120.658313,24.22626,0.0 120.658335,24.226682,0.0 120.65884,24.227288,0.0 120.659392,24.227324,0.0 120.659189,24.228583,0.0 120.659826,24.228521,0.0 120.6606,24.229022,0.0 120.661167,24.229298,0.0 120.661764,24.229707,0.0 120.663955,24.230306,0.0 120.662428,24.231382,0.0</coordinates></LinearRing></outerBoundaryIs></Polygon><styleUrl>#spolygon-map</styleUrl></Placemark><Placemark><Polygon><outerBoundaryIs><LinearRing><coordinates>120.599567,24.222266,0.0 120.598879,24.220087,0.0 120.597229,24.215911,0.0 120.596324,24.214156,0.0 120.597692,24.213995,0.0 120.59851,24.214431,0.0 120.600973,24.214708,0.0 120.600694,24.213446,0.0 120.601808,24.212984,0.0 120.603446,24.212365,0.0 120.605674,24.211876,0.0 120.607123,24.211575,0.0 120.609224,24.211341,0.0 120.610138,24.211235,0.0 120.61087,24.210756,0.0 120.611912,24.210497,0.0 120.612833,24.210506,0.0 120.613245,24.210395,0.0 120.613687,24.210342,0.0 120.61402,24.210351,0.0 120.6143,24.210422,0.0 120.614881,24.209904,0.0 120.615405,24.209707,0.0 120.615831,24.209656,0.0 120.616175,24.209583,0.0 120.616655,24.209498,0.0 120.616938,24.209417,0.0 120.61751,24.20918,0.0 120.617948,24.209111,0.0 120.618402,24.209044,0.0 120.619012,24.208894,0.0 120.619356,24.208816,0.0 120.619687,24.20877,0.0 120.620163,24.208739,0.0 120.620636,24.2087,0.0 120.620881,24.208768,0.0 120.621048,24.208742,0.0 120.621611,24.208524,0.0 120.622121,24.208288,0.0 120.622783,24.207926,0.0 120.623109,24.207814,0.0 120.623971,24.207397,0.0 120.62418,24.207591,0.0 120.624541,24.207579,0.0 120.625526,24.207159,0.0 120.629057,24.206019,0.0 120.633154,24.204726,0.0 120.633509,24.204578,0.0 120.633767,24.204515,0.0 120.634069,24.204451,0.0 120.635379,24.204005,0.0 120.635715,24.203902,0.0 120.635644,24.20336,0.0 120.635601,24.202705,0.0 120.635762,24.202195,0.0 120.636209,24.201961,0.0 120.636726,24.201805,0.0 120.637048,24.202065,0.0 120.637199,24.202668,0.0 120.637562,24.203364,0.0 120.637731,24.203638,0.0 120.637932,24.203659,0.0 120.638214,24.203666,0.0 120.638492,24.203511,0.0 120.638738,24.203417,0.0 120.638915,24.203471,0.0 120.639005,24.203957,0.0 120.639012,24.204372,0.0 120.639648,24.204024,0.0 120.640816,24.20347,0.0 120.641321,24.203269,0.0 120.641782,24.203492,0.0 120.642051,24.203901,0.0 120.6423,24.204554,0.0 120.643505,24.204491,0.0 120.644656,24.204004,0.0 120.645347,24.203931,0.0 120.645912,24.204199,0.0 120.64615,24.204574,0.0 120.646416,24.20494,0.0 120.646723,24.205259,0.0 120.646982,24.205781,0.0 120.647211,24.20624,0.0 120.645169,24.208619,0.0 120.642977,24.210131,0.0 120.643373,24.21188,0.0 120.644035,24.213205,0.0 120.64245,24.212747,0.0 120.641608,24.212396,0.0 120.63959,24.214669,0.0 120.640122,24.216937,0.0 120.642959,24.219889,0.0 120.636686,24.219645,0.0 120.636087,24.219442,0.0 120.635708,24.219188,0.0 120.634398,24.217403,0.0 120.634059,24.217201,0.0 120.633384,24.216814,0.0 120.632463,24.216123,0.0 120.631422,24.215321,0.0 120.631093,24.215144,0.0 120.630835,24.214686,0.0 120.630833,24.214249,0.0 120.630708,24.213519,0.0 120.630581,24.21316,0.0 120.630153,24.213038,0.0 120.629601,24.213143,0.0 120.628893,24.213368,0.0 120.627902,24.213417,0.0 120.627884,24.21415,0.0 120.627938,24.214653,0.0 120.627846,24.215028,0.0 120.628143,24.215239,0.0 120.628147,24.215536,0.0 120.6276,24.216382,0.0 120.627331,24.21653,0.0 120.626767,24.216933,0.0 120.62468,24.217259,0.0 120.624101,24.217944,0.0 120.623612,24.219003,0.0 120.623119,24.219161,0.0 120.622499,24.219251,0.0 120.62201,24.219051,0.0 120.620888,24.219271,0.0 120.620271,24.220291,0.0 120.620033,24.221434,0.0 120.618667,24.220462,0.0 120.618091,24.220171,0.0 120.617379,24.220345,0.0 120.61655,24.220092,0.0 120.615684,24.22024,0.0 120.615294,24.219545,0.0 120.614546,24.219627,0.0 120.613878,24.220286,0.0 120.613165,24.220786,0.0 120.612172,24.220808,0.0 120.610939,24.221223,0.0 120.610282,24.221682,0.0 120.608046,24.222336,0.0 120.606778,24.222459,0.0 120.606002,24.222674,0.0 120.604643,24.222854,0.0 120.603667,24.222986,0.0 120.602803,24.222398,0.0 120.602029,24.221928,0.0 120.600817,24.221916,0.0 120.600032,24.222132,0.0 120.599567,24.222266,0.0</coordinates></LinearRing></outerBoundaryIs></Polygon><styleUrl>#spolygon-map</styleUrl></Placemark></Document>
</kml>
