<?xml version="1.0" encoding="UTF-8"?>
<kml xmlns="http://www.opengis.net/kml/2.2">
	<Document>
		<name>臺中市神岡區</name>
		<Style id="spolygon">
			<LabelStyle>
				<scale>0.0</scale>
			</LabelStyle>
			<LineStyle>
				<color>330030ff</color>
				<width>0</width>
			</LineStyle>
			<PolyStyle>
				<color>330030ff</color>
			</PolyStyle>
		</Style>
		<StyleMap id="spolygon-map">
			<Pair>
				<key>normal</key>
				<styleUrl>#spolygon</styleUrl>
			</Pair>
		</StyleMap>
	<Placemark><Polygon><outerBoundaryIs><LinearRing><coordinates>120.704046,24.254938,0.0 120.70377,24.254829,0.0 120.702854,24.255265,0.0 120.70215,24.255487,0.0 120.7008,24.25622,0.0 120.699731,24.256164,0.0 120.69919,24.256248,0.0 120.698963,24.256847,0.0 120.698377,24.258009,0.0 120.697679,24.258589,0.0 120.696956,24.25694,0.0 120.696949,24.256062,0.0 120.696763,24.255302,0.0 120.696597,24.254205,0.0 120.696128,24.251997,0.0 120.69728,24.250929,0.0 120.698403,24.250488,0.0 120.699507,24.250382,0.0 120.700166,24.250464,0.0 120.700679,24.250742,0.0 120.701072,24.250978,0.0 120.701439,24.251848,0.0 120.701544,24.252218,0.0 120.701859,24.252418,0.0 120.702121,24.252906,0.0 120.702402,24.253152,0.0 120.702698,24.253334,0.0 120.702783,24.253485,0.0 120.702898,24.253494,0.0 120.703057,24.253544,0.0 120.703284,24.25403,0.0 120.703693,24.254464,0.0 120.704,24.254641,0.0 120.7041,24.25479,0.0 120.704053,24.25491,0.0 120.704046,24.254938,0.0</coordinates></LinearRing></outerBoundaryIs></Polygon><styleUrl>#spolygon-map</styleUrl></Placemark><Placemark><Polygon><outerBoundaryIs><LinearRing><coordinates>120.641569,24.265965,0.0 120.639836,24.263279,0.0 120.635802,24.262199,0.0 120.631891,24.26221,0.0 120.630707,24.261925,0.0 120.63174,24.2606,0.0 120.634985,24.259168,0.0 120.63604,24.257839,0.0 120.63705,24.255575,0.0 120.637718,24.252737,0.0 120.638724,24.251234,0.0 120.640536,24.249692,0.0 120.641463,24.248459,0.0 120.641888,24.248164,0.0 120.641238,24.247314,0.0 120.640203,24.246174,0.0 120.639637,24.245403,0.0 120.639274,24.244445,0.0 120.639629,24.244209,0.0 120.640471,24.244059,0.0 120.640785,24.243877,0.0 120.641322,24.243657,0.0 120.642728,24.243363,0.0 120.643892,24.243158,0.0 120.644122,24.243224,0.0 120.64458,24.243597,0.0 120.644934,24.243792,0.0 120.645624,24.244218,0.0 120.645756,24.244523,0.0 120.64574,24.244997,0.0 120.646075,24.245233,0.0 120.646554,24.245498,0.0 120.646943,24.24595,0.0 120.647523,24.246573,0.0 120.647787,24.246548,0.0 120.648069,24.246364,0.0 120.648013,24.246587,0.0 120.648147,24.246901,0.0 120.648768,24.247314,0.0 120.649741,24.247993,0.0 120.651009,24.248939,0.0 120.651836,24.250149,0.0 120.65267,24.25098,0.0 120.652838,24.252095,0.0 120.653273,24.253057,0.0 120.654128,24.253945,0.0 120.655026,24.255236,0.0 120.654053,24.255034,0.0 120.652334,24.255807,0.0 120.651625,24.256647,0.0 120.650893,24.25733,0.0 120.650234,24.257582,0.0 120.649242,24.258071,0.0 120.648194,24.258217,0.0 120.647447,24.258372,0.0 120.647771,24.258812,0.0 120.64741,24.260817,0.0 120.644368,24.262977,0.0 120.642214,24.264328,0.0 120.641694,24.264873,0.0 120.642119,24.265587,0.0 120.641569,24.265965,0.0</coordinates></LinearRing></outerBoundaryIs></Polygon><styleUrl>#spolygon-map</styleUrl></Placemark><Placemark><Polygon><outerBoundaryIs><LinearRing><coordinates>120.662628,24.263248,0.0 120.662762,24.258034,0.0 120.664845,24.254544,0.0 120.667837,24.253487,0.0 120.667959,24.252775,0.0 120.669292,24.25218,0.0 120.668807,24.25086,0.0 120.668706,24.250179,0.0 120.668654,24.249064,0.0 120.669064,24.248845,0.0 120.670182,24.249271,0.0 120.670735,24.249851,0.0 120.671347,24.250646,0.0 120.671655,24.250766,0.0 120.671771,24.251428,0.0 120.672038,24.25181,0.0 120.672263,24.252385,0.0 120.672956,24.252467,0.0 120.674025,24.252783,0.0 120.674927,24.252988,0.0 120.675442,24.253676,0.0 120.67617,24.254191,0.0 120.677524,24.254373,0.0 120.677927,24.254971,0.0 120.678656,24.255056,0.0 120.67954,24.256061,0.0 120.67958,24.257382,0.0 120.677772,24.25834,0.0 120.677222,24.259333,0.0 120.676509,24.2599,0.0 120.676007,24.259933,0.0 120.675398,24.259263,0.0 120.674723,24.259144,0.0 120.673685,24.258548,0.0 120.672546,24.258253,0.0 120.671058,24.258802,0.0 120.666066,24.26012,0.0 120.664852,24.260511,0.0 120.664831,24.261322,0.0 120.663791,24.263072,0.0 120.662628,24.263248,0.0</coordinates></LinearRing></outerBoundaryIs></Polygon><styleUrl>#spolygon-map</styleUrl></Placemark><Placemark><Polygon><outerBoundaryIs><LinearRing><coordinates>120.672314,24.287904,0.0 120.668695,24.288992,0.0 120.665359,24.28873,0.0 120.662984,24.283185,0.0 120.663198,24.280644,0.0 120.662026,24.278505,0.0 120.662,24.278234,0.0 120.662373,24.277918,0.0 120.662023,24.276785,0.0 120.663205,24.274956,0.0 120.664141,24.273745,0.0 120.662535,24.273258,0.0 120.661804,24.273345,0.0 120.660207,24.272538,0.0 120.65837,24.269839,0.0 120.656371,24.267069,0.0 120.655414,24.266473,0.0 120.654491,24.265832,0.0 120.652991,24.264619,0.0 120.65253,24.264555,0.0 120.651226,24.263093,0.0 120.64752,24.258536,0.0 120.647471,24.258342,0.0 120.64843,24.258195,0.0 120.649283,24.258033,0.0 120.650437,24.257515,0.0 120.65134,24.257003,0.0 120.651756,24.256372,0.0 120.65244,24.25574,0.0 120.654206,24.257271,0.0 120.653999,24.258692,0.0 120.654688,24.262148,0.0 120.65519,24.262677,0.0 120.657041,24.262801,0.0 120.658113,24.263085,0.0 120.660164,24.264103,0.0 120.662618,24.264419,0.0 120.663045,24.264595,0.0 120.663117,24.264771,0.0 120.663452,24.264816,0.0 120.663711,24.264784,0.0 120.664544,24.265111,0.0 120.665059,24.265369,0.0 120.665611,24.266534,0.0 120.666101,24.267076,0.0 120.666749,24.268544,0.0 120.667204,24.26911,0.0 120.667864,24.269505,0.0 120.672722,24.269313,0.0 120.674563,24.267979,0.0 120.676039,24.266417,0.0 120.676093,24.26807,0.0 120.673832,24.270681,0.0 120.669997,24.273889,0.0 120.669539,24.274581,0.0 120.669523,24.275847,0.0 120.669277,24.280075,0.0 120.669772,24.28538,0.0 120.672314,24.287904,0.0</coordinates></LinearRing></outerBoundaryIs></Polygon><styleUrl>#spolygon-map</styleUrl></Placemark><Placemark><Polygon><outerBoundaryIs><LinearRing><coordinates>120.661863,24.27723,0.0 120.659684,24.277328,0.0 120.659259,24.27674,0.0 120.659053,24.275307,0.0 120.655754,24.274852,0.0 120.654569,24.27512,0.0 120.652567,24.274333,0.0 120.651422,24.274546,0.0 120.649852,24.275131,0.0 120.647121,24.276613,0.0 120.64678,24.276338,0.0 120.645184,24.274149,0.0 120.644437,24.273181,0.0 120.644202,24.272835,0.0 120.644167,24.272548,0.0 120.644109,24.272352,0.0 120.643887,24.27209,0.0 120.643679,24.271947,0.0 120.643463,24.27182,0.0 120.643042,24.271437,0.0 120.642914,24.271144,0.0 120.642667,24.270378,0.0 120.64161,24.266093,0.0 120.642181,24.265335,0.0 120.641679,24.264691,0.0 120.643742,24.263423,0.0 120.646187,24.261681,0.0 120.648373,24.259924,0.0 120.652011,24.264003,0.0 120.652659,24.264592,0.0 120.653561,24.264602,0.0 120.654702,24.266034,0.0 120.655835,24.266697,0.0 120.656518,24.267236,0.0 120.6596,24.271494,0.0 120.660287,24.272769,0.0 120.661894,24.273338,0.0 120.662738,24.27331,0.0 120.664174,24.273834,0.0 120.662651,24.27558,0.0 120.661863,24.27723,0.0</coordinates></LinearRing></outerBoundaryIs></Polygon><styleUrl>#spolygon-map</styleUrl></Placemark><Placemark><Polygon><outerBoundaryIs><LinearRing><coordinates>120.655598,24.255454,0.0 120.653925,24.253772,0.0 120.653064,24.252739,0.0 120.652703,24.251342,0.0 120.655152,24.250394,0.0 120.659981,24.24821,0.0 120.660627,24.247991,0.0 120.662222,24.2474,0.0 120.662467,24.247518,0.0 120.662776,24.24749,0.0 120.668987,24.244856,0.0 120.669124,24.245086,0.0 120.669228,24.245348,0.0 120.669275,24.245588,0.0 120.669405,24.245622,0.0 120.669434,24.246133,0.0 120.669182,24.24689,0.0 120.66966,24.247333,0.0 120.669503,24.247729,0.0 120.669394,24.248989,0.0 120.668672,24.248954,0.0 120.66871,24.249593,0.0 120.668724,24.250778,0.0 120.669195,24.251603,0.0 120.668518,24.252696,0.0 120.667761,24.252975,0.0 120.66765,24.253687,0.0 120.66278,24.257823,0.0 120.661752,24.25762,0.0 120.660962,24.257085,0.0 120.659933,24.25681,0.0 120.658963,24.256279,0.0 120.657844,24.25606,0.0 120.657098,24.256,0.0 120.655598,24.255454,0.0</coordinates></LinearRing></outerBoundaryIs></Polygon><styleUrl>#spolygon-map</styleUrl></Placemark><Placemark><Polygon><outerBoundaryIs><LinearRing><coordinates>120.676995,24.267057,0.0 120.675895,24.266477,0.0 120.674458,24.26811,0.0 120.669958,24.26941,0.0 120.667775,24.269406,0.0 120.667097,24.269012,0.0 120.666682,24.268376,0.0 120.665976,24.266985,0.0 120.665468,24.266279,0.0 120.665016,24.265311,0.0 120.6641,24.264914,0.0 120.663642,24.264785,0.0 120.663315,24.264816,0.0 120.663062,24.264739,0.0 120.663037,24.264575,0.0 120.662628,24.263248,0.0 120.664867,24.261522,0.0 120.664806,24.260569,0.0 120.665783,24.260212,0.0 120.670884,24.25886,0.0 120.671797,24.258469,0.0 120.673011,24.258145,0.0 120.67445,24.258934,0.0 120.675289,24.259179,0.0 120.675889,24.259849,0.0 120.676354,24.259959,0.0 120.67714,24.259434,0.0 120.67747,24.258774,0.0 120.678749,24.257773,0.0 120.680334,24.256718,0.0 120.680776,24.256899,0.0 120.682016,24.256935,0.0 120.683182,24.257557,0.0 120.68588,24.258047,0.0 120.687373,24.258968,0.0 120.682153,24.262409,0.0 120.67971,24.264924,0.0 120.677922,24.266294,0.0 120.676995,24.267057,0.0</coordinates></LinearRing></outerBoundaryIs></Polygon><styleUrl>#spolygon-map</styleUrl></Placemark><Placemark><Polygon><outerBoundaryIs><LinearRing><coordinates>120.696597,24.254205,0.0 120.69578,24.255,0.0 120.694866,24.255424,0.0 120.693701,24.256545,0.0 120.693024,24.25698,0.0 120.692178,24.257138,0.0 120.691279,24.257679,0.0 120.690276,24.258271,0.0 120.689372,24.257667,0.0 120.690819,24.255888,0.0 120.690844,24.255505,0.0 120.690659,24.254042,0.0 120.689871,24.253793,0.0 120.689701,24.253501,0.0 120.689342,24.251315,0.0 120.68959,24.250879,0.0 120.689896,24.250674,0.0 120.690927,24.250439,0.0 120.691445,24.250143,0.0 120.692042,24.249109,0.0 120.692761,24.248555,0.0 120.692814,24.248187,0.0 120.692406,24.247514,0.0 120.690882,24.246492,0.0 120.688626,24.246571,0.0 120.689168,24.245674,0.0 120.690718,24.245157,0.0 120.693105,24.244337,0.0 120.693854,24.243493,0.0 120.6962,24.243521,0.0 120.696843,24.243753,0.0 120.697569,24.243965,0.0 120.698244,24.24518,0.0 120.69881,24.246247,0.0 120.699114,24.246914,0.0 120.699186,24.247817,0.0 120.699175,24.248837,0.0 120.69918,24.249523,0.0 120.699416,24.249817,0.0 120.700083,24.25034,0.0 120.698878,24.250271,0.0 120.698092,24.250613,0.0 120.69696,24.251271,0.0 120.69635,24.252624,0.0 120.696597,24.254205,0.0</coordinates></LinearRing></outerBoundaryIs></Polygon><styleUrl>#spolygon-map</styleUrl></Placemark><Placemark><Polygon><outerBoundaryIs><LinearRing><coordinates>120.687373,24.258968,0.0 120.68588,24.258047,0.0 120.683182,24.257557,0.0 120.682016,24.256935,0.0 120.680776,24.256899,0.0 120.680334,24.256718,0.0 120.679357,24.256001,0.0 120.678291,24.255115,0.0 120.677901,24.254852,0.0 120.676951,24.254503,0.0 120.676053,24.254059,0.0 120.675245,24.253435,0.0 120.67476,24.252908,0.0 120.674285,24.252491,0.0 120.675813,24.251252,0.0 120.678879,24.249335,0.0 120.680171,24.248346,0.0 120.681753,24.247215,0.0 120.6842,24.246565,0.0 120.685834,24.246729,0.0 120.690145,24.247774,0.0 120.692761,24.248555,0.0 120.692042,24.249109,0.0 120.691445,24.250143,0.0 120.690927,24.250439,0.0 120.689896,24.250674,0.0 120.68959,24.250879,0.0 120.689342,24.251315,0.0 120.689701,24.253501,0.0 120.689871,24.253793,0.0 120.690659,24.254042,0.0 120.690844,24.255505,0.0 120.690819,24.255888,0.0 120.689372,24.257667,0.0 120.689,24.258608,0.0 120.687373,24.258968,0.0</coordinates></LinearRing></outerBoundaryIs></Polygon><styleUrl>#spolygon-map</styleUrl></Placemark><Placemark><Polygon><outerBoundaryIs><LinearRing><coordinates>120.67462,24.238042,0.0 120.674777,24.237828,0.0 120.674568,24.237628,0.0 120.67434,24.237504,0.0 120.674438,24.237159,0.0 120.674483,24.236854,0.0 120.674277,24.236655,0.0 120.674267,24.236339,0.0 120.674524,24.236087,0.0 120.67457,24.235814,0.0 120.674546,24.235509,0.0 120.674718,24.235089,0.0 120.674694,24.234667,0.0 120.674558,24.234683,0.0 120.674327,24.23466,0.0 120.674268,24.234373,0.0 120.674541,24.233983,0.0 120.674475,24.233696,0.0 120.674515,24.233414,0.0 120.6747,24.233098,0.0 120.674788,24.23322,0.0 120.67497,24.233365,0.0 120.675314,24.233282,0.0 120.675654,24.233134,0.0 120.675848,24.233175,0.0 120.676166,24.233481,0.0 120.676672,24.23413,0.0 120.677135,24.23486,0.0 120.6773,24.235311,0.0 120.677378,24.235716,0.0 120.677533,24.236041,0.0 120.677884,24.236387,0.0 120.678181,24.236514,0.0 120.678326,24.236878,0.0 120.678368,24.237379,0.0 120.678514,24.237571,0.0 120.678701,24.237728,0.0 120.678918,24.237717,0.0 120.679008,24.237909,0.0 120.67913,24.238074,0.0 120.67952,24.23821,0.0 120.68023,24.23832,0.0 120.680612,24.238285,0.0 120.680983,24.238326,0.0 120.681213,24.238627,0.0 120.681741,24.239287,0.0 120.682,24.239534,0.0 120.682326,24.239731,0.0 120.682577,24.239805,0.0 120.682987,24.240015,0.0 120.683058,24.240626,0.0 120.683793,24.24094,0.0 120.684234,24.240804,0.0 120.684753,24.240997,0.0 120.685428,24.241166,0.0 120.685454,24.241667,0.0 120.685944,24.242354,0.0 120.686644,24.243568,0.0 120.68666,24.24427,0.0 120.687379,24.245066,0.0 120.687707,24.245217,0.0 120.687787,24.245845,0.0 120.690053,24.246141,0.0 120.691887,24.247088,0.0 120.692685,24.247886,0.0 120.692838,24.248409,0.0 120.687164,24.247088,0.0 120.684983,24.246481,0.0 120.682936,24.246614,0.0 120.680524,24.247881,0.0 120.679701,24.248787,0.0 120.67717,24.250371,0.0 120.674773,24.252024,0.0 120.673858,24.252694,0.0 120.67251,24.252426,0.0 120.672204,24.252339,0.0 120.671968,24.251699,0.0 120.671744,24.251329,0.0 120.671629,24.250719,0.0 120.671265,24.250392,0.0 120.670598,24.249644,0.0 120.67001,24.2492,0.0 120.669426,24.248025,0.0 120.669663,24.247499,0.0 120.669312,24.247129,0.0 120.669219,24.246517,0.0 120.669471,24.245836,0.0 120.669525,24.245584,0.0 120.675171,24.24309,0.0 120.675007,24.242753,0.0 120.674551,24.241882,0.0 120.674757,24.241676,0.0 120.675231,24.241232,0.0 120.675679,24.240843,0.0 120.675752,24.240685,0.0 120.675876,24.240464,0.0 120.676066,24.240277,0.0 120.676025,24.24009,0.0 120.675914,24.239889,0.0 120.676006,24.239731,0.0 120.675832,24.239552,0.0 120.675438,24.239716,0.0 120.675238,24.239673,0.0 120.674863,24.239279,0.0 120.674655,24.238997,0.0 120.674823,24.238726,0.0 120.674875,24.238555,0.0 120.674659,24.23838,0.0 120.674563,24.238163,0.0 120.67462,24.238042,0.0</coordinates></LinearRing></outerBoundaryIs></Polygon><styleUrl>#spolygon-map</styleUrl></Placemark><Placemark><Polygon><outerBoundaryIs><LinearRing><coordinates>120.662628,24.263248,0.0 120.660455,24.264218,0.0 120.658647,24.263415,0.0 120.657528,24.262876,0.0 120.655312,24.26273,0.0 120.654825,24.262371,0.0 120.654094,24.259437,0.0 120.654034,24.257866,0.0 120.654053,24.255034,0.0 120.655026,24.255236,0.0 120.657271,24.256042,0.0 120.658099,24.256086,0.0 120.659072,24.256321,0.0 120.660089,24.256866,0.0 120.661135,24.25726,0.0 120.662043,24.257721,0.0 120.662762,24.258034,0.0 120.662628,24.263248,0.0</coordinates></LinearRing></outerBoundaryIs></Polygon><styleUrl>#spolygon-map</styleUrl></Placemark><Placemark><Polygon><outerBoundaryIs><LinearRing><coordinates>120.701972,24.284512,0.0 120.699169,24.284608,0.0 120.691882,24.283279,0.0 120.691709,24.278542,0.0 120.691472,24.275001,0.0 120.692451,24.274549,0.0 120.692487,24.27407,0.0 120.691139,24.269669,0.0 120.690834,24.268348,0.0 120.690708,24.267984,0.0 120.69057,24.267216,0.0 120.690397,24.266555,0.0 120.690059,24.264938,0.0 120.690034,24.264457,0.0 120.689766,24.263252,0.0 120.689455,24.262814,0.0 120.689143,24.262342,0.0 120.688731,24.262369,0.0 120.688392,24.262016,0.0 120.688419,24.261617,0.0 120.688653,24.261297,0.0 120.688707,24.260982,0.0 120.688725,24.260185,0.0 120.688604,24.259588,0.0 120.689365,24.258469,0.0 120.69003,24.258304,0.0 120.69084,24.257973,0.0 120.69211,24.257152,0.0 120.692892,24.257033,0.0 120.693611,24.256632,0.0 120.694659,24.25555,0.0 120.695632,24.255053,0.0 120.696191,24.254677,0.0 120.696687,24.254976,0.0 120.696931,24.255928,0.0 120.69692,24.256798,0.0 120.697445,24.258162,0.0 120.698097,24.258977,0.0 120.698477,24.26017,0.0 120.698515,24.261262,0.0 120.698915,24.262622,0.0 120.698873,24.263205,0.0 120.699416,24.264066,0.0 120.699637,24.264668,0.0 120.699766,24.265445,0.0 120.699906,24.266194,0.0 120.700146,24.26687,0.0 120.700394,24.268637,0.0 120.70012,24.269404,0.0 120.699453,24.269865,0.0 120.699395,24.270365,0.0 120.699167,24.270546,0.0 120.698993,24.272278,0.0 120.698771,24.272601,0.0 120.698945,24.273405,0.0 120.701094,24.275144,0.0 120.702136,24.276848,0.0 120.703355,24.279476,0.0 120.703304,24.281161,0.0 120.701972,24.284512,0.0</coordinates></LinearRing></outerBoundaryIs></Polygon><styleUrl>#spolygon-map</styleUrl></Placemark><Placemark><Polygon><outerBoundaryIs><LinearRing><coordinates>120.646336,24.299142,0.0 120.645087,24.298999,0.0 120.643289,24.298485,0.0 120.6424,24.297932,0.0 120.642046,24.29755,0.0 120.641619,24.296815,0.0 120.641456,24.29646,0.0 120.641238,24.29613,0.0 120.641063,24.295936,0.0 120.64104,24.295504,0.0 120.640978,24.295357,0.0 120.640846,24.295258,0.0 120.640757,24.295109,0.0 120.640678,24.294939,0.0 120.640489,24.294553,0.0 120.639584,24.292431,0.0 120.63807,24.289321,0.0 120.637266,24.288182,0.0 120.637105,24.2878,0.0 120.637308,24.28755,0.0 120.637043,24.287118,0.0 120.636557,24.286517,0.0 120.636661,24.286375,0.0 120.636844,24.286269,0.0 120.636922,24.286122,0.0 120.637097,24.285802,0.0 120.636839,24.285244,0.0 120.63676,24.283691,0.0 120.638976,24.281457,0.0 120.639222,24.280537,0.0 120.639432,24.27877,0.0 120.640975,24.278423,0.0 120.643316,24.277849,0.0 120.645141,24.277365,0.0 120.646947,24.276683,0.0 120.647717,24.276298,0.0 120.650222,24.274971,0.0 120.65211,24.274328,0.0 120.652864,24.274733,0.0 120.654703,24.27506,0.0 120.659055,24.274331,0.0 120.659138,24.27618,0.0 120.659519,24.277137,0.0 120.660698,24.27736,0.0 120.662585,24.277416,0.0 120.66204,24.278176,0.0 120.661999,24.278439,0.0 120.663225,24.280503,0.0 120.662936,24.283033,0.0 120.665035,24.288061,0.0 120.664506,24.290269,0.0 120.661546,24.291026,0.0 120.659334,24.291474,0.0 120.656861,24.292469,0.0 120.654488,24.293845,0.0 120.651444,24.295562,0.0 120.648073,24.297731,0.0 120.646336,24.299142,0.0</coordinates></LinearRing></outerBoundaryIs></Polygon><styleUrl>#spolygon-map</styleUrl></Placemark><Placemark><Polygon><outerBoundaryIs><LinearRing><coordinates>120.692027,24.284611,0.0 120.687538,24.284718,0.0 120.684743,24.284821,0.0 120.683133,24.284698,0.0 120.677281,24.286432,0.0 120.672314,24.287904,0.0 120.669772,24.28538,0.0 120.669277,24.280075,0.0 120.669523,24.275847,0.0 120.669539,24.274581,0.0 120.669997,24.273889,0.0 120.673832,24.270681,0.0 120.676093,24.26807,0.0 120.679305,24.265282,0.0 120.680234,24.264065,0.0 120.684919,24.260695,0.0 120.688604,24.259588,0.0 120.688725,24.260185,0.0 120.688707,24.260982,0.0 120.688653,24.261297,0.0 120.688419,24.261617,0.0 120.688392,24.262016,0.0 120.688731,24.262369,0.0 120.689143,24.262342,0.0 120.689455,24.262814,0.0 120.689766,24.263252,0.0 120.690034,24.264457,0.0 120.690059,24.264938,0.0 120.690397,24.266555,0.0 120.69057,24.267216,0.0 120.690708,24.267984,0.0 120.690834,24.268348,0.0 120.691139,24.269669,0.0 120.692487,24.27407,0.0 120.692451,24.274549,0.0 120.691472,24.275001,0.0 120.691709,24.278542,0.0 120.691882,24.283279,0.0 120.692027,24.284611,0.0</coordinates></LinearRing></outerBoundaryIs></Polygon><styleUrl>#spolygon-map</styleUrl></Placemark><Placemark><Polygon><outerBoundaryIs><LinearRing><coordinates>120.709356,24.284102,0.0 120.706286,24.28434,0.0 120.703114,24.2818,0.0 120.703381,24.280453,0.0 120.702567,24.278145,0.0 120.701761,24.276052,0.0 120.6999,24.273958,0.0 120.698809,24.273249,0.0 120.698842,24.272426,0.0 120.699141,24.270745,0.0 120.69927,24.270475,0.0 120.699455,24.270219,0.0 120.699524,24.269708,0.0 120.700282,24.269284,0.0 120.700416,24.268128,0.0 120.699966,24.266398,0.0 120.699876,24.265833,0.0 120.699657,24.265008,0.0 120.699577,24.264288,0.0 120.698954,24.263418,0.0 120.698945,24.262927,0.0 120.698655,24.261808,0.0 120.698465,24.26091,0.0 120.698287,24.259365,0.0 120.697885,24.258819,0.0 120.698209,24.258251,0.0 120.698825,24.257028,0.0 120.699129,24.256359,0.0 120.699596,24.256159,0.0 120.700675,24.256253,0.0 120.701904,24.255616,0.0 120.702687,24.255339,0.0 120.703643,24.25487,0.0 120.704002,24.25493,0.0 120.704255,24.25528,0.0 120.704754,24.25597,0.0 120.705087,24.256133,0.0 120.706357,24.256244,0.0 120.707674,24.256009,0.0 120.710068,24.255788,0.0 120.712378,24.255975,0.0 120.713568,24.256492,0.0 120.713964,24.256737,0.0 120.713918,24.256865,0.0 120.713821,24.25714,0.0 120.713794,24.25728,0.0 120.713849,24.257452,0.0 120.713957,24.25775,0.0 120.713944,24.257915,0.0 120.71386,24.258032,0.0 120.713736,24.258113,0.0 120.71363,24.258183,0.0 120.713538,24.25839,0.0 120.713209,24.259236,0.0 120.712745,24.259172,0.0 120.712016,24.259428,0.0 120.711791,24.260263,0.0 120.711386,24.262036,0.0 120.711215,24.262837,0.0 120.710863,24.263408,0.0 120.710843,24.263685,0.0 120.71087,24.264053,0.0 120.710766,24.264247,0.0 120.710329,24.264594,0.0 120.710048,24.265072,0.0 120.709844,24.265451,0.0 120.709112,24.265781,0.0 120.708511,24.266011,0.0 120.707901,24.26658,0.0 120.707541,24.267406,0.0 120.707629,24.267533,0.0 120.707715,24.267618,0.0 120.70778,24.267783,0.0 120.707825,24.268041,0.0 120.707919,24.2684,0.0 120.707941,24.26903,0.0 120.70799,24.269199,0.0 120.708053,24.269355,0.0 120.708087,24.269493,0.0 120.708066,24.269599,0.0 120.707978,24.269786,0.0 120.707933,24.269966,0.0 120.70793,24.270091,0.0 120.70801,24.270251,0.0 120.709365,24.270714,0.0 120.709475,24.270836,0.0 120.709492,24.271028,0.0 120.709491,24.271146,0.0 120.709489,24.27131,0.0 120.709476,24.271493,0.0 120.709438,24.271633,0.0 120.709364,24.271886,0.0 120.709319,24.272023,0.0 120.709313,24.272165,0.0 120.70936,24.272353,0.0 120.709448,24.272581,0.0 120.709532,24.272741,0.0 120.709736,24.272828,0.0 120.70991,24.273045,0.0 120.710319,24.27352,0.0 120.710568,24.27361,0.0 120.710828,24.273717,0.0 120.71113,24.273975,0.0 120.711392,24.27419,0.0 120.711649,24.274326,0.0 120.711879,24.274389,0.0 120.712124,24.274372,0.0 120.71224,24.274212,0.0 120.712387,24.274056,0.0 120.712596,24.273973,0.0 120.712614,24.274598,0.0 120.712585,24.274756,0.0 120.71244,24.274896,0.0 120.71245,24.277099,0.0 120.712445,24.277228,0.0 120.712484,24.27737,0.0 120.712637,24.280242,0.0 120.709356,24.284102,0.0</coordinates></LinearRing></outerBoundaryIs></Polygon><styleUrl>#spolygon-map</styleUrl></Placemark><Placemark><Polygon><outerBoundaryIs><LinearRing><coordinates>120.697532,24.243897,0.0 120.696719,24.243713,0.0 120.696131,24.243512,0.0 120.693191,24.24353,0.0 120.693371,24.244645,0.0 120.689422,24.245196,0.0 120.68879,24.245834,0.0 120.68776,24.245761,0.0 120.687643,24.245167,0.0 120.687215,24.244924,0.0 120.686642,24.244187,0.0 120.686662,24.243476,0.0 120.685908,24.24227,0.0 120.685408,24.241584,0.0 120.685382,24.241082,0.0 120.684662,24.24098,0.0 120.684179,24.24082,0.0 120.683641,24.240803,0.0 120.683031,24.240559,0.0 120.682878,24.239831,0.0 120.682513,24.239788,0.0 120.682318,24.239613,0.0 120.681874,24.238829,0.0 120.681349,24.238157,0.0 120.681138,24.237882,0.0 120.680949,24.237134,0.0 120.68064,24.236334,0.0 120.680453,24.236034,0.0 120.680566,24.235228,0.0 120.680929,24.233626,0.0 120.681129,24.233773,0.0 120.681615,24.234081,0.0 120.682021,24.234134,0.0 120.682713,24.234036,0.0 120.682379,24.233501,0.0 120.68136,24.232097,0.0 120.684183,24.231854,0.0 120.685263,24.23185,0.0 120.685436,24.232423,0.0 120.685311,24.232592,0.0 120.685277,24.232809,0.0 120.685429,24.233189,0.0 120.685476,24.233839,0.0 120.685649,24.234169,0.0 120.686609,24.234672,0.0 120.688086,24.235077,0.0 120.688329,24.235292,0.0 120.688464,24.235527,0.0 120.688698,24.235692,0.0 120.690051,24.235654,0.0 120.690855,24.235355,0.0 120.691628,24.235143,0.0 120.691251,24.234176,0.0 120.690518,24.232885,0.0 120.690314,24.230982,0.0 120.690237,24.230476,0.0 120.69005,24.230394,0.0 120.68983,24.230329,0.0 120.689711,24.230186,0.0 120.689802,24.229408,0.0 120.689974,24.229094,0.0 120.690318,24.229047,0.0 120.691388,24.228896,0.0 120.692487,24.229318,0.0 120.692834,24.22959,0.0 120.692878,24.230251,0.0 120.69291,24.231096,0.0 120.693522,24.231176,0.0 120.694979,24.231174,0.0 120.696377,24.2314,0.0 120.697072,24.231603,0.0 120.697232,24.231734,0.0 120.698161,24.232074,0.0 120.698296,24.232165,0.0 120.698387,24.232262,0.0 120.698433,24.23238,0.0 120.698401,24.232504,0.0 120.698364,24.232635,0.0 120.698331,24.232752,0.0 120.698475,24.233463,0.0 120.698939,24.2345,0.0 120.699064,24.235087,0.0 120.699003,24.235211,0.0 120.69898,24.235349,0.0 120.699008,24.235509,0.0 120.699004,24.235613,0.0 120.698261,24.235573,0.0 120.698556,24.237274,0.0 120.69874,24.238173,0.0 120.698267,24.238481,0.0 120.698111,24.238844,0.0 120.698063,24.239135,0.0 120.695811,24.23909,0.0 120.695646,24.239345,0.0 120.695879,24.240099,0.0 120.696724,24.241419,0.0 120.6969,24.242377,0.0 120.6972,24.243291,0.0 120.697532,24.243897,0.0</coordinates></LinearRing></outerBoundaryIs></Polygon><styleUrl>#spolygon-map</styleUrl></Placemark></Document>
</kml>
