<?xml version="1.0" encoding="UTF-8"?>
<kml xmlns="http://www.opengis.net/kml/2.2">
	<Document>
		<name>臺北市信義區</name>
		<Style id="spolygon">
			<LabelStyle>
				<scale>0.0</scale>
			</LabelStyle>
			<LineStyle>
				<color>330030ff</color>
				<width>0</width>
			</LineStyle>
			<PolyStyle>
				<color>330030ff</color>
			</PolyStyle>
		</Style>
		<StyleMap id="spolygon-map">
			<Pair>
				<key>normal</key>
				<styleUrl>#spolygon</styleUrl>
			</Pair>
		</StyleMap>
	<Placemark><Polygon><outerBoundaryIs><LinearRing><coordinates>121.561404,25.020057,0.0 121.56154,25.019644,0.0 121.561515,25.019198,0.0 121.560062,25.018439,0.0 121.559748,25.017915,0.0 121.559513,25.018574,0.0 121.558941,25.018413,0.0 121.559559,25.017836,0.0 121.56012,25.017102,0.0 121.560484,25.016302,0.0 121.560847,25.015824,0.0 121.56094,25.015729,0.0 121.561742,25.015013,0.0 121.562392,25.014174,0.0 121.562796,25.013581,0.0 121.563282,25.013312,0.0 121.563379,25.013006,0.0 121.56346,25.011783,0.0 121.563874,25.011021,0.0 121.56496,25.010175,0.0 121.565642,25.008975,0.0 121.566589,25.008344,0.0 121.569194,25.009706,0.0 121.571374,25.011452,0.0 121.572029,25.013407,0.0 121.567402,25.015111,0.0 121.566753,25.016227,0.0 121.566672,25.016438,0.0 121.566318,25.016619,0.0 121.566333,25.017015,0.0 121.566165,25.017212,0.0 121.564296,25.018535,0.0 121.562767,25.019206,0.0 121.561404,25.020057,0.0</coordinates></LinearRing></outerBoundaryIs></Polygon><styleUrl>#spolygon-map</styleUrl></Placemark><Placemark><Polygon><outerBoundaryIs><LinearRing><coordinates>121.561297,25.020922,0.0 121.561223,25.021306,0.0 121.560969,25.02165,0.0 121.560711,25.021679,0.0 121.560257,25.021818,0.0 121.56002,25.021919,0.0 121.559685,25.022428,0.0 121.559458,25.02252,0.0 121.559105,25.0227,0.0 121.558898,25.022961,0.0 121.55889,25.022555,0.0 121.559096,25.021516,0.0 121.558911,25.021961,0.0 121.558048,25.021548,0.0 121.55659,25.020594,0.0 121.557544,25.01968,0.0 121.558617,25.018707,0.0 121.559104,25.018573,0.0 121.559789,25.018174,0.0 121.559989,25.018053,0.0 121.560587,25.018531,0.0 121.561527,25.019201,0.0 121.561446,25.019808,0.0 121.561411,25.020105,0.0 121.56153,25.020462,0.0 121.561397,25.020845,0.0 121.561297,25.020922,0.0</coordinates></LinearRing></outerBoundaryIs></Polygon><styleUrl>#spolygon-map</styleUrl></Placemark><Placemark><Polygon><outerBoundaryIs><LinearRing><coordinates>121.570601,25.023791,0.0 121.570089,25.023725,0.0 121.56984,25.023412,0.0 121.569649,25.023102,0.0 121.569346,25.022611,0.0 121.569043,25.022109,0.0 121.56878,25.02173,0.0 121.567485,25.019743,0.0 121.566836,25.019134,0.0 121.566165,25.017212,0.0 121.566333,25.017015,0.0 121.566318,25.016619,0.0 121.566672,25.016438,0.0 121.566753,25.016227,0.0 121.567402,25.015111,0.0 121.572029,25.013407,0.0 121.57615,25.014447,0.0 121.575131,25.015826,0.0 121.574973,25.016224,0.0 121.574801,25.016633,0.0 121.574581,25.017053,0.0 121.574106,25.017752,0.0 121.57399,25.018193,0.0 121.573636,25.018854,0.0 121.573747,25.019079,0.0 121.573632,25.019258,0.0 121.573699,25.019787,0.0 121.573901,25.020296,0.0 121.573531,25.021109,0.0 121.572618,25.021956,0.0 121.572369,25.022272,0.0 121.571846,25.022664,0.0 121.57152,25.02293,0.0 121.571198,25.023211,0.0 121.570944,25.023483,0.0 121.570678,25.023723,0.0 121.570601,25.023791,0.0</coordinates></LinearRing></outerBoundaryIs></Polygon><styleUrl>#spolygon-map</styleUrl></Placemark><Placemark><Polygon><outerBoundaryIs><LinearRing><coordinates>121.558898,25.022961,0.0 121.558534,25.023312,0.0 121.558142,25.023324,0.0 121.557841,25.023333,0.0 121.557278,25.023402,0.0 121.556844,25.023596,0.0 121.556239,25.023851,0.0 121.555798,25.02403,0.0 121.555258,25.024234,0.0 121.554901,25.024257,0.0 121.553945,25.024313,0.0 121.553336,25.024348,0.0 121.552773,25.024173,0.0 121.553973,25.023042,0.0 121.554667,25.022384,0.0 121.555365,25.021724,0.0 121.555771,25.021342,0.0 121.55621,25.020929,0.0 121.556691,25.020744,0.0 121.558094,25.021571,0.0 121.558958,25.021818,0.0 121.559194,25.021974,0.0 121.558753,25.022834,0.0 121.558898,25.022961,0.0</coordinates></LinearRing></outerBoundaryIs></Polygon><styleUrl>#spolygon-map</styleUrl></Placemark><Placemark><Polygon><outerBoundaryIs><LinearRing><coordinates>121.567484,25.024794,0.0 121.566851,25.025268,0.0 121.566719,25.025474,0.0 121.566917,25.025771,0.0 121.567096,25.026091,0.0 121.566931,25.026199,0.0 121.566677,25.026345,0.0 121.566562,25.026655,0.0 121.566198,25.026587,0.0 121.566133,25.026195,0.0 121.565425,25.026134,0.0 121.564605,25.026141,0.0 121.564312,25.025733,0.0 121.564269,25.025178,0.0 121.56418,25.024958,0.0 121.564608,25.023992,0.0 121.565209,25.023926,0.0 121.565144,25.023493,0.0 121.565035,25.023291,0.0 121.565123,25.022487,0.0 121.564304,25.021592,0.0 121.563932,25.021354,0.0 121.562728,25.02075,0.0 121.561532,25.020338,0.0 121.561754,25.019735,0.0 121.563475,25.019011,0.0 121.565614,25.017761,0.0 121.566985,25.019282,0.0 121.567896,25.020278,0.0 121.568892,25.021914,0.0 121.569193,25.022355,0.0 121.569475,25.022821,0.0 121.569727,25.023228,0.0 121.56998,25.023678,0.0 121.569235,25.024017,0.0 121.568708,25.02424,0.0 121.568052,25.02432,0.0 121.567484,25.024794,0.0</coordinates></LinearRing></outerBoundaryIs></Polygon><styleUrl>#spolygon-map</styleUrl></Placemark><Placemark><Polygon><outerBoundaryIs><LinearRing><coordinates>121.57685,25.026291,0.0 121.574241,25.026773,0.0 121.572912,25.026855,0.0 121.571179,25.025848,0.0 121.57102,25.02566,0.0 121.57069,25.025648,0.0 121.570357,25.026008,0.0 121.569551,25.025647,0.0 121.569113,25.025429,0.0 121.568646,25.025306,0.0 121.567653,25.02487,0.0 121.568075,25.024327,0.0 121.568758,25.02424,0.0 121.569274,25.023998,0.0 121.569997,25.02367,0.0 121.5701,25.02373,0.0 121.570624,25.023772,0.0 121.570913,25.023511,0.0 121.571072,25.023338,0.0 121.571359,25.02307,0.0 121.5718,25.022694,0.0 121.572305,25.022367,0.0 121.572412,25.022179,0.0 121.573206,25.021377,0.0 121.573965,25.020663,0.0 121.573781,25.020199,0.0 121.573487,25.019515,0.0 121.573691,25.019141,0.0 121.573694,25.018937,0.0 121.573836,25.018642,0.0 121.574116,25.018068,0.0 121.574527,25.01715,0.0 121.574722,25.016788,0.0 121.574876,25.01646,0.0 121.575026,25.016099,0.0 121.575173,25.015507,0.0 121.577691,25.014137,0.0 121.578741,25.015439,0.0 121.580316,25.017129,0.0 121.581571,25.018048,0.0 121.583583,25.018557,0.0 121.584398,25.020564,0.0 121.585055,25.023211,0.0 121.585506,25.024708,0.0 121.582918,25.024532,0.0 121.581754,25.024459,0.0 121.580081,25.025298,0.0 121.577682,25.025975,0.0 121.57685,25.026291,0.0</coordinates></LinearRing></outerBoundaryIs></Polygon><styleUrl>#spolygon-map</styleUrl></Placemark><Placemark><Polygon><outerBoundaryIs><LinearRing><coordinates>121.556055,25.02731,0.0 121.554784,25.026322,0.0 121.553884,25.025525,0.0 121.553338,25.025042,0.0 121.552875,25.02463,0.0 121.553336,25.024348,0.0 121.553945,25.024313,0.0 121.554901,25.024257,0.0 121.555258,25.024234,0.0 121.555798,25.02403,0.0 121.556239,25.023851,0.0 121.556844,25.023596,0.0 121.557278,25.023402,0.0 121.557841,25.023333,0.0 121.558142,25.023324,0.0 121.558534,25.023312,0.0 121.558898,25.022961,0.0 121.559105,25.0227,0.0 121.559458,25.02252,0.0 121.559685,25.022428,0.0 121.56002,25.021919,0.0 121.560257,25.021818,0.0 121.560711,25.021679,0.0 121.560969,25.02165,0.0 121.561223,25.021306,0.0 121.561297,25.020922,0.0 121.560944,25.022499,0.0 121.56064,25.022588,0.0 121.5607,25.022782,0.0 121.560738,25.023213,0.0 121.560253,25.024743,0.0 121.559429,25.025129,0.0 121.559094,25.024926,0.0 121.558572,25.025059,0.0 121.557604,25.025224,0.0 121.556999,25.025298,0.0 121.556731,25.025543,0.0 121.55657,25.026026,0.0 121.5565,25.026391,0.0 121.556085,25.026948,0.0 121.556055,25.02731,0.0</coordinates></LinearRing></outerBoundaryIs></Polygon><styleUrl>#spolygon-map</styleUrl></Placemark><Placemark><Polygon><outerBoundaryIs><LinearRing><coordinates>121.564516,25.02607,0.0 121.564222,25.026273,0.0 121.564194,25.0265,0.0 121.56394,25.026798,0.0 121.56281,25.027434,0.0 121.561632,25.026495,0.0 121.560953,25.025936,0.0 121.560253,25.024743,0.0 121.560738,25.023213,0.0 121.5607,25.022782,0.0 121.56064,25.022588,0.0 121.560944,25.022499,0.0 121.561297,25.020922,0.0 121.561495,25.020663,0.0 121.562728,25.02075,0.0 121.563932,25.021354,0.0 121.564304,25.021592,0.0 121.565123,25.022487,0.0 121.565035,25.023291,0.0 121.565144,25.023493,0.0 121.565209,25.023926,0.0 121.564608,25.023992,0.0 121.56418,25.024958,0.0 121.564269,25.025178,0.0 121.564312,25.025733,0.0 121.564516,25.02607,0.0</coordinates></LinearRing></outerBoundaryIs></Polygon><styleUrl>#spolygon-map</styleUrl></Placemark><Placemark><Polygon><outerBoundaryIs><LinearRing><coordinates>121.563161,25.027714,0.0 121.562593,25.028403,0.0 121.562235,25.028837,0.0 121.561808,25.029345,0.0 121.561274,25.029583,0.0 121.56069,25.029195,0.0 121.560212,25.029093,0.0 121.559922,25.028841,0.0 121.558191,25.02873,0.0 121.558097,25.028146,0.0 121.558094,25.027859,0.0 121.55818,25.027468,0.0 121.558273,25.027065,0.0 121.558102,25.026789,0.0 121.557699,25.02654,0.0 121.557444,25.026052,0.0 121.556731,25.025543,0.0 121.556999,25.025298,0.0 121.557604,25.025224,0.0 121.558572,25.025059,0.0 121.559094,25.024926,0.0 121.559429,25.025129,0.0 121.560953,25.025936,0.0 121.561632,25.026495,0.0 121.56281,25.027434,0.0 121.563161,25.027714,0.0</coordinates></LinearRing></outerBoundaryIs></Polygon><styleUrl>#spolygon-map</styleUrl></Placemark><Placemark><Polygon><outerBoundaryIs><LinearRing><coordinates>121.557691,25.029873,0.0 121.557271,25.029198,0.0 121.556928,25.028618,0.0 121.556427,25.02777,0.0 121.556055,25.02731,0.0 121.556085,25.026948,0.0 121.5565,25.026391,0.0 121.55657,25.026026,0.0 121.556858,25.025661,0.0 121.557516,25.026143,0.0 121.557865,25.026648,0.0 121.558218,25.026888,0.0 121.558279,25.027204,0.0 121.558135,25.027546,0.0 121.558096,25.027999,0.0 121.558098,25.028261,0.0 121.557754,25.028966,0.0 121.557854,25.029757,0.0 121.557691,25.029873,0.0</coordinates></LinearRing></outerBoundaryIs></Polygon><styleUrl>#spolygon-map</styleUrl></Placemark><Placemark><Polygon><outerBoundaryIs><LinearRing><coordinates>121.568311,25.032863,0.0 121.565929,25.032911,0.0 121.565413,25.031984,0.0 121.565402,25.030954,0.0 121.565362,25.029865,0.0 121.565319,25.029656,0.0 121.565001,25.029181,0.0 121.564682,25.028915,0.0 121.564257,25.02857,0.0 121.563895,25.028301,0.0 121.563571,25.028035,0.0 121.56318,25.027729,0.0 121.563951,25.026785,0.0 121.564201,25.026491,0.0 121.564235,25.026268,0.0 121.564605,25.026141,0.0 121.565425,25.026134,0.0 121.566133,25.026195,0.0 121.566198,25.026587,0.0 121.566562,25.026655,0.0 121.566677,25.026345,0.0 121.566931,25.026199,0.0 121.567096,25.026091,0.0 121.566917,25.025771,0.0 121.566719,25.025474,0.0 121.566851,25.025268,0.0 121.567484,25.024794,0.0 121.568591,25.025282,0.0 121.569041,25.025507,0.0 121.568551,25.026391,0.0 121.568414,25.026683,0.0 121.568403,25.02729,0.0 121.568376,25.028514,0.0 121.568354,25.030404,0.0 121.568311,25.032534,0.0 121.568311,25.032863,0.0</coordinates></LinearRing></outerBoundaryIs></Polygon><styleUrl>#spolygon-map</styleUrl></Placemark><Placemark><Polygon><outerBoundaryIs><LinearRing><coordinates>121.565443,25.032909,0.0 121.561374,25.033009,0.0 121.560433,25.032528,0.0 121.560335,25.03176,0.0 121.560755,25.031167,0.0 121.561308,25.030726,0.0 121.561278,25.030277,0.0 121.561068,25.030416,0.0 121.561068,25.03019,0.0 121.561382,25.029823,0.0 121.561852,25.029301,0.0 121.562424,25.028607,0.0 121.562741,25.028223,0.0 121.56318,25.027729,0.0 121.563571,25.028035,0.0 121.563895,25.028301,0.0 121.564257,25.02857,0.0 121.564682,25.028915,0.0 121.565001,25.029181,0.0 121.565319,25.029656,0.0 121.565362,25.029865,0.0 121.565402,25.030954,0.0 121.565413,25.031984,0.0 121.565443,25.032909,0.0</coordinates></LinearRing></outerBoundaryIs></Polygon><styleUrl>#spolygon-map</styleUrl></Placemark><Placemark><Polygon><outerBoundaryIs><LinearRing><coordinates>121.560447,25.033018,0.0 121.558989,25.032032,0.0 121.558755,25.031642,0.0 121.558583,25.031357,0.0 121.558042,25.030456,0.0 121.557675,25.029883,0.0 121.558056,25.029652,0.0 121.558191,25.02873,0.0 121.559922,25.028841,0.0 121.560212,25.029093,0.0 121.56069,25.029195,0.0 121.561274,25.029583,0.0 121.561184,25.030058,0.0 121.560885,25.03041,0.0 121.561157,25.030451,0.0 121.561491,25.030438,0.0 121.561308,25.030748,0.0 121.560506,25.031207,0.0 121.560394,25.032033,0.0 121.560447,25.033018,0.0</coordinates></LinearRing></outerBoundaryIs></Polygon><styleUrl>#spolygon-map</styleUrl></Placemark><Placemark><Polygon><outerBoundaryIs><LinearRing><coordinates>121.574556,25.031552,0.0 121.574601,25.032125,0.0 121.57461,25.033578,0.0 121.574077,25.033272,0.0 121.57386,25.033165,0.0 121.57264,25.032806,0.0 121.572045,25.032765,0.0 121.571542,25.032752,0.0 121.570479,25.032792,0.0 121.56831,25.032846,0.0 121.568336,25.031918,0.0 121.568359,25.029969,0.0 121.568377,25.028481,0.0 121.568406,25.027142,0.0 121.568428,25.026652,0.0 121.568553,25.026387,0.0 121.569081,25.025488,0.0 121.569549,25.025646,0.0 121.570321,25.025992,0.0 121.570678,25.025729,0.0 121.571021,25.025653,0.0 121.571059,25.025748,0.0 121.572311,25.026677,0.0 121.574201,25.026775,0.0 121.575619,25.026687,0.0 121.576955,25.028622,0.0 121.575483,25.030009,0.0 121.574575,25.030681,0.0 121.574546,25.030889,0.0 121.574556,25.031552,0.0</coordinates></LinearRing></outerBoundaryIs></Polygon><styleUrl>#spolygon-map</styleUrl></Placemark><Placemark><Polygon><outerBoundaryIs><LinearRing><coordinates>121.559585,25.033036,0.0 121.560419,25.034413,0.0 121.560087,25.034609,0.0 121.55811,25.034334,0.0 121.557506,25.033873,0.0 121.557495,25.033244,0.0 121.557482,25.03258,0.0 121.557472,25.032109,0.0 121.557468,25.031864,0.0 121.557463,25.031648,0.0 121.557458,25.031395,0.0 121.557446,25.030765,0.0 121.557425,25.029903,0.0 121.557414,25.029442,0.0 121.557963,25.030325,0.0 121.558237,25.03078,0.0 121.558752,25.031637,0.0 121.558976,25.03201,0.0 121.559585,25.033036,0.0</coordinates></LinearRing></outerBoundaryIs></Polygon><styleUrl>#spolygon-map</styleUrl></Placemark><Placemark><Polygon><outerBoundaryIs><LinearRing><coordinates>121.578013,25.027389,0.0 121.57856,25.029259,0.0 121.578285,25.029582,0.0 121.577986,25.029983,0.0 121.577764,25.030493,0.0 121.577697,25.030603,0.0 121.576881,25.031245,0.0 121.577241,25.032265,0.0 121.577546,25.03306,0.0 121.577549,25.033613,0.0 121.578868,25.034982,0.0 121.578926,25.035486,0.0 121.578722,25.035711,0.0 121.57861,25.03585,0.0 121.578533,25.036021,0.0 121.578473,25.036241,0.0 121.577313,25.035616,0.0 121.57607,25.034669,0.0 121.575806,25.034473,0.0 121.575337,25.034129,0.0 121.574632,25.032946,0.0 121.574556,25.031598,0.0 121.574546,25.030889,0.0 121.574575,25.030681,0.0 121.575483,25.030009,0.0 121.576955,25.028622,0.0 121.578013,25.027389,0.0</coordinates></LinearRing></outerBoundaryIs></Polygon><styleUrl>#spolygon-map</styleUrl></Placemark><Placemark><Polygon><outerBoundaryIs><LinearRing><coordinates>121.581611,25.036935,0.0 121.580588,25.036774,0.0 121.580128,25.0366,0.0 121.579164,25.036358,0.0 121.578507,25.036251,0.0 121.578507,25.036103,0.0 121.578574,25.035896,0.0 121.578713,25.035716,0.0 121.578938,25.035592,0.0 121.578864,25.035136,0.0 121.577639,25.033975,0.0 121.577498,25.033371,0.0 121.577261,25.032371,0.0 121.57704,25.03161,0.0 121.577155,25.030744,0.0 121.577742,25.03052,0.0 121.577917,25.030082,0.0 121.578187,25.029699,0.0 121.578559,25.029272,0.0 121.578122,25.027485,0.0 121.577726,25.026022,0.0 121.5785,25.025784,0.0 121.581671,25.024459,0.0 121.582442,25.024669,0.0 121.583577,25.02615,0.0 121.584556,25.029139,0.0 121.583237,25.03076,0.0 121.583571,25.032535,0.0 121.583285,25.035662,0.0 121.582885,25.036401,0.0 121.582607,25.03667,0.0 121.581682,25.036804,0.0 121.581611,25.036935,0.0</coordinates></LinearRing></outerBoundaryIs></Polygon><styleUrl>#spolygon-map</styleUrl></Placemark><Placemark><Polygon><outerBoundaryIs><LinearRing><coordinates>121.560716,25.036115,0.0 121.5611,25.036781,0.0 121.561325,25.037573,0.0 121.559231,25.037651,0.0 121.557577,25.037702,0.0 121.557561,25.036844,0.0 121.557549,25.036201,0.0 121.557534,25.035406,0.0 121.557876,25.035123,0.0 121.55851,25.035214,0.0 121.558745,25.035751,0.0 121.558726,25.035903,0.0 121.559348,25.036158,0.0 121.560716,25.036115,0.0</coordinates></LinearRing></outerBoundaryIs></Polygon><styleUrl>#spolygon-map</styleUrl></Placemark><Placemark><Polygon><outerBoundaryIs><LinearRing><coordinates>121.568471,25.039071,0.0 121.567173,25.039094,0.0 121.565547,25.039142,0.0 121.563595,25.037513,0.0 121.562023,25.037555,0.0 121.561885,25.036758,0.0 121.561274,25.035824,0.0 121.560665,25.035493,0.0 121.560537,25.035542,0.0 121.560527,25.035827,0.0 121.559791,25.036141,0.0 121.559217,25.035973,0.0 121.55873,25.03582,0.0 121.558864,25.035261,0.0 121.557879,25.035124,0.0 121.557527,25.034982,0.0 121.557848,25.034297,0.0 121.559765,25.03457,0.0 121.560318,25.034509,0.0 121.559658,25.033157,0.0 121.561348,25.033009,0.0 121.565417,25.03291,0.0 121.56789,25.032855,0.0 121.568334,25.03396,0.0 121.568407,25.037451,0.0 121.568471,25.039071,0.0</coordinates></LinearRing></outerBoundaryIs></Polygon><styleUrl>#spolygon-map</styleUrl></Placemark><Placemark><Polygon><outerBoundaryIs><LinearRing><coordinates>121.576862,25.038877,0.0 121.57655,25.039317,0.0 121.576027,25.039255,0.0 121.575035,25.039043,0.0 121.574002,25.038927,0.0 121.573952,25.03873,0.0 121.573607,25.03863,0.0 121.572985,25.038974,0.0 121.569829,25.03905,0.0 121.568388,25.035839,0.0 121.569062,25.03284,0.0 121.571143,25.032767,0.0 121.571741,25.032745,0.0 121.572322,25.032783,0.0 121.573197,25.032921,0.0 121.573997,25.03323,0.0 121.574339,25.03341,0.0 121.575337,25.034129,0.0 121.575806,25.034473,0.0 121.57607,25.034669,0.0 121.576863,25.035293,0.0 121.576663,25.035503,0.0 121.576364,25.035843,0.0 121.576065,25.036182,0.0 121.57575,25.036541,0.0 121.575445,25.036888,0.0 121.5753,25.037048,0.0 121.575214,25.037146,0.0 121.57493,25.037472,0.0 121.57543,25.037836,0.0 121.576711,25.038768,0.0 121.576862,25.038877,0.0</coordinates></LinearRing></outerBoundaryIs></Polygon><styleUrl>#spolygon-map</styleUrl></Placemark><Placemark><Polygon><outerBoundaryIs><LinearRing><coordinates>121.57836,25.036819,0.0 121.578078,25.03829,0.0 121.577913,25.039141,0.0 121.577756,25.039532,0.0 121.576862,25.038877,0.0 121.576052,25.038288,0.0 121.575098,25.037595,0.0 121.575212,25.037148,0.0 121.575291,25.037059,0.0 121.575437,25.036897,0.0 121.575599,25.036712,0.0 121.575919,25.036349,0.0 121.576227,25.035998,0.0 121.57653,25.035654,0.0 121.576854,25.035286,0.0 121.577901,25.036068,0.0 121.578467,25.036263,0.0 121.57836,25.036819,0.0</coordinates></LinearRing></outerBoundaryIs></Polygon><styleUrl>#spolygon-map</styleUrl></Placemark><Placemark><Polygon><outerBoundaryIs><LinearRing><coordinates>121.58151,25.037121,0.0 121.582711,25.037565,0.0 121.583406,25.037838,0.0 121.583793,25.037988,0.0 121.583374,25.038907,0.0 121.583051,25.039597,0.0 121.58284,25.040048,0.0 121.581898,25.040143,0.0 121.581509,25.039996,0.0 121.580239,25.039933,0.0 121.579418,25.039666,0.0 121.57927,25.039559,0.0 121.579181,25.03941,0.0 121.579201,25.039125,0.0 121.579259,25.038895,0.0 121.5794,25.03832,0.0 121.579406,25.038087,0.0 121.579318,25.03735,0.0 121.579209,25.03665,0.0 121.579432,25.036339,0.0 121.580443,25.036719,0.0 121.58151,25.037121,0.0</coordinates></LinearRing></outerBoundaryIs></Polygon><styleUrl>#spolygon-map</styleUrl></Placemark><Placemark><Polygon><outerBoundaryIs><LinearRing><coordinates>121.5837,25.033057,0.0 121.584281,25.033097,0.0 121.584612,25.033235,0.0 121.584674,25.033478,0.0 121.584831,25.033588,0.0 121.58511,25.033953,0.0 121.585112,25.034354,0.0 121.585223,25.035114,0.0 121.585239,25.036309,0.0 121.585261,25.036726,0.0 121.585151,25.037534,0.0 121.58512,25.037882,0.0 121.585109,25.037971,0.0 121.585071,25.038147,0.0 121.584972,25.038361,0.0 121.584733,25.038717,0.0 121.584585,25.038895,0.0 121.584306,25.039229,0.0 121.584247,25.039349,0.0 121.584206,25.039525,0.0 121.584064,25.039918,0.0 121.583674,25.040203,0.0 121.583586,25.040371,0.0 121.582695,25.040447,0.0 121.58284,25.040048,0.0 121.583051,25.039597,0.0 121.583374,25.038907,0.0 121.583793,25.037988,0.0 121.583406,25.037838,0.0 121.582711,25.037565,0.0 121.58151,25.037121,0.0 121.581719,25.036735,0.0 121.582625,25.03667,0.0 121.58295,25.036333,0.0 121.583588,25.035055,0.0 121.5837,25.033057,0.0</coordinates></LinearRing></outerBoundaryIs></Polygon><styleUrl>#spolygon-map</styleUrl></Placemark><Placemark><Polygon><outerBoundaryIs><LinearRing><coordinates>121.576951,25.040837,0.0 121.575082,25.040885,0.0 121.574077,25.040911,0.0 121.572536,25.040955,0.0 121.570284,25.041009,0.0 121.570201,25.040781,0.0 121.570026,25.04057,0.0 121.569856,25.040179,0.0 121.57191,25.039025,0.0 121.573276,25.038514,0.0 121.573933,25.038723,0.0 121.574001,25.038914,0.0 121.574881,25.039005,0.0 121.575976,25.039247,0.0 121.576422,25.039331,0.0 121.576723,25.039029,0.0 121.577506,25.039353,0.0 121.57783,25.039941,0.0 121.577832,25.04032,0.0 121.576951,25.040837,0.0</coordinates></LinearRing></outerBoundaryIs></Polygon><styleUrl>#spolygon-map</styleUrl></Placemark><Placemark><Polygon><outerBoundaryIs><LinearRing><coordinates>121.558831,25.041322,0.0 121.557648,25.040253,0.0 121.557624,25.039396,0.0 121.557577,25.037702,0.0 121.559231,25.037651,0.0 121.561325,25.037573,0.0 121.5611,25.036781,0.0 121.560716,25.036115,0.0 121.560528,25.035753,0.0 121.560547,25.035485,0.0 121.560978,25.035342,0.0 121.561731,25.03651,0.0 121.561996,25.036949,0.0 121.562343,25.037546,0.0 121.563609,25.039181,0.0 121.563999,25.040296,0.0 121.564483,25.041169,0.0 121.562715,25.041217,0.0 121.559052,25.041316,0.0 121.558831,25.041322,0.0</coordinates></LinearRing></outerBoundaryIs></Polygon><styleUrl>#spolygon-map</styleUrl></Placemark><Placemark><Polygon><outerBoundaryIs><LinearRing><coordinates>121.586763,25.041604,0.0 121.586337,25.041599,0.0 121.585978,25.041658,0.0 121.585559,25.041568,0.0 121.585395,25.041638,0.0 121.585059,25.041537,0.0 121.584044,25.040955,0.0 121.583531,25.040527,0.0 121.583624,25.040245,0.0 121.58405,25.039943,0.0 121.584203,25.03954,0.0 121.584239,25.039384,0.0 121.584291,25.039259,0.0 121.584563,25.03892,0.0 121.584732,25.038718,0.0 121.584895,25.038508,0.0 121.585067,25.038158,0.0 121.585085,25.038114,0.0 121.585118,25.037911,0.0 121.585149,25.037546,0.0 121.585266,25.036911,0.0 121.58524,25.03638,0.0 121.585232,25.035853,0.0 121.585195,25.034635,0.0 121.585107,25.034015,0.0 121.584918,25.033693,0.0 121.584738,25.033512,0.0 121.584634,25.033259,0.0 121.584387,25.033162,0.0 121.583897,25.033094,0.0 121.583165,25.031829,0.0 121.583938,25.030074,0.0 121.585055,25.027914,0.0 121.583236,25.025183,0.0 121.585577,25.024838,0.0 121.586654,25.026823,0.0 121.587951,25.028124,0.0 121.588827,25.028792,0.0 121.590948,25.029922,0.0 121.590889,25.032831,0.0 121.589155,25.035844,0.0 121.588233,25.038197,0.0 121.587827,25.038856,0.0 121.587599,25.039274,0.0 121.58746,25.03978,0.0 121.587084,25.040071,0.0 121.587012,25.040961,0.0 121.586763,25.041604,0.0</coordinates></LinearRing></outerBoundaryIs></Polygon><styleUrl>#spolygon-map</styleUrl></Placemark><Placemark><Polygon><outerBoundaryIs><LinearRing><coordinates>121.577831,25.042109,0.0 121.576857,25.042102,0.0 121.575402,25.04191,0.0 121.574328,25.041916,0.0 121.573114,25.042031,0.0 121.572569,25.042244,0.0 121.572007,25.042847,0.0 121.571674,25.042717,0.0 121.571389,25.042271,0.0 121.57019,25.042315,0.0 121.570176,25.041877,0.0 121.570174,25.041354,0.0 121.570241,25.041169,0.0 121.570284,25.041009,0.0 121.572536,25.040955,0.0 121.574077,25.040911,0.0 121.575082,25.040885,0.0 121.576951,25.040837,0.0 121.577833,25.04149,0.0 121.577831,25.042109,0.0</coordinates></LinearRing></outerBoundaryIs></Polygon><styleUrl>#spolygon-map</styleUrl></Placemark><Placemark><Polygon><outerBoundaryIs><LinearRing><coordinates>121.580224,25.039967,0.0 121.580701,25.040513,0.0 121.580813,25.040865,0.0 121.581048,25.041916,0.0 121.581332,25.042822,0.0 121.580765,25.042764,0.0 121.580261,25.042268,0.0 121.578923,25.041369,0.0 121.578108,25.040922,0.0 121.577832,25.04032,0.0 121.57783,25.039941,0.0 121.577893,25.039249,0.0 121.578045,25.038461,0.0 121.578185,25.037728,0.0 121.578467,25.036263,0.0 121.579056,25.036352,0.0 121.579241,25.036855,0.0 121.579321,25.037365,0.0 121.579406,25.038092,0.0 121.579357,25.038499,0.0 121.579259,25.038897,0.0 121.579169,25.039194,0.0 121.579186,25.039419,0.0 121.579276,25.039567,0.0 121.579538,25.039719,0.0 121.580224,25.039967,0.0</coordinates></LinearRing></outerBoundaryIs></Polygon><styleUrl>#spolygon-map</styleUrl></Placemark><Placemark><Polygon><outerBoundaryIs><LinearRing><coordinates>121.572058,25.043474,0.0 121.572007,25.042865,0.0 121.572517,25.042244,0.0 121.573115,25.042187,0.0 121.574105,25.041957,0.0 121.575358,25.041903,0.0 121.576836,25.042007,0.0 121.577819,25.042109,0.0 121.577827,25.043265,0.0 121.576876,25.043291,0.0 121.575412,25.043362,0.0 121.573382,25.043447,0.0 121.572058,25.043474,0.0</coordinates></LinearRing></outerBoundaryIs></Polygon><styleUrl>#spolygon-map</styleUrl></Placemark><Placemark><Polygon><outerBoundaryIs><LinearRing><coordinates>121.57019,25.042315,0.0 121.569657,25.042507,0.0 121.569545,25.042708,0.0 121.569408,25.042795,0.0 121.569237,25.042834,0.0 121.569004,25.042778,0.0 121.568731,25.04281,0.0 121.568434,25.043052,0.0 121.568355,25.04318,0.0 121.568165,25.043276,0.0 121.567933,25.043287,0.0 121.567731,25.043413,0.0 121.567652,25.043615,0.0 121.56752,25.043621,0.0 121.56713,25.04339,0.0 121.566292,25.043345,0.0 121.565559,25.042952,0.0 121.565385,25.042671,0.0 121.565056,25.042139,0.0 121.564811,25.041734,0.0 121.564006,25.040309,0.0 121.563381,25.039179,0.0 121.566114,25.03912,0.0 121.567628,25.039083,0.0 121.569829,25.03905,0.0 121.569977,25.040525,0.0 121.570162,25.040714,0.0 121.570275,25.040956,0.0 121.570261,25.041144,0.0 121.570173,25.041222,0.0 121.570175,25.041724,0.0 121.570189,25.042279,0.0 121.57019,25.042315,0.0</coordinates></LinearRing></outerBoundaryIs></Polygon><styleUrl>#spolygon-map</styleUrl></Placemark><Placemark><Polygon><outerBoundaryIs><LinearRing><coordinates>121.582861,25.043452,0.0 121.582304,25.043926,0.0 121.581703,25.043873,0.0 121.581218,25.043225,0.0 121.581466,25.042618,0.0 121.58102,25.041777,0.0 121.580779,25.040758,0.0 121.580515,25.040226,0.0 121.580239,25.039933,0.0 121.581509,25.039996,0.0 121.581898,25.040143,0.0 121.583481,25.040739,0.0 121.585056,25.041535,0.0 121.58506,25.041827,0.0 121.583954,25.04257,0.0 121.583251,25.043098,0.0 121.582865,25.043439,0.0 121.582861,25.043452,0.0</coordinates></LinearRing></outerBoundaryIs></Polygon><styleUrl>#spolygon-map</styleUrl></Placemark><Placemark><Polygon><outerBoundaryIs><LinearRing><coordinates>121.580709,25.04537,0.0 121.580036,25.045372,0.0 121.578882,25.045406,0.0 121.577819,25.045427,0.0 121.577823,25.044303,0.0 121.577826,25.043573,0.0 121.577828,25.042884,0.0 121.577832,25.041728,0.0 121.577883,25.040833,0.0 121.578745,25.041271,0.0 121.580205,25.042229,0.0 121.580405,25.0424,0.0 121.58152,25.043629,0.0 121.581951,25.044204,0.0 121.581447,25.044688,0.0 121.580709,25.04537,0.0</coordinates></LinearRing></outerBoundaryIs></Polygon><styleUrl>#spolygon-map</styleUrl></Placemark><Placemark><Polygon><outerBoundaryIs><LinearRing><coordinates>121.577819,25.045438,0.0 121.576984,25.045462,0.0 121.575489,25.044959,0.0 121.575489,25.044854,0.0 121.575475,25.044524,0.0 121.575473,25.044351,0.0 121.575457,25.043937,0.0 121.575435,25.043361,0.0 121.577159,25.043282,0.0 121.577826,25.043557,0.0 121.577823,25.044299,0.0 121.577821,25.045044,0.0 121.577819,25.045438,0.0</coordinates></LinearRing></outerBoundaryIs></Polygon><styleUrl>#spolygon-map</styleUrl></Placemark><Placemark><Polygon><outerBoundaryIs><LinearRing><coordinates>121.575503,25.045505,0.0 121.574183,25.045543,0.0 121.572705,25.045586,0.0 121.572091,25.045263,0.0 121.572058,25.044313,0.0 121.572058,25.043474,0.0 121.573382,25.043447,0.0 121.575412,25.043362,0.0 121.575455,25.043892,0.0 121.575465,25.044141,0.0 121.575476,25.044408,0.0 121.575489,25.044849,0.0 121.57549,25.044925,0.0 121.575503,25.045505,0.0</coordinates></LinearRing></outerBoundaryIs></Polygon><styleUrl>#spolygon-map</styleUrl></Placemark><Placemark><Polygon><outerBoundaryIs><LinearRing><coordinates>121.572102,25.045603,0.0 121.57037,25.04563,0.0 121.570306,25.045542,0.0 121.570287,25.045007,0.0 121.570269,25.044509,0.0 121.570255,25.044136,0.0 121.570243,25.043797,0.0 121.570232,25.043497,0.0 121.570219,25.043119,0.0 121.57021,25.042857,0.0 121.57024,25.042314,0.0 121.571403,25.042634,0.0 121.571759,25.042767,0.0 121.572029,25.043458,0.0 121.572058,25.044313,0.0 121.572091,25.045263,0.0 121.572102,25.045603,0.0</coordinates></LinearRing></outerBoundaryIs></Polygon><styleUrl>#spolygon-map</styleUrl></Placemark><Placemark><Polygon><outerBoundaryIs><LinearRing><coordinates>121.569329,25.045629,0.0 121.568871,25.045643,0.0 121.56736,25.045686,0.0 121.567166,25.045642,0.0 121.567076,25.045493,0.0 121.566314,25.044225,0.0 121.566127,25.043367,0.0 121.566559,25.043309,0.0 121.567382,25.043525,0.0 121.567661,25.043709,0.0 121.567666,25.043517,0.0 121.567847,25.04332,0.0 121.568064,25.043279,0.0 121.568298,25.043226,0.0 121.568375,25.043155,0.0 121.568594,25.042875,0.0 121.568775,25.042795,0.0 121.569091,25.042808,0.0 121.569361,25.042812,0.0 121.569504,25.042746,0.0 121.569631,25.042588,0.0 121.569809,25.042322,0.0 121.570209,25.042833,0.0 121.570218,25.043085,0.0 121.570226,25.043305,0.0 121.570241,25.043748,0.0 121.570253,25.04409,0.0 121.570262,25.044315,0.0 121.570283,25.044916,0.0 121.570297,25.04529,0.0 121.569975,25.045611,0.0 121.569329,25.045629,0.0</coordinates></LinearRing></outerBoundaryIs></Polygon><styleUrl>#spolygon-map</styleUrl></Placemark><Placemark><Polygon><outerBoundaryIs><LinearRing><coordinates>121.575284,25.046084,0.0 121.575295,25.0464,0.0 121.57554,25.046897,0.0 121.574592,25.04709,0.0 121.574896,25.047537,0.0 121.574896,25.048126,0.0 121.574795,25.048355,0.0 121.573115,25.047434,0.0 121.572738,25.047231,0.0 121.571673,25.046622,0.0 121.571101,25.046214,0.0 121.570936,25.045621,0.0 121.572142,25.045603,0.0 121.57391,25.045551,0.0 121.575492,25.045505,0.0 121.575514,25.045992,0.0 121.575284,25.046084,0.0</coordinates></LinearRing></outerBoundaryIs></Polygon><styleUrl>#spolygon-map</styleUrl></Placemark><Placemark><Polygon><outerBoundaryIs><LinearRing><coordinates>121.567195,25.045691,0.0 121.567261,25.0458,0.0 121.568111,25.047214,0.0 121.569227,25.049067,0.0 121.569121,25.049143,0.0 121.567307,25.048684,0.0 121.565067,25.048018,0.0 121.563505,25.047477,0.0 121.561263,25.046587,0.0 121.560397,25.046205,0.0 121.559485,25.045804,0.0 121.558405,25.045362,0.0 121.557773,25.045074,0.0 121.55776,25.044534,0.0 121.557744,25.043917,0.0 121.557722,25.043031,0.0 121.557688,25.041712,0.0 121.561583,25.041248,0.0 121.562762,25.041216,0.0 121.564511,25.041168,0.0 121.564846,25.0418,0.0 121.565256,25.042462,0.0 121.565527,25.0429,0.0 121.566045,25.04376,0.0 121.566822,25.04507,0.0 121.567099,25.045532,0.0 121.567195,25.045691,0.0</coordinates></LinearRing></outerBoundaryIs></Polygon><styleUrl>#spolygon-map</styleUrl></Placemark><Placemark><Polygon><outerBoundaryIs><LinearRing><coordinates>121.580115,25.049257,0.0 121.577812,25.048212,0.0 121.577816,25.047446,0.0 121.577805,25.046496,0.0 121.577813,25.04594,0.0 121.578372,25.045422,0.0 121.579623,25.045384,0.0 121.580672,25.045371,0.0 121.580689,25.046143,0.0 121.58067,25.046889,0.0 121.580616,25.047488,0.0 121.58018,25.048107,0.0 121.580115,25.049257,0.0</coordinates></LinearRing></outerBoundaryIs></Polygon><styleUrl>#spolygon-map</styleUrl></Placemark><Placemark><Polygon><outerBoundaryIs><LinearRing><coordinates>121.572738,25.047231,0.0 121.572726,25.048281,0.0 121.572741,25.049377,0.0 121.572246,25.049371,0.0 121.571679,25.049365,0.0 121.570687,25.049354,0.0 121.569526,25.049217,0.0 121.569227,25.049067,0.0 121.568111,25.047214,0.0 121.567261,25.0458,0.0 121.567195,25.045691,0.0 121.568807,25.045644,0.0 121.569187,25.045634,0.0 121.569975,25.045611,0.0 121.570463,25.045704,0.0 121.571547,25.046532,0.0 121.572214,25.046945,0.0 121.572738,25.047231,0.0</coordinates></LinearRing></outerBoundaryIs></Polygon><styleUrl>#spolygon-map</styleUrl></Placemark><Placemark><Polygon><outerBoundaryIs><LinearRing><coordinates>121.57321,25.049368,0.0 121.572733,25.048377,0.0 121.572724,25.047256,0.0 121.572924,25.047331,0.0 121.573957,25.047886,0.0 121.574894,25.04818,0.0 121.574898,25.047573,0.0 121.57459,25.047123,0.0 121.575541,25.046935,0.0 121.5753,25.046544,0.0 121.575292,25.046312,0.0 121.575509,25.045845,0.0 121.576984,25.045462,0.0 121.577819,25.045438,0.0 121.577809,25.046247,0.0 121.577807,25.046891,0.0 121.577825,25.048033,0.0 121.577816,25.048935,0.0 121.576684,25.049301,0.0 121.576027,25.049314,0.0 121.574836,25.049336,0.0 121.574075,25.049351,0.0 121.57321,25.049368,0.0</coordinates></LinearRing></outerBoundaryIs></Polygon><styleUrl>#spolygon-map</styleUrl></Placemark></Document>
</kml>
