<?xml version="1.0" encoding="UTF-8"?>
<kml xmlns="http://www.opengis.net/kml/2.2">
	<Document>
		<name>臺北市中正區</name>
		<Style id="spolygon">
			<LabelStyle>
				<scale>0.0</scale>
			</LabelStyle>
			<LineStyle>
				<color>330030ff</color>
				<width>0</width>
			</LineStyle>
			<PolyStyle>
				<color>330030ff</color>
			</PolyStyle>
		</Style>
		<StyleMap id="spolygon-map">
			<Pair>
				<key>normal</key>
				<styleUrl>#spolygon</styleUrl>
			</Pair>
		</StyleMap>
	<Placemark><Polygon><outerBoundaryIs><LinearRing><coordinates>121.537098,25.011176,0.0 121.537132,25.011227,0.0 121.536747,25.01192,0.0 121.536074,25.013017,0.0 121.534816,25.014284,0.0 121.533702,25.015346,0.0 121.532754,25.015084,0.0 121.53224,25.015096,0.0 121.53154,25.014445,0.0 121.531002,25.0141,0.0 121.530143,25.013458,0.0 121.5285,25.011973,0.0 121.52831,25.01178,0.0 121.527237,25.010723,0.0 121.530725,25.009587,0.0 121.53232,25.008834,0.0 121.532673,25.00903,0.0 121.534501,25.010131,0.0 121.536212,25.011016,0.0 121.536865,25.01112,0.0 121.537098,25.011176,0.0</coordinates></LinearRing></outerBoundaryIs></Polygon><styleUrl>#spolygon-map</styleUrl></Placemark><Placemark><Polygon><outerBoundaryIs><LinearRing><coordinates>121.53225,25.015106,0.0 121.530391,25.016413,0.0 121.529047,25.017346,0.0 121.528566,25.017545,0.0 121.527833,25.016999,0.0 121.527078,25.016297,0.0 121.526054,25.015292,0.0 121.525143,25.012635,0.0 121.526655,25.011085,0.0 121.527975,25.011439,0.0 121.528449,25.011921,0.0 121.529858,25.013283,0.0 121.530426,25.013629,0.0 121.531332,25.014261,0.0 121.531796,25.014681,0.0 121.53225,25.015106,0.0</coordinates></LinearRing></outerBoundaryIs></Polygon><styleUrl>#spolygon-map</styleUrl></Placemark><Placemark><Polygon><outerBoundaryIs><LinearRing><coordinates>121.529295,25.019687,0.0 121.52879,25.019284,0.0 121.528081,25.018691,0.0 121.527813,25.018184,0.0 121.528784,25.017531,0.0 121.530382,25.016419,0.0 121.531994,25.015289,0.0 121.532754,25.015084,0.0 121.533357,25.015675,0.0 121.532398,25.016629,0.0 121.531565,25.017442,0.0 121.530666,25.018319,0.0 121.529785,25.019194,0.0 121.529295,25.019687,0.0</coordinates></LinearRing></outerBoundaryIs></Polygon><styleUrl>#spolygon-map</styleUrl></Placemark><Placemark><Polygon><outerBoundaryIs><LinearRing><coordinates>121.52928,25.019702,0.0 121.52911,25.019874,0.0 121.528213,25.020667,0.0 121.527566,25.020865,0.0 121.527013,25.020815,0.0 121.5255,25.020973,0.0 121.524992,25.021057,0.0 121.523852,25.020817,0.0 121.522494,25.020389,0.0 121.522282,25.020204,0.0 121.521598,25.017557,0.0 121.522413,25.016425,0.0 121.523609,25.014765,0.0 121.525994,25.015231,0.0 121.526589,25.015757,0.0 121.527566,25.01677,0.0 121.528464,25.017505,0.0 121.528304,25.017881,0.0 121.527629,25.018313,0.0 121.528409,25.018966,0.0 121.529179,25.019611,0.0 121.52928,25.019702,0.0</coordinates></LinearRing></outerBoundaryIs></Polygon><styleUrl>#spolygon-map</styleUrl></Placemark><Placemark><Polygon><outerBoundaryIs><LinearRing><coordinates>121.521437,25.023703,0.0 121.520169,25.023781,0.0 121.517812,25.023914,0.0 121.516817,25.023816,0.0 121.516835,25.023056,0.0 121.516654,25.022104,0.0 121.516553,25.021791,0.0 121.51634,25.020924,0.0 121.519044,25.019786,0.0 121.520115,25.020682,0.0 121.520198,25.020949,0.0 121.520385,25.021655,0.0 121.52045,25.022177,0.0 121.520671,25.022577,0.0 121.52091,25.022943,0.0 121.521368,25.023612,0.0 121.521437,25.023703,0.0</coordinates></LinearRing></outerBoundaryIs></Polygon><styleUrl>#spolygon-map</styleUrl></Placemark><Placemark><Polygon><outerBoundaryIs><LinearRing><coordinates>121.525487,25.020984,0.0 121.52437,25.021942,0.0 121.523353,25.022851,0.0 121.522651,25.023443,0.0 121.522295,25.023733,0.0 121.521733,25.024094,0.0 121.521229,25.023431,0.0 121.520866,25.022868,0.0 121.520647,25.02254,0.0 121.520402,25.021882,0.0 121.520362,25.021353,0.0 121.520213,25.020946,0.0 121.519621,25.019353,0.0 121.52141,25.019411,0.0 121.52248,25.020386,0.0 121.523307,25.020674,0.0 121.524663,25.021028,0.0 121.525487,25.020984,0.0</coordinates></LinearRing></outerBoundaryIs></Polygon><styleUrl>#spolygon-map</styleUrl></Placemark><Placemark><Polygon><outerBoundaryIs><LinearRing><coordinates>121.526156,25.022459,0.0 121.525509,25.023056,0.0 121.525145,25.023476,0.0 121.524806,25.023899,0.0 121.52427,25.02461,0.0 121.523401,25.025774,0.0 121.522799,25.025481,0.0 121.522516,25.025194,0.0 121.522426,25.024901,0.0 121.521966,25.024388,0.0 121.522295,25.023733,0.0 121.522651,25.023443,0.0 121.523353,25.022851,0.0 121.52437,25.021942,0.0 121.525487,25.020984,0.0 121.526751,25.020843,0.0 121.527356,25.020809,0.0 121.527727,25.021096,0.0 121.527147,25.021595,0.0 121.526606,25.022062,0.0 121.526156,25.022459,0.0</coordinates></LinearRing></outerBoundaryIs></Polygon><styleUrl>#spolygon-map</styleUrl></Placemark><Placemark><Polygon><outerBoundaryIs><LinearRing><coordinates>121.523357,25.025834,0.0 121.523066,25.026224,0.0 121.522761,25.026632,0.0 121.521664,25.026932,0.0 121.519874,25.026594,0.0 121.519074,25.026466,0.0 121.519006,25.026007,0.0 121.51906,25.025073,0.0 121.520243,25.024784,0.0 121.521264,25.024378,0.0 121.521749,25.024116,0.0 121.522407,25.024881,0.0 121.522451,25.025112,0.0 121.522783,25.02546,0.0 121.523357,25.025834,0.0</coordinates></LinearRing></outerBoundaryIs></Polygon><styleUrl>#spolygon-map</styleUrl></Placemark><Placemark><Polygon><outerBoundaryIs><LinearRing><coordinates>121.518982,25.026472,0.0 121.516708,25.027087,0.0 121.515987,25.027302,0.0 121.516273,25.026036,0.0 121.516481,25.025256,0.0 121.516617,25.024769,0.0 121.516753,25.024284,0.0 121.51681,25.023913,0.0 121.517744,25.023918,0.0 121.519063,25.023846,0.0 121.521409,25.023705,0.0 121.521749,25.024116,0.0 121.521264,25.024378,0.0 121.520243,25.024784,0.0 121.51906,25.025073,0.0 121.519006,25.026007,0.0 121.518982,25.026472,0.0</coordinates></LinearRing></outerBoundaryIs></Polygon><styleUrl>#spolygon-map</styleUrl></Placemark><Placemark><Polygon><outerBoundaryIs><LinearRing><coordinates>121.515985,25.027316,0.0 121.515572,25.027408,0.0 121.514698,25.027669,0.0 121.514545,25.02736,0.0 121.514176,25.026698,0.0 121.513935,25.026247,0.0 121.512963,25.024945,0.0 121.51235,25.024169,0.0 121.512423,25.024083,0.0 121.51279,25.023834,0.0 121.513653,25.02159,0.0 121.516211,25.020978,0.0 121.516553,25.021791,0.0 121.516654,25.022104,0.0 121.516835,25.023056,0.0 121.516817,25.023816,0.0 121.516763,25.024236,0.0 121.516682,25.024537,0.0 121.516544,25.025029,0.0 121.516363,25.025696,0.0 121.516017,25.027039,0.0 121.515985,25.027316,0.0</coordinates></LinearRing></outerBoundaryIs></Polygon><styleUrl>#spolygon-map</styleUrl></Placemark><Placemark><Polygon><outerBoundaryIs><LinearRing><coordinates>121.510931,25.027087,0.0 121.510258,25.02743,0.0 121.509857,25.027718,0.0 121.509379,25.02806,0.0 121.508589,25.028985,0.0 121.508063,25.028072,0.0 121.507166,25.026866,0.0 121.507624,25.026298,0.0 121.507907,25.02605,0.0 121.509199,25.025011,0.0 121.510169,25.024664,0.0 121.510414,25.025454,0.0 121.510565,25.025925,0.0 121.510931,25.027087,0.0</coordinates></LinearRing></outerBoundaryIs></Polygon><styleUrl>#spolygon-map</styleUrl></Placemark><Placemark><Polygon><outerBoundaryIs><LinearRing><coordinates>121.514636,25.027687,0.0 121.513171,25.028462,0.0 121.511684,25.028478,0.0 121.511208,25.027701,0.0 121.510931,25.027087,0.0 121.510551,25.025881,0.0 121.510382,25.02535,0.0 121.510869,25.02448,0.0 121.511454,25.024333,0.0 121.51235,25.024169,0.0 121.512963,25.024945,0.0 121.513935,25.026247,0.0 121.514176,25.026698,0.0 121.514545,25.02736,0.0 121.514636,25.027687,0.0</coordinates></LinearRing></outerBoundaryIs></Polygon><styleUrl>#spolygon-map</styleUrl></Placemark><Placemark><Polygon><outerBoundaryIs><LinearRing><coordinates>121.508589,25.028985,0.0 121.507914,25.029817,0.0 121.507231,25.030669,0.0 121.506757,25.030628,0.0 121.505747,25.030378,0.0 121.504459,25.030082,0.0 121.504136,25.029953,0.0 121.504828,25.029194,0.0 121.505284,25.028707,0.0 121.505835,25.028103,0.0 121.506356,25.027544,0.0 121.507654,25.027522,0.0 121.50828,25.028467,0.0 121.508589,25.028985,0.0</coordinates></LinearRing></outerBoundaryIs></Polygon><styleUrl>#spolygon-map</styleUrl></Placemark><Placemark><Polygon><outerBoundaryIs><LinearRing><coordinates>121.507701,25.030541,0.0 121.507273,25.030617,0.0 121.508096,25.029591,0.0 121.508943,25.028501,0.0 121.50948,25.027985,0.0 121.509965,25.027638,0.0 121.510497,25.027308,0.0 121.511093,25.027492,0.0 121.511239,25.027756,0.0 121.512045,25.029035,0.0 121.511149,25.029532,0.0 121.508914,25.029548,0.0 121.507701,25.030541,0.0</coordinates></LinearRing></outerBoundaryIs></Polygon><styleUrl>#spolygon-map</styleUrl></Placemark><Placemark><Polygon><outerBoundaryIs><LinearRing><coordinates>121.52157,25.028228,0.0 121.520976,25.02904,0.0 121.520384,25.029848,0.0 121.520015,25.030363,0.0 121.51962,25.030915,0.0 121.519299,25.031364,0.0 121.518641,25.031358,0.0 121.518335,25.031177,0.0 121.517963,25.030958,0.0 121.517467,25.030665,0.0 121.516951,25.03036,0.0 121.515277,25.029802,0.0 121.515407,25.029346,0.0 121.515607,25.028643,0.0 121.515873,25.02771,0.0 121.516258,25.027206,0.0 121.518,25.026737,0.0 121.51969,25.02656,0.0 121.520926,25.026789,0.0 121.522426,25.02708,0.0 121.521999,25.027607,0.0 121.52157,25.028228,0.0</coordinates></LinearRing></outerBoundaryIs></Polygon><styleUrl>#spolygon-map</styleUrl></Placemark><Placemark><Polygon><outerBoundaryIs><LinearRing><coordinates>121.515277,25.029802,0.0 121.514939,25.030652,0.0 121.514424,25.03192,0.0 121.509277,25.030584,0.0 121.511275,25.029466,0.0 121.513171,25.028462,0.0 121.514636,25.027687,0.0 121.515048,25.027565,0.0 121.515942,25.027325,0.0 121.515741,25.028171,0.0 121.515513,25.028975,0.0 121.515377,25.029451,0.0 121.515277,25.029802,0.0</coordinates></LinearRing></outerBoundaryIs></Polygon><styleUrl>#spolygon-map</styleUrl></Placemark><Placemark><Polygon><outerBoundaryIs><LinearRing><coordinates>121.506987,25.032026,0.0 121.506038,25.032826,0.0 121.505717,25.033103,0.0 121.50509,25.033058,0.0 121.504674,25.032264,0.0 121.504161,25.031248,0.0 121.504151,25.03078,0.0 121.504155,25.030631,0.0 121.504182,25.030032,0.0 121.505447,25.030299,0.0 121.506006,25.030447,0.0 121.507053,25.030665,0.0 121.507701,25.030541,0.0 121.508952,25.029611,0.0 121.507744,25.031361,0.0 121.506987,25.032026,0.0</coordinates></LinearRing></outerBoundaryIs></Polygon><styleUrl>#spolygon-map</styleUrl></Placemark><Placemark><Polygon><outerBoundaryIs><LinearRing><coordinates>121.521597,25.032752,0.0 121.520432,25.033313,0.0 121.518617,25.034144,0.0 121.516843,25.034783,0.0 121.518186,25.032953,0.0 121.518692,25.032203,0.0 121.519299,25.031364,0.0 121.51962,25.030915,0.0 121.520015,25.030363,0.0 121.520384,25.029848,0.0 121.520976,25.02904,0.0 121.52157,25.028228,0.0 121.521818,25.028614,0.0 121.522018,25.029572,0.0 121.522125,25.030117,0.0 121.522267,25.03084,0.0 121.522335,25.031186,0.0 121.521614,25.032744,0.0 121.521597,25.032752,0.0</coordinates></LinearRing></outerBoundaryIs></Polygon><styleUrl>#spolygon-map</styleUrl></Placemark><Placemark><Polygon><outerBoundaryIs><LinearRing><coordinates>121.516711,25.034953,0.0 121.514996,25.035097,0.0 121.512491,25.035257,0.0 121.513613,25.033219,0.0 121.514814,25.030966,0.0 121.515144,25.030135,0.0 121.516384,25.030055,0.0 121.516998,25.03039,0.0 121.517587,25.030735,0.0 121.518014,25.030988,0.0 121.518522,25.031287,0.0 121.519098,25.031643,0.0 121.518319,25.032718,0.0 121.517669,25.033591,0.0 121.516711,25.034953,0.0</coordinates></LinearRing></outerBoundaryIs></Polygon><styleUrl>#spolygon-map</styleUrl></Placemark><Placemark><Polygon><outerBoundaryIs><LinearRing><coordinates>121.512491,25.035257,0.0 121.510852,25.035694,0.0 121.509721,25.036142,0.0 121.508068,25.036824,0.0 121.507743,25.035727,0.0 121.507602,25.034873,0.0 121.507466,25.033999,0.0 121.507393,25.03324,0.0 121.507315,25.032311,0.0 121.50701,25.032005,0.0 121.508335,25.031021,0.0 121.512128,25.031333,0.0 121.513613,25.033219,0.0 121.512491,25.035257,0.0</coordinates></LinearRing></outerBoundaryIs></Polygon><styleUrl>#spolygon-map</styleUrl></Placemark><Placemark><Polygon><outerBoundaryIs><LinearRing><coordinates>121.508058,25.036828,0.0 121.506771,25.037065,0.0 121.506214,25.035211,0.0 121.505843,25.034408,0.0 121.505456,25.033672,0.0 121.505766,25.033061,0.0 121.50642,25.032498,0.0 121.5073,25.032299,0.0 121.50739,25.033202,0.0 121.507458,25.033937,0.0 121.507599,25.034857,0.0 121.507739,25.035703,0.0 121.508058,25.036828,0.0</coordinates></LinearRing></outerBoundaryIs></Polygon><styleUrl>#spolygon-map</styleUrl></Placemark><Placemark><Polygon><outerBoundaryIs><LinearRing><coordinates>121.528957,25.036983,0.0 121.526424,25.037566,0.0 121.52509,25.037847,0.0 121.524909,25.037208,0.0 121.524489,25.035831,0.0 121.524955,25.035152,0.0 121.525365,25.034959,0.0 121.525768,25.034769,0.0 121.526753,25.034291,0.0 121.527289,25.034079,0.0 121.527835,25.034474,0.0 121.528071,25.035338,0.0 121.528267,25.036055,0.0 121.528522,25.036295,0.0 121.528836,25.036792,0.0 121.528957,25.036983,0.0</coordinates></LinearRing></outerBoundaryIs></Polygon><styleUrl>#spolygon-map</styleUrl></Placemark><Placemark><Polygon><outerBoundaryIs><LinearRing><coordinates>121.532777,25.038181,0.0 121.531642,25.038198,0.0 121.530662,25.038216,0.0 121.529367,25.038123,0.0 121.529227,25.037656,0.0 121.528926,25.036934,0.0 121.528743,25.036643,0.0 121.528451,25.036169,0.0 121.5282,25.035812,0.0 121.527954,25.03491,0.0 121.527723,25.033997,0.0 121.528277,25.033923,0.0 121.529998,25.033711,0.0 121.530507,25.033646,0.0 121.531488,25.033625,0.0 121.532416,25.033605,0.0 121.532707,25.034389,0.0 121.532718,25.034812,0.0 121.532724,25.035042,0.0 121.532753,25.036147,0.0 121.532768,25.036703,0.0 121.532772,25.037392,0.0 121.532777,25.038181,0.0</coordinates></LinearRing></outerBoundaryIs></Polygon><styleUrl>#spolygon-map</styleUrl></Placemark><Placemark><Polygon><outerBoundaryIs><LinearRing><coordinates>121.529221,25.040859,0.0 121.527018,25.041378,0.0 121.526178,25.041583,0.0 121.52558,25.03956,0.0 121.525505,25.039314,0.0 121.525411,25.038996,0.0 121.525338,25.038725,0.0 121.525115,25.037933,0.0 121.526424,25.037566,0.0 121.528957,25.036983,0.0 121.529243,25.037695,0.0 121.52941,25.038227,0.0 121.529452,25.038624,0.0 121.529448,25.03933,0.0 121.529947,25.04011,0.0 121.529221,25.040859,0.0</coordinates></LinearRing></outerBoundaryIs></Polygon><styleUrl>#spolygon-map</styleUrl></Placemark><Placemark><Polygon><outerBoundaryIs><LinearRing><coordinates>121.51772,25.0391,0.0 121.513002,25.039966,0.0 121.513238,25.04232,0.0 121.510572,25.042248,0.0 121.508301,25.04215,0.0 121.507448,25.039233,0.0 121.507151,25.038239,0.0 121.506879,25.037352,0.0 121.508058,25.036828,0.0 121.508236,25.036754,0.0 121.510816,25.035696,0.0 121.512463,25.035257,0.0 121.51475,25.035113,0.0 121.516615,25.034995,0.0 121.516585,25.035299,0.0 121.517626,25.038774,0.0 121.51772,25.0391,0.0</coordinates></LinearRing></outerBoundaryIs></Polygon><styleUrl>#spolygon-map</styleUrl></Placemark><Placemark><Polygon><outerBoundaryIs><LinearRing><coordinates>121.532853,25.042336,0.0 121.531078,25.042806,0.0 121.529879,25.043123,0.0 121.529609,25.042221,0.0 121.529367,25.041371,0.0 121.529947,25.04011,0.0 121.529448,25.03933,0.0 121.529452,25.038624,0.0 121.530634,25.038217,0.0 121.531636,25.038198,0.0 121.532526,25.038182,0.0 121.532806,25.039243,0.0 121.532836,25.040682,0.0 121.532841,25.041155,0.0 121.532853,25.042336,0.0</coordinates></LinearRing></outerBoundaryIs></Polygon><styleUrl>#spolygon-map</styleUrl></Placemark><Placemark><Polygon><outerBoundaryIs><LinearRing><coordinates>121.522684,25.042429,0.0 121.520758,25.042883,0.0 121.51817,25.040735,0.0 121.51772,25.0391,0.0 121.517532,25.038631,0.0 121.516584,25.035117,0.0 121.517137,25.034716,0.0 121.519219,25.033895,0.0 121.520483,25.033288,0.0 121.521614,25.032744,0.0 121.522584,25.032637,0.0 121.523378,25.033967,0.0 121.523849,25.034737,0.0 121.524331,25.035476,0.0 121.52461,25.036208,0.0 121.524996,25.03751,0.0 121.525115,25.037933,0.0 121.525338,25.038725,0.0 121.525411,25.038996,0.0 121.525505,25.039314,0.0 121.52558,25.03956,0.0 121.526178,25.041583,0.0 121.522684,25.042429,0.0</coordinates></LinearRing></outerBoundaryIs></Polygon><styleUrl>#spolygon-map</styleUrl></Placemark><Placemark><Polygon><outerBoundaryIs><LinearRing><coordinates>121.526843,25.043956,0.0 121.525137,25.044374,0.0 121.520054,25.045602,0.0 121.519558,25.045486,0.0 121.519359,25.043215,0.0 121.52256,25.042457,0.0 121.52645,25.041515,0.0 121.528138,25.041114,0.0 121.529309,25.041168,0.0 121.529595,25.042172,0.0 121.529866,25.043126,0.0 121.528696,25.043458,0.0 121.526843,25.043956,0.0</coordinates></LinearRing></outerBoundaryIs></Polygon><styleUrl>#spolygon-map</styleUrl></Placemark><Placemark><Polygon><outerBoundaryIs><LinearRing><coordinates>121.524245,25.047818,0.0 121.52326,25.047894,0.0 121.521518,25.048004,0.0 121.520753,25.048048,0.0 121.520132,25.04676,0.0 121.519697,25.045854,0.0 121.520054,25.045602,0.0 121.525137,25.044374,0.0 121.526843,25.043956,0.0 121.528696,25.043458,0.0 121.529866,25.043126,0.0 121.530756,25.042891,0.0 121.532375,25.042462,0.0 121.532898,25.044117,0.0 121.53289,25.045454,0.0 121.53266,25.045627,0.0 121.530885,25.046067,0.0 121.530648,25.046068,0.0 121.52748,25.046981,0.0 121.526022,25.047451,0.0 121.524306,25.047808,0.0 121.524245,25.047818,0.0</coordinates></LinearRing></outerBoundaryIs></Polygon><styleUrl>#spolygon-map</styleUrl></Placemark><Placemark><Polygon><outerBoundaryIs><LinearRing><coordinates>121.518984,25.048408,0.0 121.516476,25.048776,0.0 121.516179,25.048819,0.0 121.514888,25.049057,0.0 121.51413,25.049232,0.0 121.513367,25.049216,0.0 121.513338,25.047377,0.0 121.513287,25.045986,0.0 121.513234,25.044391,0.0 121.513231,25.042818,0.0 121.513147,25.041438,0.0 121.515586,25.039597,0.0 121.517764,25.039293,0.0 121.518946,25.043312,0.0 121.519645,25.04568,0.0 121.520067,25.046624,0.0 121.520727,25.047994,0.0 121.52068,25.0481,0.0 121.51933,25.048345,0.0 121.518984,25.048408,0.0</coordinates></LinearRing></outerBoundaryIs></Polygon><styleUrl>#spolygon-map</styleUrl></Placemark><Placemark><Polygon><outerBoundaryIs><LinearRing><coordinates>121.513334,25.04947,0.0 121.512012,25.049912,0.0 121.511636,25.048817,0.0 121.510933,25.048068,0.0 121.510584,25.048108,0.0 121.509636,25.047227,0.0 121.509817,25.04693,0.0 121.509403,25.046012,0.0 121.509276,25.045576,0.0 121.508788,25.043859,0.0 121.508565,25.043076,0.0 121.50964,25.0422,0.0 121.513208,25.042319,0.0 121.513238,25.043467,0.0 121.513234,25.044545,0.0 121.513285,25.047081,0.0 121.513342,25.048053,0.0 121.513358,25.04938,0.0 121.513334,25.04947,0.0</coordinates></LinearRing></outerBoundaryIs></Polygon><styleUrl>#spolygon-map</styleUrl></Placemark></Document>
</kml>
