<?xml version="1.0" encoding="UTF-8"?>
<kml xmlns="http://www.opengis.net/kml/2.2">
	<Document>
		<name>花蓮縣壽豐鄉</name>
		<Style id="spolygon">
			<LabelStyle>
				<scale>0.0</scale>
			</LabelStyle>
			<LineStyle>
				<color>330030ff</color>
				<width>0</width>
			</LineStyle>
			<PolyStyle>
				<color>330030ff</color>
			</PolyStyle>
		</Style>
		<StyleMap id="spolygon-map">
			<Pair>
				<key>normal</key>
				<styleUrl>#spolygon</styleUrl>
			</Pair>
		</StyleMap>
	<Placemark><Polygon><outerBoundaryIs><LinearRing><coordinates>121.592308,23.911152,0.0 121.587589,23.905101,0.0 121.584044,23.89972,0.0 121.581977,23.896761,0.0 121.577482,23.891748,0.0 121.570585,23.890965,0.0 121.563832,23.889641,0.0 121.557508,23.885417,0.0 121.556214,23.880176,0.0 121.540536,23.860634,0.0 121.535349,23.85046,0.0 121.530333,23.843125,0.0 121.525622,23.833022,0.0 121.532724,23.827872,0.0 121.543554,23.824995,0.0 121.552501,23.826157,0.0 121.558694,23.830794,0.0 121.564326,23.832767,0.0 121.567869,23.835876,0.0 121.570282,23.838468,0.0 121.57298,23.840353,0.0 121.573541,23.844285,0.0 121.575249,23.846652,0.0 121.573568,23.850355,0.0 121.57264,23.855479,0.0 121.570889,23.858732,0.0 121.572127,23.862474,0.0 121.574044,23.865952,0.0 121.57554,23.866445,0.0 121.576311,23.872063,0.0 121.577273,23.874407,0.0 121.578445,23.878399,0.0 121.582592,23.87957,0.0 121.585647,23.879246,0.0 121.586476,23.882427,0.0 121.587779,23.885295,0.0 121.587513,23.886607,0.0 121.589496,23.889409,0.0 121.590332,23.894152,0.0 121.591989,23.89659,0.0 121.593149,23.900028,0.0 121.596815,23.905751,0.0 121.596515,23.908239,0.0 121.599342,23.912339,0.0 121.59689,23.917665,0.0 121.596028,23.91661,0.0 121.594921,23.91474,0.0 121.593854,23.913067,0.0 121.592797,23.911324,0.0 121.592308,23.911152,0.0</coordinates></LinearRing></outerBoundaryIs></Polygon><styleUrl>#spolygon-map</styleUrl></Placemark><Placemark><Polygon><outerBoundaryIs><LinearRing><coordinates>121.551752,23.825132,0.0 121.547483,23.818313,0.0 121.542547,23.811123,0.0 121.538631,23.798187,0.0 121.534693,23.786835,0.0 121.532458,23.782082,0.0 121.532103,23.773187,0.0 121.522335,23.763115,0.0 121.517897,23.759045,0.0 121.517263,23.758503,0.0 121.516675,23.757848,0.0 121.516507,23.75721,0.0 121.516612,23.756447,0.0 121.516748,23.755424,0.0 121.516865,23.754784,0.0 121.517207,23.754165,0.0 121.517148,23.753664,0.0 121.516858,23.752888,0.0 121.516779,23.752033,0.0 121.51672,23.751254,0.0 121.516647,23.750324,0.0 121.516618,23.749063,0.0 121.51655,23.74844,0.0 121.516956,23.748344,0.0 121.517902,23.748415,0.0 121.51862,23.748397,0.0 121.518917,23.748188,0.0 121.519617,23.747673,0.0 121.519313,23.746248,0.0 121.519224,23.745121,0.0 121.519649,23.743914,0.0 121.519529,23.743025,0.0 121.519624,23.741589,0.0 121.519709,23.740338,0.0 121.520216,23.738939,0.0 121.520504,23.73811,0.0 121.520774,23.736976,0.0 121.521546,23.73626,0.0 121.5222,23.735445,0.0 121.522886,23.734675,0.0 121.523586,23.734282,0.0 121.524088,23.733441,0.0 121.52414,23.732,0.0 121.524526,23.731789,0.0 121.525288,23.731554,0.0 121.52627,23.731266,0.0 121.527213,23.731504,0.0 121.52789,23.732035,0.0 121.528511,23.731976,0.0 121.529252,23.732087,0.0 121.530691,23.73212,0.0 121.531843,23.732166,0.0 121.532412,23.732656,0.0 121.533304,23.733312,0.0 121.534842,23.733354,0.0 121.536059,23.733294,0.0 121.536721,23.732993,0.0 121.537408,23.732885,0.0 121.538305,23.732744,0.0 121.539085,23.733364,0.0 121.539841,23.734059,0.0 121.540979,23.734303,0.0 121.542064,23.735221,0.0 121.542496,23.735973,0.0 121.543234,23.736677,0.0 121.543623,23.737545,0.0 121.544031,23.738539,0.0 121.544706,23.739153,0.0 121.545473,23.739843,0.0 121.545189,23.740476,0.0 121.545232,23.741183,0.0 121.545733,23.741682,0.0 121.546123,23.742019,0.0 121.547065,23.741754,0.0 121.548021,23.741679,0.0 121.549267,23.741595,0.0 121.549921,23.741749,0.0 121.550612,23.742509,0.0 121.551338,23.743213,0.0 121.55249,23.743787,0.0 121.55314,23.744096,0.0 121.553792,23.743841,0.0 121.554485,23.743866,0.0 121.555553,23.743914,0.0 121.556105,23.744478,0.0 121.556734,23.744853,0.0 121.55719,23.746384,0.0 121.557841,23.747328,0.0 121.558185,23.747629,0.0 121.558442,23.748578,0.0 121.558534,23.748718,0.0 121.558738,23.74846,0.0 121.558994,23.748185,0.0 121.559358,23.747947,0.0 121.559806,23.747767,0.0 121.560212,23.747947,0.0 121.560507,23.748185,0.0 121.561023,23.74847,0.0 121.561561,23.748879,0.0 121.562094,23.748931,0.0 121.562609,23.748672,0.0 121.562991,23.748187,0.0 121.563343,23.747707,0.0 121.563646,23.747061,0.0 121.564069,23.746637,0.0 121.564514,23.746563,0.0 121.564896,23.746837,0.0 121.56535,23.747099,0.0 121.565925,23.747003,0.0 121.567015,23.746412,0.0 121.567682,23.746892,0.0 121.568266,23.747567,0.0 121.568496,23.748187,0.0 121.568602,23.748636,0.0 121.56905,23.749156,0.0 121.569134,23.749785,0.0 121.569276,23.750521,0.0 121.569734,23.751178,0.0 121.569912,23.751875,0.0 121.570319,23.752334,0.0 121.570621,23.753274,0.0 121.570971,23.754503,0.0 121.570971,23.755135,0.0 121.571499,23.755996,0.0 121.571913,23.756545,0.0 121.571899,23.756997,0.0 121.572147,23.757468,0.0 121.572122,23.758086,0.0 121.572019,23.758976,0.0 121.572207,23.759506,0.0 121.572612,23.759649,0.0 121.572911,23.760162,0.0 121.572585,23.760909,0.0 121.572461,23.761679,0.0 121.571992,23.76238,0.0 121.571434,23.762353,0.0 121.570924,23.762499,0.0 121.570677,23.763421,0.0 121.570401,23.764795,0.0 121.570254,23.76633,0.0 121.570328,23.767777,0.0 121.570475,23.769461,0.0 121.570358,23.771856,0.0 121.570329,23.774324,0.0 121.570263,23.775796,0.0 121.570216,23.777349,0.0 121.570189,23.778952,0.0 121.570182,23.780388,0.0 121.570363,23.782114,0.0 121.570503,23.783423,0.0 121.570811,23.785857,0.0 121.571042,23.787753,0.0 121.571171,23.789019,0.0 121.571363,23.789977,0.0 121.57161,23.791042,0.0 121.571808,23.792608,0.0 121.571841,23.794615,0.0 121.57195,23.796763,0.0 121.572117,23.798186,0.0 121.572188,23.798812,0.0 121.572546,23.800558,0.0 121.572853,23.802024,0.0 121.57311,23.802971,0.0 121.573425,23.803252,0.0 121.573652,23.803924,0.0 121.574157,23.805521,0.0 121.574787,23.806665,0.0 121.575137,23.808508,0.0 121.576324,23.811328,0.0 121.577115,23.812352,0.0 121.57104,23.812694,0.0 121.565272,23.814681,0.0 121.562849,23.821752,0.0 121.563574,23.824734,0.0 121.563193,23.828084,0.0 121.561626,23.83173,0.0 121.554409,23.828189,0.0 121.551752,23.825132,0.0</coordinates></LinearRing></outerBoundaryIs></Polygon><styleUrl>#spolygon-map</styleUrl></Placemark><Placemark><Polygon><outerBoundaryIs><LinearRing><coordinates>121.564996,23.917946,0.0 121.559511,23.90733,0.0 121.557372,23.900467,0.0 121.535323,23.88803,0.0 121.531681,23.894469,0.0 121.525819,23.896745,0.0 121.514485,23.89821,0.0 121.515373,23.893673,0.0 121.51323,23.88909,0.0 121.516876,23.883819,0.0 121.518107,23.879769,0.0 121.521463,23.875645,0.0 121.526401,23.873191,0.0 121.530694,23.873725,0.0 121.533153,23.877462,0.0 121.540405,23.881311,0.0 121.557508,23.885417,0.0 121.563832,23.889641,0.0 121.570585,23.890965,0.0 121.577482,23.891748,0.0 121.581977,23.896761,0.0 121.584044,23.89972,0.0 121.587589,23.905101,0.0 121.592308,23.911152,0.0 121.590881,23.910286,0.0 121.58971,23.909304,0.0 121.587326,23.910627,0.0 121.585531,23.910862,0.0 121.583441,23.912166,0.0 121.582322,23.912486,0.0 121.5798,23.913141,0.0 121.578672,23.913331,0.0 121.576405,23.913858,0.0 121.572784,23.914969,0.0 121.569628,23.915877,0.0 121.567027,23.916907,0.0 121.564996,23.917946,0.0</coordinates></LinearRing></outerBoundaryIs></Polygon><styleUrl>#spolygon-map</styleUrl></Placemark><Placemark><Polygon><outerBoundaryIs><LinearRing><coordinates>121.501202,23.883307,0.0 121.508151,23.880876,0.0 121.512525,23.87767,0.0 121.516268,23.878332,0.0 121.518107,23.879769,0.0 121.516876,23.883819,0.0 121.51323,23.88909,0.0 121.509861,23.890045,0.0 121.504054,23.886626,0.0 121.501202,23.883307,0.0</coordinates></LinearRing></outerBoundaryIs></Polygon><styleUrl>#spolygon-map</styleUrl></Placemark><Placemark><Polygon><outerBoundaryIs><LinearRing><coordinates>121.517736,23.877615,0.0 121.514785,23.87359,0.0 121.509821,23.866921,0.0 121.50849,23.864673,0.0 121.507105,23.863479,0.0 121.501678,23.857128,0.0 121.50815,23.854045,0.0 121.517155,23.85276,0.0 121.521152,23.857812,0.0 121.527151,23.858788,0.0 121.533868,23.854831,0.0 121.538778,23.856636,0.0 121.550401,23.87319,0.0 121.556428,23.884444,0.0 121.538058,23.881251,0.0 121.533129,23.877425,0.0 121.52934,23.873191,0.0 121.525782,23.873809,0.0 121.520295,23.876862,0.0 121.517736,23.877615,0.0</coordinates></LinearRing></outerBoundaryIs></Polygon><styleUrl>#spolygon-map</styleUrl></Placemark><Placemark><Polygon><outerBoundaryIs><LinearRing><coordinates>121.511898,23.947916,0.0 121.511282,23.947812,0.0 121.510812,23.947802,0.0 121.510695,23.947735,0.0 121.510586,23.947474,0.0 121.510351,23.947305,0.0 121.510007,23.947284,0.0 121.509516,23.947362,0.0 121.509133,23.947311,0.0 121.508797,23.947044,0.0 121.508735,23.946814,0.0 121.508718,23.946586,0.0 121.508545,23.946395,0.0 121.50842,23.946293,0.0 121.508151,23.94601,0.0 121.507037,23.944889,0.0 121.507034,23.944063,0.0 121.507235,23.94327,0.0 121.50794,23.943015,0.0 121.508219,23.942596,0.0 121.508519,23.941957,0.0 121.508458,23.941569,0.0 121.508506,23.941171,0.0 121.50855,23.940907,0.0 121.508502,23.940733,0.0 121.508322,23.940549,0.0 121.508219,23.940362,0.0 121.508044,23.940055,0.0 121.50705,23.93907,0.0 121.505534,23.938499,0.0 121.50546,23.937635,0.0 121.505342,23.935102,0.0 121.506163,23.932332,0.0 121.506195,23.930481,0.0 121.505025,23.928419,0.0 121.504756,23.926691,0.0 121.503662,23.924132,0.0 121.502777,23.923193,0.0 121.501975,23.922043,0.0 121.501271,23.920562,0.0 121.501124,23.918922,0.0 121.502168,23.917038,0.0 121.503039,23.914818,0.0 121.504097,23.911806,0.0 121.504518,23.909071,0.0 121.504799,23.906801,0.0 121.504815,23.904805,0.0 121.503963,23.903916,0.0 121.503785,23.902664,0.0 121.503486,23.900392,0.0 121.503518,23.898633,0.0 121.501984,23.895584,0.0 121.501776,23.894673,0.0 121.501502,23.894039,0.0 121.502494,23.893467,0.0 121.502409,23.893,0.0 121.502509,23.892641,0.0 121.502064,23.891925,0.0 121.500678,23.891726,0.0 121.499864,23.890975,0.0 121.499853,23.890419,0.0 121.499324,23.889868,0.0 121.498593,23.889785,0.0 121.498071,23.888895,0.0 121.498277,23.887788,0.0 121.498705,23.886294,0.0 121.498414,23.885719,0.0 121.496363,23.885094,0.0 121.495681,23.884557,0.0 121.494721,23.884072,0.0 121.493237,23.882547,0.0 121.492303,23.881561,0.0 121.491321,23.880431,0.0 121.490596,23.879699,0.0 121.489872,23.879248,0.0 121.488412,23.87893,0.0 121.487614,23.879079,0.0 121.486908,23.879081,0.0 121.485903,23.878389,0.0 121.484663,23.878088,0.0 121.48315,23.877668,0.0 121.482272,23.877283,0.0 121.481134,23.876406,0.0 121.479699,23.87474,0.0 121.478604,23.8738,0.0 121.47835,23.873193,0.0 121.478027,23.872012,0.0 121.478991,23.87113,0.0 121.483452,23.868014,0.0 121.491524,23.869742,0.0 121.496014,23.874313,0.0 121.501202,23.883307,0.0 121.507293,23.889717,0.0 121.511549,23.890512,0.0 121.515373,23.893673,0.0 121.514485,23.89821,0.0 121.515611,23.903019,0.0 121.516231,23.906922,0.0 121.516344,23.910253,0.0 121.517869,23.914014,0.0 121.520503,23.918123,0.0 121.522697,23.923192,0.0 121.530002,23.927067,0.0 121.535814,23.928857,0.0 121.535634,23.929191,0.0 121.535572,23.929487,0.0 121.535326,23.929985,0.0 121.534872,23.93044,0.0 121.534688,23.930648,0.0 121.534721,23.930874,0.0 121.534665,23.93129,0.0 121.534473,23.931563,0.0 121.533936,23.932076,0.0 121.533648,23.932424,0.0 121.533152,23.933098,0.0 121.531764,23.934117,0.0 121.531087,23.934607,0.0 121.530719,23.935075,0.0 121.529892,23.936216,0.0 121.529075,23.937352,0.0 121.528723,23.937502,0.0 121.527455,23.937938,0.0 121.527272,23.938024,0.0 121.526398,23.938826,0.0 121.524915,23.940177,0.0 121.523811,23.941183,0.0 121.523013,23.941915,0.0 121.522105,23.942712,0.0 121.52099,23.94373,0.0 121.520559,23.944128,0.0 121.520208,23.944394,0.0 121.519123,23.945151,0.0 121.518461,23.945607,0.0 121.517627,23.946161,0.0 121.516902,23.946647,0.0 121.516201,23.947112,0.0 121.515556,23.947486,0.0 121.514829,23.947818,0.0 121.514013,23.948194,0.0 121.513532,23.948295,0.0 121.512424,23.948023,0.0 121.511898,23.947916,0.0</coordinates></LinearRing></outerBoundaryIs></Polygon><styleUrl>#spolygon-map</styleUrl></Placemark><Placemark><Polygon><outerBoundaryIs><LinearRing><coordinates>121.525375,23.830591,0.0 121.524475,23.82327,0.0 121.523508,23.817584,0.0 121.5235,23.815013,0.0 121.523256,23.812939,0.0 121.522551,23.810163,0.0 121.521827,23.807495,0.0 121.520957,23.805897,0.0 121.519937,23.80446,0.0 121.518882,23.803549,0.0 121.518215,23.802534,0.0 121.517746,23.801208,0.0 121.517386,23.798706,0.0 121.51742,23.798155,0.0 121.517548,23.797014,0.0 121.517653,23.795294,0.0 121.517963,23.79422,0.0 121.518326,23.793386,0.0 121.519001,23.792621,0.0 121.519549,23.791915,0.0 121.519694,23.790923,0.0 121.519847,23.789945,0.0 121.519661,23.788765,0.0 121.518989,23.787366,0.0 121.517968,23.786249,0.0 121.516576,23.785146,0.0 121.51585,23.784385,0.0 121.515231,23.783446,0.0 121.514427,23.78325,0.0 121.513114,23.782663,0.0 121.512151,23.782099,0.0 121.511111,23.781692,0.0 121.5102,23.781693,0.0 121.509722,23.781665,0.0 121.508807,23.781246,0.0 121.508147,23.780806,0.0 121.507406,23.780668,0.0 121.506778,23.780575,0.0 121.50603,23.780451,0.0 121.504936,23.780243,0.0 121.503518,23.779893,0.0 121.502466,23.779406,0.0 121.501493,23.778694,0.0 121.500825,23.778075,0.0 121.499735,23.77744,0.0 121.498988,23.776937,0.0 121.497708,23.776024,0.0 121.497233,23.77555,0.0 121.496665,23.774707,0.0 121.496271,23.77379,0.0 121.496133,23.773192,0.0 121.496293,23.772645,0.0 121.496694,23.771508,0.0 121.496994,23.771013,0.0 121.497627,23.770478,0.0 121.497848,23.77017,0.0 121.49792,23.769238,0.0 121.497731,23.76808,0.0 121.497936,23.767843,0.0 121.498457,23.76759,0.0 121.498864,23.76753,0.0 121.499129,23.76727,0.0 121.499851,23.766983,0.0 121.500314,23.766749,0.0 121.500618,23.766344,0.0 121.500603,23.766089,0.0 121.500595,23.765832,0.0 121.500889,23.765806,0.0 121.502247,23.766036,0.0 121.502901,23.766136,0.0 121.503144,23.766022,0.0 121.503241,23.765701,0.0 121.503378,23.765453,0.0 121.503674,23.765447,0.0 121.504146,23.765565,0.0 121.504581,23.765503,0.0 121.504849,23.765615,0.0 121.505293,23.765801,0.0 121.505605,23.765849,0.0 121.505817,23.765774,0.0 121.505977,23.765469,0.0 121.505933,23.765178,0.0 121.50614,23.764495,0.0 121.50645,23.764244,0.0 121.506962,23.764102,0.0 121.507615,23.764089,0.0 121.508141,23.763978,0.0 121.508532,23.763853,0.0 121.509081,23.763756,0.0 121.509531,23.76366,0.0 121.509825,23.763314,0.0 121.510228,23.762963,0.0 121.510398,23.762829,0.0 121.510901,23.762999,0.0 121.511424,23.763196,0.0 121.511983,23.763352,0.0 121.512161,23.762965,0.0 121.512291,23.762229,0.0 121.512633,23.761745,0.0 121.513507,23.761006,0.0 121.514198,23.76024,0.0 121.514834,23.759712,0.0 121.515226,23.759747,0.0 121.515831,23.759657,0.0 121.516399,23.759633,0.0 121.517153,23.759366,0.0 121.517815,23.759104,0.0 121.529001,23.768334,0.0 121.532279,23.776986,0.0 121.533144,23.784567,0.0 121.537968,23.794468,0.0 121.540797,23.809018,0.0 121.545092,23.814244,0.0 121.550372,23.823187,0.0 121.546876,23.824547,0.0 121.53315,23.827754,0.0 121.525375,23.830591,0.0</coordinates></LinearRing></outerBoundaryIs></Polygon><styleUrl>#spolygon-map</styleUrl></Placemark><Placemark><Polygon><outerBoundaryIs><LinearRing><coordinates>121.535928,23.928746,0.0 121.526422,23.925599,0.0 121.522637,23.92302,0.0 121.520198,23.91743,0.0 121.51731,23.912609,0.0 121.515838,23.909375,0.0 121.517133,23.906021,0.0 121.515101,23.901262,0.0 121.526604,23.895828,0.0 121.533153,23.894205,0.0 121.557486,23.897158,0.0 121.557986,23.902778,0.0 121.561014,23.910133,0.0 121.5648,23.918035,0.0 121.562808,23.91887,0.0 121.560208,23.920072,0.0 121.558359,23.92114,0.0 121.557774,23.921456,0.0 121.556263,23.922438,0.0 121.556132,23.922423,0.0 121.555515,23.922768,0.0 121.554625,23.92341,0.0 121.55366,23.924303,0.0 121.553343,23.924424,0.0 121.552878,23.924412,0.0 121.552253,23.924489,0.0 121.551848,23.924813,0.0 121.551263,23.925312,0.0 121.550688,23.925508,0.0 121.549203,23.925904,0.0 121.54828,23.926138,0.0 121.547726,23.926142,0.0 121.546899,23.926016,0.0 121.545354,23.926098,0.0 121.544002,23.926349,0.0 121.542576,23.9266,0.0 121.541391,23.926803,0.0 121.539937,23.927165,0.0 121.538296,23.927552,0.0 121.537078,23.928103,0.0 121.53641,23.928455,0.0 121.535928,23.928746,0.0</coordinates></LinearRing></outerBoundaryIs></Polygon><styleUrl>#spolygon-map</styleUrl></Placemark><Placemark><Polygon><outerBoundaryIs><LinearRing><coordinates>121.485098,23.831336,0.0 121.480909,23.827999,0.0 121.477601,23.828675,0.0 121.470049,23.828579,0.0 121.465546,23.827737,0.0 121.458146,23.826979,0.0 121.453069,23.826815,0.0 121.452982,23.825878,0.0 121.452716,23.824797,0.0 121.451803,23.823195,0.0 121.449594,23.821332,0.0 121.447565,23.82076,0.0 121.443412,23.82098,0.0 121.441562,23.819705,0.0 121.441888,23.818332,0.0 121.443387,23.817612,0.0 121.444949,23.816623,0.0 121.446413,23.815423,0.0 121.447784,23.814299,0.0 121.449169,23.813229,0.0 121.450493,23.812546,0.0 121.451622,23.811836,0.0 121.453111,23.811182,0.0 121.454596,23.810338,0.0 121.455951,23.809821,0.0 121.456973,23.809488,0.0 121.457613,23.80915,0.0 121.458084,23.808729,0.0 121.458545,23.808687,0.0 121.459442,23.808551,0.0 121.460886,23.808247,0.0 121.462404,23.808084,0.0 121.463816,23.808007,0.0 121.465237,23.807967,0.0 121.466049,23.807777,0.0 121.467546,23.807621,0.0 121.469046,23.807551,0.0 121.470641,23.807576,0.0 121.472114,23.807488,0.0 121.473632,23.807386,0.0 121.475105,23.807388,0.0 121.476806,23.80734,0.0 121.478122,23.807318,0.0 121.479626,23.807275,0.0 121.480759,23.807285,0.0 121.482023,23.807148,0.0 121.483144,23.807014,0.0 121.484186,23.80694,0.0 121.486143,23.807158,0.0 121.488013,23.807551,0.0 121.488944,23.807582,0.0 121.490816,23.807608,0.0 121.493504,23.807825,0.0 121.495244,23.807937,0.0 121.496991,23.807969,0.0 121.498349,23.808141,0.0 121.500073,23.808445,0.0 121.502224,23.80888,0.0 121.502112,23.813731,0.0 121.500234,23.820419,0.0 121.497343,23.821555,0.0 121.491791,23.823074,0.0 121.487728,23.827932,0.0 121.485098,23.831336,0.0</coordinates></LinearRing></outerBoundaryIs></Polygon><styleUrl>#spolygon-map</styleUrl></Placemark><Placemark><Polygon><outerBoundaryIs><LinearRing><coordinates>121.517736,23.877615,0.0 121.513262,23.878477,0.0 121.509526,23.879501,0.0 121.503302,23.881814,0.0 121.497125,23.877276,0.0 121.492776,23.871087,0.0 121.483967,23.86835,0.0 121.488136,23.865707,0.0 121.497059,23.860015,0.0 121.502224,23.857711,0.0 121.507474,23.863282,0.0 121.509115,23.865493,0.0 121.510759,23.868312,0.0 121.515528,23.87466,0.0 121.517736,23.877615,0.0</coordinates></LinearRing></outerBoundaryIs></Polygon><styleUrl>#spolygon-map</styleUrl></Placemark><Placemark><Polygon><outerBoundaryIs><LinearRing><coordinates>121.490981,23.839488,0.0 121.483148,23.841819,0.0 121.471684,23.84814,0.0 121.467638,23.850175,0.0 121.461615,23.853881,0.0 121.4597,23.853457,0.0 121.45901,23.853128,0.0 121.458148,23.853024,0.0 121.456116,23.85282,0.0 121.454759,23.852538,0.0 121.452595,23.851503,0.0 121.450803,23.850019,0.0 121.44916,23.848694,0.0 121.447825,23.847661,0.0 121.447964,23.847128,0.0 121.449112,23.846136,0.0 121.450003,23.84563,0.0 121.450509,23.844739,0.0 121.450045,23.843984,0.0 121.448619,23.842695,0.0 121.447905,23.842049,0.0 121.44719,23.841817,0.0 121.447408,23.841319,0.0 121.44808,23.84018,0.0 121.448675,23.838981,0.0 121.449655,23.837886,0.0 121.450281,23.836582,0.0 121.450529,23.835321,0.0 121.450679,23.83463,0.0 121.452151,23.832678,0.0 121.452589,23.831841,0.0 121.453213,23.830848,0.0 121.45319,23.829891,0.0 121.452997,23.82881,0.0 121.453069,23.826815,0.0 121.458146,23.826979,0.0 121.465546,23.827737,0.0 121.470049,23.828579,0.0 121.477601,23.828675,0.0 121.480909,23.827999,0.0 121.485098,23.831336,0.0 121.490981,23.839488,0.0</coordinates></LinearRing></outerBoundaryIs></Polygon><styleUrl>#spolygon-map</styleUrl></Placemark><Placemark><Polygon><outerBoundaryIs><LinearRing><coordinates>121.477548,23.87144,0.0 121.477419,23.871009,0.0 121.477212,23.870253,0.0 121.476327,23.869866,0.0 121.476054,23.869492,0.0 121.4761,23.86883,0.0 121.475408,23.86781,0.0 121.474802,23.867155,0.0 121.473919,23.867189,0.0 121.473221,23.867099,0.0 121.472536,23.866232,0.0 121.471869,23.866315,0.0 121.470822,23.866517,0.0 121.470433,23.865922,0.0 121.469979,23.865127,0.0 121.468525,23.864321,0.0 121.467239,23.863735,0.0 121.466075,23.863186,0.0 121.465555,23.8627,0.0 121.465059,23.861062,0.0 121.464251,23.859742,0.0 121.463096,23.858438,0.0 121.462676,23.857487,0.0 121.462217,23.856389,0.0 121.461297,23.855193,0.0 121.462862,23.852886,0.0 121.468758,23.849814,0.0 121.473837,23.84738,0.0 121.484828,23.840796,0.0 121.497264,23.848191,0.0 121.501375,23.857304,0.0 121.491574,23.863673,0.0 121.484841,23.866864,0.0 121.480528,23.870384,0.0 121.477548,23.87144,0.0</coordinates></LinearRing></outerBoundaryIs></Polygon><styleUrl>#spolygon-map</styleUrl></Placemark><Placemark><Polygon><outerBoundaryIs><LinearRing><coordinates>121.536633,23.852727,0.0 121.531207,23.856398,0.0 121.52495,23.858743,0.0 121.518824,23.854563,0.0 121.516785,23.850542,0.0 121.516435,23.847856,0.0 121.514981,23.844161,0.0 121.509416,23.839731,0.0 121.504875,23.837059,0.0 121.50072,23.830926,0.0 121.496137,23.833192,0.0 121.491922,23.826935,0.0 121.491592,23.823191,0.0 121.496605,23.821629,0.0 121.499944,23.820778,0.0 121.501097,23.817431,0.0 121.504494,23.809365,0.0 121.506153,23.809739,0.0 121.508146,23.81033,0.0 121.510322,23.811328,0.0 121.515324,23.813745,0.0 121.519555,23.815749,0.0 121.521381,23.815907,0.0 121.522771,23.815889,0.0 121.52355,23.815557,0.0 121.524438,23.823189,0.0 121.525291,23.829383,0.0 121.527305,23.838112,0.0 121.533152,23.846883,0.0 121.536633,23.852727,0.0</coordinates></LinearRing></outerBoundaryIs></Polygon><styleUrl>#spolygon-map</styleUrl></Placemark><Placemark><Polygon><outerBoundaryIs><LinearRing><coordinates>121.503118,23.856299,0.0 121.485252,23.830925,0.0 121.490106,23.82467,0.0 121.494264,23.830433,0.0 121.497956,23.832563,0.0 121.502448,23.833717,0.0 121.507727,23.840944,0.0 121.51213,23.840657,0.0 121.514861,23.845953,0.0 121.517115,23.848477,0.0 121.517628,23.852918,0.0 121.512647,23.852722,0.0 121.503118,23.856299,0.0</coordinates></LinearRing></outerBoundaryIs></Polygon><styleUrl>#spolygon-map</styleUrl></Placemark><Placemark><Polygon><outerBoundaryIs><LinearRing><coordinates>121.60732,23.939254,0.0 121.606646,23.937993,0.0 121.605563,23.936209,0.0 121.604287,23.933598,0.0 121.604137,23.933303,0.0 121.603619,23.931208,0.0 121.602757,23.928945,0.0 121.601736,23.927021,0.0 121.601075,23.925617,0.0 121.600559,23.924145,0.0 121.600002,23.923188,0.0 121.598675,23.921559,0.0 121.598239,23.920542,0.0 121.597364,23.918756,0.0 121.598529,23.916359,0.0 121.598917,23.910428,0.0 121.596615,23.907378,0.0 121.596604,23.905083,0.0 121.593146,23.899359,0.0 121.590477,23.896087,0.0 121.590191,23.892904,0.0 121.588678,23.888788,0.0 121.588056,23.886355,0.0 121.587437,23.884797,0.0 121.586605,23.880991,0.0 121.584288,23.879126,0.0 121.581232,23.879075,0.0 121.577697,23.878214,0.0 121.577473,23.873744,0.0 121.576034,23.870752,0.0 121.575197,23.865822,0.0 121.573292,23.864955,0.0 121.571714,23.861164,0.0 121.571157,23.857982,0.0 121.573245,23.854228,0.0 121.574104,23.848917,0.0 121.575246,23.84609,0.0 121.57313,23.843413,0.0 121.572583,23.83977,0.0 121.569305,23.838244,0.0 121.567392,23.835316,0.0 121.56351,23.832395,0.0 121.562884,23.82976,0.0 121.563026,23.825901,0.0 121.562807,23.823187,0.0 121.563939,23.817598,0.0 121.568829,23.813722,0.0 121.573494,23.812977,0.0 121.577606,23.812772,0.0 121.578264,23.813431,0.0 121.579115,23.81462,0.0 121.580652,23.816029,0.0 121.581096,23.816786,0.0 121.581807,23.818163,0.0 121.58247,23.819154,0.0 121.582885,23.820351,0.0 121.583922,23.823724,0.0 121.584173,23.825025,0.0 121.584338,23.825623,0.0 121.584267,23.826138,0.0 121.584254,23.827149,0.0 121.584668,23.82836,0.0 121.584961,23.828993,0.0 121.585463,23.829183,0.0 121.585831,23.828906,0.0 121.585861,23.829112,0.0 121.585358,23.829371,0.0 121.585882,23.829829,0.0 121.58677,23.829343,0.0 121.587353,23.828952,0.0 121.587334,23.82832,0.0 121.587659,23.828926,0.0 121.587089,23.829326,0.0 121.587247,23.829973,0.0 121.587739,23.830965,0.0 121.587985,23.832056,0.0 121.588191,23.83297,0.0 121.58846,23.834018,0.0 121.588841,23.835231,0.0 121.589132,23.836036,0.0 121.589338,23.836972,0.0 121.589824,23.838313,0.0 121.590351,23.839284,0.0 121.591307,23.840852,0.0 121.591821,23.84211,0.0 121.592488,23.843574,0.0 121.592993,23.844897,0.0 121.593372,23.846031,0.0 121.593765,23.847276,0.0 121.594086,23.848187,0.0 121.594537,23.849535,0.0 121.594927,23.850631,0.0 121.595312,23.851564,0.0 121.595719,23.852948,0.0 121.595995,23.854058,0.0 121.596289,23.854772,0.0 121.596793,23.856199,0.0 121.596966,23.856573,0.0 121.597251,23.857579,0.0 121.597445,23.858309,0.0 121.597638,23.85962,0.0 121.59793,23.860323,0.0 121.598053,23.861384,0.0 121.598181,23.86274,0.0 121.598756,23.864277,0.0 121.599107,23.86561,0.0 121.599179,23.867075,0.0 121.59946,23.868128,0.0 121.599818,23.868729,0.0 121.600054,23.869683,0.0 121.600256,23.871089,0.0 121.600576,23.872223,0.0 121.600655,23.873188,0.0 121.601039,23.874443,0.0 121.601171,23.875015,0.0 121.601199,23.876121,0.0 121.601553,23.877104,0.0 121.601813,23.877616,0.0 121.601873,23.878737,0.0 121.601928,23.879767,0.0 121.601938,23.880719,0.0 121.602218,23.881583,0.0 121.602688,23.882707,0.0 121.602715,23.883655,0.0 121.602849,23.884625,0.0 121.603161,23.885615,0.0 121.603413,23.886269,0.0 121.60339,23.887348,0.0 121.603583,23.888259,0.0 121.603703,23.889487,0.0 121.603957,23.89058,0.0 121.604159,23.891496,0.0 121.604293,23.892631,0.0 121.604459,23.893694,0.0 121.604494,23.895211,0.0 121.604552,23.896368,0.0 121.604528,23.896989,0.0 121.604629,23.897781,0.0 121.604807,23.898188,0.0 121.604927,23.899392,0.0 121.60467,23.901332,0.0 121.604517,23.902739,0.0 121.604219,23.903426,0.0 121.603992,23.903924,0.0 121.60399,23.905139,0.0 121.604178,23.906323,0.0 121.604168,23.907829,0.0 121.604315,23.909119,0.0 121.604654,23.910342,0.0 121.605092,23.91171,0.0 121.605222,23.91475,0.0 121.605358,23.915309,0.0 121.605528,23.916042,0.0 121.605806,23.916852,0.0 121.606285,23.91792,0.0 121.606515,23.919171,0.0 121.606733,23.919615,0.0 121.607135,23.920287,0.0 121.608075,23.92191,0.0 121.608353,23.923354,0.0 121.608519,23.9238,0.0 121.608483,23.924936,0.0 121.608655,23.926305,0.0 121.608847,23.927097,0.0 121.609057,23.927834,0.0 121.609289,23.929251,0.0 121.609584,23.930254,0.0 121.609797,23.930567,0.0 121.610353,23.931224,0.0 121.610603,23.931702,0.0 121.610926,23.932269,0.0 121.61123,23.932995,0.0 121.611317,23.933798,0.0 121.61121,23.93432,0.0 121.611122,23.934876,0.0 121.611071,23.935228,0.0 121.611024,23.935538,0.0 121.610947,23.936021,0.0 121.610722,23.937069,0.0 121.610504,23.937847,0.0 121.610216,23.939001,0.0 121.610117,23.9403,0.0 121.609506,23.942146,0.0 121.608723,23.9421,0.0 121.607718,23.940088,0.0 121.60732,23.939254,0.0</coordinates></LinearRing></outerBoundaryIs></Polygon><styleUrl>#spolygon-map</styleUrl></Placemark></Document>
</kml>
