<?xml version="1.0" encoding="UTF-8"?>
<kml xmlns="http://www.opengis.net/kml/2.2">
	<Document>
		<name>苗栗縣西湖鄉</name>
		<Style id="spolygon">
			<LabelStyle>
				<scale>0.0</scale>
			</LabelStyle>
			<LineStyle>
				<color>330030ff</color>
				<width>0</width>
			</LineStyle>
			<PolyStyle>
				<color>330030ff</color>
			</PolyStyle>
		</Style>
		<StyleMap id="spolygon-map">
			<Pair>
				<key>normal</key>
				<styleUrl>#spolygon</styleUrl>
			</Pair>
		</StyleMap>
	<Placemark><Polygon><outerBoundaryIs><LinearRing><coordinates>120.773039,24.517701,0.0 120.772031,24.519132,0.0 120.770919,24.520276,0.0 120.769558,24.521764,0.0 120.769161,24.52146,0.0 120.768642,24.520701,0.0 120.768834,24.520239,0.0 120.768595,24.519461,0.0 120.768795,24.518421,0.0 120.769401,24.517596,0.0 120.770426,24.516851,0.0 120.770489,24.51632,0.0 120.770384,24.515761,0.0 120.770555,24.515388,0.0 120.770634,24.514732,0.0 120.770858,24.514657,0.0 120.770986,24.514181,0.0 120.770102,24.513049,0.0 120.769256,24.512915,0.0 120.768245,24.51294,0.0 120.766577,24.512438,0.0 120.765793,24.513311,0.0 120.76497,24.514225,0.0 120.764325,24.51479,0.0 120.763347,24.515429,0.0 120.762267,24.515516,0.0 120.761016,24.515443,0.0 120.760196,24.514579,0.0 120.759876,24.513946,0.0 120.759755,24.513452,0.0 120.759723,24.513028,0.0 120.759849,24.51263,0.0 120.758419,24.510949,0.0 120.756511,24.509647,0.0 120.755364,24.509209,0.0 120.755366,24.507961,0.0 120.754441,24.507138,0.0 120.754229,24.506453,0.0 120.755088,24.506124,0.0 120.755648,24.505875,0.0 120.756111,24.505339,0.0 120.756447,24.504766,0.0 120.757138,24.50459,0.0 120.757878,24.504609,0.0 120.758323,24.50469,0.0 120.758653,24.504952,0.0 120.758925,24.505185,0.0 120.759265,24.505214,0.0 120.759633,24.50531,0.0 120.760165,24.505719,0.0 120.760396,24.506184,0.0 120.760645,24.506492,0.0 120.761235,24.506335,0.0 120.761554,24.505726,0.0 120.761645,24.505257,0.0 120.761482,24.504797,0.0 120.761112,24.504162,0.0 120.760798,24.503346,0.0 120.760288,24.503203,0.0 120.75971,24.503088,0.0 120.759244,24.502712,0.0 120.758891,24.50204,0.0 120.758475,24.501655,0.0 120.758239,24.501296,0.0 120.758508,24.500705,0.0 120.758602,24.500239,0.0 120.758391,24.49992,0.0 120.75823,24.499397,0.0 120.758122,24.498947,0.0 120.758011,24.498619,0.0 120.757696,24.498349,0.0 120.757388,24.49812,0.0 120.756823,24.49795,0.0 120.756498,24.497852,0.0 120.75634,24.497476,0.0 120.75616,24.497039,0.0 120.756042,24.496798,0.0 120.755756,24.496343,0.0 120.75552,24.496004,0.0 120.755204,24.495385,0.0 120.755445,24.494779,0.0 120.755708,24.494173,0.0 120.755769,24.493547,0.0 120.75584,24.492855,0.0 120.755973,24.492503,0.0 120.756552,24.492171,0.0 120.756853,24.491886,0.0 120.757097,24.49153,0.0 120.757307,24.491378,0.0 120.757443,24.491727,0.0 120.757657,24.491974,0.0 120.758085,24.491963,0.0 120.758622,24.49187,0.0 120.75917,24.491554,0.0 120.759518,24.491157,0.0 120.759994,24.490539,0.0 120.760622,24.490071,0.0 120.760773,24.489947,0.0 120.761198,24.489815,0.0 120.761751,24.489727,0.0 120.76216,24.489399,0.0 120.762431,24.488753,0.0 120.762466,24.487982,0.0 120.762596,24.487704,0.0 120.763242,24.48727,0.0 120.763447,24.487557,0.0 120.763528,24.488111,0.0 120.763776,24.488459,0.0 120.763745,24.488798,0.0 120.7637,24.489173,0.0 120.763781,24.489534,0.0 120.764213,24.489941,0.0 120.764551,24.490193,0.0 120.764774,24.490547,0.0 120.765023,24.490863,0.0 120.765588,24.491271,0.0 120.766132,24.491822,0.0 120.766124,24.49233,0.0 120.766059,24.492719,0.0 120.766278,24.492861,0.0 120.766786,24.493446,0.0 120.767355,24.494179,0.0 120.767417,24.494497,0.0 120.767481,24.494785,0.0 120.767851,24.494992,0.0 120.768156,24.495197,0.0 120.76841,24.495597,0.0 120.768756,24.496016,0.0 120.769024,24.496233,0.0 120.769147,24.496505,0.0 120.76927,24.496887,0.0 120.769487,24.497136,0.0 120.769546,24.497356,0.0 120.769782,24.497641,0.0 120.770033,24.497867,0.0 120.770239,24.498203,0.0 120.770563,24.498449,0.0 120.770914,24.498759,0.0 120.771347,24.499106,0.0 120.771529,24.499624,0.0 120.771711,24.499966,0.0 120.772043,24.500122,0.0 120.772324,24.500483,0.0 120.772752,24.500511,0.0 120.772807,24.500808,0.0 120.77311,24.501002,0.0 120.773524,24.501087,0.0 120.773939,24.500963,0.0 120.77424,24.501073,0.0 120.774506,24.501134,0.0 120.774982,24.501326,0.0 120.775343,24.50149,0.0 120.775472,24.501702,0.0 120.775492,24.501974,0.0 120.77576,24.502199,0.0 120.776012,24.502378,0.0 120.7764,24.502355,0.0 120.776808,24.502498,0.0 120.777128,24.502529,0.0 120.777559,24.502511,0.0 120.777817,24.50283,0.0 120.777962,24.503094,0.0 120.778238,24.503578,0.0 120.778456,24.504046,0.0 120.778551,24.504506,0.0 120.77862,24.504912,0.0 120.77861,24.505342,0.0 120.778562,24.505827,0.0 120.778462,24.506303,0.0 120.778378,24.506771,0.0 120.778291,24.507193,0.0 120.778115,24.507687,0.0 120.777891,24.508047,0.0 120.777688,24.508343,0.0 120.777542,24.508789,0.0 120.777474,24.509261,0.0 120.777434,24.509671,0.0 120.777323,24.510198,0.0 120.777272,24.510922,0.0 120.776963,24.511953,0.0 120.776554,24.512968,0.0 120.775684,24.514636,0.0 120.774467,24.516076,0.0 120.77306,24.517671,0.0 120.773039,24.517701,0.0</coordinates></LinearRing></outerBoundaryIs></Polygon><styleUrl>#spolygon-map</styleUrl></Placemark><Placemark><Polygon><outerBoundaryIs><LinearRing><coordinates>120.769152,24.525433,0.0 120.769168,24.526641,0.0 120.768285,24.527774,0.0 120.766792,24.528362,0.0 120.764698,24.528498,0.0 120.761724,24.52862,0.0 120.759049,24.528849,0.0 120.757174,24.529418,0.0 120.755742,24.53015,0.0 120.754674,24.530691,0.0 120.753862,24.530871,0.0 120.754006,24.529978,0.0 120.754163,24.529294,0.0 120.754125,24.528162,0.0 120.753523,24.527017,0.0 120.754082,24.526909,0.0 120.754791,24.527005,0.0 120.754732,24.52573,0.0 120.754964,24.52344,0.0 120.754953,24.521522,0.0 120.754461,24.520646,0.0 120.753696,24.520509,0.0 120.752702,24.520222,0.0 120.752082,24.519214,0.0 120.750604,24.517812,0.0 120.749662,24.517283,0.0 120.749831,24.516464,0.0 120.749789,24.515782,0.0 120.749523,24.515099,0.0 120.749866,24.51447,0.0 120.750074,24.513851,0.0 120.750011,24.513384,0.0 120.74962,24.512968,0.0 120.74939,24.512541,0.0 120.749416,24.512075,0.0 120.749373,24.511541,0.0 120.749131,24.511086,0.0 120.748709,24.510641,0.0 120.748898,24.510093,0.0 120.749408,24.50994,0.0 120.749646,24.509264,0.0 120.74961,24.508621,0.0 120.749661,24.508246,0.0 120.749987,24.507947,0.0 120.750474,24.507305,0.0 120.7517,24.506813,0.0 120.752583,24.506582,0.0 120.753097,24.506547,0.0 120.753743,24.50681,0.0 120.754324,24.506992,0.0 120.755256,24.507809,0.0 120.755316,24.509007,0.0 120.756006,24.50952,0.0 120.757687,24.510347,0.0 120.759739,24.512383,0.0 120.759724,24.512933,0.0 120.759809,24.513355,0.0 120.759687,24.513799,0.0 120.760118,24.51445,0.0 120.76087,24.515411,0.0 120.76192,24.515513,0.0 120.763184,24.515443,0.0 120.764009,24.515103,0.0 120.764673,24.514371,0.0 120.765652,24.513692,0.0 120.766301,24.512534,0.0 120.767887,24.512787,0.0 120.768795,24.512965,0.0 120.769888,24.512951,0.0 120.770879,24.513914,0.0 120.770917,24.514599,0.0 120.770678,24.514727,0.0 120.770541,24.515163,0.0 120.770385,24.515694,0.0 120.770496,24.516179,0.0 120.770512,24.516671,0.0 120.769647,24.517477,0.0 120.768948,24.518142,0.0 120.768577,24.519355,0.0 120.768835,24.520019,0.0 120.768712,24.520571,0.0 120.768848,24.521082,0.0 120.769505,24.521869,0.0 120.768974,24.523709,0.0 120.769152,24.525433,0.0</coordinates></LinearRing></outerBoundaryIs></Polygon><styleUrl>#spolygon-map</styleUrl></Placemark><Placemark><Polygon><outerBoundaryIs><LinearRing><coordinates>120.765117,24.534067,0.0 120.763741,24.534303,0.0 120.76247,24.534522,0.0 120.761289,24.53475,0.0 120.76014,24.535264,0.0 120.759883,24.535147,0.0 120.759068,24.533544,0.0 120.758529,24.53305,0.0 120.756381,24.53233,0.0 120.755461,24.532117,0.0 120.754484,24.531906,0.0 120.754019,24.53143,0.0 120.75444,24.53075,0.0 120.755481,24.530316,0.0 120.756844,24.529553,0.0 120.758631,24.528921,0.0 120.760875,24.528697,0.0 120.764135,24.528521,0.0 120.766454,24.528394,0.0 120.768004,24.527952,0.0 120.768994,24.527048,0.0 120.769247,24.525954,0.0 120.769016,24.524471,0.0 120.769241,24.522389,0.0 120.770288,24.52086,0.0 120.7715,24.51979,0.0 120.772634,24.518345,0.0 120.773238,24.517418,0.0 120.774807,24.515666,0.0 120.776049,24.514054,0.0 120.776671,24.51277,0.0 120.77714,24.511468,0.0 120.777254,24.511501,0.0 120.777363,24.511826,0.0 120.777758,24.511908,0.0 120.778394,24.511867,0.0 120.778914,24.511927,0.0 120.779398,24.512028,0.0 120.779707,24.511956,0.0 120.77981,24.511622,0.0 120.779986,24.511492,0.0 120.780349,24.511427,0.0 120.780659,24.511152,0.0 120.780855,24.511091,0.0 120.781203,24.511197,0.0 120.781576,24.511405,0.0 120.781975,24.511453,0.0 120.782343,24.511522,0.0 120.782581,24.511684,0.0 120.782902,24.511778,0.0 120.783179,24.511775,0.0 120.783367,24.512112,0.0 120.783586,24.512458,0.0 120.783912,24.512921,0.0 120.784267,24.513336,0.0 120.784644,24.51328,0.0 120.785016,24.51326,0.0 120.785316,24.513474,0.0 120.785713,24.513868,0.0 120.78614,24.514456,0.0 120.786389,24.514711,0.0 120.786761,24.514809,0.0 120.787106,24.514969,0.0 120.787383,24.515218,0.0 120.787453,24.515669,0.0 120.787658,24.516609,0.0 120.787552,24.517254,0.0 120.787386,24.517607,0.0 120.787395,24.517943,0.0 120.78755,24.518394,0.0 120.787492,24.518798,0.0 120.787423,24.51915,0.0 120.787582,24.519491,0.0 120.78771,24.519772,0.0 120.787692,24.519862,0.0 120.787581,24.520164,0.0 120.787597,24.520432,0.0 120.787636,24.520941,0.0 120.787871,24.521007,0.0 120.787892,24.521175,0.0 120.787732,24.521596,0.0 120.787692,24.521873,0.0 120.787788,24.522128,0.0 120.788085,24.522467,0.0 120.788221,24.522832,0.0 120.788377,24.523383,0.0 120.788563,24.523757,0.0 120.788498,24.524436,0.0 120.788627,24.525014,0.0 120.788938,24.525457,0.0 120.789102,24.525878,0.0 120.788988,24.526279,0.0 120.788569,24.526848,0.0 120.787965,24.527114,0.0 120.787388,24.527347,0.0 120.787175,24.527805,0.0 120.787109,24.528093,0.0 120.786933,24.528465,0.0 120.786769,24.528828,0.0 120.786488,24.529094,0.0 120.786046,24.52914,0.0 120.785719,24.529053,0.0 120.785376,24.528761,0.0 120.785015,24.528352,0.0 120.784736,24.528182,0.0 120.784373,24.528152,0.0 120.783757,24.528508,0.0 120.783374,24.528811,0.0 120.782904,24.529017,0.0 120.782383,24.528831,0.0 120.781482,24.527919,0.0 120.780648,24.527578,0.0 120.779601,24.528072,0.0 120.779014,24.528082,0.0 120.777846,24.527423,0.0 120.777295,24.527066,0.0 120.777078,24.527142,0.0 120.776619,24.527607,0.0 120.77631,24.528308,0.0 120.775655,24.528831,0.0 120.774991,24.529365,0.0 120.77354,24.529758,0.0 120.772474,24.530389,0.0 120.771769,24.530722,0.0 120.771218,24.531611,0.0 120.770754,24.532646,0.0 120.770759,24.533262,0.0 120.77002,24.533749,0.0 120.769814,24.533859,0.0 120.769489,24.53435,0.0 120.768659,24.534355,0.0 120.767908,24.534593,0.0 120.767616,24.534586,0.0 120.766886,24.534125,0.0 120.765918,24.533929,0.0 120.765117,24.534067,0.0</coordinates></LinearRing></outerBoundaryIs></Polygon><styleUrl>#spolygon-map</styleUrl></Placemark><Placemark><Polygon><outerBoundaryIs><LinearRing><coordinates>120.733282,24.548816,0.0 120.7323,24.54872,0.0 120.731853,24.548712,0.0 120.731589,24.548427,0.0 120.731395,24.548128,0.0 120.731435,24.54778,0.0 120.731754,24.547322,0.0 120.732034,24.546812,0.0 120.731972,24.546263,0.0 120.731888,24.545918,0.0 120.732095,24.5461,0.0 120.732386,24.546449,0.0 120.732707,24.546608,0.0 120.733179,24.546731,0.0 120.733841,24.546573,0.0 120.734359,24.54624,0.0 120.734556,24.545608,0.0 120.7345,24.545141,0.0 120.734356,24.54491,0.0 120.734236,24.544629,0.0 120.734546,24.544345,0.0 120.735045,24.543948,0.0 120.734995,24.543495,0.0 120.734965,24.542941,0.0 120.734878,24.54275,0.0 120.734717,24.542614,0.0 120.734499,24.54245,0.0 120.734191,24.541974,0.0 120.733946,24.541708,0.0 120.734136,24.541276,0.0 120.734338,24.540999,0.0 120.734428,24.540469,0.0 120.734479,24.539826,0.0 120.73431,24.539404,0.0 120.734361,24.538978,0.0 120.7344,24.538563,0.0 120.734363,24.538234,0.0 120.7342,24.537902,0.0 120.733967,24.537446,0.0 120.734252,24.537084,0.0 120.734732,24.536825,0.0 120.735185,24.537062,0.0 120.735361,24.537426,0.0 120.735734,24.537799,0.0 120.73632,24.538336,0.0 120.736792,24.538533,0.0 120.737271,24.538603,0.0 120.737798,24.53836,0.0 120.738045,24.538032,0.0 120.73833,24.537513,0.0 120.738803,24.537312,0.0 120.739012,24.536995,0.0 120.739042,24.536698,0.0 120.739291,24.536421,0.0 120.739632,24.536191,0.0 120.739715,24.535672,0.0 120.739432,24.535118,0.0 120.739036,24.53472,0.0 120.738802,24.534173,0.0 120.738879,24.533568,0.0 120.738609,24.532985,0.0 120.738641,24.532599,0.0 120.73904,24.532325,0.0 120.739218,24.531847,0.0 120.739194,24.53131,0.0 120.739368,24.530771,0.0 120.739716,24.530268,0.0 120.74007,24.529717,0.0 120.740404,24.529724,0.0 120.740909,24.529679,0.0 120.741193,24.529379,0.0 120.741611,24.528734,0.0 120.741669,24.528125,0.0 120.741904,24.527532,0.0 120.741943,24.526855,0.0 120.742417,24.526492,0.0 120.742689,24.52591,0.0 120.742749,24.525435,0.0 120.742719,24.524795,0.0 120.743275,24.52415,0.0 120.743995,24.523656,0.0 120.744746,24.523646,0.0 120.745408,24.523762,0.0 120.745578,24.523468,0.0 120.745447,24.522968,0.0 120.74546,24.522214,0.0 120.745175,24.521554,0.0 120.744454,24.521337,0.0 120.744057,24.520782,0.0 120.744033,24.520312,0.0 120.744108,24.519877,0.0 120.744384,24.519439,0.0 120.744777,24.518991,0.0 120.744902,24.518547,0.0 120.745096,24.518286,0.0 120.745562,24.518321,0.0 120.746195,24.517804,0.0 120.746485,24.517398,0.0 120.746887,24.51726,0.0 120.747473,24.517244,0.0 120.747851,24.517278,0.0 120.748448,24.517467,0.0 120.749001,24.517576,0.0 120.749412,24.517549,0.0 120.749966,24.517412,0.0 120.750997,24.518126,0.0 120.75222,24.519461,0.0 120.752844,24.520338,0.0 120.754079,24.520561,0.0 120.754676,24.52084,0.0 120.755014,24.521789,0.0 120.754917,24.523888,0.0 120.754716,24.52632,0.0 120.754741,24.52704,0.0 120.753801,24.526873,0.0 120.753576,24.527176,0.0 120.75421,24.528497,0.0 120.754162,24.529341,0.0 120.753913,24.530158,0.0 120.753872,24.530936,0.0 120.754165,24.531663,0.0 120.754754,24.531987,0.0 120.755738,24.532163,0.0 120.757271,24.53263,0.0 120.758877,24.533226,0.0 120.759629,24.534562,0.0 120.75989,24.535378,0.0 120.76004,24.535769,0.0 120.759467,24.537098,0.0 120.759352,24.538536,0.0 120.759014,24.539904,0.0 120.758662,24.54045,0.0 120.757469,24.540809,0.0 120.756944,24.540898,0.0 120.756347,24.540903,0.0 120.755469,24.541429,0.0 120.754072,24.542059,0.0 120.753548,24.542134,0.0 120.752332,24.542215,0.0 120.751299,24.542406,0.0 120.750699,24.542474,0.0 120.749655,24.542775,0.0 120.748887,24.543128,0.0 120.747831,24.543539,0.0 120.746804,24.543596,0.0 120.745512,24.543595,0.0 120.74471,24.543708,0.0 120.743808,24.54414,0.0 120.743414,24.544656,0.0 120.74274,24.545135,0.0 120.742111,24.545463,0.0 120.741641,24.54566,0.0 120.741631,24.545956,0.0 120.741514,24.545992,0.0 120.741314,24.546058,0.0 120.740694,24.546327,0.0 120.740429,24.546449,0.0 120.740273,24.546482,0.0 120.740188,24.546457,0.0 120.740001,24.546302,0.0 120.739876,24.546276,0.0 120.739734,24.546315,0.0 120.739535,24.546533,0.0 120.739427,24.546579,0.0 120.739169,24.546586,0.0 120.738926,24.546738,0.0 120.73872,24.546836,0.0 120.738243,24.547008,0.0 120.737904,24.547159,0.0 120.737643,24.547192,0.0 120.737366,24.54723,0.0 120.737045,24.54726,0.0 120.736823,24.547207,0.0 120.736595,24.54716,0.0 120.736448,24.547202,0.0 120.736042,24.547373,0.0 120.735776,24.547392,0.0 120.735659,24.54741,0.0 120.735549,24.547494,0.0 120.735419,24.547651,0.0 120.735239,24.547912,0.0 120.73504,24.548173,0.0 120.734985,24.548327,0.0 120.734913,24.548575,0.0 120.73447,24.548614,0.0 120.733508,24.548812,0.0 120.733282,24.548816,0.0</coordinates></LinearRing></outerBoundaryIs></Polygon><styleUrl>#spolygon-map</styleUrl></Placemark><Placemark><Polygon><outerBoundaryIs><LinearRing><coordinates>120.759793,24.557182,0.0 120.759371,24.558409,0.0 120.758747,24.558265,0.0 120.757579,24.558223,0.0 120.757385,24.557382,0.0 120.757307,24.557162,0.0 120.757234,24.557098,0.0 120.757009,24.556959,0.0 120.756932,24.556848,0.0 120.756792,24.556282,0.0 120.756655,24.555661,0.0 120.756428,24.555197,0.0 120.756178,24.554778,0.0 120.755807,24.553995,0.0 120.756072,24.552569,0.0 120.756934,24.55154,0.0 120.756797,24.550711,0.0 120.756653,24.549553,0.0 120.756983,24.548435,0.0 120.757519,24.547031,0.0 120.757743,24.5462,0.0 120.757615,24.545141,0.0 120.757358,24.544136,0.0 120.75691,24.542456,0.0 120.757118,24.541051,0.0 120.758094,24.540559,0.0 120.758917,24.54032,0.0 120.759119,24.539286,0.0 120.759369,24.537755,0.0 120.759904,24.53628,0.0 120.759929,24.535438,0.0 120.760835,24.534891,0.0 120.761992,24.534656,0.0 120.76305,24.53434,0.0 120.76441,24.53425,0.0 120.765854,24.533935,0.0 120.76671,24.534018,0.0 120.767485,24.534561,0.0 120.767757,24.534612,0.0 120.768476,24.534358,0.0 120.769366,24.534432,0.0 120.769809,24.533866,0.0 120.769993,24.533762,0.0 120.770569,24.533441,0.0 120.77077,24.532859,0.0 120.771016,24.531929,0.0 120.771652,24.530867,0.0 120.772275,24.530482,0.0 120.773269,24.529861,0.0 120.774753,24.529461,0.0 120.775557,24.528924,0.0 120.776196,24.528422,0.0 120.77657,24.527809,0.0 120.776953,24.527203,0.0 120.777223,24.527087,0.0 120.777719,24.527257,0.0 120.77855,24.527898,0.0 120.779445,24.528116,0.0 120.78039,24.527648,0.0 120.781262,24.527755,0.0 120.782175,24.528616,0.0 120.782893,24.529028,0.0 120.783156,24.529438,0.0 120.783745,24.530016,0.0 120.78431,24.530257,0.0 120.784664,24.530647,0.0 120.784771,24.531254,0.0 120.78486,24.531742,0.0 120.78465,24.532014,0.0 120.784431,24.53228,0.0 120.784119,24.532609,0.0 120.783775,24.532815,0.0 120.783398,24.533324,0.0 120.783233,24.533788,0.0 120.783506,24.534249,0.0 120.783779,24.534767,0.0 120.784066,24.535377,0.0 120.784261,24.535853,0.0 120.784647,24.536386,0.0 120.784733,24.536911,0.0 120.785132,24.537607,0.0 120.786037,24.537867,0.0 120.786681,24.537995,0.0 120.787254,24.538232,0.0 120.787568,24.538648,0.0 120.78768,24.538982,0.0 120.787986,24.539603,0.0 120.788259,24.540138,0.0 120.788339,24.540472,0.0 120.788585,24.540985,0.0 120.788732,24.5414,0.0 120.788767,24.541849,0.0 120.789207,24.542259,0.0 120.789893,24.542633,0.0 120.790445,24.542935,0.0 120.790751,24.543447,0.0 120.790717,24.544272,0.0 120.790706,24.544669,0.0 120.790885,24.545135,0.0 120.791276,24.545505,0.0 120.791317,24.545969,0.0 120.789717,24.546754,0.0 120.788991,24.547412,0.0 120.788754,24.547843,0.0 120.787141,24.548748,0.0 120.785847,24.548986,0.0 120.783466,24.5486,0.0 120.781024,24.548263,0.0 120.780143,24.548186,0.0 120.779286,24.5481,0.0 120.777421,24.547523,0.0 120.776103,24.547573,0.0 120.775822,24.54818,0.0 120.775692,24.550011,0.0 120.775154,24.550222,0.0 120.773962,24.549884,0.0 120.772586,24.549522,0.0 120.770686,24.549112,0.0 120.768964,24.549477,0.0 120.768185,24.550216,0.0 120.76769,24.551045,0.0 120.768025,24.55177,0.0 120.768341,24.552343,0.0 120.767433,24.553139,0.0 120.765663,24.553596,0.0 120.764337,24.55389,0.0 120.762536,24.555465,0.0 120.761267,24.55621,0.0 120.760051,24.55686,0.0 120.759793,24.557182,0.0</coordinates></LinearRing></outerBoundaryIs></Polygon><styleUrl>#spolygon-map</styleUrl></Placemark><Placemark><Polygon><outerBoundaryIs><LinearRing><coordinates>120.747352,24.561833,0.0 120.746193,24.562434,0.0 120.74511,24.562053,0.0 120.74491,24.561585,0.0 120.744707,24.560473,0.0 120.743364,24.559888,0.0 120.742499,24.560134,0.0 120.741243,24.560471,0.0 120.740389,24.560428,0.0 120.738991,24.559602,0.0 120.737548,24.558232,0.0 120.736313,24.557762,0.0 120.734816,24.556774,0.0 120.73334,24.555779,0.0 120.732381,24.554702,0.0 120.731273,24.553981,0.0 120.73056,24.553586,0.0 120.729103,24.552671,0.0 120.728527,24.552305,0.0 120.72902,24.552098,0.0 120.729519,24.551919,0.0 120.729828,24.551593,0.0 120.729967,24.55099,0.0 120.730216,24.550562,0.0 120.7303,24.550554,0.0 120.730526,24.550585,0.0 120.730895,24.550212,0.0 120.731124,24.549854,0.0 120.731453,24.549476,0.0 120.731815,24.549078,0.0 120.731907,24.548811,0.0 120.732104,24.548712,0.0 120.733009,24.548809,0.0 120.73383,24.548769,0.0 120.73466,24.548642,0.0 120.734918,24.548558,0.0 120.735006,24.548252,0.0 120.735085,24.548109,0.0 120.73526,24.547883,0.0 120.735452,24.5476,0.0 120.735586,24.547462,0.0 120.735684,24.5474,0.0 120.735915,24.547395,0.0 120.736088,24.547357,0.0 120.736497,24.547181,0.0 120.736629,24.54716,0.0 120.736951,24.547245,0.0 120.737208,24.547258,0.0 120.73743,24.547218,0.0 120.737781,24.547184,0.0 120.737927,24.547149,0.0 120.738362,24.546958,0.0 120.73879,24.546811,0.0 120.739035,24.546667,0.0 120.739177,24.546583,0.0 120.73946,24.546575,0.0 120.739594,24.546463,0.0 120.739766,24.5463,0.0 120.739912,24.546274,0.0 120.740131,24.546416,0.0 120.740192,24.546458,0.0 120.740287,24.546484,0.0 120.740521,24.54641,0.0 120.740811,24.546277,0.0 120.741356,24.546044,0.0 120.741553,24.545976,0.0 120.741689,24.545925,0.0 120.74165,24.545641,0.0 120.742169,24.545432,0.0 120.742936,24.545051,0.0 120.743441,24.54463,0.0 120.74401,24.544008,0.0 120.744981,24.543641,0.0 120.745966,24.543573,0.0 120.747012,24.543611,0.0 120.748027,24.54347,0.0 120.749142,24.54302,0.0 120.750031,24.542611,0.0 120.750807,24.542458,0.0 120.751516,24.542364,0.0 120.752817,24.542174,0.0 120.753566,24.542132,0.0 120.754332,24.541983,0.0 120.755646,24.541337,0.0 120.75652,24.540845,0.0 120.757021,24.540968,0.0 120.756926,24.54191,0.0 120.757128,24.543522,0.0 120.757554,24.544871,0.0 120.757744,24.545952,0.0 120.757522,24.547025,0.0 120.757088,24.548088,0.0 120.756696,24.549387,0.0 120.756686,24.550446,0.0 120.757023,24.551322,0.0 120.756184,24.552348,0.0 120.755839,24.553525,0.0 120.756066,24.554607,0.0 120.756357,24.555075,0.0 120.756617,24.55556,0.0 120.75677,24.55615,0.0 120.756915,24.556797,0.0 120.756986,24.556939,0.0 120.757142,24.557041,0.0 120.757287,24.557141,0.0 120.757352,24.557242,0.0 120.757553,24.558235,0.0 120.756858,24.558769,0.0 120.756183,24.559771,0.0 120.75606,24.560066,0.0 120.755001,24.560677,0.0 120.75435,24.561099,0.0 120.753776,24.561738,0.0 120.753244,24.561752,0.0 120.752929,24.561332,0.0 120.752408,24.561085,0.0 120.751547,24.561213,0.0 120.750179,24.560989,0.0 120.748832,24.561476,0.0 120.747515,24.561723,0.0 120.747352,24.561833,0.0</coordinates></LinearRing></outerBoundaryIs></Polygon><styleUrl>#spolygon-map</styleUrl></Placemark><Placemark><Polygon><outerBoundaryIs><LinearRing><coordinates>120.779113,24.568096,0.0 120.778946,24.568326,0.0 120.778875,24.568521,0.0 120.778732,24.568638,0.0 120.776425,24.567439,0.0 120.775213,24.566691,0.0 120.774212,24.566391,0.0 120.772464,24.566734,0.0 120.771481,24.566984,0.0 120.769958,24.566399,0.0 120.768842,24.5659,0.0 120.768042,24.565934,0.0 120.767149,24.566901,0.0 120.76643,24.567123,0.0 120.76603,24.566336,0.0 120.765175,24.566214,0.0 120.763932,24.565765,0.0 120.762829,24.564909,0.0 120.761746,24.564039,0.0 120.759914,24.562746,0.0 120.759273,24.562154,0.0 120.758219,24.561035,0.0 120.756889,24.560198,0.0 120.756148,24.559823,0.0 120.756595,24.55919,0.0 120.757537,24.558243,0.0 120.758116,24.558077,0.0 120.759109,24.558385,0.0 120.759617,24.557763,0.0 120.760051,24.55686,0.0 120.761267,24.55621,0.0 120.762536,24.555465,0.0 120.764337,24.55389,0.0 120.765663,24.553596,0.0 120.767433,24.553139,0.0 120.768341,24.552343,0.0 120.768025,24.55177,0.0 120.76769,24.551045,0.0 120.768185,24.550216,0.0 120.768964,24.549477,0.0 120.770686,24.549112,0.0 120.772586,24.549522,0.0 120.773962,24.549884,0.0 120.775154,24.550222,0.0 120.775692,24.550011,0.0 120.775822,24.54818,0.0 120.776103,24.547573,0.0 120.777421,24.547523,0.0 120.779286,24.5481,0.0 120.780143,24.548186,0.0 120.781024,24.548263,0.0 120.783466,24.5486,0.0 120.785847,24.548986,0.0 120.787141,24.548748,0.0 120.788754,24.547843,0.0 120.788991,24.547412,0.0 120.789717,24.546754,0.0 120.791317,24.545969,0.0 120.791671,24.546113,0.0 120.791982,24.546359,0.0 120.792089,24.546814,0.0 120.791916,24.547424,0.0 120.791917,24.547663,0.0 120.791985,24.548018,0.0 120.791955,24.54834,0.0 120.791643,24.548885,0.0 120.791451,24.549332,0.0 120.791172,24.549575,0.0 120.791215,24.549936,0.0 120.791277,24.550474,0.0 120.791271,24.55087,0.0 120.791276,24.551395,0.0 120.791149,24.551903,0.0 120.791198,24.552211,0.0 120.791491,24.552612,0.0 120.791719,24.553211,0.0 120.791834,24.5537,0.0 120.791615,24.554018,0.0 120.791062,24.554028,0.0 120.790321,24.554337,0.0 120.790225,24.55478,0.0 120.789945,24.554812,0.0 120.789769,24.555067,0.0 120.789741,24.555398,0.0 120.789706,24.555777,0.0 120.789529,24.555993,0.0 120.789463,24.556232,0.0 120.789536,24.556566,0.0 120.789381,24.55712,0.0 120.789318,24.557626,0.0 120.789404,24.558048,0.0 120.789451,24.558526,0.0 120.789417,24.558841,0.0 120.789545,24.559213,0.0 120.789462,24.559557,0.0 120.789322,24.55975,0.0 120.789039,24.560035,0.0 120.788944,24.560107,0.0 120.788635,24.560354,0.0 120.788419,24.560611,0.0 120.78827,24.560791,0.0 120.788088,24.560984,0.0 120.787957,24.561229,0.0 120.787893,24.561537,0.0 120.787852,24.561859,0.0 120.787779,24.562172,0.0 120.787696,24.562534,0.0 120.787613,24.562932,0.0 120.787525,24.563159,0.0 120.787384,24.563435,0.0 120.787216,24.563686,0.0 120.786911,24.563909,0.0 120.786327,24.563961,0.0 120.785991,24.563918,0.0 120.785742,24.563832,0.0 120.785596,24.563744,0.0 120.785326,24.563741,0.0 120.785008,24.563845,0.0 120.784577,24.563986,0.0 120.784216,24.564101,0.0 120.783981,24.564174,0.0 120.783574,24.564338,0.0 120.783327,24.564452,0.0 120.782989,24.564563,0.0 120.782743,24.564251,0.0 120.782619,24.563747,0.0 120.782364,24.563639,0.0 120.782213,24.563418,0.0 120.78213,24.563265,0.0 120.781975,24.563164,0.0 120.7819,24.563432,0.0 120.781626,24.563619,0.0 120.781335,24.563928,0.0 120.781155,24.564255,0.0 120.781083,24.564586,0.0 120.7811,24.56493,0.0 120.781129,24.565223,0.0 120.780882,24.565604,0.0 120.78076,24.565891,0.0 120.780722,24.566215,0.0 120.780597,24.566554,0.0 120.78049,24.56677,0.0 120.780449,24.567052,0.0 120.780354,24.56733,0.0 120.780173,24.567535,0.0 120.779973,24.567706,0.0 120.779755,24.567818,0.0 120.779421,24.567836,0.0 120.779196,24.567974,0.0 120.779113,24.568096,0.0</coordinates></LinearRing></outerBoundaryIs></Polygon><styleUrl>#spolygon-map</styleUrl></Placemark><Placemark><Polygon><outerBoundaryIs><LinearRing><coordinates>120.752654,24.56329,0.0 120.751668,24.565015,0.0 120.751153,24.567016,0.0 120.750997,24.568483,0.0 120.751494,24.569303,0.0 120.751554,24.569871,0.0 120.751341,24.571629,0.0 120.751077,24.572551,0.0 120.751257,24.573982,0.0 120.751269,24.574849,0.0 120.751407,24.575921,0.0 120.751723,24.577531,0.0 120.752,24.578718,0.0 120.751803,24.58009,0.0 120.75156,24.580211,0.0 120.751447,24.580133,0.0 120.751405,24.580109,0.0 120.751108,24.579984,0.0 120.750997,24.57993,0.0 120.750306,24.579781,0.0 120.749903,24.579625,0.0 120.749806,24.579508,0.0 120.749618,24.579156,0.0 120.749377,24.578854,0.0 120.748931,24.578506,0.0 120.748679,24.578265,0.0 120.748379,24.578062,0.0 120.748167,24.578415,0.0 120.747883,24.578853,0.0 120.74751,24.578931,0.0 120.747018,24.579054,0.0 120.746641,24.578889,0.0 120.74621,24.578835,0.0 120.745734,24.578785,0.0 120.745091,24.578973,0.0 120.744693,24.578956,0.0 120.744365,24.578783,0.0 120.744172,24.578684,0.0 120.744128,24.578236,0.0 120.74426,24.577789,0.0 120.744355,24.577417,0.0 120.744477,24.577093,0.0 120.7445,24.576809,0.0 120.744226,24.576616,0.0 120.743902,24.576792,0.0 120.743603,24.576618,0.0 120.74313,24.576195,0.0 120.74286,24.575934,0.0 120.742613,24.575819,0.0 120.742325,24.575827,0.0 120.742169,24.575628,0.0 120.741958,24.575313,0.0 120.741558,24.575148,0.0 120.741078,24.575098,0.0 120.740715,24.57519,0.0 120.740405,24.575181,0.0 120.740168,24.575,0.0 120.740357,24.57482,0.0 120.740943,24.574634,0.0 120.740974,24.574221,0.0 120.740431,24.573762,0.0 120.740068,24.573536,0.0 120.739542,24.57325,0.0 120.739359,24.573134,0.0 120.739334,24.572846,0.0 120.739607,24.572601,0.0 120.739844,24.572277,0.0 120.739683,24.57203,0.0 120.739355,24.571862,0.0 120.73925,24.571472,0.0 120.738922,24.571105,0.0 120.738446,24.57093,0.0 120.737918,24.570956,0.0 120.737567,24.570721,0.0 120.737311,24.570748,0.0 120.737133,24.57097,0.0 120.736854,24.570765,0.0 120.736668,24.570407,0.0 120.736787,24.570128,0.0 120.736703,24.569955,0.0 120.736336,24.569723,0.0 120.735913,24.569464,0.0 120.735319,24.5691,0.0 120.734877,24.568782,0.0 120.734366,24.568427,0.0 120.73387,24.568252,0.0 120.733394,24.568122,0.0 120.732961,24.567943,0.0 120.732456,24.568155,0.0 120.732095,24.568005,0.0 120.731587,24.567346,0.0 120.731076,24.566618,0.0 120.73056,24.565824,0.0 120.730006,24.565033,0.0 120.729588,24.56444,0.0 120.729247,24.563958,0.0 120.72919,24.563614,0.0 120.728911,24.563181,0.0 120.7287,24.562843,0.0 120.72883,24.562412,0.0 120.728866,24.562178,0.0 120.728742,24.56183,0.0 120.728262,24.561442,0.0 120.728091,24.561121,0.0 120.727863,24.560567,0.0 120.727251,24.560059,0.0 120.727023,24.559552,0.0 120.727125,24.558921,0.0 120.727219,24.558301,0.0 120.727104,24.557843,0.0 120.726775,24.557289,0.0 120.726345,24.556659,0.0 120.725969,24.5561,0.0 120.725726,24.555731,0.0 120.725535,24.555427,0.0 120.725264,24.55504,0.0 120.724914,24.554566,0.0 120.724598,24.554029,0.0 120.72465,24.553582,0.0 120.725076,24.553091,0.0 120.725632,24.552645,0.0 120.726478,24.552366,0.0 120.726985,24.552507,0.0 120.72757,24.552671,0.0 120.728032,24.552715,0.0 120.728324,24.552552,0.0 120.728616,24.552411,0.0 120.730284,24.553355,0.0 120.730944,24.553792,0.0 120.732267,24.5546,0.0 120.733081,24.5555,0.0 120.734467,24.556524,0.0 120.73607,24.557645,0.0 120.737189,24.558029,0.0 120.738538,24.559252,0.0 120.74014,24.560276,0.0 120.74097,24.560491,0.0 120.742194,24.560311,0.0 120.743093,24.559903,0.0 120.744376,24.560153,0.0 120.744949,24.561206,0.0 120.744989,24.561922,0.0 120.745839,24.562434,0.0 120.747207,24.561931,0.0 120.748268,24.561547,0.0 120.749817,24.561115,0.0 120.750566,24.561121,0.0 120.751884,24.561214,0.0 120.752587,24.561079,0.0 120.753089,24.561615,0.0 120.753607,24.561833,0.0 120.753517,24.562351,0.0 120.752751,24.563198,0.0 120.752654,24.56329,0.0</coordinates></LinearRing></outerBoundaryIs></Polygon><styleUrl>#spolygon-map</styleUrl></Placemark><Placemark><Polygon><outerBoundaryIs><LinearRing><coordinates>120.767984,24.581496,0.0 120.767795,24.581443,0.0 120.767603,24.581287,0.0 120.767331,24.581036,0.0 120.766916,24.580709,0.0 120.766534,24.58053,0.0 120.766055,24.580365,0.0 120.765682,24.580287,0.0 120.765328,24.580206,0.0 120.765017,24.580028,0.0 120.764781,24.579846,0.0 120.764516,24.579754,0.0 120.76416,24.57973,0.0 120.763817,24.579794,0.0 120.763515,24.579932,0.0 120.763228,24.580095,0.0 120.763005,24.580224,0.0 120.762538,24.580465,0.0 120.762273,24.580521,0.0 120.76199,24.580551,0.0 120.761661,24.580572,0.0 120.761338,24.58058,0.0 120.761071,24.580587,0.0 120.760835,24.58074,0.0 120.760612,24.580875,0.0 120.760391,24.58092,0.0 120.760103,24.580767,0.0 120.759851,24.580602,0.0 120.75961,24.580444,0.0 120.759184,24.580202,0.0 120.758815,24.580014,0.0 120.758448,24.579827,0.0 120.758183,24.579711,0.0 120.757885,24.579777,0.0 120.757307,24.579857,0.0 120.75697,24.579827,0.0 120.756566,24.57972,0.0 120.755933,24.579752,0.0 120.755613,24.579829,0.0 120.755174,24.579777,0.0 120.754912,24.579939,0.0 120.754572,24.580374,0.0 120.754113,24.580772,0.0 120.753524,24.581054,0.0 120.753059,24.581232,0.0 120.752744,24.581137,0.0 120.75252,24.580919,0.0 120.752085,24.580553,0.0 120.751803,24.58009,0.0 120.752,24.578718,0.0 120.751723,24.577531,0.0 120.751407,24.575921,0.0 120.751269,24.574849,0.0 120.751257,24.573982,0.0 120.751077,24.572551,0.0 120.751341,24.571629,0.0 120.751554,24.569871,0.0 120.751494,24.569303,0.0 120.750997,24.568483,0.0 120.751153,24.567016,0.0 120.751668,24.565015,0.0 120.752654,24.56329,0.0 120.75342,24.562501,0.0 120.753677,24.561853,0.0 120.754038,24.561646,0.0 120.754826,24.560749,0.0 120.755898,24.560214,0.0 120.756148,24.559823,0.0 120.756889,24.560198,0.0 120.758219,24.561035,0.0 120.759273,24.562154,0.0 120.759914,24.562746,0.0 120.761746,24.564039,0.0 120.762829,24.564909,0.0 120.763932,24.565765,0.0 120.765175,24.566214,0.0 120.76603,24.566336,0.0 120.76643,24.567123,0.0 120.767149,24.566901,0.0 120.768042,24.565934,0.0 120.768842,24.5659,0.0 120.769958,24.566399,0.0 120.771481,24.566984,0.0 120.772464,24.566734,0.0 120.774212,24.566391,0.0 120.775213,24.566691,0.0 120.776425,24.567439,0.0 120.778732,24.568638,0.0 120.778683,24.568957,0.0 120.778499,24.569208,0.0 120.778322,24.569426,0.0 120.778103,24.569674,0.0 120.777928,24.569854,0.0 120.777637,24.570088,0.0 120.777396,24.570261,0.0 120.777111,24.570395,0.0 120.7768,24.570477,0.0 120.776423,24.570512,0.0 120.776042,24.570518,0.0 120.775786,24.57051,0.0 120.775754,24.570812,0.0 120.775723,24.57105,0.0 120.775561,24.57119,0.0 120.775221,24.571293,0.0 120.775085,24.571414,0.0 120.77521,24.571553,0.0 120.775345,24.571635,0.0 120.775511,24.571841,0.0 120.775527,24.572135,0.0 120.775425,24.572374,0.0 120.775193,24.572623,0.0 120.775027,24.572771,0.0 120.774803,24.572902,0.0 120.774494,24.572962,0.0 120.774173,24.573032,0.0 120.773945,24.573136,0.0 120.773809,24.573249,0.0 120.773823,24.573566,0.0 120.773855,24.573901,0.0 120.773805,24.574205,0.0 120.773594,24.574347,0.0 120.773327,24.574463,0.0 120.773057,24.574573,0.0 120.772754,24.574676,0.0 120.772472,24.574754,0.0 120.772217,24.574807,0.0 120.771971,24.57487,0.0 120.771663,24.575027,0.0 120.771449,24.575284,0.0 120.771253,24.575491,0.0 120.771112,24.575721,0.0 120.771083,24.575982,0.0 120.771161,24.576392,0.0 120.771198,24.576646,0.0 120.771223,24.57702,0.0 120.771237,24.577516,0.0 120.77122,24.577756,0.0 120.771101,24.578066,0.0 120.770886,24.578249,0.0 120.770762,24.578505,0.0 120.770742,24.578831,0.0 120.770725,24.579188,0.0 120.770531,24.579516,0.0 120.770364,24.579742,0.0 120.770277,24.579984,0.0 120.770158,24.580318,0.0 120.770039,24.580516,0.0 120.76988,24.58068,0.0 120.769646,24.580833,0.0 120.769385,24.581004,0.0 120.76925,24.581216,0.0 120.769056,24.581388,0.0 120.768682,24.581381,0.0 120.768405,24.581374,0.0 120.76813,24.581467,0.0 120.767984,24.581496,0.0</coordinates></LinearRing></outerBoundaryIs></Polygon><styleUrl>#spolygon-map</styleUrl></Placemark></Document>
</kml>
