<?xml version="1.0" encoding="UTF-8"?>
<kml xmlns="http://www.opengis.net/kml/2.2">
	<Document>
		<name>苗栗縣卓蘭鎮</name>
		<Style id="spolygon">
			<LabelStyle>
				<scale>0.0</scale>
			</LabelStyle>
			<LineStyle>
				<color>330030ff</color>
				<width>0</width>
			</LineStyle>
			<PolyStyle>
				<color>330030ff</color>
			</PolyStyle>
		</Style>
		<StyleMap id="spolygon-map">
			<Pair>
				<key>normal</key>
				<styleUrl>#spolygon</styleUrl>
			</Pair>
		</StyleMap>
	<Placemark><Polygon><outerBoundaryIs><LinearRing><coordinates>120.914335,24.307694,0.0 120.913444,24.307819,0.0 120.911995,24.307966,0.0 120.909829,24.307979,0.0 120.907708,24.307876,0.0 120.90684,24.307729,0.0 120.90546,24.307687,0.0 120.904644,24.307459,0.0 120.903558,24.307191,0.0 120.902277,24.307183,0.0 120.900708,24.307317,0.0 120.899534,24.307165,0.0 120.898279,24.306557,0.0 120.897399,24.306101,0.0 120.896818,24.305523,0.0 120.896308,24.304541,0.0 120.895641,24.303839,0.0 120.894739,24.303344,0.0 120.893809,24.303404,0.0 120.892783,24.303375,0.0 120.892121,24.302994,0.0 120.89105,24.302435,0.0 120.889473,24.302336,0.0 120.887727,24.302377,0.0 120.886973,24.302637,0.0 120.886056,24.302569,0.0 120.885256,24.302322,0.0 120.88445,24.302321,0.0 120.88374,24.302226,0.0 120.882307,24.302277,0.0 120.881735,24.302148,0.0 120.880697,24.301604,0.0 120.879957,24.301403,0.0 120.878682,24.30109,0.0 120.877845,24.301282,0.0 120.877082,24.302266,0.0 120.87513,24.302314,0.0 120.874837,24.302334,0.0 120.873505,24.302323,0.0 120.872503,24.30233,0.0 120.871489,24.302454,0.0 120.870984,24.302969,0.0 120.870739,24.303721,0.0 120.870638,24.304627,0.0 120.869441,24.30463,0.0 120.867822,24.3047,0.0 120.866738,24.304582,0.0 120.865652,24.304585,0.0 120.864434,24.30455,0.0 120.863584,24.304406,0.0 120.862634,24.304216,0.0 120.860779,24.304272,0.0 120.859735,24.304154,0.0 120.859056,24.304085,0.0 120.857831,24.304798,0.0 120.857035,24.305559,0.0 120.856537,24.305558,0.0 120.855756,24.305343,0.0 120.854952,24.304967,0.0 120.853133,24.304313,0.0 120.852347,24.303903,0.0 120.851468,24.303693,0.0 120.850553,24.303588,0.0 120.849736,24.303534,0.0 120.848637,24.303314,0.0 120.847802,24.303003,0.0 120.846975,24.302706,0.0 120.845739,24.302394,0.0 120.845422,24.302311,0.0 120.84414,24.302044,0.0 120.843459,24.301676,0.0 120.842359,24.30156,0.0 120.841626,24.301493,0.0 120.840961,24.301353,0.0 120.84061,24.301234,0.0 120.840128,24.301113,0.0 120.839713,24.301039,0.0 120.839165,24.300924,0.0 120.839088,24.300882,0.0 120.838794,24.300787,0.0 120.838567,24.300646,0.0 120.838318,24.300582,0.0 120.83747,24.300375,0.0 120.836378,24.300107,0.0 120.836119,24.299859,0.0 120.83512,24.299375,0.0 120.834805,24.299172,0.0 120.83477,24.298312,0.0 120.834686,24.297876,0.0 120.834491,24.296981,0.0 120.834376,24.296545,0.0 120.834284,24.296302,0.0 120.834102,24.295961,0.0 120.834016,24.295783,0.0 120.833792,24.29524,0.0 120.833603,24.294553,0.0 120.833367,24.292978,0.0 120.833092,24.291974,0.0 120.832518,24.291308,0.0 120.833138,24.290784,0.0 120.833557,24.290475,0.0 120.835622,24.289857,0.0 120.836825,24.289546,0.0 120.838142,24.289278,0.0 120.839665,24.289201,0.0 120.840855,24.289213,0.0 120.84165,24.28919,0.0 120.842898,24.289013,0.0 120.843673,24.288879,0.0 120.844718,24.288814,0.0 120.846128,24.288795,0.0 120.847266,24.288597,0.0 120.84946,24.288528,0.0 120.851044,24.288566,0.0 120.852537,24.288675,0.0 120.853996,24.28877,0.0 120.856037,24.28895,0.0 120.858143,24.289443,0.0 120.859419,24.290148,0.0 120.860692,24.290566,0.0 120.862294,24.29126,0.0 120.864264,24.292055,0.0 120.866142,24.292813,0.0 120.86814,24.293426,0.0 120.870152,24.293887,0.0 120.872193,24.29434,0.0 120.873971,24.294698,0.0 120.876109,24.295005,0.0 120.8775,24.295054,0.0 120.878757,24.295039,0.0 120.881078,24.294902,0.0 120.883425,24.294593,0.0 120.88687,24.294269,0.0 120.890961,24.294126,0.0 120.893376,24.29376,0.0 120.897528,24.293079,0.0 120.899828,24.292756,0.0 120.902242,24.292225,0.0 120.904528,24.292228,0.0 120.905869,24.292609,0.0 120.907153,24.293207,0.0 120.908707,24.293814,0.0 120.909098,24.293973,0.0 120.909839,24.294085,0.0 120.910173,24.294924,0.0 120.910506,24.296345,0.0 120.911324,24.297678,0.0 120.912313,24.299367,0.0 120.913318,24.300928,0.0 120.914431,24.30386,0.0 120.914254,24.306698,0.0 120.914335,24.307694,0.0</coordinates></LinearRing></outerBoundaryIs></Polygon><styleUrl>#spolygon-map</styleUrl></Placemark><Placemark><Polygon><outerBoundaryIs><LinearRing><coordinates>120.828292,24.310453,0.0 120.828336,24.310636,0.0 120.828045,24.311449,0.0 120.827629,24.311046,0.0 120.827199,24.311305,0.0 120.825989,24.31113,0.0 120.825447,24.31033,0.0 120.82573,24.310114,0.0 120.826083,24.309895,0.0 120.826655,24.309397,0.0 120.826817,24.309163,0.0 120.82796,24.308641,0.0 120.828426,24.308154,0.0 120.828873,24.307601,0.0 120.829556,24.307739,0.0 120.82934,24.308593,0.0 120.829541,24.308732,0.0 120.829379,24.309071,0.0 120.829018,24.309201,0.0 120.828694,24.309818,0.0 120.828536,24.310118,0.0 120.828311,24.310425,0.0 120.828292,24.310453,0.0</coordinates></LinearRing></outerBoundaryIs></Polygon><styleUrl>#spolygon-map</styleUrl></Placemark><Placemark><Polygon><outerBoundaryIs><LinearRing><coordinates>120.827677,24.313912,0.0 120.826466,24.313129,0.0 120.826069,24.312124,0.0 120.826028,24.311432,0.0 120.826757,24.311201,0.0 120.827627,24.311049,0.0 120.827968,24.311362,0.0 120.828143,24.31165,0.0 120.828515,24.312073,0.0 120.828736,24.312317,0.0 120.828462,24.312693,0.0 120.828021,24.31332,0.0 120.827839,24.313503,0.0 120.827724,24.313729,0.0 120.827711,24.313844,0.0 120.827677,24.313912,0.0</coordinates></LinearRing></outerBoundaryIs></Polygon><styleUrl>#spolygon-map</styleUrl></Placemark><Placemark><Polygon><outerBoundaryIs><LinearRing><coordinates>120.822569,24.32166,0.0 120.822106,24.321975,0.0 120.821396,24.321987,0.0 120.82034,24.321481,0.0 120.819738,24.321384,0.0 120.819547,24.321179,0.0 120.819745,24.320763,0.0 120.82037,24.320045,0.0 120.82091,24.31997,0.0 120.821077,24.319591,0.0 120.820688,24.319033,0.0 120.820945,24.318599,0.0 120.821703,24.317814,0.0 120.82208,24.317209,0.0 120.822318,24.317005,0.0 120.822519,24.316368,0.0 120.822403,24.316126,0.0 120.821743,24.31609,0.0 120.821499,24.316182,0.0 120.821079,24.316248,0.0 120.820695,24.316501,0.0 120.820253,24.316754,0.0 120.819781,24.316489,0.0 120.819225,24.31633,0.0 120.8187,24.316186,0.0 120.817564,24.316324,0.0 120.816694,24.31621,0.0 120.816161,24.315891,0.0 120.816013,24.315184,0.0 120.815672,24.31448,0.0 120.815608,24.314382,0.0 120.815428,24.314231,0.0 120.814504,24.313726,0.0 120.813828,24.313249,0.0 120.813423,24.312874,0.0 120.81209,24.312018,0.0 120.812368,24.311208,0.0 120.813487,24.310287,0.0 120.814966,24.308972,0.0 120.816057,24.308298,0.0 120.817122,24.307762,0.0 120.817562,24.307422,0.0 120.818184,24.306534,0.0 120.818793,24.305522,0.0 120.819091,24.304666,0.0 120.819673,24.30361,0.0 120.820713,24.3023,0.0 120.822837,24.299582,0.0 120.825315,24.300011,0.0 120.827042,24.301315,0.0 120.827393,24.301861,0.0 120.828456,24.303364,0.0 120.828917,24.303878,0.0 120.829004,24.303999,0.0 120.829613,24.304494,0.0 120.830077,24.304855,0.0 120.8304,24.305115,0.0 120.82985,24.306141,0.0 120.829606,24.30688,0.0 120.829032,24.307475,0.0 120.828607,24.307951,0.0 120.828112,24.308511,0.0 120.826949,24.309163,0.0 120.826725,24.309271,0.0 120.826348,24.309639,0.0 120.825811,24.31012,0.0 120.825541,24.310174,0.0 120.825205,24.310733,0.0 120.826087,24.311967,0.0 120.82579,24.312276,0.0 120.827476,24.314085,0.0 120.827202,24.314517,0.0 120.82705,24.314712,0.0 120.827002,24.314833,0.0 120.827032,24.314903,0.0 120.827331,24.31523,0.0 120.82747,24.315354,0.0 120.827529,24.315452,0.0 120.827151,24.315906,0.0 120.826752,24.316483,0.0 120.826616,24.31695,0.0 120.826638,24.317904,0.0 120.826612,24.318402,0.0 120.826375,24.318922,0.0 120.825314,24.319969,0.0 120.825164,24.320424,0.0 120.824471,24.320547,0.0 120.824186,24.320898,0.0 120.823986,24.321121,0.0 120.823683,24.320953,0.0 120.823201,24.320701,0.0 120.822735,24.321324,0.0 120.822569,24.32166,0.0</coordinates></LinearRing></outerBoundaryIs></Polygon><styleUrl>#spolygon-map</styleUrl></Placemark><Placemark><Polygon><outerBoundaryIs><LinearRing><coordinates>120.867768,24.324054,0.0 120.867088,24.323775,0.0 120.866514,24.32345,0.0 120.86639,24.323297,0.0 120.86609,24.322994,0.0 120.866016,24.322903,0.0 120.865907,24.322757,0.0 120.865513,24.322426,0.0 120.865392,24.32232,0.0 120.865134,24.322212,0.0 120.864936,24.322167,0.0 120.86485,24.322185,0.0 120.864648,24.322261,0.0 120.864546,24.322264,0.0 120.864322,24.32218,0.0 120.863939,24.321984,0.0 120.863741,24.321824,0.0 120.863462,24.321542,0.0 120.863368,24.321488,0.0 120.863114,24.32141,0.0 120.862934,24.321331,0.0 120.862871,24.321267,0.0 120.862783,24.321145,0.0 120.862716,24.321105,0.0 120.862603,24.321101,0.0 120.862494,24.321141,0.0 120.862218,24.321309,0.0 120.86196,24.321414,0.0 120.861714,24.321467,0.0 120.861566,24.321445,0.0 120.861396,24.321385,0.0 120.861282,24.321408,0.0 120.860993,24.321535,0.0 120.86079,24.321635,0.0 120.860535,24.321795,0.0 120.860433,24.321804,0.0 120.860183,24.32174,0.0 120.859921,24.321606,0.0 120.859851,24.32159,0.0 120.85953,24.32159,0.0 120.85934,24.321511,0.0 120.859217,24.321435,0.0 120.85913,24.32142,0.0 120.859033,24.321462,0.0 120.858777,24.321705,0.0 120.858623,24.321787,0.0 120.858418,24.321847,0.0 120.858294,24.321832,0.0 120.858033,24.321771,0.0 120.857875,24.321759,0.0 120.857647,24.321781,0.0 120.857527,24.321831,0.0 120.85704,24.321902,0.0 120.85644,24.321918,0.0 120.855431,24.321782,0.0 120.85513,24.321688,0.0 120.854563,24.32157,0.0 120.8544,24.321494,0.0 120.854251,24.321306,0.0 120.854092,24.321113,0.0 120.853753,24.320967,0.0 120.85352,24.320912,0.0 120.853336,24.320769,0.0 120.852472,24.320012,0.0 120.852284,24.319841,0.0 120.851437,24.319099,0.0 120.85055,24.318275,0.0 120.848988,24.317292,0.0 120.847619,24.316274,0.0 120.846194,24.315202,0.0 120.84491,24.31441,0.0 120.843786,24.31377,0.0 120.84172,24.312895,0.0 120.840908,24.312637,0.0 120.840875,24.312622,0.0 120.84061,24.312042,0.0 120.840415,24.311638,0.0 120.839895,24.311396,0.0 120.83985,24.310842,0.0 120.839565,24.310427,0.0 120.839434,24.309962,0.0 120.839237,24.309665,0.0 120.838906,24.308842,0.0 120.838713,24.308786,0.0 120.837934,24.30945,0.0 120.837177,24.309927,0.0 120.836886,24.310109,0.0 120.836701,24.310565,0.0 120.835618,24.310645,0.0 120.835183,24.310093,0.0 120.834788,24.309093,0.0 120.834594,24.308886,0.0 120.833657,24.30872,0.0 120.832623,24.308719,0.0 120.830868,24.308917,0.0 120.830078,24.309026,0.0 120.829746,24.30907,0.0 120.829672,24.30914,0.0 120.829454,24.308887,0.0 120.829366,24.308659,0.0 120.82933,24.308184,0.0 120.829074,24.30743,0.0 120.829702,24.306717,0.0 120.829933,24.305952,0.0 120.830296,24.305015,0.0 120.830006,24.3048,0.0 120.829441,24.304353,0.0 120.828989,24.303987,0.0 120.82883,24.303751,0.0 120.828366,24.303272,0.0 120.827351,24.301722,0.0 120.82681,24.300999,0.0 120.824323,24.299548,0.0 120.82401,24.298176,0.0 120.824568,24.297706,0.0 120.825048,24.297069,0.0 120.825393,24.29672,0.0 120.825962,24.296295,0.0 120.8264,24.296032,0.0 120.82684,24.295815,0.0 120.827363,24.295534,0.0 120.827966,24.295171,0.0 120.828276,24.294914,0.0 120.828494,24.294522,0.0 120.829207,24.293822,0.0 120.830224,24.29335,0.0 120.830937,24.293006,0.0 120.831796,24.292381,0.0 120.832167,24.291953,0.0 120.832459,24.29138,0.0 120.833177,24.292192,0.0 120.833446,24.293367,0.0 120.833628,24.294668,0.0 120.833856,24.295391,0.0 120.834025,24.295814,0.0 120.834154,24.296036,0.0 120.834292,24.296323,0.0 120.834404,24.296613,0.0 120.834563,24.297317,0.0 120.834692,24.297903,0.0 120.834784,24.298526,0.0 120.834805,24.299176,0.0 120.835436,24.299466,0.0 120.836225,24.300001,0.0 120.83662,24.300192,0.0 120.837698,24.300452,0.0 120.838511,24.300615,0.0 120.838575,24.300653,0.0 120.838918,24.300827,0.0 120.839109,24.300897,0.0 120.839233,24.300943,0.0 120.839785,24.301046,0.0 120.840187,24.301127,0.0 120.840691,24.301263,0.0 120.841073,24.301387,0.0 120.841632,24.301494,0.0 120.84301,24.301575,0.0 120.843651,24.30191,0.0 120.84449,24.302102,0.0 120.845496,24.30233,0.0 120.845975,24.302457,0.0 120.847083,24.302729,0.0 120.848114,24.303151,0.0 120.848876,24.303367,0.0 120.850001,24.303568,0.0 120.851073,24.303607,0.0 120.851583,24.303712,0.0 120.852652,24.304041,0.0 120.853708,24.304437,0.0 120.855121,24.305058,0.0 120.855998,24.305418,0.0 120.856706,24.305607,0.0 120.857183,24.305389,0.0 120.858404,24.304429,0.0 120.859175,24.304085,0.0 120.860023,24.304229,0.0 120.861365,24.304283,0.0 120.863004,24.304228,0.0 120.863699,24.304428,0.0 120.864586,24.304569,0.0 120.865891,24.304582,0.0 120.866882,24.304598,0.0 120.868209,24.304685,0.0 120.869898,24.30463,0.0 120.870716,24.304586,0.0 120.870747,24.303646,0.0 120.87102,24.302861,0.0 120.871715,24.302372,0.0 120.872939,24.302304,0.0 120.873984,24.302361,0.0 120.874941,24.302321,0.0 120.875681,24.302314,0.0 120.877172,24.302221,0.0 120.878001,24.301192,0.0 120.878807,24.301113,0.0 120.880014,24.301421,0.0 120.880967,24.301718,0.0 120.881953,24.302239,0.0 120.881482,24.303628,0.0 120.880893,24.305352,0.0 120.880455,24.306924,0.0 120.880814,24.307755,0.0 120.880911,24.30854,0.0 120.880495,24.309659,0.0 120.879901,24.310863,0.0 120.879255,24.311779,0.0 120.878558,24.312559,0.0 120.877804,24.313371,0.0 120.877418,24.314106,0.0 120.87736,24.314984,0.0 120.877149,24.316461,0.0 120.877552,24.317186,0.0 120.877622,24.317271,0.0 120.877651,24.317367,0.0 120.877642,24.317624,0.0 120.877705,24.317818,0.0 120.877449,24.318963,0.0 120.877167,24.319871,0.0 120.876771,24.320915,0.0 120.876213,24.321664,0.0 120.875418,24.322367,0.0 120.874359,24.323242,0.0 120.872059,24.323212,0.0 120.870911,24.323327,0.0 120.870053,24.323732,0.0 120.869279,24.323661,0.0 120.868005,24.323978,0.0 120.867768,24.324054,0.0</coordinates></LinearRing></outerBoundaryIs></Polygon><styleUrl>#spolygon-map</styleUrl></Placemark><Placemark><Polygon><outerBoundaryIs><LinearRing><coordinates>120.834686,24.324113,0.0 120.833921,24.324557,0.0 120.831578,24.323999,0.0 120.830243,24.323744,0.0 120.829912,24.323353,0.0 120.829651,24.32113,0.0 120.829168,24.318778,0.0 120.828749,24.318577,0.0 120.828234,24.318765,0.0 120.827915,24.318649,0.0 120.827647,24.318632,0.0 120.827208,24.31908,0.0 120.827369,24.319597,0.0 120.827498,24.319987,0.0 120.827187,24.32083,0.0 120.827026,24.320936,0.0 120.826067,24.320855,0.0 120.825493,24.320383,0.0 120.825174,24.320424,0.0 120.825252,24.320073,0.0 120.826318,24.319,0.0 120.826582,24.318519,0.0 120.826644,24.317998,0.0 120.826605,24.317066,0.0 120.826716,24.316558,0.0 120.826994,24.316116,0.0 120.827501,24.315488,0.0 120.827488,24.315368,0.0 120.827347,24.315241,0.0 120.82718,24.315062,0.0 120.827007,24.314854,0.0 120.827012,24.314765,0.0 120.827181,24.31455,0.0 120.827397,24.314181,0.0 120.827694,24.313897,0.0 120.82771,24.313827,0.0 120.827735,24.313702,0.0 120.827908,24.313427,0.0 120.82824,24.313072,0.0 120.828819,24.312371,0.0 120.828654,24.312253,0.0 120.828476,24.312013,0.0 120.828119,24.311619,0.0 120.828257,24.310838,0.0 120.828287,24.310497,0.0 120.828311,24.310425,0.0 120.828536,24.310118,0.0 120.828694,24.309818,0.0 120.829018,24.309201,0.0 120.829379,24.309071,0.0 120.829672,24.30914,0.0 120.829746,24.30907,0.0 120.830078,24.309026,0.0 120.830868,24.308917,0.0 120.832623,24.308719,0.0 120.833657,24.30872,0.0 120.834594,24.308886,0.0 120.834788,24.309093,0.0 120.835183,24.310093,0.0 120.835618,24.310645,0.0 120.836701,24.310565,0.0 120.836886,24.310109,0.0 120.837177,24.309927,0.0 120.837934,24.30945,0.0 120.838713,24.308786,0.0 120.838906,24.308842,0.0 120.839237,24.309665,0.0 120.839434,24.309962,0.0 120.839565,24.310427,0.0 120.83985,24.310842,0.0 120.839895,24.311396,0.0 120.840415,24.311638,0.0 120.84061,24.312042,0.0 120.840875,24.312622,0.0 120.840908,24.312637,0.0 120.84172,24.312895,0.0 120.843786,24.31377,0.0 120.84491,24.31441,0.0 120.846194,24.315202,0.0 120.847619,24.316274,0.0 120.848988,24.317292,0.0 120.85055,24.318275,0.0 120.851437,24.319099,0.0 120.852284,24.319841,0.0 120.852472,24.320012,0.0 120.853336,24.320769,0.0 120.85286,24.320959,0.0 120.850025,24.321237,0.0 120.848643,24.321336,0.0 120.847387,24.321534,0.0 120.846151,24.321522,0.0 120.845169,24.321565,0.0 120.843991,24.321771,0.0 120.842568,24.322019,0.0 120.841394,24.322308,0.0 120.839609,24.322628,0.0 120.838879,24.322732,0.0 120.837105,24.323027,0.0 120.836218,24.323462,0.0 120.83538,24.323768,0.0 120.83473,24.324085,0.0 120.834686,24.324113,0.0</coordinates></LinearRing></outerBoundaryIs></Polygon><styleUrl>#spolygon-map</styleUrl></Placemark><Placemark><Polygon><outerBoundaryIs><LinearRing><coordinates>120.816956,24.329677,0.0 120.816732,24.32979,0.0 120.816443,24.330024,0.0 120.817413,24.328722,0.0 120.81756,24.3281,0.0 120.817914,24.327368,0.0 120.818223,24.326503,0.0 120.818357,24.325868,0.0 120.81836,24.325368,0.0 120.8184,24.325114,0.0 120.818569,24.324442,0.0 120.818564,24.324238,0.0 120.818452,24.323672,0.0 120.818327,24.323045,0.0 120.818575,24.322118,0.0 120.819338,24.320784,0.0 120.819606,24.321023,0.0 120.819677,24.32137,0.0 120.82022,24.321433,0.0 120.821138,24.321871,0.0 120.82197,24.32201,0.0 120.822553,24.32169,0.0 120.822888,24.321024,0.0 120.823245,24.320691,0.0 120.823719,24.320981,0.0 120.824071,24.320895,0.0 120.824212,24.32089,0.0 120.824629,24.320464,0.0 120.825174,24.320424,0.0 120.825493,24.320383,0.0 120.826067,24.320855,0.0 120.827026,24.320936,0.0 120.827187,24.32083,0.0 120.827498,24.319987,0.0 120.827369,24.319597,0.0 120.827208,24.31908,0.0 120.827647,24.318632,0.0 120.827915,24.318649,0.0 120.828234,24.318765,0.0 120.828749,24.318577,0.0 120.829168,24.318778,0.0 120.829651,24.32113,0.0 120.829912,24.323353,0.0 120.830243,24.323744,0.0 120.831578,24.323999,0.0 120.833921,24.324557,0.0 120.834093,24.325399,0.0 120.834062,24.326402,0.0 120.833759,24.327356,0.0 120.833264,24.327593,0.0 120.833202,24.327481,0.0 120.833113,24.3275,0.0 120.832971,24.327593,0.0 120.832881,24.327697,0.0 120.832823,24.327736,0.0 120.832709,24.327772,0.0 120.831734,24.327989,0.0 120.831653,24.327886,0.0 120.83096,24.327975,0.0 120.830713,24.328082,0.0 120.830644,24.328108,0.0 120.830374,24.327935,0.0 120.829998,24.327892,0.0 120.82933,24.327803,0.0 120.828012,24.327889,0.0 120.825936,24.327851,0.0 120.825534,24.327904,0.0 120.825264,24.328072,0.0 120.825122,24.328281,0.0 120.824182,24.328807,0.0 120.821273,24.329796,0.0 120.820794,24.329221,0.0 120.820912,24.328888,0.0 120.820768,24.3288,0.0 120.820641,24.32857,0.0 120.820779,24.328328,0.0 120.820736,24.328115,0.0 120.820031,24.328375,0.0 120.819352,24.328624,0.0 120.819123,24.328747,0.0 120.81894,24.32889,0.0 120.818628,24.329219,0.0 120.818361,24.329408,0.0 120.818042,24.329545,0.0 120.817815,24.329595,0.0 120.81739,24.329591,0.0 120.817072,24.329646,0.0 120.816956,24.329677,0.0</coordinates></LinearRing></outerBoundaryIs></Polygon><styleUrl>#spolygon-map</styleUrl></Placemark><Placemark><Polygon><outerBoundaryIs><LinearRing><coordinates>120.80365,24.336555,0.0 120.802967,24.336751,0.0 120.801228,24.336456,0.0 120.799825,24.3362,0.0 120.798598,24.335956,0.0 120.797505,24.3357,0.0 120.796439,24.335423,0.0 120.795258,24.335311,0.0 120.794394,24.335206,0.0 120.792935,24.33503,0.0 120.79176,24.334882,0.0 120.790897,24.334799,0.0 120.790337,24.334706,0.0 120.789352,24.334537,0.0 120.789172,24.334465,0.0 120.789036,24.334347,0.0 120.788677,24.333944,0.0 120.788508,24.333646,0.0 120.788194,24.332132,0.0 120.787813,24.330659,0.0 120.787608,24.330107,0.0 120.78696,24.329525,0.0 120.786121,24.328801,0.0 120.785604,24.328592,0.0 120.785337,24.328471,0.0 120.785263,24.328458,0.0 120.784055,24.327926,0.0 120.781662,24.326997,0.0 120.781447,24.326812,0.0 120.781313,24.326725,0.0 120.780226,24.325606,0.0 120.777748,24.323461,0.0 120.776329,24.322337,0.0 120.776652,24.322046,0.0 120.776834,24.321838,0.0 120.777225,24.321172,0.0 120.77751,24.320794,0.0 120.777777,24.320565,0.0 120.778131,24.320285,0.0 120.778586,24.320065,0.0 120.779211,24.319959,0.0 120.779904,24.319966,0.0 120.78045,24.319826,0.0 120.780909,24.31965,0.0 120.781265,24.319474,0.0 120.781621,24.319339,0.0 120.782095,24.319264,0.0 120.782483,24.319117,0.0 120.78283,24.318929,0.0 120.783128,24.318615,0.0 120.784043,24.318326,0.0 120.784697,24.318303,0.0 120.785426,24.31826,0.0 120.785906,24.318183,0.0 120.786569,24.318125,0.0 120.786814,24.318298,0.0 120.787073,24.318377,0.0 120.787628,24.318291,0.0 120.788073,24.318229,0.0 120.788644,24.31806,0.0 120.789145,24.317885,0.0 120.789703,24.317968,0.0 120.789854,24.317877,0.0 120.790421,24.317649,0.0 120.790933,24.317481,0.0 120.791447,24.317435,0.0 120.79167,24.317589,0.0 120.792108,24.317598,0.0 120.792926,24.317389,0.0 120.794945,24.316785,0.0 120.795455,24.316607,0.0 120.795993,24.316381,0.0 120.796923,24.316402,0.0 120.797587,24.316312,0.0 120.797978,24.316328,0.0 120.798228,24.316255,0.0 120.799065,24.316175,0.0 120.801225,24.316202,0.0 120.80264,24.316176,0.0 120.803757,24.316147,0.0 120.805504,24.315966,0.0 120.807443,24.31515,0.0 120.808138,24.314252,0.0 120.808973,24.313672,0.0 120.809702,24.312842,0.0 120.810569,24.31224,0.0 120.81173,24.311892,0.0 120.813191,24.312674,0.0 120.813824,24.313244,0.0 120.814298,24.313609,0.0 120.815363,24.314175,0.0 120.815508,24.31431,0.0 120.815611,24.314424,0.0 120.815966,24.314961,0.0 120.816087,24.315731,0.0 120.816304,24.316105,0.0 120.817267,24.3163,0.0 120.81841,24.316241,0.0 120.819102,24.316262,0.0 120.819696,24.316567,0.0 120.820202,24.316725,0.0 120.820389,24.316709,0.0 120.82103,24.316294,0.0 120.821358,24.316181,0.0 120.821693,24.316101,0.0 120.822345,24.316096,0.0 120.822543,24.316337,0.0 120.822319,24.316901,0.0 120.822177,24.317145,0.0 120.821744,24.317696,0.0 120.821223,24.318342,0.0 120.820651,24.318943,0.0 120.821015,24.319464,0.0 120.82099,24.319874,0.0 120.820481,24.320016,0.0 120.819914,24.320513,0.0 120.819547,24.320862,0.0 120.819053,24.321218,0.0 120.818381,24.322507,0.0 120.818371,24.323289,0.0 120.818535,24.324014,0.0 120.818574,24.324366,0.0 120.818539,24.324581,0.0 120.818372,24.325254,0.0 120.818356,24.325679,0.0 120.818317,24.326095,0.0 120.818154,24.326994,0.0 120.81762,24.327814,0.0 120.817518,24.32843,0.0 120.817173,24.329123,0.0 120.816253,24.330185,0.0 120.816014,24.330342,0.0 120.815828,24.330414,0.0 120.815263,24.330567,0.0 120.814854,24.330741,0.0 120.814463,24.330922,0.0 120.813904,24.331325,0.0 120.813555,24.331826,0.0 120.813146,24.332909,0.0 120.812251,24.333563,0.0 120.811324,24.334093,0.0 120.810165,24.334407,0.0 120.809311,24.334394,0.0 120.807998,24.333989,0.0 120.807033,24.33383,0.0 120.80661,24.333901,0.0 120.806352,24.333986,0.0 120.80621,24.334016,0.0 120.805449,24.334556,0.0 120.804114,24.33616,0.0 120.80365,24.336555,0.0</coordinates></LinearRing></outerBoundaryIs></Polygon><styleUrl>#spolygon-map</styleUrl></Placemark><Placemark><Polygon><outerBoundaryIs><LinearRing><coordinates>120.826806,24.342762,0.0 120.82604,24.342798,0.0 120.825447,24.342655,0.0 120.824814,24.342198,0.0 120.824244,24.341805,0.0 120.823443,24.341459,0.0 120.822803,24.341371,0.0 120.822248,24.341471,0.0 120.821719,24.341716,0.0 120.82144,24.342027,0.0 120.821232,24.342461,0.0 120.820926,24.343011,0.0 120.820519,24.343491,0.0 120.820089,24.343955,0.0 120.819598,24.344224,0.0 120.818818,24.34425,0.0 120.818097,24.343952,0.0 120.817163,24.343458,0.0 120.816482,24.34332,0.0 120.815616,24.343095,0.0 120.815094,24.342773,0.0 120.815073,24.34228,0.0 120.814755,24.341635,0.0 120.814265,24.341164,0.0 120.81352,24.340906,0.0 120.813129,24.340881,0.0 120.812748,24.34102,0.0 120.812204,24.341451,0.0 120.811925,24.341736,0.0 120.811916,24.342183,0.0 120.81206,24.342607,0.0 120.812245,24.343099,0.0 120.811995,24.34331,0.0 120.812189,24.343552,0.0 120.81284,24.34401,0.0 120.813522,24.344415,0.0 120.814141,24.344769,0.0 120.814457,24.34517,0.0 120.814682,24.345515,0.0 120.814705,24.345879,0.0 120.814549,24.3462,0.0 120.814124,24.346767,0.0 120.81359,24.347102,0.0 120.813043,24.347227,0.0 120.812499,24.347285,0.0 120.812172,24.347138,0.0 120.811646,24.346573,0.0 120.811507,24.346214,0.0 120.811282,24.34615,0.0 120.810639,24.346011,0.0 120.809948,24.34577,0.0 120.809637,24.345558,0.0 120.809829,24.345238,0.0 120.810237,24.344833,0.0 120.810315,24.344342,0.0 120.810257,24.343773,0.0 120.810169,24.343529,0.0 120.809774,24.343183,0.0 120.809348,24.342868,0.0 120.808879,24.342521,0.0 120.808356,24.342251,0.0 120.808078,24.342191,0.0 120.807733,24.341998,0.0 120.807194,24.341804,0.0 120.807008,24.341959,0.0 120.806916,24.342289,0.0 120.806766,24.342632,0.0 120.806412,24.342825,0.0 120.805816,24.342963,0.0 120.805389,24.342925,0.0 120.804972,24.342767,0.0 120.804566,24.342581,0.0 120.803953,24.34222,0.0 120.803501,24.341888,0.0 120.80299,24.341607,0.0 120.802585,24.341444,0.0 120.802093,24.341327,0.0 120.80167,24.34122,0.0 120.801392,24.341088,0.0 120.801329,24.340856,0.0 120.801401,24.340406,0.0 120.801525,24.340041,0.0 120.801539,24.339674,0.0 120.801396,24.339393,0.0 120.801106,24.339225,0.0 120.800781,24.339252,0.0 120.800323,24.339427,0.0 120.800098,24.339618,0.0 120.79995,24.339959,0.0 120.799748,24.340415,0.0 120.799409,24.340777,0.0 120.799047,24.340995,0.0 120.798586,24.341124,0.0 120.798299,24.341152,0.0 120.797959,24.3411,0.0 120.797487,24.340922,0.0 120.797106,24.340634,0.0 120.796824,24.34032,0.0 120.796413,24.339845,0.0 120.795985,24.339571,0.0 120.795463,24.33949,0.0 120.794918,24.339487,0.0 120.794588,24.339548,0.0 120.794332,24.339777,0.0 120.794256,24.340067,0.0 120.79432,24.34045,0.0 120.794472,24.340892,0.0 120.794475,24.34136,0.0 120.794254,24.341847,0.0 120.793908,24.342321,0.0 120.793563,24.34267,0.0 120.793204,24.342924,0.0 120.792865,24.343094,0.0 120.792569,24.343119,0.0 120.792115,24.342941,0.0 120.791721,24.342633,0.0 120.791404,24.342293,0.0 120.791234,24.342001,0.0 120.791205,24.341632,0.0 120.791141,24.34128,0.0 120.790751,24.34089,0.0 120.790436,24.340808,0.0 120.790161,24.340863,0.0 120.789772,24.341016,0.0 120.789358,24.341227,0.0 120.78863,24.341624,0.0 120.788131,24.341877,0.0 120.787586,24.342108,0.0 120.787178,24.342164,0.0 120.786775,24.342191,0.0 120.786399,24.342163,0.0 120.786024,24.341943,0.0 120.785438,24.34146,0.0 120.785062,24.341325,0.0 120.784566,24.341346,0.0 120.784259,24.341439,0.0 120.783911,24.341638,0.0 120.783787,24.341905,0.0 120.78385,24.342059,0.0 120.784092,24.34224,0.0 120.784402,24.342475,0.0 120.784614,24.342795,0.0 120.784625,24.343023,0.0 120.784466,24.343243,0.0 120.784235,24.343351,0.0 120.783945,24.34341,0.0 120.78371,24.343434,0.0 120.783356,24.343533,0.0 120.783044,24.343744,0.0 120.782551,24.344189,0.0 120.782179,24.344532,0.0 120.781771,24.344755,0.0 120.781383,24.344722,0.0 120.780768,24.344382,0.0 120.780269,24.343957,0.0 120.779887,24.343509,0.0 120.779615,24.343126,0.0 120.779272,24.342528,0.0 120.77895,24.341888,0.0 120.778607,24.341427,0.0 120.778303,24.341054,0.0 120.777834,24.340548,0.0 120.777118,24.339908,0.0 120.776567,24.339518,0.0 120.776099,24.339353,0.0 120.77608,24.339192,0.0 120.776443,24.338988,0.0 120.776899,24.338875,0.0 120.777448,24.338791,0.0 120.777891,24.338867,0.0 120.778498,24.339287,0.0 120.778769,24.339422,0.0 120.779009,24.339324,0.0 120.779209,24.339032,0.0 120.779437,24.33849,0.0 120.779426,24.338023,0.0 120.779703,24.337702,0.0 120.780075,24.337606,0.0 120.780737,24.337337,0.0 120.781051,24.33715,0.0 120.781404,24.336669,0.0 120.781804,24.3361,0.0 120.78213,24.335596,0.0 120.782595,24.335008,0.0 120.783004,24.33479,0.0 120.783259,24.334791,0.0 120.783419,24.334852,0.0 120.783657,24.334759,0.0 120.784039,24.334562,0.0 120.784326,24.334159,0.0 120.784434,24.333879,0.0 120.784164,24.333608,0.0 120.783806,24.333169,0.0 120.783602,24.332902,0.0 120.78323,24.332519,0.0 120.783008,24.332343,0.0 120.782688,24.332256,0.0 120.782269,24.332379,0.0 120.782059,24.3325,0.0 120.781497,24.332861,0.0 120.781168,24.332931,0.0 120.780859,24.332765,0.0 120.780616,24.332444,0.0 120.780325,24.332322,0.0 120.779893,24.332135,0.0 120.779231,24.331958,0.0 120.778566,24.331845,0.0 120.778111,24.33173,0.0 120.777619,24.331401,0.0 120.777142,24.33118,0.0 120.776941,24.331255,0.0 120.776638,24.331431,0.0 120.776387,24.33137,0.0 120.77614,24.331234,0.0 120.775566,24.331257,0.0 120.775269,24.331225,0.0 120.774856,24.330829,0.0 120.774636,24.330363,0.0 120.774431,24.329352,0.0 120.774188,24.328661,0.0 120.773926,24.328345,0.0 120.773279,24.327906,0.0 120.772853,24.327726,0.0 120.772467,24.327444,0.0 120.772281,24.327115,0.0 120.772337,24.326848,0.0 120.772653,24.3267,0.0 120.773085,24.326609,0.0 120.773864,24.326188,0.0 120.774225,24.325827,0.0 120.77428,24.325335,0.0 120.774532,24.324864,0.0 120.774931,24.324387,0.0 120.775282,24.324004,0.0 120.77555,24.323511,0.0 120.775963,24.323186,0.0 120.776109,24.32277,0.0 120.776275,24.322419,0.0 120.777748,24.323461,0.0 120.780226,24.325606,0.0 120.781313,24.326725,0.0 120.781447,24.326812,0.0 120.781662,24.326997,0.0 120.784055,24.327926,0.0 120.785263,24.328458,0.0 120.785337,24.328471,0.0 120.785604,24.328592,0.0 120.786121,24.328801,0.0 120.78696,24.329525,0.0 120.787608,24.330107,0.0 120.787813,24.330659,0.0 120.788194,24.332132,0.0 120.788508,24.333646,0.0 120.788677,24.333944,0.0 120.789036,24.334347,0.0 120.789172,24.334465,0.0 120.789352,24.334537,0.0 120.790337,24.334706,0.0 120.790897,24.334799,0.0 120.79176,24.334882,0.0 120.792935,24.33503,0.0 120.794394,24.335206,0.0 120.795258,24.335311,0.0 120.796439,24.335423,0.0 120.797505,24.3357,0.0 120.798598,24.335956,0.0 120.799825,24.3362,0.0 120.801228,24.336456,0.0 120.802967,24.336751,0.0 120.80365,24.336555,0.0 120.804401,24.335836,0.0 120.805705,24.334345,0.0 120.806239,24.334013,0.0 120.806387,24.333975,0.0 120.806658,24.33389,0.0 120.807048,24.333827,0.0 120.808455,24.334143,0.0 120.809521,24.334421,0.0 120.810665,24.334288,0.0 120.811477,24.334019,0.0 120.812612,24.333348,0.0 120.813255,24.332744,0.0 120.813618,24.331711,0.0 120.814081,24.331163,0.0 120.814618,24.330849,0.0 120.815071,24.330642,0.0 120.81533,24.330547,0.0 120.815873,24.330399,0.0 120.816064,24.330316,0.0 120.816356,24.330101,0.0 120.816685,24.329821,0.0 120.816913,24.329693,0.0 120.81715,24.329629,0.0 120.817453,24.329587,0.0 120.817862,24.329592,0.0 120.818138,24.329511,0.0 120.818462,24.329347,0.0 120.818685,24.329165,0.0 120.818992,24.328839,0.0 120.819147,24.328733,0.0 120.819437,24.328583,0.0 120.820152,24.328333,0.0 120.8208,24.328093,0.0 120.820716,24.328455,0.0 120.820639,24.328581,0.0 120.82079,24.328824,0.0 120.82093,24.328908,0.0 120.820929,24.329268,0.0 120.821645,24.32941,0.0 120.824467,24.328701,0.0 120.825134,24.328226,0.0 120.825384,24.327972,0.0 120.825733,24.327856,0.0 120.825943,24.327854,0.0 120.828509,24.327905,0.0 120.829462,24.327825,0.0 120.830108,24.32789,0.0 120.830505,24.32798,0.0 120.830678,24.328145,0.0 120.830751,24.328051,0.0 120.831422,24.327922,0.0 120.831663,24.327881,0.0 120.832258,24.327772,0.0 120.83271,24.327768,0.0 120.832843,24.32773,0.0 120.832904,24.327652,0.0 120.832996,24.327577,0.0 120.833137,24.327491,0.0 120.83321,24.327483,0.0 120.833288,24.327734,0.0 120.833878,24.327038,0.0 120.834083,24.326126,0.0 120.834084,24.325262,0.0 120.834463,24.324254,0.0 120.835018,24.323932,0.0 120.835753,24.323616,0.0 120.836809,24.323268,0.0 120.837844,24.322857,0.0 120.839333,24.322681,0.0 120.840528,24.322459,0.0 120.842054,24.322183,0.0 120.843751,24.321814,0.0 120.844499,24.321679,0.0 120.845444,24.321521,0.0 120.846539,24.321516,0.0 120.847709,24.321499,0.0 120.849042,24.321324,0.0 120.850912,24.321154,0.0 120.853466,24.320889,0.0 120.853597,24.320932,0.0 120.853924,24.321037,0.0 120.85414,24.321151,0.0 120.854299,24.321378,0.0 120.854489,24.321543,0.0 120.854907,24.321641,0.0 120.855338,24.321748,0.0 120.855529,24.321802,0.0 120.856824,24.321918,0.0 120.857353,24.32187,0.0 120.857592,24.321802,0.0 120.857759,24.321765,0.0 120.857979,24.321764,0.0 120.85814,24.321796,0.0 120.858384,24.321845,0.0 120.858476,24.321841,0.0 120.858732,24.321735,0.0 120.858977,24.321511,0.0 120.859081,24.321435,0.0 120.859166,24.32142,0.0 120.85927,24.321465,0.0 120.85944,24.321561,0.0 120.859769,24.321591,0.0 120.859898,24.321598,0.0 120.860094,24.321699,0.0 120.860342,24.321787,0.0 120.860479,24.321807,0.0 120.860581,24.321777,0.0 120.860871,24.321586,0.0 120.861203,24.321438,0.0 120.861347,24.321391,0.0 120.861428,24.321388,0.0 120.861633,24.321463,0.0 120.861848,24.321448,0.0 120.862103,24.321368,0.0 120.862351,24.321223,0.0 120.862538,24.321119,0.0 120.862669,24.321097,0.0 120.862743,24.321116,0.0 120.862849,24.321237,0.0 120.862885,24.321286,0.0 120.863013,24.321376,0.0 120.863323,24.321473,0.0 120.863412,24.32151,0.0 120.86359,24.321662,0.0 120.863843,24.321916,0.0 120.864036,24.322043,0.0 120.864484,24.322248,0.0 120.864613,24.322265,0.0 120.864716,24.322246,0.0 120.864878,24.322176,0.0 120.864992,24.322169,0.0 120.865335,24.322291,0.0 120.865424,24.322341,0.0 120.865609,24.322521,0.0 120.865953,24.322805,0.0 120.866037,24.322936,0.0 120.866261,24.323148,0.0 120.866486,24.323418,0.0 120.866776,24.323587,0.0 120.867435,24.324036,0.0 120.867953,24.323995,0.0 120.869042,24.323672,0.0 120.870019,24.323749,0.0 120.870845,24.323344,0.0 120.871598,24.323217,0.0 120.873634,24.323236,0.0 120.873925,24.323491,0.0 120.873389,24.324423,0.0 120.873018,24.325352,0.0 120.872075,24.326153,0.0 120.870946,24.326713,0.0 120.870209,24.326537,0.0 120.868591,24.326512,0.0 120.867181,24.326888,0.0 120.866682,24.32762,0.0 120.865916,24.328501,0.0 120.865199,24.328976,0.0 120.864882,24.328868,0.0 120.864814,24.328846,0.0 120.864732,24.328827,0.0 120.864415,24.328631,0.0 120.864301,24.328633,0.0 120.863979,24.328679,0.0 120.863826,24.328615,0.0 120.863737,24.328598,0.0 120.863562,24.328572,0.0 120.86345,24.328419,0.0 120.863364,24.328345,0.0 120.863214,24.328225,0.0 120.862975,24.327949,0.0 120.862945,24.327848,0.0 120.862606,24.328364,0.0 120.862358,24.328609,0.0 120.86229,24.328691,0.0 120.862226,24.328689,0.0 120.862196,24.32863,0.0 120.86225,24.328447,0.0 120.862252,24.328373,0.0 120.862218,24.328342,0.0 120.862123,24.32837,0.0 120.862009,24.328466,0.0 120.861938,24.328474,0.0 120.861726,24.328267,0.0 120.86104,24.328031,0.0 120.859803,24.328483,0.0 120.859586,24.328978,0.0 120.859728,24.329119,0.0 120.85982,24.329259,0.0 120.859786,24.329361,0.0 120.859686,24.32943,0.0 120.859497,24.329496,0.0 120.859266,24.329637,0.0 120.859171,24.329752,0.0 120.859177,24.329838,0.0 120.859248,24.329912,0.0 120.859282,24.32997,0.0 120.859262,24.330035,0.0 120.859175,24.330131,0.0 120.859128,24.330243,0.0 120.859057,24.330358,0.0 120.858987,24.330394,0.0 120.858943,24.33059,0.0 120.85884,24.330749,0.0 120.858662,24.330969,0.0 120.858532,24.331138,0.0 120.858455,24.331148,0.0 120.858377,24.331088,0.0 120.858338,24.331071,0.0 120.857821,24.331233,0.0 120.857718,24.331525,0.0 120.857611,24.331597,0.0 120.857208,24.331803,0.0 120.856913,24.332021,0.0 120.856693,24.332185,0.0 120.856534,24.332208,0.0 120.85638,24.332212,0.0 120.856178,24.332296,0.0 120.85564,24.332566,0.0 120.855401,24.332797,0.0 120.85522,24.333113,0.0 120.855126,24.333395,0.0 120.855099,24.333616,0.0 120.855201,24.333861,0.0 120.855197,24.333944,0.0 120.855139,24.334014,0.0 120.855051,24.334035,0.0 120.854749,24.334032,0.0 120.854645,24.334078,0.0 120.854558,24.334207,0.0 120.854405,24.334346,0.0 120.854182,24.33445,0.0 120.854027,24.334644,0.0 120.853935,24.334721,0.0 120.853715,24.334764,0.0 120.853419,24.334781,0.0 120.853265,24.334758,0.0 120.853072,24.334676,0.0 120.852958,24.33467,0.0 120.852705,24.334736,0.0 120.852571,24.334682,0.0 120.852501,24.334578,0.0 120.852449,24.334345,0.0 120.852398,24.334259,0.0 120.852297,24.334206,0.0 120.851922,24.334194,0.0 120.851763,24.334038,0.0 120.851796,24.333748,0.0 120.851748,24.333645,0.0 120.851645,24.333567,0.0 120.851646,24.333529,0.0 120.851688,24.33352,0.0 120.851899,24.333604,0.0 120.851962,24.333587,0.0 120.851954,24.333516,0.0 120.851682,24.333282,0.0 120.851459,24.333231,0.0 120.851305,24.333245,0.0 120.851178,24.333157,0.0 120.851045,24.333134,0.0 120.850929,24.33316,0.0 120.850883,24.333197,0.0 120.850865,24.333315,0.0 120.850899,24.333503,0.0 120.850857,24.333624,0.0 120.850752,24.333664,0.0 120.850308,24.333679,0.0 120.850165,24.333675,0.0 120.85004,24.333502,0.0 120.849913,24.333401,0.0 120.849842,24.333339,0.0 120.849559,24.333274,0.0 120.848894,24.333121,0.0 120.8486,24.333106,0.0 120.848329,24.333296,0.0 120.848201,24.333499,0.0 120.847846,24.333489,0.0 120.847781,24.333533,0.0 120.847746,24.333703,0.0 120.847786,24.333823,0.0 120.847727,24.333885,0.0 120.847648,24.33407,0.0 120.847433,24.334163,0.0 120.847492,24.334249,0.0 120.847512,24.33439,0.0 120.847423,24.334821,0.0 120.847429,24.334936,0.0 120.847583,24.335224,0.0 120.847591,24.335362,0.0 120.847409,24.335754,0.0 120.847303,24.335878,0.0 120.847045,24.335962,0.0 120.846973,24.336,0.0 120.846755,24.336038,0.0 120.846556,24.33614,0.0 120.84642,24.33621,0.0 120.846266,24.336374,0.0 120.846177,24.336467,0.0 120.845984,24.336435,0.0 120.845842,24.336445,0.0 120.845709,24.336624,0.0 120.845638,24.336715,0.0 120.845806,24.336929,0.0 120.845857,24.337042,0.0 120.845965,24.337138,0.0 120.846081,24.337288,0.0 120.846237,24.337698,0.0 120.845662,24.337706,0.0 120.84508,24.33738,0.0 120.844629,24.337075,0.0 120.844223,24.33707,0.0 120.843918,24.337484,0.0 120.843457,24.338118,0.0 120.842904,24.338739,0.0 120.842622,24.338895,0.0 120.842003,24.338848,0.0 120.841613,24.33902,0.0 120.841202,24.339272,0.0 120.840393,24.339357,0.0 120.839675,24.339616,0.0 120.839499,24.339908,0.0 120.839692,24.340456,0.0 120.839709,24.340843,0.0 120.839515,24.341006,0.0 120.839067,24.340947,0.0 120.838168,24.340542,0.0 120.837595,24.340501,0.0 120.837095,24.340205,0.0 120.836692,24.340063,0.0 120.836099,24.340227,0.0 120.835604,24.340414,0.0 120.834845,24.340634,0.0 120.834452,24.340848,0.0 120.83403,24.341187,0.0 120.833703,24.341143,0.0 120.833265,24.340622,0.0 120.832943,24.340593,0.0 120.832888,24.340896,0.0 120.832675,24.341292,0.0 120.832122,24.341717,0.0 120.831872,24.342087,0.0 120.831778,24.342585,0.0 120.83185,24.343212,0.0 120.831822,24.343676,0.0 120.830671,24.343135,0.0 120.830031,24.342984,0.0 120.829371,24.342885,0.0 120.828514,24.342759,0.0 120.827412,24.342743,0.0 120.826806,24.342762,0.0</coordinates></LinearRing></outerBoundaryIs></Polygon><styleUrl>#spolygon-map</styleUrl></Placemark><Placemark><Polygon><outerBoundaryIs><LinearRing><coordinates>120.841686,24.351299,0.0 120.841214,24.351902,0.0 120.840526,24.352477,0.0 120.840253,24.352387,0.0 120.840209,24.35229,0.0 120.840146,24.352003,0.0 120.83992,24.351649,0.0 120.839836,24.350836,0.0 120.839887,24.350079,0.0 120.840212,24.349685,0.0 120.84061,24.349522,0.0 120.840689,24.349293,0.0 120.840773,24.348239,0.0 120.840789,24.347838,0.0 120.840689,24.347716,0.0 120.840539,24.347736,0.0 120.840202,24.347981,0.0 120.839888,24.348204,0.0 120.839579,24.348142,0.0 120.839485,24.347921,0.0 120.839671,24.347682,0.0 120.840197,24.347292,0.0 120.840558,24.346841,0.0 120.840545,24.346452,0.0 120.840375,24.346101,0.0 120.839968,24.345851,0.0 120.839453,24.345774,0.0 120.838904,24.345802,0.0 120.838519,24.345901,0.0 120.838016,24.346182,0.0 120.837643,24.346432,0.0 120.837426,24.346683,0.0 120.837324,24.347066,0.0 120.837063,24.34747,0.0 120.836738,24.347695,0.0 120.836428,24.347632,0.0 120.835714,24.347447,0.0 120.835305,24.347325,0.0 120.834925,24.34696,0.0 120.834487,24.346517,0.0 120.834224,24.346123,0.0 120.83395,24.345477,0.0 120.83374,24.344925,0.0 120.833393,24.344618,0.0 120.833118,24.344449,0.0 120.832755,24.34416,0.0 120.832257,24.343939,0.0 120.831822,24.343676,0.0 120.83185,24.343212,0.0 120.831778,24.342585,0.0 120.831872,24.342087,0.0 120.832122,24.341717,0.0 120.832675,24.341292,0.0 120.832888,24.340896,0.0 120.832943,24.340593,0.0 120.833265,24.340622,0.0 120.833703,24.341143,0.0 120.83403,24.341187,0.0 120.834452,24.340848,0.0 120.834845,24.340634,0.0 120.835604,24.340414,0.0 120.836099,24.340227,0.0 120.836692,24.340063,0.0 120.837095,24.340205,0.0 120.837595,24.340501,0.0 120.838168,24.340542,0.0 120.839067,24.340947,0.0 120.839515,24.341006,0.0 120.839709,24.340843,0.0 120.839692,24.340456,0.0 120.839499,24.339908,0.0 120.839675,24.339616,0.0 120.840393,24.339357,0.0 120.841202,24.339272,0.0 120.841613,24.33902,0.0 120.842003,24.338848,0.0 120.842622,24.338895,0.0 120.842904,24.338739,0.0 120.843457,24.338118,0.0 120.843918,24.337484,0.0 120.844223,24.33707,0.0 120.844629,24.337075,0.0 120.84508,24.33738,0.0 120.845662,24.337706,0.0 120.846237,24.337698,0.0 120.846081,24.337288,0.0 120.845965,24.337138,0.0 120.845857,24.337042,0.0 120.845806,24.336929,0.0 120.845638,24.336715,0.0 120.845709,24.336624,0.0 120.845842,24.336445,0.0 120.845984,24.336435,0.0 120.846177,24.336467,0.0 120.846266,24.336374,0.0 120.84642,24.33621,0.0 120.846556,24.33614,0.0 120.846755,24.336038,0.0 120.846973,24.336,0.0 120.847045,24.335962,0.0 120.847303,24.335878,0.0 120.847409,24.335754,0.0 120.847591,24.335362,0.0 120.847583,24.335224,0.0 120.847429,24.334936,0.0 120.847423,24.334821,0.0 120.847512,24.33439,0.0 120.847492,24.334249,0.0 120.847433,24.334163,0.0 120.847648,24.33407,0.0 120.847727,24.333885,0.0 120.847786,24.333823,0.0 120.847746,24.333703,0.0 120.847781,24.333533,0.0 120.847846,24.333489,0.0 120.848201,24.333499,0.0 120.848329,24.333296,0.0 120.8486,24.333106,0.0 120.848894,24.333121,0.0 120.849559,24.333274,0.0 120.849842,24.333339,0.0 120.849913,24.333401,0.0 120.85004,24.333502,0.0 120.850165,24.333675,0.0 120.850308,24.333679,0.0 120.850752,24.333664,0.0 120.850857,24.333624,0.0 120.850899,24.333503,0.0 120.850865,24.333315,0.0 120.850883,24.333197,0.0 120.850929,24.33316,0.0 120.851045,24.333134,0.0 120.851178,24.333157,0.0 120.851305,24.333245,0.0 120.851459,24.333231,0.0 120.851682,24.333282,0.0 120.851954,24.333516,0.0 120.851962,24.333587,0.0 120.851899,24.333604,0.0 120.851688,24.33352,0.0 120.851646,24.333529,0.0 120.851645,24.333567,0.0 120.851748,24.333645,0.0 120.851796,24.333748,0.0 120.851763,24.334038,0.0 120.851922,24.334194,0.0 120.852297,24.334206,0.0 120.852398,24.334259,0.0 120.852449,24.334345,0.0 120.852501,24.334578,0.0 120.852571,24.334682,0.0 120.852705,24.334736,0.0 120.852958,24.33467,0.0 120.853072,24.334676,0.0 120.853265,24.334758,0.0 120.853419,24.334781,0.0 120.853715,24.334764,0.0 120.853935,24.334721,0.0 120.854027,24.334644,0.0 120.854182,24.33445,0.0 120.854405,24.334346,0.0 120.854558,24.334207,0.0 120.854645,24.334078,0.0 120.854749,24.334032,0.0 120.855051,24.334035,0.0 120.855139,24.334014,0.0 120.855197,24.333944,0.0 120.855201,24.333861,0.0 120.855099,24.333616,0.0 120.855126,24.333395,0.0 120.85522,24.333113,0.0 120.855401,24.332797,0.0 120.85564,24.332566,0.0 120.856178,24.332296,0.0 120.85638,24.332212,0.0 120.856534,24.332208,0.0 120.856693,24.332185,0.0 120.856913,24.332021,0.0 120.857208,24.331803,0.0 120.857611,24.331597,0.0 120.857718,24.331525,0.0 120.857821,24.331233,0.0 120.858338,24.331071,0.0 120.858377,24.331088,0.0 120.858455,24.331148,0.0 120.858532,24.331138,0.0 120.858662,24.330969,0.0 120.85884,24.330749,0.0 120.858943,24.33059,0.0 120.858987,24.330394,0.0 120.859057,24.330358,0.0 120.859128,24.330243,0.0 120.859175,24.330131,0.0 120.859262,24.330035,0.0 120.859282,24.32997,0.0 120.859248,24.329912,0.0 120.859177,24.329838,0.0 120.859171,24.329752,0.0 120.859266,24.329637,0.0 120.859497,24.329496,0.0 120.859686,24.32943,0.0 120.859786,24.329361,0.0 120.85982,24.329259,0.0 120.859728,24.329119,0.0 120.859586,24.328978,0.0 120.859803,24.328483,0.0 120.86104,24.328031,0.0 120.861726,24.328267,0.0 120.861938,24.328474,0.0 120.862009,24.328466,0.0 120.862123,24.32837,0.0 120.862218,24.328342,0.0 120.862252,24.328373,0.0 120.86225,24.328447,0.0 120.862196,24.32863,0.0 120.862226,24.328689,0.0 120.86229,24.328691,0.0 120.862358,24.328609,0.0 120.862606,24.328364,0.0 120.862945,24.327848,0.0 120.862975,24.327949,0.0 120.863214,24.328225,0.0 120.863364,24.328345,0.0 120.86345,24.328419,0.0 120.863562,24.328572,0.0 120.863737,24.328598,0.0 120.863826,24.328615,0.0 120.863979,24.328679,0.0 120.864301,24.328633,0.0 120.864415,24.328631,0.0 120.864732,24.328827,0.0 120.864814,24.328846,0.0 120.864882,24.328868,0.0 120.865199,24.328976,0.0 120.865916,24.328501,0.0 120.866682,24.32762,0.0 120.867181,24.326888,0.0 120.868591,24.326512,0.0 120.870209,24.326537,0.0 120.870946,24.326713,0.0 120.872075,24.326153,0.0 120.873018,24.325352,0.0 120.873389,24.324423,0.0 120.873925,24.323491,0.0 120.874574,24.323116,0.0 120.875875,24.321977,0.0 120.876395,24.321469,0.0 120.876917,24.320629,0.0 120.877191,24.319775,0.0 120.877615,24.318473,0.0 120.87766,24.317723,0.0 120.87764,24.317577,0.0 120.877648,24.317353,0.0 120.87761,24.317249,0.0 120.877535,24.317177,0.0 120.877129,24.316313,0.0 120.877375,24.314832,0.0 120.877449,24.313897,0.0 120.878141,24.313013,0.0 120.878666,24.312442,0.0 120.879484,24.311504,0.0 120.880036,24.310626,0.0 120.880682,24.309241,0.0 120.880932,24.308302,0.0 120.880663,24.307508,0.0 120.880513,24.306758,0.0 120.88095,24.305163,0.0 120.881518,24.30354,0.0 120.882307,24.302277,0.0 120.88374,24.302226,0.0 120.88445,24.302321,0.0 120.885256,24.302322,0.0 120.886056,24.302569,0.0 120.886973,24.302637,0.0 120.887727,24.302377,0.0 120.889473,24.302336,0.0 120.89105,24.302435,0.0 120.892121,24.302994,0.0 120.892783,24.303375,0.0 120.893809,24.303404,0.0 120.894739,24.303344,0.0 120.895641,24.303839,0.0 120.896308,24.304541,0.0 120.896818,24.305523,0.0 120.897399,24.306101,0.0 120.898279,24.306557,0.0 120.899534,24.307165,0.0 120.900708,24.307317,0.0 120.902277,24.307183,0.0 120.903558,24.307191,0.0 120.904644,24.307459,0.0 120.90546,24.307687,0.0 120.90684,24.307729,0.0 120.907708,24.307876,0.0 120.909829,24.307979,0.0 120.911995,24.307966,0.0 120.913444,24.307819,0.0 120.914335,24.307694,0.0 120.913757,24.309028,0.0 120.912494,24.311534,0.0 120.911846,24.313755,0.0 120.911402,24.314516,0.0 120.909818,24.315547,0.0 120.908916,24.317708,0.0 120.90827,24.319882,0.0 120.907877,24.320466,0.0 120.907453,24.321039,0.0 120.907318,24.321587,0.0 120.90675,24.322339,0.0 120.9063,24.323024,0.0 120.905855,24.323533,0.0 120.905304,24.324516,0.0 120.905221,24.325187,0.0 120.90453,24.325826,0.0 120.903713,24.32651,0.0 120.903039,24.327216,0.0 120.902903,24.327573,0.0 120.90357,24.327945,0.0 120.90441,24.32829,0.0 120.90487,24.328484,0.0 120.905448,24.328841,0.0 120.905916,24.329131,0.0 120.906134,24.329274,0.0 120.906593,24.329627,0.0 120.907182,24.330031,0.0 120.907517,24.330328,0.0 120.907279,24.330485,0.0 120.906884,24.33082,0.0 120.90631,24.331202,0.0 120.90615,24.331427,0.0 120.906536,24.331866,0.0 120.906923,24.332337,0.0 120.907336,24.332666,0.0 120.907976,24.332984,0.0 120.909112,24.33367,0.0 120.910453,24.334555,0.0 120.911076,24.335702,0.0 120.911078,24.336563,0.0 120.909662,24.336528,0.0 120.907995,24.336398,0.0 120.90689,24.336369,0.0 120.906356,24.336455,0.0 120.905962,24.336778,0.0 120.905918,24.337151,0.0 120.906162,24.337479,0.0 120.906492,24.337931,0.0 120.906338,24.338327,0.0 120.906255,24.338676,0.0 120.906027,24.339112,0.0 120.905621,24.33956,0.0 120.905432,24.339866,0.0 120.905471,24.340446,0.0 120.905513,24.340837,0.0 120.905741,24.341514,0.0 120.905976,24.342108,0.0 120.906448,24.342738,0.0 120.906806,24.342986,0.0 120.906999,24.343568,0.0 120.907164,24.344101,0.0 120.906998,24.344665,0.0 120.906856,24.345292,0.0 120.907036,24.345878,0.0 120.906711,24.346212,0.0 120.905139,24.34633,0.0 120.903335,24.34683,0.0 120.901764,24.347092,0.0 120.901016,24.346883,0.0 120.900042,24.346735,0.0 120.898669,24.346934,0.0 120.896809,24.347375,0.0 120.896052,24.347651,0.0 120.895276,24.348247,0.0 120.894445,24.348821,0.0 120.893056,24.349104,0.0 120.891649,24.349246,0.0 120.890762,24.349615,0.0 120.890257,24.349544,0.0 120.889471,24.349264,0.0 120.889419,24.349175,0.0 120.889284,24.349113,0.0 120.889203,24.349139,0.0 120.888139,24.348835,0.0 120.886163,24.348375,0.0 120.884377,24.34802,0.0 120.882692,24.347698,0.0 120.881011,24.347351,0.0 120.879199,24.34717,0.0 120.878054,24.347023,0.0 120.876444,24.346124,0.0 120.874409,24.34508,0.0 120.872576,24.345161,0.0 120.870923,24.345105,0.0 120.871088,24.345467,0.0 120.871135,24.345609,0.0 120.871174,24.345943,0.0 120.871228,24.346257,0.0 120.871275,24.346352,0.0 120.871375,24.346467,0.0 120.871438,24.346571,0.0 120.871478,24.346703,0.0 120.871484,24.346992,0.0 120.871449,24.34734,0.0 120.871411,24.347741,0.0 120.871428,24.348297,0.0 120.870899,24.348439,0.0 120.870668,24.349092,0.0 120.87045,24.349788,0.0 120.870087,24.350174,0.0 120.869621,24.350098,0.0 120.868911,24.349666,0.0 120.868428,24.349798,0.0 120.867624,24.350591,0.0 120.866809,24.351145,0.0 120.865898,24.351235,0.0 120.865384,24.351015,0.0 120.865055,24.350323,0.0 120.864658,24.350112,0.0 120.863461,24.350025,0.0 120.862644,24.349647,0.0 120.862192,24.349079,0.0 120.861991,24.348264,0.0 120.861591,24.34797,0.0 120.860452,24.348065,0.0 120.859742,24.3479,0.0 120.859238,24.347342,0.0 120.858641,24.347145,0.0 120.858018,24.347449,0.0 120.857664,24.34752,0.0 120.85733,24.347088,0.0 120.856748,24.34682,0.0 120.856299,24.346517,0.0 120.854877,24.345809,0.0 120.853949,24.345495,0.0 120.853429,24.345629,0.0 120.852083,24.346415,0.0 120.851354,24.346875,0.0 120.850997,24.347842,0.0 120.850999,24.348689,0.0 120.851293,24.349434,0.0 120.85112,24.349789,0.0 120.850643,24.349752,0.0 120.850404,24.349252,0.0 120.850056,24.349176,0.0 120.849233,24.349826,0.0 120.848317,24.350989,0.0 120.847675,24.351195,0.0 120.847036,24.351237,0.0 120.846539,24.350802,0.0 120.845939,24.350736,0.0 120.844712,24.350814,0.0 120.843309,24.350885,0.0 120.84219,24.351075,0.0 120.841686,24.351299,0.0</coordinates></LinearRing></outerBoundaryIs></Polygon><styleUrl>#spolygon-map</styleUrl></Placemark><Placemark><Polygon><outerBoundaryIs><LinearRing><coordinates>120.908196,24.364231,0.0 120.907805,24.364231,0.0 120.907262,24.364231,0.0 120.906696,24.364231,0.0 120.906278,24.36435,0.0 120.905714,24.364702,0.0 120.905093,24.364933,0.0 120.90457,24.36504,0.0 120.904254,24.365007,0.0 120.903846,24.364792,0.0 120.903134,24.364256,0.0 120.902463,24.363725,0.0 120.902058,24.363328,0.0 120.901642,24.362962,0.0 120.901091,24.362642,0.0 120.900388,24.362316,0.0 120.899646,24.361961,0.0 120.899351,24.361951,0.0 120.899195,24.362112,0.0 120.898848,24.362592,0.0 120.898468,24.362759,0.0 120.897996,24.362785,0.0 120.89743,24.362796,0.0 120.896762,24.362835,0.0 120.896293,24.362868,0.0 120.895679,24.362902,0.0 120.895304,24.362832,0.0 120.894988,24.362862,0.0 120.894616,24.362976,0.0 120.894417,24.36296,0.0 120.894172,24.362912,0.0 120.893711,24.363011,0.0 120.892946,24.363293,0.0 120.892212,24.363456,0.0 120.891597,24.363558,0.0 120.890952,24.363558,0.0 120.890729,24.363534,0.0 120.8903,24.363385,0.0 120.889587,24.363122,0.0 120.889064,24.362974,0.0 120.888821,24.363006,0.0 120.888073,24.363244,0.0 120.887478,24.363493,0.0 120.886948,24.363707,0.0 120.886606,24.363767,0.0 120.886125,24.363806,0.0 120.88587,24.363788,0.0 120.885546,24.363829,0.0 120.885182,24.363824,0.0 120.884858,24.363745,0.0 120.884672,24.363425,0.0 120.884449,24.363036,0.0 120.883998,24.3628,0.0 120.883522,24.362655,0.0 120.883168,24.362524,0.0 120.882875,24.362406,0.0 120.882294,24.362086,0.0 120.881483,24.361728,0.0 120.880883,24.361531,0.0 120.880592,24.36126,0.0 120.880219,24.360928,0.0 120.879643,24.360541,0.0 120.879197,24.360357,0.0 120.878918,24.360301,0.0 120.878453,24.360262,0.0 120.878036,24.360288,0.0 120.877289,24.360275,0.0 120.876987,24.360341,0.0 120.876549,24.360402,0.0 120.875942,24.360509,0.0 120.875409,24.360651,0.0 120.875026,24.360945,0.0 120.874715,24.361296,0.0 120.874643,24.361547,0.0 120.874644,24.361828,0.0 120.874622,24.362286,0.0 120.87435,24.362705,0.0 120.874034,24.363118,0.0 120.873908,24.363076,0.0 120.873844,24.362822,0.0 120.873673,24.362413,0.0 120.873466,24.362094,0.0 120.873084,24.361731,0.0 120.872903,24.361527,0.0 120.872511,24.361232,0.0 120.872105,24.36097,0.0 120.871786,24.36085,0.0 120.871501,24.360786,0.0 120.871256,24.360781,0.0 120.87047,24.360687,0.0 120.87008,24.360631,0.0 120.869696,24.360529,0.0 120.869271,24.36045,0.0 120.86883,24.36032,0.0 120.868648,24.360334,0.0 120.868484,24.360318,0.0 120.868105,24.360179,0.0 120.867785,24.36003,0.0 120.867262,24.359725,0.0 120.866917,24.359569,0.0 120.866687,24.359569,0.0 120.866141,24.359365,0.0 120.865804,24.359253,0.0 120.865377,24.359058,0.0 120.864826,24.358744,0.0 120.864293,24.358433,0.0 120.863639,24.358077,0.0 120.863455,24.358063,0.0 120.863061,24.357883,0.0 120.862763,24.357734,0.0 120.862488,24.357513,0.0 120.862049,24.35715,0.0 120.861761,24.356961,0.0 120.861605,24.35688,0.0 120.861536,24.356553,0.0 120.861362,24.356049,0.0 120.861152,24.355816,0.0 120.86113,24.355565,0.0 120.86074,24.355363,0.0 120.860439,24.355274,0.0 120.859987,24.354994,0.0 120.859785,24.354939,0.0 120.859546,24.355203,0.0 120.859334,24.355449,0.0 120.859098,24.355521,0.0 120.85879,24.355543,0.0 120.858333,24.355549,0.0 120.858163,24.355567,0.0 120.857683,24.35593,0.0 120.857638,24.356172,0.0 120.857527,24.35652,0.0 120.857484,24.356743,0.0 120.857447,24.357068,0.0 120.857401,24.357212,0.0 120.857331,24.357504,0.0 120.85724,24.357827,0.0 120.85717,24.358065,0.0 120.857064,24.358435,0.0 120.857009,24.35873,0.0 120.857005,24.359095,0.0 120.85701,24.359235,0.0 120.85682,24.359429,0.0 120.8566,24.359484,0.0 120.856477,24.359474,0.0 120.856372,24.359179,0.0 120.856335,24.358994,0.0 120.856175,24.358911,0.0 120.856034,24.35883,0.0 120.855872,24.358734,0.0 120.855704,24.358637,0.0 120.855539,24.358642,0.0 120.855241,24.358714,0.0 120.855023,24.358796,0.0 120.854823,24.358965,0.0 120.854617,24.359132,0.0 120.854455,24.359264,0.0 120.854297,24.35947,0.0 120.854073,24.359689,0.0 120.853853,24.359991,0.0 120.853775,24.360267,0.0 120.853715,24.360707,0.0 120.853501,24.361202,0.0 120.853117,24.361539,0.0 120.852932,24.361583,0.0 120.852632,24.361653,0.0 120.852411,24.361751,0.0 120.852149,24.361701,0.0 120.851918,24.361539,0.0 120.851603,24.361246,0.0 120.851364,24.360978,0.0 120.851154,24.360966,0.0 120.850882,24.361025,0.0 120.850501,24.361141,0.0 120.850231,24.361114,0.0 120.849952,24.361076,0.0 120.84972,24.361026,0.0 120.849557,24.360994,0.0 120.849302,24.36095,0.0 120.849008,24.360861,0.0 120.848739,24.360727,0.0 120.848488,24.360663,0.0 120.848207,24.360662,0.0 120.847677,24.360641,0.0 120.847357,24.360604,0.0 120.847209,24.360404,0.0 120.84721,24.360069,0.0 120.847073,24.35993,0.0 120.847205,24.359479,0.0 120.847193,24.359127,0.0 120.847115,24.358686,0.0 120.847151,24.358314,0.0 120.846888,24.358272,0.0 120.846581,24.358226,0.0 120.846269,24.358184,0.0 120.846105,24.358064,0.0 120.84594,24.35785,0.0 120.84574,24.357595,0.0 120.845549,24.35731,0.0 120.845358,24.357107,0.0 120.845148,24.356905,0.0 120.845046,24.356599,0.0 120.844896,24.356412,0.0 120.844645,24.356081,0.0 120.84455,24.355783,0.0 120.844661,24.35538,0.0 120.844806,24.354954,0.0 120.844738,24.354861,0.0 120.844384,24.354784,0.0 120.843821,24.354697,0.0 120.843247,24.354583,0.0 120.842764,24.354433,0.0 120.842227,24.354221,0.0 120.841681,24.354157,0.0 120.841262,24.354096,0.0 120.841178,24.35395,0.0 120.84112,24.353652,0.0 120.840874,24.353257,0.0 120.840874,24.353096,0.0 120.840995,24.352803,0.0 120.840767,24.352533,0.0 120.840831,24.352191,0.0 120.841465,24.351575,0.0 120.841756,24.351224,0.0 120.842768,24.351024,0.0 120.843991,24.35076,0.0 120.845411,24.350824,0.0 120.84632,24.350717,0.0 120.84681,24.351066,0.0 120.847276,24.351267,0.0 120.848073,24.35113,0.0 120.848567,24.350715,0.0 120.849629,24.349432,0.0 120.850286,24.349186,0.0 120.850523,24.349413,0.0 120.850829,24.349844,0.0 120.85126,24.349638,0.0 120.85115,24.349045,0.0 120.85095,24.348359,0.0 120.851159,24.347323,0.0 120.85157,24.346665,0.0 120.852842,24.34604,0.0 120.853619,24.345528,0.0 120.854258,24.345561,0.0 120.855655,24.346155,0.0 120.856561,24.346747,0.0 120.857179,24.346917,0.0 120.857537,24.347458,0.0 120.85784,24.34753,0.0 120.858263,24.347236,0.0 120.85894,24.347152,0.0 120.859465,24.347609,0.0 120.860025,24.348033,0.0 120.860994,24.348008,0.0 120.861815,24.34804,0.0 120.862096,24.348647,0.0 120.862326,24.349326,0.0 120.863027,24.349866,0.0 120.863904,24.350067,0.0 120.864904,24.350172,0.0 120.865194,24.35075,0.0 120.865593,24.351151,0.0 120.866341,24.351235,0.0 120.867103,24.350984,0.0 120.868098,24.350181,0.0 120.868633,24.349669,0.0 120.869263,24.349833,0.0 120.869865,24.350189,0.0 120.870317,24.350003,0.0 120.870571,24.349508,0.0 120.870765,24.348653,0.0 120.871135,24.348309,0.0 120.871415,24.348089,0.0 120.871415,24.347592,0.0 120.871473,24.347161,0.0 120.871485,24.346798,0.0 120.871462,24.346635,0.0 120.871409,24.346516,0.0 120.871328,24.346412,0.0 120.871244,24.346301,0.0 120.871205,24.346138,0.0 120.871152,24.345716,0.0 120.871115,24.345538,0.0 120.870982,24.345241,0.0 120.872023,24.344884,0.0 120.873312,24.344876,0.0 120.875509,24.345853,0.0 120.877392,24.346384,0.0 120.878622,24.347087,0.0 120.880133,24.347272,0.0 120.881851,24.347458,0.0 120.883414,24.347848,0.0 120.885448,24.348213,0.0 120.887031,24.348576,0.0 120.888817,24.349015,0.0 120.889258,24.349116,0.0 120.88937,24.349146,0.0 120.889442,24.349199,0.0 120.889697,24.349358,0.0 120.890547,24.34962,0.0 120.891181,24.349464,0.0 120.89197,24.349176,0.0 120.89394,24.348982,0.0 120.894719,24.348688,0.0 120.89572,24.347874,0.0 120.896316,24.347521,0.0 120.897683,24.347194,0.0 120.899207,24.346823,0.0 120.900662,24.346766,0.0 120.901357,24.34706,0.0 120.902596,24.347035,0.0 120.90454,24.346464,0.0 120.906009,24.346301,0.0 120.907163,24.346075,0.0 120.90741,24.346403,0.0 120.907725,24.346807,0.0 120.908167,24.347239,0.0 120.909484,24.347941,0.0 120.908396,24.349064,0.0 120.908898,24.350535,0.0 120.909395,24.351956,0.0 120.90966,24.353102,0.0 120.909829,24.354535,0.0 120.909792,24.355813,0.0 120.909361,24.357178,0.0 120.909216,24.358128,0.0 120.908744,24.35892,0.0 120.908557,24.359475,0.0 120.908196,24.364231,0.0</coordinates></LinearRing></outerBoundaryIs></Polygon><styleUrl>#spolygon-map</styleUrl></Placemark></Document>
</kml>
