<?xml version="1.0" encoding="UTF-8"?>
<kml xmlns="http://www.opengis.net/kml/2.2">
	<Document>
		<name>高雄市楠梓區</name>
		<Style id="spolygon">
			<LabelStyle>
				<scale>0.0</scale>
			</LabelStyle>
			<LineStyle>
				<color>330030ff</color>
				<width>0</width>
			</LineStyle>
			<PolyStyle>
				<color>330030ff</color>
			</PolyStyle>
		</Style>
		<StyleMap id="spolygon-map">
			<Pair>
				<key>normal</key>
				<styleUrl>#spolygon</styleUrl>
			</Pair>
		</StyleMap>
	<Placemark><Polygon><outerBoundaryIs><LinearRing><coordinates>120.327301,22.754888,0.0 120.32708,22.75566,0.0 120.326573,22.756037,0.0 120.325912,22.756169,0.0 120.325352,22.756244,0.0 120.32502,22.756032,0.0 120.324962,22.755619,0.0 120.324895,22.755066,0.0 120.324835,22.754408,0.0 120.324804,22.753794,0.0 120.324915,22.753481,0.0 120.32525,22.753257,0.0 120.325685,22.75299,0.0 120.325975,22.752661,0.0 120.326032,22.752043,0.0 120.325854,22.751275,0.0 120.325675,22.750639,0.0 120.325388,22.750002,0.0 120.325253,22.749692,0.0 120.325347,22.749274,0.0 120.325613,22.748797,0.0 120.325833,22.748489,0.0 120.32621,22.748305,0.0 120.326409,22.747964,0.0 120.325077,22.746686,0.0 120.324346,22.745875,0.0 120.323815,22.745292,0.0 120.323269,22.744617,0.0 120.323336,22.744134,0.0 120.324759,22.742727,0.0 120.325559,22.741915,0.0 120.325374,22.741314,0.0 120.324247,22.740609,0.0 120.323264,22.73977,0.0 120.323502,22.738865,0.0 120.324506,22.737571,0.0 120.325231,22.736613,0.0 120.325658,22.736118,0.0 120.326751,22.73641,0.0 120.328608,22.736272,0.0 120.331349,22.735725,0.0 120.333862,22.73651,0.0 120.335431,22.735495,0.0 120.338921,22.734532,0.0 120.338799,22.734893,0.0 120.338867,22.73525,0.0 120.339009,22.735467,0.0 120.339208,22.735595,0.0 120.339474,22.735517,0.0 120.33968,22.735764,0.0 120.339565,22.735993,0.0 120.339778,22.736457,0.0 120.339948,22.73688,0.0 120.340071,22.737605,0.0 120.340189,22.738403,0.0 120.33977,22.738667,0.0 120.339287,22.738704,0.0 120.338616,22.738568,0.0 120.338107,22.738796,0.0 120.337602,22.738796,0.0 120.337568,22.739128,0.0 120.337651,22.739645,0.0 120.337866,22.739928,0.0 120.337455,22.740374,0.0 120.338045,22.74101,0.0 120.339254,22.742286,0.0 120.340268,22.743343,0.0 120.340781,22.743893,0.0 120.340648,22.744049,0.0 120.339875,22.744188,0.0 120.339228,22.744226,0.0 120.338522,22.744424,0.0 120.338231,22.744976,0.0 120.337615,22.745483,0.0 120.337042,22.745686,0.0 120.336471,22.745442,0.0 120.335997,22.745334,0.0 120.335669,22.745708,0.0 120.335812,22.746133,0.0 120.3358,22.746796,0.0 120.335932,22.747607,0.0 120.336045,22.748256,0.0 120.336109,22.748841,0.0 120.335973,22.749136,0.0 120.335128,22.749302,0.0 120.334728,22.749598,0.0 120.334649,22.750165,0.0 120.334495,22.751309,0.0 120.334358,22.752367,0.0 120.333951,22.752327,0.0 120.333012,22.752075,0.0 120.332424,22.752347,0.0 120.331916,22.75281,0.0 120.331679,22.753261,0.0 120.331628,22.75418,0.0 120.331369,22.754784,0.0 120.331075,22.755085,0.0 120.330402,22.755348,0.0 120.329721,22.755282,0.0 120.32912,22.755244,0.0 120.328647,22.755039,0.0 120.328136,22.754902,0.0 120.327572,22.754878,0.0 120.327301,22.754888,0.0</coordinates></LinearRing></outerBoundaryIs></Polygon><styleUrl>#spolygon-map</styleUrl></Placemark><Placemark><Polygon><outerBoundaryIs><LinearRing><coordinates>120.334426,22.735771,0.0 120.333308,22.735847,0.0 120.329773,22.736087,0.0 120.327553,22.736439,0.0 120.325845,22.736245,0.0 120.325618,22.736095,0.0 120.324669,22.736193,0.0 120.324689,22.735846,0.0 120.324953,22.735348,0.0 120.325116,22.734987,0.0 120.325377,22.734226,0.0 120.325475,22.733817,0.0 120.325576,22.733185,0.0 120.325619,22.73265,0.0 120.325597,22.731903,0.0 120.32547,22.731046,0.0 120.325197,22.730079,0.0 120.325815,22.729728,0.0 120.326331,22.729305,0.0 120.327324,22.730388,0.0 120.327724,22.730485,0.0 120.327987,22.730409,0.0 120.328711,22.730043,0.0 120.329014,22.7302,0.0 120.329253,22.730041,0.0 120.329625,22.730049,0.0 120.330505,22.730543,0.0 120.331138,22.730649,0.0 120.33193,22.731385,0.0 120.333824,22.730384,0.0 120.334337,22.732664,0.0 120.334426,22.735771,0.0</coordinates></LinearRing></outerBoundaryIs></Polygon><styleUrl>#spolygon-map</styleUrl></Placemark><Placemark><Polygon><outerBoundaryIs><LinearRing><coordinates>120.339097,22.729437,0.0 120.339455,22.729671,0.0 120.339835,22.729833,0.0 120.340166,22.730094,0.0 120.340423,22.730258,0.0 120.34053,22.730803,0.0 120.340305,22.731161,0.0 120.340178,22.731844,0.0 120.340115,22.73195,0.0 120.339818,22.732599,0.0 120.33943,22.733144,0.0 120.338576,22.733637,0.0 120.33868,22.733969,0.0 120.338912,22.734494,0.0 120.338257,22.734709,0.0 120.334426,22.735771,0.0 120.333844,22.730398,0.0 120.33235,22.729484,0.0 120.330612,22.728494,0.0 120.330193,22.72817,0.0 120.329981,22.728011,0.0 120.329728,22.727476,0.0 120.330044,22.727036,0.0 120.329945,22.726819,0.0 120.329554,22.726397,0.0 120.329492,22.725542,0.0 120.330703,22.72331,0.0 120.332051,22.721522,0.0 120.333056,22.721969,0.0 120.333585,22.722168,0.0 120.334356,22.722419,0.0 120.334681,22.722454,0.0 120.335412,22.722313,0.0 120.335984,22.722051,0.0 120.336434,22.721748,0.0 120.336842,22.721605,0.0 120.337526,22.721161,0.0 120.336158,22.722287,0.0 120.334897,22.723218,0.0 120.334362,22.723634,0.0 120.334067,22.723867,0.0 120.334311,22.7242,0.0 120.334311,22.725036,0.0 120.334421,22.725707,0.0 120.334865,22.726284,0.0 120.335181,22.726635,0.0 120.335439,22.727219,0.0 120.335813,22.727604,0.0 120.336643,22.727842,0.0 120.336934,22.728239,0.0 120.337499,22.728573,0.0 120.337934,22.72871,0.0 120.338356,22.729168,0.0 120.338572,22.729435,0.0 120.338948,22.729405,0.0 120.339097,22.729437,0.0</coordinates></LinearRing></outerBoundaryIs></Polygon><styleUrl>#spolygon-map</styleUrl></Placemark><Placemark><Polygon><outerBoundaryIs><LinearRing><coordinates>120.333256,22.730997,0.0 120.331423,22.731062,0.0 120.330779,22.7305,0.0 120.330209,22.730377,0.0 120.329605,22.730038,0.0 120.329315,22.730073,0.0 120.328828,22.730162,0.0 120.328466,22.729968,0.0 120.327973,22.730428,0.0 120.327626,22.730662,0.0 120.327313,22.730373,0.0 120.326643,22.728854,0.0 120.327015,22.728327,0.0 120.32789,22.728014,0.0 120.329641,22.727604,0.0 120.330124,22.728111,0.0 120.330583,22.728475,0.0 120.331527,22.729027,0.0 120.332821,22.729761,0.0 120.333256,22.730997,0.0</coordinates></LinearRing></outerBoundaryIs></Polygon><styleUrl>#spolygon-map</styleUrl></Placemark><Placemark><Polygon><outerBoundaryIs><LinearRing><coordinates>120.32652,22.726962,0.0 120.325214,22.727033,0.0 120.324619,22.726128,0.0 120.324216,22.725179,0.0 120.32421,22.724184,0.0 120.324108,22.723521,0.0 120.32364,22.72378,0.0 120.323833,22.723267,0.0 120.324564,22.721828,0.0 120.324888,22.719944,0.0 120.325178,22.718093,0.0 120.325669,22.718229,0.0 120.326768,22.718454,0.0 120.327868,22.719084,0.0 120.328351,22.719195,0.0 120.328867,22.719213,0.0 120.329303,22.718869,0.0 120.33009,22.718069,0.0 120.331067,22.718775,0.0 120.331967,22.719275,0.0 120.33277,22.71971,0.0 120.332852,22.720311,0.0 120.332088,22.721468,0.0 120.330709,22.723301,0.0 120.329505,22.725492,0.0 120.329288,22.726191,0.0 120.328846,22.726849,0.0 120.327322,22.726924,0.0 120.32652,22.726962,0.0</coordinates></LinearRing></outerBoundaryIs></Polygon><styleUrl>#spolygon-map</styleUrl></Placemark><Placemark><Polygon><outerBoundaryIs><LinearRing><coordinates>120.330054,22.727081,0.0 120.329606,22.727536,0.0 120.327904,22.728011,0.0 120.327135,22.728233,0.0 120.326803,22.728588,0.0 120.326331,22.729305,0.0 120.325815,22.729728,0.0 120.325141,22.729927,0.0 120.324876,22.729224,0.0 120.324642,22.728609,0.0 120.32417,22.72728,0.0 120.323641,22.725792,0.0 120.323147,22.724415,0.0 120.323312,22.723884,0.0 120.323673,22.723781,0.0 120.32429,22.723418,0.0 120.324189,22.724442,0.0 120.324096,22.725257,0.0 120.324626,22.726147,0.0 120.325235,22.727032,0.0 120.327052,22.726936,0.0 120.328276,22.72688,0.0 120.329153,22.726663,0.0 120.329648,22.726504,0.0 120.330008,22.726882,0.0 120.330054,22.727081,0.0</coordinates></LinearRing></outerBoundaryIs></Polygon><styleUrl>#spolygon-map</styleUrl></Placemark><Placemark><Polygon><outerBoundaryIs><LinearRing><coordinates>120.325451,22.733925,0.0 120.325338,22.73436,0.0 120.325104,22.735014,0.0 120.324921,22.735417,0.0 120.324653,22.735909,0.0 120.324041,22.735646,0.0 120.323339,22.734747,0.0 120.322538,22.734051,0.0 120.322233,22.733907,0.0 120.32224,22.734408,0.0 120.322067,22.734633,0.0 120.321705,22.734544,0.0 120.32086,22.734755,0.0 120.320344,22.734886,0.0 120.320244,22.734639,0.0 120.319801,22.734705,0.0 120.319606,22.734181,0.0 120.320083,22.732179,0.0 120.321173,22.728439,0.0 120.321414,22.727607,0.0 120.32167,22.726694,0.0 120.322063,22.725565,0.0 120.322541,22.724794,0.0 120.32328,22.724756,0.0 120.323749,22.726093,0.0 120.324286,22.727601,0.0 120.324659,22.728658,0.0 120.324973,22.729484,0.0 120.32519,22.730059,0.0 120.325447,22.730953,0.0 120.325581,22.731756,0.0 120.325622,22.73242,0.0 120.325595,22.733002,0.0 120.325503,22.733679,0.0 120.325451,22.733925,0.0</coordinates></LinearRing></outerBoundaryIs></Polygon><styleUrl>#spolygon-map</styleUrl></Placemark><Placemark><Polygon><outerBoundaryIs><LinearRing><coordinates>120.317,22.735537,0.0 120.316422,22.736262,0.0 120.315849,22.736986,0.0 120.315221,22.736918,0.0 120.31456,22.736407,0.0 120.313914,22.736039,0.0 120.313138,22.735733,0.0 120.312255,22.735515,0.0 120.310918,22.735726,0.0 120.31009,22.73588,0.0 120.309419,22.736261,0.0 120.308831,22.736405,0.0 120.308206,22.736269,0.0 120.308086,22.735996,0.0 120.308125,22.735743,0.0 120.30876,22.735407,0.0 120.309204,22.735055,0.0 120.30965,22.734621,0.0 120.30994,22.734087,0.0 120.30989,22.73336,0.0 120.309928,22.733066,0.0 120.310813,22.732323,0.0 120.311218,22.731796,0.0 120.311439,22.731206,0.0 120.311392,22.730808,0.0 120.310666,22.730383,0.0 120.310266,22.730011,0.0 120.31096,22.730003,0.0 120.311922,22.730034,0.0 120.312512,22.730161,0.0 120.313133,22.730264,0.0 120.313736,22.730166,0.0 120.314154,22.729583,0.0 120.314455,22.729029,0.0 120.316317,22.728393,0.0 120.31773,22.727857,0.0 120.318443,22.72733,0.0 120.318772,22.726651,0.0 120.319592,22.726312,0.0 120.320296,22.725795,0.0 120.320728,22.725258,0.0 120.321156,22.724651,0.0 120.321704,22.72489,0.0 120.322063,22.725565,0.0 120.32167,22.726694,0.0 120.321414,22.727607,0.0 120.321173,22.728439,0.0 120.320083,22.732179,0.0 120.319606,22.734181,0.0 120.319139,22.734826,0.0 120.318508,22.735094,0.0 120.317687,22.735287,0.0 120.317,22.735537,0.0</coordinates></LinearRing></outerBoundaryIs></Polygon><styleUrl>#spolygon-map</styleUrl></Placemark><Placemark><Polygon><outerBoundaryIs><LinearRing><coordinates>120.312077,22.713075,0.0 120.312786,22.713594,0.0 120.31318,22.714398,0.0 120.31335,22.714656,0.0 120.313623,22.714793,0.0 120.313303,22.715742,0.0 120.312207,22.716936,0.0 120.312545,22.717224,0.0 120.312806,22.71793,0.0 120.312917,22.718136,0.0 120.313311,22.718627,0.0 120.313626,22.719176,0.0 120.313715,22.71951,0.0 120.314158,22.719946,0.0 120.314354,22.720563,0.0 120.314633,22.721202,0.0 120.313343,22.721081,0.0 120.312573,22.720754,0.0 120.311936,22.719961,0.0 120.310841,22.719029,0.0 120.310422,22.718267,0.0 120.310235,22.71767,0.0 120.309737,22.716208,0.0 120.309599,22.715817,0.0 120.309405,22.715166,0.0 120.310599,22.713573,0.0 120.312077,22.713075,0.0</coordinates></LinearRing></outerBoundaryIs></Polygon><styleUrl>#spolygon-map</styleUrl></Placemark><Placemark><Polygon><outerBoundaryIs><LinearRing><coordinates>120.314772,22.717123,0.0 120.313976,22.717658,0.0 120.313237,22.717892,0.0 120.312814,22.717948,0.0 120.312547,22.71724,0.0 120.312186,22.716961,0.0 120.313296,22.715748,0.0 120.31364,22.714801,0.0 120.313444,22.714699,0.0 120.313184,22.714412,0.0 120.312793,22.713608,0.0 120.312703,22.712997,0.0 120.315003,22.713726,0.0 120.318055,22.715778,0.0 120.317088,22.716218,0.0 120.315749,22.716917,0.0 120.315318,22.7171,0.0 120.314772,22.717123,0.0</coordinates></LinearRing></outerBoundaryIs></Polygon><styleUrl>#spolygon-map</styleUrl></Placemark><Placemark><Polygon><outerBoundaryIs><LinearRing><coordinates>120.32054,22.72438,0.0 120.320728,22.725258,0.0 120.320296,22.725795,0.0 120.319592,22.726312,0.0 120.318772,22.726651,0.0 120.318443,22.72733,0.0 120.314808,22.724416,0.0 120.315623,22.724092,0.0 120.317127,22.722869,0.0 120.316269,22.722299,0.0 120.314635,22.721215,0.0 120.314478,22.720872,0.0 120.314166,22.719962,0.0 120.313872,22.719625,0.0 120.313869,22.719089,0.0 120.315552,22.718209,0.0 120.316234,22.718005,0.0 120.317965,22.717911,0.0 120.317863,22.719906,0.0 120.317875,22.720076,0.0 120.318579,22.720383,0.0 120.318633,22.721645,0.0 120.318822,22.722294,0.0 120.319212,22.72364,0.0 120.32054,22.72438,0.0</coordinates></LinearRing></outerBoundaryIs></Polygon><styleUrl>#spolygon-map</styleUrl></Placemark><Placemark><Polygon><outerBoundaryIs><LinearRing><coordinates>120.324648,22.72132,0.0 120.324239,22.722619,0.0 120.323275,22.723928,0.0 120.322541,22.724794,0.0 120.321287,22.724708,0.0 120.32054,22.72438,0.0 120.31942,22.723427,0.0 120.318726,22.7221,0.0 120.318633,22.721475,0.0 120.318568,22.720347,0.0 120.317865,22.720063,0.0 120.317918,22.719087,0.0 120.317023,22.717903,0.0 120.315786,22.718116,0.0 120.315176,22.71843,0.0 120.313633,22.719306,0.0 120.313412,22.718775,0.0 120.313033,22.718322,0.0 120.313617,22.71773,0.0 120.314264,22.717335,0.0 120.315021,22.717095,0.0 120.315727,22.717002,0.0 120.316458,22.716506,0.0 120.317564,22.716,0.0 120.318858,22.715842,0.0 120.319454,22.717683,0.0 120.319496,22.718069,0.0 120.321086,22.719505,0.0 120.32123,22.71946,0.0 120.323016,22.714418,0.0 120.323756,22.710296,0.0 120.323746,22.706184,0.0 120.324249,22.705395,0.0 120.324618,22.70529,0.0 120.326225,22.704839,0.0 120.327582,22.704431,0.0 120.328322,22.704114,0.0 120.328746,22.704054,0.0 120.32946,22.704518,0.0 120.329591,22.704756,0.0 120.329156,22.705214,0.0 120.328591,22.705557,0.0 120.327776,22.70594,0.0 120.327218,22.706308,0.0 120.327137,22.706532,0.0 120.327078,22.706888,0.0 120.326524,22.707635,0.0 120.325787,22.708368,0.0 120.325689,22.708963,0.0 120.325707,22.709327,0.0 120.326251,22.709729,0.0 120.326831,22.709758,0.0 120.327569,22.709366,0.0 120.328939,22.709311,0.0 120.329491,22.71111,0.0 120.32921,22.711735,0.0 120.328367,22.71323,0.0 120.327799,22.714174,0.0 120.326898,22.715362,0.0 120.32602,22.71648,0.0 120.325516,22.716944,0.0 120.324714,22.717385,0.0 120.324429,22.71788,0.0 120.325178,22.718093,0.0 120.324888,22.719944,0.0 120.324648,22.72132,0.0</coordinates></LinearRing></outerBoundaryIs></Polygon><styleUrl>#spolygon-map</styleUrl></Placemark><Placemark><Polygon><outerBoundaryIs><LinearRing><coordinates>120.317877,22.727775,0.0 120.316898,22.728078,0.0 120.314635,22.728817,0.0 120.31416,22.729573,0.0 120.312517,22.7281,0.0 120.311068,22.726979,0.0 120.31016,22.726493,0.0 120.309438,22.726126,0.0 120.308377,22.725754,0.0 120.306994,22.72559,0.0 120.305631,22.725484,0.0 120.304559,22.725394,0.0 120.302959,22.725269,0.0 120.301183,22.725014,0.0 120.299988,22.724361,0.0 120.29929,22.723977,0.0 120.298045,22.723059,0.0 120.298938,22.72096,0.0 120.299549,22.719582,0.0 120.300365,22.717744,0.0 120.302439,22.71692,0.0 120.304806,22.717781,0.0 120.306007,22.718228,0.0 120.307566,22.718806,0.0 120.309152,22.718824,0.0 120.30981,22.717317,0.0 120.310234,22.717656,0.0 120.31042,22.718251,0.0 120.310831,22.719013,0.0 120.311927,22.719946,0.0 120.312607,22.720667,0.0 120.313308,22.721067,0.0 120.314872,22.721704,0.0 120.317243,22.722713,0.0 120.316473,22.723522,0.0 120.315396,22.724184,0.0 120.317877,22.727775,0.0</coordinates></LinearRing></outerBoundaryIs></Polygon><styleUrl>#spolygon-map</styleUrl></Placemark><Placemark><Polygon><outerBoundaryIs><LinearRing><coordinates>120.300966,22.729029,0.0 120.300492,22.729289,0.0 120.300077,22.729718,0.0 120.299891,22.730424,0.0 120.299951,22.731258,0.0 120.299927,22.731783,0.0 120.299503,22.732053,0.0 120.2991,22.73203,0.0 120.298645,22.73162,0.0 120.298491,22.731077,0.0 120.298085,22.730595,0.0 120.297536,22.730114,0.0 120.297104,22.729678,0.0 120.296777,22.729158,0.0 120.29666,22.728581,0.0 120.297104,22.727039,0.0 120.296921,22.725858,0.0 120.296778,22.72515,0.0 120.297662,22.723613,0.0 120.29929,22.723977,0.0 120.299988,22.724361,0.0 120.301183,22.725014,0.0 120.302959,22.725269,0.0 120.304559,22.725394,0.0 120.305631,22.725484,0.0 120.306994,22.72559,0.0 120.308377,22.725754,0.0 120.309438,22.726126,0.0 120.31016,22.726493,0.0 120.311068,22.726979,0.0 120.312517,22.7281,0.0 120.31416,22.729573,0.0 120.313795,22.730114,0.0 120.313265,22.730263,0.0 120.312641,22.730209,0.0 120.312004,22.730048,0.0 120.311289,22.730022,0.0 120.310258,22.729996,0.0 120.309924,22.729793,0.0 120.308958,22.729838,0.0 120.308491,22.729845,0.0 120.307393,22.729832,0.0 120.306695,22.729633,0.0 120.305681,22.729334,0.0 120.305209,22.729436,0.0 120.304852,22.729936,0.0 120.304079,22.730221,0.0 120.303788,22.73041,0.0 120.303181,22.730163,0.0 120.302723,22.729843,0.0 120.302355,22.729602,0.0 120.30206,22.729339,0.0 120.301572,22.729084,0.0 120.300966,22.729029,0.0</coordinates></LinearRing></outerBoundaryIs></Polygon><styleUrl>#spolygon-map</styleUrl></Placemark><Placemark><Polygon><outerBoundaryIs><LinearRing><coordinates>120.322483,22.716082,0.0 120.321151,22.719521,0.0 120.319304,22.718479,0.0 120.319522,22.717757,0.0 120.318806,22.717163,0.0 120.318055,22.715778,0.0 120.315003,22.713726,0.0 120.312703,22.712997,0.0 120.312712,22.713497,0.0 120.312039,22.713066,0.0 120.308952,22.713833,0.0 120.30822,22.711705,0.0 120.307275,22.708915,0.0 120.306667,22.708531,0.0 120.305283,22.707942,0.0 120.302241,22.710914,0.0 120.300676,22.711848,0.0 120.300311,22.711824,0.0 120.300162,22.711715,0.0 120.29978,22.711412,0.0 120.29979,22.711037,0.0 120.299811,22.710269,0.0 120.29982,22.709906,0.0 120.299832,22.709489,0.0 120.299837,22.709286,0.0 120.299847,22.708917,0.0 120.299876,22.707841,0.0 120.299693,22.70688,0.0 120.297771,22.706289,0.0 120.296858,22.706061,0.0 120.296629,22.705956,0.0 120.295141,22.705469,0.0 120.294923,22.705244,0.0 120.296341,22.704081,0.0 120.297406,22.701397,0.0 120.297664,22.70079,0.0 120.302517,22.699936,0.0 120.30333,22.699329,0.0 120.311498,22.699378,0.0 120.312339,22.698851,0.0 120.313679,22.697297,0.0 120.314511,22.696298,0.0 120.31519,22.696228,0.0 120.31608,22.69709,0.0 120.316659,22.697612,0.0 120.316984,22.697941,0.0 120.317332,22.698276,0.0 120.318507,22.699234,0.0 120.320195,22.700686,0.0 120.32118,22.70162,0.0 120.321865,22.702502,0.0 120.322391,22.703364,0.0 120.32313,22.704798,0.0 120.323746,22.706184,0.0 120.323756,22.710296,0.0 120.323016,22.714418,0.0 120.322483,22.716082,0.0</coordinates></LinearRing></outerBoundaryIs></Polygon><styleUrl>#spolygon-map</styleUrl></Placemark><Placemark><Polygon><outerBoundaryIs><LinearRing><coordinates>120.307751,22.71032,0.0 120.30893,22.713771,0.0 120.309281,22.714748,0.0 120.309537,22.715609,0.0 120.309724,22.716171,0.0 120.309889,22.717129,0.0 120.309305,22.718472,0.0 120.308217,22.719048,0.0 120.306207,22.71831,0.0 120.305018,22.717865,0.0 120.304661,22.717131,0.0 120.305316,22.715628,0.0 120.306039,22.713968,0.0 120.306698,22.712456,0.0 120.307356,22.71095,0.0 120.307751,22.71032,0.0</coordinates></LinearRing></outerBoundaryIs></Polygon><styleUrl>#spolygon-map</styleUrl></Placemark><Placemark><Polygon><outerBoundaryIs><LinearRing><coordinates>120.306859,22.712085,0.0 120.306194,22.713612,0.0 120.305472,22.715268,0.0 120.304811,22.716786,0.0 120.304398,22.717626,0.0 120.299818,22.715936,0.0 120.298295,22.715389,0.0 120.297409,22.715041,0.0 120.297038,22.71491,0.0 120.296514,22.714714,0.0 120.297399,22.713695,0.0 120.297995,22.713252,0.0 120.298471,22.712733,0.0 120.299387,22.712423,0.0 120.300151,22.711891,0.0 120.300426,22.711825,0.0 120.300771,22.711826,0.0 120.30229,22.709688,0.0 120.305536,22.707942,0.0 120.306682,22.708551,0.0 120.307697,22.710161,0.0 120.30719,22.711325,0.0 120.306859,22.712085,0.0</coordinates></LinearRing></outerBoundaryIs></Polygon><styleUrl>#spolygon-map</styleUrl></Placemark><Placemark><Polygon><outerBoundaryIs><LinearRing><coordinates>120.288954,22.71128,0.0 120.288003,22.710939,0.0 120.287875,22.710661,0.0 120.287397,22.710055,0.0 120.286227,22.7108,0.0 120.285944,22.71047,0.0 120.285804,22.710082,0.0 120.28523,22.708777,0.0 120.284714,22.707444,0.0 120.285848,22.70324,0.0 120.286925,22.705338,0.0 120.287019,22.70569,0.0 120.287311,22.706495,0.0 120.287301,22.707584,0.0 120.287623,22.708386,0.0 120.287588,22.709167,0.0 120.288117,22.709324,0.0 120.288306,22.70948,0.0 120.288541,22.709681,0.0 120.288481,22.710093,0.0 120.288943,22.710083,0.0 120.289209,22.710638,0.0 120.288954,22.71128,0.0</coordinates></LinearRing></outerBoundaryIs></Polygon><styleUrl>#spolygon-map</styleUrl></Placemark><Placemark><Polygon><outerBoundaryIs><LinearRing><coordinates>120.28521,22.711533,0.0 120.284821,22.711219,0.0 120.283791,22.710639,0.0 120.282972,22.711203,0.0 120.282514,22.710982,0.0 120.282689,22.710112,0.0 120.283418,22.708513,0.0 120.284491,22.707043,0.0 120.285391,22.708694,0.0 120.285592,22.709727,0.0 120.285901,22.710314,0.0 120.286022,22.711002,0.0 120.28521,22.711533,0.0</coordinates></LinearRing></outerBoundaryIs></Polygon><styleUrl>#spolygon-map</styleUrl></Placemark><Placemark><Polygon><outerBoundaryIs><LinearRing><coordinates>120.290322,22.710194,0.0 120.289811,22.710533,0.0 120.2894,22.710849,0.0 120.289035,22.710249,0.0 120.288651,22.710226,0.0 120.288381,22.70999,0.0 120.288381,22.709556,0.0 120.288263,22.709429,0.0 120.28786,22.709016,0.0 120.287902,22.708758,0.0 120.287449,22.708096,0.0 120.287392,22.707265,0.0 120.287217,22.706261,0.0 120.286979,22.705559,0.0 120.286928,22.705025,0.0 120.289178,22.703228,0.0 120.292469,22.704914,0.0 120.292731,22.705401,0.0 120.292825,22.705826,0.0 120.29282,22.706092,0.0 120.292796,22.706632,0.0 120.292798,22.707935,0.0 120.291722,22.709476,0.0 120.290817,22.709941,0.0 120.290322,22.710194,0.0</coordinates></LinearRing></outerBoundaryIs></Polygon><styleUrl>#spolygon-map</styleUrl></Placemark><Placemark><Polygon><outerBoundaryIs><LinearRing><coordinates>120.282618,22.716886,0.0 120.281572,22.718287,0.0 120.281688,22.716394,0.0 120.282285,22.715712,0.0 120.283233,22.714246,0.0 120.283709,22.713475,0.0 120.284742,22.712103,0.0 120.285793,22.711005,0.0 120.286227,22.7108,0.0 120.287397,22.710055,0.0 120.287875,22.710661,0.0 120.288003,22.710939,0.0 120.288954,22.71128,0.0 120.288243,22.712048,0.0 120.287778,22.712048,0.0 120.286958,22.712496,0.0 120.286261,22.713009,0.0 120.284991,22.714076,0.0 120.284625,22.714271,0.0 120.28436,22.714346,0.0 120.283602,22.715403,0.0 120.282889,22.716481,0.0 120.282618,22.716886,0.0</coordinates></LinearRing></outerBoundaryIs></Polygon><styleUrl>#spolygon-map</styleUrl></Placemark><Placemark><Polygon><outerBoundaryIs><LinearRing><coordinates>120.281273,22.7171,0.0 120.280562,22.718399,0.0 120.278031,22.719305,0.0 120.273228,22.717367,0.0 120.264312,22.715396,0.0 120.259165,22.714259,0.0 120.259197,22.714079,0.0 120.258724,22.713482,0.0 120.258458,22.71344,0.0 120.257947,22.713234,0.0 120.257373,22.713318,0.0 120.257169,22.713288,0.0 120.257149,22.713426,0.0 120.257301,22.713567,0.0 120.257218,22.713636,0.0 120.257045,22.713556,0.0 120.256975,22.713287,0.0 120.256952,22.713051,0.0 120.256804,22.712636,0.0 120.257287,22.711538,0.0 120.258031,22.70989,0.0 120.261747,22.699973,0.0 120.261647,22.696784,0.0 120.25996,22.696397,0.0 120.258029,22.695283,0.0 120.26334,22.696955,0.0 120.262688,22.698333,0.0 120.262968,22.700602,0.0 120.26398,22.702557,0.0 120.265338,22.704297,0.0 120.265509,22.704894,0.0 120.266116,22.706116,0.0 120.266254,22.707327,0.0 120.264654,22.708258,0.0 120.268552,22.708827,0.0 120.269782,22.708354,0.0 120.277619,22.707335,0.0 120.283418,22.708513,0.0 120.282689,22.710112,0.0 120.282514,22.710982,0.0 120.282972,22.711203,0.0 120.283791,22.710639,0.0 120.284821,22.711219,0.0 120.28476,22.712081,0.0 120.283977,22.71306,0.0 120.283444,22.7139,0.0 120.282299,22.715695,0.0 120.282036,22.716583,0.0 120.281273,22.7171,0.0</coordinates></LinearRing></outerBoundaryIs></Polygon><styleUrl>#spolygon-map</styleUrl></Placemark><Placemark><Polygon><outerBoundaryIs><LinearRing><coordinates>120.286869,22.713396,0.0 120.28633,22.713861,0.0 120.286094,22.715291,0.0 120.285221,22.716124,0.0 120.284351,22.716928,0.0 120.283582,22.716419,0.0 120.283602,22.715403,0.0 120.28436,22.714346,0.0 120.284625,22.714271,0.0 120.284991,22.714076,0.0 120.286261,22.713009,0.0 120.286958,22.712496,0.0 120.287778,22.712048,0.0 120.288243,22.712048,0.0 120.289287,22.712174,0.0 120.289026,22.712418,0.0 120.288753,22.712673,0.0 120.288358,22.712997,0.0 120.287711,22.713429,0.0 120.287352,22.713935,0.0 120.286869,22.713396,0.0</coordinates></LinearRing></outerBoundaryIs></Polygon><styleUrl>#spolygon-map</styleUrl></Placemark><Placemark><Polygon><outerBoundaryIs><LinearRing><coordinates>120.284203,22.718689,0.0 120.283364,22.719227,0.0 120.281922,22.720164,0.0 120.279711,22.719973,0.0 120.280834,22.717895,0.0 120.282154,22.717581,0.0 120.283115,22.716144,0.0 120.284332,22.716915,0.0 120.285091,22.716252,0.0 120.285746,22.715612,0.0 120.285448,22.714619,0.0 120.286791,22.713463,0.0 120.287352,22.713935,0.0 120.287711,22.713429,0.0 120.288358,22.712997,0.0 120.288753,22.712673,0.0 120.289026,22.712418,0.0 120.289621,22.712871,0.0 120.290037,22.713467,0.0 120.289288,22.714328,0.0 120.288371,22.715255,0.0 120.287398,22.716668,0.0 120.286491,22.717291,0.0 120.285922,22.717637,0.0 120.284858,22.718295,0.0 120.284203,22.718689,0.0</coordinates></LinearRing></outerBoundaryIs></Polygon><styleUrl>#spolygon-map</styleUrl></Placemark><Placemark><Polygon><outerBoundaryIs><LinearRing><coordinates>120.292452,22.713476,0.0 120.292931,22.715953,0.0 120.292004,22.718088,0.0 120.290724,22.71743,0.0 120.290285,22.716684,0.0 120.290182,22.715944,0.0 120.290085,22.715251,0.0 120.290015,22.713628,0.0 120.289642,22.712882,0.0 120.289293,22.712195,0.0 120.2894,22.710849,0.0 120.289811,22.710533,0.0 120.290322,22.710194,0.0 120.29171,22.709482,0.0 120.293002,22.708853,0.0 120.292748,22.710012,0.0 120.292313,22.711133,0.0 120.291926,22.712008,0.0 120.291326,22.713199,0.0 120.292452,22.713476,0.0</coordinates></LinearRing></outerBoundaryIs></Polygon><styleUrl>#spolygon-map</styleUrl></Placemark><Placemark><Polygon><outerBoundaryIs><LinearRing><coordinates>120.294486,22.721677,0.0 120.294516,22.722043,0.0 120.293997,22.7219,0.0 120.292684,22.721661,0.0 120.291157,22.721642,0.0 120.290752,22.719767,0.0 120.29061,22.719129,0.0 120.290556,22.718657,0.0 120.291406,22.717797,0.0 120.292017,22.71805,0.0 120.293366,22.714928,0.0 120.295255,22.714319,0.0 120.29581,22.714508,0.0 120.296385,22.714702,0.0 120.295855,22.715393,0.0 120.295681,22.715543,0.0 120.29593,22.715644,0.0 120.296109,22.715927,0.0 120.295836,22.716273,0.0 120.295671,22.716541,0.0 120.295282,22.717178,0.0 120.29522,22.717517,0.0 120.294989,22.717732,0.0 120.2946,22.718137,0.0 120.29406,22.718598,0.0 120.293799,22.71903,0.0 120.294031,22.719629,0.0 120.294036,22.720002,0.0 120.294027,22.720447,0.0 120.293894,22.72094,0.0 120.293983,22.721239,0.0 120.294381,22.721516,0.0 120.294486,22.721677,0.0</coordinates></LinearRing></outerBoundaryIs></Polygon><styleUrl>#spolygon-map</styleUrl></Placemark><Placemark><Polygon><outerBoundaryIs><LinearRing><coordinates>120.295559,22.708298,0.0 120.295727,22.708488,0.0 120.295795,22.708579,0.0 120.296,22.708804,0.0 120.296082,22.708897,0.0 120.296239,22.709039,0.0 120.296379,22.709144,0.0 120.296646,22.709354,0.0 120.296669,22.709797,0.0 120.295538,22.710532,0.0 120.29557,22.710172,0.0 120.295125,22.709668,0.0 120.294749,22.709231,0.0 120.294566,22.709016,0.0 120.29422,22.708614,0.0 120.293404,22.708583,0.0 120.292954,22.708524,0.0 120.292778,22.707,0.0 120.293174,22.706568,0.0 120.293681,22.706563,0.0 120.293915,22.706928,0.0 120.294162,22.707191,0.0 120.294396,22.707349,0.0 120.294827,22.707581,0.0 120.29517,22.707911,0.0 120.295279,22.708033,0.0 120.295394,22.708141,0.0 120.295559,22.708298,0.0</coordinates></LinearRing></outerBoundaryIs></Polygon><styleUrl>#spolygon-map</styleUrl></Placemark><Placemark><Polygon><outerBoundaryIs><LinearRing><coordinates>120.299855,22.708631,0.0 120.299843,22.70909,0.0 120.299835,22.709368,0.0 120.299824,22.709774,0.0 120.299815,22.710115,0.0 120.299804,22.710506,0.0 120.299789,22.711072,0.0 120.299974,22.711551,0.0 120.300162,22.711885,0.0 120.299565,22.712243,0.0 120.298479,22.712656,0.0 120.298239,22.712531,0.0 120.297587,22.712135,0.0 120.297152,22.711875,0.0 120.296892,22.711733,0.0 120.296086,22.711069,0.0 120.296669,22.709797,0.0 120.297742,22.708696,0.0 120.298426,22.70832,0.0 120.298958,22.708082,0.0 120.299338,22.70794,0.0 120.299577,22.707884,0.0 120.299876,22.707841,0.0 120.299855,22.708631,0.0</coordinates></LinearRing></outerBoundaryIs></Polygon><styleUrl>#spolygon-map</styleUrl></Placemark><Placemark><Polygon><outerBoundaryIs><LinearRing><coordinates>120.294013,22.713276,0.0 120.291568,22.713199,0.0 120.291442,22.713045,0.0 120.29199,22.711872,0.0 120.292608,22.710403,0.0 120.292915,22.709438,0.0 120.293404,22.708583,0.0 120.29422,22.708614,0.0 120.294566,22.709016,0.0 120.294749,22.709231,0.0 120.295125,22.709668,0.0 120.29557,22.710172,0.0 120.295538,22.710532,0.0 120.295046,22.711581,0.0 120.294418,22.71231,0.0 120.2941,22.712977,0.0 120.294013,22.713276,0.0</coordinates></LinearRing></outerBoundaryIs></Polygon><styleUrl>#spolygon-map</styleUrl></Placemark><Placemark><Polygon><outerBoundaryIs><LinearRing><coordinates>120.296086,22.711069,0.0 120.296892,22.711733,0.0 120.297152,22.711875,0.0 120.297587,22.712135,0.0 120.298239,22.712531,0.0 120.298454,22.712884,0.0 120.297747,22.713317,0.0 120.297156,22.713987,0.0 120.296494,22.71473,0.0 120.295828,22.714521,0.0 120.295283,22.714328,0.0 120.293796,22.713878,0.0 120.294176,22.712749,0.0 120.29452,22.712196,0.0 120.295175,22.711439,0.0 120.296086,22.711069,0.0</coordinates></LinearRing></outerBoundaryIs></Polygon><styleUrl>#spolygon-map</styleUrl></Placemark><Placemark><Polygon><outerBoundaryIs><LinearRing><coordinates>120.289918,22.714116,0.0 120.290118,22.715484,0.0 120.290277,22.716582,0.0 120.290373,22.71723,0.0 120.290572,22.718823,0.0 120.29068,22.719635,0.0 120.291008,22.721652,0.0 120.289119,22.720824,0.0 120.287285,22.719835,0.0 120.285341,22.718645,0.0 120.285609,22.71783,0.0 120.286472,22.717296,0.0 120.287385,22.716683,0.0 120.288363,22.715268,0.0 120.289123,22.71448,0.0 120.289918,22.714116,0.0</coordinates></LinearRing></outerBoundaryIs></Polygon><styleUrl>#spolygon-map</styleUrl></Placemark><Placemark><Polygon><outerBoundaryIs><LinearRing><coordinates>120.289588,22.723927,0.0 120.287955,22.723268,0.0 120.286366,22.722622,0.0 120.284606,22.721927,0.0 120.283032,22.721303,0.0 120.282171,22.720965,0.0 120.281765,22.72025,0.0 120.282565,22.719718,0.0 120.284149,22.718731,0.0 120.285358,22.718656,0.0 120.288039,22.720256,0.0 120.289875,22.721229,0.0 120.290989,22.722112,0.0 120.290564,22.723768,0.0 120.289588,22.723927,0.0</coordinates></LinearRing></outerBoundaryIs></Polygon><styleUrl>#spolygon-map</styleUrl></Placemark><Placemark><Polygon><outerBoundaryIs><LinearRing><coordinates>120.299801,22.715929,0.0 120.300492,22.717456,0.0 120.299782,22.719056,0.0 120.299205,22.720358,0.0 120.298357,22.722274,0.0 120.297099,22.722945,0.0 120.295911,22.722547,0.0 120.295227,22.722296,0.0 120.294557,22.72208,0.0 120.294495,22.721909,0.0 120.294397,22.721397,0.0 120.29392,22.721191,0.0 120.293869,22.720884,0.0 120.294051,22.720383,0.0 120.294014,22.719902,0.0 120.294059,22.71951,0.0 120.293783,22.718973,0.0 120.294264,22.718416,0.0 120.294696,22.717955,0.0 120.295076,22.717685,0.0 120.295233,22.717447,0.0 120.295371,22.717046,0.0 120.29571,22.716495,0.0 120.295925,22.716127,0.0 120.296079,22.715818,0.0 120.295803,22.715643,0.0 120.295688,22.715494,0.0 120.29589,22.715363,0.0 120.296748,22.714814,0.0 120.297394,22.715035,0.0 120.298275,22.715383,0.0 120.299801,22.715929,0.0</coordinates></LinearRing></outerBoundaryIs></Polygon><styleUrl>#spolygon-map</styleUrl></Placemark><Placemark><Polygon><outerBoundaryIs><LinearRing><coordinates>120.296944,22.724861,0.0 120.296083,22.725414,0.0 120.291492,22.724703,0.0 120.290995,22.725258,0.0 120.289588,22.723927,0.0 120.291206,22.723557,0.0 120.290987,22.722099,0.0 120.291929,22.721647,0.0 120.293483,22.721785,0.0 120.294053,22.721918,0.0 120.294602,22.722095,0.0 120.295292,22.722317,0.0 120.295952,22.722561,0.0 120.297811,22.723183,0.0 120.297143,22.724519,0.0 120.296944,22.724861,0.0</coordinates></LinearRing></outerBoundaryIs></Polygon><styleUrl>#spolygon-map</styleUrl></Placemark><Placemark><Polygon><outerBoundaryIs><LinearRing><coordinates>120.283945,22.736086,0.0 120.282901,22.736417,0.0 120.281835,22.736708,0.0 120.280458,22.737095,0.0 120.279465,22.737371,0.0 120.277922,22.737799,0.0 120.277446,22.737583,0.0 120.276738,22.735448,0.0 120.276216,22.733857,0.0 120.275182,22.733647,0.0 120.278243,22.729551,0.0 120.27917,22.7284,0.0 120.279869,22.726919,0.0 120.281462,22.7265,0.0 120.282244,22.725994,0.0 120.283177,22.724729,0.0 120.284295,22.723747,0.0 120.28677,22.722791,0.0 120.288007,22.723282,0.0 120.289417,22.724529,0.0 120.29146,22.725382,0.0 120.292778,22.724915,0.0 120.296311,22.72546,0.0 120.296921,22.725858,0.0 120.297104,22.727039,0.0 120.296464,22.728393,0.0 120.296075,22.728728,0.0 120.295224,22.729446,0.0 120.295466,22.72949,0.0 120.295824,22.73051,0.0 120.295694,22.730742,0.0 120.295607,22.731105,0.0 120.295807,22.731438,0.0 120.294876,22.732326,0.0 120.29466,22.732968,0.0 120.293843,22.733477,0.0 120.293409,22.733767,0.0 120.293415,22.733909,0.0 120.292923,22.734929,0.0 120.292325,22.735243,0.0 120.2928,22.736313,0.0 120.291768,22.73687,0.0 120.290883,22.737119,0.0 120.29035,22.736984,0.0 120.290028,22.736847,0.0 120.289585,22.736718,0.0 120.288888,22.736839,0.0 120.285406,22.736781,0.0 120.283945,22.736086,0.0</coordinates></LinearRing></outerBoundaryIs></Polygon><styleUrl>#spolygon-map</styleUrl></Placemark><Placemark><Polygon><outerBoundaryIs><LinearRing><coordinates>120.279827,22.726997,0.0 120.27884,22.728077,0.0 120.27747,22.726661,0.0 120.277728,22.726145,0.0 120.277884,22.725853,0.0 120.277904,22.725197,0.0 120.277578,22.724417,0.0 120.277435,22.723848,0.0 120.279278,22.723779,0.0 120.279505,22.723399,0.0 120.280904,22.72328,0.0 120.283003,22.721299,0.0 120.284453,22.721858,0.0 120.284295,22.723747,0.0 120.283177,22.724729,0.0 120.282244,22.725994,0.0 120.281462,22.7265,0.0 120.279869,22.726919,0.0 120.279827,22.726997,0.0</coordinates></LinearRing></outerBoundaryIs></Polygon><styleUrl>#spolygon-map</styleUrl></Placemark><Placemark><Polygon><outerBoundaryIs><LinearRing><coordinates>120.275182,22.733647,0.0 120.274944,22.733528,0.0 120.275045,22.732828,0.0 120.275191,22.731845,0.0 120.274822,22.731588,0.0 120.274125,22.731422,0.0 120.272972,22.731185,0.0 120.272314,22.731037,0.0 120.271608,22.730867,0.0 120.27145,22.730807,0.0 120.271002,22.730501,0.0 120.270656,22.730693,0.0 120.27007,22.731169,0.0 120.269543,22.73158,0.0 120.269252,22.731646,0.0 120.269108,22.731497,0.0 120.268209,22.730741,0.0 120.267571,22.730302,0.0 120.267095,22.72988,0.0 120.266747,22.729741,0.0 120.266327,22.729824,0.0 120.265963,22.729884,0.0 120.265498,22.729527,0.0 120.265095,22.729178,0.0 120.264362,22.728594,0.0 120.263975,22.728278,0.0 120.263452,22.727845,0.0 120.262948,22.72724,0.0 120.262602,22.726741,0.0 120.262334,22.726295,0.0 120.262057,22.725732,0.0 120.261608,22.725172,0.0 120.261107,22.724603,0.0 120.260672,22.724132,0.0 120.260041,22.723422,0.0 120.259583,22.722851,0.0 120.25872,22.721795,0.0 120.258277,22.721215,0.0 120.257736,22.720594,0.0 120.25704,22.71978,0.0 120.256283,22.718564,0.0 120.256786,22.714727,0.0 120.256131,22.714341,0.0 120.25577,22.714218,0.0 120.255832,22.7141,0.0 120.256752,22.714232,0.0 120.257469,22.714383,0.0 120.257658,22.714432,0.0 120.25783,22.714497,0.0 120.258245,22.71431,0.0 120.258414,22.714338,0.0 120.258652,22.714354,0.0 120.258946,22.714355,0.0 120.259139,22.714344,0.0 120.262188,22.714927,0.0 120.272091,22.717125,0.0 120.277673,22.719161,0.0 120.279725,22.719979,0.0 120.282171,22.720965,0.0 120.281951,22.723495,0.0 120.280467,22.723299,0.0 120.279339,22.723949,0.0 120.277364,22.723487,0.0 120.27757,22.724398,0.0 120.277893,22.725159,0.0 120.277924,22.725683,0.0 120.277762,22.72608,0.0 120.277572,22.726507,0.0 120.278269,22.727636,0.0 120.27917,22.7284,0.0 120.278243,22.729551,0.0 120.275182,22.733647,0.0</coordinates></LinearRing></outerBoundaryIs></Polygon><styleUrl>#spolygon-map</styleUrl></Placemark></Document>
</kml>
