<?xml version="1.0" encoding="UTF-8"?>
<kml xmlns="http://www.opengis.net/kml/2.2">
	<Document>
		<name>高雄市旗津區</name>
		<Style id="spolygon">
			<LabelStyle>
				<scale>0.0</scale>
			</LabelStyle>
			<LineStyle>
				<color>330030ff</color>
				<width>0</width>
			</LineStyle>
			<PolyStyle>
				<color>330030ff</color>
			</PolyStyle>
		</Style>
		<StyleMap id="spolygon-map">
			<Pair>
				<key>normal</key>
				<styleUrl>#spolygon</styleUrl>
			</Pair>
		</StyleMap>
	<Placemark><Polygon><outerBoundaryIs><LinearRing><coordinates>120.266285,22.61514,0.0 120.26364,22.615453,0.0 120.262536,22.61408,0.0 120.26314,22.612963,0.0 120.263264,22.611731,0.0 120.263008,22.611156,0.0 120.263136,22.610369,0.0 120.263445,22.610298,0.0 120.263641,22.610671,0.0 120.263932,22.610921,0.0 120.264297,22.611369,0.0 120.265216,22.612675,0.0 120.265713,22.613285,0.0 120.266203,22.613206,0.0 120.266476,22.61319,0.0 120.266568,22.613097,0.0 120.266949,22.612997,0.0 120.26715,22.613384,0.0 120.268473,22.61311,0.0 120.268888,22.613687,0.0 120.269457,22.614176,0.0 120.269375,22.614393,0.0 120.267493,22.615046,0.0 120.266855,22.614608,0.0 120.266591,22.614681,0.0 120.26598,22.614466,0.0 120.266285,22.61514,0.0</coordinates></LinearRing></outerBoundaryIs></Polygon><styleUrl>#spolygon-map</styleUrl></Placemark><Placemark><Polygon><outerBoundaryIs><LinearRing><coordinates>120.267365,22.613602,0.0 120.267048,22.613174,0.0 120.266921,22.612997,0.0 120.266564,22.613101,0.0 120.26635,22.613209,0.0 120.266126,22.61324,0.0 120.265652,22.613215,0.0 120.265031,22.612393,0.0 120.26478,22.611254,0.0 120.26652,22.609731,0.0 120.267603,22.61149,0.0 120.267992,22.612213,0.0 120.26824,22.612676,0.0 120.267365,22.613602,0.0</coordinates></LinearRing></outerBoundaryIs></Polygon><styleUrl>#spolygon-map</styleUrl></Placemark><Placemark><Polygon><outerBoundaryIs><LinearRing><coordinates>120.269992,22.613734,0.0 120.269457,22.614176,0.0 120.268888,22.613687,0.0 120.268473,22.61311,0.0 120.268214,22.612627,0.0 120.267924,22.612086,0.0 120.267585,22.611457,0.0 120.26674,22.60949,0.0 120.269388,22.611279,0.0 120.26983,22.61142,0.0 120.270392,22.611975,0.0 120.271303,22.612476,0.0 120.274482,22.611292,0.0 120.275203,22.612426,0.0 120.27481,22.612122,0.0 120.271696,22.613456,0.0 120.271236,22.61256,0.0 120.270763,22.612354,0.0 120.270964,22.613184,0.0 120.270138,22.613699,0.0 120.269992,22.613734,0.0</coordinates></LinearRing></outerBoundaryIs></Polygon><styleUrl>#spolygon-map</styleUrl></Placemark><Placemark><Polygon><outerBoundaryIs><LinearRing><coordinates>120.271211,22.611618,0.0 120.271029,22.61215,0.0 120.27115,22.612381,0.0 120.270208,22.611667,0.0 120.269467,22.611321,0.0 120.268004,22.610346,0.0 120.267351,22.608674,0.0 120.268259,22.609099,0.0 120.268544,22.609294,0.0 120.269714,22.609627,0.0 120.271944,22.608611,0.0 120.272705,22.609834,0.0 120.272177,22.610457,0.0 120.271762,22.611031,0.0 120.271211,22.611618,0.0</coordinates></LinearRing></outerBoundaryIs></Polygon><styleUrl>#spolygon-map</styleUrl></Placemark><Placemark><Polygon><outerBoundaryIs><LinearRing><coordinates>120.273905,22.605854,0.0 120.272609,22.607667,0.0 120.271442,22.607365,0.0 120.272274,22.606276,0.0 120.272671,22.605274,0.0 120.273735,22.603941,0.0 120.27369,22.602776,0.0 120.272772,22.602143,0.0 120.273853,22.600883,0.0 120.27487,22.599827,0.0 120.275869,22.600317,0.0 120.277035,22.600485,0.0 120.276637,22.601014,0.0 120.276657,22.602136,0.0 120.27572,22.603182,0.0 120.274624,22.604482,0.0 120.274043,22.605469,0.0 120.273905,22.605854,0.0</coordinates></LinearRing></outerBoundaryIs></Polygon><styleUrl>#spolygon-map</styleUrl></Placemark><Placemark><Polygon><outerBoundaryIs><LinearRing><coordinates>120.269714,22.609627,0.0 120.268544,22.609294,0.0 120.268259,22.609099,0.0 120.268009,22.608104,0.0 120.269202,22.606768,0.0 120.271248,22.60415,0.0 120.27346,22.602706,0.0 120.273874,22.602905,0.0 120.273627,22.60408,0.0 120.272812,22.60537,0.0 120.272056,22.606561,0.0 120.271302,22.607542,0.0 120.269714,22.609627,0.0</coordinates></LinearRing></outerBoundaryIs></Polygon><styleUrl>#spolygon-map</styleUrl></Placemark><Placemark><Polygon><outerBoundaryIs><LinearRing><coordinates>120.276363,22.609043,0.0 120.274673,22.610622,0.0 120.274305,22.609517,0.0 120.273838,22.608936,0.0 120.273735,22.608661,0.0 120.273086,22.609319,0.0 120.272247,22.608169,0.0 120.273079,22.607023,0.0 120.273966,22.605766,0.0 120.2746,22.60451,0.0 120.275756,22.603212,0.0 120.276591,22.602176,0.0 120.277306,22.601881,0.0 120.277672,22.601999,0.0 120.277991,22.602524,0.0 120.278162,22.604233,0.0 120.278226,22.604892,0.0 120.278544,22.605228,0.0 120.278753,22.605287,0.0 120.278766,22.605545,0.0 120.279419,22.605954,0.0 120.278163,22.60836,0.0 120.276817,22.607085,0.0 120.27644,22.607505,0.0 120.275438,22.607013,0.0 120.276363,22.609043,0.0</coordinates></LinearRing></outerBoundaryIs></Polygon><styleUrl>#spolygon-map</styleUrl></Placemark><Placemark><Polygon><outerBoundaryIs><LinearRing><coordinates>120.280591,22.603808,0.0 120.279628,22.6026,0.0 120.27918,22.601564,0.0 120.279108,22.601656,0.0 120.278393,22.602547,0.0 120.277876,22.602204,0.0 120.277551,22.601954,0.0 120.27702,22.601724,0.0 120.276655,22.600922,0.0 120.276673,22.600253,0.0 120.275746,22.600224,0.0 120.27505,22.599611,0.0 120.276785,22.596911,0.0 120.278085,22.594294,0.0 120.2811,22.595961,0.0 120.281441,22.596229,0.0 120.281634,22.596291,0.0 120.281434,22.595942,0.0 120.282321,22.596002,0.0 120.282319,22.596584,0.0 120.281993,22.596718,0.0 120.282259,22.59692,0.0 120.282237,22.596997,0.0 120.282107,22.597121,0.0 120.282079,22.597287,0.0 120.281859,22.597329,0.0 120.28197,22.597684,0.0 120.281696,22.597884,0.0 120.281611,22.598055,0.0 120.281749,22.598151,0.0 120.281751,22.598433,0.0 120.281545,22.598495,0.0 120.281567,22.598692,0.0 120.281323,22.598932,0.0 120.28154,22.599175,0.0 120.281795,22.599542,0.0 120.281693,22.599681,0.0 120.281299,22.599685,0.0 120.281512,22.5998,0.0 120.281616,22.600033,0.0 120.280591,22.603808,0.0</coordinates></LinearRing></outerBoundaryIs></Polygon><styleUrl>#spolygon-map</styleUrl></Placemark><Placemark><Polygon><outerBoundaryIs><LinearRing><coordinates>120.28176,22.596367,0.0 120.281529,22.596246,0.0 120.281324,22.596097,0.0 120.278172,22.594151,0.0 120.280839,22.591254,0.0 120.282915,22.589046,0.0 120.284309,22.587011,0.0 120.285069,22.584675,0.0 120.285823,22.584663,0.0 120.28582,22.584015,0.0 120.286802,22.583934,0.0 120.287242,22.583604,0.0 120.288865,22.584784,0.0 120.289504,22.585171,0.0 120.28993,22.585402,0.0 120.291571,22.586621,0.0 120.285691,22.591928,0.0 120.285542,22.592124,0.0 120.283887,22.594559,0.0 120.283748,22.593969,0.0 120.283333,22.59432,0.0 120.28332,22.59443,0.0 120.28306,22.594727,0.0 120.282762,22.595493,0.0 120.282542,22.595407,0.0 120.282379,22.595449,0.0 120.281813,22.595446,0.0 120.281845,22.596089,0.0 120.28176,22.596367,0.0</coordinates></LinearRing></outerBoundaryIs></Polygon><styleUrl>#spolygon-map</styleUrl></Placemark><Placemark><Polygon><outerBoundaryIs><LinearRing><coordinates>120.291348,22.585753,0.0 120.291754,22.586317,0.0 120.289901,22.585452,0.0 120.28952,22.58518,0.0 120.288962,22.584843,0.0 120.287839,22.582854,0.0 120.288007,22.582695,0.0 120.288787,22.581786,0.0 120.288957,22.581683,0.0 120.289598,22.580686,0.0 120.290007,22.580473,0.0 120.290654,22.579397,0.0 120.29115,22.579002,0.0 120.291646,22.578749,0.0 120.29162,22.578137,0.0 120.292082,22.578073,0.0 120.292643,22.576945,0.0 120.293575,22.57589,0.0 120.29517,22.576895,0.0 120.295014,22.57747,0.0 120.29567,22.576729,0.0 120.296236,22.575817,0.0 120.29672,22.576147,0.0 120.297042,22.576382,0.0 120.297651,22.577558,0.0 120.297546,22.577971,0.0 120.297526,22.578131,0.0 120.297363,22.578221,0.0 120.297309,22.578512,0.0 120.297203,22.578744,0.0 120.297159,22.578913,0.0 120.297053,22.579382,0.0 120.296791,22.579577,0.0 120.296294,22.57955,0.0 120.296298,22.5799,0.0 120.29579,22.579869,0.0 120.295406,22.580197,0.0 120.295688,22.580652,0.0 120.29495,22.581062,0.0 120.294748,22.581126,0.0 120.294524,22.5815,0.0 120.294521,22.581699,0.0 120.294269,22.581962,0.0 120.294185,22.582147,0.0 120.294075,22.582277,0.0 120.293545,22.5826,0.0 120.293448,22.582963,0.0 120.293198,22.583456,0.0 120.293028,22.583561,0.0 120.292867,22.583771,0.0 120.292667,22.584052,0.0 120.292392,22.584545,0.0 120.292245,22.584554,0.0 120.292067,22.584842,0.0 120.291965,22.585117,0.0 120.29182,22.585222,0.0 120.291523,22.585472,0.0 120.291348,22.585753,0.0</coordinates></LinearRing></outerBoundaryIs></Polygon><styleUrl>#spolygon-map</styleUrl></Placemark><Placemark><Polygon><outerBoundaryIs><LinearRing><coordinates>120.297806,22.577586,0.0 120.297651,22.577558,0.0 120.297042,22.576382,0.0 120.29672,22.576147,0.0 120.296236,22.575817,0.0 120.297193,22.57461,0.0 120.297456,22.574282,0.0 120.297913,22.573735,0.0 120.298356,22.573207,0.0 120.298936,22.572532,0.0 120.299455,22.572712,0.0 120.299811,22.5729,0.0 120.29999,22.572973,0.0 120.300242,22.573185,0.0 120.300809,22.573309,0.0 120.301234,22.573885,0.0 120.301165,22.574227,0.0 120.300629,22.573893,0.0 120.300365,22.573684,0.0 120.299777,22.573501,0.0 120.299241,22.574079,0.0 120.299855,22.574393,0.0 120.299543,22.574891,0.0 120.299919,22.575204,0.0 120.300059,22.575492,0.0 120.29956,22.575406,0.0 120.299569,22.576033,0.0 120.299094,22.57586,0.0 120.298416,22.575697,0.0 120.297885,22.575561,0.0 120.298829,22.57701,0.0 120.298724,22.577044,0.0 120.298256,22.577159,0.0 120.298128,22.577296,0.0 120.297806,22.577586,0.0</coordinates></LinearRing></outerBoundaryIs></Polygon><styleUrl>#spolygon-map</styleUrl></Placemark><Placemark><Polygon><outerBoundaryIs><LinearRing><coordinates>120.301243,22.573544,0.0 120.300606,22.573274,0.0 120.300218,22.573115,0.0 120.299935,22.57295,0.0 120.299602,22.572769,0.0 120.299105,22.572638,0.0 120.300057,22.571266,0.0 120.301811,22.570894,0.0 120.302095,22.571479,0.0 120.30204,22.571461,0.0 120.301834,22.571839,0.0 120.301274,22.5726,0.0 120.3015,22.573276,0.0 120.301446,22.573484,0.0 120.301243,22.573544,0.0</coordinates></LinearRing></outerBoundaryIs></Polygon><styleUrl>#spolygon-map</styleUrl></Placemark><Placemark><Polygon><outerBoundaryIs><LinearRing><coordinates>120.295999,22.576151,0.0 120.295149,22.57723,0.0 120.295106,22.577034,0.0 120.294277,22.576252,0.0 120.293619,22.575746,0.0 120.294096,22.57549,0.0 120.294904,22.574388,0.0 120.295699,22.573553,0.0 120.295907,22.572931,0.0 120.296185,22.57298,0.0 120.297166,22.571722,0.0 120.297013,22.571462,0.0 120.297436,22.571595,0.0 120.298385,22.570567,0.0 120.298317,22.570108,0.0 120.2986,22.570168,0.0 120.29963,22.569112,0.0 120.299473,22.568542,0.0 120.300163,22.568552,0.0 120.300868,22.567378,0.0 120.300912,22.56727,0.0 120.302018,22.566281,0.0 120.302076,22.565537,0.0 120.302096,22.565227,0.0 120.303161,22.564681,0.0 120.303541,22.563915,0.0 120.303764,22.562528,0.0 120.307131,22.557306,0.0 120.308021,22.558009,0.0 120.308577,22.55804,0.0 120.31005,22.557012,0.0 120.312343,22.554439,0.0 120.314695,22.553363,0.0 120.315699,22.553378,0.0 120.316621,22.554242,0.0 120.317518,22.555369,0.0 120.308435,22.566029,0.0 120.306787,22.567955,0.0 120.302352,22.573183,0.0 120.303084,22.571271,0.0 120.302666,22.571046,0.0 120.301877,22.570738,0.0 120.300178,22.57112,0.0 120.298947,22.572539,0.0 120.298727,22.57277,0.0 120.297941,22.573699,0.0 120.297469,22.574265,0.0 120.297216,22.574581,0.0 120.296485,22.575496,0.0 120.295999,22.576151,0.0</coordinates></LinearRing></outerBoundaryIs></Polygon><styleUrl>#spolygon-map</styleUrl></Placemark></Document>
</kml>
