<?xml version="1.0" encoding="UTF-8"?>
<kml xmlns="http://www.opengis.net/kml/2.2">
	<Document>
		<name>南投縣鹿谷鄉</name>
		<Style id="spolygon">
			<LabelStyle>
				<scale>0.0</scale>
			</LabelStyle>
			<LineStyle>
				<color>330030ff</color>
				<width>0</width>
			</LineStyle>
			<PolyStyle>
				<color>330030ff</color>
			</PolyStyle>
		</Style>
		<StyleMap id="spolygon-map">
			<Pair>
				<key>normal</key>
				<styleUrl>#spolygon</styleUrl>
			</Pair>
		</StyleMap>
	<Placemark><Polygon><outerBoundaryIs><LinearRing><coordinates>120.761514,23.73201,0.0 120.76153,23.731046,0.0 120.762793,23.730984,0.0 120.764223,23.729771,0.0 120.765815,23.728726,0.0 120.766102,23.727948,0.0 120.76945,23.729896,0.0 120.772877,23.731091,0.0 120.775495,23.731258,0.0 120.77968,23.735903,0.0 120.776116,23.741045,0.0 120.771563,23.743142,0.0 120.766022,23.740709,0.0 120.761214,23.739176,0.0 120.759834,23.736,0.0 120.761504,23.73321,0.0 120.761514,23.73201,0.0</coordinates></LinearRing></outerBoundaryIs></Polygon><styleUrl>#spolygon-map</styleUrl></Placemark><Placemark><Polygon><outerBoundaryIs><LinearRing><coordinates>120.766838,23.727279,0.0 120.767066,23.727089,0.0 120.767213,23.726931,0.0 120.767361,23.726776,0.0 120.767458,23.726604,0.0 120.767538,23.726428,0.0 120.767604,23.726232,0.0 120.767672,23.726013,0.0 120.767723,23.725806,0.0 120.767765,23.725632,0.0 120.767812,23.725496,0.0 120.767935,23.725323,0.0 120.768081,23.725151,0.0 120.768208,23.725009,0.0 120.768353,23.724876,0.0 120.768581,23.72478,0.0 120.768772,23.724751,0.0 120.768994,23.724737,0.0 120.769205,23.724731,0.0 120.769405,23.724736,0.0 120.769575,23.724662,0.0 120.769742,23.72452,0.0 120.769894,23.724204,0.0 120.769914,23.72403,0.0 120.769898,23.723714,0.0 120.770606,23.723133,0.0 120.771528,23.723055,0.0 120.772717,23.721713,0.0 120.773587,23.720721,0.0 120.773803,23.719338,0.0 120.774293,23.71816,0.0 120.775417,23.716936,0.0 120.776163,23.716138,0.0 120.77513,23.714428,0.0 120.775542,23.712954,0.0 120.777161,23.712202,0.0 120.778853,23.712273,0.0 120.779471,23.710262,0.0 120.780321,23.709096,0.0 120.779883,23.707357,0.0 120.780075,23.705301,0.0 120.779085,23.702586,0.0 120.77902,23.699965,0.0 120.78045,23.698647,0.0 120.781097,23.697246,0.0 120.782351,23.696464,0.0 120.783685,23.696617,0.0 120.784511,23.695214,0.0 120.783789,23.69389,0.0 120.783556,23.692639,0.0 120.784749,23.690966,0.0 120.786032,23.689268,0.0 120.787771,23.689622,0.0 120.789099,23.687969,0.0 120.789235,23.686821,0.0 120.789836,23.686598,0.0 120.790256,23.686147,0.0 120.791357,23.685458,0.0 120.792703,23.683398,0.0 120.791836,23.681754,0.0 120.791447,23.680604,0.0 120.790211,23.679593,0.0 120.789306,23.679193,0.0 120.787741,23.677366,0.0 120.787815,23.678202,0.0 120.787682,23.678366,0.0 120.787267,23.677928,0.0 120.78727,23.678364,0.0 120.786986,23.678551,0.0 120.786877,23.678076,0.0 120.786716,23.67799,0.0 120.786484,23.675633,0.0 120.78621,23.675193,0.0 120.786208,23.675922,0.0 120.785551,23.676386,0.0 120.784382,23.675833,0.0 120.783433,23.674672,0.0 120.781701,23.674419,0.0 120.780602,23.673379,0.0 120.780846,23.67414,0.0 120.781209,23.675551,0.0 120.78097,23.675707,0.0 120.778657,23.676771,0.0 120.778111,23.676994,0.0 120.778384,23.675988,0.0 120.778425,23.675597,0.0 120.778787,23.6753,0.0 120.777125,23.675503,0.0 120.776603,23.675452,0.0 120.776809,23.675132,0.0 120.776577,23.674931,0.0 120.776815,23.674647,0.0 120.776041,23.674086,0.0 120.775557,23.673252,0.0 120.775058,23.672303,0.0 120.774896,23.671784,0.0 120.774442,23.672541,0.0 120.774872,23.673253,0.0 120.774519,23.673749,0.0 120.773464,23.673989,0.0 120.772355,23.673493,0.0 120.770285,23.672892,0.0 120.768449,23.672582,0.0 120.768926,23.671992,0.0 120.769112,23.671342,0.0 120.768921,23.670425,0.0 120.768714,23.66982,0.0 120.768512,23.669185,0.0 120.768816,23.668142,0.0 120.769284,23.667296,0.0 120.769504,23.666617,0.0 120.76941,23.665141,0.0 120.769297,23.66382,0.0 120.769945,23.66176,0.0 120.770115,23.660699,0.0 120.770672,23.659612,0.0 120.771745,23.659291,0.0 120.772709,23.659112,0.0 120.774366,23.658615,0.0 120.775213,23.658388,0.0 120.776121,23.658259,0.0 120.776973,23.657917,0.0 120.777587,23.657313,0.0 120.778355,23.656519,0.0 120.779583,23.655367,0.0 120.780269,23.654962,0.0 120.782383,23.655236,0.0 120.78322,23.655406,0.0 120.784781,23.655142,0.0 120.786126,23.65565,0.0 120.787422,23.656073,0.0 120.790386,23.654818,0.0 120.79132,23.654313,0.0 120.793766,23.652515,0.0 120.796493,23.651096,0.0 120.799919,23.649345,0.0 120.801189,23.649071,0.0 120.803327,23.649302,0.0 120.805767,23.650734,0.0 120.80647,23.65238,0.0 120.808113,23.653834,0.0 120.808645,23.655553,0.0 120.808686,23.657329,0.0 120.808303,23.659035,0.0 120.808335,23.661241,0.0 120.808261,23.663593,0.0 120.808362,23.665812,0.0 120.808659,23.66863,0.0 120.808192,23.670986,0.0 120.80824,23.672314,0.0 120.808682,23.673696,0.0 120.808217,23.67479,0.0 120.809023,23.676979,0.0 120.80933,23.678055,0.0 120.806088,23.694839,0.0 120.802598,23.704214,0.0 120.801861,23.71111,0.0 120.802419,23.716296,0.0 120.795545,23.717305,0.0 120.792251,23.721791,0.0 120.788851,23.724615,0.0 120.78651,23.725896,0.0 120.774936,23.731641,0.0 120.772098,23.73076,0.0 120.76694,23.72738,0.0 120.766838,23.727279,0.0</coordinates></LinearRing></outerBoundaryIs></Polygon><styleUrl>#spolygon-map</styleUrl></Placemark><Placemark><Polygon><outerBoundaryIs><LinearRing><coordinates>120.815859,23.773553,0.0 120.811484,23.768314,0.0 120.805313,23.76876,0.0 120.799949,23.765686,0.0 120.790288,23.762276,0.0 120.790061,23.76273,0.0 120.789134,23.764031,0.0 120.783726,23.762826,0.0 120.778745,23.760347,0.0 120.774048,23.760869,0.0 120.771875,23.760134,0.0 120.771912,23.759197,0.0 120.771425,23.758339,0.0 120.770822,23.757981,0.0 120.7707,23.756653,0.0 120.770798,23.755956,0.0 120.771018,23.754933,0.0 120.770177,23.754052,0.0 120.77051,23.751915,0.0 120.775587,23.747904,0.0 120.780197,23.745741,0.0 120.780298,23.745911,0.0 120.780396,23.746067,0.0 120.780567,23.746151,0.0 120.780769,23.746185,0.0 120.780983,23.746192,0.0 120.78118,23.746142,0.0 120.781358,23.746012,0.0 120.78151,23.745971,0.0 120.781645,23.746116,0.0 120.781787,23.746222,0.0 120.781996,23.746218,0.0 120.782215,23.746209,0.0 120.78242,23.746187,0.0 120.78262,23.746147,0.0 120.782818,23.746081,0.0 120.782965,23.745948,0.0 120.783128,23.745937,0.0 120.783343,23.745985,0.0 120.783535,23.745976,0.0 120.783664,23.745798,0.0 120.783765,23.745627,0.0 120.783798,23.745467,0.0 120.783879,23.745419,0.0 120.784015,23.745467,0.0 120.784194,23.74556,0.0 120.784403,23.745585,0.0 120.784582,23.745488,0.0 120.784746,23.745344,0.0 120.7849,23.745199,0.0 120.785039,23.745044,0.0 120.785441,23.744697,0.0 120.78578,23.743855,0.0 120.787125,23.743439,0.0 120.795215,23.743684,0.0 120.806028,23.743469,0.0 120.830175,23.744401,0.0 120.830213,23.745233,0.0 120.830156,23.746732,0.0 120.829976,23.747912,0.0 120.830342,23.748534,0.0 120.830544,23.748885,0.0 120.830865,23.749361,0.0 120.831183,23.749897,0.0 120.831389,23.75021,0.0 120.831907,23.750483,0.0 120.83245,23.750671,0.0 120.832978,23.750939,0.0 120.833522,23.751644,0.0 120.83393,23.752154,0.0 120.83424,23.752712,0.0 120.834384,23.75304,0.0 120.834593,23.753469,0.0 120.834698,23.753671,0.0 120.834683,23.753868,0.0 120.834395,23.754008,0.0 120.834277,23.754251,0.0 120.83428,23.754739,0.0 120.834248,23.754969,0.0 120.834229,23.755247,0.0 120.834204,23.755418,0.0 120.834227,23.755549,0.0 120.834219,23.755812,0.0 120.834195,23.756032,0.0 120.834178,23.75629,0.0 120.834116,23.756545,0.0 120.834113,23.756766,0.0 120.834127,23.756911,0.0 120.834141,23.757053,0.0 120.834095,23.757256,0.0 120.83374,23.757504,0.0 120.83314,23.757564,0.0 120.832725,23.757918,0.0 120.832547,23.758365,0.0 120.832474,23.758751,0.0 120.832526,23.759105,0.0 120.832705,23.759622,0.0 120.832772,23.759995,0.0 120.832745,23.760563,0.0 120.832738,23.761126,0.0 120.832777,23.761767,0.0 120.832857,23.762176,0.0 120.832886,23.762628,0.0 120.832697,23.762918,0.0 120.832541,23.763061,0.0 120.832101,23.763297,0.0 120.831405,23.763689,0.0 120.830791,23.764111,0.0 120.829996,23.764528,0.0 120.829296,23.764595,0.0 120.828531,23.764503,0.0 120.827153,23.764705,0.0 120.82623,23.76497,0.0 120.825702,23.765317,0.0 120.82491,23.76605,0.0 120.824347,23.767063,0.0 120.823896,23.768013,0.0 120.8238,23.768747,0.0 120.823201,23.769647,0.0 120.822634,23.770106,0.0 120.82225,23.770228,0.0 120.821439,23.770428,0.0 120.820883,23.770518,0.0 120.820079,23.770616,0.0 120.819457,23.770737,0.0 120.819184,23.770895,0.0 120.818756,23.771068,0.0 120.818362,23.771034,0.0 120.817547,23.771274,0.0 120.817134,23.771519,0.0 120.816513,23.77205,0.0 120.815778,23.772724,0.0 120.815667,23.773015,0.0 120.815854,23.773517,0.0 120.815859,23.773553,0.0</coordinates></LinearRing></outerBoundaryIs></Polygon><styleUrl>#spolygon-map</styleUrl></Placemark><Placemark><Polygon><outerBoundaryIs><LinearRing><coordinates>120.756923,23.731719,0.0 120.753722,23.727538,0.0 120.752342,23.724147,0.0 120.755467,23.719217,0.0 120.755082,23.71181,0.0 120.745052,23.709394,0.0 120.735624,23.7066,0.0 120.735157,23.706102,0.0 120.735178,23.705256,0.0 120.734971,23.704526,0.0 120.73431,23.703647,0.0 120.733772,23.703294,0.0 120.73326,23.70302,0.0 120.732494,23.70261,0.0 120.732147,23.702129,0.0 120.731592,23.701536,0.0 120.731391,23.701186,0.0 120.731197,23.700596,0.0 120.731547,23.7003,0.0 120.73219,23.699938,0.0 120.732709,23.699272,0.0 120.732725,23.698766,0.0 120.732816,23.698586,0.0 120.733219,23.698552,0.0 120.733579,23.698345,0.0 120.734089,23.698016,0.0 120.734849,23.697171,0.0 120.735096,23.69658,0.0 120.735761,23.696008,0.0 120.736456,23.696009,0.0 120.736878,23.695707,0.0 120.737459,23.694846,0.0 120.738193,23.693798,0.0 120.73865,23.692986,0.0 120.73891,23.692187,0.0 120.739101,23.691383,0.0 120.739675,23.690969,0.0 120.740846,23.690303,0.0 120.742044,23.689381,0.0 120.743567,23.689016,0.0 120.744506,23.688453,0.0 120.745714,23.687304,0.0 120.747342,23.685921,0.0 120.748752,23.68504,0.0 120.750698,23.683804,0.0 120.751763,23.683146,0.0 120.752554,23.682721,0.0 120.753229,23.682392,0.0 120.754468,23.68174,0.0 120.755459,23.681335,0.0 120.756176,23.681169,0.0 120.757093,23.680727,0.0 120.757389,23.68029,0.0 120.757886,23.679138,0.0 120.758763,23.679002,0.0 120.760724,23.679043,0.0 120.761491,23.679197,0.0 120.762355,23.679183,0.0 120.762658,23.678874,0.0 120.767981,23.683912,0.0 120.767893,23.691876,0.0 120.766478,23.700315,0.0 120.76731,23.705693,0.0 120.764736,23.711778,0.0 120.775752,23.715851,0.0 120.775951,23.716424,0.0 120.774834,23.717818,0.0 120.77395,23.718693,0.0 120.773455,23.719976,0.0 120.773426,23.721392,0.0 120.772123,23.722388,0.0 120.771013,23.723201,0.0 120.770023,23.723308,0.0 120.769917,23.723971,0.0 120.769902,23.724136,0.0 120.769876,23.724308,0.0 120.769659,23.724592,0.0 120.769494,23.724709,0.0 120.769322,23.724736,0.0 120.769105,23.724731,0.0 120.768883,23.724744,0.0 120.768693,23.72476,0.0 120.76847,23.724809,0.0 120.768276,23.724949,0.0 120.768155,23.72507,0.0 120.768007,23.725235,0.0 120.767874,23.725411,0.0 120.767788,23.725539,0.0 120.76774,23.725736,0.0 120.767697,23.725909,0.0 120.767637,23.726135,0.0 120.767571,23.726331,0.0 120.767508,23.72651,0.0 120.767409,23.726699,0.0 120.767287,23.726852,0.0 120.767139,23.72701,0.0 120.76701,23.727143,0.0 120.766102,23.727948,0.0 120.765815,23.728726,0.0 120.764223,23.729771,0.0 120.762793,23.730984,0.0 120.76153,23.731046,0.0 120.761514,23.73201,0.0 120.756923,23.731719,0.0</coordinates></LinearRing></outerBoundaryIs></Polygon><styleUrl>#spolygon-map</styleUrl></Placemark><Placemark><Polygon><outerBoundaryIs><LinearRing><coordinates>120.739937,23.746178,0.0 120.739034,23.745515,0.0 120.737427,23.745248,0.0 120.737544,23.74423,0.0 120.736698,23.744199,0.0 120.735814,23.744281,0.0 120.735017,23.743278,0.0 120.734853,23.742302,0.0 120.733698,23.742894,0.0 120.733001,23.742942,0.0 120.73206,23.742476,0.0 120.731423,23.742113,0.0 120.730955,23.741688,0.0 120.730077,23.741806,0.0 120.729621,23.741652,0.0 120.729083,23.741229,0.0 120.728788,23.740653,0.0 120.728186,23.739821,0.0 120.728216,23.739365,0.0 120.729103,23.739136,0.0 120.730258,23.739244,0.0 120.731302,23.73954,0.0 120.731956,23.739669,0.0 120.731897,23.738687,0.0 120.730978,23.737539,0.0 120.730661,23.736902,0.0 120.731753,23.736344,0.0 120.733023,23.736263,0.0 120.733925,23.735962,0.0 120.7351,23.734374,0.0 120.735536,23.733472,0.0 120.735483,23.731982,0.0 120.735123,23.731176,0.0 120.734651,23.73008,0.0 120.73347,23.729107,0.0 120.733395,23.728066,0.0 120.734401,23.727179,0.0 120.73527,23.726408,0.0 120.736148,23.726477,0.0 120.736544,23.725674,0.0 120.736238,23.724997,0.0 120.735257,23.724045,0.0 120.735365,23.723528,0.0 120.735953,23.723023,0.0 120.735314,23.722295,0.0 120.735206,23.721451,0.0 120.735273,23.72078,0.0 120.735417,23.720455,0.0 120.735066,23.720024,0.0 120.734803,23.719518,0.0 120.734518,23.719007,0.0 120.734036,23.718643,0.0 120.733853,23.717848,0.0 120.734215,23.716582,0.0 120.733264,23.715695,0.0 120.732911,23.714821,0.0 120.733042,23.714153,0.0 120.733136,23.713706,0.0 120.73385,23.713479,0.0 120.734272,23.713128,0.0 120.734562,23.712695,0.0 120.734894,23.712207,0.0 120.735056,23.71175,0.0 120.735279,23.711493,0.0 120.735812,23.710824,0.0 120.736295,23.710255,0.0 120.736642,23.709213,0.0 120.736146,23.70812,0.0 120.735983,23.707605,0.0 120.735572,23.706999,0.0 120.742555,23.708056,0.0 120.749651,23.710068,0.0 120.756775,23.7167,0.0 120.753434,23.721013,0.0 120.752748,23.725737,0.0 120.754983,23.729477,0.0 120.755983,23.732018,0.0 120.754821,23.732648,0.0 120.754854,23.735448,0.0 120.753821,23.735726,0.0 120.75298,23.736452,0.0 120.751328,23.737275,0.0 120.750762,23.737615,0.0 120.750193,23.73793,0.0 120.750029,23.737995,0.0 120.749874,23.738049,0.0 120.749701,23.738069,0.0 120.749556,23.738069,0.0 120.749423,23.738069,0.0 120.749259,23.7381,0.0 120.749105,23.738127,0.0 120.748963,23.738156,0.0 120.748813,23.738179,0.0 120.747883,23.738421,0.0 120.74588,23.738607,0.0 120.745723,23.7386,0.0 120.745545,23.738501,0.0 120.745388,23.738451,0.0 120.745186,23.738511,0.0 120.745025,23.738574,0.0 120.744883,23.738707,0.0 120.744779,23.738829,0.0 120.744676,23.738978,0.0 120.74455,23.739106,0.0 120.744429,23.739187,0.0 120.744338,23.739284,0.0 120.744322,23.739444,0.0 120.74433,23.739623,0.0 120.744306,23.739767,0.0 120.744236,23.739882,0.0 120.744139,23.739954,0.0 120.744028,23.740065,0.0 120.743925,23.740193,0.0 120.743845,23.740344,0.0 120.743759,23.740468,0.0 120.74364,23.740613,0.0 120.743538,23.740739,0.0 120.743467,23.740865,0.0 120.74339,23.741023,0.0 120.743362,23.741186,0.0 120.743343,23.741332,0.0 120.743295,23.741495,0.0 120.743197,23.741666,0.0 120.74306,23.741788,0.0 120.742959,23.74183,0.0 120.742772,23.741826,0.0 120.742628,23.741785,0.0 120.742452,23.741755,0.0 120.742317,23.741825,0.0 120.742201,23.741938,0.0 120.742142,23.7421,0.0 120.742099,23.742267,0.0 120.741976,23.742524,0.0 120.741891,23.742689,0.0 120.741769,23.742795,0.0 120.741561,23.742921,0.0 120.741409,23.74304,0.0 120.741321,23.743365,0.0 120.741199,23.74355,0.0 120.741103,23.743706,0.0 120.741023,23.743827,0.0 120.740977,23.743951,0.0 120.740913,23.744195,0.0 120.740885,23.744367,0.0 120.740858,23.744525,0.0 120.740834,23.74468,0.0 120.740852,23.744886,0.0 120.7409,23.745044,0.0 120.740959,23.745159,0.0 120.741057,23.745272,0.0 120.74113,23.745428,0.0 120.741118,23.745548,0.0 120.741087,23.745701,0.0 120.741121,23.745871,0.0 120.74103,23.746049,0.0 120.740901,23.746132,0.0 120.740783,23.746213,0.0 120.740647,23.746285,0.0 120.740507,23.746321,0.0 120.740321,23.746282,0.0 120.740159,23.746217,0.0 120.739937,23.746178,0.0</coordinates></LinearRing></outerBoundaryIs></Polygon><styleUrl>#spolygon-map</styleUrl></Placemark><Placemark><Polygon><outerBoundaryIs><LinearRing><coordinates>120.759436,23.802195,0.0 120.759346,23.801519,0.0 120.759978,23.801274,0.0 120.760393,23.800428,0.0 120.760107,23.799193,0.0 120.760105,23.798683,0.0 120.759444,23.798162,0.0 120.758772,23.797606,0.0 120.758206,23.796986,0.0 120.757482,23.795979,0.0 120.757513,23.795198,0.0 120.756648,23.793611,0.0 120.754886,23.793107,0.0 120.753726,23.792252,0.0 120.753321,23.791611,0.0 120.754038,23.789731,0.0 120.751538,23.783169,0.0 120.758113,23.777751,0.0 120.770425,23.770555,0.0 120.773101,23.763418,0.0 120.775743,23.761038,0.0 120.780005,23.760223,0.0 120.788656,23.7645,0.0 120.789784,23.763509,0.0 120.790141,23.762512,0.0 120.79012,23.761654,0.0 120.801738,23.765916,0.0 120.806731,23.769329,0.0 120.813269,23.771211,0.0 120.802851,23.776798,0.0 120.791994,23.780421,0.0 120.78093,23.781051,0.0 120.780133,23.781479,0.0 120.779895,23.781871,0.0 120.779595,23.782352,0.0 120.779586,23.782589,0.0 120.779823,23.78286,0.0 120.780239,23.783202,0.0 120.780714,23.783654,0.0 120.780946,23.783972,0.0 120.781089,23.784327,0.0 120.780972,23.784887,0.0 120.780702,23.785252,0.0 120.780455,23.785744,0.0 120.7803,23.785996,0.0 120.780233,23.786227,0.0 120.779984,23.786373,0.0 120.7796,23.786341,0.0 120.779146,23.78637,0.0 120.777876,23.786621,0.0 120.777933,23.788336,0.0 120.775542,23.792328,0.0 120.769852,23.799718,0.0 120.761123,23.80214,0.0 120.759436,23.802195,0.0</coordinates></LinearRing></outerBoundaryIs></Polygon><styleUrl>#spolygon-map</styleUrl></Placemark><Placemark><Polygon><outerBoundaryIs><LinearRing><coordinates>120.762645,23.678809,0.0 120.762652,23.678399,0.0 120.762482,23.677375,0.0 120.763193,23.676371,0.0 120.764052,23.67569,0.0 120.76436,23.675159,0.0 120.764423,23.674322,0.0 120.764546,23.673841,0.0 120.765719,23.673632,0.0 120.766552,23.67318,0.0 120.767557,23.673044,0.0 120.768334,23.672729,0.0 120.770667,23.672965,0.0 120.772908,23.673851,0.0 120.773768,23.673931,0.0 120.774818,23.67338,0.0 120.774798,23.672939,0.0 120.774335,23.672397,0.0 120.775043,23.671748,0.0 120.77513,23.672542,0.0 120.775564,23.673688,0.0 120.776165,23.6743,0.0 120.776785,23.674775,0.0 120.776573,23.674976,0.0 120.776638,23.675308,0.0 120.77683,23.675681,0.0 120.777635,23.675307,0.0 120.778865,23.675415,0.0 120.778326,23.675717,0.0 120.778437,23.676313,0.0 120.778157,23.677037,0.0 120.77972,23.676157,0.0 120.781117,23.675687,0.0 120.78109,23.674955,0.0 120.780459,23.673665,0.0 120.780871,23.673458,0.0 120.781877,23.674527,0.0 120.783771,23.674844,0.0 120.784752,23.676173,0.0 120.785742,23.67635,0.0 120.786292,23.675549,0.0 120.78623,23.675093,0.0 120.786571,23.676579,0.0 120.786789,23.678223,0.0 120.786946,23.67809,0.0 120.787081,23.678573,0.0 120.787266,23.678131,0.0 120.787492,23.677964,0.0 120.787745,23.678367,0.0 120.787786,23.677908,0.0 120.788235,23.677934,0.0 120.790001,23.679408,0.0 120.790493,23.680174,0.0 120.79183,23.680943,0.0 120.792222,23.682276,0.0 120.792563,23.683942,0.0 120.790898,23.685545,0.0 120.790105,23.686458,0.0 120.789627,23.686564,0.0 120.788953,23.687039,0.0 120.788533,23.689066,0.0 120.787529,23.689613,0.0 120.785772,23.689263,0.0 120.784009,23.691805,0.0 120.783571,23.693188,0.0 120.78429,23.69434,0.0 120.784342,23.695828,0.0 120.783326,23.696772,0.0 120.782058,23.696461,0.0 120.781046,23.697367,0.0 120.780057,23.698989,0.0 120.778988,23.700139,0.0 120.779858,23.704023,0.0 120.77994,23.705881,0.0 120.779898,23.708059,0.0 120.780232,23.709618,0.0 120.77928,23.710598,0.0 120.778556,23.712324,0.0 120.775984,23.712381,0.0 120.775373,23.713748,0.0 120.775859,23.71537,0.0 120.768412,23.713745,0.0 120.764389,23.709743,0.0 120.767947,23.703218,0.0 120.765463,23.698209,0.0 120.768832,23.686624,0.0 120.763018,23.679078,0.0 120.762645,23.678809,0.0</coordinates></LinearRing></outerBoundaryIs></Polygon><styleUrl>#spolygon-map</styleUrl></Placemark><Placemark><Polygon><outerBoundaryIs><LinearRing><coordinates>120.753256,23.79081,0.0 120.752778,23.790276,0.0 120.751436,23.78977,0.0 120.750555,23.789714,0.0 120.749619,23.789957,0.0 120.748214,23.789498,0.0 120.747592,23.789236,0.0 120.74669,23.789112,0.0 120.745615,23.789097,0.0 120.745033,23.788753,0.0 120.744471,23.788248,0.0 120.744098,23.787297,0.0 120.743544,23.786759,0.0 120.742313,23.786344,0.0 120.741573,23.78625,0.0 120.741871,23.784973,0.0 120.741087,23.784464,0.0 120.739747,23.784407,0.0 120.738816,23.784528,0.0 120.73757,23.784478,0.0 120.736167,23.784069,0.0 120.735453,23.784289,0.0 120.734385,23.784057,0.0 120.733482,23.783959,0.0 120.732607,23.783666,0.0 120.731758,23.783172,0.0 120.731547,23.78196,0.0 120.731827,23.780716,0.0 120.731237,23.780031,0.0 120.730802,23.779193,0.0 120.729446,23.779006,0.0 120.728327,23.77955,0.0 120.727088,23.779388,0.0 120.72567,23.779236,0.0 120.724355,23.778915,0.0 120.722858,23.778617,0.0 120.721674,23.778938,0.0 120.72077,23.77904,0.0 120.720083,23.777725,0.0 120.720136,23.77603,0.0 120.719091,23.774872,0.0 120.717068,23.774575,0.0 120.71635,23.773901,0.0 120.715101,23.77372,0.0 120.713924,23.773296,0.0 120.713695,23.772006,0.0 120.714054,23.771007,0.0 120.716286,23.768494,0.0 120.718847,23.767004,0.0 120.719748,23.766701,0.0 120.720982,23.765997,0.0 120.722053,23.764913,0.0 120.723896,23.762972,0.0 120.724338,23.76112,0.0 120.725141,23.759713,0.0 120.726872,23.759429,0.0 120.728256,23.760195,0.0 120.729424,23.761184,0.0 120.730431,23.760686,0.0 120.730016,23.759471,0.0 120.731111,23.758468,0.0 120.731702,23.757422,0.0 120.732569,23.756556,0.0 120.733564,23.756429,0.0 120.735571,23.756817,0.0 120.736394,23.755427,0.0 120.737763,23.754793,0.0 120.739181,23.754586,0.0 120.743373,23.757577,0.0 120.754806,23.763176,0.0 120.761347,23.761486,0.0 120.767763,23.76095,0.0 120.771617,23.760578,0.0 120.772168,23.767413,0.0 120.766076,23.774704,0.0 120.751891,23.781843,0.0 120.753477,23.786868,0.0 120.753256,23.79081,0.0</coordinates></LinearRing></outerBoundaryIs></Polygon><styleUrl>#spolygon-map</styleUrl></Placemark><Placemark><Polygon><outerBoundaryIs><LinearRing><coordinates>120.774343,23.817508,0.0 120.773923,23.817063,0.0 120.773072,23.816396,0.0 120.772233,23.815982,0.0 120.77149,23.81594,0.0 120.77059,23.815774,0.0 120.769625,23.815734,0.0 120.768717,23.815608,0.0 120.76733,23.815638,0.0 120.766304,23.815889,0.0 120.765318,23.816384,0.0 120.764386,23.816877,0.0 120.763752,23.816612,0.0 120.763428,23.815679,0.0 120.763265,23.815085,0.0 120.763292,23.814575,0.0 120.763176,23.814006,0.0 120.762931,23.813642,0.0 120.76271,23.812933,0.0 120.762475,23.81247,0.0 120.762348,23.812041,0.0 120.761388,23.810881,0.0 120.761037,23.809922,0.0 120.760541,23.809076,0.0 120.759907,23.80787,0.0 120.758844,23.806767,0.0 120.758079,23.806788,0.0 120.757566,23.806243,0.0 120.756216,23.805544,0.0 120.756427,23.804424,0.0 120.757112,23.803725,0.0 120.758312,23.803459,0.0 120.758941,23.803184,0.0 120.759668,23.802193,0.0 120.769142,23.799956,0.0 120.775138,23.794145,0.0 120.777843,23.788474,0.0 120.777667,23.786785,0.0 120.77901,23.786378,0.0 120.779591,23.786341,0.0 120.779914,23.786377,0.0 120.780205,23.786267,0.0 120.780276,23.786053,0.0 120.780414,23.785818,0.0 120.780696,23.785261,0.0 120.780934,23.784957,0.0 120.781096,23.784406,0.0 120.780984,23.784033,0.0 120.780771,23.783722,0.0 120.780333,23.783276,0.0 120.779827,23.782865,0.0 120.779592,23.782598,0.0 120.779575,23.782413,0.0 120.779825,23.781966,0.0 120.780079,23.781569,0.0 120.780557,23.781148,0.0 120.788894,23.780132,0.0 120.801222,23.777866,0.0 120.814424,23.77295,0.0 120.815998,23.774266,0.0 120.81614,23.775503,0.0 120.81617,23.776702,0.0 120.816318,23.777786,0.0 120.815743,23.778607,0.0 120.815307,23.779378,0.0 120.815288,23.780153,0.0 120.814695,23.780788,0.0 120.805978,23.783609,0.0 120.802048,23.787057,0.0 120.80168,23.788114,0.0 120.801593,23.789068,0.0 120.801864,23.78987,0.0 120.800984,23.79123,0.0 120.799064,23.792095,0.0 120.79722,23.792476,0.0 120.796224,23.792635,0.0 120.795509,23.792677,0.0 120.795202,23.7926,0.0 120.793999,23.792128,0.0 120.793164,23.792622,0.0 120.792025,23.793054,0.0 120.791068,23.793567,0.0 120.790136,23.794202,0.0 120.789843,23.794491,0.0 120.789701,23.794547,0.0 120.789528,23.794581,0.0 120.789378,23.794646,0.0 120.789205,23.794761,0.0 120.78904,23.794847,0.0 120.788847,23.794903,0.0 120.788692,23.795024,0.0 120.788677,23.795196,0.0 120.78874,23.795336,0.0 120.788752,23.79542,0.0 120.78865,23.795566,0.0 120.788497,23.795677,0.0 120.788328,23.795771,0.0 120.788128,23.795832,0.0 120.78793,23.795843,0.0 120.787725,23.79584,0.0 120.787501,23.795811,0.0 120.787322,23.795824,0.0 120.787175,23.795914,0.0 120.787058,23.796042,0.0 120.786914,23.7962,0.0 120.786768,23.796358,0.0 120.786643,23.7965,0.0 120.786537,23.796626,0.0 120.786449,23.7968,0.0 120.786438,23.796974,0.0 120.786444,23.797148,0.0 120.786424,23.797317,0.0 120.786324,23.797439,0.0 120.786324,23.797811,0.0 120.786638,23.798024,0.0 120.786796,23.798146,0.0 120.786968,23.79825,0.0 120.787291,23.798497,0.0 120.787417,23.798614,0.0 120.787526,23.798752,0.0 120.78765,23.798926,0.0 120.787774,23.79912,0.0 120.787864,23.79929,0.0 120.787941,23.799441,0.0 120.788004,23.799613,0.0 120.788054,23.799809,0.0 120.788082,23.799979,0.0 120.788101,23.800173,0.0 120.788104,23.800344,0.0 120.788039,23.800527,0.0 120.787944,23.800705,0.0 120.787853,23.800847,0.0 120.787703,23.80101,0.0 120.787504,23.801127,0.0 120.787363,23.801201,0.0 120.787164,23.801289,0.0 120.786885,23.801352,0.0 120.786675,23.801415,0.0 120.78629,23.80148,0.0 120.786097,23.801427,0.0 120.785793,23.801395,0.0 120.785181,23.801392,0.0 120.785007,23.801381,0.0 120.784862,23.801392,0.0 120.784709,23.801423,0.0 120.784574,23.801466,0.0 120.784412,23.801493,0.0 120.784285,23.801517,0.0 120.784192,23.80156,0.0 120.784046,23.801662,0.0 120.783937,23.801756,0.0 120.783814,23.801892,0.0 120.783683,23.802013,0.0 120.783547,23.802133,0.0 120.783393,23.802248,0.0 120.783273,23.802363,0.0 120.783075,23.802674,0.0 120.782876,23.802929,0.0 120.782842,23.803084,0.0 120.782848,23.803211,0.0 120.782868,23.80338,0.0 120.782903,23.803586,0.0 120.782935,23.803744,0.0 120.782991,23.803938,0.0 120.783032,23.804123,0.0 120.783068,23.804324,0.0 120.78305,23.804543,0.0 120.783045,23.804683,0.0 120.783003,23.804843,0.0 120.782959,23.80501,0.0 120.782912,23.805175,0.0 120.782838,23.805321,0.0 120.782754,23.805497,0.0 120.782673,23.805655,0.0 120.782582,23.80582,0.0 120.782464,23.805973,0.0 120.782361,23.806088,0.0 120.782216,23.806221,0.0 120.782053,23.806361,0.0 120.781884,23.806496,0.0 120.78171,23.806627,0.0 120.781541,23.806744,0.0 120.781362,23.806857,0.0 120.781183,23.806972,0.0 120.781001,23.80708,0.0 120.780821,23.807183,0.0 120.780629,23.807287,0.0 120.780441,23.807379,0.0 120.780246,23.807469,0.0 120.780052,23.807564,0.0 120.779859,23.807658,0.0 120.779657,23.807735,0.0 120.77946,23.807793,0.0 120.779244,23.807838,0.0 120.779026,23.807876,0.0 120.778809,23.807916,0.0 120.7786,23.807959,0.0 120.778383,23.807999,0.0 120.778166,23.808037,0.0 120.777948,23.808071,0.0 120.777764,23.808109,0.0 120.777552,23.808158,0.0 120.77734,23.808208,0.0 120.777128,23.808255,0.0 120.776936,23.808302,0.0 120.776755,23.808365,0.0 120.776546,23.808439,0.0 120.776344,23.808527,0.0 120.776141,23.808617,0.0 120.775944,23.808707,0.0 120.775747,23.808797,0.0 120.77555,23.808887,0.0 120.775376,23.808968,0.0 120.775212,23.809058,0.0 120.775021,23.809161,0.0 120.774832,23.80927,0.0 120.774643,23.809378,0.0 120.774468,23.809479,0.0 120.774285,23.809592,0.0 120.773845,23.810155,0.0 120.774343,23.817508,0.0</coordinates></LinearRing></outerBoundaryIs></Polygon><styleUrl>#spolygon-map</styleUrl></Placemark><Placemark><Polygon><outerBoundaryIs><LinearRing><coordinates>120.772617,23.76058,0.0 120.768177,23.760817,0.0 120.762806,23.761507,0.0 120.756092,23.764501,0.0 120.744098,23.758088,0.0 120.739839,23.754133,0.0 120.740064,23.753437,0.0 120.740193,23.752801,0.0 120.740332,23.751743,0.0 120.740294,23.751154,0.0 120.740588,23.75047,0.0 120.7415,23.749932,0.0 120.742214,23.750204,0.0 120.7421,23.749621,0.0 120.741394,23.748964,0.0 120.740791,23.748288,0.0 120.740452,23.747614,0.0 120.740147,23.746952,0.0 120.739669,23.746733,0.0 120.740083,23.746187,0.0 120.740254,23.746255,0.0 120.740425,23.746319,0.0 120.740579,23.746308,0.0 120.740725,23.746251,0.0 120.740832,23.746175,0.0 120.741003,23.746073,0.0 120.741089,23.745972,0.0 120.741092,23.745773,0.0 120.74109,23.745627,0.0 120.741126,23.745485,0.0 120.747073,23.743844,0.0 120.755658,23.745195,0.0 120.7555,23.746031,0.0 120.757045,23.747003,0.0 120.758248,23.74844,0.0 120.758356,23.748619,0.0 120.758463,23.748793,0.0 120.758568,23.74896,0.0 120.758674,23.749129,0.0 120.758783,23.749303,0.0 120.758895,23.749473,0.0 120.758983,23.749629,0.0 120.759032,23.749832,0.0 120.759097,23.75015,0.0 120.759166,23.750351,0.0 120.759241,23.750525,0.0 120.759353,23.750659,0.0 120.759502,23.75077,0.0 120.759643,23.750935,0.0 120.759692,23.751095,0.0 120.759669,23.751275,0.0 120.75965,23.751467,0.0 120.759712,23.751632,0.0 120.759796,23.751811,0.0 120.7599,23.751978,0.0 120.760038,23.7521,0.0 120.760219,23.752175,0.0 120.760418,23.752232,0.0 120.760593,23.752297,0.0 120.760702,23.752395,0.0 120.760801,23.752557,0.0 120.760898,23.752677,0.0 120.761045,23.752774,0.0 120.761352,23.752818,0.0 120.761578,23.752818,0.0 120.761789,23.752818,0.0 120.761934,23.752893,0.0 120.761982,23.753029,0.0 120.761943,23.753168,0.0 120.761869,23.753347,0.0 120.761783,23.753538,0.0 120.761697,23.75373,0.0 120.761626,23.753906,0.0 120.761605,23.754082,0.0 120.761949,23.756604,0.0 120.767558,23.758502,0.0 120.772617,23.76058,0.0</coordinates></LinearRing></outerBoundaryIs></Polygon><styleUrl>#spolygon-map</styleUrl></Placemark><Placemark><Polygon><outerBoundaryIs><LinearRing><coordinates>120.78166,23.818255,0.0 120.78106,23.818292,0.0 120.78028,23.818225,0.0 120.779622,23.81813,0.0 120.778855,23.817992,0.0 120.77807,23.817865,0.0 120.776903,23.817806,0.0 120.77591,23.817861,0.0 120.775042,23.817841,0.0 120.774588,23.817692,0.0 120.774066,23.812609,0.0 120.774225,23.80963,0.0 120.774406,23.809515,0.0 120.774581,23.809414,0.0 120.774769,23.809306,0.0 120.774958,23.809197,0.0 120.775148,23.809092,0.0 120.775339,23.808988,0.0 120.775485,23.808916,0.0 120.775681,23.808826,0.0 120.775878,23.808736,0.0 120.776075,23.808646,0.0 120.776276,23.808558,0.0 120.776478,23.808468,0.0 120.776685,23.80839,0.0 120.776895,23.808315,0.0 120.777057,23.808273,0.0 120.777269,23.808223,0.0 120.777482,23.808176,0.0 120.777694,23.808125,0.0 120.777876,23.808084,0.0 120.778093,23.808048,0.0 120.778311,23.808013,0.0 120.778528,23.807972,0.0 120.778738,23.807932,0.0 120.778954,23.807889,0.0 120.779171,23.807851,0.0 120.779389,23.807811,0.0 120.779601,23.807753,0.0 120.779791,23.807683,0.0 120.779988,23.807595,0.0 120.780181,23.807501,0.0 120.780376,23.807411,0.0 120.780564,23.807318,0.0 120.780757,23.807217,0.0 120.78094,23.807116,0.0 120.781123,23.80701,0.0 120.781303,23.806895,0.0 120.781482,23.806782,0.0 120.781652,23.80667,0.0 120.781826,23.806539,0.0 120.781998,23.806408,0.0 120.782162,23.806269,0.0 120.782316,23.806136,0.0 120.782438,23.806003,0.0 120.782544,23.805872,0.0 120.782641,23.805716,0.0 120.782736,23.805536,0.0 120.78281,23.80538,0.0 120.782883,23.805229,0.0 120.782944,23.805058,0.0 120.782992,23.804879,0.0 120.783029,23.804748,0.0 120.78305,23.804586,0.0 120.783061,23.804408,0.0 120.783045,23.804191,0.0 120.783008,23.803999,0.0 120.782954,23.803809,0.0 120.782909,23.803633,0.0 120.782879,23.803446,0.0 120.782856,23.803274,0.0 120.782842,23.803118,0.0 120.782859,23.802965,0.0 120.782961,23.802825,0.0 120.78324,23.802414,0.0 120.78337,23.802268,0.0 120.783502,23.802169,0.0 120.783631,23.802058,0.0 120.783766,23.801941,0.0 120.783895,23.801808,0.0 120.783992,23.8017,0.0 120.784128,23.801603,0.0 120.784249,23.801526,0.0 120.784381,23.801497,0.0 120.784542,23.801473,0.0 120.784651,23.801446,0.0 120.784813,23.801399,0.0 120.784958,23.801378,0.0 120.785134,23.801388,0.0 120.785717,23.801395,0.0 120.785946,23.801396,0.0 120.786233,23.801473,0.0 120.786603,23.80143,0.0 120.786814,23.80137,0.0 120.787101,23.801309,0.0 120.787299,23.801239,0.0 120.787441,23.801154,0.0 120.787626,23.80105,0.0 120.787846,23.800856,0.0 120.787923,23.800739,0.0 120.788005,23.800586,0.0 120.788084,23.800414,0.0 120.788105,23.800236,0.0 120.788089,23.800042,0.0 120.788066,23.799875,0.0 120.788022,23.799676,0.0 120.787964,23.799486,0.0 120.787894,23.799351,0.0 120.787801,23.79917,0.0 120.78769,23.798985,0.0 120.787568,23.798809,0.0 120.78746,23.798662,0.0 120.787325,23.798526,0.0 120.787183,23.798404,0.0 120.786842,23.798175,0.0 120.786694,23.798067,0.0 120.786377,23.797848,0.0 120.786194,23.797687,0.0 120.786406,23.797353,0.0 120.786444,23.797213,0.0 120.786439,23.797026,0.0 120.786438,23.796866,0.0 120.786498,23.796681,0.0 120.786596,23.796554,0.0 120.786719,23.796412,0.0 120.786865,23.796254,0.0 120.78701,23.796094,0.0 120.787135,23.795957,0.0 120.787261,23.795846,0.0 120.78745,23.795804,0.0 120.78765,23.795831,0.0 120.787861,23.795845,0.0 120.788069,23.795838,0.0 120.788263,23.7958,0.0 120.788434,23.795717,0.0 120.788597,23.795607,0.0 120.788732,23.795483,0.0 120.788759,23.795359,0.0 120.788696,23.795257,0.0 120.788681,23.795074,0.0 120.788788,23.794927,0.0 120.788968,23.794867,0.0 120.789153,23.794795,0.0 120.789315,23.794687,0.0 120.789464,23.794608,0.0 120.789637,23.794558,0.0 120.789809,23.794511,0.0 120.789964,23.794394,0.0 120.790716,23.793786,0.0 120.791704,23.79313,0.0 120.792715,23.792876,0.0 120.793836,23.79218,0.0 120.794729,23.792269,0.0 120.79535,23.792625,0.0 120.795998,23.792684,0.0 120.796806,23.792568,0.0 120.79884,23.792153,0.0 120.800335,23.791557,0.0 120.801796,23.790473,0.0 120.801654,23.789233,0.0 120.801494,23.788436,0.0 120.802039,23.787513,0.0 120.804315,23.784381,0.0 120.812395,23.781388,0.0 120.815335,23.781117,0.0 120.815363,23.781965,0.0 120.815171,23.782816,0.0 120.81496,23.783807,0.0 120.814619,23.784881,0.0 120.814558,23.785452,0.0 120.814491,23.786477,0.0 120.814239,23.787459,0.0 120.813987,23.788163,0.0 120.813729,23.789063,0.0 120.813668,23.789758,0.0 120.813847,23.790307,0.0 120.813679,23.790948,0.0 120.813612,23.791842,0.0 120.813928,23.792343,0.0 120.814523,23.793299,0.0 120.814765,23.794234,0.0 120.814341,23.79464,0.0 120.812963,23.795049,0.0 120.813027,23.795828,0.0 120.813108,23.796593,0.0 120.812182,23.797301,0.0 120.811686,23.797948,0.0 120.811576,23.798783,0.0 120.810666,23.7992,0.0 120.810304,23.799725,0.0 120.810857,23.800541,0.0 120.811139,23.801444,0.0 120.811771,23.80412,0.0 120.812629,23.805173,0.0 120.812955,23.80597,0.0 120.814024,23.807051,0.0 120.815102,23.80786,0.0 120.81563,23.808561,0.0 120.817249,23.809098,0.0 120.817455,23.810051,0.0 120.817243,23.811028,0.0 120.816089,23.811281,0.0 120.815309,23.811296,0.0 120.814386,23.8113,0.0 120.813747,23.811434,0.0 120.813149,23.811876,0.0 120.812703,23.812751,0.0 120.812534,23.813467,0.0 120.812444,23.813923,0.0 120.812221,23.814559,0.0 120.81214,23.815169,0.0 120.812034,23.81583,0.0 120.811886,23.81657,0.0 120.811476,23.81763,0.0 120.810992,23.817546,0.0 120.81006,23.817132,0.0 120.809149,23.816707,0.0 120.808141,23.816421,0.0 120.80757,23.816165,0.0 120.806918,23.815909,0.0 120.806105,23.815827,0.0 120.805066,23.81579,0.0 120.804257,23.81577,0.0 120.803207,23.815762,0.0 120.802275,23.815748,0.0 120.801324,23.815622,0.0 120.800717,23.815551,0.0 120.799871,23.815508,0.0 120.79932,23.8155,0.0 120.798667,23.815556,0.0 120.797992,23.815617,0.0 120.797536,23.815656,0.0 120.796519,23.815796,0.0 120.795648,23.815913,0.0 120.795183,23.816007,0.0 120.794535,23.816067,0.0 120.794046,23.816125,0.0 120.793264,23.816181,0.0 120.792819,23.816189,0.0 120.792313,23.816245,0.0 120.791786,23.816305,0.0 120.791335,23.816363,0.0 120.790723,23.816437,0.0 120.79022,23.816518,0.0 120.789321,23.81667,0.0 120.788371,23.816867,0.0 120.787682,23.816981,0.0 120.786909,23.817025,0.0 120.786464,23.817045,0.0 120.785892,23.817128,0.0 120.785248,23.817231,0.0 120.784284,23.817457,0.0 120.783623,23.817705,0.0 120.782795,23.818042,0.0 120.78166,23.818255,0.0</coordinates></LinearRing></outerBoundaryIs></Polygon><styleUrl>#spolygon-map</styleUrl></Placemark><Placemark><Polygon><outerBoundaryIs><LinearRing><coordinates>120.776976,23.74447,0.0 120.771985,23.750086,0.0 120.770177,23.753919,0.0 120.770878,23.754703,0.0 120.771029,23.755688,0.0 120.770616,23.75643,0.0 120.770329,23.757459,0.0 120.771346,23.758244,0.0 120.7718,23.759146,0.0 120.771882,23.760037,0.0 120.76947,23.759167,0.0 120.763501,23.757864,0.0 120.761477,23.754308,0.0 120.761614,23.753983,0.0 120.761662,23.753818,0.0 120.76174,23.753635,0.0 120.761826,23.753444,0.0 120.761908,23.753254,0.0 120.761977,23.75308,0.0 120.761978,23.752965,0.0 120.761883,23.752852,0.0 120.761693,23.752818,0.0 120.761465,23.752818,0.0 120.761154,23.752811,0.0 120.760973,23.752734,0.0 120.760842,23.752611,0.0 120.760748,23.752456,0.0 120.76066,23.752336,0.0 120.760521,23.752261,0.0 120.760317,23.752202,0.0 120.760121,23.752145,0.0 120.759947,23.752037,0.0 120.759849,23.751903,0.0 120.759754,23.751723,0.0 120.759672,23.751542,0.0 120.759649,23.751379,0.0 120.759691,23.751174,0.0 120.759693,23.751009,0.0 120.759576,23.750855,0.0 120.759423,23.750704,0.0 120.759286,23.750598,0.0 120.7592,23.750451,0.0 120.759131,23.75025,0.0 120.759071,23.750062,0.0 120.759014,23.74973,0.0 120.758955,23.749561,0.0 120.758837,23.749389,0.0 120.758728,23.749217,0.0 120.758621,23.749046,0.0 120.758516,23.748876,0.0 120.758411,23.748707,0.0 120.758302,23.748528,0.0 120.758193,23.74835,0.0 120.756401,23.746466,0.0 120.755474,23.745653,0.0 120.75234,23.744236,0.0 120.743476,23.744795,0.0 120.74113,23.745428,0.0 120.741057,23.745272,0.0 120.740959,23.745159,0.0 120.7409,23.745044,0.0 120.740852,23.744886,0.0 120.740834,23.74468,0.0 120.740858,23.744525,0.0 120.740885,23.744367,0.0 120.740913,23.744195,0.0 120.740977,23.743951,0.0 120.741023,23.743827,0.0 120.741103,23.743706,0.0 120.741199,23.74355,0.0 120.741321,23.743365,0.0 120.741409,23.74304,0.0 120.741561,23.742921,0.0 120.741769,23.742795,0.0 120.741891,23.742689,0.0 120.741976,23.742524,0.0 120.742099,23.742267,0.0 120.742142,23.7421,0.0 120.742201,23.741938,0.0 120.742317,23.741825,0.0 120.742452,23.741755,0.0 120.742628,23.741785,0.0 120.742772,23.741826,0.0 120.742959,23.74183,0.0 120.74306,23.741788,0.0 120.743197,23.741666,0.0 120.743295,23.741495,0.0 120.743343,23.741332,0.0 120.743362,23.741186,0.0 120.74339,23.741023,0.0 120.743467,23.740865,0.0 120.743538,23.740739,0.0 120.74364,23.740613,0.0 120.743759,23.740468,0.0 120.743845,23.740344,0.0 120.743925,23.740193,0.0 120.744028,23.740065,0.0 120.744139,23.739954,0.0 120.744236,23.739882,0.0 120.744306,23.739767,0.0 120.74433,23.739623,0.0 120.744322,23.739444,0.0 120.744338,23.739284,0.0 120.744429,23.739187,0.0 120.74455,23.739106,0.0 120.744676,23.738978,0.0 120.744779,23.738829,0.0 120.744883,23.738707,0.0 120.745025,23.738574,0.0 120.745186,23.738511,0.0 120.745388,23.738451,0.0 120.745545,23.738501,0.0 120.745723,23.7386,0.0 120.74588,23.738607,0.0 120.747883,23.738421,0.0 120.748813,23.738179,0.0 120.748963,23.738156,0.0 120.749105,23.738127,0.0 120.749259,23.7381,0.0 120.749423,23.738069,0.0 120.749556,23.738069,0.0 120.749701,23.738069,0.0 120.749874,23.738049,0.0 120.750029,23.737995,0.0 120.750193,23.73793,0.0 120.750762,23.737615,0.0 120.751328,23.737275,0.0 120.75298,23.736452,0.0 120.753821,23.735726,0.0 120.754854,23.735448,0.0 120.754821,23.732648,0.0 120.755983,23.732018,0.0 120.760823,23.732161,0.0 120.761515,23.733817,0.0 120.760183,23.736472,0.0 120.762249,23.739945,0.0 120.766719,23.740967,0.0 120.772417,23.743319,0.0 120.776976,23.74447,0.0</coordinates></LinearRing></outerBoundaryIs></Polygon><styleUrl>#spolygon-map</styleUrl></Placemark><Placemark><Polygon><outerBoundaryIs><LinearRing><coordinates>120.775594,23.744121,0.0 120.776562,23.740023,0.0 120.77866,23.730998,0.0 120.78651,23.725896,0.0 120.788851,23.724615,0.0 120.792251,23.721791,0.0 120.795545,23.717305,0.0 120.802419,23.716296,0.0 120.801861,23.71111,0.0 120.802598,23.704214,0.0 120.806088,23.694839,0.0 120.80933,23.678055,0.0 120.810474,23.678279,0.0 120.812078,23.679996,0.0 120.812743,23.681232,0.0 120.814186,23.682675,0.0 120.815277,23.683793,0.0 120.816255,23.684805,0.0 120.817798,23.686475,0.0 120.818121,23.686875,0.0 120.81916,23.687619,0.0 120.819865,23.688539,0.0 120.820813,23.689477,0.0 120.821384,23.689859,0.0 120.822019,23.690668,0.0 120.822554,23.690872,0.0 120.824148,23.691336,0.0 120.824908,23.691667,0.0 120.825382,23.692085,0.0 120.824746,23.692725,0.0 120.824846,23.693743,0.0 120.826025,23.695517,0.0 120.826973,23.696193,0.0 120.827666,23.696742,0.0 120.828531,23.697249,0.0 120.829116,23.69764,0.0 120.82992,23.697861,0.0 120.830095,23.698212,0.0 120.830111,23.698741,0.0 120.829785,23.699235,0.0 120.829709,23.699672,0.0 120.829078,23.699891,0.0 120.828473,23.700676,0.0 120.828095,23.701459,0.0 120.828482,23.702563,0.0 120.830285,23.704265,0.0 120.83156,23.705004,0.0 120.832226,23.705748,0.0 120.832301,23.706314,0.0 120.831664,23.706832,0.0 120.831466,23.707447,0.0 120.832216,23.707953,0.0 120.832807,23.708719,0.0 120.833525,23.709436,0.0 120.834843,23.709561,0.0 120.836149,23.709344,0.0 120.837734,23.709549,0.0 120.838837,23.710234,0.0 120.839675,23.710758,0.0 120.840549,23.710748,0.0 120.840592,23.710839,0.0 120.83941,23.71186,0.0 120.837651,23.713554,0.0 120.837348,23.713531,0.0 120.836282,23.713676,0.0 120.835617,23.714048,0.0 120.834887,23.714348,0.0 120.833901,23.715019,0.0 120.833368,23.715526,0.0 120.832866,23.716415,0.0 120.832168,23.718123,0.0 120.832165,23.718987,0.0 120.831694,23.719489,0.0 120.831173,23.720168,0.0 120.830122,23.721291,0.0 120.829744,23.722175,0.0 120.82953,23.723583,0.0 120.829152,23.724531,0.0 120.828946,23.72581,0.0 120.829267,23.726529,0.0 120.829496,23.727582,0.0 120.82917,23.728699,0.0 120.828486,23.73028,0.0 120.828008,23.731489,0.0 120.827899,23.732468,0.0 120.828122,23.733396,0.0 120.828436,23.734672,0.0 120.828858,23.735346,0.0 120.829779,23.736099,0.0 120.83019,23.736691,0.0 120.830375,23.737845,0.0 120.830144,23.738644,0.0 120.829996,23.739499,0.0 120.83022,23.740125,0.0 120.8301,23.741436,0.0 120.830422,23.742477,0.0 120.830491,23.743442,0.0 120.830278,23.744046,0.0 120.814292,23.743607,0.0 120.796888,23.743414,0.0 120.788347,23.743674,0.0 120.785995,23.743675,0.0 120.785724,23.744397,0.0 120.785085,23.744992,0.0 120.784946,23.745148,0.0 120.784801,23.745296,0.0 120.784637,23.745441,0.0 120.784461,23.745567,0.0 120.784266,23.745587,0.0 120.784071,23.745503,0.0 120.783942,23.745433,0.0 120.783814,23.745442,0.0 120.783791,23.745577,0.0 120.783701,23.745737,0.0 120.78359,23.745918,0.0 120.783415,23.746001,0.0 120.7832,23.745953,0.0 120.783001,23.745912,0.0 120.782865,23.746041,0.0 120.782689,23.746124,0.0 120.782488,23.746176,0.0 120.782286,23.746207,0.0 120.782069,23.746214,0.0 120.781851,23.746222,0.0 120.781689,23.746166,0.0 120.781559,23.746016,0.0 120.781417,23.745969,0.0 120.781239,23.746097,0.0 120.781059,23.746185,0.0 120.78084,23.746194,0.0 120.780628,23.746164,0.0 120.780448,23.74611,0.0 120.780323,23.74597,0.0 120.780252,23.74582,0.0 120.778971,23.745033,0.0 120.775594,23.744121,0.0</coordinates></LinearRing></outerBoundaryIs></Polygon><styleUrl>#spolygon-map</styleUrl></Placemark></Document>
</kml>
