<?xml version="1.0" encoding="UTF-8"?>
<kml xmlns="http://www.opengis.net/kml/2.2">
	<Document>
		<name>嘉義縣中埔鄉</name>
		<Style id="spolygon">
			<LabelStyle>
				<scale>0.0</scale>
			</LabelStyle>
			<LineStyle>
				<color>330030ff</color>
				<width>0</width>
			</LineStyle>
			<PolyStyle>
				<color>330030ff</color>
			</PolyStyle>
		</Style>
		<StyleMap id="spolygon-map">
			<Pair>
				<key>normal</key>
				<styleUrl>#spolygon</styleUrl>
			</Pair>
		</StyleMap>
	<Placemark><Polygon><outerBoundaryIs><LinearRing><coordinates>120.522611,23.370856,0.0 120.52147,23.371471,0.0 120.520841,23.37197,0.0 120.520176,23.372765,0.0 120.519437,23.373373,0.0 120.518973,23.374028,0.0 120.51845,23.373778,0.0 120.517746,23.373966,0.0 120.517771,23.374844,0.0 120.517004,23.375212,0.0 120.516653,23.376014,0.0 120.515369,23.376067,0.0 120.514537,23.375283,0.0 120.513685,23.374773,0.0 120.512642,23.375126,0.0 120.511251,23.376092,0.0 120.510876,23.377428,0.0 120.510629,23.376488,0.0 120.51077,23.375813,0.0 120.509837,23.376318,0.0 120.509534,23.376866,0.0 120.508604,23.376673,0.0 120.507537,23.376408,0.0 120.507349,23.376096,0.0 120.506936,23.375921,0.0 120.50664,23.376667,0.0 120.505235,23.376997,0.0 120.505094,23.377712,0.0 120.504175,23.376978,0.0 120.503261,23.377196,0.0 120.502062,23.377693,0.0 120.501432,23.37789,0.0 120.500951,23.378175,0.0 120.500553,23.378348,0.0 120.500727,23.37901,0.0 120.500368,23.379058,0.0 120.500635,23.380077,0.0 120.498822,23.381239,0.0 120.49786,23.383055,0.0 120.495764,23.383888,0.0 120.494598,23.384304,0.0 120.493667,23.384001,0.0 120.492911,23.383382,0.0 120.491615,23.382683,0.0 120.490553,23.382984,0.0 120.490053,23.382804,0.0 120.489392,23.381978,0.0 120.488435,23.381447,0.0 120.486548,23.380634,0.0 120.485369,23.380251,0.0 120.484604,23.37968,0.0 120.484133,23.378775,0.0 120.483793,23.378149,0.0 120.483543,23.37697,0.0 120.48336,23.375933,0.0 120.483503,23.374694,0.0 120.483199,23.373666,0.0 120.483213,23.371103,0.0 120.483785,23.370755,0.0 120.483922,23.369568,0.0 120.485022,23.36968,0.0 120.485792,23.370344,0.0 120.486472,23.370507,0.0 120.487258,23.371521,0.0 120.487911,23.372568,0.0 120.488712,23.37307,0.0 120.489536,23.372323,0.0 120.489991,23.371173,0.0 120.490413,23.371393,0.0 120.491488,23.37249,0.0 120.492251,23.371582,0.0 120.493674,23.370325,0.0 120.494588,23.369572,0.0 120.495592,23.369927,0.0 120.496465,23.369661,0.0 120.497252,23.368928,0.0 120.498706,23.368691,0.0 120.49946,23.368036,0.0 120.500532,23.368033,0.0 120.501185,23.367755,0.0 120.501989,23.367941,0.0 120.502159,23.368483,0.0 120.502258,23.369133,0.0 120.502646,23.369528,0.0 120.503429,23.369356,0.0 120.50346,23.368889,0.0 120.504614,23.368978,0.0 120.505175,23.368298,0.0 120.504648,23.368308,0.0 120.504804,23.367783,0.0 120.504975,23.367395,0.0 120.505785,23.367255,0.0 120.506666,23.367084,0.0 120.507314,23.366411,0.0 120.507096,23.365991,0.0 120.507936,23.365348,0.0 120.508482,23.364979,0.0 120.508757,23.364625,0.0 120.509443,23.364474,0.0 120.509801,23.364825,0.0 120.510345,23.364461,0.0 120.510393,23.364082,0.0 120.510662,23.363559,0.0 120.510393,23.363071,0.0 120.510502,23.362466,0.0 120.511004,23.362396,0.0 120.511094,23.362005,0.0 120.511257,23.361475,0.0 120.511239,23.360547,0.0 120.512079,23.360622,0.0 120.512413,23.359686,0.0 120.512198,23.358557,0.0 120.512222,23.357557,0.0 120.512294,23.356494,0.0 120.51215,23.355421,0.0 120.510832,23.354003,0.0 120.512386,23.352746,0.0 120.518103,23.354733,0.0 120.520575,23.356524,0.0 120.524478,23.358017,0.0 120.527784,23.359555,0.0 120.529978,23.361808,0.0 120.529017,23.362006,0.0 120.528156,23.362263,0.0 120.52753,23.362541,0.0 120.526589,23.362163,0.0 120.525282,23.362279,0.0 120.524807,23.362417,0.0 120.524525,23.362638,0.0 120.523715,23.362331,0.0 120.523086,23.363243,0.0 120.522152,23.364662,0.0 120.521671,23.364668,0.0 120.520968,23.365212,0.0 120.521855,23.367093,0.0 120.52301,23.368975,0.0 120.522617,23.370809,0.0 120.522611,23.370856,0.0</coordinates></LinearRing></outerBoundaryIs></Polygon><styleUrl>#spolygon-map</styleUrl></Placemark><Placemark><Polygon><outerBoundaryIs><LinearRing><coordinates>120.518072,23.428269,0.0 120.518728,23.424214,0.0 120.517932,23.420049,0.0 120.518119,23.416959,0.0 120.520529,23.416702,0.0 120.52309,23.416545,0.0 120.524993,23.417156,0.0 120.526172,23.417415,0.0 120.526753,23.416699,0.0 120.530719,23.41646,0.0 120.534269,23.41694,0.0 120.536575,23.41732,0.0 120.537203,23.418927,0.0 120.537854,23.421595,0.0 120.534794,23.423042,0.0 120.533744,23.424657,0.0 120.531563,23.42519,0.0 120.528663,23.425037,0.0 120.522563,23.42659,0.0 120.519604,23.427599,0.0 120.518072,23.428269,0.0</coordinates></LinearRing></outerBoundaryIs></Polygon><styleUrl>#spolygon-map</styleUrl></Placemark><Placemark><Polygon><outerBoundaryIs><LinearRing><coordinates>120.55839,23.388337,0.0 120.555014,23.384497,0.0 120.553031,23.38099,0.0 120.551536,23.376254,0.0 120.552784,23.371241,0.0 120.557211,23.366617,0.0 120.560523,23.359149,0.0 120.566188,23.355018,0.0 120.566598,23.355321,0.0 120.567272,23.355682,0.0 120.567856,23.355995,0.0 120.568193,23.356312,0.0 120.568618,23.356704,0.0 120.568951,23.357211,0.0 120.569331,23.357541,0.0 120.56974,23.357822,0.0 120.570366,23.358332,0.0 120.570731,23.358703,0.0 120.571074,23.359056,0.0 120.57145,23.359331,0.0 120.571916,23.3597,0.0 120.572324,23.360092,0.0 120.572574,23.360381,0.0 120.57295,23.360831,0.0 120.573436,23.361515,0.0 120.573877,23.362064,0.0 120.574306,23.362729,0.0 120.574632,23.36313,0.0 120.575373,23.363285,0.0 120.576081,23.363174,0.0 120.576564,23.362397,0.0 120.576942,23.361897,0.0 120.577333,23.361744,0.0 120.578035,23.362001,0.0 120.578583,23.362208,0.0 120.57916,23.362325,0.0 120.579696,23.362168,0.0 120.58038,23.36198,0.0 120.580959,23.361831,0.0 120.581385,23.361653,0.0 120.581861,23.361725,0.0 120.582326,23.362141,0.0 120.582757,23.362364,0.0 120.58319,23.362284,0.0 120.583777,23.362091,0.0 120.58422,23.361891,0.0 120.58468,23.361567,0.0 120.585082,23.361575,0.0 120.585865,23.361756,0.0 120.586587,23.361866,0.0 120.587158,23.362012,0.0 120.587434,23.362356,0.0 120.58759,23.363013,0.0 120.587587,23.36351,0.0 120.587986,23.36384,0.0 120.588605,23.36421,0.0 120.58891,23.364493,0.0 120.589017,23.364988,0.0 120.589357,23.365345,0.0 120.589499,23.365743,0.0 120.589562,23.366118,0.0 120.58953,23.366556,0.0 120.589883,23.36704,0.0 120.590252,23.367361,0.0 120.591008,23.367438,0.0 120.591466,23.367471,0.0 120.591914,23.367704,0.0 120.592107,23.368156,0.0 120.59262,23.368456,0.0 120.593125,23.368613,0.0 120.593627,23.368404,0.0 120.594135,23.36841,0.0 120.591654,23.371555,0.0 120.586253,23.374959,0.0 120.578927,23.379691,0.0 120.571794,23.379692,0.0 120.571254,23.382894,0.0 120.565749,23.388196,0.0 120.55839,23.388337,0.0</coordinates></LinearRing></outerBoundaryIs></Polygon><styleUrl>#spolygon-map</styleUrl></Placemark><Placemark><Polygon><outerBoundaryIs><LinearRing><coordinates>120.493102,23.426611,0.0 120.492619,23.426446,0.0 120.491884,23.426409,0.0 120.491419,23.426297,0.0 120.490696,23.426223,0.0 120.490293,23.426296,0.0 120.489763,23.426414,0.0 120.489304,23.426333,0.0 120.48874,23.425995,0.0 120.488381,23.425709,0.0 120.488003,23.425426,0.0 120.48754,23.425282,0.0 120.487256,23.425649,0.0 120.486913,23.425955,0.0 120.486531,23.425692,0.0 120.48631,23.425332,0.0 120.486261,23.424894,0.0 120.485944,23.424532,0.0 120.485489,23.424487,0.0 120.484771,23.424503,0.0 120.484083,23.424399,0.0 120.483647,23.4241,0.0 120.483414,23.423749,0.0 120.483388,23.423239,0.0 120.483475,23.422765,0.0 120.483519,23.422275,0.0 120.483309,23.421909,0.0 120.482875,23.421704,0.0 120.482324,23.421517,0.0 120.481576,23.421434,0.0 120.480795,23.421449,0.0 120.480197,23.421431,0.0 120.479533,23.421501,0.0 120.478965,23.421346,0.0 120.478894,23.421003,0.0 120.479171,23.420651,0.0 120.479381,23.42002,0.0 120.479092,23.419647,0.0 120.478709,23.419239,0.0 120.478246,23.418779,0.0 120.478255,23.418316,0.0 120.478332,23.417901,0.0 120.478083,23.417492,0.0 120.478157,23.416871,0.0 120.478505,23.416559,0.0 120.479161,23.416387,0.0 120.479647,23.41631,0.0 120.479845,23.416003,0.0 120.479819,23.415166,0.0 120.479999,23.414552,0.0 120.480419,23.413996,0.0 120.481083,23.413836,0.0 120.481588,23.413,0.0 120.481531,23.412471,0.0 120.481467,23.411859,0.0 120.481295,23.411344,0.0 120.48125,23.410847,0.0 120.48146,23.410554,0.0 120.481786,23.409973,0.0 120.482067,23.409362,0.0 120.482226,23.408746,0.0 120.482452,23.408251,0.0 120.482488,23.407768,0.0 120.482286,23.407193,0.0 120.481976,23.406612,0.0 120.482993,23.406629,0.0 120.48353,23.406832,0.0 120.484041,23.407199,0.0 120.484171,23.407611,0.0 120.484431,23.407903,0.0 120.484567,23.408316,0.0 120.484966,23.408552,0.0 120.485438,23.40854,0.0 120.486106,23.408608,0.0 120.486597,23.408792,0.0 120.487167,23.40886,0.0 120.487705,23.408746,0.0 120.487871,23.408354,0.0 120.488208,23.407956,0.0 120.488579,23.407519,0.0 120.488756,23.4071,0.0 120.489288,23.40695,0.0 120.489786,23.406661,0.0 120.490353,23.40608,0.0 120.491308,23.406079,0.0 120.491929,23.405974,0.0 120.492476,23.405778,0.0 120.4929,23.405434,0.0 120.493003,23.405023,0.0 120.493472,23.404453,0.0 120.493931,23.403843,0.0 120.494574,23.403416,0.0 120.495061,23.403409,0.0 120.495691,23.403503,0.0 120.496286,23.403695,0.0 120.496805,23.403952,0.0 120.497267,23.404215,0.0 120.49798,23.404188,0.0 120.498616,23.404177,0.0 120.499058,23.403794,0.0 120.499103,23.403352,0.0 120.498959,23.402953,0.0 120.501393,23.403617,0.0 120.503899,23.403417,0.0 120.505119,23.40422,0.0 120.507772,23.403583,0.0 120.510614,23.400616,0.0 120.513071,23.402387,0.0 120.514349,23.404077,0.0 120.515461,23.405695,0.0 120.518772,23.407382,0.0 120.521351,23.408422,0.0 120.518285,23.410546,0.0 120.513971,23.411885,0.0 120.517575,23.415368,0.0 120.515773,23.417101,0.0 120.511667,23.41628,0.0 120.506601,23.416013,0.0 120.505275,23.417786,0.0 120.501516,23.418081,0.0 120.496413,23.423191,0.0 120.494456,23.426485,0.0 120.493102,23.426611,0.0</coordinates></LinearRing></outerBoundaryIs></Polygon><styleUrl>#spolygon-map</styleUrl></Placemark><Placemark><Polygon><outerBoundaryIs><LinearRing><coordinates>120.51233,23.401326,0.0 120.511556,23.398998,0.0 120.511254,23.397521,0.0 120.512426,23.396935,0.0 120.513967,23.396285,0.0 120.514112,23.393444,0.0 120.516263,23.390732,0.0 120.515749,23.38869,0.0 120.516377,23.386592,0.0 120.519353,23.384622,0.0 120.522229,23.385328,0.0 120.524574,23.383346,0.0 120.525962,23.383271,0.0 120.526635,23.38228,0.0 120.527504,23.381913,0.0 120.527434,23.378628,0.0 120.523768,23.374865,0.0 120.522648,23.371116,0.0 120.522698,23.36987,0.0 120.522793,23.368258,0.0 120.521262,23.365727,0.0 120.521402,23.36487,0.0 120.521829,23.364661,0.0 120.522568,23.363871,0.0 120.523486,23.362802,0.0 120.524181,23.36272,0.0 120.524923,23.362716,0.0 120.524815,23.362239,0.0 120.525929,23.362274,0.0 120.527248,23.362438,0.0 120.527881,23.362237,0.0 120.528431,23.362327,0.0 120.529491,23.36212,0.0 120.530566,23.363457,0.0 120.533371,23.367886,0.0 120.535064,23.372169,0.0 120.540464,23.375027,0.0 120.54274,23.371205,0.0 120.548445,23.372208,0.0 120.551713,23.377155,0.0 120.553458,23.381632,0.0 120.55334,23.385108,0.0 120.543832,23.385869,0.0 120.541295,23.386521,0.0 120.540004,23.3847,0.0 120.537796,23.382704,0.0 120.535611,23.382576,0.0 120.531861,23.387186,0.0 120.52962,23.389635,0.0 120.52569,23.394391,0.0 120.523656,23.395739,0.0 120.524069,23.39775,0.0 120.523093,23.398539,0.0 120.521161,23.399326,0.0 120.519038,23.400114,0.0 120.518137,23.401116,0.0 120.516031,23.402536,0.0 120.514278,23.401474,0.0 120.51233,23.401326,0.0</coordinates></LinearRing></outerBoundaryIs></Polygon><styleUrl>#spolygon-map</styleUrl></Placemark><Placemark><Polygon><outerBoundaryIs><LinearRing><coordinates>120.477594,23.461638,0.0 120.475981,23.462082,0.0 120.474224,23.462098,0.0 120.47204,23.461858,0.0 120.470754,23.46191,0.0 120.469001,23.461656,0.0 120.467512,23.460694,0.0 120.466432,23.45995,0.0 120.465613,23.458947,0.0 120.464941,23.458414,0.0 120.464823,23.457317,0.0 120.465129,23.456126,0.0 120.464542,23.455645,0.0 120.46381,23.455469,0.0 120.462897,23.455337,0.0 120.462344,23.455292,0.0 120.46123,23.455324,0.0 120.460654,23.454941,0.0 120.460116,23.454469,0.0 120.459555,23.454355,0.0 120.466608,23.451214,0.0 120.474232,23.451777,0.0 120.482822,23.450986,0.0 120.487604,23.450361,0.0 120.487992,23.453509,0.0 120.486411,23.454867,0.0 120.484617,23.45627,0.0 120.4826,23.457437,0.0 120.481414,23.458607,0.0 120.480979,23.459581,0.0 120.480012,23.460397,0.0 120.478286,23.461295,0.0 120.477594,23.461638,0.0</coordinates></LinearRing></outerBoundaryIs></Polygon><styleUrl>#spolygon-map</styleUrl></Placemark><Placemark><Polygon><outerBoundaryIs><LinearRing><coordinates>120.487577,23.450255,0.0 120.482208,23.451077,0.0 120.471555,23.451551,0.0 120.464907,23.451352,0.0 120.454239,23.440057,0.0 120.449976,23.429198,0.0 120.450772,23.429096,0.0 120.451289,23.428974,0.0 120.451959,23.428672,0.0 120.452451,23.428373,0.0 120.453141,23.427766,0.0 120.453654,23.427441,0.0 120.454114,23.427313,0.0 120.454619,23.427317,0.0 120.455687,23.427294,0.0 120.456641,23.427248,0.0 120.457103,23.427109,0.0 120.457576,23.427283,0.0 120.45819,23.427707,0.0 120.458722,23.427925,0.0 120.459252,23.428079,0.0 120.459903,23.428158,0.0 120.460238,23.428346,0.0 120.460623,23.428643,0.0 120.461296,23.428772,0.0 120.461685,23.428934,0.0 120.462017,23.429294,0.0 120.462384,23.429708,0.0 120.462675,23.43007,0.0 120.463016,23.43057,0.0 120.463241,23.430948,0.0 120.463529,23.431588,0.0 120.463725,23.432099,0.0 120.463909,23.432858,0.0 120.46411,23.43364,0.0 120.464366,23.434246,0.0 120.464679,23.43473,0.0 120.465228,23.435115,0.0 120.46571,23.435345,0.0 120.466303,23.435562,0.0 120.466824,23.435832,0.0 120.467391,23.436299,0.0 120.467804,23.436675,0.0 120.468225,23.437115,0.0 120.468571,23.437531,0.0 120.468959,23.438058,0.0 120.46905,23.438492,0.0 120.469099,23.438937,0.0 120.469282,23.439373,0.0 120.46966,23.439767,0.0 120.470035,23.440119,0.0 120.470278,23.441598,0.0 120.469848,23.442608,0.0 120.469537,23.443885,0.0 120.46917,23.447886,0.0 120.469624,23.448303,0.0 120.470362,23.448179,0.0 120.470925,23.448095,0.0 120.471791,23.448294,0.0 120.472915,23.447939,0.0 120.474271,23.448289,0.0 120.47579,23.448281,0.0 120.476993,23.447687,0.0 120.479233,23.447728,0.0 120.479387,23.448521,0.0 120.480663,23.449401,0.0 120.482203,23.449257,0.0 120.483398,23.448457,0.0 120.484353,23.448553,0.0 120.485338,23.449724,0.0 120.486865,23.449701,0.0 120.487577,23.450255,0.0</coordinates></LinearRing></outerBoundaryIs></Polygon><styleUrl>#spolygon-map</styleUrl></Placemark><Placemark><Polygon><outerBoundaryIs><LinearRing><coordinates>120.459555,23.454355,0.0 120.458931,23.453993,0.0 120.458068,23.453354,0.0 120.457303,23.452848,0.0 120.457501,23.452627,0.0 120.457516,23.452374,0.0 120.457053,23.45219,0.0 120.456541,23.451311,0.0 120.455412,23.450331,0.0 120.454793,23.45036,0.0 120.454642,23.449737,0.0 120.454595,23.448321,0.0 120.453998,23.446994,0.0 120.452971,23.44504,0.0 120.451645,23.444035,0.0 120.45055,23.443598,0.0 120.449623,23.443423,0.0 120.448761,23.443632,0.0 120.447442,23.443506,0.0 120.446036,23.442821,0.0 120.444666,23.44201,0.0 120.443176,23.441091,0.0 120.441776,23.440264,0.0 120.440574,23.439874,0.0 120.439549,23.439563,0.0 120.439711,23.439182,0.0 120.439544,23.43875,0.0 120.439402,23.438337,0.0 120.43923,23.437918,0.0 120.438957,23.437405,0.0 120.438679,23.436903,0.0 120.438468,23.436453,0.0 120.438388,23.436037,0.0 120.438613,23.435557,0.0 120.43897,23.435019,0.0 120.439228,23.434424,0.0 120.439404,23.433903,0.0 120.439483,23.433465,0.0 120.439615,23.432576,0.0 120.439796,23.432218,0.0 120.440365,23.43206,0.0 120.441078,23.431909,0.0 120.441769,23.431785,0.0 120.442152,23.431998,0.0 120.442352,23.432369,0.0 120.442546,23.432785,0.0 120.442893,23.433218,0.0 120.443286,23.433641,0.0 120.443521,23.433992,0.0 120.443876,23.434307,0.0 120.444292,23.434388,0.0 120.444733,23.434299,0.0 120.445248,23.433985,0.0 120.445734,23.433621,0.0 120.44623,23.43302,0.0 120.446581,23.43236,0.0 120.446485,23.431858,0.0 120.446264,23.431268,0.0 120.446234,23.430629,0.0 120.446488,23.430048,0.0 120.446802,23.429685,0.0 120.447384,23.42957,0.0 120.447972,23.429536,0.0 120.448823,23.429408,0.0 120.449549,23.429264,0.0 120.450497,23.432906,0.0 120.460558,23.451798,0.0 120.459555,23.454355,0.0</coordinates></LinearRing></outerBoundaryIs></Polygon><styleUrl>#spolygon-map</styleUrl></Placemark><Placemark><Polygon><outerBoundaryIs><LinearRing><coordinates>120.549854,23.372402,0.0 120.544137,23.371245,0.0 120.541145,23.372591,0.0 120.537127,23.374564,0.0 120.533987,23.369369,0.0 120.531572,23.364226,0.0 120.529951,23.361641,0.0 120.527632,23.358814,0.0 120.523755,23.357416,0.0 120.519797,23.357022,0.0 120.517067,23.353501,0.0 120.511324,23.352982,0.0 120.509289,23.353317,0.0 120.508077,23.352762,0.0 120.507883,23.353267,0.0 120.506995,23.354348,0.0 120.506279,23.355165,0.0 120.505533,23.355298,0.0 120.504707,23.354682,0.0 120.504631,23.353896,0.0 120.504194,23.353396,0.0 120.504154,23.352355,0.0 120.503959,23.351736,0.0 120.503623,23.351175,0.0 120.50355,23.350409,0.0 120.503771,23.349396,0.0 120.504467,23.349419,0.0 120.504669,23.348817,0.0 120.504445,23.347687,0.0 120.504542,23.346317,0.0 120.505213,23.345983,0.0 120.505558,23.345298,0.0 120.505052,23.344874,0.0 120.505799,23.344301,0.0 120.506727,23.344085,0.0 120.507512,23.343405,0.0 120.507936,23.343003,0.0 120.509232,23.343264,0.0 120.510685,23.344108,0.0 120.512346,23.344048,0.0 120.514246,23.343862,0.0 120.514939,23.343275,0.0 120.515572,23.34374,0.0 120.516702,23.342675,0.0 120.517957,23.34251,0.0 120.518898,23.341977,0.0 120.520269,23.341853,0.0 120.52096,23.341194,0.0 120.521744,23.340388,0.0 120.523005,23.340692,0.0 120.523745,23.340099,0.0 120.523939,23.339271,0.0 120.524527,23.338306,0.0 120.525243,23.338767,0.0 120.526648,23.33938,0.0 120.527392,23.338714,0.0 120.529119,23.338266,0.0 120.530721,23.337799,0.0 120.531524,23.336817,0.0 120.532806,23.336378,0.0 120.533751,23.336505,0.0 120.533978,23.33686,0.0 120.534112,23.337443,0.0 120.534599,23.337819,0.0 120.535177,23.338063,0.0 120.535617,23.338256,0.0 120.536122,23.337912,0.0 120.536732,23.337742,0.0 120.537451,23.338038,0.0 120.537884,23.337992,0.0 120.538386,23.338113,0.0 120.538806,23.338624,0.0 120.53945,23.338938,0.0 120.540176,23.339157,0.0 120.540689,23.339336,0.0 120.541179,23.339819,0.0 120.541691,23.340048,0.0 120.542513,23.34008,0.0 120.543343,23.339791,0.0 120.544004,23.339624,0.0 120.544715,23.33966,0.0 120.545412,23.33972,0.0 120.54624,23.339818,0.0 120.547143,23.339814,0.0 120.547253,23.340272,0.0 120.547232,23.341078,0.0 120.547149,23.341845,0.0 120.547346,23.34225,0.0 120.548209,23.342316,0.0 120.548869,23.342458,0.0 120.549693,23.342889,0.0 120.550436,23.343067,0.0 120.550984,23.343527,0.0 120.551709,23.343922,0.0 120.552221,23.344075,0.0 120.553089,23.344479,0.0 120.553653,23.344754,0.0 120.554437,23.345135,0.0 120.555289,23.345587,0.0 120.556007,23.34611,0.0 120.556724,23.346783,0.0 120.557224,23.347545,0.0 120.55767,23.34823,0.0 120.557884,23.348655,0.0 120.558285,23.34921,0.0 120.558584,23.349666,0.0 120.558798,23.350164,0.0 120.558949,23.350654,0.0 120.559048,23.351108,0.0 120.55911,23.351542,0.0 120.559379,23.352019,0.0 120.559737,23.352363,0.0 120.560154,23.352644,0.0 120.560617,23.35295,0.0 120.56121,23.353297,0.0 120.561557,23.353616,0.0 120.56193,23.35404,0.0 120.56262,23.354136,0.0 120.563362,23.354342,0.0 120.563906,23.354517,0.0 120.564453,23.354652,0.0 120.564913,23.354714,0.0 120.56576,23.354721,0.0 120.564934,23.355624,0.0 120.558458,23.365306,0.0 120.555805,23.36929,0.0 120.549854,23.372402,0.0</coordinates></LinearRing></outerBoundaryIs></Polygon><styleUrl>#spolygon-map</styleUrl></Placemark><Placemark><Polygon><outerBoundaryIs><LinearRing><coordinates>120.574036,23.445686,0.0 120.573605,23.445983,0.0 120.573101,23.446385,0.0 120.572515,23.446824,0.0 120.571894,23.447192,0.0 120.571464,23.447426,0.0 120.570959,23.447684,0.0 120.570401,23.447931,0.0 120.56977,23.448193,0.0 120.569126,23.44851,0.0 120.56856,23.448946,0.0 120.568005,23.449356,0.0 120.567181,23.450037,0.0 120.566772,23.450269,0.0 120.566251,23.450421,0.0 120.565733,23.450345,0.0 120.565039,23.450219,0.0 120.564193,23.450029,0.0 120.563397,23.44991,0.0 120.562758,23.449894,0.0 120.562263,23.449961,0.0 120.561514,23.450103,0.0 120.560664,23.450128,0.0 120.559858,23.450157,0.0 120.559298,23.450063,0.0 120.558764,23.449795,0.0 120.558358,23.449451,0.0 120.557913,23.449522,0.0 120.557227,23.449908,0.0 120.556395,23.450377,0.0 120.55578,23.450651,0.0 120.554684,23.451016,0.0 120.553592,23.451336,0.0 120.552662,23.451579,0.0 120.551454,23.45191,0.0 120.550439,23.452121,0.0 120.54944,23.452351,0.0 120.548746,23.452511,0.0 120.547893,23.452491,0.0 120.547156,23.452556,0.0 120.546454,23.452692,0.0 120.545211,23.452975,0.0 120.544456,23.453079,0.0 120.54355,23.453196,0.0 120.542556,23.453324,0.0 120.541335,23.453298,0.0 120.540646,23.453235,0.0 120.539856,23.453111,0.0 120.539167,23.453012,0.0 120.538442,23.452894,0.0 120.53743,23.452939,0.0 120.536494,23.452735,0.0 120.535865,23.452623,0.0 120.535795,23.443391,0.0 120.538091,23.442511,0.0 120.539545,23.441635,0.0 120.542847,23.440581,0.0 120.543424,23.439741,0.0 120.542524,23.439465,0.0 120.541217,23.439177,0.0 120.541283,23.438735,0.0 120.541798,23.438136,0.0 120.544249,23.437486,0.0 120.544901,23.436892,0.0 120.547776,23.437173,0.0 120.549278,23.435694,0.0 120.552033,23.435784,0.0 120.55495,23.43532,0.0 120.564515,23.432625,0.0 120.568377,23.430766,0.0 120.58009,23.430985,0.0 120.588917,23.427711,0.0 120.594708,23.426663,0.0 120.597611,23.42765,0.0 120.596872,23.427788,0.0 120.596483,23.428062,0.0 120.596129,23.428423,0.0 120.595755,23.428663,0.0 120.595352,23.429125,0.0 120.59491,23.429368,0.0 120.594827,23.429751,0.0 120.59464,23.430353,0.0 120.594474,23.430953,0.0 120.594301,23.431427,0.0 120.594146,23.432093,0.0 120.594042,23.432664,0.0 120.593911,23.433295,0.0 120.593868,23.433785,0.0 120.593893,23.434259,0.0 120.593933,23.434663,0.0 120.594081,23.435142,0.0 120.594379,23.435723,0.0 120.594173,23.436048,0.0 120.5939,23.436415,0.0 120.593781,23.436842,0.0 120.593632,23.437252,0.0 120.593441,23.437613,0.0 120.593081,23.43814,0.0 120.592905,23.438546,0.0 120.592542,23.438987,0.0 120.592169,23.439149,0.0 120.591658,23.439367,0.0 120.591229,23.439636,0.0 120.590818,23.440019,0.0 120.590494,23.440413,0.0 120.590142,23.440837,0.0 120.589811,23.441132,0.0 120.58945,23.441305,0.0 120.589023,23.441565,0.0 120.588531,23.441817,0.0 120.588059,23.441933,0.0 120.587639,23.441979,0.0 120.58715,23.441698,0.0 120.58683,23.441374,0.0 120.586313,23.441116,0.0 120.585806,23.441211,0.0 120.585235,23.441463,0.0 120.584653,23.44168,0.0 120.584136,23.441905,0.0 120.583768,23.442181,0.0 120.583279,23.442999,0.0 120.582815,23.443432,0.0 120.582115,23.443949,0.0 120.581479,23.444347,0.0 120.580964,23.444535,0.0 120.580377,23.444504,0.0 120.579652,23.444272,0.0 120.578867,23.444098,0.0 120.578084,23.444121,0.0 120.577633,23.444255,0.0 120.577065,23.444409,0.0 120.576222,23.444604,0.0 120.575274,23.444897,0.0 120.574765,23.445166,0.0 120.574068,23.445666,0.0 120.574036,23.445686,0.0</coordinates></LinearRing></outerBoundaryIs></Polygon><styleUrl>#spolygon-map</styleUrl></Placemark><Placemark><Polygon><outerBoundaryIs><LinearRing><coordinates>120.508956,23.452468,0.0 120.508099,23.452684,0.0 120.507505,23.452773,0.0 120.505938,23.452768,0.0 120.504585,23.452743,0.0 120.503937,23.452712,0.0 120.502897,23.452668,0.0 120.501321,23.452685,0.0 120.500463,23.452793,0.0 120.499617,23.452921,0.0 120.499119,23.452879,0.0 120.498547,23.452744,0.0 120.497974,23.452654,0.0 120.497396,23.452616,0.0 120.496574,23.45269,0.0 120.495904,23.452803,0.0 120.495481,23.452847,0.0 120.493802,23.449674,0.0 120.491557,23.446427,0.0 120.491966,23.44571,0.0 120.492442,23.445065,0.0 120.493361,23.445045,0.0 120.49449,23.445583,0.0 120.494999,23.444969,0.0 120.493582,23.44361,0.0 120.492524,23.44223,0.0 120.491995,23.441176,0.0 120.49235,23.439994,0.0 120.491904,23.439695,0.0 120.490864,23.439016,0.0 120.489704,23.438028,0.0 120.489138,23.437435,0.0 120.488593,23.43676,0.0 120.488121,23.436292,0.0 120.488425,23.435999,0.0 120.489,23.435701,0.0 120.489604,23.435434,0.0 120.490073,23.435226,0.0 120.495864,23.436881,0.0 120.499816,23.434948,0.0 120.503252,23.435882,0.0 120.504206,23.435817,0.0 120.506548,23.437543,0.0 120.508092,23.438119,0.0 120.509424,23.437895,0.0 120.510684,23.437436,0.0 120.511602,23.437462,0.0 120.511956,23.439226,0.0 120.510883,23.443525,0.0 120.508807,23.444221,0.0 120.5081,23.444505,0.0 120.507365,23.444268,0.0 120.507713,23.447423,0.0 120.507918,23.44911,0.0 120.50864,23.45151,0.0 120.508956,23.452468,0.0</coordinates></LinearRing></outerBoundaryIs></Polygon><styleUrl>#spolygon-map</styleUrl></Placemark><Placemark><Polygon><outerBoundaryIs><LinearRing><coordinates>120.511132,23.399983,0.0 120.508639,23.402777,0.0 120.505969,23.404195,0.0 120.504315,23.403764,0.0 120.502899,23.403635,0.0 120.499313,23.403091,0.0 120.498778,23.402725,0.0 120.497943,23.402314,0.0 120.497544,23.401875,0.0 120.497325,23.401371,0.0 120.49737,23.400757,0.0 120.49752,23.400139,0.0 120.497884,23.399639,0.0 120.498337,23.399277,0.0 120.498318,23.398794,0.0 120.498302,23.398238,0.0 120.498267,23.397421,0.0 120.498165,23.396757,0.0 120.498005,23.396084,0.0 120.497624,23.395951,0.0 120.497518,23.395283,0.0 120.497629,23.394687,0.0 120.497328,23.394307,0.0 120.496304,23.394308,0.0 120.495811,23.394196,0.0 120.495629,23.393665,0.0 120.495132,23.393205,0.0 120.496232,23.392513,0.0 120.497322,23.391422,0.0 120.497466,23.390637,0.0 120.497146,23.389877,0.0 120.497142,23.38929,0.0 120.497871,23.388744,0.0 120.499022,23.388104,0.0 120.499016,23.3874,0.0 120.498429,23.386342,0.0 120.497507,23.385022,0.0 120.496658,23.384198,0.0 120.496651,23.383622,0.0 120.498766,23.381356,0.0 120.50011,23.380306,0.0 120.500522,23.379212,0.0 120.500622,23.379018,0.0 120.500564,23.378449,0.0 120.500994,23.37822,0.0 120.501294,23.377971,0.0 120.501975,23.377693,0.0 120.503055,23.377101,0.0 120.504055,23.376914,0.0 120.504991,23.377648,0.0 120.5052,23.377044,0.0 120.506372,23.376809,0.0 120.506832,23.375968,0.0 120.507392,23.376001,0.0 120.507347,23.376527,0.0 120.508398,23.376449,0.0 120.509259,23.376802,0.0 120.509931,23.37651,0.0 120.510718,23.375797,0.0 120.510794,23.376195,0.0 120.510747,23.377411,0.0 120.511129,23.376442,0.0 120.512245,23.375357,0.0 120.513402,23.374629,0.0 120.514468,23.37515,0.0 120.515223,23.37601,0.0 120.516601,23.376062,0.0 120.517038,23.375422,0.0 120.517763,23.374934,0.0 120.517677,23.374094,0.0 120.51834,23.373771,0.0 120.518924,23.374053,0.0 120.51914,23.373582,0.0 120.520086,23.37286,0.0 120.520675,23.37199,0.0 120.521421,23.371573,0.0 120.522533,23.370953,0.0 120.522997,23.372783,0.0 120.525212,23.377016,0.0 120.527481,23.380684,0.0 120.527057,23.382146,0.0 120.526359,23.383011,0.0 120.52511,23.383224,0.0 120.523585,23.384285,0.0 120.520785,23.385306,0.0 120.51781,23.385425,0.0 120.515642,23.387285,0.0 120.516282,23.389549,0.0 120.515384,23.392219,0.0 120.514037,23.395861,0.0 120.513566,23.396679,0.0 120.512128,23.397203,0.0 120.511157,23.39836,0.0 120.51123,23.399419,0.0 120.511132,23.399983,0.0</coordinates></LinearRing></outerBoundaryIs></Polygon><styleUrl>#spolygon-map</styleUrl></Placemark><Placemark><Polygon><outerBoundaryIs><LinearRing><coordinates>120.537811,23.417095,0.0 120.535623,23.417387,0.0 120.533214,23.416702,0.0 120.52764,23.416171,0.0 120.52669,23.417069,0.0 120.525439,23.417212,0.0 120.52423,23.416815,0.0 120.521313,23.416824,0.0 120.518842,23.416772,0.0 120.517611,23.416924,0.0 120.515057,23.41378,0.0 120.514933,23.410468,0.0 120.519824,23.408873,0.0 120.521377,23.408124,0.0 120.523424,23.407832,0.0 120.525413,23.406644,0.0 120.53058,23.405298,0.0 120.541298,23.403998,0.0 120.546114,23.410647,0.0 120.538438,23.413661,0.0 120.537811,23.417095,0.0</coordinates></LinearRing></outerBoundaryIs></Polygon><styleUrl>#spolygon-map</styleUrl></Placemark><Placemark><Polygon><outerBoundaryIs><LinearRing><coordinates>120.495339,23.452853,0.0 120.494235,23.452726,0.0 120.491455,23.452267,0.0 120.489824,23.452156,0.0 120.488796,23.452834,0.0 120.487992,23.453509,0.0 120.487604,23.450361,0.0 120.486359,23.449598,0.0 120.485016,23.449607,0.0 120.484088,23.44825,0.0 120.483109,23.448646,0.0 120.48179,23.449407,0.0 120.480153,23.44904,0.0 120.479182,23.448283,0.0 120.478504,23.447538,0.0 120.476621,23.447837,0.0 120.475393,23.448492,0.0 120.473747,23.448292,0.0 120.472643,23.447832,0.0 120.471462,23.448217,0.0 120.470805,23.448045,0.0 120.470122,23.448203,0.0 120.46932,23.448336,0.0 120.470447,23.445348,0.0 120.469313,23.442861,0.0 120.470254,23.442582,0.0 120.470201,23.440708,0.0 120.470405,23.440438,0.0 120.470875,23.44079,0.0 120.471359,23.441137,0.0 120.471835,23.441459,0.0 120.472222,23.441713,0.0 120.472592,23.441978,0.0 120.473056,23.442122,0.0 120.473542,23.44216,0.0 120.474081,23.442119,0.0 120.474517,23.44205,0.0 120.474989,23.441948,0.0 120.475634,23.441844,0.0 120.476437,23.441845,0.0 120.477006,23.441908,0.0 120.477493,23.441805,0.0 120.477969,23.441629,0.0 120.478292,23.441347,0.0 120.478768,23.441101,0.0 120.479454,23.440787,0.0 120.479881,23.440587,0.0 120.480447,23.440359,0.0 120.481264,23.440132,0.0 120.481906,23.43994,0.0 120.482444,23.439718,0.0 120.482892,23.439539,0.0 120.483477,23.43943,0.0 120.483968,23.439371,0.0 120.484456,23.439176,0.0 120.48515,23.439054,0.0 120.485576,23.438981,0.0 120.486087,23.43884,0.0 120.486595,23.438578,0.0 120.487143,23.438377,0.0 120.487503,23.438143,0.0 120.487856,23.437686,0.0 120.487909,23.437176,0.0 120.488031,23.436494,0.0 120.488793,23.436897,0.0 120.489191,23.437534,0.0 120.489781,23.438083,0.0 120.490993,23.439078,0.0 120.492044,23.439826,0.0 120.492273,23.440141,0.0 120.492006,23.441273,0.0 120.492612,23.44237,0.0 120.493617,23.443658,0.0 120.495351,23.445271,0.0 120.494323,23.445565,0.0 120.493191,23.444948,0.0 120.492289,23.445152,0.0 120.49197,23.445807,0.0 120.49167,23.446643,0.0 120.494092,23.450655,0.0 120.495339,23.452853,0.0</coordinates></LinearRing></outerBoundaryIs></Polygon><styleUrl>#spolygon-map</styleUrl></Placemark><Placemark><Polygon><outerBoundaryIs><LinearRing><coordinates>120.535544,23.443325,0.0 120.531134,23.441292,0.0 120.529428,23.442054,0.0 120.528247,23.442215,0.0 120.52715,23.442542,0.0 120.525597,23.442557,0.0 120.524313,23.442422,0.0 120.520991,23.44211,0.0 120.518419,23.441686,0.0 120.518175,23.439771,0.0 120.517439,23.438058,0.0 120.517171,23.436723,0.0 120.518188,23.434579,0.0 120.518609,23.433106,0.0 120.519109,23.432609,0.0 120.520337,23.432005,0.0 120.521695,23.430549,0.0 120.523241,23.430992,0.0 120.523821,23.432235,0.0 120.526474,23.432909,0.0 120.527653,23.43133,0.0 120.528978,23.430889,0.0 120.53138,23.431998,0.0 120.532456,23.43169,0.0 120.536595,23.433957,0.0 120.537842,23.433503,0.0 120.539314,23.433821,0.0 120.540259,23.435262,0.0 120.540098,23.436219,0.0 120.539152,23.436805,0.0 120.54026,23.437524,0.0 120.541764,23.438151,0.0 120.541134,23.438815,0.0 120.5414,23.439284,0.0 120.54293,23.43936,0.0 120.543523,23.439888,0.0 120.542385,23.440808,0.0 120.539312,23.441697,0.0 120.537476,23.442943,0.0 120.535597,23.443343,0.0 120.535544,23.443325,0.0</coordinates></LinearRing></outerBoundaryIs></Polygon><styleUrl>#spolygon-map</styleUrl></Placemark><Placemark><Polygon><outerBoundaryIs><LinearRing><coordinates>120.541298,23.403998,0.0 120.53058,23.405298,0.0 120.525413,23.406644,0.0 120.523424,23.407832,0.0 120.521377,23.408124,0.0 120.517047,23.406887,0.0 120.514663,23.404566,0.0 120.513837,23.403561,0.0 120.512903,23.40131,0.0 120.515021,23.402057,0.0 120.517697,23.401324,0.0 120.519264,23.400977,0.0 120.52055,23.399236,0.0 120.522538,23.39949,0.0 120.52424,23.398136,0.0 120.523253,23.396513,0.0 120.524938,23.395491,0.0 120.528272,23.390062,0.0 120.531107,23.388511,0.0 120.533353,23.384594,0.0 120.537128,23.38219,0.0 120.539454,23.383745,0.0 120.540773,23.385819,0.0 120.542797,23.386107,0.0 120.552027,23.385737,0.0 120.555316,23.386062,0.0 120.555933,23.395356,0.0 120.55019,23.399766,0.0 120.543526,23.401269,0.0 120.541298,23.403998,0.0</coordinates></LinearRing></outerBoundaryIs></Polygon><styleUrl>#spolygon-map</styleUrl></Placemark><Placemark><Polygon><outerBoundaryIs><LinearRing><coordinates>120.535874,23.452685,0.0 120.534975,23.452697,0.0 120.534244,23.45271,0.0 120.533376,23.45271,0.0 120.532699,23.452658,0.0 120.532014,23.452568,0.0 120.5312,23.452299,0.0 120.530172,23.452005,0.0 120.529229,23.451756,0.0 120.52851,23.451497,0.0 120.527568,23.451309,0.0 120.526605,23.451206,0.0 120.525742,23.451206,0.0 120.524723,23.451293,0.0 120.523809,23.451487,0.0 120.523274,23.451485,0.0 120.522376,23.450868,0.0 120.52158,23.450559,0.0 120.520352,23.450065,0.0 120.519407,23.449789,0.0 120.518095,23.449462,0.0 120.516632,23.449508,0.0 120.515351,23.449723,0.0 120.514578,23.449971,0.0 120.513913,23.450208,0.0 120.512948,23.450566,0.0 120.51216,23.450864,0.0 120.511493,23.451103,0.0 120.51075,23.451417,0.0 120.510107,23.451842,0.0 120.509644,23.452285,0.0 120.509161,23.452421,0.0 120.508267,23.45026,0.0 120.50773,23.44848,0.0 120.507525,23.446662,0.0 120.50781,23.444195,0.0 120.508259,23.444537,0.0 120.509737,23.443795,0.0 120.511459,23.443218,0.0 120.511823,23.438431,0.0 120.511958,23.43756,0.0 120.514682,23.437654,0.0 120.515085,23.438073,0.0 120.515496,23.438149,0.0 120.516192,23.438099,0.0 120.517099,23.438303,0.0 120.517841,23.438517,0.0 120.518499,23.44082,0.0 120.519919,23.442007,0.0 120.522803,23.44263,0.0 120.525096,23.442612,0.0 120.526168,23.442581,0.0 120.527615,23.442371,0.0 120.52892,23.442129,0.0 120.530215,23.441456,0.0 120.532741,23.442055,0.0 120.535317,23.448273,0.0 120.535874,23.452685,0.0</coordinates></LinearRing></outerBoundaryIs></Polygon><styleUrl>#spolygon-map</styleUrl></Placemark><Placemark><Polygon><outerBoundaryIs><LinearRing><coordinates>120.517597,23.438228,0.0 120.516872,23.438237,0.0 120.515972,23.438119,0.0 120.515332,23.438119,0.0 120.515,23.438014,0.0 120.514378,23.437531,0.0 120.511602,23.437462,0.0 120.510684,23.437436,0.0 120.509424,23.437895,0.0 120.508092,23.438119,0.0 120.506548,23.437543,0.0 120.504206,23.435817,0.0 120.503252,23.435882,0.0 120.499816,23.434948,0.0 120.495864,23.436881,0.0 120.490073,23.435226,0.0 120.490371,23.434947,0.0 120.490797,23.434418,0.0 120.491182,23.434003,0.0 120.491464,23.433625,0.0 120.491942,23.433403,0.0 120.492384,23.433219,0.0 120.492828,23.432842,0.0 120.493266,23.432495,0.0 120.493543,23.431948,0.0 120.493674,23.431485,0.0 120.493872,23.431057,0.0 120.493908,23.430497,0.0 120.493917,23.429732,0.0 120.493813,23.42924,0.0 120.493741,23.428759,0.0 120.493466,23.428227,0.0 120.493444,23.427586,0.0 120.493461,23.427162,0.0 120.493172,23.426689,0.0 120.495315,23.425768,0.0 120.497023,23.42215,0.0 120.50232,23.421623,0.0 120.502423,23.42489,0.0 120.504034,23.42648,0.0 120.507047,23.424738,0.0 120.515285,23.422434,0.0 120.518372,23.424999,0.0 120.517981,23.428253,0.0 120.516783,23.428123,0.0 120.515102,23.431581,0.0 120.511897,23.434756,0.0 120.513211,23.434749,0.0 120.514683,23.434602,0.0 120.516176,23.433947,0.0 120.517068,23.433571,0.0 120.517238,23.432278,0.0 120.51822,23.432209,0.0 120.518609,23.433106,0.0 120.518188,23.434579,0.0 120.517171,23.436723,0.0 120.517439,23.438058,0.0 120.517597,23.438228,0.0</coordinates></LinearRing></outerBoundaryIs></Polygon><styleUrl>#spolygon-map</styleUrl></Placemark><Placemark><Polygon><outerBoundaryIs><LinearRing><coordinates>120.517943,23.421744,0.0 120.510312,23.423962,0.0 120.504318,23.426327,0.0 120.502503,23.425556,0.0 120.50259,23.421703,0.0 120.497512,23.422937,0.0 120.499772,23.419102,0.0 120.505041,23.417911,0.0 120.506255,23.416245,0.0 120.510111,23.415916,0.0 120.514994,23.417008,0.0 120.517873,23.419089,0.0 120.517943,23.421744,0.0</coordinates></LinearRing></outerBoundaryIs></Polygon><styleUrl>#spolygon-map</styleUrl></Placemark><Placemark><Polygon><outerBoundaryIs><LinearRing><coordinates>120.562142,23.432155,0.0 120.553204,23.435575,0.0 120.550842,23.435968,0.0 120.548454,23.436478,0.0 120.546548,23.43677,0.0 120.544353,23.437105,0.0 120.542777,23.437874,0.0 120.5416,23.437991,0.0 120.539697,23.437215,0.0 120.53932,23.436609,0.0 120.540183,23.435937,0.0 120.540242,23.434878,0.0 120.539158,23.433694,0.0 120.537575,23.433656,0.0 120.536087,23.433866,0.0 120.532222,23.43168,0.0 120.530573,23.431587,0.0 120.528457,23.430829,0.0 120.527221,23.431866,0.0 120.525942,23.433124,0.0 120.523597,23.432011,0.0 120.522771,23.43053,0.0 120.521359,23.430961,0.0 120.519994,23.432354,0.0 120.518817,23.432585,0.0 120.517722,23.432117,0.0 120.517145,23.433366,0.0 120.516682,23.43359,0.0 120.515098,23.434671,0.0 120.513572,23.434655,0.0 120.512285,23.434827,0.0 120.514229,23.431986,0.0 120.51618,23.429265,0.0 120.517655,23.428152,0.0 120.518642,23.428237,0.0 120.520933,23.427219,0.0 120.52606,23.425338,0.0 120.5305,23.42532,0.0 120.533089,23.424955,0.0 120.534712,23.424285,0.0 120.536541,23.422017,0.0 120.540676,23.419898,0.0 120.544299,23.422252,0.0 120.547942,23.426868,0.0 120.562142,23.432155,0.0</coordinates></LinearRing></outerBoundaryIs></Polygon><styleUrl>#spolygon-map</styleUrl></Placemark><Placemark><Polygon><outerBoundaryIs><LinearRing><coordinates>120.597747,23.427613,0.0 120.591969,23.427236,0.0 120.582538,23.430561,0.0 120.576012,23.430196,0.0 120.565784,23.431675,0.0 120.563232,23.432427,0.0 120.54806,23.427133,0.0 120.544713,23.422655,0.0 120.546207,23.419901,0.0 120.5506,23.419494,0.0 120.560065,23.41292,0.0 120.565821,23.412137,0.0 120.570853,23.408552,0.0 120.577956,23.40791,0.0 120.585744,23.402863,0.0 120.589366,23.403468,0.0 120.590036,23.405193,0.0 120.592658,23.407087,0.0 120.594927,23.408449,0.0 120.597446,23.410427,0.0 120.600116,23.411379,0.0 120.603192,23.411781,0.0 120.602976,23.412136,0.0 120.602733,23.412504,0.0 120.602412,23.412882,0.0 120.602083,23.413215,0.0 120.601829,23.413459,0.0 120.601458,23.414011,0.0 120.601149,23.414405,0.0 120.601542,23.414812,0.0 120.602295,23.41555,0.0 120.60291,23.416306,0.0 120.603077,23.416787,0.0 120.602997,23.417293,0.0 120.603011,23.417922,0.0 120.602989,23.418419,0.0 120.602866,23.418988,0.0 120.602664,23.41931,0.0 120.602135,23.41974,0.0 120.601961,23.420159,0.0 120.602259,23.420891,0.0 120.602549,23.421533,0.0 120.602409,23.421917,0.0 120.601922,23.422211,0.0 120.601647,23.422617,0.0 120.601514,23.423009,0.0 120.601438,23.423386,0.0 120.601416,23.423774,0.0 120.601364,23.424246,0.0 120.601048,23.424771,0.0 120.600516,23.425253,0.0 120.600262,23.425602,0.0 120.59993,23.425888,0.0 120.599602,23.426054,0.0 120.599197,23.426652,0.0 120.598901,23.426978,0.0 120.598526,23.427239,0.0 120.59814,23.427522,0.0 120.597747,23.427613,0.0</coordinates></LinearRing></outerBoundaryIs></Polygon><styleUrl>#spolygon-map</styleUrl></Placemark><Placemark><Polygon><outerBoundaryIs><LinearRing><coordinates>120.544036,23.421437,0.0 120.537203,23.418927,0.0 120.538438,23.413661,0.0 120.546114,23.410647,0.0 120.541298,23.403998,0.0 120.545606,23.400261,0.0 120.554248,23.397525,0.0 120.559826,23.388748,0.0 120.569371,23.386029,0.0 120.57118,23.381445,0.0 120.57517,23.378823,0.0 120.582082,23.378941,0.0 120.588009,23.374038,0.0 120.594299,23.368564,0.0 120.594593,23.368865,0.0 120.59486,23.369355,0.0 120.59514,23.369623,0.0 120.595665,23.369723,0.0 120.596277,23.369924,0.0 120.59687,23.370338,0.0 120.597347,23.37057,0.0 120.597749,23.370666,0.0 120.597971,23.371002,0.0 120.598066,23.371526,0.0 120.598283,23.371954,0.0 120.598571,23.372352,0.0 120.598801,23.37284,0.0 120.598684,23.37356,0.0 120.598581,23.373989,0.0 120.598757,23.374515,0.0 120.598764,23.374985,0.0 120.598394,23.375356,0.0 120.5981,23.375773,0.0 120.597911,23.376317,0.0 120.598011,23.376782,0.0 120.597954,23.377346,0.0 120.597935,23.377847,0.0 120.598008,23.378333,0.0 120.598033,23.37894,0.0 120.598005,23.379565,0.0 120.598025,23.380096,0.0 120.597949,23.380529,0.0 120.597983,23.380985,0.0 120.598169,23.381449,0.0 120.598495,23.381928,0.0 120.598829,23.382527,0.0 120.599239,23.383192,0.0 120.599671,23.383803,0.0 120.600217,23.384438,0.0 120.600913,23.385104,0.0 120.601223,23.385461,0.0 120.601362,23.385933,0.0 120.60136,23.386396,0.0 120.601517,23.386738,0.0 120.601854,23.387104,0.0 120.602137,23.387568,0.0 120.602459,23.388097,0.0 120.602556,23.388447,0.0 120.602866,23.388856,0.0 120.603012,23.389496,0.0 120.603218,23.390232,0.0 120.603409,23.390822,0.0 120.603648,23.391389,0.0 120.603656,23.391789,0.0 120.60346,23.392156,0.0 120.603565,23.392506,0.0 120.603761,23.39299,0.0 120.603927,23.393582,0.0 120.604144,23.394228,0.0 120.604359,23.394682,0.0 120.604582,23.395193,0.0 120.60485,23.395736,0.0 120.60449,23.396159,0.0 120.603801,23.396532,0.0 120.603061,23.396806,0.0 120.602348,23.397136,0.0 120.601729,23.397479,0.0 120.601478,23.397847,0.0 120.601395,23.39823,0.0 120.601299,23.398648,0.0 120.601412,23.399161,0.0 120.601451,23.399768,0.0 120.601528,23.400253,0.0 120.601701,23.400685,0.0 120.601526,23.400996,0.0 120.601208,23.40144,0.0 120.601087,23.402036,0.0 120.601256,23.402653,0.0 120.601815,23.403004,0.0 120.602466,23.403136,0.0 120.60274,23.403428,0.0 120.602718,23.403966,0.0 120.602477,23.404376,0.0 120.602471,23.404924,0.0 120.602517,23.405423,0.0 120.602741,23.406047,0.0 120.603056,23.406393,0.0 120.603162,23.406931,0.0 120.603273,23.407358,0.0 120.603522,23.408054,0.0 120.603821,23.408413,0.0 120.603863,23.408843,0.0 120.604038,23.409448,0.0 120.604155,23.409988,0.0 120.604181,23.410451,0.0 120.603856,23.41087,0.0 120.603373,23.411329,0.0 120.602336,23.41185,0.0 120.599276,23.41112,0.0 120.596863,23.409992,0.0 120.594321,23.407931,0.0 120.591893,23.406534,0.0 120.589785,23.404896,0.0 120.588864,23.402927,0.0 120.583215,23.402912,0.0 120.577137,23.408131,0.0 120.568428,23.409175,0.0 120.565098,23.412496,0.0 120.555932,23.415877,0.0 120.548661,23.419755,0.0 120.544697,23.421341,0.0 120.544036,23.421437,0.0</coordinates></LinearRing></outerBoundaryIs></Polygon><styleUrl>#spolygon-map</styleUrl></Placemark></Document>
</kml>
