<?xml version="1.0" encoding="UTF-8"?>
<kml xmlns="http://www.opengis.net/kml/2.2">
	<Document>
		<name>基隆市暖暖區</name>
		<Style id="spolygon">
			<LabelStyle>
				<scale>0.0</scale>
			</LabelStyle>
			<LineStyle>
				<color>330030ff</color>
				<width>0</width>
			</LineStyle>
			<PolyStyle>
				<color>330030ff</color>
			</PolyStyle>
		</Style>
		<StyleMap id="spolygon-map">
			<Pair>
				<key>normal</key>
				<styleUrl>#spolygon</styleUrl>
			</Pair>
		</StyleMap>
	<Placemark><Polygon><outerBoundaryIs><LinearRing><coordinates>121.726641,25.107391,0.0 121.727976,25.10841,0.0 121.729047,25.109006,0.0 121.730882,25.109176,0.0 121.732783,25.109768,0.0 121.728718,25.110725,0.0 121.726377,25.107248,0.0 121.726641,25.107391,0.0</coordinates></LinearRing></outerBoundaryIs></Polygon><styleUrl>#spolygon-map</styleUrl></Placemark><Placemark><Polygon><outerBoundaryIs><LinearRing><coordinates>121.732459,25.11315,0.0 121.728428,25.111821,0.0 121.730614,25.111165,0.0 121.733827,25.109424,0.0 121.735832,25.109559,0.0 121.739912,25.108337,0.0 121.738693,25.111076,0.0 121.737961,25.11249,0.0 121.736181,25.113394,0.0 121.733416,25.113245,0.0 121.732459,25.11315,0.0</coordinates></LinearRing></outerBoundaryIs></Polygon><styleUrl>#spolygon-map</styleUrl></Placemark><Placemark><Polygon><outerBoundaryIs><LinearRing><coordinates>121.730297,25.109688,0.0 121.728548,25.10878,0.0 121.727456,25.107943,0.0 121.725483,25.106779,0.0 121.721202,25.100685,0.0 121.718775,25.09983,0.0 121.71905,25.098591,0.0 121.721159,25.097975,0.0 121.724702,25.096207,0.0 121.728046,25.093807,0.0 121.72879,25.094842,0.0 121.729805,25.096389,0.0 121.731457,25.098431,0.0 121.73264,25.10033,0.0 121.733562,25.102402,0.0 121.731365,25.105058,0.0 121.731212,25.107017,0.0 121.731645,25.108754,0.0 121.730297,25.109688,0.0</coordinates></LinearRing></outerBoundaryIs></Polygon><styleUrl>#spolygon-map</styleUrl></Placemark><Placemark><Polygon><outerBoundaryIs><LinearRing><coordinates>121.732783,25.109768,0.0 121.732111,25.108497,0.0 121.731196,25.106602,0.0 121.731709,25.104713,0.0 121.733737,25.101931,0.0 121.732411,25.09997,0.0 121.733165,25.097769,0.0 121.733511,25.09802,0.0 121.733748,25.099789,0.0 121.735571,25.101588,0.0 121.736618,25.101617,0.0 121.737295,25.102788,0.0 121.737912,25.103689,0.0 121.735727,25.105958,0.0 121.732783,25.109768,0.0</coordinates></LinearRing></outerBoundaryIs></Polygon><styleUrl>#spolygon-map</styleUrl></Placemark><Placemark><Polygon><outerBoundaryIs><LinearRing><coordinates>121.73595,25.101607,0.0 121.734947,25.100932,0.0 121.733654,25.098796,0.0 121.733643,25.097021,0.0 121.73434,25.096741,0.0 121.735002,25.098488,0.0 121.736493,25.099978,0.0 121.73736,25.100901,0.0 121.738031,25.101706,0.0 121.738585,25.102396,0.0 121.737999,25.102998,0.0 121.73722,25.102673,0.0 121.736358,25.101269,0.0 121.73595,25.101607,0.0</coordinates></LinearRing></outerBoundaryIs></Polygon><styleUrl>#spolygon-map</styleUrl></Placemark><Placemark><Polygon><outerBoundaryIs><LinearRing><coordinates>121.744949,25.085414,0.0 121.744654,25.086406,0.0 121.746275,25.087794,0.0 121.747973,25.089158,0.0 121.749516,25.090134,0.0 121.745719,25.090505,0.0 121.744223,25.093699,0.0 121.739965,25.094903,0.0 121.738834,25.096651,0.0 121.737207,25.096012,0.0 121.735054,25.094501,0.0 121.73425,25.096388,0.0 121.733552,25.09776,0.0 121.733216,25.097694,0.0 121.731831,25.099007,0.0 121.730384,25.097136,0.0 121.729003,25.095572,0.0 121.728348,25.093496,0.0 121.724995,25.084983,0.0 121.726173,25.082143,0.0 121.724065,25.080501,0.0 121.723673,25.077668,0.0 121.725177,25.074285,0.0 121.725641,25.071349,0.0 121.726949,25.068823,0.0 121.728329,25.065233,0.0 121.727952,25.060991,0.0 121.727541,25.058159,0.0 121.727343,25.055996,0.0 121.728298,25.054787,0.0 121.729326,25.053592,0.0 121.729981,25.053099,0.0 121.730256,25.052999,0.0 121.730685,25.053015,0.0 121.731269,25.052919,0.0 121.731908,25.05272,0.0 121.732199,25.052745,0.0 121.732406,25.052933,0.0 121.73264,25.053351,0.0 121.732869,25.053521,0.0 121.733421,25.053719,0.0 121.735105,25.054225,0.0 121.735687,25.054335,0.0 121.736191,25.054389,0.0 121.736652,25.054552,0.0 121.737135,25.054819,0.0 121.737429,25.054848,0.0 121.737711,25.05477,0.0 121.737961,25.054558,0.0 121.738252,25.054389,0.0 121.738782,25.054247,0.0 121.739055,25.054144,0.0 121.739257,25.053948,0.0 121.739547,25.053435,0.0 121.739763,25.053252,0.0 121.740107,25.053182,0.0 121.740701,25.05319,0.0 121.741308,25.053068,0.0 121.741697,25.053005,0.0 121.741992,25.053035,0.0 121.742399,25.053109,0.0 121.742643,25.052963,0.0 121.742968,25.052688,0.0 121.743261,25.052651,0.0 121.743459,25.052832,0.0 121.743674,25.053252,0.0 121.743956,25.053327,0.0 121.74489,25.053232,0.0 121.745683,25.053192,0.0 121.746071,25.053259,0.0 121.746324,25.053409,0.0 121.746716,25.053753,0.0 121.747109,25.053942,0.0 121.747559,25.054034,0.0 121.747825,25.054145,0.0 121.747852,25.054493,0.0 121.747859,25.054806,0.0 121.748008,25.055038,0.0 121.74834,25.055307,0.0 121.74856,25.055545,0.0 121.746648,25.057947,0.0 121.746385,25.060801,0.0 121.746958,25.063506,0.0 121.747352,25.066718,0.0 121.746293,25.07019,0.0 121.746372,25.073819,0.0 121.745984,25.07745,0.0 121.745486,25.079456,0.0 121.744632,25.084644,0.0 121.744949,25.085414,0.0</coordinates></LinearRing></outerBoundaryIs></Polygon><styleUrl>#spolygon-map</styleUrl></Placemark><Placemark><Polygon><outerBoundaryIs><LinearRing><coordinates>121.752649,25.086631,0.0 121.750029,25.089464,0.0 121.747973,25.089158,0.0 121.746275,25.087794,0.0 121.744654,25.086406,0.0 121.744949,25.085414,0.0 121.745136,25.080224,0.0 121.746073,25.078027,0.0 121.746262,25.074469,0.0 121.746384,25.070776,0.0 121.747244,25.067405,0.0 121.74709,25.064011,0.0 121.746394,25.061396,0.0 121.746418,25.058327,0.0 121.748295,25.055799,0.0 121.748971,25.055562,0.0 121.749327,25.055669,0.0 121.749661,25.055935,0.0 121.750237,25.056613,0.0 121.750785,25.057111,0.0 121.751501,25.057593,0.0 121.751952,25.057777,0.0 121.752444,25.057803,0.0 121.752785,25.057853,0.0 121.75327,25.058058,0.0 121.753932,25.058242,0.0 121.754475,25.058251,0.0 121.754837,25.058261,0.0 121.755298,25.058423,0.0 121.756308,25.058993,0.0 121.757097,25.059449,0.0 121.757391,25.059449,0.0 121.757653,25.059325,0.0 121.757896,25.059223,0.0 121.758063,25.059439,0.0 121.758302,25.059599,0.0 121.758796,25.059569,0.0 121.759164,25.059447,0.0 121.759725,25.059251,0.0 121.760219,25.059229,0.0 121.760702,25.059298,0.0 121.760988,25.05924,0.0 121.761205,25.059058,0.0 121.761654,25.058475,0.0 121.762123,25.058145,0.0 121.763271,25.057587,0.0 121.763596,25.057482,0.0 121.763888,25.057483,0.0 121.764597,25.057713,0.0 121.765059,25.058052,0.0 121.76549,25.058546,0.0 121.766409,25.059966,0.0 121.766679,25.060692,0.0 121.766889,25.061099,0.0 121.767315,25.061522,0.0 121.768458,25.062456,0.0 121.769434,25.063111,0.0 121.770061,25.063379,0.0 121.770528,25.063614,0.0 121.770867,25.063638,0.0 121.771537,25.063483,0.0 121.771814,25.063554,0.0 121.772132,25.064009,0.0 121.772553,25.064794,0.0 121.772738,25.065401,0.0 121.772776,25.065896,0.0 121.772897,25.066426,0.0 121.773185,25.067049,0.0 121.773609,25.06762,0.0 121.774951,25.069009,0.0 121.775551,25.069691,0.0 121.775738,25.070107,0.0 121.775792,25.070615,0.0 121.775663,25.070851,0.0 121.775256,25.071011,0.0 121.774957,25.071166,0.0 121.774811,25.071399,0.0 121.774165,25.072597,0.0 121.773773,25.073001,0.0 121.773097,25.073459,0.0 121.772392,25.074121,0.0 121.77192,25.0747,0.0 121.77168,25.075139,0.0 121.771715,25.075588,0.0 121.771675,25.075854,0.0 121.771273,25.076491,0.0 121.770289,25.077705,0.0 121.769911,25.078061,0.0 121.769275,25.078409,0.0 121.768437,25.078684,0.0 121.767224,25.07891,0.0 121.765397,25.079046,0.0 121.763945,25.079036,0.0 121.763275,25.078874,0.0 121.762489,25.07878,0.0 121.761897,25.078815,0.0 121.761525,25.078936,0.0 121.761307,25.079111,0.0 121.760874,25.079871,0.0 121.760047,25.081297,0.0 121.759558,25.082334,0.0 121.759356,25.083031,0.0 121.759313,25.083615,0.0 121.759371,25.084154,0.0 121.75936,25.084921,0.0 121.759172,25.08785,0.0 121.757603,25.08722,0.0 121.754915,25.08567,0.0 121.752649,25.086631,0.0</coordinates></LinearRing></outerBoundaryIs></Polygon><styleUrl>#spolygon-map</styleUrl></Placemark><Placemark><Polygon><outerBoundaryIs><LinearRing><coordinates>121.737942,25.103745,0.0 121.738521,25.102834,0.0 121.738437,25.102128,0.0 121.737931,25.101602,0.0 121.737278,25.100829,0.0 121.735723,25.099241,0.0 121.734676,25.097604,0.0 121.73425,25.096388,0.0 121.735054,25.094501,0.0 121.737207,25.096012,0.0 121.738834,25.096651,0.0 121.739965,25.094903,0.0 121.741438,25.096259,0.0 121.741212,25.098752,0.0 121.742932,25.09897,0.0 121.743227,25.100204,0.0 121.743356,25.101856,0.0 121.741772,25.102789,0.0 121.737942,25.103745,0.0</coordinates></LinearRing></outerBoundaryIs></Polygon><styleUrl>#spolygon-map</styleUrl></Placemark><Placemark><Polygon><outerBoundaryIs><LinearRing><coordinates>121.756777,25.10211,0.0 121.756694,25.102816,0.0 121.756799,25.103,0.0 121.757494,25.103058,0.0 121.757707,25.103463,0.0 121.757995,25.10365,0.0 121.758061,25.1039,0.0 121.757925,25.104087,0.0 121.757489,25.104372,0.0 121.757303,25.105281,0.0 121.757481,25.106212,0.0 121.757521,25.106648,0.0 121.756798,25.10733,0.0 121.756378,25.107832,0.0 121.756121,25.108319,0.0 121.75577,25.108604,0.0 121.755131,25.108846,0.0 121.754397,25.108941,0.0 121.754063,25.108896,0.0 121.753619,25.108611,0.0 121.753438,25.108398,0.0 121.753066,25.107492,0.0 121.752809,25.107056,0.0 121.752595,25.107007,0.0 121.75201,25.107559,0.0 121.751655,25.107802,0.0 121.751385,25.107785,0.0 121.751013,25.107728,0.0 121.750741,25.107986,0.0 121.750141,25.108923,0.0 121.749908,25.109463,0.0 121.747074,25.106778,0.0 121.744015,25.106547,0.0 121.74137,25.107409,0.0 121.739728,25.108031,0.0 121.735405,25.109606,0.0 121.733601,25.109323,0.0 121.737228,25.104237,0.0 121.74403,25.102703,0.0 121.747432,25.099506,0.0 121.753148,25.100507,0.0 121.755935,25.101766,0.0 121.756777,25.10211,0.0</coordinates></LinearRing></outerBoundaryIs></Polygon><styleUrl>#spolygon-map</styleUrl></Placemark><Placemark><Polygon><outerBoundaryIs><LinearRing><coordinates>121.751019,25.099585,0.0 121.751239,25.097603,0.0 121.752154,25.096932,0.0 121.753101,25.09641,0.0 121.754014,25.095999,0.0 121.755194,25.096729,0.0 121.754575,25.098702,0.0 121.754254,25.100079,0.0 121.751019,25.099585,0.0</coordinates></LinearRing></outerBoundaryIs></Polygon><styleUrl>#spolygon-map</styleUrl></Placemark><Placemark><Polygon><outerBoundaryIs><LinearRing><coordinates>121.759394,25.098398,0.0 121.759361,25.099049,0.0 121.75952,25.099619,0.0 121.759681,25.100024,0.0 121.759869,25.100452,0.0 121.759526,25.100958,0.0 121.758037,25.101528,0.0 121.756789,25.102011,0.0 121.754732,25.101209,0.0 121.754363,25.099656,0.0 121.754864,25.097384,0.0 121.755489,25.096228,0.0 121.758665,25.09397,0.0 121.758742,25.094554,0.0 121.759056,25.095692,0.0 121.759365,25.09714,0.0 121.759316,25.097685,0.0 121.759411,25.098122,0.0 121.759394,25.098398,0.0</coordinates></LinearRing></outerBoundaryIs></Polygon><styleUrl>#spolygon-map</styleUrl></Placemark><Placemark><Polygon><outerBoundaryIs><LinearRing><coordinates>121.752207,25.096919,0.0 121.751571,25.097234,0.0 121.750909,25.098306,0.0 121.747913,25.099246,0.0 121.745535,25.102803,0.0 121.743547,25.102171,0.0 121.743095,25.100476,0.0 121.743082,25.098995,0.0 121.741258,25.098756,0.0 121.741213,25.096838,0.0 121.744128,25.095067,0.0 121.748073,25.094855,0.0 121.749771,25.09521,0.0 121.75111,25.095444,0.0 121.752257,25.095599,0.0 121.752857,25.096514,0.0 121.752207,25.096919,0.0</coordinates></LinearRing></outerBoundaryIs></Polygon><styleUrl>#spolygon-map</styleUrl></Placemark><Placemark><Polygon><outerBoundaryIs><LinearRing><coordinates>121.754693,25.096318,0.0 121.753854,25.095809,0.0 121.752256,25.095599,0.0 121.750893,25.09541,0.0 121.749744,25.095206,0.0 121.747466,25.094772,0.0 121.743096,25.094725,0.0 121.74515,25.091447,0.0 121.748375,25.090366,0.0 121.750472,25.088252,0.0 121.753667,25.086006,0.0 121.756337,25.085649,0.0 121.759168,25.088217,0.0 121.759203,25.088842,0.0 121.75931,25.089281,0.0 121.759735,25.089919,0.0 121.759839,25.090171,0.0 121.759833,25.090485,0.0 121.759688,25.090916,0.0 121.759083,25.092045,0.0 121.758848,25.092591,0.0 121.758703,25.093162,0.0 121.758657,25.093746,0.0 121.755647,25.095978,0.0 121.754693,25.096318,0.0</coordinates></LinearRing></outerBoundaryIs></Polygon><styleUrl>#spolygon-map</styleUrl></Placemark></Document>
</kml>
