<?xml version="1.0" encoding="UTF-8"?>
<kml xmlns="http://www.opengis.net/kml/2.2">
	<Document>
		<name>宜蘭縣壯圍鄉</name>
		<Style id="spolygon">
			<LabelStyle>
				<scale>0.0</scale>
			</LabelStyle>
			<LineStyle>
				<color>330030ff</color>
				<width>0</width>
			</LineStyle>
			<PolyStyle>
				<color>330030ff</color>
			</PolyStyle>
		</Style>
		<StyleMap id="spolygon-map">
			<Pair>
				<key>normal</key>
				<styleUrl>#spolygon</styleUrl>
			</Pair>
		</StyleMap>
	<Placemark><Polygon><outerBoundaryIs><LinearRing><coordinates>121.788232,24.751407,0.0 121.786511,24.751102,0.0 121.785245,24.750391,0.0 121.785071,24.748679,0.0 121.78284,24.748121,0.0 121.782543,24.747672,0.0 121.785013,24.742493,0.0 121.786733,24.736311,0.0 121.788389,24.739212,0.0 121.792959,24.742718,0.0 121.795547,24.747164,0.0 121.797405,24.748066,0.0 121.796434,24.74988,0.0 121.790626,24.751225,0.0 121.788232,24.751407,0.0</coordinates></LinearRing></outerBoundaryIs></Polygon><styleUrl>#spolygon-map</styleUrl></Placemark><Placemark><Polygon><outerBoundaryIs><LinearRing><coordinates>121.78534,24.738818,0.0 121.779177,24.738447,0.0 121.778009,24.738349,0.0 121.7771,24.737636,0.0 121.775696,24.73491,0.0 121.775325,24.727577,0.0 121.774143,24.722012,0.0 121.773508,24.718792,0.0 121.774761,24.71538,0.0 121.779792,24.715271,0.0 121.782877,24.714864,0.0 121.786894,24.713532,0.0 121.788491,24.714957,0.0 121.79296,24.71727,0.0 121.793344,24.718636,0.0 121.793734,24.718777,0.0 121.794417,24.719176,0.0 121.794641,24.719602,0.0 121.794706,24.720025,0.0 121.794807,24.720404,0.0 121.794958,24.720801,0.0 121.795169,24.724339,0.0 121.791946,24.729298,0.0 121.789625,24.734588,0.0 121.785472,24.73702,0.0 121.78534,24.738818,0.0</coordinates></LinearRing></outerBoundaryIs></Polygon><styleUrl>#spolygon-map</styleUrl></Placemark><Placemark><Polygon><outerBoundaryIs><LinearRing><coordinates>121.815477,24.727654,0.0 121.812201,24.731545,0.0 121.807074,24.732859,0.0 121.805196,24.735563,0.0 121.803747,24.730658,0.0 121.802317,24.727582,0.0 121.799682,24.728574,0.0 121.796757,24.730609,0.0 121.792798,24.729004,0.0 121.794982,24.723003,0.0 121.794987,24.720763,0.0 121.794781,24.720314,0.0 121.794701,24.71994,0.0 121.794628,24.719563,0.0 121.794351,24.719028,0.0 121.793614,24.718758,0.0 121.793256,24.718316,0.0 121.792343,24.716513,0.0 121.788444,24.71495,0.0 121.791937,24.712979,0.0 121.805741,24.7124,0.0 121.809569,24.711946,0.0 121.812796,24.712118,0.0 121.816452,24.712516,0.0 121.820235,24.714148,0.0 121.824585,24.716141,0.0 121.821945,24.718426,0.0 121.817182,24.722566,0.0 121.815477,24.727654,0.0</coordinates></LinearRing></outerBoundaryIs></Polygon><styleUrl>#spolygon-map</styleUrl></Placemark><Placemark><Polygon><outerBoundaryIs><LinearRing><coordinates>121.825546,24.734355,0.0 121.823128,24.733692,0.0 121.822684,24.733682,0.0 121.8218,24.733568,0.0 121.821208,24.73273,0.0 121.821382,24.732357,0.0 121.821575,24.732052,0.0 121.819341,24.730228,0.0 121.818625,24.730477,0.0 121.818408,24.724615,0.0 121.817182,24.722566,0.0 121.821945,24.718426,0.0 121.828858,24.71617,0.0 121.834278,24.716569,0.0 121.834331,24.718182,0.0 121.832661,24.720841,0.0 121.829349,24.726653,0.0 121.827731,24.729806,0.0 121.826436,24.732037,0.0 121.825546,24.734355,0.0</coordinates></LinearRing></outerBoundaryIs></Polygon><styleUrl>#spolygon-map</styleUrl></Placemark><Placemark><Polygon><outerBoundaryIs><LinearRing><coordinates>121.820728,24.749894,0.0 121.819114,24.74988,0.0 121.818269,24.749808,0.0 121.817912,24.749674,0.0 121.817685,24.749564,0.0 121.817534,24.749452,0.0 121.817303,24.749059,0.0 121.816622,24.749133,0.0 121.813286,24.749182,0.0 121.806576,24.744713,0.0 121.805512,24.744516,0.0 121.804999,24.744169,0.0 121.804667,24.74305,0.0 121.80405,24.742478,0.0 121.803428,24.741091,0.0 121.80348,24.739747,0.0 121.805945,24.734802,0.0 121.810897,24.732579,0.0 121.812367,24.730168,0.0 121.816458,24.726301,0.0 121.818408,24.724615,0.0 121.818625,24.730477,0.0 121.819341,24.730228,0.0 121.821575,24.732052,0.0 121.821382,24.732357,0.0 121.821208,24.73273,0.0 121.8218,24.733568,0.0 121.822684,24.733682,0.0 121.823128,24.733692,0.0 121.825289,24.734855,0.0 121.82377,24.738402,0.0 121.822132,24.743506,0.0 121.820728,24.749894,0.0</coordinates></LinearRing></outerBoundaryIs></Polygon><styleUrl>#spolygon-map</styleUrl></Placemark><Placemark><Polygon><outerBoundaryIs><LinearRing><coordinates>121.814488,24.764021,0.0 121.809611,24.764352,0.0 121.812486,24.757068,0.0 121.812855,24.754427,0.0 121.812663,24.753505,0.0 121.812916,24.753049,0.0 121.812743,24.75239,0.0 121.81319,24.751892,0.0 121.813543,24.751178,0.0 121.81303,24.750498,0.0 121.81297,24.750108,0.0 121.812831,24.749714,0.0 121.812468,24.749328,0.0 121.816374,24.749114,0.0 121.817262,24.749056,0.0 121.817519,24.749346,0.0 121.817655,24.749559,0.0 121.817888,24.749668,0.0 121.818153,24.749795,0.0 121.819037,24.749871,0.0 121.820653,24.750167,0.0 121.820233,24.752603,0.0 121.819827,24.755381,0.0 121.819481,24.757439,0.0 121.818976,24.761031,0.0 121.818726,24.764096,0.0 121.817471,24.76388,0.0 121.816764,24.76381,0.0 121.815834,24.763887,0.0 121.814488,24.764021,0.0</coordinates></LinearRing></outerBoundaryIs></Polygon><styleUrl>#spolygon-map</styleUrl></Placemark><Placemark><Polygon><outerBoundaryIs><LinearRing><coordinates>121.816826,24.777494,0.0 121.815165,24.777411,0.0 121.811958,24.770482,0.0 121.812166,24.769528,0.0 121.812009,24.768647,0.0 121.815822,24.763886,0.0 121.816647,24.763797,0.0 121.81748,24.763711,0.0 121.818062,24.764023,0.0 121.818554,24.766477,0.0 121.818396,24.769055,0.0 121.818456,24.770781,0.0 121.818301,24.771931,0.0 121.818379,24.773089,0.0 121.818314,24.773935,0.0 121.818296,24.775436,0.0 121.81832,24.776608,0.0 121.817093,24.777131,0.0 121.81684,24.777333,0.0 121.816826,24.777494,0.0</coordinates></LinearRing></outerBoundaryIs></Polygon><styleUrl>#spolygon-map</styleUrl></Placemark><Placemark><Polygon><outerBoundaryIs><LinearRing><coordinates>121.812009,24.768647,0.0 121.812166,24.769528,0.0 121.811958,24.770482,0.0 121.803732,24.766178,0.0 121.800543,24.765551,0.0 121.797095,24.766306,0.0 121.795934,24.765973,0.0 121.794881,24.76572,0.0 121.791396,24.757551,0.0 121.785661,24.755519,0.0 121.778423,24.760495,0.0 121.777935,24.759455,0.0 121.78022,24.757456,0.0 121.782027,24.756437,0.0 121.782369,24.753146,0.0 121.787527,24.751381,0.0 121.790626,24.751225,0.0 121.796434,24.74988,0.0 121.798922,24.746758,0.0 121.800945,24.740314,0.0 121.803354,24.740583,0.0 121.803766,24.74164,0.0 121.804419,24.74283,0.0 121.804808,24.743448,0.0 121.805309,24.744268,0.0 121.80574,24.744538,0.0 121.809143,24.746098,0.0 121.812603,24.749645,0.0 121.813019,24.749898,0.0 121.812834,24.750287,0.0 121.813406,24.750662,0.0 121.813484,24.751519,0.0 121.812949,24.752192,0.0 121.812998,24.752596,0.0 121.812843,24.75339,0.0 121.812983,24.753916,0.0 121.812821,24.754528,0.0 121.80864,24.757792,0.0 121.812009,24.768647,0.0</coordinates></LinearRing></outerBoundaryIs></Polygon><styleUrl>#spolygon-map</styleUrl></Placemark><Placemark><Polygon><outerBoundaryIs><LinearRing><coordinates>121.80326,24.785603,0.0 121.798642,24.786648,0.0 121.796263,24.778457,0.0 121.789869,24.774815,0.0 121.787186,24.769929,0.0 121.794584,24.769446,0.0 121.797881,24.768357,0.0 121.801848,24.765187,0.0 121.805535,24.770581,0.0 121.811906,24.775107,0.0 121.80782,24.77845,0.0 121.80326,24.785603,0.0</coordinates></LinearRing></outerBoundaryIs></Polygon><styleUrl>#spolygon-map</styleUrl></Placemark><Placemark><Polygon><outerBoundaryIs><LinearRing><coordinates>121.785627,24.773513,0.0 121.78318,24.771929,0.0 121.782329,24.771828,0.0 121.781613,24.771913,0.0 121.780339,24.772115,0.0 121.778679,24.771396,0.0 121.775719,24.770137,0.0 121.774151,24.767717,0.0 121.776419,24.76843,0.0 121.777096,24.767402,0.0 121.779389,24.766417,0.0 121.780721,24.764836,0.0 121.784443,24.763524,0.0 121.786508,24.762466,0.0 121.787419,24.760904,0.0 121.788448,24.758847,0.0 121.789143,24.75818,0.0 121.78822,24.757291,0.0 121.788951,24.755326,0.0 121.795783,24.757315,0.0 121.795469,24.766096,0.0 121.796777,24.7664,0.0 121.797984,24.766233,0.0 121.795572,24.769423,0.0 121.787225,24.769672,0.0 121.785627,24.773513,0.0</coordinates></LinearRing></outerBoundaryIs></Polygon><styleUrl>#spolygon-map</styleUrl></Placemark><Placemark><Polygon><outerBoundaryIs><LinearRing><coordinates>121.803735,24.793506,0.0 121.794296,24.795672,0.0 121.79277,24.793557,0.0 121.792083,24.792105,0.0 121.791581,24.791117,0.0 121.788492,24.784362,0.0 121.786759,24.786169,0.0 121.783898,24.786088,0.0 121.782511,24.784527,0.0 121.779392,24.781431,0.0 121.776581,24.778613,0.0 121.775126,24.771736,0.0 121.771835,24.770882,0.0 121.77064,24.770271,0.0 121.771908,24.767435,0.0 121.774016,24.767799,0.0 121.777837,24.771143,0.0 121.77915,24.771665,0.0 121.781226,24.771932,0.0 121.782039,24.77191,0.0 121.783065,24.771895,0.0 121.783144,24.772277,0.0 121.789978,24.777171,0.0 121.79345,24.780887,0.0 121.800307,24.789046,0.0 121.803735,24.793506,0.0</coordinates></LinearRing></outerBoundaryIs></Polygon><styleUrl>#spolygon-map</styleUrl></Placemark><Placemark><Polygon><outerBoundaryIs><LinearRing><coordinates>121.813344,24.792051,0.0 121.812461,24.792532,0.0 121.810654,24.792724,0.0 121.810521,24.792945,0.0 121.809895,24.793296,0.0 121.808906,24.793548,0.0 121.807362,24.794152,0.0 121.806741,24.795027,0.0 121.803412,24.793362,0.0 121.80326,24.785603,0.0 121.80782,24.77845,0.0 121.811906,24.775107,0.0 121.815459,24.777531,0.0 121.816854,24.777263,0.0 121.817312,24.777104,0.0 121.818403,24.77932,0.0 121.818292,24.783141,0.0 121.818339,24.788612,0.0 121.816738,24.789972,0.0 121.814179,24.789632,0.0 121.813541,24.790151,0.0 121.813902,24.792041,0.0 121.813344,24.792051,0.0</coordinates></LinearRing></outerBoundaryIs></Polygon><styleUrl>#spolygon-map</styleUrl></Placemark><Placemark><Polygon><outerBoundaryIs><LinearRing><coordinates>121.815602,24.807395,0.0 121.812093,24.807971,0.0 121.810488,24.8074,0.0 121.809591,24.803856,0.0 121.808294,24.80227,0.0 121.809759,24.798134,0.0 121.806815,24.795794,0.0 121.807168,24.794367,0.0 121.808576,24.793658,0.0 121.80974,24.793356,0.0 121.810443,24.792961,0.0 121.810603,24.79278,0.0 121.81173,24.79265,0.0 121.813181,24.792172,0.0 121.813903,24.792031,0.0 121.813471,24.789816,0.0 121.81465,24.789584,0.0 121.817117,24.789892,0.0 121.81856,24.791611,0.0 121.819009,24.794396,0.0 121.819478,24.796831,0.0 121.819737,24.799754,0.0 121.820225,24.80351,0.0 121.820366,24.805075,0.0 121.818983,24.80766,0.0 121.816854,24.807616,0.0 121.815602,24.807395,0.0</coordinates></LinearRing></outerBoundaryIs></Polygon><styleUrl>#spolygon-map</styleUrl></Placemark><Placemark><Polygon><outerBoundaryIs><LinearRing><coordinates>121.798952,24.74348,0.0 121.797565,24.748702,0.0 121.796937,24.747827,0.0 121.794143,24.743388,0.0 121.790319,24.741443,0.0 121.788456,24.738828,0.0 121.79223,24.732835,0.0 121.796147,24.729482,0.0 121.800695,24.727868,0.0 121.802742,24.727733,0.0 121.804045,24.731321,0.0 121.805555,24.73605,0.0 121.802147,24.739778,0.0 121.798952,24.74348,0.0</coordinates></LinearRing></outerBoundaryIs></Polygon><styleUrl>#spolygon-map</styleUrl></Placemark></Document>
</kml>
