<?xml version="1.0" encoding="UTF-8"?>
<kml xmlns="http://www.opengis.net/kml/2.2">
	<Document>
		<name>宜蘭縣蘇澳鎮</name>
		<Style id="spolygon">
			<LabelStyle>
				<scale>0.0</scale>
			</LabelStyle>
			<LineStyle>
				<color>330030ff</color>
				<width>0</width>
			</LineStyle>
			<PolyStyle>
				<color>330030ff</color>
			</PolyStyle>
		</Style>
		<StyleMap id="spolygon-map">
			<Pair>
				<key>normal</key>
				<styleUrl>#spolygon</styleUrl>
			</Pair>
		</StyleMap>
	<Placemark><Polygon><outerBoundaryIs><LinearRing><coordinates>121.818203,24.654911,0.0 121.817559,24.654828,0.0 121.815527,24.654524,0.0 121.8154,24.653604,0.0 121.814478,24.652207,0.0 121.814904,24.650792,0.0 121.815802,24.650083,0.0 121.816402,24.649725,0.0 121.816978,24.648393,0.0 121.817502,24.647483,0.0 121.817986,24.645771,0.0 121.818093,24.644895,0.0 121.818974,24.644281,0.0 121.819459,24.64261,0.0 121.820782,24.642529,0.0 121.822617,24.642146,0.0 121.824275,24.640447,0.0 121.825014,24.638362,0.0 121.825378,24.636166,0.0 121.825465,24.634698,0.0 121.825661,24.632846,0.0 121.822953,24.629751,0.0 121.818145,24.626459,0.0 121.818996,24.622684,0.0 121.821404,24.622713,0.0 121.82599,24.627478,0.0 121.829863,24.631045,0.0 121.831831,24.633126,0.0 121.834531,24.637889,0.0 121.832968,24.641549,0.0 121.832059,24.643681,0.0 121.831337,24.645752,0.0 121.830436,24.648515,0.0 121.82827,24.648248,0.0 121.825242,24.647316,0.0 121.823898,24.650187,0.0 121.822751,24.653225,0.0 121.818664,24.654081,0.0 121.818203,24.654911,0.0</coordinates></LinearRing></outerBoundaryIs></Polygon><styleUrl>#spolygon-map</styleUrl></Placemark><Placemark><Polygon><outerBoundaryIs><LinearRing><coordinates>121.834469,24.645951,0.0 121.832472,24.645376,0.0 121.832207,24.643307,0.0 121.833116,24.641216,0.0 121.834481,24.637872,0.0 121.843524,24.633597,0.0 121.847749,24.630691,0.0 121.850711,24.63082,0.0 121.850457,24.632184,0.0 121.847912,24.637604,0.0 121.845197,24.64463,0.0 121.840194,24.643826,0.0 121.837185,24.643167,0.0 121.836402,24.643305,0.0 121.83554,24.64289,0.0 121.835048,24.643226,0.0 121.835172,24.644025,0.0 121.834996,24.644679,0.0 121.834469,24.645951,0.0</coordinates></LinearRing></outerBoundaryIs></Polygon><styleUrl>#spolygon-map</styleUrl></Placemark><Placemark><Polygon><outerBoundaryIs><LinearRing><coordinates>121.833671,24.633308,0.0 121.831845,24.631713,0.0 121.830413,24.62682,0.0 121.832562,24.623271,0.0 121.83152,24.621687,0.0 121.832032,24.620336,0.0 121.832991,24.618011,0.0 121.834548,24.619636,0.0 121.835939,24.619511,0.0 121.838375,24.619276,0.0 121.84172,24.61895,0.0 121.845032,24.619276,0.0 121.840269,24.624042,0.0 121.837269,24.629237,0.0 121.833671,24.633308,0.0</coordinates></LinearRing></outerBoundaryIs></Polygon><styleUrl>#spolygon-map</styleUrl></Placemark><Placemark><Polygon><outerBoundaryIs><LinearRing><coordinates>121.846396,24.631996,0.0 121.842745,24.633703,0.0 121.833698,24.63079,0.0 121.836148,24.627212,0.0 121.841564,24.622858,0.0 121.847366,24.619536,0.0 121.848638,24.620143,0.0 121.849526,24.61994,0.0 121.852106,24.618479,0.0 121.854018,24.617754,0.0 121.85583,24.615822,0.0 121.856843,24.61477,0.0 121.857262,24.614969,0.0 121.855791,24.621361,0.0 121.852511,24.627286,0.0 121.848372,24.630454,0.0 121.846396,24.631996,0.0</coordinates></LinearRing></outerBoundaryIs></Polygon><styleUrl>#spolygon-map</styleUrl></Placemark><Placemark><Polygon><outerBoundaryIs><LinearRing><coordinates>121.848518,24.620155,0.0 121.845645,24.619334,0.0 121.842138,24.618901,0.0 121.842791,24.618247,0.0 121.843036,24.618172,0.0 121.843766,24.617978,0.0 121.846395,24.615699,0.0 121.846639,24.615232,0.0 121.846274,24.614872,0.0 121.844172,24.612948,0.0 121.844011,24.605752,0.0 121.850033,24.604443,0.0 121.852719,24.604378,0.0 121.852593,24.602959,0.0 121.853206,24.603274,0.0 121.853981,24.604277,0.0 121.855862,24.60574,0.0 121.857656,24.606305,0.0 121.860557,24.606984,0.0 121.863426,24.607553,0.0 121.867595,24.607475,0.0 121.872666,24.607547,0.0 121.874687,24.604497,0.0 121.879208,24.604365,0.0 121.880421,24.604225,0.0 121.88251,24.601953,0.0 121.885927,24.599734,0.0 121.885868,24.600063,0.0 121.885542,24.600318,0.0 121.884778,24.600541,0.0 121.884163,24.601141,0.0 121.883809,24.602308,0.0 121.884311,24.602562,0.0 121.884606,24.603059,0.0 121.884886,24.603572,0.0 121.88253,24.603371,0.0 121.881525,24.604039,0.0 121.880371,24.605456,0.0 121.879684,24.605503,0.0 121.879287,24.605435,0.0 121.877619,24.60514,0.0 121.875619,24.605775,0.0 121.873831,24.607884,0.0 121.872009,24.608793,0.0 121.870564,24.608716,0.0 121.86855,24.608908,0.0 121.867173,24.609476,0.0 121.865717,24.609405,0.0 121.863432,24.611235,0.0 121.861442,24.613885,0.0 121.859592,24.616399,0.0 121.857411,24.615385,0.0 121.856951,24.614762,0.0 121.856159,24.615343,0.0 121.854196,24.61769,0.0 121.852642,24.618304,0.0 121.849547,24.619926,0.0 121.848781,24.620167,0.0 121.848518,24.620155,0.0</coordinates></LinearRing></outerBoundaryIs></Polygon><styleUrl>#spolygon-map</styleUrl></Placemark><Placemark><Polygon><outerBoundaryIs><LinearRing><coordinates>121.857987,24.613109,0.0 121.856228,24.610922,0.0 121.86012,24.60941,0.0 121.862888,24.611243,0.0 121.859499,24.612968,0.0 121.857987,24.613109,0.0</coordinates></LinearRing></outerBoundaryIs></Polygon><styleUrl>#spolygon-map</styleUrl></Placemark><Placemark><Polygon><outerBoundaryIs><LinearRing><coordinates>121.842937,24.618149,0.0 121.842402,24.618554,0.0 121.839303,24.619178,0.0 121.837108,24.619397,0.0 121.835612,24.619545,0.0 121.834363,24.619614,0.0 121.830497,24.617679,0.0 121.826491,24.615027,0.0 121.826713,24.612532,0.0 121.832866,24.607995,0.0 121.835606,24.607943,0.0 121.83981,24.608468,0.0 121.843705,24.61137,0.0 121.845434,24.614515,0.0 121.846633,24.61521,0.0 121.846502,24.615411,0.0 121.844511,24.617285,0.0 121.843293,24.618116,0.0 121.842937,24.618149,0.0</coordinates></LinearRing></outerBoundaryIs></Polygon><styleUrl>#spolygon-map</styleUrl></Placemark><Placemark><Polygon><outerBoundaryIs><LinearRing><coordinates>121.83242,24.622686,0.0 121.830399,24.626802,0.0 121.831892,24.63106,0.0 121.828516,24.630407,0.0 121.823576,24.624562,0.0 121.820164,24.621764,0.0 121.816915,24.623983,0.0 121.815696,24.622365,0.0 121.813542,24.622561,0.0 121.812092,24.622404,0.0 121.811463,24.620275,0.0 121.811155,24.618211,0.0 121.811531,24.615989,0.0 121.811607,24.614852,0.0 121.810193,24.611974,0.0 121.808688,24.610928,0.0 121.808533,24.609317,0.0 121.807699,24.608391,0.0 121.803494,24.608421,0.0 121.801485,24.608517,0.0 121.801025,24.606653,0.0 121.800185,24.604701,0.0 121.798723,24.602226,0.0 121.796275,24.60181,0.0 121.800506,24.596058,0.0 121.805814,24.592823,0.0 121.807741,24.588311,0.0 121.812967,24.582918,0.0 121.819003,24.585039,0.0 121.820147,24.593289,0.0 121.818116,24.60492,0.0 121.814478,24.60604,0.0 121.815492,24.607363,0.0 121.817413,24.608406,0.0 121.819951,24.607865,0.0 121.824535,24.613486,0.0 121.826109,24.61465,0.0 121.827548,24.616685,0.0 121.831822,24.619636,0.0 121.831647,24.621581,0.0 121.83242,24.622686,0.0</coordinates></LinearRing></outerBoundaryIs></Polygon><styleUrl>#spolygon-map</styleUrl></Placemark><Placemark><Polygon><outerBoundaryIs><LinearRing><coordinates>121.83357,24.607739,0.0 121.82858,24.610963,0.0 121.825765,24.614563,0.0 121.824329,24.613264,0.0 121.819501,24.607519,0.0 121.816968,24.608347,0.0 121.8152,24.607291,0.0 121.81517,24.605821,0.0 121.818244,24.602368,0.0 121.822931,24.591215,0.0 121.818185,24.58426,0.0 121.815577,24.579882,0.0 121.813502,24.575359,0.0 121.817443,24.576406,0.0 121.821697,24.577643,0.0 121.823355,24.577736,0.0 121.827662,24.575712,0.0 121.828335,24.576168,0.0 121.828628,24.581766,0.0 121.831661,24.582814,0.0 121.834741,24.584031,0.0 121.836471,24.588619,0.0 121.838074,24.591696,0.0 121.840162,24.595533,0.0 121.841041,24.596777,0.0 121.843939,24.601923,0.0 121.844011,24.605752,0.0 121.838121,24.608399,0.0 121.834586,24.607671,0.0 121.83357,24.607739,0.0</coordinates></LinearRing></outerBoundaryIs></Polygon><styleUrl>#spolygon-map</styleUrl></Placemark><Placemark><Polygon><outerBoundaryIs><LinearRing><coordinates>121.849712,24.597472,0.0 121.848831,24.59961,0.0 121.847099,24.597476,0.0 121.846779,24.597317,0.0 121.845677,24.597088,0.0 121.843183,24.597061,0.0 121.842908,24.598483,0.0 121.842055,24.598242,0.0 121.840736,24.596396,0.0 121.839819,24.595018,0.0 121.838099,24.590549,0.0 121.843429,24.588957,0.0 121.845727,24.589993,0.0 121.84627,24.590878,0.0 121.848551,24.591876,0.0 121.848989,24.594785,0.0 121.849834,24.595416,0.0 121.849712,24.597472,0.0</coordinates></LinearRing></outerBoundaryIs></Polygon><styleUrl>#spolygon-map</styleUrl></Placemark><Placemark><Polygon><outerBoundaryIs><LinearRing><coordinates>121.858602,24.605653,0.0 121.859741,24.607006,0.0 121.857165,24.606089,0.0 121.855019,24.605095,0.0 121.85389,24.603811,0.0 121.853123,24.603156,0.0 121.852509,24.603014,0.0 121.851966,24.604559,0.0 121.848423,24.60393,0.0 121.843939,24.601923,0.0 121.842204,24.598186,0.0 121.842983,24.598442,0.0 121.843466,24.59695,0.0 121.846036,24.597072,0.0 121.846893,24.597304,0.0 121.847163,24.598213,0.0 121.849115,24.599622,0.0 121.849735,24.597091,0.0 121.849792,24.595285,0.0 121.85192,24.596189,0.0 121.852167,24.596887,0.0 121.852222,24.597453,0.0 121.851816,24.597535,0.0 121.852517,24.598832,0.0 121.854817,24.600714,0.0 121.856318,24.60051,0.0 121.856891,24.601111,0.0 121.856773,24.602301,0.0 121.856323,24.603716,0.0 121.85707,24.604923,0.0 121.858602,24.605653,0.0</coordinates></LinearRing></outerBoundaryIs></Polygon><styleUrl>#spolygon-map</styleUrl></Placemark><Placemark><Polygon><outerBoundaryIs><LinearRing><coordinates>121.852588,24.595029,0.0 121.853359,24.598359,0.0 121.853358,24.599509,0.0 121.852369,24.598237,0.0 121.852072,24.597696,0.0 121.8524,24.597108,0.0 121.851904,24.59646,0.0 121.852588,24.595029,0.0</coordinates></LinearRing></outerBoundaryIs></Polygon><styleUrl>#spolygon-map</styleUrl></Placemark><Placemark><Polygon><outerBoundaryIs><LinearRing><coordinates>121.866811,24.607932,0.0 121.862912,24.607734,0.0 121.858729,24.605797,0.0 121.857246,24.605017,0.0 121.856497,24.603868,0.0 121.856859,24.602446,0.0 121.856918,24.601256,0.0 121.85652,24.600395,0.0 121.855005,24.600887,0.0 121.85287,24.599367,0.0 121.851777,24.597492,0.0 121.852134,24.598041,0.0 121.852852,24.59896,0.0 121.853863,24.599716,0.0 121.85339,24.595624,0.0 121.855331,24.594545,0.0 121.85565,24.594052,0.0 121.856978,24.594425,0.0 121.857532,24.593858,0.0 121.85911,24.591491,0.0 121.867767,24.592434,0.0 121.867924,24.590266,0.0 121.868273,24.593936,0.0 121.867942,24.597071,0.0 121.86035,24.597654,0.0 121.859623,24.598622,0.0 121.860063,24.598836,0.0 121.856442,24.59985,0.0 121.85808,24.599901,0.0 121.858538,24.600091,0.0 121.858948,24.602984,0.0 121.862433,24.604287,0.0 121.86615,24.603638,0.0 121.867683,24.603699,0.0 121.867052,24.604669,0.0 121.867816,24.604987,0.0 121.868015,24.603496,0.0 121.870773,24.600194,0.0 121.879538,24.60117,0.0 121.871854,24.5985,0.0 121.87686,24.598132,0.0 121.879198,24.598786,0.0 121.879342,24.598987,0.0 121.879923,24.598983,0.0 121.881245,24.598784,0.0 121.881613,24.598303,0.0 121.881552,24.597712,0.0 121.882103,24.595364,0.0 121.881873,24.59736,0.0 121.882597,24.598001,0.0 121.881984,24.598238,0.0 121.882424,24.598693,0.0 121.881792,24.59913,0.0 121.883091,24.599421,0.0 121.884196,24.599252,0.0 121.884626,24.599567,0.0 121.885251,24.599706,0.0 121.884553,24.600412,0.0 121.881967,24.602361,0.0 121.879786,24.604819,0.0 121.876939,24.604786,0.0 121.873978,24.605489,0.0 121.871344,24.607597,0.0 121.866811,24.607932,0.0</coordinates></LinearRing></outerBoundaryIs></Polygon><styleUrl>#spolygon-map</styleUrl></Placemark><Placemark><Polygon><outerBoundaryIs><LinearRing><coordinates>121.855542,24.5941,0.0 121.855464,24.594869,0.0 121.853091,24.59402,0.0 121.851531,24.591159,0.0 121.851428,24.589238,0.0 121.849845,24.583051,0.0 121.850444,24.581686,0.0 121.851073,24.580345,0.0 121.851295,24.579924,0.0 121.853017,24.580357,0.0 121.854076,24.580541,0.0 121.855554,24.581823,0.0 121.858487,24.579933,0.0 121.860579,24.580586,0.0 121.861803,24.582131,0.0 121.860966,24.583687,0.0 121.860803,24.584781,0.0 121.862083,24.586616,0.0 121.860744,24.586858,0.0 121.859479,24.588254,0.0 121.858295,24.590472,0.0 121.85762,24.592972,0.0 121.857216,24.594447,0.0 121.855867,24.594085,0.0 121.855542,24.5941,0.0</coordinates></LinearRing></outerBoundaryIs></Polygon><styleUrl>#spolygon-map</styleUrl></Placemark><Placemark><Polygon><outerBoundaryIs><LinearRing><coordinates>121.852287,24.59293,0.0 121.852588,24.595029,0.0 121.849197,24.59251,0.0 121.850299,24.592119,0.0 121.850791,24.591883,0.0 121.851625,24.59141,0.0 121.852287,24.59293,0.0</coordinates></LinearRing></outerBoundaryIs></Polygon><styleUrl>#spolygon-map</styleUrl></Placemark><Placemark><Polygon><outerBoundaryIs><LinearRing><coordinates>121.849197,24.59251,0.0 121.84745,24.591739,0.0 121.846127,24.590497,0.0 121.844734,24.589794,0.0 121.841625,24.589446,0.0 121.837592,24.589867,0.0 121.835429,24.585911,0.0 121.833502,24.583186,0.0 121.83259,24.58151,0.0 121.835213,24.580058,0.0 121.839424,24.581071,0.0 121.844261,24.579958,0.0 121.846037,24.574949,0.0 121.846943,24.571041,0.0 121.847367,24.568849,0.0 121.845705,24.566302,0.0 121.857012,24.552427,0.0 121.864314,24.540821,0.0 121.867103,24.538376,0.0 121.870333,24.538228,0.0 121.872473,24.539075,0.0 121.872652,24.542407,0.0 121.873402,24.544116,0.0 121.873667,24.54613,0.0 121.871863,24.548835,0.0 121.871889,24.55009,0.0 121.871073,24.552679,0.0 121.870376,24.557484,0.0 121.870393,24.559928,0.0 121.871003,24.562764,0.0 121.871061,24.564114,0.0 121.870732,24.566246,0.0 121.870228,24.568788,0.0 121.869404,24.570138,0.0 121.867756,24.570006,0.0 121.865873,24.572368,0.0 121.865598,24.574601,0.0 121.866507,24.576739,0.0 121.865114,24.576683,0.0 121.86362,24.57645,0.0 121.862704,24.577408,0.0 121.860905,24.578595,0.0 121.860562,24.580583,0.0 121.858118,24.580092,0.0 121.855308,24.581636,0.0 121.85394,24.580308,0.0 121.852812,24.580468,0.0 121.851232,24.57999,0.0 121.850997,24.580582,0.0 121.850283,24.581863,0.0 121.850378,24.583255,0.0 121.852043,24.589836,0.0 121.851625,24.59141,0.0 121.850791,24.591883,0.0 121.850299,24.592119,0.0 121.849197,24.59251,0.0</coordinates></LinearRing></outerBoundaryIs></Polygon><styleUrl>#spolygon-map</styleUrl></Placemark><Placemark><Polygon><outerBoundaryIs><LinearRing><coordinates>121.835997,24.57977,0.0 121.834251,24.581183,0.0 121.830728,24.582585,0.0 121.828321,24.581172,0.0 121.82822,24.57576,0.0 121.825529,24.577043,0.0 121.822779,24.577943,0.0 121.820243,24.577395,0.0 121.81608,24.575851,0.0 121.813382,24.574128,0.0 121.814552,24.567308,0.0 121.815798,24.561874,0.0 121.816109,24.557864,0.0 121.821197,24.552317,0.0 121.825912,24.551552,0.0 121.833732,24.551385,0.0 121.839013,24.544603,0.0 121.84452,24.541366,0.0 121.848715,24.537457,0.0 121.850895,24.538439,0.0 121.857286,24.537664,0.0 121.859945,24.54705,0.0 121.848494,24.563173,0.0 121.845897,24.567681,0.0 121.847613,24.569984,0.0 121.846029,24.573737,0.0 121.846141,24.579529,0.0 121.840993,24.580578,0.0 121.835997,24.57977,0.0</coordinates></LinearRing></outerBoundaryIs></Polygon><styleUrl>#spolygon-map</styleUrl></Placemark><Placemark><Polygon><outerBoundaryIs><LinearRing><coordinates>121.864752,24.591417,0.0 121.863711,24.585856,0.0 121.864939,24.582901,0.0 121.867583,24.582213,0.0 121.868979,24.584545,0.0 121.868785,24.58674,0.0 121.86492,24.591015,0.0 121.864752,24.591417,0.0</coordinates></LinearRing></outerBoundaryIs></Polygon><styleUrl>#spolygon-map</styleUrl></Placemark><Placemark><Polygon><outerBoundaryIs><LinearRing><coordinates>121.863184,24.587695,0.0 121.857693,24.592592,0.0 121.858273,24.590174,0.0 121.859746,24.588252,0.0 121.861094,24.58652,0.0 121.862174,24.586109,0.0 121.860871,24.584645,0.0 121.86142,24.583661,0.0 121.861719,24.58179,0.0 121.863363,24.581072,0.0 121.863943,24.581175,0.0 121.864661,24.581241,0.0 121.865086,24.5813,0.0 121.865438,24.581378,0.0 121.864939,24.582901,0.0 121.863711,24.585856,0.0 121.863184,24.587695,0.0</coordinates></LinearRing></outerBoundaryIs></Polygon><styleUrl>#spolygon-map</styleUrl></Placemark><Placemark><Polygon><outerBoundaryIs><LinearRing><coordinates>121.86528,24.581326,0.0 121.865002,24.581301,0.0 121.864301,24.581205,0.0 121.863506,24.581097,0.0 121.860551,24.580107,0.0 121.861881,24.577779,0.0 121.863064,24.576998,0.0 121.86423,24.576332,0.0 121.865861,24.57718,0.0 121.865377,24.580994,0.0 121.86528,24.581326,0.0</coordinates></LinearRing></outerBoundaryIs></Polygon><styleUrl>#spolygon-map</styleUrl></Placemark><Placemark><Polygon><outerBoundaryIs><LinearRing><coordinates>121.867706,24.581447,0.0 121.865438,24.581378,0.0 121.865269,24.581136,0.0 121.865853,24.578648,0.0 121.867223,24.577472,0.0 121.867818,24.578042,0.0 121.868275,24.578955,0.0 121.868025,24.579713,0.0 121.867882,24.580243,0.0 121.867706,24.581447,0.0</coordinates></LinearRing></outerBoundaryIs></Polygon><styleUrl>#spolygon-map</styleUrl></Placemark><Placemark><Polygon><outerBoundaryIs><LinearRing><coordinates>121.870392,24.58091,0.0 121.867682,24.581621,0.0 121.867882,24.580243,0.0 121.868025,24.579713,0.0 121.868477,24.579315,0.0 121.869612,24.579901,0.0 121.870392,24.579811,0.0 121.870851,24.579889,0.0 121.870392,24.58091,0.0</coordinates></LinearRing></outerBoundaryIs></Polygon><styleUrl>#spolygon-map</styleUrl></Placemark><Placemark><Polygon><outerBoundaryIs><LinearRing><coordinates>121.876399,24.586606,0.0 121.878716,24.590346,0.0 121.872525,24.586053,0.0 121.870265,24.588354,0.0 121.869675,24.588297,0.0 121.86995,24.584497,0.0 121.87133,24.581573,0.0 121.871876,24.58077,0.0 121.87159,24.579458,0.0 121.868114,24.577756,0.0 121.870633,24.57971,0.0 121.870176,24.579755,0.0 121.86902,24.579864,0.0 121.868415,24.579204,0.0 121.868246,24.578422,0.0 121.867415,24.577706,0.0 121.866314,24.577552,0.0 121.866728,24.576392,0.0 121.865445,24.574278,0.0 121.866595,24.57106,0.0 121.868475,24.569767,0.0 121.869327,24.571662,0.0 121.869766,24.574856,0.0 121.872081,24.578097,0.0 121.873249,24.577567,0.0 121.874557,24.577791,0.0 121.875142,24.578352,0.0 121.875358,24.579116,0.0 121.876329,24.579072,0.0 121.876716,24.578463,0.0 121.877198,24.578352,0.0 121.877792,24.578445,0.0 121.878823,24.579457,0.0 121.878049,24.579703,0.0 121.877201,24.579439,0.0 121.876584,24.580147,0.0 121.876434,24.580602,0.0 121.876245,24.581066,0.0 121.875596,24.581139,0.0 121.874822,24.581462,0.0 121.874891,24.582337,0.0 121.87446,24.582622,0.0 121.87378,24.583373,0.0 121.873637,24.583873,0.0 121.873805,24.584567,0.0 121.872346,24.583743,0.0 121.87258,24.585084,0.0 121.873593,24.585516,0.0 121.874445,24.585258,0.0 121.874833,24.585712,0.0 121.875494,24.586015,0.0 121.87605,24.586549,0.0 121.876399,24.586606,0.0</coordinates></LinearRing></outerBoundaryIs></Polygon><styleUrl>#spolygon-map</styleUrl></Placemark><Placemark><Polygon><outerBoundaryIs><LinearRing><coordinates>121.868775,24.537794,0.0 121.865967,24.538967,0.0 121.860458,24.540926,0.0 121.854334,24.538198,0.0 121.84881,24.537512,0.0 121.846077,24.531754,0.0 121.837901,24.528871,0.0 121.835232,24.523068,0.0 121.833832,24.521215,0.0 121.831152,24.51825,0.0 121.828241,24.515531,0.0 121.828453,24.509868,0.0 121.826667,24.504581,0.0 121.82443,24.499653,0.0 121.824303,24.495734,0.0 121.824157,24.492408,0.0 121.828569,24.487758,0.0 121.835361,24.482744,0.0 121.840119,24.479877,0.0 121.843081,24.476834,0.0 121.844851,24.476891,0.0 121.846785,24.477747,0.0 121.848774,24.479375,0.0 121.851204,24.479887,0.0 121.854206,24.48075,0.0 121.856552,24.480189,0.0 121.858219,24.479357,0.0 121.85927,24.47944,0.0 121.86003,24.479365,0.0 121.860656,24.479998,0.0 121.861621,24.480191,0.0 121.861921,24.480763,0.0 121.861296,24.482258,0.0 121.859002,24.483797,0.0 121.857147,24.483359,0.0 121.853926,24.483521,0.0 121.851169,24.484198,0.0 121.850474,24.486331,0.0 121.850833,24.487331,0.0 121.850235,24.48974,0.0 121.850129,24.490727,0.0 121.849768,24.491645,0.0 121.849835,24.492825,0.0 121.85036,24.493502,0.0 121.85083,24.494255,0.0 121.850476,24.494691,0.0 121.850746,24.495272,0.0 121.850237,24.494753,0.0 121.849864,24.494918,0.0 121.84915,24.495238,0.0 121.848624,24.49569,0.0 121.847544,24.496163,0.0 121.847949,24.497145,0.0 121.84697,24.497008,0.0 121.845785,24.496656,0.0 121.844123,24.497164,0.0 121.841756,24.497419,0.0 121.83869,24.500598,0.0 121.838429,24.507743,0.0 121.839655,24.515234,0.0 121.841208,24.519385,0.0 121.845318,24.521753,0.0 121.849366,24.522062,0.0 121.852861,24.523412,0.0 121.856882,24.524791,0.0 121.858812,24.526434,0.0 121.861407,24.527609,0.0 121.863545,24.528089,0.0 121.864619,24.527726,0.0 121.865859,24.527593,0.0 121.866225,24.527868,0.0 121.866755,24.528321,0.0 121.868308,24.528161,0.0 121.868804,24.528429,0.0 121.869583,24.528194,0.0 121.869397,24.528814,0.0 121.869341,24.529464,0.0 121.869997,24.530192,0.0 121.870711,24.530601,0.0 121.871539,24.53107,0.0 121.871983,24.531243,0.0 121.872195,24.531788,0.0 121.872324,24.532738,0.0 121.873533,24.534254,0.0 121.874029,24.53457,0.0 121.876001,24.533574,0.0 121.875981,24.534384,0.0 121.875445,24.534713,0.0 121.874865,24.534915,0.0 121.873972,24.534983,0.0 121.872928,24.53716,0.0 121.871726,24.538313,0.0 121.868775,24.537794,0.0</coordinates></LinearRing></outerBoundaryIs></Polygon><styleUrl>#spolygon-map</styleUrl></Placemark><Placemark><Polygon><outerBoundaryIs><LinearRing><coordinates>121.809547,24.469762,0.0 121.807812,24.469821,0.0 121.807214,24.46814,0.0 121.806515,24.467569,0.0 121.804719,24.466289,0.0 121.802353,24.465131,0.0 121.79804,24.463877,0.0 121.788993,24.460867,0.0 121.791716,24.457291,0.0 121.793003,24.453904,0.0 121.794321,24.452505,0.0 121.797101,24.450541,0.0 121.799754,24.449045,0.0 121.800851,24.448912,0.0 121.802218,24.449434,0.0 121.803101,24.450985,0.0 121.804167,24.451476,0.0 121.8063,24.454256,0.0 121.807075,24.456735,0.0 121.809035,24.461903,0.0 121.808472,24.464545,0.0 121.810656,24.467826,0.0 121.809547,24.469762,0.0</coordinates></LinearRing></outerBoundaryIs></Polygon><styleUrl>#spolygon-map</styleUrl></Placemark><Placemark><Polygon><outerBoundaryIs><LinearRing><coordinates>121.815911,24.448873,0.0 121.817094,24.450442,0.0 121.818522,24.452429,0.0 121.82069,24.453928,0.0 121.82173,24.455606,0.0 121.821207,24.45722,0.0 121.820011,24.458705,0.0 121.820102,24.460928,0.0 121.821001,24.462302,0.0 121.822815,24.463089,0.0 121.824064,24.464366,0.0 121.826345,24.465313,0.0 121.831229,24.467455,0.0 121.833164,24.468587,0.0 121.834494,24.470401,0.0 121.836219,24.4715,0.0 121.838002,24.472196,0.0 121.838197,24.472678,0.0 121.839571,24.474655,0.0 121.841963,24.476587,0.0 121.840933,24.479075,0.0 121.836909,24.482209,0.0 121.831147,24.485287,0.0 121.826153,24.490371,0.0 121.822882,24.493257,0.0 121.819113,24.490339,0.0 121.81946,24.481457,0.0 121.8151,24.474173,0.0 121.81049,24.469757,0.0 121.809819,24.466819,0.0 121.808527,24.463268,0.0 121.808732,24.461065,0.0 121.806688,24.455087,0.0 121.805106,24.452729,0.0 121.80386,24.451245,0.0 121.802598,24.450878,0.0 121.801789,24.448724,0.0 121.800625,24.448981,0.0 121.798707,24.449306,0.0 121.79627,24.451284,0.0 121.793481,24.453205,0.0 121.792637,24.45476,0.0 121.791247,24.457998,0.0 121.787653,24.459672,0.0 121.781584,24.458778,0.0 121.780742,24.454387,0.0 121.783607,24.44876,0.0 121.78767,24.4414,0.0 121.791227,24.439011,0.0 121.794098,24.435077,0.0 121.796101,24.432291,0.0 121.799846,24.432278,0.0 121.800678,24.433592,0.0 121.801871,24.435071,0.0 121.803135,24.4365,0.0 121.804552,24.437738,0.0 121.806014,24.438895,0.0 121.807341,24.439868,0.0 121.808116,24.440333,0.0 121.80967,24.44127,0.0 121.810445,24.441923,0.0 121.811433,24.442717,0.0 121.812454,24.443677,0.0 121.813855,24.445385,0.0 121.815534,24.447814,0.0 121.815911,24.448873,0.0</coordinates></LinearRing></outerBoundaryIs></Polygon><styleUrl>#spolygon-map</styleUrl></Placemark></Document>
</kml>
