<?xml version="1.0" encoding="UTF-8"?>
<kml xmlns="http://www.opengis.net/kml/2.2">
	<Document>
		<name>宜蘭縣宜蘭市</name>
		<Style id="spolygon">
			<LabelStyle>
				<scale>0.0</scale>
			</LabelStyle>
			<LineStyle>
				<color>330030ff</color>
				<width>0</width>
			</LineStyle>
			<PolyStyle>
				<color>330030ff</color>
			</PolyStyle>
		</Style>
		<StyleMap id="spolygon-map">
			<Pair>
				<key>normal</key>
				<styleUrl>#spolygon</styleUrl>
			</Pair>
		</StyleMap>
	<Placemark><Polygon><outerBoundaryIs><LinearRing><coordinates>121.756534,24.75462,0.0 121.75554,24.754832,0.0 121.753966,24.754475,0.0 121.752546,24.754414,0.0 121.75345,24.751211,0.0 121.754563,24.749844,0.0 121.755636,24.752354,0.0 121.756355,24.754176,0.0 121.756534,24.75462,0.0</coordinates></LinearRing></outerBoundaryIs></Polygon><styleUrl>#spolygon-map</styleUrl></Placemark><Placemark><Polygon><outerBoundaryIs><LinearRing><coordinates>121.753765,24.750358,0.0 121.751526,24.753128,0.0 121.75127,24.752343,0.0 121.750885,24.751048,0.0 121.750647,24.750181,0.0 121.751797,24.749725,0.0 121.7523,24.749805,0.0 121.752843,24.749594,0.0 121.753344,24.748431,0.0 121.752972,24.74737,0.0 121.752952,24.746477,0.0 121.753376,24.745634,0.0 121.755076,24.744806,0.0 121.755285,24.744433,0.0 121.755414,24.74369,0.0 121.755961,24.743194,0.0 121.755477,24.745892,0.0 121.754644,24.747943,0.0 121.753765,24.750358,0.0</coordinates></LinearRing></outerBoundaryIs></Polygon><styleUrl>#spolygon-map</styleUrl></Placemark><Placemark><Polygon><outerBoundaryIs><LinearRing><coordinates>121.752861,24.756341,0.0 121.752534,24.756478,0.0 121.752059,24.754914,0.0 121.753077,24.754465,0.0 121.753282,24.75526,0.0 121.753368,24.75642,0.0 121.752997,24.756358,0.0 121.752861,24.756341,0.0</coordinates></LinearRing></outerBoundaryIs></Polygon><styleUrl>#spolygon-map</styleUrl></Placemark><Placemark><Polygon><outerBoundaryIs><LinearRing><coordinates>121.755279,24.755643,0.0 121.754091,24.75626,0.0 121.753354,24.755538,0.0 121.753086,24.754505,0.0 121.753966,24.754475,0.0 121.75554,24.754832,0.0 121.755565,24.755761,0.0 121.755279,24.755643,0.0</coordinates></LinearRing></outerBoundaryIs></Polygon><styleUrl>#spolygon-map</styleUrl></Placemark><Placemark><Polygon><outerBoundaryIs><LinearRing><coordinates>121.756945,24.755718,0.0 121.75673,24.758411,0.0 121.755758,24.755685,0.0 121.756945,24.755718,0.0</coordinates></LinearRing></outerBoundaryIs></Polygon><styleUrl>#spolygon-map</styleUrl></Placemark><Placemark><Polygon><outerBoundaryIs><LinearRing><coordinates>121.761477,24.756315,0.0 121.760142,24.757781,0.0 121.758822,24.758057,0.0 121.756954,24.75494,0.0 121.759362,24.753984,0.0 121.762257,24.755431,0.0 121.761477,24.756315,0.0</coordinates></LinearRing></outerBoundaryIs></Polygon><styleUrl>#spolygon-map</styleUrl></Placemark><Placemark><Polygon><outerBoundaryIs><LinearRing><coordinates>121.756614,24.750167,0.0 121.758342,24.754626,0.0 121.756355,24.754176,0.0 121.755636,24.752354,0.0 121.754563,24.749844,0.0 121.754909,24.747265,0.0 121.756226,24.743781,0.0 121.756604,24.744069,0.0 121.757429,24.744179,0.0 121.757782,24.744279,0.0 121.758362,24.74518,0.0 121.759638,24.744825,0.0 121.763244,24.746605,0.0 121.760417,24.74758,0.0 121.758255,24.750333,0.0 121.756614,24.750167,0.0</coordinates></LinearRing></outerBoundaryIs></Polygon><styleUrl>#spolygon-map</styleUrl></Placemark><Placemark><Polygon><outerBoundaryIs><LinearRing><coordinates>121.754294,24.745934,0.0 121.751137,24.744892,0.0 121.749794,24.744961,0.0 121.74922,24.744875,0.0 121.745444,24.744947,0.0 121.744027,24.745165,0.0 121.742008,24.74457,0.0 121.740741,24.741795,0.0 121.737395,24.740069,0.0 121.73375,24.734792,0.0 121.737392,24.732332,0.0 121.739911,24.730939,0.0 121.740914,24.730864,0.0 121.742159,24.727001,0.0 121.74325,24.728429,0.0 121.74282,24.731148,0.0 121.741412,24.732859,0.0 121.74092,24.735758,0.0 121.741998,24.736595,0.0 121.743338,24.737411,0.0 121.744553,24.737713,0.0 121.745966,24.737725,0.0 121.746836,24.737759,0.0 121.747657,24.737217,0.0 121.749291,24.737471,0.0 121.749821,24.738123,0.0 121.750743,24.738703,0.0 121.751736,24.739291,0.0 121.75215,24.740324,0.0 121.753437,24.740635,0.0 121.754489,24.741732,0.0 121.755193,24.742926,0.0 121.755475,24.743558,0.0 121.755423,24.744359,0.0 121.755146,24.744772,0.0 121.754294,24.745934,0.0</coordinates></LinearRing></outerBoundaryIs></Polygon><styleUrl>#spolygon-map</styleUrl></Placemark><Placemark><Polygon><outerBoundaryIs><LinearRing><coordinates>121.744335,24.737713,0.0 121.743136,24.737315,0.0 121.74212,24.736354,0.0 121.740826,24.735811,0.0 121.741435,24.732677,0.0 121.743036,24.730865,0.0 121.743348,24.728226,0.0 121.741214,24.727018,0.0 121.74036,24.730671,0.0 121.739928,24.730996,0.0 121.736479,24.732374,0.0 121.733476,24.730426,0.0 121.733494,24.728208,0.0 121.733949,24.7269,0.0 121.734806,24.724345,0.0 121.736312,24.725141,0.0 121.736908,24.726174,0.0 121.737879,24.726556,0.0 121.739242,24.725794,0.0 121.740144,24.725183,0.0 121.741241,24.725226,0.0 121.743823,24.724143,0.0 121.746791,24.722566,0.0 121.754421,24.723083,0.0 121.755206,24.724139,0.0 121.749905,24.727086,0.0 121.749745,24.728149,0.0 121.749594,24.72944,0.0 121.75088,24.73462,0.0 121.744335,24.737713,0.0</coordinates></LinearRing></outerBoundaryIs></Polygon><styleUrl>#spolygon-map</styleUrl></Placemark><Placemark><Polygon><outerBoundaryIs><LinearRing><coordinates>121.758664,24.744603,0.0 121.757692,24.744187,0.0 121.757353,24.744214,0.0 121.75653,24.744029,0.0 121.756334,24.743473,0.0 121.755348,24.74213,0.0 121.753763,24.740799,0.0 121.753097,24.740543,0.0 121.752126,24.739993,0.0 121.751237,24.73898,0.0 121.749993,24.738305,0.0 121.749716,24.737837,0.0 121.748403,24.737395,0.0 121.747412,24.737378,0.0 121.746495,24.737766,0.0 121.745537,24.737659,0.0 121.747351,24.734138,0.0 121.751608,24.732866,0.0 121.749755,24.728579,0.0 121.749889,24.727524,0.0 121.750398,24.724145,0.0 121.75512,24.723589,0.0 121.7563,24.723638,0.0 121.758772,24.722759,0.0 121.759735,24.722439,0.0 121.760001,24.724422,0.0 121.761024,24.725746,0.0 121.761523,24.728867,0.0 121.761508,24.732159,0.0 121.76096,24.734559,0.0 121.759972,24.736179,0.0 121.759449,24.737026,0.0 121.759319,24.737169,0.0 121.75922,24.74009,0.0 121.759355,24.743281,0.0 121.758664,24.744603,0.0</coordinates></LinearRing></outerBoundaryIs></Polygon><styleUrl>#spolygon-map</styleUrl></Placemark><Placemark><Polygon><outerBoundaryIs><LinearRing><coordinates>121.764128,24.725825,0.0 121.762316,24.726964,0.0 121.761019,24.725372,0.0 121.759272,24.724049,0.0 121.759691,24.721328,0.0 121.761056,24.719145,0.0 121.761949,24.718114,0.0 121.76105,24.716764,0.0 121.763238,24.715511,0.0 121.765134,24.713529,0.0 121.769222,24.713271,0.0 121.774099,24.714273,0.0 121.774155,24.715758,0.0 121.773454,24.719224,0.0 121.774902,24.724977,0.0 121.769338,24.720695,0.0 121.766315,24.725749,0.0 121.764599,24.725698,0.0 121.764128,24.725825,0.0</coordinates></LinearRing></outerBoundaryIs></Polygon><styleUrl>#spolygon-map</styleUrl></Placemark><Placemark><Polygon><outerBoundaryIs><LinearRing><coordinates>121.766312,24.737717,0.0 121.760312,24.74141,0.0 121.759571,24.739816,0.0 121.759582,24.737189,0.0 121.759519,24.736957,0.0 121.760499,24.735473,0.0 121.760453,24.734193,0.0 121.761567,24.731203,0.0 121.762316,24.726964,0.0 121.764128,24.725825,0.0 121.765937,24.72597,0.0 121.767922,24.725079,0.0 121.771698,24.722199,0.0 121.775325,24.727577,0.0 121.775696,24.73491,0.0 121.773134,24.736464,0.0 121.771984,24.735855,0.0 121.770709,24.735848,0.0 121.768063,24.736798,0.0 121.766312,24.737717,0.0</coordinates></LinearRing></outerBoundaryIs></Polygon><styleUrl>#spolygon-map</styleUrl></Placemark><Placemark><Polygon><outerBoundaryIs><LinearRing><coordinates>121.783612,24.744388,0.0 121.782528,24.747758,0.0 121.779724,24.748915,0.0 121.776502,24.749576,0.0 121.773405,24.750235,0.0 121.770819,24.750779,0.0 121.767865,24.750165,0.0 121.768811,24.744553,0.0 121.763573,24.742542,0.0 121.76634,24.737061,0.0 121.769939,24.735915,0.0 121.771491,24.735689,0.0 121.77247,24.736147,0.0 121.773908,24.736625,0.0 121.776865,24.738177,0.0 121.778263,24.738294,0.0 121.78041,24.738509,0.0 121.783776,24.7424,0.0 121.783612,24.744388,0.0</coordinates></LinearRing></outerBoundaryIs></Polygon><styleUrl>#spolygon-map</styleUrl></Placemark><Placemark><Polygon><outerBoundaryIs><LinearRing><coordinates>121.761812,24.755424,0.0 121.758605,24.754549,0.0 121.756607,24.750167,0.0 121.758668,24.750466,0.0 121.763212,24.748137,0.0 121.76331,24.745334,0.0 121.759585,24.744833,0.0 121.758664,24.744603,0.0 121.761095,24.742365,0.0 121.768879,24.744017,0.0 121.767933,24.749367,0.0 121.766927,24.751618,0.0 121.765229,24.752019,0.0 121.764238,24.753098,0.0 121.7628,24.7548,0.0 121.761935,24.75536,0.0 121.761812,24.755424,0.0</coordinates></LinearRing></outerBoundaryIs></Polygon><styleUrl>#spolygon-map</styleUrl></Placemark><Placemark><Polygon><outerBoundaryIs><LinearRing><coordinates>121.768109,24.761808,0.0 121.765347,24.761871,0.0 121.765385,24.761196,0.0 121.765581,24.759207,0.0 121.76559,24.758263,0.0 121.764322,24.757616,0.0 121.764043,24.75718,0.0 121.764035,24.756609,0.0 121.763872,24.756059,0.0 121.763525,24.755431,0.0 121.762549,24.755096,0.0 121.764097,24.753269,0.0 121.765142,24.752074,0.0 121.766749,24.751654,0.0 121.770819,24.750779,0.0 121.773405,24.750235,0.0 121.776502,24.749576,0.0 121.779724,24.748915,0.0 121.782528,24.747758,0.0 121.78284,24.748121,0.0 121.785071,24.748679,0.0 121.785245,24.750391,0.0 121.786511,24.751102,0.0 121.783252,24.752134,0.0 121.782075,24.75622,0.0 121.780426,24.757345,0.0 121.778487,24.75932,0.0 121.77595,24.760155,0.0 121.772842,24.761715,0.0 121.770779,24.761462,0.0 121.768109,24.761808,0.0</coordinates></LinearRing></outerBoundaryIs></Polygon><styleUrl>#spolygon-map</styleUrl></Placemark><Placemark><Polygon><outerBoundaryIs><LinearRing><coordinates>121.776817,24.768216,0.0 121.775757,24.768228,0.0 121.773985,24.76772,0.0 121.770952,24.766252,0.0 121.766678,24.76506,0.0 121.76624,24.761874,0.0 121.7701,24.761486,0.0 121.772527,24.761742,0.0 121.775597,24.760373,0.0 121.777935,24.759455,0.0 121.778423,24.760495,0.0 121.785661,24.755519,0.0 121.788432,24.756992,0.0 121.789095,24.758093,0.0 121.788652,24.758979,0.0 121.787462,24.760847,0.0 121.78675,24.761925,0.0 121.785726,24.763917,0.0 121.781093,24.763851,0.0 121.779567,24.76578,0.0 121.777826,24.767635,0.0 121.776817,24.768216,0.0</coordinates></LinearRing></outerBoundaryIs></Polygon><styleUrl>#spolygon-map</styleUrl></Placemark><Placemark><Polygon><outerBoundaryIs><LinearRing><coordinates>121.763888,24.76199,0.0 121.760931,24.763219,0.0 121.759273,24.760364,0.0 121.759394,24.75798,0.0 121.760389,24.757584,0.0 121.762257,24.755431,0.0 121.763297,24.755295,0.0 121.76402,24.755842,0.0 121.763691,24.756364,0.0 121.764362,24.757075,0.0 121.76422,24.757376,0.0 121.764817,24.757689,0.0 121.76559,24.758666,0.0 121.765532,24.75998,0.0 121.76523,24.761339,0.0 121.764108,24.761915,0.0 121.763888,24.76199,0.0</coordinates></LinearRing></outerBoundaryIs></Polygon><styleUrl>#spolygon-map</styleUrl></Placemark><Placemark><Polygon><outerBoundaryIs><LinearRing><coordinates>121.756228,24.757017,0.0 121.752475,24.756595,0.0 121.752789,24.756373,0.0 121.753093,24.756331,0.0 121.753571,24.756377,0.0 121.755303,24.755763,0.0 121.755565,24.755761,0.0 121.756228,24.757017,0.0</coordinates></LinearRing></outerBoundaryIs></Polygon><styleUrl>#spolygon-map</styleUrl></Placemark><Placemark><Polygon><outerBoundaryIs><LinearRing><coordinates>121.756321,24.757259,0.0 121.753015,24.759004,0.0 121.756228,24.757017,0.0 121.756321,24.757259,0.0</coordinates></LinearRing></outerBoundaryIs></Polygon><styleUrl>#spolygon-map</styleUrl></Placemark><Placemark><Polygon><outerBoundaryIs><LinearRing><coordinates>121.756776,24.758587,0.0 121.754802,24.759803,0.0 121.75391,24.760253,0.0 121.753015,24.759004,0.0 121.756776,24.758587,0.0</coordinates></LinearRing></outerBoundaryIs></Polygon><styleUrl>#spolygon-map</styleUrl></Placemark><Placemark><Polygon><outerBoundaryIs><LinearRing><coordinates>121.76064,24.762472,0.0 121.758981,24.762467,0.0 121.757584,24.762891,0.0 121.757561,24.760804,0.0 121.75758,24.758273,0.0 121.75866,24.759259,0.0 121.760458,24.762005,0.0 121.76064,24.762472,0.0</coordinates></LinearRing></outerBoundaryIs></Polygon><styleUrl>#spolygon-map</styleUrl></Placemark><Placemark><Polygon><outerBoundaryIs><LinearRing><coordinates>121.759284,24.763277,0.0 121.757495,24.764127,0.0 121.756487,24.763244,0.0 121.755669,24.761891,0.0 121.755453,24.761261,0.0 121.754802,24.759803,0.0 121.756776,24.758587,0.0 121.756505,24.762053,0.0 121.758571,24.762599,0.0 121.759284,24.763277,0.0</coordinates></LinearRing></outerBoundaryIs></Polygon><styleUrl>#spolygon-map</styleUrl></Placemark><Placemark><Polygon><outerBoundaryIs><LinearRing><coordinates>121.756487,24.763244,0.0 121.754734,24.763778,0.0 121.754754,24.763386,0.0 121.754732,24.762724,0.0 121.753686,24.760347,0.0 121.754714,24.759857,0.0 121.755491,24.761174,0.0 121.755552,24.761648,0.0 121.756319,24.762755,0.0 121.756487,24.763244,0.0</coordinates></LinearRing></outerBoundaryIs></Polygon><styleUrl>#spolygon-map</styleUrl></Placemark><Placemark><Polygon><outerBoundaryIs><LinearRing><coordinates>121.760974,24.782925,0.0 121.760203,24.781307,0.0 121.759035,24.777385,0.0 121.757519,24.772475,0.0 121.756413,24.768786,0.0 121.755933,24.767072,0.0 121.755824,24.766821,0.0 121.757041,24.765914,0.0 121.759421,24.764783,0.0 121.763649,24.76218,0.0 121.765954,24.763389,0.0 121.771338,24.764434,0.0 121.77174,24.767821,0.0 121.771206,24.770363,0.0 121.77186,24.770911,0.0 121.770107,24.77178,0.0 121.76837,24.771128,0.0 121.768053,24.771732,0.0 121.767616,24.772102,0.0 121.767389,24.772997,0.0 121.76708,24.773778,0.0 121.766258,24.774881,0.0 121.765709,24.775423,0.0 121.765069,24.775621,0.0 121.765,24.776506,0.0 121.764183,24.777456,0.0 121.763906,24.778358,0.0 121.763023,24.778791,0.0 121.762208,24.779716,0.0 121.762135,24.780644,0.0 121.762365,24.781358,0.0 121.762755,24.781512,0.0 121.761986,24.78233,0.0 121.760974,24.782925,0.0</coordinates></LinearRing></outerBoundaryIs></Polygon><styleUrl>#spolygon-map</styleUrl></Placemark><Placemark><Polygon><outerBoundaryIs><LinearRing><coordinates>121.760603,24.782644,0.0 121.760086,24.782803,0.0 121.758931,24.782504,0.0 121.758731,24.781549,0.0 121.757698,24.780612,0.0 121.75633,24.780224,0.0 121.75472,24.781031,0.0 121.753063,24.781078,0.0 121.751734,24.780448,0.0 121.750942,24.780195,0.0 121.749722,24.781038,0.0 121.748846,24.780567,0.0 121.747287,24.780098,0.0 121.746257,24.780241,0.0 121.745446,24.778916,0.0 121.744641,24.778685,0.0 121.744328,24.777901,0.0 121.743559,24.777388,0.0 121.745757,24.775642,0.0 121.750593,24.771951,0.0 121.752033,24.771013,0.0 121.753099,24.770185,0.0 121.753651,24.76978,0.0 121.754459,24.769254,0.0 121.755059,24.768923,0.0 121.755666,24.76815,0.0 121.756422,24.768811,0.0 121.757759,24.773233,0.0 121.759289,24.778294,0.0 121.760363,24.781846,0.0 121.760603,24.782644,0.0</coordinates></LinearRing></outerBoundaryIs></Polygon><styleUrl>#spolygon-map</styleUrl></Placemark><Placemark><Polygon><outerBoundaryIs><LinearRing><coordinates>121.75605,24.767037,0.0 121.7557,24.767846,0.0 121.755205,24.768802,0.0 121.754829,24.769044,0.0 121.754138,24.769415,0.0 121.753235,24.770093,0.0 121.752277,24.770828,0.0 121.75126,24.77152,0.0 121.748813,24.773061,0.0 121.74863,24.767211,0.0 121.748209,24.76565,0.0 121.750914,24.764426,0.0 121.755366,24.765997,0.0 121.756005,24.766911,0.0 121.75605,24.767037,0.0</coordinates></LinearRing></outerBoundaryIs></Polygon><styleUrl>#spolygon-map</styleUrl></Placemark><Placemark><Polygon><outerBoundaryIs><LinearRing><coordinates>121.735697,24.78253,0.0 121.732442,24.784297,0.0 121.73043,24.784459,0.0 121.729501,24.78217,0.0 121.730389,24.780628,0.0 121.731951,24.777316,0.0 121.733651,24.775152,0.0 121.733922,24.770391,0.0 121.732656,24.767294,0.0 121.732374,24.764906,0.0 121.73428,24.762927,0.0 121.73529,24.761808,0.0 121.735501,24.761104,0.0 121.736139,24.760331,0.0 121.736649,24.75948,0.0 121.736591,24.75901,0.0 121.73942,24.758513,0.0 121.743387,24.757365,0.0 121.745772,24.760012,0.0 121.749295,24.764676,0.0 121.748101,24.765792,0.0 121.745509,24.769746,0.0 121.748237,24.773934,0.0 121.743551,24.777365,0.0 121.742163,24.778033,0.0 121.740253,24.779835,0.0 121.73769,24.781872,0.0 121.736551,24.782415,0.0 121.735697,24.78253,0.0</coordinates></LinearRing></outerBoundaryIs></Polygon><styleUrl>#spolygon-map</styleUrl></Placemark><Placemark><Polygon><outerBoundaryIs><LinearRing><coordinates>121.759421,24.764783,0.0 121.757041,24.765914,0.0 121.754836,24.764573,0.0 121.753471,24.764058,0.0 121.75293,24.762021,0.0 121.753345,24.760484,0.0 121.754461,24.762041,0.0 121.754813,24.763078,0.0 121.754519,24.763623,0.0 121.755971,24.763407,0.0 121.757928,24.763964,0.0 121.76025,24.762716,0.0 121.760535,24.764086,0.0 121.759421,24.764783,0.0</coordinates></LinearRing></outerBoundaryIs></Polygon><styleUrl>#spolygon-map</styleUrl></Placemark><Placemark><Polygon><outerBoundaryIs><LinearRing><coordinates>121.755365,24.765994,0.0 121.751702,24.765105,0.0 121.749613,24.762044,0.0 121.750107,24.76142,0.0 121.751768,24.761506,0.0 121.751541,24.760439,0.0 121.75293,24.762021,0.0 121.753471,24.764058,0.0 121.754836,24.764573,0.0 121.755365,24.765994,0.0</coordinates></LinearRing></outerBoundaryIs></Polygon><styleUrl>#spolygon-map</styleUrl></Placemark><Placemark><Polygon><outerBoundaryIs><LinearRing><coordinates>121.749613,24.762044,0.0 121.74847,24.760043,0.0 121.750042,24.759451,0.0 121.752104,24.759141,0.0 121.75212,24.760498,0.0 121.751699,24.761237,0.0 121.750651,24.761385,0.0 121.749666,24.76197,0.0 121.749613,24.762044,0.0</coordinates></LinearRing></outerBoundaryIs></Polygon><styleUrl>#spolygon-map</styleUrl></Placemark><Placemark><Polygon><outerBoundaryIs><LinearRing><coordinates>121.753345,24.760484,0.0 121.752712,24.761324,0.0 121.752104,24.759141,0.0 121.75074,24.75873,0.0 121.750929,24.758297,0.0 121.753015,24.759004,0.0 121.753345,24.760484,0.0</coordinates></LinearRing></outerBoundaryIs></Polygon><styleUrl>#spolygon-map</styleUrl></Placemark><Placemark><Polygon><outerBoundaryIs><LinearRing><coordinates>121.75072,24.758366,0.0 121.750868,24.759324,0.0 121.749609,24.759938,0.0 121.744141,24.758494,0.0 121.746073,24.758171,0.0 121.747969,24.758274,0.0 121.750671,24.758134,0.0 121.75072,24.758366,0.0</coordinates></LinearRing></outerBoundaryIs></Polygon><styleUrl>#spolygon-map</styleUrl></Placemark><Placemark><Polygon><outerBoundaryIs><LinearRing><coordinates>121.751146,24.758199,0.0 121.74964,24.758282,0.0 121.747825,24.758267,0.0 121.746069,24.758171,0.0 121.744678,24.756846,0.0 121.744942,24.756027,0.0 121.746842,24.757085,0.0 121.748508,24.757241,0.0 121.749665,24.756212,0.0 121.750414,24.75703,0.0 121.751146,24.758199,0.0</coordinates></LinearRing></outerBoundaryIs></Polygon><styleUrl>#spolygon-map</styleUrl></Placemark><Placemark><Polygon><outerBoundaryIs><LinearRing><coordinates>121.752769,24.757828,0.0 121.749725,24.756459,0.0 121.74908,24.756519,0.0 121.74716,24.757021,0.0 121.74667,24.756758,0.0 121.746336,24.754312,0.0 121.748397,24.754463,0.0 121.750087,24.75359,0.0 121.752042,24.754745,0.0 121.752475,24.756595,0.0 121.752769,24.757828,0.0</coordinates></LinearRing></outerBoundaryIs></Polygon><styleUrl>#spolygon-map</styleUrl></Placemark><Placemark><Polygon><outerBoundaryIs><LinearRing><coordinates>121.744492,24.756438,0.0 121.744313,24.757306,0.0 121.743098,24.75278,0.0 121.745619,24.752083,0.0 121.746147,24.752156,0.0 121.746533,24.753241,0.0 121.746412,24.754313,0.0 121.747214,24.756481,0.0 121.744942,24.756027,0.0 121.744492,24.756438,0.0</coordinates></LinearRing></outerBoundaryIs></Polygon><styleUrl>#spolygon-map</styleUrl></Placemark><Placemark><Polygon><outerBoundaryIs><LinearRing><coordinates>121.75127,24.752343,0.0 121.751526,24.753128,0.0 121.74907,24.754031,0.0 121.747615,24.754475,0.0 121.746533,24.753241,0.0 121.746147,24.752156,0.0 121.747209,24.751543,0.0 121.748684,24.750848,0.0 121.750719,24.750443,0.0 121.75102,24.751526,0.0 121.75127,24.752343,0.0</coordinates></LinearRing></outerBoundaryIs></Polygon><styleUrl>#spolygon-map</styleUrl></Placemark><Placemark><Polygon><outerBoundaryIs><LinearRing><coordinates>121.737697,24.758619,0.0 121.736553,24.759333,0.0 121.736521,24.759812,0.0 121.735826,24.760649,0.0 121.735305,24.761576,0.0 121.735102,24.762089,0.0 121.732676,24.764072,0.0 121.731864,24.762769,0.0 121.731021,24.75961,0.0 121.728975,24.757612,0.0 121.72867,24.755999,0.0 121.727909,24.754053,0.0 121.729228,24.751863,0.0 121.728782,24.751301,0.0 121.731561,24.75223,0.0 121.732578,24.752759,0.0 121.733139,24.752216,0.0 121.733924,24.750609,0.0 121.734466,24.750564,0.0 121.734932,24.750629,0.0 121.736909,24.751241,0.0 121.737307,24.750549,0.0 121.738363,24.750258,0.0 121.739437,24.749982,0.0 121.741296,24.749496,0.0 121.741968,24.749169,0.0 121.742146,24.748855,0.0 121.743782,24.750011,0.0 121.74402,24.751144,0.0 121.744426,24.752432,0.0 121.743451,24.756644,0.0 121.743387,24.757365,0.0 121.73942,24.758513,0.0 121.737697,24.758619,0.0</coordinates></LinearRing></outerBoundaryIs></Polygon><styleUrl>#spolygon-map</styleUrl></Placemark><Placemark><Polygon><outerBoundaryIs><LinearRing><coordinates>121.733219,24.752027,0.0 121.732895,24.752638,0.0 121.731922,24.752687,0.0 121.729801,24.751325,0.0 121.728847,24.750767,0.0 121.732275,24.748064,0.0 121.734245,24.746454,0.0 121.736857,24.745443,0.0 121.740508,24.744886,0.0 121.742337,24.745585,0.0 121.744447,24.745075,0.0 121.747028,24.744849,0.0 121.749402,24.746931,0.0 121.748296,24.747227,0.0 121.74516,24.748095,0.0 121.742902,24.748676,0.0 121.742037,24.74895,0.0 121.741822,24.749342,0.0 121.740287,24.749751,0.0 121.738946,24.750101,0.0 121.738077,24.750344,0.0 121.736907,24.7507,0.0 121.736479,24.751387,0.0 121.734906,24.749994,0.0 121.734201,24.750526,0.0 121.733833,24.750727,0.0 121.733219,24.752027,0.0</coordinates></LinearRing></outerBoundaryIs></Polygon><styleUrl>#spolygon-map</styleUrl></Placemark><Placemark><Polygon><outerBoundaryIs><LinearRing><coordinates>121.745773,24.752042,0.0 121.744426,24.752432,0.0 121.74402,24.751144,0.0 121.743782,24.750011,0.0 121.74516,24.748095,0.0 121.748296,24.747227,0.0 121.749299,24.747217,0.0 121.749613,24.748146,0.0 121.750118,24.748769,0.0 121.75064,24.750155,0.0 121.749214,24.750684,0.0 121.747738,24.751341,0.0 121.745773,24.752042,0.0</coordinates></LinearRing></outerBoundaryIs></Polygon><styleUrl>#spolygon-map</styleUrl></Placemark><Placemark><Polygon><outerBoundaryIs><LinearRing><coordinates>121.751127,24.750058,0.0 121.750553,24.749879,0.0 121.750043,24.748394,0.0 121.749421,24.747648,0.0 121.749208,24.746983,0.0 121.74922,24.744875,0.0 121.749794,24.744961,0.0 121.751137,24.744892,0.0 121.753191,24.745908,0.0 121.752668,24.747212,0.0 121.753613,24.747571,0.0 121.752945,24.749327,0.0 121.752702,24.749725,0.0 121.75205,24.749864,0.0 121.751328,24.750016,0.0 121.751127,24.750058,0.0</coordinates></LinearRing></outerBoundaryIs></Polygon><styleUrl>#spolygon-map</styleUrl></Placemark></Document>
</kml>
