<?xml version="1.0" encoding="UTF-8"?>
<kml xmlns="http://www.opengis.net/kml/2.2">
	<Document>
		<name>屏東縣春日鄉</name>
		<Style id="spolygon">
			<LabelStyle>
				<scale>0.0</scale>
			</LabelStyle>
			<LineStyle>
				<color>330030ff</color>
				<width>0</width>
			</LineStyle>
			<PolyStyle>
				<color>330030ff</color>
			</PolyStyle>
		</Style>
		<StyleMap id="spolygon-map">
			<Pair>
				<key>normal</key>
				<styleUrl>#spolygon</styleUrl>
			</Pair>
		</StyleMap>
	<Placemark><Polygon><outerBoundaryIs><LinearRing><coordinates>120.701186,22.470898,0.0 120.700091,22.470004,0.0 120.699189,22.469185,0.0 120.698766,22.468227,0.0 120.698721,22.466615,0.0 120.698906,22.465062,0.0 120.698619,22.463499,0.0 120.698044,22.461753,0.0 120.697319,22.460629,0.0 120.697299,22.458782,0.0 120.697709,22.457379,0.0 120.69708,22.456025,0.0 120.696403,22.454667,0.0 120.695318,22.452969,0.0 120.694514,22.451868,0.0 120.693721,22.45079,0.0 120.692391,22.449728,0.0 120.690572,22.449197,0.0 120.689281,22.448607,0.0 120.687955,22.447873,0.0 120.686649,22.447288,0.0 120.685541,22.446721,0.0 120.686431,22.445969,0.0 120.687744,22.446423,0.0 120.68899,22.445818,0.0 120.689356,22.444155,0.0 120.689905,22.443302,0.0 120.691794,22.443116,0.0 120.693111,22.442078,0.0 120.691763,22.440985,0.0 120.692791,22.438781,0.0 120.694021,22.437397,0.0 120.695212,22.437742,0.0 120.696255,22.436925,0.0 120.698339,22.43605,0.0 120.700776,22.435235,0.0 120.701733,22.434296,0.0 120.7026,22.43227,0.0 120.705195,22.43192,0.0 120.706952,22.431761,0.0 120.70845,22.432698,0.0 120.70925,22.433937,0.0 120.71112,22.434392,0.0 120.71353,22.433782,0.0 120.715809,22.432808,0.0 120.717943,22.433182,0.0 120.719461,22.433104,0.0 120.720262,22.433934,0.0 120.722719,22.433276,0.0 120.722913,22.432306,0.0 120.724723,22.431437,0.0 120.725132,22.430397,0.0 120.726339,22.431072,0.0 120.72781,22.432452,0.0 120.729127,22.431413,0.0 120.729948,22.431128,0.0 120.731849,22.428826,0.0 120.733785,22.427915,0.0 120.734729,22.427476,0.0 120.737726,22.428704,0.0 120.739921,22.430142,0.0 120.742328,22.430967,0.0 120.743059,22.431944,0.0 120.74341,22.432708,0.0 120.744488,22.43184,0.0 120.746501,22.431417,0.0 120.748786,22.431314,0.0 120.750335,22.431007,0.0 120.751052,22.432293,0.0 120.75189,22.432983,0.0 120.752959,22.433337,0.0 120.753563,22.434613,0.0 120.754774,22.434209,0.0 120.756512,22.43446,0.0 120.758306,22.435031,0.0 120.759644,22.435772,0.0 120.761162,22.435462,0.0 120.762851,22.436214,0.0 120.764613,22.435513,0.0 120.766262,22.435325,0.0 120.766876,22.435073,0.0 120.767634,22.43432,0.0 120.770149,22.434617,0.0 120.772083,22.433936,0.0 120.773644,22.433773,0.0 120.774923,22.434514,0.0 120.7779,22.433978,0.0 120.782208,22.434314,0.0 120.780584,22.436542,0.0 120.777778,22.439329,0.0 120.77612,22.441334,0.0 120.775045,22.443963,0.0 120.775723,22.446506,0.0 120.776372,22.448616,0.0 120.775869,22.450351,0.0 120.771715,22.451838,0.0 120.768685,22.452563,0.0 120.764258,22.453663,0.0 120.760178,22.456474,0.0 120.758084,22.458519,0.0 120.756201,22.457306,0.0 120.75388,22.457524,0.0 120.75161,22.458412,0.0 120.751287,22.45691,0.0 120.749864,22.456152,0.0 120.747874,22.456289,0.0 120.746092,22.456205,0.0 120.744704,22.455667,0.0 120.74397,22.454479,0.0 120.742971,22.452467,0.0 120.741952,22.451077,0.0 120.740115,22.449589,0.0 120.738808,22.449164,0.0 120.737813,22.448363,0.0 120.73731,22.447561,0.0 120.73642,22.446774,0.0 120.735559,22.446285,0.0 120.734345,22.446059,0.0 120.732933,22.445599,0.0 120.73153,22.445301,0.0 120.730515,22.445251,0.0 120.729877,22.445932,0.0 120.729782,22.447167,0.0 120.729693,22.448059,0.0 120.729538,22.449885,0.0 120.729146,22.451438,0.0 120.728073,22.452967,0.0 120.726801,22.45406,0.0 120.726166,22.455495,0.0 120.725761,22.456806,0.0 120.725636,22.458598,0.0 120.725204,22.460045,0.0 120.724643,22.460498,0.0 120.723603,22.460512,0.0 120.723601,22.461688,0.0 120.723522,22.462765,0.0 120.723559,22.464632,0.0 120.722997,22.465546,0.0 120.721102,22.466696,0.0 120.720019,22.467992,0.0 120.719269,22.468352,0.0 120.716981,22.468859,0.0 120.714871,22.468884,0.0 120.713445,22.468094,0.0 120.711057,22.467288,0.0 120.708866,22.467002,0.0 120.707287,22.467344,0.0 120.705786,22.468148,0.0 120.704589,22.469076,0.0 120.703319,22.469762,0.0 120.701608,22.470804,0.0 120.701186,22.470898,0.0</coordinates></LinearRing></outerBoundaryIs></Polygon><styleUrl>#spolygon-map</styleUrl></Placemark><Placemark><Polygon><outerBoundaryIs><LinearRing><coordinates>120.685437,22.446714,0.0 120.684132,22.446488,0.0 120.682572,22.446244,0.0 120.681178,22.445898,0.0 120.678951,22.445866,0.0 120.678037,22.446368,0.0 120.677175,22.446691,0.0 120.675989,22.446621,0.0 120.674715,22.446795,0.0 120.673544,22.446496,0.0 120.671869,22.445744,0.0 120.671589,22.444885,0.0 120.671319,22.443566,0.0 120.670864,22.442811,0.0 120.669667,22.44214,0.0 120.668331,22.44188,0.0 120.666447,22.441528,0.0 120.664945,22.441399,0.0 120.663706,22.440985,0.0 120.662177,22.440192,0.0 120.660724,22.440189,0.0 120.65947,22.440042,0.0 120.658666,22.440519,0.0 120.658235,22.441769,0.0 120.657386,22.44199,0.0 120.656481,22.44214,0.0 120.655479,22.44225,0.0 120.654174,22.442401,0.0 120.653236,22.442699,0.0 120.65253,22.443014,0.0 120.651604,22.443109,0.0 120.650442,22.443098,0.0 120.64912,22.442713,0.0 120.648049,22.442259,0.0 120.64735,22.441833,0.0 120.646724,22.441283,0.0 120.646129,22.440528,0.0 120.64524,22.43934,0.0 120.645049,22.438805,0.0 120.645064,22.438033,0.0 120.645032,22.437215,0.0 120.644776,22.436165,0.0 120.644129,22.43519,0.0 120.643527,22.434345,0.0 120.643004,22.433806,0.0 120.642205,22.433044,0.0 120.644824,22.431329,0.0 120.647199,22.428196,0.0 120.648043,22.426897,0.0 120.64854,22.425548,0.0 120.6492,22.425064,0.0 120.650345,22.423989,0.0 120.651065,22.423074,0.0 120.652263,22.422704,0.0 120.653354,22.422036,0.0 120.65438,22.421925,0.0 120.65546,22.421765,0.0 120.656402,22.421514,0.0 120.657242,22.420708,0.0 120.658471,22.419358,0.0 120.663478,22.418524,0.0 120.66715,22.415761,0.0 120.668225,22.414671,0.0 120.669467,22.412014,0.0 120.672523,22.408909,0.0 120.673271,22.407483,0.0 120.673528,22.406197,0.0 120.672383,22.405271,0.0 120.673534,22.403331,0.0 120.672745,22.401944,0.0 120.672378,22.400852,0.0 120.672291,22.399249,0.0 120.673014,22.39839,0.0 120.672774,22.396534,0.0 120.671516,22.394725,0.0 120.672881,22.393418,0.0 120.674652,22.392991,0.0 120.675735,22.394002,0.0 120.677963,22.395167,0.0 120.678643,22.393647,0.0 120.680748,22.393258,0.0 120.683018,22.393402,0.0 120.684768,22.392031,0.0 120.686064,22.39113,0.0 120.687494,22.391505,0.0 120.688596,22.392244,0.0 120.689309,22.393232,0.0 120.691716,22.393171,0.0 120.695002,22.393242,0.0 120.696458,22.392787,0.0 120.697666,22.393534,0.0 120.698583,22.39343,0.0 120.700222,22.393604,0.0 120.700398,22.394643,0.0 120.701022,22.396035,0.0 120.70038,22.39689,0.0 120.700824,22.398582,0.0 120.699501,22.399155,0.0 120.699932,22.401251,0.0 120.704139,22.401819,0.0 120.708524,22.403154,0.0 120.710237,22.403142,0.0 120.710796,22.401802,0.0 120.714163,22.401514,0.0 120.718448,22.400657,0.0 120.720898,22.400313,0.0 120.722057,22.400819,0.0 120.722427,22.401869,0.0 120.723418,22.402833,0.0 120.72244,22.405604,0.0 120.717755,22.413182,0.0 120.720703,22.413711,0.0 120.726905,22.411243,0.0 120.733469,22.410445,0.0 120.742838,22.411133,0.0 120.748974,22.409113,0.0 120.753738,22.40509,0.0 120.756286,22.40473,0.0 120.758842,22.40524,0.0 120.761853,22.406753,0.0 120.764491,22.408522,0.0 120.767653,22.408811,0.0 120.770579,22.406896,0.0 120.773628,22.407093,0.0 120.775169,22.409375,0.0 120.776816,22.408978,0.0 120.779315,22.409324,0.0 120.782625,22.41102,0.0 120.783438,22.412604,0.0 120.785847,22.414271,0.0 120.786594,22.415749,0.0 120.788633,22.41735,0.0 120.788533,22.418973,0.0 120.787618,22.422018,0.0 120.78702,22.424647,0.0 120.784769,22.428119,0.0 120.784141,22.429839,0.0 120.782761,22.433258,0.0 120.778977,22.433618,0.0 120.775054,22.43459,0.0 120.773976,22.433862,0.0 120.772415,22.433894,0.0 120.770742,22.434573,0.0 120.767743,22.434273,0.0 120.767018,22.435098,0.0 120.766492,22.435382,0.0 120.764845,22.435357,0.0 120.762967,22.436192,0.0 120.761407,22.435542,0.0 120.759917,22.435393,0.0 120.758827,22.435495,0.0 120.756842,22.434501,0.0 120.754898,22.434241,0.0 120.753875,22.434639,0.0 120.752976,22.43352,0.0 120.752243,22.432891,0.0 120.751074,22.432426,0.0 120.750481,22.431127,0.0 120.749042,22.43129,0.0 120.746801,22.431401,0.0 120.744661,22.431732,0.0 120.743507,22.432708,0.0 120.743049,22.43228,0.0 120.742517,22.431031,0.0 120.740061,22.430365,0.0 120.737982,22.428811,0.0 120.735302,22.427617,0.0 120.733925,22.427852,0.0 120.732229,22.428621,0.0 120.730054,22.431069,0.0 120.729242,22.431167,0.0 120.728101,22.432486,0.0 120.726471,22.431219,0.0 120.72537,22.430357,0.0 120.724786,22.431291,0.0 120.723125,22.432148,0.0 120.722717,22.433206,0.0 120.720571,22.433866,0.0 120.719626,22.433237,0.0 120.718138,22.433108,0.0 120.716426,22.432974,0.0 120.713768,22.433667,0.0 120.712126,22.434321,0.0 120.709364,22.434226,0.0 120.708917,22.433001,0.0 120.707066,22.431826,0.0 120.705372,22.431938,0.0 120.703068,22.432097,0.0 120.701855,22.434219,0.0 120.7012,22.434965,0.0 120.698495,22.43608,0.0 120.696678,22.43677,0.0 120.695335,22.437643,0.0 120.694127,22.437454,0.0 120.692925,22.438461,0.0 120.691728,22.44073,0.0 120.693005,22.441938,0.0 120.692773,22.443012,0.0 120.690101,22.443219,0.0 120.689356,22.443859,0.0 120.689158,22.445516,0.0 120.687903,22.446441,0.0 120.686537,22.445978,0.0 120.685437,22.446714,0.0</coordinates></LinearRing></outerBoundaryIs></Polygon><styleUrl>#spolygon-map</styleUrl></Placemark><Placemark><Polygon><outerBoundaryIs><LinearRing><coordinates>120.6715,22.394716,0.0 120.66911,22.39617,0.0 120.667141,22.396021,0.0 120.665293,22.394611,0.0 120.66334,22.393053,0.0 120.661911,22.391461,0.0 120.661345,22.389525,0.0 120.662007,22.387559,0.0 120.660682,22.386841,0.0 120.65982,22.385139,0.0 120.657654,22.384918,0.0 120.656528,22.385839,0.0 120.655857,22.384783,0.0 120.656364,22.384299,0.0 120.657752,22.383024,0.0 120.656883,22.382679,0.0 120.655995,22.382103,0.0 120.654618,22.38035,0.0 120.654266,22.378532,0.0 120.652918,22.378626,0.0 120.651958,22.377577,0.0 120.652287,22.376672,0.0 120.654985,22.375937,0.0 120.652574,22.373719,0.0 120.652509,22.372583,0.0 120.653346,22.370732,0.0 120.653456,22.369309,0.0 120.653281,22.368577,0.0 120.652867,22.367619,0.0 120.65628,22.362501,0.0 120.659039,22.360118,0.0 120.664909,22.359401,0.0 120.666939,22.357608,0.0 120.674102,22.355123,0.0 120.679526,22.354994,0.0 120.686522,22.358704,0.0 120.691211,22.361495,0.0 120.694479,22.362975,0.0 120.698854,22.363302,0.0 120.701323,22.362783,0.0 120.713124,22.356491,0.0 120.714488,22.355531,0.0 120.715679,22.35536,0.0 120.716936,22.354849,0.0 120.718048,22.354592,0.0 120.719639,22.354978,0.0 120.720205,22.355598,0.0 120.72116,22.356313,0.0 120.722535,22.357074,0.0 120.723936,22.357873,0.0 120.725561,22.358382,0.0 120.72737,22.359564,0.0 120.728483,22.360688,0.0 120.729396,22.361701,0.0 120.729814,22.362675,0.0 120.73101,22.363826,0.0 120.732622,22.365231,0.0 120.733485,22.366803,0.0 120.734332,22.367022,0.0 120.736756,22.366784,0.0 120.739048,22.366781,0.0 120.740389,22.367237,0.0 120.741448,22.367358,0.0 120.742889,22.367202,0.0 120.744246,22.369514,0.0 120.74654,22.371031,0.0 120.749061,22.374221,0.0 120.748665,22.380102,0.0 120.749555,22.382277,0.0 120.751199,22.384822,0.0 120.753857,22.386418,0.0 120.756484,22.388384,0.0 120.754667,22.390095,0.0 120.752787,22.391648,0.0 120.752152,22.393539,0.0 120.753798,22.396436,0.0 120.757217,22.397834,0.0 120.756735,22.39968,0.0 120.755502,22.403013,0.0 120.753409,22.404979,0.0 120.75056,22.408294,0.0 120.744446,22.411059,0.0 120.735088,22.410245,0.0 120.727852,22.411118,0.0 120.722792,22.413505,0.0 120.71814,22.413605,0.0 120.720169,22.408612,0.0 120.723558,22.403492,0.0 120.723034,22.401886,0.0 120.721939,22.40155,0.0 120.721646,22.400064,0.0 120.719123,22.401049,0.0 120.715305,22.40167,0.0 120.713095,22.401722,0.0 120.710344,22.402417,0.0 120.709199,22.40384,0.0 120.705642,22.401598,0.0 120.700052,22.401475,0.0 120.69974,22.3997,0.0 120.700463,22.399128,0.0 120.700454,22.397561,0.0 120.700941,22.396196,0.0 120.70041,22.395267,0.0 120.700593,22.393784,0.0 120.699506,22.393581,0.0 120.697999,22.393406,0.0 120.696835,22.392919,0.0 120.695371,22.393449,0.0 120.693217,22.393153,0.0 120.690309,22.392985,0.0 120.688367,22.392632,0.0 120.688422,22.391749,0.0 120.686578,22.391156,0.0 120.685397,22.391732,0.0 120.683514,22.393263,0.0 120.681527,22.393025,0.0 120.679104,22.393392,0.0 120.678174,22.395016,0.0 120.676241,22.394434,0.0 120.675155,22.393233,0.0 120.67366,22.393165,0.0 120.67188,22.394234,0.0 120.6715,22.394716,0.0</coordinates></LinearRing></outerBoundaryIs></Polygon><styleUrl>#spolygon-map</styleUrl></Placemark><Placemark><Polygon><outerBoundaryIs><LinearRing><coordinates>120.713938,22.355485,0.0 120.705442,22.360738,0.0 120.699826,22.364073,0.0 120.696767,22.363185,0.0 120.692154,22.361794,0.0 120.688623,22.361043,0.0 120.682195,22.355148,0.0 120.676184,22.355608,0.0 120.670426,22.355775,0.0 120.66574,22.358455,0.0 120.662221,22.359777,0.0 120.656852,22.361742,0.0 120.65576,22.364613,0.0 120.652344,22.367083,0.0 120.650913,22.367055,0.0 120.648235,22.367867,0.0 120.645272,22.369931,0.0 120.64449,22.369313,0.0 120.644315,22.367393,0.0 120.645557,22.364535,0.0 120.643617,22.359512,0.0 120.642159,22.356004,0.0 120.641031,22.353651,0.0 120.640782,22.352754,0.0 120.641104,22.352276,0.0 120.641654,22.351706,0.0 120.642149,22.351032,0.0 120.642662,22.350246,0.0 120.643331,22.349441,0.0 120.644246,22.348761,0.0 120.644938,22.34844,0.0 120.646074,22.348454,0.0 120.646975,22.348844,0.0 120.647865,22.349081,0.0 120.64865,22.349058,0.0 120.649122,22.348695,0.0 120.64985,22.347983,0.0 120.650281,22.347374,0.0 120.650574,22.34663,0.0 120.651372,22.346149,0.0 120.652417,22.346042,0.0 120.653361,22.345656,0.0 120.654107,22.345274,0.0 120.654705,22.344975,0.0 120.655138,22.344393,0.0 120.655474,22.34359,0.0 120.656036,22.342995,0.0 120.656586,22.342705,0.0 120.657371,22.342483,0.0 120.657837,22.342107,0.0 120.658241,22.341252,0.0 120.659029,22.341078,0.0 120.659643,22.341454,0.0 120.660232,22.34216,0.0 120.660765,22.34287,0.0 120.660926,22.343514,0.0 120.660492,22.344192,0.0 120.66043,22.345075,0.0 120.660937,22.345756,0.0 120.662029,22.346539,0.0 120.662896,22.346963,0.0 120.66353,22.346657,0.0 120.663887,22.345872,0.0 120.664654,22.345684,0.0 120.665219,22.345394,0.0 120.665478,22.344627,0.0 120.66577,22.344108,0.0 120.666497,22.344157,0.0 120.666822,22.344978,0.0 120.667158,22.345574,0.0 120.667859,22.345632,0.0 120.668702,22.345625,0.0 120.66887,22.34491,0.0 120.668855,22.344309,0.0 120.669413,22.344315,0.0 120.670195,22.344519,0.0 120.670909,22.344471,0.0 120.67155,22.344156,0.0 120.672387,22.344506,0.0 120.673323,22.344539,0.0 120.673974,22.344202,0.0 120.674578,22.343623,0.0 120.675205,22.343606,0.0 120.676008,22.343876,0.0 120.676785,22.344305,0.0 120.677596,22.34443,0.0 120.678687,22.344198,0.0 120.679653,22.344283,0.0 120.680533,22.344222,0.0 120.681388,22.344323,0.0 120.682478,22.34421,0.0 120.683422,22.343938,0.0 120.684295,22.343534,0.0 120.684865,22.342912,0.0 120.685668,22.342457,0.0 120.686563,22.341874,0.0 120.687159,22.341327,0.0 120.687826,22.341344,0.0 120.688545,22.341765,0.0 120.688924,22.342472,0.0 120.689295,22.342875,0.0 120.689234,22.343541,0.0 120.689074,22.344137,0.0 120.689424,22.344711,0.0 120.689423,22.345585,0.0 120.690131,22.346146,0.0 120.691251,22.346293,0.0 120.692574,22.346571,0.0 120.693522,22.347049,0.0 120.693877,22.347381,0.0 120.693603,22.347893,0.0 120.693853,22.348384,0.0 120.694803,22.348198,0.0 120.6957,22.348076,0.0 120.696607,22.348041,0.0 120.697243,22.348341,0.0 120.697522,22.348291,0.0 120.698007,22.347809,0.0 120.698701,22.347646,0.0 120.699401,22.347748,0.0 120.700282,22.347994,0.0 120.700865,22.348713,0.0 120.701272,22.349271,0.0 120.701936,22.349081,0.0 120.702283,22.348571,0.0 120.702758,22.348604,0.0 120.70305,22.349198,0.0 120.703615,22.349852,0.0 120.704427,22.350352,0.0 120.70495,22.350737,0.0 120.705584,22.351167,0.0 120.706036,22.351832,0.0 120.706943,22.352522,0.0 120.707753,22.353341,0.0 120.708636,22.353548,0.0 120.709528,22.353655,0.0 120.7106,22.354213,0.0 120.711643,22.354693,0.0 120.713021,22.35533,0.0 120.713938,22.355485,0.0</coordinates></LinearRing></outerBoundaryIs></Polygon><styleUrl>#spolygon-map</styleUrl></Placemark><Placemark><Polygon><outerBoundaryIs><LinearRing><coordinates>120.636849,22.393937,0.0 120.636325,22.393641,0.0 120.635352,22.393431,0.0 120.634702,22.393325,0.0 120.633975,22.393114,0.0 120.632955,22.393046,0.0 120.632381,22.393544,0.0 120.631913,22.39413,0.0 120.6314,22.394799,0.0 120.630799,22.395362,0.0 120.630431,22.395406,0.0 120.629644,22.395134,0.0 120.628698,22.394806,0.0 120.627832,22.394459,0.0 120.626757,22.394102,0.0 120.626117,22.39403,0.0 120.625378,22.394076,0.0 120.625024,22.393904,0.0 120.624524,22.393898,0.0 120.624354,22.393746,0.0 120.624312,22.39332,0.0 120.624177,22.392847,0.0 120.623571,22.392819,0.0 120.623227,22.392529,0.0 120.623139,22.391447,0.0 120.62284,22.391219,0.0 120.622056,22.391287,0.0 120.621291,22.391389,0.0 120.62067,22.391421,0.0 120.620216,22.391188,0.0 120.619742,22.391394,0.0 120.619204,22.391377,0.0 120.618631,22.391175,0.0 120.618129,22.390661,0.0 120.617342,22.390181,0.0 120.616927,22.389658,0.0 120.617072,22.389259,0.0 120.617274,22.388733,0.0 120.617623,22.388492,0.0 120.617411,22.388025,0.0 120.617052,22.387746,0.0 120.616284,22.387611,0.0 120.615929,22.387159,0.0 120.615987,22.386703,0.0 120.616291,22.386286,0.0 120.616853,22.385892,0.0 120.617408,22.385952,0.0 120.61786,22.385576,0.0 120.61825,22.385292,0.0 120.618343,22.384782,0.0 120.617627,22.384568,0.0 120.617443,22.384125,0.0 120.617551,22.38343,0.0 120.618184,22.383208,0.0 120.618197,22.382653,0.0 120.618123,22.382002,0.0 120.618031,22.380984,0.0 120.618016,22.379986,0.0 120.618029,22.378676,0.0 120.618084,22.377554,0.0 120.618226,22.376819,0.0 120.618734,22.376551,0.0 120.619257,22.376789,0.0 120.619448,22.376402,0.0 120.61937,22.375891,0.0 120.619381,22.37497,0.0 120.619907,22.37407,0.0 120.620043,22.37347,0.0 120.620496,22.373202,0.0 120.620944,22.372926,0.0 120.62109,22.372337,0.0 120.621273,22.371624,0.0 120.621949,22.371388,0.0 120.622634,22.371401,0.0 120.623486,22.371284,0.0 120.624572,22.371293,0.0 120.625087,22.370971,0.0 120.625198,22.370341,0.0 120.624616,22.370293,0.0 120.62392,22.370384,0.0 120.623578,22.370369,0.0 120.623211,22.3697,0.0 120.622997,22.369185,0.0 120.62236,22.369122,0.0 120.621853,22.369492,0.0 120.621349,22.369576,0.0 120.620858,22.369096,0.0 120.620343,22.369185,0.0 120.61965,22.369843,0.0 120.619239,22.37009,0.0 120.618652,22.370407,0.0 120.618031,22.370681,0.0 120.618098,22.370009,0.0 120.618392,22.369264,0.0 120.618709,22.368667,0.0 120.619051,22.368035,0.0 120.619405,22.36746,0.0 120.619838,22.367109,0.0 120.620382,22.367023,0.0 120.620493,22.366659,0.0 120.620207,22.366203,0.0 120.620075,22.36552,0.0 120.620224,22.364816,0.0 120.620507,22.364277,0.0 120.620295,22.363846,0.0 120.620316,22.363342,0.0 120.620824,22.36316,0.0 120.621418,22.363071,0.0 120.621895,22.362957,0.0 120.622419,22.36332,0.0 120.622698,22.363646,0.0 120.622902,22.363651,0.0 120.622606,22.363223,0.0 120.622079,22.362716,0.0 120.62158,22.362503,0.0 120.621254,22.362114,0.0 120.621173,22.361676,0.0 120.620732,22.361862,0.0 120.620297,22.361773,0.0 120.620506,22.361211,0.0 120.621146,22.361506,0.0 120.621864,22.361761,0.0 120.622796,22.361939,0.0 120.62386,22.36216,0.0 120.624774,22.362364,0.0 120.625416,22.36211,0.0 120.625791,22.361707,0.0 120.625741,22.360975,0.0 120.625835,22.360194,0.0 120.626288,22.359775,0.0 120.626803,22.35925,0.0 120.627311,22.359301,0.0 120.627726,22.359069,0.0 120.62815,22.358639,0.0 120.628783,22.358446,0.0 120.629456,22.358091,0.0 120.630058,22.35809,0.0 120.631096,22.358578,0.0 120.632249,22.358673,0.0 120.63321,22.359019,0.0 120.634076,22.359321,0.0 120.635094,22.359328,0.0 120.636166,22.359319,0.0 120.637247,22.359233,0.0 120.638072,22.359097,0.0 120.638964,22.359027,0.0 120.639331,22.358434,0.0 120.639407,22.357585,0.0 120.63949,22.356895,0.0 120.639133,22.356576,0.0 120.639665,22.355703,0.0 120.640486,22.355201,0.0 120.641263,22.355257,0.0 120.641187,22.354855,0.0 120.641184,22.354284,0.0 120.641825,22.355182,0.0 120.642813,22.357681,0.0 120.644718,22.361618,0.0 120.644614,22.366504,0.0 120.644401,22.368967,0.0 120.64488,22.369824,0.0 120.646615,22.36924,0.0 120.649406,22.367397,0.0 120.652067,22.366985,0.0 120.652886,22.367646,0.0 120.653346,22.36862,0.0 120.653376,22.369822,0.0 120.65337,22.370831,0.0 120.652393,22.372861,0.0 120.653208,22.374197,0.0 120.654859,22.376106,0.0 120.652114,22.376771,0.0 120.652034,22.377678,0.0 120.653082,22.378681,0.0 120.654468,22.378533,0.0 120.654684,22.380707,0.0 120.654517,22.381922,0.0 120.651048,22.384601,0.0 120.644994,22.381535,0.0 120.643944,22.382599,0.0 120.646952,22.390101,0.0 120.64793,22.392515,0.0 120.644752,22.393512,0.0 120.639945,22.393703,0.0 120.636849,22.393937,0.0</coordinates></LinearRing></outerBoundaryIs></Polygon><styleUrl>#spolygon-map</styleUrl></Placemark><Placemark><Polygon><outerBoundaryIs><LinearRing><coordinates>120.641971,22.432903,0.0 120.641352,22.432726,0.0 120.640189,22.432725,0.0 120.639043,22.432784,0.0 120.638136,22.43287,0.0 120.637123,22.433071,0.0 120.636084,22.433529,0.0 120.635234,22.434046,0.0 120.634292,22.434681,0.0 120.633371,22.435338,0.0 120.632782,22.435775,0.0 120.632941,22.435235,0.0 120.632966,22.434305,0.0 120.632702,22.433476,0.0 120.632361,22.432845,0.0 120.631752,22.432302,0.0 120.631127,22.432059,0.0 120.630851,22.431553,0.0 120.630579,22.430721,0.0 120.630327,22.429817,0.0 120.629843,22.428848,0.0 120.629424,22.428251,0.0 120.629891,22.427823,0.0 120.629144,22.427473,0.0 120.628234,22.427241,0.0 120.627598,22.426822,0.0 120.62679,22.426488,0.0 120.625785,22.426264,0.0 120.625011,22.426109,0.0 120.62408,22.425482,0.0 120.623514,22.424541,0.0 120.623393,22.423852,0.0 120.623451,22.422949,0.0 120.623191,22.421908,0.0 120.623329,22.421497,0.0 120.624197,22.421603,0.0 120.624982,22.421713,0.0 120.625745,22.421803,0.0 120.626603,22.421913,0.0 120.627241,22.422111,0.0 120.627856,22.422298,0.0 120.628612,22.422751,0.0 120.629224,22.42315,0.0 120.629771,22.423149,0.0 120.630476,22.423112,0.0 120.630477,22.422721,0.0 120.629549,22.422047,0.0 120.629111,22.421662,0.0 120.62871,22.420801,0.0 120.628832,22.42046,0.0 120.628412,22.420197,0.0 120.628053,22.419695,0.0 120.628202,22.418878,0.0 120.628305,22.417943,0.0 120.628235,22.417313,0.0 120.627692,22.416709,0.0 120.627381,22.415984,0.0 120.627695,22.415612,0.0 120.628415,22.415828,0.0 120.629147,22.415609,0.0 120.629989,22.415658,0.0 120.631058,22.415265,0.0 120.631564,22.414765,0.0 120.632051,22.414434,0.0 120.632092,22.414017,0.0 120.631704,22.4133,0.0 120.631563,22.412738,0.0 120.632061,22.412556,0.0 120.632439,22.411855,0.0 120.632185,22.411454,0.0 120.631489,22.411493,0.0 120.630935,22.411817,0.0 120.630819,22.412187,0.0 120.6304,22.412376,0.0 120.629941,22.411707,0.0 120.629261,22.410843,0.0 120.628531,22.410206,0.0 120.628523,22.409773,0.0 120.627582,22.409653,0.0 120.627222,22.409425,0.0 120.627536,22.408983,0.0 120.627237,22.408788,0.0 120.626717,22.40866,0.0 120.626434,22.40821,0.0 120.625684,22.408263,0.0 120.625559,22.407601,0.0 120.624996,22.407405,0.0 120.625187,22.40685,0.0 120.62572,22.406461,0.0 120.625632,22.405894,0.0 120.625004,22.405692,0.0 120.624414,22.4059,0.0 120.623967,22.405922,0.0 120.62356,22.405627,0.0 120.623715,22.404858,0.0 120.624132,22.405292,0.0 120.624693,22.404808,0.0 120.625272,22.404448,0.0 120.625384,22.403934,0.0 120.625641,22.40351,0.0 120.625986,22.403084,0.0 120.626552,22.402873,0.0 120.626866,22.402531,0.0 120.627398,22.40234,0.0 120.627694,22.402011,0.0 120.628245,22.402317,0.0 120.628957,22.402468,0.0 120.629406,22.402004,0.0 120.628978,22.401395,0.0 120.629071,22.400991,0.0 120.629674,22.400972,0.0 120.630321,22.40169,0.0 120.630956,22.401321,0.0 120.63087,22.400704,0.0 120.630445,22.40027,0.0 120.629879,22.399855,0.0 120.628985,22.399677,0.0 120.629021,22.399244,0.0 120.629627,22.398626,0.0 120.630549,22.398956,0.0 120.631201,22.399231,0.0 120.631582,22.39878,0.0 120.632058,22.398792,0.0 120.633038,22.399142,0.0 120.633236,22.398526,0.0 120.633123,22.398061,0.0 120.633308,22.397689,0.0 120.633104,22.397146,0.0 120.633221,22.396749,0.0 120.633631,22.396339,0.0 120.634035,22.396056,0.0 120.634489,22.395901,0.0 120.635149,22.395988,0.0 120.63564,22.396044,0.0 120.635612,22.39561,0.0 120.635308,22.395113,0.0 120.635344,22.394614,0.0 120.635636,22.394251,0.0 120.63606,22.394189,0.0 120.636475,22.394054,0.0 120.636861,22.393958,0.0 120.643239,22.393961,0.0 120.646874,22.393336,0.0 120.64828,22.391317,0.0 120.645046,22.386988,0.0 120.644187,22.381423,0.0 120.647552,22.383361,0.0 120.653001,22.383675,0.0 120.655995,22.382103,0.0 120.656883,22.382679,0.0 120.657752,22.383024,0.0 120.656364,22.384299,0.0 120.655857,22.384783,0.0 120.656528,22.385839,0.0 120.657654,22.384918,0.0 120.65982,22.385139,0.0 120.660682,22.386841,0.0 120.662007,22.387559,0.0 120.661345,22.389525,0.0 120.661911,22.391461,0.0 120.66334,22.393053,0.0 120.665293,22.394611,0.0 120.667141,22.396021,0.0 120.66911,22.39617,0.0 120.6715,22.394716,0.0 120.672658,22.396105,0.0 120.673107,22.398187,0.0 120.672515,22.399211,0.0 120.672307,22.400692,0.0 120.672816,22.401829,0.0 120.673393,22.403085,0.0 120.672714,22.404619,0.0 120.673445,22.406124,0.0 120.673126,22.407103,0.0 120.672655,22.408516,0.0 120.669856,22.411696,0.0 120.668456,22.414351,0.0 120.667388,22.415735,0.0 120.664329,22.417932,0.0 120.658695,22.419388,0.0 120.6575,22.420465,0.0 120.656557,22.42151,0.0 120.655554,22.421662,0.0 120.654684,22.421994,0.0 120.65341,22.422009,0.0 120.652572,22.422649,0.0 120.651138,22.423007,0.0 120.650619,22.4238,0.0 120.649494,22.424828,0.0 120.648664,22.425471,0.0 120.648086,22.426653,0.0 120.6473,22.427783,0.0 120.645545,22.430707,0.0 120.641971,22.432903,0.0</coordinates></LinearRing></outerBoundaryIs></Polygon><styleUrl>#spolygon-map</styleUrl></Placemark></Document>
</kml>
