<?xml version="1.0" encoding="UTF-8"?>
<kml xmlns="http://www.opengis.net/kml/2.2">
	<Document>
		<name>屏東縣高樹鄉</name>
		<Style id="spolygon">
			<LabelStyle>
				<scale>0.0</scale>
			</LabelStyle>
			<LineStyle>
				<color>330030ff</color>
				<width>0</width>
			</LineStyle>
			<PolyStyle>
				<color>330030ff</color>
			</PolyStyle>
		</Style>
		<StyleMap id="spolygon-map">
			<Pair>
				<key>normal</key>
				<styleUrl>#spolygon</styleUrl>
			</Pair>
		</StyleMap>
	<Placemark><Polygon><outerBoundaryIs><LinearRing><coordinates>120.585459,22.856379,0.0 120.583039,22.854512,0.0 120.57853,22.851044,0.0 120.574806,22.848205,0.0 120.571802,22.844527,0.0 120.584533,22.830508,0.0 120.588793,22.828837,0.0 120.590699,22.831143,0.0 120.590681,22.832285,0.0 120.593954,22.834833,0.0 120.597444,22.834099,0.0 120.599584,22.832944,0.0 120.600985,22.834447,0.0 120.602034,22.835298,0.0 120.6032,22.836069,0.0 120.604763,22.836644,0.0 120.605656,22.837784,0.0 120.60695,22.838815,0.0 120.606689,22.841386,0.0 120.600417,22.843117,0.0 120.590257,22.851237,0.0 120.585459,22.856379,0.0</coordinates></LinearRing></outerBoundaryIs></Polygon><styleUrl>#spolygon-map</styleUrl></Placemark><Placemark><Polygon><outerBoundaryIs><LinearRing><coordinates>120.610435,22.841234,0.0 120.612646,22.840666,0.0 120.616866,22.841853,0.0 120.613453,22.845055,0.0 120.612309,22.845994,0.0 120.610171,22.846433,0.0 120.610002,22.848542,0.0 120.611148,22.849897,0.0 120.610167,22.851439,0.0 120.609337,22.854432,0.0 120.608153,22.854556,0.0 120.607306,22.852219,0.0 120.606934,22.845222,0.0 120.609382,22.841049,0.0 120.610435,22.841234,0.0</coordinates></LinearRing></outerBoundaryIs></Polygon><styleUrl>#spolygon-map</styleUrl></Placemark><Placemark><Polygon><outerBoundaryIs><LinearRing><coordinates>120.590563,22.807951,0.0 120.587539,22.809914,0.0 120.582405,22.806386,0.0 120.578071,22.806406,0.0 120.572964,22.802916,0.0 120.571951,22.79938,0.0 120.575534,22.793275,0.0 120.582199,22.797431,0.0 120.586328,22.799957,0.0 120.589528,22.804122,0.0 120.590509,22.805707,0.0 120.590563,22.807951,0.0</coordinates></LinearRing></outerBoundaryIs></Polygon><styleUrl>#spolygon-map</styleUrl></Placemark><Placemark><Polygon><outerBoundaryIs><LinearRing><coordinates>120.571368,22.845027,0.0 120.569228,22.842594,0.0 120.567173,22.839061,0.0 120.566565,22.837739,0.0 120.566269,22.83639,0.0 120.565985,22.835114,0.0 120.565665,22.833616,0.0 120.565172,22.832215,0.0 120.564921,22.831386,0.0 120.564349,22.830475,0.0 120.563669,22.829678,0.0 120.562802,22.828779,0.0 120.561978,22.827919,0.0 120.561266,22.827041,0.0 120.561097,22.826474,0.0 120.561122,22.825801,0.0 120.561531,22.825342,0.0 120.562298,22.824956,0.0 120.562956,22.824644,0.0 120.572824,22.820123,0.0 120.582775,22.820373,0.0 120.583997,22.821094,0.0 120.585119,22.8217,0.0 120.587002,22.823252,0.0 120.588124,22.824742,0.0 120.589447,22.826355,0.0 120.587956,22.828325,0.0 120.582458,22.83267,0.0 120.571368,22.845027,0.0</coordinates></LinearRing></outerBoundaryIs></Polygon><styleUrl>#spolygon-map</styleUrl></Placemark><Placemark><Polygon><outerBoundaryIs><LinearRing><coordinates>120.599584,22.832944,0.0 120.597444,22.834099,0.0 120.593954,22.834833,0.0 120.590681,22.832285,0.0 120.590699,22.831143,0.0 120.588793,22.828837,0.0 120.589545,22.826916,0.0 120.588307,22.824959,0.0 120.587146,22.823444,0.0 120.585206,22.821802,0.0 120.584209,22.821133,0.0 120.583431,22.820917,0.0 120.579562,22.815644,0.0 120.585237,22.813541,0.0 120.590963,22.817805,0.0 120.59489,22.822287,0.0 120.595067,22.825306,0.0 120.596394,22.827324,0.0 120.599474,22.831845,0.0 120.599584,22.832944,0.0</coordinates></LinearRing></outerBoundaryIs></Polygon><styleUrl>#spolygon-map</styleUrl></Placemark><Placemark><Polygon><outerBoundaryIs><LinearRing><coordinates>120.598783,22.813341,0.0 120.600305,22.817472,0.0 120.599909,22.819083,0.0 120.600594,22.822245,0.0 120.600779,22.8234,0.0 120.600136,22.825014,0.0 120.596788,22.824794,0.0 120.596436,22.82405,0.0 120.596523,22.82349,0.0 120.595106,22.822828,0.0 120.592061,22.818363,0.0 120.5876,22.815812,0.0 120.584538,22.812458,0.0 120.587407,22.811307,0.0 120.588727,22.808725,0.0 120.591916,22.807756,0.0 120.596355,22.808639,0.0 120.598583,22.812593,0.0 120.598783,22.813341,0.0</coordinates></LinearRing></outerBoundaryIs></Polygon><styleUrl>#spolygon-map</styleUrl></Placemark><Placemark><Polygon><outerBoundaryIs><LinearRing><coordinates>120.598442,22.784941,0.0 120.596049,22.784925,0.0 120.593004,22.783604,0.0 120.591121,22.780495,0.0 120.589552,22.779249,0.0 120.585408,22.780636,0.0 120.584131,22.780621,0.0 120.583191,22.780086,0.0 120.582495,22.779068,0.0 120.582453,22.776826,0.0 120.581,22.775815,0.0 120.578541,22.77325,0.0 120.57884,22.772872,0.0 120.579249,22.772386,0.0 120.579752,22.771823,0.0 120.580154,22.771546,0.0 120.580583,22.771524,0.0 120.581112,22.771384,0.0 120.581625,22.771304,0.0 120.582068,22.771454,0.0 120.582569,22.771324,0.0 120.58292,22.771079,0.0 120.583408,22.770471,0.0 120.583635,22.770121,0.0 120.583799,22.769544,0.0 120.584076,22.769095,0.0 120.58449,22.768882,0.0 120.585281,22.768665,0.0 120.58608,22.768398,0.0 120.586959,22.768234,0.0 120.587481,22.768165,0.0 120.58795,22.76797,0.0 120.588772,22.767493,0.0 120.589924,22.766968,0.0 120.590603,22.766733,0.0 120.591164,22.766519,0.0 120.591762,22.766239,0.0 120.592398,22.765924,0.0 120.593019,22.765576,0.0 120.593471,22.765329,0.0 120.594192,22.76492,0.0 120.594999,22.764475,0.0 120.595574,22.764174,0.0 120.596233,22.764494,0.0 120.597216,22.764968,0.0 120.598165,22.765431,0.0 120.59904,22.765858,0.0 120.600414,22.766511,0.0 120.602391,22.767449,0.0 120.611886,22.770138,0.0 120.610838,22.772892,0.0 120.608941,22.773913,0.0 120.609733,22.778753,0.0 120.608226,22.780099,0.0 120.603484,22.78629,0.0 120.600261,22.785207,0.0 120.598442,22.784941,0.0</coordinates></LinearRing></outerBoundaryIs></Polygon><styleUrl>#spolygon-map</styleUrl></Placemark><Placemark><Polygon><outerBoundaryIs><LinearRing><coordinates>120.617642,22.840195,0.0 120.611098,22.841371,0.0 120.606329,22.831598,0.0 120.607996,22.827885,0.0 120.61141,22.826476,0.0 120.615183,22.823618,0.0 120.622331,22.819587,0.0 120.626206,22.818061,0.0 120.627888,22.817694,0.0 120.630341,22.817955,0.0 120.630151,22.818443,0.0 120.629957,22.818742,0.0 120.629509,22.818938,0.0 120.6294,22.81926,0.0 120.628768,22.819519,0.0 120.628419,22.819479,0.0 120.627965,22.819483,0.0 120.627653,22.819408,0.0 120.627223,22.819449,0.0 120.627036,22.819727,0.0 120.627413,22.820008,0.0 120.627699,22.820498,0.0 120.627923,22.820939,0.0 120.627955,22.821309,0.0 120.627927,22.821684,0.0 120.627899,22.82214,0.0 120.627956,22.822644,0.0 120.628097,22.823025,0.0 120.628032,22.823486,0.0 120.628271,22.823832,0.0 120.628859,22.824172,0.0 120.629235,22.824694,0.0 120.629277,22.825238,0.0 120.629746,22.825409,0.0 120.62981,22.825745,0.0 120.62965,22.826298,0.0 120.629784,22.82677,0.0 120.630057,22.827182,0.0 120.630196,22.827604,0.0 120.630338,22.828178,0.0 120.630442,22.828515,0.0 120.630876,22.828715,0.0 120.631439,22.828978,0.0 120.63193,22.82929,0.0 120.631796,22.829496,0.0 120.631176,22.829742,0.0 120.63033,22.830165,0.0 120.629947,22.830403,0.0 120.629915,22.830884,0.0 120.629914,22.831458,0.0 120.629974,22.832018,0.0 120.630012,22.832693,0.0 120.62992,22.833284,0.0 120.62973,22.833778,0.0 120.629585,22.834272,0.0 120.629467,22.834742,0.0 120.629327,22.835423,0.0 120.629377,22.835897,0.0 120.62918,22.836175,0.0 120.629377,22.836525,0.0 120.62983,22.836908,0.0 120.629987,22.837319,0.0 120.630276,22.837665,0.0 120.630674,22.838142,0.0 120.630897,22.838666,0.0 120.628163,22.837897,0.0 120.626318,22.836649,0.0 120.625244,22.836226,0.0 120.624463,22.836193,0.0 120.622583,22.839096,0.0 120.619695,22.840135,0.0 120.617642,22.840195,0.0</coordinates></LinearRing></outerBoundaryIs></Polygon><styleUrl>#spolygon-map</styleUrl></Placemark><Placemark><Polygon><outerBoundaryIs><LinearRing><coordinates>120.630344,22.817952,0.0 120.627601,22.817687,0.0 120.624565,22.817784,0.0 120.622417,22.817329,0.0 120.620177,22.810052,0.0 120.61321,22.801205,0.0 120.606622,22.798744,0.0 120.602232,22.793082,0.0 120.599146,22.788981,0.0 120.598677,22.784891,0.0 120.601715,22.785886,0.0 120.606352,22.783827,0.0 120.609358,22.779531,0.0 120.609083,22.777124,0.0 120.608984,22.77347,0.0 120.612059,22.773376,0.0 120.616829,22.774634,0.0 120.618736,22.774564,0.0 120.622619,22.773119,0.0 120.625459,22.77251,0.0 120.62695,22.772161,0.0 120.629655,22.771174,0.0 120.633746,22.770705,0.0 120.637853,22.770423,0.0 120.63778,22.7707,0.0 120.637466,22.770914,0.0 120.637789,22.77145,0.0 120.637683,22.772023,0.0 120.637145,22.772623,0.0 120.636574,22.773253,0.0 120.635894,22.773963,0.0 120.635441,22.774405,0.0 120.634907,22.774798,0.0 120.634425,22.775116,0.0 120.633827,22.775385,0.0 120.633346,22.775608,0.0 120.63321,22.775865,0.0 120.63316,22.776246,0.0 120.632955,22.776228,0.0 120.63238,22.776253,0.0 120.631872,22.7762,0.0 120.631543,22.775929,0.0 120.631082,22.77574,0.0 120.630543,22.775671,0.0 120.62995,22.775798,0.0 120.629433,22.775915,0.0 120.62893,22.776209,0.0 120.628786,22.776557,0.0 120.629014,22.777126,0.0 120.62922,22.777637,0.0 120.629416,22.778123,0.0 120.629622,22.778606,0.0 120.629904,22.779196,0.0 120.630074,22.779617,0.0 120.630296,22.780166,0.0 120.630439,22.780627,0.0 120.63039,22.781053,0.0 120.630052,22.781364,0.0 120.629733,22.781636,0.0 120.630286,22.781723,0.0 120.630658,22.781898,0.0 120.63087,22.782269,0.0 120.630631,22.782855,0.0 120.630388,22.783376,0.0 120.630101,22.783947,0.0 120.629844,22.784493,0.0 120.629583,22.785095,0.0 120.629376,22.785501,0.0 120.629357,22.785882,0.0 120.629517,22.786361,0.0 120.629548,22.786745,0.0 120.629657,22.787278,0.0 120.629718,22.78782,0.0 120.629778,22.788236,0.0 120.629867,22.788782,0.0 120.629928,22.789207,0.0 120.629965,22.789645,0.0 120.629994,22.790137,0.0 120.630013,22.79077,0.0 120.630056,22.791246,0.0 120.629767,22.791491,0.0 120.629751,22.791742,0.0 120.629364,22.791802,0.0 120.629287,22.792229,0.0 120.629805,22.792397,0.0 120.630148,22.792718,0.0 120.630256,22.793111,0.0 120.630314,22.793455,0.0 120.630144,22.793856,0.0 120.629866,22.794104,0.0 120.629902,22.794698,0.0 120.629938,22.795515,0.0 120.629959,22.796059,0.0 120.629995,22.796567,0.0 120.630016,22.797179,0.0 120.630044,22.797868,0.0 120.630104,22.798559,0.0 120.630163,22.79916,0.0 120.630213,22.799866,0.0 120.63024,22.800582,0.0 120.630234,22.801347,0.0 120.63018,22.802011,0.0 120.630154,22.802566,0.0 120.630103,22.803311,0.0 120.630068,22.803855,0.0 120.629999,22.804514,0.0 120.629913,22.805232,0.0 120.629842,22.805853,0.0 120.629764,22.806485,0.0 120.629688,22.807097,0.0 120.629594,22.807898,0.0 120.629516,22.808527,0.0 120.629458,22.808974,0.0 120.629385,22.809591,0.0 120.629316,22.810107,0.0 120.629238,22.810751,0.0 120.629169,22.811225,0.0 120.629193,22.811654,0.0 120.629781,22.812021,0.0 120.630248,22.812218,0.0 120.631048,22.812195,0.0 120.631553,22.812314,0.0 120.632076,22.812563,0.0 120.632603,22.812824,0.0 120.632971,22.813112,0.0 120.633401,22.813379,0.0 120.633957,22.813758,0.0 120.634364,22.814041,0.0 120.634823,22.814344,0.0 120.635394,22.81447,0.0 120.635538,22.814786,0.0 120.63556,22.815172,0.0 120.635175,22.815424,0.0 120.634682,22.815638,0.0 120.634152,22.815844,0.0 120.634196,22.816077,0.0 120.634127,22.816372,0.0 120.633425,22.816626,0.0 120.632851,22.816823,0.0 120.63216,22.81707,0.0 120.6316,22.817249,0.0 120.631085,22.81742,0.0 120.630602,22.817685,0.0 120.630344,22.817952,0.0</coordinates></LinearRing></outerBoundaryIs></Polygon><styleUrl>#spolygon-map</styleUrl></Placemark><Placemark><Polygon><outerBoundaryIs><LinearRing><coordinates>120.610435,22.841234,0.0 120.608943,22.840702,0.0 120.606107,22.838246,0.0 120.604968,22.837107,0.0 120.603696,22.836231,0.0 120.602695,22.835774,0.0 120.601532,22.834859,0.0 120.59992,22.833591,0.0 120.59953,22.832093,0.0 120.596628,22.82757,0.0 120.595351,22.825664,0.0 120.595553,22.822793,0.0 120.596534,22.823529,0.0 120.596478,22.82424,0.0 120.597042,22.825016,0.0 120.600465,22.824887,0.0 120.60077,22.823309,0.0 120.600582,22.822133,0.0 120.599885,22.818643,0.0 120.600274,22.817366,0.0 120.599374,22.813453,0.0 120.603892,22.8149,0.0 120.606103,22.815653,0.0 120.61013,22.823003,0.0 120.613541,22.82414,0.0 120.6093,22.82732,0.0 120.607774,22.82882,0.0 120.609248,22.838446,0.0 120.610435,22.841234,0.0</coordinates></LinearRing></outerBoundaryIs></Polygon><styleUrl>#spolygon-map</styleUrl></Placemark><Placemark><Polygon><outerBoundaryIs><LinearRing><coordinates>120.601704,22.870128,0.0 120.600485,22.869021,0.0 120.598093,22.866878,0.0 120.595829,22.86429,0.0 120.594408,22.86299,0.0 120.59273,22.861753,0.0 120.590858,22.860387,0.0 120.588328,22.858509,0.0 120.585459,22.856379,0.0 120.591609,22.850037,0.0 120.602242,22.842081,0.0 120.606961,22.841318,0.0 120.607134,22.843258,0.0 120.607578,22.850251,0.0 120.60763,22.85397,0.0 120.607736,22.857291,0.0 120.602552,22.868847,0.0 120.601704,22.870128,0.0</coordinates></LinearRing></outerBoundaryIs></Polygon><styleUrl>#spolygon-map</styleUrl></Placemark><Placemark><Polygon><outerBoundaryIs><LinearRing><coordinates>120.572113,22.791521,0.0 120.56226,22.795806,0.0 120.557552,22.799963,0.0 120.552742,22.804608,0.0 120.55216,22.804096,0.0 120.551152,22.803235,0.0 120.55035,22.802515,0.0 120.549494,22.801749,0.0 120.548835,22.801188,0.0 120.548007,22.800508,0.0 120.547175,22.799833,0.0 120.546503,22.799282,0.0 120.54568,22.798607,0.0 120.545016,22.798045,0.0 120.54514,22.797741,0.0 120.54543,22.797441,0.0 120.545981,22.796879,0.0 120.546612,22.796302,0.0 120.547209,22.795724,0.0 120.547706,22.795217,0.0 120.548396,22.794537,0.0 120.549301,22.793635,0.0 120.549876,22.793081,0.0 120.550506,22.792471,0.0 120.551067,22.791949,0.0 120.551599,22.791395,0.0 120.551374,22.790913,0.0 120.550921,22.790372,0.0 120.550511,22.789872,0.0 120.55015,22.789363,0.0 120.550034,22.788853,0.0 120.550219,22.788343,0.0 120.550602,22.787933,0.0 120.550901,22.787424,0.0 120.551074,22.787038,0.0 120.551472,22.786798,0.0 120.552037,22.786612,0.0 120.552356,22.786159,0.0 120.552628,22.785769,0.0 120.552941,22.785427,0.0 120.552878,22.784815,0.0 120.552792,22.784239,0.0 120.552709,22.783688,0.0 120.552646,22.783182,0.0 120.552526,22.782464,0.0 120.552435,22.781901,0.0 120.552312,22.781456,0.0 120.551963,22.780911,0.0 120.551609,22.780641,0.0 120.551138,22.780453,0.0 120.550942,22.780021,0.0 120.550768,22.779562,0.0 120.550807,22.779097,0.0 120.550671,22.778794,0.0 120.550313,22.778524,0.0 120.54989,22.778198,0.0 120.549426,22.777811,0.0 120.548782,22.777353,0.0 120.54836,22.777097,0.0 120.548036,22.77694,0.0 120.547953,22.776466,0.0 120.547776,22.776226,0.0 120.547492,22.776096,0.0 120.547511,22.775679,0.0 120.547285,22.77512,0.0 120.546999,22.774449,0.0 120.546757,22.773857,0.0 120.546485,22.773217,0.0 120.546204,22.772611,0.0 120.54575,22.771637,0.0 120.545377,22.770816,0.0 120.545583,22.770636,0.0 120.546448,22.77039,0.0 120.546838,22.770093,0.0 120.547212,22.769803,0.0 120.547762,22.769647,0.0 120.548403,22.769633,0.0 120.549007,22.769675,0.0 120.549666,22.769916,0.0 120.550477,22.769961,0.0 120.551209,22.770024,0.0 120.551595,22.769965,0.0 120.552224,22.769937,0.0 120.552736,22.76992,0.0 120.553428,22.769861,0.0 120.553797,22.769815,0.0 120.553911,22.770244,0.0 120.55393,22.770816,0.0 120.553756,22.771142,0.0 120.554157,22.771087,0.0 120.554564,22.771217,0.0 120.554959,22.771281,0.0 120.555789,22.77125,0.0 120.556391,22.771297,0.0 120.557419,22.77176,0.0 120.557896,22.77196,0.0 120.558371,22.772038,0.0 120.559259,22.772259,0.0 120.559886,22.772564,0.0 120.560378,22.772987,0.0 120.56082,22.773022,0.0 120.561366,22.77294,0.0 120.561978,22.772874,0.0 120.562513,22.77284,0.0 120.563179,22.772767,0.0 120.563778,22.772699,0.0 120.564556,22.772631,0.0 120.565031,22.7726,0.0 120.565729,22.772517,0.0 120.566421,22.772446,0.0 120.567204,22.772365,0.0 120.567806,22.772251,0.0 120.568321,22.772262,0.0 120.568778,22.772324,0.0 120.569269,22.772374,0.0 120.569987,22.77239,0.0 120.570824,22.772356,0.0 120.571496,22.772331,0.0 120.572079,22.77226,0.0 120.572704,22.772054,0.0 120.573301,22.771875,0.0 120.574012,22.771688,0.0 120.574732,22.771532,0.0 120.575541,22.772006,0.0 120.576233,22.772407,0.0 120.57683,22.772756,0.0 120.577418,22.773049,0.0 120.57786,22.773092,0.0 120.578327,22.77309,0.0 120.579198,22.775027,0.0 120.581941,22.776204,0.0 120.582461,22.777546,0.0 120.582931,22.779329,0.0 120.583287,22.780276,0.0 120.584627,22.780636,0.0 120.586501,22.780221,0.0 120.590066,22.779456,0.0 120.591439,22.78099,0.0 120.593363,22.784031,0.0 120.57886,22.78981,0.0 120.572113,22.791521,0.0</coordinates></LinearRing></outerBoundaryIs></Polygon><styleUrl>#spolygon-map</styleUrl></Placemark><Placemark><Polygon><outerBoundaryIs><LinearRing><coordinates>120.647685,22.879571,0.0 120.647431,22.881122,0.0 120.646497,22.883795,0.0 120.645028,22.885178,0.0 120.643531,22.884472,0.0 120.641767,22.883721,0.0 120.639747,22.882933,0.0 120.636626,22.882066,0.0 120.634857,22.880942,0.0 120.632889,22.880511,0.0 120.631028,22.880064,0.0 120.62888,22.879436,0.0 120.626437,22.878493,0.0 120.624373,22.877384,0.0 120.622143,22.876097,0.0 120.620408,22.875596,0.0 120.620063,22.870052,0.0 120.619637,22.866315,0.0 120.617177,22.862715,0.0 120.617406,22.857035,0.0 120.624252,22.855123,0.0 120.629609,22.851221,0.0 120.631864,22.847973,0.0 120.632446,22.84827,0.0 120.633168,22.848527,0.0 120.633749,22.848485,0.0 120.634237,22.84861,0.0 120.634602,22.848704,0.0 120.63507,22.84894,0.0 120.635401,22.849272,0.0 120.635853,22.849761,0.0 120.635963,22.850125,0.0 120.636612,22.850463,0.0 120.637012,22.850879,0.0 120.637491,22.85116,0.0 120.637978,22.851511,0.0 120.638476,22.851803,0.0 120.638793,22.852143,0.0 120.639202,22.852351,0.0 120.639625,22.852158,0.0 120.64007,22.852082,0.0 120.640053,22.852421,0.0 120.6399,22.853021,0.0 120.639923,22.853604,0.0 120.640033,22.853997,0.0 120.640365,22.854445,0.0 120.640554,22.854793,0.0 120.64045,22.85512,0.0 120.640544,22.855587,0.0 120.640218,22.855998,0.0 120.639953,22.856358,0.0 120.640001,22.85686,0.0 120.640062,22.857309,0.0 120.64018,22.857713,0.0 120.640472,22.858251,0.0 120.640682,22.858721,0.0 120.640876,22.859176,0.0 120.640897,22.859521,0.0 120.640977,22.859964,0.0 120.641321,22.860576,0.0 120.641648,22.861035,0.0 120.642201,22.861646,0.0 120.642654,22.862146,0.0 120.642992,22.862556,0.0 120.643163,22.863166,0.0 120.643113,22.863777,0.0 120.643109,22.864306,0.0 120.643346,22.86476,0.0 120.6436,22.865318,0.0 120.643762,22.865772,0.0 120.644135,22.866159,0.0 120.644307,22.866561,0.0 120.644431,22.867043,0.0 120.644677,22.86749,0.0 120.644993,22.867942,0.0 120.645189,22.868577,0.0 120.645376,22.869061,0.0 120.645756,22.86961,0.0 120.646243,22.87044,0.0 120.646793,22.871423,0.0 120.647339,22.872391,0.0 120.647808,22.873218,0.0 120.644909,22.874718,0.0 120.644688,22.876153,0.0 120.644447,22.876627,0.0 120.644504,22.877724,0.0 120.644991,22.878461,0.0 120.645497,22.879546,0.0 120.645849,22.879989,0.0 120.647203,22.879717,0.0 120.647685,22.879571,0.0</coordinates></LinearRing></outerBoundaryIs></Polygon><styleUrl>#spolygon-map</styleUrl></Placemark><Placemark><Polygon><outerBoundaryIs><LinearRing><coordinates>120.626184,22.817449,0.0 120.624606,22.818802,0.0 120.61727,22.822033,0.0 120.613098,22.824141,0.0 120.608507,22.819201,0.0 120.605748,22.815377,0.0 120.602934,22.814483,0.0 120.598583,22.812593,0.0 120.597241,22.808183,0.0 120.602945,22.799649,0.0 120.603916,22.798178,0.0 120.612697,22.800737,0.0 120.619642,22.808949,0.0 120.621637,22.815548,0.0 120.62384,22.817805,0.0 120.626184,22.817449,0.0</coordinates></LinearRing></outerBoundaryIs></Polygon><styleUrl>#spolygon-map</styleUrl></Placemark><Placemark><Polygon><outerBoundaryIs><LinearRing><coordinates>120.63814,22.770557,0.0 120.635039,22.77038,0.0 120.6313,22.770586,0.0 120.627421,22.771991,0.0 120.625743,22.772495,0.0 120.62279,22.773021,0.0 120.620367,22.773776,0.0 120.616952,22.774657,0.0 120.612391,22.773614,0.0 120.611955,22.77064,0.0 120.604708,22.768105,0.0 120.601035,22.766696,0.0 120.601365,22.765823,0.0 120.601756,22.764826,0.0 120.602151,22.763791,0.0 120.602539,22.762764,0.0 120.602798,22.762079,0.0 120.603111,22.761388,0.0 120.603592,22.760417,0.0 120.604035,22.759467,0.0 120.604459,22.758522,0.0 120.605093,22.758131,0.0 120.60585,22.757695,0.0 120.606498,22.757324,0.0 120.607427,22.756787,0.0 120.608332,22.756326,0.0 120.60907,22.756066,0.0 120.609768,22.755817,0.0 120.610947,22.755416,0.0 120.612149,22.755019,0.0 120.614093,22.755132,0.0 120.618903,22.754241,0.0 120.62215,22.75412,0.0 120.625563,22.755275,0.0 120.628627,22.754033,0.0 120.631769,22.757712,0.0 120.633524,22.758059,0.0 120.633671,22.758495,0.0 120.633758,22.758883,0.0 120.633985,22.759236,0.0 120.6344,22.759671,0.0 120.634621,22.760071,0.0 120.634732,22.760577,0.0 120.634962,22.761334,0.0 120.635279,22.761768,0.0 120.635813,22.762191,0.0 120.636292,22.762436,0.0 120.636714,22.76264,0.0 120.637349,22.763134,0.0 120.63776,22.763532,0.0 120.638142,22.763793,0.0 120.638678,22.764166,0.0 120.639211,22.764646,0.0 120.63956,22.765123,0.0 120.639925,22.765562,0.0 120.640372,22.765852,0.0 120.640864,22.765935,0.0 120.641391,22.766101,0.0 120.641324,22.766538,0.0 120.641337,22.767001,0.0 120.641734,22.7674,0.0 120.642088,22.76768,0.0 120.64262,22.768004,0.0 120.643216,22.768329,0.0 120.643628,22.768273,0.0 120.64434,22.767974,0.0 120.644933,22.767709,0.0 120.64547,22.767589,0.0 120.645909,22.76821,0.0 120.645646,22.76865,0.0 120.645312,22.769135,0.0 120.645246,22.76955,0.0 120.644989,22.769879,0.0 120.644557,22.770314,0.0 120.643964,22.770723,0.0 120.643443,22.770928,0.0 120.642922,22.770985,0.0 120.642416,22.771072,0.0 120.641917,22.771188,0.0 120.641478,22.771269,0.0 120.640988,22.771387,0.0 120.640533,22.771337,0.0 120.640255,22.771081,0.0 120.639731,22.770978,0.0 120.639247,22.770873,0.0 120.638639,22.770637,0.0 120.638242,22.770532,0.0 120.63814,22.770557,0.0</coordinates></LinearRing></outerBoundaryIs></Polygon><styleUrl>#spolygon-map</styleUrl></Placemark><Placemark><Polygon><outerBoundaryIs><LinearRing><coordinates>120.633437,22.757869,0.0 120.630309,22.755157,0.0 120.626586,22.754473,0.0 120.623509,22.754595,0.0 120.620929,22.753972,0.0 120.616427,22.755323,0.0 120.612504,22.75491,0.0 120.612863,22.754605,0.0 120.613337,22.754108,0.0 120.613897,22.753405,0.0 120.614434,22.752591,0.0 120.614839,22.751851,0.0 120.615085,22.751226,0.0 120.615303,22.750581,0.0 120.615675,22.749487,0.0 120.615905,22.748804,0.0 120.616109,22.748217,0.0 120.616166,22.747687,0.0 120.6162,22.747016,0.0 120.616244,22.746398,0.0 120.616292,22.745883,0.0 120.61635,22.745308,0.0 120.616398,22.744671,0.0 120.616471,22.743924,0.0 120.616543,22.743375,0.0 120.616584,22.742895,0.0 120.616621,22.742208,0.0 120.616626,22.74161,0.0 120.616542,22.741127,0.0 120.616465,22.740618,0.0 120.61642,22.740036,0.0 120.616439,22.739553,0.0 120.616601,22.739043,0.0 120.616861,22.738477,0.0 120.617247,22.738058,0.0 120.617713,22.737583,0.0 120.618075,22.737272,0.0 120.618489,22.736824,0.0 120.61888,22.736427,0.0 120.619282,22.736182,0.0 120.619824,22.735917,0.0 120.620363,22.735695,0.0 120.620953,22.735477,0.0 120.621451,22.735252,0.0 120.622073,22.734915,0.0 120.622632,22.734614,0.0 120.623084,22.73427,0.0 120.623649,22.733935,0.0 120.624107,22.73366,0.0 120.624491,22.733282,0.0 120.624812,22.73289,0.0 120.625175,22.732358,0.0 120.625483,22.731923,0.0 120.625789,22.731492,0.0 120.626163,22.731075,0.0 120.626508,22.730765,0.0 120.626892,22.730393,0.0 120.627182,22.729956,0.0 120.627467,22.72953,0.0 120.627759,22.729135,0.0 120.627983,22.728738,0.0 120.628188,22.728224,0.0 120.628448,22.72773,0.0 120.628672,22.727356,0.0 120.628847,22.726979,0.0 120.629076,22.726477,0.0 120.629326,22.725978,0.0 120.629558,22.725541,0.0 120.629772,22.725146,0.0 120.630094,22.724605,0.0 120.630468,22.724073,0.0 120.630689,22.723584,0.0 120.630881,22.723121,0.0 120.632618,22.721511,0.0 120.634079,22.72048,0.0 120.635354,22.720023,0.0 120.636154,22.721591,0.0 120.636524,22.722109,0.0 120.636653,22.723362,0.0 120.637156,22.723601,0.0 120.637713,22.723945,0.0 120.638048,22.724422,0.0 120.638226,22.724964,0.0 120.638295,22.725455,0.0 120.638481,22.72585,0.0 120.638735,22.72637,0.0 120.638594,22.72681,0.0 120.638574,22.727343,0.0 120.638618,22.727776,0.0 120.638668,22.728427,0.0 120.638688,22.72891,0.0 120.638753,22.729413,0.0 120.638846,22.730019,0.0 120.638915,22.730441,0.0 120.639058,22.731037,0.0 120.639199,22.731638,0.0 120.639398,22.732165,0.0 120.639054,22.732476,0.0 120.63879,22.732933,0.0 120.638914,22.733622,0.0 120.639103,22.734277,0.0 120.639271,22.734921,0.0 120.639374,22.735461,0.0 120.639143,22.735698,0.0 120.638709,22.735907,0.0 120.638075,22.73619,0.0 120.637833,22.736611,0.0 120.637521,22.736863,0.0 120.637455,22.737204,0.0 120.637505,22.737586,0.0 120.637136,22.738077,0.0 120.636693,22.738257,0.0 120.636146,22.738174,0.0 120.635872,22.738528,0.0 120.635896,22.738925,0.0 120.635633,22.739494,0.0 120.635294,22.739825,0.0 120.634877,22.740217,0.0 120.634556,22.740672,0.0 120.634342,22.741304,0.0 120.634295,22.741857,0.0 120.634238,22.742261,0.0 120.634253,22.742857,0.0 120.634109,22.743329,0.0 120.634019,22.74373,0.0 120.634238,22.744209,0.0 120.634256,22.744598,0.0 120.633914,22.745064,0.0 120.633511,22.745526,0.0 120.633054,22.745846,0.0 120.63275,22.746159,0.0 120.632573,22.746651,0.0 120.632045,22.746934,0.0 120.631932,22.747403,0.0 120.631964,22.747798,0.0 120.631898,22.748313,0.0 120.632224,22.748646,0.0 120.632275,22.749054,0.0 120.631834,22.749539,0.0 120.631488,22.749856,0.0 120.631325,22.75031,0.0 120.631274,22.750745,0.0 120.631307,22.751186,0.0 120.631406,22.751577,0.0 120.631567,22.752031,0.0 120.631769,22.752508,0.0 120.632134,22.753163,0.0 120.63233,22.753545,0.0 120.632459,22.754033,0.0 120.632851,22.754596,0.0 120.63321,22.755103,0.0 120.633355,22.7555,0.0 120.633394,22.755968,0.0 120.633383,22.756503,0.0 120.633363,22.757128,0.0 120.633355,22.757596,0.0 120.633437,22.757869,0.0</coordinates></LinearRing></outerBoundaryIs></Polygon><styleUrl>#spolygon-map</styleUrl></Placemark><Placemark><Polygon><outerBoundaryIs><LinearRing><coordinates>120.596799,22.808617,0.0 120.592954,22.807867,0.0 120.5907,22.806425,0.0 120.590235,22.805341,0.0 120.589361,22.802067,0.0 120.585303,22.799361,0.0 120.578161,22.794876,0.0 120.572113,22.791521,0.0 120.588237,22.787606,0.0 120.596049,22.784925,0.0 120.598442,22.784941,0.0 120.599434,22.789603,0.0 120.603159,22.79741,0.0 120.603379,22.799427,0.0 120.59785,22.806943,0.0 120.596799,22.808617,0.0</coordinates></LinearRing></outerBoundaryIs></Polygon><styleUrl>#spolygon-map</styleUrl></Placemark><Placemark><Polygon><outerBoundaryIs><LinearRing><coordinates>120.62033,22.875618,0.0 120.61793,22.876522,0.0 120.615086,22.876746,0.0 120.612931,22.876077,0.0 120.61043,22.875102,0.0 120.608426,22.874291,0.0 120.606819,22.873628,0.0 120.605124,22.872768,0.0 120.602795,22.871027,0.0 120.601816,22.869936,0.0 120.606142,22.860861,0.0 120.609337,22.854432,0.0 120.610167,22.851439,0.0 120.611148,22.849897,0.0 120.610002,22.848542,0.0 120.610171,22.846433,0.0 120.612309,22.845994,0.0 120.613453,22.845055,0.0 120.616866,22.841853,0.0 120.620788,22.839952,0.0 120.62289,22.838734,0.0 120.624747,22.836081,0.0 120.625673,22.836202,0.0 120.626499,22.836778,0.0 120.630687,22.838747,0.0 120.631019,22.839042,0.0 120.630942,22.839362,0.0 120.631067,22.840103,0.0 120.63113,22.840552,0.0 120.631249,22.841144,0.0 120.631471,22.841535,0.0 120.631753,22.841953,0.0 120.632306,22.841851,0.0 120.63254,22.842267,0.0 120.632498,22.842718,0.0 120.632145,22.843052,0.0 120.631719,22.843351,0.0 120.631229,22.843397,0.0 120.630571,22.843317,0.0 120.630125,22.843618,0.0 120.629666,22.844143,0.0 120.629225,22.844625,0.0 120.628846,22.845051,0.0 120.628392,22.84575,0.0 120.62808,22.846282,0.0 120.628014,22.846713,0.0 120.628482,22.846863,0.0 120.628898,22.846932,0.0 120.629304,22.847032,0.0 120.629771,22.847164,0.0 120.630448,22.847358,0.0 120.631103,22.847637,0.0 120.631642,22.847873,0.0 120.6301,22.850653,0.0 120.625857,22.854206,0.0 120.617905,22.856327,0.0 120.616746,22.860679,0.0 120.61947,22.865969,0.0 120.620143,22.868973,0.0 120.620293,22.875197,0.0 120.62033,22.875618,0.0</coordinates></LinearRing></outerBoundaryIs></Polygon><styleUrl>#spolygon-map</styleUrl></Placemark><Placemark><Polygon><outerBoundaryIs><LinearRing><coordinates>120.578763,22.816172,0.0 120.563117,22.824547,0.0 120.563041,22.824005,0.0 120.56269,22.823388,0.0 120.562685,22.822771,0.0 120.562645,22.822295,0.0 120.562478,22.821789,0.0 120.562321,22.821278,0.0 120.562201,22.820853,0.0 120.561944,22.820383,0.0 120.561572,22.820005,0.0 120.561093,22.819615,0.0 120.560548,22.819173,0.0 120.559892,22.818718,0.0 120.559413,22.818409,0.0 120.558968,22.818022,0.0 120.558644,22.817676,0.0 120.558321,22.817302,0.0 120.558059,22.816949,0.0 120.557712,22.816641,0.0 120.557501,22.816194,0.0 120.557381,22.815769,0.0 120.557216,22.815211,0.0 120.557069,22.814662,0.0 120.55688,22.813982,0.0 120.556554,22.813319,0.0 120.556205,22.812716,0.0 120.555899,22.812211,0.0 120.555536,22.811784,0.0 120.555251,22.811336,0.0 120.555131,22.810855,0.0 120.555114,22.810306,0.0 120.55511,22.809579,0.0 120.555126,22.809087,0.0 120.55516,22.808482,0.0 120.555227,22.807965,0.0 120.555367,22.807482,0.0 120.555446,22.806968,0.0 120.554695,22.806309,0.0 120.553903,22.805616,0.0 120.553087,22.804902,0.0 120.553588,22.8038,0.0 120.559364,22.798424,0.0 120.56483,22.794624,0.0 120.575187,22.793708,0.0 120.571117,22.800653,0.0 120.575014,22.804779,0.0 120.578645,22.806342,0.0 120.584466,22.807577,0.0 120.587407,22.811307,0.0 120.584538,22.812458,0.0 120.578763,22.816172,0.0</coordinates></LinearRing></outerBoundaryIs></Polygon><styleUrl>#spolygon-map</styleUrl></Placemark></Document>
</kml>
