<?xml version="1.0" encoding="UTF-8"?>
<kml xmlns="http://www.opengis.net/kml/2.2">
	<Document>
		<name>彰化縣溪州鄉</name>
		<Style id="spolygon">
			<LabelStyle>
				<scale>0.0</scale>
			</LabelStyle>
			<LineStyle>
				<color>330030ff</color>
				<width>0</width>
			</LineStyle>
			<PolyStyle>
				<color>330030ff</color>
			</PolyStyle>
		</Style>
		<StyleMap id="spolygon-map">
			<Pair>
				<key>normal</key>
				<styleUrl>#spolygon</styleUrl>
			</Pair>
		</StyleMap>
	<Placemark><Polygon><outerBoundaryIs><LinearRing><coordinates>120.528249,23.820602,0.0 120.514398,23.818008,0.0 120.51253,23.818604,0.0 120.511956,23.814411,0.0 120.512114,23.804896,0.0 120.513139,23.799996,0.0 120.517685,23.799799,0.0 120.52112,23.799784,0.0 120.523801,23.799473,0.0 120.527681,23.799068,0.0 120.528063,23.801412,0.0 120.528768,23.810143,0.0 120.528427,23.816217,0.0 120.528249,23.820602,0.0</coordinates></LinearRing></outerBoundaryIs></Polygon><styleUrl>#spolygon-map</styleUrl></Placemark><Placemark><Polygon><outerBoundaryIs><LinearRing><coordinates>120.501292,23.823992,0.0 120.495724,23.826493,0.0 120.495027,23.828603,0.0 120.493923,23.828158,0.0 120.492776,23.827792,0.0 120.489651,23.82709,0.0 120.489374,23.825345,0.0 120.486904,23.825312,0.0 120.485578,23.82544,0.0 120.479029,23.825577,0.0 120.477508,23.824788,0.0 120.47338,23.822087,0.0 120.46832,23.820675,0.0 120.465445,23.817418,0.0 120.46497,23.813189,0.0 120.475247,23.809037,0.0 120.483496,23.806516,0.0 120.490707,23.805041,0.0 120.497782,23.803745,0.0 120.500534,23.804026,0.0 120.505093,23.80904,0.0 120.508654,23.814959,0.0 120.508655,23.817854,0.0 120.500995,23.823464,0.0 120.501292,23.823992,0.0</coordinates></LinearRing></outerBoundaryIs></Polygon><styleUrl>#spolygon-map</styleUrl></Placemark><Placemark><Polygon><outerBoundaryIs><LinearRing><coordinates>120.514379,23.821196,0.0 120.516743,23.825407,0.0 120.509036,23.829244,0.0 120.504772,23.82613,0.0 120.50179,23.825212,0.0 120.500272,23.822437,0.0 120.508778,23.817375,0.0 120.508524,23.814146,0.0 120.504322,23.807868,0.0 120.501158,23.802557,0.0 120.508111,23.800602,0.0 120.512146,23.800042,0.0 120.511991,23.809338,0.0 120.512112,23.815649,0.0 120.512787,23.818762,0.0 120.514334,23.820787,0.0 120.514379,23.821196,0.0</coordinates></LinearRing></outerBoundaryIs></Polygon><styleUrl>#spolygon-map</styleUrl></Placemark><Placemark><Polygon><outerBoundaryIs><LinearRing><coordinates>120.541988,23.828588,0.0 120.539129,23.830954,0.0 120.537786,23.830559,0.0 120.538158,23.828855,0.0 120.536892,23.827077,0.0 120.533014,23.825075,0.0 120.531624,23.823281,0.0 120.528366,23.818176,0.0 120.528564,23.814122,0.0 120.528436,23.805495,0.0 120.527876,23.799063,0.0 120.528734,23.799112,0.0 120.529179,23.799226,0.0 120.529927,23.799541,0.0 120.530642,23.799809,0.0 120.533986,23.800982,0.0 120.535018,23.801252,0.0 120.535846,23.801311,0.0 120.537537,23.804248,0.0 120.539148,23.810861,0.0 120.539203,23.81259,0.0 120.539173,23.81663,0.0 120.53831,23.818531,0.0 120.538387,23.819691,0.0 120.538327,23.820574,0.0 120.53867,23.822255,0.0 120.541712,23.824092,0.0 120.541927,23.826107,0.0 120.542107,23.827688,0.0 120.541988,23.828588,0.0</coordinates></LinearRing></outerBoundaryIs></Polygon><styleUrl>#spolygon-map</styleUrl></Placemark><Placemark><Polygon><outerBoundaryIs><LinearRing><coordinates>120.489556,23.833377,0.0 120.478635,23.834152,0.0 120.474276,23.82918,0.0 120.47686,23.824104,0.0 120.479008,23.825026,0.0 120.48288,23.825542,0.0 120.486494,23.82511,0.0 120.489278,23.825296,0.0 120.48954,23.826995,0.0 120.492557,23.827147,0.0 120.493864,23.827985,0.0 120.494958,23.828886,0.0 120.492131,23.830488,0.0 120.489556,23.833377,0.0</coordinates></LinearRing></outerBoundaryIs></Polygon><styleUrl>#spolygon-map</styleUrl></Placemark><Placemark><Polygon><outerBoundaryIs><LinearRing><coordinates>120.507257,23.830763,0.0 120.497815,23.834023,0.0 120.493779,23.83369,0.0 120.489556,23.833377,0.0 120.494519,23.829538,0.0 120.495063,23.827815,0.0 120.496374,23.826451,0.0 120.501714,23.824855,0.0 120.504481,23.82604,0.0 120.508049,23.8293,0.0 120.507257,23.830763,0.0</coordinates></LinearRing></outerBoundaryIs></Polygon><styleUrl>#spolygon-map</styleUrl></Placemark><Placemark><Polygon><outerBoundaryIs><LinearRing><coordinates>120.574477,23.833069,0.0 120.573259,23.834394,0.0 120.572304,23.833435,0.0 120.571847,23.828331,0.0 120.570076,23.816185,0.0 120.569988,23.814769,0.0 120.573416,23.813616,0.0 120.57696,23.813664,0.0 120.581176,23.812548,0.0 120.583574,23.809992,0.0 120.585603,23.807064,0.0 120.586385,23.807565,0.0 120.58705,23.808161,0.0 120.587545,23.808871,0.0 120.587677,23.809299,0.0 120.588222,23.810292,0.0 120.588672,23.810483,0.0 120.589039,23.810595,0.0 120.58945,23.810775,0.0 120.589657,23.811254,0.0 120.589894,23.811787,0.0 120.590029,23.81184,0.0 120.590321,23.811853,0.0 120.591069,23.811845,0.0 120.591712,23.811644,0.0 120.592149,23.811571,0.0 120.592181,23.811744,0.0 120.592296,23.811943,0.0 120.592399,23.812172,0.0 120.592152,23.812312,0.0 120.592369,23.812392,0.0 120.592683,23.812417,0.0 120.594333,23.812424,0.0 120.594785,23.812527,0.0 120.595138,23.812728,0.0 120.595427,23.81293,0.0 120.59555,23.81302,0.0 120.595392,23.813136,0.0 120.595378,23.813297,0.0 120.595543,23.813502,0.0 120.595642,23.813753,0.0 120.596058,23.813844,0.0 120.596594,23.813823,0.0 120.597323,23.81422,0.0 120.597987,23.814604,0.0 120.598533,23.81502,0.0 120.599079,23.815604,0.0 120.599322,23.816079,0.0 120.599565,23.816623,0.0 120.600091,23.817148,0.0 120.600658,23.817872,0.0 120.601054,23.818401,0.0 120.601677,23.819069,0.0 120.602266,23.819474,0.0 120.602791,23.819902,0.0 120.60194,23.820507,0.0 120.601251,23.820496,0.0 120.600236,23.820299,0.0 120.597929,23.819715,0.0 120.596374,23.819326,0.0 120.595752,23.819307,0.0 120.593796,23.819599,0.0 120.592976,23.819864,0.0 120.591706,23.820192,0.0 120.59008,23.821402,0.0 120.588259,23.822837,0.0 120.587227,23.823752,0.0 120.586451,23.824586,0.0 120.585305,23.825798,0.0 120.584107,23.82705,0.0 120.582924,23.827904,0.0 120.580703,23.826146,0.0 120.579026,23.828028,0.0 120.57722,23.830029,0.0 120.575648,23.831785,0.0 120.574477,23.833069,0.0</coordinates></LinearRing></outerBoundaryIs></Polygon><styleUrl>#spolygon-map</styleUrl></Placemark><Placemark><Polygon><outerBoundaryIs><LinearRing><coordinates>120.572225,23.833026,0.0 120.571263,23.834065,0.0 120.568676,23.836901,0.0 120.562654,23.835214,0.0 120.555526,23.82858,0.0 120.556002,23.826263,0.0 120.555704,23.823469,0.0 120.553558,23.821175,0.0 120.553252,23.818905,0.0 120.555865,23.817961,0.0 120.55535,23.816179,0.0 120.555817,23.809374,0.0 120.554588,23.804414,0.0 120.551658,23.801064,0.0 120.552674,23.800811,0.0 120.553917,23.800491,0.0 120.55532,23.800183,0.0 120.556184,23.799896,0.0 120.557254,23.799606,0.0 120.558168,23.799437,0.0 120.558809,23.79903,0.0 120.559765,23.798442,0.0 120.56619,23.79735,0.0 120.572871,23.79641,0.0 120.57392,23.79624,0.0 120.576334,23.795642,0.0 120.580085,23.794616,0.0 120.58314,23.793541,0.0 120.583638,23.794097,0.0 120.583622,23.795482,0.0 120.583605,23.796296,0.0 120.58364,23.797682,0.0 120.583431,23.798943,0.0 120.583162,23.799801,0.0 120.58274,23.80036,0.0 120.582307,23.80131,0.0 120.58192,23.802339,0.0 120.581844,23.802923,0.0 120.58205,23.803405,0.0 120.582412,23.803872,0.0 120.583033,23.80511,0.0 120.583814,23.805688,0.0 120.584614,23.806362,0.0 120.585179,23.807375,0.0 120.583143,23.810561,0.0 120.580824,23.812772,0.0 120.576682,23.813694,0.0 120.573177,23.813817,0.0 120.569912,23.81483,0.0 120.570315,23.817637,0.0 120.572049,23.831639,0.0 120.572225,23.833026,0.0</coordinates></LinearRing></outerBoundaryIs></Polygon><styleUrl>#spolygon-map</styleUrl></Placemark><Placemark><Polygon><outerBoundaryIs><LinearRing><coordinates>120.474109,23.834259,0.0 120.472298,23.839414,0.0 120.470344,23.83992,0.0 120.469907,23.8375,0.0 120.46917,23.835692,0.0 120.468805,23.834089,0.0 120.469221,23.833311,0.0 120.469439,23.832492,0.0 120.468871,23.832282,0.0 120.468626,23.832167,0.0 120.468605,23.831854,0.0 120.468019,23.831029,0.0 120.467512,23.830385,0.0 120.467449,23.829463,0.0 120.467699,23.828996,0.0 120.46691,23.828238,0.0 120.466511,23.827416,0.0 120.465845,23.826773,0.0 120.46453,23.82564,0.0 120.463444,23.826935,0.0 120.462381,23.829223,0.0 120.460582,23.832679,0.0 120.459742,23.833516,0.0 120.459389,23.83421,0.0 120.458823,23.835112,0.0 120.457958,23.834113,0.0 120.457129,23.833169,0.0 120.455715,23.831927,0.0 120.45478,23.830921,0.0 120.455082,23.826565,0.0 120.4552,23.824763,0.0 120.4553,23.821425,0.0 120.455873,23.816577,0.0 120.457428,23.816141,0.0 120.459619,23.81549,0.0 120.465445,23.817418,0.0 120.46832,23.820675,0.0 120.47338,23.822087,0.0 120.475219,23.825434,0.0 120.474439,23.830954,0.0 120.474109,23.834259,0.0</coordinates></LinearRing></outerBoundaryIs></Polygon><styleUrl>#spolygon-map</styleUrl></Placemark><Placemark><Polygon><outerBoundaryIs><LinearRing><coordinates>120.567033,23.838691,0.0 120.562756,23.843271,0.0 120.561148,23.842008,0.0 120.559808,23.840598,0.0 120.554742,23.836686,0.0 120.552658,23.836426,0.0 120.550146,23.836924,0.0 120.548097,23.836722,0.0 120.544756,23.834249,0.0 120.544383,23.833131,0.0 120.543448,23.831697,0.0 120.542377,23.828848,0.0 120.542107,23.827688,0.0 120.541927,23.826107,0.0 120.541712,23.824092,0.0 120.53867,23.822255,0.0 120.538327,23.820574,0.0 120.538387,23.819691,0.0 120.53831,23.818531,0.0 120.539173,23.81663,0.0 120.539203,23.81259,0.0 120.539148,23.810861,0.0 120.537537,23.804248,0.0 120.537411,23.801289,0.0 120.54059,23.801018,0.0 120.545907,23.801482,0.0 120.549515,23.801119,0.0 120.550939,23.801156,0.0 120.555744,23.806932,0.0 120.555853,23.814774,0.0 120.555302,23.816577,0.0 120.554224,23.818508,0.0 120.553243,23.819634,0.0 120.554295,23.822301,0.0 120.55588,23.825029,0.0 120.556099,23.827554,0.0 120.55498,23.829314,0.0 120.567033,23.838691,0.0</coordinates></LinearRing></outerBoundaryIs></Polygon><styleUrl>#spolygon-map</styleUrl></Placemark><Placemark><Polygon><outerBoundaryIs><LinearRing><coordinates>120.53853,23.852148,0.0 120.538042,23.852204,0.0 120.537123,23.852305,0.0 120.536252,23.852406,0.0 120.535566,23.852435,0.0 120.534792,23.852468,0.0 120.53392,23.852491,0.0 120.533294,23.852521,0.0 120.532492,23.852525,0.0 120.531806,23.852534,0.0 120.531107,23.852481,0.0 120.531546,23.851186,0.0 120.532903,23.847709,0.0 120.533751,23.845915,0.0 120.534309,23.844486,0.0 120.534697,23.843488,0.0 120.535275,23.841997,0.0 120.535447,23.841483,0.0 120.53552,23.8401,0.0 120.535317,23.838087,0.0 120.533087,23.836313,0.0 120.530663,23.838002,0.0 120.529253,23.834975,0.0 120.530133,23.83149,0.0 120.528729,23.830288,0.0 120.529031,23.828983,0.0 120.529256,23.826776,0.0 120.528117,23.823585,0.0 120.532787,23.824655,0.0 120.536323,23.826668,0.0 120.538247,23.828485,0.0 120.537553,23.830225,0.0 120.53825,23.831659,0.0 120.541918,23.828621,0.0 120.542614,23.829546,0.0 120.543779,23.832388,0.0 120.544523,23.833507,0.0 120.545426,23.834648,0.0 120.548596,23.837045,0.0 120.550887,23.836732,0.0 120.553785,23.836199,0.0 120.556327,23.83782,0.0 120.55984,23.840963,0.0 120.558008,23.842004,0.0 120.557443,23.842469,0.0 120.557196,23.842927,0.0 120.556857,23.843475,0.0 120.556487,23.843777,0.0 120.556057,23.843976,0.0 120.555667,23.844187,0.0 120.555518,23.844072,0.0 120.555328,23.843885,0.0 120.555072,23.843959,0.0 120.554473,23.844363,0.0 120.554208,23.844548,0.0 120.553836,23.844821,0.0 120.553541,23.844982,0.0 120.553301,23.845053,0.0 120.552747,23.845023,0.0 120.552439,23.845007,0.0 120.552242,23.845213,0.0 120.551866,23.844784,0.0 120.551612,23.844945,0.0 120.55115,23.845282,0.0 120.550661,23.845478,0.0 120.550266,23.845664,0.0 120.549799,23.845848,0.0 120.549371,23.846045,0.0 120.54892,23.846151,0.0 120.548582,23.846102,0.0 120.548095,23.84605,0.0 120.547739,23.846279,0.0 120.547274,23.846764,0.0 120.546403,23.847157,0.0 120.545348,23.847609,0.0 120.544177,23.84815,0.0 120.543475,23.848582,0.0 120.543045,23.8492,0.0 120.542695,23.849792,0.0 120.542316,23.850557,0.0 120.542108,23.850916,0.0 120.5413,23.85121,0.0 120.5407,23.851419,0.0 120.540112,23.851615,0.0 120.538849,23.852067,0.0 120.53853,23.852148,0.0</coordinates></LinearRing></outerBoundaryIs></Polygon><styleUrl>#spolygon-map</styleUrl></Placemark><Placemark><Polygon><outerBoundaryIs><LinearRing><coordinates>120.495307,23.852806,0.0 120.488514,23.853827,0.0 120.489913,23.848995,0.0 120.490249,23.845599,0.0 120.495149,23.845152,0.0 120.494932,23.840335,0.0 120.493991,23.835048,0.0 120.499052,23.833579,0.0 120.507973,23.831901,0.0 120.509084,23.83535,0.0 120.510453,23.837274,0.0 120.505285,23.841443,0.0 120.504119,23.842021,0.0 120.502814,23.843182,0.0 120.502956,23.845088,0.0 120.502216,23.846339,0.0 120.497385,23.85171,0.0 120.495307,23.852806,0.0</coordinates></LinearRing></outerBoundaryIs></Polygon><styleUrl>#spolygon-map</styleUrl></Placemark><Placemark><Polygon><outerBoundaryIs><LinearRing><coordinates>120.488038,23.85419,0.0 120.487077,23.853631,0.0 120.485654,23.852916,0.0 120.484244,23.852052,0.0 120.48296,23.851011,0.0 120.480287,23.847825,0.0 120.475209,23.847289,0.0 120.473916,23.846153,0.0 120.473251,23.845172,0.0 120.471663,23.843029,0.0 120.470949,23.841441,0.0 120.471638,23.839971,0.0 120.473992,23.834866,0.0 120.48917,23.83378,0.0 120.492414,23.833526,0.0 120.493991,23.835048,0.0 120.494932,23.840335,0.0 120.495149,23.845152,0.0 120.490249,23.845599,0.0 120.489913,23.848995,0.0 120.488514,23.853827,0.0 120.488038,23.85419,0.0</coordinates></LinearRing></outerBoundaryIs></Polygon><styleUrl>#spolygon-map</styleUrl></Placemark><Placemark><Polygon><outerBoundaryIs><LinearRing><coordinates>120.535306,23.84154,0.0 120.533539,23.842481,0.0 120.53238,23.843031,0.0 120.531885,23.843539,0.0 120.531542,23.84409,0.0 120.531094,23.84466,0.0 120.530998,23.845001,0.0 120.5306,23.8455,0.0 120.530018,23.84599,0.0 120.529312,23.846495,0.0 120.528852,23.846804,0.0 120.528589,23.847439,0.0 120.527959,23.848245,0.0 120.527545,23.84878,0.0 120.527083,23.849551,0.0 120.526424,23.850203,0.0 120.525437,23.851187,0.0 120.524482,23.852163,0.0 120.523357,23.853384,0.0 120.522871,23.853792,0.0 120.521828,23.854456,0.0 120.522355,23.855746,0.0 120.52279,23.856824,0.0 120.519526,23.855386,0.0 120.517061,23.853227,0.0 120.517543,23.851579,0.0 120.51875,23.849291,0.0 120.51907,23.846749,0.0 120.518461,23.844264,0.0 120.517336,23.842832,0.0 120.514907,23.842277,0.0 120.512582,23.843171,0.0 120.511576,23.842515,0.0 120.512268,23.840806,0.0 120.511485,23.837981,0.0 120.509725,23.836264,0.0 120.508825,23.833339,0.0 120.507726,23.829673,0.0 120.511099,23.828607,0.0 120.516499,23.824667,0.0 120.528146,23.822749,0.0 120.529327,23.825793,0.0 120.52898,23.828224,0.0 120.528568,23.829765,0.0 120.530161,23.830915,0.0 120.52915,23.833419,0.0 120.53021,23.837074,0.0 120.532085,23.837071,0.0 120.534285,23.836579,0.0 120.535304,23.839586,0.0 120.535306,23.84154,0.0</coordinates></LinearRing></outerBoundaryIs></Polygon><styleUrl>#spolygon-map</styleUrl></Placemark><Placemark><Polygon><outerBoundaryIs><LinearRing><coordinates>120.512192,23.843698,0.0 120.509048,23.847692,0.0 120.508413,23.848212,0.0 120.5064,23.84952,0.0 120.50537,23.851119,0.0 120.505134,23.852326,0.0 120.504649,23.854483,0.0 120.504293,23.857141,0.0 120.502193,23.856393,0.0 120.502269,23.852394,0.0 120.502179,23.848788,0.0 120.502443,23.84554,0.0 120.503218,23.844319,0.0 120.503445,23.842256,0.0 120.504706,23.841604,0.0 120.509092,23.838411,0.0 120.511397,23.837789,0.0 120.512323,23.840636,0.0 120.511577,23.84229,0.0 120.512192,23.843698,0.0</coordinates></LinearRing></outerBoundaryIs></Polygon><styleUrl>#spolygon-map</styleUrl></Placemark><Placemark><Polygon><outerBoundaryIs><LinearRing><coordinates>120.482417,23.85032,0.0 120.480628,23.852607,0.0 120.480714,23.854412,0.0 120.480664,23.856106,0.0 120.481275,23.856909,0.0 120.482093,23.858421,0.0 120.48128,23.858516,0.0 120.480581,23.858314,0.0 120.479203,23.857966,0.0 120.477477,23.857732,0.0 120.475395,23.857633,0.0 120.475316,23.857263,0.0 120.475122,23.85621,0.0 120.47542,23.854533,0.0 120.475254,23.852716,0.0 120.4754,23.850072,0.0 120.475595,23.847769,0.0 120.480287,23.847825,0.0 120.482417,23.85032,0.0</coordinates></LinearRing></outerBoundaryIs></Polygon><styleUrl>#spolygon-map</styleUrl></Placemark><Placemark><Polygon><outerBoundaryIs><LinearRing><coordinates>120.510637,23.865793,0.0 120.509225,23.865876,0.0 120.504499,23.862291,0.0 120.503235,23.860517,0.0 120.50387,23.858156,0.0 120.504589,23.855971,0.0 120.504733,23.852861,0.0 120.505423,23.8518,0.0 120.505483,23.850667,0.0 120.507071,23.848573,0.0 120.508832,23.848145,0.0 120.510654,23.846441,0.0 120.513316,23.842742,0.0 120.515643,23.842783,0.0 120.517942,23.843274,0.0 120.518566,23.845179,0.0 120.51927,23.847324,0.0 120.5186,23.85,0.0 120.516677,23.852764,0.0 120.517589,23.853584,0.0 120.523027,23.857417,0.0 120.523295,23.858164,0.0 120.522661,23.858774,0.0 120.52225,23.85939,0.0 120.521353,23.860758,0.0 120.520464,23.862042,0.0 120.519834,23.862743,0.0 120.518793,23.863905,0.0 120.518507,23.864207,0.0 120.517991,23.864325,0.0 120.516725,23.864535,0.0 120.516251,23.864562,0.0 120.515682,23.864276,0.0 120.515157,23.863994,0.0 120.51467,23.863915,0.0 120.513834,23.863866,0.0 120.513019,23.863783,0.0 120.512429,23.863779,0.0 120.511872,23.864156,0.0 120.511335,23.864733,0.0 120.511109,23.865318,0.0 120.510637,23.865793,0.0</coordinates></LinearRing></outerBoundaryIs></Polygon><styleUrl>#spolygon-map</styleUrl></Placemark><Placemark><Polygon><outerBoundaryIs><LinearRing><coordinates>120.486737,23.867706,0.0 120.485976,23.867646,0.0 120.485924,23.8662,0.0 120.485574,23.863606,0.0 120.485718,23.862385,0.0 120.486017,23.86091,0.0 120.485728,23.859835,0.0 120.485914,23.858862,0.0 120.486491,23.857851,0.0 120.486228,23.856337,0.0 120.487519,23.855427,0.0 120.488038,23.854207,0.0 120.49007,23.85357,0.0 120.495724,23.856864,0.0 120.496843,23.862992,0.0 120.498316,23.867263,0.0 120.497207,23.867163,0.0 120.495822,23.866876,0.0 120.494172,23.866367,0.0 120.492825,23.86642,0.0 120.491148,23.866578,0.0 120.488535,23.867267,0.0 120.486737,23.867706,0.0</coordinates></LinearRing></outerBoundaryIs></Polygon><styleUrl>#spolygon-map</styleUrl></Placemark><Placemark><Polygon><outerBoundaryIs><LinearRing><coordinates>120.510556,23.870671,0.0 120.509315,23.870725,0.0 120.508396,23.870769,0.0 120.507884,23.870855,0.0 120.50729,23.870192,0.0 120.505588,23.869414,0.0 120.504998,23.868839,0.0 120.503579,23.868827,0.0 120.502511,23.8681,0.0 120.500941,23.86744,0.0 120.498782,23.867274,0.0 120.496929,23.863139,0.0 120.495832,23.858714,0.0 120.496659,23.852545,0.0 120.502276,23.850497,0.0 120.502231,23.85404,0.0 120.502445,23.856704,0.0 120.503188,23.860215,0.0 120.504101,23.861912,0.0 120.509023,23.865832,0.0 120.510265,23.865457,0.0 120.510501,23.865984,0.0 120.511618,23.867196,0.0 120.512874,23.868607,0.0 120.513988,23.869854,0.0 120.513872,23.870167,0.0 120.512766,23.870545,0.0 120.510883,23.870659,0.0 120.510556,23.870671,0.0</coordinates></LinearRing></outerBoundaryIs></Polygon><styleUrl>#spolygon-map</styleUrl></Placemark></Document>
</kml>
