<?xml version="1.0" encoding="UTF-8"?>
<kml xmlns="http://www.opengis.net/kml/2.2">
	<Document>
		<name>彰化縣和美鎮</name>
		<Style id="spolygon">
			<LabelStyle>
				<scale>0.0</scale>
			</LabelStyle>
			<LineStyle>
				<color>330030ff</color>
				<width>0</width>
			</LineStyle>
			<PolyStyle>
				<color>330030ff</color>
			</PolyStyle>
		</Style>
		<StyleMap id="spolygon-map">
			<Pair>
				<key>normal</key>
				<styleUrl>#spolygon</styleUrl>
			</Pair>
		</StyleMap>
	<Placemark><Polygon><outerBoundaryIs><LinearRing><coordinates>120.515482,24.083005,0.0 120.512727,24.084549,0.0 120.511618,24.085463,0.0 120.506402,24.085442,0.0 120.504821,24.088099,0.0 120.504346,24.089066,0.0 120.502235,24.089497,0.0 120.501728,24.089469,0.0 120.501128,24.089287,0.0 120.503129,24.08846,0.0 120.503072,24.08635,0.0 120.499355,24.083696,0.0 120.498482,24.080968,0.0 120.49728,24.077848,0.0 120.497945,24.077787,0.0 120.498791,24.077405,0.0 120.499495,24.076553,0.0 120.499974,24.076555,0.0 120.500338,24.077384,0.0 120.500814,24.078309,0.0 120.501632,24.07849,0.0 120.502531,24.078801,0.0 120.50366,24.078651,0.0 120.504935,24.078317,0.0 120.506247,24.07863,0.0 120.506758,24.07829,0.0 120.507541,24.077974,0.0 120.508525,24.077724,0.0 120.509534,24.080214,0.0 120.511025,24.081412,0.0 120.51306,24.081314,0.0 120.514217,24.08105,0.0 120.516039,24.080491,0.0 120.516951,24.080016,0.0 120.517437,24.079872,0.0 120.516607,24.081324,0.0 120.515676,24.082784,0.0 120.515482,24.083005,0.0</coordinates></LinearRing></outerBoundaryIs></Polygon><styleUrl>#spolygon-map</styleUrl></Placemark><Placemark><Polygon><outerBoundaryIs><LinearRing><coordinates>120.501049,24.08966,0.0 120.500098,24.090058,0.0 120.497469,24.090224,0.0 120.497908,24.092129,0.0 120.498973,24.094517,0.0 120.497097,24.094389,0.0 120.494824,24.094413,0.0 120.492319,24.093917,0.0 120.490878,24.093087,0.0 120.488441,24.094372,0.0 120.488596,24.093999,0.0 120.488018,24.093788,0.0 120.487832,24.093335,0.0 120.48792,24.092705,0.0 120.488183,24.092593,0.0 120.488545,24.092321,0.0 120.488667,24.09185,0.0 120.488442,24.091543,0.0 120.488491,24.091058,0.0 120.488751,24.09075,0.0 120.489562,24.090748,0.0 120.490536,24.090432,0.0 120.491185,24.089717,0.0 120.491246,24.088946,0.0 120.490839,24.088346,0.0 120.490308,24.088013,0.0 120.489614,24.087568,0.0 120.489595,24.086789,0.0 120.489663,24.085788,0.0 120.489369,24.085206,0.0 120.4893,24.084472,0.0 120.489201,24.083704,0.0 120.488771,24.082885,0.0 120.488438,24.08204,0.0 120.488501,24.081352,0.0 120.488749,24.080749,0.0 120.489202,24.08019,0.0 120.489954,24.079227,0.0 120.4904,24.078776,0.0 120.490899,24.078701,0.0 120.49145,24.078579,0.0 120.492112,24.078213,0.0 120.492652,24.07757,0.0 120.493161,24.077155,0.0 120.494143,24.077066,0.0 120.495313,24.07721,0.0 120.496466,24.077383,0.0 120.497253,24.077482,0.0 120.498379,24.079756,0.0 120.498534,24.082357,0.0 120.502443,24.084611,0.0 120.502809,24.087912,0.0 120.502054,24.088744,0.0 120.501049,24.08966,0.0</coordinates></LinearRing></outerBoundaryIs></Polygon><styleUrl>#spolygon-map</styleUrl></Placemark><Placemark><Polygon><outerBoundaryIs><LinearRing><coordinates>120.508974,24.093544,0.0 120.507335,24.094121,0.0 120.499257,24.095711,0.0 120.498745,24.093695,0.0 120.497705,24.091356,0.0 120.498445,24.089939,0.0 120.50066,24.09006,0.0 120.501545,24.089424,0.0 120.501969,24.089541,0.0 120.503613,24.089082,0.0 120.504943,24.088952,0.0 120.504871,24.086348,0.0 120.509826,24.08538,0.0 120.512048,24.084565,0.0 120.514424,24.08333,0.0 120.515313,24.083514,0.0 120.514747,24.084266,0.0 120.514067,24.084597,0.0 120.513354,24.085158,0.0 120.512802,24.085834,0.0 120.512824,24.086279,0.0 120.510386,24.090084,0.0 120.508974,24.093544,0.0</coordinates></LinearRing></outerBoundaryIs></Polygon><styleUrl>#spolygon-map</styleUrl></Placemark><Placemark><Polygon><outerBoundaryIs><LinearRing><coordinates>120.523022,24.084817,0.0 120.522578,24.086728,0.0 120.52295,24.089049,0.0 120.522618,24.090242,0.0 120.521761,24.092763,0.0 120.520742,24.094811,0.0 120.519509,24.096145,0.0 120.518979,24.097431,0.0 120.516842,24.098011,0.0 120.511593,24.097813,0.0 120.508271,24.097539,0.0 120.508788,24.094013,0.0 120.51132,24.088192,0.0 120.512971,24.086339,0.0 120.514945,24.08639,0.0 120.515718,24.08621,0.0 120.516768,24.085246,0.0 120.517261,24.08465,0.0 120.518112,24.083984,0.0 120.519067,24.083696,0.0 120.521033,24.083888,0.0 120.522549,24.084292,0.0 120.523022,24.084817,0.0</coordinates></LinearRing></outerBoundaryIs></Polygon><styleUrl>#spolygon-map</styleUrl></Placemark><Placemark><Polygon><outerBoundaryIs><LinearRing><coordinates>120.527664,24.097455,0.0 120.526382,24.097706,0.0 120.524689,24.098338,0.0 120.520731,24.098458,0.0 120.518711,24.098306,0.0 120.518893,24.097663,0.0 120.51933,24.096602,0.0 120.520484,24.095466,0.0 120.521655,24.092997,0.0 120.522472,24.090476,0.0 120.52281,24.0895,0.0 120.522544,24.087035,0.0 120.522978,24.084903,0.0 120.523964,24.085705,0.0 120.524422,24.086137,0.0 120.524642,24.086937,0.0 120.524816,24.088051,0.0 120.525383,24.089272,0.0 120.52549,24.090057,0.0 120.525977,24.090216,0.0 120.526987,24.090324,0.0 120.528081,24.090442,0.0 120.529257,24.090543,0.0 120.53033,24.090568,0.0 120.532219,24.090521,0.0 120.532912,24.091593,0.0 120.533791,24.091704,0.0 120.53434,24.091667,0.0 120.535179,24.091941,0.0 120.534178,24.093321,0.0 120.530978,24.094109,0.0 120.528197,24.096278,0.0 120.527664,24.097455,0.0</coordinates></LinearRing></outerBoundaryIs></Polygon><styleUrl>#spolygon-map</styleUrl></Placemark><Placemark><Polygon><outerBoundaryIs><LinearRing><coordinates>120.541129,24.098911,0.0 120.537089,24.098746,0.0 120.529105,24.100952,0.0 120.525654,24.10094,0.0 120.526833,24.099259,0.0 120.528036,24.096455,0.0 120.530274,24.094661,0.0 120.533404,24.093328,0.0 120.53615,24.093246,0.0 120.536846,24.0932,0.0 120.537552,24.092878,0.0 120.538095,24.093407,0.0 120.540229,24.094371,0.0 120.541293,24.094745,0.0 120.541897,24.095187,0.0 120.541302,24.096962,0.0 120.54111,24.097736,0.0 120.541183,24.098335,0.0 120.541141,24.098801,0.0 120.541129,24.098911,0.0</coordinates></LinearRing></outerBoundaryIs></Polygon><styleUrl>#spolygon-map</styleUrl></Placemark><Placemark><Polygon><outerBoundaryIs><LinearRing><coordinates>120.499257,24.095711,0.0 120.500681,24.101555,0.0 120.4966,24.101331,0.0 120.490687,24.101661,0.0 120.487158,24.101952,0.0 120.48564,24.097889,0.0 120.486093,24.097464,0.0 120.486322,24.096575,0.0 120.486566,24.095759,0.0 120.486533,24.095059,0.0 120.486934,24.094656,0.0 120.487316,24.094771,0.0 120.487862,24.094727,0.0 120.489282,24.093763,0.0 120.491215,24.093474,0.0 120.492698,24.094115,0.0 120.495595,24.094187,0.0 120.497979,24.094695,0.0 120.499257,24.095711,0.0</coordinates></LinearRing></outerBoundaryIs></Polygon><styleUrl>#spolygon-map</styleUrl></Placemark><Placemark><Polygon><outerBoundaryIs><LinearRing><coordinates>120.505793,24.102966,0.0 120.503605,24.104109,0.0 120.501798,24.104053,0.0 120.500742,24.102564,0.0 120.499471,24.096606,0.0 120.506824,24.094112,0.0 120.508603,24.093541,0.0 120.507835,24.097505,0.0 120.50772,24.100672,0.0 120.505793,24.102966,0.0</coordinates></LinearRing></outerBoundaryIs></Polygon><styleUrl>#spolygon-map</styleUrl></Placemark><Placemark><Polygon><outerBoundaryIs><LinearRing><coordinates>120.525966,24.104458,0.0 120.523864,24.10632,0.0 120.52242,24.106052,0.0 120.521627,24.105427,0.0 120.519544,24.105404,0.0 120.518635,24.105082,0.0 120.516049,24.104875,0.0 120.516133,24.102341,0.0 120.515122,24.101624,0.0 120.509551,24.102496,0.0 120.508011,24.103365,0.0 120.50714,24.103765,0.0 120.505793,24.102966,0.0 120.507973,24.100016,0.0 120.509309,24.097564,0.0 120.512467,24.097854,0.0 120.518498,24.098054,0.0 120.519635,24.098433,0.0 120.524062,24.098417,0.0 120.525676,24.098206,0.0 120.527208,24.097397,0.0 120.526833,24.099259,0.0 120.525654,24.10094,0.0 120.526224,24.102593,0.0 120.525966,24.104458,0.0</coordinates></LinearRing></outerBoundaryIs></Polygon><styleUrl>#spolygon-map</styleUrl></Placemark><Placemark><Polygon><outerBoundaryIs><LinearRing><coordinates>120.526689,24.109959,0.0 120.526501,24.108442,0.0 120.527701,24.106454,0.0 120.526096,24.106522,0.0 120.52577,24.105657,0.0 120.525977,24.103261,0.0 120.529105,24.100952,0.0 120.537089,24.098746,0.0 120.541129,24.098911,0.0 120.541153,24.099464,0.0 120.541274,24.099951,0.0 120.541372,24.100151,0.0 120.541551,24.100219,0.0 120.541639,24.100903,0.0 120.539996,24.101808,0.0 120.538072,24.103621,0.0 120.536154,24.104307,0.0 120.533379,24.105548,0.0 120.52932,24.108837,0.0 120.527216,24.109867,0.0 120.526689,24.109959,0.0</coordinates></LinearRing></outerBoundaryIs></Polygon><styleUrl>#spolygon-map</styleUrl></Placemark><Placemark><Polygon><outerBoundaryIs><LinearRing><coordinates>120.502194,24.104362,0.0 120.500427,24.107702,0.0 120.499169,24.108609,0.0 120.497348,24.109745,0.0 120.495507,24.109335,0.0 120.491635,24.103048,0.0 120.4966,24.101331,0.0 120.501087,24.103037,0.0 120.502194,24.104362,0.0</coordinates></LinearRing></outerBoundaryIs></Polygon><styleUrl>#spolygon-map</styleUrl></Placemark><Placemark><Polygon><outerBoundaryIs><LinearRing><coordinates>120.534751,24.109031,0.0 120.530664,24.11094,0.0 120.529467,24.110724,0.0 120.530195,24.107979,0.0 120.53414,24.105077,0.0 120.536455,24.104781,0.0 120.534751,24.109031,0.0</coordinates></LinearRing></outerBoundaryIs></Polygon><styleUrl>#spolygon-map</styleUrl></Placemark><Placemark><Polygon><outerBoundaryIs><LinearRing><coordinates>120.496238,24.110385,0.0 120.494912,24.11072,0.0 120.494015,24.111044,0.0 120.492265,24.110667,0.0 120.489019,24.109323,0.0 120.487586,24.108715,0.0 120.485518,24.108531,0.0 120.484217,24.106808,0.0 120.483677,24.106057,0.0 120.485354,24.104626,0.0 120.4877,24.102387,0.0 120.491635,24.103048,0.0 120.495507,24.109335,0.0 120.496238,24.110385,0.0</coordinates></LinearRing></outerBoundaryIs></Polygon><styleUrl>#spolygon-map</styleUrl></Placemark><Placemark><Polygon><outerBoundaryIs><LinearRing><coordinates>120.507608,24.110768,0.0 120.501706,24.111091,0.0 120.500123,24.11272,0.0 120.497816,24.111837,0.0 120.496493,24.110178,0.0 120.498237,24.109543,0.0 120.499209,24.108012,0.0 120.501005,24.107335,0.0 120.503132,24.104216,0.0 120.505751,24.103012,0.0 120.506999,24.103757,0.0 120.507916,24.103365,0.0 120.507785,24.106555,0.0 120.506336,24.107036,0.0 120.50626,24.108407,0.0 120.507099,24.109943,0.0 120.507608,24.110768,0.0</coordinates></LinearRing></outerBoundaryIs></Polygon><styleUrl>#spolygon-map</styleUrl></Placemark><Placemark><Polygon><outerBoundaryIs><LinearRing><coordinates>120.497816,24.111837,0.0 120.49566,24.112351,0.0 120.497816,24.111837,0.0</coordinates></LinearRing></outerBoundaryIs></Polygon><styleUrl>#spolygon-map</styleUrl></Placemark><Placemark><Polygon><outerBoundaryIs><LinearRing><coordinates>120.486548,24.113337,0.0 120.484689,24.11256,0.0 120.483651,24.112333,0.0 120.482636,24.112586,0.0 120.480786,24.11319,0.0 120.480606,24.112282,0.0 120.480815,24.111573,0.0 120.479496,24.110688,0.0 120.478874,24.110549,0.0 120.47864,24.109788,0.0 120.478725,24.109149,0.0 120.478656,24.108323,0.0 120.478911,24.107676,0.0 120.479252,24.107335,0.0 120.478695,24.10714,0.0 120.478338,24.106778,0.0 120.47867,24.106038,0.0 120.478522,24.105775,0.0 120.477959,24.105642,0.0 120.478071,24.105191,0.0 120.478723,24.105098,0.0 120.479191,24.104777,0.0 120.479081,24.104372,0.0 120.479026,24.103983,0.0 120.478767,24.103681,0.0 120.478929,24.103275,0.0 120.479505,24.103505,0.0 120.480219,24.103598,0.0 120.480329,24.103138,0.0 120.47985,24.102561,0.0 120.479331,24.102339,0.0 120.479233,24.102955,0.0 120.478768,24.103161,0.0 120.478128,24.102934,0.0 120.477589,24.102933,0.0 120.477389,24.102458,0.0 120.477542,24.102045,0.0 120.47802,24.101164,0.0 120.478611,24.100445,0.0 120.478563,24.100025,0.0 120.478947,24.099686,0.0 120.479997,24.099209,0.0 120.480587,24.098745,0.0 120.481331,24.09894,0.0 120.482024,24.099097,0.0 120.482605,24.098952,0.0 120.483142,24.099028,0.0 120.483972,24.099062,0.0 120.484506,24.098913,0.0 120.484868,24.098328,0.0 120.48478,24.097706,0.0 120.485311,24.097475,0.0 120.485549,24.097891,0.0 120.487387,24.102603,0.0 120.484644,24.105474,0.0 120.483486,24.106057,0.0 120.48439,24.107038,0.0 120.486203,24.108287,0.0 120.487684,24.108902,0.0 120.489344,24.10934,0.0 120.492032,24.110931,0.0 120.489955,24.112739,0.0 120.487602,24.113119,0.0 120.486548,24.113337,0.0</coordinates></LinearRing></outerBoundaryIs></Polygon><styleUrl>#spolygon-map</styleUrl></Placemark><Placemark><Polygon><outerBoundaryIs><LinearRing><coordinates>120.494983,24.116434,0.0 120.493412,24.116817,0.0 120.490623,24.115619,0.0 120.488772,24.115061,0.0 120.486889,24.114452,0.0 120.488789,24.112917,0.0 120.49143,24.112523,0.0 120.492628,24.110691,0.0 120.494103,24.110612,0.0 120.495135,24.110804,0.0 120.496671,24.111185,0.0 120.496055,24.113545,0.0 120.494983,24.116434,0.0</coordinates></LinearRing></outerBoundaryIs></Polygon><styleUrl>#spolygon-map</styleUrl></Placemark><Placemark><Polygon><outerBoundaryIs><LinearRing><coordinates>120.549588,24.113928,0.0 120.548797,24.114384,0.0 120.546792,24.115939,0.0 120.545639,24.116343,0.0 120.545059,24.116883,0.0 120.542728,24.118684,0.0 120.536392,24.109997,0.0 120.536561,24.105662,0.0 120.535872,24.104401,0.0 120.537957,24.103641,0.0 120.539723,24.102005,0.0 120.541708,24.100941,0.0 120.542127,24.10068,0.0 120.54263,24.100863,0.0 120.542849,24.101339,0.0 120.543191,24.101519,0.0 120.543305,24.101932,0.0 120.543448,24.102443,0.0 120.543661,24.103054,0.0 120.543877,24.103934,0.0 120.544639,24.103677,0.0 120.544982,24.103522,0.0 120.544758,24.104187,0.0 120.544703,24.104621,0.0 120.544936,24.105373,0.0 120.545126,24.105989,0.0 120.545178,24.106437,0.0 120.545427,24.107111,0.0 120.545558,24.107593,0.0 120.545386,24.107675,0.0 120.545567,24.107872,0.0 120.545864,24.10786,0.0 120.545749,24.10799,0.0 120.545845,24.10823,0.0 120.545892,24.109104,0.0 120.546173,24.109331,0.0 120.546748,24.108966,0.0 120.547549,24.108755,0.0 120.547877,24.108894,0.0 120.548025,24.109389,0.0 120.548095,24.109984,0.0 120.547961,24.110416,0.0 120.54854,24.111512,0.0 120.549588,24.113928,0.0</coordinates></LinearRing></outerBoundaryIs></Polygon><styleUrl>#spolygon-map</styleUrl></Placemark><Placemark><Polygon><outerBoundaryIs><LinearRing><coordinates>120.519123,24.118742,0.0 120.517642,24.119355,0.0 120.51491,24.117392,0.0 120.513812,24.115439,0.0 120.510753,24.112743,0.0 120.509649,24.11267,0.0 120.508923,24.112726,0.0 120.508259,24.111593,0.0 120.507821,24.110768,0.0 120.506995,24.109772,0.0 120.506378,24.108342,0.0 120.50643,24.106907,0.0 120.507845,24.106475,0.0 120.508011,24.103365,0.0 120.509551,24.102496,0.0 120.515122,24.101624,0.0 120.516133,24.102341,0.0 120.516049,24.104875,0.0 120.518635,24.105082,0.0 120.519544,24.105404,0.0 120.521627,24.105427,0.0 120.52242,24.106052,0.0 120.523864,24.10632,0.0 120.525966,24.104458,0.0 120.525762,24.10634,0.0 120.527439,24.106273,0.0 120.527095,24.10733,0.0 120.52603,24.109994,0.0 120.524,24.111487,0.0 120.522234,24.114411,0.0 120.520696,24.115838,0.0 120.519123,24.118742,0.0</coordinates></LinearRing></outerBoundaryIs></Polygon><styleUrl>#spolygon-map</styleUrl></Placemark><Placemark><Polygon><outerBoundaryIs><LinearRing><coordinates>120.516681,24.119332,0.0 120.51435,24.119342,0.0 120.508935,24.119303,0.0 120.505859,24.119762,0.0 120.503948,24.120142,0.0 120.501899,24.119466,0.0 120.500185,24.117479,0.0 120.499809,24.116675,0.0 120.498421,24.115357,0.0 120.498777,24.113365,0.0 120.500123,24.11272,0.0 120.501706,24.111091,0.0 120.507608,24.110768,0.0 120.508292,24.111487,0.0 120.508912,24.112619,0.0 120.509602,24.112637,0.0 120.510666,24.112716,0.0 120.513684,24.115348,0.0 120.51404,24.11718,0.0 120.517512,24.119389,0.0 120.516681,24.119332,0.0</coordinates></LinearRing></outerBoundaryIs></Polygon><styleUrl>#spolygon-map</styleUrl></Placemark><Placemark><Polygon><outerBoundaryIs><LinearRing><coordinates>120.499557,24.116835,0.0 120.497561,24.118018,0.0 120.498036,24.119718,0.0 120.495622,24.120097,0.0 120.496375,24.114736,0.0 120.497001,24.112048,0.0 120.498664,24.112949,0.0 120.497918,24.114585,0.0 120.499557,24.116835,0.0</coordinates></LinearRing></outerBoundaryIs></Polygon><styleUrl>#spolygon-map</styleUrl></Placemark><Placemark><Polygon><outerBoundaryIs><LinearRing><coordinates>120.495354,24.118658,0.0 120.491536,24.118599,0.0 120.486224,24.120949,0.0 120.485265,24.120769,0.0 120.484958,24.119874,0.0 120.484542,24.118974,0.0 120.483891,24.119121,0.0 120.483569,24.118879,0.0 120.483239,24.118672,0.0 120.482763,24.117849,0.0 120.482506,24.117249,0.0 120.482401,24.11671,0.0 120.482616,24.116444,0.0 120.482143,24.116106,0.0 120.481856,24.115311,0.0 120.481656,24.11475,0.0 120.481351,24.114218,0.0 120.481094,24.113425,0.0 120.482916,24.112371,0.0 120.483907,24.112557,0.0 120.485452,24.113353,0.0 120.486889,24.114452,0.0 120.488772,24.115061,0.0 120.490623,24.115619,0.0 120.493412,24.116817,0.0 120.494983,24.116434,0.0 120.495354,24.118658,0.0</coordinates></LinearRing></outerBoundaryIs></Polygon><styleUrl>#spolygon-map</styleUrl></Placemark><Placemark><Polygon><outerBoundaryIs><LinearRing><coordinates>120.53684,24.12487,0.0 120.532782,24.123666,0.0 120.530193,24.121946,0.0 120.528941,24.119864,0.0 120.528172,24.119164,0.0 120.527588,24.116507,0.0 120.527293,24.113273,0.0 120.528356,24.109688,0.0 120.529427,24.110303,0.0 120.529932,24.111177,0.0 120.534469,24.109434,0.0 120.539195,24.113506,0.0 120.542545,24.120773,0.0 120.541309,24.122693,0.0 120.541047,24.123518,0.0 120.539503,24.12421,0.0 120.537511,24.12471,0.0 120.53684,24.12487,0.0</coordinates></LinearRing></outerBoundaryIs></Polygon><styleUrl>#spolygon-map</styleUrl></Placemark><Placemark><Polygon><outerBoundaryIs><LinearRing><coordinates>120.527933,24.12714,0.0 120.525793,24.126669,0.0 120.525313,24.126026,0.0 120.524631,24.125397,0.0 120.52326,24.12598,0.0 120.522025,24.125512,0.0 120.522204,24.124305,0.0 120.522309,24.123593,0.0 120.521522,24.123577,0.0 120.520254,24.123332,0.0 120.519874,24.122741,0.0 120.518042,24.123725,0.0 120.517238,24.12146,0.0 120.516781,24.119367,0.0 120.518244,24.119052,0.0 120.519179,24.118743,0.0 120.522025,24.119674,0.0 120.523241,24.119876,0.0 120.524402,24.120206,0.0 120.522198,24.120809,0.0 120.524819,24.121971,0.0 120.528166,24.122113,0.0 120.529886,24.123858,0.0 120.527933,24.12714,0.0</coordinates></LinearRing></outerBoundaryIs></Polygon><styleUrl>#spolygon-map</styleUrl></Placemark><Placemark><Polygon><outerBoundaryIs><LinearRing><coordinates>120.536729,24.124894,0.0 120.535558,24.125279,0.0 120.534648,24.125406,0.0 120.533136,24.126073,0.0 120.531757,24.127556,0.0 120.529384,24.12769,0.0 120.529886,24.123858,0.0 120.528166,24.122113,0.0 120.524819,24.121971,0.0 120.522198,24.120809,0.0 120.524402,24.120206,0.0 120.523241,24.119876,0.0 120.522025,24.119674,0.0 120.519179,24.118743,0.0 120.520696,24.115838,0.0 120.522234,24.114411,0.0 120.524,24.111487,0.0 120.526353,24.110019,0.0 120.527348,24.114074,0.0 120.527896,24.118114,0.0 120.528389,24.119422,0.0 120.529097,24.120134,0.0 120.53135,24.122889,0.0 120.535977,24.124504,0.0 120.536729,24.124894,0.0</coordinates></LinearRing></outerBoundaryIs></Polygon><styleUrl>#spolygon-map</styleUrl></Placemark><Placemark><Polygon><outerBoundaryIs><LinearRing><coordinates>120.516977,24.120588,0.0 120.514022,24.121376,0.0 120.511964,24.124874,0.0 120.511367,24.127702,0.0 120.50965,24.12891,0.0 120.505519,24.126252,0.0 120.500984,24.126143,0.0 120.500158,24.122725,0.0 120.496007,24.120819,0.0 120.496199,24.120188,0.0 120.498251,24.119556,0.0 120.497869,24.117876,0.0 120.499702,24.116708,0.0 120.500144,24.117266,0.0 120.501383,24.119205,0.0 120.503827,24.120005,0.0 120.505625,24.119805,0.0 120.508414,24.11942,0.0 120.513536,24.119334,0.0 120.516381,24.119271,0.0 120.516977,24.120588,0.0</coordinates></LinearRing></outerBoundaryIs></Polygon><styleUrl>#spolygon-map</styleUrl></Placemark><Placemark><Polygon><outerBoundaryIs><LinearRing><coordinates>120.497185,24.129239,0.0 120.491635,24.131289,0.0 120.490017,24.130463,0.0 120.48683,24.129964,0.0 120.483645,24.130838,0.0 120.48246,24.130872,0.0 120.48244,24.129952,0.0 120.482869,24.128769,0.0 120.48304,24.127955,0.0 120.483815,24.126447,0.0 120.484849,24.125185,0.0 120.486372,24.123253,0.0 120.486421,24.122985,0.0 120.486042,24.122572,0.0 120.485795,24.1219,0.0 120.485396,24.121441,0.0 120.490618,24.118563,0.0 120.494335,24.118817,0.0 120.49534,24.120554,0.0 120.499547,24.121977,0.0 120.500487,24.124125,0.0 120.500271,24.127877,0.0 120.497185,24.129239,0.0</coordinates></LinearRing></outerBoundaryIs></Polygon><styleUrl>#spolygon-map</styleUrl></Placemark><Placemark><Polygon><outerBoundaryIs><LinearRing><coordinates>120.51382,24.139593,0.0 120.510713,24.138871,0.0 120.506743,24.139672,0.0 120.504781,24.140801,0.0 120.504463,24.1396,0.0 120.50412,24.138278,0.0 120.50393,24.137114,0.0 120.502884,24.134826,0.0 120.50242,24.133882,0.0 120.501861,24.132471,0.0 120.49784,24.129437,0.0 120.499042,24.128135,0.0 120.504757,24.126318,0.0 120.509026,24.129165,0.0 120.512674,24.134614,0.0 120.51382,24.139593,0.0</coordinates></LinearRing></outerBoundaryIs></Polygon><styleUrl>#spolygon-map</styleUrl></Placemark><Placemark><Polygon><outerBoundaryIs><LinearRing><coordinates>120.483992,24.142194,0.0 120.483253,24.14185,0.0 120.482678,24.141318,0.0 120.482536,24.140756,0.0 120.481887,24.14004,0.0 120.481877,24.13918,0.0 120.481756,24.137571,0.0 120.481649,24.136113,0.0 120.481644,24.134816,0.0 120.481757,24.133903,0.0 120.48202,24.131821,0.0 120.482608,24.130873,0.0 120.483899,24.13077,0.0 120.488175,24.129513,0.0 120.489639,24.132548,0.0 120.492197,24.130757,0.0 120.497587,24.129299,0.0 120.501123,24.132041,0.0 120.499265,24.132992,0.0 120.4979,24.133568,0.0 120.496613,24.134098,0.0 120.49553,24.134475,0.0 120.494144,24.134899,0.0 120.493189,24.135333,0.0 120.492135,24.135824,0.0 120.491518,24.136095,0.0 120.490818,24.136343,0.0 120.48982,24.13677,0.0 120.488377,24.137329,0.0 120.486967,24.137932,0.0 120.486433,24.138413,0.0 120.486445,24.138952,0.0 120.486401,24.139493,0.0 120.486371,24.140049,0.0 120.486377,24.140429,0.0 120.486086,24.141301,0.0 120.485379,24.141759,0.0 120.483992,24.142194,0.0</coordinates></LinearRing></outerBoundaryIs></Polygon><styleUrl>#spolygon-map</styleUrl></Placemark><Placemark><Polygon><outerBoundaryIs><LinearRing><coordinates>120.523651,24.141366,0.0 120.524771,24.143139,0.0 120.516259,24.140331,0.0 120.513638,24.137064,0.0 120.511874,24.132051,0.0 120.510733,24.128555,0.0 120.51112,24.125644,0.0 120.512119,24.123552,0.0 120.515471,24.120786,0.0 120.517729,24.123104,0.0 120.518388,24.123598,0.0 120.520004,24.122876,0.0 120.520703,24.123453,0.0 120.521666,24.123614,0.0 120.522453,24.123617,0.0 120.522203,24.124464,0.0 120.521989,24.125592,0.0 120.523595,24.125943,0.0 120.524707,24.12544,0.0 120.525724,24.126179,0.0 120.526244,24.127043,0.0 120.528046,24.127146,0.0 120.530804,24.12886,0.0 120.530005,24.130434,0.0 120.52935,24.131662,0.0 120.528076,24.133193,0.0 120.527354,24.134484,0.0 120.52469,24.138064,0.0 120.523669,24.139459,0.0 120.523306,24.140444,0.0 120.523651,24.141366,0.0</coordinates></LinearRing></outerBoundaryIs></Polygon><styleUrl>#spolygon-map</styleUrl></Placemark><Placemark><Polygon><outerBoundaryIs><LinearRing><coordinates>120.523032,24.154493,0.0 120.516917,24.154696,0.0 120.514536,24.153652,0.0 120.513455,24.151962,0.0 120.513131,24.150888,0.0 120.512619,24.147358,0.0 120.507397,24.145247,0.0 120.505364,24.142979,0.0 120.504791,24.14129,0.0 120.505501,24.140639,0.0 120.50757,24.139364,0.0 120.511159,24.138955,0.0 120.514174,24.139716,0.0 120.524606,24.143161,0.0 120.525656,24.146041,0.0 120.52581,24.148102,0.0 120.525789,24.149021,0.0 120.524984,24.15093,0.0 120.524586,24.152028,0.0 120.524361,24.152569,0.0 120.524,24.153084,0.0 120.52307,24.154421,0.0 120.523032,24.154493,0.0</coordinates></LinearRing></outerBoundaryIs></Polygon><styleUrl>#spolygon-map</styleUrl></Placemark><Placemark><Polygon><outerBoundaryIs><LinearRing><coordinates>120.52251,24.15546,0.0 120.521121,24.157919,0.0 120.52042,24.159304,0.0 120.520046,24.160565,0.0 120.519697,24.161484,0.0 120.519008,24.161405,0.0 120.518241,24.161212,0.0 120.517606,24.160913,0.0 120.517059,24.16063,0.0 120.51646,24.160275,0.0 120.515764,24.159787,0.0 120.514948,24.15903,0.0 120.514576,24.158435,0.0 120.513834,24.157626,0.0 120.512945,24.156977,0.0 120.510099,24.155533,0.0 120.509394,24.154186,0.0 120.509501,24.152145,0.0 120.507326,24.152037,0.0 120.505113,24.151831,0.0 120.503479,24.151597,0.0 120.502047,24.150873,0.0 120.501597,24.150273,0.0 120.501457,24.149643,0.0 120.50211,24.148755,0.0 120.50296,24.148496,0.0 120.504165,24.148693,0.0 120.505236,24.148566,0.0 120.505965,24.148214,0.0 120.506255,24.148105,0.0 120.506209,24.146015,0.0 120.507397,24.145247,0.0 120.512619,24.147358,0.0 120.513131,24.150888,0.0 120.513455,24.151962,0.0 120.514536,24.153652,0.0 120.516917,24.154696,0.0 120.52251,24.15546,0.0</coordinates></LinearRing></outerBoundaryIs></Polygon><styleUrl>#spolygon-map</styleUrl></Placemark></Document>
</kml>
