<?xml version="1.0" encoding="UTF-8"?>
<kml xmlns="http://www.opengis.net/kml/2.2">
	<Document>
		<name>彰化縣福興鄉</name>
		<Style id="spolygon">
			<LabelStyle>
				<scale>0.0</scale>
			</LabelStyle>
			<LineStyle>
				<color>330030ff</color>
				<width>0</width>
			</LineStyle>
			<PolyStyle>
				<color>330030ff</color>
			</PolyStyle>
		</Style>
		<StyleMap id="spolygon-map">
			<Pair>
				<key>normal</key>
				<styleUrl>#spolygon</styleUrl>
			</Pair>
		</StyleMap>
	<Placemark><Polygon><outerBoundaryIs><LinearRing><coordinates>120.415097,24.013233,0.0 120.407287,24.012689,0.0 120.402867,24.008468,0.0 120.39552,24.00432,0.0 120.39666,24.004092,0.0 120.39752,24.003637,0.0 120.398097,24.003141,0.0 120.399071,24.002851,0.0 120.399951,24.002846,0.0 120.400851,24.003074,0.0 120.401465,24.00322,0.0 120.402431,24.003286,0.0 120.403401,24.003058,0.0 120.404269,24.00274,0.0 120.405023,24.002378,0.0 120.40525,24.000962,0.0 120.40573,24.00007,0.0 120.406429,23.999621,0.0 120.407419,23.99941,0.0 120.408409,23.999062,0.0 120.408896,23.998754,0.0 120.40998,23.99846,0.0 120.41114,23.997296,0.0 120.412553,23.996406,0.0 120.411857,23.997955,0.0 120.413897,23.999848,0.0 120.41807,24.005994,0.0 120.41489,24.01155,0.0 120.415097,24.013233,0.0</coordinates></LinearRing></outerBoundaryIs></Polygon><styleUrl>#spolygon-map</styleUrl></Placemark><Placemark><Polygon><outerBoundaryIs><LinearRing><coordinates>120.484024,24.017415,0.0 120.479571,24.017137,0.0 120.47781,24.016557,0.0 120.478175,24.015811,0.0 120.47987,24.012923,0.0 120.48026,24.012157,0.0 120.48095,24.011979,0.0 120.481589,24.011576,0.0 120.482299,24.011025,0.0 120.482973,24.010919,0.0 120.484735,24.011011,0.0 120.48623,24.011029,0.0 120.487801,24.01046,0.0 120.490015,24.009659,0.0 120.491057,24.009753,0.0 120.492023,24.009298,0.0 120.492527,24.008425,0.0 120.49403,24.006712,0.0 120.494685,24.00585,0.0 120.494848,24.0063,0.0 120.495319,24.006031,0.0 120.495871,24.005432,0.0 120.495959,24.00585,0.0 120.49524,24.006947,0.0 120.494724,24.008199,0.0 120.493556,24.00914,0.0 120.495021,24.010037,0.0 120.497294,24.011096,0.0 120.495879,24.012201,0.0 120.4942,24.011672,0.0 120.494121,24.013354,0.0 120.48537,24.01488,0.0 120.484024,24.017415,0.0</coordinates></LinearRing></outerBoundaryIs></Polygon><styleUrl>#spolygon-map</styleUrl></Placemark><Placemark><Polygon><outerBoundaryIs><LinearRing><coordinates>120.482439,24.01757,0.0 120.474698,24.018845,0.0 120.470055,24.017443,0.0 120.468597,24.01643,0.0 120.465817,24.018306,0.0 120.459876,24.01986,0.0 120.458287,24.016565,0.0 120.459148,24.016444,0.0 120.459751,24.015777,0.0 120.459322,24.014848,0.0 120.459524,24.014411,0.0 120.46024,24.013871,0.0 120.46096,24.013298,0.0 120.461535,24.012947,0.0 120.462542,24.012585,0.0 120.463288,24.012689,0.0 120.463949,24.013051,0.0 120.464967,24.013066,0.0 120.465764,24.012703,0.0 120.466742,24.012602,0.0 120.468437,24.012649,0.0 120.469389,24.012655,0.0 120.470183,24.012776,0.0 120.471095,24.012928,0.0 120.47221,24.013061,0.0 120.473027,24.012849,0.0 120.473074,24.01241,0.0 120.474078,24.012225,0.0 120.475289,24.012019,0.0 120.475964,24.011977,0.0 120.476932,24.011923,0.0 120.477668,24.011997,0.0 120.478258,24.012232,0.0 120.478833,24.01229,0.0 120.479511,24.01233,0.0 120.480186,24.015401,0.0 120.477819,24.0161,0.0 120.478155,24.017029,0.0 120.481828,24.01736,0.0 120.482439,24.01757,0.0</coordinates></LinearRing></outerBoundaryIs></Polygon><styleUrl>#spolygon-map</styleUrl></Placemark><Placemark><Polygon><outerBoundaryIs><LinearRing><coordinates>120.426928,24.011312,0.0 120.425975,24.017865,0.0 120.419548,24.019965,0.0 120.415097,24.013233,0.0 120.4183,24.007765,0.0 120.414069,24.000736,0.0 120.417275,23.997073,0.0 120.421734,23.99518,0.0 120.425172,23.995952,0.0 120.423828,24.000536,0.0 120.429016,24.004795,0.0 120.429857,24.008555,0.0 120.429026,24.009303,0.0 120.428106,24.010244,0.0 120.427042,24.01104,0.0 120.426928,24.011312,0.0</coordinates></LinearRing></outerBoundaryIs></Polygon><styleUrl>#spolygon-map</styleUrl></Placemark><Placemark><Polygon><outerBoundaryIs><LinearRing><coordinates>120.495711,24.015485,0.0 120.492972,24.017645,0.0 120.4909,24.019324,0.0 120.489684,24.020525,0.0 120.487533,24.02173,0.0 120.486309,24.022306,0.0 120.484949,24.022007,0.0 120.484536,24.01737,0.0 120.486215,24.014761,0.0 120.494242,24.013288,0.0 120.494933,24.014681,0.0 120.495711,24.015485,0.0</coordinates></LinearRing></outerBoundaryIs></Polygon><styleUrl>#spolygon-map</styleUrl></Placemark><Placemark><Polygon><outerBoundaryIs><LinearRing><coordinates>120.480475,24.02661,0.0 120.4767,24.026577,0.0 120.468456,24.025978,0.0 120.46363,24.025141,0.0 120.461723,24.024592,0.0 120.463393,24.020874,0.0 120.466085,24.01713,0.0 120.469005,24.017074,0.0 120.470915,24.019562,0.0 120.480681,24.017768,0.0 120.484509,24.02059,0.0 120.485257,24.022889,0.0 120.484506,24.023533,0.0 120.483875,24.024044,0.0 120.483058,24.024514,0.0 120.48258,24.024674,0.0 120.481948,24.025027,0.0 120.481129,24.025677,0.0 120.48062,24.026291,0.0 120.480475,24.02661,0.0</coordinates></LinearRing></outerBoundaryIs></Polygon><styleUrl>#spolygon-map</styleUrl></Placemark><Placemark><Polygon><outerBoundaryIs><LinearRing><coordinates>120.461277,24.024401,0.0 120.456312,24.027976,0.0 120.448865,24.027713,0.0 120.446479,24.025839,0.0 120.444197,24.024863,0.0 120.444283,24.023904,0.0 120.445003,24.02352,0.0 120.445788,24.023888,0.0 120.446869,24.02381,0.0 120.447845,24.023097,0.0 120.44836,24.022447,0.0 120.448817,24.021834,0.0 120.449306,24.0211,0.0 120.450384,24.021124,0.0 120.451354,24.021285,0.0 120.452169,24.020846,0.0 120.452173,24.019968,0.0 120.451943,24.019054,0.0 120.45259,24.018597,0.0 120.453317,24.018156,0.0 120.454277,24.017507,0.0 120.455134,24.017081,0.0 120.455972,24.016633,0.0 120.456923,24.016523,0.0 120.45824,24.016563,0.0 120.459485,24.019119,0.0 120.462324,24.022203,0.0 120.461277,24.024401,0.0</coordinates></LinearRing></outerBoundaryIs></Polygon><styleUrl>#spolygon-map</styleUrl></Placemark><Placemark><Polygon><outerBoundaryIs><LinearRing><coordinates>120.415857,24.020359,0.0 120.407955,24.022988,0.0 120.399427,24.028982,0.0 120.398018,24.027298,0.0 120.398039,24.022163,0.0 120.392868,24.020651,0.0 120.385614,24.019607,0.0 120.385618,24.018714,0.0 120.38564,24.017988,0.0 120.385521,24.017413,0.0 120.385933,24.016672,0.0 120.386654,24.016541,0.0 120.387365,24.01626,0.0 120.387635,24.015476,0.0 120.387621,24.014504,0.0 120.387521,24.013811,0.0 120.387833,24.013392,0.0 120.388344,24.01302,0.0 120.388464,24.012229,0.0 120.388216,24.011491,0.0 120.388268,24.010894,0.0 120.388898,24.010702,0.0 120.389609,24.010803,0.0 120.390437,24.010468,0.0 120.390467,24.009928,0.0 120.390052,24.00926,0.0 120.389961,24.008517,0.0 120.389726,24.007747,0.0 120.390453,24.007078,0.0 120.391548,24.006779,0.0 120.392286,24.006485,0.0 120.393096,24.006063,0.0 120.394598,24.005246,0.0 120.39521,24.004459,0.0 120.402484,24.008705,0.0 120.406356,24.012025,0.0 120.410483,24.014455,0.0 120.415857,24.020359,0.0</coordinates></LinearRing></outerBoundaryIs></Polygon><styleUrl>#spolygon-map</styleUrl></Placemark><Placemark><Polygon><outerBoundaryIs><LinearRing><coordinates>120.421568,24.034006,0.0 120.420266,24.034398,0.0 120.417816,24.032766,0.0 120.415408,24.031843,0.0 120.413445,24.033119,0.0 120.413671,24.035386,0.0 120.411986,24.031821,0.0 120.410273,24.029928,0.0 120.404791,24.031301,0.0 120.400562,24.032233,0.0 120.39866,24.031537,0.0 120.381526,24.028023,0.0 120.379818,24.027669,0.0 120.380766,24.027219,0.0 120.381704,24.026277,0.0 120.381868,24.025597,0.0 120.3822,24.025076,0.0 120.382609,24.024408,0.0 120.383093,24.02376,0.0 120.383412,24.023357,0.0 120.383673,24.022923,0.0 120.384022,24.022302,0.0 120.38412,24.021714,0.0 120.384492,24.02099,0.0 120.385188,24.020373,0.0 120.385614,24.019607,0.0 120.392868,24.020651,0.0 120.398039,24.022163,0.0 120.398018,24.027298,0.0 120.399427,24.028982,0.0 120.407955,24.022988,0.0 120.415857,24.020359,0.0 120.420161,24.026618,0.0 120.421129,24.032352,0.0 120.421568,24.034006,0.0</coordinates></LinearRing></outerBoundaryIs></Polygon><styleUrl>#spolygon-map</styleUrl></Placemark><Placemark><Polygon><outerBoundaryIs><LinearRing><coordinates>120.443725,24.035364,0.0 120.440151,24.035609,0.0 120.436422,24.036039,0.0 120.434281,24.035655,0.0 120.433696,24.030695,0.0 120.435617,24.027522,0.0 120.438107,24.024141,0.0 120.438762,24.024212,0.0 120.439556,24.023625,0.0 120.440119,24.023911,0.0 120.441083,24.023871,0.0 120.441851,24.024121,0.0 120.442022,24.025495,0.0 120.442202,24.026372,0.0 120.442807,24.026339,0.0 120.443428,24.025616,0.0 120.443637,24.025148,0.0 120.44434,24.025343,0.0 120.444001,24.032653,0.0 120.443725,24.035364,0.0</coordinates></LinearRing></outerBoundaryIs></Polygon><styleUrl>#spolygon-map</styleUrl></Placemark><Placemark><Polygon><outerBoundaryIs><LinearRing><coordinates>120.374063,24.038167,0.0 120.374316,24.037173,0.0 120.375235,24.035371,0.0 120.375568,24.034008,0.0 120.376336,24.032328,0.0 120.377336,24.030487,0.0 120.377562,24.029792,0.0 120.378453,24.029308,0.0 120.378621,24.028537,0.0 120.378921,24.027888,0.0 120.381526,24.028023,0.0 120.39866,24.031537,0.0 120.400562,24.032233,0.0 120.404791,24.031301,0.0 120.410273,24.029928,0.0 120.411986,24.031821,0.0 120.41174,24.036273,0.0 120.408773,24.037029,0.0 120.401116,24.037001,0.0 120.384585,24.037251,0.0 120.374063,24.038167,0.0</coordinates></LinearRing></outerBoundaryIs></Polygon><styleUrl>#spolygon-map</styleUrl></Placemark><Placemark><Polygon><outerBoundaryIs><LinearRing><coordinates>120.433604,24.037803,0.0 120.429122,24.039954,0.0 120.427424,24.0383,0.0 120.424133,24.037163,0.0 120.422717,24.034832,0.0 120.42204,24.034205,0.0 120.420596,24.029726,0.0 120.419743,24.022527,0.0 120.425975,24.017865,0.0 120.426928,24.011312,0.0 120.427421,24.012818,0.0 120.427769,24.013666,0.0 120.428404,24.014179,0.0 120.429168,24.014913,0.0 120.432064,24.01708,0.0 120.433454,24.01816,0.0 120.434372,24.018836,0.0 120.435103,24.019378,0.0 120.43534,24.021061,0.0 120.435334,24.021928,0.0 120.435379,24.022715,0.0 120.435568,24.022887,0.0 120.437041,24.022994,0.0 120.438129,24.023326,0.0 120.439052,24.023723,0.0 120.43889,24.024144,0.0 120.438181,24.024129,0.0 120.436044,24.027055,0.0 120.434123,24.030228,0.0 120.434174,24.035019,0.0 120.433604,24.037803,0.0</coordinates></LinearRing></outerBoundaryIs></Polygon><styleUrl>#spolygon-map</styleUrl></Placemark><Placemark><Polygon><outerBoundaryIs><LinearRing><coordinates>120.468203,24.041059,0.0 120.460423,24.03916,0.0 120.46085,24.035333,0.0 120.463353,24.032974,0.0 120.463367,24.031634,0.0 120.46326,24.026811,0.0 120.463497,24.025195,0.0 120.46702,24.025696,0.0 120.474222,24.026174,0.0 120.479943,24.026424,0.0 120.48131,24.026902,0.0 120.482402,24.02728,0.0 120.483503,24.027689,0.0 120.484567,24.027949,0.0 120.485889,24.027873,0.0 120.487158,24.027977,0.0 120.488233,24.028089,0.0 120.489493,24.028111,0.0 120.490058,24.028068,0.0 120.489994,24.029122,0.0 120.491524,24.028927,0.0 120.491576,24.029724,0.0 120.490782,24.030075,0.0 120.489931,24.030866,0.0 120.488985,24.031775,0.0 120.48829,24.032387,0.0 120.4881,24.033213,0.0 120.487506,24.033448,0.0 120.486593,24.034416,0.0 120.485546,24.035122,0.0 120.484999,24.035097,0.0 120.484188,24.035193,0.0 120.482822,24.033909,0.0 120.479008,24.033913,0.0 120.474289,24.035235,0.0 120.469834,24.040474,0.0 120.468203,24.041059,0.0</coordinates></LinearRing></outerBoundaryIs></Polygon><styleUrl>#spolygon-map</styleUrl></Placemark><Placemark><Polygon><outerBoundaryIs><LinearRing><coordinates>120.449341,24.04272,0.0 120.443949,24.043415,0.0 120.444686,24.042435,0.0 120.444962,24.042209,0.0 120.445027,24.041482,0.0 120.445157,24.040644,0.0 120.44483,24.040181,0.0 120.444167,24.040317,0.0 120.443276,24.040516,0.0 120.443152,24.041285,0.0 120.442506,24.04211,0.0 120.441492,24.042591,0.0 120.440572,24.042827,0.0 120.441663,24.040103,0.0 120.443802,24.0342,0.0 120.445595,24.025961,0.0 120.448135,24.027757,0.0 120.454067,24.028186,0.0 120.460856,24.02439,0.0 120.463103,24.025532,0.0 120.463238,24.028182,0.0 120.46345,24.032234,0.0 120.462418,24.033539,0.0 120.455235,24.03525,0.0 120.451341,24.035846,0.0 120.449054,24.039924,0.0 120.449341,24.04272,0.0</coordinates></LinearRing></outerBoundaryIs></Polygon><styleUrl>#spolygon-map</styleUrl></Placemark><Placemark><Polygon><outerBoundaryIs><LinearRing><coordinates>120.427424,24.0383,0.0 120.426561,24.044956,0.0 120.422541,24.045617,0.0 120.421299,24.0409,0.0 120.417955,24.040812,0.0 120.413807,24.037538,0.0 120.414267,24.034732,0.0 120.413228,24.032548,0.0 120.416733,24.032022,0.0 120.41918,24.032799,0.0 120.421135,24.034186,0.0 120.422189,24.034504,0.0 120.423117,24.03498,0.0 120.425015,24.037211,0.0 120.427424,24.0383,0.0</coordinates></LinearRing></outerBoundaryIs></Polygon><styleUrl>#spolygon-map</styleUrl></Placemark><Placemark><Polygon><outerBoundaryIs><LinearRing><coordinates>120.434413,24.047661,0.0 120.433564,24.048255,0.0 120.433193,24.046586,0.0 120.433885,24.043834,0.0 120.43378,24.041655,0.0 120.433955,24.040866,0.0 120.433257,24.038369,0.0 120.435004,24.035995,0.0 120.437991,24.03569,0.0 120.440938,24.035513,0.0 120.443255,24.037137,0.0 120.440407,24.042213,0.0 120.440294,24.043377,0.0 120.439894,24.044514,0.0 120.438909,24.045329,0.0 120.437681,24.046112,0.0 120.435801,24.047137,0.0 120.434413,24.047661,0.0</coordinates></LinearRing></outerBoundaryIs></Polygon><styleUrl>#spolygon-map</styleUrl></Placemark><Placemark><Polygon><outerBoundaryIs><LinearRing><coordinates>120.468887,24.049823,0.0 120.468096,24.050179,0.0 120.46757,24.05113,0.0 120.466752,24.051779,0.0 120.465666,24.051484,0.0 120.464671,24.051394,0.0 120.464367,24.051811,0.0 120.463682,24.052084,0.0 120.463095,24.052274,0.0 120.462265,24.052184,0.0 120.460399,24.052104,0.0 120.459819,24.052189,0.0 120.45881,24.052254,0.0 120.457549,24.05227,0.0 120.455985,24.052226,0.0 120.455025,24.049303,0.0 120.453733,24.045954,0.0 120.449054,24.039924,0.0 120.451341,24.035846,0.0 120.455235,24.03525,0.0 120.46151,24.034244,0.0 120.460093,24.037654,0.0 120.463886,24.04205,0.0 120.465834,24.045024,0.0 120.468715,24.044719,0.0 120.469407,24.047449,0.0 120.468118,24.048216,0.0 120.468887,24.049823,0.0</coordinates></LinearRing></outerBoundaryIs></Polygon><styleUrl>#spolygon-map</styleUrl></Placemark><Placemark><Polygon><outerBoundaryIs><LinearRing><coordinates>120.489068,24.046126,0.0 120.488375,24.046929,0.0 120.484849,24.046793,0.0 120.483668,24.047469,0.0 120.483139,24.049391,0.0 120.481915,24.050255,0.0 120.481611,24.05409,0.0 120.480279,24.053319,0.0 120.479907,24.051683,0.0 120.479666,24.049357,0.0 120.479743,24.048375,0.0 120.479497,24.047488,0.0 120.478905,24.046535,0.0 120.477969,24.046902,0.0 120.476821,24.047178,0.0 120.475717,24.047402,0.0 120.47451,24.04767,0.0 120.473419,24.04787,0.0 120.47243,24.048139,0.0 120.471759,24.04841,0.0 120.471284,24.048627,0.0 120.470892,24.048929,0.0 120.470076,24.049249,0.0 120.469306,24.04963,0.0 120.468713,24.049555,0.0 120.469013,24.047511,0.0 120.469266,24.044359,0.0 120.466518,24.045483,0.0 120.468203,24.041059,0.0 120.471732,24.038335,0.0 120.477415,24.033687,0.0 120.481366,24.033809,0.0 120.483593,24.034242,0.0 120.484848,24.03553,0.0 120.485487,24.035844,0.0 120.484743,24.036312,0.0 120.484279,24.037436,0.0 120.483497,24.039003,0.0 120.482844,24.040088,0.0 120.483139,24.040234,0.0 120.485581,24.041195,0.0 120.485019,24.042538,0.0 120.48479,24.042127,0.0 120.487177,24.044049,0.0 120.488577,24.044364,0.0 120.489068,24.046126,0.0</coordinates></LinearRing></outerBoundaryIs></Polygon><styleUrl>#spolygon-map</styleUrl></Placemark><Placemark><Polygon><outerBoundaryIs><LinearRing><coordinates>120.448654,24.053393,0.0 120.448049,24.053569,0.0 120.447094,24.053652,0.0 120.445347,24.053654,0.0 120.443678,24.05357,0.0 120.441902,24.053961,0.0 120.441075,24.053772,0.0 120.440822,24.053173,0.0 120.440034,24.053229,0.0 120.438667,24.053062,0.0 120.440285,24.048943,0.0 120.441361,24.048255,0.0 120.440913,24.047398,0.0 120.440497,24.046791,0.0 120.440031,24.046215,0.0 120.440644,24.045742,0.0 120.442566,24.044895,0.0 120.443461,24.044364,0.0 120.443832,24.043727,0.0 120.450719,24.046666,0.0 120.455027,24.048564,0.0 120.454493,24.052288,0.0 120.452606,24.052345,0.0 120.451686,24.052695,0.0 120.450348,24.052804,0.0 120.449747,24.053043,0.0 120.448863,24.053341,0.0 120.448654,24.053393,0.0</coordinates></LinearRing></outerBoundaryIs></Polygon><styleUrl>#spolygon-map</styleUrl></Placemark><Placemark><Polygon><outerBoundaryIs><LinearRing><coordinates>120.403083,24.057619,0.0 120.393536,24.05777,0.0 120.383991,24.057641,0.0 120.374447,24.057232,0.0 120.364904,24.056543,0.0 120.355363,24.055573,0.0 120.345824,24.054323,0.0 120.342231,24.047749,0.0 120.355886,24.043061,0.0 120.369537,24.038942,0.0 120.376073,24.037881,0.0 120.398753,24.036842,0.0 120.408353,24.036277,0.0 120.409429,24.037345,0.0 120.414059,24.038384,0.0 120.41301,24.042097,0.0 120.403452,24.04364,0.0 120.402694,24.04928,0.0 120.403083,24.057619,0.0</coordinates></LinearRing></outerBoundaryIs></Polygon><styleUrl>#spolygon-map</styleUrl></Placemark><Placemark><Polygon><outerBoundaryIs><LinearRing><coordinates>120.422541,24.045617,0.0 120.420281,24.051465,0.0 120.407734,24.057044,0.0 120.40645,24.058062,0.0 120.405336,24.057667,0.0 120.403134,24.054186,0.0 120.40297,24.046912,0.0 120.409435,24.042181,0.0 120.414253,24.041018,0.0 120.420945,24.040771,0.0 120.421147,24.042293,0.0 120.422541,24.045617,0.0</coordinates></LinearRing></outerBoundaryIs></Polygon><styleUrl>#spolygon-map</styleUrl></Placemark><Placemark><Polygon><outerBoundaryIs><LinearRing><coordinates>120.427202,24.055828,0.0 120.42635,24.055439,0.0 120.424486,24.05549,0.0 120.423761,24.055177,0.0 120.421928,24.053554,0.0 120.420662,24.053343,0.0 120.419672,24.053931,0.0 120.418776,24.055549,0.0 120.418786,24.056679,0.0 120.417652,24.05666,0.0 120.416035,24.057167,0.0 120.413943,24.058485,0.0 120.411825,24.059413,0.0 120.41045,24.059922,0.0 120.409496,24.059663,0.0 120.408951,24.05931,0.0 120.407698,24.058544,0.0 120.407161,24.05829,0.0 120.408232,24.056828,0.0 120.420839,24.050041,0.0 120.424307,24.045272,0.0 120.427387,24.044903,0.0 120.428558,24.038086,0.0 120.429657,24.039924,0.0 120.43341,24.038326,0.0 120.433803,24.04076,0.0 120.433856,24.041594,0.0 120.433962,24.043694,0.0 120.433243,24.046118,0.0 120.433205,24.048722,0.0 120.431976,24.050269,0.0 120.430691,24.051972,0.0 120.429779,24.053671,0.0 120.42871,24.055789,0.0 120.42811,24.056263,0.0 120.427589,24.056104,0.0 120.427202,24.055828,0.0</coordinates></LinearRing></outerBoundaryIs></Polygon><styleUrl>#spolygon-map</styleUrl></Placemark></Document>
</kml>
