<?xml version="1.0" encoding="UTF-8"?>
<kml xmlns="http://www.opengis.net/kml/2.2">
	<Document>
		<name>彰化縣北斗鎮</name>
		<Style id="spolygon">
			<LabelStyle>
				<scale>0.0</scale>
			</LabelStyle>
			<LineStyle>
				<color>330030ff</color>
				<width>0</width>
			</LineStyle>
			<PolyStyle>
				<color>330030ff</color>
			</PolyStyle>
		</Style>
		<StyleMap id="spolygon-map">
			<Pair>
				<key>normal</key>
				<styleUrl>#spolygon</styleUrl>
			</Pair>
		</StyleMap>
	<Placemark><Polygon><outerBoundaryIs><LinearRing><coordinates>120.537303,23.86857,0.0 120.534008,23.869646,0.0 120.530115,23.869734,0.0 120.528685,23.870166,0.0 120.528299,23.869238,0.0 120.529455,23.867647,0.0 120.530399,23.865781,0.0 120.530535,23.863246,0.0 120.530965,23.861388,0.0 120.533225,23.860837,0.0 120.53546,23.85808,0.0 120.535599,23.854812,0.0 120.53858,23.852503,0.0 120.538849,23.852067,0.0 120.540112,23.851615,0.0 120.5407,23.851419,0.0 120.5413,23.85121,0.0 120.542108,23.850916,0.0 120.542316,23.850557,0.0 120.542695,23.849792,0.0 120.543045,23.8492,0.0 120.543475,23.848582,0.0 120.544177,23.84815,0.0 120.545348,23.847609,0.0 120.546403,23.847157,0.0 120.547274,23.846764,0.0 120.547739,23.846279,0.0 120.548095,23.84605,0.0 120.548582,23.846102,0.0 120.54892,23.846151,0.0 120.549371,23.846045,0.0 120.549799,23.845848,0.0 120.550266,23.845664,0.0 120.550661,23.845478,0.0 120.55115,23.845282,0.0 120.551612,23.844945,0.0 120.551866,23.844784,0.0 120.552242,23.845213,0.0 120.552439,23.845007,0.0 120.552747,23.845023,0.0 120.553301,23.845053,0.0 120.553541,23.844982,0.0 120.553836,23.844821,0.0 120.554208,23.844548,0.0 120.554473,23.844363,0.0 120.555072,23.843959,0.0 120.555328,23.843885,0.0 120.555518,23.844072,0.0 120.555667,23.844187,0.0 120.556057,23.843976,0.0 120.556487,23.843777,0.0 120.556857,23.843475,0.0 120.557196,23.842927,0.0 120.557443,23.842469,0.0 120.558008,23.842004,0.0 120.55984,23.840963,0.0 120.561482,23.842263,0.0 120.562215,23.843876,0.0 120.560135,23.846164,0.0 120.559036,23.847419,0.0 120.558394,23.848841,0.0 120.55959,23.848356,0.0 120.560207,23.848167,0.0 120.561201,23.848167,0.0 120.562119,23.848051,0.0 120.563404,23.847883,0.0 120.564561,23.847724,0.0 120.56542,23.847598,0.0 120.566385,23.847323,0.0 120.567207,23.847013,0.0 120.568014,23.846672,0.0 120.568859,23.847446,0.0 120.560726,23.851429,0.0 120.553274,23.854222,0.0 120.552618,23.855228,0.0 120.551553,23.857409,0.0 120.549935,23.858452,0.0 120.547375,23.85862,0.0 120.545908,23.861,0.0 120.543772,23.863368,0.0 120.54287,23.864345,0.0 120.541958,23.864908,0.0 120.538065,23.867215,0.0 120.537303,23.86857,0.0</coordinates></LinearRing></outerBoundaryIs></Polygon><styleUrl>#spolygon-map</styleUrl></Placemark><Placemark><Polygon><outerBoundaryIs><LinearRing><coordinates>120.554972,23.869933,0.0 120.552315,23.870373,0.0 120.550102,23.870625,0.0 120.548485,23.870654,0.0 120.547651,23.870545,0.0 120.54848,23.868609,0.0 120.549292,23.867226,0.0 120.5492,23.866321,0.0 120.549786,23.865981,0.0 120.55014,23.865521,0.0 120.550617,23.864963,0.0 120.551675,23.863785,0.0 120.549283,23.864041,0.0 120.545687,23.864558,0.0 120.542821,23.86683,0.0 120.540757,23.8673,0.0 120.537542,23.868174,0.0 120.538482,23.866939,0.0 120.542165,23.864778,0.0 120.543125,23.864134,0.0 120.544153,23.862918,0.0 120.546453,23.860284,0.0 120.547446,23.85859,0.0 120.550002,23.858462,0.0 120.551894,23.856799,0.0 120.552748,23.855029,0.0 120.553789,23.854039,0.0 120.56201,23.85081,0.0 120.569093,23.847208,0.0 120.57071,23.848944,0.0 120.57229,23.850709,0.0 120.57259,23.851529,0.0 120.571203,23.851803,0.0 120.569834,23.852779,0.0 120.56862,23.853658,0.0 120.567737,23.854287,0.0 120.567283,23.854616,0.0 120.566434,23.855354,0.0 120.565617,23.856007,0.0 120.56395,23.857246,0.0 120.563055,23.857897,0.0 120.562142,23.859765,0.0 120.561648,23.860558,0.0 120.55944,23.862177,0.0 120.558129,23.863122,0.0 120.557189,23.863794,0.0 120.556431,23.864369,0.0 120.555858,23.864676,0.0 120.554896,23.864867,0.0 120.554738,23.865361,0.0 120.554834,23.866782,0.0 120.554884,23.867696,0.0 120.554924,23.868397,0.0 120.554968,23.869613,0.0 120.554972,23.869933,0.0</coordinates></LinearRing></outerBoundaryIs></Polygon><styleUrl>#spolygon-map</styleUrl></Placemark><Placemark><Polygon><outerBoundaryIs><LinearRing><coordinates>120.524764,23.86683,0.0 120.524975,23.869121,0.0 120.524635,23.870387,0.0 120.522358,23.87197,0.0 120.52317,23.869774,0.0 120.52437,23.867133,0.0 120.524764,23.86683,0.0</coordinates></LinearRing></outerBoundaryIs></Polygon><styleUrl>#spolygon-map</styleUrl></Placemark><Placemark><Polygon><outerBoundaryIs><LinearRing><coordinates>120.525958,23.872325,0.0 120.524331,23.871638,0.0 120.52529,23.869738,0.0 120.524953,23.868631,0.0 120.524068,23.864756,0.0 120.524346,23.863195,0.0 120.526233,23.86302,0.0 120.528546,23.8635,0.0 120.528774,23.865545,0.0 120.527892,23.868167,0.0 120.526974,23.869211,0.0 120.525786,23.870524,0.0 120.526095,23.871736,0.0 120.525958,23.872325,0.0</coordinates></LinearRing></outerBoundaryIs></Polygon><styleUrl>#spolygon-map</styleUrl></Placemark><Placemark><Polygon><outerBoundaryIs><LinearRing><coordinates>120.528344,23.872411,0.0 120.525958,23.872325,0.0 120.525782,23.870541,0.0 120.526557,23.869206,0.0 120.527741,23.868485,0.0 120.528664,23.866144,0.0 120.528646,23.863788,0.0 120.526924,23.863159,0.0 120.524566,23.863165,0.0 120.523476,23.862947,0.0 120.521847,23.860009,0.0 120.522631,23.858866,0.0 120.52281,23.858609,0.0 120.523205,23.857834,0.0 120.522851,23.856974,0.0 120.522482,23.856048,0.0 120.521824,23.854484,0.0 120.522622,23.853948,0.0 120.523266,23.853477,0.0 120.524341,23.852314,0.0 120.525315,23.851315,0.0 120.526342,23.85026,0.0 120.527011,23.849629,0.0 120.527477,23.848884,0.0 120.527877,23.848319,0.0 120.528513,23.847581,0.0 120.528827,23.846868,0.0 120.529161,23.846571,0.0 120.529902,23.846081,0.0 120.530523,23.84558,0.0 120.530918,23.845127,0.0 120.531083,23.844702,0.0 120.531458,23.844175,0.0 120.531839,23.843647,0.0 120.532216,23.843112,0.0 120.53319,23.842661,0.0 120.535233,23.841582,0.0 120.535407,23.841639,0.0 120.535099,23.842442,0.0 120.534452,23.844113,0.0 120.534007,23.845257,0.0 120.533279,23.846966,0.0 120.532228,23.849392,0.0 120.531123,23.852364,0.0 120.531405,23.852519,0.0 120.532167,23.852532,0.0 120.532862,23.852504,0.0 120.533678,23.852498,0.0 120.534357,23.85247,0.0 120.535047,23.852455,0.0 120.535935,23.852433,0.0 120.536712,23.85235,0.0 120.53744,23.852272,0.0 120.538399,23.852154,0.0 120.538543,23.852574,0.0 120.535539,23.85489,0.0 120.535423,23.858424,0.0 120.533127,23.860906,0.0 120.530844,23.861404,0.0 120.530592,23.864107,0.0 120.530173,23.866161,0.0 120.529398,23.868061,0.0 120.528281,23.869277,0.0 120.528303,23.871651,0.0 120.528344,23.872411,0.0</coordinates></LinearRing></outerBoundaryIs></Polygon><styleUrl>#spolygon-map</styleUrl></Placemark><Placemark><Polygon><outerBoundaryIs><LinearRing><coordinates>120.522125,23.87194,0.0 120.520925,23.872379,0.0 120.519202,23.872914,0.0 120.514013,23.869882,0.0 120.513055,23.868811,0.0 120.511787,23.867398,0.0 120.510647,23.866129,0.0 120.510637,23.865793,0.0 120.511113,23.86527,0.0 120.511462,23.864579,0.0 120.511966,23.864067,0.0 120.512494,23.863767,0.0 120.513154,23.863798,0.0 120.514081,23.863879,0.0 120.514827,23.863917,0.0 120.515255,23.864027,0.0 120.515795,23.86433,0.0 120.516301,23.864568,0.0 120.516872,23.864508,0.0 120.51815,23.864304,0.0 120.518566,23.864173,0.0 120.518931,23.863756,0.0 120.519925,23.862644,0.0 120.520631,23.861831,0.0 120.521598,23.860382,0.0 120.523186,23.862111,0.0 120.523953,23.864298,0.0 120.524016,23.867486,0.0 120.522884,23.870886,0.0 120.522125,23.87194,0.0</coordinates></LinearRing></outerBoundaryIs></Polygon><styleUrl>#spolygon-map</styleUrl></Placemark><Placemark><Polygon><outerBoundaryIs><LinearRing><coordinates>120.541965,23.867363,0.0 120.542121,23.869047,0.0 120.541941,23.870611,0.0 120.540511,23.87083,0.0 120.539372,23.875306,0.0 120.535975,23.874246,0.0 120.532888,23.873762,0.0 120.531831,23.872717,0.0 120.530814,23.872549,0.0 120.529114,23.872434,0.0 120.528239,23.871029,0.0 120.529108,23.86998,0.0 120.530375,23.869747,0.0 120.534529,23.869539,0.0 120.538496,23.868098,0.0 120.541204,23.867466,0.0 120.541965,23.867363,0.0</coordinates></LinearRing></outerBoundaryIs></Polygon><styleUrl>#spolygon-map</styleUrl></Placemark><Placemark><Polygon><outerBoundaryIs><LinearRing><coordinates>120.529744,23.872493,0.0 120.529713,23.87438,0.0 120.527452,23.876,0.0 120.525935,23.875509,0.0 120.525288,23.873103,0.0 120.526812,23.872385,0.0 120.529744,23.872493,0.0</coordinates></LinearRing></outerBoundaryIs></Polygon><styleUrl>#spolygon-map</styleUrl></Placemark><Placemark><Polygon><outerBoundaryIs><LinearRing><coordinates>120.52183,23.875433,0.0 120.517965,23.877285,0.0 120.516191,23.877343,0.0 120.513526,23.877153,0.0 120.51297,23.874921,0.0 120.510883,23.870659,0.0 120.512766,23.870545,0.0 120.513872,23.870167,0.0 120.51546,23.871517,0.0 120.520273,23.87295,0.0 120.521299,23.8722,0.0 120.522088,23.872232,0.0 120.52183,23.875433,0.0</coordinates></LinearRing></outerBoundaryIs></Polygon><styleUrl>#spolygon-map</styleUrl></Placemark><Placemark><Polygon><outerBoundaryIs><LinearRing><coordinates>120.524243,23.872169,0.0 120.524037,23.876189,0.0 120.522442,23.878115,0.0 120.52183,23.875433,0.0 120.522358,23.87197,0.0 120.524243,23.872169,0.0</coordinates></LinearRing></outerBoundaryIs></Polygon><styleUrl>#spolygon-map</styleUrl></Placemark><Placemark><Polygon><outerBoundaryIs><LinearRing><coordinates>120.548169,23.870687,0.0 120.548038,23.871613,0.0 120.547844,23.871662,0.0 120.547567,23.871745,0.0 120.547546,23.871974,0.0 120.547866,23.8724,0.0 120.547976,23.872879,0.0 120.547754,23.873639,0.0 120.547333,23.874106,0.0 120.547305,23.874305,0.0 120.54743,23.87463,0.0 120.547373,23.875274,0.0 120.547324,23.875796,0.0 120.5473,23.876314,0.0 120.547244,23.876708,0.0 120.547213,23.877036,0.0 120.547176,23.877358,0.0 120.547021,23.877684,0.0 120.546882,23.878001,0.0 120.546817,23.878289,0.0 120.546765,23.878571,0.0 120.546726,23.878768,0.0 120.54417,23.876692,0.0 120.541995,23.876329,0.0 120.540424,23.872266,0.0 120.541086,23.87072,0.0 120.541877,23.870019,0.0 120.54207,23.868079,0.0 120.543078,23.866573,0.0 120.546235,23.864319,0.0 120.549539,23.864025,0.0 120.551934,23.864379,0.0 120.550282,23.865046,0.0 120.55014,23.865683,0.0 120.549688,23.865953,0.0 120.549175,23.866466,0.0 120.549022,23.867785,0.0 120.548325,23.869012,0.0 120.547976,23.87056,0.0 120.548169,23.870687,0.0</coordinates></LinearRing></outerBoundaryIs></Polygon><styleUrl>#spolygon-map</styleUrl></Placemark><Placemark><Polygon><outerBoundaryIs><LinearRing><coordinates>120.526656,23.883273,0.0 120.525926,23.88274,0.0 120.524836,23.883246,0.0 120.523931,23.883526,0.0 120.522546,23.882335,0.0 120.523045,23.88074,0.0 120.523733,23.877502,0.0 120.524109,23.874698,0.0 120.524733,23.872222,0.0 120.525295,23.874024,0.0 120.525938,23.877244,0.0 120.527458,23.877755,0.0 120.528224,23.879054,0.0 120.52872,23.880708,0.0 120.526656,23.883273,0.0</coordinates></LinearRing></outerBoundaryIs></Polygon><styleUrl>#spolygon-map</styleUrl></Placemark><Placemark><Polygon><outerBoundaryIs><LinearRing><coordinates>120.538694,23.885033,0.0 120.538355,23.884883,0.0 120.538055,23.884891,0.0 120.537726,23.885108,0.0 120.537498,23.885181,0.0 120.537109,23.88519,0.0 120.536817,23.885135,0.0 120.536288,23.885097,0.0 120.535931,23.885068,0.0 120.535638,23.885014,0.0 120.535281,23.884814,0.0 120.535063,23.884575,0.0 120.534882,23.884371,0.0 120.534615,23.884174,0.0 120.534039,23.884125,0.0 120.53339,23.884148,0.0 120.532823,23.884244,0.0 120.531959,23.884393,0.0 120.531342,23.884343,0.0 120.530525,23.883873,0.0 120.529381,23.883507,0.0 120.528211,23.883192,0.0 120.527675,23.883151,0.0 120.527129,23.883294,0.0 120.526696,23.883294,0.0 120.52872,23.880708,0.0 120.528224,23.879054,0.0 120.527458,23.877755,0.0 120.52745,23.874846,0.0 120.529716,23.873439,0.0 120.530397,23.872537,0.0 120.531333,23.872746,0.0 120.532912,23.872887,0.0 120.533241,23.87409,0.0 120.538202,23.874795,0.0 120.541255,23.876105,0.0 120.543475,23.87658,0.0 120.545629,23.878085,0.0 120.546711,23.878869,0.0 120.546672,23.879159,0.0 120.546578,23.879439,0.0 120.546402,23.8798,0.0 120.546156,23.88029,0.0 120.545966,23.880739,0.0 120.545885,23.880989,0.0 120.545774,23.881348,0.0 120.545695,23.8816,0.0 120.545569,23.881818,0.0 120.545389,23.882173,0.0 120.54517,23.882463,0.0 120.544815,23.882766,0.0 120.544402,23.882997,0.0 120.544066,23.883136,0.0 120.543807,23.883221,0.0 120.543536,23.883392,0.0 120.543161,23.883699,0.0 120.542979,23.883777,0.0 120.54259,23.883902,0.0 120.542326,23.883993,0.0 120.542099,23.884064,0.0 120.541853,23.884184,0.0 120.541471,23.884381,0.0 120.541294,23.884544,0.0 120.540961,23.884697,0.0 120.540542,23.884737,0.0 120.540245,23.884788,0.0 120.539801,23.884864,0.0 120.539311,23.884955,0.0 120.538892,23.885027,0.0 120.538694,23.885033,0.0</coordinates></LinearRing></outerBoundaryIs></Polygon><styleUrl>#spolygon-map</styleUrl></Placemark><Placemark><Polygon><outerBoundaryIs><LinearRing><coordinates>120.515779,23.890001,0.0 120.515254,23.890364,0.0 120.514428,23.890668,0.0 120.513646,23.890983,0.0 120.51288,23.891411,0.0 120.511575,23.892097,0.0 120.51104,23.892311,0.0 120.510264,23.892623,0.0 120.509756,23.892506,0.0 120.509772,23.89175,0.0 120.508901,23.889205,0.0 120.507487,23.884811,0.0 120.508697,23.883859,0.0 120.511385,23.883756,0.0 120.512352,23.880438,0.0 120.513176,23.878165,0.0 120.516191,23.877343,0.0 120.517965,23.877285,0.0 120.52183,23.875433,0.0 120.522442,23.878115,0.0 120.523007,23.880975,0.0 120.522819,23.882911,0.0 120.522456,23.884287,0.0 120.52193,23.884937,0.0 120.521396,23.885632,0.0 120.520859,23.885918,0.0 120.520669,23.886608,0.0 120.520553,23.887109,0.0 120.520207,23.887628,0.0 120.519826,23.888036,0.0 120.519413,23.888166,0.0 120.518791,23.888232,0.0 120.518323,23.888193,0.0 120.517869,23.888396,0.0 120.517365,23.888668,0.0 120.516882,23.889038,0.0 120.516318,23.889502,0.0 120.515779,23.890001,0.0</coordinates></LinearRing></outerBoundaryIs></Polygon><styleUrl>#spolygon-map</styleUrl></Placemark><Placemark><Polygon><outerBoundaryIs><LinearRing><coordinates>120.509726,23.892851,0.0 120.508917,23.89315,0.0 120.507974,23.893315,0.0 120.505877,23.893608,0.0 120.503771,23.894136,0.0 120.501836,23.893948,0.0 120.501066,23.894222,0.0 120.500079,23.894961,0.0 120.500387,23.893898,0.0 120.500365,23.892901,0.0 120.499517,23.891032,0.0 120.499104,23.889892,0.0 120.499313,23.887073,0.0 120.49957,23.883812,0.0 120.500032,23.882043,0.0 120.501498,23.880373,0.0 120.501944,23.879273,0.0 120.502025,23.878469,0.0 120.502263,23.875741,0.0 120.502968,23.874857,0.0 120.504164,23.874364,0.0 120.505618,23.872782,0.0 120.506691,23.871543,0.0 120.507591,23.870933,0.0 120.508306,23.870768,0.0 120.509119,23.870733,0.0 120.510391,23.870679,0.0 120.513583,23.876141,0.0 120.51365,23.877214,0.0 120.513426,23.878035,0.0 120.512629,23.879555,0.0 120.511427,23.883724,0.0 120.50883,23.883661,0.0 120.507567,23.884052,0.0 120.508619,23.888056,0.0 120.509736,23.891521,0.0 120.509725,23.892394,0.0 120.509726,23.892851,0.0</coordinates></LinearRing></outerBoundaryIs></Polygon><styleUrl>#spolygon-map</styleUrl></Placemark></Document>
</kml>
