<?xml version="1.0" encoding="UTF-8"?>
<kml xmlns="http://www.opengis.net/kml/2.2">
	<Document>
		<name>新北市淡水區</name>
		<Style id="spolygon">
			<LabelStyle>
				<scale>0.0</scale>
			</LabelStyle>
			<LineStyle>
				<color>330030ff</color>
				<width>0</width>
			</LineStyle>
			<PolyStyle>
				<color>330030ff</color>
			</PolyStyle>
		</Style>
		<StyleMap id="spolygon-map">
			<Pair>
				<key>normal</key>
				<styleUrl>#spolygon</styleUrl>
			</Pair>
		</StyleMap>
	<Placemark><Polygon><outerBoundaryIs><LinearRing><coordinates>121.482398,25.234762,0.0 121.481912,25.234999,0.0 121.480123,25.235436,0.0 121.47889,25.235882,0.0 121.477518,25.234725,0.0 121.477059,25.234552,0.0 121.476708,25.234301,0.0 121.47602,25.233752,0.0 121.475634,25.233213,0.0 121.47535,25.232953,0.0 121.475381,25.232336,0.0 121.475194,25.232221,0.0 121.474987,25.232315,0.0 121.474648,25.232175,0.0 121.474521,25.231764,0.0 121.474678,25.231706,0.0 121.474753,25.231635,0.0 121.474891,25.231484,0.0 121.474607,25.230893,0.0 121.476371,25.229766,0.0 121.476832,25.229385,0.0 121.478142,25.228704,0.0 121.478526,25.228057,0.0 121.479484,25.227259,0.0 121.480771,25.226762,0.0 121.481433,25.22619,0.0 121.482571,25.225625,0.0 121.482853,25.225253,0.0 121.483651,25.22487,0.0 121.4839,25.223847,0.0 121.484274,25.223858,0.0 121.484689,25.22372,0.0 121.485407,25.223298,0.0 121.486222,25.223037,0.0 121.487284,25.222376,0.0 121.488535,25.221605,0.0 121.489327,25.221232,0.0 121.489791,25.220565,0.0 121.490183,25.220346,0.0 121.490799,25.220292,0.0 121.491355,25.219806,0.0 121.49204,25.218795,0.0 121.492721,25.218265,0.0 121.493275,25.217891,0.0 121.494424,25.217699,0.0 121.495635,25.217195,0.0 121.496978,25.216694,0.0 121.497953,25.216321,0.0 121.498483,25.215887,0.0 121.4983,25.216326,0.0 121.497813,25.216869,0.0 121.497658,25.217343,0.0 121.497323,25.217831,0.0 121.497203,25.217987,0.0 121.496953,25.218138,0.0 121.496936,25.218405,0.0 121.49653,25.219037,0.0 121.496364,25.219758,0.0 121.496206,25.220313,0.0 121.496264,25.220721,0.0 121.496378,25.221313,0.0 121.496241,25.221944,0.0 121.496618,25.222087,0.0 121.497142,25.221797,0.0 121.497442,25.221398,0.0 121.497773,25.220999,0.0 121.498113,25.220819,0.0 121.498619,25.22081,0.0 121.498624,25.221251,0.0 121.498349,25.221646,0.0 121.498307,25.222051,0.0 121.498871,25.221783,0.0 121.499575,25.221795,0.0 121.500148,25.221604,0.0 121.500648,25.221972,0.0 121.501141,25.222852,0.0 121.50143,25.223569,0.0 121.501603,25.223886,0.0 121.501344,25.22422,0.0 121.50118,25.22441,0.0 121.501036,25.224536,0.0 121.50094,25.224558,0.0 121.500244,25.225065,0.0 121.49957,25.225334,0.0 121.498836,25.22535,0.0 121.497923,25.225282,0.0 121.497237,25.225504,0.0 121.49668,25.225965,0.0 121.496342,25.226643,0.0 121.496395,25.227319,0.0 121.496715,25.228038,0.0 121.497243,25.228754,0.0 121.497615,25.229557,0.0 121.496922,25.23011,0.0 121.496196,25.23063,0.0 121.49546,25.230863,0.0 121.494583,25.231082,0.0 121.494142,25.231254,0.0 121.49286,25.23174,0.0 121.492134,25.231966,0.0 121.491324,25.231951,0.0 121.490324,25.231783,0.0 121.489689,25.231835,0.0 121.488916,25.23205,0.0 121.487878,25.232526,0.0 121.486998,25.232909,0.0 121.48618,25.233196,0.0 121.485367,25.233435,0.0 121.484733,25.233741,0.0 121.483504,25.234328,0.0 121.48264,25.234649,0.0 121.482398,25.234762,0.0</coordinates></LinearRing></outerBoundaryIs></Polygon><styleUrl>#spolygon-map</styleUrl></Placemark><Placemark><Polygon><outerBoundaryIs><LinearRing><coordinates>121.451645,25.244187,0.0 121.451336,25.244336,0.0 121.451013,25.24423,0.0 121.450402,25.244329,0.0 121.450037,25.244242,0.0 121.449775,25.244185,0.0 121.44957,25.243917,0.0 121.448861,25.243695,0.0 121.448097,25.243337,0.0 121.447723,25.242828,0.0 121.447545,25.242565,0.0 121.447131,25.241349,0.0 121.44637,25.240108,0.0 121.445678,25.238695,0.0 121.445036,25.237115,0.0 121.44634,25.236024,0.0 121.447342,25.235904,0.0 121.448051,25.235744,0.0 121.449009,25.23597,0.0 121.45008,25.235877,0.0 121.450959,25.235674,0.0 121.452007,25.235511,0.0 121.453433,25.23583,0.0 121.454853,25.236215,0.0 121.456197,25.235875,0.0 121.4561,25.234784,0.0 121.457567,25.23395,0.0 121.45888,25.233657,0.0 121.46016,25.234074,0.0 121.460972,25.234771,0.0 121.461954,25.235212,0.0 121.463692,25.234769,0.0 121.465277,25.234611,0.0 121.467303,25.233276,0.0 121.468178,25.232824,0.0 121.468949,25.232527,0.0 121.469573,25.232028,0.0 121.469875,25.231774,0.0 121.470363,25.231614,0.0 121.470677,25.231387,0.0 121.471091,25.231019,0.0 121.471934,25.23037,0.0 121.473144,25.22976,0.0 121.474983,25.231403,0.0 121.474844,25.231537,0.0 121.474711,25.231695,0.0 121.474598,25.231688,0.0 121.474579,25.23204,0.0 121.474818,25.232276,0.0 121.475078,25.232291,0.0 121.475305,25.232234,0.0 121.47543,25.2328,0.0 121.475398,25.233055,0.0 121.475759,25.233412,0.0 121.476252,25.233933,0.0 121.476848,25.234357,0.0 121.477343,25.234724,0.0 121.477629,25.234875,0.0 121.478101,25.236266,0.0 121.477053,25.236865,0.0 121.476207,25.237249,0.0 121.475421,25.237616,0.0 121.474823,25.237784,0.0 121.474395,25.237749,0.0 121.473595,25.237506,0.0 121.473379,25.237826,0.0 121.47311,25.238212,0.0 121.472322,25.238556,0.0 121.471523,25.238811,0.0 121.470984,25.238871,0.0 121.469945,25.239461,0.0 121.469257,25.239882,0.0 121.469029,25.2396,0.0 121.468838,25.239272,0.0 121.468667,25.239017,0.0 121.468559,25.238987,0.0 121.468507,25.238951,0.0 121.468338,25.238761,0.0 121.468285,25.238672,0.0 121.468232,25.238611,0.0 121.468104,25.238743,0.0 121.467685,25.2392,0.0 121.467079,25.239182,0.0 121.466495,25.239198,0.0 121.465919,25.239059,0.0 121.465497,25.239133,0.0 121.465344,25.239265,0.0 121.464552,25.239324,0.0 121.464213,25.239076,0.0 121.463835,25.239108,0.0 121.46368,25.239132,0.0 121.463352,25.239266,0.0 121.462896,25.239482,0.0 121.462524,25.239678,0.0 121.461955,25.239956,0.0 121.461361,25.240167,0.0 121.46101,25.239992,0.0 121.460686,25.23988,0.0 121.460004,25.240075,0.0 121.459423,25.240203,0.0 121.458958,25.240268,0.0 121.45848,25.240432,0.0 121.457694,25.240996,0.0 121.45748,25.24157,0.0 121.457483,25.242433,0.0 121.456954,25.243141,0.0 121.455568,25.243175,0.0 121.45486,25.243942,0.0 121.45439,25.243953,0.0 121.453768,25.244009,0.0 121.45334,25.244177,0.0 121.452731,25.244198,0.0 121.452524,25.244103,0.0 121.45202,25.244112,0.0 121.451645,25.244187,0.0</coordinates></LinearRing></outerBoundaryIs></Polygon><styleUrl>#spolygon-map</styleUrl></Placemark><Placemark><Polygon><outerBoundaryIs><LinearRing><coordinates>121.456418,25.235545,0.0 121.455864,25.236132,0.0 121.454149,25.236086,0.0 121.452801,25.23569,0.0 121.451655,25.235556,0.0 121.450796,25.235714,0.0 121.449609,25.235969,0.0 121.448754,25.235932,0.0 121.447896,25.235778,0.0 121.446966,25.23598,0.0 121.445371,25.235714,0.0 121.444485,25.233559,0.0 121.445787,25.232366,0.0 121.446442,25.232105,0.0 121.44349,25.231402,0.0 121.442061,25.229423,0.0 121.441211,25.228699,0.0 121.440624,25.227534,0.0 121.44014,25.226092,0.0 121.441564,25.225279,0.0 121.44271,25.225215,0.0 121.443591,25.225337,0.0 121.443991,25.224709,0.0 121.444735,25.224502,0.0 121.445102,25.224333,0.0 121.445313,25.223999,0.0 121.445608,25.223628,0.0 121.445897,25.223728,0.0 121.446323,25.224029,0.0 121.446481,25.224079,0.0 121.446625,25.223879,0.0 121.446835,25.223607,0.0 121.446837,25.223311,0.0 121.446904,25.223247,0.0 121.447225,25.22339,0.0 121.447495,25.223465,0.0 121.447785,25.223125,0.0 121.448019,25.222939,0.0 121.448278,25.222877,0.0 121.448596,25.222946,0.0 121.448879,25.222833,0.0 121.449229,25.22275,0.0 121.449322,25.222913,0.0 121.449443,25.222966,0.0 121.449686,25.222803,0.0 121.450021,25.222694,0.0 121.450264,25.222697,0.0 121.450363,25.222954,0.0 121.450835,25.223091,0.0 121.451461,25.223018,0.0 121.452317,25.223114,0.0 121.452609,25.222945,0.0 121.45284,25.223023,0.0 121.453023,25.223153,0.0 121.453219,25.223288,0.0 121.453376,25.223325,0.0 121.453649,25.223349,0.0 121.453935,25.223448,0.0 121.45432,25.223404,0.0 121.454527,25.223497,0.0 121.454637,25.223431,0.0 121.454674,25.223569,0.0 121.454883,25.223606,0.0 121.455181,25.223602,0.0 121.455651,25.223476,0.0 121.455945,25.223557,0.0 121.456193,25.223439,0.0 121.456649,25.223217,0.0 121.456979,25.223425,0.0 121.457167,25.223464,0.0 121.45735,25.223249,0.0 121.457374,25.223078,0.0 121.457674,25.222998,0.0 121.458046,25.222886,0.0 121.458293,25.222922,0.0 121.458617,25.22302,0.0 121.458942,25.223086,0.0 121.459237,25.222966,0.0 121.459558,25.222975,0.0 121.459781,25.222867,0.0 121.459998,25.222926,0.0 121.460211,25.223176,0.0 121.460698,25.223216,0.0 121.461035,25.223267,0.0 121.461354,25.223233,0.0 121.461706,25.223445,0.0 121.462203,25.223441,0.0 121.4624,25.223581,0.0 121.462984,25.223457,0.0 121.463275,25.223275,0.0 121.463589,25.22325,0.0 121.46381,25.223068,0.0 121.464945,25.223118,0.0 121.466831,25.222272,0.0 121.469441,25.22161,0.0 121.470047,25.222225,0.0 121.470038,25.223103,0.0 121.470183,25.223396,0.0 121.47063,25.223459,0.0 121.471215,25.223268,0.0 121.471896,25.223045,0.0 121.472547,25.222765,0.0 121.473079,25.222728,0.0 121.476932,25.223229,0.0 121.477461,25.223792,0.0 121.477714,25.224495,0.0 121.47841,25.224423,0.0 121.479143,25.224157,0.0 121.479857,25.22408,0.0 121.480795,25.224248,0.0 121.481347,25.224555,0.0 121.481893,25.224567,0.0 121.48237,25.224283,0.0 121.483063,25.224028,0.0 121.483544,25.22392,0.0 121.483745,25.224792,0.0 121.482927,25.225238,0.0 121.482629,25.225547,0.0 121.481559,25.2261,0.0 121.480871,25.226702,0.0 121.47958,25.227196,0.0 121.478616,25.227964,0.0 121.478183,25.228655,0.0 121.477092,25.229224,0.0 121.476419,25.229725,0.0 121.475296,25.230461,0.0 121.472737,25.229922,0.0 121.47166,25.230544,0.0 121.470851,25.231203,0.0 121.470634,25.231438,0.0 121.470204,25.23167,0.0 121.469708,25.231899,0.0 121.469463,25.23213,0.0 121.468792,25.232626,0.0 121.467725,25.233006,0.0 121.467135,25.233363,0.0 121.464777,25.23458,0.0 121.463024,25.234931,0.0 121.461632,25.235187,0.0 121.46059,25.234514,0.0 121.459499,25.233418,0.0 121.458493,25.233871,0.0 121.456277,25.234306,0.0 121.456418,25.235545,0.0</coordinates></LinearRing></outerBoundaryIs></Polygon><styleUrl>#spolygon-map</styleUrl></Placemark><Placemark><Polygon><outerBoundaryIs><LinearRing><coordinates>121.441964,25.225218,0.0 121.440025,25.225859,0.0 121.439712,25.225568,0.0 121.439661,25.223548,0.0 121.440705,25.222972,0.0 121.440559,25.220885,0.0 121.439191,25.218826,0.0 121.43721,25.216179,0.0 121.43815,25.2158,0.0 121.438974,25.215302,0.0 121.439571,25.215374,0.0 121.440295,25.215749,0.0 121.440835,25.215868,0.0 121.440992,25.216,0.0 121.441133,25.215865,0.0 121.441049,25.215584,0.0 121.440733,25.215521,0.0 121.440576,25.215439,0.0 121.440504,25.214999,0.0 121.440658,25.214862,0.0 121.440842,25.214774,0.0 121.440893,25.214672,0.0 121.440918,25.214517,0.0 121.440773,25.214292,0.0 121.440816,25.214155,0.0 121.441169,25.214116,0.0 121.441328,25.213983,0.0 121.441529,25.214013,0.0 121.441492,25.214365,0.0 121.441551,25.214566,0.0 121.441838,25.2147,0.0 121.441978,25.215011,0.0 121.442304,25.215083,0.0 121.442583,25.215172,0.0 121.442824,25.21516,0.0 121.4434,25.214993,0.0 121.444017,25.214823,0.0 121.444662,25.214671,0.0 121.445295,25.214739,0.0 121.445853,25.214604,0.0 121.446637,25.214137,0.0 121.44707,25.214066,0.0 121.447439,25.21412,0.0 121.447955,25.214172,0.0 121.448582,25.214551,0.0 121.448786,25.21464,0.0 121.448814,25.214551,0.0 121.449023,25.21425,0.0 121.449356,25.214123,0.0 121.449982,25.214366,0.0 121.450345,25.214504,0.0 121.450628,25.214588,0.0 121.45083,25.214684,0.0 121.451055,25.214769,0.0 121.451278,25.21483,0.0 121.45163,25.214621,0.0 121.451924,25.214435,0.0 121.451992,25.214214,0.0 121.452078,25.214098,0.0 121.452379,25.214087,0.0 121.452548,25.214226,0.0 121.452544,25.214395,0.0 121.452469,25.214719,0.0 121.452596,25.214876,0.0 121.452998,25.215035,0.0 121.453643,25.21522,0.0 121.454023,25.215351,0.0 121.45433,25.215502,0.0 121.454368,25.215758,0.0 121.45475,25.21564,0.0 121.455236,25.215272,0.0 121.455845,25.214912,0.0 121.456093,25.21471,0.0 121.456251,25.21451,0.0 121.456609,25.214378,0.0 121.456775,25.21434,0.0 121.4566,25.214158,0.0 121.456452,25.213929,0.0 121.456416,25.213724,0.0 121.456466,25.21331,0.0 121.456684,25.212788,0.0 121.456705,25.212267,0.0 121.457004,25.212107,0.0 121.457349,25.211695,0.0 121.457866,25.211316,0.0 121.458318,25.211017,0.0 121.458734,25.210719,0.0 121.459344,25.210351,0.0 121.460225,25.21014,0.0 121.460853,25.209845,0.0 121.461276,25.209709,0.0 121.461912,25.209666,0.0 121.462911,25.209447,0.0 121.463411,25.209293,0.0 121.464179,25.209149,0.0 121.464729,25.208969,0.0 121.465155,25.209002,0.0 121.465694,25.208902,0.0 121.466441,25.208601,0.0 121.466723,25.208352,0.0 121.466911,25.207991,0.0 121.46743,25.207602,0.0 121.468035,25.207223,0.0 121.468722,25.206894,0.0 121.469508,25.206724,0.0 121.470105,25.206556,0.0 121.470743,25.20617,0.0 121.471981,25.205924,0.0 121.472351,25.205972,0.0 121.473687,25.206644,0.0 121.473607,25.20685,0.0 121.473454,25.207278,0.0 121.473163,25.207376,0.0 121.474902,25.211708,0.0 121.474829,25.212007,0.0 121.474422,25.212271,0.0 121.473655,25.212538,0.0 121.473082,25.212822,0.0 121.472779,25.212986,0.0 121.473696,25.214305,0.0 121.473884,25.214542,0.0 121.474197,25.214719,0.0 121.474256,25.21481,0.0 121.474064,25.215087,0.0 121.473586,25.215463,0.0 121.473299,25.215782,0.0 121.47274,25.216045,0.0 121.471997,25.215831,0.0 121.471329,25.215831,0.0 121.471096,25.216521,0.0 121.47004,25.216704,0.0 121.469981,25.217522,0.0 121.470601,25.217782,0.0 121.47135,25.218034,0.0 121.471827,25.218198,0.0 121.471751,25.218733,0.0 121.471358,25.218963,0.0 121.470932,25.219217,0.0 121.470304,25.219609,0.0 121.470139,25.21995,0.0 121.469833,25.220135,0.0 121.469542,25.220221,0.0 121.469549,25.220656,0.0 121.469692,25.221215,0.0 121.468782,25.221714,0.0 121.466001,25.222508,0.0 121.464481,25.22335,0.0 121.4637,25.223186,0.0 121.463436,25.223255,0.0 121.463128,25.223354,0.0 121.46271,25.223472,0.0 121.4623,25.223521,0.0 121.461984,25.223463,0.0 121.461552,25.223408,0.0 121.461213,25.223169,0.0 121.460873,25.223304,0.0 121.46046,25.223163,0.0 121.460116,25.223137,0.0 121.45991,25.22284,0.0 121.459726,25.222959,0.0 121.459406,25.222992,0.0 121.459066,25.223037,0.0 121.458793,25.223053,0.0 121.458487,25.223029,0.0 121.458102,25.222883,0.0 121.457802,25.223062,0.0 121.457447,25.222988,0.0 121.457272,25.223197,0.0 121.45729,25.223353,0.0 121.457081,25.22345,0.0 121.456787,25.223253,0.0 121.456383,25.223395,0.0 121.456028,25.223474,0.0 121.455858,25.223545,0.0 121.45544,25.223518,0.0 121.454948,25.223657,0.0 121.45483,25.223573,0.0 121.454675,25.223467,0.0 121.454608,25.223482,0.0 121.454412,25.223447,0.0 121.454159,25.223473,0.0 121.453832,25.223375,0.0 121.453493,25.223329,0.0 121.4533,25.223292,0.0 121.4531,25.223211,0.0 121.452988,25.223089,0.0 121.45275,25.222953,0.0 121.452425,25.223058,0.0 121.451947,25.223018,0.0 121.451202,25.22311,0.0 121.450605,25.223148,0.0 121.450322,25.22275,0.0 121.450168,25.222677,0.0 121.449838,25.222745,0.0 121.449545,25.222899,0.0 121.449399,25.222964,0.0 121.449231,25.222858,0.0 121.448958,25.222771,0.0 121.448731,25.222922,0.0 121.448432,25.222923,0.0 121.448146,25.222891,0.0 121.447889,25.222997,0.0 121.447617,25.223381,0.0 121.447389,25.22345,0.0 121.446988,25.223274,0.0 121.446863,25.223247,0.0 121.446843,25.223506,0.0 121.446679,25.223744,0.0 121.446578,25.223989,0.0 121.446413,25.224098,0.0 121.446117,25.223871,0.0 121.445678,25.223629,0.0 121.44547,25.223741,0.0 121.445164,25.224219,0.0 121.444904,25.224438,0.0 121.444254,25.224614,0.0 121.443836,25.225043,0.0 121.443356,25.225347,0.0 121.442161,25.225192,0.0 121.441964,25.225218,0.0</coordinates></LinearRing></outerBoundaryIs></Polygon><styleUrl>#spolygon-map</styleUrl></Placemark><Placemark><Polygon><outerBoundaryIs><LinearRing><coordinates>121.47962,25.224091,0.0 121.479004,25.224197,0.0 121.478256,25.224496,0.0 121.477714,25.224344,0.0 121.477419,25.223759,0.0 121.473959,25.223053,0.0 121.472989,25.222691,0.0 121.472457,25.22277,0.0 121.471775,25.22306,0.0 121.471124,25.223313,0.0 121.470567,25.223445,0.0 121.47011,25.223391,0.0 121.470075,25.222985,0.0 121.47003,25.222139,0.0 121.469667,25.220952,0.0 121.469501,25.220482,0.0 121.469625,25.220127,0.0 121.470017,25.220166,0.0 121.470211,25.219767,0.0 121.470504,25.219459,0.0 121.471076,25.219169,0.0 121.471489,25.218844,0.0 121.47188,25.218686,0.0 121.471751,25.218126,0.0 121.471218,25.217997,0.0 121.470333,25.217728,0.0 121.469682,25.217278,0.0 121.470295,25.21671,0.0 121.471198,25.216249,0.0 121.471555,25.215792,0.0 121.472497,25.215996,0.0 121.472891,25.215996,0.0 121.473408,25.215634,0.0 121.473686,25.215377,0.0 121.474182,25.214964,0.0 121.474256,25.214772,0.0 121.474065,25.214686,0.0 121.47383,25.214442,0.0 121.472979,25.213081,0.0 121.472785,25.212917,0.0 121.473281,25.212717,0.0 121.473974,25.212417,0.0 121.474692,25.212256,0.0 121.475214,25.212061,0.0 121.475802,25.211709,0.0 121.476424,25.211265,0.0 121.476906,25.211059,0.0 121.477559,25.210665,0.0 121.478162,25.210381,0.0 121.478719,25.210028,0.0 121.479273,25.209578,0.0 121.479788,25.209208,0.0 121.480083,25.209183,0.0 121.480483,25.209027,0.0 121.481304,25.208142,0.0 121.483001,25.207039,0.0 121.482259,25.205655,0.0 121.483602,25.205458,0.0 121.48513,25.205407,0.0 121.485594,25.20554,0.0 121.486361,25.206097,0.0 121.486332,25.206443,0.0 121.48622,25.206713,0.0 121.486334,25.20715,0.0 121.486143,25.20745,0.0 121.485379,25.20804,0.0 121.48514,25.20847,0.0 121.485576,25.209223,0.0 121.486001,25.209975,0.0 121.486432,25.210648,0.0 121.486741,25.211316,0.0 121.487771,25.211407,0.0 121.48856,25.211102,0.0 121.489067,25.210972,0.0 121.490768,25.211206,0.0 121.490963,25.211224,0.0 121.491147,25.211368,0.0 121.491164,25.211463,0.0 121.491181,25.211727,0.0 121.491264,25.212425,0.0 121.491539,25.212898,0.0 121.492655,25.212226,0.0 121.492992,25.211982,0.0 121.493275,25.212312,0.0 121.493927,25.212966,0.0 121.494551,25.213371,0.0 121.495392,25.213886,0.0 121.495722,25.214278,0.0 121.496285,25.214381,0.0 121.496919,25.214079,0.0 121.497523,25.213778,0.0 121.49768,25.213938,0.0 121.497646,25.214419,0.0 121.49799,25.215052,0.0 121.498398,25.215749,0.0 121.497724,25.216445,0.0 121.496816,25.216775,0.0 121.495544,25.217231,0.0 121.494305,25.217739,0.0 121.493188,25.217904,0.0 121.492609,25.218363,0.0 121.491934,25.218933,0.0 121.491282,25.219922,0.0 121.490712,25.220322,0.0 121.490118,25.220356,0.0 121.489766,25.220606,0.0 121.489222,25.221316,0.0 121.488283,25.221743,0.0 121.487053,25.222513,0.0 121.48607,25.22311,0.0 121.485333,25.223334,0.0 121.484645,25.22374,0.0 121.484218,25.223866,0.0 121.483844,25.223847,0.0 121.483407,25.223964,0.0 121.48283,25.224114,0.0 121.482124,25.224486,0.0 121.481722,25.224579,0.0 121.48117,25.224476,0.0 121.480552,25.224157,0.0 121.47962,25.224091,0.0</coordinates></LinearRing></outerBoundaryIs></Polygon><styleUrl>#spolygon-map</styleUrl></Placemark><Placemark><Polygon><outerBoundaryIs><LinearRing><coordinates>121.43721,25.216179,0.0 121.434292,25.216425,0.0 121.432888,25.214816,0.0 121.432262,25.213698,0.0 121.429127,25.209358,0.0 121.429345,25.208866,0.0 121.42955,25.208586,0.0 121.42963,25.208505,0.0 121.429756,25.208391,0.0 121.429886,25.208253,0.0 121.430008,25.208134,0.0 121.430226,25.207963,0.0 121.430437,25.207845,0.0 121.43073,25.20771,0.0 121.431089,25.207537,0.0 121.43125,25.207423,0.0 121.431562,25.207248,0.0 121.431758,25.207097,0.0 121.431882,25.206896,0.0 121.432044,25.206717,0.0 121.432167,25.206648,0.0 121.432313,25.206671,0.0 121.432541,25.206967,0.0 121.432947,25.207129,0.0 121.43335,25.207126,0.0 121.43364,25.206903,0.0 121.434199,25.206682,0.0 121.434236,25.206039,0.0 121.433771,25.205818,0.0 121.433674,25.205572,0.0 121.434048,25.2052,0.0 121.434283,25.205005,0.0 121.434796,25.205342,0.0 121.435085,25.205622,0.0 121.435235,25.205811,0.0 121.435585,25.205576,0.0 121.436237,25.205279,0.0 121.436515,25.205769,0.0 121.436828,25.2057,0.0 121.436996,25.205005,0.0 121.437332,25.204379,0.0 121.437729,25.204277,0.0 121.437879,25.204381,0.0 121.437962,25.204714,0.0 121.438185,25.204948,0.0 121.438442,25.205027,0.0 121.438593,25.205134,0.0 121.439037,25.205077,0.0 121.439473,25.205073,0.0 121.439518,25.204837,0.0 121.439872,25.204521,0.0 121.439662,25.204107,0.0 121.439752,25.203801,0.0 121.439934,25.203795,0.0 121.440058,25.203825,0.0 121.44021,25.203839,0.0 121.440364,25.203826,0.0 121.440442,25.203733,0.0 121.440489,25.20359,0.0 121.440568,25.203548,0.0 121.440551,25.203489,0.0 121.440437,25.203427,0.0 121.440409,25.203251,0.0 121.440362,25.203073,0.0 121.440301,25.202917,0.0 121.440309,25.202784,0.0 121.440441,25.202694,0.0 121.440594,25.20269,0.0 121.440792,25.20268,0.0 121.440941,25.202684,0.0 121.441072,25.202717,0.0 121.441218,25.202741,0.0 121.441368,25.202793,0.0 121.441518,25.202783,0.0 121.441679,25.202757,0.0 121.441858,25.202725,0.0 121.442053,25.2027,0.0 121.442213,25.202665,0.0 121.442379,25.202639,0.0 121.442516,25.202672,0.0 121.442675,25.202802,0.0 121.442808,25.202953,0.0 121.442946,25.203051,0.0 121.443062,25.203056,0.0 121.44319,25.202982,0.0 121.443312,25.202888,0.0 121.443476,25.202766,0.0 121.443618,25.202627,0.0 121.443747,25.202571,0.0 121.443928,25.202555,0.0 121.445006,25.201178,0.0 121.445967,25.199947,0.0 121.446242,25.199716,0.0 121.446751,25.199577,0.0 121.447843,25.198788,0.0 121.449117,25.198995,0.0 121.45072,25.198923,0.0 121.451769,25.198972,0.0 121.452065,25.19956,0.0 121.451343,25.199613,0.0 121.450668,25.200234,0.0 121.450802,25.200404,0.0 121.450931,25.200591,0.0 121.451239,25.200801,0.0 121.451426,25.201161,0.0 121.451792,25.201409,0.0 121.452207,25.201543,0.0 121.452506,25.201682,0.0 121.452598,25.201447,0.0 121.454699,25.199779,0.0 121.455469,25.200141,0.0 121.456555,25.20026,0.0 121.457029,25.200518,0.0 121.457044,25.200799,0.0 121.457142,25.20106,0.0 121.457249,25.201186,0.0 121.457559,25.202876,0.0 121.457738,25.202873,0.0 121.457903,25.202894,0.0 121.458124,25.202915,0.0 121.45831,25.202927,0.0 121.458687,25.202959,0.0 121.458718,25.203264,0.0 121.45895,25.205173,0.0 121.458604,25.205127,0.0 121.458135,25.205147,0.0 121.457526,25.205338,0.0 121.456377,25.208454,0.0 121.456378,25.208781,0.0 121.456251,25.208968,0.0 121.455982,25.208898,0.0 121.455844,25.208914,0.0 121.455712,25.208916,0.0 121.455541,25.208945,0.0 121.455442,25.209032,0.0 121.455345,25.209122,0.0 121.455252,25.209208,0.0 121.455201,25.209343,0.0 121.455049,25.209377,0.0 121.45488,25.209347,0.0 121.454729,25.209401,0.0 121.454604,25.209504,0.0 121.454529,25.209603,0.0 121.454376,25.20959,0.0 121.454209,25.20959,0.0 121.454043,25.209561,0.0 121.453948,25.209447,0.0 121.453918,25.209342,0.0 121.453792,25.209289,0.0 121.453745,25.209384,0.0 121.453656,25.209453,0.0 121.453484,25.209482,0.0 121.453367,25.209481,0.0 121.453173,25.209539,0.0 121.45301,25.209623,0.0 121.452869,25.209617,0.0 121.45282,25.209528,0.0 121.452731,25.209453,0.0 121.452494,25.209722,0.0 121.45224,25.209954,0.0 121.452038,25.210114,0.0 121.451477,25.21047,0.0 121.450947,25.210922,0.0 121.451088,25.211495,0.0 121.451165,25.211711,0.0 121.450916,25.21215,0.0 121.450934,25.212389,0.0 121.450658,25.212479,0.0 121.450909,25.212807,0.0 121.451394,25.214806,0.0 121.451131,25.214793,0.0 121.450943,25.21472,0.0 121.450738,25.214614,0.0 121.450461,25.214553,0.0 121.450079,25.214416,0.0 121.44964,25.214152,0.0 121.449232,25.214143,0.0 121.448848,25.214447,0.0 121.448808,25.214619,0.0 121.448691,25.214642,0.0 121.448376,25.214372,0.0 121.447643,25.214081,0.0 121.447269,25.214128,0.0 121.446875,25.214036,0.0 121.446165,25.21441,0.0 121.445582,25.214703,0.0 121.444961,25.214675,0.0 121.44432,25.214726,0.0 121.443818,25.214869,0.0 121.443001,25.215103,0.0 121.442681,25.215193,0.0 121.442439,25.21512,0.0 121.442123,25.215058,0.0 121.441882,25.214887,0.0 121.44178,25.214655,0.0 121.441489,25.214487,0.0 121.441555,25.214098,0.0 121.441422,25.213958,0.0 121.441283,25.214045,0.0 121.440943,25.214157,0.0 121.440765,25.214199,0.0 121.440868,25.214413,0.0 121.440899,25.214614,0.0 121.440878,25.214733,0.0 121.440773,25.214818,0.0 121.440592,25.214904,0.0 121.440498,25.215281,0.0 121.440638,25.215497,0.0 121.440942,25.215549,0.0 121.441115,25.215678,0.0 121.441063,25.21598,0.0 121.440897,25.215938,0.0 121.440709,25.215809,0.0 121.439972,25.215517,0.0 121.439292,25.215348,0.0 121.438575,25.215541,0.0 121.437685,25.216029,0.0 121.43721,25.216179,0.0</coordinates></LinearRing></outerBoundaryIs></Polygon><styleUrl>#spolygon-map</styleUrl></Placemark><Placemark><Polygon><outerBoundaryIs><LinearRing><coordinates>121.456509,25.214078,0.0 121.456666,25.214242,0.0 121.456771,25.214357,0.0 121.456405,25.214425,0.0 121.456174,25.214585,0.0 121.455903,25.214864,0.0 121.455431,25.215161,0.0 121.454944,25.215437,0.0 121.454508,25.215777,0.0 121.454376,25.215624,0.0 121.45421,25.215403,0.0 121.453815,25.215279,0.0 121.453203,25.215103,0.0 121.452771,25.214925,0.0 121.452502,25.214808,0.0 121.452474,25.214595,0.0 121.452562,25.214309,0.0 121.452454,25.214122,0.0 121.452203,25.214091,0.0 121.45202,25.214142,0.0 121.451993,25.214362,0.0 121.451803,25.214496,0.0 121.450909,25.212807,0.0 121.450658,25.212479,0.0 121.450934,25.212389,0.0 121.450916,25.21215,0.0 121.451165,25.211711,0.0 121.451088,25.211495,0.0 121.450947,25.210922,0.0 121.451477,25.21047,0.0 121.452038,25.210114,0.0 121.45224,25.209954,0.0 121.452494,25.209722,0.0 121.452731,25.209453,0.0 121.45282,25.209528,0.0 121.452869,25.209617,0.0 121.45301,25.209623,0.0 121.453173,25.209539,0.0 121.453367,25.209481,0.0 121.453484,25.209482,0.0 121.453656,25.209453,0.0 121.453745,25.209384,0.0 121.453792,25.209289,0.0 121.453918,25.209342,0.0 121.453948,25.209447,0.0 121.454043,25.209561,0.0 121.454209,25.20959,0.0 121.454376,25.20959,0.0 121.454529,25.209603,0.0 121.454604,25.209504,0.0 121.454729,25.209401,0.0 121.45488,25.209347,0.0 121.455049,25.209377,0.0 121.455201,25.209343,0.0 121.455252,25.209208,0.0 121.455345,25.209122,0.0 121.455442,25.209032,0.0 121.455541,25.208945,0.0 121.455712,25.208916,0.0 121.455844,25.208914,0.0 121.455982,25.208898,0.0 121.456251,25.208968,0.0 121.456378,25.208781,0.0 121.456377,25.208454,0.0 121.457526,25.205338,0.0 121.458135,25.205147,0.0 121.458604,25.205127,0.0 121.45895,25.205173,0.0 121.458718,25.203264,0.0 121.458687,25.202959,0.0 121.45831,25.202927,0.0 121.458124,25.202915,0.0 121.457903,25.202894,0.0 121.457738,25.202873,0.0 121.457559,25.202876,0.0 121.457249,25.201186,0.0 121.457142,25.20106,0.0 121.457044,25.200799,0.0 121.457029,25.200518,0.0 121.45773,25.200419,0.0 121.458761,25.200468,0.0 121.459453,25.20041,0.0 121.460778,25.200029,0.0 121.461582,25.199728,0.0 121.462811,25.199364,0.0 121.463709,25.199302,0.0 121.465465,25.19923,0.0 121.466959,25.199164,0.0 121.468025,25.199232,0.0 121.468778,25.199285,0.0 121.469677,25.199276,0.0 121.470468,25.199153,0.0 121.471737,25.199465,0.0 121.473121,25.199641,0.0 121.473891,25.199759,0.0 121.47452,25.200069,0.0 121.475072,25.200027,0.0 121.475693,25.20009,0.0 121.476344,25.199967,0.0 121.47676,25.199934,0.0 121.477367,25.200079,0.0 121.478549,25.200086,0.0 121.479814,25.200197,0.0 121.481032,25.200408,0.0 121.482086,25.20044,0.0 121.483275,25.200936,0.0 121.484121,25.201147,0.0 121.485839,25.20078,0.0 121.487317,25.200807,0.0 121.488884,25.200388,0.0 121.489132,25.200667,0.0 121.489152,25.201094,0.0 121.489168,25.201246,0.0 121.489277,25.201326,0.0 121.489331,25.201389,0.0 121.489323,25.20147,0.0 121.48922,25.201793,0.0 121.489006,25.202232,0.0 121.488616,25.202568,0.0 121.488605,25.202894,0.0 121.487952,25.2033,0.0 121.487446,25.203504,0.0 121.486966,25.20382,0.0 121.487054,25.204497,0.0 121.486527,25.204411,0.0 121.485718,25.204634,0.0 121.48513,25.205407,0.0 121.483602,25.205458,0.0 121.482259,25.205655,0.0 121.483001,25.207039,0.0 121.481304,25.208142,0.0 121.480483,25.209027,0.0 121.480083,25.209183,0.0 121.479788,25.209208,0.0 121.479273,25.209578,0.0 121.478719,25.210028,0.0 121.478162,25.210381,0.0 121.477559,25.210665,0.0 121.476906,25.211059,0.0 121.476424,25.211265,0.0 121.475802,25.211709,0.0 121.475214,25.212061,0.0 121.474692,25.212256,0.0 121.47489,25.211853,0.0 121.474981,25.211628,0.0 121.473228,25.207381,0.0 121.473578,25.207035,0.0 121.47365,25.206795,0.0 121.473642,25.206586,0.0 121.47229,25.205871,0.0 121.47155,25.205988,0.0 121.470578,25.206264,0.0 121.469955,25.206635,0.0 121.469302,25.206788,0.0 121.468519,25.206975,0.0 121.467763,25.2074,0.0 121.467143,25.207758,0.0 121.466868,25.208078,0.0 121.466594,25.208485,0.0 121.466228,25.208712,0.0 121.465539,25.20895,0.0 121.464974,25.20897,0.0 121.46463,25.208985,0.0 121.464095,25.209158,0.0 121.463321,25.209319,0.0 121.462616,25.209541,0.0 121.461798,25.209686,0.0 121.461151,25.209718,0.0 121.460623,25.209969,0.0 121.46007,25.210181,0.0 121.459238,25.210399,0.0 121.458551,25.210875,0.0 121.458227,25.211077,0.0 121.457659,25.211485,0.0 121.457262,25.211834,0.0 121.456903,25.212181,0.0 121.456603,25.212403,0.0 121.456698,25.212856,0.0 121.456453,25.213345,0.0 121.456394,25.213798,0.0 121.456501,25.214051,0.0 121.456509,25.214078,0.0</coordinates></LinearRing></outerBoundaryIs></Polygon><styleUrl>#spolygon-map</styleUrl></Placemark><Placemark><Polygon><outerBoundaryIs><LinearRing><coordinates>121.429094,25.208972,0.0 121.428398,25.208121,0.0 121.426481,25.205833,0.0 121.424211,25.203644,0.0 121.4228,25.200617,0.0 121.421647,25.197809,0.0 121.423851,25.196957,0.0 121.427158,25.195703,0.0 121.430958,25.194276,0.0 121.430849,25.190904,0.0 121.4327,25.189913,0.0 121.433116,25.189468,0.0 121.432251,25.187608,0.0 121.432497,25.187149,0.0 121.433636,25.187009,0.0 121.43389,25.185827,0.0 121.435871,25.184712,0.0 121.438997,25.184801,0.0 121.439269,25.185223,0.0 121.439402,25.185581,0.0 121.439739,25.185673,0.0 121.43986,25.186134,0.0 121.439889,25.186648,0.0 121.440814,25.186354,0.0 121.441113,25.185883,0.0 121.440966,25.185384,0.0 121.441027,25.185083,0.0 121.441325,25.185061,0.0 121.441779,25.184999,0.0 121.442086,25.184797,0.0 121.442301,25.184387,0.0 121.44268,25.184305,0.0 121.443137,25.184298,0.0 121.443487,25.18411,0.0 121.443686,25.18383,0.0 121.443762,25.183504,0.0 121.443752,25.183322,0.0 121.443704,25.183183,0.0 121.443577,25.182966,0.0 121.44339,25.182787,0.0 121.443367,25.182607,0.0 121.443424,25.182496,0.0 121.443556,25.182421,0.0 121.443726,25.182407,0.0 121.443967,25.182354,0.0 121.444367,25.182264,0.0 121.444313,25.184675,0.0 121.444161,25.187951,0.0 121.443056,25.189012,0.0 121.440774,25.190262,0.0 121.440911,25.191383,0.0 121.441082,25.192314,0.0 121.443486,25.19716,0.0 121.444015,25.202539,0.0 121.443843,25.202561,0.0 121.443665,25.202585,0.0 121.443557,25.202698,0.0 121.443395,25.202833,0.0 121.443241,25.202948,0.0 121.443129,25.203022,0.0 121.443007,25.203063,0.0 121.442897,25.203022,0.0 121.442731,25.202862,0.0 121.442608,25.202756,0.0 121.442447,25.202642,0.0 121.442301,25.202642,0.0 121.442132,25.202684,0.0 121.44196,25.202715,0.0 121.441768,25.202742,0.0 121.441599,25.202766,0.0 121.44142,25.202797,0.0 121.441298,25.202762,0.0 121.441149,25.202719,0.0 121.441019,25.202696,0.0 121.440869,25.202681,0.0 121.440696,25.20268,0.0 121.440535,25.202688,0.0 121.440352,25.202726,0.0 121.440299,25.202855,0.0 121.440319,25.202997,0.0 121.440403,25.203154,0.0 121.440406,25.203365,0.0 121.440493,25.20346,0.0 121.440572,25.203522,0.0 121.440539,25.20356,0.0 121.440468,25.203656,0.0 121.440416,25.203796,0.0 121.440286,25.20384,0.0 121.440135,25.203837,0.0 121.439997,25.203809,0.0 121.439864,25.203801,0.0 121.439614,25.203849,0.0 121.439722,25.204313,0.0 121.439608,25.204719,0.0 121.439511,25.204958,0.0 121.439226,25.20508,0.0 121.438798,25.205107,0.0 121.438503,25.205065,0.0 121.438317,25.205012,0.0 121.438086,25.204794,0.0 121.437855,25.204602,0.0 121.437824,25.204299,0.0 121.437544,25.204287,0.0 121.437139,25.204608,0.0 121.436953,25.205221,0.0 121.436662,25.205821,0.0 121.43642,25.205516,0.0 121.435928,25.205321,0.0 121.435396,25.205747,0.0 121.43514,25.205756,0.0 121.434974,25.205411,0.0 121.434539,25.205144,0.0 121.434154,25.205007,0.0 121.433832,25.205438,0.0 121.433688,25.20566,0.0 121.433887,25.205903,0.0 121.434354,25.206181,0.0 121.433911,25.206832,0.0 121.433498,25.207008,0.0 121.433184,25.20715,0.0 121.432861,25.207095,0.0 121.432308,25.206752,0.0 121.432233,25.206649,0.0 121.432108,25.206667,0.0 121.431943,25.206808,0.0 121.431811,25.207002,0.0 121.431683,25.207162,0.0 121.431363,25.207368,0.0 121.431154,25.207476,0.0 121.430999,25.207577,0.0 121.430596,25.207767,0.0 121.430314,25.207917,0.0 121.430121,25.208047,0.0 121.429946,25.208187,0.0 121.429816,25.208325,0.0 121.429686,25.208449,0.0 121.429582,25.208551,0.0 121.429496,25.208657,0.0 121.429094,25.208972,0.0</coordinates></LinearRing></outerBoundaryIs></Polygon><styleUrl>#spolygon-map</styleUrl></Placemark><Placemark><Polygon><outerBoundaryIs><LinearRing><coordinates>121.454679,25.199844,0.0 121.452577,25.201464,0.0 121.452509,25.201766,0.0 121.452153,25.201501,0.0 121.451664,25.201384,0.0 121.451399,25.201075,0.0 121.451176,25.200751,0.0 121.450928,25.200569,0.0 121.45079,25.200394,0.0 121.450993,25.199825,0.0 121.45148,25.199606,0.0 121.452219,25.199558,0.0 121.451524,25.198961,0.0 121.450282,25.198929,0.0 121.448857,25.1989,0.0 121.447822,25.198754,0.0 121.446686,25.199588,0.0 121.446222,25.199754,0.0 121.445894,25.200064,0.0 121.442699,25.196422,0.0 121.441024,25.191956,0.0 121.440856,25.190922,0.0 121.44071,25.189908,0.0 121.443867,25.189023,0.0 121.444621,25.18891,0.0 121.446082,25.188884,0.0 121.447062,25.188267,0.0 121.448201,25.187796,0.0 121.450996,25.188038,0.0 121.45368,25.186786,0.0 121.454987,25.186426,0.0 121.457811,25.186409,0.0 121.458625,25.186061,0.0 121.458775,25.18766,0.0 121.45972,25.188379,0.0 121.460505,25.189224,0.0 121.46093,25.189522,0.0 121.46154,25.190268,0.0 121.461851,25.190629,0.0 121.462324,25.190561,0.0 121.463,25.191175,0.0 121.463382,25.191396,0.0 121.46384,25.191646,0.0 121.465045,25.191743,0.0 121.465215,25.191999,0.0 121.464611,25.191854,0.0 121.464454,25.192099,0.0 121.464044,25.192066,0.0 121.463744,25.192075,0.0 121.463319,25.192051,0.0 121.462709,25.19259,0.0 121.462405,25.192539,0.0 121.46202,25.192759,0.0 121.461552,25.193259,0.0 121.461428,25.193777,0.0 121.462367,25.195568,0.0 121.462127,25.196436,0.0 121.462171,25.197165,0.0 121.463886,25.197438,0.0 121.465605,25.197028,0.0 121.46706,25.197656,0.0 121.468531,25.197318,0.0 121.469079,25.19852,0.0 121.468737,25.198701,0.0 121.468545,25.198919,0.0 121.467956,25.199223,0.0 121.46663,25.19917,0.0 121.464975,25.199243,0.0 121.463414,25.199308,0.0 121.462568,25.199401,0.0 121.461318,25.199878,0.0 121.460614,25.200063,0.0 121.459319,25.200443,0.0 121.45854,25.200448,0.0 121.457458,25.200409,0.0 121.456392,25.200258,0.0 121.455214,25.200105,0.0 121.454679,25.199844,0.0</coordinates></LinearRing></outerBoundaryIs></Polygon><styleUrl>#spolygon-map</styleUrl></Placemark><Placemark><Polygon><outerBoundaryIs><LinearRing><coordinates>121.44069,25.181703,0.0 121.440269,25.181982,0.0 121.438731,25.181745,0.0 121.438471,25.181462,0.0 121.438926,25.180668,0.0 121.43844,25.179781,0.0 121.438781,25.179454,0.0 121.43927,25.17861,0.0 121.440285,25.178404,0.0 121.441614,25.178872,0.0 121.442517,25.1788,0.0 121.443167,25.17883,0.0 121.444122,25.178648,0.0 121.444455,25.179069,0.0 121.444708,25.180491,0.0 121.444199,25.1809,0.0 121.443483,25.181013,0.0 121.442392,25.181487,0.0 121.44172,25.181787,0.0 121.440987,25.181687,0.0 121.44069,25.181703,0.0</coordinates></LinearRing></outerBoundaryIs></Polygon><styleUrl>#spolygon-map</styleUrl></Placemark><Placemark><Polygon><outerBoundaryIs><LinearRing><coordinates>121.445346,25.179602,0.0 121.444582,25.179794,0.0 121.444433,25.178958,0.0 121.443879,25.178045,0.0 121.442602,25.176574,0.0 121.441552,25.175103,0.0 121.441524,25.174465,0.0 121.44165,25.174275,0.0 121.442366,25.174098,0.0 121.442517,25.173722,0.0 121.442587,25.17347,0.0 121.443651,25.173988,0.0 121.443614,25.175183,0.0 121.444495,25.175301,0.0 121.44491,25.175222,0.0 121.445268,25.175335,0.0 121.445529,25.175872,0.0 121.445618,25.176164,0.0 121.445979,25.176281,0.0 121.446347,25.176789,0.0 121.447038,25.176844,0.0 121.448062,25.176701,0.0 121.447118,25.177022,0.0 121.446718,25.177557,0.0 121.447191,25.178046,0.0 121.446345,25.178356,0.0 121.446148,25.179384,0.0 121.445346,25.179602,0.0</coordinates></LinearRing></outerBoundaryIs></Polygon><styleUrl>#spolygon-map</styleUrl></Placemark><Placemark><Polygon><outerBoundaryIs><LinearRing><coordinates>121.443867,25.189023,0.0 121.444187,25.186991,0.0 121.444418,25.183748,0.0 121.444629,25.181921,0.0 121.444708,25.180491,0.0 121.44501,25.179705,0.0 121.446406,25.179734,0.0 121.446704,25.180081,0.0 121.447527,25.180764,0.0 121.447631,25.181827,0.0 121.44791,25.182007,0.0 121.447697,25.182305,0.0 121.447972,25.18245,0.0 121.448763,25.182468,0.0 121.448896,25.182293,0.0 121.448993,25.182036,0.0 121.449303,25.181786,0.0 121.449911,25.181573,0.0 121.450191,25.181577,0.0 121.4506,25.181375,0.0 121.450637,25.181185,0.0 121.450537,25.180687,0.0 121.449976,25.18036,0.0 121.450536,25.179658,0.0 121.45157,25.179045,0.0 121.454576,25.179221,0.0 121.455184,25.178762,0.0 121.455757,25.178701,0.0 121.45608,25.178553,0.0 121.456248,25.178039,0.0 121.456803,25.178066,0.0 121.457097,25.17806,0.0 121.45715,25.177759,0.0 121.457437,25.177932,0.0 121.45769,25.177862,0.0 121.457705,25.177464,0.0 121.458086,25.177327,0.0 121.45829,25.177592,0.0 121.460084,25.177387,0.0 121.46097,25.17669,0.0 121.463129,25.175941,0.0 121.464326,25.175507,0.0 121.466089,25.176591,0.0 121.467,25.177473,0.0 121.468157,25.17853,0.0 121.468613,25.17847,0.0 121.468997,25.178564,0.0 121.471705,25.177734,0.0 121.472075,25.177352,0.0 121.476458,25.176561,0.0 121.477062,25.176313,0.0 121.478115,25.17701,0.0 121.477394,25.177537,0.0 121.476177,25.177407,0.0 121.475568,25.177806,0.0 121.475249,25.178615,0.0 121.475453,25.179191,0.0 121.474868,25.179614,0.0 121.474687,25.18029,0.0 121.474621,25.180826,0.0 121.47387,25.181214,0.0 121.474968,25.181441,0.0 121.474093,25.185173,0.0 121.472217,25.185399,0.0 121.47091,25.184898,0.0 121.469873,25.185171,0.0 121.470042,25.185475,0.0 121.46962,25.18565,0.0 121.469211,25.185869,0.0 121.468749,25.18603,0.0 121.46852,25.185754,0.0 121.468473,25.18542,0.0 121.466445,25.185588,0.0 121.465967,25.185699,0.0 121.465677,25.186086,0.0 121.46547,25.186177,0.0 121.462181,25.186058,0.0 121.46086,25.186226,0.0 121.459465,25.185911,0.0 121.458125,25.186243,0.0 121.457082,25.186513,0.0 121.454313,25.186486,0.0 121.452306,25.187467,0.0 121.449961,25.188468,0.0 121.447462,25.188089,0.0 121.446918,25.188654,0.0 121.445009,25.188862,0.0 121.444239,25.188976,0.0 121.443867,25.189023,0.0</coordinates></LinearRing></outerBoundaryIs></Polygon><styleUrl>#spolygon-map</styleUrl></Placemark><Placemark><Polygon><outerBoundaryIs><LinearRing><coordinates>121.464409,25.193479,0.0 121.464055,25.194088,0.0 121.46343,25.194574,0.0 121.461755,25.194292,0.0 121.461446,25.193403,0.0 121.46186,25.192939,0.0 121.462342,25.192571,0.0 121.462663,25.192583,0.0 121.463299,25.192071,0.0 121.463692,25.192081,0.0 121.46396,25.192033,0.0 121.464425,25.192136,0.0 121.464557,25.191882,0.0 121.465193,25.191973,0.0 121.465125,25.191783,0.0 121.463909,25.191657,0.0 121.463423,25.191475,0.0 121.463056,25.191213,0.0 121.462397,25.190595,0.0 121.461916,25.190637,0.0 121.46163,25.190333,0.0 121.46103,25.189608,0.0 121.46057,25.189271,0.0 121.460142,25.188793,0.0 121.458881,25.18776,0.0 121.459465,25.185911,0.0 121.46086,25.186226,0.0 121.462181,25.186058,0.0 121.46547,25.186177,0.0 121.465677,25.186086,0.0 121.465967,25.185699,0.0 121.466445,25.185588,0.0 121.468473,25.18542,0.0 121.46852,25.185754,0.0 121.468749,25.18603,0.0 121.469211,25.185869,0.0 121.46962,25.18565,0.0 121.470042,25.185475,0.0 121.469873,25.185171,0.0 121.47091,25.184898,0.0 121.472217,25.185399,0.0 121.474093,25.185173,0.0 121.474968,25.181441,0.0 121.47387,25.181214,0.0 121.474621,25.180826,0.0 121.474687,25.18029,0.0 121.474868,25.179614,0.0 121.475453,25.179191,0.0 121.475249,25.178615,0.0 121.475568,25.177806,0.0 121.476177,25.177407,0.0 121.477394,25.177537,0.0 121.478115,25.17701,0.0 121.477062,25.176313,0.0 121.476458,25.176561,0.0 121.472075,25.177352,0.0 121.471705,25.177734,0.0 121.468997,25.178564,0.0 121.468613,25.17847,0.0 121.468157,25.17853,0.0 121.467,25.177473,0.0 121.466089,25.176591,0.0 121.465078,25.175344,0.0 121.476752,25.174424,0.0 121.477543,25.174432,0.0 121.478406,25.175112,0.0 121.486115,25.177132,0.0 121.502179,25.17306,0.0 121.50241,25.173056,0.0 121.502503,25.173028,0.0 121.502623,25.172969,0.0 121.502706,25.172926,0.0 121.504787,25.174295,0.0 121.505622,25.173359,0.0 121.505304,25.171556,0.0 121.507406,25.171234,0.0 121.509279,25.170553,0.0 121.511627,25.169699,0.0 121.514396,25.170842,0.0 121.516198,25.170075,0.0 121.518807,25.169604,0.0 121.520281,25.169928,0.0 121.521006,25.171237,0.0 121.52154,25.173216,0.0 121.52256,25.174914,0.0 121.522015,25.176282,0.0 121.522307,25.17835,0.0 121.521737,25.179121,0.0 121.521046,25.179859,0.0 121.520311,25.180887,0.0 121.519819,25.181834,0.0 121.519356,25.182472,0.0 121.518106,25.182808,0.0 121.516944,25.18304,0.0 121.515717,25.183323,0.0 121.514724,25.183655,0.0 121.513739,25.184138,0.0 121.513222,25.184753,0.0 121.512303,25.185162,0.0 121.511552,25.185674,0.0 121.510834,25.186389,0.0 121.510515,25.186944,0.0 121.509976,25.187539,0.0 121.509256,25.187528,0.0 121.508365,25.187667,0.0 121.507986,25.187589,0.0 121.507579,25.18767,0.0 121.507554,25.1882,0.0 121.507715,25.188602,0.0 121.50756,25.188976,0.0 121.507179,25.189403,0.0 121.506689,25.18994,0.0 121.50616,25.190268,0.0 121.505626,25.190142,0.0 121.505015,25.190172,0.0 121.504292,25.19036,0.0 121.503874,25.190584,0.0 121.503248,25.190758,0.0 121.502969,25.191052,0.0 121.502839,25.191476,0.0 121.502729,25.191905,0.0 121.502677,25.192497,0.0 121.502317,25.192605,0.0 121.50192,25.192478,0.0 121.501776,25.192747,0.0 121.501396,25.192885,0.0 121.500773,25.192946,0.0 121.500014,25.192702,0.0 121.49932,25.192529,0.0 121.498562,25.192183,0.0 121.497925,25.192048,0.0 121.49725,25.191948,0.0 121.496731,25.191735,0.0 121.496101,25.191279,0.0 121.495503,25.191095,0.0 121.495086,25.191328,0.0 121.494754,25.19188,0.0 121.494754,25.192576,0.0 121.494716,25.193038,0.0 121.494249,25.193227,0.0 121.494085,25.193163,0.0 121.493684,25.193047,0.0 121.493136,25.193246,0.0 121.492445,25.191923,0.0 121.491551,25.191369,0.0 121.489591,25.190559,0.0 121.488256,25.189934,0.0 121.487392,25.188921,0.0 121.487051,25.188372,0.0 121.484983,25.187697,0.0 121.483919,25.186905,0.0 121.482931,25.187066,0.0 121.482056,25.187402,0.0 121.481329,25.18777,0.0 121.480703,25.188074,0.0 121.479775,25.188193,0.0 121.476479,25.189358,0.0 121.474374,25.190655,0.0 121.473675,25.190061,0.0 121.473061,25.190047,0.0 121.471956,25.190391,0.0 121.471334,25.190794,0.0 121.470274,25.19074,0.0 121.4694,25.19129,0.0 121.468032,25.192304,0.0 121.466767,25.192428,0.0 121.46601,25.192618,0.0 121.464554,25.193336,0.0 121.464409,25.193479,0.0</coordinates></LinearRing></outerBoundaryIs></Polygon><styleUrl>#spolygon-map</styleUrl></Placemark><Placemark><Polygon><outerBoundaryIs><LinearRing><coordinates>121.485512,25.20085,0.0 121.483998,25.201141,0.0 121.483181,25.200925,0.0 121.481861,25.200372,0.0 121.480564,25.200357,0.0 121.479524,25.200196,0.0 121.478348,25.200066,0.0 121.477317,25.200074,0.0 121.476679,25.199928,0.0 121.476192,25.200013,0.0 121.475577,25.200079,0.0 121.475011,25.200031,0.0 121.474413,25.200038,0.0 121.473841,25.199744,0.0 121.472917,25.199649,0.0 121.471605,25.199428,0.0 121.470285,25.199165,0.0 121.469587,25.199282,0.0 121.468648,25.199305,0.0 121.468143,25.199132,0.0 121.468602,25.198817,0.0 121.468818,25.198672,0.0 121.469118,25.197299,0.0 121.467608,25.197679,0.0 121.466484,25.197154,0.0 121.465194,25.197117,0.0 121.463122,25.197352,0.0 121.461972,25.196942,0.0 121.46216,25.196204,0.0 121.462127,25.195156,0.0 121.463457,25.194563,0.0 121.464149,25.193963,0.0 121.464443,25.193427,0.0 121.465712,25.192704,0.0 121.466558,25.192432,0.0 121.467726,25.192449,0.0 121.468811,25.191703,0.0 121.470165,25.190797,0.0 121.471031,25.190749,0.0 121.471656,25.190679,0.0 121.472552,25.19011,0.0 121.473488,25.190049,0.0 121.474243,25.190841,0.0 121.475892,25.189777,0.0 121.477472,25.188242,0.0 121.480345,25.18813,0.0 121.481111,25.187871,0.0 121.481823,25.187486,0.0 121.482609,25.187242,0.0 121.483747,25.186668,0.0 121.484626,25.187514,0.0 121.48636,25.188176,0.0 121.487272,25.188531,0.0 121.487792,25.189509,0.0 121.48911,25.190405,0.0 121.490664,25.190951,0.0 121.492357,25.191788,0.0 121.49295,25.192971,0.0 121.492942,25.193476,0.0 121.492905,25.193887,0.0 121.492978,25.194303,0.0 121.493023,25.19469,0.0 121.492891,25.195089,0.0 121.4925,25.195455,0.0 121.49229,25.195536,0.0 121.491892,25.195809,0.0 121.490557,25.196432,0.0 121.488414,25.196703,0.0 121.486966,25.196962,0.0 121.485555,25.197202,0.0 121.485434,25.198221,0.0 121.485704,25.199083,0.0 121.486639,25.199563,0.0 121.487634,25.199846,0.0 121.488048,25.200211,0.0 121.488602,25.20033,0.0 121.488029,25.20069,0.0 121.486358,25.200804,0.0 121.485512,25.20085,0.0</coordinates></LinearRing></outerBoundaryIs></Polygon><styleUrl>#spolygon-map</styleUrl></Placemark><Placemark><Polygon><outerBoundaryIs><LinearRing><coordinates>121.486328,25.177001,0.0 121.478664,25.175693,0.0 121.478087,25.174322,0.0 121.476995,25.174552,0.0 121.464958,25.174238,0.0 121.464515,25.173892,0.0 121.463667,25.173661,0.0 121.461739,25.169477,0.0 121.461209,25.169454,0.0 121.460891,25.168921,0.0 121.461842,25.168749,0.0 121.462783,25.168536,0.0 121.463545,25.168377,0.0 121.464284,25.167912,0.0 121.464599,25.167804,0.0 121.465365,25.168068,0.0 121.466049,25.16824,0.0 121.466329,25.168247,0.0 121.467554,25.168149,0.0 121.472838,25.166055,0.0 121.473206,25.165988,0.0 121.473543,25.165998,0.0 121.473563,25.165996,0.0 121.473583,25.165989,0.0 121.473823,25.165868,0.0 121.474115,25.165894,0.0 121.47443,25.165975,0.0 121.474451,25.166076,0.0 121.480809,25.165919,0.0 121.480955,25.165639,0.0 121.480996,25.165305,0.0 121.481516,25.164455,0.0 121.482299,25.163753,0.0 121.483249,25.163023,0.0 121.483821,25.162773,0.0 121.486236,25.162243,0.0 121.486857,25.162148,0.0 121.486728,25.161887,0.0 121.485708,25.161688,0.0 121.483964,25.162113,0.0 121.483631,25.162364,0.0 121.483248,25.162504,0.0 121.482607,25.162427,0.0 121.482259,25.162456,0.0 121.482232,25.162452,0.0 121.482208,25.16244,0.0 121.482188,25.162417,0.0 121.482179,25.162392,0.0 121.482181,25.162366,0.0 121.482193,25.162343,0.0 121.482471,25.162157,0.0 121.482889,25.162163,0.0 121.483625,25.161733,0.0 121.484863,25.160808,0.0 121.486121,25.161046,0.0 121.486765,25.161409,0.0 121.487441,25.161425,0.0 121.487822,25.161754,0.0 121.488837,25.161764,0.0 121.489324,25.16151,0.0 121.489122,25.161228,0.0 121.493119,25.161093,0.0 121.494394,25.161805,0.0 121.495537,25.16276,0.0 121.498003,25.163702,0.0 121.499125,25.165778,0.0 121.500116,25.168294,0.0 121.501613,25.169428,0.0 121.501815,25.171589,0.0 121.502696,25.172971,0.0 121.502613,25.172976,0.0 121.502474,25.173027,0.0 121.502391,25.173053,0.0 121.502162,25.173065,0.0 121.486328,25.177001,0.0</coordinates></LinearRing></outerBoundaryIs></Polygon><styleUrl>#spolygon-map</styleUrl></Placemark><Placemark><Polygon><outerBoundaryIs><LinearRing><coordinates>121.468567,25.168277,0.0 121.466103,25.167527,0.0 121.466461,25.167632,0.0 121.466788,25.167503,0.0 121.467193,25.167407,0.0 121.467882,25.167009,0.0 121.468523,25.167279,0.0 121.468547,25.167302,0.0 121.468577,25.167319,0.0 121.46861,25.167331,0.0 121.468644,25.167336,0.0 121.468679,25.167334,0.0 121.468713,25.167326,0.0 121.468745,25.167312,0.0 121.468772,25.167292,0.0 121.468794,25.167268,0.0 121.468811,25.167239,0.0 121.46882,25.167209,0.0 121.468822,25.167177,0.0 121.468817,25.167145,0.0 121.468805,25.167115,0.0 121.468734,25.166951,0.0 121.468998,25.166669,0.0 121.4692,25.166637,0.0 121.469216,25.166628,0.0 121.469228,25.166611,0.0 121.469232,25.16649,0.0 121.469055,25.166196,0.0 121.469046,25.165788,0.0 121.469272,25.16559,0.0 121.469681,25.16563,0.0 121.470075,25.165565,0.0 121.470403,25.165431,0.0 121.470726,25.165322,0.0 121.470914,25.165166,0.0 121.471144,25.165047,0.0 121.471353,25.164973,0.0 121.471728,25.164853,0.0 121.472062,25.16472,0.0 121.472296,25.164628,0.0 121.472649,25.164321,0.0 121.472675,25.164117,0.0 121.47285,25.163804,0.0 121.47288,25.163685,0.0 121.472772,25.163572,0.0 121.472445,25.1632,0.0 121.471975,25.163059,0.0 121.471768,25.163028,0.0 121.47162,25.16286,0.0 121.471364,25.162755,0.0 121.471123,25.162628,0.0 121.470963,25.162592,0.0 121.470755,25.162563,0.0 121.470461,25.162548,0.0 121.469965,25.162441,0.0 121.469232,25.162116,0.0 121.476147,25.153194,0.0 121.475702,25.152642,0.0 121.475885,25.152081,0.0 121.475812,25.15175,0.0 121.475902,25.151159,0.0 121.475853,25.150958,0.0 121.476001,25.150545,0.0 121.476523,25.150419,0.0 121.476663,25.150382,0.0 121.476677,25.150367,0.0 121.476683,25.150348,0.0 121.476678,25.150327,0.0 121.476554,25.150113,0.0 121.476538,25.150068,0.0 121.476533,25.150021,0.0 121.476539,25.149974,0.0 121.476556,25.149929,0.0 121.476688,25.149677,0.0 121.476865,25.148908,0.0 121.476874,25.148881,0.0 121.47689,25.148857,0.0 121.476911,25.148837,0.0 121.476935,25.148821,0.0 121.477488,25.14865,0.0 121.477517,25.148641,0.0 121.477543,25.148626,0.0 121.477565,25.148606,0.0 121.477707,25.148388,0.0 121.47803,25.147986,0.0 121.478051,25.147943,0.0 121.478062,25.147897,0.0 121.478063,25.14785,0.0 121.477974,25.147588,0.0 121.477961,25.147492,0.0 121.477967,25.147445,0.0 121.477984,25.147401,0.0 121.478011,25.147361,0.0 121.478046,25.147327,0.0 121.478159,25.14726,0.0 121.478652,25.146796,0.0 121.479149,25.146732,0.0 121.479518,25.146678,0.0 121.479632,25.146642,0.0 121.479682,25.146637,0.0 121.479732,25.146642,0.0 121.47978,25.146656,0.0 121.480044,25.14681,0.0 121.480907,25.147711,0.0 121.481597,25.147761,0.0 121.481624,25.14776,0.0 121.481883,25.148404,0.0 121.482651,25.149844,0.0 121.485995,25.15128,0.0 121.487429,25.151365,0.0 121.48744,25.152694,0.0 121.488395,25.154312,0.0 121.490018,25.15642,0.0 121.491094,25.157818,0.0 121.491787,25.15942,0.0 121.489122,25.161228,0.0 121.489324,25.16151,0.0 121.488837,25.161764,0.0 121.487822,25.161754,0.0 121.487441,25.161425,0.0 121.486765,25.161409,0.0 121.486121,25.161046,0.0 121.484863,25.160808,0.0 121.483625,25.161733,0.0 121.482889,25.162163,0.0 121.482471,25.162157,0.0 121.482193,25.162343,0.0 121.482181,25.162366,0.0 121.482179,25.162392,0.0 121.482188,25.162417,0.0 121.482208,25.16244,0.0 121.482232,25.162452,0.0 121.482259,25.162456,0.0 121.482607,25.162427,0.0 121.483248,25.162504,0.0 121.483631,25.162364,0.0 121.483964,25.162113,0.0 121.485708,25.161688,0.0 121.486728,25.161887,0.0 121.486857,25.162148,0.0 121.486236,25.162243,0.0 121.483821,25.162773,0.0 121.483249,25.163023,0.0 121.482299,25.163753,0.0 121.481516,25.164455,0.0 121.480996,25.165305,0.0 121.480955,25.165639,0.0 121.480809,25.165919,0.0 121.474451,25.166076,0.0 121.47443,25.165975,0.0 121.474115,25.165894,0.0 121.473823,25.165868,0.0 121.473583,25.165989,0.0 121.473563,25.165996,0.0 121.473543,25.165998,0.0 121.473206,25.165988,0.0 121.472838,25.166055,0.0 121.468567,25.168277,0.0</coordinates></LinearRing></outerBoundaryIs></Polygon><styleUrl>#spolygon-map</styleUrl></Placemark><Placemark><Polygon><outerBoundaryIs><LinearRing><coordinates>121.468637,25.136136,0.0 121.468116,25.136268,0.0 121.46733,25.136338,0.0 121.4673,25.136345,0.0 121.467272,25.136358,0.0 121.464518,25.13528,0.0 121.463191,25.133945,0.0 121.462674,25.133566,0.0 121.461636,25.132888,0.0 121.461392,25.132459,0.0 121.461166,25.132071,0.0 121.460814,25.132007,0.0 121.459986,25.131444,0.0 121.460155,25.131441,0.0 121.460922,25.130938,0.0 121.460799,25.130385,0.0 121.460068,25.129787,0.0 121.459435,25.129842,0.0 121.456281,25.129614,0.0 121.456467,25.128624,0.0 121.456657,25.12752,0.0 121.456816,25.126642,0.0 121.457109,25.125907,0.0 121.457418,25.125538,0.0 121.457996,25.125168,0.0 121.458611,25.124598,0.0 121.458811,25.124018,0.0 121.458795,25.122942,0.0 121.460658,25.122926,0.0 121.463056,25.123705,0.0 121.464714,25.124728,0.0 121.464503,25.127577,0.0 121.464156,25.129569,0.0 121.464912,25.13137,0.0 121.466943,25.133261,0.0 121.468355,25.134833,0.0 121.470032,25.13618,0.0 121.469693,25.136524,0.0 121.469306,25.136232,0.0 121.468857,25.136133,0.0 121.468637,25.136136,0.0</coordinates></LinearRing></outerBoundaryIs></Polygon><styleUrl>#spolygon-map</styleUrl></Placemark><Placemark><Polygon><outerBoundaryIs><LinearRing><coordinates>121.458069,25.139866,0.0 121.45438,25.139218,0.0 121.454665,25.138128,0.0 121.455012,25.136319,0.0 121.45801,25.134986,0.0 121.459238,25.135151,0.0 121.46,25.136775,0.0 121.460309,25.136996,0.0 121.460856,25.136643,0.0 121.461357,25.136312,0.0 121.461896,25.135954,0.0 121.462288,25.135689,0.0 121.462689,25.135389,0.0 121.462344,25.135079,0.0 121.46209,25.134847,0.0 121.461942,25.134224,0.0 121.461612,25.133887,0.0 121.461077,25.133185,0.0 121.460895,25.132597,0.0 121.460943,25.131978,0.0 121.461305,25.132222,0.0 121.461527,25.132632,0.0 121.461752,25.13287,0.0 121.462679,25.133569,0.0 121.46361,25.134309,0.0 121.46606,25.136941,0.0 121.46487,25.137672,0.0 121.46426,25.137531,0.0 121.464009,25.137275,0.0 121.463632,25.13758,0.0 121.463327,25.137663,0.0 121.463122,25.137584,0.0 121.462756,25.137483,0.0 121.462532,25.137295,0.0 121.462357,25.137025,0.0 121.461676,25.137245,0.0 121.461441,25.137317,0.0 121.461275,25.137267,0.0 121.461101,25.137206,0.0 121.4609,25.137185,0.0 121.460685,25.137432,0.0 121.46056,25.137839,0.0 121.459828,25.138033,0.0 121.459255,25.138,0.0 121.458895,25.137918,0.0 121.458626,25.137849,0.0 121.458353,25.137638,0.0 121.45818,25.137786,0.0 121.45832,25.138182,0.0 121.458544,25.13833,0.0 121.458808,25.138361,0.0 121.458992,25.138631,0.0 121.459232,25.13922,0.0 121.458744,25.139658,0.0 121.458427,25.139616,0.0 121.458069,25.139866,0.0</coordinates></LinearRing></outerBoundaryIs></Polygon><styleUrl>#spolygon-map</styleUrl></Placemark><Placemark><Polygon><outerBoundaryIs><LinearRing><coordinates>121.475739,25.152755,0.0 121.475705,25.154936,0.0 121.471607,25.152756,0.0 121.470907,25.15271,0.0 121.471496,25.152531,0.0 121.471924,25.152035,0.0 121.472241,25.151797,0.0 121.472743,25.151577,0.0 121.472773,25.151096,0.0 121.473041,25.150752,0.0 121.472315,25.150371,0.0 121.471481,25.149716,0.0 121.470405,25.149343,0.0 121.469951,25.149155,0.0 121.468978,25.148876,0.0 121.46918,25.148684,0.0 121.469302,25.148187,0.0 121.468757,25.147187,0.0 121.468678,25.146605,0.0 121.468481,25.146777,0.0 121.468263,25.146924,0.0 121.467991,25.146568,0.0 121.467919,25.146541,0.0 121.467926,25.146675,0.0 121.467765,25.146353,0.0 121.467404,25.146241,0.0 121.461821,25.145183,0.0 121.460905,25.144711,0.0 121.461279,25.142791,0.0 121.460843,25.142603,0.0 121.46012,25.142475,0.0 121.45915,25.142205,0.0 121.458793,25.142077,0.0 121.458516,25.141964,0.0 121.458254,25.141929,0.0 121.458151,25.141952,0.0 121.458156,25.142129,0.0 121.458054,25.142312,0.0 121.457731,25.142391,0.0 121.453786,25.141485,0.0 121.454177,25.139915,0.0 121.45813,25.139627,0.0 121.458621,25.13967,0.0 121.4592,25.139223,0.0 121.45931,25.138997,0.0 121.4589,25.1384,0.0 121.458589,25.138333,0.0 121.458389,25.138229,0.0 121.458147,25.138154,0.0 121.458273,25.13763,0.0 121.458546,25.137779,0.0 121.458825,25.137906,0.0 121.459166,25.137971,0.0 121.459373,25.137774,0.0 121.460238,25.137817,0.0 121.460635,25.13753,0.0 121.460824,25.137245,0.0 121.461018,25.137216,0.0 121.461175,25.137194,0.0 121.461415,25.13732,0.0 121.461617,25.137262,0.0 121.46214,25.137099,0.0 121.462526,25.13709,0.0 121.462539,25.137428,0.0 121.463086,25.13758,0.0 121.463245,25.137614,0.0 121.463594,25.137683,0.0 121.463712,25.137381,0.0 121.464271,25.137432,0.0 121.464361,25.137612,0.0 121.465273,25.137463,0.0 121.467272,25.136358,0.0 121.4673,25.136345,0.0 121.46733,25.136338,0.0 121.468116,25.136268,0.0 121.468637,25.136136,0.0 121.46899,25.136141,0.0 121.469477,25.136328,0.0 121.469967,25.136885,0.0 121.472316,25.138173,0.0 121.472721,25.139505,0.0 121.473959,25.140405,0.0 121.474673,25.140983,0.0 121.475972,25.141666,0.0 121.476948,25.143633,0.0 121.479139,25.145615,0.0 121.480981,25.147067,0.0 121.481624,25.14776,0.0 121.481597,25.147761,0.0 121.480907,25.147711,0.0 121.480044,25.14681,0.0 121.47978,25.146656,0.0 121.479732,25.146642,0.0 121.479682,25.146637,0.0 121.479632,25.146642,0.0 121.479518,25.146678,0.0 121.479149,25.146732,0.0 121.478652,25.146796,0.0 121.478159,25.14726,0.0 121.478046,25.147327,0.0 121.478011,25.147361,0.0 121.477984,25.147401,0.0 121.477967,25.147445,0.0 121.477961,25.147492,0.0 121.477974,25.147588,0.0 121.478063,25.14785,0.0 121.478062,25.147897,0.0 121.478051,25.147943,0.0 121.47803,25.147986,0.0 121.477707,25.148388,0.0 121.477565,25.148606,0.0 121.477543,25.148626,0.0 121.477517,25.148641,0.0 121.477488,25.14865,0.0 121.476935,25.148821,0.0 121.476911,25.148837,0.0 121.47689,25.148857,0.0 121.476874,25.148881,0.0 121.476865,25.148908,0.0 121.476688,25.149677,0.0 121.476556,25.149929,0.0 121.476539,25.149974,0.0 121.476533,25.150021,0.0 121.476538,25.150068,0.0 121.476554,25.150113,0.0 121.476678,25.150327,0.0 121.476683,25.150348,0.0 121.476677,25.150367,0.0 121.476663,25.150382,0.0 121.476523,25.150419,0.0 121.476001,25.150545,0.0 121.475853,25.150958,0.0 121.475902,25.151159,0.0 121.475812,25.15175,0.0 121.475885,25.152081,0.0 121.475702,25.152642,0.0 121.475739,25.152755,0.0</coordinates></LinearRing></outerBoundaryIs></Polygon><styleUrl>#spolygon-map</styleUrl></Placemark><Placemark><Polygon><outerBoundaryIs><LinearRing><coordinates>121.468578,25.159652,0.0 121.460383,25.159103,0.0 121.459845,25.158939,0.0 121.45953,25.158812,0.0 121.459595,25.158521,0.0 121.459384,25.158742,0.0 121.459279,25.158953,0.0 121.459147,25.158896,0.0 121.458928,25.158843,0.0 121.458709,25.158877,0.0 121.458657,25.158921,0.0 121.458619,25.158967,0.0 121.458599,25.158979,0.0 121.458576,25.158981,0.0 121.458507,25.158956,0.0 121.457617,25.158551,0.0 121.457158,25.158594,0.0 121.456284,25.15898,0.0 121.454876,25.159485,0.0 121.449747,25.15382,0.0 121.450165,25.153149,0.0 121.450584,25.152312,0.0 121.451039,25.151232,0.0 121.451401,25.150301,0.0 121.451603,25.149751,0.0 121.451928,25.148768,0.0 121.452167,25.147977,0.0 121.452643,25.146673,0.0 121.453013,25.145044,0.0 121.453273,25.143814,0.0 121.453474,25.14277,0.0 121.457699,25.142434,0.0 121.457976,25.142314,0.0 121.458154,25.142182,0.0 121.458144,25.141979,0.0 121.458212,25.141926,0.0 121.458483,25.141948,0.0 121.458715,25.142046,0.0 121.459044,25.142126,0.0 121.459942,25.142446,0.0 121.460814,25.142593,0.0 121.461164,25.142745,0.0 121.460937,25.143683,0.0 121.461867,25.145131,0.0 121.466991,25.146047,0.0 121.467736,25.146256,0.0 121.467919,25.146676,0.0 121.467919,25.146548,0.0 121.467966,25.146525,0.0 121.468232,25.146879,0.0 121.468349,25.146904,0.0 121.468653,25.146589,0.0 121.468714,25.147086,0.0 121.469287,25.148098,0.0 121.469223,25.148637,0.0 121.469026,25.148861,0.0 121.469807,25.149098,0.0 121.470335,25.149337,0.0 121.471181,25.149451,0.0 121.472297,25.150353,0.0 121.473002,25.150685,0.0 121.472802,25.151074,0.0 121.472755,25.151471,0.0 121.472346,25.151757,0.0 121.47195,25.152016,0.0 121.471551,25.152498,0.0 121.47098,25.152699,0.0 121.471568,25.152724,0.0 121.471833,25.152916,0.0 121.468578,25.159652,0.0</coordinates></LinearRing></outerBoundaryIs></Polygon><styleUrl>#spolygon-map</styleUrl></Placemark><Placemark><Polygon><outerBoundaryIs><LinearRing><coordinates>121.4567,25.169066,0.0 121.455286,25.169211,0.0 121.454731,25.169012,0.0 121.45453,25.168806,0.0 121.453945,25.168849,0.0 121.453208,25.168754,0.0 121.452282,25.168726,0.0 121.451771,25.169002,0.0 121.451467,25.168978,0.0 121.450868,25.165982,0.0 121.450337,25.165631,0.0 121.449247,25.16569,0.0 121.450167,25.165126,0.0 121.45054,25.16465,0.0 121.450963,25.163975,0.0 121.451049,25.16341,0.0 121.451594,25.162866,0.0 121.451248,25.162817,0.0 121.450903,25.162744,0.0 121.450736,25.162572,0.0 121.450532,25.162251,0.0 121.450283,25.161826,0.0 121.449839,25.161566,0.0 121.446176,25.15798,0.0 121.446866,25.157265,0.0 121.447689,25.156374,0.0 121.448552,25.155382,0.0 121.449181,25.154599,0.0 121.454737,25.159261,0.0 121.455935,25.159108,0.0 121.456986,25.158689,0.0 121.457598,25.158527,0.0 121.458246,25.158822,0.0 121.458572,25.15898,0.0 121.458595,25.15898,0.0 121.458616,25.15897,0.0 121.458649,25.15893,0.0 121.4587,25.158883,0.0 121.458887,25.158846,0.0 121.459102,25.158868,0.0 121.459257,25.158955,0.0 121.459358,25.158809,0.0 121.459535,25.158536,0.0 121.459523,25.158775,0.0 121.459785,25.158952,0.0 121.460339,25.15907,0.0 121.464283,25.159123,0.0 121.469636,25.162263,0.0 121.470274,25.162515,0.0 121.470628,25.162563,0.0 121.470858,25.162585,0.0 121.471044,25.162598,0.0 121.471254,25.162697,0.0 121.471518,25.162818,0.0 121.471682,25.162939,0.0 121.471857,25.163057,0.0 121.472149,25.163069,0.0 121.472736,25.16338,0.0 121.47282,25.163625,0.0 121.472898,25.16377,0.0 121.472747,25.163901,0.0 121.47268,25.164243,0.0 121.472498,25.164489,0.0 121.472195,25.164686,0.0 121.471953,25.164758,0.0 121.471555,25.16493,0.0 121.471225,25.164991,0.0 121.471045,25.165094,0.0 121.47083,25.16525,0.0 121.470528,25.165388,0.0 121.470284,25.165485,0.0 121.469866,25.165618,0.0 121.469519,25.165601,0.0 121.469133,25.165634,0.0 121.468991,25.16598,0.0 121.469209,25.1664,0.0 121.46923,25.166602,0.0 121.469223,25.16662,0.0 121.469209,25.166633,0.0 121.469193,25.166639,0.0 121.468815,25.166802,0.0 121.468754,25.167032,0.0 121.468812,25.16713,0.0 121.468821,25.167161,0.0 121.468822,25.167193,0.0 121.468816,25.167224,0.0 121.468803,25.167254,0.0 121.468784,25.16728,0.0 121.468759,25.167303,0.0 121.468729,25.16732,0.0 121.468696,25.167331,0.0 121.468662,25.167336,0.0 121.468627,25.167334,0.0 121.468593,25.167326,0.0 121.468562,25.167311,0.0 121.468535,25.167291,0.0 121.468268,25.167053,0.0 121.467682,25.167062,0.0 121.466975,25.167483,0.0 121.46669,25.167533,0.0 121.466277,25.167646,0.0 121.466367,25.168249,0.0 121.46608,25.168242,0.0 121.465489,25.16811,0.0 121.464662,25.167815,0.0 121.464361,25.167863,0.0 121.463647,25.16833,0.0 121.462929,25.168499,0.0 121.462039,25.168702,0.0 121.460916,25.168918,0.0 121.460401,25.168945,0.0 121.459539,25.168745,0.0 121.458679,25.168798,0.0 121.457542,25.168915,0.0 121.4567,25.169066,0.0</coordinates></LinearRing></outerBoundaryIs></Polygon><styleUrl>#spolygon-map</styleUrl></Placemark><Placemark><Polygon><outerBoundaryIs><LinearRing><coordinates>121.453519,25.171352,0.0 121.45302,25.17165,0.0 121.45236,25.171708,0.0 121.452163,25.171357,0.0 121.451873,25.171486,0.0 121.451585,25.171397,0.0 121.45128,25.171585,0.0 121.451012,25.171563,0.0 121.450808,25.171041,0.0 121.450688,25.170943,0.0 121.450411,25.171258,0.0 121.449964,25.171045,0.0 121.449911,25.171254,0.0 121.44962,25.171326,0.0 121.449494,25.170927,0.0 121.449157,25.170877,0.0 121.448526,25.169998,0.0 121.448048,25.169325,0.0 121.447659,25.16843,0.0 121.447328,25.167713,0.0 121.447654,25.167081,0.0 121.448243,25.166175,0.0 121.449247,25.16569,0.0 121.450337,25.165631,0.0 121.450868,25.165982,0.0 121.451467,25.168978,0.0 121.451771,25.169002,0.0 121.452282,25.168726,0.0 121.453208,25.168754,0.0 121.453945,25.168849,0.0 121.45453,25.168806,0.0 121.454731,25.169012,0.0 121.455286,25.169211,0.0 121.4567,25.169066,0.0 121.458247,25.168835,0.0 121.459049,25.168751,0.0 121.460074,25.16883,0.0 121.460622,25.168949,0.0 121.460624,25.169285,0.0 121.4601,25.169319,0.0 121.457547,25.170411,0.0 121.457399,25.170758,0.0 121.457156,25.170945,0.0 121.45679,25.170648,0.0 121.456429,25.170717,0.0 121.455907,25.171325,0.0 121.455597,25.171232,0.0 121.455182,25.171151,0.0 121.454702,25.171093,0.0 121.454376,25.17136,0.0 121.453632,25.171329,0.0 121.453519,25.171352,0.0</coordinates></LinearRing></outerBoundaryIs></Polygon><styleUrl>#spolygon-map</styleUrl></Placemark><Placemark><Polygon><outerBoundaryIs><LinearRing><coordinates>121.449739,25.17722,0.0 121.449282,25.177017,0.0 121.448354,25.176578,0.0 121.447038,25.176844,0.0 121.446347,25.176789,0.0 121.445979,25.176281,0.0 121.445618,25.176164,0.0 121.445529,25.175872,0.0 121.445268,25.175335,0.0 121.44491,25.175222,0.0 121.444495,25.175301,0.0 121.443614,25.175183,0.0 121.443651,25.173988,0.0 121.442587,25.17347,0.0 121.441974,25.172569,0.0 121.442073,25.171833,0.0 121.442249,25.171608,0.0 121.442618,25.171432,0.0 121.443309,25.171314,0.0 121.443259,25.171587,0.0 121.443661,25.171541,0.0 121.44373,25.171445,0.0 121.444209,25.171682,0.0 121.44437,25.171496,0.0 121.44472,25.171411,0.0 121.444959,25.171355,0.0 121.44511,25.17142,0.0 121.445274,25.171373,0.0 121.4454,25.171253,0.0 121.44495,25.170769,0.0 121.445671,25.170712,0.0 121.445811,25.171763,0.0 121.44591,25.172454,0.0 121.446042,25.172601,0.0 121.446728,25.17278,0.0 121.447257,25.172978,0.0 121.448144,25.173082,0.0 121.449195,25.173137,0.0 121.449541,25.173115,0.0 121.449527,25.173316,0.0 121.448894,25.173434,0.0 121.450755,25.173952,0.0 121.452056,25.174494,0.0 121.453159,25.175619,0.0 121.45247,25.175931,0.0 121.451857,25.176151,0.0 121.45161,25.176331,0.0 121.450813,25.17688,0.0 121.450296,25.177159,0.0 121.449739,25.17722,0.0</coordinates></LinearRing></outerBoundaryIs></Polygon><styleUrl>#spolygon-map</styleUrl></Placemark><Placemark><Polygon><outerBoundaryIs><LinearRing><coordinates>121.444375,25.171437,0.0 121.44436,25.171652,0.0 121.443888,25.171546,0.0 121.44369,25.171537,0.0 121.443409,25.171584,0.0 121.44323,25.171331,0.0 121.442903,25.171136,0.0 121.443227,25.170693,0.0 121.443467,25.170313,0.0 121.443392,25.170285,0.0 121.443258,25.170257,0.0 121.443088,25.170196,0.0 121.442973,25.170192,0.0 121.442827,25.170191,0.0 121.442444,25.170106,0.0 121.442238,25.17013,0.0 121.442175,25.169987,0.0 121.442406,25.169939,0.0 121.442414,25.169599,0.0 121.442867,25.169656,0.0 121.443263,25.169577,0.0 121.443578,25.169421,0.0 121.444839,25.168858,0.0 121.445427,25.169303,0.0 121.445643,25.170479,0.0 121.445449,25.17074,0.0 121.445296,25.171153,0.0 121.445278,25.171357,0.0 121.445124,25.171413,0.0 121.444967,25.171418,0.0 121.44479,25.171403,0.0 121.444375,25.171437,0.0</coordinates></LinearRing></outerBoundaryIs></Polygon><styleUrl>#spolygon-map</styleUrl></Placemark><Placemark><Polygon><outerBoundaryIs><LinearRing><coordinates>121.442058,25.17181,0.0 121.440779,25.171247,0.0 121.44058,25.171087,0.0 121.440479,25.170942,0.0 121.440322,25.170632,0.0 121.44031,25.170323,0.0 121.440866,25.170165,0.0 121.441356,25.170223,0.0 121.441523,25.170158,0.0 121.441809,25.169979,0.0 121.442171,25.169965,0.0 121.442184,25.170013,0.0 121.442404,25.170153,0.0 121.442496,25.170112,0.0 121.442871,25.170133,0.0 121.443018,25.170187,0.0 121.443163,25.170255,0.0 121.443328,25.17026,0.0 121.443446,25.170313,0.0 121.443488,25.170498,0.0 121.443248,25.170887,0.0 121.442627,25.171433,0.0 121.442419,25.171566,0.0 121.442079,25.171833,0.0 121.442058,25.17181,0.0</coordinates></LinearRing></outerBoundaryIs></Polygon><styleUrl>#spolygon-map</styleUrl></Placemark><Placemark><Polygon><outerBoundaryIs><LinearRing><coordinates>121.441453,25.170211,0.0 121.441287,25.170206,0.0 121.440829,25.169982,0.0 121.438035,25.164596,0.0 121.439446,25.163682,0.0 121.440549,25.162916,0.0 121.441502,25.162167,0.0 121.446795,25.166867,0.0 121.447049,25.167654,0.0 121.446041,25.168191,0.0 121.44527,25.168595,0.0 121.444125,25.169167,0.0 121.443461,25.169465,0.0 121.443045,25.169642,0.0 121.442688,25.169644,0.0 121.442406,25.169761,0.0 121.442104,25.169952,0.0 121.441743,25.169993,0.0 121.441453,25.170211,0.0</coordinates></LinearRing></outerBoundaryIs></Polygon><styleUrl>#spolygon-map</styleUrl></Placemark><Placemark><Polygon><outerBoundaryIs><LinearRing><coordinates>121.441066,25.174562,0.0 121.440191,25.174783,0.0 121.439024,25.174706,0.0 121.438925,25.173731,0.0 121.43885,25.172999,0.0 121.439746,25.17278,0.0 121.440159,25.172396,0.0 121.440729,25.171912,0.0 121.441079,25.171492,0.0 121.442122,25.17311,0.0 121.442517,25.173722,0.0 121.442366,25.174098,0.0 121.44165,25.174275,0.0 121.441524,25.174465,0.0 121.441066,25.174562,0.0</coordinates></LinearRing></outerBoundaryIs></Polygon><styleUrl>#spolygon-map</styleUrl></Placemark><Placemark><Polygon><outerBoundaryIs><LinearRing><coordinates>121.440546,25.17215,0.0 121.439958,25.172478,0.0 121.439535,25.172132,0.0 121.439264,25.172004,0.0 121.439253,25.171808,0.0 121.43944,25.170803,0.0 121.439915,25.170579,0.0 121.440305,25.170846,0.0 121.440583,25.171043,0.0 121.440658,25.171127,0.0 121.441126,25.171454,0.0 121.440873,25.171724,0.0 121.440546,25.17215,0.0</coordinates></LinearRing></outerBoundaryIs></Polygon><styleUrl>#spolygon-map</styleUrl></Placemark><Placemark><Polygon><outerBoundaryIs><LinearRing><coordinates>121.438849,25.172867,0.0 121.438901,25.172252,0.0 121.438724,25.172289,0.0 121.438692,25.1718,0.0 121.438675,25.171465,0.0 121.438254,25.171082,0.0 121.434725,25.166763,0.0 121.436393,25.16563,0.0 121.440795,25.169679,0.0 121.440866,25.170165,0.0 121.44031,25.170323,0.0 121.439966,25.170657,0.0 121.439167,25.171297,0.0 121.439242,25.17183,0.0 121.439277,25.172026,0.0 121.439619,25.172149,0.0 121.439938,25.172486,0.0 121.439555,25.172812,0.0 121.438849,25.172867,0.0</coordinates></LinearRing></outerBoundaryIs></Polygon><styleUrl>#spolygon-map</styleUrl></Placemark><Placemark><Polygon><outerBoundaryIs><LinearRing><coordinates>121.439023,25.172324,0.0 121.438001,25.172928,0.0 121.435578,25.17342,0.0 121.434677,25.173052,0.0 121.432972,25.16775,0.0 121.433582,25.167465,0.0 121.438254,25.171082,0.0 121.438675,25.171465,0.0 121.438692,25.1718,0.0 121.438724,25.172289,0.0 121.438901,25.172252,0.0 121.439023,25.172324,0.0</coordinates></LinearRing></outerBoundaryIs></Polygon><styleUrl>#spolygon-map</styleUrl></Placemark><Placemark><Polygon><outerBoundaryIs><LinearRing><coordinates>121.436434,25.179034,0.0 121.435145,25.178691,0.0 121.434767,25.178586,0.0 121.434017,25.178041,0.0 121.434015,25.177649,0.0 121.430967,25.176524,0.0 121.430661,25.176605,0.0 121.428356,25.176108,0.0 121.427055,25.170169,0.0 121.428511,25.169516,0.0 121.429546,25.169075,0.0 121.430716,25.168576,0.0 121.431695,25.168219,0.0 121.434707,25.173113,0.0 121.435845,25.173364,0.0 121.438589,25.172884,0.0 121.438885,25.173227,0.0 121.438956,25.174491,0.0 121.439216,25.174795,0.0 121.439351,25.17538,0.0 121.438443,25.176519,0.0 121.437793,25.177574,0.0 121.436593,25.178801,0.0 121.436434,25.179034,0.0</coordinates></LinearRing></outerBoundaryIs></Polygon><styleUrl>#spolygon-map</styleUrl></Placemark><Placemark><Polygon><outerBoundaryIs><LinearRing><coordinates>121.432138,25.183642,0.0 121.431395,25.18385,0.0 121.430251,25.184437,0.0 121.429085,25.185339,0.0 121.428724,25.185908,0.0 121.428382,25.186782,0.0 121.428346,25.187233,0.0 121.427869,25.187785,0.0 121.427558,25.187573,0.0 121.427184,25.18688,0.0 121.426802,25.185921,0.0 121.426097,25.185092,0.0 121.425197,25.184382,0.0 121.423803,25.183295,0.0 121.422723,25.182455,0.0 121.422992,25.181878,0.0 121.423071,25.181096,0.0 121.422474,25.180516,0.0 121.420963,25.180166,0.0 121.421581,25.179461,0.0 121.420648,25.177607,0.0 121.421176,25.177245,0.0 121.420681,25.176163,0.0 121.420284,25.173859,0.0 121.421789,25.172932,0.0 121.424159,25.171535,0.0 121.428338,25.175566,0.0 121.43053,25.176641,0.0 121.430918,25.176532,0.0 121.432068,25.177036,0.0 121.433989,25.177954,0.0 121.434662,25.178533,0.0 121.435045,25.178659,0.0 121.435975,25.17882,0.0 121.436726,25.178899,0.0 121.436456,25.179427,0.0 121.43619,25.179856,0.0 121.435866,25.181106,0.0 121.435432,25.181589,0.0 121.435095,25.182704,0.0 121.435226,25.183718,0.0 121.434845,25.183897,0.0 121.433453,25.183456,0.0 121.432809,25.183644,0.0 121.432138,25.183642,0.0</coordinates></LinearRing></outerBoundaryIs></Polygon><styleUrl>#spolygon-map</styleUrl></Placemark><Placemark><Polygon><outerBoundaryIs><LinearRing><coordinates>121.431765,25.193738,0.0 121.429677,25.194754,0.0 121.425626,25.196295,0.0 121.422842,25.197352,0.0 121.420252,25.197022,0.0 121.418512,25.194964,0.0 121.417666,25.194341,0.0 121.418601,25.19333,0.0 121.419377,25.192508,0.0 121.419031,25.19178,0.0 121.417873,25.191552,0.0 121.414216,25.190116,0.0 121.409989,25.190667,0.0 121.404433,25.188707,0.0 121.404456,25.185082,0.0 121.405502,25.182704,0.0 121.406705,25.182623,0.0 121.412295,25.18148,0.0 121.418202,25.178752,0.0 121.41785,25.175305,0.0 121.41878,25.174758,0.0 121.420719,25.176213,0.0 121.421087,25.177286,0.0 121.420639,25.177651,0.0 121.421569,25.179469,0.0 121.420454,25.180678,0.0 121.420463,25.18167,0.0 121.421838,25.181763,0.0 121.42212,25.183168,0.0 121.423257,25.184798,0.0 121.424195,25.18549,0.0 121.425197,25.184825,0.0 121.425931,25.184956,0.0 121.426717,25.185727,0.0 121.427086,25.186626,0.0 121.427493,25.18748,0.0 121.427779,25.187771,0.0 121.428298,25.187395,0.0 121.428366,25.186869,0.0 121.42862,25.186101,0.0 121.429041,25.18538,0.0 121.430109,25.184532,0.0 121.431304,25.183892,0.0 121.432034,25.183653,0.0 121.433037,25.183612,0.0 121.43364,25.183455,0.0 121.435317,25.184949,0.0 121.433968,25.186057,0.0 121.433493,25.187055,0.0 121.432406,25.187197,0.0 121.432306,25.187714,0.0 121.433052,25.189684,0.0 121.431304,25.189914,0.0 121.430948,25.191238,0.0 121.431765,25.193738,0.0</coordinates></LinearRing></outerBoundaryIs></Polygon><styleUrl>#spolygon-map</styleUrl></Placemark><Placemark><Polygon><outerBoundaryIs><LinearRing><coordinates>121.444086,25.178887,0.0 121.443132,25.178783,0.0 121.442424,25.178805,0.0 121.441158,25.178628,0.0 121.440183,25.177657,0.0 121.439766,25.176368,0.0 121.439625,25.175645,0.0 121.439368,25.175318,0.0 121.440466,25.174769,0.0 121.441425,25.174558,0.0 121.441804,25.17555,0.0 121.443175,25.177271,0.0 121.444122,25.178648,0.0 121.444086,25.178887,0.0</coordinates></LinearRing></outerBoundaryIs></Polygon><styleUrl>#spolygon-map</styleUrl></Placemark><Placemark><Polygon><outerBoundaryIs><LinearRing><coordinates>121.441098,25.185719,0.0 121.440938,25.186206,0.0 121.439829,25.187058,0.0 121.439916,25.186273,0.0 121.439856,25.185885,0.0 121.439485,25.185602,0.0 121.439257,25.185288,0.0 121.439078,25.184958,0.0 121.437022,25.184521,0.0 121.434936,25.183906,0.0 121.4353,25.183516,0.0 121.435078,25.182608,0.0 121.435456,25.181536,0.0 121.435908,25.181087,0.0 121.436478,25.181145,0.0 121.437363,25.181315,0.0 121.43807,25.181889,0.0 121.438731,25.181745,0.0 121.440269,25.181982,0.0 121.44069,25.181703,0.0 121.44121,25.181707,0.0 121.44185,25.181749,0.0 121.442831,25.181267,0.0 121.443821,25.180941,0.0 121.444508,25.180904,0.0 121.444605,25.182101,0.0 121.444089,25.182323,0.0 121.443788,25.182398,0.0 121.443604,25.182415,0.0 121.443454,25.182467,0.0 121.443381,25.182564,0.0 121.443374,25.182712,0.0 121.443428,25.182879,0.0 121.443681,25.183141,0.0 121.44374,25.183268,0.0 121.443761,25.183426,0.0 121.44373,25.183723,0.0 121.443542,25.184053,0.0 121.443254,25.184261,0.0 121.442875,25.184322,0.0 121.442387,25.184313,0.0 121.442159,25.18468,0.0 121.441925,25.184943,0.0 121.441419,25.185074,0.0 121.441113,25.185038,0.0 121.440925,25.185269,0.0 121.441098,25.185719,0.0</coordinates></LinearRing></outerBoundaryIs></Polygon><styleUrl>#spolygon-map</styleUrl></Placemark><Placemark><Polygon><outerBoundaryIs><LinearRing><coordinates>121.439102,25.181037,0.0 121.438385,25.181983,0.0 121.437726,25.18162,0.0 121.436918,25.180918,0.0 121.436073,25.181028,0.0 121.436182,25.179867,0.0 121.436413,25.179531,0.0 121.436682,25.178964,0.0 121.43725,25.178188,0.0 121.438287,25.176817,0.0 121.439044,25.175751,0.0 121.439625,25.175645,0.0 121.439766,25.176368,0.0 121.440183,25.177657,0.0 121.44,25.178328,0.0 121.439029,25.179113,0.0 121.438516,25.179759,0.0 121.438544,25.179978,0.0 121.439102,25.181037,0.0</coordinates></LinearRing></outerBoundaryIs></Polygon><styleUrl>#spolygon-map</styleUrl></Placemark><Placemark><Polygon><outerBoundaryIs><LinearRing><coordinates>121.449911,25.181573,0.0 121.449303,25.181786,0.0 121.448993,25.182036,0.0 121.448896,25.182293,0.0 121.448763,25.182468,0.0 121.447972,25.18245,0.0 121.447697,25.182305,0.0 121.44791,25.182007,0.0 121.447631,25.181827,0.0 121.447527,25.180764,0.0 121.446704,25.180081,0.0 121.446406,25.179734,0.0 121.446157,25.179017,0.0 121.447069,25.178378,0.0 121.448277,25.178397,0.0 121.449469,25.178885,0.0 121.450318,25.179321,0.0 121.450368,25.179588,0.0 121.450086,25.180452,0.0 121.450529,25.180719,0.0 121.450648,25.181234,0.0 121.450565,25.181403,0.0 121.450125,25.181586,0.0 121.449911,25.181573,0.0</coordinates></LinearRing></outerBoundaryIs></Polygon><styleUrl>#spolygon-map</styleUrl></Placemark><Placemark><Polygon><outerBoundaryIs><LinearRing><coordinates>121.452324,25.178825,0.0 121.450318,25.179321,0.0 121.449469,25.178885,0.0 121.448277,25.178397,0.0 121.447176,25.178169,0.0 121.446822,25.17755,0.0 121.446923,25.177131,0.0 121.447947,25.176737,0.0 121.448424,25.17659,0.0 121.449365,25.17704,0.0 121.449855,25.177198,0.0 121.450379,25.177128,0.0 121.451003,25.176741,0.0 121.451621,25.176294,0.0 121.451932,25.176132,0.0 121.452555,25.175936,0.0 121.455289,25.175622,0.0 121.456302,25.175882,0.0 121.458247,25.176384,0.0 121.46006,25.176481,0.0 121.460777,25.17693,0.0 121.458613,25.177892,0.0 121.458247,25.177515,0.0 121.458043,25.177276,0.0 121.457676,25.177515,0.0 121.457659,25.177887,0.0 121.457314,25.177796,0.0 121.457062,25.177839,0.0 121.457064,25.178115,0.0 121.456434,25.177998,0.0 121.456203,25.178145,0.0 121.45597,25.178656,0.0 121.455552,25.178682,0.0 121.455037,25.178782,0.0 121.453084,25.178722,0.0 121.452324,25.178825,0.0</coordinates></LinearRing></outerBoundaryIs></Polygon><styleUrl>#spolygon-map</styleUrl></Placemark><Placemark><Polygon><outerBoundaryIs><LinearRing><coordinates>121.462344,25.135079,0.0 121.462689,25.135389,0.0 121.462288,25.135689,0.0 121.461896,25.135954,0.0 121.461357,25.136312,0.0 121.460856,25.136643,0.0 121.460309,25.136996,0.0 121.46,25.136775,0.0 121.459238,25.135151,0.0 121.45801,25.134986,0.0 121.455739,25.132704,0.0 121.456056,25.130868,0.0 121.456191,25.130148,0.0 121.459296,25.129897,0.0 121.45983,25.129865,0.0 121.460905,25.130098,0.0 121.460809,25.13073,0.0 121.460201,25.131429,0.0 121.46004,25.131445,0.0 121.460568,25.132087,0.0 121.460886,25.133011,0.0 121.461269,25.133698,0.0 121.461894,25.134065,0.0 121.462055,25.134678,0.0 121.462153,25.135017,0.0 121.462344,25.135079,0.0</coordinates></LinearRing></outerBoundaryIs></Polygon><styleUrl>#spolygon-map</styleUrl></Placemark><Placemark><MultiGeometry><Polygon><outerBoundaryIs><LinearRing><coordinates>121.451534,25.16284,0.0 121.451224,25.163259,0.0 121.4507,25.163723,0.0 121.450662,25.164391,0.0 121.450305,25.165003,0.0 121.44948,25.165574,0.0 121.448528,25.165984,0.0 121.447978,25.1665,0.0 121.447336,25.167463,0.0 121.446645,25.166729,0.0 121.44247,25.161366,0.0 121.443634,25.160348,0.0 121.44457,25.159502,0.0 121.445303,25.158804,0.0 121.449605,25.16147,0.0 121.449972,25.161618,0.0 121.450371,25.162024,0.0 121.450572,25.162329,0.0 121.450756,25.162647,0.0 121.451047,25.162807,0.0 121.45137,25.16281,0.0 121.451534,25.16284,0.0</coordinates></LinearRing></outerBoundaryIs></Polygon><Polygon><outerBoundaryIs><LinearRing><coordinates>121.447328,25.167713,0.0 121.447659,25.16843,0.0 121.448048,25.169325,0.0 121.448526,25.169998,0.0 121.449157,25.170877,0.0 121.448473,25.171383,0.0 121.447856,25.171666,0.0 121.447161,25.17189,0.0 121.445999,25.172194,0.0 121.445776,25.171499,0.0 121.445643,25.170481,0.0 121.44549,25.169675,0.0 121.445522,25.168456,0.0 121.446622,25.167886,0.0 121.447328,25.167713,0.0</coordinates></LinearRing></outerBoundaryIs></Polygon></MultiGeometry><styleUrl>#spolygon-map</styleUrl></Placemark><Placemark><Polygon><outerBoundaryIs><LinearRing><coordinates>121.464022,25.175523,0.0 121.461569,25.176219,0.0 121.459424,25.176586,0.0 121.457485,25.176212,0.0 121.45567,25.175593,0.0 121.453096,25.175129,0.0 121.451615,25.174314,0.0 121.450364,25.173823,0.0 121.448483,25.173407,0.0 121.449647,25.173227,0.0 121.449464,25.173113,0.0 121.448989,25.173129,0.0 121.447644,25.173034,0.0 121.447074,25.17291,0.0 121.446563,25.172732,0.0 121.445969,25.172558,0.0 121.445871,25.172217,0.0 121.447032,25.171923,0.0 121.447713,25.171717,0.0 121.448333,25.171461,0.0 121.449222,25.170968,0.0 121.449504,25.170957,0.0 121.44964,25.171337,0.0 121.449927,25.17124,0.0 121.45001,25.17104,0.0 121.450431,25.171256,0.0 121.450708,25.170939,0.0 121.450812,25.171329,0.0 121.451052,25.171575,0.0 121.451305,25.171574,0.0 121.451619,25.171395,0.0 121.451907,25.171471,0.0 121.452193,25.171368,0.0 121.452389,25.171725,0.0 121.453078,25.171624,0.0 121.453532,25.171345,0.0 121.454295,25.171376,0.0 121.454574,25.171048,0.0 121.454994,25.171174,0.0 121.455502,25.171134,0.0 121.455865,25.171336,0.0 121.456365,25.170816,0.0 121.456745,25.17064,0.0 121.457124,25.17093,0.0 121.457354,25.170838,0.0 121.457511,25.170417,0.0 121.46001,25.169308,0.0 121.460576,25.169285,0.0 121.461225,25.169455,0.0 121.461813,25.169498,0.0 121.463712,25.17366,0.0 121.464704,25.174021,0.0 121.464945,25.174283,0.0 121.465078,25.175344,0.0 121.464168,25.17548,0.0 121.464022,25.175523,0.0</coordinates></LinearRing></outerBoundaryIs></Polygon><styleUrl>#spolygon-map</styleUrl></Placemark><Placemark><Polygon><outerBoundaryIs><LinearRing><coordinates>121.423342,25.182939,0.0 121.424494,25.183833,0.0 121.425369,25.184686,0.0 121.424552,25.185262,0.0 121.423529,25.185273,0.0 121.42263,25.183827,0.0 121.421349,25.182419,0.0 121.421184,25.181808,0.0 121.420266,25.180963,0.0 121.421255,25.180393,0.0 121.42277,25.180783,0.0 121.423048,25.181371,0.0 121.422977,25.181919,0.0 121.422948,25.182634,0.0 121.423342,25.182939,0.0</coordinates></LinearRing></outerBoundaryIs></Polygon><styleUrl>#spolygon-map</styleUrl></Placemark></Document>
</kml>
