<?xml version="1.0" encoding="UTF-8"?>
<kml xmlns="http://www.opengis.net/kml/2.2">
	<Document>
		<name>新北市石碇區</name>
		<Style id="spolygon">
			<LabelStyle>
				<scale>0.0</scale>
			</LabelStyle>
			<LineStyle>
				<color>330030ff</color>
				<width>0</width>
			</LineStyle>
			<PolyStyle>
				<color>330030ff</color>
			</PolyStyle>
		</Style>
		<StyleMap id="spolygon-map">
			<Pair>
				<key>normal</key>
				<styleUrl>#spolygon</styleUrl>
			</Pair>
		</StyleMap>
	<Placemark><Polygon><outerBoundaryIs><LinearRing><coordinates>121.657673,24.990966,0.0 121.657155,24.991064,0.0 121.655827,24.991412,0.0 121.654295,24.9918,0.0 121.653717,24.99238,0.0 121.653461,24.992183,0.0 121.653148,24.991955,0.0 121.65287,24.99188,0.0 121.652598,24.9918,0.0 121.653345,24.990115,0.0 121.654948,24.987612,0.0 121.655367,24.987406,0.0 121.65662,24.988679,0.0 121.659417,24.987148,0.0 121.663157,24.989346,0.0 121.662976,24.989798,0.0 121.662541,24.990293,0.0 121.6622,24.990483,0.0 121.662137,24.99071,0.0 121.661379,24.990831,0.0 121.66093,24.990892,0.0 121.660509,24.991093,0.0 121.6602,24.991283,0.0 121.659454,24.991101,0.0 121.65896,24.991189,0.0 121.658133,24.990953,0.0 121.657673,24.990966,0.0</coordinates></LinearRing></outerBoundaryIs></Polygon><styleUrl>#spolygon-map</styleUrl></Placemark><Placemark><Polygon><outerBoundaryIs><LinearRing><coordinates>121.662558,24.999079,0.0 121.661548,24.999369,0.0 121.660492,24.999903,0.0 121.659436,25.000654,0.0 121.658874,25.001949,0.0 121.657981,25.002509,0.0 121.6555,25.003043,0.0 121.652403,25.003886,0.0 121.651282,25.004206,0.0 121.651114,25.004206,0.0 121.650953,25.004066,0.0 121.650396,25.003832,0.0 121.649452,25.003134,0.0 121.6473,25.000495,0.0 121.645911,24.998847,0.0 121.645778,24.998477,0.0 121.645743,24.998253,0.0 121.645396,24.99798,0.0 121.645093,24.99776,0.0 121.644874,24.997495,0.0 121.644715,24.997301,0.0 121.644621,24.99704,0.0 121.644597,24.996843,0.0 121.644499,24.996652,0.0 121.644158,24.996641,0.0 121.643956,24.996508,0.0 121.643868,24.996216,0.0 121.643856,24.996058,0.0 121.643871,24.995744,0.0 121.643882,24.995367,0.0 121.643822,24.995167,0.0 121.643438,24.995162,0.0 121.643157,24.995212,0.0 121.642709,24.995199,0.0 121.642295,24.995182,0.0 121.641865,24.995174,0.0 121.641527,24.995171,0.0 121.641176,24.995171,0.0 121.640729,24.99517,0.0 121.640257,24.995156,0.0 121.639833,24.995111,0.0 121.63948,24.995049,0.0 121.639213,24.994962,0.0 121.63893,24.994835,0.0 121.638664,24.994775,0.0 121.638424,24.994848,0.0 121.6381,24.994993,0.0 121.637833,24.995055,0.0 121.637656,24.994896,0.0 121.637377,24.994669,0.0 121.637104,24.994372,0.0 121.636904,24.994111,0.0 121.636752,24.99389,0.0 121.636544,24.993571,0.0 121.636565,24.99332,0.0 121.636611,24.993065,0.0 121.636493,24.992873,0.0 121.636403,24.992581,0.0 121.636543,24.992472,0.0 121.636882,24.992324,0.0 121.637119,24.992141,0.0 121.637291,24.991876,0.0 121.637587,24.991513,0.0 121.637815,24.991239,0.0 121.637784,24.991023,0.0 121.637605,24.990822,0.0 121.637404,24.990479,0.0 121.637483,24.990341,0.0 121.637556,24.99011,0.0 121.637507,24.989903,0.0 121.637346,24.98971,0.0 121.637185,24.989545,0.0 121.637133,24.989315,0.0 121.6372,24.989117,0.0 121.637381,24.988757,0.0 121.637478,24.988527,0.0 121.637541,24.988269,0.0 121.637541,24.988035,0.0 121.637403,24.987855,0.0 121.63715,24.987616,0.0 121.637043,24.987409,0.0 121.637078,24.987066,0.0 121.637106,24.986763,0.0 121.63715,24.986481,0.0 121.637339,24.986153,0.0 121.637491,24.98566,0.0 121.637401,24.985451,0.0 121.637442,24.98528,0.0 121.637576,24.985035,0.0 121.63772,24.984598,0.0 121.637811,24.984304,0.0 121.637759,24.984009,0.0 121.637724,24.983853,0.0 121.637726,24.983568,0.0 121.637815,24.98324,0.0 121.638012,24.982966,0.0 121.638206,24.982731,0.0 121.6383,24.982521,0.0 121.638429,24.98227,0.0 121.638592,24.982064,0.0 121.638871,24.981717,0.0 121.638959,24.981408,0.0 121.640104,24.98062,0.0 121.641317,24.981122,0.0 121.643646,24.982274,0.0 121.64479,24.982689,0.0 121.645927,24.983274,0.0 121.646664,24.983948,0.0 121.647835,24.984444,0.0 121.654226,24.986645,0.0 121.654906,24.987929,0.0 121.652749,24.990926,0.0 121.652706,24.991873,0.0 121.652982,24.991893,0.0 121.653254,24.992014,0.0 121.653455,24.992263,0.0 121.653784,24.992305,0.0 121.654738,24.991651,0.0 121.656273,24.991306,0.0 121.657308,24.991022,0.0 121.658017,24.990934,0.0 121.658814,24.991139,0.0 121.65941,24.991137,0.0 121.660139,24.991298,0.0 121.660478,24.99113,0.0 121.66086,24.990909,0.0 121.66129,24.990844,0.0 121.662086,24.99073,0.0 121.662211,24.990561,0.0 121.662503,24.990327,0.0 121.662854,24.989919,0.0 121.663169,24.989376,0.0 121.661869,24.987842,0.0 121.660868,24.984253,0.0 121.662468,24.982461,0.0 121.664432,24.981772,0.0 121.666188,24.980826,0.0 121.666491,24.980075,0.0 121.666263,24.979151,0.0 121.666433,24.976964,0.0 121.667839,24.975404,0.0 121.668838,24.975059,0.0 121.66983,24.975466,0.0 121.672955,24.975888,0.0 121.673729,24.976105,0.0 121.674542,24.976444,0.0 121.67531,24.976519,0.0 121.67555,24.97657,0.0 121.675764,24.976665,0.0 121.675814,24.976933,0.0 121.675385,24.977287,0.0 121.675254,24.977684,0.0 121.675089,24.978354,0.0 121.675396,24.97865,0.0 121.67573,24.978556,0.0 121.677008,24.977083,0.0 121.679184,24.978436,0.0 121.681104,24.979859,0.0 121.684943,24.982116,0.0 121.687606,24.983477,0.0 121.689262,24.984053,0.0 121.689219,24.986303,0.0 121.687514,24.988627,0.0 121.684516,24.991202,0.0 121.686604,24.993058,0.0 121.685264,24.994199,0.0 121.682675,24.994001,0.0 121.679562,24.993841,0.0 121.675185,24.992527,0.0 121.674147,24.993801,0.0 121.674364,24.99621,0.0 121.674498,24.998442,0.0 121.672619,24.999477,0.0 121.670742,24.999182,0.0 121.670266,24.999059,0.0 121.670327,24.998601,0.0 121.670398,24.998097,0.0 121.670083,24.997777,0.0 121.669339,24.997672,0.0 121.667797,24.99764,0.0 121.667037,24.99782,0.0 121.666485,24.998665,0.0 121.665931,24.999123,0.0 121.665211,24.99955,0.0 121.664418,24.999634,0.0 121.662992,24.999093,0.0 121.662558,24.999079,0.0</coordinates></LinearRing></outerBoundaryIs></Polygon><styleUrl>#spolygon-map</styleUrl></Placemark><Placemark><Polygon><outerBoundaryIs><LinearRing><coordinates>121.644339,25.024022,0.0 121.640483,25.023207,0.0 121.640343,25.022513,0.0 121.640099,25.021912,0.0 121.639427,25.021069,0.0 121.639345,25.020675,0.0 121.640001,25.019728,0.0 121.640423,25.018867,0.0 121.640913,25.018106,0.0 121.641009,25.017634,0.0 121.64099,25.017271,0.0 121.641618,25.014907,0.0 121.641388,25.014239,0.0 121.641488,25.013865,0.0 121.641483,25.013558,0.0 121.641321,25.013299,0.0 121.641548,25.013063,0.0 121.641615,25.012838,0.0 121.641207,25.012824,0.0 121.640766,25.012249,0.0 121.640808,25.011985,0.0 121.641096,25.011451,0.0 121.641371,25.010983,0.0 121.641691,25.010768,0.0 121.64148,25.010573,0.0 121.641978,25.01075,0.0 121.644018,25.011402,0.0 121.644956,25.0117,0.0 121.646382,25.010902,0.0 121.646981,25.010272,0.0 121.647903,25.009529,0.0 121.649029,25.008645,0.0 121.649777,25.007958,0.0 121.650751,25.007473,0.0 121.650782,25.007071,0.0 121.650572,25.006444,0.0 121.65101,25.005787,0.0 121.651481,25.004823,0.0 121.65127,25.00421,0.0 121.651303,25.0042,0.0 121.655007,25.003155,0.0 121.657227,25.002652,0.0 121.658726,25.002162,0.0 121.659231,25.001007,0.0 121.660024,25.000125,0.0 121.66131,24.999539,0.0 121.66231,24.999115,0.0 121.663236,24.999157,0.0 121.664597,24.999665,0.0 121.665328,24.99945,0.0 121.666019,24.999088,0.0 121.666583,24.998511,0.0 121.667128,24.997754,0.0 121.668091,24.997675,0.0 121.669462,24.997667,0.0 121.670145,24.997804,0.0 121.67041,24.998161,0.0 121.670276,24.998769,0.0 121.670284,24.999086,0.0 121.670864,24.99921,0.0 121.670486,25.00304,0.0 121.668464,25.004221,0.0 121.667244,25.005295,0.0 121.667,25.006543,0.0 121.665936,25.007275,0.0 121.666027,25.007619,0.0 121.666328,25.00759,0.0 121.666289,25.007682,0.0 121.666198,25.008006,0.0 121.666732,25.008161,0.0 121.665813,25.009526,0.0 121.665737,25.014877,0.0 121.664737,25.016269,0.0 121.664442,25.016309,0.0 121.664049,25.016699,0.0 121.664058,25.01689,0.0 121.66384,25.017081,0.0 121.663602,25.017091,0.0 121.663559,25.017272,0.0 121.663401,25.017302,0.0 121.663156,25.017386,0.0 121.662911,25.017475,0.0 121.660302,25.019338,0.0 121.658125,25.019762,0.0 121.658232,25.021773,0.0 121.658387,25.023404,0.0 121.65509,25.024047,0.0 121.650068,25.023974,0.0 121.646964,25.021615,0.0 121.644339,25.024022,0.0</coordinates></LinearRing></outerBoundaryIs></Polygon><styleUrl>#spolygon-map</styleUrl></Placemark><Placemark><Polygon><outerBoundaryIs><LinearRing><coordinates>121.664432,24.981772,0.0 121.662468,24.982461,0.0 121.660868,24.984253,0.0 121.659124,24.98772,0.0 121.656618,24.988678,0.0 121.655221,24.987152,0.0 121.65031,24.985213,0.0 121.647103,24.984251,0.0 121.646162,24.983604,0.0 121.645526,24.983179,0.0 121.644136,24.982504,0.0 121.642455,24.981748,0.0 121.640611,24.980824,0.0 121.638996,24.981091,0.0 121.639119,24.980806,0.0 121.639103,24.980604,0.0 121.638854,24.980467,0.0 121.638679,24.980385,0.0 121.638384,24.980282,0.0 121.638111,24.980192,0.0 121.637676,24.980014,0.0 121.637483,24.979903,0.0 121.637349,24.979733,0.0 121.637264,24.979466,0.0 121.637157,24.979241,0.0 121.636905,24.978961,0.0 121.636726,24.978807,0.0 121.636145,24.978814,0.0 121.635959,24.978736,0.0 121.635817,24.978611,0.0 121.635609,24.978303,0.0 121.635387,24.978139,0.0 121.635142,24.978009,0.0 121.634827,24.977897,0.0 121.634415,24.977742,0.0 121.634001,24.977707,0.0 121.6338,24.977651,0.0 121.633627,24.977481,0.0 121.633473,24.977233,0.0 121.63328,24.97704,0.0 121.633118,24.97697,0.0 121.632818,24.976647,0.0 121.632526,24.976311,0.0 121.632135,24.976038,0.0 121.631846,24.975821,0.0 121.631511,24.975499,0.0 121.631015,24.97523,0.0 121.630355,24.974796,0.0 121.631882,24.969446,0.0 121.631006,24.968866,0.0 121.631067,24.968727,0.0 121.631326,24.968759,0.0 121.631626,24.968803,0.0 121.631835,24.968853,0.0 121.632041,24.968855,0.0 121.632228,24.968903,0.0 121.632345,24.969021,0.0 121.632569,24.969063,0.0 121.63281,24.969089,0.0 121.633212,24.969155,0.0 121.633764,24.969029,0.0 121.634357,24.969244,0.0 121.63478,24.968924,0.0 121.635179,24.968966,0.0 121.635037,24.969664,0.0 121.635223,24.969818,0.0 121.63535,24.969696,0.0 121.63561,24.970338,0.0 121.635972,24.970458,0.0 121.636105,24.969965,0.0 121.636316,24.969885,0.0 121.636563,24.970315,0.0 121.636686,24.970838,0.0 121.637399,24.971407,0.0 121.637935,24.971669,0.0 121.641144,24.970236,0.0 121.642488,24.970296,0.0 121.64321,24.970665,0.0 121.644256,24.970678,0.0 121.645333,24.971051,0.0 121.646194,24.971292,0.0 121.647098,24.972066,0.0 121.647624,24.972233,0.0 121.648134,24.97118,0.0 121.648148,24.970669,0.0 121.648189,24.970129,0.0 121.648222,24.969845,0.0 121.64785,24.969998,0.0 121.647728,24.970145,0.0 121.647467,24.969945,0.0 121.647257,24.969571,0.0 121.646714,24.969263,0.0 121.646396,24.968964,0.0 121.646165,24.968736,0.0 121.645957,24.968615,0.0 121.645822,24.968384,0.0 121.645788,24.968141,0.0 121.645565,24.967718,0.0 121.64542,24.96726,0.0 121.645218,24.967046,0.0 121.645095,24.966828,0.0 121.644909,24.966656,0.0 121.644484,24.966705,0.0 121.644063,24.966883,0.0 121.643764,24.966897,0.0 121.642963,24.967134,0.0 121.641517,24.96624,0.0 121.642831,24.964758,0.0 121.645708,24.965712,0.0 121.646056,24.965885,0.0 121.646369,24.965493,0.0 121.646575,24.965668,0.0 121.646619,24.966239,0.0 121.646643,24.966645,0.0 121.646719,24.966484,0.0 121.6477,24.965723,0.0 121.649505,24.963721,0.0 121.65184,24.962583,0.0 121.65209,24.961912,0.0 121.652493,24.961393,0.0 121.652479,24.961061,0.0 121.652594,24.960615,0.0 121.652817,24.960567,0.0 121.6528,24.960338,0.0 121.653037,24.960146,0.0 121.652816,24.959888,0.0 121.65277,24.959508,0.0 121.653128,24.959282,0.0 121.65275,24.9591,0.0 121.652511,24.95869,0.0 121.652388,24.958311,0.0 121.652166,24.958003,0.0 121.65198,24.957574,0.0 121.651775,24.957367,0.0 121.651093,24.955064,0.0 121.651402,24.953517,0.0 121.65348,24.951871,0.0 121.655702,24.951953,0.0 121.658794,24.952278,0.0 121.662414,24.953636,0.0 121.667736,24.952437,0.0 121.668071,24.95234,0.0 121.66841,24.952244,0.0 121.668827,24.952273,0.0 121.669334,24.952317,0.0 121.669886,24.952416,0.0 121.670268,24.952486,0.0 121.670579,24.952571,0.0 121.67089,24.952721,0.0 121.671151,24.952885,0.0 121.671451,24.953044,0.0 121.671762,24.953207,0.0 121.672096,24.953331,0.0 121.672417,24.953427,0.0 121.672778,24.953498,0.0 121.673147,24.953556,0.0 121.673546,24.953623,0.0 121.672793,24.955183,0.0 121.67121,24.957958,0.0 121.670585,24.959884,0.0 121.670757,24.96282,0.0 121.670734,24.965409,0.0 121.670867,24.96655,0.0 121.671524,24.967738,0.0 121.67137,24.969387,0.0 121.670658,24.970056,0.0 121.669882,24.971407,0.0 121.669177,24.972437,0.0 121.66898,24.973964,0.0 121.668556,24.975046,0.0 121.666928,24.976218,0.0 121.666245,24.977767,0.0 121.666347,24.979778,0.0 121.666449,24.980309,0.0 121.665512,24.981827,0.0 121.664432,24.981772,0.0</coordinates></LinearRing></outerBoundaryIs></Polygon><styleUrl>#spolygon-map</styleUrl></Placemark><Placemark><Polygon><outerBoundaryIs><LinearRing><coordinates>121.676879,24.975919,0.0 121.67658,24.976796,0.0 121.675957,24.976774,0.0 121.675573,24.976578,0.0 121.675456,24.976545,0.0 121.674688,24.97646,0.0 121.673963,24.97626,0.0 121.673195,24.975918,0.0 121.671281,24.97576,0.0 121.669081,24.97519,0.0 121.66881,24.974755,0.0 121.669011,24.973063,0.0 121.669475,24.971936,0.0 121.670228,24.970807,0.0 121.671193,24.969699,0.0 121.671434,24.968848,0.0 121.671266,24.96712,0.0 121.670699,24.966055,0.0 121.670933,24.963955,0.0 121.670458,24.961209,0.0 121.671222,24.958059,0.0 121.671868,24.956658,0.0 121.673031,24.954497,0.0 121.674062,24.953735,0.0 121.674314,24.953793,0.0 121.674654,24.953868,0.0 121.67496,24.953937,0.0 121.675277,24.954003,0.0 121.675566,24.954078,0.0 121.675897,24.954147,0.0 121.676251,24.954195,0.0 121.676582,24.954187,0.0 121.676851,24.954128,0.0 121.677181,24.95411,0.0 121.677671,24.954125,0.0 121.678161,24.954134,0.0 121.67862,24.954162,0.0 121.678949,24.954216,0.0 121.679241,24.95429,0.0 121.68022,24.954465,0.0 121.680554,24.954546,0.0 121.680833,24.954729,0.0 121.681068,24.95503,0.0 121.681232,24.955247,0.0 121.68153,24.955546,0.0 121.681823,24.955694,0.0 121.682122,24.95586,0.0 121.682419,24.956063,0.0 121.682657,24.956405,0.0 121.682758,24.956756,0.0 121.682975,24.957206,0.0 121.683633,24.957591,0.0 121.684605,24.958125,0.0 121.685363,24.958496,0.0 121.685564,24.95875,0.0 121.685684,24.959024,0.0 121.685692,24.959368,0.0 121.685667,24.959807,0.0 121.686,24.960205,0.0 121.686327,24.960612,0.0 121.686498,24.960945,0.0 121.686647,24.961249,0.0 121.686169,24.963743,0.0 121.685731,24.96534,0.0 121.685046,24.966967,0.0 121.685203,24.966898,0.0 121.686066,24.966055,0.0 121.686564,24.965939,0.0 121.686975,24.965661,0.0 121.687096,24.965482,0.0 121.687152,24.966006,0.0 121.686952,24.966317,0.0 121.687124,24.966337,0.0 121.687278,24.96659,0.0 121.68638,24.967183,0.0 121.68517,24.9679,0.0 121.684838,24.968558,0.0 121.684102,24.96918,0.0 121.683478,24.969482,0.0 121.682689,24.970004,0.0 121.681583,24.971069,0.0 121.680494,24.972583,0.0 121.680123,24.974473,0.0 121.679145,24.97524,0.0 121.678602,24.975073,0.0 121.677346,24.974922,0.0 121.67699,24.975398,0.0 121.676879,24.975919,0.0</coordinates></LinearRing></outerBoundaryIs></Polygon><styleUrl>#spolygon-map</styleUrl></Placemark><Placemark><Polygon><outerBoundaryIs><LinearRing><coordinates>121.722315,25.007331,0.0 121.722039,25.008002,0.0 121.721633,25.008519,0.0 121.721068,25.008816,0.0 121.7205,25.008395,0.0 121.719982,25.00786,0.0 121.719644,25.00738,0.0 121.718893,25.007346,0.0 121.718072,25.007419,0.0 121.717473,25.007203,0.0 121.716905,25.006862,0.0 121.716308,25.0067,0.0 121.715654,25.006666,0.0 121.71511,25.006492,0.0 121.714651,25.006277,0.0 121.713752,25.005979,0.0 121.71342,25.006387,0.0 121.712273,25.005418,0.0 121.710913,25.004782,0.0 121.70922,25.003524,0.0 121.707951,25.00239,0.0 121.705609,25.000947,0.0 121.701812,24.999047,0.0 121.692579,24.996605,0.0 121.688959,24.995693,0.0 121.687067,24.995051,0.0 121.686407,24.992819,0.0 121.684642,24.990959,0.0 121.687827,24.988202,0.0 121.689134,24.985909,0.0 121.689168,24.983895,0.0 121.686909,24.983389,0.0 121.684462,24.9818,0.0 121.680325,24.979207,0.0 121.6787,24.978216,0.0 121.676711,24.976999,0.0 121.675691,24.978603,0.0 121.675335,24.978628,0.0 121.675082,24.978298,0.0 121.675283,24.977608,0.0 121.675411,24.977204,0.0 121.675942,24.976868,0.0 121.676503,24.976848,0.0 121.676822,24.9761,0.0 121.67699,24.975398,0.0 121.677346,24.974922,0.0 121.678602,24.975073,0.0 121.679145,24.97524,0.0 121.680123,24.974473,0.0 121.680494,24.972583,0.0 121.681583,24.971069,0.0 121.682689,24.970004,0.0 121.683478,24.969482,0.0 121.684102,24.96918,0.0 121.684838,24.968558,0.0 121.68517,24.9679,0.0 121.68638,24.967183,0.0 121.687278,24.96659,0.0 121.687124,24.966337,0.0 121.686952,24.966317,0.0 121.687152,24.966006,0.0 121.687096,24.965482,0.0 121.686975,24.965661,0.0 121.686564,24.965939,0.0 121.686066,24.966055,0.0 121.685203,24.966898,0.0 121.685046,24.966967,0.0 121.685731,24.96534,0.0 121.686169,24.963743,0.0 121.686652,24.96126,0.0 121.686858,24.961528,0.0 121.687089,24.961752,0.0 121.687411,24.962124,0.0 121.687601,24.962489,0.0 121.687694,24.962772,0.0 121.687976,24.962919,0.0 121.688451,24.963253,0.0 121.688765,24.96349,0.0 121.689728,24.963451,0.0 121.690197,24.96326,0.0 121.690524,24.963195,0.0 121.691114,24.96317,0.0 121.691593,24.963194,0.0 121.69195,24.963325,0.0 121.692225,24.963469,0.0 121.692601,24.963548,0.0 121.692858,24.963626,0.0 121.693164,24.963864,0.0 121.693481,24.96417,0.0 121.693714,24.964363,0.0 121.694065,24.96451,0.0 121.694351,24.964555,0.0 121.694923,24.964616,0.0 121.695483,24.964575,0.0 121.696143,24.964665,0.0 121.696744,24.964746,0.0 121.697503,24.964859,0.0 121.698036,24.964601,0.0 121.698608,24.964654,0.0 121.698997,24.964883,0.0 121.69941,24.965338,0.0 121.699691,24.965921,0.0 121.699955,24.966373,0.0 121.700288,24.966575,0.0 121.700654,24.966679,0.0 121.700977,24.966737,0.0 121.701423,24.966747,0.0 121.70198,24.966739,0.0 121.702299,24.966857,0.0 121.702453,24.967114,0.0 121.702696,24.967396,0.0 121.702961,24.967625,0.0 121.703166,24.968007,0.0 121.703299,24.968374,0.0 121.703567,24.968782,0.0 121.703821,24.969234,0.0 121.704,24.969663,0.0 121.704361,24.970225,0.0 121.704635,24.970617,0.0 121.704896,24.970841,0.0 121.705198,24.970964,0.0 121.705664,24.971122,0.0 121.706161,24.971282,0.0 121.70667,24.971547,0.0 121.70704,24.971961,0.0 121.707286,24.972341,0.0 121.707578,24.972578,0.0 121.707903,24.972709,0.0 121.708279,24.9727,0.0 121.708951,24.972537,0.0 121.709463,24.972462,0.0 121.710359,24.972079,0.0 121.710696,24.971896,0.0 121.711095,24.971803,0.0 121.711403,24.971946,0.0 121.711652,24.972102,0.0 121.711889,24.972252,0.0 121.712095,24.972432,0.0 121.712372,24.972243,0.0 121.712697,24.971967,0.0 121.713314,24.971852,0.0 121.713713,24.971787,0.0 121.714017,24.971564,0.0 121.714351,24.971268,0.0 121.714727,24.970955,0.0 121.71508,24.970873,0.0 121.715472,24.970842,0.0 121.715809,24.970842,0.0 121.7161,24.970939,0.0 121.7164,24.971132,0.0 121.716652,24.971272,0.0 121.71704,24.971456,0.0 121.717416,24.971436,0.0 121.717784,24.971457,0.0 121.717724,24.971849,0.0 121.717622,24.972267,0.0 121.717636,24.972608,0.0 121.717796,24.972855,0.0 121.718048,24.973195,0.0 121.718087,24.973498,0.0 121.718144,24.973796,0.0 121.718165,24.974116,0.0 121.718106,24.974375,0.0 121.718119,24.974647,0.0 121.718244,24.975044,0.0 121.718371,24.975372,0.0 121.718422,24.975691,0.0 121.71841,24.976019,0.0 121.718373,24.976352,0.0 121.718324,24.976655,0.0 121.718196,24.977037,0.0 121.718025,24.977312,0.0 121.717794,24.977538,0.0 121.717597,24.977738,0.0 121.717437,24.977983,0.0 121.717303,24.978369,0.0 121.717283,24.978871,0.0 121.717425,24.979281,0.0 121.717725,24.979493,0.0 121.717972,24.979685,0.0 121.718251,24.97987,0.0 121.718591,24.980084,0.0 121.718951,24.980147,0.0 121.719304,24.980044,0.0 121.719631,24.980122,0.0 121.719955,24.980174,0.0 121.72035,24.980207,0.0 121.720682,24.980246,0.0 121.720779,24.980635,0.0 121.720837,24.98099,0.0 121.72089,24.981196,0.0 121.721036,24.981534,0.0 121.721287,24.981755,0.0 121.721542,24.981963,0.0 121.721765,24.982165,0.0 121.721943,24.982327,0.0 121.722677,24.982437,0.0 121.722993,24.982421,0.0 121.723291,24.982442,0.0 121.723624,24.982566,0.0 121.723868,24.982752,0.0 121.724191,24.983076,0.0 121.724384,24.983369,0.0 121.724533,24.983612,0.0 121.724663,24.983952,0.0 121.72474,24.984318,0.0 121.724806,24.984684,0.0 121.724843,24.985153,0.0 121.7248,24.985418,0.0 121.724728,24.985673,0.0 121.724563,24.986347,0.0 121.724653,24.986786,0.0 121.724852,24.987102,0.0 121.72499,24.987398,0.0 121.72518,24.987712,0.0 121.725461,24.987903,0.0 121.725742,24.988109,0.0 121.725972,24.988308,0.0 121.726185,24.988528,0.0 121.726442,24.988776,0.0 121.726798,24.98916,0.0 121.726836,24.989454,0.0 121.726724,24.98981,0.0 121.726609,24.990103,0.0 121.726354,24.990416,0.0 121.726087,24.990664,0.0 121.725882,24.99087,0.0 121.725735,24.991111,0.0 121.725581,24.991447,0.0 121.725448,24.99168,0.0 121.72529,24.991864,0.0 121.725089,24.99216,0.0 121.725001,24.992404,0.0 121.72492,24.992702,0.0 121.724863,24.992972,0.0 121.724801,24.993238,0.0 121.724699,24.993512,0.0 121.724564,24.99379,0.0 121.724474,24.994015,0.0 121.724364,24.994256,0.0 121.724279,24.994422,0.0 121.724224,24.994668,0.0 121.724127,24.99485,0.0 121.724011,24.995054,0.0 121.723924,24.995225,0.0 121.723839,24.995443,0.0 121.723847,24.995746,0.0 121.723767,24.996052,0.0 121.723591,24.996291,0.0 121.72339,24.99654,0.0 121.723278,24.996763,0.0 121.723103,24.997094,0.0 121.722836,24.997336,0.0 121.722564,24.997599,0.0 121.722334,24.997818,0.0 121.722069,24.997986,0.0 121.721509,24.998306,0.0 121.720786,24.999387,0.0 121.720558,25.000325,0.0 121.7208,25.000945,0.0 121.721571,25.001127,0.0 121.721779,25.001731,0.0 121.72196,25.00262,0.0 121.722233,25.003489,0.0 121.722324,25.00397,0.0 121.722298,25.004459,0.0 121.722604,25.004946,0.0 121.722596,25.005617,0.0 121.722443,25.006362,0.0 121.722354,25.007161,0.0 121.722315,25.007331,0.0</coordinates></LinearRing></outerBoundaryIs></Polygon><styleUrl>#spolygon-map</styleUrl></Placemark><Placemark><Polygon><outerBoundaryIs><LinearRing><coordinates>121.70411,25.018488,0.0 121.703675,25.019284,0.0 121.70326,25.020169,0.0 121.702852,25.020865,0.0 121.702411,25.021613,0.0 121.701847,25.022355,0.0 121.701183,25.023055,0.0 121.701328,25.023731,0.0 121.699625,25.022411,0.0 121.697042,25.019871,0.0 121.694183,25.018461,0.0 121.691472,25.01841,0.0 121.688584,25.017449,0.0 121.686063,25.017901,0.0 121.682412,25.018114,0.0 121.68029,25.016518,0.0 121.679926,25.01531,0.0 121.679564,25.014629,0.0 121.679357,25.013511,0.0 121.679628,25.012426,0.0 121.679683,25.011541,0.0 121.679712,25.010822,0.0 121.680068,25.010859,0.0 121.680954,25.010755,0.0 121.68143,25.01043,0.0 121.682797,25.009644,0.0 121.683393,25.009174,0.0 121.684244,25.009051,0.0 121.684206,25.008092,0.0 121.683915,25.007616,0.0 121.683355,25.007384,0.0 121.682858,25.007321,0.0 121.682345,25.007061,0.0 121.681684,25.006905,0.0 121.680458,25.006215,0.0 121.680415,25.004806,0.0 121.680563,25.003839,0.0 121.680654,25.002817,0.0 121.681778,25.001841,0.0 121.68404,24.999795,0.0 121.685147,24.998315,0.0 121.687669,24.996235,0.0 121.689815,24.995775,0.0 121.693697,24.997529,0.0 121.701991,24.999354,0.0 121.705946,25.001096,0.0 121.708234,25.002566,0.0 121.70952,25.003882,0.0 121.711034,25.004822,0.0 121.712501,25.005635,0.0 121.713361,25.006501,0.0 121.71304,25.007232,0.0 121.712784,25.007946,0.0 121.712318,25.008727,0.0 121.712103,25.009369,0.0 121.7117,25.009883,0.0 121.711158,25.010584,0.0 121.710607,25.011085,0.0 121.71014,25.01161,0.0 121.709511,25.011864,0.0 121.709013,25.012115,0.0 121.708513,25.012686,0.0 121.707905,25.013062,0.0 121.707319,25.013675,0.0 121.706638,25.01436,0.0 121.706087,25.015129,0.0 121.706464,25.015842,0.0 121.706662,25.016264,0.0 121.706944,25.01689,0.0 121.706483,25.017513,0.0 121.705715,25.017892,0.0 121.705064,25.017956,0.0 121.704479,25.018124,0.0 121.70411,25.018488,0.0</coordinates></LinearRing></outerBoundaryIs></Polygon><styleUrl>#spolygon-map</styleUrl></Placemark><Placemark><Polygon><outerBoundaryIs><LinearRing><coordinates>121.66172,25.023205,0.0 121.658232,25.021773,0.0 121.658125,25.019762,0.0 121.660302,25.019338,0.0 121.662911,25.017475,0.0 121.663156,25.017386,0.0 121.663401,25.017302,0.0 121.663559,25.017272,0.0 121.663602,25.017091,0.0 121.66384,25.017081,0.0 121.664058,25.01689,0.0 121.664049,25.016699,0.0 121.664442,25.016309,0.0 121.664737,25.016269,0.0 121.665737,25.014877,0.0 121.665813,25.009526,0.0 121.666732,25.008161,0.0 121.666198,25.008006,0.0 121.666289,25.007682,0.0 121.666328,25.00759,0.0 121.666027,25.007619,0.0 121.665936,25.007275,0.0 121.667,25.006543,0.0 121.667244,25.005295,0.0 121.668464,25.004221,0.0 121.670486,25.00304,0.0 121.672129,24.999416,0.0 121.674163,24.998819,0.0 121.674666,24.996694,0.0 121.674251,24.994168,0.0 121.674697,24.992659,0.0 121.67819,24.993422,0.0 121.682325,24.994054,0.0 121.684802,24.994185,0.0 121.687067,24.995051,0.0 121.686601,24.99709,0.0 121.684399,24.99925,0.0 121.683559,25.000765,0.0 121.680947,25.002412,0.0 121.680591,25.003257,0.0 121.680552,25.004339,0.0 121.680394,25.005357,0.0 121.681124,25.00675,0.0 121.681882,25.006873,0.0 121.682673,25.007226,0.0 121.68325,25.007383,0.0 121.6836,25.007539,0.0 121.684185,25.007769,0.0 121.684054,25.008781,0.0 121.684039,25.009041,0.0 121.68325,25.00927,0.0 121.682274,25.010064,0.0 121.681207,25.010596,0.0 121.680732,25.010817,0.0 121.679889,25.010858,0.0 121.679565,25.010957,0.0 121.679716,25.01189,0.0 121.679446,25.013048,0.0 121.679381,25.014208,0.0 121.679816,25.014946,0.0 121.680008,25.015949,0.0 121.678204,25.015388,0.0 121.677232,25.016542,0.0 121.674243,25.016542,0.0 121.673684,25.016891,0.0 121.673095,25.0179,0.0 121.672868,25.01816,0.0 121.672006,25.018483,0.0 121.664816,25.021652,0.0 121.66172,25.023205,0.0</coordinates></LinearRing></outerBoundaryIs></Polygon><styleUrl>#spolygon-map</styleUrl></Placemark><Placemark><Polygon><outerBoundaryIs><LinearRing><coordinates>121.692687,25.041599,0.0 121.692069,25.041799,0.0 121.690777,25.041587,0.0 121.68913,25.041595,0.0 121.687985,25.041453,0.0 121.687124,25.041027,0.0 121.686547,25.040581,0.0 121.685694,25.040128,0.0 121.684356,25.040141,0.0 121.683378,25.039386,0.0 121.682119,25.03867,0.0 121.682134,25.038045,0.0 121.681671,25.037751,0.0 121.68086,25.037422,0.0 121.679826,25.036861,0.0 121.678552,25.036457,0.0 121.678184,25.036114,0.0 121.678054,25.035912,0.0 121.677873,25.035547,0.0 121.676786,25.034772,0.0 121.675655,25.034914,0.0 121.674304,25.034893,0.0 121.672946,25.034544,0.0 121.671943,25.034239,0.0 121.671256,25.033239,0.0 121.670633,25.0327,0.0 121.670352,25.032956,0.0 121.670096,25.033109,0.0 121.669668,25.033255,0.0 121.669244,25.033282,0.0 121.668888,25.033123,0.0 121.668496,25.033244,0.0 121.667461,25.033304,0.0 121.667078,25.033412,0.0 121.666236,25.033613,0.0 121.665852,25.03345,0.0 121.665684,25.032827,0.0 121.665701,25.031603,0.0 121.665658,25.031115,0.0 121.665566,25.030372,0.0 121.665786,25.030021,0.0 121.66485,25.027812,0.0 121.664027,25.023273,0.0 121.667913,25.019561,0.0 121.672596,25.018264,0.0 121.672962,25.018111,0.0 121.673317,25.017533,0.0 121.674004,25.0166,0.0 121.676265,25.016983,0.0 121.677845,25.015737,0.0 121.679447,25.016062,0.0 121.681653,25.017469,0.0 121.684527,25.017985,0.0 121.687808,25.017349,0.0 121.690473,25.017872,0.0 121.693327,25.018527,0.0 121.696555,25.019322,0.0 121.698707,25.02167,0.0 121.70082,25.023535,0.0 121.701515,25.024197,0.0 121.702168,25.024912,0.0 121.702737,25.025677,0.0 121.703847,25.026425,0.0 121.704428,25.026605,0.0 121.704425,25.027624,0.0 121.703859,25.028598,0.0 121.703176,25.029613,0.0 121.703503,25.030055,0.0 121.702968,25.031008,0.0 121.702999,25.032106,0.0 121.702408,25.032919,0.0 121.701372,25.034048,0.0 121.699886,25.03395,0.0 121.698422,25.034766,0.0 121.696668,25.035489,0.0 121.695977,25.036442,0.0 121.695482,25.037554,0.0 121.695989,25.038241,0.0 121.696323,25.038514,0.0 121.695732,25.039312,0.0 121.695773,25.040458,0.0 121.695203,25.040806,0.0 121.693904,25.040932,0.0 121.693644,25.04137,0.0 121.692795,25.041571,0.0 121.692687,25.041599,0.0</coordinates></LinearRing></outerBoundaryIs></Polygon><styleUrl>#spolygon-map</styleUrl></Placemark><Placemark><Polygon><outerBoundaryIs><LinearRing><coordinates>121.651361,25.004448,0.0 121.651225,25.005544,0.0 121.650595,25.006287,0.0 121.650722,25.006879,0.0 121.650886,25.007342,0.0 121.650004,25.007856,0.0 121.649285,25.008439,0.0 121.648323,25.009134,0.0 121.647237,25.009975,0.0 121.646752,25.010637,0.0 121.645321,25.011612,0.0 121.644543,25.01159,0.0 121.642406,25.010891,0.0 121.64136,25.010484,0.0 121.64114,25.010264,0.0 121.641212,25.009966,0.0 121.641136,25.009547,0.0 121.640953,25.009135,0.0 121.641051,25.008648,0.0 121.641562,25.008432,0.0 121.642239,25.008013,0.0 121.64209,25.007862,0.0 121.64171,25.007495,0.0 121.641228,25.007345,0.0 121.640916,25.00688,0.0 121.640549,25.006325,0.0 121.64004,25.005748,0.0 121.639499,25.005235,0.0 121.639491,25.004835,0.0 121.639524,25.004104,0.0 121.639714,25.003577,0.0 121.640051,25.00307,0.0 121.640592,25.00259,0.0 121.64106,25.002441,0.0 121.641752,25.002461,0.0 121.642401,25.001991,0.0 121.643,25.001938,0.0 121.643958,25.002064,0.0 121.644433,25.002058,0.0 121.645042,25.001954,0.0 121.645495,25.001934,0.0 121.645447,25.001606,0.0 121.645232,25.001294,0.0 121.645583,25.001175,0.0 121.645594,25.00093,0.0 121.645506,25.000232,0.0 121.645457,24.999673,0.0 121.645469,24.99941,0.0 121.645676,24.998878,0.0 121.646784,24.9996,0.0 121.64826,25.002092,0.0 121.649977,25.00355,0.0 121.650722,25.003956,0.0 121.651073,25.004151,0.0 121.651268,25.004223,0.0 121.651361,25.004448,0.0</coordinates></LinearRing></outerBoundaryIs></Polygon><styleUrl>#spolygon-map</styleUrl></Placemark><Placemark><Polygon><outerBoundaryIs><LinearRing><coordinates>121.666086,24.953799,0.0 121.66192,24.953021,0.0 121.658459,24.95226,0.0 121.654933,24.951588,0.0 121.653018,24.951248,0.0 121.651936,24.950639,0.0 121.650708,24.950477,0.0 121.649344,24.950823,0.0 121.648027,24.951591,0.0 121.64704,24.951094,0.0 121.646023,24.949013,0.0 121.643998,24.948044,0.0 121.642978,24.94569,0.0 121.640773,24.943297,0.0 121.639349,24.941062,0.0 121.638593,24.940479,0.0 121.638438,24.939777,0.0 121.638135,24.939311,0.0 121.637901,24.938555,0.0 121.637614,24.937897,0.0 121.637687,24.937573,0.0 121.637766,24.937177,0.0 121.637779,24.936725,0.0 121.638354,24.936349,0.0 121.638144,24.936022,0.0 121.638108,24.935433,0.0 121.638596,24.935222,0.0 121.638214,24.934881,0.0 121.638097,24.934553,0.0 121.63828,24.933942,0.0 121.637735,24.933263,0.0 121.637291,24.933021,0.0 121.63685,24.931827,0.0 121.636433,24.931382,0.0 121.635927,24.931193,0.0 121.635401,24.9304,0.0 121.635571,24.928934,0.0 121.634159,24.927573,0.0 121.634051,24.927588,0.0 121.633646,24.927697,0.0 121.633486,24.927838,0.0 121.633004,24.928292,0.0 121.632747,24.928919,0.0 121.632639,24.929619,0.0 121.632614,24.930652,0.0 121.632734,24.931491,0.0 121.633195,24.932716,0.0 121.633338,24.934277,0.0 121.632486,24.935388,0.0 121.630394,24.936088,0.0 121.628782,24.935921,0.0 121.625746,24.934551,0.0 121.62382,24.934569,0.0 121.623212,24.934014,0.0 121.623866,24.932766,0.0 121.625138,24.930903,0.0 121.62519,24.929406,0.0 121.624259,24.927388,0.0 121.622892,24.924137,0.0 121.622705,24.921871,0.0 121.622233,24.919923,0.0 121.622396,24.918608,0.0 121.622009,24.916717,0.0 121.620791,24.914595,0.0 121.619342,24.9132,0.0 121.617936,24.912457,0.0 121.616639,24.912593,0.0 121.61627,24.913513,0.0 121.616427,24.915386,0.0 121.616249,24.917164,0.0 121.615582,24.918331,0.0 121.613092,24.920622,0.0 121.609114,24.923216,0.0 121.606777,24.923994,0.0 121.604059,24.923961,0.0 121.602279,24.923117,0.0 121.601249,24.921997,0.0 121.600796,24.920969,0.0 121.600597,24.919299,0.0 121.600452,24.917973,0.0 121.600195,24.91601,0.0 121.60042,24.913056,0.0 121.601065,24.910203,0.0 121.601085,24.908219,0.0 121.600214,24.90832,0.0 121.598888,24.90902,0.0 121.597873,24.910179,0.0 121.597491,24.910215,0.0 121.597093,24.910191,0.0 121.596627,24.910234,0.0 121.596249,24.910455,0.0 121.595849,24.910674,0.0 121.595472,24.910903,0.0 121.595204,24.911101,0.0 121.595055,24.911429,0.0 121.594935,24.911804,0.0 121.594753,24.912204,0.0 121.594561,24.91257,0.0 121.594314,24.912951,0.0 121.59408,24.91323,0.0 121.593762,24.913473,0.0 121.593464,24.913677,0.0 121.593059,24.913922,0.0 121.592718,24.914104,0.0 121.592381,24.91423,0.0 121.592027,24.914343,0.0 121.591666,24.914415,0.0 121.591278,24.914394,0.0 121.590913,24.914445,0.0 121.590438,24.914542,0.0 121.589926,24.914554,0.0 121.589498,24.914497,0.0 121.589117,24.914381,0.0 121.588778,24.914257,0.0 121.588569,24.914154,0.0 121.588262,24.913995,0.0 121.587999,24.913856,0.0 121.587581,24.913618,0.0 121.587297,24.913444,0.0 121.586925,24.913203,0.0 121.586587,24.912962,0.0 121.586136,24.912635,0.0 121.585773,24.912346,0.0 121.585477,24.912103,0.0 121.585227,24.911877,0.0 121.584896,24.911635,0.0 121.584597,24.911465,0.0 121.584204,24.911261,0.0 121.583875,24.911108,0.0 121.583501,24.910924,0.0 121.583124,24.910723,0.0 121.58261,24.910462,0.0 121.58206,24.910204,0.0 121.581498,24.909995,0.0 121.580991,24.909747,0.0 121.580452,24.909486,0.0 121.579891,24.909312,0.0 121.57923,24.909066,0.0 121.578647,24.908864,0.0 121.578091,24.908735,0.0 121.577488,24.908719,0.0 121.576827,24.908723,0.0 121.576304,24.908742,0.0 121.575924,24.908826,0.0 121.575432,24.90896,0.0 121.574981,24.908978,0.0 121.57436,24.909008,0.0 121.573766,24.909024,0.0 121.573338,24.90902,0.0 121.572766,24.908892,0.0 121.57238,24.908782,0.0 121.571943,24.908709,0.0 121.571603,24.90854,0.0 121.571296,24.908289,0.0 121.571098,24.908014,0.0 121.571019,24.90761,0.0 121.570932,24.907226,0.0 121.57071,24.906885,0.0 121.570465,24.906608,0.0 121.570158,24.906305,0.0 121.569858,24.906044,0.0 121.569556,24.905768,0.0 121.569282,24.905517,0.0 121.568952,24.905261,0.0 121.56854,24.904995,0.0 121.568235,24.904816,0.0 121.567922,24.904635,0.0 121.567543,24.904422,0.0 121.567134,24.904169,0.0 121.566746,24.903905,0.0 121.566469,24.903679,0.0 121.566475,24.90348,0.0 121.566973,24.903385,0.0 121.567395,24.903461,0.0 121.567811,24.903322,0.0 121.568127,24.903185,0.0 121.568669,24.902587,0.0 121.568866,24.902133,0.0 121.569069,24.901844,0.0 121.569232,24.90162,0.0 121.569738,24.901484,0.0 121.570134,24.901331,0.0 121.570465,24.90111,0.0 121.570777,24.900944,0.0 121.570996,24.900686,0.0 121.571237,24.900556,0.0 121.571495,24.900309,0.0 121.571745,24.900141,0.0 121.572182,24.899958,0.0 121.57262,24.899848,0.0 121.572921,24.899773,0.0 121.573415,24.899746,0.0 121.573753,24.899563,0.0 121.574098,24.899419,0.0 121.574613,24.89921,0.0 121.574966,24.899102,0.0 121.575504,24.898993,0.0 121.575946,24.898805,0.0 121.576256,24.898703,0.0 121.576455,24.898442,0.0 121.576634,24.898215,0.0 121.577717,24.897321,0.0 121.578426,24.896686,0.0 121.578762,24.895887,0.0 121.578862,24.89507,0.0 121.578604,24.894294,0.0 121.578231,24.893537,0.0 121.578289,24.892464,0.0 121.578309,24.891591,0.0 121.578191,24.890668,0.0 121.577785,24.889885,0.0 121.577525,24.888815,0.0 121.577153,24.888245,0.0 121.576618,24.887708,0.0 121.576442,24.886933,0.0 121.576411,24.886207,0.0 121.576471,24.885459,0.0 121.576708,24.884914,0.0 121.576912,24.884203,0.0 121.577398,24.883554,0.0 121.577922,24.883223,0.0 121.577369,24.8826,0.0 121.576955,24.881701,0.0 121.577461,24.880804,0.0 121.577829,24.880212,0.0 121.577971,24.879527,0.0 121.577761,24.878801,0.0 121.577272,24.878102,0.0 121.576678,24.877614,0.0 121.576434,24.876935,0.0 121.576227,24.876034,0.0 121.575858,24.875285,0.0 121.576472,24.874893,0.0 121.577121,24.874634,0.0 121.578076,24.874199,0.0 121.578983,24.874255,0.0 121.579813,24.874305,0.0 121.580634,24.874188,0.0 121.581252,24.874032,0.0 121.581877,24.873597,0.0 121.583607,24.873351,0.0 121.584308,24.872874,0.0 121.585114,24.872659,0.0 121.585527,24.872107,0.0 121.585921,24.871614,0.0 121.586618,24.871098,0.0 121.587434,24.87056,0.0 121.588056,24.870161,0.0 121.588677,24.869916,0.0 121.589448,24.869777,0.0 121.590039,24.869349,0.0 121.590373,24.868858,0.0 121.590787,24.868157,0.0 121.591258,24.867419,0.0 121.591838,24.86665,0.0 121.592618,24.866219,0.0 121.593426,24.866164,0.0 121.594431,24.866367,0.0 121.595366,24.866392,0.0 121.596058,24.866237,0.0 121.596597,24.865911,0.0 121.596854,24.86526,0.0 121.59718,24.864549,0.0 121.598279,24.864087,0.0 121.599191,24.864016,0.0 121.599844,24.863816,0.0 121.600623,24.863332,0.0 121.601531,24.863235,0.0 121.60292,24.86323,0.0 121.604074,24.863239,0.0 121.605308,24.863298,0.0 121.607714,24.863178,0.0 121.6101,24.862815,0.0 121.613521,24.861531,0.0 121.615028,24.8611,0.0 121.616081,24.860953,0.0 121.61816,24.861934,0.0 121.619595,24.861526,0.0 121.620194,24.862743,0.0 121.621032,24.863241,0.0 121.622309,24.862669,0.0 121.624266,24.862036,0.0 121.625463,24.861502,0.0 121.628499,24.861415,0.0 121.629931,24.861351,0.0 121.630693,24.860605,0.0 121.631741,24.859513,0.0 121.6327,24.859342,0.0 121.633794,24.859064,0.0 121.63487,24.858193,0.0 121.635564,24.85749,0.0 121.636321,24.85847,0.0 121.637243,24.859326,0.0 121.637958,24.859828,0.0 121.638638,24.861044,0.0 121.640136,24.861807,0.0 121.641538,24.861977,0.0 121.642483,24.861358,0.0 121.643243,24.860679,0.0 121.644186,24.860745,0.0 121.645388,24.861663,0.0 121.646485,24.862926,0.0 121.647137,24.863861,0.0 121.647582,24.865869,0.0 121.648135,24.867478,0.0 121.648801,24.867847,0.0 121.650542,24.868726,0.0 121.651062,24.86953,0.0 121.652438,24.870139,0.0 121.653388,24.870629,0.0 121.653264,24.871699,0.0 121.653353,24.872998,0.0 121.65373,24.875207,0.0 121.654226,24.876433,0.0 121.653717,24.877471,0.0 121.652869,24.878191,0.0 121.650546,24.879051,0.0 121.649859,24.880024,0.0 121.649803,24.881092,0.0 121.650666,24.882359,0.0 121.650989,24.883584,0.0 121.651607,24.88489,0.0 121.651601,24.886649,0.0 121.651661,24.888051,0.0 121.652401,24.888982,0.0 121.652919,24.889935,0.0 121.6524,24.890739,0.0 121.651714,24.891646,0.0 121.650587,24.892552,0.0 121.649708,24.893437,0.0 121.648963,24.895029,0.0 121.649242,24.895723,0.0 121.650294,24.896289,0.0 121.651192,24.89735,0.0 121.652465,24.897626,0.0 121.652984,24.89821,0.0 121.653314,24.898577,0.0 121.653749,24.898637,0.0 121.657337,24.899953,0.0 121.657778,24.9002,0.0 121.658205,24.900498,0.0 121.65851,24.900703,0.0 121.658921,24.90084,0.0 121.659403,24.900999,0.0 121.659855,24.9012,0.0 121.660226,24.901391,0.0 121.660563,24.901633,0.0 121.660919,24.901926,0.0 121.661164,24.902189,0.0 121.661404,24.902464,0.0 121.661663,24.902827,0.0 121.661926,24.903184,0.0 121.662079,24.903551,0.0 121.66209,24.904066,0.0 121.661922,24.904451,0.0 121.661686,24.9048,0.0 121.661708,24.905209,0.0 121.662054,24.905497,0.0 121.662328,24.905737,0.0 121.662641,24.906016,0.0 121.662944,24.906287,0.0 121.663241,24.906512,0.0 121.663549,24.906634,0.0 121.663982,24.906693,0.0 121.664538,24.906833,0.0 121.664973,24.907219,0.0 121.665303,24.907686,0.0 121.665611,24.907976,0.0 121.666074,24.908408,0.0 121.665639,24.908772,0.0 121.665262,24.909124,0.0 121.665022,24.909459,0.0 121.664753,24.909879,0.0 121.664473,24.910426,0.0 121.664217,24.911095,0.0 121.664179,24.911578,0.0 121.664215,24.912281,0.0 121.664216,24.912769,0.0 121.664059,24.913147,0.0 121.663811,24.91344,0.0 121.663684,24.913841,0.0 121.663421,24.91438,0.0 121.663262,24.914767,0.0 121.663338,24.915293,0.0 121.663519,24.91564,0.0 121.663796,24.915934,0.0 121.664106,24.916173,0.0 121.664489,24.916353,0.0 121.664948,24.916435,0.0 121.665376,24.916532,0.0 121.665647,24.916802,0.0 121.665901,24.917029,0.0 121.666168,24.917146,0.0 121.666449,24.917113,0.0 121.667052,24.917105,0.0 121.667496,24.917187,0.0 121.667911,24.917299,0.0 121.668278,24.917401,0.0 121.668804,24.917577,0.0 121.669219,24.917768,0.0 121.669656,24.917986,0.0 121.670336,24.918373,0.0 121.670653,24.918661,0.0 121.671028,24.918935,0.0 121.671406,24.919096,0.0 121.671731,24.919221,0.0 121.672149,24.919372,0.0 121.672558,24.919639,0.0 121.673361,24.920038,0.0 121.673646,24.920397,0.0 121.673767,24.920719,0.0 121.673981,24.920978,0.0 121.674318,24.921212,0.0 121.674905,24.921532,0.0 121.675407,24.921603,0.0 121.675825,24.921503,0.0 121.676413,24.921429,0.0 121.676851,24.921482,0.0 121.677303,24.921657,0.0 121.677779,24.921956,0.0 121.67789,24.922165,0.0 121.677161,24.922483,0.0 121.676599,24.922777,0.0 121.676214,24.923153,0.0 121.676026,24.92366,0.0 121.675853,24.924047,0.0 121.6757,24.924465,0.0 121.675549,24.924979,0.0 121.675368,24.925466,0.0 121.675191,24.92587,0.0 121.675039,24.926165,0.0 121.674798,24.9265,0.0 121.674413,24.926776,0.0 121.673942,24.927011,0.0 121.673404,24.927292,0.0 121.672881,24.927575,0.0 121.672301,24.927923,0.0 121.671905,24.928199,0.0 121.671522,24.928508,0.0 121.671079,24.929024,0.0 121.670856,24.929395,0.0 121.670539,24.929675,0.0 121.670264,24.929932,0.0 121.670136,24.930248,0.0 121.670082,24.9307,0.0 121.670177,24.931095,0.0 121.670179,24.931661,0.0 121.670152,24.932348,0.0 121.670145,24.933033,0.0 121.670037,24.933488,0.0 121.669955,24.933873,0.0 121.669895,24.934364,0.0 121.669843,24.934971,0.0 121.669809,24.935564,0.0 121.669766,24.936347,0.0 121.669763,24.937144,0.0 121.669699,24.937573,0.0 121.669573,24.93814,0.0 121.669533,24.938587,0.0 121.669614,24.938899,0.0 121.66928,24.939165,0.0 121.668694,24.939371,0.0 121.668207,24.939492,0.0 121.667821,24.939615,0.0 121.667361,24.939681,0.0 121.667025,24.939819,0.0 121.666974,24.940206,0.0 121.66684,24.940603,0.0 121.666646,24.941003,0.0 121.666611,24.94147,0.0 121.666708,24.942031,0.0 121.666657,24.942407,0.0 121.666605,24.942872,0.0 121.666503,24.943419,0.0 121.666477,24.943751,0.0 121.666485,24.944266,0.0 121.666728,24.944731,0.0 121.666645,24.945014,0.0 121.666322,24.945221,0.0 121.665896,24.945603,0.0 121.665971,24.946125,0.0 121.666033,24.946663,0.0 121.666093,24.947036,0.0 121.666063,24.947569,0.0 121.666154,24.948155,0.0 121.666058,24.948474,0.0 121.665905,24.948967,0.0 121.665786,24.949348,0.0 121.66567,24.949859,0.0 121.665775,24.950239,0.0 121.666082,24.950522,0.0 121.666287,24.950762,0.0 121.66639,24.951027,0.0 121.666558,24.951379,0.0 121.666766,24.951852,0.0 121.666834,24.952279,0.0 121.666967,24.952429,0.0 121.667303,24.952467,0.0 121.667591,24.952448,0.0 121.666086,24.953799,0.0</coordinates></LinearRing></outerBoundaryIs></Polygon><styleUrl>#spolygon-map</styleUrl></Placemark><Placemark><Polygon><outerBoundaryIs><LinearRing><coordinates>121.630361,24.974782,0.0 121.630037,24.974625,0.0 121.62971,24.974452,0.0 121.629286,24.97441,0.0 121.629092,24.974202,0.0 121.628868,24.973856,0.0 121.628614,24.973588,0.0 121.628311,24.973356,0.0 121.628021,24.973161,0.0 121.627814,24.972923,0.0 121.627538,24.972715,0.0 121.627175,24.97253,0.0 121.626655,24.972331,0.0 121.626356,24.972196,0.0 121.626091,24.972023,0.0 121.625794,24.971759,0.0 121.625556,24.971552,0.0 121.625264,24.971308,0.0 121.624937,24.97113,0.0 121.624603,24.971094,0.0 121.624217,24.970989,0.0 121.624007,24.970832,0.0 121.623635,24.97074,0.0 121.623264,24.97061,0.0 121.622894,24.970476,0.0 121.622554,24.97037,0.0 121.622236,24.970262,0.0 121.621894,24.970129,0.0 121.621552,24.969983,0.0 121.621169,24.969773,0.0 121.620815,24.969595,0.0 121.620447,24.96946,0.0 121.620118,24.96933,0.0 121.619118,24.968205,0.0 121.614327,24.966435,0.0 121.609303,24.963882,0.0 121.609367,24.96336,0.0 121.609595,24.962835,0.0 121.609632,24.962357,0.0 121.609682,24.962084,0.0 121.609841,24.961731,0.0 121.610075,24.961056,0.0 121.610271,24.96046,0.0 121.610451,24.959965,0.0 121.610588,24.959414,0.0 121.610514,24.958931,0.0 121.610455,24.958623,0.0 121.610378,24.958225,0.0 121.610493,24.958134,0.0 121.610551,24.958057,0.0 121.610469,24.957985,0.0 121.61036,24.957976,0.0 121.610305,24.957396,0.0 121.610285,24.957113,0.0 121.610039,24.956581,0.0 121.609678,24.956468,0.0 121.609165,24.9564,0.0 121.608821,24.956409,0.0 121.608479,24.956481,0.0 121.608258,24.956575,0.0 121.60771,24.956347,0.0 121.607828,24.95539,0.0 121.608068,24.954316,0.0 121.60823,24.952963,0.0 121.608096,24.951312,0.0 121.607769,24.950935,0.0 121.607347,24.950613,0.0 121.606966,24.950296,0.0 121.606547,24.949911,0.0 121.606518,24.949327,0.0 121.60666,24.94875,0.0 121.60676,24.948211,0.0 121.606826,24.947769,0.0 121.607018,24.94744,0.0 121.607015,24.947056,0.0 121.606777,24.94662,0.0 121.606597,24.946319,0.0 121.606255,24.946214,0.0 121.605819,24.94627,0.0 121.605498,24.946478,0.0 121.605101,24.946802,0.0 121.604626,24.946998,0.0 121.604086,24.947038,0.0 121.603165,24.947062,0.0 121.602529,24.94708,0.0 121.601839,24.947144,0.0 121.601304,24.947096,0.0 121.601122,24.946988,0.0 121.601029,24.946681,0.0 121.600808,24.94613,0.0 121.600726,24.945831,0.0 121.600583,24.945573,0.0 121.600299,24.94526,0.0 121.599991,24.945024,0.0 121.599519,24.944929,0.0 121.598933,24.944908,0.0 121.598382,24.944874,0.0 121.597981,24.944717,0.0 121.597934,24.944266,0.0 121.597928,24.943791,0.0 121.598043,24.943042,0.0 121.598389,24.942424,0.0 121.598551,24.942023,0.0 121.59891,24.941693,0.0 121.599319,24.941386,0.0 121.599509,24.940999,0.0 121.59963,24.940425,0.0 121.599659,24.939972,0.0 121.599772,24.939516,0.0 121.599843,24.939072,0.0 121.599583,24.938782,0.0 121.599187,24.93853,0.0 121.598895,24.938476,0.0 121.598478,24.938293,0.0 121.598217,24.938005,0.0 121.597933,24.937745,0.0 121.597715,24.937523,0.0 121.597485,24.937097,0.0 121.597256,24.936601,0.0 121.597086,24.936252,0.0 121.59681,24.935718,0.0 121.596645,24.935309,0.0 121.596511,24.934993,0.0 121.596406,24.93466,0.0 121.596463,24.934269,0.0 121.59653,24.933991,0.0 121.596521,24.933188,0.0 121.596487,24.932808,0.0 121.596257,24.932577,0.0 121.596026,24.932272,0.0 121.595859,24.93176,0.0 121.595654,24.931317,0.0 121.59551,24.931001,0.0 121.595392,24.930441,0.0 121.595223,24.929856,0.0 121.595152,24.929495,0.0 121.595103,24.929011,0.0 121.594947,24.928652,0.0 121.594727,24.92838,0.0 121.5946,24.927972,0.0 121.59441,24.927636,0.0 121.594174,24.927463,0.0 121.594211,24.927163,0.0 121.594452,24.926957,0.0 121.594652,24.926722,0.0 121.594707,24.92629,0.0 121.594749,24.925843,0.0 121.594813,24.925503,0.0 121.594849,24.925082,0.0 121.595035,24.924725,0.0 121.595278,24.924541,0.0 121.595396,24.924301,0.0 121.59549,24.924074,0.0 121.595608,24.92371,0.0 121.595601,24.923336,0.0 121.595592,24.922783,0.0 121.595694,24.922271,0.0 121.595848,24.921831,0.0 121.595828,24.921224,0.0 121.595825,24.920506,0.0 121.595754,24.919765,0.0 121.596332,24.918989,0.0 121.596486,24.918371,0.0 121.596802,24.917457,0.0 121.596646,24.916802,0.0 121.596784,24.915882,0.0 121.596836,24.91509,0.0 121.596682,24.914184,0.0 121.596889,24.913459,0.0 121.596934,24.912496,0.0 121.596983,24.912174,0.0 121.597049,24.911935,0.0 121.597189,24.911645,0.0 121.597481,24.911318,0.0 121.597789,24.911125,0.0 121.598151,24.910937,0.0 121.598377,24.910752,0.0 121.598565,24.910491,0.0 121.598352,24.910337,0.0 121.598003,24.910271,0.0 121.598143,24.9099,0.0 121.599085,24.908854,0.0 121.600627,24.90813,0.0 121.601157,24.908411,0.0 121.600834,24.911229,0.0 121.600362,24.914039,0.0 121.600303,24.91681,0.0 121.600467,24.91846,0.0 121.600687,24.919921,0.0 121.600885,24.921321,0.0 121.601515,24.922336,0.0 121.602702,24.923408,0.0 121.60498,24.92408,0.0 121.607429,24.923857,0.0 121.610179,24.922578,0.0 121.614052,24.919826,0.0 121.61588,24.91795,0.0 121.616371,24.916666,0.0 121.61635,24.914736,0.0 121.616341,24.913104,0.0 121.616997,24.912406,0.0 121.618384,24.912625,0.0 121.619887,24.913641,0.0 121.621259,24.915251,0.0 121.622185,24.917231,0.0 121.622364,24.919146,0.0 121.622256,24.920081,0.0 121.622887,24.923314,0.0 121.623111,24.924869,0.0 121.624679,24.928232,0.0 121.625247,24.929711,0.0 121.624801,24.931603,0.0 121.623384,24.933379,0.0 121.623303,24.934233,0.0 121.624546,24.934657,0.0 121.625982,24.934605,0.0 121.629308,24.936085,0.0 121.63123,24.935929,0.0 121.632907,24.935028,0.0 121.633416,24.933766,0.0 121.63301,24.932255,0.0 121.632651,24.931174,0.0 121.632643,24.930251,0.0 121.632652,24.929319,0.0 121.632876,24.928545,0.0 121.633087,24.928184,0.0 121.633542,24.927772,0.0 121.633795,24.927655,0.0 121.634097,24.927559,0.0 121.635408,24.928402,0.0 121.635557,24.929408,0.0 121.635654,24.930767,0.0 121.636039,24.931287,0.0 121.636588,24.931488,0.0 121.636948,24.932162,0.0 121.63748,24.933173,0.0 121.637901,24.933379,0.0 121.638292,24.934217,0.0 121.638045,24.93465,0.0 121.638534,24.935084,0.0 121.638487,24.935298,0.0 121.638011,24.935513,0.0 121.638239,24.936143,0.0 121.638175,24.936468,0.0 121.637723,24.936863,0.0 121.637787,24.937365,0.0 121.637636,24.937653,0.0 121.637771,24.938206,0.0 121.63784,24.93875,0.0 121.638311,24.939533,0.0 121.638384,24.94019,0.0 121.639031,24.940569,0.0 121.639527,24.941743,0.0 121.642295,24.94442,0.0 121.643184,24.946438,0.0 121.644301,24.948657,0.0 121.646478,24.949696,0.0 121.647301,24.951394,0.0 121.648454,24.951433,0.0 121.649827,24.95059,0.0 121.651104,24.950521,0.0 121.652207,24.950778,0.0 121.653461,24.951302,0.0 121.652266,24.952836,0.0 121.6511,24.954134,0.0 121.651295,24.956704,0.0 121.6519,24.957444,0.0 121.652006,24.957691,0.0 121.652338,24.958204,0.0 121.652392,24.958409,0.0 121.652633,24.958962,0.0 121.652963,24.959193,0.0 121.653113,24.959373,0.0 121.652705,24.959597,0.0 121.652994,24.959911,0.0 121.652894,24.960276,0.0 121.652788,24.960439,0.0 121.652728,24.960611,0.0 121.652552,24.9607,0.0 121.652459,24.961201,0.0 121.652448,24.961612,0.0 121.651913,24.962154,0.0 121.650089,24.962814,0.0 121.649015,24.964435,0.0 121.646931,24.966037,0.0 121.646784,24.966786,0.0 121.646623,24.966548,0.0 121.646627,24.965948,0.0 121.646427,24.965462,0.0 121.646192,24.965817,0.0 121.645969,24.965852,0.0 121.643574,24.964719,0.0 121.642334,24.965281,0.0 121.642189,24.967127,0.0 121.643595,24.966787,0.0 121.643915,24.966922,0.0 121.644252,24.966777,0.0 121.644651,24.966652,0.0 121.645047,24.966733,0.0 121.645128,24.966951,0.0 121.645334,24.96714,0.0 121.645509,24.9675,0.0 121.645651,24.967914,0.0 121.645815,24.968272,0.0 121.64586,24.968463,0.0 121.646038,24.968684,0.0 121.646297,24.968827,0.0 121.646517,24.969124,0.0 121.646982,24.969402,0.0 121.647413,24.969755,0.0 121.647485,24.970161,0.0 121.647782,24.970009,0.0 121.648023,24.96993,0.0 121.648342,24.969879,0.0 121.648103,24.970348,0.0 121.648047,24.971071,0.0 121.647973,24.971659,0.0 121.647466,24.972485,0.0 121.646625,24.971474,0.0 121.645744,24.971186,0.0 121.644847,24.970802,0.0 121.643673,24.970763,0.0 121.642975,24.9705,0.0 121.641984,24.970342,0.0 121.639556,24.970782,0.0 121.63765,24.97154,0.0 121.637099,24.971105,0.0 121.636585,24.97075,0.0 121.636539,24.970079,0.0 121.63615,24.969871,0.0 121.636147,24.970261,0.0 121.635675,24.970442,0.0 121.635636,24.970253,0.0 121.635291,24.969715,0.0 121.635109,24.969779,0.0 121.635056,24.969295,0.0 121.634908,24.968917,0.0 121.634641,24.969065,0.0 121.634077,24.969242,0.0 121.633582,24.969039,0.0 121.632989,24.969127,0.0 121.632673,24.969065,0.0 121.632449,24.969052,0.0 121.632285,24.968964,0.0 121.632162,24.968863,0.0 121.631938,24.968859,0.0 121.63175,24.968828,0.0 121.63148,24.968789,0.0 121.631204,24.968734,0.0 121.630843,24.968723,0.0 121.63144,24.96912,0.0 121.632074,24.969581,0.0 121.630361,24.974782,0.0</coordinates></LinearRing></outerBoundaryIs></Polygon><styleUrl>#spolygon-map</styleUrl></Placemark></Document>
</kml>
