<?xml version="1.0" encoding="UTF-8"?>
<kml xmlns="http://www.opengis.net/kml/2.2">
	<Document>
		<name>新北市蘆洲區</name>
		<Style id="spolygon">
			<LabelStyle>
				<scale>0.0</scale>
			</LabelStyle>
			<LineStyle>
				<color>330030ff</color>
				<width>0</width>
			</LineStyle>
			<PolyStyle>
				<color>330030ff</color>
			</PolyStyle>
		</Style>
		<StyleMap id="spolygon-map">
			<Pair>
				<key>normal</key>
				<styleUrl>#spolygon</styleUrl>
			</Pair>
		</StyleMap>
	<Placemark><Polygon><outerBoundaryIs><LinearRing><coordinates>121.461149,25.097838,0.0 121.461315,25.09846,0.0 121.460948,25.098194,0.0 121.459259,25.097805,0.0 121.458195,25.097696,0.0 121.458323,25.097025,0.0 121.459478,25.095415,0.0 121.460124,25.094579,0.0 121.461092,25.093635,0.0 121.460732,25.092627,0.0 121.460464,25.092294,0.0 121.460068,25.091236,0.0 121.459572,25.09018,0.0 121.458527,25.090394,0.0 121.458705,25.089003,0.0 121.458583,25.088246,0.0 121.458059,25.087139,0.0 121.458977,25.086698,0.0 121.459403,25.085957,0.0 121.460045,25.084951,0.0 121.460534,25.084185,0.0 121.460273,25.08306,0.0 121.461381,25.083527,0.0 121.46318,25.08481,0.0 121.464298,25.085561,0.0 121.465026,25.085674,0.0 121.466687,25.086119,0.0 121.467034,25.086575,0.0 121.466389,25.087263,0.0 121.466461,25.088506,0.0 121.465747,25.089305,0.0 121.465135,25.090047,0.0 121.464224,25.091454,0.0 121.463928,25.092122,0.0 121.463164,25.093366,0.0 121.462737,25.094331,0.0 121.462157,25.095762,0.0 121.46172,25.09693,0.0 121.46153,25.097154,0.0 121.460981,25.097505,0.0 121.461149,25.097838,0.0</coordinates></LinearRing></outerBoundaryIs></Polygon><styleUrl>#spolygon-map</styleUrl></Placemark><Placemark><Polygon><outerBoundaryIs><LinearRing><coordinates>121.46828,25.085318,0.0 121.468462,25.085976,0.0 121.467722,25.087022,0.0 121.467136,25.087707,0.0 121.466718,25.088214,0.0 121.466145,25.087567,0.0 121.466975,25.086639,0.0 121.466732,25.086144,0.0 121.465062,25.085631,0.0 121.464576,25.085736,0.0 121.463351,25.084932,0.0 121.462529,25.083369,0.0 121.464761,25.082162,0.0 121.464377,25.082743,0.0 121.46464,25.084054,0.0 121.465015,25.083591,0.0 121.465913,25.084126,0.0 121.466538,25.08447,0.0 121.46732,25.084852,0.0 121.46828,25.085318,0.0</coordinates></LinearRing></outerBoundaryIs></Polygon><styleUrl>#spolygon-map</styleUrl></Placemark><Placemark><Polygon><outerBoundaryIs><LinearRing><coordinates>121.46726,25.081808,0.0 121.46649,25.082414,0.0 121.465753,25.082232,0.0 121.465048,25.082033,0.0 121.46448,25.081817,0.0 121.465351,25.080594,0.0 121.466081,25.079605,0.0 121.466352,25.079364,0.0 121.466818,25.078972,0.0 121.467642,25.078627,0.0 121.469292,25.079023,0.0 121.469736,25.079598,0.0 121.469291,25.080368,0.0 121.468678,25.081119,0.0 121.467987,25.080906,0.0 121.46726,25.081808,0.0</coordinates></LinearRing></outerBoundaryIs></Polygon><styleUrl>#spolygon-map</styleUrl></Placemark><Placemark><Polygon><outerBoundaryIs><LinearRing><coordinates>121.470507,25.083094,0.0 121.470071,25.083668,0.0 121.469853,25.084141,0.0 121.469344,25.084803,0.0 121.468439,25.085402,0.0 121.467054,25.084711,0.0 121.467285,25.083769,0.0 121.468092,25.082839,0.0 121.468784,25.083051,0.0 121.470184,25.082462,0.0 121.470507,25.083094,0.0</coordinates></LinearRing></outerBoundaryIs></Polygon><styleUrl>#spolygon-map</styleUrl></Placemark><Placemark><Polygon><outerBoundaryIs><LinearRing><coordinates>121.468676,25.085914,0.0 121.470243,25.08641,0.0 121.471102,25.086727,0.0 121.470585,25.087726,0.0 121.469459,25.088642,0.0 121.468409,25.089487,0.0 121.46771,25.089994,0.0 121.466763,25.090445,0.0 121.465831,25.090714,0.0 121.46489,25.091034,0.0 121.464978,25.090277,0.0 121.465506,25.089579,0.0 121.466377,25.088602,0.0 121.466718,25.088214,0.0 121.467136,25.087707,0.0 121.467722,25.087022,0.0 121.468462,25.085976,0.0 121.468676,25.085914,0.0</coordinates></LinearRing></outerBoundaryIs></Polygon><styleUrl>#spolygon-map</styleUrl></Placemark><Placemark><Polygon><outerBoundaryIs><LinearRing><coordinates>121.472156,25.093049,0.0 121.471566,25.09375,0.0 121.471154,25.094026,0.0 121.470611,25.094499,0.0 121.470175,25.094633,0.0 121.469869,25.094886,0.0 121.469121,25.094576,0.0 121.467956,25.093324,0.0 121.468839,25.091685,0.0 121.469556,25.090317,0.0 121.470193,25.089236,0.0 121.470451,25.088834,0.0 121.470713,25.088267,0.0 121.471378,25.088595,0.0 121.47241,25.089417,0.0 121.472923,25.089815,0.0 121.473288,25.090146,0.0 121.473876,25.090804,0.0 121.474044,25.091584,0.0 121.473507,25.092242,0.0 121.472806,25.092911,0.0 121.472156,25.093049,0.0</coordinates></LinearRing></outerBoundaryIs></Polygon><styleUrl>#spolygon-map</styleUrl></Placemark><Placemark><Polygon><outerBoundaryIs><LinearRing><coordinates>121.484091,25.088655,0.0 121.486115,25.090489,0.0 121.487453,25.091694,0.0 121.488291,25.092269,0.0 121.48789,25.09261,0.0 121.48498,25.091487,0.0 121.483288,25.090824,0.0 121.481481,25.090168,0.0 121.478686,25.089212,0.0 121.479149,25.088549,0.0 121.480368,25.088641,0.0 121.48053,25.088441,0.0 121.480907,25.087845,0.0 121.482442,25.08658,0.0 121.483788,25.085662,0.0 121.483679,25.08717,0.0 121.484106,25.088395,0.0 121.484091,25.088655,0.0</coordinates></LinearRing></outerBoundaryIs></Polygon><styleUrl>#spolygon-map</styleUrl></Placemark><Placemark><Polygon><outerBoundaryIs><LinearRing><coordinates>121.476657,25.084369,0.0 121.478067,25.085118,0.0 121.47838,25.086469,0.0 121.477695,25.087395,0.0 121.477182,25.087879,0.0 121.476587,25.087499,0.0 121.47448,25.086336,0.0 121.474583,25.084469,0.0 121.475383,25.084336,0.0 121.47567,25.083959,0.0 121.476657,25.084369,0.0</coordinates></LinearRing></outerBoundaryIs></Polygon><styleUrl>#spolygon-map</styleUrl></Placemark><Placemark><Polygon><outerBoundaryIs><LinearRing><coordinates>121.481178,25.080551,0.0 121.481592,25.080986,0.0 121.482507,25.082601,0.0 121.481019,25.083847,0.0 121.478748,25.083327,0.0 121.477661,25.083052,0.0 121.476744,25.082848,0.0 121.476077,25.082705,0.0 121.475242,25.082483,0.0 121.474322,25.082254,0.0 121.474053,25.082116,0.0 121.475561,25.081791,0.0 121.476888,25.081528,0.0 121.478523,25.081127,0.0 121.479683,25.080697,0.0 121.481178,25.080551,0.0</coordinates></LinearRing></outerBoundaryIs></Polygon><styleUrl>#spolygon-map</styleUrl></Placemark><Placemark><Polygon><outerBoundaryIs><LinearRing><coordinates>121.479167,25.080932,0.0 121.477353,25.081415,0.0 121.476419,25.081623,0.0 121.474498,25.082024,0.0 121.473986,25.082058,0.0 121.474174,25.081633,0.0 121.474355,25.081189,0.0 121.474569,25.080806,0.0 121.475112,25.08069,0.0 121.475306,25.080315,0.0 121.475572,25.079737,0.0 121.476516,25.079408,0.0 121.477187,25.07729,0.0 121.478617,25.077888,0.0 121.47953,25.078704,0.0 121.48027,25.079656,0.0 121.479683,25.080697,0.0 121.479167,25.080932,0.0</coordinates></LinearRing></outerBoundaryIs></Polygon><styleUrl>#spolygon-map</styleUrl></Placemark><Placemark><Polygon><outerBoundaryIs><LinearRing><coordinates>121.47453,25.080858,0.0 121.474355,25.081275,0.0 121.474105,25.08178,0.0 121.473981,25.082099,0.0 121.473477,25.08203,0.0 121.472683,25.081785,0.0 121.47296,25.081365,0.0 121.473125,25.081101,0.0 121.473197,25.080914,0.0 121.473146,25.080824,0.0 121.47302,25.080713,0.0 121.472859,25.080629,0.0 121.472677,25.080564,0.0 121.472581,25.080558,0.0 121.472572,25.080255,0.0 121.473045,25.079758,0.0 121.473249,25.079414,0.0 121.473449,25.079092,0.0 121.474483,25.079422,0.0 121.475203,25.079644,0.0 121.475601,25.079696,0.0 121.475343,25.080236,0.0 121.47513,25.080648,0.0 121.474763,25.080854,0.0 121.47453,25.080858,0.0</coordinates></LinearRing></outerBoundaryIs></Polygon><styleUrl>#spolygon-map</styleUrl></Placemark><Placemark><Polygon><outerBoundaryIs><LinearRing><coordinates>121.4755,25.086882,0.0 121.474839,25.087373,0.0 121.473975,25.088089,0.0 121.472977,25.087505,0.0 121.471795,25.086981,0.0 121.471102,25.086727,0.0 121.470243,25.08641,0.0 121.468676,25.085914,0.0 121.468934,25.08531,0.0 121.469618,25.084477,0.0 121.46999,25.083856,0.0 121.470841,25.083782,0.0 121.471456,25.083642,0.0 121.47179,25.083854,0.0 121.47281,25.083547,0.0 121.473928,25.083861,0.0 121.47474,25.084332,0.0 121.473987,25.086062,0.0 121.4755,25.086882,0.0</coordinates></LinearRing></outerBoundaryIs></Polygon><styleUrl>#spolygon-map</styleUrl></Placemark><Placemark><Polygon><outerBoundaryIs><LinearRing><coordinates>121.472683,25.081785,0.0 121.473477,25.08203,0.0 121.474322,25.082254,0.0 121.475242,25.082483,0.0 121.475445,25.083292,0.0 121.475122,25.083892,0.0 121.474323,25.083975,0.0 121.473286,25.083688,0.0 121.472173,25.083354,0.0 121.472083,25.082752,0.0 121.472566,25.081956,0.0 121.472683,25.081785,0.0</coordinates></LinearRing></outerBoundaryIs></Polygon><styleUrl>#spolygon-map</styleUrl></Placemark><Placemark><Polygon><outerBoundaryIs><LinearRing><coordinates>121.472679,25.083828,0.0 121.471725,25.083802,0.0 121.471377,25.083591,0.0 121.470632,25.084105,0.0 121.470016,25.083799,0.0 121.470337,25.083313,0.0 121.470508,25.082736,0.0 121.471116,25.082159,0.0 121.471201,25.081792,0.0 121.471215,25.081397,0.0 121.471042,25.081049,0.0 121.470413,25.080316,0.0 121.469736,25.079598,0.0 121.470335,25.079546,0.0 121.470632,25.079564,0.0 121.471188,25.079526,0.0 121.471627,25.079534,0.0 121.472173,25.079787,0.0 121.472572,25.080255,0.0 121.472581,25.080558,0.0 121.472677,25.080564,0.0 121.472859,25.080629,0.0 121.47302,25.080713,0.0 121.473146,25.080824,0.0 121.473197,25.080914,0.0 121.473125,25.081101,0.0 121.47296,25.081365,0.0 121.472683,25.081785,0.0 121.47225,25.082501,0.0 121.471847,25.083053,0.0 121.472733,25.083524,0.0 121.472679,25.083828,0.0</coordinates></LinearRing></outerBoundaryIs></Polygon><styleUrl>#spolygon-map</styleUrl></Placemark><Placemark><Polygon><outerBoundaryIs><LinearRing><coordinates>121.459743,25.090544,0.0 121.460168,25.09149,0.0 121.460521,25.092409,0.0 121.461032,25.092902,0.0 121.460825,25.093895,0.0 121.459874,25.094859,0.0 121.459208,25.095791,0.0 121.458234,25.097021,0.0 121.458228,25.095916,0.0 121.458025,25.095207,0.0 121.457781,25.094448,0.0 121.457606,25.093861,0.0 121.456527,25.093071,0.0 121.455786,25.092291,0.0 121.459672,25.090393,0.0 121.459743,25.090544,0.0</coordinates></LinearRing></outerBoundaryIs></Polygon><styleUrl>#spolygon-map</styleUrl></Placemark><Placemark><Polygon><outerBoundaryIs><LinearRing><coordinates>121.459162,25.090667,0.0 121.455734,25.092181,0.0 121.455491,25.091329,0.0 121.455183,25.090435,0.0 121.454909,25.089737,0.0 121.455285,25.08896,0.0 121.456578,25.088649,0.0 121.457725,25.088361,0.0 121.458592,25.088389,0.0 121.458835,25.089629,0.0 121.458536,25.090419,0.0 121.459672,25.090393,0.0 121.459162,25.090667,0.0</coordinates></LinearRing></outerBoundaryIs></Polygon><styleUrl>#spolygon-map</styleUrl></Placemark><Placemark><Polygon><outerBoundaryIs><LinearRing><coordinates>121.459841,25.085272,0.0 121.45894,25.085715,0.0 121.458078,25.08531,0.0 121.455411,25.085207,0.0 121.455253,25.084531,0.0 121.455427,25.083766,0.0 121.455634,25.083199,0.0 121.456088,25.082424,0.0 121.45647,25.082895,0.0 121.457559,25.083323,0.0 121.45842,25.083765,0.0 121.459864,25.084526,0.0 121.459841,25.085272,0.0</coordinates></LinearRing></outerBoundaryIs></Polygon><styleUrl>#spolygon-map</styleUrl></Placemark><Placemark><Polygon><outerBoundaryIs><LinearRing><coordinates>121.478959,25.08565,0.0 121.47961,25.086277,0.0 121.479829,25.086809,0.0 121.479829,25.087361,0.0 121.479652,25.087843,0.0 121.47932,25.088349,0.0 121.478647,25.089061,0.0 121.477753,25.088475,0.0 121.477459,25.087693,0.0 121.478113,25.086885,0.0 121.47882,25.085519,0.0 121.478959,25.08565,0.0</coordinates></LinearRing></outerBoundaryIs></Polygon><styleUrl>#spolygon-map</styleUrl></Placemark><Placemark><Polygon><outerBoundaryIs><LinearRing><coordinates>121.483026,25.086098,0.0 121.48115,25.087646,0.0 121.480678,25.088205,0.0 121.480384,25.088604,0.0 121.47932,25.088349,0.0 121.479652,25.087843,0.0 121.479829,25.087361,0.0 121.479829,25.086809,0.0 121.47961,25.086277,0.0 121.478959,25.08565,0.0 121.480397,25.085497,0.0 121.480828,25.085468,0.0 121.482195,25.084941,0.0 121.483537,25.084271,0.0 121.484012,25.084617,0.0 121.483852,25.085252,0.0 121.483026,25.086098,0.0</coordinates></LinearRing></outerBoundaryIs></Polygon><styleUrl>#spolygon-map</styleUrl></Placemark><Placemark><Polygon><outerBoundaryIs><LinearRing><coordinates>121.489243,25.092912,0.0 121.490038,25.093609,0.0 121.490535,25.095773,0.0 121.481881,25.100505,0.0 121.474972,25.101446,0.0 121.475995,25.096072,0.0 121.476209,25.094717,0.0 121.475973,25.094594,0.0 121.476328,25.093067,0.0 121.475932,25.092783,0.0 121.476456,25.09188,0.0 121.47671,25.091077,0.0 121.476808,25.090421,0.0 121.477628,25.08986,0.0 121.478405,25.089274,0.0 121.480814,25.08994,0.0 121.482454,25.090501,0.0 121.484326,25.091234,0.0 121.486819,25.092199,0.0 121.488363,25.092423,0.0 121.488881,25.092417,0.0 121.489243,25.092912,0.0</coordinates></LinearRing></outerBoundaryIs></Polygon><styleUrl>#spolygon-map</styleUrl></Placemark><Placemark><Polygon><outerBoundaryIs><LinearRing><coordinates>121.465862,25.102049,0.0 121.467182,25.096146,0.0 121.46699,25.095541,0.0 121.467537,25.094543,0.0 121.469121,25.094576,0.0 121.469869,25.094886,0.0 121.470175,25.094633,0.0 121.470611,25.094499,0.0 121.471154,25.094026,0.0 121.471566,25.09375,0.0 121.472156,25.093049,0.0 121.472963,25.092897,0.0 121.473846,25.091789,0.0 121.474282,25.091277,0.0 121.474817,25.090585,0.0 121.475045,25.090248,0.0 121.47521,25.089869,0.0 121.47547,25.089248,0.0 121.475638,25.088928,0.0 121.475823,25.088965,0.0 121.476212,25.089593,0.0 121.47644,25.089947,0.0 121.476632,25.090335,0.0 121.476976,25.090711,0.0 121.476487,25.091491,0.0 121.475926,25.092682,0.0 121.47611,25.092946,0.0 121.476486,25.093105,0.0 121.476077,25.094671,0.0 121.476495,25.09474,0.0 121.475361,25.097603,0.0 121.466904,25.101734,0.0 121.465862,25.102049,0.0</coordinates></LinearRing></outerBoundaryIs></Polygon><styleUrl>#spolygon-map</styleUrl></Placemark><Placemark><Polygon><outerBoundaryIs><LinearRing><coordinates>121.473139,25.088824,0.0 121.472647,25.089308,0.0 121.472068,25.089141,0.0 121.470985,25.088323,0.0 121.471052,25.087551,0.0 121.471624,25.086877,0.0 121.472444,25.08705,0.0 121.473451,25.087912,0.0 121.47443,25.087712,0.0 121.475111,25.087626,0.0 121.475346,25.087959,0.0 121.475515,25.088392,0.0 121.474477,25.088909,0.0 121.474062,25.089238,0.0 121.473139,25.088824,0.0</coordinates></LinearRing></outerBoundaryIs></Polygon><styleUrl>#spolygon-map</styleUrl></Placemark><Placemark><Polygon><outerBoundaryIs><LinearRing><coordinates>121.462166,25.080642,0.0 121.462663,25.081114,0.0 121.46341,25.081587,0.0 121.46386,25.081762,0.0 121.463214,25.082689,0.0 121.461277,25.083455,0.0 121.459728,25.082558,0.0 121.46009,25.082182,0.0 121.4612,25.081196,0.0 121.462166,25.080642,0.0</coordinates></LinearRing></outerBoundaryIs></Polygon><styleUrl>#spolygon-map</styleUrl></Placemark><Placemark><Polygon><outerBoundaryIs><LinearRing><coordinates>121.464961,25.078974,0.0 121.465633,25.080278,0.0 121.464253,25.081826,0.0 121.463716,25.081711,0.0 121.463138,25.081417,0.0 121.462589,25.081055,0.0 121.462675,25.080042,0.0 121.464263,25.078995,0.0 121.464961,25.078974,0.0</coordinates></LinearRing></outerBoundaryIs></Polygon><styleUrl>#spolygon-map</styleUrl></Placemark><Placemark><Polygon><outerBoundaryIs><LinearRing><coordinates>121.469491,25.082474,0.0 121.46845,25.082883,0.0 121.46801,25.082686,0.0 121.46765,25.082607,0.0 121.467047,25.082523,0.0 121.467016,25.082094,0.0 121.467879,25.081045,0.0 121.468663,25.081109,0.0 121.469367,25.080448,0.0 121.470209,25.080092,0.0 121.470751,25.080704,0.0 121.471232,25.081244,0.0 121.471228,25.081627,0.0 121.471188,25.081934,0.0 121.471038,25.0822,0.0 121.469491,25.082474,0.0</coordinates></LinearRing></outerBoundaryIs></Polygon><styleUrl>#spolygon-map</styleUrl></Placemark><Placemark><Polygon><outerBoundaryIs><LinearRing><coordinates>121.473211,25.079547,0.0 121.472842,25.079944,0.0 121.471931,25.079591,0.0 121.471569,25.079539,0.0 121.47099,25.079542,0.0 121.470604,25.079566,0.0 121.470232,25.079537,0.0 121.469456,25.079306,0.0 121.469099,25.078496,0.0 121.468597,25.076951,0.0 121.46843,25.076431,0.0 121.469649,25.075803,0.0 121.469856,25.07525,0.0 121.470145,25.074485,0.0 121.470743,25.073716,0.0 121.47128,25.073298,0.0 121.471869,25.073066,0.0 121.473009,25.072698,0.0 121.474566,25.072721,0.0 121.475345,25.073219,0.0 121.475493,25.073609,0.0 121.475898,25.074538,0.0 121.475562,25.07463,0.0 121.474169,25.076868,0.0 121.473828,25.077812,0.0 121.473465,25.07875,0.0 121.473361,25.07908,0.0 121.47323,25.079481,0.0 121.473211,25.079547,0.0</coordinates></LinearRing></outerBoundaryIs></Polygon><styleUrl>#spolygon-map</styleUrl></Placemark><Placemark><Polygon><outerBoundaryIs><LinearRing><coordinates>121.479175,25.084051,0.0 121.47882,25.085519,0.0 121.477427,25.084784,0.0 121.476018,25.084105,0.0 121.475477,25.084349,0.0 121.474942,25.084123,0.0 121.475365,25.083481,0.0 121.475703,25.082631,0.0 121.47615,25.082724,0.0 121.476875,25.082867,0.0 121.478021,25.083143,0.0 121.479313,25.083459,0.0 121.479175,25.084051,0.0</coordinates></LinearRing></outerBoundaryIs></Polygon><styleUrl>#spolygon-map</styleUrl></Placemark><Placemark><Polygon><outerBoundaryIs><LinearRing><coordinates>121.481141,25.08535,0.0 121.480595,25.085505,0.0 121.47939,25.085317,0.0 121.479175,25.084051,0.0 121.479428,25.083495,0.0 121.482652,25.083167,0.0 121.482835,25.083677,0.0 121.483208,25.084121,0.0 121.483214,25.084366,0.0 121.481141,25.08535,0.0</coordinates></LinearRing></outerBoundaryIs></Polygon><styleUrl>#spolygon-map</styleUrl></Placemark><Placemark><Polygon><outerBoundaryIs><LinearRing><coordinates>121.467285,25.083769,0.0 121.466218,25.084305,0.0 121.465268,25.083773,0.0 121.464934,25.083696,0.0 121.464012,25.083095,0.0 121.464784,25.082377,0.0 121.46355,25.082861,0.0 121.464079,25.081854,0.0 121.464421,25.081812,0.0 121.464841,25.081954,0.0 121.465621,25.082194,0.0 121.466452,25.082404,0.0 121.467047,25.082523,0.0 121.46765,25.082607,0.0 121.46801,25.082686,0.0 121.467961,25.082987,0.0 121.467285,25.083769,0.0</coordinates></LinearRing></outerBoundaryIs></Polygon><styleUrl>#spolygon-map</styleUrl></Placemark><Placemark><Polygon><outerBoundaryIs><LinearRing><coordinates>121.466601,25.099165,0.0 121.462669,25.103166,0.0 121.462128,25.102378,0.0 121.461402,25.100977,0.0 121.461196,25.099664,0.0 121.46095,25.098928,0.0 121.459688,25.098382,0.0 121.458851,25.098111,0.0 121.458225,25.097929,0.0 121.45858,25.097702,0.0 121.460081,25.097969,0.0 121.461017,25.098231,0.0 121.461372,25.098437,0.0 121.460981,25.097505,0.0 121.46153,25.097154,0.0 121.46172,25.09693,0.0 121.462157,25.095762,0.0 121.462737,25.094331,0.0 121.463164,25.093366,0.0 121.463928,25.092122,0.0 121.464224,25.091454,0.0 121.46514,25.090947,0.0 121.466295,25.090583,0.0 121.467421,25.090158,0.0 121.467985,25.089809,0.0 121.468604,25.089337,0.0 121.469631,25.088502,0.0 121.471052,25.087551,0.0 121.470639,25.088406,0.0 121.470376,25.08895,0.0 121.470131,25.089336,0.0 121.469518,25.090412,0.0 121.468672,25.091984,0.0 121.467698,25.093815,0.0 121.466997,25.095491,0.0 121.4671,25.095945,0.0 121.466601,25.099165,0.0</coordinates></LinearRing></outerBoundaryIs></Polygon><styleUrl>#spolygon-map</styleUrl></Placemark><Placemark><Polygon><outerBoundaryIs><LinearRing><coordinates>121.460892,25.079261,0.0 121.462016,25.080475,0.0 121.460886,25.08147,0.0 121.459964,25.082296,0.0 121.4576,25.081572,0.0 121.457644,25.080888,0.0 121.458898,25.080238,0.0 121.459954,25.079729,0.0 121.460892,25.079261,0.0</coordinates></LinearRing></outerBoundaryIs></Polygon><styleUrl>#spolygon-map</styleUrl></Placemark><Placemark><Polygon><outerBoundaryIs><LinearRing><coordinates>121.475912,25.079164,0.0 121.476285,25.079916,0.0 121.47528,25.079654,0.0 121.474849,25.07955,0.0 121.473613,25.079149,0.0 121.473399,25.078881,0.0 121.473522,25.078502,0.0 121.473883,25.077661,0.0 121.474964,25.074943,0.0 121.475828,25.074593,0.0 121.475995,25.074699,0.0 121.476325,25.075116,0.0 121.476562,25.075421,0.0 121.476834,25.075984,0.0 121.476769,25.076562,0.0 121.476987,25.077117,0.0 121.47597,25.079004,0.0 121.475912,25.079164,0.0</coordinates></LinearRing></outerBoundaryIs></Polygon><styleUrl>#spolygon-map</styleUrl></Placemark><Placemark><Polygon><outerBoundaryIs><LinearRing><coordinates>121.47547,25.089248,0.0 121.47521,25.089869,0.0 121.475045,25.090248,0.0 121.474817,25.090585,0.0 121.47419,25.091168,0.0 121.473444,25.090314,0.0 121.472988,25.08987,0.0 121.47265,25.089608,0.0 121.472945,25.089016,0.0 121.474062,25.089238,0.0 121.474477,25.088909,0.0 121.475586,25.088566,0.0 121.475609,25.088959,0.0 121.47547,25.089248,0.0</coordinates></LinearRing></outerBoundaryIs></Polygon><styleUrl>#spolygon-map</styleUrl></Placemark><Placemark><Polygon><outerBoundaryIs><LinearRing><coordinates>121.475777,25.087043,0.0 121.476991,25.087728,0.0 121.477494,25.088228,0.0 121.478538,25.089157,0.0 121.477707,25.089804,0.0 121.476852,25.090395,0.0 121.476563,25.090194,0.0 121.476369,25.089827,0.0 121.47606,25.089327,0.0 121.475797,25.088936,0.0 121.475663,25.088757,0.0 121.475427,25.08812,0.0 121.475158,25.087721,0.0 121.474839,25.087373,0.0 121.4755,25.086882,0.0 121.475777,25.087043,0.0</coordinates></LinearRing></outerBoundaryIs></Polygon><styleUrl>#spolygon-map</styleUrl></Placemark><Placemark><Polygon><outerBoundaryIs><LinearRing><coordinates>121.469099,25.078496,0.0 121.46756,25.078643,0.0 121.466716,25.079022,0.0 121.466312,25.079426,0.0 121.465819,25.079888,0.0 121.464359,25.078323,0.0 121.464869,25.077853,0.0 121.465473,25.077624,0.0 121.466482,25.077226,0.0 121.467207,25.076851,0.0 121.467781,25.076408,0.0 121.468525,25.076668,0.0 121.468827,25.077668,0.0 121.469099,25.078496,0.0</coordinates></LinearRing></outerBoundaryIs></Polygon><styleUrl>#spolygon-map</styleUrl></Placemark><Placemark><Polygon><outerBoundaryIs><LinearRing><coordinates>121.463727,25.077781,0.0 121.464359,25.078323,0.0 121.463356,25.0796,0.0 121.461708,25.080143,0.0 121.460806,25.079061,0.0 121.461671,25.078627,0.0 121.462593,25.078258,0.0 121.46341,25.077794,0.0 121.463727,25.077781,0.0</coordinates></LinearRing></outerBoundaryIs></Polygon><styleUrl>#spolygon-map</styleUrl></Placemark><Placemark><Polygon><outerBoundaryIs><LinearRing><coordinates>121.458059,25.087139,0.0 121.457031,25.088537,0.0 121.456178,25.088747,0.0 121.454683,25.088764,0.0 121.454675,25.087767,0.0 121.454941,25.086939,0.0 121.454998,25.085919,0.0 121.455898,25.085194,0.0 121.458195,25.085352,0.0 121.459277,25.085894,0.0 121.458995,25.086666,0.0 121.458068,25.087042,0.0 121.458059,25.087139,0.0</coordinates></LinearRing></outerBoundaryIs></Polygon><styleUrl>#spolygon-map</styleUrl></Placemark><Placemark><Polygon><outerBoundaryIs><LinearRing><coordinates>121.458324,25.081904,0.0 121.459992,25.083533,0.0 121.460466,25.084282,0.0 121.459864,25.084526,0.0 121.45842,25.083765,0.0 121.457559,25.083323,0.0 121.45647,25.082895,0.0 121.456388,25.08181,0.0 121.456782,25.081794,0.0 121.458324,25.081904,0.0</coordinates></LinearRing></outerBoundaryIs></Polygon><styleUrl>#spolygon-map</styleUrl></Placemark></Document>
</kml>
