<?xml version="1.0" encoding="UTF-8"?>
<kml xmlns="http://www.opengis.net/kml/2.2">
	<Document>
		<name>新竹縣新埔鎮</name>
		<Style id="spolygon">
			<LabelStyle>
				<scale>0.0</scale>
			</LabelStyle>
			<LineStyle>
				<color>330030ff</color>
				<width>0</width>
			</LineStyle>
			<PolyStyle>
				<color>330030ff</color>
			</PolyStyle>
		</Style>
		<StyleMap id="spolygon-map">
			<Pair>
				<key>normal</key>
				<styleUrl>#spolygon</styleUrl>
			</Pair>
		</StyleMap>
	<Placemark><Polygon><outerBoundaryIs><LinearRing><coordinates>121.110557,24.812609,0.0 121.109277,24.811725,0.0 121.107827,24.810847,0.0 121.106166,24.810633,0.0 121.105281,24.810583,0.0 121.103976,24.810458,0.0 121.103833,24.811178,0.0 121.102979,24.811596,0.0 121.100306,24.811374,0.0 121.099473,24.812231,0.0 121.099227,24.813898,0.0 121.098814,24.815258,0.0 121.098381,24.816223,0.0 121.096213,24.815996,0.0 121.094933,24.81613,0.0 121.093635,24.817007,0.0 121.089994,24.818424,0.0 121.088601,24.818952,0.0 121.085313,24.818483,0.0 121.082639,24.818398,0.0 121.080678,24.817963,0.0 121.080832,24.81515,0.0 121.081245,24.813522,0.0 121.08219,24.811875,0.0 121.083911,24.810907,0.0 121.084853,24.810016,0.0 121.085791,24.808729,0.0 121.086261,24.808332,0.0 121.086912,24.807576,0.0 121.087646,24.807022,0.0 121.088696,24.804931,0.0 121.088808,24.803397,0.0 121.089363,24.802119,0.0 121.089806,24.800927,0.0 121.090524,24.799333,0.0 121.092008,24.797892,0.0 121.092473,24.796364,0.0 121.093112,24.794224,0.0 121.093506,24.794225,0.0 121.093937,24.794157,0.0 121.094324,24.794157,0.0 121.094781,24.794123,0.0 121.095138,24.794338,0.0 121.095532,24.794473,0.0 121.095922,24.794703,0.0 121.096205,24.794992,0.0 121.096585,24.795084,0.0 121.096925,24.794798,0.0 121.097373,24.794543,0.0 121.097799,24.794321,0.0 121.098176,24.794112,0.0 121.098503,24.793835,0.0 121.098829,24.793918,0.0 121.09924,24.794059,0.0 121.099658,24.794126,0.0 121.100061,24.794118,0.0 121.100444,24.793842,0.0 121.100902,24.793801,0.0 121.101431,24.793534,0.0 121.101939,24.793423,0.0 121.102514,24.793017,0.0 121.10286,24.792832,0.0 121.103423,24.793047,0.0 121.104009,24.793111,0.0 121.104786,24.79311,0.0 121.105469,24.793076,0.0 121.106337,24.79297,0.0 121.10706,24.792662,0.0 121.107683,24.792268,0.0 121.108128,24.792381,0.0 121.108681,24.792415,0.0 121.10945,24.792423,0.0 121.109913,24.792888,0.0 121.109976,24.793397,0.0 121.10976,24.794211,0.0 121.109703,24.795058,0.0 121.110022,24.795964,0.0 121.110581,24.797134,0.0 121.110582,24.797972,0.0 121.110799,24.798548,0.0 121.111106,24.799287,0.0 121.111799,24.800397,0.0 121.111989,24.800868,0.0 121.112175,24.801387,0.0 121.112392,24.801707,0.0 121.112417,24.802138,0.0 121.112532,24.802591,0.0 121.112546,24.803232,0.0 121.112818,24.803604,0.0 121.112922,24.804142,0.0 121.113195,24.804512,0.0 121.113392,24.8049,0.0 121.113341,24.805458,0.0 121.113358,24.806009,0.0 121.113152,24.806465,0.0 121.113001,24.806837,0.0 121.112705,24.807261,0.0 121.112341,24.80755,0.0 121.112044,24.807932,0.0 121.111859,24.808406,0.0 121.111765,24.808753,0.0 121.111628,24.809033,0.0 121.111604,24.809394,0.0 121.111515,24.809696,0.0 121.11125,24.809835,0.0 121.111016,24.809948,0.0 121.111151,24.810202,0.0 121.110965,24.810391,0.0 121.11116,24.810849,0.0 121.111225,24.811105,0.0 121.110902,24.811292,0.0 121.110759,24.81154,0.0 121.110652,24.811917,0.0 121.110543,24.812284,0.0 121.110557,24.812609,0.0</coordinates></LinearRing></outerBoundaryIs></Polygon><styleUrl>#spolygon-map</styleUrl></Placemark><Placemark><Polygon><outerBoundaryIs><LinearRing><coordinates>121.080622,24.818645,0.0 121.076662,24.819597,0.0 121.072147,24.821312,0.0 121.071776,24.821328,0.0 121.07083,24.820819,0.0 121.069792,24.821394,0.0 121.067481,24.821014,0.0 121.067948,24.82025,0.0 121.071444,24.818361,0.0 121.071347,24.817724,0.0 121.07097,24.816478,0.0 121.070252,24.815629,0.0 121.069281,24.813957,0.0 121.06889,24.812512,0.0 121.068731,24.811525,0.0 121.069026,24.811307,0.0 121.06931,24.811112,0.0 121.069607,24.810848,0.0 121.069943,24.81065,0.0 121.070373,24.810528,0.0 121.07072,24.810364,0.0 121.071201,24.810206,0.0 121.07169,24.810061,0.0 121.072032,24.809865,0.0 121.072354,24.809633,0.0 121.072678,24.809446,0.0 121.07279,24.809092,0.0 121.072709,24.808699,0.0 121.07258,24.808359,0.0 121.072724,24.808078,0.0 121.072914,24.80775,0.0 121.073058,24.807319,0.0 121.073089,24.806901,0.0 121.073257,24.806444,0.0 121.07342,24.806091,0.0 121.073451,24.80568,0.0 121.073487,24.805292,0.0 121.073459,24.804919,0.0 121.073668,24.804642,0.0 121.073945,24.804166,0.0 121.073892,24.80371,0.0 121.073958,24.803364,0.0 121.074176,24.802877,0.0 121.074419,24.802676,0.0 121.074585,24.802345,0.0 121.074882,24.802116,0.0 121.075312,24.801979,0.0 121.075795,24.801879,0.0 121.076262,24.801884,0.0 121.076699,24.801831,0.0 121.077125,24.801786,0.0 121.077589,24.801777,0.0 121.078039,24.801817,0.0 121.078326,24.801688,0.0 121.078765,24.801359,0.0 121.079147,24.801127,0.0 121.079621,24.800825,0.0 121.080163,24.800496,0.0 121.080428,24.800267,0.0 121.08065,24.799754,0.0 121.080933,24.799493,0.0 121.081099,24.799204,0.0 121.081075,24.798794,0.0 121.081087,24.798413,0.0 121.08035,24.798044,0.0 121.080127,24.797509,0.0 121.08037,24.796731,0.0 121.080521,24.795956,0.0 121.08096,24.795833,0.0 121.081466,24.795767,0.0 121.082096,24.795456,0.0 121.082457,24.795319,0.0 121.082607,24.79461,0.0 121.082694,24.793743,0.0 121.083039,24.793276,0.0 121.083581,24.793112,0.0 121.08419,24.793041,0.0 121.084372,24.792589,0.0 121.08418,24.791826,0.0 121.084618,24.791285,0.0 121.085465,24.791263,0.0 121.086085,24.79166,0.0 121.086738,24.791599,0.0 121.087334,24.791703,0.0 121.087601,24.792243,0.0 121.088081,24.792344,0.0 121.088785,24.792254,0.0 121.08922,24.791826,0.0 121.089779,24.791519,0.0 121.09052,24.791386,0.0 121.090983,24.791449,0.0 121.091245,24.791691,0.0 121.091283,24.792029,0.0 121.091589,24.792383,0.0 121.091859,24.792533,0.0 121.092076,24.792953,0.0 121.09247,24.793152,0.0 121.09278,24.793438,0.0 121.093007,24.793915,0.0 121.093112,24.794224,0.0 121.092473,24.796364,0.0 121.092008,24.797892,0.0 121.090524,24.799333,0.0 121.089806,24.800927,0.0 121.089363,24.802119,0.0 121.088808,24.803397,0.0 121.088696,24.804931,0.0 121.087646,24.807022,0.0 121.086912,24.807576,0.0 121.086261,24.808332,0.0 121.085791,24.808729,0.0 121.084853,24.810016,0.0 121.083911,24.810907,0.0 121.08219,24.811875,0.0 121.081245,24.813522,0.0 121.080832,24.81515,0.0 121.080678,24.817963,0.0 121.080622,24.818645,0.0</coordinates></LinearRing></outerBoundaryIs></Polygon><styleUrl>#spolygon-map</styleUrl></Placemark><Placemark><Polygon><outerBoundaryIs><LinearRing><coordinates>121.076545,24.827476,0.0 121.078535,24.829886,0.0 121.076396,24.829968,0.0 121.074414,24.828533,0.0 121.07625,24.827506,0.0 121.076545,24.827476,0.0</coordinates></LinearRing></outerBoundaryIs></Polygon><styleUrl>#spolygon-map</styleUrl></Placemark><Placemark><Polygon><outerBoundaryIs><LinearRing><coordinates>121.085819,24.831475,0.0 121.085105,24.831503,0.0 121.083303,24.831424,0.0 121.081548,24.831285,0.0 121.081065,24.831324,0.0 121.08021,24.830903,0.0 121.079573,24.830758,0.0 121.079266,24.830291,0.0 121.076545,24.827476,0.0 121.079102,24.827717,0.0 121.079017,24.82791,0.0 121.078882,24.828144,0.0 121.079437,24.828192,0.0 121.080706,24.828516,0.0 121.082693,24.829894,0.0 121.083219,24.830167,0.0 121.083438,24.829902,0.0 121.084048,24.830277,0.0 121.085819,24.831475,0.0</coordinates></LinearRing></outerBoundaryIs></Polygon><styleUrl>#spolygon-map</styleUrl></Placemark><Placemark><Polygon><outerBoundaryIs><LinearRing><coordinates>121.076396,24.829968,0.0 121.071282,24.831539,0.0 121.071164,24.831222,0.0 121.071261,24.830423,0.0 121.070941,24.829038,0.0 121.071279,24.827471,0.0 121.074086,24.827335,0.0 121.075113,24.82952,0.0 121.076396,24.829968,0.0</coordinates></LinearRing></outerBoundaryIs></Polygon><styleUrl>#spolygon-map</styleUrl></Placemark><Placemark><Polygon><outerBoundaryIs><LinearRing><coordinates>121.0712,24.831019,0.0 121.067427,24.831302,0.0 121.066818,24.831559,0.0 121.066698,24.830985,0.0 121.06609,24.830689,0.0 121.06522,24.830249,0.0 121.063582,24.829754,0.0 121.062509,24.830048,0.0 121.059433,24.830378,0.0 121.058723,24.829865,0.0 121.061148,24.829639,0.0 121.063277,24.829343,0.0 121.064111,24.828358,0.0 121.064837,24.827179,0.0 121.065676,24.825573,0.0 121.066848,24.824204,0.0 121.068076,24.822722,0.0 121.069308,24.821834,0.0 121.070613,24.820842,0.0 121.071354,24.821022,0.0 121.071984,24.82135,0.0 121.075709,24.819946,0.0 121.079179,24.818927,0.0 121.082361,24.81842,0.0 121.084292,24.821082,0.0 121.086395,24.82396,0.0 121.085829,24.826111,0.0 121.078924,24.827981,0.0 121.079153,24.827792,0.0 121.077517,24.827367,0.0 121.074265,24.827356,0.0 121.071361,24.827424,0.0 121.070961,24.82847,0.0 121.071233,24.830076,0.0 121.0712,24.831019,0.0</coordinates></LinearRing></outerBoundaryIs></Polygon><styleUrl>#spolygon-map</styleUrl></Placemark><Placemark><Polygon><outerBoundaryIs><LinearRing><coordinates>121.103605,24.831319,0.0 121.101747,24.831369,0.0 121.100576,24.831938,0.0 121.098635,24.832502,0.0 121.095381,24.832278,0.0 121.092491,24.830566,0.0 121.090358,24.827897,0.0 121.087856,24.825593,0.0 121.086054,24.823573,0.0 121.08413,24.820862,0.0 121.083288,24.818375,0.0 121.08734,24.818893,0.0 121.089254,24.818809,0.0 121.091055,24.818,0.0 121.094114,24.816716,0.0 121.095347,24.815978,0.0 121.097601,24.816208,0.0 121.098463,24.815956,0.0 121.099138,24.814912,0.0 121.09949,24.813059,0.0 121.099551,24.811736,0.0 121.101273,24.81144,0.0 121.103624,24.811521,0.0 121.103694,24.810737,0.0 121.104431,24.810453,0.0 121.105612,24.810586,0.0 121.106568,24.810707,0.0 121.108721,24.811329,0.0 121.109542,24.81186,0.0 121.110557,24.812714,0.0 121.11036,24.813243,0.0 121.110083,24.813785,0.0 121.109874,24.813994,0.0 121.110105,24.814225,0.0 121.110414,24.814397,0.0 121.110821,24.814518,0.0 121.111248,24.814571,0.0 121.111482,24.814704,0.0 121.111482,24.814992,0.0 121.111835,24.815185,0.0 121.112232,24.81525,0.0 121.112542,24.815392,0.0 121.112755,24.815749,0.0 121.112908,24.816162,0.0 121.113004,24.81664,0.0 121.113036,24.816939,0.0 121.112734,24.81709,0.0 121.1123,24.817176,0.0 121.111708,24.817027,0.0 121.111267,24.816867,0.0 121.110891,24.816783,0.0 121.110457,24.816767,0.0 121.109702,24.817005,0.0 121.10927,24.817041,0.0 121.108826,24.817162,0.0 121.108633,24.817488,0.0 121.108519,24.818024,0.0 121.108579,24.818534,0.0 121.108611,24.818928,0.0 121.10836,24.819496,0.0 121.108035,24.819722,0.0 121.107611,24.820078,0.0 121.107193,24.820429,0.0 121.106902,24.820727,0.0 121.106766,24.821098,0.0 121.106749,24.821597,0.0 121.106853,24.82199,0.0 121.107047,24.82242,0.0 121.107239,24.822882,0.0 121.107403,24.823286,0.0 121.107528,24.823573,0.0 121.107901,24.824162,0.0 121.108186,24.824441,0.0 121.108421,24.824641,0.0 121.108597,24.824938,0.0 121.10865,24.825328,0.0 121.108823,24.825604,0.0 121.108835,24.825938,0.0 121.108715,24.826333,0.0 121.108614,24.826677,0.0 121.10851,24.827049,0.0 121.108384,24.827583,0.0 121.108286,24.828043,0.0 121.108209,24.828348,0.0 121.108146,24.828582,0.0 121.108126,24.829017,0.0 121.107868,24.828917,0.0 121.107606,24.82883,0.0 121.107399,24.828971,0.0 121.10718,24.829353,0.0 121.107025,24.82971,0.0 121.106778,24.830152,0.0 121.106644,24.830461,0.0 121.106587,24.830815,0.0 121.106534,24.831139,0.0 121.106199,24.831405,0.0 121.105986,24.831634,0.0 121.105693,24.831828,0.0 121.105414,24.831876,0.0 121.10485,24.831763,0.0 121.104451,24.831554,0.0 121.104021,24.83142,0.0 121.103823,24.831266,0.0 121.103605,24.831319,0.0</coordinates></LinearRing></outerBoundaryIs></Polygon><styleUrl>#spolygon-map</styleUrl></Placemark><Placemark><Polygon><outerBoundaryIs><LinearRing><coordinates>121.037831,24.836795,0.0 121.03554,24.837958,0.0 121.030317,24.840212,0.0 121.028489,24.840448,0.0 121.027477,24.839986,0.0 121.027406,24.839643,0.0 121.027222,24.839215,0.0 121.027092,24.838749,0.0 121.026982,24.838218,0.0 121.026928,24.83765,0.0 121.026953,24.837249,0.0 121.027036,24.83686,0.0 121.027162,24.836447,0.0 121.027248,24.835995,0.0 121.02698,24.835691,0.0 121.026755,24.835199,0.0 121.026686,24.834728,0.0 121.026676,24.834162,0.0 121.026735,24.833694,0.0 121.026825,24.833281,0.0 121.026934,24.832898,0.0 121.027075,24.832555,0.0 121.027249,24.832132,0.0 121.027393,24.831718,0.0 121.027635,24.831727,0.0 121.027832,24.831501,0.0 121.028117,24.831292,0.0 121.02847,24.831115,0.0 121.028702,24.830929,0.0 121.028867,24.830645,0.0 121.029125,24.830252,0.0 121.029418,24.830049,0.0 121.029615,24.829951,0.0 121.029789,24.829697,0.0 121.030007,24.829514,0.0 121.030311,24.829411,0.0 121.030675,24.829289,0.0 121.030878,24.829113,0.0 121.031079,24.828834,0.0 121.03145,24.828484,0.0 121.031749,24.82823,0.0 121.032113,24.828002,0.0 121.032547,24.827841,0.0 121.032861,24.827693,0.0 121.033244,24.82761,0.0 121.033931,24.827623,0.0 121.03462,24.827644,0.0 121.03517,24.827656,0.0 121.035715,24.827674,0.0 121.036106,24.827654,0.0 121.036411,24.827611,0.0 121.036569,24.827333,0.0 121.036836,24.826719,0.0 121.03711,24.826578,0.0 121.03739,24.826397,0.0 121.037666,24.826085,0.0 121.037908,24.825648,0.0 121.038103,24.825387,0.0 121.038445,24.825019,0.0 121.038756,24.824711,0.0 121.038955,24.824479,0.0 121.039197,24.824157,0.0 121.039324,24.823889,0.0 121.03938,24.823518,0.0 121.039618,24.823113,0.0 121.039831,24.822898,0.0 121.040412,24.822477,0.0 121.040887,24.822137,0.0 121.041213,24.821957,0.0 121.041787,24.821715,0.0 121.042275,24.821542,0.0 121.042694,24.82142,0.0 121.043144,24.82132,0.0 121.043611,24.821297,0.0 121.044125,24.821304,0.0 121.04462,24.821188,0.0 121.04516,24.821054,0.0 121.045719,24.820933,0.0 121.046179,24.820793,0.0 121.046631,24.8206,0.0 121.046939,24.820705,0.0 121.047421,24.820605,0.0 121.048407,24.820379,0.0 121.048874,24.820262,0.0 121.049957,24.819971,0.0 121.050418,24.819739,0.0 121.05168,24.819694,0.0 121.052331,24.819547,0.0 121.052862,24.819466,0.0 121.053312,24.819478,0.0 121.053877,24.819408,0.0 121.054306,24.81928,0.0 121.054618,24.818949,0.0 121.054971,24.81867,0.0 121.055306,24.818536,0.0 121.055584,24.818222,0.0 121.055472,24.817933,0.0 121.055034,24.817878,0.0 121.054525,24.817895,0.0 121.054035,24.817882,0.0 121.053584,24.817852,0.0 121.0535,24.817681,0.0 121.053806,24.81759,0.0 121.054387,24.81763,0.0 121.054935,24.817699,0.0 121.05578,24.817586,0.0 121.055916,24.817308,0.0 121.05599,24.8168,0.0 121.055648,24.816646,0.0 121.055116,24.816714,0.0 121.054907,24.816668,0.0 121.055195,24.816379,0.0 121.055633,24.816124,0.0 121.056189,24.816087,0.0 121.056493,24.815916,0.0 121.057068,24.815733,0.0 121.057773,24.815571,0.0 121.058358,24.815459,0.0 121.058834,24.815132,0.0 121.05872,24.814813,0.0 121.058744,24.814565,0.0 121.058877,24.814522,0.0 121.05923,24.814485,0.0 121.059559,24.814466,0.0 121.059961,24.814516,0.0 121.060421,24.814599,0.0 121.060775,24.814817,0.0 121.0612,24.814768,0.0 121.06168,24.814747,0.0 121.062279,24.814564,0.0 121.062585,24.814344,0.0 121.063051,24.814322,0.0 121.063631,24.814363,0.0 121.063841,24.814143,0.0 121.064107,24.813784,0.0 121.064631,24.813596,0.0 121.065145,24.813576,0.0 121.065491,24.813636,0.0 121.065634,24.813343,0.0 121.06574,24.812877,0.0 121.065969,24.81259,0.0 121.066377,24.812491,0.0 121.066793,24.812376,0.0 121.067125,24.812222,0.0 121.067426,24.812007,0.0 121.067743,24.811786,0.0 121.068017,24.811566,0.0 121.068359,24.811592,0.0 121.068712,24.81175,0.0 121.069033,24.812857,0.0 121.069587,24.814649,0.0 121.070553,24.81597,0.0 121.071124,24.817014,0.0 121.071499,24.818311,0.0 121.069887,24.819141,0.0 121.067378,24.820617,0.0 121.068781,24.822224,0.0 121.067383,24.823515,0.0 121.066326,24.824907,0.0 121.065169,24.826391,0.0 121.064554,24.827817,0.0 121.063894,24.828936,0.0 121.062791,24.829529,0.0 121.059224,24.829732,0.0 121.058192,24.829852,0.0 121.056873,24.829547,0.0 121.056264,24.829416,0.0 121.055327,24.828971,0.0 121.054469,24.828767,0.0 121.051494,24.828805,0.0 121.048551,24.828718,0.0 121.046064,24.828974,0.0 121.043145,24.830339,0.0 121.041586,24.832118,0.0 121.041112,24.833998,0.0 121.040317,24.83484,0.0 121.038985,24.836029,0.0 121.037831,24.836795,0.0</coordinates></LinearRing></outerBoundaryIs></Polygon><styleUrl>#spolygon-map</styleUrl></Placemark><Placemark><Polygon><outerBoundaryIs><LinearRing><coordinates>121.118555,24.84571,0.0 121.116054,24.845597,0.0 121.114418,24.8457,0.0 121.112485,24.845485,0.0 121.111229,24.846711,0.0 121.109211,24.847889,0.0 121.108036,24.847494,0.0 121.107508,24.845731,0.0 121.107513,24.842712,0.0 121.107143,24.841733,0.0 121.105851,24.839904,0.0 121.104633,24.839738,0.0 121.102825,24.842048,0.0 121.101359,24.842862,0.0 121.099213,24.842517,0.0 121.098413,24.841755,0.0 121.098367,24.840402,0.0 121.098784,24.837468,0.0 121.099966,24.835076,0.0 121.100268,24.833584,0.0 121.099721,24.832807,0.0 121.101175,24.831692,0.0 121.102582,24.831181,0.0 121.103402,24.831385,0.0 121.103083,24.831621,0.0 121.103165,24.831767,0.0 121.103342,24.832014,0.0 121.10365,24.832039,0.0 121.103892,24.83198,0.0 121.104208,24.831926,0.0 121.104378,24.832138,0.0 121.104414,24.832393,0.0 121.104619,24.832524,0.0 121.104857,24.832681,0.0 121.104985,24.83291,0.0 121.105365,24.833078,0.0 121.105737,24.833138,0.0 121.10612,24.833033,0.0 121.106551,24.832988,0.0 121.106894,24.833108,0.0 121.10688,24.833475,0.0 121.106944,24.833709,0.0 121.107259,24.833778,0.0 121.107686,24.83371,0.0 121.108001,24.833455,0.0 121.108246,24.833213,0.0 121.108576,24.833,0.0 121.108826,24.832795,0.0 121.109225,24.832711,0.0 121.109669,24.832784,0.0 121.109967,24.832713,0.0 121.110258,24.832467,0.0 121.110563,24.832265,0.0 121.110901,24.832205,0.0 121.111361,24.832197,0.0 121.111907,24.832199,0.0 121.112284,24.832162,0.0 121.11248,24.831917,0.0 121.112812,24.831698,0.0 121.113224,24.831699,0.0 121.113718,24.831571,0.0 121.114139,24.831454,0.0 121.114544,24.831397,0.0 121.114964,24.831413,0.0 121.11531,24.831484,0.0 121.115654,24.831679,0.0 121.11582,24.831895,0.0 121.116141,24.831862,0.0 121.116335,24.832064,0.0 121.116649,24.832249,0.0 121.116918,24.832486,0.0 121.116766,24.832714,0.0 121.116499,24.832918,0.0 121.116601,24.833054,0.0 121.117051,24.833,0.0 121.117375,24.83285,0.0 121.117657,24.832608,0.0 121.117836,24.832374,0.0 121.118052,24.832101,0.0 121.118269,24.831832,0.0 121.118495,24.831553,0.0 121.118718,24.831312,0.0 121.118928,24.831467,0.0 121.119249,24.831656,0.0 121.119573,24.831801,0.0 121.119849,24.831997,0.0 121.120107,24.832228,0.0 121.120441,24.832369,0.0 121.120745,24.832493,0.0 121.121056,24.832576,0.0 121.12153,24.832683,0.0 121.121776,24.832933,0.0 121.12203,24.833139,0.0 121.122064,24.833664,0.0 121.122277,24.833935,0.0 121.122692,24.833983,0.0 121.123062,24.833886,0.0 121.123294,24.83407,0.0 121.123345,24.834523,0.0 121.123505,24.834651,0.0 121.123919,24.83469,0.0 121.124266,24.8348,0.0 121.12462,24.834702,0.0 121.124877,24.834499,0.0 121.125049,24.834498,0.0 121.125239,24.834831,0.0 121.125556,24.834992,0.0 121.125458,24.835196,0.0 121.125514,24.835455,0.0 121.125821,24.835586,0.0 121.12608,24.835827,0.0 121.126047,24.836156,0.0 121.126267,24.836377,0.0 121.1269,24.836715,0.0 121.127282,24.83693,0.0 121.127648,24.837062,0.0 121.128244,24.83721,0.0 121.128591,24.837142,0.0 121.129044,24.836985,0.0 121.129475,24.836902,0.0 121.12992,24.836955,0.0 121.130315,24.837085,0.0 121.130843,24.837153,0.0 121.131281,24.837277,0.0 121.131811,24.837398,0.0 121.132408,24.837334,0.0 121.132869,24.837269,0.0 121.133258,24.837185,0.0 121.133622,24.837186,0.0 121.134088,24.83714,0.0 121.134433,24.837196,0.0 121.134632,24.83738,0.0 121.134912,24.837238,0.0 121.135099,24.837064,0.0 121.135253,24.836737,0.0 121.135527,24.83674,0.0 121.135849,24.836871,0.0 121.136314,24.836987,0.0 121.136718,24.836997,0.0 121.137098,24.837046,0.0 121.137414,24.837038,0.0 121.137764,24.83701,0.0 121.138324,24.837,0.0 121.138798,24.837011,0.0 121.139119,24.837157,0.0 121.139333,24.83742,0.0 121.139476,24.837598,0.0 121.139691,24.837495,0.0 121.140023,24.837385,0.0 121.14052,24.837391,0.0 121.140929,24.837437,0.0 121.14143,24.837578,0.0 121.141875,24.837688,0.0 121.142313,24.837604,0.0 121.14271,24.837683,0.0 121.143083,24.837662,0.0 121.143343,24.837513,0.0 121.143453,24.837219,0.0 121.143631,24.836949,0.0 121.143901,24.836725,0.0 121.14425,24.836676,0.0 121.144721,24.836788,0.0 121.145171,24.836778,0.0 121.145461,24.836603,0.0 121.145625,24.836327,0.0 121.145992,24.836286,0.0 121.146389,24.836488,0.0 121.146769,24.836628,0.0 121.147214,24.836693,0.0 121.14753,24.836824,0.0 121.14779,24.837052,0.0 121.14802,24.837316,0.0 121.148207,24.837459,0.0 121.148469,24.837287,0.0 121.148617,24.837046,0.0 121.14889,24.836932,0.0 121.149253,24.836962,0.0 121.149572,24.837189,0.0 121.149876,24.83727,0.0 121.150237,24.837152,0.0 121.150428,24.837164,0.0 121.150377,24.837634,0.0 121.150251,24.838003,0.0 121.150102,24.838335,0.0 121.150024,24.838628,0.0 121.149884,24.83899,0.0 121.149773,24.839433,0.0 121.14959,24.83968,0.0 121.14937,24.83998,0.0 121.149301,24.840285,0.0 121.149096,24.840609,0.0 121.148836,24.840891,0.0 121.148866,24.841335,0.0 121.148975,24.841806,0.0 121.148738,24.842113,0.0 121.14856,24.842347,0.0 121.148381,24.842507,0.0 121.148233,24.842368,0.0 121.148024,24.842237,0.0 121.147711,24.842262,0.0 121.147306,24.842288,0.0 121.146922,24.842353,0.0 121.146463,24.84242,0.0 121.146055,24.8424,0.0 121.145746,24.842508,0.0 121.145298,24.84254,0.0 121.144817,24.84254,0.0 121.144592,24.842624,0.0 121.143264,24.843026,0.0 121.140342,24.843388,0.0 121.137386,24.844231,0.0 121.134774,24.844877,0.0 121.133437,24.845057,0.0 121.132527,24.844603,0.0 121.131532,24.844299,0.0 121.13067,24.843922,0.0 121.129654,24.84286,0.0 121.127892,24.842077,0.0 121.124813,24.842613,0.0 121.122933,24.843132,0.0 121.121113,24.843854,0.0 121.12008,24.844793,0.0 121.118745,24.845618,0.0 121.118555,24.84571,0.0</coordinates></LinearRing></outerBoundaryIs></Polygon><styleUrl>#spolygon-map</styleUrl></Placemark><Placemark><Polygon><outerBoundaryIs><LinearRing><coordinates>121.085819,24.831475,0.0 121.086196,24.8316,0.0 121.087274,24.832261,0.0 121.08813,24.833082,0.0 121.088872,24.834235,0.0 121.089397,24.834928,0.0 121.089663,24.836184,0.0 121.089805,24.837221,0.0 121.090027,24.838578,0.0 121.090148,24.839565,0.0 121.090223,24.84081,0.0 121.090592,24.842272,0.0 121.090733,24.842817,0.0 121.091027,24.844101,0.0 121.091106,24.845922,0.0 121.091826,24.847159,0.0 121.092295,24.848066,0.0 121.092834,24.84951,0.0 121.09123,24.848334,0.0 121.090242,24.847646,0.0 121.087669,24.847767,0.0 121.085277,24.84724,0.0 121.082316,24.84635,0.0 121.080357,24.846006,0.0 121.078253,24.845211,0.0 121.07706,24.844719,0.0 121.075805,24.844266,0.0 121.075227,24.843832,0.0 121.075081,24.84239,0.0 121.074571,24.841535,0.0 121.073642,24.840364,0.0 121.072275,24.839563,0.0 121.070797,24.839519,0.0 121.070421,24.839659,0.0 121.069193,24.839926,0.0 121.06689,24.84001,0.0 121.064065,24.839594,0.0 121.062977,24.83909,0.0 121.061832,24.838643,0.0 121.061273,24.837388,0.0 121.060757,24.836056,0.0 121.060597,24.834737,0.0 121.060092,24.833701,0.0 121.059335,24.833359,0.0 121.058627,24.832254,0.0 121.058621,24.830389,0.0 121.061192,24.830261,0.0 121.063271,24.829873,0.0 121.06429,24.829901,0.0 121.065832,24.83056,0.0 121.066662,24.830935,0.0 121.066765,24.831329,0.0 121.066984,24.831573,0.0 121.069689,24.831224,0.0 121.071194,24.831505,0.0 121.07292,24.831027,0.0 121.07719,24.829783,0.0 121.079196,24.830239,0.0 121.079445,24.830571,0.0 121.079929,24.830826,0.0 121.080815,24.831338,0.0 121.081436,24.831247,0.0 121.082487,24.831363,0.0 121.084608,24.831395,0.0 121.085521,24.831481,0.0 121.085819,24.831475,0.0</coordinates></LinearRing></outerBoundaryIs></Polygon><styleUrl>#spolygon-map</styleUrl></Placemark><Placemark><Polygon><outerBoundaryIs><LinearRing><coordinates>121.099213,24.842517,0.0 121.098521,24.844345,0.0 121.097881,24.845639,0.0 121.097149,24.847261,0.0 121.096811,24.848739,0.0 121.094533,24.850543,0.0 121.092847,24.84956,0.0 121.09239,24.848189,0.0 121.091997,24.847384,0.0 121.091106,24.846007,0.0 121.091071,24.844251,0.0 121.09086,24.843024,0.0 121.090607,24.842293,0.0 121.090198,24.84129,0.0 121.090177,24.839707,0.0 121.090087,24.838816,0.0 121.089819,24.837276,0.0 121.089722,24.836338,0.0 121.089458,24.835145,0.0 121.088947,24.834345,0.0 121.088268,24.833189,0.0 121.08731,24.832309,0.0 121.08628,24.831631,0.0 121.085876,24.831508,0.0 121.084228,24.8304,0.0 121.083449,24.829902,0.0 121.083232,24.830162,0.0 121.082738,24.829947,0.0 121.081094,24.82878,0.0 121.079477,24.828192,0.0 121.079026,24.828144,0.0 121.080608,24.827548,0.0 121.086418,24.825738,0.0 121.089033,24.826535,0.0 121.092041,24.830061,0.0 121.094917,24.832113,0.0 121.098176,24.832455,0.0 121.099721,24.832807,0.0 121.100268,24.833584,0.0 121.099966,24.835076,0.0 121.098784,24.837468,0.0 121.098367,24.840402,0.0 121.098413,24.841755,0.0 121.099213,24.842517,0.0</coordinates></LinearRing></outerBoundaryIs></Polygon><styleUrl>#spolygon-map</styleUrl></Placemark><Placemark><Polygon><outerBoundaryIs><LinearRing><coordinates>121.054307,24.85777,0.0 121.0539,24.857567,0.0 121.053727,24.857937,0.0 121.053566,24.85869,0.0 121.053426,24.859089,0.0 121.052983,24.858843,0.0 121.052539,24.858586,0.0 121.052106,24.858336,0.0 121.051562,24.858022,0.0 121.051214,24.857833,0.0 121.050824,24.857609,0.0 121.050566,24.857385,0.0 121.050276,24.857134,0.0 121.049987,24.856965,0.0 121.049712,24.856765,0.0 121.049446,24.85655,0.0 121.04925,24.856325,0.0 121.049094,24.856014,0.0 121.048801,24.855655,0.0 121.048595,24.855336,0.0 121.048268,24.854981,0.0 121.048013,24.854852,0.0 121.047665,24.85474,0.0 121.047323,24.854651,0.0 121.047036,24.854532,0.0 121.046786,24.854327,0.0 121.046536,24.854097,0.0 121.046219,24.85381,0.0 121.04598,24.853582,0.0 121.045699,24.853325,0.0 121.045394,24.853058,0.0 121.045134,24.852835,0.0 121.044869,24.852594,0.0 121.044648,24.852299,0.0 121.044472,24.851912,0.0 121.04429,24.851488,0.0 121.044152,24.851145,0.0 121.043958,24.850727,0.0 121.043797,24.850328,0.0 121.043638,24.850449,0.0 121.043336,24.850799,0.0 121.043031,24.851154,0.0 121.042735,24.851409,0.0 121.042354,24.851421,0.0 121.041737,24.851397,0.0 121.04126,24.851363,0.0 121.040894,24.851352,0.0 121.040462,24.85134,0.0 121.039984,24.851308,0.0 121.039563,24.851296,0.0 121.039069,24.851248,0.0 121.038728,24.85141,0.0 121.038774,24.851763,0.0 121.038779,24.852091,0.0 121.0385,24.85228,0.0 121.038074,24.852312,0.0 121.03766,24.852319,0.0 121.03717,24.852345,0.0 121.036545,24.852464,0.0 121.03608,24.852553,0.0 121.035655,24.852702,0.0 121.035279,24.852849,0.0 121.034931,24.853028,0.0 121.034568,24.85327,0.0 121.034289,24.85358,0.0 121.034053,24.853927,0.0 121.033879,24.854225,0.0 121.033621,24.854399,0.0 121.033323,24.854399,0.0 121.032359,24.854603,0.0 121.031238,24.854647,0.0 121.03023,24.854413,0.0 121.029108,24.854153,0.0 121.028411,24.853679,0.0 121.027616,24.853072,0.0 121.026974,24.852758,0.0 121.025658,24.852941,0.0 121.024516,24.853091,0.0 121.023309,24.853237,0.0 121.022116,24.853202,0.0 121.021239,24.853163,0.0 121.020538,24.85354,0.0 121.019966,24.853727,0.0 121.018911,24.853637,0.0 121.018113,24.85357,0.0 121.017393,24.853894,0.0 121.01671,24.854208,0.0 121.016191,24.854037,0.0 121.015618,24.853526,0.0 121.01486,24.852802,0.0 121.014201,24.852109,0.0 121.013752,24.851189,0.0 121.013975,24.850496,0.0 121.014811,24.850025,0.0 121.015557,24.849915,0.0 121.016597,24.850204,0.0 121.017508,24.850428,0.0 121.018332,24.850268,0.0 121.019016,24.850104,0.0 121.019956,24.849871,0.0 121.020859,24.849643,0.0 121.021438,24.849436,0.0 121.021826,24.848949,0.0 121.022096,24.848371,0.0 121.022233,24.847996,0.0 121.022384,24.847655,0.0 121.022632,24.847263,0.0 121.022765,24.846948,0.0 121.022911,24.846518,0.0 121.023003,24.846193,0.0 121.023109,24.845726,0.0 121.023187,24.845315,0.0 121.023192,24.844824,0.0 121.023271,24.844394,0.0 121.023408,24.84396,0.0 121.023573,24.843599,0.0 121.023754,24.843111,0.0 121.024005,24.842577,0.0 121.024372,24.84209,0.0 121.024688,24.84194,0.0 121.025091,24.841927,0.0 121.02539,24.841957,0.0 121.025771,24.841939,0.0 121.026143,24.841814,0.0 121.026518,24.841661,0.0 121.026841,24.841501,0.0 121.027115,24.841333,0.0 121.02745,24.841175,0.0 121.027586,24.840992,0.0 121.027616,24.840624,0.0 121.027518,24.84022,0.0 121.029374,24.840471,0.0 121.033149,24.838941,0.0 121.036876,24.837354,0.0 121.038793,24.837791,0.0 121.041005,24.840458,0.0 121.041012,24.841196,0.0 121.041381,24.841381,0.0 121.042611,24.840569,0.0 121.043451,24.840185,0.0 121.044046,24.840154,0.0 121.043301,24.84099,0.0 121.042975,24.842015,0.0 121.042429,24.842662,0.0 121.042859,24.843484,0.0 121.042526,24.844157,0.0 121.042842,24.845259,0.0 121.043555,24.846092,0.0 121.044498,24.846701,0.0 121.044592,24.84718,0.0 121.046936,24.847818,0.0 121.049611,24.848391,0.0 121.050598,24.84997,0.0 121.051624,24.8523,0.0 121.05307,24.855432,0.0 121.054307,24.85777,0.0</coordinates></LinearRing></outerBoundaryIs></Polygon><styleUrl>#spolygon-map</styleUrl></Placemark><Placemark><Polygon><outerBoundaryIs><LinearRing><coordinates>121.058993,24.833117,0.0 121.057952,24.833686,0.0 121.057343,24.835319,0.0 121.056547,24.835971,0.0 121.055837,24.837933,0.0 121.056747,24.83987,0.0 121.058328,24.842509,0.0 121.05816,24.843339,0.0 121.057002,24.845331,0.0 121.05746,24.847754,0.0 121.058092,24.849246,0.0 121.058824,24.850765,0.0 121.05948,24.851934,0.0 121.060728,24.852714,0.0 121.062552,24.853255,0.0 121.063782,24.853907,0.0 121.064425,24.855179,0.0 121.065518,24.856764,0.0 121.066602,24.858883,0.0 121.067838,24.86097,0.0 121.069205,24.863011,0.0 121.068912,24.863261,0.0 121.068406,24.863034,0.0 121.067993,24.862835,0.0 121.067623,24.862641,0.0 121.067167,24.862407,0.0 121.06673,24.862198,0.0 121.066381,24.862026,0.0 121.065987,24.861778,0.0 121.065622,24.861611,0.0 121.065218,24.861575,0.0 121.065003,24.861408,0.0 121.064727,24.861189,0.0 121.064413,24.860986,0.0 121.064114,24.860612,0.0 121.063819,24.860228,0.0 121.063528,24.860123,0.0 121.063004,24.860339,0.0 121.062499,24.860489,0.0 121.062077,24.860568,0.0 121.061631,24.860599,0.0 121.061139,24.860595,0.0 121.060801,24.860453,0.0 121.060475,24.86031,0.0 121.060146,24.860175,0.0 121.059887,24.859992,0.0 121.059637,24.85985,0.0 121.059321,24.859569,0.0 121.058905,24.859358,0.0 121.05852,24.859179,0.0 121.058163,24.858961,0.0 121.057962,24.85876,0.0 121.057711,24.858522,0.0 121.057409,24.858441,0.0 121.05698,24.858526,0.0 121.056582,24.858412,0.0 121.056292,24.858217,0.0 121.056009,24.85805,0.0 121.055687,24.858074,0.0 121.055356,24.8582,0.0 121.055006,24.858099,0.0 121.054525,24.857855,0.0 121.053526,24.856222,0.0 121.052145,24.853603,0.0 121.050837,24.850651,0.0 121.049685,24.84846,0.0 121.047695,24.84802,0.0 121.044937,24.847296,0.0 121.044529,24.846784,0.0 121.04394,24.846243,0.0 121.043229,24.845922,0.0 121.042502,24.844428,0.0 121.042857,24.843594,0.0 121.042543,24.842824,0.0 121.042508,24.8423,0.0 121.043227,24.841336,0.0 121.044021,24.840182,0.0 121.043775,24.840129,0.0 121.042968,24.840279,0.0 121.041747,24.841206,0.0 121.040997,24.841407,0.0 121.041059,24.840571,0.0 121.039752,24.838885,0.0 121.037975,24.836702,0.0 121.03977,24.835478,0.0 121.040597,24.834362,0.0 121.041387,24.833351,0.0 121.042138,24.831187,0.0 121.04431,24.829678,0.0 121.047065,24.828684,0.0 121.050014,24.828769,0.0 121.052946,24.828872,0.0 121.055002,24.828755,0.0 121.055694,24.82905,0.0 121.05658,24.829468,0.0 121.057711,24.82959,0.0 121.058509,24.830356,0.0 121.058627,24.832254,0.0 121.058993,24.833117,0.0</coordinates></LinearRing></outerBoundaryIs></Polygon><styleUrl>#spolygon-map</styleUrl></Placemark><Placemark><Polygon><outerBoundaryIs><LinearRing><coordinates>121.079385,24.863087,0.0 121.079013,24.86322,0.0 121.078695,24.86358,0.0 121.078481,24.863816,0.0 121.078051,24.863705,0.0 121.077607,24.863563,0.0 121.077229,24.863274,0.0 121.076775,24.863069,0.0 121.076319,24.862935,0.0 121.075926,24.862985,0.0 121.075664,24.862788,0.0 121.075333,24.862821,0.0 121.074752,24.86271,0.0 121.074301,24.862559,0.0 121.074067,24.862732,0.0 121.074231,24.863091,0.0 121.074253,24.863492,0.0 121.073842,24.863596,0.0 121.073539,24.863392,0.0 121.073169,24.863293,0.0 121.072692,24.863381,0.0 121.072244,24.863541,0.0 121.071678,24.863666,0.0 121.071047,24.863766,0.0 121.070506,24.863785,0.0 121.06998,24.863709,0.0 121.0696,24.863617,0.0 121.068932,24.862482,0.0 121.067361,24.860251,0.0 121.066312,24.858267,0.0 121.065129,24.8562,0.0 121.064287,24.854568,0.0 121.063627,24.853756,0.0 121.062137,24.853143,0.0 121.060388,24.852545,0.0 121.059172,24.851765,0.0 121.058563,24.850311,0.0 121.058002,24.8489,0.0 121.057157,24.846889,0.0 121.05716,24.844896,0.0 121.058306,24.843038,0.0 121.057945,24.841583,0.0 121.05606,24.838982,0.0 121.056003,24.837198,0.0 121.056703,24.835705,0.0 121.057652,24.834795,0.0 121.058221,24.833286,0.0 121.059335,24.833359,0.0 121.060092,24.833701,0.0 121.060597,24.834737,0.0 121.060757,24.836056,0.0 121.061273,24.837388,0.0 121.061832,24.838643,0.0 121.062977,24.83909,0.0 121.064065,24.839594,0.0 121.06689,24.84001,0.0 121.069193,24.839926,0.0 121.070421,24.839659,0.0 121.070797,24.839519,0.0 121.072275,24.839563,0.0 121.073642,24.840364,0.0 121.074571,24.841535,0.0 121.075081,24.84239,0.0 121.075227,24.843832,0.0 121.075805,24.844266,0.0 121.07706,24.844719,0.0 121.078253,24.845211,0.0 121.078885,24.846145,0.0 121.078433,24.846772,0.0 121.078437,24.84735,0.0 121.07839,24.848349,0.0 121.078105,24.849606,0.0 121.077076,24.852293,0.0 121.076642,24.855005,0.0 121.076238,24.857617,0.0 121.07708,24.859798,0.0 121.079385,24.863087,0.0</coordinates></LinearRing></outerBoundaryIs></Polygon><styleUrl>#spolygon-map</styleUrl></Placemark><Placemark><Polygon><outerBoundaryIs><LinearRing><coordinates>121.150926,24.867605,0.0 121.148741,24.868105,0.0 121.14795,24.868279,0.0 121.146401,24.867719,0.0 121.144865,24.86769,0.0 121.144503,24.866369,0.0 121.142704,24.865978,0.0 121.141741,24.865286,0.0 121.14029,24.864379,0.0 121.138916,24.863484,0.0 121.138126,24.862445,0.0 121.137456,24.861874,0.0 121.137273,24.860911,0.0 121.13692,24.860189,0.0 121.136876,24.858623,0.0 121.136617,24.857473,0.0 121.135485,24.856638,0.0 121.1341,24.855698,0.0 121.133015,24.854872,0.0 121.132471,24.854541,0.0 121.130802,24.853925,0.0 121.128815,24.853092,0.0 121.127735,24.852274,0.0 121.126546,24.851227,0.0 121.125926,24.850548,0.0 121.12542,24.849246,0.0 121.124023,24.848854,0.0 121.122735,24.848799,0.0 121.12084,24.84836,0.0 121.119747,24.847163,0.0 121.11889,24.846119,0.0 121.119452,24.845076,0.0 121.120656,24.844147,0.0 121.122288,24.843492,0.0 121.123599,24.842845,0.0 121.126008,24.842285,0.0 121.12883,24.842172,0.0 121.130341,24.843713,0.0 121.131293,24.84403,0.0 121.131744,24.844417,0.0 121.132842,24.844817,0.0 121.133858,24.844989,0.0 121.135841,24.8446,0.0 121.139324,24.843666,0.0 121.140688,24.844014,0.0 121.141858,24.846408,0.0 121.14226,24.847387,0.0 121.142519,24.848635,0.0 121.142686,24.849296,0.0 121.142789,24.849969,0.0 121.143106,24.851607,0.0 121.143392,24.852854,0.0 121.14365,24.854843,0.0 121.143618,24.855379,0.0 121.145093,24.857294,0.0 121.147027,24.859468,0.0 121.147181,24.861266,0.0 121.147203,24.862497,0.0 121.147503,24.863292,0.0 121.147693,24.863951,0.0 121.149044,24.865451,0.0 121.150191,24.866891,0.0 121.150926,24.867605,0.0</coordinates></LinearRing></outerBoundaryIs></Polygon><styleUrl>#spolygon-map</styleUrl></Placemark><Placemark><Polygon><outerBoundaryIs><LinearRing><coordinates>121.100302,24.868774,0.0 121.099823,24.868837,0.0 121.099485,24.868707,0.0 121.098399,24.86875,0.0 121.097878,24.868841,0.0 121.097366,24.868948,0.0 121.096781,24.869038,0.0 121.096259,24.869141,0.0 121.095681,24.869154,0.0 121.095114,24.86914,0.0 121.09466,24.869089,0.0 121.094226,24.868992,0.0 121.09374,24.868762,0.0 121.092867,24.868487,0.0 121.092369,24.868467,0.0 121.091772,24.868488,0.0 121.091188,24.868507,0.0 121.090581,24.868496,0.0 121.090022,24.86851,0.0 121.089648,24.868474,0.0 121.089352,24.868078,0.0 121.089158,24.867648,0.0 121.088967,24.867309,0.0 121.088771,24.866845,0.0 121.088725,24.866168,0.0 121.088577,24.865858,0.0 121.088321,24.865506,0.0 121.088118,24.865127,0.0 121.08775,24.864912,0.0 121.087212,24.864899,0.0 121.086811,24.864879,0.0 121.086371,24.864888,0.0 121.086021,24.865061,0.0 121.085633,24.865253,0.0 121.08467,24.865537,0.0 121.084103,24.865579,0.0 121.083211,24.865418,0.0 121.083018,24.865066,0.0 121.08269,24.864443,0.0 121.082356,24.864053,0.0 121.081928,24.863767,0.0 121.08138,24.863538,0.0 121.081,24.863387,0.0 121.080413,24.863145,0.0 121.079652,24.863068,0.0 121.078396,24.861669,0.0 121.07631,24.858649,0.0 121.076386,24.856348,0.0 121.076778,24.853772,0.0 121.077525,24.851189,0.0 121.078442,24.848961,0.0 121.078478,24.847613,0.0 121.078335,24.84702,0.0 121.078653,24.846494,0.0 121.078769,24.8456,0.0 121.080933,24.846075,0.0 121.08276,24.846379,0.0 121.085788,24.8474,0.0 121.087835,24.847735,0.0 121.090304,24.847657,0.0 121.091765,24.848851,0.0 121.094043,24.850833,0.0 121.095367,24.852166,0.0 121.096387,24.854022,0.0 121.096208,24.855365,0.0 121.096382,24.855997,0.0 121.096909,24.856732,0.0 121.098183,24.85778,0.0 121.098675,24.858787,0.0 121.098731,24.859608,0.0 121.099257,24.861244,0.0 121.099787,24.862245,0.0 121.100122,24.863561,0.0 121.100403,24.864976,0.0 121.100622,24.866826,0.0 121.100377,24.868528,0.0 121.100302,24.868774,0.0</coordinates></LinearRing></outerBoundaryIs></Polygon><styleUrl>#spolygon-map</styleUrl></Placemark><Placemark><Polygon><outerBoundaryIs><LinearRing><coordinates>121.156397,24.853932,0.0 121.15659,24.854393,0.0 121.156804,24.854808,0.0 121.156899,24.855314,0.0 121.156494,24.855632,0.0 121.156469,24.855861,0.0 121.156696,24.856094,0.0 121.157266,24.856318,0.0 121.157745,24.856448,0.0 121.158079,24.856508,0.0 121.157923,24.856815,0.0 121.157803,24.857034,0.0 121.15822,24.857289,0.0 121.1585,24.857484,0.0 121.158837,24.857545,0.0 121.158979,24.857639,0.0 121.15907,24.857923,0.0 121.159755,24.857832,0.0 121.160183,24.857771,0.0 121.16016,24.857871,0.0 121.159643,24.858038,0.0 121.159519,24.858383,0.0 121.159217,24.858676,0.0 121.159177,24.858906,0.0 121.159332,24.859069,0.0 121.159783,24.858724,0.0 121.160129,24.858478,0.0 121.160383,24.858753,0.0 121.160732,24.859022,0.0 121.161197,24.859216,0.0 121.161309,24.8596,0.0 121.160864,24.859779,0.0 121.160705,24.86,0.0 121.160901,24.860209,0.0 121.160717,24.860514,0.0 121.160268,24.860933,0.0 121.160409,24.861129,0.0 121.160563,24.861218,0.0 121.160681,24.861749,0.0 121.160335,24.862062,0.0 121.159951,24.862315,0.0 121.159915,24.862747,0.0 121.160132,24.862953,0.0 121.160649,24.862985,0.0 121.160763,24.863187,0.0 121.160503,24.863579,0.0 121.160521,24.863987,0.0 121.16064,24.864094,0.0 121.160365,24.86423,0.0 121.16046,24.864534,0.0 121.160149,24.864728,0.0 121.160071,24.865172,0.0 121.160029,24.865647,0.0 121.16,24.865831,0.0 121.160007,24.865997,0.0 121.160019,24.866246,0.0 121.159952,24.866622,0.0 121.159821,24.867026,0.0 121.159852,24.867321,0.0 121.15969,24.867938,0.0 121.159546,24.868393,0.0 121.159389,24.868844,0.0 121.159178,24.869469,0.0 121.158984,24.869967,0.0 121.158787,24.870472,0.0 121.158531,24.870978,0.0 121.15824,24.871529,0.0 121.157957,24.872015,0.0 121.157471,24.872335,0.0 121.157132,24.871772,0.0 121.156113,24.870891,0.0 121.154039,24.870175,0.0 121.153186,24.86949,0.0 121.15247,24.868361,0.0 121.151307,24.867833,0.0 121.150191,24.866891,0.0 121.149044,24.865451,0.0 121.147693,24.863951,0.0 121.147503,24.863292,0.0 121.147203,24.862497,0.0 121.147181,24.861266,0.0 121.147027,24.859468,0.0 121.145093,24.857294,0.0 121.143618,24.855379,0.0 121.14365,24.854843,0.0 121.143392,24.852854,0.0 121.143106,24.851607,0.0 121.142789,24.849969,0.0 121.142686,24.849296,0.0 121.142519,24.848635,0.0 121.14226,24.847387,0.0 121.141858,24.846408,0.0 121.140688,24.844014,0.0 121.141944,24.843217,0.0 121.144601,24.84307,0.0 121.144925,24.843156,0.0 121.145429,24.843201,0.0 121.145852,24.843169,0.0 121.146268,24.843136,0.0 121.14661,24.843254,0.0 121.147026,24.843417,0.0 121.147352,24.843565,0.0 121.147714,24.843721,0.0 121.148145,24.843822,0.0 121.148649,24.843847,0.0 121.149047,24.843986,0.0 121.149598,24.844201,0.0 121.149943,24.844354,0.0 121.150119,24.84466,0.0 121.150544,24.844945,0.0 121.151109,24.845206,0.0 121.15162,24.84541,0.0 121.152139,24.845629,0.0 121.152565,24.845923,0.0 121.152918,24.846282,0.0 121.153196,24.846862,0.0 121.153464,24.847295,0.0 121.153539,24.847778,0.0 121.153475,24.848408,0.0 121.153706,24.848859,0.0 121.154086,24.849208,0.0 121.154712,24.849567,0.0 121.155413,24.849845,0.0 121.155649,24.850142,0.0 121.15569,24.850692,0.0 121.155873,24.851063,0.0 121.156008,24.851458,0.0 121.155942,24.851945,0.0 121.156484,24.852145,0.0 121.15699,24.852354,0.0 121.157036,24.852804,0.0 121.156935,24.853311,0.0 121.156377,24.853519,0.0 121.156341,24.853817,0.0 121.156397,24.853932,0.0</coordinates></LinearRing></outerBoundaryIs></Polygon><styleUrl>#spolygon-map</styleUrl></Placemark><Placemark><Polygon><outerBoundaryIs><LinearRing><coordinates>121.118972,24.875209,0.0 121.117763,24.87526,0.0 121.11704,24.875755,0.0 121.116447,24.876285,0.0 121.115958,24.876176,0.0 121.11552,24.876309,0.0 121.114669,24.876366,0.0 121.11398,24.875761,0.0 121.113534,24.875542,0.0 121.113064,24.875625,0.0 121.112562,24.875184,0.0 121.11221,24.874696,0.0 121.112593,24.874026,0.0 121.11293,24.873506,0.0 121.113282,24.873196,0.0 121.113282,24.872911,0.0 121.11322,24.872587,0.0 121.113248,24.872079,0.0 121.113116,24.871594,0.0 121.112755,24.87115,0.0 121.112457,24.870698,0.0 121.112432,24.87018,0.0 121.112198,24.869762,0.0 121.111849,24.869584,0.0 121.111481,24.869584,0.0 121.111387,24.86992,0.0 121.111222,24.870463,0.0 121.111155,24.870948,0.0 121.110727,24.871519,0.0 121.110387,24.871694,0.0 121.110089,24.871894,0.0 121.109802,24.872112,0.0 121.109311,24.872195,0.0 121.108712,24.872228,0.0 121.108263,24.872153,0.0 121.107278,24.872236,0.0 121.106722,24.872025,0.0 121.106163,24.871764,0.0 121.105714,24.871543,0.0 121.105549,24.871324,0.0 121.104806,24.871333,0.0 121.104368,24.871125,0.0 121.104314,24.87048,0.0 121.104264,24.869794,0.0 121.104046,24.869307,0.0 121.10366,24.869172,0.0 121.103322,24.869343,0.0 121.102539,24.869795,0.0 121.102112,24.870012,0.0 121.101745,24.87021,0.0 121.101365,24.870515,0.0 121.100958,24.870406,0.0 121.100657,24.869779,0.0 121.100643,24.869252,0.0 121.100677,24.868659,0.0 121.10036,24.868756,0.0 121.100487,24.867157,0.0 121.100526,24.865637,0.0 121.100257,24.864129,0.0 121.099798,24.862381,0.0 121.099491,24.861549,0.0 121.098846,24.860235,0.0 121.098734,24.85925,0.0 121.098405,24.858134,0.0 121.097344,24.857125,0.0 121.096478,24.856196,0.0 121.096222,24.855602,0.0 121.096372,24.854356,0.0 121.096033,24.853059,0.0 121.094455,24.851305,0.0 121.095768,24.849947,0.0 121.097131,24.847957,0.0 121.097207,24.8467,0.0 121.098039,24.845314,0.0 121.099204,24.843348,0.0 121.099999,24.842673,0.0 121.101929,24.842812,0.0 121.103544,24.841191,0.0 121.104964,24.839589,0.0 121.106417,24.840455,0.0 121.107314,24.84238,0.0 121.107607,24.843743,0.0 121.107539,24.846684,0.0 121.108328,24.847732,0.0 121.109858,24.84774,0.0 121.111447,24.846184,0.0 121.113138,24.845386,0.0 121.114712,24.845673,0.0 121.117376,24.845734,0.0 121.11889,24.846119,0.0 121.119747,24.847163,0.0 121.12084,24.84836,0.0 121.122735,24.848799,0.0 121.124023,24.848854,0.0 121.12542,24.849246,0.0 121.125926,24.850548,0.0 121.126546,24.851227,0.0 121.127735,24.852274,0.0 121.128815,24.853092,0.0 121.130802,24.853925,0.0 121.132471,24.854541,0.0 121.133015,24.854872,0.0 121.131891,24.856434,0.0 121.129715,24.857174,0.0 121.127142,24.859295,0.0 121.125613,24.861113,0.0 121.124643,24.861932,0.0 121.124071,24.863823,0.0 121.123928,24.864614,0.0 121.123567,24.8651,0.0 121.122599,24.865815,0.0 121.122273,24.86638,0.0 121.121888,24.866979,0.0 121.121736,24.867699,0.0 121.120863,24.86814,0.0 121.120466,24.868996,0.0 121.119977,24.869709,0.0 121.119962,24.870282,0.0 121.119648,24.871023,0.0 121.119253,24.871888,0.0 121.119214,24.872984,0.0 121.119128,24.874009,0.0 121.118972,24.875209,0.0</coordinates></LinearRing></outerBoundaryIs></Polygon><styleUrl>#spolygon-map</styleUrl></Placemark><Placemark><Polygon><outerBoundaryIs><LinearRing><coordinates>121.157206,24.872276,0.0 121.157156,24.872575,0.0 121.157172,24.873003,0.0 121.156986,24.873556,0.0 121.156577,24.873929,0.0 121.156221,24.874453,0.0 121.15693,24.874445,0.0 121.158026,24.874563,0.0 121.158161,24.874974,0.0 121.158163,24.875291,0.0 121.15792,24.87644,0.0 121.157835,24.876812,0.0 121.157012,24.878172,0.0 121.156807,24.878653,0.0 121.156387,24.87949,0.0 121.155543,24.880718,0.0 121.154469,24.880161,0.0 121.152243,24.880204,0.0 121.150655,24.880978,0.0 121.148534,24.881237,0.0 121.146147,24.880718,0.0 121.145298,24.880634,0.0 121.145303,24.88038,0.0 121.144676,24.880187,0.0 121.14288,24.88145,0.0 121.141494,24.881685,0.0 121.140559,24.881813,0.0 121.139823,24.882274,0.0 121.13937,24.882421,0.0 121.138859,24.882359,0.0 121.138471,24.88199,0.0 121.137639,24.881715,0.0 121.137295,24.881405,0.0 121.136631,24.880725,0.0 121.136489,24.879925,0.0 121.136432,24.879709,0.0 121.136165,24.879467,0.0 121.135849,24.879219,0.0 121.135623,24.878074,0.0 121.135584,24.87799,0.0 121.13526,24.878112,0.0 121.13475,24.878261,0.0 121.134356,24.87835,0.0 121.133929,24.87872,0.0 121.133749,24.879193,0.0 121.133541,24.879501,0.0 121.133226,24.879631,0.0 121.132063,24.87975,0.0 121.131789,24.879825,0.0 121.130219,24.87992,0.0 121.129812,24.879697,0.0 121.129538,24.87973,0.0 121.129153,24.880149,0.0 121.128663,24.880454,0.0 121.127928,24.880943,0.0 121.127495,24.88078,0.0 121.127274,24.880706,0.0 121.125658,24.880475,0.0 121.125108,24.880123,0.0 121.124778,24.880027,0.0 121.123761,24.879959,0.0 121.123266,24.880206,0.0 121.122429,24.880258,0.0 121.121971,24.880178,0.0 121.121759,24.879268,0.0 121.121582,24.878407,0.0 121.121531,24.87753,0.0 121.121091,24.876816,0.0 121.121259,24.87604,0.0 121.120984,24.875317,0.0 121.120435,24.875356,0.0 121.11957,24.87535,0.0 121.118941,24.874528,0.0 121.119312,24.873551,0.0 121.11928,24.87261,0.0 121.11942,24.871215,0.0 121.119798,24.870688,0.0 121.120018,24.869855,0.0 121.120129,24.869428,0.0 121.120657,24.868511,0.0 121.121209,24.868041,0.0 121.121929,24.86738,0.0 121.121967,24.866549,0.0 121.122409,24.866214,0.0 121.122991,24.865438,0.0 121.123792,24.864802,0.0 121.123911,24.864232,0.0 121.124317,24.863104,0.0 121.124875,24.861582,0.0 121.126156,24.86049,0.0 121.128723,24.857564,0.0 121.131249,24.856734,0.0 121.132926,24.855432,0.0 121.134002,24.855579,0.0 121.135109,24.856532,0.0 121.136599,24.857344,0.0 121.136905,24.858355,0.0 121.136711,24.85981,0.0 121.137081,24.86073,0.0 121.137459,24.861726,0.0 121.138072,24.862396,0.0 121.13881,24.863406,0.0 121.139812,24.864251,0.0 121.141652,24.865202,0.0 121.142496,24.865921,0.0 121.144444,24.866299,0.0 121.144779,24.867543,0.0 121.146255,24.867764,0.0 121.147491,24.86805,0.0 121.148501,24.868287,0.0 121.150562,24.867663,0.0 121.151367,24.867854,0.0 121.152498,24.868572,0.0 121.153398,24.869703,0.0 121.154362,24.870371,0.0 121.156259,24.870944,0.0 121.157169,24.871905,0.0 121.157206,24.872276,0.0</coordinates></LinearRing></outerBoundaryIs></Polygon><styleUrl>#spolygon-map</styleUrl></Placemark></Document>
</kml>
