<?xml version="1.0" encoding="UTF-8"?>
<kml xmlns="http://www.opengis.net/kml/2.2">
	<Document>
		<name>新竹縣新豐鄉</name>
		<Style id="spolygon">
			<LabelStyle>
				<scale>0.0</scale>
			</LabelStyle>
			<LineStyle>
				<color>330030ff</color>
				<width>0</width>
			</LineStyle>
			<PolyStyle>
				<color>330030ff</color>
			</PolyStyle>
		</Style>
		<StyleMap id="spolygon-map">
			<Pair>
				<key>normal</key>
				<styleUrl>#spolygon</styleUrl>
			</Pair>
		</StyleMap>
	<Placemark><Polygon><outerBoundaryIs><LinearRing><coordinates>120.994533,24.870261,0.0 120.994189,24.870118,0.0 120.994009,24.870525,0.0 120.993724,24.87116,0.0 120.990825,24.870321,0.0 120.988771,24.868743,0.0 120.990099,24.866768,0.0 120.991366,24.864768,0.0 120.991543,24.863833,0.0 120.992137,24.864271,0.0 120.992679,24.864793,0.0 120.993434,24.86556,0.0 120.994046,24.86633,0.0 120.994625,24.86706,0.0 120.995312,24.867847,0.0 120.99588,24.868341,0.0 120.995566,24.869344,0.0 120.995712,24.869822,0.0 120.99534,24.870116,0.0 120.994533,24.870261,0.0</coordinates></LinearRing></outerBoundaryIs></Polygon><styleUrl>#spolygon-map</styleUrl></Placemark><Placemark><Polygon><outerBoundaryIs><LinearRing><coordinates>121.000475,24.873289,0.0 120.993021,24.875551,0.0 120.992543,24.87439,0.0 120.993273,24.873431,0.0 120.993372,24.872807,0.0 120.994236,24.871955,0.0 120.994303,24.871633,0.0 120.993722,24.87132,0.0 120.993814,24.870742,0.0 120.994101,24.870203,0.0 120.994419,24.870207,0.0 120.99509,24.870216,0.0 120.995656,24.869854,0.0 120.995579,24.869422,0.0 120.995334,24.868987,0.0 120.99638,24.868804,0.0 120.997267,24.869508,0.0 120.997972,24.870128,0.0 120.998585,24.870802,0.0 120.999279,24.871387,0.0 120.998919,24.871605,0.0 120.99865,24.871716,0.0 120.998812,24.871938,0.0 120.999732,24.872663,0.0 121.0004,24.873243,0.0 121.000475,24.873289,0.0</coordinates></LinearRing></outerBoundaryIs></Polygon><styleUrl>#spolygon-map</styleUrl></Placemark><Placemark><Polygon><outerBoundaryIs><LinearRing><coordinates>121.005903,24.878232,0.0 121.002339,24.880424,0.0 120.999352,24.88105,0.0 120.993987,24.883387,0.0 120.992789,24.883147,0.0 120.991575,24.880893,0.0 120.990788,24.878965,0.0 120.990609,24.876942,0.0 120.990523,24.875568,0.0 120.991626,24.875274,0.0 120.994229,24.87545,0.0 121.000781,24.873559,0.0 121.001735,24.874498,0.0 121.002767,24.875322,0.0 121.003561,24.876036,0.0 121.004287,24.876687,0.0 121.004734,24.877205,0.0 121.00526,24.877771,0.0 121.00552,24.87783,0.0 121.005903,24.878232,0.0</coordinates></LinearRing></outerBoundaryIs></Polygon><styleUrl>#spolygon-map</styleUrl></Placemark><Placemark><Polygon><outerBoundaryIs><LinearRing><coordinates>120.990523,24.875568,0.0 120.987514,24.877403,0.0 120.987884,24.878422,0.0 120.989318,24.879225,0.0 120.988427,24.879925,0.0 120.987422,24.880035,0.0 120.987352,24.880543,0.0 120.988085,24.881326,0.0 120.988288,24.882166,0.0 120.98679,24.884358,0.0 120.986795,24.882992,0.0 120.986938,24.881575,0.0 120.986632,24.879836,0.0 120.986042,24.878266,0.0 120.985025,24.876834,0.0 120.983766,24.87466,0.0 120.983749,24.868821,0.0 120.982725,24.86572,0.0 120.981767,24.863952,0.0 120.982127,24.863553,0.0 120.982432,24.863239,0.0 120.982757,24.862922,0.0 120.983001,24.862242,0.0 120.983367,24.861582,0.0 120.98385,24.861482,0.0 120.984265,24.861648,0.0 120.984398,24.862147,0.0 120.984513,24.862699,0.0 120.984995,24.863041,0.0 120.985523,24.863401,0.0 120.986079,24.863525,0.0 120.986508,24.862965,0.0 120.986974,24.862842,0.0 120.987315,24.862643,0.0 120.987838,24.862435,0.0 120.988728,24.86223,0.0 120.989371,24.862092,0.0 120.989905,24.8619,0.0 120.990166,24.861895,0.0 120.990673,24.862406,0.0 120.99111,24.862986,0.0 120.99149,24.863774,0.0 120.991366,24.864768,0.0 120.990099,24.866768,0.0 120.988771,24.868743,0.0 120.990825,24.870321,0.0 120.993722,24.87132,0.0 120.994303,24.871633,0.0 120.994236,24.871955,0.0 120.993372,24.872807,0.0 120.993273,24.873431,0.0 120.992543,24.87439,0.0 120.992012,24.875221,0.0 120.990832,24.875341,0.0 120.990523,24.875568,0.0</coordinates></LinearRing></outerBoundaryIs></Polygon><styleUrl>#spolygon-map</styleUrl></Placemark><Placemark><Polygon><outerBoundaryIs><LinearRing><coordinates>121.010502,24.883306,0.0 121.008484,24.883412,0.0 121.007467,24.882685,0.0 121.005593,24.885418,0.0 121.003748,24.887281,0.0 121.001533,24.890414,0.0 120.996262,24.88971,0.0 120.995513,24.887921,0.0 120.994514,24.885549,0.0 120.99359,24.884172,0.0 120.996637,24.881421,0.0 121.001752,24.880881,0.0 121.004481,24.879265,0.0 121.006051,24.87848,0.0 121.005806,24.878773,0.0 121.006533,24.879517,0.0 121.00723,24.879991,0.0 121.007778,24.880302,0.0 121.008209,24.880414,0.0 121.008797,24.880927,0.0 121.009196,24.881416,0.0 121.009862,24.881916,0.0 121.01034,24.882205,0.0 121.010031,24.882546,0.0 121.010094,24.88325,0.0 121.010502,24.883306,0.0</coordinates></LinearRing></outerBoundaryIs></Polygon><styleUrl>#spolygon-map</styleUrl></Placemark><Placemark><Polygon><outerBoundaryIs><LinearRing><coordinates>120.998022,24.895658,0.0 120.997515,24.896396,0.0 120.996659,24.897012,0.0 120.991336,24.896241,0.0 120.986538,24.89587,0.0 120.985768,24.894662,0.0 120.986297,24.893526,0.0 120.986306,24.891761,0.0 120.986664,24.889671,0.0 120.986111,24.887225,0.0 120.985114,24.887115,0.0 120.984433,24.885232,0.0 120.985159,24.884828,0.0 120.986957,24.884239,0.0 120.988428,24.881741,0.0 120.987848,24.88126,0.0 120.987242,24.880448,0.0 120.98775,24.879934,0.0 120.988797,24.879801,0.0 120.989207,24.879035,0.0 120.987748,24.878347,0.0 120.987636,24.877255,0.0 120.990458,24.875635,0.0 120.99062,24.877164,0.0 120.990849,24.879307,0.0 120.991944,24.881705,0.0 120.992869,24.883288,0.0 120.993941,24.884644,0.0 120.994944,24.886357,0.0 120.99555,24.888468,0.0 120.996716,24.891194,0.0 120.997968,24.89526,0.0 120.998022,24.895658,0.0</coordinates></LinearRing></outerBoundaryIs></Polygon><styleUrl>#spolygon-map</styleUrl></Placemark><Placemark><Polygon><outerBoundaryIs><LinearRing><coordinates>120.986011,24.895767,0.0 120.985593,24.896415,0.0 120.984841,24.897232,0.0 120.984707,24.89895,0.0 120.983631,24.899287,0.0 120.982526,24.899617,0.0 120.982433,24.900505,0.0 120.98263,24.901855,0.0 120.982041,24.90396,0.0 120.982146,24.905641,0.0 120.980049,24.906191,0.0 120.978772,24.907515,0.0 120.977623,24.907504,0.0 120.978457,24.904152,0.0 120.979257,24.903468,0.0 120.979114,24.902671,0.0 120.979361,24.90193,0.0 120.979667,24.900867,0.0 120.98004,24.899767,0.0 120.979202,24.898809,0.0 120.979498,24.898371,0.0 120.978902,24.897305,0.0 120.978643,24.896791,0.0 120.977581,24.895859,0.0 120.977203,24.895211,0.0 120.976583,24.894891,0.0 120.975296,24.893164,0.0 120.97417,24.891639,0.0 120.974038,24.891508,0.0 120.97354,24.889738,0.0 120.972502,24.887816,0.0 120.970973,24.883544,0.0 120.969812,24.88123,0.0 120.967534,24.879605,0.0 120.966592,24.877353,0.0 120.967177,24.876807,0.0 120.967864,24.876179,0.0 120.968472,24.875641,0.0 120.968708,24.875118,0.0 120.968708,24.874167,0.0 120.969,24.873967,0.0 120.969248,24.874355,0.0 120.969718,24.874903,0.0 120.970265,24.875073,0.0 120.970846,24.875037,0.0 120.971389,24.874738,0.0 120.971559,24.874194,0.0 120.97216,24.873798,0.0 120.972691,24.87368,0.0 120.973337,24.87346,0.0 120.974084,24.873531,0.0 120.97467,24.872901,0.0 120.974854,24.872321,0.0 120.974766,24.871986,0.0 120.975095,24.871564,0.0 120.975688,24.871411,0.0 120.97635,24.871031,0.0 120.976498,24.870373,0.0 120.976434,24.869914,0.0 120.976827,24.869476,0.0 120.977515,24.869091,0.0 120.978244,24.868801,0.0 120.978709,24.868347,0.0 120.97912,24.867926,0.0 120.979298,24.867182,0.0 120.97945,24.866439,0.0 120.97948,24.865771,0.0 120.979886,24.865262,0.0 120.980857,24.864538,0.0 120.981558,24.864122,0.0 120.98338,24.867194,0.0 120.983761,24.870478,0.0 120.983951,24.87519,0.0 120.985213,24.877406,0.0 120.986289,24.878694,0.0 120.986598,24.880944,0.0 120.98703,24.881907,0.0 120.986904,24.883286,0.0 120.985947,24.884875,0.0 120.984545,24.884955,0.0 120.984712,24.886508,0.0 120.985776,24.88714,0.0 120.986557,24.88853,0.0 120.986422,24.890711,0.0 120.986538,24.89304,0.0 120.985808,24.89416,0.0 120.985992,24.895377,0.0 120.986011,24.895767,0.0</coordinates></LinearRing></outerBoundaryIs></Polygon><styleUrl>#spolygon-map</styleUrl></Placemark><Placemark><Polygon><outerBoundaryIs><LinearRing><coordinates>121.020336,24.895919,0.0 121.018228,24.895811,0.0 121.017275,24.895902,0.0 121.016611,24.897408,0.0 121.01603,24.89882,0.0 121.014724,24.898533,0.0 121.012797,24.900043,0.0 121.01124,24.900563,0.0 121.009544,24.902043,0.0 121.008575,24.902235,0.0 121.007122,24.902084,0.0 121.005575,24.903187,0.0 121.004763,24.902643,0.0 121.00298,24.902832,0.0 121.001781,24.904417,0.0 121.000893,24.904009,0.0 120.99912,24.903221,0.0 120.997654,24.904625,0.0 120.997487,24.906635,0.0 120.996951,24.906951,0.0 120.994653,24.907555,0.0 120.992938,24.908301,0.0 120.991975,24.908432,0.0 120.990492,24.907755,0.0 120.990028,24.906234,0.0 120.991149,24.904501,0.0 120.992152,24.903538,0.0 120.992589,24.901369,0.0 120.993901,24.900549,0.0 120.99501,24.899892,0.0 120.995626,24.898083,0.0 120.996635,24.897179,0.0 120.997297,24.89716,0.0 120.998005,24.896561,0.0 120.997885,24.894651,0.0 120.996333,24.890587,0.0 120.998968,24.89164,0.0 121.002361,24.888707,0.0 121.003643,24.886466,0.0 121.006317,24.884459,0.0 121.007765,24.882292,0.0 121.009383,24.88427,0.0 121.010588,24.88324,0.0 121.010724,24.882498,0.0 121.010971,24.882216,0.0 121.01141,24.882825,0.0 121.011673,24.883229,0.0 121.012379,24.883757,0.0 121.013204,24.884379,0.0 121.014025,24.884995,0.0 121.01476,24.885537,0.0 121.014827,24.885846,0.0 121.014934,24.886021,0.0 121.015446,24.886474,0.0 121.015535,24.886771,0.0 121.016245,24.887323,0.0 121.016882,24.887608,0.0 121.01773,24.887818,0.0 121.018451,24.888231,0.0 121.01907,24.888703,0.0 121.018539,24.889095,0.0 121.018239,24.889498,0.0 121.018511,24.889922,0.0 121.019111,24.890575,0.0 121.01946,24.891656,0.0 121.019691,24.892697,0.0 121.020076,24.893936,0.0 121.020348,24.894719,0.0 121.020461,24.895313,0.0 121.020303,24.895852,0.0 121.020336,24.895919,0.0</coordinates></LinearRing></outerBoundaryIs></Polygon><styleUrl>#spolygon-map</styleUrl></Placemark><Placemark><Polygon><outerBoundaryIs><LinearRing><coordinates>120.986989,24.908121,0.0 120.986492,24.907702,0.0 120.984559,24.908641,0.0 120.983209,24.908378,0.0 120.980726,24.908633,0.0 120.978233,24.908318,0.0 120.979187,24.906918,0.0 120.980412,24.906085,0.0 120.982283,24.905516,0.0 120.98202,24.903784,0.0 120.982652,24.901635,0.0 120.982402,24.900368,0.0 120.982611,24.899533,0.0 120.983763,24.899303,0.0 120.984898,24.898684,0.0 120.984854,24.897094,0.0 120.985763,24.896305,0.0 120.986538,24.89587,0.0 120.991336,24.896241,0.0 120.996659,24.897012,0.0 120.997515,24.896396,0.0 120.998022,24.895658,0.0 120.997745,24.896832,0.0 120.997024,24.897214,0.0 120.996273,24.897317,0.0 120.99543,24.898543,0.0 120.994715,24.900182,0.0 120.993168,24.900824,0.0 120.992454,24.901611,0.0 120.991867,24.904033,0.0 120.990652,24.904796,0.0 120.989806,24.907053,0.0 120.988297,24.907402,0.0 120.986989,24.908121,0.0</coordinates></LinearRing></outerBoundaryIs></Polygon><styleUrl>#spolygon-map</styleUrl></Placemark><Placemark><Polygon><outerBoundaryIs><LinearRing><coordinates>120.977687,24.908087,0.0 120.973895,24.908449,0.0 120.968088,24.909541,0.0 120.966658,24.908405,0.0 120.960991,24.907851,0.0 120.956829,24.900046,0.0 120.951997,24.893924,0.0 120.948535,24.885699,0.0 120.946735,24.880175,0.0 120.947491,24.880482,0.0 120.948362,24.880783,0.0 120.949233,24.88103,0.0 120.950104,24.881222,0.0 120.950975,24.881359,0.0 120.951704,24.881391,0.0 120.952495,24.881416,0.0 120.953017,24.881496,0.0 120.953651,24.88153,0.0 120.954207,24.881347,0.0 120.95506,24.881117,0.0 120.955441,24.88115,0.0 120.955806,24.88106,0.0 120.956339,24.880637,0.0 120.956964,24.880505,0.0 120.957598,24.880533,0.0 120.958208,24.880451,0.0 120.958791,24.880398,0.0 120.959146,24.880266,0.0 120.959518,24.880194,0.0 120.960137,24.880051,0.0 120.960769,24.879984,0.0 120.961377,24.880022,0.0 120.961859,24.880125,0.0 120.962417,24.8802,0.0 120.96296,24.880111,0.0 120.963488,24.879766,0.0 120.964061,24.879593,0.0 120.964888,24.878891,0.0 120.965795,24.878061,0.0 120.966612,24.878104,0.0 120.968801,24.880446,0.0 120.970686,24.882328,0.0 120.971641,24.885868,0.0 120.97334,24.889413,0.0 120.973591,24.890472,0.0 120.974153,24.891651,0.0 120.974464,24.89199,0.0 120.976472,24.894817,0.0 120.97713,24.895063,0.0 120.977351,24.895677,0.0 120.9783,24.896486,0.0 120.978797,24.897142,0.0 120.979601,24.898205,0.0 120.979191,24.898653,0.0 120.97975,24.899303,0.0 120.979906,24.900518,0.0 120.979447,24.901684,0.0 120.979103,24.902364,0.0 120.97949,24.903347,0.0 120.978718,24.903584,0.0 120.977541,24.906704,0.0 120.977687,24.908087,0.0</coordinates></LinearRing></outerBoundaryIs></Polygon><styleUrl>#spolygon-map</styleUrl></Placemark><Placemark><Polygon><outerBoundaryIs><LinearRing><coordinates>121.027606,24.91493,0.0 121.027783,24.915857,0.0 121.027863,24.916829,0.0 121.027636,24.917284,0.0 121.025434,24.916149,0.0 121.022296,24.916671,0.0 121.017872,24.915297,0.0 121.011604,24.912706,0.0 121.008186,24.91029,0.0 121.004137,24.910342,0.0 121.00027,24.911424,0.0 120.99595,24.911986,0.0 120.995933,24.912632,0.0 120.994768,24.914354,0.0 120.994044,24.914415,0.0 120.993105,24.914516,0.0 120.99247,24.914135,0.0 120.991576,24.913695,0.0 120.989992,24.912933,0.0 120.988588,24.911857,0.0 120.986688,24.909903,0.0 120.987021,24.908524,0.0 120.987392,24.907706,0.0 120.989594,24.907039,0.0 120.990409,24.907589,0.0 120.991824,24.908397,0.0 120.992756,24.90832,0.0 120.994357,24.9077,0.0 120.996623,24.906931,0.0 120.997431,24.906731,0.0 120.997567,24.905013,0.0 120.998977,24.903261,0.0 121.000666,24.90382,0.0 121.001676,24.904461,0.0 121.00275,24.902978,0.0 121.004566,24.902643,0.0 121.005507,24.903187,0.0 121.006925,24.902198,0.0 121.008234,24.902059,0.0 121.009371,24.9022,0.0 121.011011,24.900552,0.0 121.01256,24.900276,0.0 121.014419,24.898565,0.0 121.01585,24.898823,0.0 121.016511,24.898146,0.0 121.01709,24.896254,0.0 121.018087,24.895736,0.0 121.020209,24.895971,0.0 121.020713,24.896505,0.0 121.020774,24.896996,0.0 121.020392,24.897492,0.0 121.02072,24.898325,0.0 121.020956,24.898882,0.0 121.021129,24.899054,0.0 121.021193,24.899924,0.0 121.021484,24.900409,0.0 121.021542,24.900951,0.0 121.022114,24.901696,0.0 121.022748,24.902532,0.0 121.023037,24.903116,0.0 121.022804,24.903574,0.0 121.022906,24.903961,0.0 121.023315,24.904456,0.0 121.023337,24.904991,0.0 121.023631,24.905748,0.0 121.023969,24.906604,0.0 121.024277,24.907467,0.0 121.024525,24.908337,0.0 121.024885,24.909431,0.0 121.025138,24.910273,0.0 121.025369,24.911111,0.0 121.025646,24.911874,0.0 121.026117,24.912261,0.0 121.026636,24.912767,0.0 121.026831,24.913363,0.0 121.027016,24.914012,0.0 121.027253,24.914542,0.0 121.027606,24.91493,0.0</coordinates></LinearRing></outerBoundaryIs></Polygon><styleUrl>#spolygon-map</styleUrl></Placemark><Placemark><Polygon><outerBoundaryIs><LinearRing><coordinates>120.981192,24.920723,0.0 120.979119,24.921794,0.0 120.978087,24.920357,0.0 120.971624,24.924765,0.0 120.965792,24.92034,0.0 120.962084,24.910557,0.0 120.966351,24.908153,0.0 120.967727,24.909478,0.0 120.970896,24.909289,0.0 120.977227,24.907873,0.0 120.978869,24.908414,0.0 120.980842,24.908633,0.0 120.983364,24.908488,0.0 120.984881,24.908593,0.0 120.986565,24.907663,0.0 120.986998,24.908163,0.0 120.98665,24.909773,0.0 120.988185,24.911384,0.0 120.989875,24.912908,0.0 120.99136,24.913417,0.0 120.992202,24.91411,0.0 120.992958,24.914439,0.0 120.993989,24.914456,0.0 120.994542,24.914678,0.0 120.991983,24.914986,0.0 120.989621,24.915072,0.0 120.988621,24.915295,0.0 120.987036,24.917377,0.0 120.982336,24.919847,0.0 120.981192,24.920723,0.0</coordinates></LinearRing></outerBoundaryIs></Polygon><styleUrl>#spolygon-map</styleUrl></Placemark><Placemark><Polygon><outerBoundaryIs><LinearRing><coordinates>121.026948,24.921903,0.0 121.023978,24.922857,0.0 121.021178,24.923849,0.0 121.018237,24.925139,0.0 121.016054,24.926263,0.0 121.013441,24.92766,0.0 121.011357,24.92925,0.0 121.009988,24.931215,0.0 121.008433,24.931543,0.0 121.005145,24.92894,0.0 121.000998,24.923287,0.0 120.998981,24.920627,0.0 120.995985,24.916315,0.0 120.993455,24.915069,0.0 120.994768,24.914354,0.0 120.995933,24.912632,0.0 120.99595,24.911986,0.0 121.00027,24.911424,0.0 121.004137,24.910342,0.0 121.008186,24.91029,0.0 121.011604,24.912706,0.0 121.017872,24.915297,0.0 121.022296,24.916671,0.0 121.025434,24.916149,0.0 121.027636,24.917284,0.0 121.028478,24.917721,0.0 121.029183,24.917954,0.0 121.029947,24.918102,0.0 121.030818,24.918525,0.0 121.031541,24.918991,0.0 121.031959,24.919779,0.0 121.031612,24.920699,0.0 121.029399,24.921319,0.0 121.028177,24.921478,0.0 121.026948,24.921903,0.0</coordinates></LinearRing></outerBoundaryIs></Polygon><styleUrl>#spolygon-map</styleUrl></Placemark><Placemark><Polygon><outerBoundaryIs><LinearRing><coordinates>120.987485,24.938968,0.0 120.985377,24.939304,0.0 120.982025,24.939976,0.0 120.981611,24.939727,0.0 120.981259,24.939491,0.0 120.980797,24.939069,0.0 120.980588,24.938576,0.0 120.977449,24.93563,0.0 120.972792,24.931389,0.0 120.971624,24.924765,0.0 120.978087,24.920357,0.0 120.979119,24.921794,0.0 120.981192,24.920723,0.0 120.982986,24.923241,0.0 120.984088,24.925095,0.0 120.984452,24.926201,0.0 120.985937,24.928317,0.0 120.987676,24.930853,0.0 120.988929,24.932696,0.0 120.989359,24.934167,0.0 120.990131,24.935788,0.0 120.989734,24.936272,0.0 120.989358,24.936796,0.0 120.988835,24.937575,0.0 120.988373,24.938122,0.0 120.987696,24.938786,0.0 120.987485,24.938968,0.0</coordinates></LinearRing></outerBoundaryIs></Polygon><styleUrl>#spolygon-map</styleUrl></Placemark><Placemark><Polygon><outerBoundaryIs><LinearRing><coordinates>121.001001,24.940223,0.0 120.999742,24.940499,0.0 120.998549,24.940812,0.0 120.997716,24.940581,0.0 120.997005,24.940065,0.0 120.996335,24.939592,0.0 120.995507,24.939457,0.0 120.994348,24.93921,0.0 120.993734,24.93882,0.0 120.993402,24.93845,0.0 120.993126,24.937877,0.0 120.992798,24.93728,0.0 120.992644,24.936679,0.0 120.992701,24.936236,0.0 120.992875,24.935472,0.0 120.992791,24.935145,0.0 120.992404,24.935027,0.0 120.991778,24.935029,0.0 120.991048,24.935253,0.0 120.990149,24.935805,0.0 120.989501,24.934421,0.0 120.989091,24.9329,0.0 120.987908,24.931212,0.0 120.986291,24.928902,0.0 120.984482,24.926363,0.0 120.984078,24.92521,0.0 120.983178,24.923416,0.0 120.981567,24.921339,0.0 120.985462,24.918221,0.0 120.988251,24.916429,0.0 120.988878,24.915013,0.0 120.99053,24.915126,0.0 120.993578,24.915266,0.0 120.996832,24.917304,0.0 120.999899,24.921917,0.0 121.00259,24.925595,0.0 121.001681,24.929857,0.0 120.998329,24.93255,0.0 120.99801,24.934353,0.0 120.999707,24.937745,0.0 121.001001,24.940223,0.0</coordinates></LinearRing></outerBoundaryIs></Polygon><styleUrl>#spolygon-map</styleUrl></Placemark><Placemark><Polygon><outerBoundaryIs><LinearRing><coordinates>121.012467,24.943475,0.0 121.012322,24.944098,0.0 121.012161,24.944617,0.0 121.011778,24.944821,0.0 121.010985,24.944738,0.0 121.010555,24.944524,0.0 121.010259,24.944254,0.0 121.009617,24.944247,0.0 121.009286,24.944452,0.0 121.008865,24.944783,0.0 121.008402,24.945123,0.0 121.008066,24.945339,0.0 121.007663,24.945839,0.0 121.007219,24.946167,0.0 121.006956,24.946151,0.0 121.006664,24.945984,0.0 121.006395,24.945657,0.0 121.006207,24.945455,0.0 121.006021,24.945204,0.0 121.005643,24.944813,0.0 121.005372,24.944426,0.0 121.00498,24.943996,0.0 121.004583,24.94357,0.0 121.004251,24.943126,0.0 121.004053,24.942728,0.0 121.003771,24.94207,0.0 121.003544,24.941413,0.0 121.003365,24.940826,0.0 121.0032,24.940391,0.0 121.002884,24.940005,0.0 121.001938,24.940024,0.0 121.000653,24.939627,0.0 120.99857,24.935335,0.0 120.998015,24.933705,0.0 120.998823,24.931922,0.0 121.004397,24.927998,0.0 121.007922,24.931323,0.0 121.009686,24.931472,0.0 121.011049,24.929489,0.0 121.013192,24.927869,0.0 121.015766,24.926394,0.0 121.018002,24.92527,0.0 121.020733,24.924052,0.0 121.023444,24.923061,0.0 121.026455,24.921963,0.0 121.029559,24.924768,0.0 121.032146,24.927679,0.0 121.033776,24.929252,0.0 121.031703,24.930154,0.0 121.030632,24.930204,0.0 121.029917,24.931296,0.0 121.030037,24.932816,0.0 121.029764,24.934722,0.0 121.029829,24.935743,0.0 121.028898,24.936535,0.0 121.028411,24.937672,0.0 121.027274,24.938745,0.0 121.026051,24.939511,0.0 121.025205,24.940429,0.0 121.023973,24.941021,0.0 121.023313,24.941174,0.0 121.022468,24.941328,0.0 121.021668,24.941401,0.0 121.020817,24.941268,0.0 121.020136,24.940935,0.0 121.019696,24.940591,0.0 121.019362,24.940419,0.0 121.018896,24.940551,0.0 121.01856,24.941063,0.0 121.018256,24.94146,0.0 121.017805,24.941768,0.0 121.017192,24.94179,0.0 121.016697,24.941693,0.0 121.016126,24.941601,0.0 121.015436,24.941731,0.0 121.015099,24.941892,0.0 121.014682,24.942289,0.0 121.01408,24.942504,0.0 121.013084,24.942932,0.0 121.012551,24.943273,0.0 121.012467,24.943475,0.0</coordinates></LinearRing></outerBoundaryIs></Polygon><styleUrl>#spolygon-map</styleUrl></Placemark><Placemark><Polygon><outerBoundaryIs><LinearRing><coordinates>121.044459,24.943526,0.0 121.043884,24.943728,0.0 121.043052,24.944011,0.0 121.042388,24.944164,0.0 121.041937,24.943984,0.0 121.041283,24.943561,0.0 121.040625,24.943259,0.0 121.040276,24.94375,0.0 121.039713,24.944139,0.0 121.039157,24.944522,0.0 121.038806,24.94503,0.0 121.038684,24.945478,0.0 121.03867,24.945954,0.0 121.038385,24.946297,0.0 121.037822,24.946358,0.0 121.037296,24.946206,0.0 121.036741,24.946044,0.0 121.036146,24.945719,0.0 121.035767,24.945492,0.0 121.035102,24.945152,0.0 121.034534,24.944911,0.0 121.033745,24.944777,0.0 121.033223,24.944687,0.0 121.032973,24.944618,0.0 121.032372,24.944506,0.0 121.031724,24.944385,0.0 121.031257,24.944156,0.0 121.030902,24.943928,0.0 121.030375,24.944033,0.0 121.03018,24.944287,0.0 121.029981,24.94481,0.0 121.029502,24.945158,0.0 121.029134,24.945233,0.0 121.028757,24.945048,0.0 121.028274,24.944179,0.0 121.027721,24.943519,0.0 121.027102,24.942915,0.0 121.026702,24.942528,0.0 121.026338,24.941979,0.0 121.026151,24.941134,0.0 121.025845,24.94051,0.0 121.025423,24.940518,0.0 121.024771,24.940779,0.0 121.024255,24.940921,0.0 121.025626,24.939816,0.0 121.026874,24.939286,0.0 121.027838,24.938118,0.0 121.02846,24.937206,0.0 121.029522,24.936133,0.0 121.029783,24.935012,0.0 121.029999,24.933411,0.0 121.029983,24.931708,0.0 121.030191,24.930472,0.0 121.031077,24.930137,0.0 121.032739,24.929833,0.0 121.033533,24.928956,0.0 121.031129,24.926609,0.0 121.027727,24.922731,0.0 121.028556,24.921358,0.0 121.029691,24.92118,0.0 121.032261,24.920404,0.0 121.032621,24.921201,0.0 121.03311,24.922171,0.0 121.033573,24.92282,0.0 121.034173,24.923769,0.0 121.034951,24.925097,0.0 121.035757,24.926519,0.0 121.036427,24.92726,0.0 121.03709,24.927986,0.0 121.037489,24.928635,0.0 121.038059,24.92907,0.0 121.038386,24.9298,0.0 121.039134,24.930641,0.0 121.040161,24.932053,0.0 121.041228,24.933571,0.0 121.042249,24.934921,0.0 121.042833,24.935858,0.0 121.043183,24.936791,0.0 121.0435,24.937728,0.0 121.043744,24.938621,0.0 121.04414,24.940058,0.0 121.044568,24.941308,0.0 121.045624,24.942132,0.0 121.04617,24.942538,0.0 121.046113,24.943114,0.0 121.045991,24.943611,0.0 121.045077,24.943593,0.0 121.044459,24.943526,0.0</coordinates></LinearRing></outerBoundaryIs></Polygon><styleUrl>#spolygon-map</styleUrl></Placemark></Document>
</kml>
