<?xml version="1.0" encoding="UTF-8"?>
<kml xmlns="http://www.opengis.net/kml/2.2">
	<Document>
		<name>臺中市中區</name>
		<Style id="spolygon">
			<LabelStyle>
				<scale>0.0</scale>
			</LabelStyle>
			<LineStyle>
				<color>330030ff</color>
				<width>0</width>
			</LineStyle>
			<PolyStyle>
				<color>330030ff</color>
			</PolyStyle>
		</Style>
		<StyleMap id="spolygon-map">
			<Pair>
				<key>normal</key>
				<styleUrl>#spolygon</styleUrl>
			</Pair>
		</StyleMap>
	<Placemark><Polygon><outerBoundaryIs><LinearRing><coordinates>120.676746,24.142112,0.0 120.677677,24.143816,0.0 120.678824,24.143843,0.0 120.679336,24.145273,0.0 120.680026,24.145677,0.0 120.681235,24.146681,0.0 120.679809,24.148173,0.0 120.678233,24.148711,0.0 120.677454,24.147825,0.0 120.677842,24.146762,0.0 120.678187,24.145598,0.0 120.67584,24.143541,0.0 120.67584,24.142907,0.0 120.67554,24.141712,0.0 120.676746,24.142112,0.0</coordinates></LinearRing></outerBoundaryIs></Polygon><styleUrl>#spolygon-map</styleUrl></Placemark><Placemark><Polygon><outerBoundaryIs><LinearRing><coordinates>120.678221,24.140127,0.0 120.679537,24.141055,0.0 120.680603,24.142802,0.0 120.682637,24.143435,0.0 120.681881,24.146035,0.0 120.681585,24.145504,0.0 120.680502,24.14426,0.0 120.680254,24.143973,0.0 120.680208,24.143711,0.0 120.680004,24.143338,0.0 120.679331,24.143242,0.0 120.678187,24.142196,0.0 120.677695,24.141295,0.0 120.678221,24.140127,0.0</coordinates></LinearRing></outerBoundaryIs></Polygon><styleUrl>#spolygon-map</styleUrl></Placemark><Placemark><Polygon><outerBoundaryIs><LinearRing><coordinates>120.677655,24.147041,0.0 120.67571,24.145164,0.0 120.675141,24.145296,0.0 120.675181,24.145025,0.0 120.674893,24.144394,0.0 120.673744,24.143273,0.0 120.67584,24.142907,0.0 120.67584,24.143541,0.0 120.678187,24.145598,0.0 120.677842,24.146762,0.0 120.677655,24.147041,0.0</coordinates></LinearRing></outerBoundaryIs></Polygon><styleUrl>#spolygon-map</styleUrl></Placemark><Placemark><Polygon><outerBoundaryIs><LinearRing><coordinates>120.681879,24.138988,0.0 120.683838,24.140861,0.0 120.685025,24.142053,0.0 120.685772,24.143169,0.0 120.683414,24.14276,0.0 120.681475,24.141612,0.0 120.679105,24.138609,0.0 120.681486,24.13837,0.0 120.681879,24.138988,0.0</coordinates></LinearRing></outerBoundaryIs></Polygon><styleUrl>#spolygon-map</styleUrl></Placemark><Placemark><Polygon><outerBoundaryIs><LinearRing><coordinates>120.679501,24.139714,0.0 120.682109,24.142227,0.0 120.682858,24.143655,0.0 120.680986,24.143177,0.0 120.679337,24.141226,0.0 120.678294,24.140064,0.0 120.679501,24.139714,0.0</coordinates></LinearRing></outerBoundaryIs></Polygon><styleUrl>#spolygon-map</styleUrl></Placemark><Placemark><Polygon><outerBoundaryIs><LinearRing><coordinates>120.681235,24.146681,0.0 120.680026,24.145677,0.0 120.679336,24.145273,0.0 120.678824,24.143843,0.0 120.677677,24.143816,0.0 120.676746,24.142112,0.0 120.675952,24.141352,0.0 120.677752,24.141638,0.0 120.678349,24.142612,0.0 120.679436,24.143253,0.0 120.68007,24.143399,0.0 120.680223,24.143754,0.0 120.680248,24.144081,0.0 120.681278,24.145009,0.0 120.681656,24.145457,0.0 120.681859,24.146241,0.0 120.681235,24.146681,0.0</coordinates></LinearRing></outerBoundaryIs></Polygon><styleUrl>#spolygon-map</styleUrl></Placemark><Placemark><Polygon><outerBoundaryIs><LinearRing><coordinates>120.684896,24.140425,0.0 120.683396,24.13904,0.0 120.681742,24.136285,0.0 120.685684,24.13686,0.0 120.686068,24.138863,0.0 120.68607,24.139813,0.0 120.685392,24.141087,0.0 120.685472,24.140914,0.0 120.684896,24.140425,0.0</coordinates></LinearRing></outerBoundaryIs></Polygon><styleUrl>#spolygon-map</styleUrl></Placemark><Placemark><Polygon><outerBoundaryIs><LinearRing><coordinates>120.684473,24.140803,0.0 120.683338,24.140424,0.0 120.681486,24.13837,0.0 120.681119,24.136839,0.0 120.684117,24.139728,0.0 120.685294,24.140539,0.0 120.68542,24.140979,0.0 120.685895,24.141301,0.0 120.685025,24.142053,0.0 120.684473,24.140803,0.0</coordinates></LinearRing></outerBoundaryIs></Polygon><styleUrl>#spolygon-map</styleUrl></Placemark></Document>
</kml>
