<?xml version="1.0" encoding="UTF-8"?>
<kml xmlns="http://www.opengis.net/kml/2.2">
	<Document>
		<name>臺中市外埔區</name>
		<Style id="spolygon">
			<LabelStyle>
				<scale>0.0</scale>
			</LabelStyle>
			<LineStyle>
				<color>330030ff</color>
				<width>0</width>
			</LineStyle>
			<PolyStyle>
				<color>330030ff</color>
			</PolyStyle>
		</Style>
		<StyleMap id="spolygon-map">
			<Pair>
				<key>normal</key>
				<styleUrl>#spolygon</styleUrl>
			</Pair>
		</StyleMap>
	<Placemark><Polygon><outerBoundaryIs><LinearRing><coordinates>120.653876,24.360738,0.0 120.656437,24.358669,0.0 120.658519,24.355735,0.0 120.661589,24.35334,0.0 120.665698,24.350243,0.0 120.66989,24.347979,0.0 120.675094,24.345544,0.0 120.680101,24.34306,0.0 120.685486,24.341335,0.0 120.692005,24.340909,0.0 120.695239,24.340064,0.0 120.69833,24.340154,0.0 120.699749,24.342791,0.0 120.699965,24.347511,0.0 120.700162,24.353976,0.0 120.696062,24.359988,0.0 120.691247,24.36069,0.0 120.68416,24.36093,0.0 120.683631,24.358423,0.0 120.677252,24.359241,0.0 120.658126,24.362102,0.0 120.657259,24.362206,0.0 120.655632,24.362489,0.0 120.654397,24.361269,0.0 120.653876,24.360738,0.0</coordinates></LinearRing></outerBoundaryIs></Polygon><styleUrl>#spolygon-map</styleUrl></Placemark><Placemark><Polygon><outerBoundaryIs><LinearRing><coordinates>120.659799,24.325531,0.0 120.652758,24.325055,0.0 120.642883,24.325609,0.0 120.638825,24.321898,0.0 120.636129,24.320582,0.0 120.633386,24.317619,0.0 120.63257,24.310755,0.0 120.643633,24.301833,0.0 120.646424,24.299192,0.0 120.647793,24.302649,0.0 120.648485,24.305594,0.0 120.65081,24.307003,0.0 120.650115,24.308306,0.0 120.650187,24.308607,0.0 120.650085,24.308787,0.0 120.650332,24.311523,0.0 120.650863,24.314892,0.0 120.652396,24.31483,0.0 120.654864,24.314965,0.0 120.65815,24.314986,0.0 120.659296,24.315194,0.0 120.662107,24.315843,0.0 120.66443,24.316099,0.0 120.666935,24.31619,0.0 120.670717,24.316528,0.0 120.67241,24.3168,0.0 120.673212,24.316894,0.0 120.668128,24.31971,0.0 120.662411,24.32304,0.0 120.659799,24.325531,0.0</coordinates></LinearRing></outerBoundaryIs></Polygon><styleUrl>#spolygon-map</styleUrl></Placemark><Placemark><Polygon><outerBoundaryIs><LinearRing><coordinates>120.700015,24.359637,0.0 120.700189,24.350825,0.0 120.699607,24.344894,0.0 120.699436,24.34119,0.0 120.70625,24.337964,0.0 120.711416,24.334552,0.0 120.714021,24.331959,0.0 120.714697,24.332639,0.0 120.715244,24.334843,0.0 120.715834,24.335937,0.0 120.715654,24.336214,0.0 120.715405,24.336329,0.0 120.715341,24.336446,0.0 120.714983,24.336364,0.0 120.714566,24.33698,0.0 120.714719,24.337197,0.0 120.714598,24.33737,0.0 120.714356,24.337607,0.0 120.714615,24.33756,0.0 120.715155,24.338087,0.0 120.715102,24.339317,0.0 120.715245,24.339521,0.0 120.71542,24.339769,0.0 120.715684,24.339921,0.0 120.717994,24.339993,0.0 120.718428,24.339908,0.0 120.718606,24.340048,0.0 120.718939,24.340494,0.0 120.719268,24.341038,0.0 120.719386,24.341305,0.0 120.718475,24.341563,0.0 120.717549,24.341773,0.0 120.717471,24.341985,0.0 120.717367,24.342188,0.0 120.717075,24.342316,0.0 120.716986,24.342445,0.0 120.717027,24.3427,0.0 120.717103,24.342914,0.0 120.717243,24.342942,0.0 120.717745,24.343753,0.0 120.718087,24.34432,0.0 120.718226,24.344549,0.0 120.71829,24.344743,0.0 120.718384,24.34496,0.0 120.718424,24.345138,0.0 120.718373,24.345346,0.0 120.717989,24.346162,0.0 120.718025,24.346654,0.0 120.718293,24.347151,0.0 120.718174,24.347564,0.0 120.717714,24.348087,0.0 120.717267,24.348732,0.0 120.717097,24.348998,0.0 120.717084,24.349625,0.0 120.717235,24.349935,0.0 120.717652,24.350717,0.0 120.717898,24.352281,0.0 120.71794,24.353338,0.0 120.717785,24.35596,0.0 120.715822,24.356263,0.0 120.712898,24.356732,0.0 120.709529,24.357293,0.0 120.707278,24.357869,0.0 120.705286,24.358474,0.0 120.701423,24.359498,0.0 120.700015,24.359637,0.0</coordinates></LinearRing></outerBoundaryIs></Polygon><styleUrl>#spolygon-map</styleUrl></Placemark><Placemark><Polygon><outerBoundaryIs><LinearRing><coordinates>120.648304,24.336579,0.0 120.644535,24.337103,0.0 120.642369,24.333599,0.0 120.642438,24.332237,0.0 120.642099,24.328224,0.0 120.6509,24.325098,0.0 120.656526,24.32537,0.0 120.66025,24.326681,0.0 120.657983,24.330366,0.0 120.655447,24.332706,0.0 120.652191,24.335094,0.0 120.648304,24.336579,0.0</coordinates></LinearRing></outerBoundaryIs></Polygon><styleUrl>#spolygon-map</styleUrl></Placemark><Placemark><Polygon><outerBoundaryIs><LinearRing><coordinates>120.636413,24.346449,0.0 120.63583,24.346281,0.0 120.635155,24.34613,0.0 120.63492,24.34582,0.0 120.63407,24.343538,0.0 120.632891,24.339691,0.0 120.632194,24.337809,0.0 120.634382,24.334253,0.0 120.639581,24.335735,0.0 120.645408,24.337222,0.0 120.648904,24.336844,0.0 120.653919,24.338766,0.0 120.654466,24.342015,0.0 120.652683,24.342699,0.0 120.648645,24.342805,0.0 120.642552,24.345012,0.0 120.640608,24.345904,0.0 120.640112,24.345519,0.0 120.639908,24.345559,0.0 120.63963,24.345779,0.0 120.638946,24.346024,0.0 120.638022,24.345907,0.0 120.637292,24.34581,0.0 120.636795,24.346244,0.0 120.636413,24.346449,0.0</coordinates></LinearRing></outerBoundaryIs></Polygon><styleUrl>#spolygon-map</styleUrl></Placemark><Placemark><Polygon><outerBoundaryIs><LinearRing><coordinates>120.662922,24.342465,0.0 120.65901,24.343061,0.0 120.655628,24.342887,0.0 120.654992,24.340551,0.0 120.652469,24.338541,0.0 120.648787,24.336205,0.0 120.653771,24.334038,0.0 120.657185,24.333561,0.0 120.665151,24.335315,0.0 120.666376,24.33771,0.0 120.663037,24.339921,0.0 120.662922,24.342465,0.0</coordinates></LinearRing></outerBoundaryIs></Polygon><styleUrl>#spolygon-map</styleUrl></Placemark><Placemark><Polygon><outerBoundaryIs><LinearRing><coordinates>120.665151,24.335315,0.0 120.657185,24.333561,0.0 120.656248,24.331771,0.0 120.658653,24.329363,0.0 120.66082,24.325687,0.0 120.662411,24.32304,0.0 120.668128,24.31971,0.0 120.673212,24.316894,0.0 120.675029,24.317501,0.0 120.678101,24.318149,0.0 120.680349,24.319002,0.0 120.68217,24.319776,0.0 120.68698,24.321292,0.0 120.690402,24.322603,0.0 120.691896,24.323785,0.0 120.692766,24.324276,0.0 120.693555,24.325,0.0 120.694831,24.325684,0.0 120.69578,24.325901,0.0 120.697674,24.326742,0.0 120.699558,24.327118,0.0 120.700449,24.326989,0.0 120.70086,24.327976,0.0 120.701172,24.332579,0.0 120.699191,24.332485,0.0 120.692005,24.330184,0.0 120.685547,24.328239,0.0 120.679138,24.326914,0.0 120.677452,24.327671,0.0 120.673714,24.327744,0.0 120.670119,24.328073,0.0 120.667498,24.328654,0.0 120.664829,24.329754,0.0 120.664708,24.33245,0.0 120.665151,24.335315,0.0</coordinates></LinearRing></outerBoundaryIs></Polygon><styleUrl>#spolygon-map</styleUrl></Placemark><Placemark><Polygon><outerBoundaryIs><LinearRing><coordinates>120.62823,24.337619,0.0 120.628124,24.336799,0.0 120.627946,24.336779,0.0 120.627783,24.336731,0.0 120.62677,24.336785,0.0 120.625988,24.336882,0.0 120.625184,24.337095,0.0 120.624285,24.336932,0.0 120.623436,24.336849,0.0 120.622457,24.336239,0.0 120.621134,24.335832,0.0 120.620438,24.335891,0.0 120.619556,24.335234,0.0 120.61833,24.334511,0.0 120.617082,24.333786,0.0 120.616191,24.33337,0.0 120.615541,24.332633,0.0 120.614617,24.332057,0.0 120.614362,24.332014,0.0 120.614305,24.331821,0.0 120.614163,24.331715,0.0 120.614053,24.331485,0.0 120.613999,24.331254,0.0 120.613824,24.330935,0.0 120.613723,24.330615,0.0 120.613599,24.33024,0.0 120.613462,24.329878,0.0 120.613307,24.329487,0.0 120.613157,24.329022,0.0 120.612826,24.328439,0.0 120.612026,24.327678,0.0 120.611772,24.326876,0.0 120.611941,24.325942,0.0 120.611553,24.324016,0.0 120.608996,24.315788,0.0 120.611014,24.315344,0.0 120.61337,24.315219,0.0 120.617082,24.315572,0.0 120.621505,24.315271,0.0 120.624818,24.313844,0.0 120.626855,24.312436,0.0 120.630188,24.310412,0.0 120.63257,24.310755,0.0 120.633386,24.317619,0.0 120.636129,24.320582,0.0 120.638825,24.321898,0.0 120.642883,24.325609,0.0 120.642113,24.331407,0.0 120.642297,24.332953,0.0 120.643095,24.336142,0.0 120.638231,24.335298,0.0 120.633987,24.335035,0.0 120.631446,24.337196,0.0 120.629958,24.337097,0.0 120.628724,24.337659,0.0 120.62823,24.337619,0.0</coordinates></LinearRing></outerBoundaryIs></Polygon><styleUrl>#spolygon-map</styleUrl></Placemark><Placemark><Polygon><outerBoundaryIs><LinearRing><coordinates>120.699637,24.339831,0.0 120.696158,24.340091,0.0 120.6932,24.340412,0.0 120.68986,24.338855,0.0 120.684458,24.337737,0.0 120.68064,24.337682,0.0 120.675314,24.336497,0.0 120.668158,24.335764,0.0 120.665032,24.333271,0.0 120.664137,24.330491,0.0 120.666663,24.329341,0.0 120.66871,24.328273,0.0 120.672234,24.328064,0.0 120.674752,24.328731,0.0 120.677957,24.326767,0.0 120.682723,24.32759,0.0 120.688344,24.329269,0.0 120.695217,24.331405,0.0 120.702403,24.332819,0.0 120.703988,24.332646,0.0 120.706979,24.332112,0.0 120.709027,24.332245,0.0 120.711519,24.331683,0.0 120.714141,24.331431,0.0 120.714396,24.331025,0.0 120.714687,24.330985,0.0 120.714283,24.331767,0.0 120.711788,24.334246,0.0 120.706789,24.337721,0.0 120.699637,24.339831,0.0</coordinates></LinearRing></outerBoundaryIs></Polygon><styleUrl>#spolygon-map</styleUrl></Placemark><Placemark><Polygon><outerBoundaryIs><LinearRing><coordinates>120.670171,24.347768,0.0 120.666201,24.345256,0.0 120.662922,24.342465,0.0 120.664697,24.33883,0.0 120.666061,24.336883,0.0 120.667343,24.335744,0.0 120.67377,24.336078,0.0 120.679775,24.337617,0.0 120.683429,24.337613,0.0 120.68922,24.338754,0.0 120.692554,24.340266,0.0 120.688106,24.341436,0.0 120.682786,24.341971,0.0 120.677463,24.344765,0.0 120.671121,24.347201,0.0 120.670171,24.347768,0.0</coordinates></LinearRing></outerBoundaryIs></Polygon><styleUrl>#spolygon-map</styleUrl></Placemark><Placemark><Polygon><outerBoundaryIs><LinearRing><coordinates>120.670171,24.347768,0.0 120.666503,24.349809,0.0 120.661857,24.353083,0.0 120.658831,24.355426,0.0 120.656704,24.358372,0.0 120.654921,24.360151,0.0 120.65298,24.359794,0.0 120.651301,24.358368,0.0 120.64956,24.356105,0.0 120.649286,24.355924,0.0 120.649011,24.355817,0.0 120.648415,24.35566,0.0 120.647667,24.355525,0.0 120.646601,24.355048,0.0 120.646378,24.354549,0.0 120.646435,24.353971,0.0 120.646163,24.353763,0.0 120.645645,24.353495,0.0 120.645442,24.353118,0.0 120.645355,24.352506,0.0 120.645236,24.351871,0.0 120.646321,24.351664,0.0 120.645756,24.35078,0.0 120.645211,24.350246,0.0 120.643748,24.348613,0.0 120.643137,24.348363,0.0 120.642183,24.347395,0.0 120.641347,24.346461,0.0 120.641176,24.345691,0.0 120.644383,24.343867,0.0 120.650527,24.342473,0.0 120.653594,24.34253,0.0 120.655628,24.342887,0.0 120.65901,24.343061,0.0 120.662922,24.342465,0.0 120.666201,24.345256,0.0 120.670171,24.347768,0.0</coordinates></LinearRing></outerBoundaryIs></Polygon><styleUrl>#spolygon-map</styleUrl></Placemark></Document>
</kml>
