<?xml version="1.0" encoding="UTF-8"?>
<kml xmlns="http://www.opengis.net/kml/2.2">
	<Document>
		<name>臺南市麻豆區</name>
		<Style id="spolygon">
			<LabelStyle>
				<scale>0.0</scale>
			</LabelStyle>
			<LineStyle>
				<color>330030ff</color>
				<width>0</width>
			</LineStyle>
			<PolyStyle>
				<color>330030ff</color>
			</PolyStyle>
		</Style>
		<StyleMap id="spolygon-map">
			<Pair>
				<key>normal</key>
				<styleUrl>#spolygon</styleUrl>
			</Pair>
		</StyleMap>
	<Placemark><Polygon><outerBoundaryIs><LinearRing><coordinates>120.246951,23.146669,0.0 120.24626,23.148359,0.0 120.245961,23.148974,0.0 120.244123,23.149678,0.0 120.242969,23.149761,0.0 120.24229,23.150068,0.0 120.241564,23.150248,0.0 120.24122,23.151337,0.0 120.241719,23.152253,0.0 120.241356,23.153874,0.0 120.238208,23.154144,0.0 120.23804,23.152078,0.0 120.23728,23.151996,0.0 120.236348,23.151874,0.0 120.235155,23.15151,0.0 120.236341,23.149653,0.0 120.238894,23.147204,0.0 120.240019,23.146602,0.0 120.24103,23.146345,0.0 120.241234,23.145683,0.0 120.241527,23.138454,0.0 120.241569,23.135465,0.0 120.241591,23.132366,0.0 120.241776,23.130717,0.0 120.242886,23.130837,0.0 120.244841,23.131456,0.0 120.246509,23.13183,0.0 120.24835,23.132714,0.0 120.249829,23.133496,0.0 120.251533,23.13422,0.0 120.253946,23.134899,0.0 120.255408,23.13522,0.0 120.257354,23.136259,0.0 120.260203,23.138387,0.0 120.261025,23.139526,0.0 120.256343,23.140535,0.0 120.250444,23.143371,0.0 120.246951,23.146669,0.0</coordinates></LinearRing></outerBoundaryIs></Polygon><styleUrl>#spolygon-map</styleUrl></Placemark><Placemark><Polygon><outerBoundaryIs><LinearRing><coordinates>120.238208,23.154144,0.0 120.236907,23.153971,0.0 120.23209,23.154571,0.0 120.231355,23.156282,0.0 120.230171,23.156874,0.0 120.229613,23.155765,0.0 120.229043,23.154679,0.0 120.229116,23.154423,0.0 120.22918,23.151164,0.0 120.225549,23.147874,0.0 120.227618,23.145914,0.0 120.229623,23.143763,0.0 120.231061,23.142403,0.0 120.231907,23.141522,0.0 120.233399,23.140348,0.0 120.235818,23.138632,0.0 120.236879,23.137951,0.0 120.237813,23.137542,0.0 120.239573,23.137159,0.0 120.24054,23.137243,0.0 120.24149,23.13987,0.0 120.241184,23.14615,0.0 120.240613,23.146411,0.0 120.239778,23.146674,0.0 120.237534,23.148342,0.0 120.236332,23.149663,0.0 120.235015,23.151606,0.0 120.236564,23.151936,0.0 120.237338,23.15198,0.0 120.238109,23.152066,0.0 120.238208,23.154144,0.0</coordinates></LinearRing></outerBoundaryIs></Polygon><styleUrl>#spolygon-map</styleUrl></Placemark><Placemark><Polygon><outerBoundaryIs><LinearRing><coordinates>120.250284,23.161217,0.0 120.246555,23.159453,0.0 120.245543,23.160129,0.0 120.245303,23.161497,0.0 120.243135,23.1603,0.0 120.243529,23.15824,0.0 120.24333,23.157475,0.0 120.244415,23.153373,0.0 120.245389,23.153201,0.0 120.248861,23.152928,0.0 120.246951,23.146669,0.0 120.250444,23.143371,0.0 120.256343,23.140535,0.0 120.261025,23.139526,0.0 120.262419,23.14146,0.0 120.261963,23.143456,0.0 120.261395,23.145643,0.0 120.261102,23.147805,0.0 120.260705,23.150894,0.0 120.262152,23.153946,0.0 120.262074,23.154836,0.0 120.259996,23.155682,0.0 120.254496,23.155958,0.0 120.249933,23.15745,0.0 120.250284,23.161217,0.0</coordinates></LinearRing></outerBoundaryIs></Polygon><styleUrl>#spolygon-map</styleUrl></Placemark><Placemark><Polygon><outerBoundaryIs><LinearRing><coordinates>120.245303,23.161497,0.0 120.243855,23.167833,0.0 120.243845,23.169252,0.0 120.237227,23.164311,0.0 120.238258,23.16269,0.0 120.239492,23.161954,0.0 120.239967,23.156129,0.0 120.242172,23.154537,0.0 120.241653,23.152113,0.0 120.241267,23.151161,0.0 120.241783,23.15013,0.0 120.242432,23.150059,0.0 120.243174,23.14971,0.0 120.245251,23.14959,0.0 120.245996,23.148889,0.0 120.246692,23.147153,0.0 120.247566,23.148316,0.0 120.245873,23.153158,0.0 120.245257,23.15326,0.0 120.243913,23.15339,0.0 120.243493,23.157624,0.0 120.243271,23.159221,0.0 120.243449,23.160628,0.0 120.245303,23.161497,0.0</coordinates></LinearRing></outerBoundaryIs></Polygon><styleUrl>#spolygon-map</styleUrl></Placemark><Placemark><Polygon><outerBoundaryIs><LinearRing><coordinates>120.250284,23.161217,0.0 120.250393,23.163226,0.0 120.250181,23.165678,0.0 120.249981,23.166912,0.0 120.249097,23.167313,0.0 120.247966,23.16856,0.0 120.246,23.168422,0.0 120.245955,23.170829,0.0 120.243858,23.168856,0.0 120.243897,23.167482,0.0 120.245309,23.161499,0.0 120.245633,23.159732,0.0 120.246597,23.159542,0.0 120.250284,23.161217,0.0</coordinates></LinearRing></outerBoundaryIs></Polygon><styleUrl>#spolygon-map</styleUrl></Placemark><Placemark><Polygon><outerBoundaryIs><LinearRing><coordinates>120.243845,23.169252,0.0 120.241134,23.169699,0.0 120.239243,23.172203,0.0 120.237755,23.175062,0.0 120.23429,23.174968,0.0 120.229563,23.174796,0.0 120.227915,23.173243,0.0 120.227588,23.168744,0.0 120.227845,23.167448,0.0 120.224166,23.168873,0.0 120.224256,23.168192,0.0 120.224507,23.167395,0.0 120.224087,23.165906,0.0 120.220455,23.166504,0.0 120.211791,23.167124,0.0 120.212095,23.165068,0.0 120.213033,23.162626,0.0 120.215785,23.158143,0.0 120.217112,23.156461,0.0 120.218562,23.15534,0.0 120.219402,23.154323,0.0 120.221489,23.152405,0.0 120.22354,23.15037,0.0 120.229238,23.149323,0.0 120.229105,23.154019,0.0 120.229041,23.154577,0.0 120.22934,23.155298,0.0 120.230165,23.156813,0.0 120.230717,23.156928,0.0 120.231806,23.155309,0.0 120.233251,23.153519,0.0 120.237683,23.1541,0.0 120.239981,23.154807,0.0 120.24031,23.15992,0.0 120.239279,23.162296,0.0 120.237906,23.163455,0.0 120.241864,23.167778,0.0 120.243845,23.169252,0.0</coordinates></LinearRing></outerBoundaryIs></Polygon><styleUrl>#spolygon-map</styleUrl></Placemark><Placemark><Polygon><outerBoundaryIs><LinearRing><coordinates>120.255185,23.175405,0.0 120.239175,23.175091,0.0 120.239327,23.169552,0.0 120.242523,23.169632,0.0 120.243859,23.169262,0.0 120.246056,23.17074,0.0 120.247191,23.168935,0.0 120.24808,23.168199,0.0 120.24957,23.167295,0.0 120.250078,23.165673,0.0 120.250328,23.165814,0.0 120.250389,23.162879,0.0 120.250159,23.159352,0.0 120.252059,23.156001,0.0 120.259387,23.15586,0.0 120.261565,23.154986,0.0 120.259973,23.160964,0.0 120.2564,23.171541,0.0 120.255703,23.172016,0.0 120.255505,23.17279,0.0 120.255227,23.173792,0.0 120.255364,23.174602,0.0 120.255185,23.175405,0.0</coordinates></LinearRing></outerBoundaryIs></Polygon><styleUrl>#spolygon-map</styleUrl></Placemark><Placemark><Polygon><outerBoundaryIs><LinearRing><coordinates>120.267735,23.171794,0.0 120.26484,23.177258,0.0 120.263142,23.176598,0.0 120.26253,23.177125,0.0 120.262721,23.178576,0.0 120.259421,23.180288,0.0 120.255361,23.179142,0.0 120.253555,23.177278,0.0 120.255185,23.175405,0.0 120.255254,23.173979,0.0 120.255323,23.173172,0.0 120.255686,23.172138,0.0 120.256145,23.171669,0.0 120.258983,23.163712,0.0 120.26226,23.154364,0.0 120.263159,23.154113,0.0 120.263428,23.154952,0.0 120.263827,23.157008,0.0 120.264248,23.158518,0.0 120.263787,23.160022,0.0 120.263906,23.162271,0.0 120.264765,23.164435,0.0 120.265025,23.165784,0.0 120.2653,23.167936,0.0 120.265901,23.169256,0.0 120.267028,23.171018,0.0 120.267735,23.171794,0.0</coordinates></LinearRing></outerBoundaryIs></Polygon><styleUrl>#spolygon-map</styleUrl></Placemark><Placemark><Polygon><outerBoundaryIs><LinearRing><coordinates>120.244725,23.175204,0.0 120.243973,23.17893,0.0 120.243607,23.180165,0.0 120.243597,23.180587,0.0 120.243425,23.181824,0.0 120.2439,23.18209,0.0 120.244102,23.18242,0.0 120.242504,23.182907,0.0 120.240843,23.182336,0.0 120.239355,23.182293,0.0 120.237807,23.181873,0.0 120.235099,23.178889,0.0 120.234544,23.174976,0.0 120.244725,23.175204,0.0</coordinates></LinearRing></outerBoundaryIs></Polygon><styleUrl>#spolygon-map</styleUrl></Placemark><Placemark><Polygon><outerBoundaryIs><LinearRing><coordinates>120.246781,23.175249,0.0 120.24744,23.177636,0.0 120.247927,23.178512,0.0 120.248319,23.179748,0.0 120.247897,23.180899,0.0 120.247949,23.181905,0.0 120.245782,23.183053,0.0 120.244091,23.182607,0.0 120.244049,23.182186,0.0 120.243664,23.181948,0.0 120.243507,23.181175,0.0 120.243583,23.180226,0.0 120.243768,23.179731,0.0 120.244545,23.17659,0.0 120.246781,23.175249,0.0</coordinates></LinearRing></outerBoundaryIs></Polygon><styleUrl>#spolygon-map</styleUrl></Placemark><Placemark><Polygon><outerBoundaryIs><LinearRing><coordinates>120.249832,23.1831,0.0 120.248325,23.183219,0.0 120.247875,23.181506,0.0 120.247963,23.18041,0.0 120.248265,23.178761,0.0 120.247708,23.178004,0.0 120.247212,23.176825,0.0 120.255159,23.17555,0.0 120.253226,23.177606,0.0 120.25223,23.178861,0.0 120.250205,23.180559,0.0 120.249594,23.181165,0.0 120.249658,23.181913,0.0 120.249832,23.1831,0.0</coordinates></LinearRing></outerBoundaryIs></Polygon><styleUrl>#spolygon-map</styleUrl></Placemark><Placemark><Polygon><outerBoundaryIs><LinearRing><coordinates>120.251901,23.183701,0.0 120.249658,23.181913,0.0 120.249594,23.181165,0.0 120.250205,23.180559,0.0 120.25223,23.178861,0.0 120.253226,23.177606,0.0 120.254997,23.179075,0.0 120.255343,23.180287,0.0 120.25518,23.180865,0.0 120.254101,23.181911,0.0 120.253822,23.182268,0.0 120.251901,23.183701,0.0</coordinates></LinearRing></outerBoundaryIs></Polygon><styleUrl>#spolygon-map</styleUrl></Placemark><Placemark><Polygon><outerBoundaryIs><LinearRing><coordinates>120.251901,23.183701,0.0 120.251017,23.184333,0.0 120.249445,23.184158,0.0 120.248512,23.183826,0.0 120.249835,23.183303,0.0 120.251901,23.183701,0.0</coordinates></LinearRing></outerBoundaryIs></Polygon><styleUrl>#spolygon-map</styleUrl></Placemark><Placemark><Polygon><outerBoundaryIs><LinearRing><coordinates>120.248478,23.184532,0.0 120.246945,23.18503,0.0 120.246608,23.185437,0.0 120.245965,23.186358,0.0 120.244683,23.185795,0.0 120.244067,23.185069,0.0 120.245067,23.185247,0.0 120.245748,23.183708,0.0 120.248285,23.18321,0.0 120.248285,23.183929,0.0 120.248478,23.184532,0.0</coordinates></LinearRing></outerBoundaryIs></Polygon><styleUrl>#spolygon-map</styleUrl></Placemark><Placemark><Polygon><outerBoundaryIs><LinearRing><coordinates>120.244067,23.185069,0.0 120.242647,23.184398,0.0 120.241522,23.184949,0.0 120.239074,23.186528,0.0 120.237186,23.187537,0.0 120.239411,23.182888,0.0 120.240843,23.182336,0.0 120.242504,23.182907,0.0 120.245754,23.184522,0.0 120.244958,23.185274,0.0 120.244067,23.185069,0.0</coordinates></LinearRing></outerBoundaryIs></Polygon><styleUrl>#spolygon-map</styleUrl></Placemark><Placemark><Polygon><outerBoundaryIs><LinearRing><coordinates>120.272396,23.173358,0.0 120.271865,23.176388,0.0 120.271323,23.17961,0.0 120.273779,23.182431,0.0 120.273494,23.184108,0.0 120.275064,23.184517,0.0 120.275921,23.184799,0.0 120.277477,23.185811,0.0 120.278174,23.186183,0.0 120.276589,23.188762,0.0 120.27193,23.186927,0.0 120.270556,23.18625,0.0 120.268365,23.184115,0.0 120.266995,23.183763,0.0 120.265783,23.183554,0.0 120.26383,23.182285,0.0 120.262379,23.181472,0.0 120.26247,23.178128,0.0 120.262742,23.17692,0.0 120.26325,23.176383,0.0 120.265829,23.175704,0.0 120.268731,23.172457,0.0 120.271827,23.173212,0.0 120.272396,23.173358,0.0</coordinates></LinearRing></outerBoundaryIs></Polygon><styleUrl>#spolygon-map</styleUrl></Placemark><Placemark><Polygon><outerBoundaryIs><LinearRing><coordinates>120.259421,23.180288,0.0 120.259729,23.184172,0.0 120.257418,23.186192,0.0 120.255707,23.18671,0.0 120.255372,23.186816,0.0 120.254398,23.187512,0.0 120.253701,23.188685,0.0 120.253688,23.189112,0.0 120.253626,23.189613,0.0 120.253406,23.189315,0.0 120.253402,23.187141,0.0 120.252449,23.185367,0.0 120.251901,23.183701,0.0 120.253822,23.182268,0.0 120.254101,23.181911,0.0 120.25518,23.180865,0.0 120.255343,23.180287,0.0 120.254997,23.179075,0.0 120.256105,23.179451,0.0 120.259421,23.180288,0.0</coordinates></LinearRing></outerBoundaryIs></Polygon><styleUrl>#spolygon-map</styleUrl></Placemark><Placemark><Polygon><outerBoundaryIs><LinearRing><coordinates>120.252046,23.189892,0.0 120.247688,23.189989,0.0 120.245584,23.189802,0.0 120.245784,23.189617,0.0 120.24612,23.187052,0.0 120.245965,23.186358,0.0 120.246608,23.185437,0.0 120.246945,23.18503,0.0 120.248478,23.184532,0.0 120.250059,23.184211,0.0 120.252207,23.184965,0.0 120.252704,23.185836,0.0 120.25342,23.187233,0.0 120.253524,23.189889,0.0 120.252046,23.189892,0.0</coordinates></LinearRing></outerBoundaryIs></Polygon><styleUrl>#spolygon-map</styleUrl></Placemark><Placemark><Polygon><outerBoundaryIs><LinearRing><coordinates>120.226293,23.186909,0.0 120.222819,23.190912,0.0 120.219385,23.189317,0.0 120.214422,23.189164,0.0 120.214408,23.188782,0.0 120.214432,23.188076,0.0 120.214376,23.186113,0.0 120.214705,23.18391,0.0 120.215705,23.18384,0.0 120.215639,23.182107,0.0 120.215602,23.180215,0.0 120.215432,23.179309,0.0 120.215455,23.178092,0.0 120.215144,23.176197,0.0 120.215061,23.173471,0.0 120.215654,23.17239,0.0 120.215801,23.168147,0.0 120.220036,23.167264,0.0 120.222371,23.166139,0.0 120.224472,23.166175,0.0 120.224443,23.167632,0.0 120.224208,23.168593,0.0 120.225594,23.168335,0.0 120.227739,23.168045,0.0 120.227492,23.170656,0.0 120.228676,23.174503,0.0 120.232045,23.175011,0.0 120.229791,23.176696,0.0 120.228868,23.178136,0.0 120.228181,23.179603,0.0 120.227589,23.181437,0.0 120.228024,23.183597,0.0 120.228243,23.186693,0.0 120.226293,23.186909,0.0</coordinates></LinearRing></outerBoundaryIs></Polygon><styleUrl>#spolygon-map</styleUrl></Placemark><Placemark><Polygon><outerBoundaryIs><LinearRing><coordinates>120.245494,23.19022,0.0 120.244663,23.193094,0.0 120.243978,23.19464,0.0 120.241988,23.195498,0.0 120.241264,23.194976,0.0 120.236776,23.194816,0.0 120.236197,23.189719,0.0 120.237186,23.187537,0.0 120.239074,23.186528,0.0 120.241522,23.184949,0.0 120.242647,23.184398,0.0 120.244067,23.185069,0.0 120.244683,23.185795,0.0 120.245965,23.186358,0.0 120.24612,23.187052,0.0 120.245784,23.189617,0.0 120.245584,23.189802,0.0 120.245494,23.19022,0.0</coordinates></LinearRing></outerBoundaryIs></Polygon><styleUrl>#spolygon-map</styleUrl></Placemark><Placemark><Polygon><outerBoundaryIs><LinearRing><coordinates>120.214738,23.195799,0.0 120.211326,23.198895,0.0 120.20887,23.199509,0.0 120.207662,23.198645,0.0 120.204682,23.198544,0.0 120.204664,23.194741,0.0 120.206315,23.193728,0.0 120.207505,23.193243,0.0 120.207425,23.192143,0.0 120.207382,23.19103,0.0 120.20733,23.189375,0.0 120.207128,23.187738,0.0 120.207944,23.187408,0.0 120.208598,23.187124,0.0 120.210324,23.186616,0.0 120.21276,23.185603,0.0 120.214837,23.185613,0.0 120.2144,23.187637,0.0 120.214425,23.188605,0.0 120.214414,23.189057,0.0 120.214624,23.193628,0.0 120.214738,23.195799,0.0</coordinates></LinearRing></outerBoundaryIs></Polygon><styleUrl>#spolygon-map</styleUrl></Placemark><Placemark><Polygon><outerBoundaryIs><LinearRing><coordinates>120.222279,23.201827,0.0 120.219642,23.201427,0.0 120.219413,23.199853,0.0 120.216486,23.197383,0.0 120.214624,23.193628,0.0 120.214422,23.189164,0.0 120.219385,23.189317,0.0 120.222819,23.190912,0.0 120.222811,23.194065,0.0 120.222763,23.19632,0.0 120.223481,23.197942,0.0 120.222382,23.198885,0.0 120.221856,23.199443,0.0 120.222279,23.201827,0.0</coordinates></LinearRing></outerBoundaryIs></Polygon><styleUrl>#spolygon-map</styleUrl></Placemark><Placemark><Polygon><outerBoundaryIs><LinearRing><coordinates>120.236319,23.19481,0.0 120.233516,23.196419,0.0 120.233033,23.198783,0.0 120.233016,23.200247,0.0 120.232005,23.201547,0.0 120.230503,23.203049,0.0 120.229832,23.200512,0.0 120.228875,23.197154,0.0 120.228094,23.195001,0.0 120.228469,23.192689,0.0 120.226436,23.191189,0.0 120.226727,23.186737,0.0 120.228125,23.184092,0.0 120.227689,23.182669,0.0 120.227659,23.180315,0.0 120.228592,23.17874,0.0 120.228542,23.177506,0.0 120.231434,23.175382,0.0 120.234215,23.174966,0.0 120.235099,23.178889,0.0 120.237807,23.181873,0.0 120.239355,23.182293,0.0 120.237826,23.184525,0.0 120.236197,23.189719,0.0 120.236319,23.19481,0.0</coordinates></LinearRing></outerBoundaryIs></Polygon><styleUrl>#spolygon-map</styleUrl></Placemark><Placemark><Polygon><outerBoundaryIs><LinearRing><coordinates>120.289918,23.202242,0.0 120.290278,23.203352,0.0 120.284789,23.20295,0.0 120.277029,23.202337,0.0 120.271516,23.198115,0.0 120.271525,23.195183,0.0 120.272888,23.192207,0.0 120.276589,23.188762,0.0 120.278174,23.186183,0.0 120.277477,23.185811,0.0 120.275921,23.184799,0.0 120.275064,23.184517,0.0 120.273494,23.184108,0.0 120.273779,23.182431,0.0 120.271323,23.17961,0.0 120.271865,23.176388,0.0 120.272396,23.173358,0.0 120.272519,23.173027,0.0 120.272626,23.172659,0.0 120.273133,23.172805,0.0 120.275354,23.173575,0.0 120.280186,23.174891,0.0 120.287958,23.175837,0.0 120.289859,23.176531,0.0 120.290119,23.179835,0.0 120.290397,23.183525,0.0 120.290859,23.18692,0.0 120.291161,23.18783,0.0 120.290148,23.188698,0.0 120.288748,23.189566,0.0 120.28865,23.191119,0.0 120.287614,23.19125,0.0 120.287426,23.192822,0.0 120.287774,23.194152,0.0 120.287885,23.194682,0.0 120.288119,23.19501,0.0 120.288171,23.195333,0.0 120.287499,23.197556,0.0 120.288478,23.198034,0.0 120.288319,23.198851,0.0 120.287886,23.199691,0.0 120.288222,23.200441,0.0 120.289918,23.202242,0.0</coordinates></LinearRing></outerBoundaryIs></Polygon><styleUrl>#spolygon-map</styleUrl></Placemark><Placemark><Polygon><outerBoundaryIs><LinearRing><coordinates>120.270163,23.202873,0.0 120.269317,23.2034,0.0 120.267685,23.204295,0.0 120.266794,23.204061,0.0 120.26624,23.203473,0.0 120.264208,23.202946,0.0 120.262085,23.2023,0.0 120.260542,23.201951,0.0 120.258917,23.20141,0.0 120.257333,23.200833,0.0 120.256564,23.201124,0.0 120.255329,23.202251,0.0 120.252973,23.199963,0.0 120.252609,23.198309,0.0 120.254318,23.197273,0.0 120.254609,23.195898,0.0 120.256289,23.193674,0.0 120.252322,23.191012,0.0 120.253406,23.18987,0.0 120.253626,23.189613,0.0 120.253688,23.189112,0.0 120.253701,23.188685,0.0 120.254398,23.187512,0.0 120.255372,23.186816,0.0 120.255707,23.18671,0.0 120.257418,23.186192,0.0 120.259729,23.184172,0.0 120.259421,23.180288,0.0 120.262735,23.181649,0.0 120.264449,23.182646,0.0 120.265905,23.183654,0.0 120.267546,23.183846,0.0 120.268853,23.184584,0.0 120.270905,23.186488,0.0 120.272698,23.18722,0.0 120.275688,23.1896,0.0 120.271205,23.193779,0.0 120.271695,23.196157,0.0 120.269289,23.201716,0.0 120.270163,23.202873,0.0</coordinates></LinearRing></outerBoundaryIs></Polygon><styleUrl>#spolygon-map</styleUrl></Placemark><Placemark><Polygon><outerBoundaryIs><LinearRing><coordinates>120.222279,23.201827,0.0 120.224359,23.205667,0.0 120.220878,23.210978,0.0 120.20875,23.208453,0.0 120.208435,23.204158,0.0 120.210255,23.200165,0.0 120.210716,23.199461,0.0 120.214088,23.196382,0.0 120.216486,23.197383,0.0 120.219413,23.199853,0.0 120.219642,23.201427,0.0 120.222279,23.201827,0.0</coordinates></LinearRing></outerBoundaryIs></Polygon><styleUrl>#spolygon-map</styleUrl></Placemark><Placemark><Polygon><outerBoundaryIs><LinearRing><coordinates>120.230424,23.203054,0.0 120.231479,23.206941,0.0 120.231028,23.212307,0.0 120.225284,23.207667,0.0 120.223159,23.205731,0.0 120.222215,23.201408,0.0 120.221745,23.199013,0.0 120.222739,23.199078,0.0 120.223022,23.197376,0.0 120.22308,23.194623,0.0 120.222776,23.192569,0.0 120.226293,23.186909,0.0 120.227419,23.191237,0.0 120.228313,23.193304,0.0 120.228322,23.195667,0.0 120.229286,23.198333,0.0 120.229983,23.201861,0.0 120.230424,23.203054,0.0</coordinates></LinearRing></outerBoundaryIs></Polygon><styleUrl>#spolygon-map</styleUrl></Placemark><Placemark><Polygon><outerBoundaryIs><LinearRing><coordinates>120.218475,23.229451,0.0 120.216437,23.225498,0.0 120.216265,23.224507,0.0 120.216088,23.222349,0.0 120.215657,23.221351,0.0 120.215218,23.221173,0.0 120.214559,23.220217,0.0 120.213541,23.219681,0.0 120.212713,23.219767,0.0 120.212094,23.218424,0.0 120.21095,23.217377,0.0 120.210065,23.216278,0.0 120.209016,23.215302,0.0 120.208625,23.215006,0.0 120.207977,23.214908,0.0 120.207461,23.214366,0.0 120.206764,23.214277,0.0 120.206423,23.214467,0.0 120.205179,23.214151,0.0 120.204269,23.214959,0.0 120.20341,23.214545,0.0 120.199752,23.214002,0.0 120.199996,23.212923,0.0 120.200247,23.211603,0.0 120.197908,23.211358,0.0 120.195959,23.211105,0.0 120.192126,23.209965,0.0 120.193785,23.20723,0.0 120.193968,23.206639,0.0 120.194061,23.204842,0.0 120.195703,23.203698,0.0 120.197682,23.202656,0.0 120.198043,23.201354,0.0 120.198335,23.200318,0.0 120.198,23.199572,0.0 120.19668,23.198947,0.0 120.194818,23.197636,0.0 120.194416,23.196867,0.0 120.194586,23.196725,0.0 120.195275,23.196694,0.0 120.196266,23.196763,0.0 120.198543,23.196165,0.0 120.204664,23.194741,0.0 120.204682,23.198544,0.0 120.207662,23.198645,0.0 120.20887,23.199509,0.0 120.210442,23.199779,0.0 120.208872,23.203238,0.0 120.208182,23.205812,0.0 120.216909,23.209709,0.0 120.222879,23.215687,0.0 120.220616,23.215675,0.0 120.220594,23.216503,0.0 120.221199,23.217907,0.0 120.222173,23.219819,0.0 120.22235,23.220531,0.0 120.223048,23.221341,0.0 120.224549,23.223001,0.0 120.224652,23.223408,0.0 120.224102,23.22452,0.0 120.223781,23.224881,0.0 120.222675,23.225084,0.0 120.222225,23.225755,0.0 120.221297,23.227341,0.0 120.221049,23.227814,0.0 120.220966,23.228296,0.0 120.220599,23.228309,0.0 120.220307,23.2283,0.0 120.21956,23.228808,0.0 120.218633,23.229381,0.0 120.218475,23.229451,0.0</coordinates></LinearRing></outerBoundaryIs></Polygon><styleUrl>#spolygon-map</styleUrl></Placemark><Placemark><Polygon><outerBoundaryIs><LinearRing><coordinates>120.233397,23.223669,0.0 120.229617,23.226015,0.0 120.226698,23.227788,0.0 120.225745,23.229009,0.0 120.223941,23.23075,0.0 120.222928,23.230658,0.0 120.219971,23.231904,0.0 120.218768,23.230066,0.0 120.218806,23.229287,0.0 120.220147,23.228376,0.0 120.220432,23.228287,0.0 120.220829,23.22833,0.0 120.221033,23.228147,0.0 120.221086,23.227704,0.0 120.221912,23.226316,0.0 120.222514,23.225243,0.0 120.22279,23.225038,0.0 120.223932,23.2248,0.0 120.224473,23.223811,0.0 120.22462,23.223211,0.0 120.224582,23.222888,0.0 120.222421,23.220664,0.0 120.222252,23.220026,0.0 120.222001,23.219493,0.0 120.220985,23.217426,0.0 120.220472,23.216085,0.0 120.221086,23.215651,0.0 120.224677,23.212283,0.0 120.231939,23.212276,0.0 120.231385,23.206228,0.0 120.230503,23.203049,0.0 120.232005,23.201547,0.0 120.233016,23.200247,0.0 120.233033,23.198783,0.0 120.233516,23.196419,0.0 120.236319,23.19481,0.0 120.23943,23.194831,0.0 120.241913,23.195373,0.0 120.243083,23.195805,0.0 120.244336,23.193836,0.0 120.24519,23.191815,0.0 120.24751,23.190002,0.0 120.251622,23.189895,0.0 120.252382,23.192412,0.0 120.25643,23.193958,0.0 120.254392,23.196273,0.0 120.252588,23.197332,0.0 120.252801,23.199489,0.0 120.253967,23.202228,0.0 120.252431,23.203868,0.0 120.249081,23.205235,0.0 120.248069,23.205757,0.0 120.247005,23.20942,0.0 120.246352,23.2132,0.0 120.240829,23.214284,0.0 120.234951,23.219533,0.0 120.233352,23.223249,0.0 120.233397,23.223669,0.0</coordinates></LinearRing></outerBoundaryIs></Polygon><styleUrl>#spolygon-map</styleUrl></Placemark></Document>
</kml>
