<?xml version="1.0" encoding="UTF-8"?>
<kml xmlns="http://www.opengis.net/kml/2.2">
	<Document>
		<name>臺南市永康區</name>
		<Style id="spolygon">
			<LabelStyle>
				<scale>0.0</scale>
			</LabelStyle>
			<LineStyle>
				<color>330030ff</color>
				<width>0</width>
			</LineStyle>
			<PolyStyle>
				<color>330030ff</color>
			</PolyStyle>
		</Style>
		<StyleMap id="spolygon-map">
			<Pair>
				<key>normal</key>
				<styleUrl>#spolygon</styleUrl>
			</Pair>
		</StyleMap>
	<Placemark><Polygon><outerBoundaryIs><LinearRing><coordinates>120.246795,22.998646,0.0 120.245344,22.999522,0.0 120.244785,23.001088,0.0 120.243257,23.000619,0.0 120.24316,22.999342,0.0 120.244878,22.998639,0.0 120.246795,22.998646,0.0</coordinates></LinearRing></outerBoundaryIs></Polygon><styleUrl>#spolygon-map</styleUrl></Placemark><Placemark><Polygon><outerBoundaryIs><LinearRing><coordinates>120.239975,23.00062,0.0 120.239965,23.001967,0.0 120.238541,23.001823,0.0 120.236348,23.001551,0.0 120.234786,22.999054,0.0 120.236904,22.998504,0.0 120.23948,22.998524,0.0 120.239967,22.998548,0.0 120.239975,23.00062,0.0</coordinates></LinearRing></outerBoundaryIs></Polygon><styleUrl>#spolygon-map</styleUrl></Placemark><Placemark><Polygon><outerBoundaryIs><LinearRing><coordinates>120.239963,23.004463,0.0 120.238833,23.004537,0.0 120.237756,23.004366,0.0 120.23572,23.004147,0.0 120.235028,23.001465,0.0 120.238284,23.001587,0.0 120.239531,23.002098,0.0 120.239961,23.002493,0.0 120.239963,23.004463,0.0</coordinates></LinearRing></outerBoundaryIs></Polygon><styleUrl>#spolygon-map</styleUrl></Placemark><Placemark><Polygon><outerBoundaryIs><LinearRing><coordinates>120.242727,23.005434,0.0 120.24193,23.003949,0.0 120.241818,23.000922,0.0 120.241765,23.00048,0.0 120.240994,23.000643,0.0 120.239967,22.998548,0.0 120.239925,22.998265,0.0 120.239767,22.996725,0.0 120.239759,22.994835,0.0 120.239911,22.993576,0.0 120.240451,22.993301,0.0 120.241422,22.99355,0.0 120.241941,22.993254,0.0 120.242933,22.992645,0.0 120.243333,22.99166,0.0 120.243733,22.991516,0.0 120.244192,22.991518,0.0 120.244579,22.991707,0.0 120.244173,22.993801,0.0 120.245936,22.996008,0.0 120.246795,22.998646,0.0 120.243512,22.998647,0.0 120.243051,23.000146,0.0 120.244059,23.000907,0.0 120.244917,23.001594,0.0 120.245185,23.002207,0.0 120.245022,23.003933,0.0 120.243489,23.004686,0.0 120.243173,23.005435,0.0 120.242727,23.005434,0.0</coordinates></LinearRing></outerBoundaryIs></Polygon><styleUrl>#spolygon-map</styleUrl></Placemark><Placemark><Polygon><outerBoundaryIs><LinearRing><coordinates>120.273976,23.000617,0.0 120.271606,23.003165,0.0 120.268985,23.005993,0.0 120.266914,23.005823,0.0 120.26616,23.005097,0.0 120.265077,23.005468,0.0 120.264756,23.005929,0.0 120.264112,23.005707,0.0 120.2642,23.004765,0.0 120.265074,23.003513,0.0 120.265483,23.003147,0.0 120.26598,23.001987,0.0 120.266212,23.000994,0.0 120.267272,22.996553,0.0 120.269262,22.993509,0.0 120.27107,22.993617,0.0 120.271363,22.994006,0.0 120.271854,22.9943,0.0 120.272488,22.994246,0.0 120.272811,22.993762,0.0 120.27343,22.993725,0.0 120.27353,22.994852,0.0 120.273614,22.995979,0.0 120.273669,22.997233,0.0 120.273886,22.998997,0.0 120.273901,23.000076,0.0 120.273976,23.000617,0.0</coordinates></LinearRing></outerBoundaryIs></Polygon><styleUrl>#spolygon-map</styleUrl></Placemark><Placemark><Polygon><outerBoundaryIs><LinearRing><coordinates>120.263763,23.005069,0.0 120.262336,23.006191,0.0 120.260829,23.004097,0.0 120.259449,23.000694,0.0 120.256622,22.993742,0.0 120.256884,22.993663,0.0 120.259563,22.994316,0.0 120.26074,22.994577,0.0 120.267272,22.996553,0.0 120.266212,23.000994,0.0 120.26598,23.001987,0.0 120.265483,23.003147,0.0 120.265074,23.003513,0.0 120.2642,23.004765,0.0 120.263763,23.005069,0.0</coordinates></LinearRing></outerBoundaryIs></Polygon><styleUrl>#spolygon-map</styleUrl></Placemark><Placemark><Polygon><outerBoundaryIs><LinearRing><coordinates>120.235318,23.00414,0.0 120.235429,23.005416,0.0 120.235183,23.006489,0.0 120.234038,23.007517,0.0 120.230106,23.006961,0.0 120.230269,23.006296,0.0 120.230124,23.005781,0.0 120.230006,23.004965,0.0 120.229644,23.003968,0.0 120.2291,23.002988,0.0 120.228844,23.002494,0.0 120.228519,23.002077,0.0 120.22863,23.001596,0.0 120.230258,23.000808,0.0 120.231626,23.000683,0.0 120.232562,23.000942,0.0 120.232811,23.00055,0.0 120.232933,22.998925,0.0 120.233067,22.998585,0.0 120.234734,22.998491,0.0 120.235028,23.001465,0.0 120.235318,23.00414,0.0</coordinates></LinearRing></outerBoundaryIs></Polygon><styleUrl>#spolygon-map</styleUrl></Placemark><Placemark><Polygon><outerBoundaryIs><LinearRing><coordinates>120.242727,23.005434,0.0 120.242694,23.008002,0.0 120.241808,23.008779,0.0 120.24169,23.008316,0.0 120.241335,23.007453,0.0 120.240876,23.006468,0.0 120.240319,23.005732,0.0 120.239938,23.005089,0.0 120.23997,23.00309,0.0 120.239964,23.002113,0.0 120.239974,23.000839,0.0 120.241623,23.000556,0.0 120.242049,23.00078,0.0 120.24164,23.003924,0.0 120.242015,23.005431,0.0 120.242727,23.005434,0.0</coordinates></LinearRing></outerBoundaryIs></Polygon><styleUrl>#spolygon-map</styleUrl></Placemark><Placemark><Polygon><outerBoundaryIs><LinearRing><coordinates>120.241681,23.008812,0.0 120.241373,23.00875,0.0 120.240937,23.008714,0.0 120.240572,23.008577,0.0 120.239591,23.008623,0.0 120.23769,23.008574,0.0 120.234784,23.008539,0.0 120.235125,23.006623,0.0 120.235417,23.005552,0.0 120.235334,23.004268,0.0 120.23724,23.004186,0.0 120.238513,23.004486,0.0 120.239466,23.004425,0.0 120.240001,23.005481,0.0 120.240443,23.005978,0.0 120.240983,23.006746,0.0 120.241449,23.007869,0.0 120.24173,23.00844,0.0 120.241681,23.008812,0.0</coordinates></LinearRing></outerBoundaryIs></Polygon><styleUrl>#spolygon-map</styleUrl></Placemark><Placemark><Polygon><outerBoundaryIs><LinearRing><coordinates>120.252305,23.007957,0.0 120.249243,23.008842,0.0 120.248251,23.006676,0.0 120.24812,23.002633,0.0 120.247632,23.002281,0.0 120.246141,23.001977,0.0 120.245185,23.002207,0.0 120.244917,23.001594,0.0 120.245163,22.999609,0.0 120.246432,22.999481,0.0 120.246082,22.996611,0.0 120.245486,22.994103,0.0 120.244919,22.99216,0.0 120.245515,22.992404,0.0 120.246661,22.992453,0.0 120.248452,22.992471,0.0 120.248967,22.992005,0.0 120.248296,22.991102,0.0 120.248076,22.990721,0.0 120.250447,22.991096,0.0 120.250483,22.991482,0.0 120.250502,22.993859,0.0 120.250545,23.002452,0.0 120.251501,23.006211,0.0 120.252305,23.007957,0.0</coordinates></LinearRing></outerBoundaryIs></Polygon><styleUrl>#spolygon-map</styleUrl></Placemark><Placemark><Polygon><outerBoundaryIs><LinearRing><coordinates>120.261739,23.00648,0.0 120.260349,23.007407,0.0 120.257472,23.008333,0.0 120.252284,23.007914,0.0 120.250788,23.004016,0.0 120.250501,22.996666,0.0 120.250509,22.991706,0.0 120.251175,22.992005,0.0 120.251797,22.992175,0.0 120.252744,22.992452,0.0 120.253431,22.992643,0.0 120.25401,22.992815,0.0 120.254814,22.993054,0.0 120.25544,22.993235,0.0 120.256127,22.993441,0.0 120.257365,22.995545,0.0 120.2598,23.001575,0.0 120.261213,23.005037,0.0 120.261739,23.00648,0.0</coordinates></LinearRing></outerBoundaryIs></Polygon><styleUrl>#spolygon-map</styleUrl></Placemark><Placemark><Polygon><outerBoundaryIs><LinearRing><coordinates>120.248741,23.009575,0.0 120.247144,23.010003,0.0 120.246234,23.00968,0.0 120.246156,23.006222,0.0 120.246011,23.004014,0.0 120.246086,23.002482,0.0 120.247397,23.002326,0.0 120.248119,23.002178,0.0 120.248198,23.006242,0.0 120.248598,23.009001,0.0 120.248741,23.009575,0.0</coordinates></LinearRing></outerBoundaryIs></Polygon><styleUrl>#spolygon-map</styleUrl></Placemark><Placemark><Polygon><outerBoundaryIs><LinearRing><coordinates>120.274572,23.007567,0.0 120.270384,23.007632,0.0 120.26815,23.007582,0.0 120.269092,23.009272,0.0 120.267479,23.011479,0.0 120.266277,23.011286,0.0 120.265606,23.012084,0.0 120.265091,23.010187,0.0 120.265801,23.008224,0.0 120.266201,23.007422,0.0 120.265285,23.005705,0.0 120.266669,23.005381,0.0 120.267999,23.006047,0.0 120.270711,23.004116,0.0 120.273894,23.000705,0.0 120.274121,23.001497,0.0 120.274301,23.004084,0.0 120.274415,23.00571,0.0 120.274567,23.007332,0.0 120.274572,23.007567,0.0</coordinates></LinearRing></outerBoundaryIs></Polygon><styleUrl>#spolygon-map</styleUrl></Placemark><Placemark><Polygon><outerBoundaryIs><LinearRing><coordinates>120.233956,23.008513,0.0 120.231865,23.011796,0.0 120.231069,23.012763,0.0 120.229853,23.01237,0.0 120.228715,23.011792,0.0 120.227664,23.011565,0.0 120.226373,23.011212,0.0 120.227722,23.01139,0.0 120.22807,23.011114,0.0 120.228476,23.010816,0.0 120.228937,23.010764,0.0 120.229258,23.010271,0.0 120.229518,23.009347,0.0 120.229879,23.008678,0.0 120.230017,23.008155,0.0 120.232255,23.007548,0.0 120.233956,23.008513,0.0</coordinates></LinearRing></outerBoundaryIs></Polygon><styleUrl>#spolygon-map</styleUrl></Placemark><Placemark><Polygon><outerBoundaryIs><LinearRing><coordinates>120.242427,23.013436,0.0 120.241005,23.012795,0.0 120.239399,23.013221,0.0 120.238655,23.013334,0.0 120.238005,23.014247,0.0 120.236261,23.013947,0.0 120.236871,23.011958,0.0 120.239591,23.008623,0.0 120.240572,23.008577,0.0 120.240937,23.008714,0.0 120.241373,23.00875,0.0 120.241697,23.009016,0.0 120.241614,23.010398,0.0 120.242023,23.010754,0.0 120.242363,23.011373,0.0 120.242248,23.012329,0.0 120.242448,23.013097,0.0 120.242427,23.013436,0.0</coordinates></LinearRing></outerBoundaryIs></Polygon><styleUrl>#spolygon-map</styleUrl></Placemark><Placemark><Polygon><outerBoundaryIs><LinearRing><coordinates>120.236261,23.013947,0.0 120.235615,23.015371,0.0 120.23435,23.014584,0.0 120.232197,23.013913,0.0 120.231404,23.01252,0.0 120.233098,23.009862,0.0 120.235115,23.008545,0.0 120.237724,23.008581,0.0 120.236711,23.012529,0.0 120.236261,23.013947,0.0</coordinates></LinearRing></outerBoundaryIs></Polygon><styleUrl>#spolygon-map</styleUrl></Placemark><Placemark><Polygon><outerBoundaryIs><LinearRing><coordinates>120.263146,23.016248,0.0 120.262445,23.01666,0.0 120.261041,23.016723,0.0 120.258917,23.016207,0.0 120.256102,23.015409,0.0 120.255259,23.014537,0.0 120.25318,23.009677,0.0 120.259501,23.007672,0.0 120.261861,23.006903,0.0 120.262104,23.005851,0.0 120.263848,23.005263,0.0 120.264411,23.006119,0.0 120.265079,23.005666,0.0 120.266012,23.005081,0.0 120.266303,23.005447,0.0 120.265586,23.006346,0.0 120.266194,23.007654,0.0 120.265645,23.008416,0.0 120.264737,23.01138,0.0 120.264102,23.013417,0.0 120.263146,23.016248,0.0</coordinates></LinearRing></outerBoundaryIs></Polygon><styleUrl>#spolygon-map</styleUrl></Placemark><Placemark><Polygon><outerBoundaryIs><LinearRing><coordinates>120.250478,23.016283,0.0 120.247314,23.016733,0.0 120.246292,23.017705,0.0 120.244703,23.017645,0.0 120.244134,23.017043,0.0 120.243692,23.016859,0.0 120.243041,23.016659,0.0 120.242753,23.015841,0.0 120.24271,23.014303,0.0 120.242434,23.013507,0.0 120.242453,23.012741,0.0 120.242264,23.012099,0.0 120.242269,23.011231,0.0 120.241969,23.010648,0.0 120.241582,23.010185,0.0 120.241681,23.008812,0.0 120.242655,23.008146,0.0 120.242741,23.005961,0.0 120.243325,23.00506,0.0 120.244257,23.003982,0.0 120.245348,23.002796,0.0 120.246021,23.00348,0.0 120.246084,23.005428,0.0 120.246331,23.008485,0.0 120.247186,23.010333,0.0 120.248196,23.009698,0.0 120.249466,23.012201,0.0 120.250334,23.015454,0.0 120.250478,23.016283,0.0</coordinates></LinearRing></outerBoundaryIs></Polygon><styleUrl>#spolygon-map</styleUrl></Placemark><Placemark><Polygon><outerBoundaryIs><LinearRing><coordinates>120.230793,23.013488,0.0 120.229004,23.016183,0.0 120.228009,23.017284,0.0 120.226848,23.01817,0.0 120.225728,23.016883,0.0 120.225658,23.016349,0.0 120.226277,23.015106,0.0 120.227695,23.012894,0.0 120.226147,23.011267,0.0 120.226659,23.011325,0.0 120.227955,23.011524,0.0 120.228742,23.011805,0.0 120.230133,23.012491,0.0 120.231198,23.01281,0.0 120.230793,23.013488,0.0</coordinates></LinearRing></outerBoundaryIs></Polygon><styleUrl>#spolygon-map</styleUrl></Placemark><Placemark><Polygon><outerBoundaryIs><LinearRing><coordinates>120.226728,23.018247,0.0 120.224461,23.019682,0.0 120.223002,23.017594,0.0 120.222992,23.016971,0.0 120.222853,23.016536,0.0 120.223902,23.016374,0.0 120.224441,23.015804,0.0 120.224243,23.015455,0.0 120.224266,23.015053,0.0 120.224427,23.014521,0.0 120.225145,23.013802,0.0 120.225041,23.013368,0.0 120.224721,23.013198,0.0 120.225089,23.012558,0.0 120.226187,23.012532,0.0 120.225959,23.012048,0.0 120.225586,23.011671,0.0 120.225857,23.011476,0.0 120.227507,23.012278,0.0 120.226775,23.014339,0.0 120.22579,23.015882,0.0 120.225653,23.016654,0.0 120.226339,23.017731,0.0 120.226728,23.018247,0.0</coordinates></LinearRing></outerBoundaryIs></Polygon><styleUrl>#spolygon-map</styleUrl></Placemark><Placemark><Polygon><outerBoundaryIs><LinearRing><coordinates>120.275016,23.01107,0.0 120.27408,23.01197,0.0 120.271893,23.013681,0.0 120.271312,23.014177,0.0 120.27075,23.01466,0.0 120.270086,23.015226,0.0 120.269563,23.015671,0.0 120.268887,23.016249,0.0 120.268324,23.016731,0.0 120.267867,23.017125,0.0 120.267409,23.017517,0.0 120.266847,23.017998,0.0 120.266447,23.018352,0.0 120.266092,23.018889,0.0 120.265753,23.019408,0.0 120.265459,23.019849,0.0 120.263795,23.019524,0.0 120.262629,23.017978,0.0 120.263146,23.016248,0.0 120.264102,23.013417,0.0 120.266155,23.011975,0.0 120.266929,23.011414,0.0 120.267783,23.010397,0.0 120.268448,23.008346,0.0 120.269233,23.00764,0.0 120.271562,23.007625,0.0 120.274597,23.007883,0.0 120.274751,23.009039,0.0 120.274866,23.009961,0.0 120.274962,23.010947,0.0 120.275016,23.01107,0.0</coordinates></LinearRing></outerBoundaryIs></Polygon><styleUrl>#spolygon-map</styleUrl></Placemark><Placemark><Polygon><outerBoundaryIs><LinearRing><coordinates>120.250478,23.016283,0.0 120.250159,23.021456,0.0 120.24896,23.021789,0.0 120.245909,23.02072,0.0 120.244539,23.020273,0.0 120.243275,23.020117,0.0 120.242306,23.019734,0.0 120.240147,23.018344,0.0 120.237944,23.016901,0.0 120.235628,23.015344,0.0 120.236401,23.013975,0.0 120.238043,23.014204,0.0 120.238743,23.013326,0.0 120.239696,23.013185,0.0 120.240996,23.013361,0.0 120.242434,23.013507,0.0 120.24271,23.014303,0.0 120.242753,23.015841,0.0 120.243041,23.016659,0.0 120.243692,23.016859,0.0 120.244134,23.017043,0.0 120.244703,23.017645,0.0 120.246292,23.017705,0.0 120.247314,23.016733,0.0 120.250478,23.016283,0.0</coordinates></LinearRing></outerBoundaryIs></Polygon><styleUrl>#spolygon-map</styleUrl></Placemark><Placemark><Polygon><outerBoundaryIs><LinearRing><coordinates>120.259695,23.01643,0.0 120.257774,23.019155,0.0 120.253281,23.020969,0.0 120.250869,23.022017,0.0 120.250079,23.022277,0.0 120.250627,23.017271,0.0 120.249908,23.013824,0.0 120.249147,23.011128,0.0 120.249243,23.008842,0.0 120.252305,23.007957,0.0 120.255203,23.014309,0.0 120.255129,23.015058,0.0 120.258045,23.015991,0.0 120.259695,23.01643,0.0</coordinates></LinearRing></outerBoundaryIs></Polygon><styleUrl>#spolygon-map</styleUrl></Placemark><Placemark><Polygon><outerBoundaryIs><LinearRing><coordinates>120.235111,23.015032,0.0 120.232147,23.019141,0.0 120.232618,23.019871,0.0 120.230458,23.022825,0.0 120.227792,23.022374,0.0 120.225285,23.020643,0.0 120.224999,23.019339,0.0 120.226848,23.01817,0.0 120.228009,23.017284,0.0 120.229004,23.016183,0.0 120.230793,23.013488,0.0 120.234043,23.014481,0.0 120.234606,23.014719,0.0 120.235111,23.015032,0.0</coordinates></LinearRing></outerBoundaryIs></Polygon><styleUrl>#spolygon-map</styleUrl></Placemark><Placemark><Polygon><outerBoundaryIs><LinearRing><coordinates>120.224461,23.019682,0.0 120.223004,23.02061,0.0 120.221172,23.021772,0.0 120.219809,23.022618,0.0 120.215139,23.024885,0.0 120.211498,23.023628,0.0 120.210567,23.023079,0.0 120.209435,23.022949,0.0 120.209635,23.022503,0.0 120.211241,23.021617,0.0 120.212685,23.020897,0.0 120.213416,23.020163,0.0 120.213646,23.019588,0.0 120.216528,23.018921,0.0 120.217142,23.019992,0.0 120.217681,23.019802,0.0 120.217653,23.018933,0.0 120.217849,23.018288,0.0 120.219459,23.018468,0.0 120.22106,23.019038,0.0 120.222889,23.018911,0.0 120.222706,23.018554,0.0 120.222939,23.017794,0.0 120.223836,23.018787,0.0 120.224461,23.019682,0.0</coordinates></LinearRing></outerBoundaryIs></Polygon><styleUrl>#spolygon-map</styleUrl></Placemark><Placemark><Polygon><outerBoundaryIs><LinearRing><coordinates>120.292485,23.015804,0.0 120.292162,23.015961,0.0 120.291607,23.016173,0.0 120.290952,23.016504,0.0 120.290262,23.016973,0.0 120.289857,23.017282,0.0 120.288726,23.017677,0.0 120.287935,23.017766,0.0 120.287239,23.017873,0.0 120.286168,23.018173,0.0 120.285552,23.018665,0.0 120.284902,23.019016,0.0 120.284402,23.019301,0.0 120.283971,23.019705,0.0 120.283755,23.020542,0.0 120.283454,23.021256,0.0 120.283262,23.022095,0.0 120.283304,23.023317,0.0 120.283223,23.024314,0.0 120.283141,23.02505,0.0 120.280939,23.025777,0.0 120.277029,23.021421,0.0 120.276,23.020787,0.0 120.273769,23.02194,0.0 120.265584,23.020857,0.0 120.2653,23.019903,0.0 120.265619,23.019611,0.0 120.265906,23.019175,0.0 120.266267,23.018619,0.0 120.26659,23.018217,0.0 120.267125,23.01776,0.0 120.267595,23.017357,0.0 120.268125,23.016903,0.0 120.268583,23.016508,0.0 120.269203,23.015981,0.0 120.269779,23.015488,0.0 120.270434,23.014929,0.0 120.271091,23.014367,0.0 120.271666,23.013875,0.0 120.272364,23.013442,0.0 120.274883,23.011304,0.0 120.275348,23.011164,0.0 120.276415,23.01116,0.0 120.277657,23.011107,0.0 120.278612,23.010933,0.0 120.279589,23.010639,0.0 120.280317,23.010588,0.0 120.282647,23.011304,0.0 120.286204,23.012969,0.0 120.28945,23.012862,0.0 120.291379,23.012749,0.0 120.291656,23.013216,0.0 120.292013,23.014326,0.0 120.2924,23.01554,0.0 120.292485,23.015804,0.0</coordinates></LinearRing></outerBoundaryIs></Polygon><styleUrl>#spolygon-map</styleUrl></Placemark><Placemark><Polygon><outerBoundaryIs><LinearRing><coordinates>120.262451,23.030396,0.0 120.260078,23.030668,0.0 120.259142,23.029305,0.0 120.258547,23.028196,0.0 120.256796,23.027737,0.0 120.256113,23.027302,0.0 120.254907,23.02675,0.0 120.252655,23.026083,0.0 120.252271,23.024638,0.0 120.250728,23.024321,0.0 120.249981,23.02419,0.0 120.249864,23.022846,0.0 120.250237,23.022272,0.0 120.251467,23.021771,0.0 120.256255,23.01974,0.0 120.258991,23.01875,0.0 120.26071,23.016697,0.0 120.262101,23.016571,0.0 120.262849,23.01626,0.0 120.262834,23.017316,0.0 120.26243,23.019155,0.0 120.264719,23.020765,0.0 120.262491,23.024535,0.0 120.261256,23.026452,0.0 120.261086,23.027132,0.0 120.261291,23.027774,0.0 120.262451,23.030396,0.0</coordinates></LinearRing></outerBoundaryIs></Polygon><styleUrl>#spolygon-map</styleUrl></Placemark><Placemark><Polygon><outerBoundaryIs><LinearRing><coordinates>120.226843,23.03165,0.0 120.224701,23.032484,0.0 120.223733,23.032675,0.0 120.222912,23.031804,0.0 120.220579,23.03159,0.0 120.220142,23.029563,0.0 120.217799,23.027341,0.0 120.215383,23.025052,0.0 120.219823,23.022609,0.0 120.221308,23.021684,0.0 120.223007,23.020608,0.0 120.224465,23.019687,0.0 120.226234,23.021427,0.0 120.228955,23.023051,0.0 120.233382,23.025569,0.0 120.233494,23.029684,0.0 120.232831,23.029733,0.0 120.231947,23.029993,0.0 120.23108,23.030334,0.0 120.229463,23.031005,0.0 120.228883,23.030463,0.0 120.227982,23.030969,0.0 120.227032,23.031091,0.0 120.226843,23.03165,0.0</coordinates></LinearRing></outerBoundaryIs></Polygon><styleUrl>#spolygon-map</styleUrl></Placemark><Placemark><Polygon><outerBoundaryIs><LinearRing><coordinates>120.284116,23.028086,0.0 120.285338,23.028365,0.0 120.285886,23.028828,0.0 120.286173,23.029251,0.0 120.287522,23.029804,0.0 120.28794,23.030531,0.0 120.288548,23.031192,0.0 120.288979,23.03233,0.0 120.288716,23.033304,0.0 120.287882,23.033984,0.0 120.285094,23.033368,0.0 120.278486,23.031226,0.0 120.273218,23.029875,0.0 120.273182,23.028658,0.0 120.269473,23.024767,0.0 120.273372,23.021927,0.0 120.275696,23.020871,0.0 120.276907,23.021107,0.0 120.28081,23.025772,0.0 120.283192,23.026599,0.0 120.28406,23.027587,0.0 120.284116,23.028086,0.0</coordinates></LinearRing></outerBoundaryIs></Polygon><styleUrl>#spolygon-map</styleUrl></Placemark><Placemark><Polygon><outerBoundaryIs><LinearRing><coordinates>120.249582,23.024123,0.0 120.249281,23.028457,0.0 120.249481,23.031599,0.0 120.246072,23.032953,0.0 120.234486,23.026224,0.0 120.230813,23.022355,0.0 120.232408,23.019741,0.0 120.232505,23.018629,0.0 120.235615,23.015371,0.0 120.238847,23.017498,0.0 120.24063,23.018662,0.0 120.242557,23.019891,0.0 120.243389,23.020138,0.0 120.244896,23.020366,0.0 120.245985,23.020746,0.0 120.249298,23.021909,0.0 120.24996,23.022395,0.0 120.249582,23.024123,0.0</coordinates></LinearRing></outerBoundaryIs></Polygon><styleUrl>#spolygon-map</styleUrl></Placemark><Placemark><Polygon><outerBoundaryIs><LinearRing><coordinates>120.256795,23.027737,0.0 120.25592,23.028965,0.0 120.254307,23.030263,0.0 120.252536,23.03281,0.0 120.251753,23.034938,0.0 120.250282,23.036104,0.0 120.24936,23.030108,0.0 120.249425,23.025142,0.0 120.249997,23.024183,0.0 120.250979,23.024374,0.0 120.252173,23.025493,0.0 120.253122,23.026198,0.0 120.255083,23.027027,0.0 120.256362,23.027373,0.0 120.256795,23.027737,0.0</coordinates></LinearRing></outerBoundaryIs></Polygon><styleUrl>#spolygon-map</styleUrl></Placemark><Placemark><Polygon><outerBoundaryIs><LinearRing><coordinates>120.273218,23.029875,0.0 120.270475,23.032169,0.0 120.26738,23.031918,0.0 120.267529,23.034246,0.0 120.267879,23.035209,0.0 120.26833,23.038853,0.0 120.265578,23.038669,0.0 120.262424,23.036293,0.0 120.262541,23.033267,0.0 120.262239,23.029915,0.0 120.261268,23.027666,0.0 120.261071,23.02704,0.0 120.26138,23.02632,0.0 120.263071,23.023666,0.0 120.264847,23.020789,0.0 120.269528,23.023079,0.0 120.271103,23.028613,0.0 120.273217,23.029243,0.0 120.273218,23.029875,0.0</coordinates></LinearRing></outerBoundaryIs></Polygon><styleUrl>#spolygon-map</styleUrl></Placemark><Placemark><Polygon><outerBoundaryIs><LinearRing><coordinates>120.262106,23.036056,0.0 120.261513,23.040187,0.0 120.261109,23.04357,0.0 120.258215,23.042522,0.0 120.251084,23.036795,0.0 120.251956,23.034385,0.0 120.252722,23.032319,0.0 120.254683,23.029971,0.0 120.256322,23.028648,0.0 120.257254,23.027861,0.0 120.258939,23.02834,0.0 120.258881,23.029761,0.0 120.260286,23.030664,0.0 120.262811,23.0312,0.0 120.262393,23.034294,0.0 120.262106,23.036056,0.0</coordinates></LinearRing></outerBoundaryIs></Polygon><styleUrl>#spolygon-map</styleUrl></Placemark><Placemark><Polygon><outerBoundaryIs><LinearRing><coordinates>120.26821,23.040638,0.0 120.26294,23.046345,0.0 120.261058,23.044094,0.0 120.261255,23.042057,0.0 120.262057,23.036313,0.0 120.264676,23.037973,0.0 120.26809,23.04055,0.0 120.26821,23.040638,0.0</coordinates></LinearRing></outerBoundaryIs></Polygon><styleUrl>#spolygon-map</styleUrl></Placemark><Placemark><Polygon><outerBoundaryIs><LinearRing><coordinates>120.250282,23.036104,0.0 120.250872,23.039418,0.0 120.251692,23.043691,0.0 120.247276,23.04544,0.0 120.245402,23.048589,0.0 120.240404,23.047058,0.0 120.239426,23.044967,0.0 120.23817,23.042434,0.0 120.237238,23.041434,0.0 120.236526,23.040767,0.0 120.235053,23.039499,0.0 120.23222,23.037078,0.0 120.228641,23.033499,0.0 120.226845,23.031652,0.0 120.227006,23.031129,0.0 120.227744,23.03104,0.0 120.22884,23.030486,0.0 120.229282,23.030511,0.0 120.230707,23.030339,0.0 120.231792,23.030035,0.0 120.232797,23.029735,0.0 120.233417,23.029724,0.0 120.234486,23.026224,0.0 120.246072,23.032953,0.0 120.250282,23.036104,0.0</coordinates></LinearRing></outerBoundaryIs></Polygon><styleUrl>#spolygon-map</styleUrl></Placemark><Placemark><Polygon><outerBoundaryIs><LinearRing><coordinates>120.241308,23.048942,0.0 120.238252,23.049894,0.0 120.235883,23.049047,0.0 120.234604,23.049179,0.0 120.233053,23.048203,0.0 120.231171,23.04688,0.0 120.229239,23.04583,0.0 120.227783,23.044538,0.0 120.226153,23.042884,0.0 120.22503,23.041387,0.0 120.223465,23.038207,0.0 120.223173,23.036242,0.0 120.222003,23.034364,0.0 120.221047,23.032691,0.0 120.223084,23.031936,0.0 120.224029,23.032803,0.0 120.225492,23.031586,0.0 120.227058,23.031865,0.0 120.229518,23.034461,0.0 120.232599,23.037409,0.0 120.235276,23.039688,0.0 120.236841,23.040995,0.0 120.237203,23.041461,0.0 120.23834,23.042685,0.0 120.239504,23.045137,0.0 120.241133,23.048563,0.0 120.241308,23.048942,0.0</coordinates></LinearRing></outerBoundaryIs></Polygon><styleUrl>#spolygon-map</styleUrl></Placemark><Placemark><Polygon><outerBoundaryIs><LinearRing><coordinates>120.268506,23.05089,0.0 120.266521,23.053795,0.0 120.260722,23.050755,0.0 120.252791,23.049999,0.0 120.247671,23.049522,0.0 120.247277,23.045395,0.0 120.251589,23.043141,0.0 120.250714,23.03873,0.0 120.250715,23.036499,0.0 120.257983,23.042336,0.0 120.261926,23.045516,0.0 120.26622,23.049033,0.0 120.268506,23.05089,0.0</coordinates></LinearRing></outerBoundaryIs></Polygon><styleUrl>#spolygon-map</styleUrl></Placemark><Placemark><Polygon><outerBoundaryIs><LinearRing><coordinates>120.277823,23.058501,0.0 120.274224,23.055552,0.0 120.265257,23.04825,0.0 120.268446,23.036955,0.0 120.267864,23.035128,0.0 120.267476,23.033826,0.0 120.267573,23.031935,0.0 120.270686,23.030088,0.0 120.27397,23.030035,0.0 120.28081,23.031876,0.0 120.285944,23.033706,0.0 120.287298,23.034482,0.0 120.286336,23.034927,0.0 120.285366,23.035842,0.0 120.284782,23.03686,0.0 120.284226,23.037258,0.0 120.283071,23.037432,0.0 120.282413,23.037944,0.0 120.281916,23.039242,0.0 120.281768,23.040383,0.0 120.282127,23.042123,0.0 120.282989,23.043462,0.0 120.283945,23.04375,0.0 120.28497,23.044387,0.0 120.285907,23.045398,0.0 120.28659,23.046074,0.0 120.28676,23.047009,0.0 120.286695,23.047621,0.0 120.285608,23.048054,0.0 120.285099,23.048345,0.0 120.2843,23.049012,0.0 120.284076,23.049733,0.0 120.283646,23.050438,0.0 120.282959,23.05089,0.0 120.281706,23.051506,0.0 120.281543,23.052268,0.0 120.280629,23.053215,0.0 120.279321,23.054238,0.0 120.278323,23.055173,0.0 120.277879,23.055943,0.0 120.277913,23.057054,0.0 120.277847,23.058352,0.0 120.277823,23.058501,0.0</coordinates></LinearRing></outerBoundaryIs></Polygon><styleUrl>#spolygon-map</styleUrl></Placemark><Placemark><Polygon><outerBoundaryIs><LinearRing><coordinates>120.272369,23.059275,0.0 120.271979,23.059424,0.0 120.271081,23.059354,0.0 120.270314,23.059473,0.0 120.26953,23.060158,0.0 120.268462,23.060737,0.0 120.267532,23.060819,0.0 120.266497,23.060913,0.0 120.265542,23.061056,0.0 120.264521,23.061782,0.0 120.263662,23.06193,0.0 120.262812,23.061775,0.0 120.262087,23.06173,0.0 120.261455,23.061545,0.0 120.260728,23.061424,0.0 120.26045,23.061102,0.0 120.26039,23.060524,0.0 120.259871,23.059777,0.0 120.259488,23.059556,0.0 120.259021,23.059976,0.0 120.258623,23.059509,0.0 120.257992,23.05977,0.0 120.257088,23.059711,0.0 120.256325,23.060284,0.0 120.255987,23.060941,0.0 120.255588,23.061416,0.0 120.254893,23.061643,0.0 120.254506,23.061578,0.0 120.253991,23.061374,0.0 120.25329,23.061202,0.0 120.252876,23.06127,0.0 120.252541,23.061622,0.0 120.252348,23.062678,0.0 120.252132,23.063914,0.0 120.251885,23.065317,0.0 120.251766,23.065861,0.0 120.252187,23.066603,0.0 120.251636,23.066788,0.0 120.251088,23.06676,0.0 120.25028,23.066721,0.0 120.249628,23.066693,0.0 120.249053,23.066796,0.0 120.248474,23.06699,0.0 120.248506,23.06738,0.0 120.248227,23.067607,0.0 120.247847,23.067386,0.0 120.247499,23.067227,0.0 120.247214,23.066613,0.0 120.247047,23.066053,0.0 120.24657,23.06431,0.0 120.245854,23.061787,0.0 120.245578,23.060391,0.0 120.245249,23.05905,0.0 120.244617,23.057381,0.0 120.243074,23.055782,0.0 120.242088,23.053658,0.0 120.240417,23.051383,0.0 120.241571,23.04867,0.0 120.247954,23.049624,0.0 120.256454,23.050196,0.0 120.261005,23.050873,0.0 120.267155,23.052783,0.0 120.271607,23.053396,0.0 120.276964,23.057829,0.0 120.277731,23.05899,0.0 120.276983,23.059668,0.0 120.275736,23.059552,0.0 120.274858,23.059552,0.0 120.27264,23.059287,0.0 120.272369,23.059275,0.0</coordinates></LinearRing></outerBoundaryIs></Polygon><styleUrl>#spolygon-map</styleUrl></Placemark></Document>
</kml>
