<?xml version="1.0" encoding="UTF-8"?>
<kml xmlns="http://www.opengis.net/kml/2.2">
	<Document>
		<name>臺南市官田區</name>
		<Style id="spolygon">
			<LabelStyle>
				<scale>0.0</scale>
			</LabelStyle>
			<LineStyle>
				<color>330030ff</color>
				<width>0</width>
			</LineStyle>
			<PolyStyle>
				<color>330030ff</color>
			</PolyStyle>
		</Style>
		<StyleMap id="spolygon-map">
			<Pair>
				<key>normal</key>
				<styleUrl>#spolygon</styleUrl>
			</Pair>
		</StyleMap>
	<Placemark><Polygon><outerBoundaryIs><LinearRing><coordinates>120.362373,23.161075,0.0 120.362018,23.160773,0.0 120.361604,23.160538,0.0 120.361168,23.160581,0.0 120.361022,23.161348,0.0 120.36099,23.161715,0.0 120.361119,23.161811,0.0 120.361498,23.16178,0.0 120.361942,23.161886,0.0 120.362239,23.162179,0.0 120.361892,23.162513,0.0 120.361428,23.162503,0.0 120.361203,23.162291,0.0 120.361041,23.162243,0.0 120.360775,23.162273,0.0 120.360573,23.162406,0.0 120.360498,23.162655,0.0 120.36046,23.163051,0.0 120.360543,23.163454,0.0 120.360579,23.163935,0.0 120.360466,23.164109,0.0 120.360202,23.164386,0.0 120.35991,23.164638,0.0 120.359583,23.164707,0.0 120.359479,23.164588,0.0 120.359488,23.16441,0.0 120.359655,23.16412,0.0 120.359817,23.163907,0.0 120.359957,23.163674,0.0 120.359843,23.163459,0.0 120.359536,23.163159,0.0 120.359017,23.162823,0.0 120.358413,23.162561,0.0 120.35804,23.162445,0.0 120.357729,23.162935,0.0 120.357446,23.163606,0.0 120.357155,23.163643,0.0 120.356775,23.163085,0.0 120.356305,23.161807,0.0 120.356012,23.161482,0.0 120.355427,23.161553,0.0 120.354534,23.162084,0.0 120.354253,23.162329,0.0 120.354072,23.162547,0.0 120.354054,23.163527,0.0 120.354179,23.164258,0.0 120.354232,23.164722,0.0 120.353964,23.165004,0.0 120.353742,23.164932,0.0 120.353501,23.164909,0.0 120.352654,23.165176,0.0 120.352432,23.165389,0.0 120.352593,23.165545,0.0 120.353169,23.165809,0.0 120.353201,23.16615,0.0 120.354578,23.167089,0.0 120.35359,23.173286,0.0 120.352178,23.173116,0.0 120.352147,23.17463,0.0 120.351536,23.175057,0.0 120.350697,23.175651,0.0 120.352663,23.181735,0.0 120.351045,23.182665,0.0 120.34555,23.182421,0.0 120.342225,23.18105,0.0 120.341953,23.179792,0.0 120.343351,23.177086,0.0 120.340689,23.177197,0.0 120.339525,23.177948,0.0 120.338743,23.178248,0.0 120.33782,23.178709,0.0 120.336469,23.178173,0.0 120.334981,23.175507,0.0 120.333328,23.176723,0.0 120.332654,23.173716,0.0 120.331819,23.173024,0.0 120.330782,23.173767,0.0 120.329106,23.174789,0.0 120.327894,23.174468,0.0 120.327624,23.173588,0.0 120.329294,23.171419,0.0 120.326311,23.17021,0.0 120.325067,23.170184,0.0 120.323023,23.169092,0.0 120.322304,23.168696,0.0 120.321797,23.168242,0.0 120.32126,23.168258,0.0 120.321586,23.167476,0.0 120.32284,23.166506,0.0 120.324996,23.164829,0.0 120.326893,23.163386,0.0 120.32874,23.161965,0.0 120.330256,23.160777,0.0 120.331262,23.159702,0.0 120.332961,23.159154,0.0 120.334779,23.158037,0.0 120.336378,23.157168,0.0 120.338232,23.15617,0.0 120.339166,23.155484,0.0 120.343505,23.153066,0.0 120.345469,23.151447,0.0 120.346064,23.151685,0.0 120.346357,23.151518,0.0 120.346603,23.151532,0.0 120.346798,23.15134,0.0 120.347195,23.15102,0.0 120.34752,23.150887,0.0 120.347996,23.150935,0.0 120.348207,23.15105,0.0 120.348714,23.150889,0.0 120.349273,23.150618,0.0 120.350048,23.15066,0.0 120.350742,23.150831,0.0 120.351192,23.151214,0.0 120.351552,23.151351,0.0 120.352537,23.151421,0.0 120.352776,23.151298,0.0 120.353063,23.151515,0.0 120.353301,23.151819,0.0 120.353437,23.152002,0.0 120.353621,23.152258,0.0 120.353687,23.152608,0.0 120.353673,23.152851,0.0 120.353674,23.153004,0.0 120.354595,23.154744,0.0 120.354865,23.154986,0.0 120.355474,23.155284,0.0 120.356235,23.154803,0.0 120.356608,23.154567,0.0 120.357635,23.1549,0.0 120.358048,23.154772,0.0 120.358598,23.15497,0.0 120.358663,23.155209,0.0 120.358738,23.155439,0.0 120.358963,23.155674,0.0 120.359538,23.155901,0.0 120.359651,23.156321,0.0 120.359874,23.156695,0.0 120.360279,23.15664,0.0 120.361225,23.156621,0.0 120.361778,23.157014,0.0 120.362041,23.157926,0.0 120.362179,23.158977,0.0 120.361934,23.1598,0.0 120.361981,23.160547,0.0 120.362373,23.161075,0.0</coordinates></LinearRing></outerBoundaryIs></Polygon><styleUrl>#spolygon-map</styleUrl></Placemark><Placemark><Polygon><outerBoundaryIs><LinearRing><coordinates>120.327575,23.186385,0.0 120.32369,23.186376,0.0 120.323158,23.186066,0.0 120.321077,23.185678,0.0 120.320092,23.182916,0.0 120.316588,23.180188,0.0 120.31576,23.179959,0.0 120.313716,23.178672,0.0 120.313365,23.177412,0.0 120.311522,23.177032,0.0 120.311441,23.175812,0.0 120.308785,23.172543,0.0 120.310633,23.171919,0.0 120.313249,23.170989,0.0 120.316296,23.16995,0.0 120.31856,23.169156,0.0 120.320473,23.168302,0.0 120.321287,23.168335,0.0 120.32194,23.168313,0.0 120.322485,23.168731,0.0 120.323371,23.169252,0.0 120.325283,23.170226,0.0 120.326768,23.170232,0.0 120.32914,23.171798,0.0 120.327619,23.173737,0.0 120.32804,23.174547,0.0 120.329633,23.174683,0.0 120.330877,23.173336,0.0 120.331946,23.173112,0.0 120.332573,23.176084,0.0 120.333499,23.176623,0.0 120.33519,23.175528,0.0 120.336607,23.178403,0.0 120.338038,23.178622,0.0 120.333961,23.179372,0.0 120.330639,23.179928,0.0 120.329824,23.179449,0.0 120.329146,23.180088,0.0 120.328716,23.180094,0.0 120.328721,23.180552,0.0 120.328554,23.180866,0.0 120.328271,23.181124,0.0 120.3281,23.181627,0.0 120.327858,23.181882,0.0 120.32705,23.181923,0.0 120.326742,23.182147,0.0 120.326454,23.182885,0.0 120.326213,23.183696,0.0 120.326625,23.184177,0.0 120.327575,23.186385,0.0</coordinates></LinearRing></outerBoundaryIs></Polygon><styleUrl>#spolygon-map</styleUrl></Placemark><Placemark><Polygon><outerBoundaryIs><LinearRing><coordinates>120.294798,23.176405,0.0 120.295038,23.178645,0.0 120.295246,23.180158,0.0 120.295518,23.184259,0.0 120.295632,23.185052,0.0 120.295696,23.186033,0.0 120.29641,23.185944,0.0 120.297038,23.186063,0.0 120.296987,23.186638,0.0 120.297151,23.18705,0.0 120.296185,23.187241,0.0 120.295146,23.187397,0.0 120.294085,23.18732,0.0 120.294299,23.187537,0.0 120.291161,23.187832,0.0 120.290901,23.187057,0.0 120.290435,23.183927,0.0 120.290165,23.180619,0.0 120.289904,23.177139,0.0 120.294798,23.176405,0.0</coordinates></LinearRing></outerBoundaryIs></Polygon><styleUrl>#spolygon-map</styleUrl></Placemark><Placemark><Polygon><outerBoundaryIs><LinearRing><coordinates>120.382513,23.164654,0.0 120.381244,23.171614,0.0 120.381185,23.171825,0.0 120.381058,23.172034,0.0 120.380858,23.172134,0.0 120.380817,23.172299,0.0 120.380749,23.172636,0.0 120.380517,23.172656,0.0 120.380419,23.172733,0.0 120.380431,23.172963,0.0 120.380178,23.173293,0.0 120.37928,23.173179,0.0 120.378817,23.172957,0.0 120.378487,23.172909,0.0 120.378221,23.172915,0.0 120.377984,23.172847,0.0 120.377758,23.172693,0.0 120.377453,23.17276,0.0 120.377172,23.172999,0.0 120.37706,23.173099,0.0 120.377069,23.173284,0.0 120.377495,23.173679,0.0 120.377448,23.173896,0.0 120.377136,23.174023,0.0 120.376853,23.174333,0.0 120.3767,23.175035,0.0 120.376354,23.175619,0.0 120.375896,23.175846,0.0 120.375411,23.175868,0.0 120.375158,23.176062,0.0 120.375007,23.176281,0.0 120.374758,23.176375,0.0 120.374397,23.176448,0.0 120.37435,23.17687,0.0 120.374042,23.177163,0.0 120.374036,23.17753,0.0 120.374158,23.178104,0.0 120.374136,23.17911,0.0 120.37394,23.179405,0.0 120.37365,23.17999,0.0 120.37339,23.180599,0.0 120.373036,23.180859,0.0 120.372558,23.181682,0.0 120.372058,23.18203,0.0 120.371649,23.182184,0.0 120.371273,23.182302,0.0 120.370394,23.182832,0.0 120.370052,23.183185,0.0 120.369927,23.183581,0.0 120.369585,23.183677,0.0 120.368517,23.18345,0.0 120.367383,23.183663,0.0 120.365622,23.184264,0.0 120.365676,23.184685,0.0 120.366106,23.184861,0.0 120.366297,23.18501,0.0 120.366215,23.185864,0.0 120.366441,23.186317,0.0 120.366406,23.186657,0.0 120.366532,23.186909,0.0 120.366987,23.187441,0.0 120.367003,23.187832,0.0 120.366973,23.188251,0.0 120.367196,23.188902,0.0 120.367454,23.189332,0.0 120.367464,23.189963,0.0 120.367084,23.190249,0.0 120.366257,23.190371,0.0 120.365923,23.190425,0.0 120.364662,23.190141,0.0 120.36422,23.189921,0.0 120.363619,23.189829,0.0 120.362286,23.189636,0.0 120.361731,23.189569,0.0 120.360853,23.189306,0.0 120.360525,23.189126,0.0 120.359929,23.189203,0.0 120.359459,23.189022,0.0 120.358241,23.188529,0.0 120.357846,23.188069,0.0 120.357088,23.187328,0.0 120.356006,23.186734,0.0 120.355154,23.186666,0.0 120.353787,23.185948,0.0 120.354267,23.183825,0.0 120.352337,23.18069,0.0 120.351011,23.174824,0.0 120.351761,23.1755,0.0 120.352257,23.174078,0.0 120.352738,23.173504,0.0 120.353847,23.171994,0.0 120.353404,23.166872,0.0 120.3532,23.166035,0.0 120.352962,23.165689,0.0 120.352486,23.165478,0.0 120.352438,23.165337,0.0 120.352884,23.165089,0.0 120.35359,23.164887,0.0 120.353781,23.164954,0.0 120.35409,23.164993,0.0 120.354251,23.164521,0.0 120.354147,23.164142,0.0 120.353991,23.163017,0.0 120.35412,23.162479,0.0 120.354283,23.162282,0.0 120.35493,23.161835,0.0 120.35568,23.161478,0.0 120.356169,23.161511,0.0 120.356436,23.16211,0.0 120.356885,23.163403,0.0 120.357266,23.16365,0.0 120.35752,23.163509,0.0 120.357865,23.1626,0.0 120.358068,23.162445,0.0 120.358593,23.162632,0.0 120.359218,23.162941,0.0 120.359734,23.163333,0.0 120.359909,23.163543,0.0 120.35995,23.163724,0.0 120.359737,23.163988,0.0 120.359546,23.164279,0.0 120.359475,23.164466,0.0 120.359491,23.164632,0.0 120.35965,23.164715,0.0 120.360012,23.164579,0.0 120.360256,23.164317,0.0 120.360525,23.164042,0.0 120.36059,23.163784,0.0 120.360489,23.16326,0.0 120.360466,23.162949,0.0 120.360527,23.162551,0.0 120.360621,23.162354,0.0 120.360903,23.162241,0.0 120.361092,23.162247,0.0 120.361243,23.162333,0.0 120.361626,23.162535,0.0 120.362212,23.162256,0.0 120.362211,23.162081,0.0 120.361746,23.161808,0.0 120.361332,23.161794,0.0 120.361049,23.161808,0.0 120.361004,23.161563,0.0 120.361058,23.160975,0.0 120.361263,23.16053,0.0 120.361678,23.160567,0.0 120.36217,23.160891,0.0 120.362483,23.161144,0.0 120.362795,23.161315,0.0 120.36293,23.161302,0.0 120.363024,23.161264,0.0 120.363301,23.161283,0.0 120.363482,23.161324,0.0 120.363698,23.161234,0.0 120.364122,23.160912,0.0 120.364365,23.16094,0.0 120.3647,23.160943,0.0 120.364898,23.161253,0.0 120.364801,23.16146,0.0 120.364724,23.161704,0.0 120.364813,23.161918,0.0 120.365355,23.162101,0.0 120.366093,23.16306,0.0 120.366145,23.163316,0.0 120.366147,23.163501,0.0 120.366465,23.163524,0.0 120.36683,23.163427,0.0 120.367087,23.163471,0.0 120.3673,23.163575,0.0 120.367672,23.163711,0.0 120.367803,23.163887,0.0 120.367972,23.164019,0.0 120.368069,23.164223,0.0 120.368237,23.164257,0.0 120.368642,23.164154,0.0 120.368832,23.163969,0.0 120.368957,23.163803,0.0 120.369167,23.163704,0.0 120.369321,23.163757,0.0 120.369432,23.164024,0.0 120.369496,23.164289,0.0 120.369619,23.164431,0.0 120.370193,23.164624,0.0 120.370691,23.164823,0.0 120.371085,23.164847,0.0 120.371234,23.164807,0.0 120.371611,23.164598,0.0 120.371639,23.164781,0.0 120.371448,23.165004,0.0 120.371409,23.165186,0.0 120.37144,23.165418,0.0 120.371532,23.165457,0.0 120.371828,23.165364,0.0 120.372177,23.165251,0.0 120.372638,23.165102,0.0 120.373041,23.164949,0.0 120.373499,23.164666,0.0 120.373816,23.164689,0.0 120.373954,23.164844,0.0 120.374138,23.1649,0.0 120.37425,23.164891,0.0 120.374386,23.16485,0.0 120.37509,23.164767,0.0 120.375304,23.164684,0.0 120.375627,23.164681,0.0 120.375789,23.164552,0.0 120.375885,23.164528,0.0 120.375991,23.164584,0.0 120.376101,23.164846,0.0 120.376282,23.165168,0.0 120.376273,23.165343,0.0 120.376238,23.165477,0.0 120.376346,23.165519,0.0 120.376556,23.165433,0.0 120.376753,23.165239,0.0 120.376786,23.165022,0.0 120.376571,23.164624,0.0 120.376574,23.16428,0.0 120.376909,23.164254,0.0 120.377266,23.164409,0.0 120.377473,23.164535,0.0 120.377636,23.164496,0.0 120.377737,23.164295,0.0 120.377828,23.163879,0.0 120.377932,23.163718,0.0 120.378136,23.163618,0.0 120.378382,23.1637,0.0 120.378627,23.163899,0.0 120.378841,23.164059,0.0 120.379377,23.16429,0.0 120.379622,23.16444,0.0 120.379823,23.164619,0.0 120.380298,23.164568,0.0 120.380509,23.164646,0.0 120.38081,23.164596,0.0 120.381598,23.164743,0.0 120.381863,23.164822,0.0 120.382513,23.164654,0.0</coordinates></LinearRing></outerBoundaryIs></Polygon><styleUrl>#spolygon-map</styleUrl></Placemark><Placemark><Polygon><outerBoundaryIs><LinearRing><coordinates>120.32496,23.192279,0.0 120.323347,23.194424,0.0 120.321953,23.195215,0.0 120.319163,23.196585,0.0 120.317669,23.197925,0.0 120.316951,23.198417,0.0 120.31811,23.196782,0.0 120.318129,23.196265,0.0 120.316992,23.195156,0.0 120.315448,23.193754,0.0 120.314432,23.192865,0.0 120.309189,23.193748,0.0 120.305399,23.194906,0.0 120.29863,23.197577,0.0 120.296072,23.198957,0.0 120.296273,23.196056,0.0 120.296904,23.193602,0.0 120.298501,23.192969,0.0 120.300174,23.193215,0.0 120.301641,23.190305,0.0 120.303364,23.189335,0.0 120.304003,23.188535,0.0 120.304563,23.188154,0.0 120.305151,23.187671,0.0 120.305977,23.188024,0.0 120.306385,23.188907,0.0 120.306755,23.189137,0.0 120.307311,23.188966,0.0 120.307927,23.187934,0.0 120.308134,23.187463,0.0 120.308428,23.187002,0.0 120.308534,23.185986,0.0 120.30848,23.185518,0.0 120.308731,23.184959,0.0 120.309143,23.184143,0.0 120.309489,23.183743,0.0 120.310173,23.182801,0.0 120.310634,23.182234,0.0 120.310928,23.181981,0.0 120.311238,23.181541,0.0 120.311713,23.181205,0.0 120.311975,23.180549,0.0 120.312824,23.178826,0.0 120.313528,23.178514,0.0 120.31428,23.178914,0.0 120.315971,23.180048,0.0 120.316488,23.182445,0.0 120.320119,23.185544,0.0 120.322254,23.185896,0.0 120.323459,23.186258,0.0 120.324684,23.186416,0.0 120.329986,23.186094,0.0 120.330613,23.186079,0.0 120.328622,23.187237,0.0 120.325089,23.192092,0.0 120.32496,23.192279,0.0</coordinates></LinearRing></outerBoundaryIs></Polygon><styleUrl>#spolygon-map</styleUrl></Placemark><Placemark><Polygon><outerBoundaryIs><LinearRing><coordinates>120.296072,23.198957,0.0 120.293548,23.199632,0.0 120.291997,23.19944,0.0 120.289961,23.199265,0.0 120.288585,23.198924,0.0 120.288457,23.198247,0.0 120.287565,23.197574,0.0 120.288174,23.195354,0.0 120.288142,23.19505,0.0 120.287912,23.194697,0.0 120.287765,23.194386,0.0 120.287477,23.192918,0.0 120.287511,23.191265,0.0 120.288613,23.191123,0.0 120.288741,23.18969,0.0 120.289913,23.188821,0.0 120.293186,23.188626,0.0 120.294147,23.187433,0.0 120.294462,23.187054,0.0 120.296001,23.18709,0.0 120.296826,23.187533,0.0 120.297003,23.186891,0.0 120.297074,23.186449,0.0 120.296879,23.18575,0.0 120.295965,23.186094,0.0 120.295683,23.185657,0.0 120.295616,23.184898,0.0 120.295298,23.1834,0.0 120.295121,23.179373,0.0 120.294904,23.177438,0.0 120.294988,23.176415,0.0 120.298466,23.176389,0.0 120.301202,23.176036,0.0 120.304591,23.175454,0.0 120.306575,23.174931,0.0 120.307578,23.174064,0.0 120.308189,23.173531,0.0 120.30863,23.17277,0.0 120.311433,23.175801,0.0 120.311484,23.17692,0.0 120.313354,23.177373,0.0 120.313571,23.178485,0.0 120.313071,23.178634,0.0 120.312287,23.179971,0.0 120.311711,23.181046,0.0 120.311459,23.181486,0.0 120.311019,23.181828,0.0 120.310692,23.18211,0.0 120.310477,23.182326,0.0 120.309593,23.183551,0.0 120.309279,23.183972,0.0 120.308822,23.184556,0.0 120.308586,23.185244,0.0 120.308499,23.185736,0.0 120.308473,23.186989,0.0 120.30826,23.187082,0.0 120.307993,23.187755,0.0 120.307498,23.188814,0.0 120.306889,23.189176,0.0 120.306452,23.189099,0.0 120.306125,23.188156,0.0 120.305566,23.187766,0.0 120.304659,23.18794,0.0 120.304224,23.188381,0.0 120.303558,23.188822,0.0 120.302471,23.190069,0.0 120.300987,23.191435,0.0 120.298609,23.193405,0.0 120.297416,23.192878,0.0 120.29645,23.195434,0.0 120.296076,23.198127,0.0 120.296072,23.198957,0.0</coordinates></LinearRing></outerBoundaryIs></Polygon><styleUrl>#spolygon-map</styleUrl></Placemark><Placemark><Polygon><outerBoundaryIs><LinearRing><coordinates>120.359364,23.197788,0.0 120.359212,23.199637,0.0 120.356436,23.201088,0.0 120.355101,23.201655,0.0 120.351617,23.203056,0.0 120.350594,23.202813,0.0 120.346757,23.200782,0.0 120.345253,23.199844,0.0 120.344808,23.199647,0.0 120.344142,23.199097,0.0 120.343482,23.198765,0.0 120.343031,23.198334,0.0 120.342254,23.198027,0.0 120.341918,23.197732,0.0 120.340847,23.197542,0.0 120.340105,23.197395,0.0 120.338945,23.197396,0.0 120.338031,23.197791,0.0 120.336913,23.198282,0.0 120.336682,23.197847,0.0 120.336368,23.197032,0.0 120.336555,23.196517,0.0 120.336474,23.195809,0.0 120.335976,23.195421,0.0 120.336764,23.194465,0.0 120.335748,23.193706,0.0 120.335196,23.19414,0.0 120.334239,23.194619,0.0 120.333566,23.194507,0.0 120.33286,23.194472,0.0 120.332175,23.194061,0.0 120.33155,23.193681,0.0 120.329727,23.193354,0.0 120.326794,23.192883,0.0 120.325154,23.1923,0.0 120.325772,23.191148,0.0 120.328937,23.186998,0.0 120.330583,23.186049,0.0 120.328235,23.186374,0.0 120.326751,23.184243,0.0 120.32624,23.183774,0.0 120.326432,23.182936,0.0 120.326689,23.182218,0.0 120.326946,23.181906,0.0 120.327782,23.181914,0.0 120.328074,23.181698,0.0 120.32825,23.18117,0.0 120.328475,23.180916,0.0 120.328739,23.180574,0.0 120.328651,23.180206,0.0 120.329071,23.180071,0.0 120.329367,23.180028,0.0 120.330501,23.179911,0.0 120.332952,23.179377,0.0 120.337764,23.179558,0.0 120.338743,23.178248,0.0 120.339525,23.177948,0.0 120.340689,23.177197,0.0 120.343351,23.177086,0.0 120.341953,23.179792,0.0 120.342225,23.18105,0.0 120.34555,23.182421,0.0 120.351045,23.182665,0.0 120.354267,23.183825,0.0 120.353563,23.186246,0.0 120.353321,23.187749,0.0 120.359772,23.191751,0.0 120.359252,23.194636,0.0 120.358836,23.197046,0.0 120.359364,23.197788,0.0</coordinates></LinearRing></outerBoundaryIs></Polygon><styleUrl>#spolygon-map</styleUrl></Placemark><Placemark><Polygon><outerBoundaryIs><LinearRing><coordinates>120.331647,23.194259,0.0 120.331035,23.19451,0.0 120.330554,23.194386,0.0 120.329929,23.19492,0.0 120.32927,23.195373,0.0 120.328387,23.195699,0.0 120.327559,23.195979,0.0 120.326324,23.195703,0.0 120.325579,23.196609,0.0 120.325144,23.197666,0.0 120.324417,23.198449,0.0 120.323664,23.200122,0.0 120.322245,23.200373,0.0 120.32153,23.200929,0.0 120.320204,23.200676,0.0 120.318815,23.200827,0.0 120.318063,23.205683,0.0 120.317449,23.205548,0.0 120.315669,23.203769,0.0 120.314564,23.202627,0.0 120.308841,23.20164,0.0 120.305072,23.203583,0.0 120.304847,23.203873,0.0 120.303808,23.204173,0.0 120.303033,23.204024,0.0 120.302142,23.203952,0.0 120.300927,23.204088,0.0 120.300016,23.203998,0.0 120.29875,23.203717,0.0 120.298732,23.203252,0.0 120.298577,23.202928,0.0 120.29761,23.202688,0.0 120.297676,23.203463,0.0 120.296462,23.203667,0.0 120.295404,23.204664,0.0 120.294647,23.204617,0.0 120.293348,23.205399,0.0 120.292725,23.205264,0.0 120.292662,23.204756,0.0 120.292772,23.204095,0.0 120.292842,23.203136,0.0 120.292823,23.202458,0.0 120.292367,23.201885,0.0 120.29186,23.201766,0.0 120.291163,23.201602,0.0 120.290075,23.202112,0.0 120.288222,23.200441,0.0 120.287886,23.199691,0.0 120.288319,23.198851,0.0 120.289766,23.199242,0.0 120.291724,23.199387,0.0 120.293331,23.199638,0.0 120.295692,23.19912,0.0 120.29853,23.197633,0.0 120.305256,23.19496,0.0 120.308328,23.193892,0.0 120.314234,23.192885,0.0 120.315119,23.193449,0.0 120.316781,23.194969,0.0 120.318114,23.196241,0.0 120.318142,23.196706,0.0 120.316939,23.198408,0.0 120.31724,23.198469,0.0 120.318903,23.196745,0.0 120.321576,23.195396,0.0 120.323125,23.194612,0.0 120.324275,23.193211,0.0 120.326017,23.192651,0.0 120.329191,23.193357,0.0 120.330322,23.193241,0.0 120.331647,23.194259,0.0</coordinates></LinearRing></outerBoundaryIs></Polygon><styleUrl>#spolygon-map</styleUrl></Placemark><Placemark><Polygon><outerBoundaryIs><LinearRing><coordinates>120.416888,23.204592,0.0 120.415765,23.204573,0.0 120.415095,23.205101,0.0 120.415005,23.205608,0.0 120.413876,23.206096,0.0 120.413374,23.206666,0.0 120.412212,23.206469,0.0 120.412397,23.205937,0.0 120.412508,23.205087,0.0 120.411889,23.204933,0.0 120.411124,23.205181,0.0 120.410567,23.205249,0.0 120.409757,23.205541,0.0 120.408682,23.205853,0.0 120.407322,23.205787,0.0 120.406263,23.206034,0.0 120.404898,23.206399,0.0 120.403938,23.206747,0.0 120.402749,23.206728,0.0 120.401653,23.206439,0.0 120.400519,23.206793,0.0 120.399897,23.206676,0.0 120.399089,23.206539,0.0 120.397954,23.206966,0.0 120.397068,23.206845,0.0 120.396227,23.206393,0.0 120.395045,23.206278,0.0 120.394075,23.206116,0.0 120.392837,23.206452,0.0 120.392465,23.206065,0.0 120.392273,23.205145,0.0 120.391265,23.204633,0.0 120.390587,23.204159,0.0 120.389772,23.20374,0.0 120.388983,23.203442,0.0 120.38914,23.203002,0.0 120.389027,23.202105,0.0 120.388232,23.201752,0.0 120.387789,23.200911,0.0 120.387277,23.200473,0.0 120.386649,23.200428,0.0 120.386185,23.198837,0.0 120.385675,23.198875,0.0 120.385096,23.198925,0.0 120.384585,23.19869,0.0 120.383966,23.198164,0.0 120.382466,23.196833,0.0 120.380878,23.195852,0.0 120.371468,23.195703,0.0 120.366267,23.195593,0.0 120.361872,23.196929,0.0 120.358836,23.197046,0.0 120.359252,23.194636,0.0 120.359772,23.191751,0.0 120.353321,23.187749,0.0 120.353563,23.186246,0.0 120.355059,23.186627,0.0 120.355493,23.186703,0.0 120.357026,23.187227,0.0 120.357449,23.187825,0.0 120.358046,23.188432,0.0 120.358845,23.188758,0.0 120.359754,23.189186,0.0 120.360437,23.189107,0.0 120.360702,23.189287,0.0 120.361322,23.189451,0.0 120.36209,23.189603,0.0 120.363059,23.18975,0.0 120.364152,23.189887,0.0 120.364331,23.190057,0.0 120.365414,23.190273,0.0 120.36615,23.190423,0.0 120.366727,23.190251,0.0 120.367498,23.190059,0.0 120.367475,23.189516,0.0 120.367327,23.189087,0.0 120.366995,23.188441,0.0 120.367003,23.187976,0.0 120.367004,23.187525,0.0 120.366703,23.18706,0.0 120.366413,23.186721,0.0 120.366459,23.186435,0.0 120.366272,23.186043,0.0 120.366237,23.185542,0.0 120.36624,23.1849,0.0 120.365764,23.184745,0.0 120.365598,23.184396,0.0 120.365764,23.18381,0.0 120.368323,23.183458,0.0 120.369303,23.183667,0.0 120.369878,23.183624,0.0 120.370019,23.18334,0.0 120.370269,23.182893,0.0 120.370773,23.182755,0.0 120.371557,23.1822,0.0 120.371924,23.182132,0.0 120.372408,23.181796,0.0 120.372959,23.181,0.0 120.373279,23.180668,0.0 120.373547,23.180381,0.0 120.373814,23.179522,0.0 120.374095,23.179261,0.0 120.37414,23.178439,0.0 120.3741,23.177633,0.0 120.373967,23.177269,0.0 120.374259,23.177026,0.0 120.374386,23.176594,0.0 120.374652,23.176334,0.0 120.374918,23.176353,0.0 120.375111,23.176139,0.0 120.37526,23.175943,0.0 120.375719,23.175845,0.0 120.376218,23.175727,0.0 120.376619,23.175275,0.0 120.376818,23.174493,0.0 120.377029,23.17408,0.0 120.377348,23.173947,0.0 120.377512,23.173774,0.0 120.377166,23.173375,0.0 120.377039,23.173147,0.0 120.377124,23.173028,0.0 120.377369,23.172847,0.0 120.377678,23.172701,0.0 120.377918,23.172734,0.0 120.378095,23.172913,0.0 120.378339,23.172896,0.0 120.378708,23.173006,0.0 120.37907,23.173011,0.0 120.379802,23.173305,0.0 120.380412,23.173157,0.0 120.380415,23.172779,0.0 120.380476,23.172673,0.0 120.380654,23.172647,0.0 120.380854,23.172447,0.0 120.380828,23.172163,0.0 120.381012,23.17206,0.0 120.381161,23.171894,0.0 120.381208,23.171682,0.0 120.382777,23.167534,0.0 120.382634,23.164625,0.0 120.383034,23.164596,0.0 120.383276,23.164626,0.0 120.383437,23.16464,0.0 120.383567,23.164706,0.0 120.383777,23.164831,0.0 120.383929,23.16479,0.0 120.384084,23.164598,0.0 120.384515,23.164493,0.0 120.384592,23.164882,0.0 120.3847,23.165064,0.0 120.384965,23.165222,0.0 120.385224,23.165318,0.0 120.385336,23.165152,0.0 120.385226,23.164977,0.0 120.385172,23.164846,0.0 120.385387,23.164674,0.0 120.385619,23.164621,0.0 120.385791,23.164605,0.0 120.386006,23.164611,0.0 120.38629,23.16449,0.0 120.38681,23.164485,0.0 120.387449,23.164812,0.0 120.388474,23.164407,0.0 120.389237,23.164184,0.0 120.390095,23.163524,0.0 120.391567,23.163473,0.0 120.392383,23.164094,0.0 120.393106,23.16426,0.0 120.39388,23.164983,0.0 120.394419,23.165712,0.0 120.394385,23.166556,0.0 120.395661,23.166936,0.0 120.396574,23.167282,0.0 120.398058,23.167633,0.0 120.398542,23.168211,0.0 120.397682,23.168619,0.0 120.396549,23.169043,0.0 120.39573,23.169471,0.0 120.396282,23.170151,0.0 120.396728,23.171332,0.0 120.39671,23.171974,0.0 120.396893,23.173025,0.0 120.397516,23.173528,0.0 120.398188,23.173856,0.0 120.398785,23.173273,0.0 120.399296,23.172591,0.0 120.400136,23.172863,0.0 120.401052,23.173693,0.0 120.401517,23.174278,0.0 120.401735,23.175246,0.0 120.402221,23.175793,0.0 120.403187,23.17595,0.0 120.403952,23.17576,0.0 120.405006,23.175929,0.0 120.405406,23.174863,0.0 120.405641,23.174076,0.0 120.405983,23.173831,0.0 120.406461,23.174147,0.0 120.407034,23.174654,0.0 120.407869,23.174653,0.0 120.408398,23.174427,0.0 120.408645,23.175428,0.0 120.409557,23.177427,0.0 120.410347,23.177582,0.0 120.410986,23.178313,0.0 120.411627,23.178591,0.0 120.412742,23.179105,0.0 120.413542,23.178729,0.0 120.414846,23.178416,0.0 120.415555,23.179827,0.0 120.41636,23.181399,0.0 120.417248,23.183468,0.0 120.418503,23.185969,0.0 120.419567,23.186752,0.0 120.420095,23.188007,0.0 120.420572,23.189318,0.0 120.420868,23.190136,0.0 120.421508,23.190992,0.0 120.422229,23.192063,0.0 120.422404,23.193061,0.0 120.423365,23.194243,0.0 120.425121,23.195554,0.0 120.425586,23.196588,0.0 120.426135,23.197669,0.0 120.426848,23.198326,0.0 120.427496,23.198873,0.0 120.428512,23.199495,0.0 120.429608,23.200373,0.0 120.430497,23.201272,0.0 120.429858,23.201103,0.0 120.428578,23.20059,0.0 120.427587,23.20111,0.0 120.426937,23.201311,0.0 120.426211,23.200701,0.0 120.424661,23.19888,0.0 120.424115,23.199231,0.0 120.423578,23.199617,0.0 120.423334,23.200295,0.0 120.423443,23.200774,0.0 120.423225,23.201239,0.0 120.422668,23.201212,0.0 120.422343,23.200987,0.0 120.421932,23.200676,0.0 120.421126,23.201019,0.0 120.420421,23.20147,0.0 120.419465,23.202485,0.0 120.418378,23.203481,0.0 120.41754,23.204929,0.0 120.417289,23.20503,0.0 120.416903,23.204597,0.0 120.416888,23.204592,0.0</coordinates></LinearRing></outerBoundaryIs></Polygon><styleUrl>#spolygon-map</styleUrl></Placemark><Placemark><Polygon><outerBoundaryIs><LinearRing><coordinates>120.366758,23.215516,0.0 120.366358,23.215637,0.0 120.365852,23.21541,0.0 120.365381,23.215168,0.0 120.36463,23.215095,0.0 120.363827,23.2153,0.0 120.362887,23.215594,0.0 120.362423,23.215574,0.0 120.362428,23.214829,0.0 120.362032,23.214035,0.0 120.361611,23.213641,0.0 120.361074,23.21361,0.0 120.360421,23.213189,0.0 120.359903,23.213142,0.0 120.359208,23.21278,0.0 120.358615,23.21289,0.0 120.358086,23.213633,0.0 120.357581,23.214326,0.0 120.35645,23.214795,0.0 120.355875,23.215342,0.0 120.356162,23.216034,0.0 120.355136,23.216222,0.0 120.353678,23.215954,0.0 120.353262,23.215028,0.0 120.352913,23.213926,0.0 120.352499,23.212639,0.0 120.351767,23.210365,0.0 120.351249,23.208743,0.0 120.351103,23.208255,0.0 120.350966,23.207783,0.0 120.35041,23.205759,0.0 120.35029,23.205255,0.0 120.350241,23.204889,0.0 120.350246,23.204539,0.0 120.350383,23.203845,0.0 120.350581,23.20288,0.0 120.351691,23.20306,0.0 120.355346,23.201552,0.0 120.356495,23.201063,0.0 120.359046,23.199327,0.0 120.359586,23.197778,0.0 120.364406,23.195673,0.0 120.369696,23.195659,0.0 120.380339,23.19594,0.0 120.380065,23.196986,0.0 120.379081,23.19824,0.0 120.378136,23.199622,0.0 120.377108,23.200329,0.0 120.375965,23.201544,0.0 120.374434,23.203908,0.0 120.373724,23.204668,0.0 120.372704,23.204104,0.0 120.371866,23.204464,0.0 120.371559,23.205332,0.0 120.371105,23.206541,0.0 120.370934,23.207305,0.0 120.371007,23.20813,0.0 120.370696,23.208686,0.0 120.37055,23.209286,0.0 120.370645,23.209687,0.0 120.370326,23.21031,0.0 120.370607,23.210559,0.0 120.370697,23.21102,0.0 120.37086,23.211703,0.0 120.371049,23.212218,0.0 120.370393,23.212967,0.0 120.370636,23.213465,0.0 120.371035,23.213929,0.0 120.370771,23.214624,0.0 120.370724,23.21512,0.0 120.370677,23.215516,0.0 120.369835,23.215408,0.0 120.36913,23.215344,0.0 120.36842,23.215388,0.0 120.368106,23.215096,0.0 120.367801,23.215116,0.0 120.367483,23.215062,0.0 120.366855,23.215494,0.0 120.366758,23.215516,0.0</coordinates></LinearRing></outerBoundaryIs></Polygon><styleUrl>#spolygon-map</styleUrl></Placemark><Placemark><Polygon><outerBoundaryIs><LinearRing><coordinates>120.353529,23.215669,0.0 120.352344,23.216133,0.0 120.350805,23.216777,0.0 120.350715,23.217158,0.0 120.350241,23.217423,0.0 120.349548,23.216963,0.0 120.349575,23.215155,0.0 120.350102,23.21407,0.0 120.349838,23.213463,0.0 120.349542,23.213329,0.0 120.348745,23.213472,0.0 120.347345,23.21404,0.0 120.346388,23.214549,0.0 120.345775,23.214456,0.0 120.345063,23.214117,0.0 120.34411,23.214368,0.0 120.343451,23.214187,0.0 120.342742,23.214191,0.0 120.342523,23.213208,0.0 120.34261,23.21301,0.0 120.342488,23.212052,0.0 120.343081,23.211747,0.0 120.343599,23.211024,0.0 120.343382,23.21028,0.0 120.343483,23.209763,0.0 120.344245,23.209065,0.0 120.344738,23.207987,0.0 120.344816,23.206807,0.0 120.344567,23.20638,0.0 120.344034,23.20568,0.0 120.344071,23.204473,0.0 120.344807,23.203576,0.0 120.344553,23.202658,0.0 120.344703,23.202086,0.0 120.34534,23.201633,0.0 120.345449,23.201046,0.0 120.346583,23.200625,0.0 120.350771,23.201891,0.0 120.350453,23.203481,0.0 120.35027,23.204342,0.0 120.350237,23.204779,0.0 120.35027,23.205138,0.0 120.350344,23.205514,0.0 120.350928,23.207639,0.0 120.351034,23.20802,0.0 120.351189,23.208564,0.0 120.351769,23.210337,0.0 120.352248,23.211878,0.0 120.352798,23.213564,0.0 120.353087,23.214468,0.0 120.353525,23.215662,0.0 120.353529,23.215669,0.0</coordinates></LinearRing></outerBoundaryIs></Polygon><styleUrl>#spolygon-map</styleUrl></Placemark><Placemark><Polygon><outerBoundaryIs><LinearRing><coordinates>120.331911,23.226601,0.0 120.330604,23.226974,0.0 120.330198,23.22657,0.0 120.329676,23.226227,0.0 120.329085,23.226172,0.0 120.328137,23.226464,0.0 120.32791,23.226759,0.0 120.328064,23.227581,0.0 120.328513,23.227944,0.0 120.328244,23.228218,0.0 120.327784,23.228433,0.0 120.327141,23.228336,0.0 120.326319,23.228291,0.0 120.325845,23.228116,0.0 120.325511,23.228326,0.0 120.324697,23.22805,0.0 120.32359,23.227975,0.0 120.322661,23.227851,0.0 120.321702,23.228064,0.0 120.320758,23.228568,0.0 120.320028,23.228939,0.0 120.319175,23.218584,0.0 120.318328,23.2062,0.0 120.319017,23.20083,0.0 120.320436,23.200679,0.0 120.321845,23.200861,0.0 120.323119,23.200198,0.0 120.323834,23.199383,0.0 120.324603,23.198334,0.0 120.325249,23.197033,0.0 120.325361,23.196171,0.0 120.326712,23.195732,0.0 120.327781,23.195948,0.0 120.328827,23.195728,0.0 120.329333,23.195162,0.0 120.330337,23.194531,0.0 120.330735,23.19445,0.0 120.331143,23.194546,0.0 120.331853,23.19421,0.0 120.33266,23.194448,0.0 120.333375,23.194498,0.0 120.334037,23.194743,0.0 120.334594,23.194347,0.0 120.335574,23.193843,0.0 120.336113,23.193694,0.0 120.336168,23.194998,0.0 120.336126,23.195654,0.0 120.336614,23.196047,0.0 120.336386,23.196794,0.0 120.336663,23.197488,0.0 120.336844,23.198302,0.0 120.337654,23.197947,0.0 120.338652,23.197457,0.0 120.339804,23.197349,0.0 120.340698,23.197466,0.0 120.341691,23.197708,0.0 120.342143,23.197958,0.0 120.342914,23.198231,0.0 120.343346,23.198612,0.0 120.344012,23.198979,0.0 120.344661,23.199489,0.0 120.345145,23.19975,0.0 120.34553,23.200435,0.0 120.345456,23.201377,0.0 120.345021,23.201754,0.0 120.344588,23.202447,0.0 120.344797,23.203275,0.0 120.344484,23.20423,0.0 120.343857,23.205256,0.0 120.344336,23.205991,0.0 120.344883,23.206506,0.0 120.34477,23.207723,0.0 120.344712,23.208705,0.0 120.343534,23.209356,0.0 120.343087,23.210001,0.0 120.343519,23.210753,0.0 120.343374,23.211401,0.0 120.342967,23.211862,0.0 120.342428,23.212208,0.0 120.342615,23.213087,0.0 120.342623,23.213731,0.0 120.34288,23.214699,0.0 120.343649,23.217437,0.0 120.344156,23.219309,0.0 120.341432,23.220062,0.0 120.341095,23.221531,0.0 120.341165,23.22256,0.0 120.341152,23.222941,0.0 120.339236,23.222567,0.0 120.336849,23.222271,0.0 120.335396,23.22207,0.0 120.333449,23.2245,0.0 120.334428,23.225792,0.0 120.334503,23.22615,0.0 120.333612,23.226347,0.0 120.333164,23.226174,0.0 120.33235,23.226425,0.0 120.331911,23.226601,0.0</coordinates></LinearRing></outerBoundaryIs></Polygon><styleUrl>#spolygon-map</styleUrl></Placemark><Placemark><Polygon><outerBoundaryIs><LinearRing><coordinates>120.320007,23.228944,0.0 120.319465,23.228862,0.0 120.318465,23.228741,0.0 120.31719,23.228701,0.0 120.315953,23.228752,0.0 120.315495,23.228425,0.0 120.314502,23.228362,0.0 120.313533,23.228358,0.0 120.312833,23.228224,0.0 120.312762,23.227635,0.0 120.312264,23.227411,0.0 120.311641,23.227666,0.0 120.311067,23.227458,0.0 120.311067,23.226991,0.0 120.310537,23.226663,0.0 120.309818,23.226389,0.0 120.309427,23.226089,0.0 120.308599,23.226025,0.0 120.307854,23.225911,0.0 120.307038,23.225862,0.0 120.306314,23.225717,0.0 120.305487,23.225645,0.0 120.304759,23.225841,0.0 120.304287,23.225676,0.0 120.303803,23.225613,0.0 120.303177,23.225603,0.0 120.302188,23.225202,0.0 120.301701,23.224703,0.0 120.300997,23.224515,0.0 120.300565,23.224296,0.0 120.299551,23.224181,0.0 120.29884,23.224024,0.0 120.298281,23.224139,0.0 120.297386,23.224397,0.0 120.296891,23.224587,0.0 120.296006,23.224434,0.0 120.295244,23.224286,0.0 120.2943,23.224008,0.0 120.293395,23.223478,0.0 120.293513,23.222928,0.0 120.294307,23.222167,0.0 120.294716,23.220865,0.0 120.293934,23.220326,0.0 120.292908,23.221746,0.0 120.291998,23.221841,0.0 120.290564,23.220937,0.0 120.290321,23.219647,0.0 120.289453,23.21799,0.0 120.287817,23.21678,0.0 120.287017,23.21635,0.0 120.286897,23.215718,0.0 120.287791,23.215039,0.0 120.288848,23.214742,0.0 120.288396,23.213737,0.0 120.287968,23.212834,0.0 120.287958,23.210846,0.0 120.289121,23.210072,0.0 120.289463,23.208072,0.0 120.288862,23.207299,0.0 120.289172,23.20653,0.0 120.290095,23.206297,0.0 120.290792,23.207282,0.0 120.291719,23.206766,0.0 120.292958,23.205531,0.0 120.294397,23.204881,0.0 120.295022,23.204621,0.0 120.295782,23.204317,0.0 120.296789,23.203561,0.0 120.297837,23.203143,0.0 120.2978,23.202719,0.0 120.298744,23.203107,0.0 120.298651,23.203607,0.0 120.299241,23.20384,0.0 120.30054,23.204113,0.0 120.301498,23.203915,0.0 120.302752,23.203948,0.0 120.303236,23.204075,0.0 120.304561,23.204084,0.0 120.304984,23.203777,0.0 120.305194,23.202304,0.0 120.312667,23.201833,0.0 120.314891,23.20292,0.0 120.317147,23.205296,0.0 120.317552,23.205594,0.0 120.318362,23.205725,0.0 120.318779,23.213539,0.0 120.320007,23.228944,0.0</coordinates></LinearRing></outerBoundaryIs></Polygon><styleUrl>#spolygon-map</styleUrl></Placemark></Document>
</kml>
