<?xml version="1.0" encoding="UTF-8"?>
<kml xmlns="http://www.opengis.net/kml/2.2">
	<Document>
		<name>臺東縣延平鄉</name>
		<Style id="spolygon">
			<LabelStyle>
				<scale>0.0</scale>
			</LabelStyle>
			<LineStyle>
				<color>330030ff</color>
				<width>0</width>
			</LineStyle>
			<PolyStyle>
				<color>330030ff</color>
			</PolyStyle>
		</Style>
		<StyleMap id="spolygon-map">
			<Pair>
				<key>normal</key>
				<styleUrl>#spolygon</styleUrl>
			</Pair>
		</StyleMap>
	<Placemark><Polygon><outerBoundaryIs><LinearRing><coordinates>121.047027,22.988316,0.0 121.049296,22.980424,0.0 121.050949,22.97293,0.0 121.051959,22.954301,0.0 121.063587,22.951547,0.0 121.065957,22.941511,0.0 121.073102,22.930237,0.0 121.08373,22.92662,0.0 121.095069,22.924514,0.0 121.099967,22.920431,0.0 121.094523,22.905346,0.0 121.095264,22.9053,0.0 121.096058,22.905677,0.0 121.097057,22.9065,0.0 121.097944,22.907243,0.0 121.098561,22.907717,0.0 121.098831,22.908276,0.0 121.099511,22.908779,0.0 121.099957,22.908693,0.0 121.100335,22.908841,0.0 121.100858,22.909173,0.0 121.101409,22.909367,0.0 121.102567,22.909698,0.0 121.102871,22.909933,0.0 121.103265,22.910107,0.0 121.104102,22.910404,0.0 121.105139,22.91053,0.0 121.106206,22.910725,0.0 121.106745,22.910861,0.0 121.107181,22.910878,0.0 121.107822,22.910623,0.0 121.108455,22.910784,0.0 121.109404,22.911435,0.0 121.109836,22.912012,0.0 121.109896,22.912373,0.0 121.110143,22.912974,0.0 121.110547,22.913605,0.0 121.110932,22.913828,0.0 121.111516,22.914235,0.0 121.112099,22.914645,0.0 121.112696,22.915095,0.0 121.112971,22.915198,0.0 121.113332,22.915606,0.0 121.113463,22.916001,0.0 121.113291,22.916392,0.0 121.112856,22.916846,0.0 121.112913,22.917688,0.0 121.113401,22.918056,0.0 121.113696,22.918137,0.0 121.114207,22.918692,0.0 121.114319,22.919507,0.0 121.11444,22.920041,0.0 121.114299,22.920259,0.0 121.114404,22.920496,0.0 121.114746,22.920617,0.0 121.114856,22.921139,0.0 121.115144,22.921312,0.0 121.11532,22.921655,0.0 121.115567,22.922014,0.0 121.116034,22.922325,0.0 121.116938,22.922483,0.0 121.117337,22.922483,0.0 121.117694,22.922674,0.0 121.117768,22.922877,0.0 121.117909,22.923295,0.0 121.117923,22.923557,0.0 121.117636,22.923719,0.0 121.117199,22.923957,0.0 121.116951,22.924241,0.0 121.116521,22.924874,0.0 121.116031,22.925485,0.0 121.115806,22.926146,0.0 121.115626,22.927374,0.0 121.115614,22.928492,0.0 121.115448,22.929341,0.0 121.115332,22.930027,0.0 121.115108,22.930671,0.0 121.114973,22.931464,0.0 121.114614,22.932423,0.0 121.1146,22.933019,0.0 121.114561,22.933748,0.0 121.11471,22.934105,0.0 121.115012,22.934441,0.0 121.115772,22.935012,0.0 121.117915,22.936464,0.0 121.118296,22.936922,0.0 121.118656,22.937053,0.0 121.118996,22.937235,0.0 121.119612,22.937467,0.0 121.120103,22.937851,0.0 121.120499,22.938501,0.0 121.120826,22.93925,0.0 121.121044,22.939632,0.0 121.121136,22.940399,0.0 121.121293,22.940948,0.0 121.121253,22.941424,0.0 121.121018,22.941641,0.0 121.120444,22.941766,0.0 121.120336,22.941935,0.0 121.120741,22.942939,0.0 121.120706,22.94358,0.0 121.120886,22.944222,0.0 121.120797,22.944551,0.0 121.120891,22.944917,0.0 121.120684,22.945396,0.0 121.12037,22.946006,0.0 121.120433,22.946525,0.0 121.120959,22.946463,0.0 121.121295,22.946223,0.0 121.121647,22.945941,0.0 121.122449,22.94679,0.0 121.122945,22.947235,0.0 121.123705,22.947832,0.0 121.124064,22.948255,0.0 121.124284,22.948522,0.0 121.124831,22.949009,0.0 121.125118,22.949398,0.0 121.125498,22.949704,0.0 121.125981,22.950031,0.0 121.126405,22.950412,0.0 121.126789,22.951002,0.0 121.127298,22.951692,0.0 121.127765,22.952855,0.0 121.119172,22.954775,0.0 121.113792,22.951605,0.0 121.106628,22.949199,0.0 121.10014,22.951187,0.0 121.094724,22.955325,0.0 121.0902,22.953528,0.0 121.08838,22.959677,0.0 121.087415,22.96627,0.0 121.085149,22.96882,0.0 121.086862,22.984408,0.0 121.089896,22.989877,0.0 121.090754,22.99373,0.0 121.089497,22.994126,0.0 121.087872,22.99452,0.0 121.085575,22.995108,0.0 121.083462,22.995328,0.0 121.080882,22.995616,0.0 121.079201,22.995972,0.0 121.077168,22.995952,0.0 121.074938,22.995761,0.0 121.073564,22.99531,0.0 121.072241,22.994914,0.0 121.07089,22.994404,0.0 121.069508,22.993951,0.0 121.067691,22.993753,0.0 121.066165,22.993677,0.0 121.06444,22.993578,0.0 121.061694,22.993451,0.0 121.059341,22.993133,0.0 121.058622,22.992533,0.0 121.057953,22.992298,0.0 121.056639,22.992945,0.0 121.055523,22.992857,0.0 121.054777,22.992189,0.0 121.053587,22.992235,0.0 121.052638,22.99195,0.0 121.05081,22.991113,0.0 121.049264,22.990177,0.0 121.047161,22.988408,0.0 121.047027,22.988316,0.0</coordinates></LinearRing></outerBoundaryIs></Polygon><styleUrl>#spolygon-map</styleUrl></Placemark><Placemark><Polygon><outerBoundaryIs><LinearRing><coordinates>121.091049,22.993669,0.0 121.088656,22.987848,0.0 121.085969,22.979821,0.0 121.085761,22.967948,0.0 121.088365,22.964454,0.0 121.088537,22.95529,0.0 121.091343,22.95394,0.0 121.09656,22.954928,0.0 121.101481,22.950326,0.0 121.109005,22.949335,0.0 121.114616,22.952921,0.0 121.121549,22.954719,0.0 121.127781,22.952899,0.0 121.128195,22.954091,0.0 121.12814,22.955044,0.0 121.127625,22.95585,0.0 121.126904,22.956345,0.0 121.126633,22.956682,0.0 121.126488,22.957136,0.0 121.126035,22.957558,0.0 121.125545,22.957937,0.0 121.124984,22.958683,0.0 121.124443,22.959143,0.0 121.123827,22.959585,0.0 121.124401,22.960133,0.0 121.123905,22.96108,0.0 121.123217,22.961861,0.0 121.122128,22.96312,0.0 121.122109,22.964124,0.0 121.121914,22.965127,0.0 121.12172,22.96554,0.0 121.121583,22.966577,0.0 121.121138,22.968399,0.0 121.12069,22.969217,0.0 121.120329,22.969519,0.0 121.119691,22.969985,0.0 121.118288,22.971081,0.0 121.118187,22.971709,0.0 121.118524,22.972036,0.0 121.11927,22.971912,0.0 121.120046,22.971978,0.0 121.121525,22.972412,0.0 121.123316,22.972667,0.0 121.124912,22.972794,0.0 121.125893,22.97309,0.0 121.126836,22.973271,0.0 121.127691,22.973212,0.0 121.12798,22.973329,0.0 121.128049,22.974444,0.0 121.128071,22.976644,0.0 121.128027,22.977354,0.0 121.127524,22.978231,0.0 121.125656,22.978917,0.0 121.12322,22.98038,0.0 121.121465,22.981202,0.0 121.11992,22.981533,0.0 121.117698,22.982894,0.0 121.115176,22.983891,0.0 121.113182,22.984215,0.0 121.112683,22.985469,0.0 121.110967,22.986506,0.0 121.110228,22.988406,0.0 121.109381,22.990081,0.0 121.108428,22.99115,0.0 121.107356,22.990902,0.0 121.105786,22.990619,0.0 121.103834,22.990848,0.0 121.102219,22.991233,0.0 121.100658,22.991622,0.0 121.098761,22.992019,0.0 121.096722,22.99239,0.0 121.095297,22.992786,0.0 121.093172,22.993189,0.0 121.091683,22.993517,0.0 121.091049,22.993669,0.0</coordinates></LinearRing></outerBoundaryIs></Polygon><styleUrl>#spolygon-map</styleUrl></Placemark><Placemark><Polygon><outerBoundaryIs><LinearRing><coordinates>120.830164,22.970339,0.0 120.827808,22.968327,0.0 120.823441,22.965482,0.0 120.822091,22.963467,0.0 120.820807,22.961481,0.0 120.82283,22.956399,0.0 120.823206,22.95476,0.0 120.824718,22.952125,0.0 120.823432,22.949956,0.0 120.822555,22.947955,0.0 120.821793,22.944834,0.0 120.82189,22.94245,0.0 120.821458,22.9396,0.0 120.822147,22.93686,0.0 120.821938,22.934995,0.0 120.824709,22.931315,0.0 120.826253,22.928926,0.0 120.827829,22.925611,0.0 120.828646,22.922957,0.0 120.82947,22.920538,0.0 120.831439,22.919856,0.0 120.832115,22.91638,0.0 120.833092,22.912726,0.0 120.832279,22.911002,0.0 120.829959,22.909525,0.0 120.828833,22.906201,0.0 120.828662,22.903975,0.0 120.831014,22.901584,0.0 120.833538,22.899814,0.0 120.83363,22.8975,0.0 120.834657,22.89397,0.0 120.836907,22.891457,0.0 120.838514,22.888838,0.0 120.83878,22.885384,0.0 120.84014,22.882292,0.0 120.843378,22.880783,0.0 120.847429,22.879739,0.0 120.850833,22.87844,0.0 120.854489,22.878633,0.0 120.858105,22.878367,0.0 120.859887,22.878129,0.0 120.861219,22.876148,0.0 120.862968,22.874436,0.0 120.864872,22.872553,0.0 120.865319,22.870386,0.0 120.864353,22.867034,0.0 120.862583,22.865911,0.0 120.860212,22.864376,0.0 120.859577,22.862905,0.0 120.863243,22.860658,0.0 120.865635,22.859632,0.0 120.869059,22.858211,0.0 120.868826,22.856118,0.0 120.866549,22.853576,0.0 120.868333,22.850972,0.0 120.866992,22.848774,0.0 120.866174,22.847762,0.0 120.865492,22.846912,0.0 120.865038,22.845867,0.0 120.864766,22.844613,0.0 120.864585,22.843125,0.0 120.864379,22.841303,0.0 120.864575,22.837079,0.0 120.864897,22.833826,0.0 120.862952,22.829666,0.0 120.861755,22.826301,0.0 120.864335,22.825452,0.0 120.8657,22.823484,0.0 120.866824,22.819656,0.0 120.868403,22.817129,0.0 120.871711,22.814792,0.0 120.874735,22.815255,0.0 120.876798,22.813311,0.0 120.878415,22.813863,0.0 120.881239,22.814499,0.0 120.883986,22.813431,0.0 120.887856,22.812626,0.0 120.891196,22.811626,0.0 120.894403,22.808521,0.0 120.898344,22.805882,0.0 120.901285,22.803777,0.0 120.903044,22.800261,0.0 120.903693,22.798196,0.0 120.902951,22.795493,0.0 120.90315,22.792695,0.0 120.901985,22.789462,0.0 120.902292,22.786829,0.0 120.903842,22.784572,0.0 120.903731,22.781703,0.0 120.903207,22.778508,0.0 120.905139,22.778233,0.0 120.906555,22.778526,0.0 120.908093,22.779062,0.0 120.908962,22.779866,0.0 120.909701,22.780367,0.0 120.910535,22.780587,0.0 120.91133,22.781229,0.0 120.912423,22.781335,0.0 120.913664,22.781097,0.0 120.914853,22.780411,0.0 120.916161,22.780023,0.0 120.917515,22.77997,0.0 120.918437,22.780327,0.0 120.919231,22.781754,0.0 120.919848,22.783005,0.0 120.920563,22.783311,0.0 120.921136,22.7829,0.0 120.922098,22.782629,0.0 120.922721,22.782241,0.0 120.923674,22.782134,0.0 120.924574,22.782622,0.0 120.925598,22.78287,0.0 120.92626,22.78383,0.0 120.927359,22.784644,0.0 120.928259,22.785041,0.0 120.929616,22.785505,0.0 120.930314,22.785979,0.0 120.931676,22.787533,0.0 120.930975,22.788194,0.0 120.930007,22.789652,0.0 120.930206,22.790863,0.0 120.93094,22.791373,0.0 120.932472,22.791356,0.0 120.93469,22.79144,0.0 120.936014,22.791405,0.0 120.937036,22.791631,0.0 120.937842,22.792087,0.0 120.939551,22.792354,0.0 120.941003,22.792341,0.0 120.942108,22.792324,0.0 120.942731,22.793868,0.0 120.943287,22.795564,0.0 120.943056,22.797551,0.0 120.943374,22.799079,0.0 120.944343,22.800175,0.0 120.945213,22.80034,0.0 120.946141,22.799979,0.0 120.94721,22.799006,0.0 120.947912,22.798148,0.0 120.949491,22.797151,0.0 120.950765,22.796442,0.0 120.952015,22.795305,0.0 120.953151,22.794863,0.0 120.95412,22.795511,0.0 120.954965,22.796437,0.0 120.955227,22.79727,0.0 120.955853,22.797898,0.0 120.95601,22.79907,0.0 120.957276,22.800328,0.0 120.958456,22.80087,0.0 120.960019,22.800888,0.0 120.9607,22.80111,0.0 120.961398,22.801767,0.0 120.96193,22.802424,0.0 120.963057,22.803104,0.0 120.964353,22.803483,0.0 120.965436,22.803793,0.0 120.966301,22.804308,0.0 120.967625,22.804751,0.0 120.968829,22.805318,0.0 120.970131,22.806176,0.0 120.971403,22.807018,0.0 120.972178,22.807601,0.0 120.973023,22.808899,0.0 120.973693,22.810342,0.0 120.974551,22.812363,0.0 120.975127,22.8136,0.0 120.975884,22.814849,0.0 120.976318,22.815641,0.0 120.976689,22.816653,0.0 120.977648,22.81775,0.0 120.979,22.819381,0.0 120.980011,22.820196,0.0 120.980944,22.820767,0.0 120.981828,22.821833,0.0 120.982861,22.822686,0.0 120.984141,22.823809,0.0 120.984953,22.825511,0.0 120.985551,22.82643,0.0 120.986562,22.827581,0.0 120.987163,22.828742,0.0 120.987809,22.829918,0.0 120.988424,22.831115,0.0 120.989665,22.833012,0.0 120.990806,22.834064,0.0 120.991795,22.83531,0.0 120.992643,22.836448,0.0 120.993527,22.836685,0.0 120.995212,22.836721,0.0 120.99629,22.836638,0.0 120.997354,22.83704,0.0 120.998487,22.837017,0.0 121.00005,22.836904,0.0 121.001177,22.836552,0.0 121.002776,22.836152,0.0 121.003757,22.836044,0.0 121.005677,22.835378,0.0 121.007736,22.835044,0.0 121.009435,22.834858,0.0 121.009995,22.834502,0.0 121.010948,22.834296,0.0 121.011804,22.834154,0.0 121.013128,22.833607,0.0 121.014209,22.834045,0.0 121.015461,22.83493,0.0 121.016462,22.836075,0.0 121.017335,22.837007,0.0 121.018208,22.837833,0.0 121.019225,22.838892,0.0 121.019726,22.839547,0.0 121.020408,22.840057,0.0 121.021195,22.84028,0.0 121.021946,22.841007,0.0 121.022866,22.841341,0.0 121.023536,22.840905,0.0 121.024176,22.840932,0.0 121.025188,22.840743,0.0 121.026293,22.840882,0.0 121.026864,22.841352,0.0 121.027529,22.841453,0.0 121.02825,22.841765,0.0 121.029527,22.841647,0.0 121.03037,22.841972,0.0 121.031575,22.842451,0.0 121.03285,22.84294,0.0 121.033731,22.843236,0.0 121.034673,22.844224,0.0 121.035452,22.844692,0.0 121.037289,22.844901,0.0 121.038871,22.844996,0.0 121.040454,22.845201,0.0 121.041906,22.845194,0.0 121.042607,22.845485,0.0 121.043629,22.845703,0.0 121.044286,22.846229,0.0 121.045528,22.847285,0.0 121.046695,22.848197,0.0 121.048222,22.849671,0.0 121.049106,22.850764,0.0 121.0495,22.851224,0.0 121.050307,22.852635,0.0 121.051064,22.85342,0.0 121.052214,22.853851,0.0 121.053175,22.854336,0.0 121.053857,22.855144,0.0 121.054182,22.855754,0.0 121.054601,22.856745,0.0 121.055901,22.857024,0.0 121.057744,22.857272,0.0 121.058378,22.857026,0.0 121.059097,22.857005,0.0 121.059899,22.856835,0.0 121.060818,22.856781,0.0 121.061788,22.857146,0.0 121.062292,22.857383,0.0 121.062735,22.857634,0.0 121.063088,22.8579,0.0 121.063501,22.858189,0.0 121.064108,22.858453,0.0 121.064629,22.858987,0.0 121.065287,22.859143,0.0 121.066004,22.859163,0.0 121.066532,22.85926,0.0 121.067133,22.859454,0.0 121.067761,22.8596,0.0 121.068569,22.859609,0.0 121.069199,22.859703,0.0 121.069957,22.859821,0.0 121.070556,22.859951,0.0 121.070815,22.860567,0.0 121.071096,22.861141,0.0 121.071566,22.86201,0.0 121.071831,22.862834,0.0 121.072071,22.863825,0.0 121.072497,22.864561,0.0 121.072921,22.865233,0.0 121.073138,22.866132,0.0 121.073317,22.866798,0.0 121.073549,22.867493,0.0 121.073663,22.867978,0.0 121.073002,22.868685,0.0 121.073097,22.869216,0.0 121.073337,22.87055,0.0 121.073603,22.871123,0.0 121.073744,22.87229,0.0 121.074282,22.872834,0.0 121.075001,22.873168,0.0 121.07547,22.873326,0.0 121.075916,22.873531,0.0 121.076595,22.873725,0.0 121.077201,22.873783,0.0 121.077622,22.873856,0.0 121.078071,22.873882,0.0 121.078627,22.874108,0.0 121.07913,22.874351,0.0 121.079457,22.874663,0.0 121.079597,22.875105,0.0 121.079761,22.875532,0.0 121.079943,22.876015,0.0 121.080202,22.876385,0.0 121.080334,22.87681,0.0 121.080345,22.877257,0.0 121.080332,22.877704,0.0 121.080325,22.878166,0.0 121.080354,22.878613,0.0 121.080539,22.879153,0.0 121.080635,22.879589,0.0 121.080717,22.880065,0.0 121.080852,22.880446,0.0 121.081166,22.880665,0.0 121.081577,22.880769,0.0 121.081976,22.880963,0.0 121.082393,22.881227,0.0 121.082462,22.881581,0.0 121.074999,22.889586,0.0 121.074475,22.902465,0.0 121.076768,22.913398,0.0 121.057564,22.923929,0.0 121.038243,22.921282,0.0 121.024402,22.922856,0.0 121.011224,22.925935,0.0 120.98874,22.932134,0.0 120.966238,22.958677,0.0 120.965954,22.973275,0.0 120.962228,22.977189,0.0 120.96143,22.976155,0.0 120.960942,22.97511,0.0 120.960915,22.97383,0.0 120.960935,22.971852,0.0 120.960306,22.971341,0.0 120.959205,22.971147,0.0 120.957672,22.970695,0.0 120.956793,22.97013,0.0 120.95487,22.969094,0.0 120.953887,22.967366,0.0 120.952055,22.966661,0.0 120.949941,22.964491,0.0 120.949415,22.963152,0.0 120.948504,22.961427,0.0 120.946619,22.961444,0.0 120.945337,22.961358,0.0 120.943582,22.961226,0.0 120.941671,22.961377,0.0 120.940004,22.961451,0.0 120.939253,22.960927,0.0 120.937966,22.960637,0.0 120.937317,22.959967,0.0 120.937465,22.958989,0.0 120.937179,22.958221,0.0 120.936395,22.957986,0.0 120.935194,22.957168,0.0 120.934707,22.95629,0.0 120.933728,22.956161,0.0 120.933098,22.955711,0.0 120.932891,22.954497,0.0 120.933349,22.954068,0.0 120.933466,22.953456,0.0 120.933466,22.952691,0.0 120.933017,22.952201,0.0 120.931689,22.952119,0.0 120.930779,22.951861,0.0 120.929903,22.951533,0.0 120.929238,22.950849,0.0 120.929316,22.950221,0.0 120.929022,22.949849,0.0 120.928237,22.950135,0.0 120.927564,22.949791,0.0 120.926361,22.9488,0.0 120.925498,22.948639,0.0 120.925063,22.948287,0.0 120.923652,22.948275,0.0 120.922334,22.948633,0.0 120.921369,22.948931,0.0 120.919655,22.949004,0.0 120.919075,22.948798,0.0 120.918343,22.948597,0.0 120.916788,22.94882,0.0 120.91575,22.948993,0.0 120.914347,22.948961,0.0 120.913451,22.949261,0.0 120.912816,22.949308,0.0 120.911477,22.948891,0.0 120.909968,22.948477,0.0 120.908931,22.94829,0.0 120.908354,22.948678,0.0 120.907672,22.949113,0.0 120.906688,22.948455,0.0 120.905908,22.94766,0.0 120.904874,22.946655,0.0 120.903817,22.94714,0.0 120.902704,22.948184,0.0 120.901545,22.94861,0.0 120.901239,22.949457,0.0 120.900496,22.949727,0.0 120.899719,22.949291,0.0 120.898582,22.949527,0.0 120.897999,22.950019,0.0 120.897076,22.95014,0.0 120.896776,22.950933,0.0 120.896462,22.951734,0.0 120.896236,22.952664,0.0 120.895858,22.953476,0.0 120.894851,22.95418,0.0 120.894304,22.954893,0.0 120.894231,22.955661,0.0 120.893723,22.956119,0.0 120.892886,22.955926,0.0 120.892309,22.956154,0.0 120.892139,22.956967,0.0 120.891071,22.9577,0.0 120.890035,22.958304,0.0 120.888337,22.959095,0.0 120.887639,22.959043,0.0 120.887206,22.959092,0.0 120.88699,22.958451,0.0 120.886566,22.958103,0.0 120.886453,22.957193,0.0 120.885938,22.957019,0.0 120.885397,22.957319,0.0 120.884828,22.957668,0.0 120.884439,22.957952,0.0 120.883355,22.958089,0.0 120.882626,22.95747,0.0 120.882616,22.956404,0.0 120.882897,22.955443,0.0 120.882195,22.95516,0.0 120.881175,22.95506,0.0 120.879882,22.955727,0.0 120.879423,22.956195,0.0 120.878875,22.955758,0.0 120.878046,22.955602,0.0 120.877455,22.956231,0.0 120.876847,22.956892,0.0 120.876458,22.957526,0.0 120.875723,22.957226,0.0 120.874805,22.957037,0.0 120.874024,22.956802,0.0 120.872401,22.956701,0.0 120.871037,22.956777,0.0 120.869766,22.957223,0.0 120.86821,22.957741,0.0 120.8678,22.95754,0.0 120.868119,22.956831,0.0 120.868001,22.956131,0.0 120.866944,22.95609,0.0 120.865993,22.956136,0.0 120.865028,22.955819,0.0 120.863664,22.95575,0.0 120.863066,22.954998,0.0 120.862092,22.954961,0.0 120.860838,22.955174,0.0 120.86043,22.95596,0.0 120.860179,22.956784,0.0 120.859621,22.957115,0.0 120.858262,22.957197,0.0 120.857242,22.958178,0.0 120.855999,22.95881,0.0 120.854761,22.959768,0.0 120.853506,22.960717,0.0 120.851841,22.961842,0.0 120.850655,22.963135,0.0 120.849497,22.964138,0.0 120.847965,22.964893,0.0 120.846437,22.965172,0.0 120.844765,22.965154,0.0 120.843846,22.965354,0.0 120.842863,22.966381,0.0 120.841376,22.966932,0.0 120.839972,22.967486,0.0 120.838475,22.968756,0.0 120.837405,22.96889,0.0 120.836653,22.969332,0.0 120.83569,22.969487,0.0 120.834378,22.969549,0.0 120.832656,22.969766,0.0 120.831096,22.970105,0.0 120.830164,22.970339,0.0</coordinates></LinearRing></outerBoundaryIs></Polygon><styleUrl>#spolygon-map</styleUrl></Placemark><Placemark><Polygon><outerBoundaryIs><LinearRing><coordinates>120.961726,22.977463,0.0 120.965805,22.974357,0.0 120.965775,22.960242,0.0 120.98598,22.934094,0.0 121.007684,22.926147,0.0 121.02305,22.923378,0.0 121.036437,22.921833,0.0 121.054839,22.924566,0.0 121.075629,22.914321,0.0 121.075029,22.904785,0.0 121.073785,22.89117,0.0 121.082303,22.881696,0.0 121.082921,22.881488,0.0 121.083267,22.882242,0.0 121.083713,22.884328,0.0 121.084531,22.886208,0.0 121.085115,22.88808,0.0 121.085488,22.890003,0.0 121.086224,22.891493,0.0 121.086182,22.892089,0.0 121.085217,22.892367,0.0 121.084563,22.893214,0.0 121.083696,22.894438,0.0 121.083073,22.895281,0.0 121.082752,22.895979,0.0 121.082582,22.896444,0.0 121.08283,22.896843,0.0 121.083321,22.897448,0.0 121.084033,22.898488,0.0 121.084885,22.898461,0.0 121.085498,22.897009,0.0 121.08629,22.895758,0.0 121.087985,22.894488,0.0 121.089785,22.893177,0.0 121.093488,22.89059,0.0 121.095911,22.888839,0.0 121.098693,22.887548,0.0 121.101373,22.886982,0.0 121.103262,22.886685,0.0 121.104771,22.887079,0.0 121.105607,22.886425,0.0 121.106966,22.885825,0.0 121.108229,22.885824,0.0 121.109127,22.886004,0.0 121.110606,22.885838,0.0 121.113264,22.886285,0.0 121.115155,22.886442,0.0 121.117029,22.886321,0.0 121.119193,22.885631,0.0 121.121392,22.885697,0.0 121.123734,22.885465,0.0 121.126796,22.885256,0.0 121.130968,22.885211,0.0 121.132535,22.885173,0.0 121.134743,22.885194,0.0 121.138083,22.885338,0.0 121.140369,22.885467,0.0 121.141712,22.885445,0.0 121.141876,22.888371,0.0 121.140213,22.888675,0.0 121.139323,22.889229,0.0 121.138111,22.889594,0.0 121.136848,22.890112,0.0 121.136174,22.890484,0.0 121.134005,22.891311,0.0 121.132751,22.891799,0.0 121.1315,22.892187,0.0 121.130407,22.892289,0.0 121.129203,22.892602,0.0 121.12858,22.892297,0.0 121.127306,22.89224,0.0 121.12633,22.892062,0.0 121.125197,22.891903,0.0 121.124062,22.891788,0.0 121.122642,22.891686,0.0 121.120818,22.891711,0.0 121.120571,22.89186,0.0 121.119903,22.892038,0.0 121.119036,22.892183,0.0 121.118279,22.892546,0.0 121.117703,22.892672,0.0 121.116931,22.89282,0.0 121.116188,22.893027,0.0 121.115126,22.893245,0.0 121.113736,22.893361,0.0 121.112557,22.893163,0.0 121.111849,22.893185,0.0 121.111105,22.893209,0.0 121.110044,22.893389,0.0 121.109548,22.893653,0.0 121.108651,22.893719,0.0 121.107897,22.893841,0.0 121.10516,22.893807,0.0 121.102968,22.893741,0.0 121.10112,22.893462,0.0 121.100079,22.893328,0.0 121.097016,22.892929,0.0 121.092818,22.892851,0.0 121.091209,22.893326,0.0 121.089419,22.894242,0.0 121.087547,22.895387,0.0 121.085915,22.897453,0.0 121.085639,22.898366,0.0 121.085711,22.8997,0.0 121.087057,22.899879,0.0 121.089431,22.899998,0.0 121.09084,22.900275,0.0 121.093529,22.900307,0.0 121.095242,22.900063,0.0 121.09535,22.900489,0.0 121.093954,22.902263,0.0 121.093361,22.902836,0.0 121.093886,22.903395,0.0 121.095127,22.907996,0.0 121.099824,22.921567,0.0 121.089729,22.925282,0.0 121.079982,22.926947,0.0 121.069219,22.934041,0.0 121.066603,22.947651,0.0 121.060287,22.953711,0.0 121.051169,22.957785,0.0 121.050729,22.974314,0.0 121.048781,22.98365,0.0 121.046623,22.988132,0.0 121.04492,22.987893,0.0 121.043178,22.988239,0.0 121.040096,22.989035,0.0 121.038005,22.989327,0.0 121.036216,22.989334,0.0 121.034726,22.988585,0.0 121.032526,22.987264,0.0 121.030836,22.986468,0.0 121.02852,22.985831,0.0 121.026919,22.985755,0.0 121.024892,22.986507,0.0 121.022479,22.987264,0.0 121.021214,22.987555,0.0 121.018889,22.988287,0.0 121.017158,22.988662,0.0 121.015638,22.989622,0.0 121.014418,22.990143,0.0 121.013283,22.99104,0.0 121.012909,22.991056,0.0 121.011763,22.990372,0.0 121.009699,22.989708,0.0 121.008072,22.98969,0.0 121.006096,22.989898,0.0 121.003841,22.989704,0.0 121.001838,22.989789,0.0 121.000379,22.989668,0.0 120.998731,22.988168,0.0 120.997067,22.986315,0.0 120.996016,22.985536,0.0 120.994815,22.985784,0.0 120.993868,22.986475,0.0 120.992903,22.987669,0.0 120.991691,22.988132,0.0 120.990681,22.988645,0.0 120.989948,22.989426,0.0 120.989341,22.990116,0.0 120.988384,22.990947,0.0 120.987449,22.991333,0.0 120.986483,22.99181,0.0 120.985759,22.991543,0.0 120.984525,22.991103,0.0 120.983526,22.991681,0.0 120.982722,22.992052,0.0 120.982125,22.99196,0.0 120.981163,22.992087,0.0 120.980208,22.992534,0.0 120.979398,22.992933,0.0 120.978449,22.993405,0.0 120.977315,22.993694,0.0 120.975328,22.994547,0.0 120.974235,22.995262,0.0 120.973328,22.995364,0.0 120.972379,22.994842,0.0 120.97155,22.993801,0.0 120.97039,22.993033,0.0 120.969098,22.991861,0.0 120.968025,22.990475,0.0 120.966552,22.988657,0.0 120.965143,22.987645,0.0 120.965313,22.986392,0.0 120.964892,22.984299,0.0 120.964612,22.982127,0.0 120.964277,22.980716,0.0 120.963595,22.979698,0.0 120.962824,22.979025,0.0 120.961995,22.978309,0.0 120.961726,22.977463,0.0</coordinates></LinearRing></outerBoundaryIs></Polygon><styleUrl>#spolygon-map</styleUrl></Placemark><Placemark><Polygon><outerBoundaryIs><LinearRing><coordinates>121.194193,22.936669,0.0 121.192793,22.937443,0.0 121.191474,22.938011,0.0 121.190624,22.938737,0.0 121.189139,22.938811,0.0 121.188114,22.938008,0.0 121.18638,22.937302,0.0 121.185609,22.936352,0.0 121.185211,22.935707,0.0 121.185112,22.934851,0.0 121.184455,22.934475,0.0 121.183929,22.933848,0.0 121.183722,22.933097,0.0 121.183547,22.932539,0.0 121.183103,22.932107,0.0 121.182903,22.931982,0.0 121.182501,22.931775,0.0 121.181564,22.931722,0.0 121.181124,22.931659,0.0 121.180823,22.931738,0.0 121.180687,22.931993,0.0 121.180396,22.932176,0.0 121.179841,22.932198,0.0 121.179307,22.932582,0.0 121.178741,22.933086,0.0 121.178056,22.93373,0.0 121.177496,22.934245,0.0 121.176892,22.934723,0.0 121.176129,22.934904,0.0 121.175835,22.935395,0.0 121.175632,22.935672,0.0 121.174879,22.936352,0.0 121.174486,22.936514,0.0 121.174047,22.936397,0.0 121.17314,22.936003,0.0 121.172168,22.935963,0.0 121.171701,22.936,0.0 121.17054,22.935997,0.0 121.169579,22.93565,0.0 121.16813,22.935069,0.0 121.166753,22.934557,0.0 121.165716,22.93422,0.0 121.164593,22.933897,0.0 121.163943,22.933639,0.0 121.163138,22.933367,0.0 121.16239,22.933019,0.0 121.161661,22.932405,0.0 121.161003,22.931947,0.0 121.160055,22.931076,0.0 121.158975,22.930206,0.0 121.158518,22.929814,0.0 121.158029,22.929048,0.0 121.157416,22.928043,0.0 121.156684,22.927176,0.0 121.156105,22.926924,0.0 121.155238,22.926489,0.0 121.154296,22.925901,0.0 121.15384,22.925425,0.0 121.153173,22.924802,0.0 121.151083,22.923341,0.0 121.15045,22.923087,0.0 121.149487,22.921952,0.0 121.148462,22.920937,0.0 121.147409,22.919845,0.0 121.14655,22.918541,0.0 121.145768,22.91709,0.0 121.145051,22.915553,0.0 121.14425,22.91424,0.0 121.143606,22.912812,0.0 121.143083,22.911405,0.0 121.142823,22.910085,0.0 121.14323,22.908373,0.0 121.144156,22.905449,0.0 121.144758,22.90401,0.0 121.145098,22.902527,0.0 121.145314,22.90051,0.0 121.145735,22.898819,0.0 121.14634,22.898153,0.0 121.146586,22.897002,0.0 121.14696,22.895431,0.0 121.147333,22.89376,0.0 121.146911,22.89157,0.0 121.14425,22.88915,0.0 121.142884,22.888553,0.0 121.142622,22.885281,0.0 121.1441,22.884933,0.0 121.146327,22.884572,0.0 121.148041,22.884202,0.0 121.149474,22.883539,0.0 121.150778,22.882306,0.0 121.15132,22.881343,0.0 121.152026,22.878988,0.0 121.152702,22.876671,0.0 121.153076,22.874214,0.0 121.153501,22.873044,0.0 121.153643,22.872319,0.0 121.154687,22.871799,0.0 121.156238,22.871438,0.0 121.157377,22.871428,0.0 121.158353,22.870858,0.0 121.159368,22.870656,0.0 121.160154,22.870669,0.0 121.161086,22.870804,0.0 121.161789,22.870331,0.0 121.16271,22.869113,0.0 121.163934,22.86818,0.0 121.164807,22.867966,0.0 121.165663,22.867934,0.0 121.167103,22.868921,0.0 121.168268,22.869634,0.0 121.169208,22.869899,0.0 121.170781,22.871299,0.0 121.17171,22.873046,0.0 121.172527,22.874135,0.0 121.17346,22.875959,0.0 121.173803,22.877146,0.0 121.174398,22.8785,0.0 121.175309,22.879176,0.0 121.176293,22.880015,0.0 121.177609,22.881494,0.0 121.179425,22.883104,0.0 121.180507,22.884711,0.0 121.180854,22.88588,0.0 121.18113,22.886947,0.0 121.181254,22.888126,0.0 121.181457,22.88902,0.0 121.182156,22.889506,0.0 121.182691,22.890343,0.0 121.183074,22.890975,0.0 121.1837,22.892056,0.0 121.184544,22.892707,0.0 121.186869,22.893924,0.0 121.189025,22.896163,0.0 121.188729,22.897405,0.0 121.188874,22.898204,0.0 121.189188,22.898473,0.0 121.189329,22.898877,0.0 121.189472,22.899204,0.0 121.189697,22.899524,0.0 121.190022,22.900075,0.0 121.190166,22.900429,0.0 121.190385,22.900788,0.0 121.190543,22.901167,0.0 121.190904,22.901719,0.0 121.188668,22.904935,0.0 121.188356,22.907486,0.0 121.187502,22.910075,0.0 121.187853,22.911354,0.0 121.186493,22.912665,0.0 121.186307,22.913634,0.0 121.185574,22.914272,0.0 121.184484,22.915718,0.0 121.185024,22.918566,0.0 121.186366,22.920301,0.0 121.187349,22.922594,0.0 121.187949,22.923153,0.0 121.188913,22.924448,0.0 121.188736,22.926622,0.0 121.189883,22.928872,0.0 121.190996,22.930785,0.0 121.192243,22.93331,0.0 121.193304,22.934984,0.0 121.194089,22.936222,0.0 121.194193,22.936669,0.0</coordinates></LinearRing></outerBoundaryIs></Polygon><styleUrl>#spolygon-map</styleUrl></Placemark></Document>
</kml>
