<?xml version="1.0" encoding="UTF-8"?>
<kml xmlns="http://www.opengis.net/kml/2.2">
	<Document>
		<name>臺東縣鹿野鄉</name>
		<Style id="spolygon">
			<LabelStyle>
				<scale>0.0</scale>
			</LabelStyle>
			<LineStyle>
				<color>330030ff</color>
				<width>0</width>
			</LineStyle>
			<PolyStyle>
				<color>330030ff</color>
			</PolyStyle>
		</Style>
		<StyleMap id="spolygon-map">
			<Pair>
				<key>normal</key>
				<styleUrl>#spolygon</styleUrl>
			</Pair>
		</StyleMap>
	<Placemark><Polygon><outerBoundaryIs><LinearRing><coordinates>121.140859,22.963228,0.0 121.134916,22.966245,0.0 121.12825,22.967535,0.0 121.120553,22.970677,0.0 121.118151,22.971546,0.0 121.11853,22.970918,0.0 121.119778,22.969915,0.0 121.120387,22.969481,0.0 121.120777,22.969095,0.0 121.121264,22.968067,0.0 121.121623,22.966263,0.0 121.121735,22.965487,0.0 121.122017,22.964989,0.0 121.122082,22.96363,0.0 121.122208,22.963002,0.0 121.123293,22.961776,0.0 121.12425,22.960689,0.0 121.124202,22.960012,0.0 121.123846,22.959564,0.0 121.124667,22.959007,0.0 121.125082,22.958561,0.0 121.125676,22.957836,0.0 121.126081,22.957518,0.0 121.126513,22.957075,0.0 121.126648,22.956655,0.0 121.127053,22.956201,0.0 121.127698,22.955789,0.0 121.128174,22.95482,0.0 121.12812,22.953858,0.0 121.127772,22.952875,0.0 121.127394,22.951857,0.0 121.126836,22.951046,0.0 121.12645,22.950512,0.0 121.126125,22.95009,0.0 121.125591,22.949733,0.0 121.125196,22.94951,0.0 121.124946,22.949136,0.0 121.124345,22.948635,0.0 121.124078,22.948272,0.0 121.123751,22.94794,0.0 121.123048,22.947295,0.0 121.12257,22.946937,0.0 121.121729,22.945962,0.0 121.121382,22.9461,0.0 121.121072,22.946411,0.0 121.120523,22.946545,0.0 121.120371,22.946078,0.0 121.120585,22.945513,0.0 121.120887,22.945005,0.0 121.120809,22.944593,0.0 121.120891,22.944271,0.0 121.120693,22.943772,0.0 121.120768,22.943077,0.0 121.120341,22.941973,0.0 121.120404,22.941782,0.0 121.120925,22.941668,0.0 121.121186,22.941519,0.0 121.1213,22.940999,0.0 121.121149,22.940498,0.0 121.121056,22.939685,0.0 121.120846,22.939284,0.0 121.120511,22.938529,0.0 121.120147,22.937931,0.0 121.119685,22.937501,0.0 121.119095,22.937272,0.0 121.118752,22.93708,0.0 121.118334,22.936956,0.0 121.118,22.936539,0.0 121.116029,22.935203,0.0 121.115022,22.934449,0.0 121.11475,22.934161,0.0 121.114576,22.93383,0.0 121.114596,22.933053,0.0 121.114605,22.932508,0.0 121.114946,22.931578,0.0 121.115072,22.930781,0.0 121.115292,22.930199,0.0 121.115447,22.929424,0.0 121.115601,22.928616,0.0 121.11563,22.927432,0.0 121.11577,22.926347,0.0 121.116004,22.925525,0.0 121.116435,22.925007,0.0 121.116925,22.924266,0.0 121.117131,22.924038,0.0 121.117531,22.923749,0.0 121.117917,22.923566,0.0 121.118978,22.9227,0.0 121.118372,22.92043,0.0 121.116335,22.917783,0.0 121.114649,22.914802,0.0 121.114023,22.912903,0.0 121.116719,22.911599,0.0 121.124254,22.912557,0.0 121.133183,22.912812,0.0 121.133919,22.919665,0.0 121.141734,22.924276,0.0 121.147456,22.927899,0.0 121.148281,22.936509,0.0 121.143281,22.941907,0.0 121.143095,22.946892,0.0 121.144929,22.951297,0.0 121.140859,22.963228,0.0</coordinates></LinearRing></outerBoundaryIs></Polygon><styleUrl>#spolygon-map</styleUrl></Placemark><Placemark><Polygon><outerBoundaryIs><LinearRing><coordinates>121.153826,22.925407,0.0 121.150931,22.928496,0.0 121.144438,22.927009,0.0 121.13744,22.923193,0.0 121.13377,22.91697,0.0 121.1356,22.911306,0.0 121.135695,22.902991,0.0 121.134728,22.898153,0.0 121.129939,22.897898,0.0 121.119478,22.898874,0.0 121.11438,22.900418,0.0 121.110723,22.902662,0.0 121.09792,22.901804,0.0 121.095378,22.900142,0.0 121.094026,22.900264,0.0 121.09105,22.900309,0.0 121.089619,22.900061,0.0 121.087918,22.899868,0.0 121.085808,22.8998,0.0 121.085628,22.898901,0.0 121.08589,22.897528,0.0 121.08677,22.8962,0.0 121.08905,22.894402,0.0 121.090785,22.893592,0.0 121.092505,22.892896,0.0 121.096946,22.892919,0.0 121.099801,22.893262,0.0 121.100736,22.89344,0.0 121.102464,22.89363,0.0 121.104273,22.893866,0.0 121.107593,22.893851,0.0 121.108498,22.893762,0.0 121.109428,22.893673,0.0 121.109983,22.893411,0.0 121.11082,22.89323,0.0 121.111729,22.893188,0.0 121.112421,22.893156,0.0 121.113525,22.893313,0.0 121.114873,22.893281,0.0 121.116068,22.893051,0.0 121.116912,22.892821,0.0 121.117657,22.892683,0.0 121.118097,22.892601,0.0 121.118856,22.892253,0.0 121.119798,22.892054,0.0 121.120525,22.891933,0.0 121.120735,22.891726,0.0 121.121847,22.891666,0.0 121.123902,22.891793,0.0 121.125017,22.891885,0.0 121.126109,22.891983,0.0 121.127113,22.892213,0.0 121.128538,22.89229,0.0 121.129085,22.89256,0.0 121.13005,22.892303,0.0 121.131225,22.892232,0.0 121.132579,22.891856,0.0 121.133816,22.891388,0.0 121.135983,22.890573,0.0 121.136711,22.890169,0.0 121.137793,22.889761,0.0 121.139118,22.88929,0.0 121.139995,22.888752,0.0 121.141821,22.888629,0.0 121.143664,22.888627,0.0 121.146104,22.8909,0.0 121.147358,22.892915,0.0 121.147263,22.894399,0.0 121.146701,22.896592,0.0 121.14643,22.897825,0.0 121.146134,22.898484,0.0 121.145499,22.899401,0.0 121.145248,22.901826,0.0 121.144929,22.903138,0.0 121.144559,22.904597,0.0 121.143726,22.906736,0.0 121.142922,22.90953,0.0 121.142904,22.91069,0.0 121.143283,22.911983,0.0 121.143898,22.913498,0.0 121.144822,22.915177,0.0 121.145353,22.916226,0.0 121.146146,22.917821,0.0 121.146896,22.919102,0.0 121.147846,22.920429,0.0 121.148914,22.921334,0.0 121.150004,22.922558,0.0 121.15076,22.923208,0.0 121.151633,22.923652,0.0 121.153756,22.925314,0.0 121.153826,22.925407,0.0</coordinates></LinearRing></outerBoundaryIs></Polygon><styleUrl>#spolygon-map</styleUrl></Placemark><Placemark><Polygon><outerBoundaryIs><LinearRing><coordinates>121.148672,22.996388,0.0 121.146104,22.986947,0.0 121.145002,22.97398,0.0 121.150942,22.97402,0.0 121.16157,22.970693,0.0 121.168238,22.968841,0.0 121.175188,22.965788,0.0 121.186158,22.967961,0.0 121.194292,22.971259,0.0 121.202216,22.980655,0.0 121.218426,22.984912,0.0 121.21865,22.985177,0.0 121.21877,22.985442,0.0 121.218904,22.985591,0.0 121.219129,22.985838,0.0 121.219493,22.986093,0.0 121.219369,22.986425,0.0 121.219106,22.986804,0.0 121.2189,22.986976,0.0 121.218756,22.987306,0.0 121.218701,22.987598,0.0 121.218663,22.988066,0.0 121.218597,22.988294,0.0 121.218364,22.9886,0.0 121.218075,22.988773,0.0 121.217727,22.98882,0.0 121.217424,22.988953,0.0 121.217094,22.989219,0.0 121.216965,22.989459,0.0 121.216797,22.989686,0.0 121.216698,22.989944,0.0 121.216777,22.99033,0.0 121.216725,22.990649,0.0 121.216296,22.99092,0.0 121.216183,22.991184,0.0 121.216389,22.991432,0.0 121.216633,22.99159,0.0 121.216816,22.991845,0.0 121.21687,22.991998,0.0 121.216927,22.992198,0.0 121.216972,22.992483,0.0 121.216982,22.992724,0.0 121.217068,22.992971,0.0 121.217253,22.993483,0.0 121.217431,22.993901,0.0 121.21762,22.994681,0.0 121.217896,22.995192,0.0 121.218012,22.995452,0.0 121.218088,22.995843,0.0 121.217985,22.996318,0.0 121.217965,22.996871,0.0 121.218056,22.997259,0.0 121.21804,22.99762,0.0 121.217981,22.998157,0.0 121.217534,23.000046,0.0 121.217148,23.000414,0.0 121.216303,23.000991,0.0 121.216529,23.001421,0.0 121.216776,23.002446,0.0 121.216702,23.002876,0.0 121.216596,23.003869,0.0 121.21629,23.004531,0.0 121.216061,23.005122,0.0 121.216136,23.005958,0.0 121.216204,23.00643,0.0 121.216376,23.007845,0.0 121.215896,23.009338,0.0 121.215284,23.009085,0.0 121.214613,23.008496,0.0 121.21431,23.007173,0.0 121.212884,23.005656,0.0 121.211043,23.004175,0.0 121.210426,23.003031,0.0 121.209286,23.002008,0.0 121.208076,23.001788,0.0 121.207084,23.001697,0.0 121.205994,23.001508,0.0 121.205102,23.001401,0.0 121.204616,23.001216,0.0 121.204252,23.001172,0.0 121.203824,23.001443,0.0 121.203468,23.001545,0.0 121.202045,23.001378,0.0 121.201111,23.001244,0.0 121.200571,23.001071,0.0 121.20028,23.001235,0.0 121.199792,23.001338,0.0 121.199323,23.001625,0.0 121.199036,23.001674,0.0 121.198073,23.001047,0.0 121.197352,23.000641,0.0 121.196555,23.000003,0.0 121.195352,22.999483,0.0 121.194933,22.999073,0.0 121.194834,22.998341,0.0 121.194454,22.998224,0.0 121.193445,22.998727,0.0 121.192615,22.998906,0.0 121.19251,22.998455,0.0 121.192519,22.997726,0.0 121.191797,22.996607,0.0 121.19107,22.995075,0.0 121.190636,22.994291,0.0 121.191009,22.993625,0.0 121.191423,22.9933,0.0 121.191149,22.993016,0.0 121.19003,22.992868,0.0 121.188965,22.993266,0.0 121.188269,22.993338,0.0 121.187999,22.992525,0.0 121.185953,22.990924,0.0 121.185526,22.989907,0.0 121.184862,22.989831,0.0 121.183406,22.989446,0.0 121.183413,22.988854,0.0 121.183121,22.988103,0.0 121.182144,22.98815,0.0 121.181426,22.987281,0.0 121.180119,22.986021,0.0 121.17854,22.98572,0.0 121.177433,22.985778,0.0 121.176257,22.986025,0.0 121.175571,22.985814,0.0 121.174297,22.985275,0.0 121.173629,22.985502,0.0 121.173229,22.986648,0.0 121.172184,22.98731,0.0 121.169585,22.987205,0.0 121.168361,22.987559,0.0 121.167304,22.988407,0.0 121.165677,22.989297,0.0 121.164838,22.990119,0.0 121.164291,22.991,0.0 121.163158,22.992801,0.0 121.162246,22.994082,0.0 121.161436,22.994841,0.0 121.15907,22.996302,0.0 121.157183,22.996706,0.0 121.1559,22.996612,0.0 121.153785,22.996392,0.0 121.151899,22.996469,0.0 121.150243,22.99643,0.0 121.148672,22.996388,0.0</coordinates></LinearRing></outerBoundaryIs></Polygon><styleUrl>#spolygon-map</styleUrl></Placemark><Placemark><Polygon><outerBoundaryIs><LinearRing><coordinates>121.140859,22.963228,0.0 121.144808,22.951008,0.0 121.142951,22.946251,0.0 121.143559,22.941338,0.0 121.148803,22.935558,0.0 121.151081,22.92841,0.0 121.15384,22.925425,0.0 121.154296,22.925901,0.0 121.155238,22.926489,0.0 121.156105,22.926924,0.0 121.156684,22.927176,0.0 121.157416,22.928043,0.0 121.158029,22.929048,0.0 121.158518,22.929814,0.0 121.158975,22.930206,0.0 121.160055,22.931076,0.0 121.161003,22.931947,0.0 121.161661,22.932405,0.0 121.16239,22.933019,0.0 121.163138,22.933367,0.0 121.163943,22.933639,0.0 121.164593,22.933897,0.0 121.165716,22.93422,0.0 121.166753,22.934557,0.0 121.16813,22.935069,0.0 121.169579,22.93565,0.0 121.17054,22.935997,0.0 121.171701,22.936,0.0 121.172168,22.935963,0.0 121.17314,22.936003,0.0 121.174047,22.936397,0.0 121.174486,22.936514,0.0 121.174879,22.936352,0.0 121.175632,22.935672,0.0 121.175835,22.935395,0.0 121.176129,22.934904,0.0 121.176892,22.934723,0.0 121.177496,22.934245,0.0 121.178056,22.93373,0.0 121.178741,22.933086,0.0 121.179307,22.932582,0.0 121.179841,22.932198,0.0 121.180396,22.932176,0.0 121.180687,22.931993,0.0 121.180823,22.931738,0.0 121.181124,22.931659,0.0 121.181564,22.931722,0.0 121.182501,22.931775,0.0 121.182903,22.931982,0.0 121.183103,22.932107,0.0 121.183547,22.932539,0.0 121.183722,22.933097,0.0 121.183929,22.933848,0.0 121.184455,22.934475,0.0 121.185112,22.934851,0.0 121.185211,22.935707,0.0 121.185609,22.936352,0.0 121.18638,22.937302,0.0 121.188114,22.938008,0.0 121.189139,22.938811,0.0 121.190624,22.938737,0.0 121.191474,22.938011,0.0 121.192793,22.937443,0.0 121.194193,22.936669,0.0 121.195197,22.937339,0.0 121.190924,22.946121,0.0 121.188652,22.947989,0.0 121.185873,22.952467,0.0 121.183394,22.953511,0.0 121.18243,22.959222,0.0 121.177307,22.961943,0.0 121.171825,22.958515,0.0 121.168736,22.956433,0.0 121.160158,22.955389,0.0 121.140859,22.963228,0.0</coordinates></LinearRing></outerBoundaryIs></Polygon><styleUrl>#spolygon-map</styleUrl></Placemark><Placemark><Polygon><outerBoundaryIs><LinearRing><coordinates>121.218698,22.977871,0.0 121.218781,22.978039,0.0 121.218844,22.978325,0.0 121.218738,22.978851,0.0 121.218691,22.979312,0.0 121.21852,22.979572,0.0 121.218538,22.979918,0.0 121.218898,22.980267,0.0 121.219255,22.980767,0.0 121.219422,22.981415,0.0 121.219294,22.982009,0.0 121.21905,22.982346,0.0 121.218713,22.982558,0.0 121.218678,22.982805,0.0 121.218758,22.983023,0.0 121.218611,22.983563,0.0 121.218527,22.984084,0.0 121.218587,22.984471,0.0 121.218463,22.984786,0.0 121.208831,22.983856,0.0 121.198416,22.975692,0.0 121.190995,22.970136,0.0 121.178065,22.96532,0.0 121.172377,22.966938,0.0 121.164253,22.970424,0.0 121.159029,22.972077,0.0 121.14803,22.974393,0.0 121.145031,22.971987,0.0 121.141964,22.965183,0.0 121.145867,22.961178,0.0 121.163424,22.955032,0.0 121.170239,22.957142,0.0 121.173202,22.960516,0.0 121.181144,22.961535,0.0 121.183331,22.9582,0.0 121.18383,22.953124,0.0 121.187905,22.950896,0.0 121.189553,22.94743,0.0 121.192676,22.942135,0.0 121.195441,22.937654,0.0 121.196222,22.938107,0.0 121.196932,22.938799,0.0 121.197173,22.940172,0.0 121.197707,22.940948,0.0 121.19838,22.94157,0.0 121.198722,22.943132,0.0 121.199443,22.945066,0.0 121.200944,22.94692,0.0 121.202009,22.948049,0.0 121.202846,22.948642,0.0 121.203903,22.949325,0.0 121.204053,22.950404,0.0 121.20409,22.9517,0.0 121.205274,22.953185,0.0 121.205357,22.953974,0.0 121.205605,22.954425,0.0 121.206113,22.954783,0.0 121.206794,22.955647,0.0 121.20631,22.956491,0.0 121.206738,22.957033,0.0 121.207031,22.957603,0.0 121.207758,22.958098,0.0 121.208522,22.959214,0.0 121.208981,22.960202,0.0 121.209438,22.960881,0.0 121.21025,22.961167,0.0 121.211397,22.961893,0.0 121.210991,22.963396,0.0 121.211273,22.96471,0.0 121.211791,22.965604,0.0 121.211586,22.96641,0.0 121.212044,22.967335,0.0 121.211708,22.968277,0.0 121.211849,22.969396,0.0 121.212748,22.970785,0.0 121.213275,22.971154,0.0 121.213854,22.972308,0.0 121.214432,22.973258,0.0 121.214489,22.973479,0.0 121.21455,22.973807,0.0 121.214728,22.974071,0.0 121.215158,22.974363,0.0 121.215462,22.974742,0.0 121.216008,22.974965,0.0 121.216207,22.975195,0.0 121.216236,22.975502,0.0 121.216433,22.975865,0.0 121.216678,22.976007,0.0 121.216928,22.976163,0.0 121.217113,22.976357,0.0 121.217417,22.976778,0.0 121.217685,22.976938,0.0 121.218082,22.977215,0.0 121.218426,22.977447,0.0 121.218548,22.977646,0.0 121.218698,22.977871,0.0</coordinates></LinearRing></outerBoundaryIs></Polygon><styleUrl>#spolygon-map</styleUrl></Placemark><Placemark><Polygon><outerBoundaryIs><LinearRing><coordinates>121.130938,22.994826,0.0 121.13033,22.994114,0.0 121.130051,22.993293,0.0 121.13009,22.991684,0.0 121.130143,22.990668,0.0 121.129987,22.989648,0.0 121.129159,22.988938,0.0 121.127745,22.987442,0.0 121.12742,22.98669,0.0 121.126895,22.985828,0.0 121.125828,22.985267,0.0 121.125037,22.984757,0.0 121.123877,22.983072,0.0 121.123226,22.981876,0.0 121.122329,22.981178,0.0 121.123698,22.980044,0.0 121.12607,22.978717,0.0 121.127644,22.978088,0.0 121.12809,22.977283,0.0 121.128047,22.976447,0.0 121.128067,22.974315,0.0 121.127945,22.973299,0.0 121.127571,22.97325,0.0 121.126543,22.973204,0.0 121.125809,22.973073,0.0 121.124482,22.972736,0.0 121.122885,22.972635,0.0 121.121357,22.972375,0.0 121.11985,22.97194,0.0 121.119168,22.971927,0.0 121.118422,22.972013,0.0 121.126161,22.967914,0.0 121.12957,22.967787,0.0 121.136181,22.965592,0.0 121.141424,22.964404,0.0 121.144605,22.970727,0.0 121.144836,22.98111,0.0 121.146791,22.988511,0.0 121.148572,22.996385,0.0 121.146252,22.996269,0.0 121.141569,22.995975,0.0 121.140173,22.995604,0.0 121.139247,22.995313,0.0 121.136715,22.99501,0.0 121.135579,22.994707,0.0 121.133233,22.994724,0.0 121.131319,22.994831,0.0 121.130938,22.994826,0.0</coordinates></LinearRing></outerBoundaryIs></Polygon><styleUrl>#spolygon-map</styleUrl></Placemark><Placemark><Polygon><outerBoundaryIs><LinearRing><coordinates>121.133714,22.913127,0.0 121.12688,22.912571,0.0 121.118436,22.911726,0.0 121.113974,22.912691,0.0 121.114585,22.914066,0.0 121.116101,22.91758,0.0 121.118028,22.919947,0.0 121.119159,22.922362,0.0 121.117927,22.923532,0.0 121.117838,22.923177,0.0 121.117769,22.922867,0.0 121.117532,22.922582,0.0 121.117224,22.922458,0.0 121.116809,22.922478,0.0 121.115869,22.922242,0.0 121.115476,22.921928,0.0 121.11526,22.921423,0.0 121.114939,22.92122,0.0 121.114809,22.921015,0.0 121.114693,22.920563,0.0 121.114363,22.92045,0.0 121.114307,22.920186,0.0 121.114463,22.919967,0.0 121.114314,22.919374,0.0 121.114119,22.918525,0.0 121.113562,22.918075,0.0 121.113229,22.917984,0.0 121.112704,22.917494,0.0 121.112972,22.916683,0.0 121.113389,22.916277,0.0 121.113449,22.915859,0.0 121.113106,22.915408,0.0 121.112873,22.915121,0.0 121.11258,22.915095,0.0 121.111964,22.914508,0.0 121.111269,22.913998,0.0 121.110687,22.913747,0.0 121.110449,22.913407,0.0 121.110045,22.912809,0.0 121.10991,22.91227,0.0 121.109647,22.911732,0.0 121.109294,22.911338,0.0 121.108072,22.910589,0.0 121.107494,22.910713,0.0 121.107027,22.910902,0.0 121.106622,22.910797,0.0 121.105693,22.910673,0.0 121.104879,22.910494,0.0 121.103858,22.910313,0.0 121.103043,22.910037,0.0 121.102802,22.90987,0.0 121.102229,22.90966,0.0 121.101068,22.909205,0.0 121.10077,22.909155,0.0 121.10018,22.908747,0.0 121.09979,22.908824,0.0 121.099443,22.908752,0.0 121.098754,22.907953,0.0 121.098316,22.907516,0.0 121.097552,22.90685,0.0 121.096817,22.906302,0.0 121.095951,22.905616,0.0 121.095097,22.905131,0.0 121.093886,22.903395,0.0 121.093361,22.902836,0.0 121.093954,22.902263,0.0 121.09535,22.900489,0.0 121.09868,22.902174,0.0 121.111263,22.902667,0.0 121.115252,22.900228,0.0 121.12065,22.898664,0.0 121.131572,22.897815,0.0 121.134965,22.898304,0.0 121.136011,22.904293,0.0 121.135242,22.911945,0.0 121.133714,22.913127,0.0</coordinates></LinearRing></outerBoundaryIs></Polygon><styleUrl>#spolygon-map</styleUrl></Placemark></Document>
</kml>
