<?xml version="1.0" encoding="UTF-8"?>
<kml xmlns="http://www.opengis.net/kml/2.2">
	<Document>
		<name>花蓮縣瑞穗鄉</name>
		<Style id="spolygon">
			<LabelStyle>
				<scale>0.0</scale>
			</LabelStyle>
			<LineStyle>
				<color>330030ff</color>
				<width>0</width>
			</LineStyle>
			<PolyStyle>
				<color>330030ff</color>
			</PolyStyle>
		</Style>
		<StyleMap id="spolygon-map">
			<Pair>
				<key>normal</key>
				<styleUrl>#spolygon</styleUrl>
			</Pair>
		</StyleMap>
	<Placemark><Polygon><outerBoundaryIs><LinearRing><coordinates>121.439766,23.547336,0.0 121.438641,23.538142,0.0 121.437509,23.533822,0.0 121.432063,23.533704,0.0 121.428846,23.531519,0.0 121.429665,23.528457,0.0 121.430489,23.526737,0.0 121.433116,23.526122,0.0 121.435492,23.523055,0.0 121.433174,23.519795,0.0 121.426489,23.519844,0.0 121.41795,23.514935,0.0 121.411822,23.511284,0.0 121.412175,23.506505,0.0 121.412068,23.504441,0.0 121.409753,23.501703,0.0 121.407205,23.498874,0.0 121.408113,23.494763,0.0 121.410445,23.495326,0.0 121.411519,23.49584,0.0 121.41386,23.495489,0.0 121.416134,23.495331,0.0 121.417614,23.494677,0.0 121.418329,23.493468,0.0 121.418102,23.490357,0.0 121.416136,23.486954,0.0 121.415083,23.484338,0.0 121.414607,23.481614,0.0 121.414906,23.479846,0.0 121.416346,23.478555,0.0 121.418178,23.47783,0.0 121.419558,23.477639,0.0 121.420713,23.4779,0.0 121.421346,23.478092,0.0 121.422387,23.477557,0.0 121.422939,23.478032,0.0 121.423693,23.478359,0.0 121.424463,23.47875,0.0 121.425006,23.478584,0.0 121.425719,23.478473,0.0 121.42579,23.47794,0.0 121.42608,23.477104,0.0 121.426385,23.476675,0.0 121.426919,23.476617,0.0 121.427829,23.477172,0.0 121.429379,23.479323,0.0 121.430324,23.481127,0.0 121.430943,23.482626,0.0 121.431935,23.482558,0.0 121.432563,23.48238,0.0 121.433125,23.481221,0.0 121.434505,23.47965,0.0 121.43558,23.47862,0.0 121.437254,23.476768,0.0 121.438189,23.47596,0.0 121.439073,23.47561,0.0 121.440202,23.475002,0.0 121.4409,23.474749,0.0 121.441052,23.474026,0.0 121.439905,23.473018,0.0 121.439375,23.472317,0.0 121.438081,23.471919,0.0 121.436921,23.472013,0.0 121.435703,23.471718,0.0 121.434904,23.471644,0.0 121.434643,23.470744,0.0 121.43462,23.468935,0.0 121.436023,23.468496,0.0 121.436936,23.468173,0.0 121.437848,23.467479,0.0 121.438918,23.466546,0.0 121.439667,23.46528,0.0 121.440584,23.463385,0.0 121.441357,23.461534,0.0 121.44248,23.460508,0.0 121.444133,23.460307,0.0 121.445657,23.459459,0.0 121.445489,23.458396,0.0 121.444764,23.457538,0.0 121.44406,23.455345,0.0 121.443498,23.45313,0.0 121.444168,23.452078,0.0 121.445154,23.4518,0.0 121.445958,23.451918,0.0 121.4469,23.452285,0.0 121.449181,23.453389,0.0 121.451493,23.453726,0.0 121.453091,23.453629,0.0 121.454679,23.453448,0.0 121.456452,23.453115,0.0 121.458384,23.452963,0.0 121.45966,23.453591,0.0 121.460638,23.45402,0.0 121.461829,23.454267,0.0 121.46251,23.454524,0.0 121.462946,23.45513,0.0 121.463155,23.456141,0.0 121.463484,23.456788,0.0 121.463754,23.458153,0.0 121.463614,23.459228,0.0 121.46448,23.459914,0.0 121.464748,23.460173,0.0 121.464689,23.461545,0.0 121.465174,23.462553,0.0 121.465703,23.464561,0.0 121.466779,23.465725,0.0 121.466489,23.466852,0.0 121.466437,23.468046,0.0 121.466745,23.469628,0.0 121.466311,23.471009,0.0 121.465272,23.472969,0.0 121.464985,23.474218,0.0 121.464529,23.475689,0.0 121.465039,23.476392,0.0 121.465453,23.47719,0.0 121.466405,23.479023,0.0 121.467476,23.480087,0.0 121.46787,23.480574,0.0 121.468374,23.480882,0.0 121.468787,23.481562,0.0 121.469526,23.482133,0.0 121.470929,23.483479,0.0 121.471923,23.484205,0.0 121.471992,23.485327,0.0 121.472027,23.485794,0.0 121.472265,23.486179,0.0 121.472653,23.486302,0.0 121.473115,23.486479,0.0 121.473652,23.486843,0.0 121.473701,23.487525,0.0 121.474168,23.487661,0.0 121.475056,23.487492,0.0 121.475751,23.487196,0.0 121.476403,23.487131,0.0 121.477061,23.487287,0.0 121.477509,23.487721,0.0 121.478111,23.487895,0.0 121.478902,23.487446,0.0 121.479403,23.486765,0.0 121.479625,23.486308,0.0 121.480489,23.485746,0.0 121.48111,23.484683,0.0 121.481604,23.483711,0.0 121.482619,23.483118,0.0 121.483356,23.483296,0.0 121.48389,23.483543,0.0 121.484433,23.483736,0.0 121.485672,23.48477,0.0 121.486671,23.485006,0.0 121.486285,23.485829,0.0 121.485535,23.487473,0.0 121.485281,23.489824,0.0 121.485343,23.49093,0.0 121.484895,23.491633,0.0 121.484697,23.492255,0.0 121.485494,23.493144,0.0 121.485819,23.494224,0.0 121.486626,23.4948,0.0 121.48708,23.495864,0.0 121.486907,23.497158,0.0 121.487134,23.49804,0.0 121.487077,23.498936,0.0 121.487188,23.500169,0.0 121.487625,23.502194,0.0 121.488571,23.503054,0.0 121.48916,23.503711,0.0 121.489251,23.504551,0.0 121.489053,23.505617,0.0 121.487795,23.50814,0.0 121.487463,23.509672,0.0 121.487737,23.511046,0.0 121.488238,23.512672,0.0 121.488549,23.513761,0.0 121.487139,23.514001,0.0 121.486292,23.514669,0.0 121.484886,23.515746,0.0 121.484888,23.516355,0.0 121.485033,23.517524,0.0 121.485339,23.518986,0.0 121.48619,23.521577,0.0 121.486343,23.522713,0.0 121.486636,23.523461,0.0 121.487189,23.525184,0.0 121.488099,23.52675,0.0 121.489207,23.527408,0.0 121.489415,23.529085,0.0 121.489773,23.531276,0.0 121.489875,23.532881,0.0 121.490142,23.534381,0.0 121.490092,23.535006,0.0 121.490434,23.535816,0.0 121.491014,23.536965,0.0 121.491726,23.538381,0.0 121.492099,23.53952,0.0 121.492146,23.540829,0.0 121.492501,23.541837,0.0 121.492224,23.542817,0.0 121.490994,23.542783,0.0 121.490046,23.543538,0.0 121.488605,23.544935,0.0 121.487543,23.545404,0.0 121.486528,23.54449,0.0 121.485742,23.544093,0.0 121.484586,23.544918,0.0 121.483405,23.545195,0.0 121.479169,23.542181,0.0 121.476624,23.541259,0.0 121.474344,23.54155,0.0 121.472269,23.542931,0.0 121.470556,23.543031,0.0 121.468816,23.543134,0.0 121.46522,23.543594,0.0 121.464006,23.542649,0.0 121.462182,23.542944,0.0 121.460285,23.544046,0.0 121.459445,23.545336,0.0 121.456815,23.544194,0.0 121.454002,23.543038,0.0 121.452632,23.542685,0.0 121.451396,23.543215,0.0 121.450375,23.544493,0.0 121.448945,23.544895,0.0 121.446936,23.544745,0.0 121.445305,23.545124,0.0 121.44381,23.547031,0.0 121.443151,23.54783,0.0 121.441567,23.547261,0.0 121.439766,23.547336,0.0</coordinates></LinearRing></outerBoundaryIs></Polygon><styleUrl>#spolygon-map</styleUrl></Placemark><Placemark><Polygon><outerBoundaryIs><LinearRing><coordinates>121.364022,23.577428,0.0 121.365061,23.572906,0.0 121.364712,23.569872,0.0 121.365517,23.568212,0.0 121.366703,23.56697,0.0 121.367309,23.566242,0.0 121.367396,23.565375,0.0 121.369043,23.564111,0.0 121.371157,23.562842,0.0 121.372402,23.560979,0.0 121.37292,23.559275,0.0 121.374674,23.556668,0.0 121.374562,23.556156,0.0 121.375066,23.555179,0.0 121.379645,23.554361,0.0 121.380844,23.562071,0.0 121.37645,23.576496,0.0 121.364022,23.577428,0.0</coordinates></LinearRing></outerBoundaryIs></Polygon><styleUrl>#spolygon-map</styleUrl></Placemark><Placemark><Polygon><outerBoundaryIs><LinearRing><coordinates>121.382732,23.587641,0.0 121.382073,23.588531,0.0 121.381634,23.589132,0.0 121.380627,23.589679,0.0 121.37998,23.589857,0.0 121.379176,23.589098,0.0 121.37796,23.588173,0.0 121.37691,23.588268,0.0 121.375269,23.588687,0.0 121.37423,23.589367,0.0 121.373201,23.590126,0.0 121.372482,23.590358,0.0 121.372037,23.590905,0.0 121.370653,23.591909,0.0 121.370007,23.592224,0.0 121.369169,23.592863,0.0 121.367919,23.593631,0.0 121.366413,23.593871,0.0 121.365594,23.59467,0.0 121.364762,23.595733,0.0 121.36369,23.596673,0.0 121.362786,23.597643,0.0 121.3621,23.598197,0.0 121.361676,23.598921,0.0 121.361276,23.600661,0.0 121.360802,23.60228,0.0 121.360065,23.603244,0.0 121.359523,23.603958,0.0 121.358865,23.604319,0.0 121.358229,23.605341,0.0 121.356242,23.60514,0.0 121.35321,23.603655,0.0 121.352598,23.601408,0.0 121.35273,23.599477,0.0 121.35245,23.598197,0.0 121.353152,23.596259,0.0 121.354216,23.594505,0.0 121.354461,23.592703,0.0 121.354412,23.591053,0.0 121.355085,23.589376,0.0 121.355449,23.588574,0.0 121.355271,23.586554,0.0 121.35658,23.584975,0.0 121.357798,23.583103,0.0 121.358278,23.582264,0.0 121.359127,23.5821,0.0 121.362019,23.581336,0.0 121.364022,23.577428,0.0 121.37645,23.576496,0.0 121.380844,23.562071,0.0 121.382006,23.576327,0.0 121.382732,23.587641,0.0</coordinates></LinearRing></outerBoundaryIs></Polygon><styleUrl>#spolygon-map</styleUrl></Placemark><Placemark><Polygon><outerBoundaryIs><LinearRing><coordinates>121.382732,23.587641,0.0 121.381771,23.568425,0.0 121.381682,23.557827,0.0 121.381569,23.551411,0.0 121.383166,23.547895,0.0 121.392761,23.551339,0.0 121.403021,23.554347,0.0 121.408726,23.558568,0.0 121.41946,23.561034,0.0 121.421319,23.562693,0.0 121.421214,23.563841,0.0 121.421986,23.564484,0.0 121.422733,23.566243,0.0 121.423269,23.567474,0.0 121.424795,23.568524,0.0 121.426208,23.568931,0.0 121.427084,23.56966,0.0 121.427966,23.569983,0.0 121.428862,23.571726,0.0 121.429278,23.572876,0.0 121.428883,23.573649,0.0 121.427641,23.574557,0.0 121.427031,23.575385,0.0 121.425885,23.576357,0.0 121.424751,23.577171,0.0 121.423466,23.577201,0.0 121.423221,23.577904,0.0 121.423995,23.578886,0.0 121.424321,23.580818,0.0 121.424447,23.582192,0.0 121.424928,23.583022,0.0 121.425612,23.583911,0.0 121.42639,23.584756,0.0 121.425832,23.586473,0.0 121.426105,23.586958,0.0 121.425498,23.587571,0.0 121.424646,23.588113,0.0 121.423465,23.588071,0.0 121.421985,23.587775,0.0 121.42132,23.588499,0.0 121.42059,23.588585,0.0 121.419597,23.588201,0.0 121.418613,23.587947,0.0 121.417538,23.588631,0.0 121.41664,23.588379,0.0 121.415975,23.587313,0.0 121.414612,23.587027,0.0 121.413299,23.586631,0.0 121.411809,23.585793,0.0 121.411216,23.585088,0.0 121.409969,23.58557,0.0 121.408778,23.585679,0.0 121.407859,23.585366,0.0 121.407097,23.58539,0.0 121.405888,23.584736,0.0 121.405274,23.584876,0.0 121.404698,23.585035,0.0 121.403806,23.584947,0.0 121.402967,23.585363,0.0 121.402139,23.585866,0.0 121.402094,23.586615,0.0 121.401479,23.587479,0.0 121.399397,23.587106,0.0 121.396935,23.586676,0.0 121.395028,23.586327,0.0 121.392424,23.585891,0.0 121.390504,23.58597,0.0 121.388048,23.586337,0.0 121.387249,23.586671,0.0 121.385626,23.587009,0.0 121.38388,23.587422,0.0 121.383257,23.587216,0.0 121.382809,23.58756,0.0 121.382732,23.587641,0.0</coordinates></LinearRing></outerBoundaryIs></Polygon><styleUrl>#spolygon-map</styleUrl></Placemark><Placemark><Polygon><outerBoundaryIs><LinearRing><coordinates>121.375066,23.555179,0.0 121.375628,23.55323,0.0 121.375462,23.552693,0.0 121.375149,23.552371,0.0 121.374918,23.552107,0.0 121.375299,23.550928,0.0 121.376199,23.549023,0.0 121.376374,23.548197,0.0 121.375839,23.547364,0.0 121.375371,23.546623,0.0 121.375569,23.546182,0.0 121.375076,23.545481,0.0 121.37441,23.545153,0.0 121.374136,23.544045,0.0 121.373993,23.543154,0.0 121.373985,23.542127,0.0 121.374225,23.541569,0.0 121.374217,23.540776,0.0 121.374559,23.53955,0.0 121.375069,23.538076,0.0 121.374613,23.53777,0.0 121.374515,23.537324,0.0 121.374151,23.53718,0.0 121.373914,23.536478,0.0 121.372328,23.536575,0.0 121.371477,23.536868,0.0 121.371015,23.535987,0.0 121.370251,23.535286,0.0 121.370223,23.534038,0.0 121.369692,23.534238,0.0 121.36942,23.534462,0.0 121.369363,23.533798,0.0 121.369513,23.532951,0.0 121.369498,23.532349,0.0 121.369466,23.531685,0.0 121.369898,23.530391,0.0 121.369837,23.529722,0.0 121.370404,23.529213,0.0 121.370324,23.528834,0.0 121.369738,23.528953,0.0 121.3691,23.528485,0.0 121.368651,23.5277,0.0 121.368208,23.526886,0.0 121.367674,23.526504,0.0 121.368611,23.525748,0.0 121.368644,23.524571,0.0 121.368793,23.523467,0.0 121.36887,23.522826,0.0 121.369562,23.521998,0.0 121.369486,23.521725,0.0 121.36802,23.522254,0.0 121.367687,23.522047,0.0 121.367822,23.521203,0.0 121.367854,23.520338,0.0 121.369527,23.517661,0.0 121.365929,23.51436,0.0 121.371732,23.509554,0.0 121.378173,23.511744,0.0 121.383992,23.515878,0.0 121.383899,23.525851,0.0 121.383116,23.538303,0.0 121.383181,23.546781,0.0 121.38204,23.550574,0.0 121.377873,23.555311,0.0 121.375066,23.555179,0.0</coordinates></LinearRing></outerBoundaryIs></Polygon><styleUrl>#spolygon-map</styleUrl></Placemark><Placemark><Polygon><outerBoundaryIs><LinearRing><coordinates>121.407008,23.494536,0.0 121.396753,23.494746,0.0 121.389614,23.48714,0.0 121.389645,23.480733,0.0 121.396159,23.479181,0.0 121.398082,23.479479,0.0 121.39975,23.480517,0.0 121.4027,23.482666,0.0 121.404758,23.484536,0.0 121.405979,23.487985,0.0 121.407313,23.490366,0.0 121.408112,23.491634,0.0 121.408834,23.492545,0.0 121.40949,23.493561,0.0 121.407008,23.494536,0.0</coordinates></LinearRing></outerBoundaryIs></Polygon><styleUrl>#spolygon-map</styleUrl></Placemark><Placemark><Polygon><outerBoundaryIs><LinearRing><coordinates>121.3857,23.50408,0.0 121.381393,23.497966,0.0 121.377829,23.492383,0.0 121.372572,23.484379,0.0 121.374684,23.481365,0.0 121.383112,23.484579,0.0 121.389614,23.48714,0.0 121.392438,23.498196,0.0 121.386772,23.503587,0.0 121.3857,23.50408,0.0</coordinates></LinearRing></outerBoundaryIs></Polygon><styleUrl>#spolygon-map</styleUrl></Placemark><Placemark><Polygon><outerBoundaryIs><LinearRing><coordinates>121.367648,23.520169,0.0 121.366341,23.520721,0.0 121.36535,23.522046,0.0 121.36517,23.523114,0.0 121.364961,23.523993,0.0 121.363841,23.525535,0.0 121.362127,23.526496,0.0 121.360407,23.526338,0.0 121.358115,23.526356,0.0 121.353281,23.526722,0.0 121.349523,23.526148,0.0 121.347828,23.523198,0.0 121.347305,23.520785,0.0 121.346753,23.518991,0.0 121.347053,23.51688,0.0 121.3472,23.512918,0.0 121.346208,23.511619,0.0 121.346086,23.509877,0.0 121.346832,23.504942,0.0 121.34702,23.500416,0.0 121.346189,23.497241,0.0 121.346007,23.495341,0.0 121.345551,23.492384,0.0 121.345535,23.490926,0.0 121.34303,23.489631,0.0 121.344707,23.487086,0.0 121.348312,23.481398,0.0 121.352528,23.475882,0.0 121.358119,23.474829,0.0 121.366349,23.4765,0.0 121.37207,23.481869,0.0 121.37634,23.491447,0.0 121.372686,23.496732,0.0 121.376202,23.500413,0.0 121.374496,23.509699,0.0 121.366132,23.513066,0.0 121.369192,23.51595,0.0 121.367648,23.520169,0.0</coordinates></LinearRing></outerBoundaryIs></Polygon><styleUrl>#spolygon-map</styleUrl></Placemark><Placemark><Polygon><outerBoundaryIs><LinearRing><coordinates>121.375941,23.510076,0.0 121.375211,23.499845,0.0 121.372889,23.495666,0.0 121.379068,23.49295,0.0 121.381493,23.498196,0.0 121.385248,23.504652,0.0 121.381797,23.509529,0.0 121.375941,23.510076,0.0</coordinates></LinearRing></outerBoundaryIs></Polygon><styleUrl>#spolygon-map</styleUrl></Placemark><Placemark><Polygon><outerBoundaryIs><LinearRing><coordinates>121.386396,23.483952,0.0 121.379385,23.48399,0.0 121.372968,23.480842,0.0 121.366349,23.4765,0.0 121.358119,23.474829,0.0 121.352528,23.475882,0.0 121.348312,23.481398,0.0 121.344707,23.487086,0.0 121.338341,23.486862,0.0 121.337001,23.47862,0.0 121.333111,23.471595,0.0 121.325604,23.465616,0.0 121.326102,23.464381,0.0 121.326499,23.464059,0.0 121.327566,23.463407,0.0 121.328722,23.463147,0.0 121.330297,23.462372,0.0 121.331448,23.462105,0.0 121.332036,23.4603,0.0 121.333777,23.459971,0.0 121.336122,23.45949,0.0 121.337439,23.458821,0.0 121.338367,23.458582,0.0 121.33977,23.458166,0.0 121.340335,23.458119,0.0 121.341331,23.45755,0.0 121.342138,23.457341,0.0 121.343359,23.457221,0.0 121.343905,23.456845,0.0 121.343927,23.455899,0.0 121.344625,23.455751,0.0 121.344713,23.454692,0.0 121.34468,23.453545,0.0 121.345139,23.452485,0.0 121.346389,23.452162,0.0 121.346479,23.451432,0.0 121.346379,23.450362,0.0 121.346989,23.449521,0.0 121.347428,23.448084,0.0 121.347931,23.447668,0.0 121.348258,23.447134,0.0 121.348659,23.44645,0.0 121.34895,23.445349,0.0 121.349898,23.443772,0.0 121.350421,23.443073,0.0 121.351445,23.443249,0.0 121.351797,23.442699,0.0 121.351887,23.442035,0.0 121.352695,23.441765,0.0 121.353327,23.441863,0.0 121.353933,23.441272,0.0 121.354593,23.440709,0.0 121.355895,23.44087,0.0 121.355876,23.439819,0.0 121.355112,23.439658,0.0 121.355683,23.438817,0.0 121.357709,23.437534,0.0 121.35955,23.436406,0.0 121.361935,23.434802,0.0 121.363148,23.436528,0.0 121.36454,23.439552,0.0 121.365413,23.441634,0.0 121.366317,23.443576,0.0 121.367503,23.445237,0.0 121.368433,23.447126,0.0 121.369734,23.449907,0.0 121.37083,23.452659,0.0 121.372108,23.45506,0.0 121.374973,23.457613,0.0 121.377293,23.460023,0.0 121.37824,23.461125,0.0 121.379807,23.463085,0.0 121.381527,23.466571,0.0 121.383836,23.469961,0.0 121.38556,23.471379,0.0 121.386105,23.472445,0.0 121.387202,23.473433,0.0 121.388753,23.474777,0.0 121.390607,23.476344,0.0 121.393331,23.478121,0.0 121.394835,23.479801,0.0 121.387905,23.482347,0.0 121.386396,23.483952,0.0</coordinates></LinearRing></outerBoundaryIs></Polygon><styleUrl>#spolygon-map</styleUrl></Placemark><Placemark><Polygon><outerBoundaryIs><LinearRing><coordinates>121.383166,23.547895,0.0 121.382956,23.54002,0.0 121.383864,23.528194,0.0 121.384405,23.516935,0.0 121.381797,23.509529,0.0 121.385248,23.504652,0.0 121.39134,23.499167,0.0 121.396753,23.494746,0.0 121.407008,23.494536,0.0 121.407575,23.499737,0.0 121.410523,23.502071,0.0 121.411936,23.504842,0.0 121.41251,23.506936,0.0 121.411993,23.512547,0.0 121.419154,23.515179,0.0 121.427528,23.520488,0.0 121.434544,23.519421,0.0 121.435413,23.523194,0.0 121.432726,23.525929,0.0 121.430959,23.527291,0.0 121.430353,23.529087,0.0 121.429208,23.53185,0.0 121.432927,23.533369,0.0 121.437943,23.534486,0.0 121.438752,23.538972,0.0 121.439606,23.547402,0.0 121.438347,23.547851,0.0 121.436362,23.548048,0.0 121.434892,23.547885,0.0 121.433118,23.54786,0.0 121.431629,23.547975,0.0 121.430749,23.548664,0.0 121.429589,23.549473,0.0 121.428682,23.550169,0.0 121.428968,23.550927,0.0 121.428717,23.551609,0.0 121.429094,23.553364,0.0 121.427769,23.553853,0.0 121.427715,23.554969,0.0 121.427351,23.5556,0.0 121.427806,23.556635,0.0 121.427825,23.557124,0.0 121.428176,23.558205,0.0 121.427932,23.559594,0.0 121.426474,23.55997,0.0 121.425324,23.560353,0.0 121.423609,23.560048,0.0 121.422911,23.560646,0.0 121.421897,23.560543,0.0 121.421535,23.561307,0.0 121.41946,23.561034,0.0 121.408726,23.558568,0.0 121.403021,23.554347,0.0 121.392761,23.551339,0.0 121.383166,23.547895,0.0</coordinates></LinearRing></outerBoundaryIs></Polygon><styleUrl>#spolygon-map</styleUrl></Placemark></Document>
</kml>
