<?xml version="1.0" encoding="UTF-8"?>
<kml xmlns="http://www.opengis.net/kml/2.2">
	<Document>
		<name>花蓮縣吉安鄉</name>
		<Style id="spolygon">
			<LabelStyle>
				<scale>0.0</scale>
			</LabelStyle>
			<LineStyle>
				<color>330030ff</color>
				<width>0</width>
			</LineStyle>
			<PolyStyle>
				<color>330030ff</color>
			</PolyStyle>
		</Style>
		<StyleMap id="spolygon-map">
			<Pair>
				<key>normal</key>
				<styleUrl>#spolygon</styleUrl>
			</Pair>
		</StyleMap>
	<Placemark><Polygon><outerBoundaryIs><LinearRing><coordinates>121.518463,23.950027,0.0 121.517061,23.949811,0.0 121.514701,23.948611,0.0 121.514582,23.94793,0.0 121.515556,23.947486,0.0 121.516577,23.946871,0.0 121.517627,23.946161,0.0 121.518751,23.945406,0.0 121.520208,23.944394,0.0 121.520775,23.943927,0.0 121.522105,23.942712,0.0 121.523355,23.941606,0.0 121.524915,23.940177,0.0 121.527006,23.938271,0.0 121.527455,23.937938,0.0 121.529035,23.937391,0.0 121.529892,23.936216,0.0 121.530998,23.934688,0.0 121.531764,23.934117,0.0 121.53322,23.933015,0.0 121.533936,23.932076,0.0 121.534571,23.931453,0.0 121.534721,23.930874,0.0 121.534729,23.930558,0.0 121.535326,23.929985,0.0 121.535606,23.929302,0.0 121.535814,23.928857,0.0 121.536834,23.928228,0.0 121.538296,23.927552,0.0 121.540598,23.927002,0.0 121.542576,23.9266,0.0 121.544601,23.926239,0.0 121.546899,23.926016,0.0 121.547949,23.926159,0.0 121.549203,23.925904,0.0 121.550958,23.92544,0.0 121.556205,23.935886,0.0 121.550445,23.949563,0.0 121.538467,23.953122,0.0 121.532167,23.952427,0.0 121.520582,23.949436,0.0 121.518463,23.950027,0.0</coordinates></LinearRing></outerBoundaryIs></Polygon><styleUrl>#spolygon-map</styleUrl></Placemark><Placemark><Polygon><outerBoundaryIs><LinearRing><coordinates>121.593673,23.957711,0.0 121.5877,23.939307,0.0 121.60732,23.939254,0.0 121.608723,23.9421,0.0 121.609222,23.94475,0.0 121.608266,23.946237,0.0 121.606929,23.948886,0.0 121.606617,23.94991,0.0 121.605932,23.952788,0.0 121.601151,23.954764,0.0 121.593673,23.957711,0.0</coordinates></LinearRing></outerBoundaryIs></Polygon><styleUrl>#spolygon-map</styleUrl></Placemark><Placemark><Polygon><outerBoundaryIs><LinearRing><coordinates>121.589846,23.972694,0.0 121.583157,23.963919,0.0 121.594066,23.969144,0.0 121.589846,23.972694,0.0</coordinates></LinearRing></outerBoundaryIs></Polygon><styleUrl>#spolygon-map</styleUrl></Placemark><Placemark><Polygon><outerBoundaryIs><LinearRing><coordinates>121.589793,23.964352,0.0 121.580151,23.954226,0.0 121.575136,23.945902,0.0 121.586561,23.939311,0.0 121.593605,23.958771,0.0 121.589793,23.964352,0.0</coordinates></LinearRing></outerBoundaryIs></Polygon><styleUrl>#spolygon-map</styleUrl></Placemark><Placemark><Polygon><outerBoundaryIs><LinearRing><coordinates>121.558057,23.998251,0.0 121.557364,23.998366,0.0 121.55587,23.998832,0.0 121.554058,23.99943,0.0 121.552491,24.000049,0.0 121.551895,24.000331,0.0 121.551771,24.0003,0.0 121.552341,23.999765,0.0 121.553025,23.998865,0.0 121.553535,23.99824,0.0 121.554084,23.997843,0.0 121.554934,23.997501,0.0 121.555236,23.997294,0.0 121.553503,23.995811,0.0 121.552108,23.994985,0.0 121.550485,23.993282,0.0 121.549304,23.992675,0.0 121.547438,23.99179,0.0 121.544065,23.990632,0.0 121.542748,23.990529,0.0 121.541784,23.992103,0.0 121.540178,23.992077,0.0 121.538973,23.991969,0.0 121.537654,23.99145,0.0 121.535861,23.99088,0.0 121.534483,23.989858,0.0 121.533684,23.989302,0.0 121.542733,23.986759,0.0 121.54848,23.985555,0.0 121.551283,23.9855,0.0 121.553639,23.985699,0.0 121.5672,23.98447,0.0 121.558111,23.998252,0.0 121.558057,23.998251,0.0</coordinates></LinearRing></outerBoundaryIs></Polygon><styleUrl>#spolygon-map</styleUrl></Placemark><Placemark><Polygon><outerBoundaryIs><LinearRing><coordinates>121.586549,23.992347,0.0 121.596714,23.984749,0.0 121.597768,23.985587,0.0 121.596416,23.988188,0.0 121.592724,23.991319,0.0 121.5874,23.991279,0.0 121.586549,23.992347,0.0</coordinates></LinearRing></outerBoundaryIs></Polygon><styleUrl>#spolygon-map</styleUrl></Placemark><Placemark><Polygon><outerBoundaryIs><LinearRing><coordinates>121.573091,23.99357,0.0 121.585904,23.992478,0.0 121.583157,23.990468,0.0 121.573091,23.99357,0.0</coordinates></LinearRing></outerBoundaryIs></Polygon><styleUrl>#spolygon-map</styleUrl></Placemark><Placemark><Polygon><outerBoundaryIs><LinearRing><coordinates>121.563701,23.95938,0.0 121.553018,23.947791,0.0 121.55728,23.934835,0.0 121.572402,23.937756,0.0 121.575136,23.945902,0.0 121.563701,23.95938,0.0</coordinates></LinearRing></outerBoundaryIs></Polygon><styleUrl>#spolygon-map</styleUrl></Placemark><Placemark><Polygon><outerBoundaryIs><LinearRing><coordinates>121.586561,23.939311,0.0 121.574331,23.944006,0.0 121.561716,23.934654,0.0 121.551263,23.925312,0.0 121.552091,23.924571,0.0 121.552878,23.924412,0.0 121.553524,23.924392,0.0 121.554625,23.92341,0.0 121.556066,23.922419,0.0 121.556263,23.922438,0.0 121.558155,23.921254,0.0 121.560208,23.920072,0.0 121.564153,23.918306,0.0 121.5666,23.917136,0.0 121.570355,23.915671,0.0 121.575537,23.914144,0.0 121.578915,23.913305,0.0 121.581917,23.912605,0.0 121.584111,23.91175,0.0 121.587156,23.910691,0.0 121.589898,23.909317,0.0 121.592037,23.911061,0.0 121.593555,23.91252,0.0 121.59511,23.915087,0.0 121.596725,23.917395,0.0 121.597907,23.919918,0.0 121.598675,23.921559,0.0 121.600296,23.923616,0.0 121.601075,23.925617,0.0 121.602314,23.928132,0.0 121.603619,23.931208,0.0 121.604212,23.9334,0.0 121.605563,23.936209,0.0 121.606993,23.938569,0.0 121.591602,23.940394,0.0 121.586561,23.939311,0.0</coordinates></LinearRing></outerBoundaryIs></Polygon><styleUrl>#spolygon-map</styleUrl></Placemark><Placemark><Polygon><outerBoundaryIs><LinearRing><coordinates>121.520889,23.985428,0.0 121.520109,23.982822,0.0 121.51994,23.979928,0.0 121.519924,23.978779,0.0 121.520987,23.97853,0.0 121.523899,23.977375,0.0 121.527075,23.975642,0.0 121.529357,23.974769,0.0 121.550548,23.973743,0.0 121.572971,23.963737,0.0 121.580887,23.976766,0.0 121.558155,23.980107,0.0 121.54716,23.985882,0.0 121.541936,23.987072,0.0 121.533154,23.989682,0.0 121.529987,23.990718,0.0 121.52795,23.992014,0.0 121.52665,23.99144,0.0 121.524449,23.989547,0.0 121.522425,23.987663,0.0 121.520935,23.985521,0.0 121.520889,23.985428,0.0</coordinates></LinearRing></outerBoundaryIs></Polygon><styleUrl>#spolygon-map</styleUrl></Placemark><Placemark><Polygon><outerBoundaryIs><LinearRing><coordinates>121.581435,23.976916,0.0 121.583157,23.971056,0.0 121.584697,23.97599,0.0 121.581435,23.976916,0.0</coordinates></LinearRing></outerBoundaryIs></Polygon><styleUrl>#spolygon-map</styleUrl></Placemark><Placemark><Polygon><outerBoundaryIs><LinearRing><coordinates>121.595064,23.968341,0.0 121.593673,23.957711,0.0 121.605866,23.95333,0.0 121.605846,23.955466,0.0 121.606391,23.957755,0.0 121.607202,23.959946,0.0 121.607891,23.961604,0.0 121.608364,23.962603,0.0 121.608687,23.962938,0.0 121.607754,23.963086,0.0 121.60325,23.963887,0.0 121.597611,23.966239,0.0 121.595949,23.967604,0.0 121.595064,23.968341,0.0</coordinates></LinearRing></outerBoundaryIs></Polygon><styleUrl>#spolygon-map</styleUrl></Placemark><Placemark><Polygon><outerBoundaryIs><LinearRing><coordinates>121.579018,23.973238,0.0 121.583157,23.971056,0.0 121.579018,23.973238,0.0</coordinates></LinearRing></outerBoundaryIs></Polygon><styleUrl>#spolygon-map</styleUrl></Placemark><Placemark><Polygon><outerBoundaryIs><LinearRing><coordinates>121.561327,23.955696,0.0 121.54883,23.964658,0.0 121.529824,23.966048,0.0 121.527156,23.963933,0.0 121.525967,23.962483,0.0 121.523807,23.960908,0.0 121.522103,23.958697,0.0 121.521178,23.957235,0.0 121.519353,23.955476,0.0 121.519354,23.952948,0.0 121.519077,23.950991,0.0 121.526342,23.950408,0.0 121.535167,23.952692,0.0 121.542728,23.954,0.0 121.553586,23.948192,0.0 121.561327,23.955696,0.0</coordinates></LinearRing></outerBoundaryIs></Polygon><styleUrl>#spolygon-map</styleUrl></Placemark><Placemark><Polygon><outerBoundaryIs><LinearRing><coordinates>121.594797,23.980708,0.0 121.581435,23.976916,0.0 121.589685,23.974836,0.0 121.594797,23.980708,0.0</coordinates></LinearRing></outerBoundaryIs></Polygon><styleUrl>#spolygon-map</styleUrl></Placemark><Placemark><Polygon><outerBoundaryIs><LinearRing><coordinates>121.568183,23.966337,0.0 121.54842,23.973895,0.0 121.530006,23.973194,0.0 121.53132,23.971137,0.0 121.531056,23.969653,0.0 121.529336,23.966322,0.0 121.546014,23.96544,0.0 121.558155,23.957493,0.0 121.568183,23.966337,0.0</coordinates></LinearRing></outerBoundaryIs></Polygon><styleUrl>#spolygon-map</styleUrl></Placemark><Placemark><Polygon><outerBoundaryIs><LinearRing><coordinates>121.549755,23.985296,0.0 121.577826,23.976032,0.0 121.5672,23.98447,0.0 121.553639,23.985699,0.0 121.551283,23.9855,0.0 121.549755,23.985296,0.0</coordinates></LinearRing></outerBoundaryIs></Polygon><styleUrl>#spolygon-map</styleUrl></Placemark><Placemark><Polygon><outerBoundaryIs><LinearRing><coordinates>121.577797,23.964265,0.0 121.571449,23.952727,0.0 121.576894,23.950006,0.0 121.579075,23.955057,0.0 121.577797,23.964265,0.0</coordinates></LinearRing></outerBoundaryIs></Polygon><styleUrl>#spolygon-map</styleUrl></Placemark></Document>
</kml>
