<?xml version="1.0" encoding="UTF-8"?>
<kml xmlns="http://www.opengis.net/kml/2.2">
	<Document>
		<name>苗栗縣三義鄉</name>
		<Style id="spolygon">
			<LabelStyle>
				<scale>0.0</scale>
			</LabelStyle>
			<LineStyle>
				<color>330030ff</color>
				<width>0</width>
			</LineStyle>
			<PolyStyle>
				<color>330030ff</color>
			</PolyStyle>
		</Style>
		<StyleMap id="spolygon-map">
			<Pair>
				<key>normal</key>
				<styleUrl>#spolygon</styleUrl>
			</Pair>
		</StyleMap>
	<Placemark><Polygon><outerBoundaryIs><LinearRing><coordinates>120.758672,24.357053,0.0 120.756996,24.356523,0.0 120.75622,24.357824,0.0 120.755495,24.359145,0.0 120.754793,24.359139,0.0 120.754475,24.358308,0.0 120.754006,24.357393,0.0 120.752232,24.358485,0.0 120.750345,24.357805,0.0 120.749036,24.357819,0.0 120.746246,24.358598,0.0 120.744163,24.358532,0.0 120.742152,24.357999,0.0 120.739857,24.358185,0.0 120.737762,24.358037,0.0 120.736671,24.357752,0.0 120.736227,24.357759,0.0 120.735325,24.358042,0.0 120.734762,24.358129,0.0 120.734363,24.358127,0.0 120.734012,24.358069,0.0 120.733336,24.357859,0.0 120.731884,24.35743,0.0 120.730813,24.35723,0.0 120.729913,24.357146,0.0 120.725792,24.357295,0.0 120.725419,24.357019,0.0 120.725287,24.356625,0.0 120.725067,24.356144,0.0 120.724925,24.355701,0.0 120.724805,24.355299,0.0 120.724677,24.35494,0.0 120.724476,24.354521,0.0 120.724351,24.354138,0.0 120.726488,24.353419,0.0 120.727981,24.352917,0.0 120.72816,24.352894,0.0 120.729422,24.352297,0.0 120.730632,24.351647,0.0 120.732411,24.349761,0.0 120.734028,24.348309,0.0 120.735444,24.347267,0.0 120.737899,24.345514,0.0 120.739593,24.344046,0.0 120.740938,24.34301,0.0 120.742319,24.341675,0.0 120.743438,24.340374,0.0 120.744347,24.339781,0.0 120.745877,24.338383,0.0 120.748068,24.336585,0.0 120.749882,24.335534,0.0 120.75212,24.334243,0.0 120.752666,24.33362,0.0 120.754,24.33225,0.0 120.755563,24.330939,0.0 120.757951,24.329015,0.0 120.759368,24.32849,0.0 120.760084,24.328233,0.0 120.761714,24.327169,0.0 120.762465,24.32636,0.0 120.763026,24.326004,0.0 120.7649,24.325651,0.0 120.76611,24.325612,0.0 120.766832,24.325642,0.0 120.767833,24.325002,0.0 120.768487,24.324569,0.0 120.769998,24.323611,0.0 120.773111,24.321738,0.0 120.774766,24.321066,0.0 120.777342,24.320695,0.0 120.777617,24.320692,0.0 120.777225,24.321172,0.0 120.776745,24.321963,0.0 120.776329,24.322337,0.0 120.776109,24.32277,0.0 120.775639,24.323406,0.0 120.775282,24.324004,0.0 120.774779,24.324595,0.0 120.77428,24.325335,0.0 120.774089,24.326006,0.0 120.773085,24.326609,0.0 120.772473,24.326753,0.0 120.772281,24.327115,0.0 120.772625,24.327604,0.0 120.773279,24.327906,0.0 120.774088,24.32851,0.0 120.774431,24.329352,0.0 120.77474,24.330627,0.0 120.775269,24.331225,0.0 120.775974,24.331219,0.0 120.776387,24.33137,0.0 120.77676,24.331385,0.0 120.777142,24.33118,0.0 120.777886,24.331576,0.0 120.778566,24.331845,0.0 120.779517,24.332007,0.0 120.780325,24.332322,0.0 120.780722,24.332575,0.0 120.781168,24.332931,0.0 120.781786,24.332706,0.0 120.782269,24.332379,0.0 120.782826,24.332254,0.0 120.78323,24.332519,0.0 120.783668,24.333038,0.0 120.784164,24.333608,0.0 120.784419,24.334001,0.0 120.784039,24.334562,0.0 120.783532,24.334835,0.0 120.783259,24.334791,0.0 120.78279,24.334878,0.0 120.78213,24.335596,0.0 120.781582,24.336423,0.0 120.781051,24.33715,0.0 120.780349,24.337504,0.0 120.779703,24.337702,0.0 120.779435,24.338226,0.0 120.779209,24.339032,0.0 120.778876,24.339409,0.0 120.778498,24.339287,0.0 120.777685,24.33881,0.0 120.776899,24.338875,0.0 120.776244,24.339094,0.0 120.775912,24.339492,0.0 120.775951,24.339994,0.0 120.77605,24.340537,0.0 120.776051,24.341238,0.0 120.775686,24.341737,0.0 120.775478,24.342215,0.0 120.775963,24.342807,0.0 120.776166,24.343466,0.0 120.776265,24.343838,0.0 120.776747,24.344247,0.0 120.777297,24.344816,0.0 120.777309,24.345244,0.0 120.777035,24.346138,0.0 120.776653,24.346581,0.0 120.776198,24.346981,0.0 120.774666,24.347273,0.0 120.773908,24.347726,0.0 120.773313,24.348421,0.0 120.772629,24.349102,0.0 120.771308,24.349253,0.0 120.770407,24.349645,0.0 120.769555,24.35027,0.0 120.767912,24.350567,0.0 120.767371,24.351204,0.0 120.767128,24.352433,0.0 120.76639,24.353327,0.0 120.765915,24.354408,0.0 120.765472,24.35549,0.0 120.76493,24.357201,0.0 120.763591,24.357437,0.0 120.7613,24.35742,0.0 120.759431,24.357391,0.0 120.758748,24.357113,0.0 120.758672,24.357053,0.0</coordinates></LinearRing></outerBoundaryIs></Polygon><styleUrl>#spolygon-map</styleUrl></Placemark><Placemark><Polygon><outerBoundaryIs><LinearRing><coordinates>120.785346,24.383504,0.0 120.784286,24.383879,0.0 120.783508,24.382918,0.0 120.782883,24.382267,0.0 120.782338,24.38174,0.0 120.781411,24.381696,0.0 120.780095,24.381316,0.0 120.778671,24.380988,0.0 120.777733,24.381766,0.0 120.775918,24.381422,0.0 120.775059,24.380884,0.0 120.774774,24.38032,0.0 120.773241,24.380327,0.0 120.772115,24.379066,0.0 120.771088,24.378384,0.0 120.769859,24.376996,0.0 120.769985,24.376141,0.0 120.772906,24.374888,0.0 120.774339,24.374152,0.0 120.773803,24.373182,0.0 120.772622,24.371954,0.0 120.771206,24.371252,0.0 120.770222,24.370683,0.0 120.768426,24.369986,0.0 120.768063,24.369445,0.0 120.769054,24.368406,0.0 120.769429,24.367424,0.0 120.769544,24.365476,0.0 120.769316,24.363393,0.0 120.76898,24.36223,0.0 120.768978,24.360204,0.0 120.768393,24.358966,0.0 120.767093,24.358751,0.0 120.765948,24.357864,0.0 120.764925,24.357331,0.0 120.765303,24.355936,0.0 120.765885,24.354592,0.0 120.766149,24.353587,0.0 120.767091,24.352563,0.0 120.767367,24.351215,0.0 120.76773,24.35065,0.0 120.769366,24.350309,0.0 120.770249,24.349822,0.0 120.77112,24.349264,0.0 120.772454,24.349188,0.0 120.773301,24.348435,0.0 120.773743,24.347909,0.0 120.774492,24.347329,0.0 120.775855,24.347124,0.0 120.777049,24.346982,0.0 120.777204,24.347704,0.0 120.776897,24.348242,0.0 120.777653,24.348884,0.0 120.777939,24.349497,0.0 120.777811,24.349937,0.0 120.777729,24.350218,0.0 120.778268,24.350364,0.0 120.778892,24.350462,0.0 120.779299,24.350627,0.0 120.779873,24.350959,0.0 120.780311,24.351647,0.0 120.780621,24.351799,0.0 120.781178,24.351792,0.0 120.781697,24.352113,0.0 120.782377,24.352637,0.0 120.783165,24.353259,0.0 120.783728,24.353419,0.0 120.783943,24.353032,0.0 120.784782,24.352022,0.0 120.785682,24.352294,0.0 120.78619,24.352451,0.0 120.786496,24.352775,0.0 120.786484,24.353121,0.0 120.786812,24.353344,0.0 120.787302,24.353051,0.0 120.787667,24.353005,0.0 120.788446,24.353348,0.0 120.78903,24.353685,0.0 120.789293,24.354173,0.0 120.78996,24.35425,0.0 120.790964,24.35432,0.0 120.791526,24.354907,0.0 120.792179,24.355253,0.0 120.792805,24.35569,0.0 120.793932,24.355978,0.0 120.794566,24.356352,0.0 120.795346,24.356496,0.0 120.796005,24.357127,0.0 120.796636,24.357474,0.0 120.797151,24.357977,0.0 120.797525,24.358903,0.0 120.79804,24.359305,0.0 120.799013,24.359946,0.0 120.799757,24.360632,0.0 120.800553,24.361012,0.0 120.801359,24.361624,0.0 120.801834,24.362063,0.0 120.80257,24.362553,0.0 120.803413,24.363258,0.0 120.804065,24.36384,0.0 120.804785,24.364547,0.0 120.805358,24.365283,0.0 120.805782,24.36569,0.0 120.806213,24.366058,0.0 120.806815,24.366642,0.0 120.8071,24.367224,0.0 120.807077,24.368116,0.0 120.807043,24.368802,0.0 120.806871,24.36976,0.0 120.80678,24.370577,0.0 120.806955,24.371228,0.0 120.807313,24.371659,0.0 120.807904,24.371999,0.0 120.808306,24.372112,0.0 120.80884,24.372741,0.0 120.809127,24.373302,0.0 120.809817,24.373299,0.0 120.810246,24.373627,0.0 120.810636,24.374712,0.0 120.811028,24.375243,0.0 120.807461,24.375543,0.0 120.805547,24.376073,0.0 120.803791,24.377467,0.0 120.800698,24.379066,0.0 120.798952,24.379965,0.0 120.797064,24.380931,0.0 120.795176,24.380679,0.0 120.793647,24.380509,0.0 120.791148,24.380746,0.0 120.789575,24.380945,0.0 120.7878,24.381338,0.0 120.786829,24.382572,0.0 120.785346,24.383504,0.0</coordinates></LinearRing></outerBoundaryIs></Polygon><styleUrl>#spolygon-map</styleUrl></Placemark><Placemark><Polygon><outerBoundaryIs><LinearRing><coordinates>120.745318,24.397228,0.0 120.744513,24.397258,0.0 120.744301,24.396827,0.0 120.743931,24.396288,0.0 120.743611,24.395807,0.0 120.743292,24.395281,0.0 120.743108,24.394885,0.0 120.742756,24.394383,0.0 120.742326,24.394176,0.0 120.742005,24.394006,0.0 120.741603,24.393619,0.0 120.741158,24.393302,0.0 120.740954,24.393052,0.0 120.74087,24.392689,0.0 120.740727,24.392293,0.0 120.740425,24.391994,0.0 120.740114,24.391784,0.0 120.739864,24.391515,0.0 120.739638,24.391169,0.0 120.739407,24.39084,0.0 120.739227,24.390505,0.0 120.738977,24.390044,0.0 120.738578,24.389759,0.0 120.738178,24.389597,0.0 120.737919,24.389405,0.0 120.737619,24.389061,0.0 120.737562,24.388731,0.0 120.737527,24.388101,0.0 120.737401,24.387488,0.0 120.736955,24.387193,0.0 120.736601,24.387039,0.0 120.736256,24.386735,0.0 120.735862,24.386307,0.0 120.735729,24.385791,0.0 120.735451,24.385452,0.0 120.73502,24.385088,0.0 120.734656,24.384562,0.0 120.734572,24.384003,0.0 120.734552,24.38356,0.0 120.73422,24.38327,0.0 120.733618,24.383087,0.0 120.733258,24.38294,0.0 120.733073,24.382761,0.0 120.733012,24.38228,0.0 120.733053,24.381821,0.0 120.73294,24.381509,0.0 120.732714,24.381131,0.0 120.732523,24.380634,0.0 120.732529,24.380231,0.0 120.732624,24.379898,0.0 120.732706,24.379608,0.0 120.732319,24.37935,0.0 120.731704,24.379333,0.0 120.731385,24.379184,0.0 120.73102,24.378954,0.0 120.73086,24.378596,0.0 120.730835,24.378157,0.0 120.731002,24.377625,0.0 120.731116,24.377295,0.0 120.730739,24.377263,0.0 120.730091,24.377297,0.0 120.729453,24.377306,0.0 120.729166,24.377209,0.0 120.728985,24.376848,0.0 120.728837,24.376526,0.0 120.728748,24.376089,0.0 120.728701,24.375569,0.0 120.728826,24.375165,0.0 120.729268,24.374971,0.0 120.729616,24.374505,0.0 120.729823,24.373962,0.0 120.729945,24.373552,0.0 120.729832,24.373304,0.0 120.729577,24.372938,0.0 120.729574,24.372534,0.0 120.729601,24.372132,0.0 120.729682,24.371886,0.0 120.729617,24.37156,0.0 120.729316,24.371334,0.0 120.729201,24.371065,0.0 120.728972,24.370839,0.0 120.728775,24.370616,0.0 120.7289,24.37029,0.0 120.729191,24.369943,0.0 120.729497,24.369577,0.0 120.729688,24.369295,0.0 120.729591,24.36895,0.0 120.729238,24.368713,0.0 120.729111,24.368426,0.0 120.729052,24.367866,0.0 120.729237,24.367533,0.0 120.729381,24.367223,0.0 120.729286,24.366889,0.0 120.729381,24.366514,0.0 120.729224,24.36607,0.0 120.729456,24.36576,0.0 120.729617,24.365535,0.0 120.7295,24.365221,0.0 120.729514,24.364943,0.0 120.729664,24.364528,0.0 120.729334,24.364199,0.0 120.729141,24.363853,0.0 120.728792,24.363541,0.0 120.728408,24.363406,0.0 120.72808,24.363219,0.0 120.727558,24.36309,0.0 120.727185,24.36294,0.0 120.726894,24.362667,0.0 120.726774,24.362337,0.0 120.72675,24.362052,0.0 120.726622,24.361765,0.0 120.726746,24.36143,0.0 120.726591,24.361103,0.0 120.726407,24.360835,0.0 120.726357,24.360541,0.0 120.726184,24.360139,0.0 120.725927,24.359803,0.0 120.72583,24.359348,0.0 120.725829,24.358835,0.0 120.72567,24.358256,0.0 120.725547,24.357661,0.0 120.725484,24.357336,0.0 120.729597,24.357135,0.0 120.730649,24.357209,0.0 120.731688,24.357387,0.0 120.733073,24.35777,0.0 120.733946,24.358053,0.0 120.734302,24.358123,0.0 120.734679,24.358132,0.0 120.735178,24.358069,0.0 120.736112,24.357827,0.0 120.736541,24.357701,0.0 120.737503,24.357935,0.0 120.739451,24.358248,0.0 120.741791,24.357956,0.0 120.743904,24.358468,0.0 120.745934,24.358637,0.0 120.748416,24.358021,0.0 120.75017,24.35775,0.0 120.752043,24.358485,0.0 120.753751,24.357549,0.0 120.754425,24.357914,0.0 120.754701,24.359054,0.0 120.755375,24.359229,0.0 120.756049,24.358073,0.0 120.756912,24.356612,0.0 120.75836,24.356882,0.0 120.758939,24.357199,0.0 120.760122,24.357406,0.0 120.762369,24.357549,0.0 120.764593,24.357379,0.0 120.765948,24.357864,0.0 120.767093,24.358751,0.0 120.768393,24.358966,0.0 120.768978,24.360204,0.0 120.76898,24.36223,0.0 120.769316,24.363393,0.0 120.769544,24.365476,0.0 120.769429,24.367424,0.0 120.769054,24.368406,0.0 120.768063,24.369445,0.0 120.768426,24.369986,0.0 120.770222,24.370683,0.0 120.771206,24.371252,0.0 120.772622,24.371954,0.0 120.773803,24.373182,0.0 120.774339,24.374152,0.0 120.772906,24.374888,0.0 120.769985,24.376141,0.0 120.769859,24.376996,0.0 120.771088,24.378384,0.0 120.772115,24.379066,0.0 120.773241,24.380327,0.0 120.774397,24.381647,0.0 120.775094,24.382624,0.0 120.774803,24.383754,0.0 120.773967,24.384226,0.0 120.772977,24.384577,0.0 120.772094,24.384862,0.0 120.771403,24.386205,0.0 120.771185,24.387516,0.0 120.770205,24.388203,0.0 120.767754,24.388521,0.0 120.765749,24.389206,0.0 120.764905,24.389953,0.0 120.764215,24.390586,0.0 120.764011,24.391159,0.0 120.763433,24.391879,0.0 120.763331,24.392782,0.0 120.762555,24.393123,0.0 120.761435,24.393202,0.0 120.760858,24.391496,0.0 120.76032,24.391331,0.0 120.759948,24.39225,0.0 120.760075,24.393899,0.0 120.760266,24.394713,0.0 120.759923,24.395169,0.0 120.758853,24.395229,0.0 120.756502,24.394912,0.0 120.754898,24.394806,0.0 120.754169,24.395132,0.0 120.752866,24.395806,0.0 120.751483,24.396703,0.0 120.750114,24.396681,0.0 120.748841,24.396715,0.0 120.747288,24.397094,0.0 120.745621,24.397184,0.0 120.745318,24.397228,0.0</coordinates></LinearRing></outerBoundaryIs></Polygon><styleUrl>#spolygon-map</styleUrl></Placemark><Placemark><Polygon><outerBoundaryIs><LinearRing><coordinates>120.775151,24.405257,0.0 120.774406,24.406522,0.0 120.771979,24.406021,0.0 120.770034,24.405319,0.0 120.768555,24.405227,0.0 120.767637,24.405158,0.0 120.766942,24.404856,0.0 120.765696,24.403557,0.0 120.764196,24.402536,0.0 120.763002,24.40281,0.0 120.761466,24.402987,0.0 120.761087,24.403152,0.0 120.760735,24.403325,0.0 120.758918,24.402834,0.0 120.758373,24.402787,0.0 120.75786,24.402843,0.0 120.756545,24.403073,0.0 120.755006,24.403465,0.0 120.75425,24.40365,0.0 120.752933,24.403827,0.0 120.751988,24.40392,0.0 120.751376,24.403877,0.0 120.750581,24.403727,0.0 120.749692,24.403548,0.0 120.748913,24.403311,0.0 120.747755,24.402841,0.0 120.74769,24.40255,0.0 120.747716,24.40204,0.0 120.747694,24.401569,0.0 120.747559,24.400937,0.0 120.747425,24.400477,0.0 120.747105,24.400146,0.0 120.746777,24.399952,0.0 120.746533,24.399767,0.0 120.746172,24.39924,0.0 120.745862,24.398882,0.0 120.745506,24.398564,0.0 120.745188,24.398402,0.0 120.744957,24.398164,0.0 120.744775,24.39784,0.0 120.744623,24.397487,0.0 120.74537,24.397217,0.0 120.747079,24.397116,0.0 120.74849,24.396827,0.0 120.750087,24.396676,0.0 120.75122,24.39674,0.0 120.752585,24.395972,0.0 120.754014,24.395198,0.0 120.75467,24.394826,0.0 120.756472,24.39491,0.0 120.758685,24.395206,0.0 120.759921,24.39517,0.0 120.760266,24.394796,0.0 120.760079,24.394271,0.0 120.759963,24.392451,0.0 120.760188,24.391425,0.0 120.760817,24.391429,0.0 120.761377,24.393111,0.0 120.762138,24.393213,0.0 120.763322,24.392796,0.0 120.763426,24.392057,0.0 120.764005,24.391164,0.0 120.764214,24.39074,0.0 120.764607,24.390088,0.0 120.765562,24.389333,0.0 120.767406,24.388584,0.0 120.76993,24.388266,0.0 120.771093,24.38769,0.0 120.771377,24.386396,0.0 120.771892,24.385156,0.0 120.772728,24.384526,0.0 120.773831,24.384363,0.0 120.774677,24.383929,0.0 120.775069,24.382718,0.0 120.774641,24.381915,0.0 120.773446,24.380481,0.0 120.774634,24.380246,0.0 120.775011,24.380803,0.0 120.775632,24.381332,0.0 120.777517,24.381818,0.0 120.778474,24.381103,0.0 120.779588,24.381083,0.0 120.781252,24.381704,0.0 120.78217,24.381633,0.0 120.782845,24.382232,0.0 120.783303,24.3827,0.0 120.784256,24.383857,0.0 120.784912,24.384441,0.0 120.78625,24.38629,0.0 120.785864,24.387365,0.0 120.785342,24.388318,0.0 120.785196,24.388799,0.0 120.78465,24.390017,0.0 120.784789,24.390915,0.0 120.785265,24.391724,0.0 120.78434,24.392933,0.0 120.78342,24.393523,0.0 120.781567,24.394123,0.0 120.780619,24.395369,0.0 120.779912,24.396915,0.0 120.779349,24.397595,0.0 120.779571,24.398989,0.0 120.779377,24.400199,0.0 120.778605,24.401871,0.0 120.77783,24.402841,0.0 120.777444,24.403634,0.0 120.77645,24.404207,0.0 120.775698,24.404928,0.0 120.775151,24.405257,0.0</coordinates></LinearRing></outerBoundaryIs></Polygon><styleUrl>#spolygon-map</styleUrl></Placemark><Placemark><Polygon><outerBoundaryIs><LinearRing><coordinates>120.771077,24.418448,0.0 120.768702,24.418622,0.0 120.766733,24.418973,0.0 120.764483,24.418898,0.0 120.762768,24.41815,0.0 120.761349,24.416568,0.0 120.75949,24.414113,0.0 120.758571,24.412679,0.0 120.757427,24.4116,0.0 120.755592,24.41022,0.0 120.752751,24.408808,0.0 120.751345,24.408722,0.0 120.751056,24.408269,0.0 120.750983,24.40784,0.0 120.750807,24.407479,0.0 120.750518,24.407174,0.0 120.750255,24.406849,0.0 120.749892,24.40635,0.0 120.749576,24.405959,0.0 120.749095,24.405428,0.0 120.748793,24.405122,0.0 120.748491,24.404795,0.0 120.748227,24.404386,0.0 120.747888,24.403756,0.0 120.747761,24.40332,0.0 120.747759,24.402866,0.0 120.748848,24.403291,0.0 120.749524,24.403502,0.0 120.750384,24.403689,0.0 120.751281,24.403866,0.0 120.751889,24.403916,0.0 120.752756,24.40385,0.0 120.754099,24.403677,0.0 120.754833,24.403513,0.0 120.756346,24.403118,0.0 120.757815,24.40285,0.0 120.758282,24.402791,0.0 120.75882,24.402814,0.0 120.760433,24.403224,0.0 120.761066,24.403182,0.0 120.761446,24.403003,0.0 120.762713,24.402888,0.0 120.764163,24.402489,0.0 120.765465,24.403295,0.0 120.766672,24.404592,0.0 120.767637,24.405515,0.0 120.768165,24.405212,0.0 120.769768,24.405253,0.0 120.771446,24.405913,0.0 120.77442,24.40656,0.0 120.77529,24.408358,0.0 120.775815,24.4099,0.0 120.775991,24.411175,0.0 120.77677,24.412451,0.0 120.776472,24.414145,0.0 120.776004,24.416466,0.0 120.775194,24.417084,0.0 120.774098,24.417106,0.0 120.773128,24.417661,0.0 120.771077,24.418448,0.0</coordinates></LinearRing></outerBoundaryIs></Polygon><styleUrl>#spolygon-map</styleUrl></Placemark><Placemark><Polygon><outerBoundaryIs><LinearRing><coordinates>120.788941,24.415871,0.0 120.788605,24.416375,0.0 120.788392,24.416931,0.0 120.787819,24.417176,0.0 120.787293,24.417556,0.0 120.786862,24.41808,0.0 120.786785,24.418789,0.0 120.78657,24.419084,0.0 120.786183,24.419184,0.0 120.785986,24.419449,0.0 120.786096,24.419827,0.0 120.784311,24.419375,0.0 120.783496,24.41838,0.0 120.782618,24.416733,0.0 120.780998,24.414762,0.0 120.780124,24.412169,0.0 120.780001,24.412084,0.0 120.779949,24.411774,0.0 120.779905,24.411419,0.0 120.779702,24.41124,0.0 120.779288,24.411308,0.0 120.77862,24.412095,0.0 120.778034,24.412605,0.0 120.777051,24.413194,0.0 120.77677,24.412451,0.0 120.775991,24.411175,0.0 120.775815,24.4099,0.0 120.77529,24.408358,0.0 120.77442,24.40656,0.0 120.774942,24.405383,0.0 120.775853,24.404714,0.0 120.776689,24.404139,0.0 120.77746,24.40361,0.0 120.777845,24.402821,0.0 120.778765,24.401644,0.0 120.779394,24.400139,0.0 120.779534,24.398753,0.0 120.779375,24.397505,0.0 120.780053,24.396744,0.0 120.780694,24.395146,0.0 120.781792,24.393969,0.0 120.783602,24.393451,0.0 120.784584,24.392638,0.0 120.785303,24.391488,0.0 120.784677,24.39076,0.0 120.784754,24.389841,0.0 120.785199,24.388778,0.0 120.785389,24.388117,0.0 120.786056,24.387147,0.0 120.786128,24.386114,0.0 120.784824,24.384308,0.0 120.785346,24.383504,0.0 120.787049,24.382375,0.0 120.787928,24.381194,0.0 120.789946,24.380955,0.0 120.791708,24.380667,0.0 120.793982,24.380424,0.0 120.79561,24.380915,0.0 120.797321,24.380793,0.0 120.79935,24.379832,0.0 120.800876,24.378942,0.0 120.804074,24.377314,0.0 120.805673,24.375987,0.0 120.808125,24.375486,0.0 120.811042,24.37525,0.0 120.811881,24.375218,0.0 120.812607,24.3751,0.0 120.813343,24.374752,0.0 120.814014,24.374792,0.0 120.814937,24.374843,0.0 120.815945,24.375162,0.0 120.816629,24.375307,0.0 120.81772,24.375502,0.0 120.818546,24.375906,0.0 120.818994,24.376632,0.0 120.819135,24.377415,0.0 120.819494,24.377926,0.0 120.819773,24.378534,0.0 120.819799,24.379003,0.0 120.820267,24.379514,0.0 120.820306,24.38013,0.0 120.820923,24.380524,0.0 120.821624,24.38156,0.0 120.822245,24.382918,0.0 120.82207,24.383707,0.0 120.822118,24.384565,0.0 120.822294,24.385104,0.0 120.822696,24.386138,0.0 120.822928,24.387141,0.0 120.822581,24.387869,0.0 120.822563,24.388664,0.0 120.822551,24.389095,0.0 120.821921,24.388783,0.0 120.821468,24.388491,0.0 120.820864,24.388576,0.0 120.819616,24.389115,0.0 120.818871,24.389408,0.0 120.818065,24.388852,0.0 120.817651,24.388499,0.0 120.816882,24.38832,0.0 120.816213,24.388039,0.0 120.815639,24.388348,0.0 120.815019,24.388393,0.0 120.814517,24.388641,0.0 120.813247,24.38948,0.0 120.813081,24.390613,0.0 120.812449,24.391886,0.0 120.811608,24.392886,0.0 120.811084,24.393421,0.0 120.811063,24.394074,0.0 120.811243,24.394849,0.0 120.811683,24.395739,0.0 120.811464,24.396627,0.0 120.810997,24.397127,0.0 120.809482,24.398243,0.0 120.808903,24.399001,0.0 120.808096,24.399441,0.0 120.807491,24.39995,0.0 120.806946,24.400602,0.0 120.806613,24.40077,0.0 120.80599,24.400723,0.0 120.805425,24.400808,0.0 120.804848,24.401165,0.0 120.8044,24.401369,0.0 120.804262,24.401659,0.0 120.804264,24.402355,0.0 120.804147,24.402889,0.0 120.803921,24.403449,0.0 120.803819,24.403903,0.0 120.80345,24.404425,0.0 120.803401,24.404739,0.0 120.803006,24.405324,0.0 120.802386,24.405789,0.0 120.802043,24.406085,0.0 120.801796,24.40612,0.0 120.801094,24.406575,0.0 120.800938,24.40676,0.0 120.801126,24.407329,0.0 120.801257,24.40775,0.0 120.801193,24.408106,0.0 120.80134,24.408652,0.0 120.801629,24.408881,0.0 120.801646,24.409062,0.0 120.801272,24.409165,0.0 120.800863,24.40932,0.0 120.800497,24.40935,0.0 120.800141,24.409592,0.0 120.799795,24.409882,0.0 120.799289,24.410275,0.0 120.799044,24.410286,0.0 120.798758,24.410184,0.0 120.798199,24.410506,0.0 120.797872,24.411007,0.0 120.797431,24.411178,0.0 120.796684,24.411268,0.0 120.796061,24.411593,0.0 120.795467,24.411829,0.0 120.79511,24.412243,0.0 120.794364,24.412797,0.0 120.793941,24.412756,0.0 120.793574,24.413012,0.0 120.793443,24.413265,0.0 120.792687,24.413623,0.0 120.792405,24.41412,0.0 120.791844,24.414437,0.0 120.791147,24.414523,0.0 120.790441,24.41446,0.0 120.789516,24.414815,0.0 120.789112,24.415539,0.0 120.788941,24.415871,0.0</coordinates></LinearRing></outerBoundaryIs></Polygon><styleUrl>#spolygon-map</styleUrl></Placemark><Placemark><Polygon><outerBoundaryIs><LinearRing><coordinates>120.77389,24.438075,0.0 120.773396,24.438111,0.0 120.77298,24.437803,0.0 120.772534,24.43776,0.0 120.772023,24.437528,0.0 120.771129,24.437362,0.0 120.77025,24.436987,0.0 120.769777,24.43682,0.0 120.769267,24.436421,0.0 120.768467,24.435852,0.0 120.767838,24.435783,0.0 120.767412,24.435947,0.0 120.767141,24.435667,0.0 120.766444,24.435126,0.0 120.765272,24.434811,0.0 120.764272,24.434454,0.0 120.763289,24.434549,0.0 120.762567,24.434218,0.0 120.761708,24.433801,0.0 120.760908,24.433355,0.0 120.760343,24.433069,0.0 120.759932,24.432937,0.0 120.759419,24.432551,0.0 120.758699,24.432254,0.0 120.75831,24.431999,0.0 120.757708,24.431664,0.0 120.757202,24.431435,0.0 120.75674,24.43122,0.0 120.756171,24.430911,0.0 120.755385,24.430468,0.0 120.754558,24.430016,0.0 120.753804,24.429716,0.0 120.753324,24.429471,0.0 120.752885,24.429157,0.0 120.75236,24.428891,0.0 120.751937,24.428723,0.0 120.751494,24.428522,0.0 120.751286,24.428069,0.0 120.751217,24.427522,0.0 120.751228,24.427157,0.0 120.75091,24.426884,0.0 120.750714,24.426649,0.0 120.751071,24.426311,0.0 120.751543,24.42598,0.0 120.751893,24.425875,0.0 120.752104,24.425278,0.0 120.752046,24.42471,0.0 120.751895,24.424317,0.0 120.75164,24.423781,0.0 120.75171,24.423313,0.0 120.751831,24.422923,0.0 120.751802,24.422435,0.0 120.751561,24.422043,0.0 120.751204,24.421866,0.0 120.750982,24.421525,0.0 120.750645,24.421201,0.0 120.750166,24.420955,0.0 120.749825,24.420736,0.0 120.749456,24.420551,0.0 120.749042,24.420472,0.0 120.748878,24.420087,0.0 120.748665,24.41977,0.0 120.748256,24.419462,0.0 120.747997,24.419159,0.0 120.74801,24.418808,0.0 120.748221,24.418386,0.0 120.748507,24.417937,0.0 120.748421,24.417547,0.0 120.748314,24.417168,0.0 120.748228,24.416737,0.0 120.748178,24.416306,0.0 120.748206,24.415789,0.0 120.748217,24.415476,0.0 120.748148,24.415094,0.0 120.748212,24.414734,0.0 120.74834,24.414352,0.0 120.748497,24.414085,0.0 120.748763,24.413937,0.0 120.749062,24.413862,0.0 120.749275,24.41374,0.0 120.749429,24.413603,0.0 120.74958,24.413298,0.0 120.749596,24.413,0.0 120.749569,24.412404,0.0 120.749484,24.412173,0.0 120.749149,24.411874,0.0 120.748938,24.411705,0.0 120.748987,24.411583,0.0 120.749385,24.411553,0.0 120.749745,24.41141,0.0 120.750138,24.411165,0.0 120.750543,24.410897,0.0 120.750916,24.410571,0.0 120.751192,24.410102,0.0 120.751351,24.409604,0.0 120.751429,24.409225,0.0 120.751426,24.408861,0.0 120.751968,24.4086,0.0 120.754435,24.409648,0.0 120.756679,24.411027,0.0 120.758489,24.412282,0.0 120.758938,24.413699,0.0 120.760772,24.415911,0.0 120.76222,24.417629,0.0 120.763949,24.418826,0.0 120.765859,24.419102,0.0 120.7682,24.418589,0.0 120.770169,24.418684,0.0 120.773087,24.417691,0.0 120.773801,24.417198,0.0 120.774973,24.417081,0.0 120.775953,24.416611,0.0 120.77631,24.414585,0.0 120.776999,24.413215,0.0 120.777735,24.412805,0.0 120.778441,24.412306,0.0 120.77925,24.411338,0.0 120.779577,24.411285,0.0 120.779901,24.411393,0.0 120.779922,24.411694,0.0 120.779996,24.412076,0.0 120.780119,24.412162,0.0 120.780755,24.4142,0.0 120.782315,24.416448,0.0 120.783397,24.418089,0.0 120.7841,24.41928,0.0 120.78601,24.419796,0.0 120.786043,24.4202,0.0 120.786072,24.420578,0.0 120.786689,24.421053,0.0 120.787417,24.421777,0.0 120.7875,24.422352,0.0 120.787649,24.423219,0.0 120.787519,24.423945,0.0 120.787457,24.424711,0.0 120.787681,24.425241,0.0 120.788037,24.425845,0.0 120.78811,24.426553,0.0 120.788181,24.427147,0.0 120.78827,24.427707,0.0 120.788171,24.428304,0.0 120.788275,24.429233,0.0 120.788448,24.429813,0.0 120.788847,24.430814,0.0 120.789004,24.43124,0.0 120.788761,24.431833,0.0 120.788209,24.432786,0.0 120.788137,24.433238,0.0 120.788268,24.433797,0.0 120.787814,24.434153,0.0 120.78705,24.434556,0.0 120.786235,24.434476,0.0 120.785294,24.434381,0.0 120.784396,24.43455,0.0 120.78365,24.434582,0.0 120.783173,24.434641,0.0 120.782621,24.43511,0.0 120.781846,24.435624,0.0 120.781208,24.435983,0.0 120.780704,24.436109,0.0 120.78017,24.435987,0.0 120.779412,24.436065,0.0 120.778698,24.436221,0.0 120.778273,24.435703,0.0 120.776583,24.435375,0.0 120.776426,24.436027,0.0 120.775863,24.436213,0.0 120.775666,24.436742,0.0 120.775685,24.437722,0.0 120.775552,24.437867,0.0 120.775166,24.437872,0.0 120.77456,24.43803,0.0 120.774041,24.438008,0.0 120.77389,24.438075,0.0</coordinates></LinearRing></outerBoundaryIs></Polygon><styleUrl>#spolygon-map</styleUrl></Placemark></Document>
</kml>
