<?xml version="1.0" encoding="UTF-8"?>
<kml xmlns="http://www.opengis.net/kml/2.2">
	<Document>
		<name>苗栗縣三灣鄉</name>
		<Style id="spolygon">
			<LabelStyle>
				<scale>0.0</scale>
			</LabelStyle>
			<LineStyle>
				<color>330030ff</color>
				<width>0</width>
			</LineStyle>
			<PolyStyle>
				<color>330030ff</color>
			</PolyStyle>
		</Style>
		<StyleMap id="spolygon-map">
			<Pair>
				<key>normal</key>
				<styleUrl>#spolygon</styleUrl>
			</Pair>
		</StyleMap>
	<Placemark><Polygon><outerBoundaryIs><LinearRing><coordinates>120.952562,24.62728,0.0 120.950167,24.628303,0.0 120.949681,24.629684,0.0 120.948198,24.6297,0.0 120.946733,24.628683,0.0 120.945181,24.625713,0.0 120.94425,24.624042,0.0 120.942742,24.623644,0.0 120.941881,24.624152,0.0 120.941376,24.622907,0.0 120.938996,24.621644,0.0 120.936173,24.619786,0.0 120.935014,24.618609,0.0 120.933694,24.617415,0.0 120.931351,24.615292,0.0 120.928177,24.614525,0.0 120.927288,24.612911,0.0 120.925677,24.611768,0.0 120.924237,24.609333,0.0 120.922634,24.607407,0.0 120.922733,24.605533,0.0 120.924763,24.604407,0.0 120.925389,24.604442,0.0 120.9257,24.604671,0.0 120.926015,24.60486,0.0 120.926417,24.60492,0.0 120.926638,24.605068,0.0 120.926611,24.605407,0.0 120.926492,24.605718,0.0 120.926629,24.606002,0.0 120.926881,24.60618,0.0 120.927139,24.606416,0.0 120.927492,24.606779,0.0 120.927838,24.606946,0.0 120.927992,24.60741,0.0 120.928325,24.607788,0.0 120.928649,24.607899,0.0 120.928995,24.607958,0.0 120.929746,24.60801,0.0 120.930773,24.608012,0.0 120.931424,24.608008,0.0 120.932033,24.608,0.0 120.932676,24.607961,0.0 120.933415,24.607841,0.0 120.933808,24.607806,0.0 120.934304,24.607962,0.0 120.934876,24.607952,0.0 120.935318,24.607968,0.0 120.935786,24.607779,0.0 120.936132,24.607544,0.0 120.936397,24.607198,0.0 120.936691,24.606872,0.0 120.936998,24.606939,0.0 120.937416,24.606868,0.0 120.937717,24.606669,0.0 120.938014,24.606443,0.0 120.938381,24.606248,0.0 120.938775,24.606215,0.0 120.939149,24.606148,0.0 120.939515,24.606153,0.0 120.939918,24.606113,0.0 120.940305,24.606009,0.0 120.94056,24.605758,0.0 120.941323,24.605814,0.0 120.941863,24.605863,0.0 120.94234,24.605932,0.0 120.942808,24.606025,0.0 120.943337,24.606132,0.0 120.943843,24.606305,0.0 120.944314,24.606539,0.0 120.944807,24.606848,0.0 120.945186,24.607119,0.0 120.945441,24.607059,0.0 120.945791,24.606871,0.0 120.946085,24.606729,0.0 120.946393,24.60644,0.0 120.94682,24.606242,0.0 120.947331,24.60601,0.0 120.948048,24.605717,0.0 120.948793,24.605377,0.0 120.948896,24.604983,0.0 120.948914,24.604589,0.0 120.949086,24.604186,0.0 120.949312,24.60385,0.0 120.949382,24.603331,0.0 120.949222,24.602957,0.0 120.949164,24.602506,0.0 120.948949,24.602076,0.0 120.948817,24.601624,0.0 120.949067,24.601238,0.0 120.949489,24.601136,0.0 120.95006,24.601036,0.0 120.950713,24.600874,0.0 120.951239,24.600842,0.0 120.951735,24.60074,0.0 120.952308,24.6005,0.0 120.952922,24.600136,0.0 120.953411,24.599756,0.0 120.953943,24.599622,0.0 120.954689,24.599609,0.0 120.95547,24.599707,0.0 120.9558,24.599945,0.0 120.95599,24.599898,0.0 120.956039,24.59938,0.0 120.956208,24.59898,0.0 120.956029,24.598506,0.0 120.955962,24.598073,0.0 120.956273,24.597857,0.0 120.956486,24.597618,0.0 120.956677,24.597467,0.0 120.956942,24.597236,0.0 120.957084,24.596863,0.0 120.957395,24.596615,0.0 120.957538,24.596194,0.0 120.957762,24.595879,0.0 120.958372,24.596085,0.0 120.958757,24.59592,0.0 120.958822,24.595698,0.0 120.958611,24.595548,0.0 120.958611,24.595294,0.0 120.958963,24.5951,0.0 120.959347,24.594994,0.0 120.959224,24.594713,0.0 120.959293,24.594359,0.0 120.959735,24.594225,0.0 120.960014,24.594413,0.0 120.960263,24.594217,0.0 120.960564,24.593885,0.0 120.961012,24.593651,0.0 120.961431,24.593475,0.0 120.961647,24.593153,0.0 120.961786,24.592788,0.0 120.961787,24.592463,0.0 120.961973,24.592113,0.0 120.962345,24.591973,0.0 120.962492,24.591761,0.0 120.962948,24.591808,0.0 120.963205,24.591739,0.0 120.963526,24.591652,0.0 120.963769,24.591081,0.0 120.964039,24.590736,0.0 120.964556,24.590386,0.0 120.965098,24.58999,0.0 120.965547,24.589639,0.0 120.965876,24.589309,0.0 120.966193,24.588742,0.0 120.966301,24.588127,0.0 120.966518,24.587291,0.0 120.966888,24.586645,0.0 120.967247,24.586424,0.0 120.967851,24.586355,0.0 120.968447,24.586278,0.0 120.968989,24.586138,0.0 120.969426,24.585888,0.0 120.969941,24.585599,0.0 120.97038,24.585311,0.0 120.971191,24.585195,0.0 120.971828,24.585056,0.0 120.972179,24.584758,0.0 120.972605,24.584327,0.0 120.973188,24.584103,0.0 120.973781,24.583848,0.0 120.974355,24.583419,0.0 120.974626,24.583704,0.0 120.97496,24.584211,0.0 120.975382,24.584702,0.0 120.975921,24.585354,0.0 120.976282,24.585842,0.0 120.976651,24.58638,0.0 120.977048,24.58709,0.0 120.977188,24.587623,0.0 120.97727,24.587995,0.0 120.977707,24.588743,0.0 120.977952,24.589527,0.0 120.977931,24.590378,0.0 120.977973,24.591187,0.0 120.977962,24.592,0.0 120.978172,24.592756,0.0 120.978168,24.593451,0.0 120.978217,24.594154,0.0 120.978638,24.594439,0.0 120.979035,24.594941,0.0 120.979418,24.595486,0.0 120.979797,24.596017,0.0 120.979923,24.596655,0.0 120.980035,24.597443,0.0 120.980414,24.597988,0.0 120.98075,24.598477,0.0 120.980912,24.598898,0.0 120.980996,24.59931,0.0 120.981103,24.599756,0.0 120.981221,24.600212,0.0 120.981282,24.600774,0.0 120.981391,24.601205,0.0 120.981503,24.60159,0.0 120.981727,24.602011,0.0 120.981936,24.60231,0.0 120.982159,24.602518,0.0 120.982456,24.602679,0.0 120.98263,24.602977,0.0 120.982879,24.603356,0.0 120.983121,24.603636,0.0 120.983304,24.603972,0.0 120.983433,24.604421,0.0 120.983567,24.604876,0.0 120.983667,24.605339,0.0 120.983795,24.60598,0.0 120.983877,24.606514,0.0 120.983872,24.607029,0.0 120.983857,24.607455,0.0 120.983755,24.607965,0.0 120.983694,24.608337,0.0 120.983613,24.608775,0.0 120.983565,24.60929,0.0 120.983534,24.609736,0.0 120.983509,24.610296,0.0 120.983316,24.610706,0.0 120.983102,24.611335,0.0 120.983128,24.612156,0.0 120.982884,24.612573,0.0 120.98267,24.612885,0.0 120.982476,24.613047,0.0 120.982143,24.613355,0.0 120.981687,24.61386,0.0 120.981464,24.614092,0.0 120.981301,24.614569,0.0 120.981177,24.615056,0.0 120.981057,24.615556,0.0 120.980979,24.615843,0.0 120.980882,24.616117,0.0 120.98069,24.616413,0.0 120.980485,24.616723,0.0 120.980277,24.616982,0.0 120.980081,24.617207,0.0 120.980169,24.617557,0.0 120.980464,24.617716,0.0 120.980793,24.617828,0.0 120.981165,24.617962,0.0 120.981474,24.61813,0.0 120.981395,24.618326,0.0 120.981174,24.618596,0.0 120.980958,24.618869,0.0 120.980769,24.619093,0.0 120.980645,24.61935,0.0 120.980563,24.619818,0.0 120.980428,24.620244,0.0 120.980252,24.620591,0.0 120.979952,24.620773,0.0 120.979275,24.620734,0.0 120.978861,24.620394,0.0 120.978604,24.62013,0.0 120.978264,24.619831,0.0 120.978013,24.619682,0.0 120.977639,24.61946,0.0 120.977346,24.619392,0.0 120.976872,24.619393,0.0 120.976423,24.619321,0.0 120.976227,24.619026,0.0 120.975914,24.618777,0.0 120.975566,24.618695,0.0 120.975332,24.618783,0.0 120.975145,24.619083,0.0 120.974743,24.619377,0.0 120.974381,24.619327,0.0 120.974078,24.619451,0.0 120.973954,24.619828,0.0 120.97382,24.620271,0.0 120.973547,24.620456,0.0 120.973177,24.62072,0.0 120.972946,24.621392,0.0 120.971818,24.621558,0.0 120.971507,24.622033,0.0 120.971008,24.622525,0.0 120.970366,24.622606,0.0 120.969593,24.622685,0.0 120.969207,24.622927,0.0 120.968575,24.62318,0.0 120.967797,24.623095,0.0 120.967356,24.622892,0.0 120.967025,24.622758,0.0 120.966786,24.622707,0.0 120.966542,24.622407,0.0 120.966394,24.622115,0.0 120.966074,24.621938,0.0 120.965692,24.621865,0.0 120.965401,24.621649,0.0 120.965105,24.621536,0.0 120.964745,24.621468,0.0 120.964458,24.621271,0.0 120.964306,24.620906,0.0 120.964118,24.620602,0.0 120.964011,24.620238,0.0 120.963861,24.619902,0.0 120.963832,24.619509,0.0 120.964011,24.619324,0.0 120.963721,24.619069,0.0 120.963404,24.618935,0.0 120.963155,24.618701,0.0 120.962886,24.618471,0.0 120.962603,24.618161,0.0 120.962251,24.617946,0.0 120.961936,24.617755,0.0 120.961573,24.617524,0.0 120.961093,24.616977,0.0 120.960646,24.616828,0.0 120.960059,24.616773,0.0 120.95969,24.61663,0.0 120.95933,24.616724,0.0 120.959045,24.616852,0.0 120.958615,24.617087,0.0 120.958256,24.617226,0.0 120.957858,24.617033,0.0 120.957469,24.616863,0.0 120.957256,24.617257,0.0 120.957063,24.617627,0.0 120.957219,24.617935,0.0 120.957644,24.618185,0.0 120.95795,24.618408,0.0 120.958231,24.618669,0.0 120.958568,24.619017,0.0 120.958867,24.61928,0.0 120.959086,24.61959,0.0 120.959065,24.620043,0.0 120.958822,24.62033,0.0 120.958709,24.62061,0.0 120.958738,24.621191,0.0 120.958665,24.621717,0.0 120.958494,24.622328,0.0 120.958299,24.622902,0.0 120.958141,24.623252,0.0 120.957772,24.623488,0.0 120.958049,24.624005,0.0 120.958275,24.62476,0.0 120.958744,24.625212,0.0 120.959293,24.625681,0.0 120.959293,24.626442,0.0 120.959385,24.627367,0.0 120.959138,24.627717,0.0 120.958903,24.627998,0.0 120.958737,24.62857,0.0 120.957326,24.62694,0.0 120.956385,24.625567,0.0 120.955925,24.625252,0.0 120.954087,24.626046,0.0 120.952562,24.62728,0.0</coordinates></LinearRing></outerBoundaryIs></Polygon><styleUrl>#spolygon-map</styleUrl></Placemark><Placemark><Polygon><outerBoundaryIs><LinearRing><coordinates>120.916665,24.634497,0.0 120.912775,24.634708,0.0 120.910502,24.637332,0.0 120.908473,24.637482,0.0 120.907866,24.637227,0.0 120.907208,24.637123,0.0 120.906514,24.63699,0.0 120.905865,24.63672,0.0 120.905059,24.6363,0.0 120.904288,24.63569,0.0 120.904313,24.63475,0.0 120.903764,24.634144,0.0 120.903819,24.633706,0.0 120.903701,24.6332,0.0 120.903756,24.632555,0.0 120.903947,24.631887,0.0 120.903393,24.631431,0.0 120.902516,24.630976,0.0 120.90198,24.630296,0.0 120.901295,24.629698,0.0 120.900471,24.629464,0.0 120.89936,24.629003,0.0 120.899183,24.628567,0.0 120.89886,24.627838,0.0 120.898711,24.627092,0.0 120.897831,24.626432,0.0 120.897294,24.62606,0.0 120.896977,24.625753,0.0 120.896613,24.625393,0.0 120.897336,24.624961,0.0 120.898183,24.624785,0.0 120.899249,24.624786,0.0 120.900354,24.624728,0.0 120.901122,24.624985,0.0 120.901629,24.625625,0.0 120.902306,24.625862,0.0 120.903298,24.626045,0.0 120.904299,24.62599,0.0 120.905525,24.625739,0.0 120.906411,24.625851,0.0 120.907331,24.626376,0.0 120.908178,24.627031,0.0 120.908898,24.627753,0.0 120.90977,24.628269,0.0 120.910582,24.628478,0.0 120.911129,24.628331,0.0 120.911584,24.627658,0.0 120.911558,24.626891,0.0 120.911523,24.626261,0.0 120.912019,24.626055,0.0 120.912409,24.625748,0.0 120.91276,24.625083,0.0 120.913129,24.624642,0.0 120.913698,24.624486,0.0 120.914388,24.624377,0.0 120.914525,24.623842,0.0 120.914363,24.623155,0.0 120.914125,24.622772,0.0 120.914063,24.622352,0.0 120.914115,24.622056,0.0 120.914304,24.62178,0.0 120.914742,24.621669,0.0 120.915249,24.621732,0.0 120.915769,24.62169,0.0 120.915963,24.621442,0.0 120.915996,24.620922,0.0 120.915947,24.620294,0.0 120.915826,24.619748,0.0 120.915469,24.619449,0.0 120.915059,24.619411,0.0 120.914638,24.619238,0.0 120.914301,24.619029,0.0 120.91398,24.618848,0.0 120.913713,24.618663,0.0 120.91344,24.618417,0.0 120.913126,24.61828,0.0 120.912851,24.618428,0.0 120.91255,24.618528,0.0 120.912149,24.618473,0.0 120.911704,24.618201,0.0 120.911545,24.617925,0.0 120.911665,24.6175,0.0 120.911907,24.617023,0.0 120.912156,24.616647,0.0 120.912364,24.616315,0.0 120.912634,24.615905,0.0 120.912819,24.615473,0.0 120.912992,24.615135,0.0 120.913278,24.614896,0.0 120.913562,24.614876,0.0 120.91398,24.614888,0.0 120.914157,24.614538,0.0 120.914313,24.614213,0.0 120.914502,24.613948,0.0 120.914621,24.613601,0.0 120.914517,24.613124,0.0 120.914471,24.612586,0.0 120.914613,24.612212,0.0 120.914847,24.612051,0.0 120.9152,24.611909,0.0 120.915615,24.611736,0.0 120.916028,24.611566,0.0 120.916366,24.611416,0.0 120.916707,24.611252,0.0 120.917338,24.611077,0.0 120.917811,24.611075,0.0 120.918015,24.610991,0.0 120.917966,24.61056,0.0 120.917792,24.610295,0.0 120.917479,24.610219,0.0 120.917076,24.610361,0.0 120.916749,24.610436,0.0 120.916403,24.610388,0.0 120.916118,24.610169,0.0 120.91579,24.609834,0.0 120.915233,24.609222,0.0 120.914909,24.608771,0.0 120.914525,24.608413,0.0 120.914161,24.608475,0.0 120.913824,24.608605,0.0 120.913513,24.608474,0.0 120.913467,24.608217,0.0 120.913692,24.60782,0.0 120.913982,24.607456,0.0 120.914219,24.60726,0.0 120.914494,24.607094,0.0 120.91481,24.606959,0.0 120.915128,24.60686,0.0 120.915538,24.606768,0.0 120.916044,24.606698,0.0 120.916372,24.606727,0.0 120.916546,24.606989,0.0 120.916652,24.607462,0.0 120.916858,24.607841,0.0 120.917121,24.607985,0.0 120.917504,24.608021,0.0 120.917635,24.60773,0.0 120.917543,24.607342,0.0 120.91751,24.60709,0.0 120.917573,24.606703,0.0 120.917893,24.6065,0.0 120.918279,24.606439,0.0 120.918655,24.606514,0.0 120.919004,24.606646,0.0 120.919443,24.606549,0.0 120.919772,24.606389,0.0 120.920013,24.606125,0.0 120.919949,24.60575,0.0 120.919334,24.605419,0.0 120.918878,24.605329,0.0 120.91833,24.605479,0.0 120.91787,24.605615,0.0 120.917585,24.605644,0.0 120.9173,24.605476,0.0 120.917124,24.605048,0.0 120.916852,24.604702,0.0 120.916558,24.604519,0.0 120.916436,24.604255,0.0 120.916263,24.603943,0.0 120.915884,24.603629,0.0 120.91561,24.603348,0.0 120.915546,24.603056,0.0 120.915674,24.60272,0.0 120.915814,24.60232,0.0 120.91587,24.601897,0.0 120.915687,24.601398,0.0 120.915649,24.601121,0.0 120.915789,24.60094,0.0 120.916031,24.601074,0.0 120.916255,24.601414,0.0 120.91658,24.601727,0.0 120.916937,24.601812,0.0 120.917369,24.601796,0.0 120.91764,24.602007,0.0 120.917797,24.602346,0.0 120.917991,24.602661,0.0 120.918216,24.602824,0.0 120.918495,24.602806,0.0 120.918734,24.602669,0.0 120.918924,24.602489,0.0 120.919074,24.602264,0.0 120.919174,24.601966,0.0 120.919132,24.601558,0.0 120.919113,24.60102,0.0 120.919326,24.601001,0.0 120.919582,24.601346,0.0 120.919803,24.601765,0.0 120.92007,24.60206,0.0 120.920498,24.602271,0.0 120.920765,24.602557,0.0 120.9208,24.602863,0.0 120.920649,24.603277,0.0 120.920536,24.603572,0.0 120.920632,24.603822,0.0 120.921,24.60387,0.0 120.921561,24.603635,0.0 120.92199,24.603551,0.0 120.922271,24.603589,0.0 120.922562,24.603853,0.0 120.922979,24.603968,0.0 120.923502,24.603999,0.0 120.924072,24.603763,0.0 120.924616,24.603659,0.0 120.924919,24.603719,0.0 120.925165,24.603905,0.0 120.924763,24.604407,0.0 120.922733,24.605533,0.0 120.922634,24.607407,0.0 120.924237,24.609333,0.0 120.925677,24.611768,0.0 120.927288,24.612911,0.0 120.928177,24.614525,0.0 120.931351,24.615292,0.0 120.933694,24.617415,0.0 120.934746,24.618584,0.0 120.930705,24.623116,0.0 120.929112,24.624426,0.0 120.927517,24.625856,0.0 120.926814,24.62851,0.0 120.925383,24.629818,0.0 120.923304,24.630301,0.0 120.92018,24.632076,0.0 120.917753,24.633735,0.0 120.916665,24.634497,0.0</coordinates></LinearRing></outerBoundaryIs></Polygon><styleUrl>#spolygon-map</styleUrl></Placemark><Placemark><Polygon><outerBoundaryIs><LinearRing><coordinates>120.954807,24.659158,0.0 120.95279,24.659312,0.0 120.951018,24.657985,0.0 120.949011,24.656927,0.0 120.946985,24.655451,0.0 120.945293,24.653647,0.0 120.944318,24.650955,0.0 120.942889,24.649807,0.0 120.941265,24.645949,0.0 120.941434,24.644889,0.0 120.942005,24.644631,0.0 120.942835,24.644172,0.0 120.943448,24.643874,0.0 120.943782,24.644019,0.0 120.944433,24.644573,0.0 120.945256,24.644631,0.0 120.94538,24.642938,0.0 120.946431,24.641088,0.0 120.946399,24.639674,0.0 120.946835,24.638382,0.0 120.948267,24.637391,0.0 120.949766,24.635034,0.0 120.950047,24.633798,0.0 120.948536,24.632159,0.0 120.948291,24.630858,0.0 120.949568,24.629932,0.0 120.949941,24.628727,0.0 120.951767,24.6275,0.0 120.953739,24.626303,0.0 120.955406,24.625424,0.0 120.956368,24.625374,0.0 120.957247,24.626745,0.0 120.958238,24.628233,0.0 120.95863,24.629215,0.0 120.958188,24.629343,0.0 120.957342,24.629282,0.0 120.956228,24.629636,0.0 120.956403,24.630316,0.0 120.955838,24.63096,0.0 120.955047,24.631378,0.0 120.955379,24.63223,0.0 120.955583,24.633099,0.0 120.956091,24.633395,0.0 120.956493,24.633897,0.0 120.956368,24.634352,0.0 120.956515,24.634616,0.0 120.956529,24.634858,0.0 120.956346,24.63607,0.0 120.956313,24.636744,0.0 120.956266,24.637566,0.0 120.955614,24.637874,0.0 120.954962,24.637945,0.0 120.954734,24.638518,0.0 120.954859,24.638978,0.0 120.954447,24.638906,0.0 120.954012,24.638845,0.0 120.953591,24.639043,0.0 120.953184,24.63909,0.0 120.952616,24.639094,0.0 120.95216,24.639235,0.0 120.951786,24.639674,0.0 120.951715,24.64031,0.0 120.951364,24.640491,0.0 120.950939,24.640668,0.0 120.95055,24.641061,0.0 120.950675,24.641394,0.0 120.950739,24.641764,0.0 120.950424,24.642393,0.0 120.950216,24.642921,0.0 120.950127,24.643392,0.0 120.949825,24.643733,0.0 120.949794,24.644405,0.0 120.949272,24.645148,0.0 120.948568,24.645977,0.0 120.948243,24.646349,0.0 120.948615,24.646605,0.0 120.949454,24.646434,0.0 120.950852,24.646356,0.0 120.951693,24.6464,0.0 120.952716,24.646407,0.0 120.953572,24.64647,0.0 120.95452,24.646494,0.0 120.955051,24.646365,0.0 120.955736,24.645716,0.0 120.95672,24.645131,0.0 120.957433,24.644581,0.0 120.958286,24.644219,0.0 120.95897,24.643729,0.0 120.959687,24.643269,0.0 120.960799,24.642686,0.0 120.961887,24.642141,0.0 120.963018,24.641901,0.0 120.963999,24.641983,0.0 120.964943,24.641978,0.0 120.965706,24.641729,0.0 120.966723,24.641225,0.0 120.968259,24.640875,0.0 120.969239,24.64067,0.0 120.970279,24.640519,0.0 120.971406,24.640176,0.0 120.972114,24.639504,0.0 120.972772,24.639361,0.0 120.973889,24.639247,0.0 120.974694,24.639075,0.0 120.975702,24.63884,0.0 120.976593,24.638868,0.0 120.977237,24.638822,0.0 120.977877,24.638805,0.0 120.978484,24.638763,0.0 120.979183,24.638683,0.0 120.979877,24.638582,0.0 120.980729,24.638469,0.0 120.981407,24.638464,0.0 120.981942,24.63865,0.0 120.982881,24.638755,0.0 120.983158,24.63926,0.0 120.982917,24.639455,0.0 120.98267,24.63962,0.0 120.982577,24.639782,0.0 120.982383,24.64003,0.0 120.982253,24.64024,0.0 120.982218,24.640421,0.0 120.982272,24.640655,0.0 120.982305,24.640895,0.0 120.982278,24.64104,0.0 120.982191,24.641292,0.0 120.982152,24.641571,0.0 120.982049,24.641957,0.0 120.982411,24.642331,0.0 120.982532,24.642566,0.0 120.982613,24.642707,0.0 120.982796,24.642927,0.0 120.983037,24.643041,0.0 120.98331,24.643219,0.0 120.983408,24.643379,0.0 120.983502,24.643575,0.0 120.983667,24.643723,0.0 120.983748,24.643844,0.0 120.983818,24.644143,0.0 120.983871,24.644224,0.0 120.984001,24.644308,0.0 120.984179,24.644442,0.0 120.98449,24.644657,0.0 120.984613,24.644809,0.0 120.984707,24.644911,0.0 120.98487,24.644983,0.0 120.985105,24.645102,0.0 120.985156,24.645188,0.0 120.984596,24.646122,0.0 120.984456,24.647565,0.0 120.984375,24.648641,0.0 120.983559,24.649441,0.0 120.982568,24.651006,0.0 120.980714,24.653925,0.0 120.979818,24.654972,0.0 120.979098,24.655918,0.0 120.978422,24.656306,0.0 120.978337,24.656746,0.0 120.977927,24.655892,0.0 120.977563,24.655506,0.0 120.977195,24.655943,0.0 120.977626,24.654454,0.0 120.976953,24.654679,0.0 120.976066,24.655577,0.0 120.974664,24.655644,0.0 120.974233,24.654117,0.0 120.972824,24.654836,0.0 120.971827,24.653667,0.0 120.971796,24.653083,0.0 120.971473,24.652545,0.0 120.970268,24.651019,0.0 120.969413,24.648974,0.0 120.968917,24.6468,0.0 120.966356,24.647792,0.0 120.964987,24.648256,0.0 120.963679,24.647744,0.0 120.962361,24.647637,0.0 120.960412,24.649498,0.0 120.959394,24.649939,0.0 120.958993,24.647976,0.0 120.956464,24.646594,0.0 120.95439,24.646765,0.0 120.950961,24.649521,0.0 120.950205,24.652424,0.0 120.949766,24.65535,0.0 120.951344,24.655381,0.0 120.954205,24.656746,0.0 120.955176,24.659089,0.0 120.954807,24.659158,0.0</coordinates></LinearRing></outerBoundaryIs></Polygon><styleUrl>#spolygon-map</styleUrl></Placemark><Placemark><Polygon><outerBoundaryIs><LinearRing><coordinates>121.002627,24.655844,0.0 121.002201,24.655541,0.0 121.001375,24.655368,0.0 121.000843,24.655005,0.0 121.000167,24.654742,0.0 120.999531,24.654825,0.0 120.998858,24.65474,0.0 120.998225,24.654702,0.0 120.997642,24.654773,0.0 120.997235,24.654615,0.0 120.99661,24.655107,0.0 120.996089,24.655488,0.0 120.995935,24.656318,0.0 120.995816,24.656895,0.0 120.995511,24.657299,0.0 120.99594,24.657618,0.0 120.996109,24.658086,0.0 120.995724,24.658527,0.0 120.99537,24.659001,0.0 120.994856,24.659453,0.0 120.994209,24.659601,0.0 120.993757,24.659537,0.0 120.993286,24.659535,0.0 120.992699,24.659502,0.0 120.992258,24.658694,0.0 120.99136,24.658184,0.0 120.989971,24.656562,0.0 120.988342,24.655452,0.0 120.98755,24.654424,0.0 120.987139,24.654843,0.0 120.986509,24.654972,0.0 120.985743,24.65509,0.0 120.984902,24.654908,0.0 120.984073,24.655354,0.0 120.982928,24.656017,0.0 120.982484,24.655612,0.0 120.98077,24.655811,0.0 120.97997,24.65584,0.0 120.980108,24.654652,0.0 120.981615,24.652657,0.0 120.982846,24.650201,0.0 120.983669,24.649372,0.0 120.984436,24.648439,0.0 120.98437,24.647263,0.0 120.985099,24.645371,0.0 120.985144,24.645144,0.0 120.985036,24.645063,0.0 120.984775,24.64495,0.0 120.984675,24.644886,0.0 120.984555,24.644708,0.0 120.984288,24.644526,0.0 120.984119,24.644385,0.0 120.983921,24.644267,0.0 120.983849,24.644198,0.0 120.983805,24.644105,0.0 120.983722,24.643782,0.0 120.983611,24.643676,0.0 120.983481,24.643544,0.0 120.983375,24.643295,0.0 120.983235,24.64316,0.0 120.982885,24.642976,0.0 120.982773,24.642909,0.0 120.982563,24.642637,0.0 120.982507,24.642483,0.0 120.982346,24.642256,0.0 120.98209,24.641806,0.0 120.98222,24.641388,0.0 120.982197,24.641261,0.0 120.982296,24.640979,0.0 120.982303,24.640848,0.0 120.982249,24.640569,0.0 120.982219,24.640362,0.0 120.982292,24.640163,0.0 120.98247,24.639921,0.0 120.982623,24.639686,0.0 120.982697,24.639598,0.0 120.982998,24.639397,0.0 120.983234,24.639107,0.0 120.983705,24.638583,0.0 120.984799,24.638323,0.0 120.985892,24.637945,0.0 120.986857,24.637867,0.0 120.987402,24.638233,0.0 120.987665,24.638874,0.0 120.988032,24.639976,0.0 120.988609,24.640859,0.0 120.989158,24.641546,0.0 120.990211,24.6417,0.0 120.990704,24.642139,0.0 120.991507,24.641835,0.0 120.992424,24.641309,0.0 120.992978,24.641106,0.0 120.993566,24.641435,0.0 120.994008,24.641311,0.0 120.994365,24.640814,0.0 120.994781,24.640417,0.0 120.995597,24.640357,0.0 120.996965,24.640571,0.0 120.997711,24.641302,0.0 120.998189,24.642265,0.0 120.999421,24.642766,0.0 121.000394,24.642903,0.0 121.001315,24.642755,0.0 121.00193,24.642546,0.0 121.00282,24.642145,0.0 121.003494,24.641908,0.0 121.004172,24.641835,0.0 121.004793,24.641578,0.0 121.005055,24.641636,0.0 121.005341,24.641906,0.0 121.005677,24.642731,0.0 121.006179,24.643834,0.0 121.007097,24.644382,0.0 121.008084,24.644401,0.0 121.008303,24.645563,0.0 121.008471,24.646115,0.0 121.0087,24.646637,0.0 121.008859,24.647124,0.0 121.008947,24.647715,0.0 121.008861,24.648103,0.0 121.008137,24.650128,0.0 121.008105,24.6505,0.0 121.008246,24.650908,0.0 121.008709,24.651524,0.0 121.009091,24.651544,0.0 121.009755,24.651616,0.0 121.010296,24.65195,0.0 121.010734,24.652501,0.0 121.0107,24.652999,0.0 121.010663,24.653514,0.0 121.010793,24.654079,0.0 121.010832,24.654611,0.0 121.010596,24.655056,0.0 121.010432,24.655542,0.0 121.010315,24.656071,0.0 121.009971,24.656113,0.0 121.009329,24.656005,0.0 121.008706,24.655909,0.0 121.008182,24.65585,0.0 121.007826,24.655794,0.0 121.007258,24.655758,0.0 121.00671,24.65568,0.0 121.006215,24.65539,0.0 121.005834,24.655333,0.0 121.005354,24.65567,0.0 121.004867,24.655986,0.0 121.004557,24.656339,0.0 121.004008,24.656384,0.0 121.003304,24.656236,0.0 121.002806,24.655975,0.0 121.002627,24.655844,0.0</coordinates></LinearRing></outerBoundaryIs></Polygon><styleUrl>#spolygon-map</styleUrl></Placemark><Placemark><Polygon><outerBoundaryIs><LinearRing><coordinates>120.934788,24.659559,0.0 120.934454,24.659963,0.0 120.934049,24.66009,0.0 120.933281,24.660437,0.0 120.932775,24.660726,0.0 120.932492,24.660881,0.0 120.931763,24.660636,0.0 120.930954,24.660971,0.0 120.930154,24.661646,0.0 120.929479,24.662226,0.0 120.928858,24.66275,0.0 120.928302,24.662933,0.0 120.927864,24.662942,0.0 120.927288,24.662602,0.0 120.926732,24.662482,0.0 120.926225,24.662527,0.0 120.925741,24.662737,0.0 120.925135,24.662635,0.0 120.924457,24.66249,0.0 120.923861,24.662568,0.0 120.923585,24.662319,0.0 120.923019,24.662061,0.0 120.92242,24.661967,0.0 120.92263,24.662271,0.0 120.922501,24.662576,0.0 120.922024,24.662762,0.0 120.921327,24.66249,0.0 120.920676,24.66196,0.0 120.920023,24.661257,0.0 120.920281,24.660426,0.0 120.920373,24.659912,0.0 120.919965,24.659278,0.0 120.920008,24.658812,0.0 120.919909,24.658019,0.0 120.919306,24.657925,0.0 120.918549,24.65772,0.0 120.917398,24.656905,0.0 120.917019,24.65652,0.0 120.916481,24.656131,0.0 120.915549,24.656143,0.0 120.914976,24.656133,0.0 120.914398,24.656133,0.0 120.913907,24.655883,0.0 120.913528,24.655744,0.0 120.913146,24.655675,0.0 120.912776,24.655313,0.0 120.912501,24.655118,0.0 120.912002,24.65502,0.0 120.911405,24.654377,0.0 120.910852,24.653917,0.0 120.910635,24.653413,0.0 120.911136,24.652929,0.0 120.911623,24.652661,0.0 120.911927,24.65204,0.0 120.912172,24.65161,0.0 120.912214,24.651109,0.0 120.912273,24.650496,0.0 120.912352,24.650054,0.0 120.912236,24.649679,0.0 120.91199,24.648904,0.0 120.911676,24.648478,0.0 120.911592,24.647946,0.0 120.911509,24.647353,0.0 120.911626,24.646921,0.0 120.911635,24.646473,0.0 120.91154,24.646055,0.0 120.91177,24.645849,0.0 120.912167,24.645624,0.0 120.91248,24.645296,0.0 120.912746,24.64467,0.0 120.913239,24.644329,0.0 120.913478,24.643902,0.0 120.913326,24.643468,0.0 120.91298,24.642677,0.0 120.912912,24.642207,0.0 120.912805,24.641867,0.0 120.912331,24.641684,0.0 120.911606,24.641628,0.0 120.910985,24.641376,0.0 120.910235,24.641297,0.0 120.909394,24.64106,0.0 120.909143,24.640284,0.0 120.908888,24.639437,0.0 120.908839,24.638245,0.0 120.909944,24.637447,0.0 120.912544,24.634877,0.0 120.916076,24.634463,0.0 120.917534,24.634199,0.0 120.919712,24.632083,0.0 120.922761,24.630865,0.0 120.925018,24.629824,0.0 120.926723,24.628799,0.0 120.927427,24.626019,0.0 120.928842,24.624579,0.0 120.930459,24.623441,0.0 120.934605,24.618837,0.0 120.935443,24.618954,0.0 120.937622,24.620561,0.0 120.940344,24.622154,0.0 120.941528,24.623771,0.0 120.942354,24.62385,0.0 120.943457,24.623705,0.0 120.944726,24.624506,0.0 120.946176,24.627185,0.0 120.947224,24.629291,0.0 120.949483,24.629989,0.0 120.948132,24.631118,0.0 120.948934,24.632378,0.0 120.950072,24.633977,0.0 120.949481,24.63549,0.0 120.948179,24.637547,0.0 120.946688,24.638504,0.0 120.946534,24.639916,0.0 120.94618,24.641413,0.0 120.945363,24.643452,0.0 120.945173,24.644723,0.0 120.94429,24.64444,0.0 120.943608,24.643901,0.0 120.94341,24.643889,0.0 120.942669,24.644248,0.0 120.941908,24.644689,0.0 120.941371,24.644906,0.0 120.940918,24.644859,0.0 120.940433,24.644732,0.0 120.939915,24.64492,0.0 120.939684,24.645,0.0 120.939296,24.644865,0.0 120.938627,24.645072,0.0 120.93837,24.645079,0.0 120.937692,24.644966,0.0 120.937483,24.644833,0.0 120.937373,24.644521,0.0 120.937362,24.644149,0.0 120.937305,24.643944,0.0 120.937001,24.64382,0.0 120.936289,24.643692,0.0 120.93576,24.643081,0.0 120.935285,24.642475,0.0 120.935006,24.642303,0.0 120.934521,24.642351,0.0 120.934122,24.642305,0.0 120.934079,24.642683,0.0 120.933953,24.643199,0.0 120.933615,24.643445,0.0 120.933384,24.643634,0.0 120.933368,24.644144,0.0 120.933236,24.644567,0.0 120.933335,24.644769,0.0 120.933994,24.645187,0.0 120.934074,24.64565,0.0 120.933805,24.646099,0.0 120.933361,24.646331,0.0 120.932766,24.646571,0.0 120.932722,24.646656,0.0 120.932748,24.646813,0.0 120.932955,24.647005,0.0 120.933323,24.647297,0.0 120.933511,24.647664,0.0 120.933567,24.647963,0.0 120.933491,24.648089,0.0 120.933264,24.648213,0.0 120.933168,24.648341,0.0 120.93323,24.648498,0.0 120.933475,24.648792,0.0 120.933762,24.649417,0.0 120.933932,24.649562,0.0 120.934071,24.649559,0.0 120.934327,24.649345,0.0 120.934878,24.649062,0.0 120.935531,24.648999,0.0 120.93601,24.64915,0.0 120.936544,24.649798,0.0 120.936778,24.650446,0.0 120.936616,24.651227,0.0 120.936665,24.651358,0.0 120.937229,24.65167,0.0 120.938436,24.652395,0.0 120.938647,24.6527,0.0 120.938686,24.653067,0.0 120.938817,24.653201,0.0 120.93917,24.653564,0.0 120.93914,24.653744,0.0 120.938772,24.654213,0.0 120.938745,24.654432,0.0 120.939185,24.654891,0.0 120.939929,24.655593,0.0 120.940263,24.655891,0.0 120.940266,24.656154,0.0 120.939771,24.656422,0.0 120.939589,24.656546,0.0 120.939421,24.656783,0.0 120.93897,24.656954,0.0 120.938108,24.657109,0.0 120.937508,24.657394,0.0 120.93732,24.657531,0.0 120.936553,24.657486,0.0 120.935957,24.65731,0.0 120.93563,24.657608,0.0 120.93545,24.657997,0.0 120.935442,24.65816,0.0 120.935383,24.658515,0.0 120.935099,24.659167,0.0 120.934974,24.659321,0.0 120.934788,24.659559,0.0</coordinates></LinearRing></outerBoundaryIs></Polygon><styleUrl>#spolygon-map</styleUrl></Placemark><Placemark><Polygon><outerBoundaryIs><LinearRing><coordinates>120.966606,24.666529,0.0 120.966244,24.666583,0.0 120.965882,24.666544,0.0 120.965592,24.666366,0.0 120.965533,24.666085,0.0 120.965352,24.665719,0.0 120.965071,24.665168,0.0 120.964665,24.664006,0.0 120.964217,24.662976,0.0 120.964053,24.662255,0.0 120.963534,24.662175,0.0 120.961005,24.661778,0.0 120.958068,24.66214,0.0 120.955972,24.660531,0.0 120.955164,24.659156,0.0 120.954897,24.657039,0.0 120.95151,24.655381,0.0 120.949985,24.655665,0.0 120.949879,24.65308,0.0 120.951088,24.64992,0.0 120.954217,24.646803,0.0 120.956107,24.646651,0.0 120.958223,24.647344,0.0 120.959315,24.649565,0.0 120.960123,24.650015,0.0 120.962057,24.647699,0.0 120.963462,24.647532,0.0 120.964765,24.648314,0.0 120.965978,24.647911,0.0 120.968455,24.647293,0.0 120.969346,24.648074,0.0 120.970222,24.650943,0.0 120.971145,24.651853,0.0 120.971792,24.653075,0.0 120.971757,24.653213,0.0 120.972583,24.65546,0.0 120.972756,24.656687,0.0 120.971083,24.658203,0.0 120.971144,24.659116,0.0 120.970188,24.659221,0.0 120.971933,24.659862,0.0 120.972879,24.659963,0.0 120.970991,24.661631,0.0 120.970702,24.662274,0.0 120.97231,24.661886,0.0 120.972064,24.66329,0.0 120.971516,24.664151,0.0 120.970069,24.6638,0.0 120.969566,24.663718,0.0 120.969352,24.663693,0.0 120.968881,24.663479,0.0 120.968835,24.663428,0.0 120.968625,24.663292,0.0 120.968541,24.663173,0.0 120.968416,24.663061,0.0 120.968158,24.662945,0.0 120.968076,24.662915,0.0 120.967746,24.662917,0.0 120.96754,24.662987,0.0 120.96747,24.663251,0.0 120.967488,24.663515,0.0 120.967549,24.663639,0.0 120.967855,24.663973,0.0 120.967858,24.664132,0.0 120.967808,24.66424,0.0 120.96776,24.66438,0.0 120.967729,24.664666,0.0 120.967718,24.664798,0.0 120.967836,24.664894,0.0 120.968089,24.665133,0.0 120.968369,24.665678,0.0 120.968363,24.665743,0.0 120.96824,24.665885,0.0 120.96817,24.666087,0.0 120.96803,24.666138,0.0 120.967813,24.666176,0.0 120.96767,24.66615,0.0 120.967472,24.666235,0.0 120.967177,24.666343,0.0 120.966992,24.666434,0.0 120.966797,24.666486,0.0 120.966606,24.666529,0.0</coordinates></LinearRing></outerBoundaryIs></Polygon><styleUrl>#spolygon-map</styleUrl></Placemark><Placemark><Polygon><outerBoundaryIs><LinearRing><coordinates>120.97163,24.672989,0.0 120.970742,24.673459,0.0 120.969977,24.674136,0.0 120.969373,24.674383,0.0 120.968715,24.674773,0.0 120.968421,24.67524,0.0 120.967926,24.675123,0.0 120.967423,24.675056,0.0 120.966673,24.675045,0.0 120.966068,24.674982,0.0 120.965528,24.674388,0.0 120.963803,24.672459,0.0 120.961978,24.66984,0.0 120.962424,24.667021,0.0 120.963507,24.663575,0.0 120.963534,24.662175,0.0 120.964053,24.662255,0.0 120.964217,24.662976,0.0 120.964665,24.664006,0.0 120.965071,24.665168,0.0 120.965352,24.665719,0.0 120.965533,24.666085,0.0 120.965592,24.666366,0.0 120.965882,24.666544,0.0 120.966244,24.666583,0.0 120.966606,24.666529,0.0 120.966911,24.666472,0.0 120.967022,24.666409,0.0 120.967348,24.666283,0.0 120.967626,24.666162,0.0 120.96771,24.66615,0.0 120.967876,24.666185,0.0 120.968146,24.666101,0.0 120.9682,24.666029,0.0 120.968271,24.665833,0.0 120.968378,24.665716,0.0 120.968255,24.665427,0.0 120.968019,24.665034,0.0 120.967738,24.664855,0.0 120.967708,24.664728,0.0 120.967753,24.664587,0.0 120.967771,24.664314,0.0 120.967845,24.664181,0.0 120.967859,24.664008,0.0 120.96766,24.663762,0.0 120.967504,24.663566,0.0 120.967478,24.66333,0.0 120.967453,24.663201,0.0 120.967661,24.662935,0.0 120.967875,24.662919,0.0 120.968111,24.662924,0.0 120.968331,24.663032,0.0 120.968504,24.663084,0.0 120.968589,24.663254,0.0 120.968687,24.663338,0.0 120.968858,24.663449,0.0 120.969107,24.663593,0.0 120.969453,24.663711,0.0 120.969552,24.663769,0.0 120.970769,24.664113,0.0 120.971755,24.663948,0.0 120.972532,24.662954,0.0 120.971438,24.661934,0.0 120.970571,24.661924,0.0 120.971748,24.661209,0.0 120.972616,24.659718,0.0 120.971192,24.660117,0.0 120.970866,24.65926,0.0 120.970745,24.658554,0.0 120.972513,24.657454,0.0 120.973029,24.65614,0.0 120.972824,24.654836,0.0 120.974233,24.654117,0.0 120.974664,24.655644,0.0 120.976066,24.655577,0.0 120.976953,24.654679,0.0 120.977626,24.654454,0.0 120.977195,24.655943,0.0 120.977563,24.655506,0.0 120.977927,24.655892,0.0 120.978337,24.656746,0.0 120.978422,24.656306,0.0 120.979098,24.655918,0.0 120.97997,24.65584,0.0 120.98077,24.655811,0.0 120.982484,24.655612,0.0 120.982928,24.656017,0.0 120.984073,24.655354,0.0 120.984902,24.654908,0.0 120.985743,24.65509,0.0 120.986509,24.654972,0.0 120.987139,24.654843,0.0 120.98755,24.654424,0.0 120.988342,24.655452,0.0 120.989971,24.656562,0.0 120.99136,24.658184,0.0 120.992258,24.658694,0.0 120.992699,24.659502,0.0 120.991995,24.659525,0.0 120.991369,24.659759,0.0 120.990686,24.660332,0.0 120.990474,24.660837,0.0 120.990443,24.661565,0.0 120.990535,24.662262,0.0 120.990629,24.662823,0.0 120.990643,24.663518,0.0 120.990687,24.664078,0.0 120.990665,24.664661,0.0 120.990539,24.664826,0.0 120.990103,24.664761,0.0 120.989983,24.664342,0.0 120.989708,24.663725,0.0 120.989162,24.663066,0.0 120.988447,24.663051,0.0 120.98763,24.663297,0.0 120.987028,24.663601,0.0 120.986483,24.66406,0.0 120.985995,24.66458,0.0 120.985726,24.665158,0.0 120.98568,24.665827,0.0 120.985539,24.666339,0.0 120.985143,24.666871,0.0 120.98418,24.666999,0.0 120.983606,24.667024,0.0 120.983142,24.669874,0.0 120.9827,24.67034,0.0 120.982226,24.670723,0.0 120.981773,24.67097,0.0 120.981774,24.671497,0.0 120.98162,24.671873,0.0 120.981071,24.672231,0.0 120.98072,24.672595,0.0 120.98035,24.672918,0.0 120.980043,24.673254,0.0 120.979639,24.673567,0.0 120.978817,24.67385,0.0 120.978013,24.673967,0.0 120.977421,24.673846,0.0 120.977009,24.673649,0.0 120.97631,24.673729,0.0 120.975798,24.673989,0.0 120.97445,24.673937,0.0 120.973692,24.673683,0.0 120.972288,24.673456,0.0 120.971692,24.673004,0.0 120.97163,24.672989,0.0</coordinates></LinearRing></outerBoundaryIs></Polygon><styleUrl>#spolygon-map</styleUrl></Placemark><Placemark><Polygon><outerBoundaryIs><LinearRing><coordinates>120.965594,24.674943,0.0 120.96534,24.675119,0.0 120.96515,24.675843,0.0 120.964855,24.676313,0.0 120.964254,24.676586,0.0 120.963865,24.676927,0.0 120.963413,24.677132,0.0 120.962832,24.677246,0.0 120.962497,24.677719,0.0 120.961754,24.678229,0.0 120.960608,24.678723,0.0 120.959962,24.678885,0.0 120.959413,24.678979,0.0 120.958757,24.679351,0.0 120.958439,24.679256,0.0 120.958059,24.678972,0.0 120.957546,24.678431,0.0 120.956971,24.678017,0.0 120.956486,24.677891,0.0 120.95562,24.67793,0.0 120.954464,24.678148,0.0 120.953475,24.678442,0.0 120.952189,24.678963,0.0 120.951448,24.679101,0.0 120.950732,24.679046,0.0 120.950376,24.678529,0.0 120.949966,24.677442,0.0 120.94966,24.676514,0.0 120.94944,24.675709,0.0 120.94905,24.675025,0.0 120.94854,24.674415,0.0 120.947931,24.673727,0.0 120.947414,24.67316,0.0 120.947038,24.672518,0.0 120.94656,24.671955,0.0 120.945633,24.671811,0.0 120.944555,24.671557,0.0 120.943488,24.67121,0.0 120.943042,24.670751,0.0 120.943247,24.670162,0.0 120.943435,24.669598,0.0 120.944125,24.669474,0.0 120.944652,24.669485,0.0 120.944859,24.668995,0.0 120.945165,24.668722,0.0 120.945598,24.668775,0.0 120.945218,24.668491,0.0 120.944585,24.667987,0.0 120.944412,24.667331,0.0 120.943835,24.667208,0.0 120.943022,24.667177,0.0 120.942961,24.666797,0.0 120.943889,24.666416,0.0 120.944532,24.666247,0.0 120.944663,24.665892,0.0 120.943803,24.665357,0.0 120.942826,24.665114,0.0 120.942438,24.664714,0.0 120.942434,24.664055,0.0 120.942107,24.663906,0.0 120.94169,24.663432,0.0 120.941509,24.662843,0.0 120.941488,24.662762,0.0 120.941401,24.662553,0.0 120.941379,24.662375,0.0 120.941338,24.662174,0.0 120.941129,24.661811,0.0 120.941052,24.661685,0.0 120.940877,24.660608,0.0 120.941055,24.66009,0.0 120.941033,24.659452,0.0 120.94096,24.658818,0.0 120.940608,24.658396,0.0 120.940176,24.657958,0.0 120.939615,24.657505,0.0 120.938628,24.65749,0.0 120.937524,24.657516,0.0 120.937508,24.657394,0.0 120.938108,24.657109,0.0 120.93897,24.656954,0.0 120.939421,24.656783,0.0 120.939589,24.656546,0.0 120.939771,24.656422,0.0 120.940266,24.656154,0.0 120.940263,24.655891,0.0 120.939929,24.655593,0.0 120.939185,24.654891,0.0 120.938745,24.654432,0.0 120.938772,24.654213,0.0 120.93914,24.653744,0.0 120.93917,24.653564,0.0 120.938817,24.653201,0.0 120.938686,24.653067,0.0 120.938647,24.6527,0.0 120.938436,24.652395,0.0 120.937229,24.65167,0.0 120.936665,24.651358,0.0 120.936616,24.651227,0.0 120.936778,24.650446,0.0 120.936544,24.649798,0.0 120.93601,24.64915,0.0 120.935531,24.648999,0.0 120.934878,24.649062,0.0 120.934327,24.649345,0.0 120.934071,24.649559,0.0 120.933932,24.649562,0.0 120.933762,24.649417,0.0 120.933475,24.648792,0.0 120.93323,24.648498,0.0 120.933168,24.648341,0.0 120.933264,24.648213,0.0 120.933491,24.648089,0.0 120.933567,24.647963,0.0 120.933511,24.647664,0.0 120.933323,24.647297,0.0 120.932955,24.647005,0.0 120.932748,24.646813,0.0 120.932722,24.646656,0.0 120.932766,24.646571,0.0 120.933361,24.646331,0.0 120.933805,24.646099,0.0 120.934074,24.64565,0.0 120.933994,24.645187,0.0 120.933335,24.644769,0.0 120.933236,24.644567,0.0 120.933368,24.644144,0.0 120.933384,24.643634,0.0 120.933615,24.643445,0.0 120.933953,24.643199,0.0 120.934079,24.642683,0.0 120.934122,24.642305,0.0 120.934521,24.642351,0.0 120.935006,24.642303,0.0 120.935285,24.642475,0.0 120.93576,24.643081,0.0 120.936289,24.643692,0.0 120.937001,24.64382,0.0 120.937305,24.643944,0.0 120.937362,24.644149,0.0 120.937373,24.644521,0.0 120.937483,24.644833,0.0 120.937692,24.644966,0.0 120.93837,24.645079,0.0 120.938627,24.645072,0.0 120.939296,24.644865,0.0 120.939684,24.645,0.0 120.939915,24.64492,0.0 120.940433,24.644732,0.0 120.940918,24.644859,0.0 120.941313,24.646329,0.0 120.943152,24.650028,0.0 120.944402,24.651283,0.0 120.945635,24.653917,0.0 120.94737,24.655754,0.0 120.949705,24.65733,0.0 120.951281,24.657999,0.0 120.952879,24.659375,0.0 120.955176,24.659089,0.0 120.955621,24.660209,0.0 120.957651,24.662182,0.0 120.960435,24.661723,0.0 120.963109,24.662621,0.0 120.96295,24.665115,0.0 120.961461,24.668653,0.0 120.962595,24.670959,0.0 120.964592,24.673416,0.0 120.965594,24.674943,0.0</coordinates></LinearRing></outerBoundaryIs></Polygon><styleUrl>#spolygon-map</styleUrl></Placemark></Document>
</kml>
