<?xml version="1.0" encoding="UTF-8"?>
<kml xmlns="http://www.opengis.net/kml/2.2">
	<Document>
		<name>苗栗縣大湖鄉</name>
		<Style id="spolygon">
			<LabelStyle>
				<scale>0.0</scale>
			</LabelStyle>
			<LineStyle>
				<color>330030ff</color>
				<width>0</width>
			</LineStyle>
			<PolyStyle>
				<color>330030ff</color>
			</PolyStyle>
		</Style>
		<StyleMap id="spolygon-map">
			<Pair>
				<key>normal</key>
				<styleUrl>#spolygon</styleUrl>
			</Pair>
		</StyleMap>
	<Placemark><Polygon><outerBoundaryIs><LinearRing><coordinates>120.814824,24.366637,0.0 120.813623,24.368765,0.0 120.812507,24.371092,0.0 120.811684,24.372294,0.0 120.809905,24.373309,0.0 120.809204,24.373326,0.0 120.808899,24.372867,0.0 120.808372,24.372163,0.0 120.808037,24.37203,0.0 120.807386,24.371725,0.0 120.806983,24.371281,0.0 120.806794,24.370694,0.0 120.806842,24.369874,0.0 120.807016,24.368968,0.0 120.807077,24.368228,0.0 120.807111,24.367339,0.0 120.806907,24.366751,0.0 120.806297,24.366146,0.0 120.805864,24.365745,0.0 120.805468,24.365435,0.0 120.804889,24.364657,0.0 120.804176,24.363927,0.0 120.803559,24.363366,0.0 120.802798,24.362745,0.0 120.802037,24.362205,0.0 120.801479,24.361755,0.0 120.800696,24.361109,0.0 120.799894,24.360694,0.0 120.799129,24.36005,0.0 120.798215,24.35938,0.0 120.797583,24.358997,0.0 120.797248,24.358146,0.0 120.79664,24.357477,0.0 120.796063,24.357192,0.0 120.795407,24.356512,0.0 120.794638,24.356385,0.0 120.794139,24.356,0.0 120.792966,24.355755,0.0 120.792269,24.355312,0.0 120.791633,24.354968,0.0 120.791086,24.354422,0.0 120.790149,24.354243,0.0 120.78933,24.354199,0.0 120.789086,24.353769,0.0 120.788577,24.353414,0.0 120.78773,24.353029,0.0 120.787357,24.353017,0.0 120.786912,24.353344,0.0 120.786499,24.353177,0.0 120.786507,24.352819,0.0 120.786269,24.352475,0.0 120.785721,24.352318,0.0 120.784879,24.351935,0.0 120.784041,24.352888,0.0 120.783759,24.353397,0.0 120.783301,24.353314,0.0 120.782447,24.352742,0.0 120.781766,24.352142,0.0 120.781244,24.351815,0.0 120.780771,24.351823,0.0 120.780369,24.351689,0.0 120.779959,24.351093,0.0 120.77938,24.35063,0.0 120.778945,24.350516,0.0 120.778402,24.350377,0.0 120.777761,24.350239,0.0 120.777783,24.349981,0.0 120.777943,24.349567,0.0 120.777725,24.348966,0.0 120.776918,24.348386,0.0 120.777102,24.347872,0.0 120.777161,24.347087,0.0 120.776653,24.346581,0.0 120.777035,24.346138,0.0 120.777309,24.345244,0.0 120.777297,24.344816,0.0 120.776747,24.344247,0.0 120.776265,24.343838,0.0 120.776166,24.343466,0.0 120.775963,24.342807,0.0 120.775478,24.342215,0.0 120.775686,24.341737,0.0 120.776051,24.341238,0.0 120.77605,24.340537,0.0 120.775951,24.339994,0.0 120.775912,24.339492,0.0 120.7763,24.339414,0.0 120.777118,24.339908,0.0 120.778064,24.340775,0.0 120.778607,24.341427,0.0 120.7791,24.342206,0.0 120.779615,24.343126,0.0 120.780037,24.34371,0.0 120.780768,24.344382,0.0 120.781529,24.344759,0.0 120.782179,24.344532,0.0 120.782853,24.343916,0.0 120.783356,24.343533,0.0 120.783849,24.343411,0.0 120.784235,24.343351,0.0 120.784562,24.34316,0.0 120.784614,24.342795,0.0 120.784253,24.342356,0.0 120.78385,24.342059,0.0 120.783822,24.341794,0.0 120.784259,24.341439,0.0 120.784824,24.34132,0.0 120.785438,24.34146,0.0 120.786252,24.342109,0.0 120.786775,24.342191,0.0 120.787342,24.342145,0.0 120.788131,24.341877,0.0 120.788973,24.341447,0.0 120.789772,24.341016,0.0 120.790313,24.340818,0.0 120.790751,24.34089,0.0 120.791188,24.341401,0.0 120.791234,24.342001,0.0 120.791571,24.342486,0.0 120.792115,24.342941,0.0 120.792692,24.343126,0.0 120.793204,24.342924,0.0 120.793727,24.342514,0.0 120.794254,24.341847,0.0 120.794495,24.341109,0.0 120.79432,24.34045,0.0 120.794275,24.339923,0.0 120.794588,24.339548,0.0 120.79517,24.339479,0.0 120.795985,24.339571,0.0 120.79661,24.340054,0.0 120.797106,24.340634,0.0 120.797729,24.341034,0.0 120.798299,24.341152,0.0 120.798809,24.341072,0.0 120.799409,24.340777,0.0 120.799854,24.340221,0.0 120.800098,24.339618,0.0 120.800594,24.339311,0.0 120.801106,24.339225,0.0 120.801504,24.339533,0.0 120.801525,24.340041,0.0 120.801353,24.340605,0.0 120.801392,24.341088,0.0 120.801854,24.341286,0.0 120.802585,24.341444,0.0 120.803227,24.341725,0.0 120.803953,24.34222,0.0 120.80478,24.342686,0.0 120.805389,24.342925,0.0 120.806041,24.342923,0.0 120.806766,24.342632,0.0 120.806958,24.342099,0.0 120.807194,24.341804,0.0 120.807953,24.342118,0.0 120.808356,24.342251,0.0 120.809131,24.342691,0.0 120.809774,24.343183,0.0 120.81023,24.343625,0.0 120.810315,24.344342,0.0 120.810092,24.344987,0.0 120.809637,24.345558,0.0 120.810336,24.345905,0.0 120.811282,24.34615,0.0 120.811572,24.346335,0.0 120.812172,24.347138,0.0 120.812646,24.347283,0.0 120.81359,24.347102,0.0 120.814398,24.346499,0.0 120.814705,24.345879,0.0 120.814588,24.345391,0.0 120.814141,24.344769,0.0 120.813143,24.344197,0.0 120.812189,24.343552,0.0 120.812086,24.343211,0.0 120.81206,24.342607,0.0 120.811914,24.341962,0.0 120.812204,24.341451,0.0 120.812965,24.34092,0.0 120.81352,24.340906,0.0 120.814549,24.341369,0.0 120.815073,24.34228,0.0 120.815284,24.34293,0.0 120.816482,24.34332,0.0 120.817492,24.343609,0.0 120.818818,24.34425,0.0 120.819842,24.344121,0.0 120.820519,24.343491,0.0 120.821074,24.342768,0.0 120.82144,24.342027,0.0 120.821982,24.341588,0.0 120.822803,24.341371,0.0 120.823781,24.341577,0.0 120.824814,24.342198,0.0 120.82571,24.342748,0.0 120.826806,24.342762,0.0 120.828168,24.342741,0.0 120.829551,24.342917,0.0 120.830519,24.343059,0.0 120.831831,24.343681,0.0 120.83264,24.344119,0.0 120.833164,24.344473,0.0 120.833656,24.344817,0.0 120.834005,24.345633,0.0 120.834418,24.34643,0.0 120.835051,24.3471,0.0 120.835573,24.347407,0.0 120.836543,24.347664,0.0 120.836992,24.347539,0.0 120.837355,24.346979,0.0 120.837577,24.346487,0.0 120.838158,24.346107,0.0 120.838809,24.345826,0.0 120.839573,24.34577,0.0 120.840295,24.346032,0.0 120.840591,24.346604,0.0 120.840283,24.347195,0.0 120.839604,24.347734,0.0 120.839533,24.348105,0.0 120.839985,24.348184,0.0 120.840492,24.347753,0.0 120.840731,24.347733,0.0 120.840793,24.348186,0.0 120.840676,24.349389,0.0 120.840336,24.349621,0.0 120.839874,24.350129,0.0 120.839892,24.351486,0.0 120.840193,24.352107,0.0 120.840236,24.352355,0.0 120.840666,24.352501,0.0 120.84099,24.352868,0.0 120.84086,24.353212,0.0 120.84115,24.353747,0.0 120.841222,24.354067,0.0 120.841807,24.354165,0.0 120.842626,24.354373,0.0 120.84338,24.354606,0.0 120.844135,24.354746,0.0 120.844803,24.354901,0.0 120.844744,24.355194,0.0 120.844557,24.355857,0.0 120.8448,24.356311,0.0 120.845083,24.35672,0.0 120.845276,24.357032,0.0 120.845597,24.357367,0.0 120.845903,24.357809,0.0 120.845395,24.357969,0.0 120.844104,24.358539,0.0 120.842475,24.360164,0.0 120.842535,24.360863,0.0 120.842637,24.361499,0.0 120.842782,24.361635,0.0 120.84301,24.361801,0.0 120.843021,24.362113,0.0 120.843148,24.362274,0.0 120.84341,24.362744,0.0 120.843111,24.362602,0.0 120.842405,24.362479,0.0 120.841338,24.36249,0.0 120.840781,24.362745,0.0 120.840344,24.363049,0.0 120.840015,24.363293,0.0 120.839805,24.363084,0.0 120.839276,24.362905,0.0 120.838252,24.362693,0.0 120.837904,24.362425,0.0 120.837417,24.361413,0.0 120.837133,24.36064,0.0 120.83581,24.36048,0.0 120.833172,24.358755,0.0 120.830972,24.358077,0.0 120.827718,24.357279,0.0 120.825792,24.357416,0.0 120.824989,24.358328,0.0 120.8242,24.359074,0.0 120.823327,24.359336,0.0 120.822822,24.360809,0.0 120.822204,24.361304,0.0 120.820522,24.361431,0.0 120.819466,24.361658,0.0 120.818515,24.36239,0.0 120.817636,24.363798,0.0 120.816143,24.365022,0.0 120.81498,24.366416,0.0 120.814824,24.366637,0.0</coordinates></LinearRing></outerBoundaryIs></Polygon><styleUrl>#spolygon-map</styleUrl></Placemark><Placemark><Polygon><outerBoundaryIs><LinearRing><coordinates>120.873129,24.380799,0.0 120.871378,24.381653,0.0 120.870181,24.380803,0.0 120.86994,24.381604,0.0 120.868478,24.381461,0.0 120.868027,24.380529,0.0 120.868045,24.380407,0.0 120.867976,24.380171,0.0 120.867581,24.379961,0.0 120.867261,24.379961,0.0 120.866972,24.380075,0.0 120.866851,24.38024,0.0 120.866654,24.380902,0.0 120.866101,24.380823,0.0 120.865697,24.380761,0.0 120.865342,24.380739,0.0 120.864964,24.38058,0.0 120.864712,24.380426,0.0 120.864057,24.379829,0.0 120.863828,24.379434,0.0 120.863846,24.379323,0.0 120.863928,24.379245,0.0 120.864123,24.379179,0.0 120.864411,24.379007,0.0 120.864587,24.378869,0.0 120.864683,24.378748,0.0 120.864756,24.378586,0.0 120.864779,24.378395,0.0 120.864809,24.378155,0.0 120.864866,24.378064,0.0 120.864937,24.378011,0.0 120.865181,24.377905,0.0 120.865332,24.377825,0.0 120.865443,24.377706,0.0 120.86553,24.377505,0.0 120.865579,24.377292,0.0 120.8655,24.377196,0.0 120.865315,24.377095,0.0 120.864982,24.377083,0.0 120.864399,24.377208,0.0 120.863628,24.377478,0.0 120.86343,24.377495,0.0 120.863199,24.377291,0.0 120.863078,24.377239,0.0 120.862652,24.377192,0.0 120.862407,24.377368,0.0 120.862351,24.377653,0.0 120.862194,24.377836,0.0 120.861896,24.377888,0.0 120.861605,24.377421,0.0 120.86114,24.377184,0.0 120.860779,24.377112,0.0 120.860816,24.376904,0.0 120.860812,24.376704,0.0 120.860797,24.376389,0.0 120.860329,24.375358,0.0 120.860155,24.375234,0.0 120.859957,24.37527,0.0 120.85976,24.375385,0.0 120.859658,24.375367,0.0 120.859597,24.375159,0.0 120.859586,24.375017,0.0 120.859563,24.374878,0.0 120.85948,24.374774,0.0 120.859287,24.374616,0.0 120.859044,24.374425,0.0 120.858859,24.374276,0.0 120.858378,24.373674,0.0 120.858141,24.373461,0.0 120.857983,24.373199,0.0 120.857954,24.372874,0.0 120.857769,24.372683,0.0 120.857646,24.372353,0.0 120.857372,24.371977,0.0 120.856509,24.371601,0.0 120.856332,24.371499,0.0 120.855933,24.37142,0.0 120.855707,24.371522,0.0 120.855394,24.371631,0.0 120.854873,24.371473,0.0 120.853958,24.371291,0.0 120.853026,24.370118,0.0 120.852064,24.369409,0.0 120.852024,24.369081,0.0 120.852011,24.368598,0.0 120.852032,24.368386,0.0 120.852001,24.368271,0.0 120.85172,24.368121,0.0 120.851301,24.367544,0.0 120.850814,24.36704,0.0 120.850645,24.366732,0.0 120.850643,24.366016,0.0 120.85064,24.364947,0.0 120.850511,24.364483,0.0 120.850353,24.364246,0.0 120.85,24.364179,0.0 120.84992,24.364067,0.0 120.849952,24.363509,0.0 120.850277,24.362874,0.0 120.850341,24.362689,0.0 120.850279,24.362599,0.0 120.8501,24.362575,0.0 120.849647,24.362761,0.0 120.849335,24.362821,0.0 120.849105,24.362741,0.0 120.848967,24.362548,0.0 120.849001,24.362073,0.0 120.849268,24.361633,0.0 120.849462,24.361257,0.0 120.84977,24.361037,0.0 120.85018,24.361109,0.0 120.850611,24.3611,0.0 120.851037,24.36097,0.0 120.851432,24.361033,0.0 120.851843,24.361479,0.0 120.852209,24.361735,0.0 120.852561,24.36169,0.0 120.852992,24.361551,0.0 120.853388,24.361305,0.0 120.853747,24.360649,0.0 120.85382,24.360039,0.0 120.854113,24.359664,0.0 120.85441,24.359305,0.0 120.85465,24.3591,0.0 120.855006,24.358806,0.0 120.855308,24.358712,0.0 120.855674,24.358624,0.0 120.855927,24.358777,0.0 120.856138,24.358884,0.0 120.856348,24.359012,0.0 120.856447,24.359426,0.0 120.856657,24.359507,0.0 120.856975,24.359271,0.0 120.856978,24.359049,0.0 120.857047,24.358552,0.0 120.857185,24.358019,0.0 120.857276,24.357667,0.0 120.857426,24.357173,0.0 120.857487,24.356807,0.0 120.857552,24.356447,0.0 120.857681,24.355981,0.0 120.858214,24.355563,0.0 120.858677,24.355537,0.0 120.859141,24.355505,0.0 120.859519,24.355253,0.0 120.859834,24.354919,0.0 120.860375,24.355258,0.0 120.86091,24.355432,0.0 120.861149,24.355787,0.0 120.861532,24.356197,0.0 120.86159,24.356864,0.0 120.861769,24.356964,0.0 120.862387,24.357433,0.0 120.862774,24.35774,0.0 120.863387,24.358047,0.0 120.86369,24.358099,0.0 120.864727,24.358683,0.0 120.865463,24.359092,0.0 120.866005,24.359335,0.0 120.866745,24.359577,0.0 120.867139,24.359636,0.0 120.867864,24.360072,0.0 120.868414,24.360304,0.0 120.868725,24.36032,0.0 120.869232,24.360438,0.0 120.869813,24.360564,0.0 120.870355,24.360677,0.0 120.871336,24.360786,0.0 120.871721,24.360826,0.0 120.872237,24.361037,0.0 120.872811,24.361456,0.0 120.873192,24.36184,0.0 120.873638,24.362328,0.0 120.873876,24.362892,0.0 120.873992,24.36313,0.0 120.87442,24.362598,0.0 120.874642,24.361983,0.0 120.874644,24.361534,0.0 120.87494,24.361024,0.0 120.87551,24.360613,0.0 120.876401,24.360445,0.0 120.877071,24.360317,0.0 120.877926,24.360279,0.0 120.878552,24.360254,0.0 120.879098,24.360345,0.0 120.879893,24.360669,0.0 120.880495,24.3612,0.0 120.881006,24.361583,0.0 120.882122,24.361993,0.0 120.88298,24.362446,0.0 120.883437,24.36261,0.0 120.884103,24.362839,0.0 120.884647,24.363364,0.0 120.884939,24.363775,0.0 120.885493,24.363836,0.0 120.885918,24.36379,0.0 120.886461,24.363786,0.0 120.886483,24.364164,0.0 120.884585,24.366292,0.0 120.882353,24.368428,0.0 120.880799,24.369032,0.0 120.879672,24.370716,0.0 120.879345,24.373226,0.0 120.878588,24.374102,0.0 120.877805,24.37494,0.0 120.877013,24.376104,0.0 120.875347,24.377793,0.0 120.873723,24.378942,0.0 120.873206,24.379929,0.0 120.873129,24.380799,0.0</coordinates></LinearRing></outerBoundaryIs></Polygon><styleUrl>#spolygon-map</styleUrl></Placemark><Placemark><Polygon><outerBoundaryIs><LinearRing><coordinates>120.914276,24.38797,0.0 120.915326,24.390265,0.0 120.916151,24.391557,0.0 120.915302,24.392206,0.0 120.913337,24.391537,0.0 120.911955,24.390664,0.0 120.90996,24.389831,0.0 120.907883,24.389324,0.0 120.905617,24.389343,0.0 120.902549,24.388134,0.0 120.898043,24.386677,0.0 120.895501,24.38575,0.0 120.894231,24.385387,0.0 120.892933,24.385413,0.0 120.890801,24.385885,0.0 120.888646,24.386535,0.0 120.886333,24.388111,0.0 120.884693,24.390012,0.0 120.882367,24.391512,0.0 120.880342,24.391537,0.0 120.88081,24.390571,0.0 120.880592,24.389129,0.0 120.880998,24.387556,0.0 120.880718,24.386723,0.0 120.880161,24.386591,0.0 120.878831,24.386567,0.0 120.876709,24.386373,0.0 120.875577,24.385643,0.0 120.875042,24.384529,0.0 120.874487,24.383636,0.0 120.873104,24.383299,0.0 120.873057,24.381885,0.0 120.873173,24.380225,0.0 120.873592,24.379037,0.0 120.874885,24.378182,0.0 120.87681,24.376309,0.0 120.877753,24.375096,0.0 120.878323,24.374222,0.0 120.879306,24.373401,0.0 120.879486,24.371354,0.0 120.880627,24.369208,0.0 120.882095,24.368519,0.0 120.884086,24.366842,0.0 120.885987,24.36489,0.0 120.886948,24.363707,0.0 120.887803,24.36335,0.0 120.888821,24.363006,0.0 120.889296,24.363021,0.0 120.8903,24.363385,0.0 120.890863,24.363556,0.0 120.891597,24.363558,0.0 120.892533,24.363389,0.0 120.893711,24.363011,0.0 120.894309,24.362931,0.0 120.894616,24.362976,0.0 120.895144,24.362829,0.0 120.895679,24.362902,0.0 120.896605,24.362846,0.0 120.89743,24.362796,0.0 120.898284,24.362776,0.0 120.898848,24.362592,0.0 120.899292,24.361998,0.0 120.899646,24.361961,0.0 120.900798,24.362511,0.0 120.901642,24.362962,0.0 120.902279,24.363559,0.0 120.903134,24.364256,0.0 120.904058,24.364916,0.0 120.90457,24.36504,0.0 120.905304,24.364866,0.0 120.906278,24.36435,0.0 120.906926,24.364215,0.0 120.907805,24.364231,0.0 120.908939,24.364334,0.0 120.910669,24.364714,0.0 120.912375,24.364884,0.0 120.913548,24.366966,0.0 120.913782,24.368544,0.0 120.913658,24.371351,0.0 120.9137,24.374289,0.0 120.914801,24.375922,0.0 120.914175,24.378942,0.0 120.914038,24.379782,0.0 120.914175,24.382232,0.0 120.914757,24.384597,0.0 120.914758,24.387216,0.0 120.914276,24.38797,0.0</coordinates></LinearRing></outerBoundaryIs></Polygon><styleUrl>#spolygon-map</styleUrl></Placemark><Placemark><Polygon><outerBoundaryIs><LinearRing><coordinates>120.83707,24.401274,0.0 120.836542,24.401101,0.0 120.835387,24.400476,0.0 120.834444,24.399361,0.0 120.833805,24.398848,0.0 120.833269,24.398239,0.0 120.832822,24.398117,0.0 120.832219,24.397488,0.0 120.831494,24.396498,0.0 120.830964,24.395985,0.0 120.830317,24.395915,0.0 120.829627,24.395708,0.0 120.829055,24.395483,0.0 120.828719,24.395322,0.0 120.827787,24.395535,0.0 120.827019,24.395553,0.0 120.826266,24.395279,0.0 120.825766,24.395208,0.0 120.825265,24.394939,0.0 120.825025,24.394143,0.0 120.824798,24.392947,0.0 120.825016,24.392323,0.0 120.82502,24.391147,0.0 120.824744,24.390421,0.0 120.824004,24.389568,0.0 120.823399,24.389224,0.0 120.822684,24.389124,0.0 120.822533,24.388526,0.0 120.822661,24.387622,0.0 120.822929,24.3871,0.0 120.822642,24.385958,0.0 120.822273,24.385034,0.0 120.822098,24.384505,0.0 120.822129,24.383501,0.0 120.822135,24.382692,0.0 120.821525,24.381373,0.0 120.820836,24.380421,0.0 120.820228,24.380081,0.0 120.820265,24.379444,0.0 120.819769,24.378957,0.0 120.819773,24.378439,0.0 120.819408,24.37784,0.0 120.819087,24.377279,0.0 120.818947,24.376464,0.0 120.818465,24.375857,0.0 120.817538,24.375457,0.0 120.816537,24.375308,0.0 120.815797,24.375115,0.0 120.814759,24.3748,0.0 120.813905,24.374763,0.0 120.813185,24.374875,0.0 120.812453,24.375187,0.0 120.811659,24.375218,0.0 120.811028,24.375243,0.0 120.810636,24.374712,0.0 120.810246,24.373627,0.0 120.811248,24.372581,0.0 120.812408,24.371388,0.0 120.813388,24.369181,0.0 120.814795,24.366678,0.0 120.815847,24.365296,0.0 120.817345,24.364102,0.0 120.818398,24.362634,0.0 120.81897,24.361961,0.0 120.820112,24.361464,0.0 120.821545,24.361406,0.0 120.822531,24.361163,0.0 120.823048,24.360041,0.0 120.823614,24.359074,0.0 120.824772,24.358719,0.0 120.825501,24.357608,0.0 120.826978,24.357133,0.0 120.829671,24.357771,0.0 120.832652,24.358519,0.0 120.834914,24.359882,0.0 120.836681,24.360661,0.0 120.837261,24.360996,0.0 120.8378,24.362273,0.0 120.838136,24.362633,0.0 120.838681,24.3628,0.0 120.839697,24.363023,0.0 120.839939,24.363197,0.0 120.840252,24.363125,0.0 120.840488,24.362881,0.0 120.841211,24.362517,0.0 120.842157,24.36246,0.0 120.843058,24.362584,0.0 120.843221,24.362683,0.0 120.843237,24.362354,0.0 120.843042,24.362163,0.0 120.84302,24.361844,0.0 120.842918,24.361712,0.0 120.842659,24.361531,0.0 120.842594,24.361402,0.0 120.842333,24.360235,0.0 120.843804,24.35892,0.0 120.844795,24.358033,0.0 120.846171,24.358128,0.0 120.846511,24.358221,0.0 120.846995,24.358296,0.0 120.847108,24.358635,0.0 120.847198,24.359188,0.0 120.847105,24.359873,0.0 120.847245,24.360091,0.0 120.84724,24.360558,0.0 120.847817,24.360644,0.0 120.848398,24.36068,0.0 120.848786,24.360754,0.0 120.849265,24.360936,0.0 120.849602,24.360994,0.0 120.849427,24.361323,0.0 120.849166,24.361789,0.0 120.848941,24.362206,0.0 120.849017,24.362658,0.0 120.849191,24.362778,0.0 120.84941,24.362823,0.0 120.849748,24.362717,0.0 120.85017,24.362573,0.0 120.850317,24.36263,0.0 120.850344,24.362724,0.0 120.850194,24.363031,0.0 120.849943,24.363585,0.0 120.849942,24.364127,0.0 120.850097,24.36421,0.0 120.850382,24.364263,0.0 120.850557,24.364607,0.0 120.850682,24.365243,0.0 120.850634,24.366381,0.0 120.850658,24.366774,0.0 120.850919,24.36723,0.0 120.85163,24.367929,0.0 120.851745,24.368143,0.0 120.852019,24.368298,0.0 120.852021,24.368501,0.0 120.85203,24.368831,0.0 120.851993,24.369173,0.0 120.85228,24.369542,0.0 120.85338,24.370511,0.0 120.854077,24.371344,0.0 120.855254,24.371629,0.0 120.855491,24.371607,0.0 120.855854,24.371437,0.0 120.855999,24.371441,0.0 120.856388,24.371517,0.0 120.856554,24.371629,0.0 120.857408,24.372014,0.0 120.85771,24.372586,0.0 120.857807,24.372716,0.0 120.857973,24.37293,0.0 120.858002,24.373264,0.0 120.858186,24.373507,0.0 120.858716,24.374105,0.0 120.858912,24.374322,0.0 120.859153,24.374515,0.0 120.85938,24.374705,0.0 120.859496,24.374789,0.0 120.859579,24.374919,0.0 120.859585,24.375062,0.0 120.85962,24.375265,0.0 120.859687,24.375384,0.0 120.859798,24.375366,0.0 120.859983,24.375277,0.0 120.859794,24.37547,0.0 120.859324,24.37589,0.0 120.858869,24.376177,0.0 120.858709,24.376393,0.0 120.85857,24.376461,0.0 120.858263,24.376464,0.0 120.85797,24.376566,0.0 120.857629,24.376699,0.0 120.857267,24.376775,0.0 120.856986,24.376789,0.0 120.856718,24.376874,0.0 120.856588,24.376991,0.0 120.856251,24.376961,0.0 120.855961,24.377126,0.0 120.855702,24.377374,0.0 120.855504,24.377627,0.0 120.855232,24.377682,0.0 120.854911,24.377775,0.0 120.854639,24.377967,0.0 120.85445,24.377901,0.0 120.854105,24.377869,0.0 120.853915,24.377812,0.0 120.85349,24.377902,0.0 120.853285,24.377969,0.0 120.853111,24.378,0.0 120.852937,24.377974,0.0 120.852863,24.378152,0.0 120.852741,24.378184,0.0 120.852516,24.378096,0.0 120.852246,24.378207,0.0 120.852235,24.378448,0.0 120.852099,24.378595,0.0 120.852026,24.37874,0.0 120.851881,24.378851,0.0 120.851455,24.378708,0.0 120.851287,24.378713,0.0 120.850628,24.378931,0.0 120.85052,24.379295,0.0 120.850533,24.379589,0.0 120.850251,24.37962,0.0 120.849754,24.379545,0.0 120.849575,24.379607,0.0 120.849486,24.379823,0.0 120.849213,24.379914,0.0 120.848904,24.380106,0.0 120.84884,24.380237,0.0 120.848385,24.380659,0.0 120.848104,24.381221,0.0 120.848128,24.38158,0.0 120.848159,24.381865,0.0 120.847779,24.382059,0.0 120.847474,24.382105,0.0 120.84723,24.38206,0.0 120.84692,24.382253,0.0 120.845386,24.382749,0.0 120.844152,24.384088,0.0 120.843597,24.384653,0.0 120.843045,24.384939,0.0 120.842434,24.385417,0.0 120.841334,24.385756,0.0 120.841178,24.386368,0.0 120.841194,24.388262,0.0 120.841512,24.3908,0.0 120.841237,24.392107,0.0 120.840334,24.393314,0.0 120.839343,24.395185,0.0 120.838999,24.396421,0.0 120.838262,24.39787,0.0 120.837755,24.399269,0.0 120.837181,24.400702,0.0 120.83707,24.401274,0.0</coordinates></LinearRing></outerBoundaryIs></Polygon><styleUrl>#spolygon-map</styleUrl></Placemark><Placemark><Polygon><outerBoundaryIs><LinearRing><coordinates>120.837125,24.401309,0.0 120.837142,24.400885,0.0 120.837618,24.399571,0.0 120.838146,24.39816,0.0 120.838932,24.396548,0.0 120.839319,24.395385,0.0 120.839949,24.393855,0.0 120.841163,24.392259,0.0 120.841497,24.391155,0.0 120.841205,24.388461,0.0 120.841185,24.38638,0.0 120.841248,24.385835,0.0 120.842335,24.385483,0.0 120.842988,24.384974,0.0 120.843422,24.38478,0.0 120.843988,24.384268,0.0 120.845018,24.383236,0.0 120.84689,24.382252,0.0 120.847184,24.382091,0.0 120.847384,24.382069,0.0 120.847693,24.38209,0.0 120.848119,24.381899,0.0 120.848203,24.381732,0.0 120.848088,24.38136,0.0 120.84833,24.380741,0.0 120.848844,24.380261,0.0 120.848876,24.380135,0.0 120.849175,24.379925,0.0 120.849471,24.379835,0.0 120.849569,24.379623,0.0 120.849728,24.379549,0.0 120.850094,24.379606,0.0 120.850507,24.379597,0.0 120.850565,24.379535,0.0 120.850609,24.378932,0.0 120.851024,24.378819,0.0 120.851433,24.3787,0.0 120.851869,24.378853,0.0 120.851992,24.37878,0.0 120.852087,24.378607,0.0 120.852226,24.37848,0.0 120.85224,24.37822,0.0 120.852319,24.378159,0.0 120.852708,24.378172,0.0 120.852844,24.378168,0.0 120.852929,24.377981,0.0 120.853082,24.377997,0.0 120.853271,24.377977,0.0 120.85342,24.377904,0.0 120.853823,24.377823,0.0 120.854074,24.377863,0.0 120.854435,24.377892,0.0 120.854617,24.377976,0.0 120.854895,24.377781,0.0 120.855212,24.377684,0.0 120.855475,24.377653,0.0 120.855671,24.377392,0.0 120.8559,24.377208,0.0 120.85623,24.376961,0.0 120.856551,24.376997,0.0 120.856701,24.376905,0.0 120.856903,24.376785,0.0 120.857225,24.37679,0.0 120.857552,24.3767,0.0 120.857923,24.376603,0.0 120.85819,24.376479,0.0 120.858525,24.376461,0.0 120.858693,24.376415,0.0 120.858826,24.376218,0.0 120.859254,24.37594,0.0 120.859577,24.375688,0.0 120.859987,24.375284,0.0 120.860193,24.375237,0.0 120.860455,24.37559,0.0 120.860798,24.376413,0.0 120.860817,24.376722,0.0 120.860812,24.376921,0.0 120.860789,24.377124,0.0 120.86119,24.377196,0.0 120.861643,24.377451,0.0 120.861953,24.377988,0.0 120.862216,24.377819,0.0 120.862358,24.377571,0.0 120.862475,24.3773,0.0 120.862689,24.377192,0.0 120.863119,24.377251,0.0 120.863232,24.37732,0.0 120.863453,24.3775,0.0 120.863705,24.377446,0.0 120.864584,24.37715,0.0 120.865026,24.377081,0.0 120.865345,24.377105,0.0 120.865522,24.377214,0.0 120.865582,24.377308,0.0 120.8655,24.377591,0.0 120.865428,24.377725,0.0 120.865316,24.377837,0.0 120.865103,24.377938,0.0 120.864921,24.378021,0.0 120.864852,24.378079,0.0 120.864802,24.378176,0.0 120.864777,24.378468,0.0 120.864747,24.37861,0.0 120.86467,24.37877,0.0 120.864566,24.378888,0.0 120.864255,24.37912,0.0 120.864079,24.379193,0.0 120.863909,24.379256,0.0 120.863836,24.379341,0.0 120.863834,24.379453,0.0 120.864095,24.37987,0.0 120.864744,24.380454,0.0 120.86507,24.380633,0.0 120.865363,24.380743,0.0 120.86574,24.380766,0.0 120.866262,24.380841,0.0 120.866726,24.380934,0.0 120.866867,24.380201,0.0 120.867041,24.380034,0.0 120.867329,24.379952,0.0 120.867618,24.37997,0.0 120.867973,24.380202,0.0 120.868048,24.380425,0.0 120.868017,24.380539,0.0 120.868689,24.381591,0.0 120.869972,24.381537,0.0 120.870394,24.380833,0.0 120.871568,24.381665,0.0 120.873103,24.381142,0.0 120.872941,24.383024,0.0 120.874063,24.383465,0.0 120.874863,24.384119,0.0 120.875316,24.38535,0.0 120.876038,24.386025,0.0 120.877964,24.386508,0.0 120.879517,24.386585,0.0 120.880441,24.386621,0.0 120.880979,24.387032,0.0 120.880716,24.388534,0.0 120.880773,24.389896,0.0 120.88047,24.391132,0.0 120.880457,24.391873,0.0 120.881559,24.393394,0.0 120.881368,24.394613,0.0 120.879977,24.39637,0.0 120.879295,24.396857,0.0 120.87783,24.397675,0.0 120.876304,24.398248,0.0 120.873541,24.398417,0.0 120.870604,24.398796,0.0 120.868929,24.399473,0.0 120.868788,24.399126,0.0 120.866672,24.399282,0.0 120.864346,24.399944,0.0 120.861221,24.400286,0.0 120.859502,24.400045,0.0 120.857732,24.398585,0.0 120.856617,24.398867,0.0 120.853588,24.399537,0.0 120.850856,24.399366,0.0 120.848435,24.400039,0.0 120.846768,24.400047,0.0 120.844143,24.399747,0.0 120.843579,24.399713,0.0 120.840807,24.399461,0.0 120.839036,24.399829,0.0 120.837632,24.400757,0.0 120.837125,24.401309,0.0</coordinates></LinearRing></outerBoundaryIs></Polygon><styleUrl>#spolygon-map</styleUrl></Placemark><Placemark><Polygon><outerBoundaryIs><LinearRing><coordinates>120.843257,24.421028,0.0 120.843337,24.421185,0.0 120.843192,24.421141,0.0 120.842622,24.420989,0.0 120.842341,24.421067,0.0 120.841815,24.420657,0.0 120.841247,24.419759,0.0 120.840734,24.418909,0.0 120.840388,24.41826,0.0 120.840124,24.417344,0.0 120.840012,24.416856,0.0 120.839517,24.416473,0.0 120.838975,24.41635,0.0 120.838377,24.416032,0.0 120.837871,24.415858,0.0 120.837234,24.415867,0.0 120.836902,24.415396,0.0 120.836624,24.414952,0.0 120.836376,24.414597,0.0 120.836144,24.413644,0.0 120.836122,24.412891,0.0 120.836303,24.412034,0.0 120.836568,24.411656,0.0 120.837886,24.411365,0.0 120.838666,24.410727,0.0 120.839242,24.410049,0.0 120.839656,24.409416,0.0 120.840148,24.408708,0.0 120.840451,24.407878,0.0 120.84054,24.406866,0.0 120.840689,24.406347,0.0 120.840491,24.406017,0.0 120.840201,24.405709,0.0 120.839972,24.405181,0.0 120.839681,24.404665,0.0 120.838879,24.404153,0.0 120.838427,24.404002,0.0 120.837626,24.40328,0.0 120.837215,24.403062,0.0 120.837328,24.402402,0.0 120.837644,24.401935,0.0 120.837535,24.401648,0.0 120.837082,24.401355,0.0 120.838125,24.400331,0.0 120.839615,24.399631,0.0 120.84239,24.399587,0.0 120.843872,24.39973,0.0 120.845308,24.399887,0.0 120.847682,24.400197,0.0 120.850019,24.399446,0.0 120.852235,24.399362,0.0 120.85493,24.399279,0.0 120.85739,24.398556,0.0 120.858524,24.399397,0.0 120.860441,24.400324,0.0 120.863259,24.40002,0.0 120.865943,24.400204,0.0 120.868657,24.398732,0.0 120.868846,24.399619,0.0 120.868894,24.401193,0.0 120.868921,24.40209,0.0 120.867238,24.402499,0.0 120.865946,24.403304,0.0 120.863922,24.404204,0.0 120.86297,24.404797,0.0 120.861024,24.406908,0.0 120.859133,24.408391,0.0 120.857742,24.409795,0.0 120.856199,24.410592,0.0 120.85448,24.41114,0.0 120.852987,24.411714,0.0 120.852234,24.411615,0.0 120.851461,24.41179,0.0 120.852055,24.414701,0.0 120.852022,24.414834,0.0 120.85194,24.414912,0.0 120.851944,24.415103,0.0 120.851822,24.415263,0.0 120.850476,24.417085,0.0 120.850347,24.417334,0.0 120.850195,24.417541,0.0 120.849962,24.417723,0.0 120.84976,24.41772,0.0 120.849443,24.417542,0.0 120.849222,24.417536,0.0 120.846297,24.418867,0.0 120.845971,24.418797,0.0 120.845671,24.418719,0.0 120.845324,24.418744,0.0 120.845017,24.418962,0.0 120.844634,24.419114,0.0 120.844548,24.419282,0.0 120.844352,24.419785,0.0 120.84425,24.42009,0.0 120.84404,24.420154,0.0 120.843667,24.420049,0.0 120.843484,24.420093,0.0 120.843337,24.420353,0.0 120.843232,24.420569,0.0 120.843171,24.420769,0.0 120.843257,24.421028,0.0</coordinates></LinearRing></outerBoundaryIs></Polygon><styleUrl>#spolygon-map</styleUrl></Placemark><Placemark><Polygon><outerBoundaryIs><LinearRing><coordinates>120.86687,24.425246,0.0 120.867315,24.424147,0.0 120.86645,24.422227,0.0 120.866093,24.421545,0.0 120.866484,24.420243,0.0 120.868169,24.419526,0.0 120.870575,24.420111,0.0 120.871539,24.421051,0.0 120.872669,24.423282,0.0 120.871165,24.423965,0.0 120.869846,24.424356,0.0 120.86687,24.425246,0.0</coordinates></LinearRing></outerBoundaryIs></Polygon><styleUrl>#spolygon-map</styleUrl></Placemark><Placemark><Polygon><outerBoundaryIs><LinearRing><coordinates>120.860044,24.425287,0.0 120.857184,24.425162,0.0 120.855969,24.423664,0.0 120.854694,24.423273,0.0 120.852164,24.424742,0.0 120.849117,24.425878,0.0 120.848138,24.425578,0.0 120.84651,24.423722,0.0 120.845338,24.423288,0.0 120.842856,24.422917,0.0 120.842884,24.422496,0.0 120.842588,24.421478,0.0 120.84246,24.421003,0.0 120.842983,24.421058,0.0 120.843255,24.421196,0.0 120.843343,24.421149,0.0 120.843224,24.420941,0.0 120.84318,24.420662,0.0 120.84326,24.420482,0.0 120.843391,24.420222,0.0 120.843548,24.420046,0.0 120.843881,24.420136,0.0 120.844164,24.420143,0.0 120.844334,24.419925,0.0 120.844485,24.419425,0.0 120.844526,24.419225,0.0 120.844801,24.419046,0.0 120.845161,24.418835,0.0 120.845495,24.418681,0.0 120.845832,24.418778,0.0 120.846112,24.418801,0.0 120.846534,24.418841,0.0 120.84931,24.417519,0.0 120.84962,24.417674,0.0 120.84988,24.417736,0.0 120.850081,24.417653,0.0 120.850254,24.417486,0.0 120.850459,24.41716,0.0 120.851802,24.415306,0.0 120.851921,24.415145,0.0 120.851928,24.414965,0.0 120.851961,24.414879,0.0 120.852061,24.414775,0.0 120.851582,24.41188,0.0 120.851809,24.41167,0.0 120.852665,24.411691,0.0 120.854146,24.411367,0.0 120.855218,24.410735,0.0 120.856844,24.410472,0.0 120.858558,24.409023,0.0 120.860495,24.40731,0.0 120.862022,24.405974,0.0 120.863281,24.404483,0.0 120.864915,24.403898,0.0 120.866915,24.402664,0.0 120.86797,24.402301,0.0 120.869103,24.401731,0.0 120.868749,24.400605,0.0 120.869148,24.399224,0.0 120.871771,24.398639,0.0 120.874492,24.398309,0.0 120.876923,24.398177,0.0 120.878294,24.397197,0.0 120.879484,24.396737,0.0 120.880702,24.395564,0.0 120.881579,24.394114,0.0 120.881312,24.392863,0.0 120.881739,24.391655,0.0 120.884271,24.390403,0.0 120.886145,24.388319,0.0 120.888065,24.386875,0.0 120.889921,24.386096,0.0 120.892565,24.385471,0.0 120.893758,24.385349,0.0 120.895276,24.385671,0.0 120.897428,24.386486,0.0 120.901875,24.387892,0.0 120.904913,24.38936,0.0 120.90483,24.392217,0.0 120.904096,24.39376,0.0 120.903005,24.395331,0.0 120.902356,24.396305,0.0 120.899978,24.399225,0.0 120.897777,24.401614,0.0 120.89614,24.402801,0.0 120.893944,24.404535,0.0 120.892221,24.405648,0.0 120.891817,24.40698,0.0 120.891294,24.408926,0.0 120.891182,24.41004,0.0 120.891203,24.410137,0.0 120.891062,24.41051,0.0 120.89086,24.41065,0.0 120.890617,24.410705,0.0 120.890744,24.411839,0.0 120.891682,24.413086,0.0 120.891722,24.414786,0.0 120.890855,24.416948,0.0 120.889187,24.417843,0.0 120.887047,24.41671,0.0 120.884906,24.415021,0.0 120.883597,24.41478,0.0 120.881916,24.415262,0.0 120.879917,24.414268,0.0 120.878652,24.413496,0.0 120.877358,24.413121,0.0 120.876241,24.413863,0.0 120.875325,24.414759,0.0 120.874844,24.416488,0.0 120.873754,24.417792,0.0 120.872752,24.418326,0.0 120.871543,24.419475,0.0 120.871463,24.420242,0.0 120.871176,24.420576,0.0 120.869224,24.419586,0.0 120.867217,24.419824,0.0 120.865437,24.420673,0.0 120.86388,24.420937,0.0 120.862457,24.421632,0.0 120.861094,24.42388,0.0 120.860324,24.425283,0.0 120.860044,24.425287,0.0</coordinates></LinearRing></outerBoundaryIs></Polygon><styleUrl>#spolygon-map</styleUrl></Placemark><Placemark><Polygon><outerBoundaryIs><LinearRing><coordinates>120.862702,24.427816,0.0 120.8615,24.427427,0.0 120.860925,24.425661,0.0 120.861094,24.42388,0.0 120.862457,24.421632,0.0 120.86388,24.420937,0.0 120.865437,24.420673,0.0 120.866281,24.42186,0.0 120.866954,24.423347,0.0 120.866406,24.424465,0.0 120.866412,24.425519,0.0 120.865083,24.426132,0.0 120.863586,24.427205,0.0 120.862702,24.427816,0.0</coordinates></LinearRing></outerBoundaryIs></Polygon><styleUrl>#spolygon-map</styleUrl></Placemark><Placemark><Polygon><outerBoundaryIs><LinearRing><coordinates>120.912059,24.43338,0.0 120.910404,24.432551,0.0 120.908366,24.431119,0.0 120.906718,24.42913,0.0 120.905766,24.427796,0.0 120.903872,24.427122,0.0 120.901271,24.426524,0.0 120.898422,24.426543,0.0 120.89643,24.426707,0.0 120.894695,24.426258,0.0 120.89381,24.425497,0.0 120.892209,24.423763,0.0 120.890911,24.423263,0.0 120.890322,24.42322,0.0 120.888844,24.423073,0.0 120.888139,24.42127,0.0 120.888565,24.42037,0.0 120.889743,24.41999,0.0 120.890447,24.418234,0.0 120.891162,24.415979,0.0 120.89187,24.414266,0.0 120.891391,24.41253,0.0 120.890454,24.411437,0.0 120.890689,24.410691,0.0 120.890947,24.410607,0.0 120.891103,24.410449,0.0 120.891234,24.410003,0.0 120.891264,24.409864,0.0 120.891334,24.408313,0.0 120.891916,24.406537,0.0 120.892563,24.405328,0.0 120.894269,24.404347,0.0 120.896572,24.402506,0.0 120.898498,24.400883,0.0 120.900904,24.398223,0.0 120.90256,24.39601,0.0 120.903532,24.394557,0.0 120.904429,24.393232,0.0 120.904819,24.390472,0.0 120.905173,24.389191,0.0 120.907501,24.389337,0.0 120.909756,24.389742,0.0 120.911578,24.3905,0.0 120.91307,24.391359,0.0 120.914833,24.392129,0.0 120.917441,24.393373,0.0 120.918979,24.39514,0.0 120.919609,24.398232,0.0 120.919346,24.39965,0.0 120.918223,24.402339,0.0 120.917827,24.403041,0.0 120.917516,24.403185,0.0 120.917426,24.403247,0.0 120.917478,24.40344,0.0 120.917436,24.403484,0.0 120.917275,24.403463,0.0 120.917358,24.403593,0.0 120.916995,24.403531,0.0 120.916711,24.403206,0.0 120.915949,24.402874,0.0 120.915545,24.402561,0.0 120.914843,24.402515,0.0 120.914371,24.402633,0.0 120.914045,24.402778,0.0 120.913804,24.40315,0.0 120.913636,24.40333,0.0 120.913595,24.403551,0.0 120.913452,24.403774,0.0 120.91301,24.403932,0.0 120.912348,24.403936,0.0 120.912062,24.403976,0.0 120.911636,24.404125,0.0 120.911173,24.404397,0.0 120.910859,24.404836,0.0 120.910568,24.405225,0.0 120.910624,24.405766,0.0 120.910757,24.406143,0.0 120.911026,24.406487,0.0 120.91113,24.407037,0.0 120.911302,24.407666,0.0 120.91109,24.407938,0.0 120.910651,24.407978,0.0 120.910294,24.408072,0.0 120.910514,24.408493,0.0 120.910989,24.408621,0.0 120.911819,24.410066,0.0 120.911926,24.412082,0.0 120.91158,24.412344,0.0 120.910982,24.41211,0.0 120.911095,24.411897,0.0 120.911205,24.411823,0.0 120.911209,24.411791,0.0 120.911025,24.41176,0.0 120.910742,24.411753,0.0 120.910535,24.411922,0.0 120.910209,24.412062,0.0 120.909932,24.412263,0.0 120.909924,24.412381,0.0 120.91003,24.412711,0.0 120.910287,24.412995,0.0 120.910461,24.412951,0.0 120.91058,24.41309,0.0 120.910568,24.413259,0.0 120.910621,24.413525,0.0 120.910778,24.413713,0.0 120.910723,24.413815,0.0 120.910722,24.414043,0.0 120.910869,24.414317,0.0 120.910171,24.41475,0.0 120.908613,24.415164,0.0 120.908077,24.415663,0.0 120.907563,24.416135,0.0 120.90718,24.416406,0.0 120.907058,24.416956,0.0 120.907111,24.417435,0.0 120.907537,24.417983,0.0 120.908012,24.418446,0.0 120.907928,24.419176,0.0 120.907588,24.41971,0.0 120.90742,24.420499,0.0 120.907758,24.421102,0.0 120.908055,24.421663,0.0 120.908142,24.422143,0.0 120.907885,24.422871,0.0 120.907854,24.422993,0.0 120.907334,24.423112,0.0 120.907142,24.42333,0.0 120.907511,24.423613,0.0 120.908133,24.423858,0.0 120.909767,24.424846,0.0 120.910817,24.426407,0.0 120.911475,24.427795,0.0 120.911744,24.428967,0.0 120.911671,24.429584,0.0 120.911673,24.431141,0.0 120.911785,24.432575,0.0 120.912059,24.43338,0.0</coordinates></LinearRing></outerBoundaryIs></Polygon><styleUrl>#spolygon-map</styleUrl></Placemark><Placemark><Polygon><outerBoundaryIs><LinearRing><coordinates>120.896643,24.436441,0.0 120.895432,24.43718,0.0 120.894398,24.437086,0.0 120.891669,24.43711,0.0 120.889691,24.436656,0.0 120.887861,24.435515,0.0 120.885811,24.434798,0.0 120.883541,24.434438,0.0 120.882791,24.434117,0.0 120.881938,24.432421,0.0 120.880976,24.431737,0.0 120.879721,24.431806,0.0 120.878451,24.43161,0.0 120.877429,24.431913,0.0 120.875808,24.431403,0.0 120.873903,24.429496,0.0 120.872007,24.428169,0.0 120.870191,24.427497,0.0 120.868003,24.427973,0.0 120.86628,24.428319,0.0 120.86487,24.427887,0.0 120.863084,24.428461,0.0 120.862136,24.428208,0.0 120.863586,24.427205,0.0 120.865083,24.426132,0.0 120.866412,24.425519,0.0 120.867701,24.425002,0.0 120.87012,24.424276,0.0 120.872386,24.423647,0.0 120.872494,24.422636,0.0 120.871385,24.420848,0.0 120.871272,24.419798,0.0 120.871871,24.419061,0.0 120.873099,24.418147,0.0 120.874393,24.41724,0.0 120.874878,24.415909,0.0 120.87561,24.414482,0.0 120.876728,24.413321,0.0 120.877911,24.413065,0.0 120.878913,24.413736,0.0 120.880471,24.414503,0.0 120.882375,24.415271,0.0 120.883799,24.414742,0.0 120.885295,24.415254,0.0 120.887869,24.417269,0.0 120.890447,24.418234,0.0 120.889743,24.41999,0.0 120.888565,24.42037,0.0 120.888139,24.42127,0.0 120.888844,24.423073,0.0 120.890322,24.42322,0.0 120.890911,24.423263,0.0 120.892209,24.423763,0.0 120.89381,24.425497,0.0 120.894695,24.426258,0.0 120.89643,24.426707,0.0 120.898422,24.426543,0.0 120.901271,24.426524,0.0 120.903872,24.427122,0.0 120.905766,24.427796,0.0 120.906718,24.42913,0.0 120.908366,24.431119,0.0 120.910404,24.432551,0.0 120.912049,24.433575,0.0 120.912301,24.434802,0.0 120.910626,24.43461,0.0 120.908316,24.434727,0.0 120.904535,24.436252,0.0 120.902185,24.436857,0.0 120.899656,24.436452,0.0 120.898383,24.435992,0.0 120.897192,24.436114,0.0 120.89686,24.436375,0.0 120.896682,24.436511,0.0 120.896643,24.436441,0.0</coordinates></LinearRing></outerBoundaryIs></Polygon><styleUrl>#spolygon-map</styleUrl></Placemark><Placemark><Polygon><outerBoundaryIs><LinearRing><coordinates>120.875319,24.456372,0.0 120.874438,24.457065,0.0 120.873814,24.456669,0.0 120.873633,24.455869,0.0 120.87385,24.454804,0.0 120.873838,24.454152,0.0 120.873404,24.454384,0.0 120.872303,24.454943,0.0 120.87136,24.455352,0.0 120.870965,24.456262,0.0 120.8692,24.455881,0.0 120.867893,24.455929,0.0 120.866906,24.455755,0.0 120.86659,24.454546,0.0 120.866411,24.453619,0.0 120.865309,24.453165,0.0 120.864503,24.453125,0.0 120.863967,24.452718,0.0 120.863481,24.451594,0.0 120.8634,24.450841,0.0 120.863256,24.450017,0.0 120.862691,24.449142,0.0 120.862376,24.448186,0.0 120.862007,24.44782,0.0 120.861243,24.447752,0.0 120.860659,24.447381,0.0 120.860264,24.446963,0.0 120.860179,24.4465,0.0 120.860293,24.446177,0.0 120.860249,24.44593,0.0 120.859859,24.445811,0.0 120.859502,24.445568,0.0 120.858757,24.445242,0.0 120.858033,24.445002,0.0 120.8581,24.444072,0.0 120.857461,24.443175,0.0 120.856233,24.442577,0.0 120.855735,24.441846,0.0 120.855458,24.4407,0.0 120.854613,24.440314,0.0 120.853734,24.439198,0.0 120.852631,24.439241,0.0 120.851513,24.438707,0.0 120.850445,24.438625,0.0 120.849361,24.438085,0.0 120.847335,24.437521,0.0 120.84621,24.437194,0.0 120.845574,24.436189,0.0 120.844575,24.434574,0.0 120.84303,24.432408,0.0 120.842215,24.430838,0.0 120.841319,24.429544,0.0 120.839265,24.429368,0.0 120.838849,24.428549,0.0 120.839311,24.427603,0.0 120.839363,24.426558,0.0 120.84032,24.425751,0.0 120.843082,24.425573,0.0 120.842622,24.424767,0.0 120.842028,24.423807,0.0 120.842841,24.422936,0.0 120.845615,24.423351,0.0 120.846772,24.42391,0.0 120.848271,24.425751,0.0 120.84944,24.425807,0.0 120.852656,24.424486,0.0 120.854942,24.42319,0.0 120.856217,24.423975,0.0 120.857349,24.425217,0.0 120.860195,24.425285,0.0 120.86112,24.426682,0.0 120.86212,24.428194,0.0 120.8629,24.428539,0.0 120.864707,24.427824,0.0 120.865969,24.428344,0.0 120.867635,24.428065,0.0 120.869871,24.42752,0.0 120.871567,24.427913,0.0 120.873546,24.429154,0.0 120.875739,24.431353,0.0 120.877067,24.431904,0.0 120.878199,24.431642,0.0 120.879501,24.431729,0.0 120.880834,24.43174,0.0 120.881751,24.432152,0.0 120.882696,24.433972,0.0 120.883326,24.434416,0.0 120.88539,24.434691,0.0 120.887755,24.435441,0.0 120.889336,24.436481,0.0 120.891433,24.437083,0.0 120.894075,24.437106,0.0 120.895313,24.43718,0.0 120.896325,24.436699,0.0 120.896673,24.43651,0.0 120.896765,24.436454,0.0 120.897184,24.436129,0.0 120.898229,24.435981,0.0 120.899329,24.436291,0.0 120.901559,24.436861,0.0 120.904103,24.436403,0.0 120.907411,24.435096,0.0 120.909991,24.434433,0.0 120.911913,24.434775,0.0 120.913076,24.435405,0.0 120.912746,24.436904,0.0 120.911842,24.438724,0.0 120.91099,24.440763,0.0 120.910242,24.44256,0.0 120.909555,24.444008,0.0 120.908661,24.444825,0.0 120.907807,24.445479,0.0 120.907014,24.445972,0.0 120.906224,24.44625,0.0 120.905858,24.446049,0.0 120.905257,24.445972,0.0 120.904969,24.445988,0.0 120.904401,24.446751,0.0 120.903284,24.446767,0.0 120.902322,24.446402,0.0 120.901042,24.445939,0.0 120.899538,24.445305,0.0 120.898394,24.445002,0.0 120.897187,24.444964,0.0 120.895934,24.445008,0.0 120.894722,24.444798,0.0 120.892913,24.444551,0.0 120.89151,24.444605,0.0 120.889493,24.444893,0.0 120.887003,24.445649,0.0 120.884363,24.447303,0.0 120.883387,24.448737,0.0 120.883436,24.449409,0.0 120.88269,24.449985,0.0 120.881683,24.450644,0.0 120.880674,24.451509,0.0 120.879117,24.452927,0.0 120.878254,24.45359,0.0 120.877514,24.453973,0.0 120.876622,24.454449,0.0 120.875886,24.455499,0.0 120.875319,24.456372,0.0</coordinates></LinearRing></outerBoundaryIs></Polygon><styleUrl>#spolygon-map</styleUrl></Placemark></Document>
</kml>
