<?xml version="1.0" encoding="UTF-8"?>
<kml xmlns="http://www.opengis.net/kml/2.2">
	<Document>
		<name>苗栗縣竹南鎮</name>
		<Style id="spolygon">
			<LabelStyle>
				<scale>0.0</scale>
			</LabelStyle>
			<LineStyle>
				<color>330030ff</color>
				<width>0</width>
			</LineStyle>
			<PolyStyle>
				<color>330030ff</color>
			</PolyStyle>
		</Style>
		<StyleMap id="spolygon-map">
			<Pair>
				<key>normal</key>
				<styleUrl>#spolygon</styleUrl>
			</Pair>
		</StyleMap>
	<Placemark><Polygon><outerBoundaryIs><LinearRing><coordinates>120.878413,24.66622,0.0 120.874335,24.666541,0.0 120.869028,24.665827,0.0 120.865983,24.665919,0.0 120.867073,24.665494,0.0 120.867442,24.665115,0.0 120.867475,24.664021,0.0 120.867249,24.661573,0.0 120.867234,24.660527,0.0 120.867297,24.659651,0.0 120.867423,24.658672,0.0 120.867601,24.657454,0.0 120.867783,24.656403,0.0 120.867986,24.655626,0.0 120.868575,24.654358,0.0 120.869137,24.653238,0.0 120.869672,24.65241,0.0 120.870529,24.651908,0.0 120.871341,24.651927,0.0 120.872268,24.652359,0.0 120.872928,24.652611,0.0 120.873693,24.652905,0.0 120.874726,24.65311,0.0 120.875115,24.653045,0.0 120.875318,24.652419,0.0 120.875184,24.651264,0.0 120.874967,24.650253,0.0 120.874713,24.649236,0.0 120.874905,24.64853,0.0 120.87527,24.647915,0.0 120.876021,24.647524,0.0 120.87687,24.647899,0.0 120.876175,24.649019,0.0 120.876246,24.650351,0.0 120.876335,24.651499,0.0 120.876392,24.653295,0.0 120.876569,24.654282,0.0 120.877142,24.656825,0.0 120.877761,24.659831,0.0 120.878195,24.661125,0.0 120.878446,24.661916,0.0 120.878332,24.662259,0.0 120.878151,24.662921,0.0 120.878376,24.66345,0.0 120.87909,24.664199,0.0 120.879632,24.66502,0.0 120.879628,24.66577,0.0 120.879628,24.66644,0.0 120.878413,24.66622,0.0</coordinates></LinearRing></outerBoundaryIs></Polygon><styleUrl>#spolygon-map</styleUrl></Placemark><Placemark><Polygon><outerBoundaryIs><LinearRing><coordinates>120.846439,24.676118,0.0 120.842274,24.676344,0.0 120.840447,24.674601,0.0 120.838901,24.673131,0.0 120.836722,24.67105,0.0 120.835109,24.6692,0.0 120.835898,24.668544,0.0 120.8366,24.667977,0.0 120.837445,24.667419,0.0 120.838346,24.666919,0.0 120.839082,24.666498,0.0 120.839844,24.665953,0.0 120.84047,24.665497,0.0 120.841233,24.664847,0.0 120.841999,24.664204,0.0 120.84269,24.663759,0.0 120.843606,24.663318,0.0 120.844501,24.662895,0.0 120.845351,24.662593,0.0 120.846229,24.66235,0.0 120.847223,24.662313,0.0 120.848203,24.662314,0.0 120.849301,24.662283,0.0 120.850373,24.662257,0.0 120.85123,24.662449,0.0 120.85208,24.662537,0.0 120.853386,24.663041,0.0 120.854572,24.66354,0.0 120.855146,24.663727,0.0 120.856217,24.664272,0.0 120.857332,24.664821,0.0 120.858188,24.665131,0.0 120.859206,24.665387,0.0 120.860239,24.665615,0.0 120.861328,24.665758,0.0 120.862283,24.665982,0.0 120.863425,24.66806,0.0 120.863403,24.670337,0.0 120.864069,24.671195,0.0 120.865035,24.672382,0.0 120.86449,24.67299,0.0 120.864105,24.672359,0.0 120.862732,24.672059,0.0 120.862087,24.672406,0.0 120.860703,24.671401,0.0 120.858861,24.670754,0.0 120.85451,24.672203,0.0 120.851902,24.673428,0.0 120.848187,24.675254,0.0 120.846868,24.675906,0.0 120.846439,24.676118,0.0</coordinates></LinearRing></outerBoundaryIs></Polygon><styleUrl>#spolygon-map</styleUrl></Placemark><Placemark><Polygon><outerBoundaryIs><LinearRing><coordinates>120.867292,24.680667,0.0 120.867277,24.68102,0.0 120.86563,24.680766,0.0 120.863565,24.680634,0.0 120.86265,24.680592,0.0 120.862631,24.679205,0.0 120.864916,24.679083,0.0 120.864974,24.677293,0.0 120.865016,24.675524,0.0 120.865972,24.676684,0.0 120.86684,24.677786,0.0 120.867596,24.678746,0.0 120.868065,24.679665,0.0 120.867655,24.680096,0.0 120.867401,24.680442,0.0 120.867292,24.680667,0.0</coordinates></LinearRing></outerBoundaryIs></Polygon><styleUrl>#spolygon-map</styleUrl></Placemark><Placemark><Polygon><outerBoundaryIs><LinearRing><coordinates>120.869118,24.682889,0.0 120.868062,24.683275,0.0 120.866517,24.683177,0.0 120.866103,24.683142,0.0 120.865354,24.682862,0.0 120.864978,24.682735,0.0 120.864015,24.681735,0.0 120.863812,24.681479,0.0 120.863507,24.680981,0.0 120.864615,24.680686,0.0 120.866733,24.680919,0.0 120.867219,24.681275,0.0 120.867252,24.681633,0.0 120.869116,24.681862,0.0 120.869118,24.682889,0.0</coordinates></LinearRing></outerBoundaryIs></Polygon><styleUrl>#spolygon-map</styleUrl></Placemark><Placemark><Polygon><outerBoundaryIs><LinearRing><coordinates>120.874583,24.686023,0.0 120.87291,24.685525,0.0 120.87311,24.682846,0.0 120.873766,24.682097,0.0 120.877611,24.682226,0.0 120.880106,24.682305,0.0 120.880576,24.685761,0.0 120.879809,24.684894,0.0 120.876881,24.685648,0.0 120.874698,24.685976,0.0 120.874583,24.686023,0.0</coordinates></LinearRing></outerBoundaryIs></Polygon><styleUrl>#spolygon-map</styleUrl></Placemark><Placemark><Polygon><outerBoundaryIs><LinearRing><coordinates>120.874078,24.686978,0.0 120.87291,24.685525,0.0 120.874583,24.686023,0.0 120.876023,24.685779,0.0 120.879075,24.684852,0.0 120.880052,24.685785,0.0 120.880266,24.686936,0.0 120.878311,24.686756,0.0 120.875052,24.686925,0.0 120.874078,24.686978,0.0</coordinates></LinearRing></outerBoundaryIs></Polygon><styleUrl>#spolygon-map</styleUrl></Placemark><Placemark><Polygon><outerBoundaryIs><LinearRing><coordinates>120.872777,24.68704,0.0 120.871442,24.686805,0.0 120.871346,24.686346,0.0 120.87127,24.685553,0.0 120.869055,24.685065,0.0 120.869029,24.684419,0.0 120.869118,24.682889,0.0 120.868945,24.681834,0.0 120.867256,24.681591,0.0 120.867219,24.681222,0.0 120.867238,24.680939,0.0 120.867314,24.680613,0.0 120.867578,24.680167,0.0 120.868042,24.679799,0.0 120.867984,24.679237,0.0 120.867083,24.678095,0.0 120.866322,24.677129,0.0 120.865717,24.676012,0.0 120.866351,24.675613,0.0 120.865888,24.674724,0.0 120.865904,24.674128,0.0 120.866079,24.673455,0.0 120.865141,24.672598,0.0 120.864187,24.671292,0.0 120.863618,24.670555,0.0 120.863209,24.669602,0.0 120.863158,24.666159,0.0 120.86391,24.666226,0.0 120.864885,24.666227,0.0 120.866271,24.66613,0.0 120.871368,24.665964,0.0 120.875357,24.666439,0.0 120.879127,24.666322,0.0 120.87991,24.66761,0.0 120.880276,24.668961,0.0 120.879327,24.669249,0.0 120.879557,24.670199,0.0 120.879765,24.671046,0.0 120.879887,24.671871,0.0 120.879925,24.672587,0.0 120.880225,24.673408,0.0 120.88054,24.674352,0.0 120.880773,24.674969,0.0 120.880984,24.675469,0.0 120.881384,24.675843,0.0 120.881492,24.676505,0.0 120.881583,24.676926,0.0 120.881004,24.677151,0.0 120.88082,24.677848,0.0 120.880531,24.67912,0.0 120.880332,24.679748,0.0 120.880361,24.682254,0.0 120.878697,24.682261,0.0 120.874452,24.682119,0.0 120.873141,24.682414,0.0 120.872976,24.684638,0.0 120.872777,24.68704,0.0</coordinates></LinearRing></outerBoundaryIs></Polygon><styleUrl>#spolygon-map</styleUrl></Placemark><Placemark><Polygon><outerBoundaryIs><LinearRing><coordinates>120.869852,24.687849,0.0 120.867512,24.687816,0.0 120.867073,24.68643,0.0 120.867015,24.685954,0.0 120.865526,24.686084,0.0 120.865329,24.685981,0.0 120.864965,24.685664,0.0 120.864939,24.684644,0.0 120.864978,24.682735,0.0 120.865354,24.682862,0.0 120.866103,24.683142,0.0 120.866517,24.683177,0.0 120.868062,24.683275,0.0 120.869085,24.683408,0.0 120.869028,24.684454,0.0 120.869954,24.685113,0.0 120.871285,24.685804,0.0 120.871359,24.686417,0.0 120.871553,24.687199,0.0 120.870491,24.687666,0.0 120.869852,24.687849,0.0</coordinates></LinearRing></outerBoundaryIs></Polygon><styleUrl>#spolygon-map</styleUrl></Placemark><Placemark><Polygon><outerBoundaryIs><LinearRing><coordinates>120.843574,24.687362,0.0 120.836544,24.685362,0.0 120.829934,24.679933,0.0 120.824605,24.673563,0.0 120.825446,24.673316,0.0 120.826287,24.673072,0.0 120.827128,24.672832,0.0 120.828097,24.672583,0.0 120.829041,24.672364,0.0 120.83029,24.672064,0.0 120.831575,24.671698,0.0 120.832548,24.671149,0.0 120.833421,24.670506,0.0 120.834218,24.669929,0.0 120.834915,24.669364,0.0 120.837086,24.671399,0.0 120.839004,24.673228,0.0 120.840536,24.674686,0.0 120.842712,24.676761,0.0 120.846868,24.675906,0.0 120.848187,24.675254,0.0 120.851902,24.673428,0.0 120.85451,24.672203,0.0 120.858861,24.670754,0.0 120.860703,24.671401,0.0 120.862087,24.672406,0.0 120.862732,24.672059,0.0 120.864105,24.672359,0.0 120.86449,24.67299,0.0 120.865774,24.673107,0.0 120.865845,24.673921,0.0 120.865739,24.674348,0.0 120.86627,24.675454,0.0 120.86581,24.6759,0.0 120.86588,24.676567,0.0 120.864994,24.676442,0.0 120.864958,24.677776,0.0 120.862779,24.678961,0.0 120.860659,24.678844,0.0 120.857272,24.679384,0.0 120.854317,24.681103,0.0 120.848549,24.684454,0.0 120.843574,24.687362,0.0</coordinates></LinearRing></outerBoundaryIs></Polygon><styleUrl>#spolygon-map</styleUrl></Placemark><Placemark><Polygon><outerBoundaryIs><LinearRing><coordinates>120.876877,24.689079,0.0 120.87649,24.69181,0.0 120.873546,24.691108,0.0 120.872895,24.690941,0.0 120.871409,24.690413,0.0 120.869544,24.690648,0.0 120.868536,24.691009,0.0 120.867532,24.691501,0.0 120.866957,24.691766,0.0 120.86668,24.691339,0.0 120.866433,24.690806,0.0 120.866487,24.690602,0.0 120.866686,24.690301,0.0 120.86671,24.690128,0.0 120.866444,24.689716,0.0 120.866241,24.689396,0.0 120.866172,24.689195,0.0 120.866308,24.688994,0.0 120.866384,24.688784,0.0 120.866456,24.688494,0.0 120.866205,24.688077,0.0 120.865968,24.68746,0.0 120.865612,24.686881,0.0 120.865131,24.686648,0.0 120.864997,24.686278,0.0 120.865329,24.685981,0.0 120.865526,24.686084,0.0 120.867015,24.685954,0.0 120.867073,24.68643,0.0 120.867512,24.687816,0.0 120.869852,24.687849,0.0 120.871602,24.687347,0.0 120.872769,24.687552,0.0 120.875632,24.687803,0.0 120.876338,24.688731,0.0 120.876877,24.689079,0.0</coordinates></LinearRing></outerBoundaryIs></Polygon><styleUrl>#spolygon-map</styleUrl></Placemark><Placemark><Polygon><outerBoundaryIs><LinearRing><coordinates>120.880934,24.6931,0.0 120.878015,24.692247,0.0 120.877158,24.689517,0.0 120.876432,24.688532,0.0 120.87414,24.687885,0.0 120.872797,24.6871,0.0 120.875052,24.686925,0.0 120.878311,24.686756,0.0 120.880266,24.686936,0.0 120.880914,24.691269,0.0 120.880934,24.6931,0.0</coordinates></LinearRing></outerBoundaryIs></Polygon><styleUrl>#spolygon-map</styleUrl></Placemark><Placemark><Polygon><outerBoundaryIs><LinearRing><coordinates>120.888172,24.692535,0.0 120.887743,24.692881,0.0 120.887222,24.693137,0.0 120.886647,24.693362,0.0 120.886092,24.693269,0.0 120.884786,24.693014,0.0 120.882874,24.693215,0.0 120.881507,24.693238,0.0 120.880913,24.692804,0.0 120.880861,24.690402,0.0 120.880576,24.685761,0.0 120.880361,24.682254,0.0 120.880421,24.679881,0.0 120.880691,24.680418,0.0 120.880803,24.6807,0.0 120.881003,24.681077,0.0 120.881121,24.681836,0.0 120.881655,24.682375,0.0 120.882077,24.682841,0.0 120.882343,24.683315,0.0 120.882748,24.683661,0.0 120.883107,24.683808,0.0 120.883678,24.684166,0.0 120.884185,24.684335,0.0 120.884518,24.68481,0.0 120.885169,24.685249,0.0 120.885807,24.685424,0.0 120.886309,24.685517,0.0 120.886687,24.685586,0.0 120.887105,24.685636,0.0 120.887599,24.68589,0.0 120.887925,24.686246,0.0 120.88792,24.686687,0.0 120.88759,24.686945,0.0 120.886837,24.68743,0.0 120.887485,24.687858,0.0 120.888355,24.688226,0.0 120.889486,24.688538,0.0 120.890454,24.688838,0.0 120.890997,24.689293,0.0 120.891556,24.690229,0.0 120.892052,24.690742,0.0 120.892766,24.691278,0.0 120.892968,24.691904,0.0 120.892427,24.691624,0.0 120.891876,24.691401,0.0 120.891079,24.691342,0.0 120.890415,24.691509,0.0 120.889844,24.691646,0.0 120.88933,24.691728,0.0 120.888855,24.691844,0.0 120.888536,24.69234,0.0 120.888212,24.692519,0.0 120.888172,24.692535,0.0</coordinates></LinearRing></outerBoundaryIs></Polygon><styleUrl>#spolygon-map</styleUrl></Placemark><Placemark><Polygon><outerBoundaryIs><LinearRing><coordinates>120.848636,24.691416,0.0 120.841504,24.688899,0.0 120.848319,24.684586,0.0 120.853516,24.681576,0.0 120.857077,24.679466,0.0 120.860252,24.678822,0.0 120.862627,24.678951,0.0 120.862638,24.679654,0.0 120.862656,24.680628,0.0 120.863733,24.680929,0.0 120.863756,24.681363,0.0 120.863966,24.681627,0.0 120.864283,24.682911,0.0 120.862958,24.68327,0.0 120.862371,24.683497,0.0 120.862295,24.684056,0.0 120.862486,24.684464,0.0 120.862045,24.685245,0.0 120.858188,24.687693,0.0 120.857618,24.688373,0.0 120.856712,24.688929,0.0 120.855688,24.689466,0.0 120.851825,24.689615,0.0 120.848636,24.691416,0.0</coordinates></LinearRing></outerBoundaryIs></Polygon><styleUrl>#spolygon-map</styleUrl></Placemark><Placemark><Polygon><outerBoundaryIs><LinearRing><coordinates>120.851938,24.694263,0.0 120.849984,24.690665,0.0 120.853231,24.688794,0.0 120.855857,24.68935,0.0 120.857027,24.688775,0.0 120.857703,24.68828,0.0 120.858226,24.687657,0.0 120.862183,24.685174,0.0 120.862398,24.684275,0.0 120.862273,24.684008,0.0 120.862582,24.683398,0.0 120.863054,24.683211,0.0 120.864309,24.682904,0.0 120.865013,24.685444,0.0 120.86496,24.68579,0.0 120.864867,24.686288,0.0 120.863982,24.685998,0.0 120.863658,24.686179,0.0 120.863415,24.686392,0.0 120.862244,24.687166,0.0 120.860774,24.688082,0.0 120.859725,24.688704,0.0 120.859166,24.689106,0.0 120.858602,24.689611,0.0 120.857478,24.690622,0.0 120.856301,24.691179,0.0 120.854628,24.692333,0.0 120.852718,24.693698,0.0 120.851938,24.694263,0.0</coordinates></LinearRing></outerBoundaryIs></Polygon><styleUrl>#spolygon-map</styleUrl></Placemark><Placemark><Polygon><outerBoundaryIs><LinearRing><coordinates>120.876067,24.697917,0.0 120.875857,24.698868,0.0 120.87246,24.698025,0.0 120.871407,24.697438,0.0 120.869445,24.695136,0.0 120.86856,24.694119,0.0 120.866964,24.69197,0.0 120.867441,24.69156,0.0 120.868208,24.691164,0.0 120.86911,24.690791,0.0 120.871135,24.690117,0.0 120.87261,24.690865,0.0 120.873187,24.691024,0.0 120.875968,24.691683,0.0 120.876824,24.692752,0.0 120.876646,24.693448,0.0 120.875379,24.69404,0.0 120.874468,24.695499,0.0 120.874989,24.69721,0.0 120.876067,24.697917,0.0</coordinates></LinearRing></outerBoundaryIs></Polygon><styleUrl>#spolygon-map</styleUrl></Placemark><Placemark><Polygon><outerBoundaryIs><LinearRing><coordinates>120.87772,24.699934,0.0 120.877201,24.699695,0.0 120.876889,24.699423,0.0 120.875129,24.697477,0.0 120.8749,24.696319,0.0 120.875006,24.694212,0.0 120.876632,24.693458,0.0 120.876682,24.693388,0.0 120.87738,24.69203,0.0 120.880672,24.693089,0.0 120.881677,24.693241,0.0 120.883895,24.692984,0.0 120.884037,24.693247,0.0 120.88412,24.69401,0.0 120.884754,24.694926,0.0 120.884862,24.695085,0.0 120.884998,24.695243,0.0 120.885463,24.695526,0.0 120.885694,24.695595,0.0 120.885956,24.695738,0.0 120.886244,24.695954,0.0 120.886493,24.696197,0.0 120.886581,24.696309,0.0 120.886847,24.69656,0.0 120.886969,24.696741,0.0 120.887117,24.696869,0.0 120.887322,24.697004,0.0 120.887545,24.697279,0.0 120.887642,24.697473,0.0 120.887784,24.697617,0.0 120.888033,24.697849,0.0 120.888099,24.697944,0.0 120.8881,24.698125,0.0 120.888078,24.698485,0.0 120.888111,24.698601,0.0 120.888231,24.698787,0.0 120.887911,24.699323,0.0 120.88731,24.699474,0.0 120.886785,24.699688,0.0 120.886095,24.699473,0.0 120.885512,24.699262,0.0 120.884944,24.698953,0.0 120.884584,24.698907,0.0 120.882749,24.698042,0.0 120.879799,24.699256,0.0 120.87772,24.699934,0.0</coordinates></LinearRing></outerBoundaryIs></Polygon><styleUrl>#spolygon-map</styleUrl></Placemark><Placemark><Polygon><outerBoundaryIs><LinearRing><coordinates>120.855671,24.69818,0.0 120.852718,24.693698,0.0 120.854628,24.692333,0.0 120.856301,24.691179,0.0 120.857478,24.690622,0.0 120.858602,24.689611,0.0 120.859166,24.689106,0.0 120.859725,24.688704,0.0 120.860774,24.688082,0.0 120.862244,24.687166,0.0 120.863415,24.686392,0.0 120.863658,24.686179,0.0 120.863982,24.685998,0.0 120.864867,24.686288,0.0 120.865055,24.686507,0.0 120.865441,24.686866,0.0 120.865912,24.687198,0.0 120.866115,24.687931,0.0 120.866378,24.688292,0.0 120.86644,24.688693,0.0 120.866311,24.688981,0.0 120.866179,24.689151,0.0 120.866182,24.689274,0.0 120.866374,24.689595,0.0 120.866667,24.690054,0.0 120.866702,24.690248,0.0 120.866567,24.69048,0.0 120.866435,24.690742,0.0 120.866484,24.690957,0.0 120.864021,24.691921,0.0 120.863927,24.69191,0.0 120.863842,24.691853,0.0 120.863248,24.691327,0.0 120.863135,24.691291,0.0 120.862678,24.691537,0.0 120.861918,24.692184,0.0 120.86063,24.693745,0.0 120.85948,24.696009,0.0 120.85651,24.697604,0.0 120.855671,24.69818,0.0</coordinates></LinearRing></outerBoundaryIs></Polygon><styleUrl>#spolygon-map</styleUrl></Placemark><Placemark><Polygon><outerBoundaryIs><LinearRing><coordinates>120.855306,24.701586,0.0 120.854532,24.701631,0.0 120.856045,24.697867,0.0 120.859402,24.696081,0.0 120.860531,24.693851,0.0 120.86174,24.692504,0.0 120.862373,24.691713,0.0 120.863126,24.691291,0.0 120.863219,24.691315,0.0 120.863836,24.691843,0.0 120.863912,24.691904,0.0 120.864002,24.691923,0.0 120.866758,24.691491,0.0 120.867066,24.691858,0.0 120.867753,24.693131,0.0 120.869134,24.694801,0.0 120.859051,24.701187,0.0 120.855306,24.701586,0.0</coordinates></LinearRing></outerBoundaryIs></Polygon><styleUrl>#spolygon-map</styleUrl></Placemark><Placemark><Polygon><outerBoundaryIs><LinearRing><coordinates>120.872167,24.697946,0.0 120.865442,24.703048,0.0 120.863049,24.702754,0.0 120.859244,24.701271,0.0 120.869995,24.695734,0.0 120.871643,24.697648,0.0 120.872167,24.697946,0.0</coordinates></LinearRing></outerBoundaryIs></Polygon><styleUrl>#spolygon-map</styleUrl></Placemark><Placemark><Polygon><outerBoundaryIs><LinearRing><coordinates>120.872962,24.703922,0.0 120.870874,24.705238,0.0 120.86925,24.704185,0.0 120.8678,24.703574,0.0 120.865536,24.703066,0.0 120.87246,24.698025,0.0 120.875857,24.698868,0.0 120.877027,24.699549,0.0 120.877353,24.699821,0.0 120.876249,24.701113,0.0 120.874262,24.702697,0.0 120.872962,24.703922,0.0</coordinates></LinearRing></outerBoundaryIs></Polygon><styleUrl>#spolygon-map</styleUrl></Placemark><Placemark><Polygon><outerBoundaryIs><LinearRing><coordinates>120.876234,24.707403,0.0 120.87306,24.706657,0.0 120.872614,24.704384,0.0 120.874548,24.702515,0.0 120.876335,24.700996,0.0 120.877558,24.699974,0.0 120.879558,24.699355,0.0 120.882641,24.698066,0.0 120.884203,24.698643,0.0 120.884401,24.699405,0.0 120.884744,24.700423,0.0 120.884675,24.700598,0.0 120.885141,24.701271,0.0 120.885474,24.701776,0.0 120.885924,24.702311,0.0 120.886375,24.702402,0.0 120.886709,24.702703,0.0 120.887237,24.702725,0.0 120.887845,24.702843,0.0 120.888247,24.703057,0.0 120.888628,24.70311,0.0 120.888873,24.702978,0.0 120.88913,24.703005,0.0 120.889538,24.703009,0.0 120.889942,24.702996,0.0 120.890328,24.702976,0.0 120.890636,24.7031,0.0 120.890455,24.703709,0.0 120.890319,24.704093,0.0 120.889496,24.704272,0.0 120.889109,24.704569,0.0 120.887076,24.704761,0.0 120.885292,24.705219,0.0 120.885087,24.704343,0.0 120.884774,24.703234,0.0 120.882943,24.703853,0.0 120.881885,24.7045,0.0 120.881619,24.705419,0.0 120.88005,24.706,0.0 120.87879,24.706605,0.0 120.87765,24.707243,0.0 120.876618,24.707257,0.0 120.876234,24.707403,0.0</coordinates></LinearRing></outerBoundaryIs></Polygon><styleUrl>#spolygon-map</styleUrl></Placemark><Placemark><Polygon><outerBoundaryIs><LinearRing><coordinates>120.915773,24.716674,0.0 120.914895,24.716815,0.0 120.914253,24.717249,0.0 120.913367,24.717071,0.0 120.911434,24.715578,0.0 120.910101,24.714783,0.0 120.910004,24.714486,0.0 120.909576,24.71334,0.0 120.908824,24.711577,0.0 120.909387,24.711407,0.0 120.908831,24.709633,0.0 120.908626,24.708123,0.0 120.908529,24.707918,0.0 120.908509,24.70672,0.0 120.908502,24.703139,0.0 120.909152,24.703241,0.0 120.909827,24.703212,0.0 120.910667,24.703253,0.0 120.911597,24.703386,0.0 120.912284,24.703603,0.0 120.912977,24.703939,0.0 120.913582,24.704174,0.0 120.914268,24.70447,0.0 120.915176,24.70481,0.0 120.916013,24.704745,0.0 120.917303,24.704325,0.0 120.918285,24.704094,0.0 120.919045,24.703882,0.0 120.919661,24.703649,0.0 120.920543,24.703693,0.0 120.921219,24.703598,0.0 120.921867,24.703795,0.0 120.922446,24.704091,0.0 120.922931,24.704344,0.0 120.923422,24.704353,0.0 120.923949,24.704539,0.0 120.92439,24.704729,0.0 120.924808,24.705353,0.0 120.925396,24.706099,0.0 120.926441,24.706923,0.0 120.927699,24.707875,0.0 120.929332,24.709205,0.0 120.929963,24.70983,0.0 120.931308,24.711066,0.0 120.932046,24.711728,0.0 120.933017,24.712319,0.0 120.933887,24.712759,0.0 120.934165,24.713178,0.0 120.933664,24.713173,0.0 120.933169,24.713212,0.0 120.932618,24.713642,0.0 120.931764,24.714151,0.0 120.930892,24.714869,0.0 120.930516,24.71578,0.0 120.930234,24.716635,0.0 120.929826,24.716351,0.0 120.929324,24.715803,0.0 120.92883,24.715287,0.0 120.928249,24.715611,0.0 120.927744,24.715516,0.0 120.92672,24.715034,0.0 120.926118,24.715131,0.0 120.925379,24.715365,0.0 120.9246,24.715211,0.0 120.923863,24.714569,0.0 120.922741,24.714753,0.0 120.922138,24.715214,0.0 120.921974,24.715793,0.0 120.92166,24.716021,0.0 120.921041,24.716167,0.0 120.920577,24.716735,0.0 120.919416,24.71695,0.0 120.918721,24.716618,0.0 120.918197,24.716395,0.0 120.917252,24.716324,0.0 120.916127,24.716618,0.0 120.915773,24.716674,0.0</coordinates></LinearRing></outerBoundaryIs></Polygon><styleUrl>#spolygon-map</styleUrl></Placemark><Placemark><Polygon><outerBoundaryIs><LinearRing><coordinates>120.898634,24.720863,0.0 120.897314,24.722459,0.0 120.894734,24.722605,0.0 120.894389,24.722134,0.0 120.894256,24.721554,0.0 120.893864,24.720327,0.0 120.893559,24.71953,0.0 120.893424,24.719141,0.0 120.893328,24.718809,0.0 120.892762,24.717845,0.0 120.892223,24.717029,0.0 120.891567,24.715184,0.0 120.890821,24.714438,0.0 120.8906,24.713999,0.0 120.890048,24.713207,0.0 120.889436,24.712475,0.0 120.888456,24.71136,0.0 120.887537,24.710258,0.0 120.886368,24.710803,0.0 120.885779,24.711145,0.0 120.884738,24.710686,0.0 120.883296,24.710584,0.0 120.882649,24.709687,0.0 120.881207,24.70857,0.0 120.880366,24.707706,0.0 120.87965,24.706845,0.0 120.88025,24.705907,0.0 120.881693,24.705341,0.0 120.882044,24.704344,0.0 120.88318,24.703674,0.0 120.884835,24.703353,0.0 120.885026,24.704503,0.0 120.885523,24.705219,0.0 120.887665,24.705005,0.0 120.889238,24.704643,0.0 120.889798,24.704198,0.0 120.89034,24.70408,0.0 120.890498,24.703466,0.0 120.890655,24.70307,0.0 120.89089,24.703067,0.0 120.891659,24.703327,0.0 120.892241,24.703592,0.0 120.892783,24.703605,0.0 120.893304,24.70404,0.0 120.893518,24.703959,0.0 120.893691,24.703868,0.0 120.894086,24.703795,0.0 120.894632,24.703717,0.0 120.894967,24.703741,0.0 120.895254,24.703682,0.0 120.895679,24.70377,0.0 120.896162,24.703791,0.0 120.896681,24.703777,0.0 120.897092,24.704006,0.0 120.897453,24.704092,0.0 120.898051,24.704295,0.0 120.898419,24.704719,0.0 120.898822,24.704808,0.0 120.899561,24.704944,0.0 120.900198,24.705128,0.0 120.900194,24.705051,0.0 120.90028,24.704916,0.0 120.900165,24.704874,0.0 120.899739,24.704689,0.0 120.899215,24.704521,0.0 120.898772,24.704267,0.0 120.899119,24.704194,0.0 120.899434,24.704119,0.0 120.899791,24.704156,0.0 120.900219,24.704082,0.0 120.900892,24.703985,0.0 120.90151,24.704018,0.0 120.902339,24.704112,0.0 120.903068,24.704113,0.0 120.903695,24.704098,0.0 120.903742,24.703808,0.0 120.903469,24.703891,0.0 120.902916,24.703667,0.0 120.902815,24.703477,0.0 120.903193,24.703276,0.0 120.903755,24.70304,0.0 120.904299,24.702826,0.0 120.904782,24.702788,0.0 120.905306,24.702638,0.0 120.905801,24.702601,0.0 120.906286,24.7026,0.0 120.906779,24.702667,0.0 120.907198,24.702921,0.0 120.907538,24.703178,0.0 120.908261,24.703094,0.0 120.90853,24.70485,0.0 120.908518,24.707345,0.0 120.908558,24.707984,0.0 120.908647,24.709113,0.0 120.909157,24.710333,0.0 120.909008,24.711424,0.0 120.908983,24.711695,0.0 120.909804,24.713998,0.0 120.910085,24.714489,0.0 120.910283,24.715689,0.0 120.911689,24.716963,0.0 120.908698,24.717484,0.0 120.906657,24.717058,0.0 120.905773,24.717035,0.0 120.903781,24.718606,0.0 120.901562,24.719282,0.0 120.898752,24.720661,0.0 120.898634,24.720863,0.0</coordinates></LinearRing></outerBoundaryIs></Polygon><styleUrl>#spolygon-map</styleUrl></Placemark><Placemark><Polygon><outerBoundaryIs><LinearRing><coordinates>120.879429,24.734528,0.0 120.870393,24.733325,0.0 120.864786,24.727225,0.0 120.861553,24.721089,0.0 120.858737,24.713531,0.0 120.857718,24.706673,0.0 120.857805,24.700783,0.0 120.859842,24.701595,0.0 120.864098,24.702927,0.0 120.865619,24.703082,0.0 120.868179,24.703645,0.0 120.869328,24.704232,0.0 120.871445,24.705517,0.0 120.87306,24.706657,0.0 120.876234,24.707403,0.0 120.877375,24.707219,0.0 120.878265,24.706931,0.0 120.879605,24.706826,0.0 120.880302,24.7076,0.0 120.880909,24.708296,0.0 120.88234,24.709492,0.0 120.883267,24.710517,0.0 120.88454,24.710478,0.0 120.885713,24.711199,0.0 120.886118,24.711145,0.0 120.887361,24.710037,0.0 120.888249,24.711131,0.0 120.889327,24.712349,0.0 120.889871,24.712984,0.0 120.890422,24.713742,0.0 120.890809,24.714421,0.0 120.891283,24.715335,0.0 120.892118,24.716832,0.0 120.89268,24.717734,0.0 120.893245,24.718658,0.0 120.8934,24.719042,0.0 120.893497,24.719397,0.0 120.893846,24.720254,0.0 120.894093,24.721411,0.0 120.89437,24.721989,0.0 120.894632,24.722526,0.0 120.895252,24.723612,0.0 120.894747,24.72336,0.0 120.894144,24.723887,0.0 120.893733,24.724637,0.0 120.893903,24.725224,0.0 120.894532,24.726576,0.0 120.893735,24.727085,0.0 120.893032,24.727155,0.0 120.892613,24.727855,0.0 120.892289,24.729379,0.0 120.893605,24.731566,0.0 120.893747,24.732331,0.0 120.893309,24.732584,0.0 120.89268,24.732735,0.0 120.892425,24.73295,0.0 120.892361,24.733159,0.0 120.892139,24.732949,0.0 120.891845,24.732516,0.0 120.891366,24.732059,0.0 120.890724,24.73191,0.0 120.890296,24.732137,0.0 120.88973,24.73255,0.0 120.889018,24.732954,0.0 120.888479,24.733295,0.0 120.887813,24.73368,0.0 120.887303,24.733862,0.0 120.886847,24.733395,0.0 120.885977,24.733172,0.0 120.885318,24.732993,0.0 120.884739,24.732811,0.0 120.884244,24.733641,0.0 120.88395,24.734156,0.0 120.883423,24.734498,0.0 120.881026,24.733291,0.0 120.879429,24.734528,0.0</coordinates></LinearRing></outerBoundaryIs></Polygon><styleUrl>#spolygon-map</styleUrl></Placemark><Placemark><Polygon><outerBoundaryIs><LinearRing><coordinates>120.908547,24.738263,0.0 120.908663,24.738971,0.0 120.908671,24.73982,0.0 120.90844,24.740661,0.0 120.907797,24.741074,0.0 120.90669,24.740868,0.0 120.905979,24.740726,0.0 120.9057,24.740246,0.0 120.905217,24.73976,0.0 120.904512,24.739313,0.0 120.903765,24.738953,0.0 120.903276,24.738564,0.0 120.902863,24.73787,0.0 120.902386,24.737379,0.0 120.901829,24.736823,0.0 120.901429,24.736307,0.0 120.900757,24.736041,0.0 120.900176,24.735525,0.0 120.899559,24.735042,0.0 120.899068,24.734512,0.0 120.898249,24.734132,0.0 120.897632,24.733624,0.0 120.897099,24.733337,0.0 120.896513,24.733128,0.0 120.895939,24.732987,0.0 120.895108,24.732668,0.0 120.894305,24.732515,0.0 120.893731,24.73227,0.0 120.893422,24.731412,0.0 120.892273,24.72932,0.0 120.892731,24.727607,0.0 120.893211,24.726955,0.0 120.893836,24.727107,0.0 120.894504,24.726528,0.0 120.893936,24.725152,0.0 120.893705,24.724565,0.0 120.894112,24.72385,0.0 120.894856,24.723401,0.0 120.895447,24.723561,0.0 120.896537,24.722674,0.0 120.898216,24.721592,0.0 120.899519,24.720112,0.0 120.902237,24.71901,0.0 120.90464,24.717626,0.0 120.906372,24.717021,0.0 120.908085,24.71778,0.0 120.910414,24.717034,0.0 120.913367,24.717071,0.0 120.913803,24.717585,0.0 120.914282,24.717936,0.0 120.914313,24.71856,0.0 120.91437,24.718977,0.0 120.914696,24.719348,0.0 120.915286,24.719854,0.0 120.915697,24.720181,0.0 120.916068,24.720628,0.0 120.916266,24.721142,0.0 120.916149,24.72177,0.0 120.915641,24.722279,0.0 120.915032,24.722793,0.0 120.914646,24.723235,0.0 120.914225,24.723702,0.0 120.913787,24.724206,0.0 120.913732,24.725005,0.0 120.913946,24.725784,0.0 120.91396,24.726358,0.0 120.914172,24.727064,0.0 120.913642,24.727187,0.0 120.913784,24.727573,0.0 120.913582,24.72805,0.0 120.91318,24.728406,0.0 120.913013,24.728908,0.0 120.912933,24.729564,0.0 120.912852,24.730236,0.0 120.912614,24.73112,0.0 120.912269,24.731886,0.0 120.911759,24.732775,0.0 120.91101,24.733754,0.0 120.910055,24.734884,0.0 120.909717,24.735197,0.0 120.908839,24.735981,0.0 120.908415,24.736928,0.0 120.908501,24.738119,0.0 120.908547,24.738263,0.0</coordinates></LinearRing></outerBoundaryIs></Polygon><styleUrl>#spolygon-map</styleUrl></Placemark></Document>
</kml>
