<?xml version="1.0" encoding="UTF-8"?>
<kml xmlns="http://www.opengis.net/kml/2.2">
	<Document>
		<name>雲林縣土庫鎮</name>
		<Style id="spolygon">
			<LabelStyle>
				<scale>0.0</scale>
			</LabelStyle>
			<LineStyle>
				<color>330030ff</color>
				<width>0</width>
			</LineStyle>
			<PolyStyle>
				<color>330030ff</color>
			</PolyStyle>
		</Style>
		<StyleMap id="spolygon-map">
			<Pair>
				<key>normal</key>
				<styleUrl>#spolygon</styleUrl>
			</Pair>
		</StyleMap>
	<Placemark><Polygon><outerBoundaryIs><LinearRing><coordinates>120.376131,23.693629,0.0 120.366574,23.69356,0.0 120.36536,23.693932,0.0 120.359401,23.688709,0.0 120.358123,23.680916,0.0 120.359938,23.680192,0.0 120.368408,23.679312,0.0 120.370803,23.678036,0.0 120.372253,23.676696,0.0 120.375878,23.676742,0.0 120.378418,23.676646,0.0 120.377821,23.681068,0.0 120.377353,23.682333,0.0 120.377186,23.685698,0.0 120.376737,23.692572,0.0 120.37645,23.692966,0.0 120.376243,23.693387,0.0 120.376131,23.693629,0.0</coordinates></LinearRing></outerBoundaryIs></Polygon><styleUrl>#spolygon-map</styleUrl></Placemark><Placemark><Polygon><outerBoundaryIs><LinearRing><coordinates>120.3528,23.729281,0.0 120.353832,23.70998,0.0 120.354908,23.705684,0.0 120.35575,23.706414,0.0 120.359762,23.717377,0.0 120.36242,23.728219,0.0 120.360101,23.728275,0.0 120.356923,23.733217,0.0 120.356933,23.734675,0.0 120.356258,23.735309,0.0 120.354207,23.734894,0.0 120.353256,23.735319,0.0 120.352027,23.737212,0.0 120.352166,23.735985,0.0 120.352275,23.735046,0.0 120.35238,23.734186,0.0 120.352489,23.733169,0.0 120.352584,23.732384,0.0 120.352728,23.731183,0.0 120.352826,23.730294,0.0 120.352876,23.729288,0.0 120.3528,23.729281,0.0</coordinates></LinearRing></outerBoundaryIs></Polygon><styleUrl>#spolygon-map</styleUrl></Placemark><Placemark><Polygon><outerBoundaryIs><LinearRing><coordinates>120.387436,23.69708,0.0 120.386482,23.697119,0.0 120.38539,23.697171,0.0 120.384139,23.697234,0.0 120.384603,23.696505,0.0 120.384844,23.695831,0.0 120.384615,23.695484,0.0 120.384585,23.69494,0.0 120.384545,23.694066,0.0 120.383459,23.694003,0.0 120.382526,23.694031,0.0 120.381668,23.694093,0.0 120.380782,23.694137,0.0 120.380121,23.69418,0.0 120.379358,23.694233,0.0 120.378731,23.694271,0.0 120.377962,23.694324,0.0 120.377816,23.693904,0.0 120.377673,23.693459,0.0 120.376991,23.692808,0.0 120.377186,23.685698,0.0 120.377353,23.682333,0.0 120.377821,23.681068,0.0 120.378418,23.676646,0.0 120.383111,23.67774,0.0 120.383841,23.678476,0.0 120.387722,23.675496,0.0 120.391814,23.679478,0.0 120.393211,23.682227,0.0 120.3927,23.681999,0.0 120.392349,23.682067,0.0 120.392517,23.682748,0.0 120.392733,23.683678,0.0 120.393064,23.684043,0.0 120.393456,23.684471,0.0 120.393797,23.685382,0.0 120.394166,23.686456,0.0 120.394246,23.687299,0.0 120.394307,23.687895,0.0 120.394719,23.688465,0.0 120.3952,23.68925,0.0 120.396025,23.690561,0.0 120.396592,23.691479,0.0 120.39715,23.692396,0.0 120.39801,23.693781,0.0 120.398609,23.694738,0.0 120.399197,23.695643,0.0 120.399592,23.696365,0.0 120.39897,23.696489,0.0 120.397591,23.696578,0.0 120.396661,23.696629,0.0 120.395572,23.696683,0.0 120.394533,23.696742,0.0 120.393406,23.696797,0.0 120.392253,23.696858,0.0 120.391283,23.696894,0.0 120.389888,23.696963,0.0 120.388492,23.697021,0.0 120.387436,23.69708,0.0</coordinates></LinearRing></outerBoundaryIs></Polygon><styleUrl>#spolygon-map</styleUrl></Placemark><Placemark><Polygon><outerBoundaryIs><LinearRing><coordinates>120.3528,23.729281,0.0 120.351061,23.729303,0.0 120.348912,23.72905,0.0 120.347877,23.728073,0.0 120.347561,23.726694,0.0 120.347589,23.725396,0.0 120.347727,23.724289,0.0 120.347951,23.722716,0.0 120.348142,23.72162,0.0 120.348142,23.720918,0.0 120.347293,23.720928,0.0 120.346083,23.721051,0.0 120.344937,23.720983,0.0 120.34443,23.72053,0.0 120.344225,23.719113,0.0 120.343971,23.717311,0.0 120.343769,23.715904,0.0 120.34345,23.713722,0.0 120.343239,23.712312,0.0 120.343006,23.710724,0.0 120.342798,23.710001,0.0 120.341699,23.710107,0.0 120.340448,23.710249,0.0 120.338511,23.71047,0.0 120.33717,23.710627,0.0 120.337411,23.709924,0.0 120.338303,23.708029,0.0 120.339373,23.70574,0.0 120.34049,23.703364,0.0 120.339518,23.703034,0.0 120.337936,23.703247,0.0 120.335847,23.703874,0.0 120.334872,23.703834,0.0 120.334634,23.702074,0.0 120.334402,23.700367,0.0 120.34298,23.696751,0.0 120.348753,23.69855,0.0 120.351144,23.699382,0.0 120.349737,23.70445,0.0 120.353862,23.710014,0.0 120.3528,23.729281,0.0</coordinates></LinearRing></outerBoundaryIs></Polygon><styleUrl>#spolygon-map</styleUrl></Placemark><Placemark><Polygon><outerBoundaryIs><LinearRing><coordinates>120.388637,23.672619,0.0 120.389014,23.669682,0.0 120.389571,23.670216,0.0 120.390168,23.67105,0.0 120.391465,23.672028,0.0 120.392033,23.673651,0.0 120.392381,23.673952,0.0 120.391997,23.675748,0.0 120.390695,23.676268,0.0 120.388637,23.672619,0.0</coordinates></LinearRing></outerBoundaryIs></Polygon><styleUrl>#spolygon-map</styleUrl></Placemark><Placemark><Polygon><outerBoundaryIs><LinearRing><coordinates>120.36242,23.728219,0.0 120.359762,23.717377,0.0 120.35575,23.706414,0.0 120.357644,23.705734,0.0 120.364198,23.70893,0.0 120.369531,23.711397,0.0 120.37043,23.712012,0.0 120.370454,23.71392,0.0 120.369873,23.714518,0.0 120.369946,23.716022,0.0 120.369984,23.71697,0.0 120.37008,23.719034,0.0 120.370119,23.719765,0.0 120.370176,23.721154,0.0 120.370232,23.72235,0.0 120.370272,23.723086,0.0 120.370322,23.723563,0.0 120.370262,23.724238,0.0 120.370134,23.724804,0.0 120.370184,23.725366,0.0 120.370194,23.726228,0.0 120.370233,23.726908,0.0 120.370359,23.727541,0.0 120.370504,23.728178,0.0 120.370486,23.728988,0.0 120.370619,23.729526,0.0 120.370683,23.730176,0.0 120.370718,23.730716,0.0 120.371128,23.731345,0.0 120.371626,23.732153,0.0 120.372172,23.733081,0.0 120.372479,23.733601,0.0 120.372698,23.733984,0.0 120.370391,23.733771,0.0 120.36798,23.732224,0.0 120.367424,23.730906,0.0 120.366197,23.730573,0.0 120.36596,23.730579,0.0 120.364751,23.730475,0.0 120.36242,23.728219,0.0</coordinates></LinearRing></outerBoundaryIs></Polygon><styleUrl>#spolygon-map</styleUrl></Placemark><Placemark><Polygon><outerBoundaryIs><LinearRing><coordinates>120.353087,23.706035,0.0 120.349947,23.703429,0.0 120.35045,23.699087,0.0 120.352869,23.697149,0.0 120.361728,23.69855,0.0 120.360222,23.705128,0.0 120.35454,23.705768,0.0 120.353087,23.706035,0.0</coordinates></LinearRing></outerBoundaryIs></Polygon><styleUrl>#spolygon-map</styleUrl></Placemark><Placemark><Polygon><outerBoundaryIs><LinearRing><coordinates>120.362271,23.7048,0.0 120.360813,23.694835,0.0 120.366259,23.693622,0.0 120.374036,23.692214,0.0 120.37598,23.693994,0.0 120.375801,23.694557,0.0 120.375744,23.695119,0.0 120.375735,23.695884,0.0 120.375507,23.696222,0.0 120.375037,23.696507,0.0 120.374949,23.696985,0.0 120.374984,23.697509,0.0 120.375068,23.698162,0.0 120.375178,23.699013,0.0 120.375258,23.700214,0.0 120.375278,23.700788,0.0 120.375536,23.70166,0.0 120.375584,23.702259,0.0 120.375491,23.702823,0.0 120.37628,23.702568,0.0 120.37647,23.703364,0.0 120.377101,23.704373,0.0 120.377844,23.705367,0.0 120.378268,23.706852,0.0 120.378223,23.707962,0.0 120.378193,23.708822,0.0 120.378426,23.709593,0.0 120.378335,23.710536,0.0 120.378556,23.712244,0.0 120.378706,23.713445,0.0 120.377051,23.713547,0.0 120.375738,23.713623,0.0 120.373812,23.713737,0.0 120.371844,23.713846,0.0 120.370552,23.713902,0.0 120.370058,23.711659,0.0 120.366566,23.710552,0.0 120.36229,23.704981,0.0 120.362271,23.7048,0.0</coordinates></LinearRing></outerBoundaryIs></Polygon><styleUrl>#spolygon-map</styleUrl></Placemark><Placemark><Polygon><outerBoundaryIs><LinearRing><coordinates>120.393341,23.682313,0.0 120.389852,23.677541,0.0 120.387215,23.674704,0.0 120.389826,23.67487,0.0 120.391318,23.675955,0.0 120.393544,23.67895,0.0 120.397111,23.679533,0.0 120.396809,23.679654,0.0 120.396586,23.680303,0.0 120.39635,23.681088,0.0 120.395943,23.682059,0.0 120.395456,23.68273,0.0 120.394843,23.68321,0.0 120.394362,23.683299,0.0 120.393988,23.682918,0.0 120.393538,23.682487,0.0 120.393341,23.682313,0.0</coordinates></LinearRing></outerBoundaryIs></Polygon><styleUrl>#spolygon-map</styleUrl></Placemark><Placemark><Polygon><outerBoundaryIs><LinearRing><coordinates>120.343115,23.685688,0.0 120.3428,23.685375,0.0 120.342272,23.684746,0.0 120.342183,23.684208,0.0 120.341895,23.683207,0.0 120.341621,23.682131,0.0 120.340134,23.682411,0.0 120.339284,23.682579,0.0 120.338966,23.682531,0.0 120.338935,23.681806,0.0 120.338724,23.681168,0.0 120.338392,23.680819,0.0 120.338038,23.679777,0.0 120.338046,23.67887,0.0 120.338081,23.67757,0.0 120.338167,23.676852,0.0 120.339239,23.676877,0.0 120.340781,23.676856,0.0 120.340817,23.675353,0.0 120.340847,23.673712,0.0 120.340862,23.672328,0.0 120.341079,23.671165,0.0 120.342869,23.67119,0.0 120.342985,23.67008,0.0 120.3427,23.668894,0.0 120.342277,23.667133,0.0 120.341985,23.665794,0.0 120.342153,23.665216,0.0 120.34284,23.664592,0.0 120.343225,23.663943,0.0 120.343758,23.662754,0.0 120.344932,23.663072,0.0 120.346581,23.664391,0.0 120.348253,23.665177,0.0 120.349534,23.66592,0.0 120.356223,23.666926,0.0 120.357849,23.667108,0.0 120.363036,23.666455,0.0 120.36691,23.667435,0.0 120.366795,23.670333,0.0 120.368165,23.67177,0.0 120.370144,23.671638,0.0 120.369448,23.672985,0.0 120.374007,23.674087,0.0 120.376131,23.675556,0.0 120.373635,23.676774,0.0 120.371089,23.676994,0.0 120.369833,23.678549,0.0 120.362418,23.680049,0.0 120.358332,23.679648,0.0 120.355093,23.678619,0.0 120.351034,23.67936,0.0 120.348316,23.68025,0.0 120.346571,23.682041,0.0 120.343285,23.685669,0.0 120.343115,23.685688,0.0</coordinates></LinearRing></outerBoundaryIs></Polygon><styleUrl>#spolygon-map</styleUrl></Placemark><Placemark><Polygon><outerBoundaryIs><LinearRing><coordinates>120.334402,23.700367,0.0 120.334158,23.698555,0.0 120.334055,23.697824,0.0 120.333861,23.697116,0.0 120.333734,23.696479,0.0 120.333631,23.695824,0.0 120.334032,23.695503,0.0 120.334365,23.695134,0.0 120.334786,23.694876,0.0 120.335045,23.694622,0.0 120.33491,23.694012,0.0 120.335225,23.693458,0.0 120.335628,23.692939,0.0 120.336111,23.69253,0.0 120.336419,23.692152,0.0 120.336623,23.691679,0.0 120.336947,23.691163,0.0 120.337301,23.690837,0.0 120.337692,23.690582,0.0 120.338278,23.69016,0.0 120.338606,23.689947,0.0 120.339043,23.689673,0.0 120.339397,23.68944,0.0 120.339837,23.689063,0.0 120.34021,23.688728,0.0 120.34055,23.68837,0.0 120.340892,23.687999,0.0 120.341417,23.687473,0.0 120.341763,23.6871,0.0 120.342139,23.686682,0.0 120.342569,23.686239,0.0 120.343091,23.685754,0.0 120.343342,23.68561,0.0 120.346941,23.681555,0.0 120.348516,23.680142,0.0 120.35139,23.679253,0.0 120.35526,23.678649,0.0 120.358123,23.680916,0.0 120.359401,23.688709,0.0 120.358454,23.695453,0.0 120.348496,23.698436,0.0 120.342878,23.696739,0.0 120.334402,23.700367,0.0</coordinates></LinearRing></outerBoundaryIs></Polygon><styleUrl>#spolygon-map</styleUrl></Placemark><Placemark><Polygon><outerBoundaryIs><LinearRing><coordinates>120.397111,23.679533,0.0 120.393544,23.67895,0.0 120.392381,23.673952,0.0 120.392033,23.673651,0.0 120.391465,23.672028,0.0 120.390168,23.67105,0.0 120.389571,23.670216,0.0 120.389014,23.669682,0.0 120.386027,23.66469,0.0 120.392393,23.666108,0.0 120.400783,23.67177,0.0 120.405724,23.673871,0.0 120.405521,23.674504,0.0 120.405228,23.675372,0.0 120.404861,23.676208,0.0 120.404522,23.677051,0.0 120.40402,23.677833,0.0 120.403462,23.678282,0.0 120.403133,23.678656,0.0 120.403682,23.679414,0.0 120.40394,23.67997,0.0 120.403702,23.680136,0.0 120.403902,23.680767,0.0 120.403066,23.680603,0.0 120.40151,23.680313,0.0 120.399542,23.679956,0.0 120.397702,23.679644,0.0 120.397111,23.679533,0.0</coordinates></LinearRing></outerBoundaryIs></Polygon><styleUrl>#spolygon-map</styleUrl></Placemark><Placemark><Polygon><outerBoundaryIs><LinearRing><coordinates>120.3871,23.674828,0.0 120.382543,23.668778,0.0 120.386603,23.669965,0.0 120.387605,23.674351,0.0 120.3871,23.674828,0.0</coordinates></LinearRing></outerBoundaryIs></Polygon><styleUrl>#spolygon-map</styleUrl></Placemark><Placemark><Polygon><outerBoundaryIs><LinearRing><coordinates>120.329639,23.745433,0.0 120.330053,23.745175,0.0 120.330418,23.74484,0.0 120.330861,23.744305,0.0 120.331034,23.743714,0.0 120.331298,23.74332,0.0 120.331642,23.742895,0.0 120.332194,23.742451,0.0 120.332747,23.741988,0.0 120.333283,23.74162,0.0 120.334629,23.740784,0.0 120.335473,23.740072,0.0 120.335892,23.739649,0.0 120.33636,23.739292,0.0 120.336936,23.738918,0.0 120.33767,23.738463,0.0 120.338492,23.738062,0.0 120.339348,23.737743,0.0 120.34007,23.737557,0.0 120.3408,23.73746,0.0 120.341971,23.737373,0.0 120.34295,23.737293,0.0 120.343757,23.737234,0.0 120.344449,23.737169,0.0 120.344901,23.736812,0.0 120.34562,23.736142,0.0 120.34655,23.736006,0.0 120.347118,23.73618,0.0 120.34732,23.736646,0.0 120.34727,23.737082,0.0 120.347406,23.737662,0.0 120.348036,23.737855,0.0 120.348615,23.738096,0.0 120.349841,23.738524,0.0 120.350379,23.738551,0.0 120.350889,23.738253,0.0 120.351418,23.737826,0.0 120.351896,23.737412,0.0 120.352386,23.736832,0.0 120.353596,23.735038,0.0 120.355591,23.735218,0.0 120.356729,23.735148,0.0 120.356842,23.733704,0.0 120.358472,23.731033,0.0 120.361065,23.727823,0.0 120.364456,23.730198,0.0 120.365828,23.730682,0.0 120.36609,23.730534,0.0 120.367021,23.731294,0.0 120.367801,23.731523,0.0 120.369253,23.733471,0.0 120.371535,23.734177,0.0 120.372798,23.73414,0.0 120.373146,23.734222,0.0 120.373698,23.733789,0.0 120.374132,23.733396,0.0 120.374887,23.732889,0.0 120.375581,23.73244,0.0 120.376399,23.731938,0.0 120.377177,23.731381,0.0 120.377763,23.731056,0.0 120.378353,23.731137,0.0 120.378931,23.73141,0.0 120.379608,23.731698,0.0 120.380296,23.731795,0.0 120.380935,23.731588,0.0 120.381258,23.732004,0.0 120.38161,23.73269,0.0 120.381962,23.733303,0.0 120.382188,23.734078,0.0 120.382226,23.73481,0.0 120.382055,23.735391,0.0 120.381727,23.735923,0.0 120.381134,23.736636,0.0 120.380688,23.73728,0.0 120.380279,23.737752,0.0 120.380103,23.73832,0.0 120.379643,23.738623,0.0 120.379393,23.739173,0.0 120.378972,23.739889,0.0 120.378471,23.740393,0.0 120.377714,23.741051,0.0 120.377285,23.741386,0.0 120.376873,23.741371,0.0 120.376553,23.742221,0.0 120.376183,23.743339,0.0 120.37577,23.744594,0.0 120.375507,23.745354,0.0 120.375221,23.746217,0.0 120.374443,23.746386,0.0 120.373488,23.746298,0.0 120.372852,23.746131,0.0 120.372356,23.745811,0.0 120.371638,23.745354,0.0 120.371135,23.745011,0.0 120.370474,23.744715,0.0 120.369778,23.744566,0.0 120.369177,23.744473,0.0 120.36825,23.744365,0.0 120.36745,23.744235,0.0 120.366326,23.743838,0.0 120.36548,23.743476,0.0 120.364513,23.743162,0.0 120.363466,23.742953,0.0 120.362594,23.742881,0.0 120.361525,23.742796,0.0 120.36098,23.742669,0.0 120.359993,23.742636,0.0 120.359139,23.742605,0.0 120.358552,23.742578,0.0 120.357942,23.742801,0.0 120.357326,23.743042,0.0 120.356938,23.743571,0.0 120.356442,23.743842,0.0 120.355668,23.743932,0.0 120.355018,23.74397,0.0 120.354466,23.743778,0.0 120.353864,23.743565,0.0 120.353227,23.74328,0.0 120.352667,23.74312,0.0 120.351687,23.742969,0.0 120.351097,23.742858,0.0 120.350566,23.742723,0.0 120.350106,23.74292,0.0 120.34957,23.743161,0.0 120.349143,23.743365,0.0 120.34919,23.744155,0.0 120.349074,23.74464,0.0 120.348405,23.745039,0.0 120.347738,23.745131,0.0 120.34733,23.745414,0.0 120.346413,23.745988,0.0 120.345678,23.746355,0.0 120.344916,23.746523,0.0 120.34382,23.746925,0.0 120.343112,23.747249,0.0 120.342226,23.747548,0.0 120.341248,23.74758,0.0 120.340326,23.747596,0.0 120.339631,23.747842,0.0 120.339473,23.748249,0.0 120.33872,23.748314,0.0 120.337542,23.748291,0.0 120.336603,23.748251,0.0 120.336011,23.748153,0.0 120.334704,23.74806,0.0 120.333171,23.747922,0.0 120.332505,23.748012,0.0 120.331897,23.748068,0.0 120.331156,23.748031,0.0 120.330831,23.747677,0.0 120.330666,23.747318,0.0 120.330571,23.746814,0.0 120.33046,23.746299,0.0 120.3302,23.746002,0.0 120.329787,23.745743,0.0 120.329639,23.745433,0.0</coordinates></LinearRing></outerBoundaryIs></Polygon><styleUrl>#spolygon-map</styleUrl></Placemark><Placemark><Polygon><outerBoundaryIs><LinearRing><coordinates>120.405743,23.673832,0.0 120.400089,23.671402,0.0 120.39128,23.665322,0.0 120.384886,23.664543,0.0 120.378992,23.66347,0.0 120.379349,23.653582,0.0 120.379653,23.653461,0.0 120.380161,23.653621,0.0 120.381,23.653622,0.0 120.381663,23.653559,0.0 120.382941,23.653323,0.0 120.384029,23.653034,0.0 120.385042,23.652692,0.0 120.385923,23.652274,0.0 120.387449,23.651519,0.0 120.387955,23.65202,0.0 120.389012,23.653169,0.0 120.390054,23.654328,0.0 120.391163,23.655543,0.0 120.392187,23.656603,0.0 120.39364,23.657995,0.0 120.394429,23.658727,0.0 120.395489,23.659718,0.0 120.39623,23.660439,0.0 120.396664,23.660899,0.0 120.397154,23.661445,0.0 120.397479,23.661863,0.0 120.397913,23.662319,0.0 120.398319,23.662767,0.0 120.398743,23.663096,0.0 120.399088,23.66333,0.0 120.399892,23.66385,0.0 120.400588,23.664284,0.0 120.401386,23.664795,0.0 120.402194,23.665308,0.0 120.402994,23.665817,0.0 120.403795,23.666328,0.0 120.404466,23.66676,0.0 120.405263,23.667268,0.0 120.406493,23.668061,0.0 120.407343,23.668608,0.0 120.406903,23.669338,0.0 120.406298,23.670356,0.0 120.405869,23.671061,0.0 120.406234,23.671487,0.0 120.406503,23.671966,0.0 120.40634,23.672535,0.0 120.405992,23.673244,0.0 120.405743,23.673832,0.0</coordinates></LinearRing></outerBoundaryIs></Polygon><styleUrl>#spolygon-map</styleUrl></Placemark><Placemark><Polygon><outerBoundaryIs><LinearRing><coordinates>120.343771,23.662569,0.0 120.343671,23.662078,0.0 120.343106,23.660656,0.0 120.342684,23.659582,0.0 120.342145,23.658151,0.0 120.341775,23.657233,0.0 120.341494,23.656455,0.0 120.341425,23.655768,0.0 120.341325,23.654863,0.0 120.341243,23.654095,0.0 120.341364,23.653504,0.0 120.342183,23.65337,0.0 120.342369,23.652973,0.0 120.342011,23.65176,0.0 120.341934,23.651215,0.0 120.342018,23.650577,0.0 120.342082,23.649934,0.0 120.342162,23.649178,0.0 120.342117,23.648478,0.0 120.342111,23.647891,0.0 120.34205,23.647008,0.0 120.34157,23.646222,0.0 120.34115,23.645496,0.0 120.341081,23.644807,0.0 120.341035,23.644295,0.0 120.340965,23.643829,0.0 120.34135,23.643944,0.0 120.341771,23.644524,0.0 120.342141,23.645193,0.0 120.342674,23.645527,0.0 120.343207,23.645604,0.0 120.34346,23.646115,0.0 120.34418,23.645999,0.0 120.344965,23.645873,0.0 120.345133,23.645025,0.0 120.345918,23.645063,0.0 120.346531,23.645438,0.0 120.347278,23.645779,0.0 120.348011,23.646078,0.0 120.349446,23.646527,0.0 120.350484,23.646845,0.0 120.351602,23.647152,0.0 120.352296,23.647037,0.0 120.353036,23.646977,0.0 120.354104,23.647072,0.0 120.355153,23.647067,0.0 120.355758,23.647205,0.0 120.356405,23.647655,0.0 120.357778,23.648135,0.0 120.358384,23.648311,0.0 120.359076,23.648434,0.0 120.359706,23.648574,0.0 120.360337,23.648721,0.0 120.360977,23.648886,0.0 120.36162,23.64899,0.0 120.362107,23.64913,0.0 120.362779,23.649329,0.0 120.363351,23.64949,0.0 120.364278,23.649791,0.0 120.364879,23.650004,0.0 120.365484,23.650182,0.0 120.366119,23.650354,0.0 120.366865,23.650628,0.0 120.367576,23.6508,0.0 120.368077,23.650974,0.0 120.368892,23.651246,0.0 120.369364,23.651365,0.0 120.36993,23.651584,0.0 120.370815,23.651838,0.0 120.371535,23.651984,0.0 120.372273,23.652257,0.0 120.372687,23.652408,0.0 120.37313,23.652633,0.0 120.373669,23.652994,0.0 120.374439,23.653336,0.0 120.375135,23.653508,0.0 120.375714,23.653569,0.0 120.376545,23.653582,0.0 120.377026,23.65357,0.0 120.377671,23.653523,0.0 120.378305,23.653578,0.0 120.379294,23.653557,0.0 120.378649,23.657866,0.0 120.377025,23.659417,0.0 120.369167,23.660358,0.0 120.365885,23.662358,0.0 120.361236,23.662612,0.0 120.361809,23.664233,0.0 120.359673,23.666755,0.0 120.356974,23.667109,0.0 120.349823,23.666075,0.0 120.348441,23.665254,0.0 120.346638,23.664425,0.0 120.34514,23.66315,0.0 120.343771,23.662569,0.0</coordinates></LinearRing></outerBoundaryIs></Polygon><styleUrl>#spolygon-map</styleUrl></Placemark><Placemark><Polygon><outerBoundaryIs><LinearRing><coordinates>120.376061,23.676684,0.0 120.375957,23.674305,0.0 120.369964,23.673429,0.0 120.370224,23.672069,0.0 120.36928,23.671135,0.0 120.367306,23.671847,0.0 120.366993,23.667844,0.0 120.366003,23.666921,0.0 120.361375,23.663902,0.0 120.362387,23.662132,0.0 120.366829,23.66266,0.0 120.372615,23.660045,0.0 120.37781,23.659138,0.0 120.379057,23.657901,0.0 120.379526,23.663928,0.0 120.38678,23.669849,0.0 120.382858,23.668628,0.0 120.386799,23.67333,0.0 120.383841,23.678476,0.0 120.383111,23.67774,0.0 120.378418,23.676646,0.0 120.376061,23.676684,0.0</coordinates></LinearRing></outerBoundaryIs></Polygon><styleUrl>#spolygon-map</styleUrl></Placemark></Document>
</kml>
