<?xml version="1.0" encoding="UTF-8"?>
<kml xmlns="http://www.opengis.net/kml/2.2">
	<Document>
		<name>高雄市林園區</name>
		<Style id="spolygon">
			<LabelStyle>
				<scale>0.0</scale>
			</LabelStyle>
			<LineStyle>
				<color>330030ff</color>
				<width>0</width>
			</LineStyle>
			<PolyStyle>
				<color>330030ff</color>
			</PolyStyle>
		</Style>
		<StyleMap id="spolygon-map">
			<Pair>
				<key>normal</key>
				<styleUrl>#spolygon</styleUrl>
			</Pair>
		</StyleMap>
	<Placemark><Polygon><outerBoundaryIs><LinearRing><coordinates>120.397372,22.50665,0.0 120.397001,22.507393,0.0 120.396058,22.506667,0.0 120.395081,22.505891,0.0 120.394291,22.505055,0.0 120.393954,22.504645,0.0 120.394123,22.5041,0.0 120.394944,22.503778,0.0 120.395461,22.502565,0.0 120.395979,22.501822,0.0 120.396406,22.499873,0.0 120.397278,22.498795,0.0 120.398416,22.49567,0.0 120.400203,22.496232,0.0 120.400189,22.497324,0.0 120.399899,22.498321,0.0 120.400259,22.499792,0.0 120.400047,22.501397,0.0 120.400339,22.502561,0.0 120.400102,22.504059,0.0 120.398198,22.506407,0.0 120.397372,22.50665,0.0</coordinates></LinearRing></outerBoundaryIs></Polygon><styleUrl>#spolygon-map</styleUrl></Placemark><Placemark><Polygon><outerBoundaryIs><LinearRing><coordinates>120.399326,22.513249,0.0 120.395932,22.517863,0.0 120.395243,22.515201,0.0 120.394751,22.51092,0.0 120.392562,22.510799,0.0 120.392425,22.509462,0.0 120.392268,22.508123,0.0 120.392247,22.506723,0.0 120.392417,22.505389,0.0 120.393608,22.503998,0.0 120.394001,22.504673,0.0 120.394439,22.505546,0.0 120.39535,22.505958,0.0 120.396153,22.506968,0.0 120.397097,22.507227,0.0 120.398198,22.506407,0.0 120.399545,22.507789,0.0 120.400071,22.509999,0.0 120.399376,22.513247,0.0 120.399326,22.513249,0.0</coordinates></LinearRing></outerBoundaryIs></Polygon><styleUrl>#spolygon-map</styleUrl></Placemark><Placemark><Polygon><outerBoundaryIs><LinearRing><coordinates>120.422837,22.517557,0.0 120.412937,22.520644,0.0 120.408674,22.521489,0.0 120.405515,22.522577,0.0 120.402869,22.521264,0.0 120.399982,22.51735,0.0 120.399362,22.513247,0.0 120.400186,22.510234,0.0 120.399558,22.507854,0.0 120.404567,22.508686,0.0 120.404936,22.509346,0.0 120.406832,22.50067,0.0 120.409325,22.498342,0.0 120.414921,22.497805,0.0 120.425588,22.498851,0.0 120.424947,22.500993,0.0 120.424311,22.503411,0.0 120.423791,22.505967,0.0 120.42343,22.508488,0.0 120.422999,22.511496,0.0 120.422876,22.51402,0.0 120.422823,22.516358,0.0 120.422837,22.517557,0.0</coordinates></LinearRing></outerBoundaryIs></Polygon><styleUrl>#spolygon-map</styleUrl></Placemark><Placemark><Polygon><outerBoundaryIs><LinearRing><coordinates>120.427454,22.534279,0.0 120.420791,22.534056,0.0 120.418341,22.533948,0.0 120.416899,22.533065,0.0 120.415335,22.533364,0.0 120.414418,22.533365,0.0 120.413034,22.531802,0.0 120.408552,22.526254,0.0 120.406485,22.526667,0.0 120.401664,22.52769,0.0 120.40031,22.526709,0.0 120.398885,22.526632,0.0 120.398081,22.527062,0.0 120.397524,22.527247,0.0 120.396099,22.527172,0.0 120.394439,22.526868,0.0 120.392713,22.525972,0.0 120.391766,22.526063,0.0 120.391083,22.525528,0.0 120.390646,22.524542,0.0 120.389595,22.523686,0.0 120.390057,22.523424,0.0 120.390623,22.523015,0.0 120.391564,22.520939,0.0 120.393246,22.518851,0.0 120.395663,22.517571,0.0 120.399435,22.517409,0.0 120.402418,22.52012,0.0 120.405166,22.522693,0.0 120.408105,22.521608,0.0 120.412385,22.520746,0.0 120.42342,22.520413,0.0 120.424349,22.523277,0.0 120.424725,22.52543,0.0 120.425053,22.527953,0.0 120.425728,22.530177,0.0 120.426933,22.532995,0.0 120.427454,22.534279,0.0</coordinates></LinearRing></outerBoundaryIs></Polygon><styleUrl>#spolygon-map</styleUrl></Placemark><Placemark><Polygon><outerBoundaryIs><LinearRing><coordinates>120.395544,22.532394,0.0 120.393758,22.532902,0.0 120.389758,22.532689,0.0 120.388067,22.532269,0.0 120.387314,22.532183,0.0 120.386084,22.532273,0.0 120.385325,22.532055,0.0 120.384083,22.531852,0.0 120.383093,22.531108,0.0 120.382221,22.53047,0.0 120.383759,22.529541,0.0 120.384295,22.529031,0.0 120.38728,22.52869,0.0 120.388406,22.527942,0.0 120.389367,22.52714,0.0 120.3917,22.527422,0.0 120.39315,22.527233,0.0 120.394818,22.526813,0.0 120.396938,22.527354,0.0 120.397634,22.527194,0.0 120.39812,22.527015,0.0 120.39933,22.527121,0.0 120.400985,22.526411,0.0 120.403162,22.52807,0.0 120.405838,22.529536,0.0 120.403485,22.531173,0.0 120.401462,22.530951,0.0 120.399442,22.531562,0.0 120.397466,22.531966,0.0 120.396421,22.532651,0.0 120.395544,22.532394,0.0</coordinates></LinearRing></outerBoundaryIs></Polygon><styleUrl>#spolygon-map</styleUrl></Placemark><Placemark><Polygon><outerBoundaryIs><LinearRing><coordinates>120.369002,22.514009,0.0 120.367546,22.514189,0.0 120.366425,22.515783,0.0 120.365736,22.515767,0.0 120.365332,22.515318,0.0 120.364517,22.514091,0.0 120.364054,22.513096,0.0 120.363564,22.512622,0.0 120.363425,22.512078,0.0 120.363365,22.51126,0.0 120.362583,22.510543,0.0 120.362736,22.510147,0.0 120.361721,22.509962,0.0 120.361241,22.509091,0.0 120.361113,22.508314,0.0 120.36028,22.507746,0.0 120.362741,22.505615,0.0 120.365174,22.504036,0.0 120.367137,22.502438,0.0 120.368097,22.501792,0.0 120.368817,22.502643,0.0 120.368875,22.502623,0.0 120.368509,22.50168,0.0 120.368749,22.501266,0.0 120.370097,22.5003,0.0 120.371091,22.499695,0.0 120.372668,22.498247,0.0 120.373274,22.497601,0.0 120.374098,22.497243,0.0 120.374874,22.500743,0.0 120.375024,22.501516,0.0 120.375067,22.502408,0.0 120.375048,22.503031,0.0 120.375637,22.504323,0.0 120.373347,22.50651,0.0 120.373439,22.507588,0.0 120.372138,22.509969,0.0 120.371263,22.512282,0.0 120.369997,22.513941,0.0 120.369002,22.514009,0.0</coordinates></LinearRing></outerBoundaryIs></Polygon><styleUrl>#spolygon-map</styleUrl></Placemark><Placemark><Polygon><outerBoundaryIs><LinearRing><coordinates>120.381123,22.505516,0.0 120.381039,22.507066,0.0 120.381409,22.508644,0.0 120.378971,22.507986,0.0 120.375132,22.50603,0.0 120.375287,22.503168,0.0 120.375103,22.502546,0.0 120.375145,22.502022,0.0 120.374927,22.501075,0.0 120.378854,22.500009,0.0 120.381039,22.499625,0.0 120.381327,22.498802,0.0 120.382775,22.498676,0.0 120.383877,22.498742,0.0 120.384657,22.50012,0.0 120.384186,22.500908,0.0 120.385839,22.500508,0.0 120.388632,22.500254,0.0 120.389394,22.501698,0.0 120.390173,22.503037,0.0 120.388178,22.503553,0.0 120.386316,22.503659,0.0 120.385059,22.503819,0.0 120.382921,22.503621,0.0 120.381843,22.504069,0.0 120.381969,22.504756,0.0 120.381314,22.505514,0.0 120.381123,22.505516,0.0</coordinates></LinearRing></outerBoundaryIs></Polygon><styleUrl>#spolygon-map</styleUrl></Placemark><Placemark><Polygon><outerBoundaryIs><LinearRing><coordinates>120.385447,22.498091,0.0 120.38651,22.500016,0.0 120.384301,22.501407,0.0 120.384562,22.50067,0.0 120.384196,22.4993,0.0 120.383508,22.49807,0.0 120.382551,22.498515,0.0 120.381305,22.499585,0.0 120.380423,22.499733,0.0 120.376501,22.500449,0.0 120.374172,22.497548,0.0 120.374648,22.496805,0.0 120.37585,22.49608,0.0 120.376814,22.495317,0.0 120.377507,22.495037,0.0 120.378275,22.494473,0.0 120.379033,22.494162,0.0 120.37987,22.493786,0.0 120.380048,22.493758,0.0 120.379895,22.494154,0.0 120.379965,22.494392,0.0 120.379811,22.494522,0.0 120.379838,22.494926,0.0 120.380245,22.495233,0.0 120.380967,22.49538,0.0 120.381819,22.496709,0.0 120.382089,22.497692,0.0 120.382325,22.498115,0.0 120.382112,22.496624,0.0 120.382004,22.496009,0.0 120.381611,22.495346,0.0 120.381599,22.495023,0.0 120.381964,22.495084,0.0 120.382917,22.497006,0.0 120.383721,22.497648,0.0 120.385135,22.497545,0.0 120.385447,22.498091,0.0</coordinates></LinearRing></outerBoundaryIs></Polygon><styleUrl>#spolygon-map</styleUrl></Placemark><Placemark><Polygon><outerBoundaryIs><LinearRing><coordinates>120.392437,22.497151,0.0 120.388319,22.496476,0.0 120.386179,22.492693,0.0 120.385088,22.491341,0.0 120.385892,22.489773,0.0 120.38947,22.487553,0.0 120.390807,22.48638,0.0 120.392839,22.485082,0.0 120.394305,22.484508,0.0 120.394419,22.486434,0.0 120.395562,22.489423,0.0 120.396742,22.495022,0.0 120.398413,22.495683,0.0 120.396157,22.498147,0.0 120.39501,22.497407,0.0 120.392993,22.496889,0.0 120.392437,22.497151,0.0</coordinates></LinearRing></outerBoundaryIs></Polygon><styleUrl>#spolygon-map</styleUrl></Placemark><Placemark><Polygon><outerBoundaryIs><LinearRing><coordinates>120.388957,22.499897,0.0 120.38641,22.499842,0.0 120.385242,22.497733,0.0 120.383921,22.497552,0.0 120.383085,22.497321,0.0 120.381875,22.495158,0.0 120.381799,22.494984,0.0 120.381108,22.494764,0.0 120.38046,22.494166,0.0 120.380293,22.494212,0.0 120.380096,22.494011,0.0 120.38019,22.493749,0.0 120.38019,22.493451,0.0 120.381072,22.492671,0.0 120.381579,22.492468,0.0 120.383541,22.491224,0.0 120.385088,22.491341,0.0 120.386179,22.492693,0.0 120.388319,22.496476,0.0 120.389961,22.499406,0.0 120.388957,22.499897,0.0</coordinates></LinearRing></outerBoundaryIs></Polygon><styleUrl>#spolygon-map</styleUrl></Placemark><Placemark><Polygon><outerBoundaryIs><LinearRing><coordinates>120.401472,22.487862,0.0 120.399359,22.489331,0.0 120.398868,22.488234,0.0 120.399348,22.486087,0.0 120.401735,22.48498,0.0 120.406975,22.482622,0.0 120.409937,22.481606,0.0 120.411713,22.481757,0.0 120.413569,22.481186,0.0 120.415699,22.479055,0.0 120.424061,22.477078,0.0 120.42397,22.479153,0.0 120.424032,22.480946,0.0 120.424275,22.483184,0.0 120.42456,22.486021,0.0 120.411073,22.48778,0.0 120.40172,22.487843,0.0 120.401472,22.487862,0.0</coordinates></LinearRing></outerBoundaryIs></Polygon><styleUrl>#spolygon-map</styleUrl></Placemark><Placemark><Polygon><outerBoundaryIs><LinearRing><coordinates>120.398322,22.537211,0.0 120.397424,22.537624,0.0 120.396901,22.537888,0.0 120.395832,22.537624,0.0 120.394747,22.537205,0.0 120.393964,22.536545,0.0 120.393261,22.536899,0.0 120.392473,22.537348,0.0 120.390899,22.536761,0.0 120.390139,22.536637,0.0 120.389653,22.53568,0.0 120.388584,22.535721,0.0 120.387135,22.535284,0.0 120.386505,22.534724,0.0 120.386621,22.533846,0.0 120.385918,22.532796,0.0 120.384447,22.532093,0.0 120.385624,22.532169,0.0 120.3865,22.532322,0.0 120.387726,22.532275,0.0 120.388235,22.532261,0.0 120.391695,22.532872,0.0 120.394162,22.532798,0.0 120.395922,22.532522,0.0 120.396615,22.532536,0.0 120.397997,22.531907,0.0 120.399712,22.531473,0.0 120.402348,22.53069,0.0 120.405286,22.53095,0.0 120.40507,22.527303,0.0 120.407964,22.526013,0.0 120.411535,22.52976,0.0 120.41189,22.532462,0.0 120.406787,22.533899,0.0 120.405016,22.534665,0.0 120.401399,22.536261,0.0 120.401381,22.536893,0.0 120.400651,22.536976,0.0 120.39989,22.537441,0.0 120.399204,22.537576,0.0 120.398641,22.537247,0.0 120.398322,22.537211,0.0</coordinates></LinearRing></outerBoundaryIs></Polygon><styleUrl>#spolygon-map</styleUrl></Placemark><Placemark><Polygon><outerBoundaryIs><LinearRing><coordinates>120.395083,22.514274,0.0 120.395472,22.516897,0.0 120.392813,22.519264,0.0 120.387585,22.516533,0.0 120.389415,22.513783,0.0 120.388361,22.513,0.0 120.387002,22.510442,0.0 120.387959,22.508502,0.0 120.388836,22.50732,0.0 120.388707,22.505596,0.0 120.389837,22.505924,0.0 120.39055,22.507565,0.0 120.390655,22.508505,0.0 120.391736,22.509848,0.0 120.392581,22.511003,0.0 120.394888,22.512167,0.0 120.395083,22.514274,0.0</coordinates></LinearRing></outerBoundaryIs></Polygon><styleUrl>#spolygon-map</styleUrl></Placemark><Placemark><Polygon><outerBoundaryIs><LinearRing><coordinates>120.379123,22.526945,0.0 120.37816,22.527623,0.0 120.376265,22.52709,0.0 120.374337,22.52685,0.0 120.373449,22.526264,0.0 120.372308,22.525282,0.0 120.371468,22.524271,0.0 120.371292,22.523131,0.0 120.371246,22.522855,0.0 120.371216,22.521742,0.0 120.372244,22.519596,0.0 120.373802,22.517442,0.0 120.374072,22.516842,0.0 120.374677,22.51631,0.0 120.374905,22.51594,0.0 120.374761,22.515111,0.0 120.37493,22.514789,0.0 120.374872,22.514335,0.0 120.375685,22.513582,0.0 120.378468,22.510251,0.0 120.380091,22.509311,0.0 120.380833,22.508659,0.0 120.382211,22.509428,0.0 120.382983,22.510411,0.0 120.385034,22.512967,0.0 120.383917,22.51532,0.0 120.382723,22.515564,0.0 120.381805,22.516899,0.0 120.382025,22.517738,0.0 120.382292,22.518558,0.0 120.380839,22.520368,0.0 120.379189,22.522854,0.0 120.379487,22.523372,0.0 120.380343,22.524096,0.0 120.379396,22.525865,0.0 120.379123,22.526945,0.0</coordinates></LinearRing></outerBoundaryIs></Polygon><styleUrl>#spolygon-map</styleUrl></Placemark><Placemark><Polygon><outerBoundaryIs><LinearRing><coordinates>120.373504,22.517495,0.0 120.371314,22.521029,0.0 120.371253,22.52241,0.0 120.370934,22.522325,0.0 120.370083,22.521453,0.0 120.368692,22.520558,0.0 120.366737,22.518843,0.0 120.366265,22.518054,0.0 120.366663,22.516987,0.0 120.366367,22.516449,0.0 120.3667,22.51547,0.0 120.367769,22.514122,0.0 120.369806,22.513943,0.0 120.370973,22.512735,0.0 120.372197,22.510714,0.0 120.372659,22.508341,0.0 120.374397,22.507124,0.0 120.375132,22.50603,0.0 120.378971,22.507986,0.0 120.381409,22.508644,0.0 120.380009,22.509182,0.0 120.379021,22.50998,0.0 120.376981,22.5123,0.0 120.375055,22.514331,0.0 120.374762,22.514581,0.0 120.37478,22.515057,0.0 120.374926,22.515751,0.0 120.37482,22.516261,0.0 120.374246,22.516511,0.0 120.373915,22.5173,0.0 120.373504,22.517495,0.0</coordinates></LinearRing></outerBoundaryIs></Polygon><styleUrl>#spolygon-map</styleUrl></Placemark><Placemark><Polygon><outerBoundaryIs><LinearRing><coordinates>120.398868,22.488234,0.0 120.398213,22.48969,0.0 120.397822,22.488623,0.0 120.39734,22.487278,0.0 120.397115,22.486966,0.0 120.396827,22.485249,0.0 120.396768,22.484607,0.0 120.396775,22.483417,0.0 120.397309,22.48313,0.0 120.397096,22.483085,0.0 120.39665,22.48227,0.0 120.396666,22.477716,0.0 120.396822,22.477868,0.0 120.397141,22.480859,0.0 120.398611,22.480749,0.0 120.39872,22.480993,0.0 120.398303,22.482488,0.0 120.398595,22.486971,0.0 120.398868,22.488234,0.0</coordinates></LinearRing></outerBoundaryIs></Polygon><styleUrl>#spolygon-map</styleUrl></Placemark><Placemark><Polygon><outerBoundaryIs><LinearRing><coordinates>120.398416,22.49567,0.0 120.397527,22.494779,0.0 120.395549,22.489477,0.0 120.394606,22.486934,0.0 120.394298,22.484514,0.0 120.396493,22.482118,0.0 120.39708,22.483012,0.0 120.397287,22.483128,0.0 120.397156,22.483356,0.0 120.396856,22.484603,0.0 120.396767,22.485043,0.0 120.397064,22.48643,0.0 120.397318,22.487242,0.0 120.397435,22.487601,0.0 120.398072,22.489306,0.0 120.400151,22.492181,0.0 120.400614,22.494063,0.0 120.400266,22.495123,0.0 120.398416,22.49567,0.0</coordinates></LinearRing></outerBoundaryIs></Polygon><styleUrl>#spolygon-map</styleUrl></Placemark><Placemark><Polygon><outerBoundaryIs><LinearRing><coordinates>120.413391,22.478557,0.0 120.41237,22.47835,0.0 120.411731,22.477971,0.0 120.411834,22.476944,0.0 120.412383,22.476009,0.0 120.41381,22.475693,0.0 120.414752,22.476453,0.0 120.4142,22.477968,0.0 120.413701,22.478325,0.0 120.413391,22.478557,0.0</coordinates></LinearRing></outerBoundaryIs></Polygon><styleUrl>#spolygon-map</styleUrl></Placemark><Placemark><Polygon><outerBoundaryIs><LinearRing><coordinates>120.401903,22.482716,0.0 120.401162,22.482407,0.0 120.39872,22.480993,0.0 120.399127,22.480602,0.0 120.399213,22.480374,0.0 120.399532,22.480642,0.0 120.400664,22.480007,0.0 120.400051,22.478576,0.0 120.399311,22.478085,0.0 120.399757,22.478116,0.0 120.399635,22.477147,0.0 120.400855,22.479317,0.0 120.40309,22.479054,0.0 120.404958,22.478196,0.0 120.406694,22.477623,0.0 120.409134,22.476724,0.0 120.411821,22.476122,0.0 120.411855,22.47707,0.0 120.411653,22.477925,0.0 120.410937,22.477667,0.0 120.410257,22.477419,0.0 120.408468,22.477505,0.0 120.40802,22.478273,0.0 120.405718,22.479493,0.0 120.405107,22.480028,0.0 120.404026,22.480051,0.0 120.403676,22.482086,0.0 120.403218,22.482778,0.0 120.401903,22.482716,0.0</coordinates></LinearRing></outerBoundaryIs></Polygon><styleUrl>#spolygon-map</styleUrl></Placemark><Placemark><Polygon><outerBoundaryIs><LinearRing><coordinates>120.392458,22.509772,0.0 120.390745,22.509205,0.0 120.390598,22.507918,0.0 120.389897,22.506601,0.0 120.389393,22.505554,0.0 120.388494,22.503889,0.0 120.390385,22.503099,0.0 120.391557,22.503293,0.0 120.393002,22.503892,0.0 120.392327,22.505818,0.0 120.392236,22.507052,0.0 120.392334,22.508556,0.0 120.392458,22.509772,0.0</coordinates></LinearRing></outerBoundaryIs></Polygon><styleUrl>#spolygon-map</styleUrl></Placemark><Placemark><Polygon><outerBoundaryIs><LinearRing><coordinates>120.395315,22.503158,0.0 120.394565,22.504022,0.0 120.393608,22.503998,0.0 120.391557,22.503293,0.0 120.390385,22.503099,0.0 120.38965,22.50211,0.0 120.38873,22.500541,0.0 120.390026,22.499894,0.0 120.390952,22.497852,0.0 120.393877,22.497093,0.0 120.396023,22.498356,0.0 120.39788,22.497876,0.0 120.396498,22.499528,0.0 120.396177,22.501236,0.0 120.395849,22.502697,0.0 120.395315,22.503158,0.0</coordinates></LinearRing></outerBoundaryIs></Polygon><styleUrl>#spolygon-map</styleUrl></Placemark><Placemark><Polygon><outerBoundaryIs><LinearRing><coordinates>120.382084,22.530544,0.0 120.381635,22.529806,0.0 120.380224,22.528324,0.0 120.379097,22.52769,0.0 120.379153,22.526412,0.0 120.380069,22.524887,0.0 120.379991,22.523433,0.0 120.379095,22.523116,0.0 120.380097,22.521605,0.0 120.382247,22.51908,0.0 120.381982,22.518065,0.0 120.381957,22.517184,0.0 120.382398,22.515892,0.0 120.38358,22.515601,0.0 120.384504,22.513189,0.0 120.383892,22.510951,0.0 120.382414,22.509663,0.0 120.381295,22.507663,0.0 120.381115,22.506166,0.0 120.381319,22.505322,0.0 120.382003,22.50444,0.0 120.381984,22.503503,0.0 120.383615,22.503669,0.0 120.385298,22.503804,0.0 120.386643,22.503656,0.0 120.388494,22.503889,0.0 120.388719,22.505933,0.0 120.388736,22.507692,0.0 120.387588,22.508886,0.0 120.386364,22.511559,0.0 120.388988,22.513323,0.0 120.389855,22.514221,0.0 120.390409,22.519194,0.0 120.390634,22.522252,0.0 120.390432,22.523331,0.0 120.389445,22.523465,0.0 120.389818,22.523735,0.0 120.390831,22.525168,0.0 120.39168,22.52578,0.0 120.392024,22.526132,0.0 120.393471,22.527034,0.0 120.392128,22.527225,0.0 120.390131,22.527048,0.0 120.389289,22.527627,0.0 120.388053,22.528327,0.0 120.386182,22.528864,0.0 120.384016,22.52919,0.0 120.382821,22.530377,0.0 120.382084,22.530544,0.0</coordinates></LinearRing></outerBoundaryIs></Polygon><styleUrl>#spolygon-map</styleUrl></Placemark><Placemark><Polygon><outerBoundaryIs><LinearRing><coordinates>120.404936,22.509346,0.0 120.404567,22.508686,0.0 120.399558,22.507854,0.0 120.399338,22.505045,0.0 120.400363,22.502624,0.0 120.40001,22.501618,0.0 120.400241,22.499916,0.0 120.399877,22.498409,0.0 120.400134,22.497683,0.0 120.400129,22.496744,0.0 120.400348,22.494893,0.0 120.40053,22.493016,0.0 120.399876,22.491053,0.0 120.401262,22.487947,0.0 120.410152,22.487788,0.0 120.424742,22.487988,0.0 120.424946,22.490138,0.0 120.425105,22.492234,0.0 120.425285,22.494957,0.0 120.425711,22.497882,0.0 120.425634,22.49865,0.0 120.414921,22.497805,0.0 120.409325,22.498342,0.0 120.406832,22.50067,0.0 120.404936,22.509346,0.0</coordinates></LinearRing></outerBoundaryIs></Polygon><styleUrl>#spolygon-map</styleUrl></Placemark><Placemark><Polygon><outerBoundaryIs><LinearRing><coordinates>120.405326,22.483372,0.0 120.400813,22.485413,0.0 120.398494,22.486501,0.0 120.398304,22.48247,0.0 120.399308,22.481383,0.0 120.401235,22.482646,0.0 120.40209,22.482708,0.0 120.403439,22.482695,0.0 120.403852,22.481355,0.0 120.404491,22.480159,0.0 120.405417,22.479593,0.0 120.407549,22.478438,0.0 120.408089,22.47821,0.0 120.408777,22.477321,0.0 120.410442,22.477494,0.0 120.411158,22.477716,0.0 120.411754,22.477984,0.0 120.412434,22.47835,0.0 120.413571,22.478469,0.0 120.413784,22.478005,0.0 120.41472,22.476756,0.0 120.414754,22.47581,0.0 120.416499,22.477096,0.0 120.417765,22.478285,0.0 120.413863,22.480462,0.0 120.41225,22.481799,0.0 120.410197,22.481598,0.0 120.408065,22.482132,0.0 120.405326,22.483372,0.0</coordinates></LinearRing></outerBoundaryIs></Polygon><styleUrl>#spolygon-map</styleUrl></Placemark></Document>
</kml>
