<?xml version="1.0" encoding="UTF-8"?>
<kml xmlns="http://www.opengis.net/kml/2.2">
	<Document>
		<name>高雄市湖內區</name>
		<Style id="spolygon">
			<LabelStyle>
				<scale>0.0</scale>
			</LabelStyle>
			<LineStyle>
				<color>330030ff</color>
				<width>0</width>
			</LineStyle>
			<PolyStyle>
				<color>330030ff</color>
			</PolyStyle>
		</Style>
		<StyleMap id="spolygon-map">
			<Pair>
				<key>normal</key>
				<styleUrl>#spolygon</styleUrl>
			</Pair>
		</StyleMap>
	<Placemark><Polygon><outerBoundaryIs><LinearRing><coordinates>120.223632,22.896095,0.0 120.223521,22.896788,0.0 120.22334,22.897238,0.0 120.222612,22.896817,0.0 120.221698,22.896382,0.0 120.220991,22.895811,0.0 120.219599,22.895276,0.0 120.219441,22.894271,0.0 120.219667,22.893231,0.0 120.219936,22.892336,0.0 120.219859,22.891815,0.0 120.219596,22.890673,0.0 120.219276,22.88973,0.0 120.218995,22.888896,0.0 120.218661,22.887781,0.0 120.218483,22.887218,0.0 120.218274,22.887197,0.0 120.218054,22.886392,0.0 120.21779,22.885483,0.0 120.217284,22.884761,0.0 120.216977,22.884339,0.0 120.216733,22.88313,0.0 120.21619,22.883055,0.0 120.218292,22.881463,0.0 120.218345,22.880555,0.0 120.218396,22.878447,0.0 120.218507,22.874887,0.0 120.21863,22.872506,0.0 120.219961,22.871246,0.0 120.220025,22.87063,0.0 120.221024,22.870737,0.0 120.221593,22.871096,0.0 120.222072,22.871487,0.0 120.22258,22.872002,0.0 120.223542,22.872384,0.0 120.224585,22.87263,0.0 120.225202,22.87283,0.0 120.225687,22.874187,0.0 120.226704,22.874862,0.0 120.228655,22.874298,0.0 120.22966,22.876107,0.0 120.2302,22.87832,0.0 120.22828,22.879281,0.0 120.22829,22.880809,0.0 120.229346,22.883307,0.0 120.229811,22.884111,0.0 120.230329,22.884447,0.0 120.231966,22.884931,0.0 120.233662,22.885416,0.0 120.23273,22.889069,0.0 120.231625,22.893391,0.0 120.231349,22.893918,0.0 120.228545,22.894735,0.0 120.22666,22.895065,0.0 120.225473,22.895384,0.0 120.224395,22.895652,0.0 120.223632,22.896095,0.0</coordinates></LinearRing></outerBoundaryIs></Polygon><styleUrl>#spolygon-map</styleUrl></Placemark><Placemark><Polygon><outerBoundaryIs><LinearRing><coordinates>120.219472,22.894933,0.0 120.220752,22.895776,0.0 120.219788,22.895916,0.0 120.218568,22.895572,0.0 120.217022,22.895036,0.0 120.216008,22.894798,0.0 120.215467,22.894732,0.0 120.214344,22.894767,0.0 120.213468,22.894968,0.0 120.211549,22.895485,0.0 120.21068,22.895221,0.0 120.210109,22.894868,0.0 120.210007,22.893346,0.0 120.209913,22.891996,0.0 120.208812,22.892182,0.0 120.208629,22.892012,0.0 120.209293,22.891397,0.0 120.209713,22.890762,0.0 120.210101,22.889861,0.0 120.210462,22.888926,0.0 120.210662,22.88792,0.0 120.210547,22.886931,0.0 120.209729,22.885777,0.0 120.208712,22.885235,0.0 120.207293,22.884494,0.0 120.206733,22.883819,0.0 120.207618,22.883412,0.0 120.20871,22.882932,0.0 120.209419,22.882281,0.0 120.211284,22.882496,0.0 120.214081,22.882076,0.0 120.215982,22.882991,0.0 120.216714,22.883112,0.0 120.216922,22.884077,0.0 120.217149,22.884796,0.0 120.217733,22.8853,0.0 120.21801,22.886193,0.0 120.218263,22.887179,0.0 120.218461,22.887202,0.0 120.218596,22.887521,0.0 120.218926,22.888704,0.0 120.219258,22.889669,0.0 120.219511,22.890418,0.0 120.219819,22.891656,0.0 120.219963,22.892104,0.0 120.219718,22.893026,0.0 120.219464,22.894151,0.0 120.219472,22.894933,0.0</coordinates></LinearRing></outerBoundaryIs></Polygon><styleUrl>#spolygon-map</styleUrl></Placemark><Placemark><Polygon><outerBoundaryIs><LinearRing><coordinates>120.231422,22.910248,0.0 120.231421,22.912033,0.0 120.231618,22.91408,0.0 120.231715,22.915188,0.0 120.230568,22.916589,0.0 120.228457,22.916979,0.0 120.226641,22.916281,0.0 120.225458,22.915005,0.0 120.223621,22.912605,0.0 120.221986,22.910809,0.0 120.222516,22.909631,0.0 120.224371,22.910033,0.0 120.225632,22.909766,0.0 120.228544,22.907014,0.0 120.23101,22.90327,0.0 120.231868,22.901973,0.0 120.234239,22.899522,0.0 120.23692,22.897446,0.0 120.237765,22.898564,0.0 120.237936,22.900095,0.0 120.237088,22.901518,0.0 120.238168,22.902997,0.0 120.23824,22.90458,0.0 120.23616,22.905091,0.0 120.234153,22.905346,0.0 120.232763,22.905682,0.0 120.231899,22.907292,0.0 120.231514,22.909246,0.0 120.231422,22.910248,0.0</coordinates></LinearRing></outerBoundaryIs></Polygon><styleUrl>#spolygon-map</styleUrl></Placemark><Placemark><Polygon><outerBoundaryIs><LinearRing><coordinates>120.22633,22.909462,0.0 120.224703,22.910048,0.0 120.223205,22.909794,0.0 120.222543,22.908969,0.0 120.221744,22.907604,0.0 120.221634,22.906148,0.0 120.222644,22.905211,0.0 120.222381,22.902541,0.0 120.225246,22.900844,0.0 120.227244,22.900238,0.0 120.230081,22.89938,0.0 120.233753,22.899364,0.0 120.232403,22.901233,0.0 120.231402,22.902678,0.0 120.229388,22.905736,0.0 120.22633,22.909462,0.0</coordinates></LinearRing></outerBoundaryIs></Polygon><styleUrl>#spolygon-map</styleUrl></Placemark><Placemark><Polygon><outerBoundaryIs><LinearRing><coordinates>120.222516,22.909631,0.0 120.221011,22.909996,0.0 120.219655,22.909594,0.0 120.216115,22.909949,0.0 120.215211,22.908671,0.0 120.21546,22.906961,0.0 120.215638,22.905506,0.0 120.217639,22.903681,0.0 120.218432,22.904951,0.0 120.221579,22.905662,0.0 120.221684,22.907439,0.0 120.222552,22.908789,0.0 120.222516,22.909631,0.0</coordinates></LinearRing></outerBoundaryIs></Polygon><styleUrl>#spolygon-map</styleUrl></Placemark><Placemark><Polygon><outerBoundaryIs><LinearRing><coordinates>120.255873,22.894017,0.0 120.252558,22.894864,0.0 120.250467,22.895563,0.0 120.251047,22.894802,0.0 120.251391,22.894409,0.0 120.251717,22.893819,0.0 120.251795,22.892133,0.0 120.251813,22.891332,0.0 120.250828,22.890941,0.0 120.24928,22.891218,0.0 120.248369,22.892006,0.0 120.24763,22.892048,0.0 120.246142,22.892865,0.0 120.245642,22.892722,0.0 120.245912,22.892283,0.0 120.2453,22.89222,0.0 120.244739,22.89293,0.0 120.243924,22.893071,0.0 120.24252,22.892513,0.0 120.240112,22.893008,0.0 120.235457,22.893179,0.0 120.231534,22.893772,0.0 120.232396,22.890386,0.0 120.233885,22.887961,0.0 120.235372,22.887693,0.0 120.236458,22.886784,0.0 120.236932,22.886193,0.0 120.238013,22.885981,0.0 120.239865,22.886753,0.0 120.241446,22.887384,0.0 120.241739,22.886209,0.0 120.240727,22.885202,0.0 120.241457,22.884541,0.0 120.243029,22.88275,0.0 120.24437,22.883277,0.0 120.245071,22.883795,0.0 120.24579,22.883878,0.0 120.246184,22.883415,0.0 120.246727,22.883,0.0 120.247417,22.882409,0.0 120.249133,22.881627,0.0 120.251331,22.88138,0.0 120.252476,22.881548,0.0 120.252876,22.882062,0.0 120.252745,22.883121,0.0 120.253899,22.884406,0.0 120.255461,22.884592,0.0 120.256705,22.885094,0.0 120.258301,22.885318,0.0 120.259113,22.885385,0.0 120.259613,22.885625,0.0 120.259647,22.887004,0.0 120.259752,22.88777,0.0 120.260052,22.888318,0.0 120.260326,22.888863,0.0 120.260695,22.889269,0.0 120.260652,22.88982,0.0 120.260819,22.890477,0.0 120.260822,22.89087,0.0 120.260522,22.891268,0.0 120.260234,22.891748,0.0 120.259975,22.892268,0.0 120.259612,22.892878,0.0 120.259473,22.893392,0.0 120.25924,22.894089,0.0 120.259125,22.894881,0.0 120.258673,22.895181,0.0 120.256921,22.894146,0.0 120.255873,22.894017,0.0</coordinates></LinearRing></outerBoundaryIs></Polygon><styleUrl>#spolygon-map</styleUrl></Placemark><Placemark><Polygon><outerBoundaryIs><LinearRing><coordinates>120.248364,22.897596,0.0 120.247052,22.89908,0.0 120.245492,22.901032,0.0 120.243316,22.903159,0.0 120.240774,22.904138,0.0 120.238735,22.904497,0.0 120.238288,22.903334,0.0 120.237386,22.901822,0.0 120.237371,22.900255,0.0 120.237855,22.89883,0.0 120.237127,22.897678,0.0 120.235607,22.897052,0.0 120.235457,22.893179,0.0 120.240112,22.893008,0.0 120.24252,22.892513,0.0 120.243924,22.893071,0.0 120.244739,22.89293,0.0 120.2453,22.89222,0.0 120.245912,22.892283,0.0 120.245642,22.892722,0.0 120.246142,22.892865,0.0 120.24763,22.892048,0.0 120.248369,22.892006,0.0 120.24928,22.891218,0.0 120.250828,22.890941,0.0 120.251813,22.891332,0.0 120.251795,22.892133,0.0 120.251717,22.893819,0.0 120.251391,22.894409,0.0 120.251047,22.894802,0.0 120.250467,22.895563,0.0 120.248704,22.897324,0.0 120.248364,22.897596,0.0</coordinates></LinearRing></outerBoundaryIs></Polygon><styleUrl>#spolygon-map</styleUrl></Placemark><Placemark><Polygon><outerBoundaryIs><LinearRing><coordinates>120.237114,22.885742,0.0 120.236607,22.886692,0.0 120.235616,22.887507,0.0 120.234066,22.887985,0.0 120.23343,22.88634,0.0 120.232598,22.885124,0.0 120.230691,22.884553,0.0 120.22997,22.884249,0.0 120.229504,22.883687,0.0 120.228701,22.881784,0.0 120.227801,22.879662,0.0 120.230031,22.878646,0.0 120.229798,22.87664,0.0 120.229185,22.87417,0.0 120.226923,22.874899,0.0 120.226133,22.874322,0.0 120.225076,22.873533,0.0 120.225623,22.872816,0.0 120.226571,22.872712,0.0 120.227467,22.872628,0.0 120.227658,22.872291,0.0 120.2281,22.871837,0.0 120.228497,22.871031,0.0 120.229666,22.869686,0.0 120.230589,22.868555,0.0 120.231446,22.868404,0.0 120.233054,22.868242,0.0 120.234138,22.869119,0.0 120.23522,22.869955,0.0 120.235614,22.869977,0.0 120.236855,22.870671,0.0 120.237558,22.869666,0.0 120.237986,22.869225,0.0 120.239136,22.869479,0.0 120.239834,22.868961,0.0 120.240197,22.868373,0.0 120.241216,22.868703,0.0 120.241619,22.868949,0.0 120.241366,22.869842,0.0 120.24163,22.870283,0.0 120.242124,22.870423,0.0 120.24262,22.870916,0.0 120.243141,22.871471,0.0 120.243468,22.871629,0.0 120.244121,22.872056,0.0 120.244487,22.872394,0.0 120.244456,22.873789,0.0 120.244013,22.874227,0.0 120.244083,22.875454,0.0 120.244719,22.875244,0.0 120.245029,22.876413,0.0 120.244396,22.878013,0.0 120.244323,22.879351,0.0 120.24029,22.879732,0.0 120.239589,22.880837,0.0 120.239992,22.881724,0.0 120.242176,22.882456,0.0 120.241878,22.884665,0.0 120.24088,22.884864,0.0 120.241411,22.886069,0.0 120.241595,22.887384,0.0 120.240011,22.88683,0.0 120.238086,22.886002,0.0 120.237114,22.885742,0.0</coordinates></LinearRing></outerBoundaryIs></Polygon><styleUrl>#spolygon-map</styleUrl></Placemark><Placemark><Polygon><outerBoundaryIs><LinearRing><coordinates>120.220402,22.905505,0.0 120.218151,22.904155,0.0 120.217072,22.904003,0.0 120.216094,22.901276,0.0 120.215293,22.899041,0.0 120.214422,22.896596,0.0 120.213816,22.894907,0.0 120.214703,22.894744,0.0 120.21553,22.894735,0.0 120.216347,22.894877,0.0 120.217572,22.895169,0.0 120.219168,22.895823,0.0 120.22049,22.896001,0.0 120.221474,22.896277,0.0 120.222409,22.896726,0.0 120.22325,22.897166,0.0 120.223513,22.896828,0.0 120.22361,22.89626,0.0 120.224505,22.895623,0.0 120.225528,22.895371,0.0 120.22667,22.895063,0.0 120.228989,22.894695,0.0 120.231369,22.893909,0.0 120.233529,22.893297,0.0 120.235591,22.896605,0.0 120.236074,22.898075,0.0 120.233753,22.899364,0.0 120.230081,22.89938,0.0 120.227244,22.900238,0.0 120.225246,22.900844,0.0 120.222381,22.902541,0.0 120.222644,22.905211,0.0 120.220402,22.905505,0.0</coordinates></LinearRing></outerBoundaryIs></Polygon><styleUrl>#spolygon-map</styleUrl></Placemark><Placemark><Polygon><outerBoundaryIs><LinearRing><coordinates>120.208307,22.915017,0.0 120.20558,22.91469,0.0 120.203267,22.913479,0.0 120.20571,22.910792,0.0 120.206508,22.910425,0.0 120.20784,22.90964,0.0 120.20873,22.90968,0.0 120.209239,22.909272,0.0 120.209266,22.908692,0.0 120.210306,22.908372,0.0 120.211846,22.908524,0.0 120.213609,22.908594,0.0 120.215541,22.909068,0.0 120.213275,22.911032,0.0 120.210104,22.913337,0.0 120.208307,22.915017,0.0</coordinates></LinearRing></outerBoundaryIs></Polygon><styleUrl>#spolygon-map</styleUrl></Placemark><Placemark><Polygon><outerBoundaryIs><LinearRing><coordinates>120.206508,22.910425,0.0 120.20571,22.910792,0.0 120.201941,22.9111,0.0 120.200964,22.909508,0.0 120.198767,22.908081,0.0 120.198966,22.907597,0.0 120.200284,22.906385,0.0 120.19857,22.900913,0.0 120.197778,22.898545,0.0 120.196868,22.897651,0.0 120.197072,22.896824,0.0 120.197419,22.895482,0.0 120.197733,22.894082,0.0 120.198288,22.892364,0.0 120.199175,22.890095,0.0 120.200535,22.888504,0.0 120.202618,22.887325,0.0 120.203159,22.887706,0.0 120.203507,22.8889,0.0 120.203614,22.890072,0.0 120.204071,22.891353,0.0 120.205235,22.891963,0.0 120.207527,22.893031,0.0 120.207903,22.895988,0.0 120.208428,22.897619,0.0 120.20993,22.898166,0.0 120.209858,22.89894,0.0 120.210092,22.899307,0.0 120.209191,22.899855,0.0 120.208104,22.900468,0.0 120.207057,22.901064,0.0 120.20601,22.901648,0.0 120.206567,22.903348,0.0 120.20787,22.906341,0.0 120.20817,22.906688,0.0 120.207869,22.907633,0.0 120.208947,22.908047,0.0 120.209633,22.907276,0.0 120.210484,22.907201,0.0 120.211998,22.906755,0.0 120.213182,22.906169,0.0 120.214719,22.905998,0.0 120.21562,22.906082,0.0 120.215382,22.907521,0.0 120.213882,22.908604,0.0 120.212208,22.908573,0.0 120.210506,22.908373,0.0 120.209247,22.908527,0.0 120.209277,22.909175,0.0 120.208812,22.90966,0.0 120.208036,22.90962,0.0 120.206555,22.910423,0.0 120.206508,22.910425,0.0</coordinates></LinearRing></outerBoundaryIs></Polygon><styleUrl>#spolygon-map</styleUrl></Placemark><Placemark><Polygon><outerBoundaryIs><LinearRing><coordinates>120.209672,22.907242,0.0 120.209124,22.907862,0.0 120.208119,22.907745,0.0 120.20813,22.90676,0.0 120.207983,22.906423,0.0 120.206711,22.903755,0.0 120.205965,22.901663,0.0 120.206939,22.901129,0.0 120.208009,22.900524,0.0 120.209182,22.89986,0.0 120.210004,22.899374,0.0 120.209863,22.898985,0.0 120.209938,22.898193,0.0 120.208733,22.898031,0.0 120.207968,22.896036,0.0 120.207095,22.893537,0.0 120.20765,22.892289,0.0 120.208629,22.892104,0.0 120.20926,22.892121,0.0 120.209947,22.892438,0.0 120.210041,22.893834,0.0 120.210136,22.89511,0.0 120.211165,22.895296,0.0 120.211738,22.895658,0.0 120.213816,22.894907,0.0 120.214422,22.896596,0.0 120.215293,22.899041,0.0 120.216094,22.901276,0.0 120.217072,22.904003,0.0 120.215638,22.905506,0.0 120.214396,22.906049,0.0 120.212778,22.906506,0.0 120.211402,22.906926,0.0 120.210021,22.907293,0.0 120.209672,22.907242,0.0</coordinates></LinearRing></outerBoundaryIs></Polygon><styleUrl>#spolygon-map</styleUrl></Placemark><Placemark><Polygon><outerBoundaryIs><LinearRing><coordinates>120.193953,22.920584,0.0 120.191435,22.920732,0.0 120.18954,22.920688,0.0 120.187853,22.920081,0.0 120.188749,22.91914,0.0 120.189093,22.918137,0.0 120.190065,22.916842,0.0 120.190399,22.914665,0.0 120.190432,22.913733,0.0 120.191193,22.912335,0.0 120.192181,22.910987,0.0 120.195257,22.909479,0.0 120.198181,22.908248,0.0 120.199326,22.908231,0.0 120.201363,22.910043,0.0 120.202597,22.912268,0.0 120.203905,22.914866,0.0 120.200155,22.916726,0.0 120.196575,22.919094,0.0 120.193953,22.920584,0.0</coordinates></LinearRing></outerBoundaryIs></Polygon><styleUrl>#spolygon-map</styleUrl></Placemark><Placemark><Polygon><outerBoundaryIs><LinearRing><coordinates>120.246971,22.882725,0.0 120.246434,22.883188,0.0 120.246017,22.883585,0.0 120.24566,22.884123,0.0 120.244845,22.8836,0.0 120.243698,22.883026,0.0 120.241625,22.882271,0.0 120.239408,22.88152,0.0 120.239842,22.880341,0.0 120.240891,22.879807,0.0 120.244874,22.878819,0.0 120.244,22.877896,0.0 120.245261,22.875486,0.0 120.244498,22.87532,0.0 120.244002,22.875205,0.0 120.244055,22.874013,0.0 120.244479,22.873494,0.0 120.244506,22.872159,0.0 120.245388,22.871904,0.0 120.246326,22.871703,0.0 120.246852,22.871685,0.0 120.248225,22.871527,0.0 120.248841,22.871805,0.0 120.249428,22.872158,0.0 120.250665,22.872207,0.0 120.251067,22.872493,0.0 120.251595,22.872999,0.0 120.251998,22.873245,0.0 120.252716,22.8737,0.0 120.253565,22.874733,0.0 120.252844,22.877387,0.0 120.252892,22.878272,0.0 120.252638,22.880027,0.0 120.251862,22.881283,0.0 120.249939,22.880649,0.0 120.248244,22.881388,0.0 120.246971,22.882725,0.0</coordinates></LinearRing></outerBoundaryIs></Polygon><styleUrl>#spolygon-map</styleUrl></Placemark></Document>
</kml>
