<?xml version="1.0" encoding="UTF-8"?>
<kml xmlns="http://www.opengis.net/kml/2.2">
	<Document>
		<name>高雄市鼓山區(海)</name>
		<Style id="spolygon">
			<LabelStyle>
				<scale>0.0</scale>
			</LabelStyle>
			<LineStyle>
				<color>330030ff</color>
				<width>0</width>
			</LineStyle>
			<PolyStyle>
				<color>330030ff</color>
			</PolyStyle>
		</Style>
		<StyleMap id="spolygon-map">
			<Pair>
				<key>normal</key>
				<styleUrl>#spolygon</styleUrl>
			</Pair>
		</StyleMap>
	<Placemark><Polygon><outerBoundaryIs><LinearRing><coordinates>120.269958,22.619748,0.0 120.269802,22.622914,0.0 120.269391,22.623756,0.0 120.269384,22.6203,0.0 120.26931,22.61854,0.0 120.269299,22.618116,0.0 120.268767,22.617825,0.0 120.268484,22.617704,0.0 120.268257,22.617461,0.0 120.266739,22.617127,0.0 120.265753,22.617797,0.0 120.265651,22.620786,0.0 120.265387,22.621607,0.0 120.261156,22.622709,0.0 120.256687,22.62094,0.0 120.270099,22.615283,0.0 120.281278,22.614369,0.0 120.29062,22.607753,0.0 120.295079,22.599846,0.0 120.298003,22.596667,0.0 120.298698,22.59474,0.0 120.299136,22.593816,0.0 120.299767,22.592175,0.0 120.301586,22.592601,0.0 120.301586,22.592774,0.0 120.300882,22.593997,0.0 120.299496,22.597378,0.0 120.297384,22.602961,0.0 120.296579,22.609458,0.0 120.290214,22.611994,0.0 120.29146,22.615034,0.0 120.292748,22.617307,0.0 120.290262,22.618957,0.0 120.285888,22.617406,0.0 120.283023,22.618519,0.0 120.280449,22.619914,0.0 120.282003,22.618178,0.0 120.284864,22.616876,0.0 120.288715,22.614376,0.0 120.288219,22.613643,0.0 120.282931,22.615881,0.0 120.276034,22.61891,0.0 120.271302,22.618507,0.0 120.272004,22.618941,0.0 120.27065,22.618079,0.0 120.269958,22.619748,0.0</coordinates></LinearRing></outerBoundaryIs></Polygon><styleUrl>#spolygon-map</styleUrl></Placemark></Document>
</kml>
