<?xml version="1.0" encoding="UTF-8"?>
<kml xmlns="http://www.opengis.net/kml/2.2">
	<Document>
		<name>嘉義縣溪口鄉</name>
		<Style id="spolygon">
			<LabelStyle>
				<scale>0.0</scale>
			</LabelStyle>
			<LineStyle>
				<color>330030ff</color>
				<width>0</width>
			</LineStyle>
			<PolyStyle>
				<color>330030ff</color>
			</PolyStyle>
		</Style>
		<StyleMap id="spolygon-map">
			<Pair>
				<key>normal</key>
				<styleUrl>#spolygon</styleUrl>
			</Pair>
		</StyleMap>
	<Placemark><Polygon><outerBoundaryIs><LinearRing><coordinates>120.398157,23.589258,0.0 120.387348,23.584749,0.0 120.387715,23.578709,0.0 120.388338,23.570994,0.0 120.38936,23.570914,0.0 120.389666,23.570127,0.0 120.388903,23.568461,0.0 120.3882,23.566943,0.0 120.387561,23.565561,0.0 120.388661,23.565265,0.0 120.389992,23.565108,0.0 120.391579,23.565595,0.0 120.392741,23.565715,0.0 120.393844,23.565679,0.0 120.395227,23.565151,0.0 120.396431,23.564664,0.0 120.397535,23.563943,0.0 120.39874,23.562855,0.0 120.399798,23.562194,0.0 120.401426,23.562286,0.0 120.402759,23.56211,0.0 120.403957,23.561772,0.0 120.404466,23.560756,0.0 120.405557,23.560306,0.0 120.406682,23.560202,0.0 120.407988,23.560121,0.0 120.408389,23.560635,0.0 120.408487,23.562033,0.0 120.407968,23.563132,0.0 120.406575,23.564017,0.0 120.405114,23.564923,0.0 120.404032,23.565598,0.0 120.403858,23.566435,0.0 120.403542,23.567181,0.0 120.403677,23.568157,0.0 120.403624,23.569064,0.0 120.40339,23.56972,0.0 120.403107,23.570437,0.0 120.407825,23.575679,0.0 120.407146,23.578708,0.0 120.404115,23.580358,0.0 120.400278,23.580045,0.0 120.398665,23.5884,0.0 120.398157,23.589258,0.0</coordinates></LinearRing></outerBoundaryIs></Polygon><styleUrl>#spolygon-map</styleUrl></Placemark><Placemark><Polygon><outerBoundaryIs><LinearRing><coordinates>120.420242,23.595699,0.0 120.411846,23.594641,0.0 120.401909,23.597781,0.0 120.401274,23.59358,0.0 120.401429,23.592287,0.0 120.399517,23.591171,0.0 120.399521,23.587607,0.0 120.400761,23.580483,0.0 120.405846,23.579893,0.0 120.412581,23.583133,0.0 120.420242,23.595699,0.0</coordinates></LinearRing></outerBoundaryIs></Polygon><styleUrl>#spolygon-map</styleUrl></Placemark><Placemark><Polygon><outerBoundaryIs><LinearRing><coordinates>120.401518,23.607173,0.0 120.400158,23.602939,0.0 120.411147,23.594907,0.0 120.41513,23.595766,0.0 120.424375,23.598315,0.0 120.426168,23.600099,0.0 120.426695,23.600751,0.0 120.427259,23.601376,0.0 120.427693,23.60219,0.0 120.427824,23.603125,0.0 120.427703,23.604276,0.0 120.427222,23.605087,0.0 120.426489,23.605574,0.0 120.425697,23.605686,0.0 120.424856,23.605776,0.0 120.423921,23.605777,0.0 120.423097,23.605717,0.0 120.422283,23.60568,0.0 120.421567,23.605642,0.0 120.420557,23.60557,0.0 120.419572,23.605494,0.0 120.418605,23.605391,0.0 120.417729,23.605307,0.0 120.417087,23.605198,0.0 120.41643,23.604875,0.0 120.415812,23.604175,0.0 120.415312,23.603295,0.0 120.414997,23.602371,0.0 120.41442,23.601355,0.0 120.413412,23.601405,0.0 120.412959,23.602054,0.0 120.411914,23.602057,0.0 120.410788,23.602003,0.0 120.409714,23.601969,0.0 120.409016,23.602014,0.0 120.408209,23.602178,0.0 120.407249,23.602664,0.0 120.406374,23.603361,0.0 120.406484,23.604041,0.0 120.406976,23.60458,0.0 120.407413,23.605157,0.0 120.407569,23.605927,0.0 120.407423,23.60666,0.0 120.406488,23.607023,0.0 120.405668,23.607157,0.0 120.405141,23.60741,0.0 120.401518,23.607173,0.0</coordinates></LinearRing></outerBoundaryIs></Polygon><styleUrl>#spolygon-map</styleUrl></Placemark><Placemark><Polygon><outerBoundaryIs><LinearRing><coordinates>120.367776,23.607658,0.0 120.366259,23.607261,0.0 120.366056,23.604341,0.0 120.364331,23.600822,0.0 120.361507,23.59816,0.0 120.360384,23.595846,0.0 120.361149,23.595161,0.0 120.362745,23.594862,0.0 120.363861,23.59468,0.0 120.365306,23.594424,0.0 120.366418,23.594214,0.0 120.367381,23.594367,0.0 120.367649,23.595083,0.0 120.368716,23.594918,0.0 120.369998,23.594682,0.0 120.371121,23.594477,0.0 120.37241,23.594249,0.0 120.373067,23.594709,0.0 120.371531,23.606086,0.0 120.367777,23.607651,0.0 120.367776,23.607658,0.0</coordinates></LinearRing></outerBoundaryIs></Polygon><styleUrl>#spolygon-map</styleUrl></Placemark><Placemark><Polygon><outerBoundaryIs><LinearRing><coordinates>120.426119,23.599177,0.0 120.420077,23.58696,0.0 120.407403,23.57612,0.0 120.403454,23.575179,0.0 120.403989,23.57047,0.0 120.404953,23.570444,0.0 120.405942,23.570321,0.0 120.407026,23.570355,0.0 120.407918,23.570751,0.0 120.409352,23.570915,0.0 120.410597,23.571077,0.0 120.411605,23.571275,0.0 120.413331,23.571934,0.0 120.414612,23.572451,0.0 120.415638,23.573013,0.0 120.416218,23.573769,0.0 120.416727,23.574539,0.0 120.417408,23.575758,0.0 120.418078,23.576941,0.0 120.419092,23.577459,0.0 120.420127,23.577707,0.0 120.421152,23.577842,0.0 120.422226,23.578239,0.0 120.423094,23.578648,0.0 120.424295,23.579179,0.0 120.428487,23.588779,0.0 120.433615,23.591297,0.0 120.432484,23.591338,0.0 120.431671,23.591344,0.0 120.430634,23.591336,0.0 120.429568,23.591452,0.0 120.428647,23.591599,0.0 120.42773,23.591835,0.0 120.426929,23.592076,0.0 120.426032,23.593055,0.0 120.425987,23.594405,0.0 120.426224,23.595394,0.0 120.426812,23.596272,0.0 120.427288,23.596814,0.0 120.427725,23.597343,0.0 120.428439,23.598082,0.0 120.429047,23.598581,0.0 120.429305,23.599156,0.0 120.428348,23.598942,0.0 120.427549,23.598788,0.0 120.42678,23.598715,0.0 120.426143,23.599087,0.0 120.426119,23.599177,0.0</coordinates></LinearRing></outerBoundaryIs></Polygon><styleUrl>#spolygon-map</styleUrl></Placemark><Placemark><Polygon><outerBoundaryIs><LinearRing><coordinates>120.387871,23.596284,0.0 120.373495,23.594278,0.0 120.373238,23.59309,0.0 120.373018,23.591985,0.0 120.37282,23.591009,0.0 120.372558,23.589776,0.0 120.371856,23.589373,0.0 120.371125,23.5887,0.0 120.370643,23.587928,0.0 120.371053,23.587336,0.0 120.380287,23.589315,0.0 120.385822,23.587479,0.0 120.389965,23.584405,0.0 120.387871,23.596284,0.0</coordinates></LinearRing></outerBoundaryIs></Polygon><styleUrl>#spolygon-map</styleUrl></Placemark><Placemark><Polygon><outerBoundaryIs><LinearRing><coordinates>120.386579,23.584509,0.0 120.382455,23.589109,0.0 120.371028,23.5871,0.0 120.370852,23.585931,0.0 120.370599,23.584964,0.0 120.3698,23.585037,0.0 120.369198,23.584877,0.0 120.3686,23.583707,0.0 120.3685,23.582994,0.0 120.369217,23.582195,0.0 120.369555,23.581361,0.0 120.370525,23.581368,0.0 120.371393,23.581175,0.0 120.372081,23.580496,0.0 120.372812,23.580469,0.0 120.373971,23.580558,0.0 120.375009,23.580492,0.0 120.376243,23.580515,0.0 120.377111,23.580062,0.0 120.376953,23.579181,0.0 120.37628,23.578215,0.0 120.37545,23.578218,0.0 120.374415,23.578855,0.0 120.373535,23.57861,0.0 120.372993,23.577917,0.0 120.372891,23.577102,0.0 120.373823,23.576579,0.0 120.374801,23.576391,0.0 120.3754,23.575757,0.0 120.375207,23.575154,0.0 120.374605,23.574363,0.0 120.374274,23.573721,0.0 120.374698,23.572969,0.0 120.375485,23.572204,0.0 120.376348,23.571774,0.0 120.376777,23.572056,0.0 120.377655,23.572371,0.0 120.378631,23.572312,0.0 120.379904,23.572046,0.0 120.381032,23.571461,0.0 120.382318,23.571369,0.0 120.38334,23.571583,0.0 120.384592,23.571918,0.0 120.385817,23.571808,0.0 120.386848,23.57146,0.0 120.385362,23.58321,0.0 120.386579,23.584509,0.0</coordinates></LinearRing></outerBoundaryIs></Polygon><styleUrl>#spolygon-map</styleUrl></Placemark><Placemark><Polygon><outerBoundaryIs><LinearRing><coordinates>120.376813,23.609897,0.0 120.371913,23.60955,0.0 120.369368,23.608739,0.0 120.367776,23.607658,0.0 120.370635,23.606195,0.0 120.370407,23.601804,0.0 120.373805,23.594623,0.0 120.37681,23.609858,0.0 120.376813,23.609897,0.0</coordinates></LinearRing></outerBoundaryIs></Polygon><styleUrl>#spolygon-map</styleUrl></Placemark><Placemark><Polygon><outerBoundaryIs><LinearRing><coordinates>120.394242,23.624015,0.0 120.392614,23.623807,0.0 120.392404,23.622477,0.0 120.387853,23.621341,0.0 120.38556,23.619465,0.0 120.383928,23.616962,0.0 120.382906,23.614875,0.0 120.38323,23.613627,0.0 120.382796,23.612567,0.0 120.380573,23.61156,0.0 120.380169,23.61003,0.0 120.390326,23.613786,0.0 120.396159,23.612714,0.0 120.399849,23.618408,0.0 120.394242,23.624015,0.0</coordinates></LinearRing></outerBoundaryIs></Polygon><styleUrl>#spolygon-map</styleUrl></Placemark><Placemark><Polygon><outerBoundaryIs><LinearRing><coordinates>120.406439,23.631651,0.0 120.404602,23.634195,0.0 120.400964,23.632309,0.0 120.400675,23.62627,0.0 120.396942,23.625084,0.0 120.395009,23.62341,0.0 120.398876,23.608905,0.0 120.403047,23.607192,0.0 120.4056,23.608313,0.0 120.406046,23.609308,0.0 120.406493,23.610257,0.0 120.40688,23.610972,0.0 120.407305,23.611699,0.0 120.407702,23.61217,0.0 120.408541,23.612676,0.0 120.409972,23.613287,0.0 120.41109,23.614022,0.0 120.412081,23.615058,0.0 120.413098,23.616649,0.0 120.413617,23.617723,0.0 120.414212,23.618646,0.0 120.414148,23.619513,0.0 120.413788,23.620398,0.0 120.413499,23.62154,0.0 120.411989,23.621349,0.0 120.411896,23.622082,0.0 120.412897,23.62256,0.0 120.413798,23.62241,0.0 120.413638,23.623527,0.0 120.410879,23.624706,0.0 120.407684,23.62515,0.0 120.406432,23.629457,0.0 120.406439,23.631651,0.0</coordinates></LinearRing></outerBoundaryIs></Polygon><styleUrl>#spolygon-map</styleUrl></Placemark><Placemark><Polygon><outerBoundaryIs><LinearRing><coordinates>120.38005,23.610117,0.0 120.376438,23.608036,0.0 120.383189,23.597821,0.0 120.38877,23.59989,0.0 120.393752,23.603592,0.0 120.398876,23.608905,0.0 120.394238,23.614569,0.0 120.385717,23.611213,0.0 120.38005,23.610117,0.0</coordinates></LinearRing></outerBoundaryIs></Polygon><styleUrl>#spolygon-map</styleUrl></Placemark><Placemark><Polygon><outerBoundaryIs><LinearRing><coordinates>120.394563,23.604769,0.0 120.389191,23.599854,0.0 120.397839,23.59146,0.0 120.395378,23.60426,0.0 120.394563,23.604769,0.0</coordinates></LinearRing></outerBoundaryIs></Polygon><styleUrl>#spolygon-map</styleUrl></Placemark><Placemark><Polygon><outerBoundaryIs><LinearRing><coordinates>120.399221,23.608561,0.0 120.395472,23.604165,0.0 120.399405,23.591196,0.0 120.40011,23.592343,0.0 120.401129,23.593498,0.0 120.402653,23.594332,0.0 120.400046,23.603467,0.0 120.400061,23.607704,0.0 120.399221,23.608561,0.0</coordinates></LinearRing></outerBoundaryIs></Polygon><styleUrl>#spolygon-map</styleUrl></Placemark><Placemark><Polygon><outerBoundaryIs><LinearRing><coordinates>120.445035,23.594374,0.0 120.444029,23.594299,0.0 120.442771,23.59424,0.0 120.441747,23.593911,0.0 120.440686,23.593433,0.0 120.439804,23.59294,0.0 120.438921,23.592574,0.0 120.437789,23.592089,0.0 120.436682,23.591617,0.0 120.435401,23.591407,0.0 120.434328,23.591336,0.0 120.428487,23.588779,0.0 120.424295,23.579179,0.0 120.425541,23.579479,0.0 120.426521,23.579602,0.0 120.427133,23.578794,0.0 120.42764,23.578238,0.0 120.428192,23.577459,0.0 120.428371,23.57818,0.0 120.428701,23.579157,0.0 120.429774,23.579208,0.0 120.431123,23.579263,0.0 120.432662,23.579327,0.0 120.433688,23.57938,0.0 120.435249,23.579445,0.0 120.436659,23.579504,0.0 120.438021,23.579574,0.0 120.439163,23.579445,0.0 120.439913,23.579597,0.0 120.440445,23.580978,0.0 120.440942,23.582278,0.0 120.441465,23.583564,0.0 120.441935,23.584361,0.0 120.443586,23.584082,0.0 120.445199,23.583819,0.0 120.44562,23.584843,0.0 120.446513,23.584582,0.0 120.447702,23.58411,0.0 120.448936,23.583564,0.0 120.45036,23.582996,0.0 120.451716,23.582675,0.0 120.452671,23.582735,0.0 120.453698,23.58228,0.0 120.453991,23.581597,0.0 120.454339,23.5808,0.0 120.455242,23.581631,0.0 120.456044,23.582492,0.0 120.455359,23.583465,0.0 120.455001,23.58447,0.0 120.454682,23.585476,0.0 120.45428,23.586594,0.0 120.453709,23.587308,0.0 120.452927,23.587628,0.0 120.452025,23.587954,0.0 120.451052,23.588393,0.0 120.450131,23.588878,0.0 120.449271,23.589326,0.0 120.448313,23.590133,0.0 120.44798,23.590875,0.0 120.44813,23.591602,0.0 120.448604,23.592356,0.0 120.448776,23.593047,0.0 120.448201,23.593756,0.0 120.447101,23.594088,0.0 120.445987,23.594211,0.0 120.445035,23.594374,0.0</coordinates></LinearRing></outerBoundaryIs></Polygon><styleUrl>#spolygon-map</styleUrl></Placemark></Document>
</kml>
