<?xml version="1.0" encoding="UTF-8"?>
<kml xmlns="http://www.opengis.net/kml/2.2">
	<Document>
		<name>屏東縣恆春鎮</name>
		<Style id="spolygon">
			<LabelStyle>
				<scale>0.0</scale>
			</LabelStyle>
			<LineStyle>
				<color>330030ff</color>
				<width>0</width>
			</LineStyle>
			<PolyStyle>
				<color>330030ff</color>
			</PolyStyle>
		</Style>
		<StyleMap id="spolygon-map">
			<Pair>
				<key>normal</key>
				<styleUrl>#spolygon</styleUrl>
			</Pair>
		</StyleMap>
	<Placemark><Polygon><outerBoundaryIs><LinearRing><coordinates>120.752717,21.965078,0.0 120.739622,21.962283,0.0 120.73367,21.960964,0.0 120.730514,21.958884,0.0 120.730704,21.957812,0.0 120.731255,21.956821,0.0 120.732122,21.955579,0.0 120.731179,21.949982,0.0 120.733802,21.937687,0.0 120.731542,21.93407,0.0 120.731117,21.931769,0.0 120.731605,21.931201,0.0 120.734476,21.930697,0.0 120.737824,21.932218,0.0 120.741955,21.92746,0.0 120.743924,21.932187,0.0 120.745823,21.931183,0.0 120.74567,21.93307,0.0 120.746142,21.932714,0.0 120.745509,21.93825,0.0 120.745313,21.942953,0.0 120.745248,21.945059,0.0 120.746207,21.943742,0.0 120.746947,21.947645,0.0 120.747654,21.948983,0.0 120.75129,21.952542,0.0 120.751339,21.955555,0.0 120.752717,21.965078,0.0</coordinates></LinearRing></outerBoundaryIs></Polygon><styleUrl>#spolygon-map</styleUrl></Placemark><Placemark><Polygon><outerBoundaryIs><LinearRing><coordinates>120.698106,22.009861,0.0 120.696805,22.009812,0.0 120.695107,22.010048,0.0 120.694022,22.010096,0.0 120.69267,22.009718,0.0 120.693565,22.007688,0.0 120.693916,22.006056,0.0 120.695818,22.003169,0.0 120.69768,22.000134,0.0 120.700853,21.997459,0.0 120.70526,21.995288,0.0 120.706657,21.99565,0.0 120.706914,21.992105,0.0 120.707972,21.987955,0.0 120.710275,21.986017,0.0 120.711854,21.985744,0.0 120.712377,21.984273,0.0 120.71433,21.980871,0.0 120.715677,21.975489,0.0 120.715297,21.971421,0.0 120.713744,21.967589,0.0 120.718504,21.964574,0.0 120.7222,21.960855,0.0 120.730842,21.95718,0.0 120.730695,21.957927,0.0 120.730234,21.960118,0.0 120.731157,21.961999,0.0 120.731769,21.962756,0.0 120.731671,21.964449,0.0 120.731722,21.969211,0.0 120.731994,21.973459,0.0 120.727468,21.979476,0.0 120.724104,21.986558,0.0 120.723078,21.987642,0.0 120.720865,21.987618,0.0 120.719848,21.986946,0.0 120.71511,21.986899,0.0 120.712885,21.99047,0.0 120.706233,22.000996,0.0 120.700521,22.004217,0.0 120.698106,22.009861,0.0</coordinates></LinearRing></outerBoundaryIs></Polygon><styleUrl>#spolygon-map</styleUrl></Placemark><Placemark><Polygon><outerBoundaryIs><LinearRing><coordinates>120.740126,22.00782,0.0 120.738782,22.009676,0.0 120.737634,22.009562,0.0 120.736653,22.009756,0.0 120.735903,22.009809,0.0 120.735489,22.009371,0.0 120.734531,22.008911,0.0 120.732712,22.007436,0.0 120.73066,22.007245,0.0 120.730694,22.006224,0.0 120.731509,22.003383,0.0 120.736459,21.995355,0.0 120.740811,21.985795,0.0 120.744496,21.982752,0.0 120.750151,21.986417,0.0 120.756117,21.984951,0.0 120.761774,21.985969,0.0 120.766364,21.988312,0.0 120.770087,21.987381,0.0 120.771165,21.985966,0.0 120.772548,21.986086,0.0 120.773733,21.986611,0.0 120.774346,21.987373,0.0 120.775104,21.988501,0.0 120.77561,21.989626,0.0 120.776566,21.989964,0.0 120.777589,21.98994,0.0 120.778548,21.989774,0.0 120.779559,21.989956,0.0 120.779878,21.990603,0.0 120.780244,21.991402,0.0 120.780988,21.992015,0.0 120.780936,21.99288,0.0 120.781143,21.993666,0.0 120.782114,21.994135,0.0 120.782225,21.995036,0.0 120.782419,21.995876,0.0 120.783011,21.99648,0.0 120.783752,21.99723,0.0 120.784982,21.997806,0.0 120.786247,21.997963,0.0 120.786679,21.998433,0.0 120.786211,21.999198,0.0 120.785935,21.99992,0.0 120.785584,22.000873,0.0 120.785705,22.001665,0.0 120.78555,22.002471,0.0 120.785557,22.003307,0.0 120.785421,22.004031,0.0 120.785508,22.004736,0.0 120.785861,22.005366,0.0 120.78568,22.006274,0.0 120.785688,22.007102,0.0 120.785445,22.007721,0.0 120.78539,22.0084,0.0 120.785346,22.009112,0.0 120.785155,22.009753,0.0 120.784636,22.010305,0.0 120.784043,22.010903,0.0 120.783291,22.011292,0.0 120.782741,22.011843,0.0 120.782563,22.012603,0.0 120.781862,22.013596,0.0 120.781277,22.014439,0.0 120.780046,22.014736,0.0 120.779069,22.014644,0.0 120.778556,22.014181,0.0 120.777734,22.014128,0.0 120.777412,22.014807,0.0 120.777049,22.015696,0.0 120.776941,22.016696,0.0 120.776494,22.017472,0.0 120.775582,22.018139,0.0 120.77496,22.018843,0.0 120.774194,22.019653,0.0 120.77352,22.020435,0.0 120.77312,22.021387,0.0 120.772705,22.022672,0.0 120.769462,22.022464,0.0 120.765014,22.020531,0.0 120.761252,22.014807,0.0 120.760311,22.008847,0.0 120.758309,22.007959,0.0 120.756768,22.009266,0.0 120.755695,22.010535,0.0 120.755287,22.009523,0.0 120.754982,22.007665,0.0 120.753919,22.008354,0.0 120.752165,22.007597,0.0 120.751155,22.005938,0.0 120.75099,22.004387,0.0 120.749783,22.001314,0.0 120.746442,21.999814,0.0 120.744751,22.002243,0.0 120.740556,22.002201,0.0 120.739941,22.007393,0.0 120.740126,22.00782,0.0</coordinates></LinearRing></outerBoundaryIs></Polygon><styleUrl>#spolygon-map</styleUrl></Placemark><Placemark><Polygon><outerBoundaryIs><LinearRing><coordinates>120.721399,22.054133,0.0 120.72026,22.054134,0.0 120.719323,22.054333,0.0 120.718374,22.054469,0.0 120.717541,22.054468,0.0 120.717562,22.053666,0.0 120.718261,22.053385,0.0 120.719086,22.053154,0.0 120.719598,22.05257,0.0 120.719703,22.051728,0.0 120.719481,22.051064,0.0 120.719004,22.050431,0.0 120.718465,22.047445,0.0 120.718253,22.043335,0.0 120.718841,22.040979,0.0 120.720275,22.03848,0.0 120.721831,22.03561,0.0 120.721672,22.033478,0.0 120.726061,22.028629,0.0 120.728296,22.028172,0.0 120.729283,22.028607,0.0 120.731599,22.027895,0.0 120.733694,22.027009,0.0 120.736323,22.025979,0.0 120.738861,22.025238,0.0 120.744675,22.025563,0.0 120.751036,22.025779,0.0 120.752356,22.028149,0.0 120.755961,22.029299,0.0 120.755236,22.031705,0.0 120.756885,22.033096,0.0 120.760698,22.034066,0.0 120.764195,22.035661,0.0 120.765205,22.037455,0.0 120.768319,22.040955,0.0 120.770374,22.041917,0.0 120.770875,22.044208,0.0 120.772042,22.045042,0.0 120.772715,22.046669,0.0 120.773087,22.04762,0.0 120.775729,22.053474,0.0 120.775409,22.054939,0.0 120.773972,22.054869,0.0 120.773084,22.054909,0.0 120.772226,22.055192,0.0 120.771442,22.055559,0.0 120.770772,22.056021,0.0 120.770337,22.056856,0.0 120.770932,22.057809,0.0 120.771815,22.058687,0.0 120.772645,22.059349,0.0 120.773165,22.060077,0.0 120.772748,22.060521,0.0 120.771354,22.060325,0.0 120.769978,22.059761,0.0 120.76881,22.059906,0.0 120.767593,22.060293,0.0 120.766414,22.061048,0.0 120.765335,22.061529,0.0 120.764277,22.061939,0.0 120.763179,22.06137,0.0 120.761773,22.061043,0.0 120.760374,22.06091,0.0 120.759171,22.06122,0.0 120.757859,22.061496,0.0 120.755969,22.062051,0.0 120.754057,22.062511,0.0 120.753172,22.061952,0.0 120.753099,22.060699,0.0 120.752703,22.05986,0.0 120.751633,22.059362,0.0 120.750638,22.058733,0.0 120.750142,22.057662,0.0 120.750057,22.056135,0.0 120.750387,22.055,0.0 120.750205,22.054288,0.0 120.749426,22.053499,0.0 120.748605,22.052577,0.0 120.748104,22.051456,0.0 120.747558,22.050285,0.0 120.746619,22.049446,0.0 120.745537,22.049386,0.0 120.744214,22.049842,0.0 120.743214,22.049583,0.0 120.743531,22.048457,0.0 120.743347,22.047888,0.0 120.742535,22.048106,0.0 120.741769,22.048145,0.0 120.740855,22.048191,0.0 120.740026,22.048237,0.0 120.739261,22.047967,0.0 120.73852,22.047657,0.0 120.737829,22.047987,0.0 120.737359,22.048865,0.0 120.736687,22.049575,0.0 120.735532,22.050472,0.0 120.734526,22.051807,0.0 120.733561,22.052435,0.0 120.732785,22.05238,0.0 120.732054,22.051916,0.0 120.73126,22.051535,0.0 120.730462,22.051387,0.0 120.72959,22.051501,0.0 120.728854,22.051789,0.0 120.728075,22.051964,0.0 120.72744,22.052023,0.0 120.727436,22.052748,0.0 120.727577,22.053516,0.0 120.726972,22.053797,0.0 120.725914,22.05345,0.0 120.724917,22.052992,0.0 120.72384,22.052954,0.0 120.723058,22.053389,0.0 120.72256,22.053846,0.0 120.721898,22.054204,0.0 120.721399,22.054133,0.0</coordinates></LinearRing></outerBoundaryIs></Polygon><styleUrl>#spolygon-map</styleUrl></Placemark><Placemark><Polygon><outerBoundaryIs><LinearRing><coordinates>120.730995,21.95713,0.0 120.72302,21.959729,0.0 120.718887,21.964624,0.0 120.712735,21.96537,0.0 120.712738,21.959775,0.0 120.712132,21.953266,0.0 120.711791,21.948876,0.0 120.711322,21.945163,0.0 120.710289,21.939598,0.0 120.710975,21.936781,0.0 120.712532,21.933794,0.0 120.715742,21.935146,0.0 120.717603,21.934239,0.0 120.718958,21.930764,0.0 120.718819,21.928519,0.0 120.720697,21.925124,0.0 120.723609,21.921255,0.0 120.730597,21.918848,0.0 120.733839,21.918612,0.0 120.737439,21.919304,0.0 120.738984,21.919747,0.0 120.73979,21.921245,0.0 120.740043,21.926844,0.0 120.734902,21.931942,0.0 120.732081,21.930413,0.0 120.731396,21.931715,0.0 120.731256,21.933343,0.0 120.731914,21.936207,0.0 120.733846,21.939929,0.0 120.731331,21.953477,0.0 120.731399,21.956575,0.0 120.730995,21.95713,0.0</coordinates></LinearRing></outerBoundaryIs></Polygon><styleUrl>#spolygon-map</styleUrl></Placemark><Placemark><Polygon><outerBoundaryIs><LinearRing><coordinates>120.698239,22.011033,0.0 120.698316,22.009889,0.0 120.701038,22.003662,0.0 120.708098,22.000629,0.0 120.713644,22.00331,0.0 120.726397,22.0074,0.0 120.730001,22.009524,0.0 120.735496,22.012754,0.0 120.733651,22.013739,0.0 120.732859,22.013608,0.0 120.731869,22.013325,0.0 120.731261,22.013992,0.0 120.730436,22.013935,0.0 120.727805,22.015829,0.0 120.72717,22.017939,0.0 120.724719,22.020695,0.0 120.722578,22.02166,0.0 120.721625,22.021272,0.0 120.721118,22.021962,0.0 120.716517,22.020378,0.0 120.709437,22.015455,0.0 120.698239,22.011033,0.0</coordinates></LinearRing></outerBoundaryIs></Polygon><styleUrl>#spolygon-map</styleUrl></Placemark><Placemark><Polygon><outerBoundaryIs><LinearRing><coordinates>120.771016,21.985964,0.0 120.769715,21.98768,0.0 120.764858,21.986985,0.0 120.760724,21.985516,0.0 120.754997,21.98541,0.0 120.749884,21.985811,0.0 120.757072,21.967657,0.0 120.751574,21.962313,0.0 120.752524,21.952998,0.0 120.755229,21.953953,0.0 120.752882,21.953983,0.0 120.753266,21.95406,0.0 120.754177,21.956313,0.0 120.755563,21.956861,0.0 120.755989,21.955819,0.0 120.756859,21.957369,0.0 120.763349,21.959156,0.0 120.770933,21.953492,0.0 120.774122,21.958329,0.0 120.776852,21.962044,0.0 120.780431,21.963914,0.0 120.782449,21.971057,0.0 120.783845,21.972851,0.0 120.786039,21.975577,0.0 120.785358,21.978573,0.0 120.785452,21.980314,0.0 120.78388,21.979806,0.0 120.782802,21.980179,0.0 120.781455,21.980336,0.0 120.780055,21.980022,0.0 120.778664,21.979813,0.0 120.777719,21.979626,0.0 120.77674,21.979846,0.0 120.775993,21.9795,0.0 120.775144,21.979232,0.0 120.773957,21.979212,0.0 120.772588,21.979253,0.0 120.771688,21.979329,0.0 120.770712,21.979517,0.0 120.770289,21.980508,0.0 120.770316,21.981368,0.0 120.770452,21.982594,0.0 120.770357,21.983983,0.0 120.770282,21.984773,0.0 120.770777,21.985889,0.0 120.771016,21.985964,0.0</coordinates></LinearRing></outerBoundaryIs></Polygon><styleUrl>#spolygon-map</styleUrl></Placemark><Placemark><Polygon><outerBoundaryIs><LinearRing><coordinates>120.750807,22.004289,0.0 120.748513,22.008601,0.0 120.747466,22.009216,0.0 120.743788,22.008686,0.0 120.743588,22.003371,0.0 120.74521,22.002402,0.0 120.745601,22.003926,0.0 120.749678,22.004069,0.0 120.750807,22.004289,0.0</coordinates></LinearRing></outerBoundaryIs></Polygon><styleUrl>#spolygon-map</styleUrl></Placemark><Placemark><Polygon><outerBoundaryIs><LinearRing><coordinates>120.74367,22.008643,0.0 120.739767,22.003748,0.0 120.741358,22.00252,0.0 120.74311,22.006364,0.0 120.74367,22.008643,0.0</coordinates></LinearRing></outerBoundaryIs></Polygon><styleUrl>#spolygon-map</styleUrl></Placemark><Placemark><Polygon><outerBoundaryIs><LinearRing><coordinates>120.750807,22.004289,0.0 120.745962,22.004039,0.0 120.744457,22.003343,0.0 120.744704,22.000543,0.0 120.747909,21.999941,0.0 120.750852,22.003328,0.0 120.750807,22.004289,0.0</coordinates></LinearRing></outerBoundaryIs></Polygon><styleUrl>#spolygon-map</styleUrl></Placemark><Placemark><Polygon><outerBoundaryIs><LinearRing><coordinates>120.718857,22.050241,0.0 120.718167,22.050116,0.0 120.717315,22.050001,0.0 120.716609,22.049907,0.0 120.716135,22.050523,0.0 120.715088,22.050144,0.0 120.714446,22.049621,0.0 120.71367,22.049841,0.0 120.712804,22.049585,0.0 120.71207,22.048865,0.0 120.711713,22.048025,0.0 120.711542,22.04744,0.0 120.710866,22.04677,0.0 120.709997,22.046109,0.0 120.709148,22.045704,0.0 120.708172,22.045519,0.0 120.707366,22.045127,0.0 120.706543,22.044773,0.0 120.705823,22.044316,0.0 120.705747,22.043286,0.0 120.705689,22.042473,0.0 120.705736,22.041602,0.0 120.705539,22.04066,0.0 120.709173,22.035245,0.0 120.712589,22.033354,0.0 120.714523,22.032608,0.0 120.716292,22.031911,0.0 120.717608,22.031277,0.0 120.718226,22.028625,0.0 120.720077,22.02879,0.0 120.721573,22.028583,0.0 120.72405,22.028727,0.0 120.725203,22.027471,0.0 120.725387,22.029797,0.0 120.720866,22.034285,0.0 120.721093,22.036173,0.0 120.719701,22.039739,0.0 120.718498,22.041592,0.0 120.718414,22.045426,0.0 120.718117,22.049099,0.0 120.718857,22.050241,0.0</coordinates></LinearRing></outerBoundaryIs></Polygon><styleUrl>#spolygon-map</styleUrl></Placemark><Placemark><Polygon><outerBoundaryIs><LinearRing><coordinates>120.784533,22.050413,0.0 120.783758,22.050927,0.0 120.783006,22.051176,0.0 120.781907,22.051769,0.0 120.780517,22.052602,0.0 120.77922,22.05295,0.0 120.77794,22.05308,0.0 120.777183,22.053862,0.0 120.776617,22.054916,0.0 120.775729,22.053474,0.0 120.773087,22.04762,0.0 120.772715,22.046669,0.0 120.772042,22.045042,0.0 120.770875,22.044208,0.0 120.770374,22.041917,0.0 120.768319,22.040955,0.0 120.765205,22.037455,0.0 120.764195,22.035661,0.0 120.760698,22.034066,0.0 120.756885,22.033096,0.0 120.755236,22.031705,0.0 120.755961,22.029299,0.0 120.752356,22.028149,0.0 120.751036,22.025779,0.0 120.744675,22.025563,0.0 120.738861,22.025238,0.0 120.736323,22.025979,0.0 120.73425,22.026378,0.0 120.728391,22.024889,0.0 120.723234,22.021697,0.0 120.724899,22.020589,0.0 120.727346,22.017863,0.0 120.727961,22.015694,0.0 120.730744,22.014034,0.0 120.731291,22.013984,0.0 120.731933,22.013311,0.0 120.732915,22.013642,0.0 120.733719,22.01372,0.0 120.735603,22.012654,0.0 120.73212,22.009984,0.0 120.732453,22.007955,0.0 120.733106,22.007601,0.0 120.734588,22.009035,0.0 120.735617,22.009493,0.0 120.735958,22.009877,0.0 120.736829,22.009574,0.0 120.737828,22.009546,0.0 120.739194,22.009431,0.0 120.74053,22.007636,0.0 120.747408,22.009444,0.0 120.747717,22.008868,0.0 120.750168,22.006601,0.0 120.750983,22.004768,0.0 120.751844,22.0064,0.0 120.7529,22.008359,0.0 120.754215,22.007788,0.0 120.755899,22.008221,0.0 120.755246,22.009853,0.0 120.755987,22.01015,0.0 120.75738,22.009073,0.0 120.759995,22.007947,0.0 120.759992,22.009851,0.0 120.76257,22.016292,0.0 120.76695,22.020914,0.0 120.772561,22.023209,0.0 120.772746,22.024063,0.0 120.773822,22.02466,0.0 120.774762,22.024908,0.0 120.775549,22.024651,0.0 120.776368,22.024133,0.0 120.777064,22.023931,0.0 120.778075,22.024643,0.0 120.778973,22.024976,0.0 120.780196,22.025037,0.0 120.780652,22.025584,0.0 120.78181,22.02552,0.0 120.782426,22.024846,0.0 120.783214,22.024741,0.0 120.784213,22.024563,0.0 120.785325,22.025414,0.0 120.785442,22.02645,0.0 120.785542,22.027286,0.0 120.785758,22.028311,0.0 120.785618,22.029433,0.0 120.786084,22.030468,0.0 120.786799,22.030668,0.0 120.787787,22.031001,0.0 120.788823,22.031565,0.0 120.78963,22.032336,0.0 120.790006,22.033129,0.0 120.790598,22.033784,0.0 120.791233,22.034557,0.0 120.792014,22.035493,0.0 120.792966,22.036774,0.0 120.793206,22.038012,0.0 120.792308,22.038695,0.0 120.791934,22.039354,0.0 120.792025,22.04047,0.0 120.792058,22.041639,0.0 120.791599,22.042612,0.0 120.790972,22.043406,0.0 120.790714,22.044169,0.0 120.790398,22.044789,0.0 120.789282,22.045849,0.0 120.788368,22.046392,0.0 120.787422,22.04668,0.0 120.786736,22.046523,0.0 120.785687,22.04698,0.0 120.784674,22.047737,0.0 120.784124,22.048484,0.0 120.784376,22.049248,0.0 120.784418,22.049952,0.0 120.784533,22.050413,0.0</coordinates></LinearRing></outerBoundaryIs></Polygon><styleUrl>#spolygon-map</styleUrl></Placemark><Placemark><Polygon><outerBoundaryIs><LinearRing><coordinates>120.731927,22.010471,0.0 120.726363,22.007604,0.0 120.713943,22.003414,0.0 120.708851,22.001332,0.0 120.712731,21.990912,0.0 120.714479,21.987831,0.0 120.719697,21.986817,0.0 120.720783,21.987627,0.0 120.722895,21.98771,0.0 120.72619,21.987453,0.0 120.730485,21.986322,0.0 120.731714,21.985945,0.0 120.739255,21.988987,0.0 120.734097,21.99991,0.0 120.730689,22.004858,0.0 120.730753,22.006592,0.0 120.731107,22.007447,0.0 120.732403,22.008024,0.0 120.732099,22.010122,0.0 120.731927,22.010471,0.0</coordinates></LinearRing></outerBoundaryIs></Polygon><styleUrl>#spolygon-map</styleUrl></Placemark><Placemark><Polygon><outerBoundaryIs><LinearRing><coordinates>120.814632,21.980559,0.0 120.813882,21.98015,0.0 120.813241,21.98044,0.0 120.812027,21.980751,0.0 120.811347,21.981287,0.0 120.810591,21.980803,0.0 120.809536,21.980806,0.0 120.808766,21.980663,0.0 120.808092,21.980586,0.0 120.806962,21.980243,0.0 120.804713,21.98013,0.0 120.803012,21.980571,0.0 120.801223,21.980487,0.0 120.799099,21.980957,0.0 120.796303,21.981703,0.0 120.793974,21.981978,0.0 120.792696,21.981847,0.0 120.791127,21.980922,0.0 120.790245,21.979681,0.0 120.789255,21.98031,0.0 120.787395,21.980664,0.0 120.784962,21.976294,0.0 120.785041,21.974574,0.0 120.783093,21.971875,0.0 120.781565,21.965722,0.0 120.777824,21.962807,0.0 120.775301,21.960895,0.0 120.772373,21.956504,0.0 120.77203,21.95164,0.0 120.777581,21.950171,0.0 120.779362,21.947062,0.0 120.780468,21.946065,0.0 120.783255,21.944278,0.0 120.786191,21.944668,0.0 120.793302,21.944278,0.0 120.798001,21.940553,0.0 120.801387,21.937168,0.0 120.803539,21.941107,0.0 120.805996,21.938847,0.0 120.810036,21.934467,0.0 120.814675,21.933709,0.0 120.817405,21.934127,0.0 120.818888,21.935094,0.0 120.813798,21.9405,0.0 120.814591,21.942765,0.0 120.819468,21.952254,0.0 120.822978,21.951863,0.0 120.825152,21.954674,0.0 120.824887,21.95952,0.0 120.826805,21.96336,0.0 120.828235,21.965392,0.0 120.827915,21.968638,0.0 120.8281,21.969072,0.0 120.828004,21.970415,0.0 120.827325,21.971022,0.0 120.826613,21.97159,0.0 120.826017,21.972265,0.0 120.825604,21.972908,0.0 120.82509,21.973621,0.0 120.824569,21.974458,0.0 120.823731,21.974933,0.0 120.822897,21.974558,0.0 120.822133,21.974424,0.0 120.821417,21.974195,0.0 120.820739,21.974255,0.0 120.819799,21.974051,0.0 120.819033,21.973957,0.0 120.818474,21.974056,0.0 120.818277,21.974801,0.0 120.817906,21.975548,0.0 120.817283,21.976548,0.0 120.816524,21.977387,0.0 120.815783,21.977914,0.0 120.81517,21.978406,0.0 120.815185,21.979286,0.0 120.814811,21.980203,0.0 120.814632,21.980559,0.0</coordinates></LinearRing></outerBoundaryIs></Polygon><styleUrl>#spolygon-map</styleUrl></Placemark><Placemark><Polygon><outerBoundaryIs><LinearRing><coordinates>120.705391,22.040538,0.0 120.704682,22.040159,0.0 120.703928,22.039837,0.0 120.703272,22.039138,0.0 120.702711,22.038153,0.0 120.70227,22.037387,0.0 120.701869,22.036469,0.0 120.701682,22.035552,0.0 120.701037,22.034853,0.0 120.700242,22.03419,0.0 120.699374,22.033721,0.0 120.698652,22.033643,0.0 120.697782,22.033572,0.0 120.696922,22.033861,0.0 120.696065,22.034117,0.0 120.695282,22.034129,0.0 120.694503,22.034516,0.0 120.694085,22.035328,0.0 120.693341,22.035866,0.0 120.69276,22.035649,0.0 120.692713,22.034594,0.0 120.692198,22.033918,0.0 120.691817,22.033233,0.0 120.691279,22.032566,0.0 120.690859,22.031888,0.0 120.690799,22.030953,0.0 120.690647,22.029973,0.0 120.690588,22.029011,0.0 120.690822,22.02825,0.0 120.691154,22.027508,0.0 120.691109,22.02679,0.0 120.690897,22.025977,0.0 120.691169,22.025467,0.0 120.691537,22.024607,0.0 120.692072,22.023597,0.0 120.692404,22.022656,0.0 120.692804,22.021467,0.0 120.69298,22.020677,0.0 120.693263,22.019666,0.0 120.693892,22.018592,0.0 120.694635,22.017467,0.0 120.695236,22.016467,0.0 120.696154,22.01527,0.0 120.696962,22.014168,0.0 120.69759,22.013015,0.0 120.6981,22.011871,0.0 120.709437,22.015455,0.0 120.716517,22.020378,0.0 120.721118,22.021962,0.0 120.721625,22.021272,0.0 120.722578,22.02166,0.0 120.724372,22.022326,0.0 120.730725,22.025957,0.0 120.734432,22.026236,0.0 120.735637,22.026644,0.0 120.733287,22.027117,0.0 120.730855,22.027829,0.0 120.728877,22.028162,0.0 120.72768,22.028374,0.0 120.725541,22.027355,0.0 120.724538,22.02885,0.0 120.7222,22.028875,0.0 120.720292,22.029274,0.0 120.718286,22.028205,0.0 120.717726,22.031144,0.0 120.717022,22.031892,0.0 120.715157,22.032499,0.0 120.712995,22.033064,0.0 120.709829,22.034867,0.0 120.705429,22.040522,0.0 120.705391,22.040538,0.0</coordinates></LinearRing></outerBoundaryIs></Polygon><styleUrl>#spolygon-map</styleUrl></Placemark><Placemark><Polygon><outerBoundaryIs><LinearRing><coordinates>120.740154,21.989499,0.0 120.73388,21.98717,0.0 120.730622,21.986223,0.0 120.726523,21.987646,0.0 120.724152,21.986687,0.0 120.726337,21.980533,0.0 120.730906,21.974033,0.0 120.731628,21.969509,0.0 120.731648,21.965115,0.0 120.731818,21.962912,0.0 120.731274,21.962096,0.0 120.731353,21.96066,0.0 120.738691,21.962614,0.0 120.748279,21.964144,0.0 120.75705,21.967817,0.0 120.749375,21.984675,0.0 120.742414,21.983713,0.0 120.740154,21.989499,0.0</coordinates></LinearRing></outerBoundaryIs></Polygon><styleUrl>#spolygon-map</styleUrl></Placemark><Placemark><Polygon><outerBoundaryIs><LinearRing><coordinates>120.844233,21.979378,0.0 120.843197,21.97836,0.0 120.842342,21.978285,0.0 120.841733,21.977618,0.0 120.840782,21.976976,0.0 120.840267,21.976181,0.0 120.839803,21.975776,0.0 120.839062,21.975177,0.0 120.838253,21.975303,0.0 120.837253,21.974412,0.0 120.83592,21.973009,0.0 120.83536,21.972279,0.0 120.834747,21.971429,0.0 120.834307,21.970785,0.0 120.833334,21.970665,0.0 120.832434,21.971005,0.0 120.831371,21.971092,0.0 120.830421,21.971102,0.0 120.829508,21.970708,0.0 120.828616,21.970373,0.0 120.828538,21.969267,0.0 120.827897,21.96836,0.0 120.828477,21.965028,0.0 120.82621,21.963256,0.0 120.82507,21.95896,0.0 120.824471,21.954838,0.0 120.822504,21.951993,0.0 120.819265,21.950809,0.0 120.814128,21.941864,0.0 120.813695,21.939845,0.0 120.819022,21.935163,0.0 120.822435,21.93374,0.0 120.823387,21.932176,0.0 120.823949,21.930885,0.0 120.826363,21.928946,0.0 120.829765,21.925897,0.0 120.831878,21.92426,0.0 120.833111,21.922628,0.0 120.834198,21.919744,0.0 120.835241,21.917893,0.0 120.837066,21.916263,0.0 120.845161,21.914794,0.0 120.847097,21.91046,0.0 120.847654,21.904881,0.0 120.848347,21.905006,0.0 120.847992,21.903066,0.0 120.850186,21.899087,0.0 120.857708,21.896987,0.0 120.862869,21.89761,0.0 120.866073,21.901542,0.0 120.86324,21.904416,0.0 120.861239,21.907467,0.0 120.860818,21.909696,0.0 120.861788,21.913384,0.0 120.861509,21.917199,0.0 120.858395,21.921426,0.0 120.855994,21.924226,0.0 120.854883,21.926503,0.0 120.854528,21.927503,0.0 120.854018,21.928289,0.0 120.852222,21.930218,0.0 120.848889,21.932319,0.0 120.848881,21.933306,0.0 120.848104,21.934156,0.0 120.848216,21.93608,0.0 120.846822,21.938897,0.0 120.846053,21.940292,0.0 120.845069,21.941675,0.0 120.844499,21.942327,0.0 120.843235,21.945613,0.0 120.842796,21.947663,0.0 120.841051,21.949531,0.0 120.841543,21.951196,0.0 120.841541,21.952848,0.0 120.841298,21.955386,0.0 120.840688,21.95658,0.0 120.84081,21.959032,0.0 120.841523,21.96279,0.0 120.842481,21.965607,0.0 120.84396,21.968286,0.0 120.844547,21.971678,0.0 120.844518,21.974507,0.0 120.845452,21.976913,0.0 120.844233,21.979378,0.0</coordinates></LinearRing></outerBoundaryIs></Polygon><styleUrl>#spolygon-map</styleUrl></Placemark></Document>
</kml>
