<?xml version="1.0" encoding="UTF-8"?>
<kml xmlns="http://www.opengis.net/kml/2.2">
	<Document>
		<name>屏東縣高樹鄉</name>
		<Style id="spolygon">
			<LabelStyle>
				<scale>0.0</scale>
			</LabelStyle>
			<LineStyle>
				<color>330030ff</color>
				<width>0</width>
			</LineStyle>
			<PolyStyle>
				<color>330030ff</color>
			</PolyStyle>
		</Style>
		<StyleMap id="spolygon-map">
			<Pair>
				<key>normal</key>
				<styleUrl>#spolygon</styleUrl>
			</Pair>
		</StyleMap>
	<Placemark><Polygon><outerBoundaryIs><LinearRing><coordinates>120.585459,22.856379,0.0 120.580342,22.852455,0.0 120.573638,22.847161,0.0 120.584533,22.830508,0.0 120.58972,22.830169,0.0 120.591285,22.833494,0.0 120.597444,22.834099,0.0 120.60004,22.833864,0.0 120.602517,22.835616,0.0 120.604763,22.836644,0.0 120.606329,22.838398,0.0 120.60474,22.841509,0.0 120.590257,22.851237,0.0 120.585459,22.856379,0.0</coordinates></LinearRing></outerBoundaryIs></Polygon><styleUrl>#spolygon-map</styleUrl></Placemark><Placemark><Polygon><outerBoundaryIs><LinearRing><coordinates>120.610435,22.841234,0.0 120.61755,22.840658,0.0 120.613299,22.845477,0.0 120.610171,22.846433,0.0 120.610855,22.849636,0.0 120.610079,22.853226,0.0 120.608153,22.854556,0.0 120.607111,22.846785,0.0 120.610085,22.841146,0.0 120.610435,22.841234,0.0</coordinates></LinearRing></outerBoundaryIs></Polygon><styleUrl>#spolygon-map</styleUrl></Placemark><Placemark><Polygon><outerBoundaryIs><LinearRing><coordinates>120.590563,22.807951,0.0 120.584466,22.807577,0.0 120.576291,22.805715,0.0 120.571951,22.79938,0.0 120.578161,22.794876,0.0 120.588986,22.801623,0.0 120.590509,22.805707,0.0 120.590563,22.807951,0.0</coordinates></LinearRing></outerBoundaryIs></Polygon><styleUrl>#spolygon-map</styleUrl></Placemark><Placemark><Polygon><outerBoundaryIs><LinearRing><coordinates>120.571368,22.845027,0.0 120.567934,22.840423,0.0 120.566498,22.837402,0.0 120.565985,22.835114,0.0 120.565285,22.832565,0.0 120.564756,22.831058,0.0 120.563669,22.829678,0.0 120.562237,22.828216,0.0 120.561118,22.826709,0.0 120.561122,22.825801,0.0 120.562016,22.825045,0.0 120.563117,22.824547,0.0 120.582775,22.820373,0.0 120.584594,22.821405,0.0 120.587465,22.824072,0.0 120.589447,22.826355,0.0 120.583748,22.831208,0.0 120.571368,22.845027,0.0</coordinates></LinearRing></outerBoundaryIs></Polygon><styleUrl>#spolygon-map</styleUrl></Placemark><Placemark><Polygon><outerBoundaryIs><LinearRing><coordinates>120.599584,22.832944,0.0 120.595101,22.834872,0.0 120.590661,22.831813,0.0 120.588793,22.828837,0.0 120.589461,22.825997,0.0 120.586879,22.823091,0.0 120.584209,22.821133,0.0 120.579704,22.817286,0.0 120.5876,22.815812,0.0 120.59489,22.822287,0.0 120.596079,22.826605,0.0 120.599534,22.832265,0.0 120.599584,22.832944,0.0</coordinates></LinearRing></outerBoundaryIs></Polygon><styleUrl>#spolygon-map</styleUrl></Placemark><Placemark><Polygon><outerBoundaryIs><LinearRing><coordinates>120.598783,22.813341,0.0 120.599998,22.818523,0.0 120.60068,22.822582,0.0 120.600136,22.825014,0.0 120.596535,22.824385,0.0 120.596633,22.822768,0.0 120.592061,22.818363,0.0 120.584496,22.812959,0.0 120.587283,22.810388,0.0 120.591916,22.807756,0.0 120.598445,22.812103,0.0 120.598783,22.813341,0.0</coordinates></LinearRing></outerBoundaryIs></Polygon><styleUrl>#spolygon-map</styleUrl></Placemark><Placemark><Polygon><outerBoundaryIs><LinearRing><coordinates>120.598442,22.784941,0.0 120.593363,22.784031,0.0 120.590676,22.779981,0.0 120.585408,22.780636,0.0 120.583287,22.780276,0.0 120.582418,22.778806,0.0 120.581,22.775815,0.0 120.57872,22.772967,0.0 120.579445,22.772176,0.0 120.580154,22.771546,0.0 120.580955,22.771422,0.0 120.581757,22.77136,0.0 120.582569,22.771324,0.0 120.583204,22.77077,0.0 120.583714,22.76988,0.0 120.584076,22.769095,0.0 120.584959,22.768763,0.0 120.586641,22.768285,0.0 120.587481,22.768165,0.0 120.588502,22.767653,0.0 120.590032,22.76693,0.0 120.591164,22.766519,0.0 120.592144,22.766068,0.0 120.593135,22.76552,0.0 120.594192,22.76492,0.0 120.595364,22.764245,0.0 120.596624,22.764678,0.0 120.598165,22.765431,0.0 120.600174,22.766389,0.0 120.605636,22.768303,0.0 120.610838,22.772892,0.0 120.609083,22.777124,0.0 120.606927,22.782313,0.0 120.600261,22.785207,0.0 120.598442,22.784941,0.0</coordinates></LinearRing></outerBoundaryIs></Polygon><styleUrl>#spolygon-map</styleUrl></Placemark><Placemark><Polygon><outerBoundaryIs><LinearRing><coordinates>120.617642,22.840195,0.0 120.609248,22.838446,0.0 120.608552,22.827471,0.0 120.615183,22.823618,0.0 120.625826,22.818333,0.0 120.629474,22.817759,0.0 120.630151,22.818443,0.0 120.629651,22.818891,0.0 120.629049,22.81937,0.0 120.628419,22.819479,0.0 120.627758,22.819439,0.0 120.627127,22.81951,0.0 120.627413,22.820008,0.0 120.627845,22.82076,0.0 120.627953,22.821418,0.0 120.627899,22.82214,0.0 120.628084,22.822874,0.0 120.628039,22.823612,0.0 120.628859,22.824172,0.0 120.62927,22.82511,0.0 120.629863,22.825457,0.0 120.62965,22.826298,0.0 120.629967,22.827048,0.0 120.630222,22.827758,0.0 120.630442,22.828515,0.0 120.631264,22.828871,0.0 120.632037,22.829358,0.0 120.631176,22.829742,0.0 120.63006,22.830284,0.0 120.629928,22.831153,0.0 120.629974,22.832018,0.0 120.629962,22.83307,0.0 120.629688,22.833877,0.0 120.629467,22.834742,0.0 120.629366,22.835787,0.0 120.629225,22.836297,0.0 120.62983,22.836908,0.0 120.630167,22.83754,0.0 120.630737,22.838276,0.0 120.628163,22.837897,0.0 120.625673,22.836202,0.0 120.624006,22.836716,0.0 120.619695,22.840135,0.0 120.617642,22.840195,0.0</coordinates></LinearRing></outerBoundaryIs></Polygon><styleUrl>#spolygon-map</styleUrl></Placemark><Placemark><Polygon><outerBoundaryIs><LinearRing><coordinates>120.630344,22.817952,0.0 120.625713,22.817529,0.0 120.621637,22.815548,0.0 120.61321,22.801205,0.0 120.603373,22.797914,0.0 120.598608,22.787242,0.0 120.601715,22.785886,0.0 120.608226,22.780099,0.0 120.608959,22.775297,0.0 120.612059,22.773376,0.0 120.617943,22.774869,0.0 120.623501,22.772758,0.0 120.62695,22.772161,0.0 120.633427,22.770774,0.0 120.638067,22.770586,0.0 120.637466,22.770914,0.0 120.637835,22.771852,0.0 120.636919,22.772879,0.0 120.635894,22.773963,0.0 120.635083,22.774632,0.0 120.634176,22.775208,0.0 120.633346,22.775608,0.0 120.633188,22.776122,0.0 120.63272,22.776202,0.0 120.631872,22.7762,0.0 120.631244,22.775808,0.0 120.630406,22.775705,0.0 120.629433,22.775915,0.0 120.628748,22.776414,0.0 120.629076,22.777264,0.0 120.629416,22.778123,0.0 120.629842,22.779085,0.0 120.630134,22.77975,0.0 120.630439,22.780627,0.0 120.630154,22.781281,0.0 120.62988,22.781664,0.0 120.630658,22.781898,0.0 120.630712,22.782691,0.0 120.630269,22.7836,0.0 120.629844,22.784493,0.0 120.629433,22.785397,0.0 120.629397,22.786043,0.0 120.629548,22.786745,0.0 120.629695,22.787606,0.0 120.629799,22.788368,0.0 120.629928,22.789207,0.0 120.629985,22.790013,0.0 120.630028,22.790955,0.0 120.629767,22.791491,0.0 120.629495,22.791762,0.0 120.629421,22.792281,0.0 120.630148,22.792718,0.0 120.630338,22.793353,0.0 120.629997,22.793894,0.0 120.629902,22.794698,0.0 120.629955,22.795881,0.0 120.630005,22.796834,0.0 120.630044,22.797868,0.0 120.63013,22.798875,0.0 120.630226,22.800139,0.0 120.630234,22.801347,0.0 120.630159,22.802372,0.0 120.6301,22.80346,0.0 120.629999,22.804514,0.0 120.629863,22.805666,0.0 120.629752,22.806614,0.0 120.629594,22.807898,0.0 120.629472,22.808857,0.0 120.629369,22.809733,0.0 120.629238,22.810751,0.0 120.62913,22.811525,0.0 120.629936,22.812118,0.0 120.631048,22.812195,0.0 120.631952,22.812495,0.0 120.632717,22.812931,0.0 120.633401,22.813379,0.0 120.634247,22.813955,0.0 120.635059,22.814435,0.0 120.635538,22.814786,0.0 120.635315,22.815352,0.0 120.634494,22.81573,0.0 120.634196,22.816077,0.0 120.633569,22.816577,0.0 120.632689,22.816884,0.0 120.6316,22.817249,0.0 120.63078,22.817575,0.0 120.630344,22.817952,0.0</coordinates></LinearRing></outerBoundaryIs></Polygon><styleUrl>#spolygon-map</styleUrl></Placemark><Placemark><Polygon><outerBoundaryIs><LinearRing><coordinates>120.610435,22.841234,0.0 120.606642,22.838577,0.0 120.604835,22.836893,0.0 120.602695,22.835774,0.0 120.600775,22.834345,0.0 120.599177,22.830663,0.0 120.595351,22.825664,0.0 120.596633,22.822874,0.0 120.596613,22.824489,0.0 120.600465,22.824887,0.0 120.600651,22.822465,0.0 120.60028,22.817813,0.0 120.599374,22.813453,0.0 120.605748,22.815377,0.0 120.610674,22.82328,0.0 120.6093,22.82732,0.0 120.606329,22.831598,0.0 120.610435,22.841234,0.0</coordinates></LinearRing></outerBoundaryIs></Polygon><styleUrl>#spolygon-map</styleUrl></Placemark><Placemark><Polygon><outerBoundaryIs><LinearRing><coordinates>120.601704,22.870128,0.0 120.598658,22.867408,0.0 120.595413,22.863848,0.0 120.59273,22.861753,0.0 120.589355,22.859263,0.0 120.586675,22.855206,0.0 120.602242,22.842081,0.0 120.608943,22.840702,0.0 120.607238,22.853204,0.0 120.607736,22.857291,0.0 120.601704,22.870128,0.0</coordinates></LinearRing></outerBoundaryIs></Polygon><styleUrl>#spolygon-map</styleUrl></Placemark><Placemark><Polygon><outerBoundaryIs><LinearRing><coordinates>120.572113,22.791521,0.0 120.559364,22.798424,0.0 120.552529,22.804422,0.0 120.551152,22.803235,0.0 120.549819,22.802041,0.0 120.548541,22.80095,0.0 120.547175,22.799833,0.0 120.545998,22.798868,0.0 120.544919,22.797975,0.0 120.54543,22.797441,0.0 120.546329,22.796563,0.0 120.547405,22.795517,0.0 120.548396,22.794537,0.0 120.549748,22.7932,0.0 120.550769,22.792223,0.0 120.551599,22.791395,0.0 120.551051,22.790537,0.0 120.550384,22.7897,0.0 120.550034,22.788853,0.0 120.550432,22.788104,0.0 120.550971,22.787282,0.0 120.551472,22.786798,0.0 120.552271,22.7864,0.0 120.552735,22.785652,0.0 120.552878,22.784815,0.0 120.552741,22.783855,0.0 120.552616,22.783042,0.0 120.552435,22.781901,0.0 120.552098,22.78111,0.0 120.551467,22.780584,0.0 120.550942,22.780021,0.0 120.550729,22.779228,0.0 120.550569,22.778706,0.0 120.54989,22.778198,0.0 120.549045,22.777534,0.0 120.548251,22.777096,0.0 120.547953,22.776466,0.0 120.54751,22.776169,0.0 120.547424,22.77545,0.0 120.546999,22.774449,0.0 120.546539,22.773378,0.0 120.546032,22.772247,0.0 120.545377,22.770816,0.0 120.5463,22.770464,0.0 120.547015,22.769922,0.0 120.547762,22.769647,0.0 120.548825,22.769614,0.0 120.549956,22.769953,0.0 120.551209,22.770024,0.0 120.551961,22.76993,0.0 120.553054,22.769912,0.0 120.553797,22.769815,0.0 120.553933,22.770669,0.0 120.553919,22.771152,0.0 120.554564,22.771217,0.0 120.55535,22.771233,0.0 120.556882,22.771501,0.0 120.557896,22.77196,0.0 120.558969,22.772186,0.0 120.560057,22.772713,0.0 120.56082,22.773022,0.0 120.561782,22.772899,0.0 120.562728,22.772824,0.0 120.563778,22.772699,0.0 120.564902,22.772598,0.0 120.565988,22.77249,0.0 120.567204,22.772365,0.0 120.568184,22.772248,0.0 120.568958,22.772349,0.0 120.569987,22.77239,0.0 120.571171,22.772339,0.0 120.572327,22.772173,0.0 120.573301,22.771875,0.0 120.574593,22.771522,0.0 120.57582,22.772171,0.0 120.57683,22.772756,0.0 120.57777,22.773088,0.0 120.57847,22.773056,0.0 120.581941,22.776204,0.0 120.582495,22.779068,0.0 120.583634,22.780518,0.0 120.586501,22.780221,0.0 120.591121,22.780495,0.0 120.588237,22.787606,0.0 120.572113,22.791521,0.0</coordinates></LinearRing></outerBoundaryIs></Polygon><styleUrl>#spolygon-map</styleUrl></Placemark><Placemark><Polygon><outerBoundaryIs><LinearRing><coordinates>120.647685,22.879571,0.0 120.646734,22.883242,0.0 120.644476,22.885041,0.0 120.641767,22.883721,0.0 120.637477,22.88253,0.0 120.633885,22.880644,0.0 120.631028,22.880064,0.0 120.626967,22.878716,0.0 120.623399,22.876831,0.0 120.620408,22.875596,0.0 120.619851,22.867182,0.0 120.616746,22.860679,0.0 120.624252,22.855123,0.0 120.631767,22.848063,0.0 120.632714,22.84841,0.0 120.633749,22.848485,0.0 120.634456,22.848685,0.0 120.635171,22.849041,0.0 120.635853,22.849761,0.0 120.636442,22.850363,0.0 120.637142,22.850979,0.0 120.637978,22.851511,0.0 120.638692,22.851993,0.0 120.639362,22.852241,0.0 120.64007,22.852082,0.0 120.639922,22.852838,0.0 120.639955,22.853746,0.0 120.640365,22.854445,0.0 120.640456,22.855011,0.0 120.640484,22.855759,0.0 120.639953,22.856358,0.0 120.640027,22.857146,0.0 120.640275,22.857881,0.0 120.640682,22.858721,0.0 120.640892,22.859397,0.0 120.64105,22.860102,0.0 120.641648,22.861035,0.0 120.642508,22.86199,0.0 120.643054,22.862709,0.0 120.643113,22.863777,0.0 120.643203,22.864565,0.0 120.643648,22.86551,0.0 120.644135,22.866159,0.0 120.644377,22.866833,0.0 120.644812,22.867626,0.0 120.645189,22.868577,0.0 120.645673,22.869495,0.0 120.646464,22.870833,0.0 120.647339,22.872391,0.0 120.644994,22.874338,0.0 120.644607,22.876311,0.0 120.644504,22.877724,0.0 120.645365,22.879178,0.0 120.646069,22.879981,0.0 120.647685,22.879571,0.0</coordinates></LinearRing></outerBoundaryIs></Polygon><styleUrl>#spolygon-map</styleUrl></Placemark><Placemark><Polygon><outerBoundaryIs><LinearRing><coordinates>120.626184,22.817449,0.0 120.619707,22.820545,0.0 120.610674,22.82328,0.0 120.605748,22.815377,0.0 120.599374,22.813453,0.0 120.599909,22.803679,0.0 120.603916,22.798178,0.0 120.615749,22.804029,0.0 120.622417,22.817329,0.0 120.626184,22.817449,0.0</coordinates></LinearRing></outerBoundaryIs></Polygon><styleUrl>#spolygon-map</styleUrl></Placemark><Placemark><Polygon><outerBoundaryIs><LinearRing><coordinates>120.63814,22.770557,0.0 120.632156,22.77057,0.0 120.626727,22.772237,0.0 120.62279,22.773021,0.0 120.617633,22.774821,0.0 120.611828,22.772951,0.0 120.604708,22.768105,0.0 120.601262,22.766087,0.0 120.601878,22.764503,0.0 120.602539,22.762764,0.0 120.603045,22.761537,0.0 120.603752,22.760076,0.0 120.604459,22.758522,0.0 120.605567,22.757861,0.0 120.606878,22.757104,0.0 120.608332,22.756326,0.0 120.609495,22.755918,0.0 120.611365,22.755281,0.0 120.614093,22.755132,0.0 120.621348,22.753987,0.0 120.626229,22.754802,0.0 120.631769,22.757712,0.0 120.633632,22.75833,0.0 120.633811,22.758974,0.0 120.6344,22.759671,0.0 120.63471,22.760439,0.0 120.635055,22.761503,0.0 120.635813,22.762191,0.0 120.636595,22.762563,0.0 120.637465,22.76327,0.0 120.638142,22.763793,0.0 120.63898,22.764415,0.0 120.639649,22.765277,0.0 120.640372,22.765852,0.0 120.641264,22.766046,0.0 120.641256,22.766714,0.0 120.641734,22.7674,0.0 120.642381,22.767866,0.0 120.643353,22.768363,0.0 120.64434,22.767974,0.0 120.64531,22.767509,0.0 120.645829,22.768361,0.0 120.645312,22.769135,0.0 120.645096,22.76976,0.0 120.644389,22.770438,0.0 120.643443,22.770928,0.0 120.642567,22.77105,0.0 120.641753,22.771204,0.0 120.640988,22.771387,0.0 120.64037,22.771171,0.0 120.639555,22.770948,0.0 120.638639,22.770637,0.0 120.63814,22.770557,0.0</coordinates></LinearRing></outerBoundaryIs></Polygon><styleUrl>#spolygon-map</styleUrl></Placemark><Placemark><Polygon><outerBoundaryIs><LinearRing><coordinates>120.633437,22.757869,0.0 120.628071,22.754061,0.0 120.622477,22.754222,0.0 120.616427,22.755323,0.0 120.612785,22.754693,0.0 120.613492,22.753945,0.0 120.614434,22.752591,0.0 120.614977,22.751517,0.0 120.615468,22.750092,0.0 120.615905,22.748804,0.0 120.616126,22.747874,0.0 120.616214,22.746851,0.0 120.616292,22.745883,0.0 120.61638,22.744883,0.0 120.616482,22.743775,0.0 120.616584,22.742895,0.0 120.616626,22.741739,0.0 120.616518,22.74098,0.0 120.61642,22.740036,0.0 120.616551,22.739167,0.0 120.616936,22.738373,0.0 120.617713,22.737583,0.0 120.618331,22.736999,0.0 120.619026,22.736315,0.0 120.619824,22.735917,0.0 120.620726,22.735571,0.0 120.621632,22.735151,0.0 120.622632,22.734614,0.0 120.623485,22.734027,0.0 120.624306,22.733516,0.0 120.624812,22.73289,0.0 120.625378,22.73209,0.0 120.625914,22.731344,0.0 120.626508,22.730765,0.0 120.627118,22.730071,0.0 120.627559,22.729408,0.0 120.627983,22.728738,0.0 120.628341,22.727908,0.0 120.628726,22.72725,0.0 120.629076,22.726477,0.0 120.629497,22.725656,0.0 120.629845,22.725006,0.0 120.630468,22.724073,0.0 120.630743,22.723311,0.0 120.633052,22.721087,0.0 120.635354,22.720023,0.0 120.636593,22.721678,0.0 120.636891,22.723465,0.0 120.637713,22.723945,0.0 120.638149,22.724696,0.0 120.638337,22.725599,0.0 120.638735,22.72637,0.0 120.638564,22.727078,0.0 120.638631,22.72793,0.0 120.638688,22.72891,0.0 120.638806,22.729768,0.0 120.638944,22.730628,0.0 120.639199,22.731638,0.0 120.639259,22.732338,0.0 120.638838,22.73315,0.0 120.639103,22.734277,0.0 120.639323,22.735215,0.0 120.639027,22.735749,0.0 120.638075,22.73619,0.0 120.637626,22.736798,0.0 120.637498,22.737326,0.0 120.637136,22.738077,0.0 120.636264,22.738145,0.0 120.635858,22.738729,0.0 120.635633,22.739494,0.0 120.634985,22.740116,0.0 120.634518,22.740776,0.0 120.634295,22.741857,0.0 120.634264,22.742665,0.0 120.634053,22.743446,0.0 120.634238,22.744209,0.0 120.634038,22.744888,0.0 120.633395,22.745621,0.0 120.63275,22.746159,0.0 120.632155,22.74683,0.0 120.631949,22.747536,0.0 120.631898,22.748313,0.0 120.632282,22.748876,0.0 120.631664,22.749633,0.0 120.631325,22.75031,0.0 120.631282,22.751048,0.0 120.631451,22.751748,0.0 120.631769,22.752508,0.0 120.632317,22.75338,0.0 120.632664,22.754323,0.0 120.63321,22.755103,0.0 120.633383,22.755774,0.0 120.633386,22.756672,0.0 120.633355,22.757596,0.0 120.633437,22.757869,0.0</coordinates></LinearRing></outerBoundaryIs></Polygon><styleUrl>#spolygon-map</styleUrl></Placemark><Placemark><Polygon><outerBoundaryIs><LinearRing><coordinates>120.596799,22.808617,0.0 120.590563,22.807951,0.0 120.5898,22.80466,0.0 120.585303,22.799361,0.0 120.575534,22.793275,0.0 120.593363,22.784031,0.0 120.598442,22.784941,0.0 120.601902,22.792506,0.0 120.602799,22.799789,0.0 120.596799,22.808617,0.0</coordinates></LinearRing></outerBoundaryIs></Polygon><styleUrl>#spolygon-map</styleUrl></Placemark><Placemark><Polygon><outerBoundaryIs><LinearRing><coordinates>120.62033,22.875618,0.0 120.616006,22.876872,0.0 120.612044,22.875668,0.0 120.608426,22.874291,0.0 120.605819,22.873214,0.0 120.602334,22.870693,0.0 120.606142,22.860861,0.0 120.610079,22.853226,0.0 120.610855,22.849636,0.0 120.610171,22.846433,0.0 120.613299,22.845477,0.0 120.61755,22.840658,0.0 120.62289,22.838734,0.0 120.625244,22.836226,0.0 120.627439,22.837408,0.0 120.631019,22.839042,0.0 120.63097,22.839764,0.0 120.631172,22.840785,0.0 120.631471,22.841535,0.0 120.632187,22.841823,0.0 120.632517,22.842434,0.0 120.632145,22.843052,0.0 120.631374,22.84342,0.0 120.63035,22.843393,0.0 120.629666,22.844143,0.0 120.628952,22.844929,0.0 120.628335,22.84586,0.0 120.628014,22.846713,0.0 120.628768,22.846922,0.0 120.629439,22.847084,0.0 120.630448,22.847358,0.0 120.631478,22.847793,0.0 120.629609,22.851221,0.0 120.617905,22.856327,0.0 120.617742,22.864179,0.0 120.620063,22.870052,0.0 120.62033,22.875618,0.0</coordinates></LinearRing></outerBoundaryIs></Polygon><styleUrl>#spolygon-map</styleUrl></Placemark><Placemark><Polygon><outerBoundaryIs><LinearRing><coordinates>120.578763,22.816172,0.0 120.563058,22.824138,0.0 120.562629,22.823144,0.0 120.562645,22.822295,0.0 120.56237,22.821438,0.0 120.562139,22.820661,0.0 120.561572,22.820005,0.0 120.560764,22.819357,0.0 120.559671,22.818579,0.0 120.558968,22.818022,0.0 120.558439,22.817447,0.0 120.557964,22.816938,0.0 120.557501,22.816194,0.0 120.55725,22.815324,0.0 120.557013,22.814445,0.0 120.556554,22.813319,0.0 120.556043,22.812428,0.0 120.555414,22.811646,0.0 120.555131,22.810855,0.0 120.555111,22.809825,0.0 120.555136,22.808854,0.0 120.555227,22.807965,0.0 120.555471,22.807076,0.0 120.554423,22.806064,0.0 120.553087,22.804902,0.0 120.557552,22.799963,0.0 120.569444,22.792744,0.0 120.571117,22.800653,0.0 120.578071,22.806406,0.0 120.586525,22.809587,0.0 120.584538,22.812458,0.0 120.578763,22.816172,0.0</coordinates></LinearRing></outerBoundaryIs></Polygon><styleUrl>#spolygon-map</styleUrl></Placemark></Document>
</kml>
