<?xml version="1.0" encoding="UTF-8"?>
<kml xmlns="http://www.opengis.net/kml/2.2">
	<Document>
		<name>彰化縣二水鄉</name>
		<Style id="spolygon">
			<LabelStyle>
				<scale>0.0</scale>
			</LabelStyle>
			<LineStyle>
				<color>330030ff</color>
				<width>0</width>
			</LineStyle>
			<PolyStyle>
				<color>330030ff</color>
			</PolyStyle>
		</Style>
		<StyleMap id="spolygon-map">
			<Pair>
				<key>normal</key>
				<styleUrl>#spolygon</styleUrl>
			</Pair>
		</StyleMap>
	<Placemark><Polygon><outerBoundaryIs><LinearRing><coordinates>120.645779,23.797028,0.0 120.642819,23.798495,0.0 120.638107,23.799471,0.0 120.636402,23.797714,0.0 120.634298,23.794535,0.0 120.631398,23.791651,0.0 120.632242,23.789187,0.0 120.633642,23.788188,0.0 120.634893,23.7869,0.0 120.637498,23.786459,0.0 120.640471,23.786023,0.0 120.64233,23.785693,0.0 120.644571,23.786755,0.0 120.645928,23.787011,0.0 120.647727,23.787568,0.0 120.646294,23.794769,0.0 120.645779,23.797028,0.0</coordinates></LinearRing></outerBoundaryIs></Polygon><styleUrl>#spolygon-map</styleUrl></Placemark><Placemark><Polygon><outerBoundaryIs><LinearRing><coordinates>120.629066,23.804384,0.0 120.623936,23.803995,0.0 120.62137,23.803506,0.0 120.615952,23.79421,0.0 120.617503,23.790896,0.0 120.620522,23.790531,0.0 120.623571,23.790263,0.0 120.625992,23.789987,0.0 120.628219,23.790021,0.0 120.630354,23.789742,0.0 120.63385,23.793727,0.0 120.636102,23.796429,0.0 120.638041,23.7989,0.0 120.633426,23.800913,0.0 120.629066,23.804384,0.0</coordinates></LinearRing></outerBoundaryIs></Polygon><styleUrl>#spolygon-map</styleUrl></Placemark><Placemark><Polygon><outerBoundaryIs><LinearRing><coordinates>120.629303,23.805402,0.0 120.622314,23.808802,0.0 120.617318,23.808671,0.0 120.614972,23.806534,0.0 120.615045,23.804873,0.0 120.613077,23.802242,0.0 120.612744,23.799975,0.0 120.611429,23.796679,0.0 120.610377,23.791185,0.0 120.612793,23.791183,0.0 120.615365,23.791321,0.0 120.619262,23.799473,0.0 120.622663,23.804305,0.0 120.627055,23.804329,0.0 120.629303,23.805402,0.0</coordinates></LinearRing></outerBoundaryIs></Polygon><styleUrl>#spolygon-map</styleUrl></Placemark><Placemark><Polygon><outerBoundaryIs><LinearRing><coordinates>120.616425,23.810948,0.0 120.615876,23.809714,0.0 120.616934,23.810617,0.0 120.616425,23.810948,0.0</coordinates></LinearRing></outerBoundaryIs></Polygon><styleUrl>#spolygon-map</styleUrl></Placemark><Placemark><Polygon><outerBoundaryIs><LinearRing><coordinates>120.645779,23.797028,0.0 120.648301,23.79985,0.0 120.651568,23.800458,0.0 120.654147,23.806221,0.0 120.655579,23.811214,0.0 120.655477,23.812791,0.0 120.653919,23.812786,0.0 120.65272,23.812644,0.0 120.65134,23.81244,0.0 120.648505,23.810581,0.0 120.643593,23.803185,0.0 120.641138,23.800142,0.0 120.640849,23.798444,0.0 120.64225,23.797137,0.0 120.645779,23.797028,0.0</coordinates></LinearRing></outerBoundaryIs></Polygon><styleUrl>#spolygon-map</styleUrl></Placemark><Placemark><Polygon><outerBoundaryIs><LinearRing><coordinates>120.614722,23.813067,0.0 120.612992,23.810784,0.0 120.595644,23.799151,0.0 120.588983,23.791633,0.0 120.59141,23.791336,0.0 120.592696,23.79104,0.0 120.597824,23.791092,0.0 120.608144,23.791182,0.0 120.60938,23.791254,0.0 120.610799,23.794768,0.0 120.61261,23.799092,0.0 120.612822,23.801549,0.0 120.613942,23.803963,0.0 120.614519,23.806172,0.0 120.616764,23.80813,0.0 120.615732,23.811319,0.0 120.614722,23.813067,0.0</coordinates></LinearRing></outerBoundaryIs></Polygon><styleUrl>#spolygon-map</styleUrl></Placemark><Placemark><Polygon><outerBoundaryIs><LinearRing><coordinates>120.620797,23.81362,0.0 120.616786,23.811266,0.0 120.619023,23.809609,0.0 120.623405,23.809833,0.0 120.623477,23.812996,0.0 120.620797,23.81362,0.0</coordinates></LinearRing></outerBoundaryIs></Polygon><styleUrl>#spolygon-map</styleUrl></Placemark><Placemark><Polygon><outerBoundaryIs><LinearRing><coordinates>120.620205,23.813622,0.0 120.618199,23.81479,0.0 120.614359,23.815888,0.0 120.614736,23.813029,0.0 120.616416,23.811713,0.0 120.620205,23.813622,0.0</coordinates></LinearRing></outerBoundaryIs></Polygon><styleUrl>#spolygon-map</styleUrl></Placemark><Placemark><Polygon><outerBoundaryIs><LinearRing><coordinates>120.613452,23.816558,0.0 120.609464,23.816066,0.0 120.607556,23.811636,0.0 120.592644,23.802364,0.0 120.583605,23.796296,0.0 120.583625,23.794684,0.0 120.58513,23.792589,0.0 120.602442,23.804506,0.0 120.613234,23.811556,0.0 120.614024,23.81392,0.0 120.613452,23.816558,0.0</coordinates></LinearRing></outerBoundaryIs></Polygon><styleUrl>#spolygon-map</styleUrl></Placemark><Placemark><Polygon><outerBoundaryIs><LinearRing><coordinates>120.650672,23.812844,0.0 120.649995,23.814434,0.0 120.648856,23.815926,0.0 120.64748,23.816896,0.0 120.646107,23.817337,0.0 120.644524,23.817596,0.0 120.640307,23.81441,0.0 120.635524,23.80771,0.0 120.632802,23.805816,0.0 120.629534,23.804333,0.0 120.638602,23.799934,0.0 120.643934,23.801196,0.0 120.647453,23.808545,0.0 120.650672,23.812844,0.0</coordinates></LinearRing></outerBoundaryIs></Polygon><styleUrl>#spolygon-map</styleUrl></Placemark><Placemark><Polygon><outerBoundaryIs><LinearRing><coordinates>120.648094,23.787682,0.0 120.650091,23.788351,0.0 120.652044,23.789059,0.0 120.654483,23.789744,0.0 120.658571,23.79111,0.0 120.661666,23.791604,0.0 120.664159,23.792289,0.0 120.666016,23.793287,0.0 120.667786,23.794411,0.0 120.669095,23.795513,0.0 120.670129,23.796451,0.0 120.672013,23.797636,0.0 120.673107,23.798295,0.0 120.674712,23.799612,0.0 120.676443,23.80027,0.0 120.678604,23.801211,0.0 120.680395,23.801691,0.0 120.682568,23.801418,0.0 120.683816,23.801345,0.0 120.683908,23.802801,0.0 120.683622,23.804352,0.0 120.683431,23.805318,0.0 120.682488,23.806073,0.0 120.681132,23.805946,0.0 120.679347,23.805783,0.0 120.679068,23.806616,0.0 120.678472,23.808054,0.0 120.678454,23.809888,0.0 120.678324,23.812179,0.0 120.677969,23.814078,0.0 120.678561,23.815624,0.0 120.678689,23.816608,0.0 120.677001,23.818457,0.0 120.675288,23.819776,0.0 120.673468,23.819786,0.0 120.672124,23.819435,0.0 120.671359,23.818714,0.0 120.669817,23.818465,0.0 120.668493,23.817532,0.0 120.667575,23.816602,0.0 120.666082,23.816215,0.0 120.664801,23.81633,0.0 120.665084,23.815349,0.0 120.663895,23.815361,0.0 120.662611,23.815375,0.0 120.660918,23.814745,0.0 120.658719,23.814518,0.0 120.657474,23.813737,0.0 120.656069,23.812589,0.0 120.65459,23.807999,0.0 120.652372,23.801364,0.0 120.650038,23.800588,0.0 120.646942,23.797898,0.0 120.647553,23.789746,0.0 120.648094,23.787682,0.0</coordinates></LinearRing></outerBoundaryIs></Polygon><styleUrl>#spolygon-map</styleUrl></Placemark><Placemark><Polygon><outerBoundaryIs><LinearRing><coordinates>120.643858,23.818192,0.0 120.642361,23.819407,0.0 120.640917,23.820037,0.0 120.639917,23.820463,0.0 120.636893,23.820559,0.0 120.629061,23.81924,0.0 120.626902,23.818367,0.0 120.624082,23.818033,0.0 120.621952,23.813414,0.0 120.623953,23.811202,0.0 120.630091,23.805435,0.0 120.634463,23.806381,0.0 120.636756,23.808196,0.0 120.64356,23.817953,0.0 120.643858,23.818192,0.0</coordinates></LinearRing></outerBoundaryIs></Polygon><styleUrl>#spolygon-map</styleUrl></Placemark><Placemark><Polygon><outerBoundaryIs><LinearRing><coordinates>120.610887,23.819366,0.0 120.609341,23.820436,0.0 120.607773,23.821185,0.0 120.60402,23.819647,0.0 120.604097,23.819059,0.0 120.602845,23.819855,0.0 120.601896,23.819225,0.0 120.600934,23.818256,0.0 120.600212,23.817301,0.0 120.599493,23.816482,0.0 120.59902,23.81552,0.0 120.598089,23.814671,0.0 120.596814,23.813944,0.0 120.595897,23.813838,0.0 120.595557,23.813548,0.0 120.595327,23.813215,0.0 120.59555,23.813,0.0 120.595184,23.812762,0.0 120.594512,23.812462,0.0 120.592597,23.812412,0.0 120.592187,23.812349,0.0 120.592525,23.812165,0.0 120.592176,23.811697,0.0 120.591769,23.811632,0.0 120.59067,23.811854,0.0 120.590005,23.811827,0.0 120.589716,23.811409,0.0 120.589261,23.81065,0.0 120.588635,23.810469,0.0 120.587824,23.809595,0.0 120.587321,23.808535,0.0 120.586315,23.807526,0.0 120.584614,23.806362,0.0 120.583306,23.805332,0.0 120.582333,23.803721,0.0 120.581844,23.802923,0.0 120.582174,23.80162,0.0 120.582917,23.800107,0.0 120.583431,23.798943,0.0 120.592644,23.802364,0.0 120.607556,23.811636,0.0 120.609464,23.816066,0.0 120.613452,23.816558,0.0 120.610887,23.819366,0.0</coordinates></LinearRing></outerBoundaryIs></Polygon><styleUrl>#spolygon-map</styleUrl></Placemark><Placemark><Polygon><outerBoundaryIs><LinearRing><coordinates>120.640139,23.820759,0.0 120.640382,23.821268,0.0 120.639658,23.821944,0.0 120.638764,23.821921,0.0 120.637875,23.8217,0.0 120.638116,23.82229,0.0 120.638713,23.822805,0.0 120.638414,23.823288,0.0 120.638104,23.823857,0.0 120.638478,23.824642,0.0 120.636895,23.824745,0.0 120.636672,23.825311,0.0 120.633851,23.825844,0.0 120.637942,23.825381,0.0 120.639739,23.825072,0.0 120.639924,23.825606,0.0 120.638868,23.825899,0.0 120.638383,23.826385,0.0 120.639318,23.827259,0.0 120.637467,23.827324,0.0 120.636016,23.828303,0.0 120.63664,23.828034,0.0 120.637875,23.828785,0.0 120.637276,23.829408,0.0 120.636758,23.830065,0.0 120.636246,23.830931,0.0 120.635013,23.831093,0.0 120.634723,23.831352,0.0 120.636034,23.831647,0.0 120.637212,23.831482,0.0 120.638439,23.831533,0.0 120.637401,23.831959,0.0 120.637166,23.832647,0.0 120.636385,23.832964,0.0 120.634839,23.83322,0.0 120.633225,23.832898,0.0 120.631925,23.832129,0.0 120.630392,23.831251,0.0 120.630866,23.832246,0.0 120.629553,23.832003,0.0 120.628288,23.831323,0.0 120.627337,23.831222,0.0 120.626243,23.830844,0.0 120.625132,23.830029,0.0 120.623967,23.82931,0.0 120.619861,23.827695,0.0 120.616653,23.824641,0.0 120.61416,23.820237,0.0 120.614359,23.815888,0.0 120.618199,23.81479,0.0 120.620205,23.813622,0.0 120.624755,23.818396,0.0 120.627173,23.818497,0.0 120.629238,23.81927,0.0 120.637185,23.820565,0.0 120.640139,23.820759,0.0</coordinates></LinearRing></outerBoundaryIs></Polygon><styleUrl>#spolygon-map</styleUrl></Placemark><Placemark><Polygon><outerBoundaryIs><LinearRing><coordinates>120.623728,23.829352,0.0 120.622948,23.830366,0.0 120.6239,23.830769,0.0 120.623988,23.831547,0.0 120.625301,23.831867,0.0 120.626669,23.832055,0.0 120.628257,23.83201,0.0 120.630202,23.832811,0.0 120.631905,23.833301,0.0 120.633185,23.833784,0.0 120.633479,23.834432,0.0 120.63252,23.834453,0.0 120.63141,23.834568,0.0 120.630568,23.834631,0.0 120.629653,23.834435,0.0 120.629826,23.834873,0.0 120.630896,23.835719,0.0 120.629578,23.835901,0.0 120.628372,23.835931,0.0 120.629518,23.836545,0.0 120.629917,23.837357,0.0 120.62876,23.837138,0.0 120.627738,23.837122,0.0 120.626769,23.837139,0.0 120.625825,23.83686,0.0 120.624839,23.836733,0.0 120.621033,23.833864,0.0 120.616973,23.831034,0.0 120.612605,23.824862,0.0 120.610616,23.81974,0.0 120.61337,23.818517,0.0 120.616211,23.823018,0.0 120.618379,23.8263,0.0 120.622942,23.828727,0.0 120.623728,23.829352,0.0</coordinates></LinearRing></outerBoundaryIs></Polygon><styleUrl>#spolygon-map</styleUrl></Placemark><Placemark><Polygon><outerBoundaryIs><LinearRing><coordinates>120.600393,23.83745,0.0 120.59943,23.837675,0.0 120.598972,23.837683,0.0 120.598246,23.838066,0.0 120.597184,23.83774,0.0 120.596727,23.837851,0.0 120.595812,23.838913,0.0 120.595259,23.839183,0.0 120.596042,23.83759,0.0 120.596739,23.836555,0.0 120.597266,23.835798,0.0 120.597945,23.835396,0.0 120.598302,23.834308,0.0 120.598182,23.833572,0.0 120.598142,23.832644,0.0 120.59794,23.831526,0.0 120.598317,23.830905,0.0 120.599153,23.831018,0.0 120.599942,23.830277,0.0 120.59997,23.829323,0.0 120.599764,23.828059,0.0 120.600011,23.827252,0.0 120.60027,23.825887,0.0 120.601192,23.826048,0.0 120.601636,23.825224,0.0 120.601803,23.82416,0.0 120.602117,23.823027,0.0 120.602696,23.822335,0.0 120.603157,23.821656,0.0 120.603651,23.820678,0.0 120.6077,23.821257,0.0 120.609259,23.82047,0.0 120.610782,23.819407,0.0 120.608083,23.823615,0.0 120.604411,23.829884,0.0 120.600393,23.83745,0.0</coordinates></LinearRing></outerBoundaryIs></Polygon><styleUrl>#spolygon-map</styleUrl></Placemark><Placemark><Polygon><outerBoundaryIs><LinearRing><coordinates>120.624849,23.836824,0.0 120.625542,23.837421,0.0 120.626754,23.83767,0.0 120.628341,23.837892,0.0 120.62892,23.838857,0.0 120.627788,23.838831,0.0 120.627183,23.839589,0.0 120.626399,23.840268,0.0 120.626326,23.840944,0.0 120.626232,23.841775,0.0 120.625172,23.841183,0.0 120.624513,23.840624,0.0 120.624068,23.839889,0.0 120.623191,23.839246,0.0 120.622084,23.838674,0.0 120.622971,23.83983,0.0 120.621941,23.839701,0.0 120.62084,23.839612,0.0 120.621275,23.840439,0.0 120.621959,23.841033,0.0 120.620969,23.84171,0.0 120.619316,23.840787,0.0 120.618563,23.839832,0.0 120.617731,23.838397,0.0 120.616866,23.83784,0.0 120.617158,23.838283,0.0 120.617144,23.839028,0.0 120.616702,23.839855,0.0 120.615763,23.840351,0.0 120.614315,23.839892,0.0 120.61159,23.838902,0.0 120.609625,23.837674,0.0 120.608109,23.836974,0.0 120.606328,23.835996,0.0 120.606098,23.835319,0.0 120.605246,23.834991,0.0 120.604594,23.835671,0.0 120.603553,23.837073,0.0 120.602809,23.838211,0.0 120.602615,23.838403,0.0 120.602239,23.837754,0.0 120.601062,23.837073,0.0 120.600793,23.836684,0.0 120.604733,23.829174,0.0 120.608716,23.822627,0.0 120.613729,23.826079,0.0 120.61778,23.831688,0.0 120.621624,23.834899,0.0 120.624849,23.836824,0.0</coordinates></LinearRing></outerBoundaryIs></Polygon><styleUrl>#spolygon-map</styleUrl></Placemark></Document>
</kml>
