<?xml version="1.0" encoding="UTF-8"?>
<kml xmlns="http://www.opengis.net/kml/2.2">
	<Document>
		<name>彰化縣福興鄉</name>
		<Style id="spolygon">
			<LabelStyle>
				<scale>0.0</scale>
			</LabelStyle>
			<LineStyle>
				<color>330030ff</color>
				<width>0</width>
			</LineStyle>
			<PolyStyle>
				<color>330030ff</color>
			</PolyStyle>
		</Style>
		<StyleMap id="spolygon-map">
			<Pair>
				<key>normal</key>
				<styleUrl>#spolygon</styleUrl>
			</Pair>
		</StyleMap>
	<Placemark><Polygon><outerBoundaryIs><LinearRing><coordinates>120.415097,24.013233,0.0 120.404392,24.009611,0.0 120.395885,24.00428,0.0 120.39752,24.003637,0.0 120.398787,24.002957,0.0 120.400339,24.002903,0.0 120.401465,24.00322,0.0 120.403194,24.003103,0.0 120.404611,24.002572,0.0 120.40525,24.000962,0.0 120.40616,23.999694,0.0 120.407769,23.999362,0.0 120.408896,23.998754,0.0 120.410565,23.997925,0.0 120.412044,23.997342,0.0 120.413897,23.999848,0.0 120.414454,24.008188,0.0 120.415097,24.013233,0.0</coordinates></LinearRing></outerBoundaryIs></Polygon><styleUrl>#spolygon-map</styleUrl></Placemark><Placemark><Polygon><outerBoundaryIs><LinearRing><coordinates>120.484024,24.017415,0.0 120.477982,24.016917,0.0 120.479836,24.015566,0.0 120.48026,24.012157,0.0 120.481251,24.01186,0.0 120.482456,24.01095,0.0 120.484735,24.011011,0.0 120.487245,24.010683,0.0 120.490263,24.009622,0.0 120.492023,24.009298,0.0 120.493661,24.007218,0.0 120.494769,24.005947,0.0 120.495319,24.006031,0.0 120.496025,24.005657,0.0 120.495269,24.007181,0.0 120.493556,24.00914,0.0 120.49743,24.010858,0.0 120.495445,24.012117,0.0 120.494121,24.013354,0.0 120.485623,24.017141,0.0 120.484024,24.017415,0.0</coordinates></LinearRing></outerBoundaryIs></Polygon><styleUrl>#spolygon-map</styleUrl></Placemark><Placemark><Polygon><outerBoundaryIs><LinearRing><coordinates>120.482439,24.01757,0.0 120.470186,24.017909,0.0 120.466085,24.01713,0.0 120.459876,24.01986,0.0 120.458977,24.016504,0.0 120.459698,24.015492,0.0 120.459524,24.014411,0.0 120.460643,24.013481,0.0 120.461805,24.012811,0.0 120.463288,24.012689,0.0 120.46459,24.013114,0.0 120.465968,24.01266,0.0 120.468437,24.012649,0.0 120.469714,24.012749,0.0 120.471513,24.012951,0.0 120.473027,24.012849,0.0 120.473585,24.012324,0.0 120.475611,24.011968,0.0 120.476932,24.011923,0.0 120.47802,24.012132,0.0 120.478961,24.012367,0.0 120.480186,24.015401,0.0 120.477884,24.016786,0.0 120.482439,24.01757,0.0</coordinates></LinearRing></outerBoundaryIs></Polygon><styleUrl>#spolygon-map</styleUrl></Placemark><Placemark><Polygon><outerBoundaryIs><LinearRing><coordinates>120.426928,24.011312,0.0 120.424536,24.020696,0.0 120.414538,24.008636,0.0 120.414069,24.000736,0.0 120.420181,23.995908,0.0 120.425447,23.998563,0.0 120.429016,24.004795,0.0 120.429336,24.009107,0.0 120.427819,24.010483,0.0 120.426928,24.011312,0.0</coordinates></LinearRing></outerBoundaryIs></Polygon><styleUrl>#spolygon-map</styleUrl></Placemark><Placemark><Polygon><outerBoundaryIs><LinearRing><coordinates>120.495711,24.015485,0.0 120.491396,24.018867,0.0 120.489028,24.020931,0.0 120.486309,24.022306,0.0 120.484299,24.018849,0.0 120.489804,24.014305,0.0 120.494933,24.014681,0.0 120.495711,24.015485,0.0</coordinates></LinearRing></outerBoundaryIs></Polygon><styleUrl>#spolygon-map</styleUrl></Placemark><Placemark><Polygon><outerBoundaryIs><LinearRing><coordinates>120.480475,24.02661,0.0 120.470756,24.026363,0.0 120.463207,24.025438,0.0 120.463393,24.020874,0.0 120.468778,24.016508,0.0 120.474698,24.018845,0.0 120.484509,24.02059,0.0 120.484714,24.023308,0.0 120.483671,24.024256,0.0 120.48258,24.024674,0.0 120.481436,24.02545,0.0 120.480452,24.026478,0.0 120.480475,24.02661,0.0</coordinates></LinearRing></outerBoundaryIs></Polygon><styleUrl>#spolygon-map</styleUrl></Placemark><Placemark><Polygon><outerBoundaryIs><LinearRing><coordinates>120.461277,24.024401,0.0 120.44968,24.028504,0.0 120.444411,24.026198,0.0 120.444283,24.023904,0.0 120.445435,24.023783,0.0 120.447291,24.023564,0.0 120.44836,24.022447,0.0 120.449059,24.021237,0.0 120.450688,24.021234,0.0 120.452169,24.020846,0.0 120.451925,24.019187,0.0 120.452917,24.018395,0.0 120.454277,24.017507,0.0 120.455663,24.016814,0.0 120.457479,24.016549,0.0 120.459485,24.019119,0.0 120.461277,24.024401,0.0</coordinates></LinearRing></outerBoundaryIs></Polygon><styleUrl>#spolygon-map</styleUrl></Placemark><Placemark><Polygon><outerBoundaryIs><LinearRing><coordinates>120.415857,24.020359,0.0 120.402933,24.023203,0.0 120.397927,24.025437,0.0 120.392868,24.020651,0.0 120.385523,24.018981,0.0 120.385582,24.0178,0.0 120.385933,24.016672,0.0 120.387144,24.016399,0.0 120.387649,24.01522,0.0 120.387521,24.013811,0.0 120.388275,24.01323,0.0 120.388483,24.011994,0.0 120.388268,24.010894,0.0 120.389303,24.010859,0.0 120.390577,24.010328,0.0 120.390052,24.00926,0.0 120.389725,24.007953,0.0 120.390995,24.00688,0.0 120.392286,24.006485,0.0 120.394283,24.005426,0.0 120.39552,24.00432,0.0 120.406356,24.012025,0.0 120.415428,24.016554,0.0 120.415857,24.020359,0.0</coordinates></LinearRing></outerBoundaryIs></Polygon><styleUrl>#spolygon-map</styleUrl></Placemark><Placemark><Polygon><outerBoundaryIs><LinearRing><coordinates>120.421568,24.034006,0.0 120.418945,24.032708,0.0 120.413472,24.032348,0.0 120.413671,24.035386,0.0 120.411943,24.030154,0.0 120.403818,24.031509,0.0 120.39866,24.031537,0.0 120.379556,24.027706,0.0 120.38124,24.026849,0.0 120.381868,24.025597,0.0 120.382515,24.024616,0.0 120.383199,24.023701,0.0 120.383673,24.022923,0.0 120.384015,24.021869,0.0 120.384646,24.020826,0.0 120.385614,24.019607,0.0 120.397471,24.021928,0.0 120.398353,24.028155,0.0 120.407955,24.022988,0.0 120.419743,24.022527,0.0 120.421479,24.033436,0.0 120.421568,24.034006,0.0</coordinates></LinearRing></outerBoundaryIs></Polygon><styleUrl>#spolygon-map</styleUrl></Placemark><Placemark><Polygon><outerBoundaryIs><LinearRing><coordinates>120.443725,24.035364,0.0 120.437991,24.03569,0.0 120.434107,24.033722,0.0 120.435617,24.027522,0.0 120.438478,24.024217,0.0 120.439758,24.023747,0.0 120.441083,24.023871,0.0 120.441982,24.024829,0.0 120.442283,24.026573,0.0 120.443428,24.025616,0.0 120.444197,24.024863,0.0 120.443725,24.035364,0.0</coordinates></LinearRing></outerBoundaryIs></Polygon><styleUrl>#spolygon-map</styleUrl></Placemark><Placemark><Polygon><outerBoundaryIs><LinearRing><coordinates>120.374063,24.038167,0.0 120.375139,24.035583,0.0 120.375778,24.033491,0.0 120.377336,24.030487,0.0 120.378242,24.029436,0.0 120.37864,24.028193,0.0 120.381526,24.028023,0.0 120.399773,24.032261,0.0 120.405323,24.031255,0.0 120.411986,24.031821,0.0 120.409079,24.037359,0.0 120.398753,24.036842,0.0 120.374063,24.038167,0.0</coordinates></LinearRing></outerBoundaryIs></Polygon><styleUrl>#spolygon-map</styleUrl></Placemark><Placemark><Polygon><outerBoundaryIs><LinearRing><coordinates>120.433604,24.037803,0.0 120.428578,24.038463,0.0 120.42381,24.036363,0.0 120.42204,24.034205,0.0 120.420161,24.026618,0.0 120.424342,24.011883,0.0 120.427421,24.012818,0.0 120.428183,24.013995,0.0 120.429922,24.015479,0.0 120.433454,24.01816,0.0 120.435028,24.019242,0.0 120.43532,24.021365,0.0 120.435379,24.022715,0.0 120.436537,24.022902,0.0 120.438359,24.023409,0.0 120.43889,24.024144,0.0 120.437516,24.024883,0.0 120.433763,24.031938,0.0 120.433604,24.037803,0.0</coordinates></LinearRing></outerBoundaryIs></Polygon><styleUrl>#spolygon-map</styleUrl></Placemark><Placemark><Polygon><outerBoundaryIs><LinearRing><coordinates>120.468203,24.041059,0.0 120.460327,24.036451,0.0 120.463448,24.032678,0.0 120.46326,24.026811,0.0 120.464823,24.025101,0.0 120.477287,24.026676,0.0 120.48131,24.026902,0.0 120.483138,24.027586,0.0 120.485196,24.027915,0.0 120.487158,24.027977,0.0 120.489112,24.028132,0.0 120.490021,24.028604,0.0 120.491524,24.028927,0.0 120.491063,24.029971,0.0 120.489581,24.031256,0.0 120.48829,24.032387,0.0 120.487633,24.033347,0.0 120.486162,24.034715,0.0 120.484999,24.035097,0.0 120.483387,24.034115,0.0 120.477809,24.033689,0.0 120.469834,24.040474,0.0 120.468203,24.041059,0.0</coordinates></LinearRing></outerBoundaryIs></Polygon><styleUrl>#spolygon-map</styleUrl></Placemark><Placemark><Polygon><outerBoundaryIs><LinearRing><coordinates>120.449341,24.04272,0.0 120.444457,24.042718,0.0 120.444933,24.041917,0.0 120.445157,24.040644,0.0 120.444377,24.04031,0.0 120.443237,24.04069,0.0 120.442506,24.04211,0.0 120.440731,24.04271,0.0 120.442778,24.038289,0.0 120.445595,24.025961,0.0 120.44979,24.028582,0.0 120.461385,24.024404,0.0 120.463238,24.028182,0.0 120.463353,24.032974,0.0 120.45263,24.035626,0.0 120.449054,24.039924,0.0 120.449341,24.04272,0.0</coordinates></LinearRing></outerBoundaryIs></Polygon><styleUrl>#spolygon-map</styleUrl></Placemark><Placemark><Polygon><outerBoundaryIs><LinearRing><coordinates>120.427424,24.0383,0.0 120.424854,24.045241,0.0 120.421209,24.0408,0.0 120.413807,24.037538,0.0 120.413212,24.032806,0.0 120.417468,24.032709,0.0 120.421135,24.034186,0.0 120.422717,24.034832,0.0 120.426054,24.03717,0.0 120.427424,24.0383,0.0</coordinates></LinearRing></outerBoundaryIs></Polygon><styleUrl>#spolygon-map</styleUrl></Placemark><Placemark><Polygon><outerBoundaryIs><LinearRing><coordinates>120.434413,24.047661,0.0 120.433319,24.048385,0.0 120.434002,24.043291,0.0 120.433955,24.040866,0.0 120.434071,24.036445,0.0 120.438829,24.035683,0.0 120.443255,24.037137,0.0 120.440357,24.043157,0.0 120.439696,24.044737,0.0 120.437681,24.046112,0.0 120.434512,24.047606,0.0 120.434413,24.047661,0.0</coordinates></LinearRing></outerBoundaryIs></Polygon><styleUrl>#spolygon-map</styleUrl></Placemark><Placemark><Polygon><outerBoundaryIs><LinearRing><coordinates>120.468887,24.049823,0.0 120.467763,24.050662,0.0 120.466525,24.051739,0.0 120.464671,24.051394,0.0 120.463954,24.052051,0.0 120.46295,24.052264,0.0 120.460399,24.052104,0.0 120.459164,24.052209,0.0 120.456773,24.052181,0.0 120.455025,24.049303,0.0 120.449341,24.04272,0.0 120.451558,24.035809,0.0 120.46151,24.034244,0.0 120.461574,24.040984,0.0 120.466518,24.045483,0.0 120.469407,24.047449,0.0 120.468887,24.049823,0.0</coordinates></LinearRing></outerBoundaryIs></Polygon><styleUrl>#spolygon-map</styleUrl></Placemark><Placemark><Polygon><outerBoundaryIs><LinearRing><coordinates>120.489068,24.046126,0.0 120.486472,24.046873,0.0 120.483646,24.048253,0.0 120.481915,24.050255,0.0 120.479718,24.054002,0.0 120.479827,24.050969,0.0 120.479743,24.048375,0.0 120.479192,24.046993,0.0 120.477566,24.047054,0.0 120.475717,24.047402,0.0 120.473909,24.047695,0.0 120.472028,24.048215,0.0 120.471284,24.048627,0.0 120.470428,24.049091,0.0 120.469159,24.049737,0.0 120.469013,24.047511,0.0 120.467717,24.045707,0.0 120.46901,24.040723,0.0 120.477415,24.033687,0.0 120.483079,24.033957,0.0 120.484919,24.03576,0.0 120.484743,24.036312,0.0 120.483797,24.038216,0.0 120.48285,24.040169,0.0 120.485581,24.041195,0.0 120.48474,24.042344,0.0 120.488052,24.044457,0.0 120.489068,24.046126,0.0</coordinates></LinearRing></outerBoundaryIs></Polygon><styleUrl>#spolygon-map</styleUrl></Placemark><Placemark><Polygon><outerBoundaryIs><LinearRing><coordinates>120.448654,24.053393,0.0 120.447395,24.053673,0.0 120.444654,24.053585,0.0 120.441902,24.053961,0.0 120.440897,24.053433,0.0 120.439215,24.053489,0.0 120.440285,24.048943,0.0 120.441225,24.047829,0.0 120.440312,24.046588,0.0 120.440644,24.045742,0.0 120.443421,24.044485,0.0 120.446215,24.0433,0.0 120.455027,24.048564,0.0 120.453142,24.052277,0.0 120.45143,24.052732,0.0 120.449747,24.053043,0.0 120.448654,24.053393,0.0</coordinates></LinearRing></outerBoundaryIs></Polygon><styleUrl>#spolygon-map</styleUrl></Placemark><Placemark><Polygon><outerBoundaryIs><LinearRing><coordinates>120.403083,24.057619,0.0 120.387173,24.057716,0.0 120.371266,24.057034,0.0 120.355363,24.055573,0.0 120.342443,24.053241,0.0 120.360437,24.041625,0.0 120.376073,24.037881,0.0 120.403449,24.036585,0.0 120.41174,24.036273,0.0 120.41301,24.042097,0.0 120.402753,24.04767,0.0 120.403083,24.057619,0.0</coordinates></LinearRing></outerBoundaryIs></Polygon><styleUrl>#spolygon-map</styleUrl></Placemark><Placemark><Polygon><outerBoundaryIs><LinearRing><coordinates>120.422541,24.045617,0.0 120.409736,24.056288,0.0 120.406049,24.057963,0.0 120.403134,24.054186,0.0 120.403477,24.042666,0.0 120.415446,24.0409,0.0 120.421147,24.042293,0.0 120.422541,24.045617,0.0</coordinates></LinearRing></outerBoundaryIs></Polygon><styleUrl>#spolygon-map</styleUrl></Placemark><Placemark><Polygon><outerBoundaryIs><LinearRing><coordinates>120.427202,24.055828,0.0 120.425089,24.055488,0.0 120.423353,24.054834,0.0 120.420662,24.053343,0.0 120.418895,24.054779,0.0 120.418607,24.056746,0.0 120.416035,24.057167,0.0 120.412525,24.059102,0.0 120.410151,24.059854,0.0 120.408951,24.05931,0.0 120.407312,24.058354,0.0 120.414579,24.054617,0.0 120.424307,24.045272,0.0 120.427749,24.040183,0.0 120.430869,24.039168,0.0 120.433803,24.04076,0.0 120.433842,24.042755,0.0 120.433217,24.047718,0.0 120.431976,24.050269,0.0 120.430098,24.053016,0.0 120.428504,24.056062,0.0 120.427589,24.056104,0.0 120.427202,24.055828,0.0</coordinates></LinearRing></outerBoundaryIs></Polygon><styleUrl>#spolygon-map</styleUrl></Placemark></Document>
</kml>
