<?xml version="1.0" encoding="UTF-8"?>
<kml xmlns="http://www.opengis.net/kml/2.2">
	<Document>
		<name>彰化縣埔心鄉</name>
		<Style id="spolygon">
			<LabelStyle>
				<scale>0.0</scale>
			</LabelStyle>
			<LineStyle>
				<color>330030ff</color>
				<width>0</width>
			</LineStyle>
			<PolyStyle>
				<color>330030ff</color>
			</PolyStyle>
		</Style>
		<StyleMap id="spolygon-map">
			<Pair>
				<key>normal</key>
				<styleUrl>#spolygon</styleUrl>
			</Pair>
		</StyleMap>
	<Placemark><Polygon><outerBoundaryIs><LinearRing><coordinates>120.540935,23.941613,0.0 120.53829,23.939569,0.0 120.532749,23.935357,0.0 120.533276,23.933591,0.0 120.53395,23.9319,0.0 120.535666,23.929729,0.0 120.538228,23.92981,0.0 120.540694,23.930721,0.0 120.543924,23.931778,0.0 120.542855,23.934533,0.0 120.541945,23.936887,0.0 120.540935,23.941613,0.0</coordinates></LinearRing></outerBoundaryIs></Polygon><styleUrl>#spolygon-map</styleUrl></Placemark><Placemark><Polygon><outerBoundaryIs><LinearRing><coordinates>120.552172,23.942629,0.0 120.548898,23.942445,0.0 120.545973,23.942664,0.0 120.540902,23.941409,0.0 120.541957,23.936244,0.0 120.543245,23.934298,0.0 120.544735,23.933423,0.0 120.547921,23.933419,0.0 120.55062,23.933058,0.0 120.55262,23.934123,0.0 120.554065,23.935418,0.0 120.555441,23.936524,0.0 120.557002,23.937234,0.0 120.558346,23.937752,0.0 120.560832,23.93783,0.0 120.56132,23.93907,0.0 120.561277,23.941551,0.0 120.559077,23.938925,0.0 120.556959,23.939455,0.0 120.55349,23.942471,0.0 120.552172,23.942629,0.0</coordinates></LinearRing></outerBoundaryIs></Polygon><styleUrl>#spolygon-map</styleUrl></Placemark><Placemark><Polygon><outerBoundaryIs><LinearRing><coordinates>120.51852,23.943133,0.0 120.51189,23.943389,0.0 120.510465,23.941559,0.0 120.509731,23.940214,0.0 120.508866,23.938547,0.0 120.508134,23.93705,0.0 120.508148,23.934958,0.0 120.50837,23.933003,0.0 120.507726,23.931561,0.0 120.508856,23.931084,0.0 120.510081,23.930806,0.0 120.510421,23.930396,0.0 120.511024,23.929889,0.0 120.512377,23.92973,0.0 120.513054,23.930609,0.0 120.514994,23.930842,0.0 120.516328,23.931402,0.0 120.518675,23.92975,0.0 120.519275,23.929704,0.0 120.519215,23.931292,0.0 120.518756,23.931828,0.0 120.518117,23.932407,0.0 120.517504,23.93383,0.0 120.517097,23.936255,0.0 120.518706,23.937618,0.0 120.518669,23.942009,0.0 120.51852,23.943133,0.0</coordinates></LinearRing></outerBoundaryIs></Polygon><styleUrl>#spolygon-map</styleUrl></Placemark><Placemark><Polygon><outerBoundaryIs><LinearRing><coordinates>120.532569,23.936102,0.0 120.534726,23.939016,0.0 120.534079,23.945095,0.0 120.531152,23.946197,0.0 120.527992,23.943032,0.0 120.525906,23.938288,0.0 120.527858,23.937626,0.0 120.530033,23.936918,0.0 120.532143,23.936583,0.0 120.532569,23.936102,0.0</coordinates></LinearRing></outerBoundaryIs></Polygon><styleUrl>#spolygon-map</styleUrl></Placemark><Placemark><Polygon><outerBoundaryIs><LinearRing><coordinates>120.537677,23.945943,0.0 120.532695,23.946298,0.0 120.534033,23.942734,0.0 120.532385,23.9367,0.0 120.53557,23.937182,0.0 120.539893,23.940232,0.0 120.541086,23.942249,0.0 120.539448,23.944328,0.0 120.537677,23.945943,0.0</coordinates></LinearRing></outerBoundaryIs></Polygon><styleUrl>#spolygon-map</styleUrl></Placemark><Placemark><Polygon><outerBoundaryIs><LinearRing><coordinates>120.531092,23.94624,0.0 120.52835,23.947366,0.0 120.52541,23.946267,0.0 120.521776,23.948166,0.0 120.518631,23.944012,0.0 120.518979,23.938281,0.0 120.519693,23.936888,0.0 120.52182,23.936274,0.0 120.525515,23.93684,0.0 120.525759,23.938775,0.0 120.528293,23.943607,0.0 120.531092,23.94624,0.0</coordinates></LinearRing></outerBoundaryIs></Polygon><styleUrl>#spolygon-map</styleUrl></Placemark><Placemark><Polygon><outerBoundaryIs><LinearRing><coordinates>120.557599,23.950911,0.0 120.554416,23.951668,0.0 120.55766,23.948372,0.0 120.563474,23.946456,0.0 120.565596,23.950155,0.0 120.564333,23.95149,0.0 120.561965,23.951183,0.0 120.557885,23.950208,0.0 120.557599,23.950911,0.0</coordinates></LinearRing></outerBoundaryIs></Polygon><styleUrl>#spolygon-map</styleUrl></Placemark><Placemark><Polygon><outerBoundaryIs><LinearRing><coordinates>120.552571,23.950999,0.0 120.550279,23.950221,0.0 120.552823,23.942594,0.0 120.556958,23.93963,0.0 120.558849,23.938614,0.0 120.561012,23.942909,0.0 120.560828,23.94533,0.0 120.55766,23.948372,0.0 120.552571,23.950999,0.0</coordinates></LinearRing></outerBoundaryIs></Polygon><styleUrl>#spolygon-map</styleUrl></Placemark><Placemark><Polygon><outerBoundaryIs><LinearRing><coordinates>120.550979,23.952255,0.0 120.54237,23.952754,0.0 120.540344,23.951378,0.0 120.539539,23.945262,0.0 120.541005,23.942986,0.0 120.548087,23.942779,0.0 120.549742,23.942103,0.0 120.551472,23.947109,0.0 120.550979,23.952255,0.0</coordinates></LinearRing></outerBoundaryIs></Polygon><styleUrl>#spolygon-map</styleUrl></Placemark><Placemark><Polygon><outerBoundaryIs><LinearRing><coordinates>120.561133,23.959076,0.0 120.558214,23.955639,0.0 120.558249,23.951487,0.0 120.557671,23.950241,0.0 120.559933,23.950317,0.0 120.563317,23.95162,0.0 120.563311,23.952662,0.0 120.563448,23.953892,0.0 120.563225,23.95658,0.0 120.562856,23.95779,0.0 120.561439,23.959014,0.0 120.561133,23.959076,0.0</coordinates></LinearRing></outerBoundaryIs></Polygon><styleUrl>#spolygon-map</styleUrl></Placemark><Placemark><Polygon><outerBoundaryIs><LinearRing><coordinates>120.549493,23.958025,0.0 120.547236,23.959514,0.0 120.545624,23.960307,0.0 120.544501,23.960728,0.0 120.542817,23.958973,0.0 120.541337,23.958303,0.0 120.540056,23.957564,0.0 120.539265,23.957456,0.0 120.538424,23.953119,0.0 120.536632,23.952263,0.0 120.538025,23.950049,0.0 120.538636,23.945474,0.0 120.539575,23.945605,0.0 120.540306,23.951482,0.0 120.542469,23.952824,0.0 120.551364,23.952426,0.0 120.549511,23.957932,0.0 120.549493,23.958025,0.0</coordinates></LinearRing></outerBoundaryIs></Polygon><styleUrl>#spolygon-map</styleUrl></Placemark><Placemark><Polygon><outerBoundaryIs><LinearRing><coordinates>120.536694,23.960316,0.0 120.533455,23.960602,0.0 120.529635,23.959846,0.0 120.529788,23.955764,0.0 120.529975,23.949293,0.0 120.53101,23.946345,0.0 120.534882,23.947089,0.0 120.537929,23.947027,0.0 120.537368,23.951682,0.0 120.537539,23.952481,0.0 120.5402,23.956104,0.0 120.538059,23.958538,0.0 120.536694,23.960316,0.0</coordinates></LinearRing></outerBoundaryIs></Polygon><styleUrl>#spolygon-map</styleUrl></Placemark><Placemark><Polygon><outerBoundaryIs><LinearRing><coordinates>120.559922,23.958977,0.0 120.558054,23.958581,0.0 120.55561,23.959837,0.0 120.551773,23.961752,0.0 120.549018,23.962409,0.0 120.547069,23.963202,0.0 120.549402,23.958444,0.0 120.550306,23.954446,0.0 120.554416,23.951668,0.0 120.557599,23.950911,0.0 120.558787,23.952587,0.0 120.559923,23.958474,0.0 120.559922,23.958977,0.0</coordinates></LinearRing></outerBoundaryIs></Polygon><styleUrl>#spolygon-map</styleUrl></Placemark><Placemark><Polygon><outerBoundaryIs><LinearRing><coordinates>120.529416,23.961533,0.0 120.526601,23.963917,0.0 120.521569,23.96326,0.0 120.519737,23.963599,0.0 120.520385,23.958986,0.0 120.5208,23.955627,0.0 120.520442,23.951898,0.0 120.520367,23.949353,0.0 120.523208,23.947631,0.0 120.526312,23.946784,0.0 120.530504,23.948446,0.0 120.529669,23.951259,0.0 120.529638,23.957239,0.0 120.529416,23.961533,0.0</coordinates></LinearRing></outerBoundaryIs></Polygon><styleUrl>#spolygon-map</styleUrl></Placemark><Placemark><Polygon><outerBoundaryIs><LinearRing><coordinates>120.519757,23.964104,0.0 120.517603,23.964638,0.0 120.515269,23.965202,0.0 120.51517,23.964251,0.0 120.515197,23.962918,0.0 120.515481,23.96132,0.0 120.51571,23.960144,0.0 120.51573,23.95836,0.0 120.515055,23.956581,0.0 120.513624,23.956175,0.0 120.512921,23.954445,0.0 120.512322,23.953634,0.0 120.512228,23.951295,0.0 120.511998,23.950466,0.0 120.513042,23.948653,0.0 120.512896,23.947928,0.0 120.51304,23.94659,0.0 120.513067,23.945618,0.0 120.51276,23.944497,0.0 120.518622,23.944311,0.0 120.520367,23.949353,0.0 120.520442,23.951898,0.0 120.5208,23.955627,0.0 120.520385,23.958986,0.0 120.519737,23.963599,0.0 120.519757,23.964104,0.0</coordinates></LinearRing></outerBoundaryIs></Polygon><styleUrl>#spolygon-map</styleUrl></Placemark><Placemark><Polygon><outerBoundaryIs><LinearRing><coordinates>120.537037,23.967947,0.0 120.531351,23.970091,0.0 120.526987,23.973316,0.0 120.521812,23.973152,0.0 120.520449,23.972115,0.0 120.52212,23.972125,0.0 120.52188,23.968807,0.0 120.521925,23.96599,0.0 120.520395,23.965132,0.0 120.520947,23.963363,0.0 120.526315,23.963626,0.0 120.529012,23.962287,0.0 120.533568,23.9608,0.0 120.536676,23.960475,0.0 120.537037,23.967947,0.0</coordinates></LinearRing></outerBoundaryIs></Polygon><styleUrl>#spolygon-map</styleUrl></Placemark><Placemark><Polygon><outerBoundaryIs><LinearRing><coordinates>120.513685,23.974791,0.0 120.512024,23.974735,0.0 120.510858,23.973249,0.0 120.510855,23.971523,0.0 120.51062,23.969882,0.0 120.510794,23.968611,0.0 120.512725,23.96739,0.0 120.514431,23.965952,0.0 120.517603,23.964638,0.0 120.519757,23.964104,0.0 120.521766,23.965221,0.0 120.5218,23.967417,0.0 120.522235,23.969859,0.0 120.521361,23.971874,0.0 120.519792,23.972748,0.0 120.51449,23.973779,0.0 120.513685,23.974791,0.0</coordinates></LinearRing></outerBoundaryIs></Polygon><styleUrl>#spolygon-map</styleUrl></Placemark><Placemark><Polygon><outerBoundaryIs><LinearRing><coordinates>120.547167,23.975498,0.0 120.544961,23.976321,0.0 120.543904,23.975198,0.0 120.543375,23.973828,0.0 120.542063,23.972775,0.0 120.541504,23.971419,0.0 120.540176,23.970991,0.0 120.538115,23.971273,0.0 120.536633,23.968696,0.0 120.53634,23.963414,0.0 120.537116,23.959325,0.0 120.540371,23.957561,0.0 120.542184,23.958034,0.0 120.543272,23.95964,0.0 120.544619,23.960744,0.0 120.546052,23.959881,0.0 120.547638,23.959426,0.0 120.549402,23.958444,0.0 120.546382,23.963809,0.0 120.544477,23.965909,0.0 120.544051,23.968545,0.0 120.545124,23.970986,0.0 120.546295,23.971463,0.0 120.546997,23.97332,0.0 120.546948,23.975279,0.0 120.547167,23.975498,0.0</coordinates></LinearRing></outerBoundaryIs></Polygon><styleUrl>#spolygon-map</styleUrl></Placemark><Placemark><Polygon><outerBoundaryIs><LinearRing><coordinates>120.537462,23.971561,0.0 120.535884,23.972886,0.0 120.534235,23.974341,0.0 120.533291,23.976289,0.0 120.53266,23.977836,0.0 120.531133,23.978199,0.0 120.530514,23.977445,0.0 120.527847,23.977865,0.0 120.526318,23.977944,0.0 120.526772,23.973832,0.0 120.528279,23.971147,0.0 120.535149,23.968648,0.0 120.536563,23.969211,0.0 120.537462,23.971561,0.0</coordinates></LinearRing></outerBoundaryIs></Polygon><styleUrl>#spolygon-map</styleUrl></Placemark><Placemark><Polygon><outerBoundaryIs><LinearRing><coordinates>120.52341,23.977384,0.0 120.520638,23.977924,0.0 120.519284,23.978211,0.0 120.51728,23.978325,0.0 120.516045,23.977893,0.0 120.514463,23.977896,0.0 120.513975,23.979059,0.0 120.51216,23.980032,0.0 120.509202,23.982505,0.0 120.509428,23.981528,0.0 120.511988,23.97973,0.0 120.512212,23.977601,0.0 120.513551,23.976666,0.0 120.514631,23.975489,0.0 120.514114,23.974157,0.0 120.519628,23.972971,0.0 120.526,23.973625,0.0 120.525935,23.97787,0.0 120.52341,23.977384,0.0</coordinates></LinearRing></outerBoundaryIs></Polygon><styleUrl>#spolygon-map</styleUrl></Placemark></Document>
</kml>
