<?xml version="1.0" encoding="UTF-8"?>
<kml xmlns="http://www.opengis.net/kml/2.2">
	<Document>
		<name>新北市金山區</name>
		<Style id="spolygon">
			<LabelStyle>
				<scale>0.0</scale>
			</LabelStyle>
			<LineStyle>
				<color>330030ff</color>
				<width>0</width>
			</LineStyle>
			<PolyStyle>
				<color>330030ff</color>
			</PolyStyle>
		</Style>
		<StyleMap id="spolygon-map">
			<Pair>
				<key>normal</key>
				<styleUrl>#spolygon</styleUrl>
			</Pair>
		</StyleMap>
	<Placemark><Polygon><outerBoundaryIs><LinearRing><coordinates>121.637824,25.222296,0.0 121.637399,25.22244,0.0 121.637573,25.222072,0.0 121.637766,25.22193,0.0 121.637998,25.221844,0.0 121.638226,25.221686,0.0 121.638799,25.221185,0.0 121.638988,25.220818,0.0 121.63942,25.220309,0.0 121.639449,25.219707,0.0 121.641077,25.217988,0.0 121.642582,25.216692,0.0 121.642628,25.216979,0.0 121.643209,25.217268,0.0 121.643453,25.217737,0.0 121.643244,25.218157,0.0 121.642767,25.218595,0.0 121.642296,25.21922,0.0 121.640465,25.220325,0.0 121.63912,25.221309,0.0 121.637824,25.222296,0.0</coordinates></LinearRing></outerBoundaryIs></Polygon><styleUrl>#spolygon-map</styleUrl></Placemark><Placemark><Polygon><outerBoundaryIs><LinearRing><coordinates>121.638173,25.222697,0.0 121.637752,25.222795,0.0 121.637824,25.222296,0.0 121.639796,25.220793,0.0 121.640306,25.220128,0.0 121.641908,25.220113,0.0 121.641433,25.220747,0.0 121.642794,25.221376,0.0 121.639534,25.222262,0.0 121.638707,25.222543,0.0 121.638396,25.222721,0.0 121.638173,25.222697,0.0</coordinates></LinearRing></outerBoundaryIs></Polygon><styleUrl>#spolygon-map</styleUrl></Placemark><Placemark><Polygon><outerBoundaryIs><LinearRing><coordinates>121.652271,25.229272,0.0 121.650554,25.230197,0.0 121.64913,25.227763,0.0 121.645375,25.223759,0.0 121.642794,25.221376,0.0 121.641433,25.220747,0.0 121.641908,25.220113,0.0 121.642461,25.218904,0.0 121.643167,25.218332,0.0 121.643895,25.218412,0.0 121.643654,25.219224,0.0 121.643815,25.220206,0.0 121.644971,25.220772,0.0 121.650106,25.222879,0.0 121.65014,25.224084,0.0 121.651169,25.225287,0.0 121.650337,25.225428,0.0 121.651744,25.225478,0.0 121.651736,25.226108,0.0 121.651475,25.226779,0.0 121.652679,25.228577,0.0 121.65367,25.229299,0.0 121.653004,25.229305,0.0 121.652271,25.229272,0.0</coordinates></LinearRing></outerBoundaryIs></Polygon><styleUrl>#spolygon-map</styleUrl></Placemark><Placemark><Polygon><outerBoundaryIs><LinearRing><coordinates>121.650836,25.231594,0.0 121.650716,25.232741,0.0 121.648789,25.231533,0.0 121.646909,25.232645,0.0 121.648601,25.230818,0.0 121.649365,25.22956,0.0 121.645846,25.228309,0.0 121.648632,25.229586,0.0 121.647561,25.230081,0.0 121.646458,25.230902,0.0 121.646482,25.231279,0.0 121.645541,25.230265,0.0 121.642872,25.230821,0.0 121.637472,25.230191,0.0 121.635232,25.229554,0.0 121.632663,25.228225,0.0 121.635099,25.227514,0.0 121.636679,25.227719,0.0 121.637754,25.226541,0.0 121.637967,25.22626,0.0 121.63791,25.22568,0.0 121.637904,25.224979,0.0 121.637953,25.224613,0.0 121.637824,25.223875,0.0 121.637543,25.223333,0.0 121.638204,25.222696,0.0 121.638694,25.222565,0.0 121.639414,25.222277,0.0 121.644032,25.222924,0.0 121.647868,25.226446,0.0 121.650464,25.228711,0.0 121.650759,25.231285,0.0 121.650836,25.231594,0.0</coordinates></LinearRing></outerBoundaryIs></Polygon><styleUrl>#spolygon-map</styleUrl></Placemark><Placemark><Polygon><outerBoundaryIs><LinearRing><coordinates>121.635466,25.227405,0.0 121.633314,25.228115,0.0 121.630909,25.227472,0.0 121.628818,25.224237,0.0 121.628681,25.22076,0.0 121.631546,25.221349,0.0 121.633954,25.221849,0.0 121.636758,25.222423,0.0 121.637359,25.222317,0.0 121.637411,25.222527,0.0 121.63775,25.222773,0.0 121.63754,25.22343,0.0 121.637963,25.224264,0.0 121.637905,25.224725,0.0 121.637902,25.225022,0.0 121.637934,25.225885,0.0 121.637866,25.226337,0.0 121.637674,25.226611,0.0 121.63627,25.227668,0.0 121.635466,25.227405,0.0</coordinates></LinearRing></outerBoundaryIs></Polygon><styleUrl>#spolygon-map</styleUrl></Placemark><Placemark><Polygon><outerBoundaryIs><LinearRing><coordinates>121.628517,25.22121,0.0 121.622588,25.22058,0.0 121.619084,25.218733,0.0 121.61331,25.219396,0.0 121.607248,25.217767,0.0 121.606007,25.216446,0.0 121.605037,25.215325,0.0 121.604545,25.213855,0.0 121.603138,25.211829,0.0 121.602887,25.210511,0.0 121.603005,25.209071,0.0 121.603568,25.207234,0.0 121.604623,25.204528,0.0 121.605705,25.202038,0.0 121.608509,25.199841,0.0 121.611316,25.196077,0.0 121.611865,25.196701,0.0 121.612601,25.196962,0.0 121.613239,25.196523,0.0 121.614024,25.197322,0.0 121.614978,25.198355,0.0 121.615929,25.199639,0.0 121.616559,25.200663,0.0 121.61714,25.201249,0.0 121.618441,25.202119,0.0 121.61955,25.203062,0.0 121.620191,25.203362,0.0 121.621552,25.203269,0.0 121.622623,25.204322,0.0 121.623585,25.205777,0.0 121.624758,25.20668,0.0 121.625207,25.207192,0.0 121.626028,25.207712,0.0 121.626675,25.208267,0.0 121.627835,25.209336,0.0 121.628433,25.209873,0.0 121.629574,25.210391,0.0 121.629927,25.210697,0.0 121.62982,25.211322,0.0 121.629995,25.211454,0.0 121.630764,25.211969,0.0 121.631527,25.212407,0.0 121.632061,25.212733,0.0 121.632521,25.213055,0.0 121.633404,25.213431,0.0 121.634437,25.213479,0.0 121.634808,25.213785,0.0 121.63554,25.214414,0.0 121.636278,25.214846,0.0 121.637161,25.215337,0.0 121.63779,25.215658,0.0 121.638744,25.215674,0.0 121.640096,25.215441,0.0 121.640883,25.215703,0.0 121.642336,25.216272,0.0 121.641077,25.217988,0.0 121.639449,25.219707,0.0 121.63869,25.219201,0.0 121.638537,25.218296,0.0 121.637746,25.217708,0.0 121.637138,25.217424,0.0 121.63494,25.217009,0.0 121.634407,25.216988,0.0 121.63429,25.217293,0.0 121.633843,25.217608,0.0 121.63284,25.218394,0.0 121.632581,25.218691,0.0 121.632162,25.218933,0.0 121.62973,25.220289,0.0 121.628517,25.22121,0.0</coordinates></LinearRing></outerBoundaryIs></Polygon><styleUrl>#spolygon-map</styleUrl></Placemark><Placemark><Polygon><outerBoundaryIs><LinearRing><coordinates>121.607154,25.224252,0.0 121.605123,25.2249,0.0 121.603918,25.225698,0.0 121.602585,25.226366,0.0 121.600992,25.225202,0.0 121.597878,25.224205,0.0 121.594431,25.224859,0.0 121.591228,25.224296,0.0 121.588337,25.224149,0.0 121.584405,25.224927,0.0 121.581422,25.223031,0.0 121.580012,25.222604,0.0 121.579234,25.221588,0.0 121.578068,25.220902,0.0 121.576718,25.220835,0.0 121.57529,25.220482,0.0 121.574081,25.220578,0.0 121.572846,25.220674,0.0 121.571548,25.220442,0.0 121.570496,25.219675,0.0 121.569353,25.21896,0.0 121.568099,25.218357,0.0 121.567373,25.217284,0.0 121.566931,25.216247,0.0 121.566033,25.215054,0.0 121.565272,25.214581,0.0 121.564244,25.213865,0.0 121.563032,25.214108,0.0 121.562335,25.213958,0.0 121.561217,25.212892,0.0 121.560522,25.211879,0.0 121.560132,25.211009,0.0 121.560518,25.209938,0.0 121.564504,25.204473,0.0 121.564011,25.19877,0.0 121.570341,25.194855,0.0 121.575591,25.194411,0.0 121.58325,25.194083,0.0 121.582865,25.188391,0.0 121.581427,25.182792,0.0 121.582384,25.178668,0.0 121.578232,25.166463,0.0 121.590238,25.163772,0.0 121.591457,25.163881,0.0 121.592696,25.164192,0.0 121.593369,25.164826,0.0 121.594289,25.165094,0.0 121.595458,25.165569,0.0 121.596817,25.165845,0.0 121.597277,25.167081,0.0 121.59803,25.167938,0.0 121.598887,25.168781,0.0 121.599408,25.169451,0.0 121.600438,25.170239,0.0 121.600991,25.171121,0.0 121.601932,25.172359,0.0 121.602663,25.173436,0.0 121.603615,25.174618,0.0 121.603875,25.175797,0.0 121.604919,25.176344,0.0 121.606204,25.176781,0.0 121.607088,25.177838,0.0 121.607373,25.179149,0.0 121.607244,25.18055,0.0 121.607439,25.181657,0.0 121.608488,25.18274,0.0 121.609261,25.183761,0.0 121.609638,25.184419,0.0 121.609772,25.185122,0.0 121.609879,25.185998,0.0 121.610447,25.18684,0.0 121.610977,25.187493,0.0 121.611116,25.188643,0.0 121.611185,25.189422,0.0 121.611296,25.19034,0.0 121.611013,25.191119,0.0 121.611867,25.191512,0.0 121.611889,25.192293,0.0 121.612118,25.192864,0.0 121.612106,25.193253,0.0 121.611273,25.193988,0.0 121.610555,25.194628,0.0 121.610752,25.195342,0.0 121.61111,25.195798,0.0 121.610292,25.197369,0.0 121.606963,25.201453,0.0 121.604471,25.202574,0.0 121.603497,25.206099,0.0 121.603336,25.207876,0.0 121.602924,25.20979,0.0 121.603144,25.210859,0.0 121.603248,25.212899,0.0 121.604826,25.214382,0.0 121.605789,25.215922,0.0 121.606956,25.217013,0.0 121.605082,25.218185,0.0 121.605209,25.21858,0.0 121.605839,25.218627,0.0 121.606785,25.21893,0.0 121.607513,25.219144,0.0 121.607906,25.219446,0.0 121.608189,25.219512,0.0 121.608765,25.219916,0.0 121.609058,25.221104,0.0 121.61071,25.222176,0.0 121.608897,25.224027,0.0 121.608461,25.224187,0.0 121.607901,25.223971,0.0 121.607154,25.224252,0.0</coordinates></LinearRing></outerBoundaryIs></Polygon><styleUrl>#spolygon-map</styleUrl></Placemark><Placemark><Polygon><outerBoundaryIs><LinearRing><coordinates>121.597799,25.243238,0.0 121.596729,25.24294,0.0 121.595782,25.242886,0.0 121.594904,25.242475,0.0 121.594189,25.242328,0.0 121.593604,25.241532,0.0 121.592812,25.240755,0.0 121.592067,25.240163,0.0 121.591309,25.239489,0.0 121.590728,25.238924,0.0 121.590267,25.238094,0.0 121.589282,25.237435,0.0 121.588315,25.23678,0.0 121.58765,25.235868,0.0 121.586932,25.235201,0.0 121.586118,25.234518,0.0 121.585242,25.234092,0.0 121.584466,25.233616,0.0 121.583826,25.23312,0.0 121.583557,25.232375,0.0 121.582955,25.231608,0.0 121.582354,25.229974,0.0 121.581605,25.228317,0.0 121.581887,25.226984,0.0 121.581953,25.225328,0.0 121.581406,25.223776,0.0 121.582375,25.223149,0.0 121.5848,25.225427,0.0 121.589153,25.22359,0.0 121.591772,25.224499,0.0 121.595308,25.224749,0.0 121.598764,25.224209,0.0 121.601369,25.225436,0.0 121.602819,25.226441,0.0 121.604394,25.225555,0.0 121.605219,25.22487,0.0 121.604576,25.228654,0.0 121.603402,25.230978,0.0 121.601653,25.233907,0.0 121.602015,25.237806,0.0 121.597799,25.243238,0.0</coordinates></LinearRing></outerBoundaryIs></Polygon><styleUrl>#spolygon-map</styleUrl></Placemark><Placemark><Polygon><outerBoundaryIs><LinearRing><coordinates>121.616315,25.226801,0.0 121.613594,25.229932,0.0 121.61041,25.231444,0.0 121.609007,25.23323,0.0 121.605897,25.234644,0.0 121.602195,25.23525,0.0 121.602728,25.231681,0.0 121.604599,25.22984,0.0 121.605395,25.226825,0.0 121.607154,25.224252,0.0 121.608205,25.224097,0.0 121.608753,25.224108,0.0 121.609815,25.223396,0.0 121.610145,25.221542,0.0 121.608918,25.219996,0.0 121.608309,25.219575,0.0 121.608038,25.219452,0.0 121.607764,25.219355,0.0 121.607303,25.219071,0.0 121.606436,25.218823,0.0 121.605753,25.218629,0.0 121.605032,25.218468,0.0 121.607248,25.217767,0.0 121.61331,25.219396,0.0 121.619084,25.218733,0.0 121.622588,25.22058,0.0 121.62806,25.221784,0.0 121.628092,25.224355,0.0 121.627475,25.224742,0.0 121.626796,25.225056,0.0 121.626443,25.225706,0.0 121.625796,25.226295,0.0 121.62519,25.227035,0.0 121.62496,25.227662,0.0 121.624779,25.227879,0.0 121.624191,25.227477,0.0 121.623585,25.226652,0.0 121.622979,25.226192,0.0 121.62268,25.226351,0.0 121.622072,25.226076,0.0 121.621123,25.22593,0.0 121.619976,25.225839,0.0 121.617445,25.226528,0.0 121.616463,25.226632,0.0 121.616315,25.226801,0.0</coordinates></LinearRing></outerBoundaryIs></Polygon><styleUrl>#spolygon-map</styleUrl></Placemark><Placemark><Polygon><outerBoundaryIs><LinearRing><coordinates>121.604625,25.248045,0.0 121.603154,25.248656,0.0 121.602568,25.247837,0.0 121.600827,25.248073,0.0 121.60005,25.246898,0.0 121.599373,25.245786,0.0 121.599017,25.244749,0.0 121.598335,25.243759,0.0 121.600689,25.239858,0.0 121.604491,25.235692,0.0 121.607615,25.233952,0.0 121.610224,25.232632,0.0 121.611733,25.230396,0.0 121.615364,25.229052,0.0 121.617065,25.226957,0.0 121.617544,25.226344,0.0 121.620483,25.225876,0.0 121.621437,25.225956,0.0 121.622324,25.226179,0.0 121.622707,25.226341,0.0 121.623148,25.226283,0.0 121.623868,25.227006,0.0 121.62433,25.227651,0.0 121.624882,25.227866,0.0 121.625081,25.228557,0.0 121.62449,25.228895,0.0 121.623589,25.229567,0.0 121.622111,25.230814,0.0 121.62125,25.233063,0.0 121.619688,25.233737,0.0 121.61905,25.234138,0.0 121.619423,25.235101,0.0 121.61971,25.235651,0.0 121.618467,25.236997,0.0 121.617236,25.237525,0.0 121.616405,25.237875,0.0 121.616476,25.238371,0.0 121.616303,25.239004,0.0 121.615991,25.239715,0.0 121.616163,25.240585,0.0 121.614917,25.241073,0.0 121.61261,25.242873,0.0 121.610768,25.241909,0.0 121.609889,25.242028,0.0 121.609655,25.242728,0.0 121.609639,25.243269,0.0 121.610168,25.243935,0.0 121.609673,25.244458,0.0 121.605574,25.2471,0.0 121.604625,25.248045,0.0</coordinates></LinearRing></outerBoundaryIs></Polygon><styleUrl>#spolygon-map</styleUrl></Placemark><Placemark><Polygon><outerBoundaryIs><LinearRing><coordinates>121.625119,25.237235,0.0 121.620351,25.237972,0.0 121.619636,25.235763,0.0 121.619646,25.235311,0.0 121.619058,25.234221,0.0 121.619295,25.233839,0.0 121.62086,25.233182,0.0 121.622125,25.230869,0.0 121.623386,25.229559,0.0 121.624442,25.228968,0.0 121.625075,25.228586,0.0 121.625028,25.227769,0.0 121.624995,25.227407,0.0 121.625566,25.226498,0.0 121.626423,25.225725,0.0 121.626602,25.22537,0.0 121.627221,25.224856,0.0 121.627837,25.224474,0.0 121.629283,25.225593,0.0 121.631886,25.228203,0.0 121.635232,25.229554,0.0 121.637472,25.230191,0.0 121.638845,25.230904,0.0 121.638336,25.231552,0.0 121.637335,25.232106,0.0 121.636465,25.232774,0.0 121.636044,25.233471,0.0 121.635575,25.233877,0.0 121.634668,25.234356,0.0 121.632954,25.23524,0.0 121.631405,25.235114,0.0 121.629925,25.236073,0.0 121.628175,25.236177,0.0 121.625119,25.237235,0.0</coordinates></LinearRing></outerBoundaryIs></Polygon><styleUrl>#spolygon-map</styleUrl></Placemark><Placemark><Polygon><outerBoundaryIs><LinearRing><coordinates>121.634125,25.250075,0.0 121.632877,25.250305,0.0 121.632524,25.250611,0.0 121.632317,25.251019,0.0 121.631952,25.251528,0.0 121.62683,25.249222,0.0 121.624577,25.247215,0.0 121.624229,25.24368,0.0 121.624745,25.24327,0.0 121.624468,25.241346,0.0 121.627238,25.238237,0.0 121.627224,25.236431,0.0 121.629701,25.236113,0.0 121.631109,25.235388,0.0 121.632709,25.235293,0.0 121.63443,25.234445,0.0 121.635462,25.233959,0.0 121.636008,25.233511,0.0 121.636439,25.232808,0.0 121.637081,25.232245,0.0 121.638186,25.231655,0.0 121.638768,25.231051,0.0 121.640985,25.232124,0.0 121.637604,25.235711,0.0 121.638087,25.23657,0.0 121.637284,25.236108,0.0 121.635056,25.238084,0.0 121.634423,25.24242,0.0 121.634682,25.246163,0.0 121.634613,25.250027,0.0 121.634125,25.250075,0.0</coordinates></LinearRing></outerBoundaryIs></Polygon><styleUrl>#spolygon-map</styleUrl></Placemark><Placemark><Polygon><outerBoundaryIs><LinearRing><coordinates>121.618066,25.255676,0.0 121.618302,25.255962,0.0 121.618299,25.256217,0.0 121.618176,25.256015,0.0 121.617467,25.255666,0.0 121.616511,25.254826,0.0 121.61523,25.253488,0.0 121.610917,25.253961,0.0 121.610012,25.253785,0.0 121.609022,25.253442,0.0 121.608164,25.253444,0.0 121.607454,25.253437,0.0 121.606488,25.253161,0.0 121.605049,25.252882,0.0 121.60356,25.252428,0.0 121.602516,25.251258,0.0 121.601286,25.249836,0.0 121.600399,25.248968,0.0 121.600198,25.248595,0.0 121.602239,25.247938,0.0 121.602868,25.247981,0.0 121.603353,25.248854,0.0 121.605574,25.2471,0.0 121.609673,25.244458,0.0 121.610168,25.243935,0.0 121.609639,25.243269,0.0 121.609655,25.242728,0.0 121.609889,25.242028,0.0 121.610768,25.241909,0.0 121.61261,25.242873,0.0 121.614917,25.241073,0.0 121.616163,25.240585,0.0 121.615991,25.239715,0.0 121.616303,25.239004,0.0 121.616476,25.238371,0.0 121.616405,25.237875,0.0 121.617236,25.237525,0.0 121.618467,25.236997,0.0 121.619983,25.236316,0.0 121.62179,25.238285,0.0 121.627091,25.237294,0.0 121.624982,25.239966,0.0 121.625108,25.241911,0.0 121.624535,25.243391,0.0 121.624437,25.244394,0.0 121.624952,25.248529,0.0 121.623207,25.251566,0.0 121.619752,25.250913,0.0 121.617329,25.252418,0.0 121.61793,25.252689,0.0 121.618711,25.253109,0.0 121.619144,25.253977,0.0 121.619495,25.254611,0.0 121.619507,25.255417,0.0 121.619401,25.256099,0.0 121.619057,25.256107,0.0 121.618563,25.255451,0.0 121.618114,25.255403,0.0 121.618019,25.255585,0.0 121.618066,25.255676,0.0</coordinates></LinearRing></outerBoundaryIs></Polygon><styleUrl>#spolygon-map</styleUrl></Placemark><Placemark><Polygon><outerBoundaryIs><LinearRing><coordinates>121.629705,25.26546,0.0 121.62604,25.269924,0.0 121.620314,25.275064,0.0 121.620075,25.274744,0.0 121.619272,25.273882,0.0 121.617953,25.273331,0.0 121.617536,25.271517,0.0 121.617011,25.269665,0.0 121.616607,25.26748,0.0 121.617224,25.265793,0.0 121.617047,25.263964,0.0 121.617552,25.263733,0.0 121.617384,25.263021,0.0 121.618387,25.260082,0.0 121.618321,25.25852,0.0 121.618207,25.256736,0.0 121.618315,25.256057,0.0 121.618272,25.255898,0.0 121.618013,25.255563,0.0 121.618158,25.25539,0.0 121.618608,25.255501,0.0 121.619096,25.25613,0.0 121.619435,25.256069,0.0 121.619507,25.255355,0.0 121.619459,25.254541,0.0 121.619136,25.253907,0.0 121.618669,25.253076,0.0 121.617849,25.25264,0.0 121.617206,25.252351,0.0 121.619953,25.250966,0.0 121.623758,25.251374,0.0 121.625735,25.249197,0.0 121.631301,25.250829,0.0 121.632209,25.25127,0.0 121.632464,25.250718,0.0 121.632763,25.250392,0.0 121.632959,25.250223,0.0 121.635099,25.250819,0.0 121.63386,25.256645,0.0 121.632976,25.260377,0.0 121.631254,25.263786,0.0 121.630807,25.265083,0.0 121.630171,25.265258,0.0 121.629705,25.26546,0.0</coordinates></LinearRing></outerBoundaryIs></Polygon><styleUrl>#spolygon-map</styleUrl></Placemark><Placemark><Polygon><outerBoundaryIs><LinearRing><coordinates>121.637228,25.222406,0.0 121.635365,25.222139,0.0 121.632878,25.221625,0.0 121.629795,25.220989,0.0 121.630597,25.218846,0.0 121.632434,25.218648,0.0 121.63279,25.218622,0.0 121.6328,25.218338,0.0 121.634215,25.217618,0.0 121.634377,25.217123,0.0 121.634482,25.216908,0.0 121.635285,25.217146,0.0 121.637322,25.217582,0.0 121.638104,25.217962,0.0 121.638425,25.218724,0.0 121.639072,25.219555,0.0 121.639445,25.220104,0.0 121.639253,25.22062,0.0 121.638827,25.221084,0.0 121.638253,25.221674,0.0 121.638039,25.221868,0.0 121.637835,25.221871,0.0 121.6376,25.222053,0.0 121.637363,25.222313,0.0 121.637228,25.222406,0.0</coordinates></LinearRing></outerBoundaryIs></Polygon><styleUrl>#spolygon-map</styleUrl></Placemark></Document>
</kml>
