<?xml version="1.0" encoding="UTF-8"?>
<kml xmlns="http://www.opengis.net/kml/2.2">
	<Document>
		<name>新北市三芝區</name>
		<Style id="spolygon">
			<LabelStyle>
				<scale>0.0</scale>
			</LabelStyle>
			<LineStyle>
				<color>330030ff</color>
				<width>0</width>
			</LineStyle>
			<PolyStyle>
				<color>330030ff</color>
			</PolyStyle>
		</Style>
		<StyleMap id="spolygon-map">
			<Pair>
				<key>normal</key>
				<styleUrl>#spolygon</styleUrl>
			</Pair>
		</StyleMap>
	<Placemark><Polygon><outerBoundaryIs><LinearRing><coordinates>121.512904,25.240377,0.0 121.512449,25.241004,0.0 121.512147,25.241941,0.0 121.511899,25.242931,0.0 121.511586,25.244192,0.0 121.511333,25.245038,0.0 121.510814,25.245553,0.0 121.510387,25.246062,0.0 121.509659,25.246327,0.0 121.509171,25.246641,0.0 121.508362,25.247464,0.0 121.507326,25.247774,0.0 121.507176,25.246846,0.0 121.507413,25.245671,0.0 121.508766,25.244163,0.0 121.508824,25.243054,0.0 121.509651,25.241546,0.0 121.510235,25.240116,0.0 121.510914,25.238967,0.0 121.510648,25.238225,0.0 121.510908,25.237107,0.0 121.511663,25.235966,0.0 121.513475,25.234757,0.0 121.514524,25.232351,0.0 121.516099,25.230622,0.0 121.516957,25.229991,0.0 121.518687,25.228918,0.0 121.521015,25.228388,0.0 121.522685,25.227749,0.0 121.524566,25.227126,0.0 121.526218,25.227697,0.0 121.52817,25.229643,0.0 121.527204,25.22985,0.0 121.52648,25.229662,0.0 121.525838,25.22937,0.0 121.52545,25.229781,0.0 121.524923,25.230028,0.0 121.524459,25.230626,0.0 121.523254,25.230625,0.0 121.521635,25.231982,0.0 121.520457,25.2327,0.0 121.520136,25.233109,0.0 121.519863,25.233725,0.0 121.519339,25.23462,0.0 121.519009,25.235153,0.0 121.518954,25.235615,0.0 121.518625,25.236051,0.0 121.518496,25.236661,0.0 121.51804,25.237189,0.0 121.517313,25.237976,0.0 121.516984,25.238629,0.0 121.516408,25.238995,0.0 121.516171,25.239354,0.0 121.516265,25.239478,0.0 121.515924,25.239546,0.0 121.515482,25.239767,0.0 121.515079,25.239967,0.0 121.514703,25.239946,0.0 121.514606,25.240332,0.0 121.514654,25.24074,0.0 121.514282,25.240692,0.0 121.513478,25.240639,0.0 121.512904,25.240377,0.0</coordinates></LinearRing></outerBoundaryIs></Polygon><styleUrl>#spolygon-map</styleUrl></Placemark><Placemark><Polygon><outerBoundaryIs><LinearRing><coordinates>121.50159,25.261597,0.0 121.501494,25.262126,0.0 121.501229,25.262624,0.0 121.501409,25.263587,0.0 121.500706,25.264178,0.0 121.500163,25.264416,0.0 121.496998,25.262079,0.0 121.496645,25.261864,0.0 121.495861,25.26161,0.0 121.495409,25.262445,0.0 121.494811,25.262592,0.0 121.494087,25.263086,0.0 121.492742,25.262127,0.0 121.491677,25.260693,0.0 121.493726,25.259353,0.0 121.494641,25.258292,0.0 121.496366,25.257493,0.0 121.498331,25.254793,0.0 121.499705,25.252893,0.0 121.501043,25.251586,0.0 121.503386,25.249868,0.0 121.505244,25.248091,0.0 121.50671,25.247475,0.0 121.507676,25.248026,0.0 121.507465,25.248716,0.0 121.50697,25.249395,0.0 121.505908,25.250782,0.0 121.504985,25.251801,0.0 121.504063,25.252914,0.0 121.503226,25.25418,0.0 121.502997,25.254625,0.0 121.50252,25.255361,0.0 121.502278,25.255898,0.0 121.502501,25.256439,0.0 121.502795,25.256653,0.0 121.50304,25.257046,0.0 121.502719,25.258011,0.0 121.502293,25.258604,0.0 121.502306,25.259093,0.0 121.501852,25.26036,0.0 121.501623,25.261521,0.0 121.50159,25.261597,0.0</coordinates></LinearRing></outerBoundaryIs></Polygon><styleUrl>#spolygon-map</styleUrl></Placemark><Placemark><Polygon><outerBoundaryIs><LinearRing><coordinates>121.493975,25.273649,0.0 121.493935,25.274207,0.0 121.491754,25.275601,0.0 121.489805,25.273728,0.0 121.486597,25.272186,0.0 121.48282,25.270483,0.0 121.482235,25.269787,0.0 121.478599,25.267289,0.0 121.477764,25.264809,0.0 121.48093,25.264,0.0 121.481497,25.263759,0.0 121.483416,25.262741,0.0 121.483763,25.262143,0.0 121.484417,25.261316,0.0 121.485142,25.259854,0.0 121.485475,25.257877,0.0 121.488145,25.255243,0.0 121.489855,25.256247,0.0 121.490758,25.257045,0.0 121.49128,25.256277,0.0 121.491884,25.255203,0.0 121.493963,25.253385,0.0 121.49365,25.252193,0.0 121.493662,25.25152,0.0 121.494379,25.25081,0.0 121.495624,25.249618,0.0 121.496896,25.248612,0.0 121.497253,25.247912,0.0 121.498949,25.24794,0.0 121.500885,25.250552,0.0 121.501296,25.251292,0.0 121.500492,25.252336,0.0 121.498679,25.253749,0.0 121.497019,25.257046,0.0 121.494657,25.258057,0.0 121.494516,25.258831,0.0 121.492468,25.260567,0.0 121.491488,25.261644,0.0 121.493594,25.263221,0.0 121.494609,25.26267,0.0 121.495283,25.262503,0.0 121.495701,25.262027,0.0 121.496528,25.26177,0.0 121.496853,25.26202,0.0 121.498362,25.262997,0.0 121.499941,25.264763,0.0 121.499721,25.26511,0.0 121.499054,25.265843,0.0 121.498196,25.266987,0.0 121.497956,25.267351,0.0 121.497341,25.267746,0.0 121.497106,25.26795,0.0 121.496449,25.268741,0.0 121.496097,25.270009,0.0 121.495869,25.270375,0.0 121.495589,25.271077,0.0 121.495442,25.271451,0.0 121.495925,25.272165,0.0 121.496163,25.273418,0.0 121.495381,25.274199,0.0 121.493975,25.273649,0.0</coordinates></LinearRing></outerBoundaryIs></Polygon><styleUrl>#spolygon-map</styleUrl></Placemark><Placemark><Polygon><outerBoundaryIs><LinearRing><coordinates>121.507688,25.282426,0.0 121.506923,25.282355,0.0 121.506148,25.28232,0.0 121.50647,25.281589,0.0 121.505667,25.281127,0.0 121.504849,25.281473,0.0 121.504021,25.281085,0.0 121.503176,25.280955,0.0 121.502155,25.279706,0.0 121.501167,25.280104,0.0 121.500307,25.279665,0.0 121.499197,25.279142,0.0 121.498457,25.278761,0.0 121.496168,25.278133,0.0 121.494686,25.277259,0.0 121.493935,25.274207,0.0 121.493975,25.273649,0.0 121.495381,25.274199,0.0 121.496163,25.273418,0.0 121.495925,25.272165,0.0 121.495442,25.271451,0.0 121.495589,25.271077,0.0 121.495869,25.270375,0.0 121.496097,25.270009,0.0 121.496449,25.268741,0.0 121.497106,25.26795,0.0 121.497341,25.267746,0.0 121.497956,25.267351,0.0 121.498196,25.266987,0.0 121.499054,25.265843,0.0 121.499721,25.26511,0.0 121.499941,25.264763,0.0 121.500407,25.26425,0.0 121.500835,25.264106,0.0 121.50474,25.264883,0.0 121.507638,25.26565,0.0 121.508132,25.266687,0.0 121.509765,25.266021,0.0 121.510409,25.265302,0.0 121.511843,25.264311,0.0 121.512459,25.264844,0.0 121.513736,25.264858,0.0 121.514223,25.264592,0.0 121.514751,25.264542,0.0 121.515497,25.264345,0.0 121.516016,25.263845,0.0 121.516465,25.262794,0.0 121.516813,25.262304,0.0 121.51746,25.261524,0.0 121.518161,25.260931,0.0 121.519279,25.260102,0.0 121.519641,25.260454,0.0 121.519313,25.260964,0.0 121.51912,25.261731,0.0 121.519525,25.261992,0.0 121.519275,25.262425,0.0 121.518991,25.26296,0.0 121.519845,25.263007,0.0 121.521103,25.263083,0.0 121.52199,25.263608,0.0 121.522334,25.264652,0.0 121.523368,25.265346,0.0 121.52368,25.26606,0.0 121.522533,25.266392,0.0 121.522105,25.267679,0.0 121.521358,25.268602,0.0 121.520474,25.269003,0.0 121.520161,25.26892,0.0 121.519761,25.269264,0.0 121.51894,25.269897,0.0 121.518267,25.270957,0.0 121.517168,25.272312,0.0 121.516746,25.272676,0.0 121.516166,25.273423,0.0 121.515501,25.274524,0.0 121.515666,25.275506,0.0 121.514936,25.276284,0.0 121.514356,25.276117,0.0 121.513481,25.276127,0.0 121.512625,25.276596,0.0 121.51226,25.276651,0.0 121.511897,25.276535,0.0 121.511527,25.276677,0.0 121.510975,25.277297,0.0 121.5103,25.277574,0.0 121.50967,25.27751,0.0 121.508426,25.278119,0.0 121.508589,25.279225,0.0 121.507861,25.280699,0.0 121.507688,25.282426,0.0</coordinates></LinearRing></outerBoundaryIs></Polygon><styleUrl>#spolygon-map</styleUrl></Placemark><Placemark><Polygon><outerBoundaryIs><LinearRing><coordinates>121.509025,25.264716,0.0 121.508251,25.26528,0.0 121.507576,25.265514,0.0 121.504176,25.264893,0.0 121.501395,25.263298,0.0 121.50124,25.262575,0.0 121.501511,25.262055,0.0 121.501658,25.261462,0.0 121.501887,25.260221,0.0 121.502207,25.258968,0.0 121.502338,25.258474,0.0 121.502973,25.257956,0.0 121.502889,25.257057,0.0 121.502723,25.256613,0.0 121.5025,25.256359,0.0 121.502397,25.255648,0.0 121.502568,25.255282,0.0 121.503255,25.254866,0.0 121.503405,25.253911,0.0 121.504242,25.252658,0.0 121.505197,25.251569,0.0 121.506097,25.250575,0.0 121.507052,25.249282,0.0 121.507601,25.248531,0.0 121.508162,25.247774,0.0 121.508869,25.246801,0.0 121.509566,25.246361,0.0 121.510171,25.246135,0.0 121.51064,25.245735,0.0 121.511265,25.24514,0.0 121.511589,25.244357,0.0 121.511761,25.243391,0.0 121.512118,25.242156,0.0 121.512382,25.241261,0.0 121.512731,25.240499,0.0 121.513416,25.240625,0.0 121.514168,25.240637,0.0 121.514623,25.240751,0.0 121.514657,25.240396,0.0 121.514679,25.239957,0.0 121.514996,25.239995,0.0 121.515442,25.239774,0.0 121.515889,25.23957,0.0 121.516259,25.239488,0.0 121.516169,25.23937,0.0 121.516374,25.239055,0.0 121.516863,25.238677,0.0 121.517282,25.238109,0.0 121.517984,25.237238,0.0 121.518473,25.23671,0.0 121.518614,25.236078,0.0 121.518947,25.23563,0.0 121.518982,25.235222,0.0 121.519324,25.234676,0.0 121.519836,25.233754,0.0 121.520128,25.233146,0.0 121.520349,25.232775,0.0 121.521515,25.232064,0.0 121.522787,25.231082,0.0 121.524391,25.230612,0.0 121.524956,25.230306,0.0 121.525415,25.229793,0.0 121.525794,25.229365,0.0 121.526433,25.229673,0.0 121.527136,25.229855,0.0 121.528052,25.22967,0.0 121.529587,25.230034,0.0 121.532821,25.231043,0.0 121.53278,25.231213,0.0 121.532952,25.232038,0.0 121.532681,25.232655,0.0 121.532225,25.233644,0.0 121.53229,25.234378,0.0 121.531661,25.234901,0.0 121.53101,25.235545,0.0 121.530427,25.235933,0.0 121.52918,25.236697,0.0 121.529033,25.236622,0.0 121.528842,25.236384,0.0 121.52817,25.236925,0.0 121.527817,25.237377,0.0 121.527202,25.238204,0.0 121.526816,25.23917,0.0 121.526117,25.239643,0.0 121.525531,25.24038,0.0 121.524708,25.240985,0.0 121.523953,25.241624,0.0 121.523716,25.242098,0.0 121.523364,25.242692,0.0 121.522897,25.243745,0.0 121.522379,25.24447,0.0 121.522222,25.244912,0.0 121.521831,25.24547,0.0 121.521585,25.246003,0.0 121.520895,25.246294,0.0 121.520341,25.246995,0.0 121.519813,25.247648,0.0 121.518548,25.248211,0.0 121.51759,25.248868,0.0 121.516117,25.249675,0.0 121.515432,25.250037,0.0 121.514815,25.250064,0.0 121.514149,25.250576,0.0 121.51377,25.250492,0.0 121.513353,25.250342,0.0 121.511861,25.251057,0.0 121.511058,25.252183,0.0 121.510867,25.253278,0.0 121.510243,25.254003,0.0 121.508208,25.25803,0.0 121.508459,25.258606,0.0 121.508628,25.259164,0.0 121.50835,25.259742,0.0 121.508086,25.260311,0.0 121.508152,25.260699,0.0 121.508082,25.26108,0.0 121.508256,25.261425,0.0 121.508401,25.262111,0.0 121.508824,25.262389,0.0 121.509016,25.263848,0.0 121.509025,25.264716,0.0</coordinates></LinearRing></outerBoundaryIs></Polygon><styleUrl>#spolygon-map</styleUrl></Placemark><Placemark><Polygon><outerBoundaryIs><LinearRing><coordinates>121.51221,25.263891,0.0 121.51183,25.264324,0.0 121.51038,25.265317,0.0 121.509731,25.266152,0.0 121.508125,25.266673,0.0 121.508251,25.26528,0.0 121.509025,25.264716,0.0 121.508983,25.263592,0.0 121.508706,25.262308,0.0 121.508375,25.262049,0.0 121.508193,25.26124,0.0 121.508127,25.260925,0.0 121.508039,25.26044,0.0 121.508227,25.26007,0.0 121.508602,25.259453,0.0 121.508501,25.258874,0.0 121.50836,25.258262,0.0 121.508207,25.257619,0.0 121.510411,25.253887,0.0 121.511008,25.252881,0.0 121.511129,25.251935,0.0 121.512344,25.250588,0.0 121.513656,25.250332,0.0 121.513899,25.250724,0.0 121.514407,25.250246,0.0 121.515128,25.250061,0.0 121.515741,25.249877,0.0 121.516673,25.249389,0.0 121.518042,25.248546,0.0 121.518965,25.248059,0.0 121.519968,25.247527,0.0 121.520455,25.24678,0.0 121.521146,25.246185,0.0 121.5217,25.24586,0.0 121.521937,25.24529,0.0 121.52228,25.244708,0.0 121.522494,25.244313,0.0 121.523137,25.243373,0.0 121.523482,25.242398,0.0 121.523814,25.241849,0.0 121.524328,25.241247,0.0 121.525064,25.240786,0.0 121.525691,25.240142,0.0 121.526445,25.2394,0.0 121.527015,25.238839,0.0 121.527707,25.237759,0.0 121.528537,25.237627,0.0 121.529374,25.239145,0.0 121.53119,25.240256,0.0 121.532094,25.241637,0.0 121.531867,25.243407,0.0 121.530374,25.245628,0.0 121.529461,25.247168,0.0 121.52882,25.249019,0.0 121.527717,25.25062,0.0 121.526826,25.252277,0.0 121.524539,25.251742,0.0 121.522719,25.252801,0.0 121.521765,25.253614,0.0 121.52095,25.254789,0.0 121.520478,25.255347,0.0 121.51971,25.256261,0.0 121.51643,25.260053,0.0 121.512984,25.262135,0.0 121.512552,25.263612,0.0 121.51221,25.263891,0.0</coordinates></LinearRing></outerBoundaryIs></Polygon><styleUrl>#spolygon-map</styleUrl></Placemark><Placemark><Polygon><outerBoundaryIs><LinearRing><coordinates>121.543324,25.268034,0.0 121.542383,25.267975,0.0 121.541692,25.267851,0.0 121.541375,25.266649,0.0 121.540703,25.266415,0.0 121.540409,25.265662,0.0 121.539325,25.266098,0.0 121.537905,25.266077,0.0 121.536027,25.266018,0.0 121.534517,25.265857,0.0 121.533749,25.265649,0.0 121.533539,25.266045,0.0 121.532773,25.266185,0.0 121.532013,25.265699,0.0 121.532205,25.26499,0.0 121.531827,25.264685,0.0 121.53137,25.264287,0.0 121.530913,25.263846,0.0 121.53101,25.262936,0.0 121.531425,25.26202,0.0 121.531661,25.261082,0.0 121.531555,25.260413,0.0 121.53082,25.260917,0.0 121.529802,25.260357,0.0 121.529122,25.260237,0.0 121.528729,25.260922,0.0 121.52816,25.261504,0.0 121.526806,25.260981,0.0 121.526492,25.261564,0.0 121.526001,25.262284,0.0 121.525092,25.262732,0.0 121.524576,25.263025,0.0 121.524101,25.263778,0.0 121.524022,25.264583,0.0 121.523759,25.26546,0.0 121.522331,25.264686,0.0 121.522044,25.263728,0.0 121.521309,25.263112,0.0 121.519952,25.263017,0.0 121.519086,25.262967,0.0 121.518986,25.262601,0.0 121.519541,25.262031,0.0 121.519161,25.261778,0.0 121.519325,25.26116,0.0 121.519634,25.26048,0.0 121.519342,25.260029,0.0 121.518311,25.260821,0.0 121.517581,25.261469,0.0 121.516913,25.262027,0.0 121.516525,25.262743,0.0 121.51606,25.263594,0.0 121.51553,25.26433,0.0 121.514871,25.264486,0.0 121.514258,25.264588,0.0 121.513774,25.264799,0.0 121.51249,25.264863,0.0 121.511846,25.264307,0.0 121.512552,25.263612,0.0 121.512984,25.262135,0.0 121.51643,25.260053,0.0 121.51971,25.256261,0.0 121.520478,25.255347,0.0 121.52095,25.254789,0.0 121.521765,25.253614,0.0 121.522719,25.252801,0.0 121.524539,25.251742,0.0 121.526826,25.252277,0.0 121.527717,25.25062,0.0 121.52882,25.249019,0.0 121.529461,25.247168,0.0 121.530374,25.245628,0.0 121.531867,25.243407,0.0 121.532094,25.241637,0.0 121.53119,25.240256,0.0 121.529374,25.239145,0.0 121.528537,25.237627,0.0 121.527707,25.237759,0.0 121.527591,25.237537,0.0 121.528085,25.237015,0.0 121.528799,25.236395,0.0 121.529003,25.236454,0.0 121.529154,25.236704,0.0 121.530342,25.235989,0.0 121.530941,25.235618,0.0 121.531405,25.235065,0.0 121.532235,25.234553,0.0 121.532228,25.233748,0.0 121.53265,25.232797,0.0 121.532939,25.232177,0.0 121.532863,25.231264,0.0 121.532785,25.231053,0.0 121.533295,25.230993,0.0 121.533421,25.230827,0.0 121.533388,25.230513,0.0 121.534101,25.229883,0.0 121.534586,25.229654,0.0 121.534841,25.22974,0.0 121.535096,25.229816,0.0 121.535915,25.229301,0.0 121.536824,25.228539,0.0 121.536877,25.227519,0.0 121.537065,25.227008,0.0 121.537668,25.226637,0.0 121.538581,25.227208,0.0 121.539293,25.227358,0.0 121.539696,25.227671,0.0 121.539825,25.22807,0.0 121.539869,25.228716,0.0 121.539908,25.229748,0.0 121.539703,25.23065,0.0 121.539794,25.230789,0.0 121.540119,25.230593,0.0 121.540433,25.230296,0.0 121.540646,25.230376,0.0 121.540613,25.230727,0.0 121.541133,25.231239,0.0 121.541184,25.231625,0.0 121.541104,25.231741,0.0 121.540801,25.231927,0.0 121.540675,25.232346,0.0 121.540435,25.232722,0.0 121.540296,25.232906,0.0 121.539926,25.23296,0.0 121.539454,25.233384,0.0 121.539097,25.233996,0.0 121.538882,25.234292,0.0 121.538408,25.235172,0.0 121.538269,25.235942,0.0 121.538132,25.23644,0.0 121.53828,25.237033,0.0 121.538074,25.237512,0.0 121.537661,25.237954,0.0 121.537372,25.239034,0.0 121.537534,25.240511,0.0 121.537899,25.241606,0.0 121.538507,25.242576,0.0 121.538995,25.243154,0.0 121.53894,25.243734,0.0 121.539002,25.244019,0.0 121.538751,25.24429,0.0 121.538179,25.24496,0.0 121.537114,25.245456,0.0 121.536742,25.247818,0.0 121.537711,25.249379,0.0 121.539385,25.250059,0.0 121.53925,25.250963,0.0 121.538979,25.251412,0.0 121.539667,25.252124,0.0 121.540011,25.251321,0.0 121.541032,25.250839,0.0 121.541221,25.251909,0.0 121.542897,25.25119,0.0 121.543435,25.249833,0.0 121.543671,25.248254,0.0 121.545519,25.246521,0.0 121.546511,25.246545,0.0 121.546636,25.24739,0.0 121.546997,25.247858,0.0 121.547244,25.248129,0.0 121.547594,25.249412,0.0 121.547242,25.25084,0.0 121.546996,25.251901,0.0 121.546713,25.253062,0.0 121.546544,25.253786,0.0 121.547195,25.25455,0.0 121.548,25.255136,0.0 121.547881,25.255929,0.0 121.547833,25.256788,0.0 121.548161,25.257787,0.0 121.548539,25.258124,0.0 121.548809,25.258393,0.0 121.54895,25.258915,0.0 121.549317,25.259062,0.0 121.549701,25.2595,0.0 121.54989,25.259948,0.0 121.550044,25.26083,0.0 121.55028,25.260978,0.0 121.550432,25.261574,0.0 121.550137,25.262214,0.0 121.550079,25.262662,0.0 121.549893,25.26339,0.0 121.549353,25.264142,0.0 121.548829,25.264844,0.0 121.548332,25.265758,0.0 121.547834,25.266054,0.0 121.547624,25.265522,0.0 121.547035,25.265945,0.0 121.546218,25.266636,0.0 121.54504,25.267051,0.0 121.543777,25.267709,0.0 121.543324,25.268034,0.0</coordinates></LinearRing></outerBoundaryIs></Polygon><styleUrl>#spolygon-map</styleUrl></Placemark><Placemark><Polygon><outerBoundaryIs><LinearRing><coordinates>121.478384,25.264063,0.0 121.479052,25.263647,0.0 121.475847,25.259954,0.0 121.475738,25.257867,0.0 121.475232,25.257342,0.0 121.475842,25.255991,0.0 121.476454,25.255365,0.0 121.47699,25.254534,0.0 121.477593,25.254252,0.0 121.48004,25.253884,0.0 121.482246,25.252878,0.0 121.483541,25.252428,0.0 121.485584,25.250737,0.0 121.486287,25.249619,0.0 121.487692,25.249212,0.0 121.487765,25.248828,0.0 121.488196,25.247837,0.0 121.487901,25.246926,0.0 121.487683,25.246226,0.0 121.487366,25.2455,0.0 121.487657,25.245092,0.0 121.488488,25.244263,0.0 121.488981,25.243809,0.0 121.489426,25.242744,0.0 121.489709,25.241896,0.0 121.490026,25.240871,0.0 121.490232,25.239906,0.0 121.489453,25.239201,0.0 121.489528,25.238631,0.0 121.490723,25.238023,0.0 121.49196,25.237006,0.0 121.491081,25.234687,0.0 121.492134,25.231966,0.0 121.493785,25.231359,0.0 121.494914,25.230921,0.0 121.496196,25.23063,0.0 121.497461,25.229679,0.0 121.497916,25.22933,0.0 121.499168,25.228604,0.0 121.499965,25.228317,0.0 121.500693,25.227809,0.0 121.501437,25.227496,0.0 121.502195,25.226972,0.0 121.502983,25.226291,0.0 121.503581,25.225906,0.0 121.503921,25.225445,0.0 121.504266,25.224766,0.0 121.504716,25.224329,0.0 121.50495,25.224526,0.0 121.505141,25.224684,0.0 121.505304,25.224648,0.0 121.505547,25.224334,0.0 121.506137,25.223816,0.0 121.506365,25.223636,0.0 121.507336,25.223052,0.0 121.511116,25.223272,0.0 121.51319,25.223883,0.0 121.515233,25.226555,0.0 121.514341,25.228293,0.0 121.513107,25.229469,0.0 121.512058,25.230681,0.0 121.510615,25.23255,0.0 121.509203,25.23443,0.0 121.50805,25.235298,0.0 121.507292,25.236103,0.0 121.506576,25.236401,0.0 121.505637,25.236582,0.0 121.505138,25.237105,0.0 121.504988,25.237687,0.0 121.504335,25.238152,0.0 121.503679,25.238845,0.0 121.503119,25.239661,0.0 121.502463,25.240241,0.0 121.501332,25.240995,0.0 121.500725,25.241758,0.0 121.499403,25.242859,0.0 121.498144,25.245756,0.0 121.497488,25.246721,0.0 121.497308,25.24772,0.0 121.497019,25.248416,0.0 121.496068,25.249311,0.0 121.494982,25.250238,0.0 121.493816,25.251282,0.0 121.493617,25.251936,0.0 121.493453,25.252512,0.0 121.492639,25.254542,0.0 121.491484,25.255894,0.0 121.49092,25.256846,0.0 121.490275,25.257088,0.0 121.488649,25.255021,0.0 121.486459,25.256794,0.0 121.484634,25.259037,0.0 121.484775,25.2609,0.0 121.483876,25.261935,0.0 121.483659,25.262444,0.0 121.481629,25.263704,0.0 121.481322,25.263861,0.0 121.478384,25.264063,0.0</coordinates></LinearRing></outerBoundaryIs></Polygon><styleUrl>#spolygon-map</styleUrl></Placemark><Placemark><Polygon><outerBoundaryIs><LinearRing><coordinates>121.477656,25.25422,0.0 121.477105,25.254439,0.0 121.476469,25.255312,0.0 121.475943,25.255912,0.0 121.475204,25.257262,0.0 121.469692,25.254993,0.0 121.456185,25.253161,0.0 121.445817,25.242563,0.0 121.446951,25.242646,0.0 121.448097,25.243337,0.0 121.449243,25.243843,0.0 121.449838,25.244217,0.0 121.450402,25.244329,0.0 121.451149,25.244361,0.0 121.45202,25.244112,0.0 121.4527,25.244193,0.0 121.453418,25.24419,0.0 121.45439,25.243953,0.0 121.455165,25.243418,0.0 121.457048,25.242912,0.0 121.45748,25.24157,0.0 121.458374,25.240565,0.0 121.459036,25.240254,0.0 121.460004,25.240075,0.0 121.460845,25.239913,0.0 121.461529,25.240146,0.0 121.462524,25.239678,0.0 121.463209,25.239357,0.0 121.46373,25.239124,0.0 121.464213,25.239076,0.0 121.465253,25.239292,0.0 121.465634,25.239054,0.0 121.466495,25.239198,0.0 121.46755,25.239213,0.0 121.468153,25.238693,0.0 121.468285,25.238672,0.0 121.468466,25.238896,0.0 121.468598,25.238991,0.0 121.468838,25.239272,0.0 121.469161,25.239832,0.0 121.470233,25.239268,0.0 121.471523,25.238811,0.0 121.472902,25.238315,0.0 121.473396,25.237643,0.0 121.474395,25.237749,0.0 121.475213,25.237693,0.0 121.476517,25.237099,0.0 121.478101,25.236266,0.0 121.480012,25.235464,0.0 121.482123,25.234914,0.0 121.483296,25.234416,0.0 121.485,25.233585,0.0 121.486277,25.233163,0.0 121.487715,25.232596,0.0 121.489195,25.231948,0.0 121.4904,25.231787,0.0 121.489952,25.232717,0.0 121.492304,25.236627,0.0 121.491061,25.237827,0.0 121.489729,25.238485,0.0 121.48911,25.239197,0.0 121.49,25.239696,0.0 121.490202,25.240306,0.0 121.489811,25.241724,0.0 121.489494,25.242394,0.0 121.489059,25.243674,0.0 121.488712,25.244033,0.0 121.487709,25.245026,0.0 121.487397,25.245427,0.0 121.487444,25.245882,0.0 121.487843,25.246598,0.0 121.488096,25.247642,0.0 121.487865,25.248614,0.0 121.487742,25.249141,0.0 121.486429,25.249394,0.0 121.485817,25.250441,0.0 121.484349,25.251974,0.0 121.482488,25.252811,0.0 121.480482,25.253784,0.0 121.478046,25.254198,0.0 121.477656,25.25422,0.0</coordinates></LinearRing></outerBoundaryIs></Polygon><styleUrl>#spolygon-map</styleUrl></Placemark><Placemark><Polygon><outerBoundaryIs><LinearRing><coordinates>121.506596,25.247492,0.0 121.505085,25.248162,0.0 121.503202,25.250009,0.0 121.501201,25.251153,0.0 121.50088,25.250527,0.0 121.497798,25.247478,0.0 121.497667,25.246346,0.0 121.498814,25.244597,0.0 121.499771,25.242621,0.0 121.500915,25.241541,0.0 121.50157,25.240769,0.0 121.502845,25.240099,0.0 121.503291,25.239442,0.0 121.503889,25.238548,0.0 121.504609,25.237995,0.0 121.505042,25.23754,0.0 121.505295,25.236899,0.0 121.505747,25.236541,0.0 121.506993,25.236253,0.0 121.507475,25.235955,0.0 121.508264,25.235108,0.0 121.509482,25.23409,0.0 121.511122,25.231829,0.0 121.512452,25.23022,0.0 121.51362,25.228993,0.0 121.514515,25.227911,0.0 121.514678,25.225929,0.0 121.512745,25.223663,0.0 121.510381,25.22331,0.0 121.506628,25.223301,0.0 121.506312,25.223684,0.0 121.505813,25.224062,0.0 121.505412,25.22452,0.0 121.505264,25.224676,0.0 121.505099,25.224666,0.0 121.504854,25.22441,0.0 121.504571,25.224361,0.0 121.504191,25.224896,0.0 121.503822,25.2256,0.0 121.503409,25.22604,0.0 121.502765,25.226462,0.0 121.501816,25.227228,0.0 121.501364,25.227531,0.0 121.500439,25.227969,0.0 121.499681,25.228366,0.0 121.498675,25.228896,0.0 121.497833,25.229389,0.0 121.497027,25.228417,0.0 121.496359,25.227212,0.0 121.496584,25.226118,0.0 121.497442,25.225398,0.0 121.49904,25.225373,0.0 121.500117,25.225112,0.0 121.50098,25.224546,0.0 121.50121,25.224379,0.0 121.501515,25.224015,0.0 121.501991,25.223196,0.0 121.502294,25.222767,0.0 121.503038,25.222343,0.0 121.503632,25.2219,0.0 121.504441,25.22163,0.0 121.505261,25.221278,0.0 121.505827,25.221149,0.0 121.509467,25.220713,0.0 121.510158,25.220023,0.0 121.510242,25.219165,0.0 121.510757,25.218585,0.0 121.510548,25.217963,0.0 121.511546,25.217878,0.0 121.51207,25.218014,0.0 121.512471,25.219553,0.0 121.513266,25.220324,0.0 121.513878,25.220088,0.0 121.514761,25.220323,0.0 121.515269,25.220354,0.0 121.515702,25.220387,0.0 121.516009,25.220782,0.0 121.516717,25.221475,0.0 121.51761,25.222244,0.0 121.519879,25.221996,0.0 121.520587,25.223305,0.0 121.523258,25.223264,0.0 121.525037,25.225654,0.0 121.524608,25.22713,0.0 121.522938,25.22759,0.0 121.521131,25.228353,0.0 121.518844,25.228833,0.0 121.517061,25.229881,0.0 121.516279,25.230523,0.0 121.514557,25.232132,0.0 121.513679,25.234211,0.0 121.511873,25.235889,0.0 121.511017,25.237025,0.0 121.510573,25.238157,0.0 121.510964,25.238851,0.0 121.510345,25.239813,0.0 121.509721,25.241486,0.0 121.508752,25.242764,0.0 121.508829,25.244102,0.0 121.507694,25.245292,0.0 121.507107,25.24672,0.0 121.506933,25.247483,0.0 121.506596,25.247492,0.0</coordinates></LinearRing></outerBoundaryIs></Polygon><styleUrl>#spolygon-map</styleUrl></Placemark><Placemark><Polygon><outerBoundaryIs><LinearRing><coordinates>121.53931,25.252157,0.0 121.53898,25.251276,0.0 121.53934,25.2507,0.0 121.538996,25.249998,0.0 121.537283,25.248978,0.0 121.536658,25.247212,0.0 121.537616,25.245282,0.0 121.538393,25.244767,0.0 121.538829,25.244212,0.0 121.539009,25.243961,0.0 121.538944,25.243647,0.0 121.538862,25.242996,0.0 121.538196,25.242123,0.0 121.537839,25.241485,0.0 121.53746,25.24003,0.0 121.537485,25.238605,0.0 121.537736,25.237875,0.0 121.538195,25.237308,0.0 121.538279,25.236957,0.0 121.538131,25.236316,0.0 121.538299,25.235737,0.0 121.538493,25.234977,0.0 121.538926,25.234203,0.0 121.539193,25.233796,0.0 121.539589,25.23319,0.0 121.540039,25.23293,0.0 121.540344,25.232872,0.0 121.540546,25.232567,0.0 121.540707,25.232219,0.0 121.540842,25.231874,0.0 121.541159,25.231705,0.0 121.541165,25.231533,0.0 121.540822,25.231061,0.0 121.540616,25.230643,0.0 121.540594,25.230328,0.0 121.540374,25.23031,0.0 121.539998,25.230763,0.0 121.539737,25.230759,0.0 121.539713,25.230415,0.0 121.539944,25.229389,0.0 121.539844,25.228602,0.0 121.539823,25.227952,0.0 121.539579,25.227552,0.0 121.53906,25.22732,0.0 121.538221,25.226962,0.0 121.537393,25.226571,0.0 121.536911,25.227251,0.0 121.536889,25.228028,0.0 121.536699,25.228765,0.0 121.535371,25.229674,0.0 121.535026,25.229809,0.0 121.534759,25.229703,0.0 121.534497,25.229662,0.0 121.533789,25.230038,0.0 121.533355,25.230607,0.0 121.533413,25.230866,0.0 121.533241,25.231012,0.0 121.530957,25.230409,0.0 121.528806,25.229838,0.0 121.526218,25.227697,0.0 121.524865,25.225571,0.0 121.523077,25.223062,0.0 121.520293,25.223402,0.0 121.519916,25.221734,0.0 121.517487,25.222245,0.0 121.516609,25.221433,0.0 121.515966,25.220716,0.0 121.515664,25.220353,0.0 121.515181,25.220341,0.0 121.514724,25.220311,0.0 121.513832,25.220089,0.0 121.513113,25.220379,0.0 121.51247,25.219413,0.0 121.512053,25.217995,0.0 121.511444,25.217916,0.0 121.510509,25.217932,0.0 121.509782,25.216954,0.0 121.50979,25.216487,0.0 121.510487,25.21583,0.0 121.509729,25.215384,0.0 121.509243,25.215692,0.0 121.508902,25.215802,0.0 121.508211,25.214753,0.0 121.507573,25.214203,0.0 121.507592,25.213442,0.0 121.508239,25.213242,0.0 121.510077,25.212141,0.0 121.511552,25.210883,0.0 121.511371,25.210324,0.0 121.512381,25.20968,0.0 121.514732,25.208973,0.0 121.515752,25.208748,0.0 121.51732,25.207871,0.0 121.518311,25.20658,0.0 121.519727,25.204854,0.0 121.521039,25.204384,0.0 121.52293,25.202495,0.0 121.523867,25.200591,0.0 121.52513,25.201628,0.0 121.527242,25.202724,0.0 121.529393,25.200801,0.0 121.531067,25.198633,0.0 121.533066,25.197268,0.0 121.534109,25.197085,0.0 121.534677,25.19632,0.0 121.535917,25.195176,0.0 121.539916,25.191202,0.0 121.542703,25.189845,0.0 121.542998,25.193048,0.0 121.545071,25.195918,0.0 121.547615,25.197812,0.0 121.550036,25.197239,0.0 121.552088,25.197502,0.0 121.552552,25.200031,0.0 121.551984,25.201567,0.0 121.552574,25.204045,0.0 121.554393,25.206916,0.0 121.554985,25.208497,0.0 121.557058,25.208672,0.0 121.558304,25.209564,0.0 121.559575,25.210427,0.0 121.56033,25.211527,0.0 121.560852,25.212277,0.0 121.561804,25.213467,0.0 121.562604,25.214164,0.0 121.563674,25.213876,0.0 121.564715,25.214192,0.0 121.565753,25.21484,0.0 121.565156,25.215886,0.0 121.564705,25.217285,0.0 121.563942,25.218991,0.0 121.56277,25.220646,0.0 121.5627,25.221962,0.0 121.561404,25.222801,0.0 121.559938,25.22364,0.0 121.558524,25.225131,0.0 121.557644,25.226351,0.0 121.55666,25.227028,0.0 121.55562,25.227845,0.0 121.556116,25.229133,0.0 121.555661,25.230041,0.0 121.555721,25.231289,0.0 121.556235,25.232438,0.0 121.556466,25.23383,0.0 121.555878,25.234964,0.0 121.555445,25.235949,0.0 121.555229,25.236983,0.0 121.555046,25.23812,0.0 121.554418,25.238685,0.0 121.554045,25.23972,0.0 121.553237,25.240298,0.0 121.55244,25.241164,0.0 121.551781,25.241786,0.0 121.550898,25.242427,0.0 121.55158,25.243136,0.0 121.552528,25.243789,0.0 121.552154,25.244722,0.0 121.551599,25.245316,0.0 121.550533,25.245434,0.0 121.549715,25.244901,0.0 121.549065,25.244519,0.0 121.548747,25.243995,0.0 121.548583,25.243484,0.0 121.548114,25.242769,0.0 121.547462,25.242475,0.0 121.546778,25.242149,0.0 121.546101,25.241536,0.0 121.545559,25.241093,0.0 121.545089,25.240999,0.0 121.544521,25.241668,0.0 121.545043,25.242569,0.0 121.54585,25.243367,0.0 121.545635,25.243928,0.0 121.545195,25.24457,0.0 121.544755,25.244999,0.0 121.544939,25.245421,0.0 121.545598,25.245965,0.0 121.545813,25.246206,0.0 121.544935,25.24677,0.0 121.543557,25.248788,0.0 121.543179,25.250068,0.0 121.542821,25.251605,0.0 121.541028,25.251703,0.0 121.540675,25.250703,0.0 121.539835,25.25154,0.0 121.53931,25.252157,0.0</coordinates></LinearRing></outerBoundaryIs></Polygon><styleUrl>#spolygon-map</styleUrl></Placemark><Placemark><Polygon><outerBoundaryIs><LinearRing><coordinates>121.50435,25.221636,0.0 121.50348,25.222033,0.0 121.502474,25.222692,0.0 121.502228,25.222825,0.0 121.501926,25.223334,0.0 121.501141,25.222852,0.0 121.500292,25.221567,0.0 121.499326,25.221829,0.0 121.498307,25.222051,0.0 121.498497,25.221368,0.0 121.498518,25.220694,0.0 121.497773,25.220999,0.0 121.497294,25.221662,0.0 121.496258,25.222238,0.0 121.496378,25.221313,0.0 121.496171,25.220462,0.0 121.496403,25.219521,0.0 121.496936,25.218405,0.0 121.49701,25.218101,0.0 121.4974,25.217657,0.0 121.497813,25.216869,0.0 121.498528,25.215993,0.0 121.499089,25.215502,0.0 121.50002,25.215067,0.0 121.500787,25.214179,0.0 121.501115,25.213494,0.0 121.501696,25.212696,0.0 121.502184,25.211079,0.0 121.502166,25.210849,0.0 121.501886,25.210209,0.0 121.501914,25.209826,0.0 121.502181,25.209361,0.0 121.502193,25.208993,0.0 121.503024,25.207836,0.0 121.503138,25.206935,0.0 121.503286,25.206534,0.0 121.502701,25.20582,0.0 121.502348,25.205027,0.0 121.502123,25.204221,0.0 121.50208,25.203926,0.0 121.501151,25.202857,0.0 121.501162,25.202709,0.0 121.501813,25.203071,0.0 121.502864,25.203173,0.0 121.503403,25.203053,0.0 121.504012,25.20305,0.0 121.504346,25.203374,0.0 121.505639,25.20346,0.0 121.505781,25.203533,0.0 121.50604,25.203875,0.0 121.506862,25.203041,0.0 121.508359,25.199362,0.0 121.511544,25.195178,0.0 121.514215,25.193307,0.0 121.515929,25.190854,0.0 121.517455,25.18814,0.0 121.521256,25.188076,0.0 121.521804,25.188038,0.0 121.524018,25.188369,0.0 121.52808,25.189166,0.0 121.531891,25.190712,0.0 121.533365,25.188824,0.0 121.535364,25.186611,0.0 121.538167,25.18695,0.0 121.541278,25.187851,0.0 121.54139,25.189993,0.0 121.537623,25.193674,0.0 121.534936,25.196104,0.0 121.534241,25.196535,0.0 121.533384,25.197114,0.0 121.532048,25.198185,0.0 121.529554,25.199721,0.0 121.528189,25.202033,0.0 121.525592,25.202025,0.0 121.524829,25.200429,0.0 121.522905,25.20157,0.0 121.522178,25.20372,0.0 121.520091,25.204762,0.0 121.518835,25.206145,0.0 121.517479,25.207428,0.0 121.516486,25.208548,0.0 121.514952,25.208707,0.0 121.51346,25.209926,0.0 121.511481,25.21015,0.0 121.511603,25.210749,0.0 121.510764,25.211332,0.0 121.508767,25.212929,0.0 121.50783,25.213324,0.0 121.507466,25.213746,0.0 121.507929,25.214529,0.0 121.508496,25.215435,0.0 121.509111,25.215787,0.0 121.509482,25.215451,0.0 121.510417,25.215701,0.0 121.510228,25.216086,0.0 121.509716,25.216783,0.0 121.510245,25.217592,0.0 121.510806,25.218393,0.0 121.510447,25.218813,0.0 121.510093,25.219424,0.0 121.509982,25.220627,0.0 121.506549,25.220824,0.0 121.505473,25.221153,0.0 121.504606,25.221551,0.0 121.50435,25.221636,0.0</coordinates></LinearRing></outerBoundaryIs></Polygon><styleUrl>#spolygon-map</styleUrl></Placemark><Placemark><Polygon><outerBoundaryIs><LinearRing><coordinates>121.500981,25.213798,0.0 121.500711,25.214271,0.0 121.499717,25.21529,0.0 121.498851,25.215555,0.0 121.498066,25.215187,0.0 121.497645,25.214164,0.0 121.497459,25.213815,0.0 121.496417,25.214253,0.0 121.495573,25.214034,0.0 121.494451,25.213306,0.0 121.493387,25.212352,0.0 121.492712,25.212087,0.0 121.491458,25.212873,0.0 121.491177,25.211833,0.0 121.491161,25.211414,0.0 121.490953,25.211228,0.0 121.489195,25.211019,0.0 121.488232,25.211293,0.0 121.4867,25.211207,0.0 121.486077,25.21008,0.0 121.485395,25.208888,0.0 121.485543,25.207919,0.0 121.486335,25.207216,0.0 121.486232,25.206563,0.0 121.486339,25.206078,0.0 121.485166,25.205409,0.0 121.486269,25.204249,0.0 121.486893,25.204135,0.0 121.48752,25.203493,0.0 121.488537,25.202917,0.0 121.488858,25.202407,0.0 121.489201,25.201704,0.0 121.489332,25.201399,0.0 121.489194,25.201277,0.0 121.489151,25.200976,0.0 121.489038,25.200542,0.0 121.487958,25.200175,0.0 121.486868,25.199635,0.0 121.485467,25.198601,0.0 121.485596,25.197197,0.0 121.48819,25.196714,0.0 121.491382,25.196182,0.0 121.492321,25.195533,0.0 121.49278,25.195096,0.0 121.49301,25.194466,0.0 121.492897,25.19385,0.0 121.493106,25.193258,0.0 121.493881,25.193014,0.0 121.494311,25.193243,0.0 121.49479,25.192661,0.0 121.49489,25.191618,0.0 121.495593,25.191114,0.0 121.496616,25.191635,0.0 121.497562,25.191999,0.0 121.498677,25.192234,0.0 121.499888,25.192678,0.0 121.501074,25.192931,0.0 121.501787,25.192708,0.0 121.502189,25.192568,0.0 121.50268,25.192149,0.0 121.502852,25.191407,0.0 121.503183,25.190803,0.0 121.50407,25.190478,0.0 121.505128,25.190135,0.0 121.506054,25.190262,0.0 121.506897,25.189702,0.0 121.507633,25.18889,0.0 121.507579,25.188247,0.0 121.507729,25.187568,0.0 121.508481,25.187619,0.0 121.509856,25.187574,0.0 121.510591,25.186708,0.0 121.511662,25.185561,0.0 121.513069,25.184889,0.0 121.514068,25.183911,0.0 121.515995,25.18324,0.0 121.517891,25.182865,0.0 121.519691,25.18217,0.0 121.520411,25.180708,0.0 121.521643,25.179197,0.0 121.523877,25.181031,0.0 121.526958,25.183073,0.0 121.529425,25.183046,0.0 121.531686,25.183627,0.0 121.535093,25.185034,0.0 121.534239,25.18743,0.0 121.532919,25.190239,0.0 121.530292,25.190056,0.0 121.525952,25.188651,0.0 121.52298,25.188127,0.0 121.521369,25.188074,0.0 121.519302,25.188292,0.0 121.516854,25.189122,0.0 121.51508,25.192036,0.0 121.513076,25.194533,0.0 121.509739,25.197508,0.0 121.507009,25.202057,0.0 121.506198,25.203894,0.0 121.50589,25.203712,0.0 121.505736,25.203491,0.0 121.504809,25.203479,0.0 121.50408,25.203107,0.0 121.503956,25.203036,0.0 121.503285,25.203063,0.0 121.502419,25.203147,0.0 121.501239,25.202626,0.0 121.50113,25.202799,0.0 121.501873,25.203662,0.0 121.502134,25.204146,0.0 121.502057,25.204316,0.0 121.502508,25.20521,0.0 121.502836,25.206047,0.0 121.503104,25.206734,0.0 121.503067,25.207551,0.0 121.502672,25.208355,0.0 121.50216,25.209083,0.0 121.50207,25.2096,0.0 121.501859,25.209974,0.0 121.502098,25.210619,0.0 121.50219,25.210939,0.0 121.501948,25.211895,0.0 121.501288,25.213191,0.0 121.500981,25.213798,0.0</coordinates></LinearRing></outerBoundaryIs></Polygon><styleUrl>#spolygon-map</styleUrl></Placemark></Document>
</kml>
