<?xml version="1.0" encoding="UTF-8"?>
<kml xmlns="http://www.opengis.net/kml/2.2">
	<Document>
		<name>新北市深坑區</name>
		<Style id="spolygon">
			<LabelStyle>
				<scale>0.0</scale>
			</LabelStyle>
			<LineStyle>
				<color>330030ff</color>
				<width>0</width>
			</LineStyle>
			<PolyStyle>
				<color>330030ff</color>
			</PolyStyle>
		</Style>
		<StyleMap id="spolygon-map">
			<Pair>
				<key>normal</key>
				<styleUrl>#spolygon</styleUrl>
			</Pair>
		</StyleMap>
	<Placemark><Polygon><outerBoundaryIs><LinearRing><coordinates>121.61695,25.003773,0.0 121.616324,25.004304,0.0 121.615517,25.007372,0.0 121.611381,25.001153,0.0 121.613449,25.000591,0.0 121.616312,24.999934,0.0 121.618937,24.999611,0.0 121.620004,24.999343,0.0 121.620843,25.000311,0.0 121.621287,25.001202,0.0 121.620171,25.001346,0.0 121.6168,25.002336,0.0 121.617171,25.002807,0.0 121.617636,25.003044,0.0 121.617155,25.003793,0.0 121.61695,25.003773,0.0</coordinates></LinearRing></outerBoundaryIs></Polygon><styleUrl>#spolygon-map</styleUrl></Placemark><Placemark><Polygon><outerBoundaryIs><LinearRing><coordinates>121.598783,25.00456,0.0 121.596091,25.005291,0.0 121.599063,25.003065,0.0 121.601743,25.001527,0.0 121.605456,24.999589,0.0 121.606322,24.999833,0.0 121.607098,24.999281,0.0 121.608465,24.999446,0.0 121.61048,24.999995,0.0 121.610334,25.000963,0.0 121.605483,25.001846,0.0 121.60365,25.002723,0.0 121.600722,25.003929,0.0 121.598783,25.00456,0.0</coordinates></LinearRing></outerBoundaryIs></Polygon><styleUrl>#spolygon-map</styleUrl></Placemark><Placemark><Polygon><outerBoundaryIs><LinearRing><coordinates>121.63593,25.023591,0.0 121.629814,25.021359,0.0 121.628834,25.018931,0.0 121.62956,25.01855,0.0 121.629835,25.018218,0.0 121.630781,25.013041,0.0 121.633245,25.009646,0.0 121.634312,25.009377,0.0 121.635825,25.008737,0.0 121.637688,25.008487,0.0 121.639987,25.008416,0.0 121.64108,25.00944,0.0 121.6412,25.010062,0.0 121.64148,25.010573,0.0 121.641624,25.010898,0.0 121.641053,25.011646,0.0 121.640766,25.012249,0.0 121.641454,25.012844,0.0 121.641407,25.013159,0.0 121.641483,25.013558,0.0 121.641424,25.014109,0.0 121.64098,25.01658,0.0 121.641009,25.017634,0.0 121.640515,25.018647,0.0 121.639724,25.02005,0.0 121.639427,25.021069,0.0 121.6403,25.022308,0.0 121.640514,25.02345,0.0 121.63593,25.023591,0.0</coordinates></LinearRing></outerBoundaryIs></Polygon><styleUrl>#spolygon-map</styleUrl></Placemark><Placemark><Polygon><outerBoundaryIs><LinearRing><coordinates>121.632918,25.009706,0.0 121.63086,25.008001,0.0 121.627759,25.005199,0.0 121.626964,25.006651,0.0 121.625152,25.005871,0.0 121.624894,25.005121,0.0 121.622913,25.002928,0.0 121.621517,25.001869,0.0 121.621608,25.001221,0.0 121.620843,25.000311,0.0 121.620004,24.999343,0.0 121.618937,24.999611,0.0 121.616312,24.999934,0.0 121.613436,24.999935,0.0 121.613343,24.998913,0.0 121.613894,24.998104,0.0 121.613849,24.997208,0.0 121.613885,24.995752,0.0 121.615766,24.99554,0.0 121.617312,24.995796,0.0 121.617123,24.994872,0.0 121.617089,24.994113,0.0 121.617957,24.993566,0.0 121.616269,24.990423,0.0 121.617288,24.98997,0.0 121.609421,24.983607,0.0 121.610241,24.98372,0.0 121.610006,24.983444,0.0 121.610471,24.983637,0.0 121.609434,24.983322,0.0 121.609932,24.982992,0.0 121.610845,24.982954,0.0 121.611497,24.983318,0.0 121.612232,24.983845,0.0 121.6121,24.984648,0.0 121.612535,24.984239,0.0 121.612503,24.9833,0.0 121.612037,24.982895,0.0 121.611405,24.98267,0.0 121.61279,24.982856,0.0 121.613635,24.983175,0.0 121.613274,24.983732,0.0 121.614072,24.982187,0.0 121.61395,24.981466,0.0 121.613669,24.981582,0.0 121.613356,24.982143,0.0 121.613207,24.981522,0.0 121.613313,24.980512,0.0 121.613815,24.979961,0.0 121.615134,24.97936,0.0 121.615258,24.979241,0.0 121.615314,24.979171,0.0 121.615765,24.979393,0.0 121.615842,24.979675,0.0 121.616624,24.979763,0.0 121.626472,24.972249,0.0 121.627228,24.972566,0.0 121.62776,24.972872,0.0 121.628138,24.973209,0.0 121.628672,24.973635,0.0 121.629041,24.974109,0.0 121.629611,24.974426,0.0 121.63009,24.974648,0.0 121.631015,24.97523,0.0 121.631734,24.975713,0.0 121.632312,24.976139,0.0 121.632818,24.976647,0.0 121.63325,24.977027,0.0 121.633534,24.97731,0.0 121.6338,24.977651,0.0 121.634241,24.977703,0.0 121.634936,24.977939,0.0 121.635387,24.978139,0.0 121.635725,24.978455,0.0 121.636015,24.978765,0.0 121.636726,24.978807,0.0 121.6371,24.97916,0.0 121.637278,24.979524,0.0 121.637483,24.979903,0.0 121.637924,24.980121,0.0 121.638464,24.980305,0.0 121.638854,24.980467,0.0 121.639167,24.980736,0.0 121.638965,24.981339,0.0 121.638737,24.981888,0.0 121.638407,24.982303,0.0 121.638231,24.982688,0.0 121.637888,24.983113,0.0 121.637728,24.983614,0.0 121.63775,24.983984,0.0 121.637785,24.98444,0.0 121.637555,24.985088,0.0 121.637403,24.985431,0.0 121.637468,24.985926,0.0 121.637146,24.986553,0.0 121.63708,24.987014,0.0 121.637063,24.987526,0.0 121.637432,24.987879,0.0 121.637552,24.988204,0.0 121.637431,24.988649,0.0 121.637171,24.989149,0.0 121.637167,24.989502,0.0 121.637432,24.9898,0.0 121.637557,24.990143,0.0 121.637406,24.990455,0.0 121.637702,24.990903,0.0 121.637806,24.991252,0.0 121.637355,24.991787,0.0 121.637022,24.992249,0.0 121.636511,24.992492,0.0 121.636466,24.992831,0.0 121.636639,24.993184,0.0 121.636577,24.993616,0.0 121.636856,24.994048,0.0 121.637203,24.994491,0.0 121.637686,24.994918,0.0 121.638068,24.995009,0.0 121.638557,24.9948,0.0 121.638979,24.994861,0.0 121.639423,24.99504,0.0 121.639999,24.995135,0.0 121.640779,24.99517,0.0 121.64146,24.995172,0.0 121.642067,24.995175,0.0 121.642797,24.9952,0.0 121.643384,24.995169,0.0 121.643866,24.995266,0.0 121.643867,24.995782,0.0 121.643862,24.996181,0.0 121.644041,24.996599,0.0 121.644549,24.996693,0.0 121.644611,24.996987,0.0 121.644761,24.997377,0.0 121.645142,24.997806,0.0 121.645742,24.998208,0.0 121.645759,24.998567,0.0 121.645469,24.99941,0.0 121.645498,25.000053,0.0 121.645614,25.001059,0.0 121.645232,25.001294,0.0 121.645527,25.001785,0.0 121.644918,25.001943,0.0 121.643958,25.002064,0.0 121.642604,25.001923,0.0 121.64156,25.002467,0.0 121.640592,25.00259,0.0 121.639842,25.003346,0.0 121.639482,25.004341,0.0 121.639499,25.005235,0.0 121.640295,25.00618,0.0 121.641023,25.007098,0.0 121.64171,25.007495,0.0 121.642235,25.007924,0.0 121.64134,25.008455,0.0 121.640588,25.008581,0.0 121.638446,25.008388,0.0 121.636139,25.008772,0.0 121.634782,25.009142,0.0 121.633391,25.009541,0.0 121.632918,25.009706,0.0</coordinates></LinearRing></outerBoundaryIs></Polygon><styleUrl>#spolygon-map</styleUrl></Placemark><Placemark><Polygon><outerBoundaryIs><LinearRing><coordinates>121.604897,24.999669,0.0 121.601074,25.001894,0.0 121.599954,25.001915,0.0 121.598297,24.995383,0.0 121.60035,24.987453,0.0 121.600503,24.97979,0.0 121.606367,24.974482,0.0 121.614594,24.97321,0.0 121.620038,24.969303,0.0 121.62061,24.969521,0.0 121.621246,24.969814,0.0 121.621822,24.970103,0.0 121.622389,24.970319,0.0 121.622977,24.970503,0.0 121.623585,24.970731,0.0 121.624125,24.970899,0.0 121.624667,24.971099,0.0 121.625222,24.971276,0.0 121.625674,24.971657,0.0 121.626128,24.972054,0.0 121.616742,24.979634,0.0 121.616156,24.979577,0.0 121.615749,24.979602,0.0 121.615447,24.979277,0.0 121.615241,24.979175,0.0 121.615386,24.979463,0.0 121.614394,24.979367,0.0 121.613313,24.980373,0.0 121.613534,24.981062,0.0 121.613139,24.982023,0.0 121.61377,24.981901,0.0 121.613808,24.98137,0.0 121.614055,24.981975,0.0 121.61432,24.983412,0.0 121.613141,24.983515,0.0 121.61333,24.982913,0.0 121.611927,24.982664,0.0 121.611381,24.982767,0.0 121.612176,24.983196,0.0 121.612588,24.98354,0.0 121.612296,24.98468,0.0 121.612326,24.984232,0.0 121.611661,24.983475,0.0 121.610984,24.983345,0.0 121.610311,24.983044,0.0 121.609186,24.983276,0.0 121.610435,24.98359,0.0 121.610381,24.983649,0.0 121.609848,24.983487,0.0 121.609814,24.983647,0.0 121.617442,24.989717,0.0 121.61642,24.989995,0.0 121.615068,24.991226,0.0 121.617587,24.994014,0.0 121.616863,24.994449,0.0 121.61744,24.995654,0.0 121.616403,24.995576,0.0 121.614215,24.995464,0.0 121.613919,24.996751,0.0 121.613977,24.9978,0.0 121.613416,24.998591,0.0 121.613233,24.99955,0.0 121.613674,25.000514,0.0 121.610848,25.000104,0.0 121.608555,24.99944,0.0 121.607263,24.999246,0.0 121.606428,24.999754,0.0 121.605486,24.999659,0.0 121.604897,24.999669,0.0</coordinates></LinearRing></outerBoundaryIs></Polygon><styleUrl>#spolygon-map</styleUrl></Placemark><Placemark><Polygon><outerBoundaryIs><LinearRing><coordinates>121.620669,25.007044,0.0 121.616295,25.004523,0.0 121.616416,25.004117,0.0 121.617139,25.003795,0.0 121.617635,25.003049,0.0 121.617393,25.002823,0.0 121.616784,25.002389,0.0 121.619522,25.001491,0.0 121.621093,25.001291,0.0 121.621449,25.001645,0.0 121.621958,25.002186,0.0 121.621602,25.00497,0.0 121.621392,25.006099,0.0 121.620669,25.007044,0.0</coordinates></LinearRing></outerBoundaryIs></Polygon><styleUrl>#spolygon-map</styleUrl></Placemark><Placemark><Polygon><outerBoundaryIs><LinearRing><coordinates>121.614273,25.019238,0.0 121.603922,25.018217,0.0 121.598047,25.014578,0.0 121.595563,25.007425,0.0 121.597092,25.005105,0.0 121.600026,25.004154,0.0 121.602963,25.003152,0.0 121.605313,25.001893,0.0 121.609899,25.000997,0.0 121.611402,25.001493,0.0 121.619475,25.009322,0.0 121.620544,25.018285,0.0 121.615458,25.01955,0.0 121.614273,25.019238,0.0</coordinates></LinearRing></outerBoundaryIs></Polygon><styleUrl>#spolygon-map</styleUrl></Placemark><Placemark><Polygon><outerBoundaryIs><LinearRing><coordinates>121.627177,25.019965,0.0 121.619419,25.014851,0.0 121.620669,25.007044,0.0 121.621673,25.005549,0.0 121.623149,25.003282,0.0 121.624894,25.005121,0.0 121.625152,25.005871,0.0 121.626964,25.006651,0.0 121.627759,25.005199,0.0 121.63086,25.008001,0.0 121.629049,25.017473,0.0 121.629849,25.018262,0.0 121.629532,25.018562,0.0 121.628726,25.019012,0.0 121.627177,25.019965,0.0</coordinates></LinearRing></outerBoundaryIs></Polygon><styleUrl>#spolygon-map</styleUrl></Placemark></Document>
</kml>
