<?xml version="1.0" encoding="UTF-8"?>
<kml xmlns="http://www.opengis.net/kml/2.2">
	<Document>
		<name>新北市萬里區</name>
		<Style id="spolygon">
			<LabelStyle>
				<scale>0.0</scale>
			</LabelStyle>
			<LineStyle>
				<color>330030ff</color>
				<width>0</width>
			</LineStyle>
			<PolyStyle>
				<color>330030ff</color>
			</PolyStyle>
		</Style>
		<StyleMap id="spolygon-map">
			<Pair>
				<key>normal</key>
				<styleUrl>#spolygon</styleUrl>
			</Pair>
		</StyleMap>
	<Placemark><Polygon><outerBoundaryIs><LinearRing><coordinates>121.689108,25.183671,0.0 121.687642,25.183545,0.0 121.684681,25.181926,0.0 121.684314,25.177946,0.0 121.685068,25.176803,0.0 121.686284,25.176582,0.0 121.68677,25.176189,0.0 121.686322,25.175523,0.0 121.685474,25.174961,0.0 121.683684,25.173766,0.0 121.683115,25.17198,0.0 121.685255,25.171206,0.0 121.690476,25.16613,0.0 121.691042,25.165113,0.0 121.691026,25.164654,0.0 121.691394,25.164741,0.0 121.691902,25.165573,0.0 121.692519,25.166347,0.0 121.693031,25.166564,0.0 121.694515,25.166624,0.0 121.695022,25.166789,0.0 121.69551,25.166682,0.0 121.695996,25.166716,0.0 121.696801,25.167311,0.0 121.69728,25.167344,0.0 121.697918,25.167022,0.0 121.698405,25.167037,0.0 121.699127,25.167389,0.0 121.699179,25.168254,0.0 121.699305,25.16896,0.0 121.700321,25.169106,0.0 121.700944,25.169221,0.0 121.701174,25.170177,0.0 121.701432,25.17123,0.0 121.701793,25.171582,0.0 121.703491,25.175113,0.0 121.703443,25.176464,0.0 121.702556,25.177782,0.0 121.701991,25.179218,0.0 121.700267,25.179662,0.0 121.697633,25.181624,0.0 121.696353,25.182587,0.0 121.69693,25.181313,0.0 121.695981,25.180382,0.0 121.694674,25.180905,0.0 121.696132,25.181327,0.0 121.695313,25.181387,0.0 121.694552,25.181173,0.0 121.693041,25.180368,0.0 121.69237,25.180532,0.0 121.689108,25.183671,0.0</coordinates></LinearRing></outerBoundaryIs></Polygon><styleUrl>#spolygon-map</styleUrl></Placemark><Placemark><Polygon><outerBoundaryIs><LinearRing><coordinates>121.692491,25.200428,0.0 121.694231,25.202122,0.0 121.69243,25.20216,0.0 121.683455,25.198193,0.0 121.676916,25.195531,0.0 121.671909,25.192569,0.0 121.669391,25.187914,0.0 121.660277,25.186593,0.0 121.659106,25.184373,0.0 121.664346,25.184245,0.0 121.665296,25.182677,0.0 121.665214,25.181972,0.0 121.665598,25.178711,0.0 121.669271,25.179452,0.0 121.675251,25.182687,0.0 121.683338,25.180933,0.0 121.683705,25.18082,0.0 121.687569,25.18349,0.0 121.688645,25.183987,0.0 121.685673,25.190272,0.0 121.686271,25.190482,0.0 121.685826,25.192051,0.0 121.686717,25.194276,0.0 121.688575,25.195166,0.0 121.687314,25.195223,0.0 121.688016,25.195748,0.0 121.689474,25.196188,0.0 121.689491,25.194624,0.0 121.689915,25.197258,0.0 121.69234,25.199878,0.0 121.692698,25.200452,0.0 121.692491,25.200428,0.0</coordinates></LinearRing></outerBoundaryIs></Polygon><styleUrl>#spolygon-map</styleUrl></Placemark><Placemark><Polygon><outerBoundaryIs><LinearRing><coordinates>121.701037,25.216613,0.0 121.700509,25.216631,0.0 121.698758,25.215398,0.0 121.698005,25.214826,0.0 121.697094,25.214364,0.0 121.696595,25.213914,0.0 121.69688,25.21394,0.0 121.696491,25.213497,0.0 121.696238,25.212804,0.0 121.696469,25.212714,0.0 121.695512,25.211728,0.0 121.695683,25.211637,0.0 121.694159,25.209705,0.0 121.693075,25.209036,0.0 121.692179,25.207783,0.0 121.690618,25.207883,0.0 121.689367,25.207349,0.0 121.688557,25.206318,0.0 121.688841,25.205253,0.0 121.68826,25.205425,0.0 121.687769,25.204348,0.0 121.685873,25.20458,0.0 121.68634,25.2057,0.0 121.687364,25.20507,0.0 121.687156,25.207515,0.0 121.686653,25.207689,0.0 121.685856,25.207986,0.0 121.685367,25.207494,0.0 121.684032,25.206618,0.0 121.681288,25.203825,0.0 121.678954,25.202127,0.0 121.6785,25.202269,0.0 121.678219,25.202356,0.0 121.677573,25.204266,0.0 121.677658,25.205343,0.0 121.676901,25.205332,0.0 121.67566,25.203621,0.0 121.675946,25.204836,0.0 121.673917,25.203967,0.0 121.675247,25.202986,0.0 121.673472,25.203495,0.0 121.67278,25.202275,0.0 121.669385,25.203627,0.0 121.668881,25.203722,0.0 121.664955,25.20675,0.0 121.664066,25.208225,0.0 121.663695,25.208342,0.0 121.661925,25.208091,0.0 121.66055,25.207906,0.0 121.660221,25.207326,0.0 121.659752,25.207047,0.0 121.653589,25.205937,0.0 121.653302,25.201449,0.0 121.654726,25.199004,0.0 121.654939,25.198717,0.0 121.655949,25.197262,0.0 121.65669,25.192666,0.0 121.657717,25.186185,0.0 121.668118,25.185994,0.0 121.669783,25.190063,0.0 121.673763,25.193802,0.0 121.681303,25.197216,0.0 121.687815,25.199666,0.0 121.694965,25.202854,0.0 121.693527,25.203046,0.0 121.693124,25.203181,0.0 121.692409,25.203803,0.0 121.692736,25.203239,0.0 121.691933,25.203284,0.0 121.693249,25.204167,0.0 121.692691,25.204594,0.0 121.694026,25.2077,0.0 121.693195,25.207904,0.0 121.695386,25.20974,0.0 121.697285,25.211216,0.0 121.698425,25.212328,0.0 121.700702,25.213848,0.0 121.701045,25.214158,0.0 121.701154,25.214834,0.0 121.700974,25.214797,0.0 121.70078,25.215208,0.0 121.701947,25.216995,0.0 121.701037,25.216613,0.0</coordinates></LinearRing></outerBoundaryIs></Polygon><styleUrl>#spolygon-map</styleUrl></Placemark><Placemark><Polygon><outerBoundaryIs><LinearRing><coordinates>121.652045,25.218984,0.0 121.646856,25.221863,0.0 121.644755,25.220568,0.0 121.643636,25.220079,0.0 121.643539,25.218887,0.0 121.643853,25.218331,0.0 121.643242,25.218186,0.0 121.643416,25.217818,0.0 121.643229,25.217274,0.0 121.642629,25.217084,0.0 121.642592,25.216717,0.0 121.642208,25.216162,0.0 121.641135,25.215486,0.0 121.642265,25.21468,0.0 121.642003,25.214383,0.0 121.641976,25.214165,0.0 121.641895,25.213799,0.0 121.64163,25.213691,0.0 121.641368,25.213333,0.0 121.64088,25.213483,0.0 121.640542,25.213169,0.0 121.640367,25.213094,0.0 121.639848,25.213218,0.0 121.639464,25.212985,0.0 121.639223,25.213196,0.0 121.638792,25.213292,0.0 121.638388,25.213441,0.0 121.637987,25.213095,0.0 121.636388,25.210315,0.0 121.636335,25.210111,0.0 121.636158,25.209636,0.0 121.636128,25.209263,0.0 121.635835,25.209038,0.0 121.635635,25.208804,0.0 121.635185,25.208824,0.0 121.634792,25.208866,0.0 121.634112,25.208848,0.0 121.633793,25.208629,0.0 121.633455,25.208312,0.0 121.633366,25.208106,0.0 121.633198,25.207589,0.0 121.632531,25.207239,0.0 121.632212,25.20642,0.0 121.631858,25.205883,0.0 121.631763,25.205633,0.0 121.63145,25.205407,0.0 121.631166,25.205151,0.0 121.63075,25.205094,0.0 121.630971,25.204634,0.0 121.631053,25.203964,0.0 121.633863,25.203859,0.0 121.637293,25.203813,0.0 121.639829,25.204052,0.0 121.642983,25.204007,0.0 121.647397,25.203623,0.0 121.649759,25.203196,0.0 121.651976,25.202162,0.0 121.653589,25.205937,0.0 121.659752,25.207047,0.0 121.660221,25.207326,0.0 121.66055,25.207906,0.0 121.661925,25.208091,0.0 121.659435,25.210004,0.0 121.656658,25.212596,0.0 121.653996,25.215556,0.0 121.652045,25.218984,0.0</coordinates></LinearRing></outerBoundaryIs></Polygon><styleUrl>#spolygon-map</styleUrl></Placemark><Placemark><Polygon><outerBoundaryIs><LinearRing><coordinates>121.641135,25.215486,0.0 121.641074,25.215737,0.0 121.640122,25.215444,0.0 121.638796,25.215662,0.0 121.637862,25.215672,0.0 121.637287,25.215417,0.0 121.636344,25.214861,0.0 121.635596,25.214446,0.0 121.634871,25.213819,0.0 121.634478,25.213496,0.0 121.633523,25.213473,0.0 121.632558,25.213085,0.0 121.632098,25.212755,0.0 121.631566,25.212435,0.0 121.630892,25.212056,0.0 121.630097,25.21159,0.0 121.62983,25.211343,0.0 121.629933,25.21074,0.0 121.629608,25.210397,0.0 121.628545,25.209987,0.0 121.62787,25.209369,0.0 121.626695,25.208289,0.0 121.626149,25.207807,0.0 121.625227,25.207193,0.0 121.624875,25.206838,0.0 121.623673,25.205926,0.0 121.62272,25.204432,0.0 121.621688,25.203334,0.0 121.620273,25.203309,0.0 121.619647,25.203118,0.0 121.618519,25.202202,0.0 121.617269,25.201329,0.0 121.616594,25.200773,0.0 121.615954,25.199762,0.0 121.615013,25.198389,0.0 121.614145,25.197473,0.0 121.613281,25.196569,0.0 121.612659,25.196975,0.0 121.61193,25.196768,0.0 121.611372,25.19611,0.0 121.611031,25.195643,0.0 121.610649,25.195115,0.0 121.610941,25.194337,0.0 121.611553,25.193596,0.0 121.612411,25.193227,0.0 121.61202,25.192629,0.0 121.611911,25.191991,0.0 121.611528,25.191353,0.0 121.610892,25.19096,0.0 121.611285,25.189955,0.0 121.61111,25.189166,0.0 121.611048,25.188051,0.0 121.610948,25.187229,0.0 121.610182,25.186585,0.0 121.609737,25.185576,0.0 121.609723,25.184738,0.0 121.609466,25.184121,0.0 121.608898,25.183258,0.0 121.608024,25.182282,0.0 121.607216,25.181253,0.0 121.60732,25.18005,0.0 121.607306,25.178473,0.0 121.610834,25.180101,0.0 121.615201,25.181669,0.0 121.620025,25.182964,0.0 121.62461,25.184573,0.0 121.62897,25.186934,0.0 121.632872,25.189224,0.0 121.638165,25.188295,0.0 121.638549,25.188689,0.0 121.639435,25.188631,0.0 121.639964,25.18814,0.0 121.640885,25.188524,0.0 121.646713,25.188898,0.0 121.651869,25.190022,0.0 121.656453,25.187678,0.0 121.656597,25.194316,0.0 121.655759,25.198108,0.0 121.654899,25.198739,0.0 121.65463,25.199069,0.0 121.652769,25.202419,0.0 121.650566,25.202978,0.0 121.647764,25.203541,0.0 121.644152,25.203835,0.0 121.641082,25.204558,0.0 121.638095,25.203726,0.0 121.635273,25.203728,0.0 121.632062,25.203867,0.0 121.630964,25.204454,0.0 121.630737,25.205001,0.0 121.631066,25.205141,0.0 121.631405,25.205364,0.0 121.631686,25.205575,0.0 121.631889,25.205764,0.0 121.631999,25.206296,0.0 121.632393,25.20678,0.0 121.632762,25.20742,0.0 121.633408,25.207917,0.0 121.63342,25.208286,0.0 121.633747,25.208507,0.0 121.63387,25.208751,0.0 121.634538,25.208824,0.0 121.635004,25.20889,0.0 121.635536,25.208794,0.0 121.635761,25.208901,0.0 121.636038,25.209233,0.0 121.63616,25.209531,0.0 121.636254,25.210048,0.0 121.636389,25.210273,0.0 121.637912,25.213046,0.0 121.63828,25.213438,0.0 121.638672,25.213319,0.0 121.639068,25.213202,0.0 121.639323,25.21296,0.0 121.639664,25.213026,0.0 121.640338,25.213091,0.0 121.640483,25.213116,0.0 121.640792,25.213469,0.0 121.641202,25.213239,0.0 121.641562,25.213649,0.0 121.641824,25.213712,0.0 121.641954,25.214131,0.0 121.641977,25.214341,0.0 121.642221,25.214553,0.0 121.641075,25.215027,0.0 121.641135,25.215486,0.0</coordinates></LinearRing></outerBoundaryIs></Polygon><styleUrl>#spolygon-map</styleUrl></Placemark><Placemark><Polygon><outerBoundaryIs><LinearRing><coordinates>121.653184,25.189446,0.0 121.649467,25.189764,0.0 121.641746,25.188901,0.0 121.640316,25.188336,0.0 121.63958,25.188354,0.0 121.639146,25.188797,0.0 121.638447,25.188608,0.0 121.637247,25.188284,0.0 121.629713,25.188382,0.0 121.626354,25.184753,0.0 121.621599,25.183417,0.0 121.617454,25.182557,0.0 121.612678,25.181627,0.0 121.608279,25.178462,0.0 121.606742,25.177324,0.0 121.605664,25.176494,0.0 121.604105,25.176286,0.0 121.603968,25.175172,0.0 121.603165,25.17393,0.0 121.602204,25.172798,0.0 121.601438,25.171851,0.0 121.600846,25.170563,0.0 121.599887,25.16988,0.0 121.599247,25.169184,0.0 121.5984,25.1683,0.0 121.597574,25.16746,0.0 121.597071,25.166536,0.0 121.596046,25.165614,0.0 121.601001,25.162712,0.0 121.603507,25.159769,0.0 121.611883,25.164755,0.0 121.615819,25.167275,0.0 121.620137,25.168091,0.0 121.625797,25.167682,0.0 121.632855,25.166107,0.0 121.636393,25.163879,0.0 121.640304,25.162161,0.0 121.64358,25.161604,0.0 121.64717,25.165659,0.0 121.652431,25.170948,0.0 121.65746,25.170112,0.0 121.661311,25.169886,0.0 121.662731,25.173376,0.0 121.663793,25.177681,0.0 121.665251,25.181868,0.0 121.665263,25.182558,0.0 121.664791,25.183965,0.0 121.659678,25.184297,0.0 121.657467,25.186457,0.0 121.653184,25.189446,0.0</coordinates></LinearRing></outerBoundaryIs></Polygon><styleUrl>#spolygon-map</styleUrl></Placemark><Placemark><Polygon><outerBoundaryIs><LinearRing><coordinates>121.620137,25.168091,0.0 121.615819,25.167275,0.0 121.611883,25.164755,0.0 121.603507,25.159769,0.0 121.601001,25.162712,0.0 121.595553,25.165588,0.0 121.594389,25.165137,0.0 121.593456,25.164853,0.0 121.59277,25.164227,0.0 121.591626,25.163904,0.0 121.590324,25.163779,0.0 121.591896,25.156112,0.0 121.593993,25.148212,0.0 121.597079,25.142533,0.0 121.604151,25.136461,0.0 121.606322,25.13056,0.0 121.608982,25.132364,0.0 121.609657,25.132402,0.0 121.610599,25.132677,0.0 121.611263,25.133234,0.0 121.611535,25.133672,0.0 121.612176,25.134211,0.0 121.612994,25.134551,0.0 121.613916,25.135279,0.0 121.614684,25.135825,0.0 121.615167,25.136356,0.0 121.615828,25.136614,0.0 121.616355,25.13732,0.0 121.616833,25.138215,0.0 121.617303,25.138373,0.0 121.618325,25.138118,0.0 121.619149,25.138218,0.0 121.619973,25.138539,0.0 121.621555,25.139364,0.0 121.623001,25.139758,0.0 121.623907,25.139993,0.0 121.624923,25.139747,0.0 121.625849,25.139463,0.0 121.626851,25.139797,0.0 121.627094,25.140229,0.0 121.628666,25.141709,0.0 121.629109,25.142062,0.0 121.631074,25.142637,0.0 121.634387,25.143858,0.0 121.63503,25.143901,0.0 121.635746,25.143609,0.0 121.636483,25.143625,0.0 121.638816,25.144362,0.0 121.639439,25.145063,0.0 121.640056,25.145897,0.0 121.641598,25.148327,0.0 121.640165,25.154064,0.0 121.639106,25.156269,0.0 121.641502,25.159152,0.0 121.643272,25.159318,0.0 121.643883,25.159464,0.0 121.644445,25.159288,0.0 121.644964,25.158984,0.0 121.645234,25.158783,0.0 121.645584,25.159477,0.0 121.64442,25.16208,0.0 121.641063,25.162585,0.0 121.638183,25.162232,0.0 121.632919,25.166065,0.0 121.628342,25.167525,0.0 121.621702,25.167777,0.0 121.620137,25.168091,0.0</coordinates></LinearRing></outerBoundaryIs></Polygon><styleUrl>#spolygon-map</styleUrl></Placemark><Placemark><Polygon><outerBoundaryIs><LinearRing><coordinates>121.671497,25.167542,0.0 121.668718,25.171624,0.0 121.666257,25.167404,0.0 121.660776,25.168643,0.0 121.656874,25.17002,0.0 121.652177,25.170699,0.0 121.646363,25.164952,0.0 121.645851,25.159787,0.0 121.645279,25.158798,0.0 121.645025,25.15893,0.0 121.644472,25.15929,0.0 121.643982,25.159453,0.0 121.643368,25.159291,0.0 121.642517,25.159488,0.0 121.639144,25.156346,0.0 121.639848,25.154346,0.0 121.641645,25.14995,0.0 121.640354,25.14575,0.0 121.641024,25.145427,0.0 121.642327,25.145006,0.0 121.642809,25.145187,0.0 121.644124,25.145711,0.0 121.64599,25.145819,0.0 121.647018,25.145708,0.0 121.648075,25.145252,0.0 121.649169,25.145112,0.0 121.649652,25.144958,0.0 121.650044,25.145098,0.0 121.65194,25.148252,0.0 121.652354,25.148431,0.0 121.653135,25.148371,0.0 121.65377,25.148571,0.0 121.65563,25.149307,0.0 121.656809,25.150396,0.0 121.657046,25.151203,0.0 121.657938,25.151941,0.0 121.658496,25.152391,0.0 121.660473,25.152296,0.0 121.661999,25.152607,0.0 121.663057,25.152827,0.0 121.663657,25.152578,0.0 121.66442,25.152407,0.0 121.665566,25.152454,0.0 121.665844,25.152792,0.0 121.666161,25.153126,0.0 121.667053,25.153139,0.0 121.667887,25.153215,0.0 121.668497,25.153387,0.0 121.669072,25.153412,0.0 121.669371,25.153748,0.0 121.669582,25.154387,0.0 121.66998,25.154841,0.0 121.670729,25.155047,0.0 121.671235,25.15545,0.0 121.671739,25.155889,0.0 121.672338,25.155633,0.0 121.673692,25.155549,0.0 121.674857,25.155745,0.0 121.675968,25.155964,0.0 121.676385,25.155727,0.0 121.677041,25.155956,0.0 121.677537,25.155861,0.0 121.677899,25.156025,0.0 121.678495,25.157345,0.0 121.679313,25.158009,0.0 121.681052,25.159248,0.0 121.681491,25.159444,0.0 121.681696,25.16019,0.0 121.677179,25.160211,0.0 121.674137,25.163322,0.0 121.671497,25.167542,0.0</coordinates></LinearRing></outerBoundaryIs></Polygon><styleUrl>#spolygon-map</styleUrl></Placemark><Placemark><Polygon><outerBoundaryIs><LinearRing><coordinates>121.673421,25.179567,0.0 121.670972,25.180594,0.0 121.666201,25.178245,0.0 121.663793,25.177681,0.0 121.662731,25.173376,0.0 121.661311,25.169886,0.0 121.664185,25.167344,0.0 121.667545,25.16927,0.0 121.669866,25.171828,0.0 121.671755,25.164369,0.0 121.675781,25.162273,0.0 121.679823,25.159499,0.0 121.682473,25.159463,0.0 121.683027,25.159627,0.0 121.683157,25.16019,0.0 121.683392,25.160827,0.0 121.684612,25.160389,0.0 121.685187,25.160338,0.0 121.686195,25.161223,0.0 121.687137,25.161625,0.0 121.687725,25.161929,0.0 121.688239,25.163087,0.0 121.689724,25.164272,0.0 121.691025,25.164651,0.0 121.691035,25.165057,0.0 121.691133,25.165551,0.0 121.685617,25.171126,0.0 121.683069,25.171632,0.0 121.683274,25.173595,0.0 121.685452,25.174918,0.0 121.678348,25.17498,0.0 121.673421,25.179567,0.0</coordinates></LinearRing></outerBoundaryIs></Polygon><styleUrl>#spolygon-map</styleUrl></Placemark><Placemark><Polygon><outerBoundaryIs><LinearRing><coordinates>121.685581,25.176308,0.0 121.684845,25.177259,0.0 121.684329,25.179618,0.0 121.683399,25.180917,0.0 121.677289,25.182451,0.0 121.673181,25.180121,0.0 121.678916,25.174745,0.0 121.685621,25.17502,0.0 121.686355,25.175693,0.0 121.686905,25.176307,0.0 121.685993,25.176426,0.0 121.685581,25.176308,0.0</coordinates></LinearRing></outerBoundaryIs></Polygon><styleUrl>#spolygon-map</styleUrl></Placemark></Document>
</kml>
