<?xml version="1.0" encoding="UTF-8"?>
<kml xmlns="http://www.opengis.net/kml/2.2">
	<Document>
		<name>新竹市北區</name>
		<Style id="spolygon">
			<LabelStyle>
				<scale>0.0</scale>
			</LabelStyle>
			<LineStyle>
				<color>330030ff</color>
				<width>0</width>
			</LineStyle>
			<PolyStyle>
				<color>330030ff</color>
			</PolyStyle>
		</Style>
		<StyleMap id="spolygon-map">
			<Pair>
				<key>normal</key>
				<styleUrl>#spolygon</styleUrl>
			</Pair>
		</StyleMap>
	<Placemark><Polygon><outerBoundaryIs><LinearRing><coordinates>120.945957,24.831383,0.0 120.944664,24.832531,0.0 120.94299,24.834057,0.0 120.941382,24.835349,0.0 120.933054,24.833348,0.0 120.931548,24.827176,0.0 120.931547,24.819668,0.0 120.928861,24.814937,0.0 120.924374,24.810047,0.0 120.924312,24.805271,0.0 120.926169,24.804226,0.0 120.928974,24.806443,0.0 120.932233,24.807889,0.0 120.936125,24.810712,0.0 120.943178,24.815203,0.0 120.951834,24.820246,0.0 120.9545,24.828176,0.0 120.955078,24.829992,0.0 120.954654,24.831903,0.0 120.952381,24.831614,0.0 120.949017,24.831785,0.0 120.945957,24.831383,0.0</coordinates></LinearRing></outerBoundaryIs></Polygon><styleUrl>#spolygon-map</styleUrl></Placemark><Placemark><Polygon><outerBoundaryIs><LinearRing><coordinates>120.964085,24.805836,0.0 120.963597,24.804633,0.0 120.965366,24.804524,0.0 120.964941,24.805584,0.0 120.964085,24.805836,0.0</coordinates></LinearRing></outerBoundaryIs></Polygon><styleUrl>#spolygon-map</styleUrl></Placemark><Placemark><Polygon><outerBoundaryIs><LinearRing><coordinates>120.965401,24.806078,0.0 120.963673,24.806996,0.0 120.9637,24.80602,0.0 120.964792,24.805374,0.0 120.965401,24.806078,0.0</coordinates></LinearRing></outerBoundaryIs></Polygon><styleUrl>#spolygon-map</styleUrl></Placemark><Placemark><Polygon><outerBoundaryIs><LinearRing><coordinates>120.963836,24.804335,0.0 120.962363,24.806181,0.0 120.96289,24.804204,0.0 120.962967,24.802994,0.0 120.963836,24.804335,0.0</coordinates></LinearRing></outerBoundaryIs></Polygon><styleUrl>#spolygon-map</styleUrl></Placemark><Placemark><Polygon><outerBoundaryIs><LinearRing><coordinates>120.965435,24.80278,0.0 120.965791,24.804328,0.0 120.965435,24.80278,0.0</coordinates></LinearRing></outerBoundaryIs></Polygon><styleUrl>#spolygon-map</styleUrl></Placemark><Placemark><Polygon><outerBoundaryIs><LinearRing><coordinates>120.96234,24.803801,0.0 120.959637,24.803546,0.0 120.959913,24.801973,0.0 120.961145,24.801827,0.0 120.961954,24.802347,0.0 120.962952,24.803013,0.0 120.962647,24.80401,0.0 120.96234,24.803801,0.0</coordinates></LinearRing></outerBoundaryIs></Polygon><styleUrl>#spolygon-map</styleUrl></Placemark><Placemark><Polygon><outerBoundaryIs><LinearRing><coordinates>120.964044,24.801883,0.0 120.963522,24.803341,0.0 120.964044,24.801883,0.0</coordinates></LinearRing></outerBoundaryIs></Polygon><styleUrl>#spolygon-map</styleUrl></Placemark><Placemark><Polygon><outerBoundaryIs><LinearRing><coordinates>120.963128,24.799599,0.0 120.96482,24.801164,0.0 120.962967,24.802994,0.0 120.961909,24.802319,0.0 120.961314,24.801642,0.0 120.961813,24.800723,0.0 120.962564,24.799594,0.0 120.963128,24.799599,0.0</coordinates></LinearRing></outerBoundaryIs></Polygon><styleUrl>#spolygon-map</styleUrl></Placemark><Placemark><Polygon><outerBoundaryIs><LinearRing><coordinates>120.965884,24.80841,0.0 120.965196,24.811051,0.0 120.963083,24.813293,0.0 120.964135,24.809797,0.0 120.965884,24.80841,0.0</coordinates></LinearRing></outerBoundaryIs></Polygon><styleUrl>#spolygon-map</styleUrl></Placemark><Placemark><Polygon><outerBoundaryIs><LinearRing><coordinates>120.966072,24.804986,0.0 120.966623,24.806906,0.0 120.965189,24.807963,0.0 120.96553,24.804716,0.0 120.966072,24.804986,0.0</coordinates></LinearRing></outerBoundaryIs></Polygon><styleUrl>#spolygon-map</styleUrl></Placemark><Placemark><Polygon><outerBoundaryIs><LinearRing><coordinates>120.969059,24.808843,0.0 120.969379,24.810576,0.0 120.967482,24.809414,0.0 120.96682,24.807164,0.0 120.970225,24.806632,0.0 120.969088,24.808593,0.0 120.969059,24.808843,0.0</coordinates></LinearRing></outerBoundaryIs></Polygon><styleUrl>#spolygon-map</styleUrl></Placemark><Placemark><Polygon><outerBoundaryIs><LinearRing><coordinates>120.966856,24.804419,0.0 120.9668,24.80716,0.0 120.965961,24.806128,0.0 120.966856,24.804419,0.0</coordinates></LinearRing></outerBoundaryIs></Polygon><styleUrl>#spolygon-map</styleUrl></Placemark><Placemark><Polygon><outerBoundaryIs><LinearRing><coordinates>120.96359,24.811227,0.0 120.963439,24.810609,0.0 120.961957,24.80989,0.0 120.961614,24.809091,0.0 120.963718,24.808755,0.0 120.964772,24.808402,0.0 120.964472,24.809391,0.0 120.96359,24.811227,0.0</coordinates></LinearRing></outerBoundaryIs></Polygon><styleUrl>#spolygon-map</styleUrl></Placemark><Placemark><Polygon><outerBoundaryIs><LinearRing><coordinates>120.964939,24.808309,0.0 120.964029,24.808714,0.0 120.962083,24.808997,0.0 120.961008,24.809136,0.0 120.962387,24.806203,0.0 120.964868,24.807766,0.0 120.964939,24.808309,0.0</coordinates></LinearRing></outerBoundaryIs></Polygon><styleUrl>#spolygon-map</styleUrl></Placemark><Placemark><Polygon><outerBoundaryIs><LinearRing><coordinates>120.961362,24.81109,0.0 120.959162,24.810051,0.0 120.957036,24.80881,0.0 120.956015,24.806561,0.0 120.955585,24.804946,0.0 120.957685,24.804142,0.0 120.961019,24.804909,0.0 120.961116,24.80786,0.0 120.961184,24.80935,0.0 120.962395,24.810157,0.0 120.963118,24.810725,0.0 120.961362,24.81109,0.0</coordinates></LinearRing></outerBoundaryIs></Polygon><styleUrl>#spolygon-map</styleUrl></Placemark><Placemark><Polygon><outerBoundaryIs><LinearRing><coordinates>120.96222,24.81575,0.0 120.964862,24.81149,0.0 120.96704,24.809132,0.0 120.968922,24.810329,0.0 120.968288,24.81288,0.0 120.966126,24.814725,0.0 120.964217,24.81389,0.0 120.963309,24.815257,0.0 120.96222,24.81575,0.0</coordinates></LinearRing></outerBoundaryIs></Polygon><styleUrl>#spolygon-map</styleUrl></Placemark><Placemark><Polygon><outerBoundaryIs><LinearRing><coordinates>120.962017,24.815196,0.0 120.960098,24.815104,0.0 120.958717,24.814749,0.0 120.95716,24.814223,0.0 120.958601,24.813375,0.0 120.960874,24.811923,0.0 120.962884,24.810931,0.0 120.962999,24.813855,0.0 120.962017,24.815196,0.0</coordinates></LinearRing></outerBoundaryIs></Polygon><styleUrl>#spolygon-map</styleUrl></Placemark><Placemark><Polygon><outerBoundaryIs><LinearRing><coordinates>120.968649,24.81771,0.0 120.966469,24.815971,0.0 120.96593,24.814992,0.0 120.967721,24.813552,0.0 120.970381,24.814811,0.0 120.968649,24.81771,0.0</coordinates></LinearRing></outerBoundaryIs></Polygon><styleUrl>#spolygon-map</styleUrl></Placemark><Placemark><Polygon><outerBoundaryIs><LinearRing><coordinates>120.956711,24.825607,0.0 120.952386,24.825945,0.0 120.955275,24.818309,0.0 120.956308,24.81898,0.0 120.957753,24.820156,0.0 120.958798,24.82015,0.0 120.959291,24.820218,0.0 120.959565,24.82135,0.0 120.961165,24.820101,0.0 120.962662,24.821356,0.0 120.962189,24.82236,0.0 120.961467,24.822789,0.0 120.960474,24.823776,0.0 120.959546,24.824437,0.0 120.958758,24.824597,0.0 120.957956,24.824892,0.0 120.957266,24.825242,0.0 120.956711,24.825607,0.0</coordinates></LinearRing></outerBoundaryIs></Polygon><styleUrl>#spolygon-map</styleUrl></Placemark><Placemark><Polygon><outerBoundaryIs><LinearRing><coordinates>120.965374,24.81609,0.0 120.962485,24.818938,0.0 120.959944,24.821347,0.0 120.959387,24.820743,0.0 120.959403,24.819908,0.0 120.960279,24.818879,0.0 120.961014,24.817481,0.0 120.961013,24.815619,0.0 120.96332,24.815245,0.0 120.964284,24.813928,0.0 120.96588,24.814919,0.0 120.965374,24.81609,0.0</coordinates></LinearRing></outerBoundaryIs></Polygon><styleUrl>#spolygon-map</styleUrl></Placemark><Placemark><Polygon><outerBoundaryIs><LinearRing><coordinates>120.957033,24.833577,0.0 120.955445,24.834289,0.0 120.953821,24.835393,0.0 120.950361,24.833463,0.0 120.946859,24.833216,0.0 120.942887,24.834168,0.0 120.944147,24.832985,0.0 120.945708,24.831606,0.0 120.951654,24.830258,0.0 120.953252,24.832299,0.0 120.955344,24.831196,0.0 120.954469,24.829281,0.0 120.957062,24.825249,0.0 120.957913,24.824957,0.0 120.958638,24.824638,0.0 120.959317,24.824512,0.0 120.96028,24.82392,0.0 120.960978,24.824356,0.0 120.962542,24.82607,0.0 120.961521,24.832772,0.0 120.960663,24.832938,0.0 120.959641,24.833109,0.0 120.957909,24.83365,0.0 120.957033,24.833577,0.0</coordinates></LinearRing></outerBoundaryIs></Polygon><styleUrl>#spolygon-map</styleUrl></Placemark><Placemark><Polygon><outerBoundaryIs><LinearRing><coordinates>120.973155,24.820969,0.0 120.970366,24.822643,0.0 120.969195,24.821627,0.0 120.968862,24.819729,0.0 120.969424,24.816882,0.0 120.971934,24.818948,0.0 120.974175,24.820788,0.0 120.973155,24.820969,0.0</coordinates></LinearRing></outerBoundaryIs></Polygon><styleUrl>#spolygon-map</styleUrl></Placemark><Placemark><Polygon><outerBoundaryIs><LinearRing><coordinates>120.977469,24.829709,0.0 120.975431,24.829873,0.0 120.973694,24.830213,0.0 120.97236,24.830855,0.0 120.969361,24.828029,0.0 120.974694,24.825365,0.0 120.974573,24.824388,0.0 120.974876,24.823254,0.0 120.974763,24.822258,0.0 120.972811,24.821454,0.0 120.973916,24.821032,0.0 120.974878,24.820128,0.0 120.976154,24.819858,0.0 120.977757,24.819424,0.0 120.979005,24.8189,0.0 120.979474,24.819447,0.0 120.979108,24.820306,0.0 120.979049,24.820922,0.0 120.978924,24.821233,0.0 120.978694,24.821616,0.0 120.978554,24.822181,0.0 120.982201,24.823438,0.0 120.990254,24.824004,0.0 120.989968,24.824606,0.0 120.988807,24.825251,0.0 120.987903,24.825418,0.0 120.987146,24.826227,0.0 120.986482,24.827677,0.0 120.985244,24.829577,0.0 120.983887,24.830575,0.0 120.982988,24.830942,0.0 120.982049,24.831114,0.0 120.980855,24.830916,0.0 120.9798,24.830277,0.0 120.978519,24.829798,0.0 120.977469,24.829709,0.0</coordinates></LinearRing></outerBoundaryIs></Polygon><styleUrl>#spolygon-map</styleUrl></Placemark><Placemark><Polygon><outerBoundaryIs><LinearRing><coordinates>120.963956,24.820243,0.0 120.961838,24.819568,0.0 120.964748,24.816709,0.0 120.96788,24.817153,0.0 120.968018,24.818424,0.0 120.96598,24.819683,0.0 120.963956,24.820243,0.0</coordinates></LinearRing></outerBoundaryIs></Polygon><styleUrl>#spolygon-map</styleUrl></Placemark><Placemark><Polygon><outerBoundaryIs><LinearRing><coordinates>120.930106,24.853017,0.0 120.928642,24.853551,0.0 120.927122,24.85411,0.0 120.925452,24.854734,0.0 120.918265,24.8533,0.0 120.914183,24.854049,0.0 120.913512,24.851678,0.0 120.91824,24.843491,0.0 120.926068,24.843571,0.0 120.927425,24.844399,0.0 120.929012,24.843614,0.0 120.930188,24.842634,0.0 120.930952,24.839684,0.0 120.934932,24.839644,0.0 120.937167,24.837658,0.0 120.940457,24.836136,0.0 120.941226,24.836708,0.0 120.941692,24.836605,0.0 120.94226,24.836724,0.0 120.94035,24.838556,0.0 120.940043,24.840184,0.0 120.941532,24.840464,0.0 120.938017,24.843082,0.0 120.931369,24.846887,0.0 120.931266,24.852621,0.0 120.930106,24.853017,0.0</coordinates></LinearRing></outerBoundaryIs></Polygon><styleUrl>#spolygon-map</styleUrl></Placemark><Placemark><Polygon><outerBoundaryIs><LinearRing><coordinates>120.933206,24.852774,0.0 120.931598,24.852622,0.0 120.931346,24.846607,0.0 120.938366,24.84291,0.0 120.944816,24.841085,0.0 120.944392,24.842762,0.0 120.944039,24.844148,0.0 120.9428,24.847051,0.0 120.94167,24.84853,0.0 120.940707,24.849704,0.0 120.939408,24.850547,0.0 120.93768,24.851284,0.0 120.935656,24.852232,0.0 120.933943,24.852712,0.0 120.933206,24.852774,0.0</coordinates></LinearRing></outerBoundaryIs></Polygon><styleUrl>#spolygon-map</styleUrl></Placemark><Placemark><Polygon><outerBoundaryIs><LinearRing><coordinates>120.946155,24.840439,0.0 120.944846,24.84105,0.0 120.940472,24.840573,0.0 120.939547,24.83907,0.0 120.942465,24.836966,0.0 120.941807,24.836563,0.0 120.94132,24.836731,0.0 120.940609,24.836229,0.0 120.941382,24.835349,0.0 120.948406,24.833089,0.0 120.950858,24.834084,0.0 120.952043,24.836755,0.0 120.950493,24.837799,0.0 120.948965,24.838853,0.0 120.947769,24.839702,0.0 120.946349,24.840355,0.0 120.946155,24.840439,0.0</coordinates></LinearRing></outerBoundaryIs></Polygon><styleUrl>#spolygon-map</styleUrl></Placemark><Placemark><Polygon><outerBoundaryIs><LinearRing><coordinates>120.910761,24.835758,0.0 120.912693,24.826745,0.0 120.919894,24.824859,0.0 120.921302,24.825243,0.0 120.922548,24.825919,0.0 120.924475,24.825687,0.0 120.925508,24.825471,0.0 120.926445,24.825891,0.0 120.927638,24.825174,0.0 120.928918,24.824776,0.0 120.931033,24.825172,0.0 120.931512,24.831879,0.0 120.927129,24.832388,0.0 120.921656,24.832774,0.0 120.911735,24.835702,0.0 120.910761,24.835758,0.0</coordinates></LinearRing></outerBoundaryIs></Polygon><styleUrl>#spolygon-map</styleUrl></Placemark><Placemark><Polygon><outerBoundaryIs><LinearRing><coordinates>120.93435,24.839985,0.0 120.930983,24.839099,0.0 120.930684,24.835748,0.0 120.929265,24.832393,0.0 120.93561,24.835934,0.0 120.935493,24.839905,0.0 120.93435,24.839985,0.0</coordinates></LinearRing></outerBoundaryIs></Polygon><styleUrl>#spolygon-map</styleUrl></Placemark><Placemark><Polygon><outerBoundaryIs><LinearRing><coordinates>120.927351,24.845483,0.0 120.920725,24.843182,0.0 120.911944,24.83573,0.0 120.923296,24.83246,0.0 120.927209,24.832532,0.0 120.929698,24.833825,0.0 120.931745,24.837317,0.0 120.930575,24.83972,0.0 120.929895,24.842764,0.0 120.928417,24.843893,0.0 120.927673,24.84484,0.0 120.927351,24.845483,0.0</coordinates></LinearRing></outerBoundaryIs></Polygon><styleUrl>#spolygon-map</styleUrl></Placemark><Placemark><Polygon><outerBoundaryIs><LinearRing><coordinates>120.953699,24.806787,0.0 120.95218,24.806344,0.0 120.952696,24.805262,0.0 120.95187,24.805316,0.0 120.951406,24.804755,0.0 120.950661,24.803795,0.0 120.949687,24.802519,0.0 120.953925,24.800891,0.0 120.954702,24.801325,0.0 120.954865,24.801528,0.0 120.955655,24.802303,0.0 120.956287,24.804569,0.0 120.955826,24.805588,0.0 120.954587,24.805843,0.0 120.953699,24.806787,0.0</coordinates></LinearRing></outerBoundaryIs></Polygon><styleUrl>#spolygon-map</styleUrl></Placemark><Placemark><Polygon><outerBoundaryIs><LinearRing><coordinates>120.962303,24.797786,0.0 120.96276,24.799365,0.0 120.961698,24.800331,0.0 120.961525,24.801348,0.0 120.96098,24.801722,0.0 120.959747,24.801054,0.0 120.958926,24.800681,0.0 120.958031,24.800264,0.0 120.958009,24.798274,0.0 120.959486,24.79766,0.0 120.960541,24.797311,0.0 120.962303,24.797786,0.0</coordinates></LinearRing></outerBoundaryIs></Polygon><styleUrl>#spolygon-map</styleUrl></Placemark><Placemark><Polygon><outerBoundaryIs><LinearRing><coordinates>120.95859,24.796533,0.0 120.956924,24.796535,0.0 120.953439,24.794397,0.0 120.952321,24.793393,0.0 120.951953,24.792982,0.0 120.95144,24.791195,0.0 120.950496,24.78963,0.0 120.948361,24.785506,0.0 120.946466,24.784827,0.0 120.94477,24.784731,0.0 120.946944,24.783863,0.0 120.957669,24.784891,0.0 120.960384,24.785957,0.0 120.963067,24.789272,0.0 120.964411,24.790536,0.0 120.963991,24.791576,0.0 120.962373,24.791878,0.0 120.959432,24.794628,0.0 120.958618,24.796393,0.0 120.95859,24.796533,0.0</coordinates></LinearRing></outerBoundaryIs></Polygon><styleUrl>#spolygon-map</styleUrl></Placemark><Placemark><Polygon><outerBoundaryIs><LinearRing><coordinates>120.957969,24.802557,0.0 120.956782,24.804419,0.0 120.955338,24.801886,0.0 120.954826,24.801484,0.0 120.954669,24.801279,0.0 120.95526,24.799899,0.0 120.957354,24.799406,0.0 120.958846,24.800646,0.0 120.959148,24.800781,0.0 120.960221,24.801281,0.0 120.959913,24.801973,0.0 120.957969,24.802557,0.0</coordinates></LinearRing></outerBoundaryIs></Polygon><styleUrl>#spolygon-map</styleUrl></Placemark><Placemark><Polygon><outerBoundaryIs><LinearRing><coordinates>120.950331,24.807028,0.0 120.949493,24.807554,0.0 120.948721,24.808134,0.0 120.948345,24.806941,0.0 120.948313,24.805082,0.0 120.944118,24.805085,0.0 120.944322,24.804041,0.0 120.947957,24.801207,0.0 120.950041,24.801903,0.0 120.950606,24.803561,0.0 120.951269,24.80454,0.0 120.951797,24.805285,0.0 120.95253,24.805282,0.0 120.95233,24.805821,0.0 120.950331,24.807028,0.0</coordinates></LinearRing></outerBoundaryIs></Polygon><styleUrl>#spolygon-map</styleUrl></Placemark><Placemark><Polygon><outerBoundaryIs><LinearRing><coordinates>120.948429,24.807411,0.0 120.943523,24.807243,0.0 120.943255,24.805761,0.0 120.945558,24.805079,0.0 120.948489,24.806589,0.0 120.948429,24.807411,0.0</coordinates></LinearRing></outerBoundaryIs></Polygon><styleUrl>#spolygon-map</styleUrl></Placemark><Placemark><Polygon><outerBoundaryIs><LinearRing><coordinates>120.954868,24.818682,0.0 120.950971,24.815114,0.0 120.953737,24.813742,0.0 120.955094,24.813259,0.0 120.958055,24.814506,0.0 120.959361,24.815036,0.0 120.961314,24.815233,0.0 120.96119,24.816984,0.0 120.960693,24.818378,0.0 120.959559,24.819662,0.0 120.959145,24.820153,0.0 120.958657,24.820323,0.0 120.957482,24.820163,0.0 120.955972,24.818696,0.0 120.954868,24.818682,0.0</coordinates></LinearRing></outerBoundaryIs></Polygon><styleUrl>#spolygon-map</styleUrl></Placemark><Placemark><Polygon><outerBoundaryIs><LinearRing><coordinates>120.957406,24.813549,0.0 120.956138,24.813728,0.0 120.954406,24.812452,0.0 120.955194,24.809593,0.0 120.95787,24.809523,0.0 120.95954,24.810514,0.0 120.960594,24.812069,0.0 120.958369,24.813581,0.0 120.957406,24.813549,0.0</coordinates></LinearRing></outerBoundaryIs></Polygon><styleUrl>#spolygon-map</styleUrl></Placemark><Placemark><Polygon><outerBoundaryIs><LinearRing><coordinates>120.950971,24.815114,0.0 120.943025,24.814815,0.0 120.948431,24.807447,0.0 120.949126,24.807936,0.0 120.949689,24.807249,0.0 120.951799,24.80669,0.0 120.954348,24.806396,0.0 120.955611,24.805989,0.0 120.955848,24.807186,0.0 120.955122,24.809855,0.0 120.954361,24.812618,0.0 120.953655,24.81382,0.0 120.950971,24.815114,0.0</coordinates></LinearRing></outerBoundaryIs></Polygon><styleUrl>#spolygon-map</styleUrl></Placemark><Placemark><Polygon><outerBoundaryIs><LinearRing><coordinates>120.974414,24.820127,0.0 120.971934,24.818948,0.0 120.969619,24.816581,0.0 120.970918,24.81583,0.0 120.972229,24.815732,0.0 120.97412,24.815739,0.0 120.973257,24.817642,0.0 120.975205,24.81864,0.0 120.97587,24.820146,0.0 120.974414,24.820127,0.0</coordinates></LinearRing></outerBoundaryIs></Polygon><styleUrl>#spolygon-map</styleUrl></Placemark><Placemark><Polygon><outerBoundaryIs><LinearRing><coordinates>120.978823,24.818936,0.0 120.977644,24.819462,0.0 120.976123,24.819816,0.0 120.974625,24.817915,0.0 120.973345,24.816665,0.0 120.974448,24.815518,0.0 120.977535,24.816316,0.0 120.979642,24.8159,0.0 120.980999,24.815602,0.0 120.980564,24.817039,0.0 120.980044,24.818981,0.0 120.979126,24.818986,0.0 120.978823,24.818936,0.0</coordinates></LinearRing></outerBoundaryIs></Polygon><styleUrl>#spolygon-map</styleUrl></Placemark><Placemark><Polygon><outerBoundaryIs><LinearRing><coordinates>120.974799,24.824826,0.0 120.971682,24.826127,0.0 120.96787,24.825067,0.0 120.968582,24.823821,0.0 120.970117,24.823598,0.0 120.970604,24.823005,0.0 120.972686,24.821278,0.0 120.974325,24.821847,0.0 120.974976,24.823143,0.0 120.974553,24.824191,0.0 120.974799,24.824826,0.0</coordinates></LinearRing></outerBoundaryIs></Polygon><styleUrl>#spolygon-map</styleUrl></Placemark><Placemark><Polygon><outerBoundaryIs><LinearRing><coordinates>120.968086,24.820525,0.0 120.969473,24.821862,0.0 120.968576,24.823177,0.0 120.967317,24.823189,0.0 120.965894,24.822912,0.0 120.963743,24.821666,0.0 120.964054,24.820213,0.0 120.966791,24.819021,0.0 120.968862,24.819729,0.0 120.968086,24.820525,0.0</coordinates></LinearRing></outerBoundaryIs></Polygon><styleUrl>#spolygon-map</styleUrl></Placemark><Placemark><Polygon><outerBoundaryIs><LinearRing><coordinates>120.966678,24.8327,0.0 120.965248,24.832522,0.0 120.963589,24.832496,0.0 120.961294,24.824817,0.0 120.960688,24.823984,0.0 120.961239,24.822927,0.0 120.96223,24.822623,0.0 120.962206,24.821812,0.0 120.963476,24.821454,0.0 120.965873,24.822904,0.0 120.967302,24.823188,0.0 120.968504,24.823182,0.0 120.969749,24.822096,0.0 120.970604,24.823005,0.0 120.970117,24.823598,0.0 120.968582,24.823821,0.0 120.96787,24.825067,0.0 120.969361,24.828029,0.0 120.970022,24.831859,0.0 120.968446,24.832391,0.0 120.967179,24.832666,0.0 120.966678,24.8327,0.0</coordinates></LinearRing></outerBoundaryIs></Polygon><styleUrl>#spolygon-map</styleUrl></Placemark><Placemark><Polygon><outerBoundaryIs><LinearRing><coordinates>120.958009,24.798274,0.0 120.956924,24.796535,0.0 120.95859,24.796533,0.0 120.960425,24.796162,0.0 120.963572,24.796465,0.0 120.964206,24.797317,0.0 120.963183,24.797902,0.0 120.960609,24.797242,0.0 120.959589,24.797597,0.0 120.958781,24.797262,0.0 120.958009,24.798274,0.0</coordinates></LinearRing></outerBoundaryIs></Polygon><styleUrl>#spolygon-map</styleUrl></Placemark></Document>
</kml>
