<?xml version="1.0" encoding="UTF-8"?>
<kml xmlns="http://www.opengis.net/kml/2.2">
	<Document>
		<name>桃園縣八德市</name>
		<Style id="spolygon">
			<LabelStyle>
				<scale>0.0</scale>
			</LabelStyle>
			<LineStyle>
				<color>330030ff</color>
				<width>0</width>
			</LineStyle>
			<PolyStyle>
				<color>330030ff</color>
			</PolyStyle>
		</Style>
		<StyleMap id="spolygon-map">
			<Pair>
				<key>normal</key>
				<styleUrl>#spolygon</styleUrl>
			</Pair>
		</StyleMap>
	<Placemark><Polygon><outerBoundaryIs><LinearRing><coordinates>121.277311,24.931988,0.0 121.276459,24.932041,0.0 121.274477,24.930693,0.0 121.273458,24.927426,0.0 121.276449,24.927829,0.0 121.275413,24.926003,0.0 121.276794,24.923053,0.0 121.276846,24.921057,0.0 121.281536,24.921134,0.0 121.283725,24.920146,0.0 121.287829,24.922376,0.0 121.288651,24.923278,0.0 121.288754,24.923807,0.0 121.288877,24.924098,0.0 121.288943,24.925065,0.0 121.288344,24.930545,0.0 121.287912,24.930591,0.0 121.285382,24.930161,0.0 121.284726,24.93075,0.0 121.277285,24.931665,0.0 121.277311,24.931988,0.0</coordinates></LinearRing></outerBoundaryIs></Polygon><styleUrl>#spolygon-map</styleUrl></Placemark><Placemark><Polygon><outerBoundaryIs><LinearRing><coordinates>121.289142,24.936109,0.0 121.288186,24.937813,0.0 121.287637,24.939938,0.0 121.279894,24.937637,0.0 121.28,24.9373,0.0 121.278665,24.936218,0.0 121.275991,24.936615,0.0 121.276089,24.931941,0.0 121.277225,24.932137,0.0 121.28435,24.931049,0.0 121.284751,24.930161,0.0 121.286372,24.930296,0.0 121.288063,24.930419,0.0 121.289279,24.932071,0.0 121.289537,24.934181,0.0 121.289489,24.935515,0.0 121.289142,24.936109,0.0</coordinates></LinearRing></outerBoundaryIs></Polygon><styleUrl>#spolygon-map</styleUrl></Placemark><Placemark><Polygon><outerBoundaryIs><LinearRing><coordinates>121.294256,24.930745,0.0 121.290036,24.930277,0.0 121.289093,24.930155,0.0 121.28863,24.929927,0.0 121.288943,24.925065,0.0 121.292884,24.928121,0.0 121.293785,24.929904,0.0 121.294256,24.930745,0.0</coordinates></LinearRing></outerBoundaryIs></Polygon><styleUrl>#spolygon-map</styleUrl></Placemark><Placemark><Polygon><outerBoundaryIs><LinearRing><coordinates>121.302474,24.936613,0.0 121.300683,24.936167,0.0 121.297673,24.935284,0.0 121.294701,24.934176,0.0 121.294341,24.930769,0.0 121.298685,24.932154,0.0 121.301431,24.93394,0.0 121.302474,24.936613,0.0</coordinates></LinearRing></outerBoundaryIs></Polygon><styleUrl>#spolygon-map</styleUrl></Placemark><Placemark><Polygon><outerBoundaryIs><LinearRing><coordinates>121.297164,24.925042,0.0 121.296737,24.927165,0.0 121.297269,24.930897,0.0 121.294342,24.930763,0.0 121.293905,24.930103,0.0 121.293347,24.92849,0.0 121.288981,24.925068,0.0 121.288858,24.924135,0.0 121.288788,24.923813,0.0 121.28872,24.923311,0.0 121.287801,24.922494,0.0 121.290521,24.923381,0.0 121.293962,24.92466,0.0 121.295734,24.923739,0.0 121.296488,24.924051,0.0 121.297164,24.925042,0.0</coordinates></LinearRing></outerBoundaryIs></Polygon><styleUrl>#spolygon-map</styleUrl></Placemark><Placemark><Polygon><outerBoundaryIs><LinearRing><coordinates>121.2997,24.924895,0.0 121.301926,24.931531,0.0 121.299914,24.932953,0.0 121.297325,24.931242,0.0 121.296856,24.927955,0.0 121.296677,24.92547,0.0 121.2997,24.924895,0.0</coordinates></LinearRing></outerBoundaryIs></Polygon><styleUrl>#spolygon-map</styleUrl></Placemark><Placemark><Polygon><outerBoundaryIs><LinearRing><coordinates>121.276929,24.943186,0.0 121.283857,24.948267,0.0 121.288904,24.951832,0.0 121.291732,24.955824,0.0 121.29114,24.956798,0.0 121.291101,24.958482,0.0 121.290411,24.959644,0.0 121.284859,24.960266,0.0 121.27936,24.960678,0.0 121.27939,24.958148,0.0 121.278923,24.956846,0.0 121.277287,24.955949,0.0 121.277417,24.954748,0.0 121.275575,24.94837,0.0 121.276929,24.943186,0.0</coordinates></LinearRing></outerBoundaryIs></Polygon><styleUrl>#spolygon-map</styleUrl></Placemark><Placemark><Polygon><outerBoundaryIs><LinearRing><coordinates>121.289661,24.961904,0.0 121.287524,24.962722,0.0 121.27947,24.960722,0.0 121.286295,24.960105,0.0 121.291022,24.959581,0.0 121.291088,24.958112,0.0 121.291151,24.956631,0.0 121.292277,24.954726,0.0 121.292898,24.95623,0.0 121.293552,24.957787,0.0 121.294541,24.960026,0.0 121.291572,24.961833,0.0 121.289661,24.961904,0.0</coordinates></LinearRing></outerBoundaryIs></Polygon><styleUrl>#spolygon-map</styleUrl></Placemark><Placemark><Polygon><outerBoundaryIs><LinearRing><coordinates>121.270765,24.947831,0.0 121.268251,24.949743,0.0 121.26713,24.947765,0.0 121.266387,24.947856,0.0 121.265817,24.946612,0.0 121.264734,24.942779,0.0 121.263371,24.937913,0.0 121.262483,24.936109,0.0 121.263132,24.936173,0.0 121.263709,24.935209,0.0 121.263834,24.93488,0.0 121.263977,24.933512,0.0 121.263957,24.932301,0.0 121.268949,24.930479,0.0 121.275391,24.931998,0.0 121.276025,24.937233,0.0 121.275651,24.941601,0.0 121.275136,24.946627,0.0 121.274069,24.947586,0.0 121.271506,24.947202,0.0 121.270765,24.947831,0.0</coordinates></LinearRing></outerBoundaryIs></Polygon><styleUrl>#spolygon-map</styleUrl></Placemark><Placemark><Polygon><outerBoundaryIs><LinearRing><coordinates>121.262405,24.93596,0.0 121.260475,24.934171,0.0 121.260508,24.930966,0.0 121.25978,24.92813,0.0 121.258408,24.924842,0.0 121.257537,24.923923,0.0 121.254951,24.924247,0.0 121.252434,24.920805,0.0 121.254744,24.918891,0.0 121.255502,24.917592,0.0 121.255786,24.915734,0.0 121.254737,24.914212,0.0 121.254006,24.912031,0.0 121.252866,24.909503,0.0 121.254126,24.911103,0.0 121.257144,24.914619,0.0 121.257366,24.916384,0.0 121.261673,24.917191,0.0 121.263567,24.918215,0.0 121.265755,24.920504,0.0 121.268134,24.921922,0.0 121.269459,24.924323,0.0 121.271244,24.926828,0.0 121.267429,24.930401,0.0 121.263958,24.932332,0.0 121.264145,24.933799,0.0 121.2638,24.934923,0.0 121.263635,24.935665,0.0 121.262977,24.936169,0.0 121.262405,24.93596,0.0</coordinates></LinearRing></outerBoundaryIs></Polygon><styleUrl>#spolygon-map</styleUrl></Placemark><Placemark><Polygon><outerBoundaryIs><LinearRing><coordinates>121.281444,24.969885,0.0 121.276335,24.971407,0.0 121.272739,24.968676,0.0 121.271822,24.967454,0.0 121.271236,24.966927,0.0 121.273096,24.96471,0.0 121.275296,24.962501,0.0 121.27768,24.963949,0.0 121.278617,24.96467,0.0 121.28068,24.966151,0.0 121.283501,24.969527,0.0 121.281444,24.969885,0.0</coordinates></LinearRing></outerBoundaryIs></Polygon><styleUrl>#spolygon-map</styleUrl></Placemark><Placemark><Polygon><outerBoundaryIs><LinearRing><coordinates>121.274214,24.978023,0.0 121.270348,24.976054,0.0 121.272765,24.975263,0.0 121.274119,24.975954,0.0 121.275937,24.975421,0.0 121.27639,24.975685,0.0 121.278274,24.977899,0.0 121.274428,24.978035,0.0 121.274214,24.978023,0.0</coordinates></LinearRing></outerBoundaryIs></Polygon><styleUrl>#spolygon-map</styleUrl></Placemark><Placemark><Polygon><outerBoundaryIs><LinearRing><coordinates>121.288236,24.966094,0.0 121.286382,24.970199,0.0 121.282703,24.96817,0.0 121.279719,24.965973,0.0 121.277946,24.964305,0.0 121.276885,24.964194,0.0 121.273984,24.96248,0.0 121.271642,24.96499,0.0 121.269583,24.96545,0.0 121.267846,24.964961,0.0 121.266808,24.964762,0.0 121.265472,24.964602,0.0 121.26517,24.962375,0.0 121.264645,24.958617,0.0 121.265189,24.95695,0.0 121.265472,24.956522,0.0 121.266157,24.954448,0.0 121.266795,24.952797,0.0 121.266792,24.951677,0.0 121.266766,24.949917,0.0 121.266387,24.947856,0.0 121.26713,24.947765,0.0 121.268251,24.949743,0.0 121.270765,24.947831,0.0 121.273601,24.947171,0.0 121.275191,24.948279,0.0 121.277415,24.954621,0.0 121.27723,24.955902,0.0 121.278844,24.956736,0.0 121.279447,24.958085,0.0 121.279392,24.960599,0.0 121.28727,24.962825,0.0 121.289565,24.961914,0.0 121.291217,24.962253,0.0 121.28876,24.964793,0.0 121.288236,24.966094,0.0</coordinates></LinearRing></outerBoundaryIs></Polygon><styleUrl>#spolygon-map</styleUrl></Placemark><Placemark><Polygon><outerBoundaryIs><LinearRing><coordinates>121.318625,24.969095,0.0 121.314274,24.96917,0.0 121.31447,24.96716,0.0 121.313325,24.965576,0.0 121.312432,24.964361,0.0 121.31093,24.964286,0.0 121.311919,24.962567,0.0 121.310123,24.962409,0.0 121.308116,24.961618,0.0 121.306669,24.959289,0.0 121.309129,24.958107,0.0 121.311957,24.957088,0.0 121.313708,24.957502,0.0 121.314582,24.957766,0.0 121.315921,24.956502,0.0 121.317037,24.956829,0.0 121.319894,24.960396,0.0 121.321029,24.962409,0.0 121.322806,24.965229,0.0 121.319733,24.968352,0.0 121.318625,24.969095,0.0</coordinates></LinearRing></outerBoundaryIs></Polygon><styleUrl>#spolygon-map</styleUrl></Placemark><Placemark><Polygon><outerBoundaryIs><LinearRing><coordinates>121.315577,24.957085,0.0 121.314105,24.957779,0.0 121.313191,24.957094,0.0 121.31224,24.956252,0.0 121.312963,24.954156,0.0 121.313085,24.952996,0.0 121.317991,24.947417,0.0 121.319366,24.946288,0.0 121.320001,24.946345,0.0 121.323957,24.943707,0.0 121.329047,24.944394,0.0 121.331591,24.945627,0.0 121.328078,24.948869,0.0 121.328073,24.9552,0.0 121.322264,24.953779,0.0 121.317859,24.955394,0.0 121.315953,24.956348,0.0 121.315577,24.957085,0.0</coordinates></LinearRing></outerBoundaryIs></Polygon><styleUrl>#spolygon-map</styleUrl></Placemark><Placemark><Polygon><outerBoundaryIs><LinearRing><coordinates>121.311387,24.954902,0.0 121.312098,24.956647,0.0 121.30991,24.957948,0.0 121.306964,24.957597,0.0 121.305887,24.956288,0.0 121.305259,24.954851,0.0 121.303199,24.956282,0.0 121.302691,24.954318,0.0 121.302866,24.952832,0.0 121.300985,24.947493,0.0 121.302333,24.94503,0.0 121.305489,24.942592,0.0 121.306288,24.942703,0.0 121.309823,24.942496,0.0 121.311567,24.942594,0.0 121.312819,24.942453,0.0 121.313048,24.945701,0.0 121.30989,24.948461,0.0 121.310012,24.951144,0.0 121.311192,24.954252,0.0 121.311387,24.954902,0.0</coordinates></LinearRing></outerBoundaryIs></Polygon><styleUrl>#spolygon-map</styleUrl></Placemark><Placemark><Polygon><outerBoundaryIs><LinearRing><coordinates>121.298193,24.951252,0.0 121.298927,24.955765,0.0 121.295494,24.956413,0.0 121.292845,24.954852,0.0 121.29746,24.951093,0.0 121.298193,24.951252,0.0</coordinates></LinearRing></outerBoundaryIs></Polygon><styleUrl>#spolygon-map</styleUrl></Placemark><Placemark><Polygon><outerBoundaryIs><LinearRing><coordinates>121.297722,24.959582,0.0 121.296542,24.960844,0.0 121.294259,24.959512,0.0 121.296206,24.95944,0.0 121.297722,24.959582,0.0</coordinates></LinearRing></outerBoundaryIs></Polygon><styleUrl>#spolygon-map</styleUrl></Placemark><Placemark><Polygon><outerBoundaryIs><LinearRing><coordinates>121.294269,24.95951,0.0 121.293552,24.957787,0.0 121.292898,24.95623,0.0 121.294212,24.955878,0.0 121.299233,24.957586,0.0 121.297032,24.959132,0.0 121.294731,24.959506,0.0 121.294269,24.95951,0.0</coordinates></LinearRing></outerBoundaryIs></Polygon><styleUrl>#spolygon-map</styleUrl></Placemark><Placemark><Polygon><outerBoundaryIs><LinearRing><coordinates>121.303517,24.965206,0.0 121.302965,24.965528,0.0 121.301126,24.965507,0.0 121.300088,24.96266,0.0 121.302022,24.962388,0.0 121.303928,24.962682,0.0 121.304105,24.964353,0.0 121.303517,24.965206,0.0</coordinates></LinearRing></outerBoundaryIs></Polygon><styleUrl>#spolygon-map</styleUrl></Placemark><Placemark><Polygon><outerBoundaryIs><LinearRing><coordinates>121.304963,24.958107,0.0 121.303923,24.961562,0.0 121.302072,24.962379,0.0 121.300182,24.962646,0.0 121.299402,24.958565,0.0 121.299959,24.95651,0.0 121.300555,24.957111,0.0 121.303613,24.957694,0.0 121.304963,24.958107,0.0</coordinates></LinearRing></outerBoundaryIs></Polygon><styleUrl>#spolygon-map</styleUrl></Placemark><Placemark><Polygon><outerBoundaryIs><LinearRing><coordinates>121.301651,24.978825,0.0 121.299636,24.976346,0.0 121.297552,24.976253,0.0 121.295734,24.975415,0.0 121.296151,24.973391,0.0 121.299035,24.973556,0.0 121.301553,24.972724,0.0 121.302404,24.974444,0.0 121.303234,24.97729,0.0 121.302491,24.978712,0.0 121.301651,24.978825,0.0</coordinates></LinearRing></outerBoundaryIs></Polygon><styleUrl>#spolygon-map</styleUrl></Placemark><Placemark><Polygon><outerBoundaryIs><LinearRing><coordinates>121.302908,24.974292,0.0 121.302026,24.97249,0.0 121.301161,24.968003,0.0 121.303042,24.967669,0.0 121.303383,24.966172,0.0 121.303961,24.964541,0.0 121.306444,24.9642,0.0 121.306829,24.96741,0.0 121.306919,24.973663,0.0 121.303444,24.974099,0.0 121.302908,24.974292,0.0</coordinates></LinearRing></outerBoundaryIs></Polygon><styleUrl>#spolygon-map</styleUrl></Placemark><Placemark><Polygon><outerBoundaryIs><LinearRing><coordinates>121.309662,24.94264,0.0 121.306053,24.942675,0.0 121.304211,24.942677,0.0 121.301493,24.943294,0.0 121.298712,24.940029,0.0 121.299898,24.937377,0.0 121.301571,24.936539,0.0 121.302412,24.934575,0.0 121.301926,24.931531,0.0 121.309923,24.93351,0.0 121.310347,24.941337,0.0 121.309823,24.942496,0.0 121.309662,24.94264,0.0</coordinates></LinearRing></outerBoundaryIs></Polygon><styleUrl>#spolygon-map</styleUrl></Placemark><Placemark><Polygon><outerBoundaryIs><LinearRing><coordinates>121.299657,24.957602,0.0 121.298668,24.95428,0.0 121.298368,24.949951,0.0 121.299807,24.94945,0.0 121.300164,24.948488,0.0 121.302069,24.952612,0.0 121.300265,24.956026,0.0 121.299657,24.957602,0.0</coordinates></LinearRing></outerBoundaryIs></Polygon><styleUrl>#spolygon-map</styleUrl></Placemark><Placemark><Polygon><outerBoundaryIs><LinearRing><coordinates>121.32023,24.970696,0.0 121.319221,24.972371,0.0 121.318526,24.972348,0.0 121.318488,24.971318,0.0 121.31797,24.970992,0.0 121.316672,24.970257,0.0 121.319826,24.968282,0.0 121.323038,24.964842,0.0 121.323675,24.965846,0.0 121.325641,24.967274,0.0 121.325748,24.968541,0.0 121.326696,24.970373,0.0 121.3257,24.971446,0.0 121.32513,24.971104,0.0 121.324325,24.97103,0.0 121.323652,24.970915,0.0 121.321137,24.970958,0.0 121.320221,24.970231,0.0 121.32023,24.970696,0.0</coordinates></LinearRing></outerBoundaryIs></Polygon><styleUrl>#spolygon-map</styleUrl></Placemark><Placemark><Polygon><outerBoundaryIs><LinearRing><coordinates>121.299352,24.967675,0.0 121.29664,24.966096,0.0 121.295668,24.96392,0.0 121.295209,24.962279,0.0 121.297509,24.963117,0.0 121.298024,24.96208,0.0 121.299918,24.961827,0.0 121.299352,24.967675,0.0</coordinates></LinearRing></outerBoundaryIs></Polygon><styleUrl>#spolygon-map</styleUrl></Placemark><Placemark><Polygon><outerBoundaryIs><LinearRing><coordinates>121.29732,24.946519,0.0 121.296599,24.945818,0.0 121.294724,24.944921,0.0 121.29443,24.934096,0.0 121.297625,24.935269,0.0 121.300854,24.935606,0.0 121.300372,24.937076,0.0 121.298732,24.939814,0.0 121.297908,24.944308,0.0 121.297422,24.946514,0.0 121.29732,24.946519,0.0</coordinates></LinearRing></outerBoundaryIs></Polygon><styleUrl>#spolygon-map</styleUrl></Placemark><Placemark><Polygon><outerBoundaryIs><LinearRing><coordinates>121.29749,24.946772,0.0 121.29746,24.951093,0.0 121.295407,24.949106,0.0 121.295255,24.947678,0.0 121.295947,24.944894,0.0 121.297027,24.946384,0.0 121.29749,24.946772,0.0</coordinates></LinearRing></outerBoundaryIs></Polygon><styleUrl>#spolygon-map</styleUrl></Placemark><Placemark><Polygon><outerBoundaryIs><LinearRing><coordinates>121.299821,24.973427,0.0 121.29686,24.973501,0.0 121.295077,24.973344,0.0 121.295363,24.970339,0.0 121.299,24.96844,0.0 121.300776,24.96604,0.0 121.301593,24.970814,0.0 121.300619,24.973141,0.0 121.299821,24.973427,0.0</coordinates></LinearRing></outerBoundaryIs></Polygon><styleUrl>#spolygon-map</styleUrl></Placemark><Placemark><Polygon><outerBoundaryIs><LinearRing><coordinates>121.310523,24.97359,0.0 121.309278,24.975459,0.0 121.307891,24.973228,0.0 121.306863,24.96944,0.0 121.306774,24.964872,0.0 121.306711,24.961841,0.0 121.307944,24.961485,0.0 121.309413,24.962214,0.0 121.311821,24.962424,0.0 121.310726,24.96418,0.0 121.312182,24.964166,0.0 121.31325,24.965495,0.0 121.314505,24.966562,0.0 121.314246,24.969057,0.0 121.315157,24.971998,0.0 121.314508,24.970925,0.0 121.314064,24.971845,0.0 121.312701,24.97269,0.0 121.311329,24.972313,0.0 121.310386,24.973024,0.0 121.310523,24.97359,0.0</coordinates></LinearRing></outerBoundaryIs></Polygon><styleUrl>#spolygon-map</styleUrl></Placemark><Placemark><Polygon><outerBoundaryIs><LinearRing><coordinates>121.327048,24.965086,0.0 121.324604,24.967044,0.0 121.323645,24.964656,0.0 121.321835,24.963378,0.0 121.320034,24.960815,0.0 121.318677,24.958534,0.0 121.317311,24.955763,0.0 121.31888,24.955213,0.0 121.327574,24.954851,0.0 121.328756,24.958067,0.0 121.329097,24.960341,0.0 121.328334,24.964889,0.0 121.327491,24.965279,0.0 121.327048,24.965086,0.0</coordinates></LinearRing></outerBoundaryIs></Polygon><styleUrl>#spolygon-map</styleUrl></Placemark><Placemark><Polygon><outerBoundaryIs><LinearRing><coordinates>121.328299,24.971469,0.0 121.327433,24.972561,0.0 121.326589,24.972028,0.0 121.325762,24.971514,0.0 121.32665,24.970809,0.0 121.326255,24.968627,0.0 121.325581,24.967718,0.0 121.32588,24.965919,0.0 121.328416,24.965853,0.0 121.328791,24.967728,0.0 121.327035,24.966829,0.0 121.328357,24.96823,0.0 121.328494,24.969033,0.0 121.328128,24.970857,0.0 121.328299,24.971469,0.0</coordinates></LinearRing></outerBoundaryIs></Polygon><styleUrl>#spolygon-map</styleUrl></Placemark><Placemark><Polygon><outerBoundaryIs><LinearRing><coordinates>121.317846,24.947275,0.0 121.3132,24.95284,0.0 121.312843,24.954073,0.0 121.3123,24.956022,0.0 121.311868,24.956282,0.0 121.310799,24.953007,0.0 121.309002,24.949898,0.0 121.311974,24.947382,0.0 121.314011,24.944773,0.0 121.311683,24.941761,0.0 121.310329,24.942671,0.0 121.310057,24.940436,0.0 121.31617,24.938769,0.0 121.324359,24.943374,0.0 121.320018,24.946353,0.0 121.31948,24.946194,0.0 121.317846,24.947275,0.0</coordinates></LinearRing></outerBoundaryIs></Polygon><styleUrl>#spolygon-map</styleUrl></Placemark><Placemark><Polygon><outerBoundaryIs><LinearRing><coordinates>121.299552,24.95944,0.0 121.299081,24.961177,0.0 121.297679,24.959898,0.0 121.299404,24.958578,0.0 121.299552,24.95944,0.0</coordinates></LinearRing></outerBoundaryIs></Polygon><styleUrl>#spolygon-map</styleUrl></Placemark><Placemark><Polygon><outerBoundaryIs><LinearRing><coordinates>121.30581,24.962558,0.0 121.303898,24.961806,0.0 121.304367,24.960094,0.0 121.306673,24.959568,0.0 121.305977,24.962335,0.0 121.30581,24.962558,0.0</coordinates></LinearRing></outerBoundaryIs></Polygon><styleUrl>#spolygon-map</styleUrl></Placemark><Placemark><Polygon><outerBoundaryIs><LinearRing><coordinates>121.302804,24.965257,0.0 121.303383,24.965757,0.0 121.303073,24.967602,0.0 121.301191,24.968005,0.0 121.302343,24.96522,0.0 121.302804,24.965257,0.0</coordinates></LinearRing></outerBoundaryIs></Polygon><styleUrl>#spolygon-map</styleUrl></Placemark><Placemark><Polygon><outerBoundaryIs><LinearRing><coordinates>121.283085,24.98633,0.0 121.281067,24.986324,0.0 121.280164,24.985924,0.0 121.277718,24.984288,0.0 121.275624,24.98224,0.0 121.274573,24.980477,0.0 121.271295,24.977648,0.0 121.275762,24.980631,0.0 121.278191,24.978317,0.0 121.28197,24.979105,0.0 121.282587,24.982313,0.0 121.282823,24.984443,0.0 121.283085,24.98633,0.0</coordinates></LinearRing></outerBoundaryIs></Polygon><styleUrl>#spolygon-map</styleUrl></Placemark><Placemark><Polygon><outerBoundaryIs><LinearRing><coordinates>121.278191,24.978317,0.0 121.275762,24.980631,0.0 121.274214,24.978023,0.0 121.27644,24.97795,0.0 121.278191,24.978317,0.0</coordinates></LinearRing></outerBoundaryIs></Polygon><styleUrl>#spolygon-map</styleUrl></Placemark><Placemark><Polygon><outerBoundaryIs><LinearRing><coordinates>121.296087,24.950699,0.0 121.293941,24.949658,0.0 121.288376,24.945024,0.0 121.287648,24.943587,0.0 121.287521,24.940202,0.0 121.287954,24.938317,0.0 121.289065,24.936186,0.0 121.289656,24.934499,0.0 121.2893,24.93315,0.0 121.288405,24.930409,0.0 121.288865,24.92991,0.0 121.289339,24.930298,0.0 121.293021,24.930767,0.0 121.293665,24.935112,0.0 121.295412,24.944951,0.0 121.29481,24.948296,0.0 121.295542,24.949629,0.0 121.296087,24.950699,0.0</coordinates></LinearRing></outerBoundaryIs></Polygon><styleUrl>#spolygon-map</styleUrl></Placemark><Placemark><Polygon><outerBoundaryIs><LinearRing><coordinates>121.30514,24.957492,0.0 121.300446,24.957291,0.0 121.300344,24.955627,0.0 121.302797,24.952685,0.0 121.3027,24.954036,0.0 121.303153,24.956131,0.0 121.305153,24.955062,0.0 121.305877,24.956174,0.0 121.30514,24.957492,0.0</coordinates></LinearRing></outerBoundaryIs></Polygon><styleUrl>#spolygon-map</styleUrl></Placemark><Placemark><Polygon><outerBoundaryIs><LinearRing><coordinates>121.297525,24.969414,0.0 121.29449,24.970205,0.0 121.29413,24.969048,0.0 121.293807,24.967538,0.0 121.294606,24.966402,0.0 121.295306,24.964391,0.0 121.295906,24.964836,0.0 121.298951,24.967359,0.0 121.297525,24.969414,0.0</coordinates></LinearRing></outerBoundaryIs></Polygon><styleUrl>#spolygon-map</styleUrl></Placemark><Placemark><Polygon><outerBoundaryIs><LinearRing><coordinates>121.306764,24.964199,0.0 121.303987,24.963013,0.0 121.304549,24.962484,0.0 121.306748,24.963288,0.0 121.306764,24.964199,0.0</coordinates></LinearRing></outerBoundaryIs></Polygon><styleUrl>#spolygon-map</styleUrl></Placemark><Placemark><Polygon><outerBoundaryIs><LinearRing><coordinates>121.292917,24.950676,0.0 121.292447,24.954983,0.0 121.288904,24.951832,0.0 121.283857,24.948267,0.0 121.276929,24.943186,0.0 121.276034,24.941427,0.0 121.276184,24.936684,0.0 121.279401,24.936705,0.0 121.279959,24.937345,0.0 121.281452,24.938108,0.0 121.287648,24.943587,0.0 121.288376,24.945024,0.0 121.293941,24.949658,0.0 121.292917,24.950676,0.0</coordinates></LinearRing></outerBoundaryIs></Polygon><styleUrl>#spolygon-map</styleUrl></Placemark><Placemark><Polygon><outerBoundaryIs><LinearRing><coordinates>121.26046,24.930677,0.0 121.25956,24.93373,0.0 121.259215,24.931192,0.0 121.258957,24.930624,0.0 121.258026,24.930095,0.0 121.256516,24.927517,0.0 121.256931,24.922921,0.0 121.257617,24.923922,0.0 121.25841,24.924846,0.0 121.259866,24.928532,0.0 121.26046,24.930677,0.0</coordinates></LinearRing></outerBoundaryIs></Polygon><styleUrl>#spolygon-map</styleUrl></Placemark><Placemark><Polygon><outerBoundaryIs><LinearRing><coordinates>121.298024,24.96208,0.0 121.297509,24.963117,0.0 121.295591,24.961746,0.0 121.29727,24.960337,0.0 121.299014,24.961118,0.0 121.298024,24.96208,0.0</coordinates></LinearRing></outerBoundaryIs></Polygon><styleUrl>#spolygon-map</styleUrl></Placemark><Placemark><Polygon><outerBoundaryIs><LinearRing><coordinates>121.272159,24.975076,0.0 121.270224,24.976334,0.0 121.269901,24.977574,0.0 121.267222,24.975931,0.0 121.265045,24.973671,0.0 121.264164,24.972779,0.0 121.264772,24.971081,0.0 121.264408,24.969081,0.0 121.264912,24.967144,0.0 121.265599,24.964588,0.0 121.266977,24.964881,0.0 121.26791,24.964928,0.0 121.269678,24.965458,0.0 121.271785,24.96496,0.0 121.271275,24.967105,0.0 121.271925,24.967657,0.0 121.273013,24.969061,0.0 121.277558,24.971096,0.0 121.283588,24.969981,0.0 121.283602,24.971468,0.0 121.281221,24.97589,0.0 121.278453,24.977231,0.0 121.27622,24.974404,0.0 121.275889,24.975636,0.0 121.273652,24.976162,0.0 121.272159,24.975076,0.0</coordinates></LinearRing></outerBoundaryIs></Polygon><styleUrl>#spolygon-map</styleUrl></Placemark><Placemark><Polygon><outerBoundaryIs><LinearRing><coordinates>121.298345,24.949751,0.0 121.297437,24.945814,0.0 121.297926,24.944287,0.0 121.300715,24.942973,0.0 121.302321,24.945064,0.0 121.30123,24.947761,0.0 121.30051,24.948446,0.0 121.299766,24.948807,0.0 121.2984,24.949726,0.0 121.298345,24.949751,0.0</coordinates></LinearRing></outerBoundaryIs></Polygon><styleUrl>#spolygon-map</styleUrl></Placemark></Document>
</kml>
