<?xml version="1.0" encoding="UTF-8"?>
<kml xmlns="http://www.opengis.net/kml/2.2">
	<Document>
		<name>桃園縣觀音鄉</name>
		<Style id="spolygon">
			<LabelStyle>
				<scale>0.0</scale>
			</LabelStyle>
			<LineStyle>
				<color>330030ff</color>
				<width>0</width>
			</LineStyle>
			<PolyStyle>
				<color>330030ff</color>
			</PolyStyle>
		</Style>
		<StyleMap id="spolygon-map">
			<Pair>
				<key>normal</key>
				<styleUrl>#spolygon</styleUrl>
			</Pair>
		</StyleMap>
	<Placemark><Polygon><outerBoundaryIs><LinearRing><coordinates>121.070134,25.045998,0.0 121.068353,25.045518,0.0 121.063803,25.045062,0.0 121.065556,25.044109,0.0 121.067592,25.042742,0.0 121.07232,25.04093,0.0 121.072402,25.034292,0.0 121.074659,25.034284,0.0 121.074755,25.033674,0.0 121.075063,25.032403,0.0 121.075709,25.031301,0.0 121.085038,25.029457,0.0 121.084201,25.032162,0.0 121.085548,25.036497,0.0 121.083086,25.037706,0.0 121.080357,25.037569,0.0 121.078009,25.038986,0.0 121.076659,25.043004,0.0 121.074944,25.044973,0.0 121.070134,25.045998,0.0</coordinates></LinearRing></outerBoundaryIs></Polygon><styleUrl>#spolygon-map</styleUrl></Placemark><Placemark><Polygon><outerBoundaryIs><LinearRing><coordinates>121.093877,25.062782,0.0 121.092803,25.06244,0.0 121.091662,25.061797,0.0 121.091151,25.061481,0.0 121.088906,25.059738,0.0 121.087952,25.058159,0.0 121.08684,25.057342,0.0 121.086373,25.055699,0.0 121.084648,25.054886,0.0 121.083749,25.053575,0.0 121.083902,25.053166,0.0 121.083535,25.052306,0.0 121.082192,25.051698,0.0 121.0798,25.051997,0.0 121.078674,25.051745,0.0 121.076722,25.050164,0.0 121.075928,25.049694,0.0 121.074814,25.04888,0.0 121.070279,25.046481,0.0 121.07358,25.045527,0.0 121.076519,25.043232,0.0 121.077859,25.04092,0.0 121.078803,25.036846,0.0 121.081608,25.037639,0.0 121.084251,25.038615,0.0 121.084046,25.039016,0.0 121.083186,25.039324,0.0 121.085049,25.039684,0.0 121.087754,25.040743,0.0 121.08838,25.042109,0.0 121.089874,25.042421,0.0 121.091336,25.043826,0.0 121.092287,25.042605,0.0 121.094209,25.042428,0.0 121.095225,25.04244,0.0 121.097035,25.042536,0.0 121.099703,25.043992,0.0 121.104305,25.046176,0.0 121.100112,25.055109,0.0 121.095735,25.061269,0.0 121.093877,25.062782,0.0</coordinates></LinearRing></outerBoundaryIs></Polygon><styleUrl>#spolygon-map</styleUrl></Placemark><Placemark><Polygon><outerBoundaryIs><LinearRing><coordinates>121.104919,25.042472,0.0 121.101325,25.045418,0.0 121.097648,25.042641,0.0 121.096078,25.042272,0.0 121.094794,25.042243,0.0 121.092561,25.041871,0.0 121.091624,25.043458,0.0 121.090537,25.043006,0.0 121.089628,25.04202,0.0 121.087984,25.041219,0.0 121.086518,25.039891,0.0 121.083576,25.03954,0.0 121.083637,25.039096,0.0 121.084277,25.038855,0.0 121.084194,25.038432,0.0 121.085359,25.037154,0.0 121.08405,25.033101,0.0 121.085321,25.030008,0.0 121.085922,25.026342,0.0 121.087754,25.025826,0.0 121.088787,25.025773,0.0 121.090835,25.025262,0.0 121.090675,25.026278,0.0 121.090276,25.027666,0.0 121.093577,25.028003,0.0 121.093852,25.030316,0.0 121.094824,25.033735,0.0 121.099025,25.035154,0.0 121.101366,25.036058,0.0 121.10235,25.034676,0.0 121.102691,25.033813,0.0 121.102279,25.032628,0.0 121.102202,25.032268,0.0 121.101974,25.031617,0.0 121.105471,25.030429,0.0 121.110603,25.03016,0.0 121.116198,25.029612,0.0 121.114841,25.035398,0.0 121.112778,25.037092,0.0 121.106804,25.040431,0.0 121.104919,25.042472,0.0</coordinates></LinearRing></outerBoundaryIs></Polygon><styleUrl>#spolygon-map</styleUrl></Placemark><Placemark><Polygon><outerBoundaryIs><LinearRing><coordinates>121.062405,25.044598,0.0 121.06161,25.044727,0.0 121.061027,25.044318,0.0 121.060241,25.043915,0.0 121.059247,25.043696,0.0 121.058449,25.043094,0.0 121.055579,25.043068,0.0 121.053879,25.042488,0.0 121.052362,25.042024,0.0 121.049976,25.040203,0.0 121.048489,25.038274,0.0 121.046698,25.035507,0.0 121.046245,25.034171,0.0 121.04486,25.032842,0.0 121.0417,25.030543,0.0 121.03992,25.029347,0.0 121.039357,25.028571,0.0 121.038151,25.02731,0.0 121.037981,25.026569,0.0 121.041409,25.026273,0.0 121.046844,25.028531,0.0 121.050808,25.027365,0.0 121.051756,25.026507,0.0 121.05285,25.024418,0.0 121.054243,25.02314,0.0 121.055224,25.022404,0.0 121.057354,25.021652,0.0 121.058641,25.020751,0.0 121.059211,25.020444,0.0 121.060591,25.019147,0.0 121.062238,25.018461,0.0 121.063981,25.020017,0.0 121.066631,25.022167,0.0 121.068167,25.023354,0.0 121.069877,25.030505,0.0 121.072008,25.031954,0.0 121.073464,25.033386,0.0 121.072169,25.03484,0.0 121.070526,25.042454,0.0 121.066865,25.043472,0.0 121.064972,25.044037,0.0 121.062479,25.04457,0.0 121.062405,25.044598,0.0</coordinates></LinearRing></outerBoundaryIs></Polygon><styleUrl>#spolygon-map</styleUrl></Placemark><Placemark><Polygon><outerBoundaryIs><LinearRing><coordinates>121.075542,25.031491,0.0 121.075054,25.032455,0.0 121.074741,25.03376,0.0 121.074675,25.03434,0.0 121.073873,25.032928,0.0 121.071178,25.031403,0.0 121.067143,25.028611,0.0 121.067007,25.022476,0.0 121.067955,25.021067,0.0 121.070133,25.018886,0.0 121.070853,25.017798,0.0 121.071875,25.017285,0.0 121.073059,25.015537,0.0 121.074019,25.017031,0.0 121.074592,25.017999,0.0 121.07615,25.018668,0.0 121.078671,25.020263,0.0 121.07997,25.021736,0.0 121.081769,25.023342,0.0 121.082494,25.023597,0.0 121.076308,25.031848,0.0 121.075542,25.031491,0.0</coordinates></LinearRing></outerBoundaryIs></Polygon><styleUrl>#spolygon-map</styleUrl></Placemark><Placemark><Polygon><outerBoundaryIs><LinearRing><coordinates>121.048458,25.027803,0.0 121.043219,25.028277,0.0 121.039662,25.02486,0.0 121.036866,25.026457,0.0 121.034739,25.024257,0.0 121.032121,25.021623,0.0 121.030611,25.019789,0.0 121.029881,25.019233,0.0 121.0291,25.017719,0.0 121.028923,25.01518,0.0 121.025639,25.011885,0.0 121.02465,25.010389,0.0 121.023467,25.008726,0.0 121.022794,25.007017,0.0 121.023258,25.007281,0.0 121.023994,25.007486,0.0 121.025906,25.007565,0.0 121.031388,25.013624,0.0 121.036649,25.017535,0.0 121.039834,25.017249,0.0 121.042082,25.01561,0.0 121.044892,25.017435,0.0 121.047647,25.014651,0.0 121.050813,25.01561,0.0 121.055474,25.013159,0.0 121.059926,25.011607,0.0 121.061158,25.009796,0.0 121.063104,25.009195,0.0 121.065714,25.005411,0.0 121.067896,25.002625,0.0 121.070491,25.002474,0.0 121.07347,25.003403,0.0 121.072894,25.005141,0.0 121.073446,25.006303,0.0 121.075809,25.006706,0.0 121.077882,25.006998,0.0 121.077847,25.008362,0.0 121.076403,25.010872,0.0 121.075276,25.012376,0.0 121.073594,25.01404,0.0 121.073407,25.015363,0.0 121.072226,25.016696,0.0 121.07118,25.017549,0.0 121.070178,25.018412,0.0 121.068499,25.020284,0.0 121.065747,25.021526,0.0 121.063257,25.019354,0.0 121.061773,25.018043,0.0 121.059941,25.019748,0.0 121.059095,25.020482,0.0 121.058052,25.021395,0.0 121.056825,25.022182,0.0 121.054782,25.022693,0.0 121.054032,25.023319,0.0 121.052484,25.024809,0.0 121.051179,25.027107,0.0 121.050143,25.027762,0.0 121.048458,25.027803,0.0</coordinates></LinearRing></outerBoundaryIs></Polygon><styleUrl>#spolygon-map</styleUrl></Placemark><Placemark><Polygon><outerBoundaryIs><LinearRing><coordinates>121.086916,25.025237,0.0 121.085022,25.028211,0.0 121.07979,25.031015,0.0 121.082479,25.023577,0.0 121.081671,25.023299,0.0 121.079809,25.021587,0.0 121.078445,25.020071,0.0 121.076051,25.01863,0.0 121.074548,25.017958,0.0 121.074002,25.016934,0.0 121.07309,25.014986,0.0 121.074241,25.013424,0.0 121.075782,25.011697,0.0 121.076856,25.0101,0.0 121.078699,25.007348,0.0 121.080259,25.005754,0.0 121.082714,25.006759,0.0 121.084913,25.008184,0.0 121.085711,25.008563,0.0 121.086623,25.00921,0.0 121.087024,25.011803,0.0 121.089374,25.012389,0.0 121.091062,25.013629,0.0 121.092324,25.015043,0.0 121.092994,25.016169,0.0 121.093477,25.018076,0.0 121.093103,25.019151,0.0 121.091088,25.021159,0.0 121.090445,25.023143,0.0 121.089395,25.025214,0.0 121.087987,25.025964,0.0 121.086916,25.025237,0.0</coordinates></LinearRing></outerBoundaryIs></Polygon><styleUrl>#spolygon-map</styleUrl></Placemark><Placemark><Polygon><outerBoundaryIs><LinearRing><coordinates>121.093572,25.012535,0.0 121.092994,25.016025,0.0 121.092034,25.014662,0.0 121.090993,25.01357,0.0 121.089131,25.012278,0.0 121.086313,25.011632,0.0 121.086443,25.009075,0.0 121.085593,25.00852,0.0 121.084556,25.008035,0.0 121.082339,25.006486,0.0 121.08022,25.00544,0.0 121.081722,25.004317,0.0 121.083258,25.003763,0.0 121.083931,25.0037,0.0 121.085125,25.003056,0.0 121.086684,25.001536,0.0 121.088892,25.001914,0.0 121.090046,25.002969,0.0 121.091238,25.002542,0.0 121.092162,25.002433,0.0 121.094692,25.000231,0.0 121.09784,24.998231,0.0 121.101535,24.996103,0.0 121.101693,24.997633,0.0 121.102001,25.000136,0.0 121.101582,25.002073,0.0 121.099959,25.003922,0.0 121.098049,25.005298,0.0 121.099852,25.007326,0.0 121.098289,25.007747,0.0 121.097131,25.008393,0.0 121.095625,25.010785,0.0 121.093572,25.012535,0.0</coordinates></LinearRing></outerBoundaryIs></Polygon><styleUrl>#spolygon-map</styleUrl></Placemark><Placemark><Polygon><outerBoundaryIs><LinearRing><coordinates>121.102234,25.034877,0.0 121.101241,25.036417,0.0 121.097081,25.034981,0.0 121.09435,25.033437,0.0 121.093894,25.029619,0.0 121.092413,25.028358,0.0 121.090882,25.027136,0.0 121.09068,25.026066,0.0 121.090347,25.025328,0.0 121.090692,25.024023,0.0 121.090174,25.022046,0.0 121.093048,25.01921,0.0 121.093475,25.018363,0.0 121.092981,25.016515,0.0 121.093303,25.014131,0.0 121.095523,25.010945,0.0 121.097004,25.008594,0.0 121.098075,25.007725,0.0 121.099767,25.007356,0.0 121.097877,25.005402,0.0 121.099773,25.004094,0.0 121.101502,25.002217,0.0 121.102026,25.000222,0.0 121.101643,24.997938,0.0 121.101744,24.99608,0.0 121.106742,24.99795,0.0 121.108373,24.998332,0.0 121.108383,24.999149,0.0 121.107275,25.000602,0.0 121.108308,25.00177,0.0 121.107579,25.001965,0.0 121.106817,25.00322,0.0 121.106351,25.004848,0.0 121.103179,25.007574,0.0 121.102183,25.012776,0.0 121.101292,25.014972,0.0 121.101432,25.018328,0.0 121.102076,25.021143,0.0 121.101953,25.025273,0.0 121.099272,25.027546,0.0 121.097469,25.027967,0.0 121.098752,25.030351,0.0 121.100968,25.031844,0.0 121.102104,25.031961,0.0 121.102354,25.032503,0.0 121.102512,25.033477,0.0 121.102625,25.034339,0.0 121.102234,25.034877,0.0</coordinates></LinearRing></outerBoundaryIs></Polygon><styleUrl>#spolygon-map</styleUrl></Placemark><Placemark><Polygon><outerBoundaryIs><LinearRing><coordinates>121.105087,25.030203,0.0 121.100968,25.031844,0.0 121.098752,25.030351,0.0 121.097469,25.027967,0.0 121.099272,25.027546,0.0 121.101953,25.025273,0.0 121.102076,25.021143,0.0 121.101432,25.018328,0.0 121.101292,25.014972,0.0 121.102183,25.012776,0.0 121.108773,25.010229,0.0 121.1104,25.011573,0.0 121.11188,25.010189,0.0 121.113898,25.010941,0.0 121.113694,25.011724,0.0 121.114981,25.011818,0.0 121.115457,25.012689,0.0 121.115111,25.013718,0.0 121.116101,25.013723,0.0 121.117077,25.0129,0.0 121.117928,25.012319,0.0 121.118697,25.012411,0.0 121.120337,25.012158,0.0 121.123963,25.015594,0.0 121.121971,25.019843,0.0 121.117853,25.024286,0.0 121.11463,25.028458,0.0 121.107397,25.030124,0.0 121.105087,25.030203,0.0</coordinates></LinearRing></outerBoundaryIs></Polygon><styleUrl>#spolygon-map</styleUrl></Placemark><Placemark><Polygon><outerBoundaryIs><LinearRing><coordinates>121.11744,25.01227,0.0 121.116935,25.013221,0.0 121.115579,25.014057,0.0 121.115032,25.013303,0.0 121.115509,25.012411,0.0 121.114752,25.011872,0.0 121.113477,25.011408,0.0 121.113743,25.010578,0.0 121.111339,25.010697,0.0 121.109859,25.010987,0.0 121.106674,25.010599,0.0 121.103611,25.00719,0.0 121.106453,25.004755,0.0 121.106826,25.003098,0.0 121.107744,25.001865,0.0 121.108245,25.001689,0.0 121.106913,25.000482,0.0 121.108634,24.998919,0.0 121.108509,24.998032,0.0 121.105871,24.99682,0.0 121.105563,24.995071,0.0 121.105988,24.992892,0.0 121.107229,24.990454,0.0 121.108071,24.988814,0.0 121.110765,24.986957,0.0 121.112591,24.988626,0.0 121.113727,24.989553,0.0 121.114655,24.990441,0.0 121.115593,24.991325,0.0 121.116759,24.993198,0.0 121.11786,24.993802,0.0 121.119789,24.994439,0.0 121.123405,24.994721,0.0 121.124743,24.995652,0.0 121.125885,24.996436,0.0 121.126597,24.997095,0.0 121.127648,24.997882,0.0 121.127293,24.998421,0.0 121.124725,25.002773,0.0 121.124159,25.003997,0.0 121.124514,25.005314,0.0 121.124368,25.00787,0.0 121.124275,25.009286,0.0 121.124653,25.011085,0.0 121.124931,25.012253,0.0 121.124101,25.012643,0.0 121.123069,25.013703,0.0 121.11977,25.012157,0.0 121.118511,25.01249,0.0 121.117447,25.012268,0.0 121.11744,25.01227,0.0</coordinates></LinearRing></outerBoundaryIs></Polygon><styleUrl>#spolygon-map</styleUrl></Placemark><Placemark><Polygon><outerBoundaryIs><LinearRing><coordinates>121.133468,25.014249,0.0 121.130256,25.015661,0.0 121.125958,25.017501,0.0 121.125054,25.01727,0.0 121.128561,25.014238,0.0 121.130706,25.011801,0.0 121.131238,25.00681,0.0 121.13229,25.006401,0.0 121.133157,25.006038,0.0 121.133356,25.005193,0.0 121.137097,25.002283,0.0 121.14315,24.998165,0.0 121.143922,24.999325,0.0 121.144703,25.000491,0.0 121.14543,25.001222,0.0 121.146819,25.002292,0.0 121.147985,25.003205,0.0 121.148251,25.004033,0.0 121.150362,25.005258,0.0 121.150707,25.006868,0.0 121.149052,25.008373,0.0 121.142283,25.011668,0.0 121.140417,25.012859,0.0 121.137996,25.012561,0.0 121.136192,25.012798,0.0 121.133468,25.014249,0.0</coordinates></LinearRing></outerBoundaryIs></Polygon><styleUrl>#spolygon-map</styleUrl></Placemark><Placemark><Polygon><outerBoundaryIs><LinearRing><coordinates>121.128446,25.014484,0.0 121.124353,25.017968,0.0 121.122825,25.018847,0.0 121.123133,25.014297,0.0 121.123885,25.012736,0.0 121.124653,25.012569,0.0 121.124872,25.011574,0.0 121.124347,25.009973,0.0 121.124361,25.007921,0.0 121.124794,25.006089,0.0 121.124118,25.00413,0.0 121.124456,25.003104,0.0 121.125781,24.999705,0.0 121.129357,24.997354,0.0 121.130972,24.994202,0.0 121.131833,24.994384,0.0 121.133473,24.99485,0.0 121.135507,24.994767,0.0 121.137867,24.995992,0.0 121.13979,24.996674,0.0 121.141377,24.99721,0.0 121.137387,25.002597,0.0 121.133884,25.00493,0.0 121.133316,25.005788,0.0 121.132749,25.006312,0.0 121.131658,25.006454,0.0 121.1311,25.009945,0.0 121.129501,25.013727,0.0 121.128446,25.014484,0.0</coordinates></LinearRing></outerBoundaryIs></Polygon><styleUrl>#spolygon-map</styleUrl></Placemark><Placemark><Polygon><outerBoundaryIs><LinearRing><coordinates>121.162587,25.009758,0.0 121.15982,25.009199,0.0 121.155733,25.007298,0.0 121.153418,25.006491,0.0 121.151068,25.005608,0.0 121.148491,25.004252,0.0 121.14803,25.00335,0.0 121.14687,25.002326,0.0 121.145508,25.001271,0.0 121.144803,25.00066,0.0 121.143971,24.999374,0.0 121.143229,24.998252,0.0 121.142892,24.995988,0.0 121.146383,24.993114,0.0 121.149449,24.990381,0.0 121.154827,24.988888,0.0 121.157773,24.985601,0.0 121.158762,24.984977,0.0 121.160343,24.98391,0.0 121.161902,24.982808,0.0 121.163841,24.981846,0.0 121.164442,24.982815,0.0 121.165911,24.984565,0.0 121.167354,24.989942,0.0 121.168632,24.991512,0.0 121.168614,24.992196,0.0 121.167964,24.993271,0.0 121.167639,24.993926,0.0 121.167273,24.995005,0.0 121.167027,24.995746,0.0 121.166716,24.996553,0.0 121.166662,24.997437,0.0 121.166501,24.998495,0.0 121.165449,25.00116,0.0 121.164882,25.003154,0.0 121.16493,25.00518,0.0 121.164246,25.007009,0.0 121.163148,25.009089,0.0 121.162587,25.009758,0.0</coordinates></LinearRing></outerBoundaryIs></Polygon><styleUrl>#spolygon-map</styleUrl></Placemark><Placemark><Polygon><outerBoundaryIs><LinearRing><coordinates>121.132505,24.992517,0.0 121.131063,24.993744,0.0 121.129214,24.99272,0.0 121.128318,24.990394,0.0 121.128542,24.988405,0.0 121.128842,24.98555,0.0 121.130647,24.982601,0.0 121.131213,24.980187,0.0 121.133489,24.977177,0.0 121.136109,24.972457,0.0 121.140465,24.969683,0.0 121.144398,24.968738,0.0 121.14479,24.969571,0.0 121.145864,24.967236,0.0 121.147786,24.964654,0.0 121.149368,24.964384,0.0 121.150975,24.964714,0.0 121.151573,24.965267,0.0 121.153739,24.968111,0.0 121.156278,24.970733,0.0 121.15347,24.970905,0.0 121.149498,24.973986,0.0 121.148511,24.976099,0.0 121.146292,24.977399,0.0 121.145187,24.977838,0.0 121.144641,24.979094,0.0 121.143993,24.980077,0.0 121.143326,24.9817,0.0 121.142866,24.984368,0.0 121.141387,24.986477,0.0 121.139349,24.988522,0.0 121.137648,24.989032,0.0 121.133502,24.989203,0.0 121.132505,24.992517,0.0</coordinates></LinearRing></outerBoundaryIs></Polygon><styleUrl>#spolygon-map</styleUrl></Placemark><Placemark><Polygon><outerBoundaryIs><LinearRing><coordinates>121.142453,24.996936,0.0 121.140411,24.996807,0.0 121.139363,24.99639,0.0 121.137162,24.995747,0.0 121.134361,24.99435,0.0 121.132704,24.994548,0.0 121.13155,24.994359,0.0 121.131064,24.993757,0.0 121.132596,24.991874,0.0 121.133943,24.988926,0.0 121.137927,24.988927,0.0 121.139571,24.988409,0.0 121.141519,24.986349,0.0 121.143094,24.983898,0.0 121.143456,24.981266,0.0 121.144759,24.980021,0.0 121.144755,24.978839,0.0 121.145331,24.977791,0.0 121.146443,24.977302,0.0 121.148663,24.975704,0.0 121.149979,24.97385,0.0 121.154701,24.970829,0.0 121.156671,24.971261,0.0 121.157898,24.972135,0.0 121.159832,24.97353,0.0 121.161175,24.974673,0.0 121.161874,24.977455,0.0 121.162742,24.979655,0.0 121.163714,24.98167,0.0 121.161011,24.983679,0.0 121.16023,24.983953,0.0 121.158343,24.985292,0.0 121.157457,24.98559,0.0 121.154638,24.988938,0.0 121.14856,24.99103,0.0 121.144725,24.99458,0.0 121.142692,24.99625,0.0 121.142453,24.996936,0.0</coordinates></LinearRing></outerBoundaryIs></Polygon><styleUrl>#spolygon-map</styleUrl></Placemark><Placemark><Polygon><outerBoundaryIs><LinearRing><coordinates>121.140551,25.035773,0.0 121.139548,25.036151,0.0 121.136626,25.035598,0.0 121.132851,25.0345,0.0 121.131771,25.035269,0.0 121.12883,25.031696,0.0 121.128898,25.029714,0.0 121.128048,25.030338,0.0 121.124224,25.029603,0.0 121.118397,25.028229,0.0 121.118465,25.024114,0.0 121.122005,25.019735,0.0 121.123125,25.018583,0.0 121.125946,25.017506,0.0 121.130148,25.015708,0.0 121.132935,25.014534,0.0 121.136634,25.012567,0.0 121.138034,25.012602,0.0 121.142232,25.016862,0.0 121.141656,25.017819,0.0 121.144419,25.021147,0.0 121.14434,25.022333,0.0 121.144194,25.023511,0.0 121.143991,25.024369,0.0 121.143906,25.026006,0.0 121.146722,25.027913,0.0 121.146262,25.028815,0.0 121.144961,25.029755,0.0 121.144151,25.02976,0.0 121.144168,25.03006,0.0 121.141789,25.034158,0.0 121.140551,25.035773,0.0</coordinates></LinearRing></outerBoundaryIs></Polygon><styleUrl>#spolygon-map</styleUrl></Placemark><Placemark><Polygon><outerBoundaryIs><LinearRing><coordinates>121.15851,25.029853,0.0 121.156992,25.030563,0.0 121.155599,25.031314,0.0 121.155134,25.032001,0.0 121.152098,25.030677,0.0 121.151013,25.030235,0.0 121.148997,25.030644,0.0 121.1441,25.030107,0.0 121.143977,25.029859,0.0 121.144923,25.029736,0.0 121.146203,25.028848,0.0 121.14669,25.027973,0.0 121.144262,25.026251,0.0 121.14401,25.024421,0.0 121.144159,25.023563,0.0 121.144289,25.022426,0.0 121.144428,25.021159,0.0 121.141632,25.017898,0.0 121.142224,25.016937,0.0 121.142008,25.011914,0.0 121.148063,25.009198,0.0 121.150525,25.007166,0.0 121.151164,25.005685,0.0 121.153472,25.006511,0.0 121.156736,25.00778,0.0 121.160302,25.009399,0.0 121.162079,25.010373,0.0 121.162063,25.011596,0.0 121.161239,25.013955,0.0 121.161639,25.018356,0.0 121.161676,25.019643,0.0 121.162052,25.02094,0.0 121.161663,25.022299,0.0 121.16124,25.023799,0.0 121.16083,25.024873,0.0 121.16107,25.025977,0.0 121.162216,25.026511,0.0 121.162126,25.028003,0.0 121.16015,25.02921,0.0 121.15851,25.029853,0.0</coordinates></LinearRing></outerBoundaryIs></Polygon><styleUrl>#spolygon-map</styleUrl></Placemark><Placemark><Polygon><outerBoundaryIs><LinearRing><coordinates>121.160191,25.052115,0.0 121.158829,25.053518,0.0 121.157986,25.054629,0.0 121.157568,25.055406,0.0 121.156617,25.055271,0.0 121.155891,25.052665,0.0 121.154925,25.052849,0.0 121.151099,25.049863,0.0 121.148213,25.047512,0.0 121.145787,25.044159,0.0 121.148052,25.039475,0.0 121.14927,25.036144,0.0 121.150278,25.033364,0.0 121.15081,25.031127,0.0 121.151549,25.029832,0.0 121.15353,25.031224,0.0 121.15527,25.03196,0.0 121.156023,25.031047,0.0 121.157545,25.030222,0.0 121.159951,25.032278,0.0 121.162958,25.036193,0.0 121.1677,25.044272,0.0 121.162248,25.046556,0.0 121.160845,25.048528,0.0 121.161213,25.049568,0.0 121.160191,25.052115,0.0</coordinates></LinearRing></outerBoundaryIs></Polygon><styleUrl>#spolygon-map</styleUrl></Placemark><Placemark><Polygon><outerBoundaryIs><LinearRing><coordinates>121.155346,25.081369,0.0 121.152671,25.080997,0.0 121.14373,25.07923,0.0 121.137937,25.078037,0.0 121.132965,25.076728,0.0 121.127216,25.075731,0.0 121.126885,25.075158,0.0 121.123963,25.075287,0.0 121.11991,25.074708,0.0 121.126593,25.071495,0.0 121.130263,25.069928,0.0 121.131836,25.067559,0.0 121.132927,25.068315,0.0 121.135083,25.066621,0.0 121.133934,25.064966,0.0 121.133473,25.064235,0.0 121.138089,25.059366,0.0 121.137822,25.058441,0.0 121.137358,25.056871,0.0 121.140141,25.054954,0.0 121.14086,25.053936,0.0 121.139143,25.052657,0.0 121.140638,25.051178,0.0 121.14273,25.050848,0.0 121.143478,25.049954,0.0 121.144352,25.048633,0.0 121.1459,25.048128,0.0 121.147155,25.046513,0.0 121.150428,25.049067,0.0 121.154439,25.05264,0.0 121.155399,25.052052,0.0 121.157099,25.05425,0.0 121.156234,25.057392,0.0 121.156213,25.059105,0.0 121.155413,25.062051,0.0 121.155089,25.064376,0.0 121.155378,25.065405,0.0 121.1557,25.066299,0.0 121.157512,25.067299,0.0 121.157285,25.068748,0.0 121.156965,25.069816,0.0 121.155959,25.07121,0.0 121.152521,25.074689,0.0 121.152445,25.07587,0.0 121.155215,25.077277,0.0 121.155346,25.081369,0.0</coordinates></LinearRing></outerBoundaryIs></Polygon><styleUrl>#spolygon-map</styleUrl></Placemark><Placemark><Polygon><outerBoundaryIs><LinearRing><coordinates>121.131839,25.067507,0.0 121.131319,25.069972,0.0 121.129313,25.067904,0.0 121.13049,25.062955,0.0 121.130071,25.060888,0.0 121.129157,25.059686,0.0 121.125652,25.054513,0.0 121.125811,25.051976,0.0 121.126788,25.050086,0.0 121.128765,25.046496,0.0 121.132292,25.04159,0.0 121.135358,25.040037,0.0 121.13707,25.039144,0.0 121.139414,25.037554,0.0 121.142377,25.032706,0.0 121.150644,25.031761,0.0 121.150007,25.034252,0.0 121.148565,25.037485,0.0 121.146897,25.039848,0.0 121.146995,25.04582,0.0 121.145152,25.048397,0.0 121.14491,25.049097,0.0 121.143097,25.050056,0.0 121.142195,25.050848,0.0 121.140187,25.051614,0.0 121.139668,25.053095,0.0 121.141064,25.054132,0.0 121.138951,25.055005,0.0 121.137631,25.057266,0.0 121.13784,25.058556,0.0 121.138474,25.059504,0.0 121.133525,25.06439,0.0 121.134139,25.065155,0.0 121.134834,25.066856,0.0 121.132681,25.068118,0.0 121.131839,25.067507,0.0</coordinates></LinearRing></outerBoundaryIs></Polygon><styleUrl>#spolygon-map</styleUrl></Placemark><Placemark><Polygon><outerBoundaryIs><LinearRing><coordinates>121.11991,25.074708,0.0 121.116872,25.072979,0.0 121.113882,25.071363,0.0 121.113275,25.070959,0.0 121.112825,25.070743,0.0 121.111721,25.07062,0.0 121.112128,25.0705,0.0 121.11133,25.070029,0.0 121.109707,25.069917,0.0 121.108623,25.069584,0.0 121.108594,25.069117,0.0 121.107645,25.069165,0.0 121.108002,25.069408,0.0 121.103098,25.06817,0.0 121.098741,25.065916,0.0 121.096876,25.064168,0.0 121.094866,25.063723,0.0 121.094964,25.063343,0.0 121.094278,25.063384,0.0 121.093823,25.063116,0.0 121.097365,25.0606,0.0 121.100271,25.054366,0.0 121.10498,25.044781,0.0 121.107707,25.041791,0.0 121.109881,25.043744,0.0 121.113144,25.046084,0.0 121.114504,25.047061,0.0 121.11655,25.045127,0.0 121.119197,25.044633,0.0 121.120622,25.043504,0.0 121.120979,25.04244,0.0 121.120973,25.041419,0.0 121.120543,25.039296,0.0 121.122183,25.038493,0.0 121.123898,25.037555,0.0 121.124593,25.038871,0.0 121.127276,25.039453,0.0 121.12822,25.040145,0.0 121.12751,25.04052,0.0 121.128415,25.042183,0.0 121.12908,25.043388,0.0 121.128582,25.047072,0.0 121.126508,25.050328,0.0 121.125802,25.052159,0.0 121.125617,25.055037,0.0 121.129241,25.059772,0.0 121.130406,25.061107,0.0 121.130548,25.063438,0.0 121.129248,25.068669,0.0 121.127183,25.070553,0.0 121.120613,25.072913,0.0 121.11991,25.074708,0.0</coordinates></LinearRing></outerBoundaryIs></Polygon><styleUrl>#spolygon-map</styleUrl></Placemark><Placemark><Polygon><outerBoundaryIs><LinearRing><coordinates>121.115054,25.047198,0.0 121.11334,25.046328,0.0 121.110425,25.043981,0.0 121.108057,25.042177,0.0 121.111281,25.037706,0.0 121.114678,25.035908,0.0 121.115936,25.03147,0.0 121.118981,25.028314,0.0 121.125095,25.028795,0.0 121.128416,25.03008,0.0 121.129328,25.029667,0.0 121.128855,25.032091,0.0 121.131994,25.035052,0.0 121.133194,25.034324,0.0 121.138045,25.035586,0.0 121.139559,25.036593,0.0 121.137484,25.038518,0.0 121.135997,25.039662,0.0 121.133472,25.040673,0.0 121.129332,25.043713,0.0 121.128975,25.042905,0.0 121.127713,25.041103,0.0 121.127896,25.040366,0.0 121.127903,25.039965,0.0 121.125204,25.039798,0.0 121.124234,25.038083,0.0 121.122492,25.038008,0.0 121.121011,25.039325,0.0 121.121089,25.040615,0.0 121.120831,25.042155,0.0 121.121263,25.042695,0.0 121.120744,25.044214,0.0 121.117849,25.04592,0.0 121.115827,25.046378,0.0 121.115054,25.047198,0.0</coordinates></LinearRing></outerBoundaryIs></Polygon><styleUrl>#spolygon-map</styleUrl></Placemark></Document>
</kml>
