<?xml version="1.0" encoding="UTF-8"?>
<kml xmlns="http://www.opengis.net/kml/2.2">
	<Document>
		<name>澎湖縣白沙鄉</name>
		<Style id="spolygon">
			<LabelStyle>
				<scale>0.0</scale>
			</LabelStyle>
			<LineStyle>
				<color>330030ff</color>
				<width>0</width>
			</LineStyle>
			<PolyStyle>
				<color>330030ff</color>
			</PolyStyle>
		</Style>
		<StyleMap id="spolygon-map">
			<Pair>
				<key>normal</key>
				<styleUrl>#spolygon</styleUrl>
			</Pair>
		</StyleMap>
	<Placemark><MultiGeometry><Polygon><outerBoundaryIs><LinearRing><coordinates>119.557368,23.628306,0.0 119.557658,23.628481,0.0 119.557253,23.628676,0.0 119.557222,23.628448,0.0 119.557368,23.628306,0.0</coordinates></LinearRing></outerBoundaryIs></Polygon><Polygon><outerBoundaryIs><LinearRing><coordinates>119.558805,23.629689,0.0 119.559257,23.629906,0.0 119.559102,23.63008,0.0 119.558549,23.630069,0.0 119.558736,23.62989,0.0 119.558805,23.629689,0.0</coordinates></LinearRing></outerBoundaryIs></Polygon><Polygon><outerBoundaryIs><LinearRing><coordinates>119.55424,23.630979,0.0 119.554058,23.631368,0.0 119.553611,23.631408,0.0 119.553411,23.631106,0.0 119.554013,23.631009,0.0 119.55424,23.630979,0.0</coordinates></LinearRing></outerBoundaryIs></Polygon><Polygon><outerBoundaryIs><LinearRing><coordinates>119.569866,23.616625,0.0 119.570615,23.618909,0.0 119.570319,23.619875,0.0 119.56985,23.620534,0.0 119.569775,23.62143,0.0 119.569328,23.622167,0.0 119.568699,23.622691,0.0 119.567742,23.622565,0.0 119.567482,23.621221,0.0 119.567014,23.619943,0.0 119.565124,23.619318,0.0 119.567878,23.617154,0.0 119.569251,23.617097,0.0 119.569763,23.617447,0.0 119.569693,23.616626,0.0 119.569866,23.616625,0.0</coordinates></LinearRing></outerBoundaryIs></Polygon></MultiGeometry><styleUrl>#spolygon-map</styleUrl></Placemark><Placemark><MultiGeometry><Polygon><outerBoundaryIs><LinearRing><coordinates>119.584864,23.766261,0.0 119.585145,23.766427,0.0 119.585513,23.766699,0.0 119.585801,23.766939,0.0 119.58552,23.767522,0.0 119.584999,23.767831,0.0 119.584598,23.76753,0.0 119.58465,23.767352,0.0 119.584641,23.766898,0.0 119.584712,23.766501,0.0 119.584864,23.766261,0.0</coordinates></LinearRing></outerBoundaryIs></Polygon><Polygon><outerBoundaryIs><LinearRing><coordinates>119.587369,23.768003,0.0 119.587703,23.768607,0.0 119.58736,23.768743,0.0 119.586976,23.768553,0.0 119.587245,23.768563,0.0 119.587169,23.768313,0.0 119.587343,23.768008,0.0 119.587369,23.768003,0.0</coordinates></LinearRing></outerBoundaryIs></Polygon></MultiGeometry><styleUrl>#spolygon-map</styleUrl></Placemark><Placemark><Polygon><outerBoundaryIs><LinearRing><coordinates>119.59898,23.654223,0.0 119.60029,23.659966,0.0 119.593565,23.660512,0.0 119.592942,23.658613,0.0 119.591951,23.65704,0.0 119.594822,23.653958,0.0 119.59898,23.654223,0.0</coordinates></LinearRing></outerBoundaryIs></Polygon><styleUrl>#spolygon-map</styleUrl></Placemark><Placemark><MultiGeometry><Polygon><outerBoundaryIs><LinearRing><coordinates>119.598593,23.607831,0.0 119.59865,23.608235,0.0 119.598593,23.607831,0.0</coordinates></LinearRing></outerBoundaryIs></Polygon><Polygon><outerBoundaryIs><LinearRing><coordinates>119.613895,23.606982,0.0 119.614622,23.607194,0.0 119.614377,23.607792,0.0 119.613853,23.607427,0.0 119.613895,23.606982,0.0</coordinates></LinearRing></outerBoundaryIs></Polygon><Polygon><outerBoundaryIs><LinearRing><coordinates>119.60582,23.621107,0.0 119.605269,23.620143,0.0 119.60429,23.619565,0.0 119.602941,23.618437,0.0 119.60218,23.617312,0.0 119.600242,23.617249,0.0 119.598553,23.617151,0.0 119.597612,23.617577,0.0 119.597209,23.616132,0.0 119.60066,23.612206,0.0 119.601533,23.611808,0.0 119.602334,23.611559,0.0 119.602514,23.611418,0.0 119.603346,23.610707,0.0 119.603586,23.610552,0.0 119.603424,23.61002,0.0 119.604277,23.609178,0.0 119.604932,23.609656,0.0 119.605417,23.610151,0.0 119.606169,23.610534,0.0 119.608452,23.610318,0.0 119.61206,23.60689,0.0 119.612489,23.606703,0.0 119.609917,23.610795,0.0 119.610925,23.611631,0.0 119.612311,23.612652,0.0 119.612835,23.613742,0.0 119.613675,23.614606,0.0 119.613499,23.615437,0.0 119.613484,23.616606,0.0 119.613224,23.617967,0.0 119.613399,23.618829,0.0 119.613436,23.620068,0.0 119.612472,23.62031,0.0 119.610475,23.620623,0.0 119.608087,23.621656,0.0 119.606823,23.622308,0.0 119.606593,23.621269,0.0 119.60582,23.621107,0.0</coordinates></LinearRing></outerBoundaryIs></Polygon></MultiGeometry><styleUrl>#spolygon-map</styleUrl></Placemark><Placemark><MultiGeometry><Polygon><outerBoundaryIs><LinearRing><coordinates>119.593327,23.660229,0.0 119.587885,23.662516,0.0 119.58155,23.660878,0.0 119.581047,23.660038,0.0 119.580954,23.659073,0.0 119.581996,23.658875,0.0 119.582448,23.657923,0.0 119.579722,23.657177,0.0 119.580201,23.656706,0.0 119.580198,23.656647,0.0 119.582138,23.656446,0.0 119.583178,23.655565,0.0 119.582818,23.654684,0.0 119.58234,23.654446,0.0 119.582389,23.653264,0.0 119.583093,23.652076,0.0 119.585362,23.650385,0.0 119.586206,23.649748,0.0 119.586704,23.648679,0.0 119.587039,23.647786,0.0 119.587732,23.647418,0.0 119.588453,23.647246,0.0 119.588617,23.645384,0.0 119.59898,23.654223,0.0 119.590759,23.655178,0.0 119.592115,23.657373,0.0 119.593082,23.659109,0.0 119.593327,23.660229,0.0</coordinates></LinearRing></outerBoundaryIs></Polygon><Polygon><outerBoundaryIs><LinearRing><coordinates>119.581729,23.648451,0.0 119.581881,23.648989,0.0 119.581045,23.649001,0.0 119.581729,23.648451,0.0</coordinates></LinearRing></outerBoundaryIs></Polygon></MultiGeometry><styleUrl>#spolygon-map</styleUrl></Placemark><Placemark><MultiGeometry><Polygon><outerBoundaryIs><LinearRing><coordinates>119.664266,23.681637,0.0 119.664447,23.682016,0.0 119.66459,23.682746,0.0 119.664048,23.682507,0.0 119.66371,23.682323,0.0 119.663396,23.682293,0.0 119.663683,23.682143,0.0 119.664034,23.681643,0.0 119.664266,23.681637,0.0</coordinates></LinearRing></outerBoundaryIs></Polygon><Polygon><outerBoundaryIs><LinearRing><coordinates>119.668015,23.682897,0.0 119.667965,23.683624,0.0 119.667543,23.683795,0.0 119.667738,23.683266,0.0 119.667898,23.683064,0.0 119.668015,23.682897,0.0</coordinates></LinearRing></outerBoundaryIs></Polygon><Polygon><outerBoundaryIs><LinearRing><coordinates>119.667954,23.676134,0.0 119.668458,23.676698,0.0 119.668695,23.676887,0.0 119.669195,23.67707,0.0 119.669147,23.677501,0.0 119.668905,23.677985,0.0 119.668427,23.678585,0.0 119.668047,23.678889,0.0 119.667882,23.679835,0.0 119.668036,23.680444,0.0 119.668357,23.680991,0.0 119.667873,23.681275,0.0 119.667322,23.681469,0.0 119.667576,23.682253,0.0 119.667937,23.682516,0.0 119.667755,23.682833,0.0 119.667301,23.682431,0.0 119.666986,23.682355,0.0 119.666725,23.682999,0.0 119.666211,23.683356,0.0 119.666253,23.682909,0.0 119.666791,23.68264,0.0 119.666544,23.682213,0.0 119.666743,23.680966,0.0 119.666361,23.680765,0.0 119.665574,23.68147,0.0 119.664957,23.681438,0.0 119.665172,23.6812,0.0 119.665421,23.680685,0.0 119.665696,23.680086,0.0 119.665479,23.679543,0.0 119.665894,23.678562,0.0 119.665374,23.677878,0.0 119.664918,23.677219,0.0 119.66608,23.677078,0.0 119.666603,23.676591,0.0 119.667335,23.67694,0.0 119.667764,23.676837,0.0 119.667873,23.676139,0.0 119.667954,23.676134,0.0</coordinates></LinearRing></outerBoundaryIs></Polygon></MultiGeometry><styleUrl>#spolygon-map</styleUrl></Placemark><Placemark><MultiGeometry><Polygon><outerBoundaryIs><LinearRing><coordinates>119.601593,23.787063,0.0 119.602187,23.787351,0.0 119.602101,23.787717,0.0 119.602229,23.787879,0.0 119.602272,23.787988,0.0 119.60197,23.788246,0.0 119.602147,23.788859,0.0 119.601359,23.788991,0.0 119.601541,23.788478,0.0 119.600929,23.788403,0.0 119.60109,23.787983,0.0 119.601124,23.787637,0.0 119.6015,23.787271,0.0 119.601593,23.787063,0.0</coordinates></LinearRing></outerBoundaryIs></Polygon><Polygon><outerBoundaryIs><LinearRing><coordinates>119.603383,23.786433,0.0 119.603422,23.786742,0.0 119.60345,23.786792,0.0 119.603149,23.786858,0.0 119.602976,23.786884,0.0 119.602689,23.787131,0.0 119.602603,23.786987,0.0 119.602559,23.786748,0.0 119.602913,23.786683,0.0 119.603366,23.786499,0.0 119.603383,23.786433,0.0</coordinates></LinearRing></outerBoundaryIs></Polygon><Polygon><outerBoundaryIs><LinearRing><coordinates>119.602922,23.785878,0.0 119.602898,23.786144,0.0 119.603213,23.786179,0.0 119.603145,23.786441,0.0 119.60295,23.786478,0.0 119.602732,23.786618,0.0 119.602419,23.786703,0.0 119.602301,23.786588,0.0 119.602424,23.786513,0.0 119.602405,23.786335,0.0 119.602143,23.786167,0.0 119.602381,23.786004,0.0 119.602725,23.785978,0.0 119.602922,23.785878,0.0</coordinates></LinearRing></outerBoundaryIs></Polygon><Polygon><outerBoundaryIs><LinearRing><coordinates>119.59971,23.783581,0.0 119.600435,23.784415,0.0 119.600254,23.784791,0.0 119.600534,23.785315,0.0 119.600936,23.78544,0.0 119.601224,23.78583,0.0 119.601345,23.78603,0.0 119.60159,23.786404,0.0 119.601368,23.786621,0.0 119.60104,23.786959,0.0 119.601074,23.78741,0.0 119.600975,23.787724,0.0 119.600624,23.787869,0.0 119.600133,23.787679,0.0 119.599829,23.787586,0.0 119.600231,23.787271,0.0 119.599954,23.786838,0.0 119.599729,23.786494,0.0 119.599271,23.785922,0.0 119.5986,23.785708,0.0 119.598749,23.785135,0.0 119.59885,23.785405,0.0 119.599277,23.785345,0.0 119.59972,23.785174,0.0 119.599996,23.784864,0.0 119.600016,23.784164,0.0 119.599603,23.783608,0.0 119.59971,23.783581,0.0</coordinates></LinearRing></outerBoundaryIs></Polygon><Polygon><outerBoundaryIs><LinearRing><coordinates>119.602303,23.784952,0.0 119.602768,23.785307,0.0 119.603078,23.785322,0.0 119.60261,23.785335,0.0 119.602232,23.785038,0.0 119.602303,23.784952,0.0</coordinates></LinearRing></outerBoundaryIs></Polygon></MultiGeometry><styleUrl>#spolygon-map</styleUrl></Placemark><Placemark><MultiGeometry><Polygon><outerBoundaryIs><LinearRing><coordinates>119.576918,23.778623,0.0 119.577786,23.779196,0.0 119.577594,23.780347,0.0 119.577253,23.780937,0.0 119.57687,23.780672,0.0 119.576614,23.780014,0.0 119.575546,23.779271,0.0 119.576393,23.778817,0.0 119.576918,23.778623,0.0</coordinates></LinearRing></outerBoundaryIs></Polygon><Polygon><outerBoundaryIs><LinearRing><coordinates>119.607132,23.779374,0.0 119.607555,23.779696,0.0 119.607578,23.779447,0.0 119.607607,23.780226,0.0 119.60813,23.780113,0.0 119.608145,23.780325,0.0 119.608125,23.78068,0.0 119.607794,23.780956,0.0 119.607677,23.781534,0.0 119.607564,23.781659,0.0 119.607477,23.781898,0.0 119.607124,23.781965,0.0 119.607052,23.781773,0.0 119.607055,23.781636,0.0 119.607235,23.781536,0.0 119.607375,23.781278,0.0 119.607442,23.780558,0.0 119.607146,23.780719,0.0 119.60692,23.780907,0.0 119.606768,23.780944,0.0 119.606567,23.780358,0.0 119.606854,23.779698,0.0 119.607132,23.779374,0.0</coordinates></LinearRing></outerBoundaryIs></Polygon><Polygon><outerBoundaryIs><LinearRing><coordinates>119.604141,23.781432,0.0 119.604742,23.781816,0.0 119.605068,23.781871,0.0 119.604803,23.781953,0.0 119.604398,23.781867,0.0 119.604232,23.781673,0.0 119.604141,23.781432,0.0</coordinates></LinearRing></outerBoundaryIs></Polygon><Polygon><outerBoundaryIs><LinearRing><coordinates>119.620782,23.754844,0.0 119.620915,23.755396,0.0 119.62052,23.755328,0.0 119.620621,23.755009,0.0 119.620782,23.754844,0.0</coordinates></LinearRing></outerBoundaryIs></Polygon><Polygon><outerBoundaryIs><LinearRing><coordinates>119.60689,23.778507,0.0 119.607271,23.778756,0.0 119.607845,23.778702,0.0 119.608166,23.778964,0.0 119.607785,23.778878,0.0 119.607761,23.779214,0.0 119.607246,23.778968,0.0 119.60689,23.778507,0.0</coordinates></LinearRing></outerBoundaryIs></Polygon><Polygon><outerBoundaryIs><LinearRing><coordinates>119.595261,23.809024,0.0 119.596499,23.809895,0.0 119.595294,23.810533,0.0 119.594386,23.810099,0.0 119.593621,23.810485,0.0 119.593014,23.810122,0.0 119.59308,23.809433,0.0 119.593816,23.809358,0.0 119.594482,23.809381,0.0 119.594965,23.809282,0.0 119.595261,23.809024,0.0</coordinates></LinearRing></outerBoundaryIs></Polygon><Polygon><outerBoundaryIs><LinearRing><coordinates>119.606277,23.780341,0.0 119.606551,23.780767,0.0 119.606424,23.781343,0.0 119.606277,23.781727,0.0 119.606557,23.782026,0.0 119.606305,23.782198,0.0 119.605797,23.78164,0.0 119.606055,23.781865,0.0 119.605661,23.781203,0.0 119.606043,23.780976,0.0 119.606284,23.780984,0.0 119.606243,23.780357,0.0 119.606277,23.780341,0.0</coordinates></LinearRing></outerBoundaryIs></Polygon><Polygon><outerBoundaryIs><LinearRing><coordinates>119.597584,23.795257,0.0 119.597598,23.795575,0.0 119.597534,23.79584,0.0 119.597377,23.796009,0.0 119.597327,23.796179,0.0 119.597094,23.796112,0.0 119.596859,23.796201,0.0 119.596903,23.795973,0.0 119.596965,23.795799,0.0 119.597537,23.795445,0.0 119.597584,23.795257,0.0</coordinates></LinearRing></outerBoundaryIs></Polygon><Polygon><outerBoundaryIs><LinearRing><coordinates>119.606925,23.781808,0.0 119.607023,23.782141,0.0 119.606889,23.782331,0.0 119.606654,23.782055,0.0 119.606801,23.781892,0.0 119.606925,23.781808,0.0</coordinates></LinearRing></outerBoundaryIs></Polygon><Polygon><outerBoundaryIs><LinearRing><coordinates>119.605502,23.781998,0.0 119.605812,23.782259,0.0 119.605664,23.78267,0.0 119.605211,23.782313,0.0 119.605502,23.781998,0.0</coordinates></LinearRing></outerBoundaryIs></Polygon><Polygon><outerBoundaryIs><LinearRing><coordinates>119.604438,23.782196,0.0 119.604448,23.782787,0.0 119.604438,23.782196,0.0</coordinates></LinearRing></outerBoundaryIs></Polygon><Polygon><outerBoundaryIs><LinearRing><coordinates>119.605308,23.783014,0.0 119.605555,23.783447,0.0 119.605432,23.783612,0.0 119.605117,23.783367,0.0 119.605308,23.783014,0.0</coordinates></LinearRing></outerBoundaryIs></Polygon><Polygon><outerBoundaryIs><LinearRing><coordinates>119.619973,23.755549,0.0 119.620018,23.755865,0.0 119.619953,23.756181,0.0 119.619816,23.755759,0.0 119.619973,23.755549,0.0</coordinates></LinearRing></outerBoundaryIs></Polygon><Polygon><outerBoundaryIs><LinearRing><coordinates>119.599188,23.793541,0.0 119.599644,23.793939,0.0 119.599955,23.794213,0.0 119.600271,23.794365,0.0 119.600659,23.794397,0.0 119.600569,23.794813,0.0 119.600485,23.795181,0.0 119.599964,23.795458,0.0 119.59986,23.795662,0.0 119.600135,23.796117,0.0 119.599634,23.795945,0.0 119.599701,23.796152,0.0 119.599234,23.796027,0.0 119.599037,23.796182,0.0 119.598676,23.796314,0.0 119.59847,23.796459,0.0 119.598389,23.796732,0.0 119.598469,23.797059,0.0 119.598068,23.797081,0.0 119.597789,23.797084,0.0 119.597476,23.79774,0.0 119.596817,23.798072,0.0 119.596006,23.798298,0.0 119.595931,23.797739,0.0 119.596044,23.797346,0.0 119.595904,23.796989,0.0 119.595699,23.796697,0.0 119.596017,23.796459,0.0 119.595739,23.796058,0.0 119.595985,23.795944,0.0 119.596393,23.796117,0.0 119.596818,23.796293,0.0 119.596498,23.79682,0.0 119.596657,23.797095,0.0 119.596889,23.796735,0.0 119.597438,23.796587,0.0 119.597598,23.796306,0.0 119.597848,23.795728,0.0 119.598053,23.795474,0.0 119.598572,23.795344,0.0 119.598888,23.795228,0.0 119.599083,23.794906,0.0 119.598923,23.794318,0.0 119.599159,23.794098,0.0 119.599316,23.794125,0.0 119.59911,23.793595,0.0 119.599188,23.793541,0.0</coordinates></LinearRing></outerBoundaryIs></Polygon><Polygon><outerBoundaryIs><LinearRing><coordinates>119.607828,23.781816,0.0 119.607697,23.78222,0.0 119.607734,23.782468,0.0 119.608104,23.782548,0.0 119.608194,23.782767,0.0 119.607962,23.783162,0.0 119.608159,23.783062,0.0 119.607438,23.783704,0.0 119.607208,23.783962,0.0 119.606829,23.783525,0.0 119.607477,23.782875,0.0 119.606589,23.783576,0.0 119.606716,23.783253,0.0 119.606377,23.783143,0.0 119.605994,23.782901,0.0 119.606168,23.782458,0.0 119.606653,23.782736,0.0 119.606889,23.782656,0.0 119.606784,23.78237,0.0 119.607207,23.782008,0.0 119.607828,23.781816,0.0</coordinates></LinearRing></outerBoundaryIs></Polygon><Polygon><outerBoundaryIs><LinearRing><coordinates>119.612527,23.77664,0.0 119.612666,23.777303,0.0 119.612915,23.777864,0.0 119.612906,23.777275,0.0 119.612889,23.776959,0.0 119.613374,23.777235,0.0 119.613372,23.777411,0.0 119.613449,23.777893,0.0 119.613778,23.777813,0.0 119.613939,23.778444,0.0 119.613357,23.778749,0.0 119.613285,23.778442,0.0 119.612757,23.778282,0.0 119.612492,23.777723,0.0 119.612329,23.777173,0.0 119.612407,23.776787,0.0 119.612527,23.77664,0.0</coordinates></LinearRing></outerBoundaryIs></Polygon><Polygon><outerBoundaryIs><LinearRing><coordinates>119.599088,23.767539,0.0 119.598648,23.767283,0.0 119.598683,23.766385,0.0 119.598858,23.765827,0.0 119.597382,23.763899,0.0 119.596682,23.76271,0.0 119.596714,23.76178,0.0 119.596706,23.759537,0.0 119.596937,23.758631,0.0 119.597754,23.757784,0.0 119.599218,23.758505,0.0 119.599363,23.760062,0.0 119.600227,23.76153,0.0 119.600659,23.761395,0.0 119.601042,23.762784,0.0 119.601326,23.764442,0.0 119.601775,23.765922,0.0 119.602561,23.767522,0.0 119.604024,23.768733,0.0 119.604622,23.769101,0.0 119.605626,23.769656,0.0 119.606483,23.770082,0.0 119.60739,23.770882,0.0 119.607144,23.771339,0.0 119.607395,23.771877,0.0 119.607538,23.772346,0.0 119.607952,23.773186,0.0 119.606506,23.77346,0.0 119.607158,23.773552,0.0 119.607194,23.774017,0.0 119.60705,23.774395,0.0 119.606579,23.774437,0.0 119.606602,23.774805,0.0 119.606568,23.775057,0.0 119.606534,23.775304,0.0 119.606544,23.775414,0.0 119.60537,23.775497,0.0 119.605758,23.775397,0.0 119.605763,23.775649,0.0 119.606205,23.775264,0.0 119.605988,23.774629,0.0 119.605809,23.77462,0.0 119.605492,23.774497,0.0 119.605089,23.774167,0.0 119.604819,23.774148,0.0 119.604652,23.773968,0.0 119.604421,23.773337,0.0 119.605118,23.772917,0.0 119.604684,23.772659,0.0 119.60416,23.772492,0.0 119.604038,23.772023,0.0 119.603881,23.771843,0.0 119.603388,23.771468,0.0 119.602948,23.770975,0.0 119.602095,23.770714,0.0 119.601832,23.770426,0.0 119.60158,23.77015,0.0 119.601839,23.769695,0.0 119.601959,23.769372,0.0 119.601637,23.769141,0.0 119.60106,23.769019,0.0 119.60051,23.769587,0.0 119.599592,23.769615,0.0 119.599489,23.769056,0.0 119.598823,23.768819,0.0 119.599736,23.767941,0.0 119.599359,23.767908,0.0 119.599088,23.767539,0.0</coordinates></LinearRing></outerBoundaryIs></Polygon><Polygon><outerBoundaryIs><LinearRing><coordinates>119.611665,23.775605,0.0 119.611883,23.775819,0.0 119.61211,23.776055,0.0 119.611599,23.775797,0.0 119.611665,23.775605,0.0</coordinates></LinearRing></outerBoundaryIs></Polygon><Polygon><outerBoundaryIs><LinearRing><coordinates>119.607923,23.779399,0.0 119.60824,23.779648,0.0 119.608097,23.779933,0.0 119.607943,23.779947,0.0 119.607904,23.780089,0.0 119.607786,23.779711,0.0 119.607923,23.779399,0.0</coordinates></LinearRing></outerBoundaryIs></Polygon><Polygon><outerBoundaryIs><LinearRing><coordinates>119.603642,23.766496,0.0 119.604049,23.767198,0.0 119.603493,23.767211,0.0 119.603326,23.76674,0.0 119.603642,23.766496,0.0</coordinates></LinearRing></outerBoundaryIs></Polygon><Polygon><outerBoundaryIs><LinearRing><coordinates>119.605469,23.765625,0.0 119.60595,23.765788,0.0 119.606349,23.766222,0.0 119.606035,23.766451,0.0 119.605112,23.766765,0.0 119.604502,23.766793,0.0 119.604803,23.765855,0.0 119.605428,23.765645,0.0 119.605469,23.765625,0.0</coordinates></LinearRing></outerBoundaryIs></Polygon><Polygon><outerBoundaryIs><LinearRing><coordinates>119.607436,23.764697,0.0 119.607625,23.765143,0.0 119.607086,23.765614,0.0 119.606459,23.765382,0.0 119.605872,23.765393,0.0 119.606225,23.765121,0.0 119.606837,23.764834,0.0 119.607436,23.764697,0.0</coordinates></LinearRing></outerBoundaryIs></Polygon><Polygon><outerBoundaryIs><LinearRing><coordinates>119.606801,23.759161,0.0 119.606634,23.759839,0.0 119.606381,23.759463,0.0 119.606565,23.759417,0.0 119.606801,23.759161,0.0</coordinates></LinearRing></outerBoundaryIs></Polygon><Polygon><outerBoundaryIs><LinearRing><coordinates>119.607907,23.774432,0.0 119.607951,23.774958,0.0 119.607805,23.774462,0.0 119.607907,23.774432,0.0</coordinates></LinearRing></outerBoundaryIs></Polygon><Polygon><outerBoundaryIs><LinearRing><coordinates>119.607648,23.774789,0.0 119.607525,23.775153,0.0 119.60729,23.775299,0.0 119.607281,23.775159,0.0 119.607413,23.775,0.0 119.607648,23.774789,0.0</coordinates></LinearRing></outerBoundaryIs></Polygon><Polygon><outerBoundaryIs><LinearRing><coordinates>119.60255,23.766967,0.0 119.602958,23.767245,0.0 119.602651,23.76747,0.0 119.602411,23.767021,0.0 119.60255,23.766967,0.0</coordinates></LinearRing></outerBoundaryIs></Polygon><Polygon><outerBoundaryIs><LinearRing><coordinates>119.607471,23.778256,0.0 119.607599,23.778594,0.0 119.60754,23.778755,0.0 119.607432,23.778301,0.0 119.607471,23.778256,0.0</coordinates></LinearRing></outerBoundaryIs></Polygon><Polygon><outerBoundaryIs><LinearRing><coordinates>119.598368,23.792199,0.0 119.598469,23.792508,0.0 119.598405,23.792957,0.0 119.597982,23.792679,0.0 119.598366,23.792296,0.0 119.598368,23.792199,0.0</coordinates></LinearRing></outerBoundaryIs></Polygon><Polygon><outerBoundaryIs><LinearRing><coordinates>119.598684,23.793035,0.0 119.599238,23.793421,0.0 119.59879,23.793364,0.0 119.598336,23.793436,0.0 119.598357,23.793618,0.0 119.598813,23.793842,0.0 119.598983,23.793984,0.0 119.598597,23.793999,0.0 119.598448,23.793819,0.0 119.598133,23.793793,0.0 119.597903,23.793609,0.0 119.597662,23.793494,0.0 119.597316,23.793223,0.0 119.59714,23.793081,0.0 119.597535,23.793161,0.0 119.598181,23.793466,0.0 119.598527,23.793126,0.0 119.598684,23.793035,0.0</coordinates></LinearRing></outerBoundaryIs></Polygon><Polygon><outerBoundaryIs><LinearRing><coordinates>119.60551,23.75014,0.0 119.604835,23.748561,0.0 119.604472,23.746987,0.0 119.603639,23.745293,0.0 119.602866,23.744427,0.0 119.601385,23.743503,0.0 119.599363,23.742941,0.0 119.597231,23.741706,0.0 119.596966,23.740168,0.0 119.596321,23.739383,0.0 119.596293,23.738618,0.0 119.595837,23.737642,0.0 119.596648,23.737032,0.0 119.597139,23.736331,0.0 119.598093,23.736361,0.0 119.599626,23.735435,0.0 119.600527,23.733904,0.0 119.60122,23.732248,0.0 119.601888,23.73046,0.0 119.601622,23.727974,0.0 119.601282,23.72671,0.0 119.601869,23.72578,0.0 119.602657,23.725452,0.0 119.603048,23.725489,0.0 119.603597,23.726063,0.0 119.60394,23.726811,0.0 119.603262,23.72814,0.0 119.603021,23.729932,0.0 119.603078,23.731363,0.0 119.604053,23.732409,0.0 119.604732,23.733076,0.0 119.605053,23.73407,0.0 119.605521,23.735168,0.0 119.606217,23.736424,0.0 119.606979,23.737459,0.0 119.60987,23.739116,0.0 119.610465,23.739622,0.0 119.611311,23.741543,0.0 119.613519,23.739748,0.0 119.614804,23.740269,0.0 119.615459,23.739005,0.0 119.615419,23.740986,0.0 119.616498,23.74198,0.0 119.618057,23.741778,0.0 119.618246,23.741628,0.0 119.618301,23.741194,0.0 119.617887,23.740921,0.0 119.618314,23.740696,0.0 119.619075,23.7406,0.0 119.619229,23.740471,0.0 119.619658,23.740659,0.0 119.61933,23.74073,0.0 119.619208,23.740938,0.0 119.618745,23.741118,0.0 119.619342,23.741556,0.0 119.620044,23.742853,0.0 119.620854,23.742681,0.0 119.621484,23.74276,0.0 119.622509,23.743054,0.0 119.623088,23.743006,0.0 119.62313,23.743595,0.0 119.623683,23.743828,0.0 119.623573,23.744178,0.0 119.622816,23.74491,0.0 119.623022,23.745243,0.0 119.623097,23.746213,0.0 119.622798,23.74667,0.0 119.622785,23.747227,0.0 119.622898,23.747313,0.0 119.622599,23.747828,0.0 119.62207,23.747995,0.0 119.621937,23.748959,0.0 119.62178,23.749151,0.0 119.621436,23.748428,0.0 119.62115,23.748921,0.0 119.620957,23.749146,0.0 119.620544,23.749623,0.0 119.61998,23.749887,0.0 119.618941,23.750139,0.0 119.618244,23.750589,0.0 119.617924,23.750773,0.0 119.617369,23.75128,0.0 119.616654,23.751565,0.0 119.615302,23.751545,0.0 119.613861,23.752072,0.0 119.612667,23.752844,0.0 119.611589,23.753951,0.0 119.611924,23.754598,0.0 119.612268,23.75544,0.0 119.612051,23.756242,0.0 119.611911,23.756884,0.0 119.611642,23.757521,0.0 119.611514,23.758144,0.0 119.611118,23.758757,0.0 119.611053,23.757593,0.0 119.610461,23.757042,0.0 119.609764,23.756084,0.0 119.60884,23.755575,0.0 119.608242,23.755388,0.0 119.607928,23.755111,0.0 119.608174,23.754456,0.0 119.607944,23.754369,0.0 119.607458,23.754068,0.0 119.606959,23.754025,0.0 119.60629,23.753648,0.0 119.606131,23.753552,0.0 119.605705,23.753398,0.0 119.60576,23.752973,0.0 119.605419,23.752681,0.0 119.605854,23.752991,0.0 119.605668,23.75243,0.0 119.60629,23.75261,0.0 119.606966,23.752653,0.0 119.607936,23.752475,0.0 119.607464,23.752583,0.0 119.607027,23.752935,0.0 119.607626,23.753418,0.0 119.607338,23.753723,0.0 119.607534,23.753797,0.0 119.607947,23.753726,0.0 119.6086,23.753531,0.0 119.608617,23.752954,0.0 119.607976,23.752119,0.0 119.607044,23.752366,0.0 119.606647,23.752065,0.0 119.606151,23.752022,0.0 119.606595,23.751873,0.0 119.605962,23.751118,0.0 119.605674,23.750428,0.0 119.60551,23.75014,0.0</coordinates></LinearRing></outerBoundaryIs></Polygon><Polygon><outerBoundaryIs><LinearRing><coordinates>119.607982,23.757884,0.0 119.608166,23.75861,0.0 119.607468,23.75864,0.0 119.607463,23.758426,0.0 119.607624,23.758222,0.0 119.607786,23.758002,0.0 119.607982,23.757884,0.0</coordinates></LinearRing></outerBoundaryIs></Polygon><Polygon><outerBoundaryIs><LinearRing><coordinates>119.606971,23.756679,0.0 119.607377,23.756803,0.0 119.607899,23.757038,0.0 119.608049,23.757063,0.0 119.608059,23.757297,0.0 119.607568,23.75729,0.0 119.607222,23.757355,0.0 119.606924,23.757121,0.0 119.606993,23.756888,0.0 119.606971,23.756679,0.0</coordinates></LinearRing></outerBoundaryIs></Polygon><Polygon><outerBoundaryIs><LinearRing><coordinates>119.611746,23.776097,0.0 119.611812,23.776331,0.0 119.611832,23.77664,0.0 119.611951,23.776698,0.0 119.61216,23.777016,0.0 119.611577,23.7767,0.0 119.611521,23.776454,0.0 119.611468,23.776172,0.0 119.611746,23.776097,0.0</coordinates></LinearRing></outerBoundaryIs></Polygon><Polygon><outerBoundaryIs><LinearRing><coordinates>119.611253,23.77764,0.0 119.61149,23.777799,0.0 119.611881,23.777913,0.0 119.612213,23.778193,0.0 119.612217,23.7786,0.0 119.612306,23.778886,0.0 119.611992,23.778682,0.0 119.61176,23.778732,0.0 119.611639,23.77853,0.0 119.611465,23.778438,0.0 119.611399,23.777982,0.0 119.611227,23.777662,0.0 119.611253,23.77764,0.0</coordinates></LinearRing></outerBoundaryIs></Polygon><Polygon><outerBoundaryIs><LinearRing><coordinates>119.598637,23.753931,0.0 119.598967,23.754059,0.0 119.598622,23.754387,0.0 119.598279,23.754718,0.0 119.597705,23.755255,0.0 119.597374,23.755342,0.0 119.596964,23.755472,0.0 119.597181,23.755155,0.0 119.597337,23.755026,0.0 119.597545,23.754673,0.0 119.597915,23.754315,0.0 119.598637,23.753931,0.0</coordinates></LinearRing></outerBoundaryIs></Polygon><Polygon><outerBoundaryIs><LinearRing><coordinates>119.623132,23.752468,0.0 119.623132,23.752468,0.0</coordinates></LinearRing></outerBoundaryIs></Polygon><Polygon><outerBoundaryIs><LinearRing><coordinates>119.624997,23.75219,0.0 119.624898,23.752294,0.0 119.624997,23.75219,0.0</coordinates></LinearRing></outerBoundaryIs></Polygon><Polygon><outerBoundaryIs><LinearRing><coordinates>119.623836,23.752199,0.0 119.623622,23.752272,0.0 119.623836,23.752199,0.0</coordinates></LinearRing></outerBoundaryIs></Polygon><Polygon><outerBoundaryIs><LinearRing><coordinates>119.624851,23.7519,0.0 119.624819,23.752123,0.0 119.624801,23.7519,0.0 119.624851,23.7519,0.0</coordinates></LinearRing></outerBoundaryIs></Polygon><Polygon><outerBoundaryIs><LinearRing><coordinates>119.624098,23.751647,0.0 119.624003,23.751716,0.0 119.624098,23.751647,0.0</coordinates></LinearRing></outerBoundaryIs></Polygon><Polygon><outerBoundaryIs><LinearRing><coordinates>119.624621,23.751519,0.0 119.62485,23.751841,0.0 119.624621,23.751519,0.0</coordinates></LinearRing></outerBoundaryIs></Polygon><Polygon><outerBoundaryIs><LinearRing><coordinates>119.62429,23.751326,0.0 119.624482,23.751729,0.0 119.624224,23.751399,0.0 119.62429,23.751326,0.0</coordinates></LinearRing></outerBoundaryIs></Polygon><Polygon><outerBoundaryIs><LinearRing><coordinates>119.624115,23.751025,0.0 119.623985,23.7514,0.0 119.624115,23.751025,0.0</coordinates></LinearRing></outerBoundaryIs></Polygon><Polygon><outerBoundaryIs><LinearRing><coordinates>119.624539,23.750809,0.0 119.624574,23.751034,0.0 119.624539,23.750809,0.0</coordinates></LinearRing></outerBoundaryIs></Polygon><Polygon><outerBoundaryIs><LinearRing><coordinates>119.624226,23.749891,0.0 119.624768,23.750255,0.0 119.624565,23.750371,0.0 119.624103,23.750233,0.0 119.624226,23.749891,0.0</coordinates></LinearRing></outerBoundaryIs></Polygon><Polygon><outerBoundaryIs><LinearRing><coordinates>119.625285,23.7491,0.0 119.625079,23.749444,0.0 119.625285,23.7491,0.0</coordinates></LinearRing></outerBoundaryIs></Polygon><Polygon><outerBoundaryIs><LinearRing><coordinates>119.624378,23.748665,0.0 119.624531,23.749306,0.0 119.624257,23.749101,0.0 119.624378,23.748665,0.0</coordinates></LinearRing></outerBoundaryIs></Polygon><Polygon><outerBoundaryIs><LinearRing><coordinates>119.624634,23.749086,0.0 119.624634,23.749086,0.0</coordinates></LinearRing></outerBoundaryIs></Polygon><Polygon><outerBoundaryIs><LinearRing><coordinates>119.624751,23.748802,0.0 119.624705,23.748824,0.0 119.624751,23.748802,0.0</coordinates></LinearRing></outerBoundaryIs></Polygon><Polygon><outerBoundaryIs><LinearRing><coordinates>119.624998,23.748372,0.0 119.624791,23.748664,0.0 119.624998,23.748372,0.0</coordinates></LinearRing></outerBoundaryIs></Polygon><Polygon><outerBoundaryIs><LinearRing><coordinates>119.624635,23.748349,0.0 119.624635,23.748349,0.0</coordinates></LinearRing></outerBoundaryIs></Polygon><Polygon><outerBoundaryIs><LinearRing><coordinates>119.609156,23.736765,0.0 119.610283,23.737359,0.0 119.610653,23.737784,0.0 119.610207,23.737948,0.0 119.609667,23.737115,0.0 119.608738,23.73771,0.0 119.608918,23.738154,0.0 119.608628,23.737534,0.0 119.609079,23.73682,0.0 119.609156,23.736765,0.0</coordinates></LinearRing></outerBoundaryIs></Polygon><Polygon><outerBoundaryIs><LinearRing><coordinates>119.611114,23.735194,0.0 119.611952,23.736051,0.0 119.611924,23.736437,0.0 119.611377,23.736416,0.0 119.61189,23.736173,0.0 119.611224,23.735311,0.0 119.611022,23.735199,0.0 119.611114,23.735194,0.0</coordinates></LinearRing></outerBoundaryIs></Polygon><Polygon><outerBoundaryIs><LinearRing><coordinates>119.610651,23.733262,0.0 119.611141,23.733445,0.0 119.6114,23.733634,0.0 119.611928,23.733718,0.0 119.611871,23.734115,0.0 119.610461,23.733466,0.0 119.610495,23.733278,0.0 119.610651,23.733262,0.0</coordinates></LinearRing></outerBoundaryIs></Polygon><Polygon><outerBoundaryIs><LinearRing><coordinates>119.612618,23.732551,0.0 119.612927,23.732888,0.0 119.613096,23.733357,0.0 119.612626,23.734126,0.0 119.612056,23.733442,0.0 119.612415,23.732612,0.0 119.612618,23.732551,0.0</coordinates></LinearRing></outerBoundaryIs></Polygon><Polygon><outerBoundaryIs><LinearRing><coordinates>119.609893,23.731175,0.0 119.609854,23.731609,0.0 119.60991,23.733125,0.0 119.609465,23.733878,0.0 119.60991,23.732457,0.0 119.609807,23.731421,0.0 119.609273,23.731295,0.0 119.609893,23.731175,0.0</coordinates></LinearRing></outerBoundaryIs></Polygon><Polygon><outerBoundaryIs><LinearRing><coordinates>119.608906,23.731628,0.0 119.609227,23.732191,0.0 119.608736,23.732703,0.0 119.608564,23.731841,0.0 119.608906,23.731628,0.0</coordinates></LinearRing></outerBoundaryIs></Polygon><Polygon><outerBoundaryIs><LinearRing><coordinates>119.611086,23.776731,0.0 119.611492,23.776901,0.0 119.611601,23.776943,0.0 119.611655,23.777124,0.0 119.611653,23.777376,0.0 119.611416,23.777246,0.0 119.611144,23.777114,0.0 119.611069,23.776805,0.0 119.611086,23.776731,0.0</coordinates></LinearRing></outerBoundaryIs></Polygon><Polygon><outerBoundaryIs><LinearRing><coordinates>119.610751,23.777116,0.0 119.610679,23.777608,0.0 119.610603,23.777805,0.0 119.610281,23.777526,0.0 119.6106,23.777243,0.0 119.610751,23.777116,0.0</coordinates></LinearRing></outerBoundaryIs></Polygon><Polygon><outerBoundaryIs><LinearRing><coordinates>119.593202,23.770626,0.0 119.593624,23.770466,0.0 119.593202,23.770626,0.0</coordinates></LinearRing></outerBoundaryIs></Polygon><Polygon><outerBoundaryIs><LinearRing><coordinates>119.610966,23.777812,0.0 119.611181,23.778321,0.0 119.611502,23.778724,0.0 119.611812,23.77903,0.0 119.611815,23.779287,0.0 119.611594,23.779209,0.0 119.611457,23.779164,0.0 119.611178,23.778779,0.0 119.611015,23.778719,0.0 119.610782,23.778907,0.0 119.611134,23.779105,0.0 119.611347,23.779436,0.0 119.611544,23.779674,0.0 119.611799,23.780018,0.0 119.611475,23.780006,0.0 119.611144,23.780086,0.0 119.611198,23.780007,0.0 119.611006,23.779651,0.0 119.610757,23.779562,0.0 119.610648,23.779111,0.0 119.61066,23.778416,0.0 119.610961,23.778437,0.0 119.610966,23.777812,0.0</coordinates></LinearRing></outerBoundaryIs></Polygon><Polygon><outerBoundaryIs><LinearRing><coordinates>119.612065,23.777463,0.0 119.612374,23.777681,0.0 119.612449,23.778123,0.0 119.612106,23.777946,0.0 119.611972,23.777542,0.0 119.612065,23.777463,0.0</coordinates></LinearRing></outerBoundaryIs></Polygon><Polygon><outerBoundaryIs><LinearRing><coordinates>119.60927,23.778969,0.0 119.609663,23.779209,0.0 119.609813,23.779502,0.0 119.610013,23.779481,0.0 119.610049,23.779655,0.0 119.610203,23.779929,0.0 119.610419,23.780017,0.0 119.610783,23.779986,0.0 119.611113,23.780165,0.0 119.611161,23.78042,0.0 119.611702,23.780736,0.0 119.611243,23.780738,0.0 119.610952,23.780466,0.0 119.610739,23.780354,0.0 119.610615,23.780406,0.0 119.610474,23.780531,0.0 119.610296,23.780624,0.0 119.61049,23.780644,0.0 119.611022,23.781061,0.0 119.61055,23.780912,0.0 119.610145,23.780627,0.0 119.60998,23.780235,0.0 119.609579,23.779611,0.0 119.609311,23.779138,0.0 119.60927,23.778969,0.0</coordinates></LinearRing></outerBoundaryIs></Polygon></MultiGeometry><styleUrl>#spolygon-map</styleUrl></Placemark><Placemark><Polygon><outerBoundaryIs><LinearRing><coordinates>119.606989,23.657689,0.0 119.607292,23.64923,0.0 119.60831,23.649023,0.0 119.608269,23.648583,0.0 119.60966,23.649332,0.0 119.610218,23.648353,0.0 119.61102,23.649103,0.0 119.611715,23.650073,0.0 119.612764,23.652827,0.0 119.611925,23.653013,0.0 119.609369,23.654749,0.0 119.608472,23.655844,0.0 119.606991,23.657678,0.0 119.606989,23.657689,0.0</coordinates></LinearRing></outerBoundaryIs></Polygon><styleUrl>#spolygon-map</styleUrl></Placemark><Placemark><MultiGeometry><Polygon><outerBoundaryIs><LinearRing><coordinates>119.551528,23.722728,0.0 119.551213,23.723171,0.0 119.55114,23.72282,0.0 119.551528,23.722728,0.0</coordinates></LinearRing></outerBoundaryIs></Polygon><Polygon><outerBoundaryIs><LinearRing><coordinates>119.623073,23.684644,0.0 119.623341,23.684756,0.0 119.623805,23.684856,0.0 119.624133,23.685085,0.0 119.623699,23.68528,0.0 119.623252,23.685332,0.0 119.622643,23.685029,0.0 119.622969,23.6848,0.0 119.623073,23.684644,0.0</coordinates></LinearRing></outerBoundaryIs></Polygon><Polygon><outerBoundaryIs><LinearRing><coordinates>119.565384,23.717459,0.0 119.565165,23.717954,0.0 119.565384,23.717459,0.0</coordinates></LinearRing></outerBoundaryIs></Polygon><Polygon><outerBoundaryIs><LinearRing><coordinates>119.600357,23.656588,0.0 119.606489,23.658932,0.0 119.606631,23.660651,0.0 119.607611,23.661514,0.0 119.608638,23.662882,0.0 119.609575,23.663838,0.0 119.608736,23.663189,0.0 119.606951,23.662985,0.0 119.60377,23.664947,0.0 119.603122,23.665288,0.0 119.603199,23.667781,0.0 119.603253,23.668047,0.0 119.603615,23.669192,0.0 119.600602,23.67067,0.0 119.59958,23.671904,0.0 119.599822,23.673722,0.0 119.597964,23.674536,0.0 119.595804,23.673915,0.0 119.595213,23.67254,0.0 119.593585,23.671673,0.0 119.591574,23.671771,0.0 119.589065,23.668923,0.0 119.594868,23.662053,0.0 119.600484,23.658971,0.0 119.600357,23.656588,0.0</coordinates></LinearRing></outerBoundaryIs></Polygon><Polygon><outerBoundaryIs><LinearRing><coordinates>119.621344,23.685492,0.0 119.621698,23.685922,0.0 119.621735,23.68626,0.0 119.621389,23.686445,0.0 119.621128,23.686807,0.0 119.62096,23.686399,0.0 119.620872,23.686047,0.0 119.621044,23.685864,0.0 119.621346,23.685962,0.0 119.621344,23.685492,0.0</coordinates></LinearRing></outerBoundaryIs></Polygon><Polygon><outerBoundaryIs><LinearRing><coordinates>119.566142,23.716741,0.0 119.5657,23.717465,0.0 119.565906,23.716866,0.0 119.566142,23.716741,0.0</coordinates></LinearRing></outerBoundaryIs></Polygon><Polygon><outerBoundaryIs><LinearRing><coordinates>119.614235,23.665334,0.0 119.615761,23.66763,0.0 119.61634,23.668454,0.0 119.616791,23.669366,0.0 119.617074,23.670552,0.0 119.617898,23.67202,0.0 119.618382,23.673149,0.0 119.61938,23.673572,0.0 119.619209,23.674118,0.0 119.619555,23.674729,0.0 119.619503,23.675376,0.0 119.618811,23.675485,0.0 119.618014,23.67586,0.0 119.617468,23.675477,0.0 119.616675,23.674796,0.0 119.616045,23.673383,0.0 119.61602,23.672657,0.0 119.615675,23.670169,0.0 119.615988,23.669019,0.0 119.616209,23.671397,0.0 119.616381,23.673229,0.0 119.617818,23.673113,0.0 119.618138,23.673017,0.0 119.617594,23.67173,0.0 119.616975,23.670273,0.0 119.616594,23.669401,0.0 119.616447,23.668812,0.0 119.616103,23.668441,0.0 119.615746,23.667818,0.0 119.61446,23.665879,0.0 119.614235,23.665334,0.0</coordinates></LinearRing></outerBoundaryIs></Polygon><Polygon><outerBoundaryIs><LinearRing><coordinates>119.596671,23.6902,0.0 119.596188,23.690637,0.0 119.595327,23.69066,0.0 119.594794,23.690976,0.0 119.595818,23.690205,0.0 119.596671,23.6902,0.0</coordinates></LinearRing></outerBoundaryIs></Polygon><Polygon><outerBoundaryIs><LinearRing><coordinates>119.612209,23.670688,0.0 119.612098,23.671225,0.0 119.612144,23.670774,0.0 119.612209,23.670688,0.0</coordinates></LinearRing></outerBoundaryIs></Polygon><Polygon><outerBoundaryIs><LinearRing><coordinates>119.594878,23.691237,0.0 119.595421,23.692197,0.0 119.595266,23.693244,0.0 119.595291,23.693671,0.0 119.594555,23.694267,0.0 119.593736,23.694926,0.0 119.593418,23.694406,0.0 119.594101,23.69361,0.0 119.594672,23.692685,0.0 119.594374,23.6922,0.0 119.594704,23.691572,0.0 119.594878,23.691237,0.0</coordinates></LinearRing></outerBoundaryIs></Polygon><Polygon><outerBoundaryIs><LinearRing><coordinates>119.593521,23.694988,0.0 119.593399,23.695629,0.0 119.593325,23.696081,0.0 119.592732,23.696282,0.0 119.592821,23.695923,0.0 119.59329,23.695305,0.0 119.593521,23.694988,0.0</coordinates></LinearRing></outerBoundaryIs></Polygon><Polygon><outerBoundaryIs><LinearRing><coordinates>119.603703,23.706279,0.0 119.603575,23.70648,0.0 119.60325,23.706441,0.0 119.603555,23.706315,0.0 119.603703,23.706279,0.0</coordinates></LinearRing></outerBoundaryIs></Polygon><Polygon><outerBoundaryIs><LinearRing><coordinates>119.618788,23.708341,0.0 119.618891,23.708937,0.0 119.618102,23.709156,0.0 119.618076,23.708612,0.0 119.618788,23.708341,0.0</coordinates></LinearRing></outerBoundaryIs></Polygon><Polygon><outerBoundaryIs><LinearRing><coordinates>119.551877,23.710293,0.0 119.551558,23.710723,0.0 119.551877,23.710293,0.0</coordinates></LinearRing></outerBoundaryIs></Polygon><Polygon><outerBoundaryIs><LinearRing><coordinates>119.58806,23.709813,0.0 119.588509,23.710105,0.0 119.58896,23.710167,0.0 119.588733,23.710583,0.0 119.588422,23.710778,0.0 119.58835,23.710345,0.0 119.588069,23.71021,0.0 119.588029,23.709831,0.0 119.58806,23.709813,0.0</coordinates></LinearRing></outerBoundaryIs></Polygon><Polygon><outerBoundaryIs><LinearRing><coordinates>119.555216,23.708694,0.0 119.556227,23.709554,0.0 119.558409,23.710887,0.0 119.55788,23.711627,0.0 119.557064,23.713415,0.0 119.55673,23.715027,0.0 119.557589,23.716098,0.0 119.55781,23.716903,0.0 119.557548,23.717482,0.0 119.557612,23.718352,0.0 119.558803,23.718513,0.0 119.558896,23.72007,0.0 119.558618,23.719073,0.0 119.557355,23.719057,0.0 119.557122,23.720383,0.0 119.555652,23.720938,0.0 119.553724,23.720505,0.0 119.551659,23.719765,0.0 119.552205,23.720666,0.0 119.552769,23.721632,0.0 119.552247,23.721428,0.0 119.55136,23.720689,0.0 119.550928,23.719366,0.0 119.551916,23.718949,0.0 119.552973,23.719413,0.0 119.553764,23.718783,0.0 119.555372,23.71764,0.0 119.556021,23.716774,0.0 119.55514,23.716515,0.0 119.554176,23.716568,0.0 119.55469,23.716016,0.0 119.554771,23.715128,0.0 119.555252,23.71475,0.0 119.555195,23.714464,0.0 119.556016,23.713906,0.0 119.554851,23.712978,0.0 119.554248,23.712729,0.0 119.553751,23.712372,0.0 119.553311,23.711212,0.0 119.553985,23.711184,0.0 119.553975,23.710887,0.0 119.554378,23.710287,0.0 119.555,23.709978,0.0 119.555216,23.708694,0.0</coordinates></LinearRing></outerBoundaryIs></Polygon></MultiGeometry><styleUrl>#spolygon-map</styleUrl></Placemark><Placemark><Polygon><outerBoundaryIs><LinearRing><coordinates>119.591902,23.624275,0.0 119.592369,23.62447,0.0 119.592921,23.624623,0.0 119.594134,23.624698,0.0 119.595722,23.624591,0.0 119.596095,23.623736,0.0 119.597449,23.623839,0.0 119.597805,23.62378,0.0 119.5989,23.622907,0.0 119.599137,23.621741,0.0 119.599207,23.621191,0.0 119.600481,23.620922,0.0 119.600855,23.622272,0.0 119.601387,23.623543,0.0 119.597884,23.629597,0.0 119.591902,23.624275,0.0</coordinates></LinearRing></outerBoundaryIs></Polygon><styleUrl>#spolygon-map</styleUrl></Placemark><Placemark><Polygon><outerBoundaryIs><LinearRing><coordinates>119.570756,23.662133,0.0 119.572735,23.662726,0.0 119.574084,23.662604,0.0 119.575846,23.662589,0.0 119.578007,23.662509,0.0 119.5797,23.661467,0.0 119.580597,23.661886,0.0 119.581191,23.661331,0.0 119.589764,23.672213,0.0 119.588796,23.672564,0.0 119.587228,23.673172,0.0 119.586666,23.674731,0.0 119.585017,23.676427,0.0 119.583077,23.677106,0.0 119.581639,23.677317,0.0 119.580104,23.676706,0.0 119.579211,23.676324,0.0 119.578663,23.676326,0.0 119.578723,23.675951,0.0 119.578187,23.675055,0.0 119.576896,23.674062,0.0 119.575986,23.673812,0.0 119.574518,23.673224,0.0 119.573211,23.673046,0.0 119.57237,23.672586,0.0 119.571864,23.672308,0.0 119.570659,23.672159,0.0 119.569526,23.672454,0.0 119.570759,23.671475,0.0 119.570177,23.670861,0.0 119.569765,23.670752,0.0 119.568987,23.671522,0.0 119.568347,23.671799,0.0 119.56659,23.671334,0.0 119.564932,23.670913,0.0 119.563804,23.67086,0.0 119.562255,23.670841,0.0 119.560757,23.670805,0.0 119.55966,23.670229,0.0 119.558641,23.669856,0.0 119.556991,23.668979,0.0 119.56101,23.660444,0.0 119.570756,23.662133,0.0</coordinates></LinearRing></outerBoundaryIs></Polygon><styleUrl>#spolygon-map</styleUrl></Placemark><Placemark><MultiGeometry><Polygon><outerBoundaryIs><LinearRing><coordinates>119.633896,23.643026,0.0 119.633842,23.644518,0.0 119.63414,23.646877,0.0 119.635294,23.647541,0.0 119.636012,23.648797,0.0 119.636656,23.649752,0.0 119.636793,23.650559,0.0 119.63631,23.651258,0.0 119.634967,23.65136,0.0 119.63438,23.651663,0.0 119.63302,23.651986,0.0 119.631949,23.650851,0.0 119.631586,23.649471,0.0 119.63158,23.648167,0.0 119.629472,23.64688,0.0 119.631489,23.647705,0.0 119.631632,23.647138,0.0 119.631566,23.64596,0.0 119.631442,23.645886,0.0 119.630655,23.644781,0.0 119.631844,23.645742,0.0 119.632417,23.646451,0.0 119.633802,23.643081,0.0 119.633896,23.643026,0.0</coordinates></LinearRing></outerBoundaryIs></Polygon><Polygon><outerBoundaryIs><LinearRing><coordinates>119.638317,23.658092,0.0 119.639253,23.659386,0.0 119.641384,23.659849,0.0 119.642919,23.660209,0.0 119.644384,23.660158,0.0 119.645328,23.660132,0.0 119.643874,23.660289,0.0 119.642563,23.660461,0.0 119.640277,23.660576,0.0 119.638765,23.65944,0.0 119.638169,23.65819,0.0 119.638317,23.658092,0.0</coordinates></LinearRing></outerBoundaryIs></Polygon><Polygon><outerBoundaryIs><LinearRing><coordinates>119.63026,23.642494,0.0 119.630288,23.64233,0.0 119.63026,23.642494,0.0</coordinates></LinearRing></outerBoundaryIs></Polygon><Polygon><outerBoundaryIs><LinearRing><coordinates>119.631463,23.641024,0.0 119.63087,23.641035,0.0 119.631463,23.641024,0.0</coordinates></LinearRing></outerBoundaryIs></Polygon><Polygon><outerBoundaryIs><LinearRing><coordinates>119.630023,23.641337,0.0 119.62974,23.64077,0.0 119.630555,23.641116,0.0 119.630023,23.641337,0.0</coordinates></LinearRing></outerBoundaryIs></Polygon></MultiGeometry><styleUrl>#spolygon-map</styleUrl></Placemark><Placemark><MultiGeometry><Polygon><outerBoundaryIs><LinearRing><coordinates>119.547724,23.653398,0.0 119.548456,23.653472,0.0 119.548593,23.653914,0.0 119.548111,23.654452,0.0 119.547637,23.654361,0.0 119.547734,23.653698,0.0 119.547724,23.653398,0.0</coordinates></LinearRing></outerBoundaryIs></Polygon><Polygon><outerBoundaryIs><LinearRing><coordinates>119.556294,23.673486,0.0 119.55658,23.674902,0.0 119.556804,23.675716,0.0 119.555817,23.676739,0.0 119.554896,23.676539,0.0 119.554377,23.676365,0.0 119.554146,23.675831,0.0 119.554302,23.674817,0.0 119.555118,23.673747,0.0 119.556294,23.673486,0.0</coordinates></LinearRing></outerBoundaryIs></Polygon><Polygon><outerBoundaryIs><LinearRing><coordinates>119.564961,23.693666,0.0 119.565513,23.694325,0.0 119.565167,23.694895,0.0 119.564539,23.69521,0.0 119.564131,23.695415,0.0 119.563804,23.695709,0.0 119.563637,23.69511,0.0 119.564402,23.694252,0.0 119.564806,23.693998,0.0 119.564961,23.693666,0.0</coordinates></LinearRing></outerBoundaryIs></Polygon><Polygon><outerBoundaryIs><LinearRing><coordinates>119.549603,23.653082,0.0 119.54934,23.653322,0.0 119.549603,23.653082,0.0</coordinates></LinearRing></outerBoundaryIs></Polygon><Polygon><outerBoundaryIs><LinearRing><coordinates>119.545076,23.648781,0.0 119.544979,23.649,0.0 119.545076,23.648781,0.0</coordinates></LinearRing></outerBoundaryIs></Polygon><Polygon><outerBoundaryIs><LinearRing><coordinates>119.547442,23.652207,0.0 119.547397,23.652214,0.0 119.547442,23.652207,0.0</coordinates></LinearRing></outerBoundaryIs></Polygon><Polygon><outerBoundaryIs><LinearRing><coordinates>119.549031,23.663049,0.0 119.548644,23.663917,0.0 119.548431,23.663703,0.0 119.548867,23.663192,0.0 119.549031,23.663049,0.0</coordinates></LinearRing></outerBoundaryIs></Polygon><Polygon><outerBoundaryIs><LinearRing><coordinates>119.545433,23.649844,0.0 119.54544,23.650287,0.0 119.545219,23.65054,0.0 119.544923,23.649945,0.0 119.545433,23.649844,0.0</coordinates></LinearRing></outerBoundaryIs></Polygon><Polygon><outerBoundaryIs><LinearRing><coordinates>119.544361,23.648566,0.0 119.544878,23.649406,0.0 119.54456,23.650163,0.0 119.543779,23.649593,0.0 119.544236,23.648912,0.0 119.544361,23.648566,0.0</coordinates></LinearRing></outerBoundaryIs></Polygon><Polygon><outerBoundaryIs><LinearRing><coordinates>119.559617,23.693461,0.0 119.559563,23.694357,0.0 119.559617,23.693461,0.0</coordinates></LinearRing></outerBoundaryIs></Polygon><Polygon><outerBoundaryIs><LinearRing><coordinates>119.543485,23.648051,0.0 119.543994,23.647669,0.0 119.544236,23.647982,0.0 119.543747,23.648208,0.0 119.543485,23.648051,0.0</coordinates></LinearRing></outerBoundaryIs></Polygon><Polygon><outerBoundaryIs><LinearRing><coordinates>119.554385,23.669157,0.0 119.554411,23.669421,0.0 119.55428,23.669521,0.0 119.554385,23.669157,0.0</coordinates></LinearRing></outerBoundaryIs></Polygon><Polygon><outerBoundaryIs><LinearRing><coordinates>119.559533,23.693118,0.0 119.559482,23.693152,0.0 119.559533,23.693118,0.0</coordinates></LinearRing></outerBoundaryIs></Polygon><Polygon><outerBoundaryIs><LinearRing><coordinates>119.557186,23.690903,0.0 119.558015,23.691356,0.0 119.557866,23.691763,0.0 119.557664,23.69251,0.0 119.557107,23.69163,0.0 119.556795,23.691011,0.0 119.557186,23.690903,0.0</coordinates></LinearRing></outerBoundaryIs></Polygon><Polygon><outerBoundaryIs><LinearRing><coordinates>119.554859,23.668779,0.0 119.554929,23.669135,0.0 119.554602,23.66894,0.0 119.554859,23.668779,0.0</coordinates></LinearRing></outerBoundaryIs></Polygon><Polygon><outerBoundaryIs><LinearRing><coordinates>119.549175,23.653413,0.0 119.548855,23.653683,0.0 119.549047,23.653447,0.0 119.549175,23.653413,0.0</coordinates></LinearRing></outerBoundaryIs></Polygon><Polygon><outerBoundaryIs><LinearRing><coordinates>119.549021,23.65393,0.0 119.548915,23.653976,0.0 119.549021,23.65393,0.0</coordinates></LinearRing></outerBoundaryIs></Polygon><Polygon><outerBoundaryIs><LinearRing><coordinates>119.556276,23.668766,0.0 119.554892,23.668393,0.0 119.553827,23.666544,0.0 119.552793,23.665388,0.0 119.552405,23.663757,0.0 119.550797,23.662783,0.0 119.551167,23.661735,0.0 119.551953,23.660218,0.0 119.550511,23.657838,0.0 119.552483,23.658682,0.0 119.553723,23.65838,0.0 119.553347,23.657201,0.0 119.552389,23.65576,0.0 119.546728,23.649048,0.0 119.544968,23.646558,0.0 119.546423,23.648447,0.0 119.55462,23.656617,0.0 119.554073,23.65721,0.0 119.555013,23.656701,0.0 119.555947,23.65638,0.0 119.556848,23.655799,0.0 119.557851,23.655866,0.0 119.556439,23.655674,0.0 119.558071,23.655294,0.0 119.560818,23.653791,0.0 119.562103,23.652739,0.0 119.563019,23.651606,0.0 119.563577,23.651947,0.0 119.564454,23.65344,0.0 119.564908,23.654957,0.0 119.566577,23.65603,0.0 119.566604,23.656571,0.0 119.566687,23.657875,0.0 119.566832,23.658525,0.0 119.567266,23.659814,0.0 119.569077,23.660958,0.0 119.570022,23.661697,0.0 119.56101,23.660444,0.0 119.556276,23.668766,0.0</coordinates></LinearRing></outerBoundaryIs></Polygon><Polygon><outerBoundaryIs><LinearRing><coordinates>119.558079,23.688161,0.0 119.557912,23.688906,0.0 119.558061,23.690146,0.0 119.557754,23.690412,0.0 119.557006,23.689796,0.0 119.556563,23.689574,0.0 119.556911,23.689128,0.0 119.557683,23.688381,0.0 119.558079,23.688161,0.0</coordinates></LinearRing></outerBoundaryIs></Polygon></MultiGeometry><styleUrl>#spolygon-map</styleUrl></Placemark><Placemark><MultiGeometry><Polygon><outerBoundaryIs><LinearRing><coordinates>119.669976,23.692863,0.0 119.670445,23.69301,0.0 119.670716,23.693291,0.0 119.670857,23.693595,0.0 119.670715,23.693835,0.0 119.670254,23.693715,0.0 119.669979,23.69324,0.0 119.66959,23.692973,0.0 119.669845,23.692929,0.0 119.669976,23.692863,0.0</coordinates></LinearRing></outerBoundaryIs></Polygon><Polygon><outerBoundaryIs><LinearRing><coordinates>119.655857,23.684928,0.0 119.655885,23.685174,0.0 119.655857,23.684928,0.0</coordinates></LinearRing></outerBoundaryIs></Polygon><Polygon><outerBoundaryIs><LinearRing><coordinates>119.65511,23.684759,0.0 119.655038,23.684877,0.0 119.65511,23.684759,0.0</coordinates></LinearRing></outerBoundaryIs></Polygon><Polygon><outerBoundaryIs><LinearRing><coordinates>119.654661,23.684709,0.0 119.654651,23.684782,0.0 119.654661,23.684709,0.0</coordinates></LinearRing></outerBoundaryIs></Polygon><Polygon><outerBoundaryIs><LinearRing><coordinates>119.655512,23.658297,0.0 119.657219,23.659226,0.0 119.662085,23.659075,0.0 119.663652,23.658839,0.0 119.663874,23.659244,0.0 119.664753,23.659938,0.0 119.666373,23.659798,0.0 119.666621,23.660375,0.0 119.667314,23.66046,0.0 119.667254,23.660686,0.0 119.666348,23.660608,0.0 119.665546,23.660666,0.0 119.665774,23.661414,0.0 119.666256,23.661818,0.0 119.666285,23.662236,0.0 119.666001,23.662476,0.0 119.665436,23.662792,0.0 119.665403,23.663239,0.0 119.665318,23.664142,0.0 119.666047,23.664477,0.0 119.665557,23.665026,0.0 119.665282,23.665516,0.0 119.665817,23.665841,0.0 119.66565,23.666896,0.0 119.666407,23.667096,0.0 119.666888,23.667329,0.0 119.666325,23.667696,0.0 119.666217,23.667954,0.0 119.666726,23.668415,0.0 119.66725,23.668794,0.0 119.666512,23.668838,0.0 119.665524,23.669365,0.0 119.665008,23.669277,0.0 119.665222,23.669976,0.0 119.66434,23.669679,0.0 119.664117,23.670064,0.0 119.66362,23.669838,0.0 119.6634,23.668828,0.0 119.663195,23.668068,0.0 119.663569,23.667071,0.0 119.663506,23.66653,0.0 119.662988,23.666534,0.0 119.662414,23.665481,0.0 119.662301,23.664723,0.0 119.661571,23.663503,0.0 119.660424,23.662903,0.0 119.658949,23.662832,0.0 119.657753,23.662708,0.0 119.655579,23.659359,0.0 119.65602,23.660605,0.0 119.658694,23.660872,0.0 119.65811,23.659444,0.0 119.655512,23.658297,0.0</coordinates></LinearRing></outerBoundaryIs></Polygon><Polygon><outerBoundaryIs><LinearRing><coordinates>119.668608,23.673534,0.0 119.669073,23.673584,0.0 119.669614,23.673853,0.0 119.670104,23.673981,0.0 119.670675,23.673993,0.0 119.671261,23.674268,0.0 119.67105,23.674451,0.0 119.671245,23.674776,0.0 119.671486,23.67433,0.0 119.672194,23.674406,0.0 119.672617,23.674765,0.0 119.672758,23.67523,0.0 119.672438,23.675666,0.0 119.67193,23.675933,0.0 119.671457,23.676081,0.0 119.670961,23.675966,0.0 119.67089,23.676278,0.0 119.67059,23.676006,0.0 119.670167,23.675583,0.0 119.670005,23.675385,0.0 119.669548,23.675173,0.0 119.669137,23.674371,0.0 119.668742,23.67394,0.0 119.668608,23.673534,0.0</coordinates></LinearRing></outerBoundaryIs></Polygon><Polygon><outerBoundaryIs><LinearRing><coordinates>119.65397,23.68459,0.0 119.653939,23.684629,0.0 119.65397,23.68459,0.0</coordinates></LinearRing></outerBoundaryIs></Polygon><Polygon><outerBoundaryIs><LinearRing><coordinates>119.644854,23.675205,0.0 119.644573,23.675543,0.0 119.644085,23.675797,0.0 119.643527,23.675536,0.0 119.644335,23.675352,0.0 119.644854,23.675205,0.0</coordinates></LinearRing></outerBoundaryIs></Polygon><Polygon><outerBoundaryIs><LinearRing><coordinates>119.654814,23.688599,0.0 119.655021,23.688899,0.0 119.654584,23.688979,0.0 119.654642,23.688674,0.0 119.654814,23.688599,0.0</coordinates></LinearRing></outerBoundaryIs></Polygon><Polygon><outerBoundaryIs><LinearRing><coordinates>119.65163,23.688535,0.0 119.651808,23.68876,0.0 119.651984,23.689017,0.0 119.652297,23.688894,0.0 119.652383,23.689451,0.0 119.652236,23.68983,0.0 119.651782,23.689979,0.0 119.651534,23.68993,0.0 119.651265,23.689972,0.0 119.650601,23.689801,0.0 119.651018,23.689273,0.0 119.651519,23.688818,0.0 119.65163,23.688535,0.0</coordinates></LinearRing></outerBoundaryIs></Polygon><Polygon><outerBoundaryIs><LinearRing><coordinates>119.669907,23.687976,0.0 119.669888,23.688474,0.0 119.669878,23.687989,0.0 119.669907,23.687976,0.0</coordinates></LinearRing></outerBoundaryIs></Polygon><Polygon><outerBoundaryIs><LinearRing><coordinates>119.672457,23.68977,0.0 119.672406,23.690206,0.0 119.672245,23.690132,0.0 119.672457,23.68977,0.0</coordinates></LinearRing></outerBoundaryIs></Polygon><Polygon><outerBoundaryIs><LinearRing><coordinates>119.672278,23.690444,0.0 119.672278,23.690444,0.0</coordinates></LinearRing></outerBoundaryIs></Polygon><Polygon><outerBoundaryIs><LinearRing><coordinates>119.672117,23.69053,0.0 119.672117,23.69053,0.0</coordinates></LinearRing></outerBoundaryIs></Polygon><Polygon><outerBoundaryIs><LinearRing><coordinates>119.671464,23.682012,0.0 119.672075,23.682625,0.0 119.672009,23.683381,0.0 119.671954,23.683652,0.0 119.671276,23.684084,0.0 119.671059,23.684405,0.0 119.671674,23.684676,0.0 119.671801,23.685215,0.0 119.672069,23.685606,0.0 119.672286,23.685903,0.0 119.672448,23.686295,0.0 119.672064,23.68689,0.0 119.672286,23.687329,0.0 119.671751,23.687307,0.0 119.67176,23.687661,0.0 119.672186,23.68805,0.0 119.672391,23.688584,0.0 119.672487,23.688906,0.0 119.671988,23.689274,0.0 119.672237,23.689787,0.0 119.672065,23.690023,0.0 119.671461,23.690774,0.0 119.670986,23.690722,0.0 119.670549,23.690652,0.0 119.67112,23.690268,0.0 119.671198,23.689895,0.0 119.671332,23.689529,0.0 119.671431,23.689396,0.0 119.670923,23.689082,0.0 119.671267,23.688708,0.0 119.671014,23.688558,0.0 119.670538,23.688456,0.0 119.670635,23.687964,0.0 119.670503,23.687635,0.0 119.670795,23.687503,0.0 119.670193,23.687636,0.0 119.669527,23.687476,0.0 119.670156,23.686506,0.0 119.670436,23.68587,0.0 119.670628,23.685204,0.0 119.670799,23.68474,0.0 119.670178,23.684784,0.0 119.670174,23.684086,0.0 119.67023,23.683745,0.0 119.670581,23.683033,0.0 119.670869,23.68298,0.0 119.671113,23.682821,0.0 119.671657,23.682552,0.0 119.671464,23.682012,0.0</coordinates></LinearRing></outerBoundaryIs></Polygon><Polygon><outerBoundaryIs><LinearRing><coordinates>119.655183,23.685037,0.0 119.655271,23.685226,0.0 119.654938,23.685241,0.0 119.65506,23.68508,0.0 119.655183,23.685037,0.0</coordinates></LinearRing></outerBoundaryIs></Polygon><Polygon><outerBoundaryIs><LinearRing><coordinates>119.642444,23.673482,0.0 119.643367,23.67376,0.0 119.643389,23.674022,0.0 119.642453,23.673904,0.0 119.642431,23.673667,0.0 119.642444,23.673482,0.0</coordinates></LinearRing></outerBoundaryIs></Polygon><Polygon><outerBoundaryIs><LinearRing><coordinates>119.670735,23.690854,0.0 119.670734,23.691258,0.0 119.67074,23.691639,0.0 119.670521,23.691778,0.0 119.67023,23.691348,0.0 119.670317,23.691228,0.0 119.670571,23.691265,0.0 119.67047,23.6909,0.0 119.670735,23.690854,0.0</coordinates></LinearRing></outerBoundaryIs></Polygon><Polygon><outerBoundaryIs><LinearRing><coordinates>119.654378,23.684981,0.0 119.65453,23.685317,0.0 119.654378,23.684981,0.0</coordinates></LinearRing></outerBoundaryIs></Polygon><Polygon><outerBoundaryIs><LinearRing><coordinates>119.658008,23.676294,0.0 119.657805,23.676645,0.0 119.657067,23.678322,0.0 119.656831,23.678924,0.0 119.656842,23.678628,0.0 119.657774,23.676526,0.0 119.658008,23.676294,0.0</coordinates></LinearRing></outerBoundaryIs></Polygon><Polygon><outerBoundaryIs><LinearRing><coordinates>119.654048,23.685086,0.0 119.654074,23.68533,0.0 119.654048,23.685086,0.0</coordinates></LinearRing></outerBoundaryIs></Polygon><Polygon><outerBoundaryIs><LinearRing><coordinates>119.652408,23.690787,0.0 119.652794,23.69178,0.0 119.65295,23.69254,0.0 119.652202,23.693123,0.0 119.651875,23.693618,0.0 119.65082,23.693713,0.0 119.649468,23.693333,0.0 119.650263,23.692831,0.0 119.650438,23.692279,0.0 119.650435,23.691893,0.0 119.650917,23.691889,0.0 119.651401,23.692167,0.0 119.651649,23.691986,0.0 119.651778,23.691448,0.0 119.652216,23.690862,0.0 119.652408,23.690787,0.0</coordinates></LinearRing></outerBoundaryIs></Polygon><Polygon><outerBoundaryIs><LinearRing><coordinates>119.654272,23.684474,0.0 119.654218,23.684673,0.0 119.654272,23.684474,0.0</coordinates></LinearRing></outerBoundaryIs></Polygon></MultiGeometry><styleUrl>#spolygon-map</styleUrl></Placemark><Placemark><MultiGeometry><Polygon><outerBoundaryIs><LinearRing><coordinates>119.600593,23.645906,0.0 119.600664,23.646391,0.0 119.600819,23.647668,0.0 119.60068,23.648145,0.0 119.601261,23.648206,0.0 119.601758,23.647983,0.0 119.602357,23.64873,0.0 119.60368,23.649587,0.0 119.604361,23.653174,0.0 119.591329,23.646866,0.0 119.600593,23.645906,0.0</coordinates></LinearRing></outerBoundaryIs></Polygon><Polygon><outerBoundaryIs><LinearRing><coordinates>119.587869,23.639571,0.0 119.588051,23.640011,0.0 119.58817,23.640683,0.0 119.588055,23.640787,0.0 119.587233,23.640763,0.0 119.587308,23.640309,0.0 119.587262,23.639885,0.0 119.587404,23.639632,0.0 119.587784,23.639576,0.0 119.587869,23.639571,0.0</coordinates></LinearRing></outerBoundaryIs></Polygon></MultiGeometry><styleUrl>#spolygon-map</styleUrl></Placemark><Placemark><MultiGeometry><Polygon><outerBoundaryIs><LinearRing><coordinates>119.610147,23.712614,0.0 119.610209,23.712977,0.0 119.61008,23.713122,0.0 119.609818,23.712886,0.0 119.610103,23.712634,0.0 119.610147,23.712614,0.0</coordinates></LinearRing></outerBoundaryIs></Polygon><Polygon><outerBoundaryIs><LinearRing><coordinates>119.612499,23.71418,0.0 119.613093,23.714699,0.0 119.61306,23.714993,0.0 119.613134,23.715153,0.0 119.613357,23.71542,0.0 119.612934,23.715417,0.0 119.612754,23.715122,0.0 119.61244,23.714765,0.0 119.612455,23.714207,0.0 119.612499,23.71418,0.0</coordinates></LinearRing></outerBoundaryIs></Polygon><Polygon><outerBoundaryIs><LinearRing><coordinates>119.609389,23.713476,0.0 119.60923,23.713705,0.0 119.609389,23.713476,0.0</coordinates></LinearRing></outerBoundaryIs></Polygon><Polygon><outerBoundaryIs><LinearRing><coordinates>119.61207,23.715181,0.0 119.612319,23.715381,0.0 119.612513,23.715787,0.0 119.611891,23.715694,0.0 119.611761,23.715438,0.0 119.611998,23.715195,0.0 119.61207,23.715181,0.0</coordinates></LinearRing></outerBoundaryIs></Polygon><Polygon><outerBoundaryIs><LinearRing><coordinates>119.611396,23.71552,0.0 119.611607,23.715625,0.0 119.61184,23.71592,0.0 119.611365,23.716168,0.0 119.611155,23.716311,0.0 119.610806,23.71636,0.0 119.61065,23.716256,0.0 119.611088,23.716126,0.0 119.611134,23.715896,0.0 119.611396,23.71552,0.0</coordinates></LinearRing></outerBoundaryIs></Polygon><Polygon><outerBoundaryIs><LinearRing><coordinates>119.608314,23.710251,0.0 119.609369,23.710457,0.0 119.608818,23.710502,0.0 119.60813,23.710335,0.0 119.608314,23.710251,0.0</coordinates></LinearRing></outerBoundaryIs></Polygon><Polygon><outerBoundaryIs><LinearRing><coordinates>119.609521,23.708994,0.0 119.609857,23.709463,0.0 119.609693,23.709969,0.0 119.610073,23.710294,0.0 119.610348,23.710454,0.0 119.610859,23.710436,0.0 119.611305,23.71066,0.0 119.61183,23.710866,0.0 119.612177,23.710939,0.0 119.612639,23.710176,0.0 119.61234,23.710897,0.0 119.612276,23.711182,0.0 119.612308,23.711401,0.0 119.61172,23.7112,0.0 119.611542,23.711686,0.0 119.611459,23.711016,0.0 119.610979,23.710891,0.0 119.610573,23.710924,0.0 119.610293,23.710501,0.0 119.609502,23.709985,0.0 119.609695,23.709599,0.0 119.609363,23.709273,0.0 119.609521,23.708994,0.0</coordinates></LinearRing></outerBoundaryIs></Polygon><Polygon><outerBoundaryIs><LinearRing><coordinates>119.60988,23.713127,0.0 119.61026,23.713349,0.0 119.610032,23.713625,0.0 119.609619,23.713428,0.0 119.609859,23.713129,0.0 119.60988,23.713127,0.0</coordinates></LinearRing></outerBoundaryIs></Polygon><Polygon><outerBoundaryIs><LinearRing><coordinates>119.607951,23.710616,0.0 119.609317,23.710733,0.0 119.610099,23.711039,0.0 119.60969,23.712011,0.0 119.609069,23.71325,0.0 119.608555,23.713671,0.0 119.607737,23.712925,0.0 119.606915,23.711495,0.0 119.607951,23.710616,0.0</coordinates></LinearRing></outerBoundaryIs></Polygon></MultiGeometry><styleUrl>#spolygon-map</styleUrl></Placemark><Placemark><MultiGeometry><Polygon><outerBoundaryIs><LinearRing><coordinates>119.6083,23.637411,0.0 119.608077,23.637737,0.0 119.607999,23.63771,0.0 119.607972,23.637606,0.0 119.6083,23.637411,0.0</coordinates></LinearRing></outerBoundaryIs></Polygon><Polygon><outerBoundaryIs><LinearRing><coordinates>119.604914,23.638888,0.0 119.60515,23.63895,0.0 119.604999,23.639064,0.0 119.604846,23.638929,0.0 119.604914,23.638888,0.0</coordinates></LinearRing></outerBoundaryIs></Polygon><Polygon><outerBoundaryIs><LinearRing><coordinates>119.598005,23.638435,0.0 119.595126,23.636787,0.0 119.595785,23.635059,0.0 119.595443,23.633363,0.0 119.594921,23.632593,0.0 119.594539,23.63222,0.0 119.593159,23.631277,0.0 119.592537,23.630955,0.0 119.591334,23.630045,0.0 119.590644,23.629438,0.0 119.59101,23.629155,0.0 119.591222,23.628125,0.0 119.590039,23.626735,0.0 119.589283,23.625426,0.0 119.589363,23.623892,0.0 119.588543,23.622976,0.0 119.588989,23.622539,0.0 119.590258,23.622701,0.0 119.59115,23.62396,0.0 119.591893,23.625063,0.0 119.599387,23.628391,0.0 119.60253,23.624295,0.0 119.603619,23.624448,0.0 119.604302,23.625112,0.0 119.605337,23.621032,0.0 119.605466,23.622564,0.0 119.60464,23.625225,0.0 119.603643,23.626709,0.0 119.603195,23.627433,0.0 119.602596,23.628135,0.0 119.602274,23.6287,0.0 119.602464,23.629322,0.0 119.603166,23.629379,0.0 119.60384,23.629791,0.0 119.603686,23.630252,0.0 119.603564,23.630903,0.0 119.604376,23.630796,0.0 119.604182,23.631532,0.0 119.604513,23.631678,0.0 119.605434,23.631909,0.0 119.606392,23.632548,0.0 119.607744,23.632421,0.0 119.609323,23.632698,0.0 119.610072,23.633658,0.0 119.610002,23.634762,0.0 119.61017,23.635646,0.0 119.609841,23.635683,0.0 119.608789,23.635371,0.0 119.607434,23.636548,0.0 119.606412,23.636439,0.0 119.605594,23.635295,0.0 119.604692,23.634904,0.0 119.604685,23.634281,0.0 119.603702,23.633802,0.0 119.60245,23.633748,0.0 119.601071,23.634746,0.0 119.601896,23.638175,0.0 119.598005,23.638435,0.0</coordinates></LinearRing></outerBoundaryIs></Polygon><Polygon><outerBoundaryIs><LinearRing><coordinates>119.617368,23.63011,0.0 119.617252,23.630192,0.0 119.617368,23.63011,0.0</coordinates></LinearRing></outerBoundaryIs></Polygon></MultiGeometry><styleUrl>#spolygon-map</styleUrl></Placemark><Placemark><Polygon><outerBoundaryIs><LinearRing><coordinates>119.590001,23.645509,0.0 119.588165,23.644792,0.0 119.588069,23.644131,0.0 119.589433,23.644169,0.0 119.59099,23.64308,0.0 119.592511,23.642447,0.0 119.594435,23.640714,0.0 119.594619,23.639199,0.0 119.594778,23.63789,0.0 119.59865,23.641506,0.0 119.60185,23.642657,0.0 119.601687,23.643592,0.0 119.600669,23.644631,0.0 119.600469,23.645397,0.0 119.590001,23.645509,0.0</coordinates></LinearRing></outerBoundaryIs></Polygon><styleUrl>#spolygon-map</styleUrl></Placemark><Placemark><Polygon><outerBoundaryIs><LinearRing><coordinates>119.566715,23.710532,0.0 119.567407,23.712125,0.0 119.566774,23.712118,0.0 119.565911,23.712365,0.0 119.565425,23.712646,0.0 119.566144,23.710879,0.0 119.566715,23.710532,0.0</coordinates></LinearRing></outerBoundaryIs></Polygon><styleUrl>#spolygon-map</styleUrl></Placemark></Document>
</kml>
