<?xml version="1.0" encoding="UTF-8"?>
<kml xmlns="http://www.opengis.net/kml/2.2">
	<Document>
		<name>澎湖縣湖西鄉</name>
		<Style id="spolygon">
			<LabelStyle>
				<scale>0.0</scale>
			</LabelStyle>
			<LineStyle>
				<color>330030ff</color>
				<width>0</width>
			</LineStyle>
			<PolyStyle>
				<color>330030ff</color>
			</PolyStyle>
		</Style>
		<StyleMap id="spolygon-map">
			<Pair>
				<key>normal</key>
				<styleUrl>#spolygon</styleUrl>
			</Pair>
		</StyleMap>
	<Placemark><Polygon><outerBoundaryIs><LinearRing><coordinates>119.655574,23.598741,0.0 119.654348,23.597785,0.0 119.650986,23.590916,0.0 119.652872,23.591109,0.0 119.658539,23.591916,0.0 119.659713,23.594006,0.0 119.660618,23.594792,0.0 119.662336,23.594509,0.0 119.662075,23.59642,0.0 119.65643,23.598429,0.0 119.655574,23.598741,0.0</coordinates></LinearRing></outerBoundaryIs></Polygon><styleUrl>#spolygon-map</styleUrl></Placemark><Placemark><MultiGeometry><Polygon><outerBoundaryIs><LinearRing><coordinates>119.659582,23.556132,0.0 119.660316,23.555021,0.0 119.659776,23.556153,0.0 119.659582,23.556132,0.0</coordinates></LinearRing></outerBoundaryIs></Polygon><Polygon><outerBoundaryIs><LinearRing><coordinates>119.660992,23.559645,0.0 119.661083,23.55826,0.0 119.661804,23.557389,0.0 119.66185,23.558547,0.0 119.661257,23.559526,0.0 119.660992,23.559645,0.0</coordinates></LinearRing></outerBoundaryIs></Polygon><Polygon><outerBoundaryIs><LinearRing><coordinates>119.662336,23.557758,0.0 119.662645,23.556815,0.0 119.662336,23.557758,0.0</coordinates></LinearRing></outerBoundaryIs></Polygon><Polygon><outerBoundaryIs><LinearRing><coordinates>119.662798,23.559701,0.0 119.662694,23.558579,0.0 119.663164,23.55846,0.0 119.663573,23.557797,0.0 119.664033,23.557624,0.0 119.662955,23.559673,0.0 119.662798,23.559701,0.0</coordinates></LinearRing></outerBoundaryIs></Polygon><Polygon><outerBoundaryIs><LinearRing><coordinates>119.662688,23.574045,0.0 119.655959,23.567875,0.0 119.655236,23.560941,0.0 119.657859,23.560597,0.0 119.661721,23.560509,0.0 119.669494,23.556881,0.0 119.668231,23.561016,0.0 119.668031,23.562197,0.0 119.669307,23.56117,0.0 119.669148,23.568841,0.0 119.668131,23.5733,0.0 119.665409,23.573923,0.0 119.662688,23.574045,0.0</coordinates></LinearRing></outerBoundaryIs></Polygon><Polygon><outerBoundaryIs><LinearRing><coordinates>119.664076,23.560003,0.0 119.664383,23.55878,0.0 119.664358,23.557758,0.0 119.665002,23.557032,0.0 119.665145,23.558189,0.0 119.664544,23.559521,0.0 119.664076,23.560003,0.0</coordinates></LinearRing></outerBoundaryIs></Polygon></MultiGeometry><styleUrl>#spolygon-map</styleUrl></Placemark><Placemark><Polygon><outerBoundaryIs><LinearRing><coordinates>119.626125,23.582868,0.0 119.621487,23.582092,0.0 119.615826,23.578972,0.0 119.611328,23.578908,0.0 119.61106,23.575718,0.0 119.610954,23.573121,0.0 119.610976,23.571144,0.0 119.610906,23.570061,0.0 119.614099,23.568892,0.0 119.6202,23.571712,0.0 119.621848,23.573644,0.0 119.624763,23.575253,0.0 119.626102,23.578265,0.0 119.624188,23.580542,0.0 119.624722,23.581237,0.0 119.626125,23.582868,0.0</coordinates></LinearRing></outerBoundaryIs></Polygon><styleUrl>#spolygon-map</styleUrl></Placemark><Placemark><Polygon><outerBoundaryIs><LinearRing><coordinates>119.628148,23.580443,0.0 119.632877,23.574454,0.0 119.6421,23.571538,0.0 119.645445,23.574839,0.0 119.6421,23.579188,0.0 119.642251,23.584055,0.0 119.640609,23.586191,0.0 119.638504,23.589312,0.0 119.634097,23.59152,0.0 119.634143,23.590313,0.0 119.633782,23.589222,0.0 119.63266,23.588421,0.0 119.632793,23.587716,0.0 119.63229,23.586682,0.0 119.63218,23.585606,0.0 119.6316,23.584438,0.0 119.631681,23.583381,0.0 119.630711,23.58271,0.0 119.629466,23.581984,0.0 119.629043,23.580783,0.0 119.628148,23.580443,0.0</coordinates></LinearRing></outerBoundaryIs></Polygon><styleUrl>#spolygon-map</styleUrl></Placemark><Placemark><Polygon><outerBoundaryIs><LinearRing><coordinates>119.617121,23.595533,0.0 119.624772,23.591649,0.0 119.624878,23.5934,0.0 119.625973,23.594562,0.0 119.626908,23.595006,0.0 119.627768,23.595603,0.0 119.627505,23.597057,0.0 119.626826,23.597944,0.0 119.626813,23.598488,0.0 119.62574,23.599546,0.0 119.625214,23.600318,0.0 119.625566,23.600786,0.0 119.626643,23.6017,0.0 119.626774,23.602406,0.0 119.626937,23.602881,0.0 119.627521,23.60359,0.0 119.628519,23.60371,0.0 119.630324,23.603085,0.0 119.629173,23.604118,0.0 119.629705,23.604511,0.0 119.630784,23.604035,0.0 119.63148,23.604628,0.0 119.630509,23.607626,0.0 119.626264,23.608045,0.0 119.624997,23.607325,0.0 119.625208,23.6091,0.0 119.619422,23.606992,0.0 119.620314,23.605904,0.0 119.619571,23.605721,0.0 119.621015,23.604689,0.0 119.617458,23.598693,0.0 119.617121,23.595533,0.0</coordinates></LinearRing></outerBoundaryIs></Polygon><styleUrl>#spolygon-map</styleUrl></Placemark><Placemark><Polygon><outerBoundaryIs><LinearRing><coordinates>119.675148,23.598493,0.0 119.675429,23.599101,0.0 119.675966,23.599408,0.0 119.676035,23.599602,0.0 119.676055,23.599733,0.0 119.675938,23.600013,0.0 119.675439,23.600293,0.0 119.67489,23.599677,0.0 119.674961,23.5993,0.0 119.674778,23.598662,0.0 119.675148,23.598493,0.0</coordinates></LinearRing></outerBoundaryIs></Polygon><styleUrl>#spolygon-map</styleUrl></Placemark><Placemark><Polygon><outerBoundaryIs><LinearRing><coordinates>119.624547,23.591314,0.0 119.616401,23.584366,0.0 119.614894,23.579052,0.0 119.620973,23.581778,0.0 119.625221,23.583212,0.0 119.627141,23.583469,0.0 119.625395,23.585423,0.0 119.624412,23.586458,0.0 119.623953,23.587588,0.0 119.624356,23.58834,0.0 119.62486,23.589167,0.0 119.62481,23.590388,0.0 119.624547,23.591314,0.0</coordinates></LinearRing></outerBoundaryIs></Polygon><styleUrl>#spolygon-map</styleUrl></Placemark><Placemark><Polygon><outerBoundaryIs><LinearRing><coordinates>119.646209,23.57285,0.0 119.639426,23.569727,0.0 119.638427,23.56756,0.0 119.639467,23.565764,0.0 119.640277,23.562724,0.0 119.63881,23.557905,0.0 119.641712,23.558403,0.0 119.645623,23.560437,0.0 119.650429,23.560713,0.0 119.653999,23.56094,0.0 119.655959,23.567875,0.0 119.650353,23.571861,0.0 119.646209,23.57285,0.0</coordinates></LinearRing></outerBoundaryIs></Polygon><styleUrl>#spolygon-map</styleUrl></Placemark><Placemark><MultiGeometry><Polygon><outerBoundaryIs><LinearRing><coordinates>119.660718,23.629077,0.0 119.662019,23.629529,0.0 119.661659,23.630086,0.0 119.660859,23.630523,0.0 119.660507,23.631199,0.0 119.660052,23.631772,0.0 119.659354,23.632113,0.0 119.658819,23.631698,0.0 119.65844,23.630666,0.0 119.659032,23.629952,0.0 119.659927,23.629998,0.0 119.660523,23.629504,0.0 119.660718,23.629077,0.0</coordinates></LinearRing></outerBoundaryIs></Polygon><Polygon><outerBoundaryIs><LinearRing><coordinates>119.655574,23.598741,0.0 119.655468,23.599477,0.0 119.655449,23.598852,0.0 119.655574,23.598741,0.0</coordinates></LinearRing></outerBoundaryIs></Polygon><Polygon><outerBoundaryIs><LinearRing><coordinates>119.648333,23.594072,0.0 119.651094,23.592484,0.0 119.650615,23.590687,0.0 119.6533,23.595079,0.0 119.655237,23.598659,0.0 119.654818,23.599351,0.0 119.654321,23.600597,0.0 119.65477,23.60064,0.0 119.655056,23.601501,0.0 119.655915,23.602008,0.0 119.657119,23.603226,0.0 119.656924,23.604646,0.0 119.656974,23.606099,0.0 119.656654,23.606967,0.0 119.655714,23.608104,0.0 119.654626,23.608672,0.0 119.65448,23.608817,0.0 119.653716,23.609017,0.0 119.652679,23.609438,0.0 119.651366,23.60994,0.0 119.650831,23.609843,0.0 119.65005,23.609517,0.0 119.648375,23.607871,0.0 119.64712,23.606541,0.0 119.649173,23.606898,0.0 119.650234,23.60813,0.0 119.650697,23.607248,0.0 119.650472,23.605699,0.0 119.650079,23.604227,0.0 119.648111,23.602949,0.0 119.648045,23.60275,0.0 119.646718,23.601264,0.0 119.646388,23.597537,0.0 119.646485,23.597,0.0 119.644454,23.596432,0.0 119.643713,23.595623,0.0 119.644349,23.594946,0.0 119.646547,23.594592,0.0 119.648097,23.594206,0.0 119.648333,23.594072,0.0</coordinates></LinearRing></outerBoundaryIs></Polygon></MultiGeometry><styleUrl>#spolygon-map</styleUrl></Placemark><Placemark><Polygon><outerBoundaryIs><LinearRing><coordinates>119.664143,23.590713,0.0 119.663502,23.583605,0.0 119.6675,23.58102,0.0 119.663573,23.575934,0.0 119.663385,23.573644,0.0 119.667378,23.573168,0.0 119.675092,23.58452,0.0 119.679642,23.586816,0.0 119.678306,23.589173,0.0 119.67631,23.588728,0.0 119.671252,23.591148,0.0 119.667544,23.591274,0.0 119.664143,23.590713,0.0</coordinates></LinearRing></outerBoundaryIs></Polygon><styleUrl>#spolygon-map</styleUrl></Placemark><Placemark><Polygon><outerBoundaryIs><LinearRing><coordinates>119.619966,23.5706,0.0 119.611205,23.569352,0.0 119.611164,23.567788,0.0 119.611338,23.566133,0.0 119.609884,23.564796,0.0 119.609327,23.564498,0.0 119.609812,23.563623,0.0 119.609034,23.56305,0.0 119.608743,23.562429,0.0 119.60909,23.56152,0.0 119.609515,23.560537,0.0 119.611446,23.559927,0.0 119.612595,23.559706,0.0 119.613968,23.558604,0.0 119.615378,23.557872,0.0 119.616965,23.558062,0.0 119.618,23.557765,0.0 119.619244,23.557839,0.0 119.620036,23.558953,0.0 119.620846,23.559826,0.0 119.622029,23.559544,0.0 119.62411,23.561262,0.0 119.632633,23.568427,0.0 119.620679,23.569309,0.0 119.619966,23.5706,0.0</coordinates></LinearRing></outerBoundaryIs></Polygon><styleUrl>#spolygon-map</styleUrl></Placemark><Placemark><Polygon><outerBoundaryIs><LinearRing><coordinates>119.724591,23.557289,0.0 119.72497,23.557371,0.0 119.725335,23.558087,0.0 119.725145,23.559049,0.0 119.724457,23.558813,0.0 119.723406,23.558847,0.0 119.722783,23.558432,0.0 119.72274,23.558058,0.0 119.723024,23.557901,0.0 119.723172,23.557625,0.0 119.723518,23.557729,0.0 119.724041,23.557704,0.0 119.724477,23.557454,0.0 119.724591,23.557289,0.0</coordinates></LinearRing></outerBoundaryIs></Polygon><styleUrl>#spolygon-map</styleUrl></Placemark><Placemark><Polygon><outerBoundaryIs><LinearRing><coordinates>119.726827,23.535129,0.0 119.727407,23.535347,0.0 119.726907,23.535623,0.0 119.726931,23.53597,0.0 119.726822,23.536081,0.0 119.72656,23.536383,0.0 119.726793,23.53674,0.0 119.7263,23.536959,0.0 119.725981,23.537022,0.0 119.725874,23.536799,0.0 119.725479,23.536889,0.0 119.724645,23.5365,0.0 119.724654,23.536145,0.0 119.724546,23.535913,0.0 119.724818,23.53603,0.0 119.725164,23.535694,0.0 119.725579,23.53587,0.0 119.725724,23.535795,0.0 119.725441,23.535521,0.0 119.72603,23.53534,0.0 119.72673,23.535457,0.0 119.726827,23.535129,0.0</coordinates></LinearRing></outerBoundaryIs></Polygon><styleUrl>#spolygon-map</styleUrl></Placemark><Placemark><Polygon><outerBoundaryIs><LinearRing><coordinates>119.650615,23.590687,0.0 119.651094,23.592484,0.0 119.648333,23.594072,0.0 119.646525,23.594481,0.0 119.644285,23.594833,0.0 119.642978,23.593997,0.0 119.642282,23.591844,0.0 119.643845,23.589347,0.0 119.644525,23.58929,0.0 119.643943,23.588733,0.0 119.643671,23.588838,0.0 119.643629,23.588438,0.0 119.643564,23.588269,0.0 119.643173,23.588214,0.0 119.641574,23.587778,0.0 119.64068,23.58762,0.0 119.640093,23.586832,0.0 119.639662,23.588391,0.0 119.641214,23.588825,0.0 119.640205,23.589553,0.0 119.638425,23.590734,0.0 119.637768,23.591003,0.0 119.637622,23.591676,0.0 119.638272,23.592634,0.0 119.639404,23.593621,0.0 119.64013,23.594195,0.0 119.640682,23.59543,0.0 119.641164,23.59629,0.0 119.640759,23.597303,0.0 119.640718,23.598587,0.0 119.639992,23.598691,0.0 119.639596,23.599334,0.0 119.638817,23.599321,0.0 119.637619,23.59912,0.0 119.63738,23.598742,0.0 119.637037,23.597667,0.0 119.635788,23.597148,0.0 119.634733,23.596789,0.0 119.633391,23.595896,0.0 119.633005,23.594679,0.0 119.632146,23.593812,0.0 119.632045,23.593487,0.0 119.633831,23.592219,0.0 119.638924,23.588994,0.0 119.640724,23.586114,0.0 119.642511,23.583918,0.0 119.642204,23.579004,0.0 119.646087,23.574101,0.0 119.649884,23.571813,0.0 119.650513,23.579738,0.0 119.65086,23.583483,0.0 119.650902,23.588384,0.0 119.650615,23.590687,0.0</coordinates></LinearRing></outerBoundaryIs></Polygon><styleUrl>#spolygon-map</styleUrl></Placemark><Placemark><MultiGeometry><Polygon><outerBoundaryIs><LinearRing><coordinates>119.660917,23.539604,0.0 119.661273,23.539781,0.0 119.661297,23.540392,0.0 119.660811,23.540331,0.0 119.660339,23.540222,0.0 119.659724,23.540193,0.0 119.660162,23.540031,0.0 119.659845,23.539838,0.0 119.660339,23.539805,0.0 119.660847,23.53964,0.0 119.660917,23.539604,0.0</coordinates></LinearRing></outerBoundaryIs></Polygon><Polygon><outerBoundaryIs><LinearRing><coordinates>119.659414,23.543058,0.0 119.659794,23.54314,0.0 119.66003,23.543484,0.0 119.660287,23.543664,0.0 119.660511,23.543936,0.0 119.660452,23.544293,0.0 119.660602,23.544558,0.0 119.66081,23.544896,0.0 119.660198,23.544756,0.0 119.659701,23.544623,0.0 119.659391,23.54441,0.0 119.659249,23.544131,0.0 119.659289,23.54386,0.0 119.6593,23.543648,0.0 119.659414,23.543058,0.0</coordinates></LinearRing></outerBoundaryIs></Polygon><Polygon><outerBoundaryIs><LinearRing><coordinates>119.659401,23.541657,0.0 119.659942,23.541928,0.0 119.659837,23.542212,0.0 119.659627,23.542649,0.0 119.659307,23.542411,0.0 119.658918,23.541943,0.0 119.659242,23.541682,0.0 119.659401,23.541657,0.0</coordinates></LinearRing></outerBoundaryIs></Polygon></MultiGeometry><styleUrl>#spolygon-map</styleUrl></Placemark><Placemark><Polygon><outerBoundaryIs><LinearRing><coordinates>119.612779,23.591319,0.0 119.607122,23.592671,0.0 119.606972,23.591765,0.0 119.607061,23.590776,0.0 119.607198,23.589453,0.0 119.607022,23.588353,0.0 119.606048,23.587065,0.0 119.607184,23.586125,0.0 119.606516,23.585355,0.0 119.606104,23.585393,0.0 119.606023,23.584516,0.0 119.60672,23.583015,0.0 119.60706,23.581578,0.0 119.608962,23.580966,0.0 119.610823,23.580393,0.0 119.611652,23.580035,0.0 119.615538,23.583457,0.0 119.61393,23.587476,0.0 119.612779,23.591319,0.0</coordinates></LinearRing></outerBoundaryIs></Polygon><styleUrl>#spolygon-map</styleUrl></Placemark><Placemark><Polygon><outerBoundaryIs><LinearRing><coordinates>119.659601,23.593058,0.0 119.656597,23.591681,0.0 119.650781,23.589673,0.0 119.650181,23.586496,0.0 119.651694,23.582523,0.0 119.650253,23.578776,0.0 119.654611,23.571977,0.0 119.660524,23.581674,0.0 119.662756,23.583581,0.0 119.663968,23.590055,0.0 119.659601,23.593058,0.0</coordinates></LinearRing></outerBoundaryIs></Polygon><styleUrl>#spolygon-map</styleUrl></Placemark><Placemark><Polygon><outerBoundaryIs><LinearRing><coordinates>119.662688,23.574045,0.0 119.664912,23.578668,0.0 119.667263,23.581764,0.0 119.66237,23.583716,0.0 119.659001,23.578194,0.0 119.658696,23.5718,0.0 119.662688,23.574045,0.0</coordinates></LinearRing></outerBoundaryIs></Polygon><styleUrl>#spolygon-map</styleUrl></Placemark><Placemark><MultiGeometry><Polygon><outerBoundaryIs><LinearRing><coordinates>119.672848,23.602109,0.0 119.673225,23.602548,0.0 119.673483,23.602648,0.0 119.674269,23.603437,0.0 119.675172,23.603469,0.0 119.675331,23.603263,0.0 119.675578,23.603262,0.0 119.675932,23.603202,0.0 119.676374,23.602843,0.0 119.676099,23.603133,0.0 119.675697,23.603589,0.0 119.675951,23.603583,0.0 119.676031,23.603605,0.0 119.675681,23.603733,0.0 119.675538,23.60389,0.0 119.675876,23.603931,0.0 119.676105,23.603702,0.0 119.676296,23.603803,0.0 119.676183,23.603918,0.0 119.676041,23.604138,0.0 119.676705,23.603914,0.0 119.676852,23.604094,0.0 119.677007,23.604323,0.0 119.677145,23.604348,0.0 119.677017,23.604842,0.0 119.676564,23.604953,0.0 119.675945,23.604969,0.0 119.675418,23.605364,0.0 119.675082,23.605072,0.0 119.674637,23.605383,0.0 119.674241,23.605472,0.0 119.673766,23.60542,0.0 119.673979,23.605169,0.0 119.674312,23.604779,0.0 119.675027,23.604867,0.0 119.675273,23.604588,0.0 119.674938,23.604495,0.0 119.674591,23.604469,0.0 119.673808,23.604777,0.0 119.673226,23.604809,0.0 119.672845,23.604765,0.0 119.672441,23.604832,0.0 119.671858,23.604952,0.0 119.672393,23.604451,0.0 119.67196,23.604184,0.0 119.672377,23.603894,0.0 119.672901,23.603862,0.0 119.673203,23.603401,0.0 119.673318,23.603089,0.0 119.67275,23.602419,0.0 119.672848,23.602109,0.0</coordinates></LinearRing></outerBoundaryIs></Polygon><Polygon><outerBoundaryIs><LinearRing><coordinates>119.674769,23.602537,0.0 119.674588,23.602921,0.0 119.674105,23.602957,0.0 119.673963,23.602822,0.0 119.674594,23.602652,0.0 119.674769,23.602537,0.0</coordinates></LinearRing></outerBoundaryIs></Polygon></MultiGeometry><styleUrl>#spolygon-map</styleUrl></Placemark><Placemark><Polygon><outerBoundaryIs><LinearRing><coordinates>119.678479,23.598335,0.0 119.679233,23.598404,0.0 119.678732,23.598557,0.0 119.678003,23.598605,0.0 119.678235,23.59839,0.0 119.678479,23.598335,0.0</coordinates></LinearRing></outerBoundaryIs></Polygon><styleUrl>#spolygon-map</styleUrl></Placemark><Placemark><Polygon><outerBoundaryIs><LinearRing><coordinates>119.633619,23.569317,0.0 119.624491,23.561797,0.0 119.622813,23.558496,0.0 119.622437,23.556848,0.0 119.62208,23.555554,0.0 119.624295,23.555495,0.0 119.625729,23.555479,0.0 119.626171,23.555456,0.0 119.627956,23.554793,0.0 119.629364,23.554363,0.0 119.630394,23.553702,0.0 119.632615,23.552798,0.0 119.634023,23.552147,0.0 119.634564,23.551287,0.0 119.635805,23.551905,0.0 119.637784,23.553025,0.0 119.638598,23.552952,0.0 119.63959,23.556205,0.0 119.638862,23.55802,0.0 119.639959,23.562973,0.0 119.639453,23.565904,0.0 119.6385,23.567797,0.0 119.633619,23.569317,0.0</coordinates></LinearRing></outerBoundaryIs></Polygon><styleUrl>#spolygon-map</styleUrl></Placemark><Placemark><Polygon><outerBoundaryIs><LinearRing><coordinates>119.613072,23.595833,0.0 119.612311,23.588576,0.0 119.61411,23.584647,0.0 119.622327,23.587491,0.0 119.615,23.595731,0.0 119.613072,23.595833,0.0</coordinates></LinearRing></outerBoundaryIs></Polygon><styleUrl>#spolygon-map</styleUrl></Placemark><Placemark><Polygon><outerBoundaryIs><LinearRing><coordinates>119.604681,23.602048,0.0 119.603931,23.601556,0.0 119.602949,23.600917,0.0 119.603736,23.599853,0.0 119.603148,23.598603,0.0 119.604485,23.597364,0.0 119.604453,23.596238,0.0 119.60523,23.596154,0.0 119.606484,23.596016,0.0 119.606266,23.595791,0.0 119.607288,23.593298,0.0 119.608989,23.591976,0.0 119.612969,23.591742,0.0 119.609876,23.599634,0.0 119.605166,23.601403,0.0 119.604681,23.602048,0.0</coordinates></LinearRing></outerBoundaryIs></Polygon><styleUrl>#spolygon-map</styleUrl></Placemark><Placemark><MultiGeometry><Polygon><outerBoundaryIs><LinearRing><coordinates>119.699452,23.61573,0.0 119.699434,23.616298,0.0 119.698915,23.61684,0.0 119.698724,23.617155,0.0 119.698575,23.617455,0.0 119.698059,23.617329,0.0 119.697934,23.616916,0.0 119.697624,23.616442,0.0 119.697688,23.616067,0.0 119.698034,23.616029,0.0 119.698621,23.615898,0.0 119.698795,23.616292,0.0 119.699257,23.615843,0.0 119.699452,23.61573,0.0</coordinates></LinearRing></outerBoundaryIs></Polygon><Polygon><outerBoundaryIs><LinearRing><coordinates>119.699701,23.617143,0.0 119.699802,23.617624,0.0 119.700686,23.617697,0.0 119.70076,23.618339,0.0 119.700596,23.618796,0.0 119.700892,23.619023,0.0 119.700926,23.619551,0.0 119.701148,23.619676,0.0 119.701006,23.619844,0.0 119.700836,23.619917,0.0 119.700523,23.619821,0.0 119.700027,23.619839,0.0 119.700201,23.620046,0.0 119.70005,23.62015,0.0 119.699956,23.620126,0.0 119.69971,23.620068,0.0 119.699752,23.620402,0.0 119.699666,23.620436,0.0 119.699411,23.620117,0.0 119.699106,23.620134,0.0 119.698936,23.619983,0.0 119.698785,23.619641,0.0 119.698706,23.61912,0.0 119.698997,23.619085,0.0 119.698821,23.618797,0.0 119.698502,23.618586,0.0 119.698612,23.618439,0.0 119.699002,23.618507,0.0 119.699135,23.617776,0.0 119.698706,23.617461,0.0 119.699025,23.617465,0.0 119.699471,23.617404,0.0 119.699701,23.617143,0.0</coordinates></LinearRing></outerBoundaryIs></Polygon><Polygon><outerBoundaryIs><LinearRing><coordinates>119.692751,23.623018,0.0 119.692817,23.623149,0.0 119.692743,23.623021,0.0 119.692751,23.623018,0.0</coordinates></LinearRing></outerBoundaryIs></Polygon><Polygon><outerBoundaryIs><LinearRing><coordinates>119.699968,23.615109,0.0 119.700499,23.615335,0.0 119.700517,23.615556,0.0 119.700554,23.615761,0.0 119.700106,23.615661,0.0 119.699981,23.615414,0.0 119.699896,23.615116,0.0 119.699968,23.615109,0.0</coordinates></LinearRing></outerBoundaryIs></Polygon><Polygon><outerBoundaryIs><LinearRing><coordinates>119.702047,23.616689,0.0 119.70239,23.616818,0.0 119.702755,23.616798,0.0 119.702697,23.617315,0.0 119.70256,23.617661,0.0 119.702273,23.617651,0.0 119.701802,23.61759,0.0 119.701513,23.617242,0.0 119.701566,23.616797,0.0 119.701931,23.616849,0.0 119.702047,23.616689,0.0</coordinates></LinearRing></outerBoundaryIs></Polygon><Polygon><outerBoundaryIs><LinearRing><coordinates>119.698116,23.618049,0.0 119.698352,23.618397,0.0 119.698122,23.619053,0.0 119.697944,23.619394,0.0 119.697773,23.619185,0.0 119.697543,23.618385,0.0 119.698029,23.618157,0.0 119.698116,23.618049,0.0</coordinates></LinearRing></outerBoundaryIs></Polygon><Polygon><outerBoundaryIs><LinearRing><coordinates>119.693919,23.619829,0.0 119.694094,23.619937,0.0 119.694017,23.620034,0.0 119.693847,23.619857,0.0 119.693919,23.619829,0.0</coordinates></LinearRing></outerBoundaryIs></Polygon><Polygon><outerBoundaryIs><LinearRing><coordinates>119.70922,23.626521,0.0 119.70953,23.626845,0.0 119.709756,23.627304,0.0 119.709471,23.627285,0.0 119.709152,23.627059,0.0 119.70922,23.626521,0.0</coordinates></LinearRing></outerBoundaryIs></Polygon><Polygon><outerBoundaryIs><LinearRing><coordinates>119.700951,23.615992,0.0 119.701301,23.616333,0.0 119.700885,23.616391,0.0 119.700951,23.615992,0.0</coordinates></LinearRing></outerBoundaryIs></Polygon><Polygon><outerBoundaryIs><LinearRing><coordinates>119.695268,23.619002,0.0 119.695472,23.619254,0.0 119.695748,23.619248,0.0 119.696109,23.61935,0.0 119.696366,23.619952,0.0 119.696309,23.620297,0.0 119.69612,23.620436,0.0 119.695865,23.620112,0.0 119.695547,23.619664,0.0 119.695204,23.619654,0.0 119.695215,23.61921,0.0 119.695268,23.619002,0.0</coordinates></LinearRing></outerBoundaryIs></Polygon><Polygon><outerBoundaryIs><LinearRing><coordinates>119.695994,23.640999,0.0 119.696435,23.641426,0.0 119.696456,23.6419,0.0 119.69623,23.642063,0.0 119.696045,23.641744,0.0 119.69572,23.641156,0.0 119.695994,23.640999,0.0</coordinates></LinearRing></outerBoundaryIs></Polygon></MultiGeometry><styleUrl>#spolygon-map</styleUrl></Placemark><Placemark><MultiGeometry><Polygon><outerBoundaryIs><LinearRing><coordinates>119.693663,23.564011,0.0 119.694449,23.564475,0.0 119.6937,23.56458,0.0 119.693179,23.564911,0.0 119.692876,23.564874,0.0 119.692751,23.5646,0.0 119.693491,23.564301,0.0 119.693663,23.564011,0.0</coordinates></LinearRing></outerBoundaryIs></Polygon><Polygon><outerBoundaryIs><LinearRing><coordinates>119.688981,23.562328,0.0 119.689252,23.562812,0.0 119.689613,23.562887,0.0 119.689628,23.563119,0.0 119.689082,23.562948,0.0 119.688899,23.562533,0.0 119.688981,23.562328,0.0</coordinates></LinearRing></outerBoundaryIs></Polygon><Polygon><outerBoundaryIs><LinearRing><coordinates>119.695837,23.557094,0.0 119.6956,23.557472,0.0 119.695514,23.557869,0.0 119.694666,23.557995,0.0 119.694276,23.557904,0.0 119.694351,23.557446,0.0 119.693952,23.557447,0.0 119.694437,23.557213,0.0 119.695075,23.557458,0.0 119.695382,23.557143,0.0 119.695837,23.557094,0.0</coordinates></LinearRing></outerBoundaryIs></Polygon><Polygon><outerBoundaryIs><LinearRing><coordinates>119.706069,23.556589,0.0 119.70663,23.556767,0.0 119.706341,23.556908,0.0 119.70596,23.556745,0.0 119.706069,23.556589,0.0</coordinates></LinearRing></outerBoundaryIs></Polygon><Polygon><outerBoundaryIs><LinearRing><coordinates>119.696777,23.554176,0.0 119.696823,23.554689,0.0 119.697057,23.554814,0.0 119.696923,23.555241,0.0 119.696626,23.555723,0.0 119.696072,23.555493,0.0 119.695345,23.55555,0.0 119.696129,23.555177,0.0 119.696421,23.554611,0.0 119.696459,23.554302,0.0 119.696777,23.554176,0.0</coordinates></LinearRing></outerBoundaryIs></Polygon><Polygon><outerBoundaryIs><LinearRing><coordinates>119.706291,23.554697,0.0 119.70628,23.554852,0.0 119.706291,23.554697,0.0</coordinates></LinearRing></outerBoundaryIs></Polygon><Polygon><outerBoundaryIs><LinearRing><coordinates>119.67632,23.558732,0.0 119.676088,23.557244,0.0 119.674956,23.558161,0.0 119.675057,23.555811,0.0 119.674216,23.554939,0.0 119.675265,23.553332,0.0 119.676471,23.552174,0.0 119.677577,23.551623,0.0 119.679669,23.552095,0.0 119.680955,23.552676,0.0 119.682603,23.553649,0.0 119.684785,23.553095,0.0 119.685324,23.553059,0.0 119.686561,23.553571,0.0 119.687153,23.554288,0.0 119.688761,23.554608,0.0 119.6898,23.554342,0.0 119.691204,23.554772,0.0 119.691628,23.554497,0.0 119.693211,23.555235,0.0 119.694291,23.55449,0.0 119.695009,23.553902,0.0 119.695846,23.554081,0.0 119.694964,23.554448,0.0 119.694022,23.555549,0.0 119.693607,23.556492,0.0 119.693433,23.557213,0.0 119.692613,23.559024,0.0 119.693262,23.559375,0.0 119.694092,23.559406,0.0 119.694121,23.559818,0.0 119.69387,23.560528,0.0 119.693355,23.560605,0.0 119.692894,23.560853,0.0 119.692553,23.561094,0.0 119.692382,23.560706,0.0 119.691272,23.561001,0.0 119.690612,23.56134,0.0 119.690222,23.561699,0.0 119.689295,23.561509,0.0 119.687185,23.562055,0.0 119.685799,23.563163,0.0 119.684943,23.563875,0.0 119.683652,23.564986,0.0 119.682659,23.567191,0.0 119.676075,23.570911,0.0 119.669186,23.568615,0.0 119.671106,23.561587,0.0 119.671836,23.56066,0.0 119.673592,23.560443,0.0 119.674726,23.56042,0.0 119.67632,23.558732,0.0</coordinates></LinearRing></outerBoundaryIs></Polygon><Polygon><outerBoundaryIs><LinearRing><coordinates>119.685259,23.547325,0.0 119.685853,23.548009,0.0 119.686276,23.548323,0.0 119.68551,23.549405,0.0 119.685437,23.548981,0.0 119.685455,23.548232,0.0 119.685083,23.547899,0.0 119.685259,23.547325,0.0</coordinates></LinearRing></outerBoundaryIs></Polygon><Polygon><outerBoundaryIs><LinearRing><coordinates>119.691684,23.561316,0.0 119.692279,23.561553,0.0 119.691959,23.562558,0.0 119.692214,23.563532,0.0 119.692076,23.563939,0.0 119.691543,23.563894,0.0 119.691102,23.563961,0.0 119.690707,23.563611,0.0 119.690675,23.5632,0.0 119.690733,23.562981,0.0 119.690456,23.561893,0.0 119.690763,23.561474,0.0 119.691226,23.561352,0.0 119.691684,23.561316,0.0</coordinates></LinearRing></outerBoundaryIs></Polygon><Polygon><outerBoundaryIs><LinearRing><coordinates>119.689862,23.546829,0.0 119.689822,23.547646,0.0 119.68927,23.547143,0.0 119.689681,23.546896,0.0 119.689862,23.546829,0.0</coordinates></LinearRing></outerBoundaryIs></Polygon><Polygon><outerBoundaryIs><LinearRing><coordinates>119.698605,23.538426,0.0 119.69928,23.538874,0.0 119.698907,23.539681,0.0 119.698507,23.540299,0.0 119.698054,23.540737,0.0 119.697089,23.540743,0.0 119.696766,23.540722,0.0 119.696802,23.540331,0.0 119.696558,23.539455,0.0 119.697004,23.539216,0.0 119.697333,23.538472,0.0 119.698514,23.538426,0.0 119.698605,23.538426,0.0</coordinates></LinearRing></outerBoundaryIs></Polygon><Polygon><outerBoundaryIs><LinearRing><coordinates>119.706818,23.554141,0.0 119.706707,23.554203,0.0 119.706818,23.554141,0.0</coordinates></LinearRing></outerBoundaryIs></Polygon></MultiGeometry><styleUrl>#spolygon-map</styleUrl></Placemark><Placemark><Polygon><outerBoundaryIs><LinearRing><coordinates>119.684863,23.624844,0.0 119.685737,23.62526,0.0 119.685397,23.625661,0.0 119.68552,23.626062,0.0 119.68563,23.626303,0.0 119.686565,23.626071,0.0 119.68691,23.626381,0.0 119.686871,23.627083,0.0 119.686439,23.627611,0.0 119.685963,23.627911,0.0 119.685557,23.627666,0.0 119.685428,23.627899,0.0 119.684876,23.627683,0.0 119.684338,23.627536,0.0 119.684367,23.626333,0.0 119.683844,23.627042,0.0 119.683596,23.627056,0.0 119.683333,23.626805,0.0 119.683369,23.62611,0.0 119.683817,23.625464,0.0 119.684103,23.625549,0.0 119.684539,23.6252,0.0 119.684809,23.624855,0.0 119.684863,23.624844,0.0</coordinates></LinearRing></outerBoundaryIs></Polygon><styleUrl>#spolygon-map</styleUrl></Placemark><Placemark><Polygon><outerBoundaryIs><LinearRing><coordinates>119.6799,23.586249,0.0 119.669848,23.576748,0.0 119.669122,23.572269,0.0 119.676464,23.571728,0.0 119.682625,23.569493,0.0 119.682931,23.570223,0.0 119.681904,23.571529,0.0 119.680359,23.573384,0.0 119.679875,23.574794,0.0 119.680853,23.575395,0.0 119.680626,23.576842,0.0 119.682131,23.576818,0.0 119.681067,23.580352,0.0 119.681123,23.582254,0.0 119.681896,23.583535,0.0 119.682329,23.584144,0.0 119.68056,23.58526,0.0 119.6799,23.586249,0.0</coordinates></LinearRing></outerBoundaryIs></Polygon><styleUrl>#spolygon-map</styleUrl></Placemark><Placemark><Polygon><outerBoundaryIs><LinearRing><coordinates>119.612575,23.606111,0.0 119.612057,23.605642,0.0 119.611096,23.60537,0.0 119.610956,23.605468,0.0 119.608494,23.605687,0.0 119.605658,23.604091,0.0 119.605085,23.602087,0.0 119.605448,23.600844,0.0 119.609734,23.599494,0.0 119.616013,23.59503,0.0 119.617522,23.600577,0.0 119.617019,23.603809,0.0 119.613694,23.604038,0.0 119.613695,23.603936,0.0 119.613491,23.602152,0.0 119.612575,23.606111,0.0</coordinates></LinearRing></outerBoundaryIs></Polygon><styleUrl>#spolygon-map</styleUrl></Placemark><Placemark><Polygon><outerBoundaryIs><LinearRing><coordinates>119.626562,23.580558,0.0 119.625132,23.576109,0.0 119.622999,23.574483,0.0 119.621068,23.571742,0.0 119.620268,23.569777,0.0 119.627588,23.568327,0.0 119.638475,23.568896,0.0 119.638567,23.571371,0.0 119.630114,23.577358,0.0 119.626562,23.580558,0.0</coordinates></LinearRing></outerBoundaryIs></Polygon><styleUrl>#spolygon-map</styleUrl></Placemark><Placemark><MultiGeometry><Polygon><outerBoundaryIs><LinearRing><coordinates>119.667544,23.591274,0.0 119.671252,23.591148,0.0 119.67631,23.588728,0.0 119.677765,23.590096,0.0 119.676571,23.592033,0.0 119.675869,23.593681,0.0 119.674205,23.595146,0.0 119.672977,23.596431,0.0 119.671837,23.598266,0.0 119.671813,23.59971,0.0 119.67197,23.600208,0.0 119.672056,23.60107,0.0 119.670883,23.601637,0.0 119.669122,23.60175,0.0 119.668699,23.600996,0.0 119.668418,23.600816,0.0 119.66913,23.599331,0.0 119.669142,23.597952,0.0 119.669341,23.5971,0.0 119.667623,23.596094,0.0 119.666749,23.595962,0.0 119.667999,23.595434,0.0 119.669294,23.593632,0.0 119.667544,23.591274,0.0</coordinates></LinearRing></outerBoundaryIs></Polygon><Polygon><outerBoundaryIs><LinearRing><coordinates>119.690333,23.596644,0.0 119.690647,23.597118,0.0 119.690851,23.597393,0.0 119.690931,23.598074,0.0 119.690454,23.598401,0.0 119.690071,23.598376,0.0 119.689389,23.598611,0.0 119.68964,23.597951,0.0 119.68964,23.597448,0.0 119.689854,23.596727,0.0 119.690333,23.596644,0.0</coordinates></LinearRing></outerBoundaryIs></Polygon></MultiGeometry><styleUrl>#spolygon-map</styleUrl></Placemark></Document>
</kml>
