<?xml version="1.0" encoding="UTF-8"?>
<kml xmlns="http://www.opengis.net/kml/2.2">
	<Document>
		<name>臺南市鹽水區</name>
		<Style id="spolygon">
			<LabelStyle>
				<scale>0.0</scale>
			</LabelStyle>
			<LineStyle>
				<color>330030ff</color>
				<width>0</width>
			</LineStyle>
			<PolyStyle>
				<color>330030ff</color>
			</PolyStyle>
		</Style>
		<StyleMap id="spolygon-map">
			<Pair>
				<key>normal</key>
				<styleUrl>#spolygon</styleUrl>
			</Pair>
		</StyleMap>
	<Placemark><Polygon><outerBoundaryIs><LinearRing><coordinates>120.233169,23.249184,0.0 120.237723,23.248537,0.0 120.239758,23.249195,0.0 120.242476,23.250169,0.0 120.244586,23.251052,0.0 120.244215,23.252326,0.0 120.244993,23.253423,0.0 120.246386,23.253716,0.0 120.246635,23.254301,0.0 120.248811,23.255057,0.0 120.2501,23.255305,0.0 120.250872,23.255299,0.0 120.24761,23.256762,0.0 120.239581,23.255277,0.0 120.229813,23.251861,0.0 120.228483,23.252389,0.0 120.227134,23.248219,0.0 120.233169,23.249184,0.0</coordinates></LinearRing></outerBoundaryIs></Polygon><styleUrl>#spolygon-map</styleUrl></Placemark><Placemark><Polygon><outerBoundaryIs><LinearRing><coordinates>120.257359,23.265211,0.0 120.252014,23.260678,0.0 120.251202,23.25525,0.0 120.249919,23.2553,0.0 120.247957,23.254859,0.0 120.24671,23.254133,0.0 120.245958,23.253634,0.0 120.244995,23.253197,0.0 120.244049,23.252189,0.0 120.244606,23.251006,0.0 120.241782,23.249917,0.0 120.239529,23.249108,0.0 120.237685,23.248723,0.0 120.233531,23.248646,0.0 120.23703,23.243328,0.0 120.23992,23.243629,0.0 120.242959,23.244302,0.0 120.246021,23.246032,0.0 120.24898,23.24771,0.0 120.253127,23.249966,0.0 120.255964,23.249368,0.0 120.260549,23.251932,0.0 120.263272,23.254059,0.0 120.260579,23.254367,0.0 120.255626,23.256461,0.0 120.255933,23.257532,0.0 120.256366,23.258976,0.0 120.254669,23.259796,0.0 120.255406,23.261143,0.0 120.256968,23.261243,0.0 120.257359,23.265211,0.0</coordinates></LinearRing></outerBoundaryIs></Polygon><styleUrl>#spolygon-map</styleUrl></Placemark><Placemark><Polygon><outerBoundaryIs><LinearRing><coordinates>120.253476,23.266444,0.0 120.250204,23.266237,0.0 120.245918,23.26621,0.0 120.240097,23.26652,0.0 120.236124,23.26664,0.0 120.227881,23.262032,0.0 120.222739,23.259239,0.0 120.224003,23.255363,0.0 120.226117,23.254254,0.0 120.227565,23.253067,0.0 120.228984,23.252207,0.0 120.233165,23.251245,0.0 120.242188,23.254991,0.0 120.249344,23.257062,0.0 120.253989,23.264272,0.0 120.257828,23.265493,0.0 120.257727,23.26652,0.0 120.25473,23.266472,0.0 120.253476,23.266444,0.0</coordinates></LinearRing></outerBoundaryIs></Polygon><styleUrl>#spolygon-map</styleUrl></Placemark><Placemark><Polygon><outerBoundaryIs><LinearRing><coordinates>120.228639,23.262265,0.0 120.227458,23.266158,0.0 120.226414,23.269287,0.0 120.22544,23.271942,0.0 120.22264,23.26805,0.0 120.223001,23.266116,0.0 120.220992,23.265493,0.0 120.219002,23.264234,0.0 120.220403,23.263189,0.0 120.228639,23.262265,0.0</coordinates></LinearRing></outerBoundaryIs></Polygon><styleUrl>#spolygon-map</styleUrl></Placemark><Placemark><Polygon><outerBoundaryIs><LinearRing><coordinates>120.2503,23.282044,0.0 120.247658,23.281501,0.0 120.246819,23.280054,0.0 120.244911,23.277797,0.0 120.243628,23.276188,0.0 120.241334,23.273104,0.0 120.239838,23.273844,0.0 120.237944,23.275565,0.0 120.23569,23.277599,0.0 120.232298,23.280673,0.0 120.23027,23.278886,0.0 120.228304,23.275571,0.0 120.225364,23.272007,0.0 120.226267,23.269768,0.0 120.227292,23.266698,0.0 120.228211,23.263346,0.0 120.236124,23.26664,0.0 120.240097,23.26652,0.0 120.245918,23.26621,0.0 120.250204,23.266237,0.0 120.253476,23.266444,0.0 120.253449,23.268189,0.0 120.253405,23.270075,0.0 120.253368,23.271592,0.0 120.253342,23.273352,0.0 120.250407,23.276417,0.0 120.250321,23.281108,0.0 120.2503,23.282044,0.0</coordinates></LinearRing></outerBoundaryIs></Polygon><styleUrl>#spolygon-map</styleUrl></Placemark><Placemark><Polygon><outerBoundaryIs><LinearRing><coordinates>120.225254,23.272433,0.0 120.222657,23.274574,0.0 120.221024,23.275936,0.0 120.219281,23.277374,0.0 120.218011,23.278423,0.0 120.216916,23.279329,0.0 120.215831,23.280221,0.0 120.214624,23.281233,0.0 120.213732,23.281974,0.0 120.211165,23.27916,0.0 120.209639,23.276649,0.0 120.207362,23.276344,0.0 120.205275,23.274948,0.0 120.203539,23.274079,0.0 120.200074,23.273639,0.0 120.198937,23.272161,0.0 120.197721,23.271401,0.0 120.19591,23.272869,0.0 120.193542,23.276421,0.0 120.193322,23.275757,0.0 120.193838,23.271696,0.0 120.19535,23.263629,0.0 120.202168,23.261367,0.0 120.205074,23.261719,0.0 120.204551,23.258978,0.0 120.210168,23.264253,0.0 120.211323,23.264318,0.0 120.210786,23.263074,0.0 120.209996,23.261664,0.0 120.216056,23.262403,0.0 120.216631,23.26649,0.0 120.220769,23.268055,0.0 120.225224,23.272402,0.0 120.225254,23.272433,0.0</coordinates></LinearRing></outerBoundaryIs></Polygon><styleUrl>#spolygon-map</styleUrl></Placemark><Placemark><Polygon><outerBoundaryIs><LinearRing><coordinates>120.23027,23.278886,0.0 120.229396,23.279578,0.0 120.228009,23.280717,0.0 120.226445,23.282012,0.0 120.225026,23.283166,0.0 120.223512,23.284433,0.0 120.222426,23.285333,0.0 120.22136,23.286238,0.0 120.220577,23.285897,0.0 120.215219,23.284239,0.0 120.214016,23.281723,0.0 120.214789,23.281098,0.0 120.216244,23.279882,0.0 120.217551,23.278813,0.0 120.218257,23.278225,0.0 120.219595,23.277104,0.0 120.221734,23.275356,0.0 120.223341,23.274014,0.0 120.226972,23.27423,0.0 120.229727,23.277205,0.0 120.23027,23.278886,0.0</coordinates></LinearRing></outerBoundaryIs></Polygon><styleUrl>#spolygon-map</styleUrl></Placemark><Placemark><Polygon><outerBoundaryIs><LinearRing><coordinates>120.262349,23.289968,0.0 120.256325,23.293563,0.0 120.253231,23.292068,0.0 120.252537,23.289556,0.0 120.254334,23.287862,0.0 120.254978,23.287419,0.0 120.25448,23.285154,0.0 120.259973,23.288385,0.0 120.262349,23.289968,0.0</coordinates></LinearRing></outerBoundaryIs></Polygon><styleUrl>#spolygon-map</styleUrl></Placemark><Placemark><Polygon><outerBoundaryIs><LinearRing><coordinates>120.241156,23.295506,0.0 120.238932,23.294932,0.0 120.235346,23.295114,0.0 120.233817,23.296586,0.0 120.232184,23.29515,0.0 120.228406,23.293793,0.0 120.226966,23.292135,0.0 120.228788,23.290654,0.0 120.228822,23.288936,0.0 120.224336,23.28766,0.0 120.221776,23.286471,0.0 120.221977,23.285709,0.0 120.223272,23.284635,0.0 120.224546,23.283593,0.0 120.225815,23.282511,0.0 120.227189,23.281403,0.0 120.228878,23.279995,0.0 120.230044,23.279031,0.0 120.231273,23.27998,0.0 120.234927,23.278295,0.0 120.23714,23.276283,0.0 120.239583,23.27407,0.0 120.241175,23.272817,0.0 120.242848,23.275128,0.0 120.244544,23.27736,0.0 120.246682,23.279948,0.0 120.247319,23.280575,0.0 120.249058,23.282019,0.0 120.248936,23.284555,0.0 120.245832,23.289703,0.0 120.244149,23.293353,0.0 120.241156,23.295506,0.0</coordinates></LinearRing></outerBoundaryIs></Polygon><styleUrl>#spolygon-map</styleUrl></Placemark><Placemark><Polygon><outerBoundaryIs><LinearRing><coordinates>120.250518,23.298236,0.0 120.24795,23.300173,0.0 120.244379,23.297727,0.0 120.242463,23.296404,0.0 120.2433,23.293241,0.0 120.244052,23.290648,0.0 120.247332,23.287306,0.0 120.250518,23.285335,0.0 120.254932,23.287623,0.0 120.25398,23.28787,0.0 120.251456,23.291195,0.0 120.250226,23.294398,0.0 120.251242,23.297339,0.0 120.250518,23.298236,0.0</coordinates></LinearRing></outerBoundaryIs></Polygon><styleUrl>#spolygon-map</styleUrl></Placemark><Placemark><Polygon><outerBoundaryIs><LinearRing><coordinates>120.233346,23.29637,0.0 120.224105,23.300529,0.0 120.222528,23.29822,0.0 120.219786,23.295577,0.0 120.216479,23.293876,0.0 120.214212,23.292393,0.0 120.21204,23.289269,0.0 120.214174,23.282308,0.0 120.217797,23.284982,0.0 120.220992,23.286214,0.0 120.22232,23.286728,0.0 120.225807,23.288086,0.0 120.230422,23.289378,0.0 120.228159,23.291157,0.0 120.226661,23.292391,0.0 120.230637,23.294543,0.0 120.23251,23.295233,0.0 120.233346,23.29637,0.0</coordinates></LinearRing></outerBoundaryIs></Polygon><styleUrl>#spolygon-map</styleUrl></Placemark><Placemark><Polygon><outerBoundaryIs><LinearRing><coordinates>120.267305,23.301241,0.0 120.266036,23.306896,0.0 120.261303,23.31103,0.0 120.259756,23.309697,0.0 120.255783,23.304779,0.0 120.252812,23.303268,0.0 120.250664,23.298064,0.0 120.251196,23.295049,0.0 120.251309,23.2916,0.0 120.254317,23.292622,0.0 120.256879,23.293828,0.0 120.26905,23.294435,0.0 120.2696,23.295295,0.0 120.270056,23.296804,0.0 120.269765,23.300323,0.0 120.267305,23.301241,0.0</coordinates></LinearRing></outerBoundaryIs></Polygon><styleUrl>#spolygon-map</styleUrl></Placemark><Placemark><Polygon><outerBoundaryIs><LinearRing><coordinates>120.256716,23.318048,0.0 120.25016,23.315521,0.0 120.24593,23.3134,0.0 120.244692,23.310547,0.0 120.238368,23.308803,0.0 120.234463,23.309183,0.0 120.227877,23.30832,0.0 120.227578,23.306526,0.0 120.226497,23.30436,0.0 120.227772,23.300987,0.0 120.234654,23.296573,0.0 120.237403,23.295835,0.0 120.23937,23.294271,0.0 120.241777,23.295926,0.0 120.243667,23.297242,0.0 120.246773,23.299383,0.0 120.249894,23.299007,0.0 120.253019,23.303015,0.0 120.254816,23.304123,0.0 120.256781,23.307226,0.0 120.258697,23.311478,0.0 120.258216,23.313713,0.0 120.256716,23.318048,0.0</coordinates></LinearRing></outerBoundaryIs></Polygon><styleUrl>#spolygon-map</styleUrl></Placemark><Placemark><Polygon><outerBoundaryIs><LinearRing><coordinates>120.26768,23.319861,0.0 120.265335,23.319847,0.0 120.264951,23.318474,0.0 120.26648,23.318079,0.0 120.26768,23.319861,0.0</coordinates></LinearRing></outerBoundaryIs></Polygon><styleUrl>#spolygon-map</styleUrl></Placemark><Placemark><Polygon><outerBoundaryIs><LinearRing><coordinates>120.271479,23.318077,0.0 120.269018,23.320594,0.0 120.26768,23.319861,0.0 120.266492,23.318017,0.0 120.266736,23.317229,0.0 120.268643,23.317521,0.0 120.269614,23.31623,0.0 120.2701,23.315346,0.0 120.270933,23.317641,0.0 120.271479,23.318077,0.0</coordinates></LinearRing></outerBoundaryIs></Polygon><styleUrl>#spolygon-map</styleUrl></Placemark><Placemark><Polygon><outerBoundaryIs><LinearRing><coordinates>120.265107,23.319739,0.0 120.263757,23.320444,0.0 120.261315,23.320708,0.0 120.259205,23.318383,0.0 120.257003,23.318023,0.0 120.258216,23.313713,0.0 120.258697,23.311478,0.0 120.263182,23.310405,0.0 120.26672,23.303504,0.0 120.270318,23.302362,0.0 120.276725,23.30715,0.0 120.276106,23.310589,0.0 120.278121,23.314036,0.0 120.279013,23.314814,0.0 120.27986,23.315084,0.0 120.278418,23.315376,0.0 120.276449,23.31473,0.0 120.274869,23.314818,0.0 120.273775,23.315115,0.0 120.272958,23.315442,0.0 120.271017,23.314806,0.0 120.270061,23.315163,0.0 120.269651,23.31614,0.0 120.268803,23.317428,0.0 120.266793,23.31722,0.0 120.266455,23.31762,0.0 120.265129,23.319677,0.0 120.265107,23.319739,0.0</coordinates></LinearRing></outerBoundaryIs></Polygon><styleUrl>#spolygon-map</styleUrl></Placemark><Placemark><Polygon><outerBoundaryIs><LinearRing><coordinates>120.271481,23.321533,0.0 120.269837,23.321653,0.0 120.268692,23.320298,0.0 120.270822,23.318501,0.0 120.272459,23.320778,0.0 120.271481,23.321533,0.0</coordinates></LinearRing></outerBoundaryIs></Polygon><styleUrl>#spolygon-map</styleUrl></Placemark><Placemark><Polygon><outerBoundaryIs><LinearRing><coordinates>120.269198,23.321309,0.0 120.268646,23.322201,0.0 120.267654,23.32088,0.0 120.268911,23.321155,0.0 120.269198,23.321309,0.0</coordinates></LinearRing></outerBoundaryIs></Polygon><styleUrl>#spolygon-map</styleUrl></Placemark><Placemark><Polygon><outerBoundaryIs><LinearRing><coordinates>120.265156,23.323579,0.0 120.26255,23.324289,0.0 120.260005,23.322635,0.0 120.260891,23.320172,0.0 120.263367,23.320647,0.0 120.265037,23.319854,0.0 120.265541,23.320192,0.0 120.267799,23.320763,0.0 120.26512,23.321067,0.0 120.2652,23.323036,0.0 120.265156,23.323579,0.0</coordinates></LinearRing></outerBoundaryIs></Polygon><styleUrl>#spolygon-map</styleUrl></Placemark><Placemark><Polygon><outerBoundaryIs><LinearRing><coordinates>120.267561,23.322566,0.0 120.265319,23.324398,0.0 120.265018,23.321093,0.0 120.267605,23.321849,0.0 120.267561,23.322566,0.0</coordinates></LinearRing></outerBoundaryIs></Polygon><styleUrl>#spolygon-map</styleUrl></Placemark><Placemark><Polygon><outerBoundaryIs><LinearRing><coordinates>120.260005,23.322635,0.0 120.259666,23.324245,0.0 120.25864,23.324924,0.0 120.260989,23.325827,0.0 120.259625,23.328486,0.0 120.254362,23.327912,0.0 120.252215,23.326004,0.0 120.251724,23.324933,0.0 120.250708,23.323353,0.0 120.252069,23.319854,0.0 120.253137,23.317413,0.0 120.257003,23.318023,0.0 120.259205,23.318383,0.0 120.260005,23.322635,0.0</coordinates></LinearRing></outerBoundaryIs></Polygon><styleUrl>#spolygon-map</styleUrl></Placemark><Placemark><Polygon><outerBoundaryIs><LinearRing><coordinates>120.253377,23.327625,0.0 120.250447,23.329259,0.0 120.247106,23.32738,0.0 120.243549,23.3269,0.0 120.239927,23.32754,0.0 120.237098,23.326093,0.0 120.235537,23.323128,0.0 120.233905,23.319325,0.0 120.232116,23.317262,0.0 120.230337,23.314271,0.0 120.228541,23.31077,0.0 120.235537,23.309076,0.0 120.240454,23.308598,0.0 120.244735,23.311846,0.0 120.246771,23.313918,0.0 120.253208,23.317254,0.0 120.252103,23.319766,0.0 120.250599,23.323146,0.0 120.252177,23.325029,0.0 120.251964,23.325825,0.0 120.253377,23.327625,0.0</coordinates></LinearRing></outerBoundaryIs></Polygon><styleUrl>#spolygon-map</styleUrl></Placemark><Placemark><Polygon><outerBoundaryIs><LinearRing><coordinates>120.294488,23.328705,0.0 120.29042,23.329819,0.0 120.288637,23.330966,0.0 120.289536,23.333572,0.0 120.280217,23.332509,0.0 120.278234,23.330338,0.0 120.276223,23.32821,0.0 120.275369,23.325219,0.0 120.273827,23.324315,0.0 120.270375,23.323664,0.0 120.268657,23.322148,0.0 120.269837,23.321653,0.0 120.271481,23.321533,0.0 120.273867,23.322098,0.0 120.276066,23.321684,0.0 120.276793,23.320635,0.0 120.277138,23.319208,0.0 120.278374,23.318829,0.0 120.279926,23.318974,0.0 120.281979,23.317735,0.0 120.282767,23.317032,0.0 120.283848,23.317611,0.0 120.284165,23.318472,0.0 120.282937,23.319232,0.0 120.282045,23.320125,0.0 120.282562,23.320948,0.0 120.284265,23.320462,0.0 120.285917,23.320408,0.0 120.287557,23.320616,0.0 120.288242,23.321225,0.0 120.29011,23.322032,0.0 120.292478,23.323971,0.0 120.292977,23.32482,0.0 120.291678,23.326654,0.0 120.290744,23.327512,0.0 120.28987,23.328235,0.0 120.290133,23.329035,0.0 120.2927,23.329399,0.0 120.294353,23.328449,0.0 120.294488,23.328705,0.0</coordinates></LinearRing></outerBoundaryIs></Polygon><styleUrl>#spolygon-map</styleUrl></Placemark><Placemark><Polygon><outerBoundaryIs><LinearRing><coordinates>120.280217,23.332509,0.0 120.279373,23.338693,0.0 120.271198,23.337089,0.0 120.269494,23.33668,0.0 120.268693,23.336682,0.0 120.267667,23.336675,0.0 120.267178,23.336848,0.0 120.264923,23.337375,0.0 120.26412,23.337437,0.0 120.262833,23.336961,0.0 120.259626,23.333955,0.0 120.257079,23.331473,0.0 120.252639,23.329942,0.0 120.253417,23.327704,0.0 120.257544,23.328263,0.0 120.260787,23.328231,0.0 120.258763,23.325271,0.0 120.259332,23.324243,0.0 120.259854,23.323397,0.0 120.262064,23.32356,0.0 120.263817,23.324061,0.0 120.266526,23.323405,0.0 120.269164,23.323535,0.0 120.272224,23.323808,0.0 120.2746,23.324871,0.0 120.276776,23.325677,0.0 120.275771,23.329454,0.0 120.279331,23.331408,0.0 120.280217,23.332509,0.0</coordinates></LinearRing></outerBoundaryIs></Polygon><styleUrl>#spolygon-map</styleUrl></Placemark><Placemark><Polygon><outerBoundaryIs><LinearRing><coordinates>120.295791,23.35738,0.0 120.294029,23.357887,0.0 120.292142,23.357433,0.0 120.289344,23.356024,0.0 120.285624,23.354903,0.0 120.286254,23.35282,0.0 120.2863,23.350486,0.0 120.283968,23.349333,0.0 120.28181,23.34852,0.0 120.278468,23.347696,0.0 120.276089,23.348396,0.0 120.275686,23.350078,0.0 120.274118,23.352283,0.0 120.270475,23.353691,0.0 120.267408,23.35341,0.0 120.26541,23.352001,0.0 120.263464,23.348796,0.0 120.261471,23.346019,0.0 120.26125,23.344555,0.0 120.264101,23.345004,0.0 120.267017,23.344701,0.0 120.267194,23.342971,0.0 120.266987,23.340613,0.0 120.263627,23.337753,0.0 120.264166,23.337418,0.0 120.265227,23.337341,0.0 120.267238,23.336843,0.0 120.267845,23.336668,0.0 120.268717,23.336656,0.0 120.269638,23.336706,0.0 120.271252,23.337101,0.0 120.279445,23.338205,0.0 120.280767,23.332566,0.0 120.289643,23.333593,0.0 120.288031,23.330033,0.0 120.290894,23.329966,0.0 120.294796,23.328684,0.0 120.295462,23.328991,0.0 120.294864,23.33019,0.0 120.295615,23.330635,0.0 120.296827,23.331165,0.0 120.29695,23.332637,0.0 120.297062,23.333432,0.0 120.298403,23.333851,0.0 120.298099,23.334222,0.0 120.296776,23.333639,0.0 120.295681,23.334146,0.0 120.294958,23.334551,0.0 120.29391,23.334116,0.0 120.2931,23.335369,0.0 120.293002,23.336631,0.0 120.29383,23.337603,0.0 120.294549,23.339105,0.0 120.296398,23.341249,0.0 120.296671,23.345464,0.0 120.296255,23.35078,0.0 120.295815,23.356526,0.0 120.295791,23.35738,0.0</coordinates></LinearRing></outerBoundaryIs></Polygon><styleUrl>#spolygon-map</styleUrl></Placemark></Document>
</kml>
