<?xml version="1.0" encoding="UTF-8"?>
<kml xmlns="http://www.opengis.net/kml/2.2">
	<Document>
		<name>臺北市南港區</name>
		<Style id="spolygon">
			<LabelStyle>
				<scale>0.0</scale>
			</LabelStyle>
			<LineStyle>
				<color>330030ff</color>
				<width>0</width>
			</LineStyle>
			<PolyStyle>
				<color>330030ff</color>
			</PolyStyle>
		</Style>
		<StyleMap id="spolygon-map">
			<Pair>
				<key>normal</key>
				<styleUrl>#spolygon</styleUrl>
			</Pair>
		</StyleMap>
	<Placemark><Polygon><outerBoundaryIs><LinearRing><coordinates>121.617987,25.038159,0.0 121.615609,25.03866,0.0 121.613416,25.038433,0.0 121.61163,25.038368,0.0 121.608074,25.038395,0.0 121.604244,25.037281,0.0 121.600253,25.035412,0.0 121.597482,25.034298,0.0 121.595178,25.032875,0.0 121.593903,25.032417,0.0 121.588827,25.028792,0.0 121.586204,25.025994,0.0 121.584388,25.021322,0.0 121.581001,25.017631,0.0 121.578462,25.015102,0.0 121.581489,25.012675,0.0 121.588239,25.013522,0.0 121.595406,25.015744,0.0 121.603099,25.01567,0.0 121.610398,25.019769,0.0 121.617278,25.021411,0.0 121.62036,25.028269,0.0 121.619167,25.03383,0.0 121.618149,25.03548,0.0 121.617964,25.037396,0.0 121.617987,25.038159,0.0</coordinates></LinearRing></outerBoundaryIs></Polygon><styleUrl>#spolygon-map</styleUrl></Placemark><Placemark><Polygon><outerBoundaryIs><LinearRing><coordinates>121.593938,25.040196,0.0 121.592746,25.040139,0.0 121.592464,25.040014,0.0 121.592162,25.040123,0.0 121.591594,25.041226,0.0 121.591224,25.041332,0.0 121.590874,25.041284,0.0 121.590734,25.0411,0.0 121.590717,25.04035,0.0 121.591358,25.039267,0.0 121.591628,25.038756,0.0 121.591319,25.037542,0.0 121.595387,25.033036,0.0 121.59718,25.034984,0.0 121.595418,25.038638,0.0 121.594143,25.039628,0.0 121.593938,25.040196,0.0</coordinates></LinearRing></outerBoundaryIs></Polygon><styleUrl>#spolygon-map</styleUrl></Placemark><Placemark><Polygon><outerBoundaryIs><LinearRing><coordinates>121.590376,25.038134,0.0 121.590268,25.0387,0.0 121.589783,25.039256,0.0 121.589116,25.039984,0.0 121.588713,25.040544,0.0 121.587486,25.041756,0.0 121.587175,25.039694,0.0 121.58806,25.038478,0.0 121.590033,25.033629,0.0 121.594293,25.032684,0.0 121.594543,25.033561,0.0 121.590686,25.037662,0.0 121.590376,25.038134,0.0</coordinates></LinearRing></outerBoundaryIs></Polygon><styleUrl>#spolygon-map</styleUrl></Placemark><Placemark><Polygon><outerBoundaryIs><LinearRing><coordinates>121.630144,25.035137,0.0 121.623978,25.038862,0.0 121.621609,25.040471,0.0 121.619891,25.042626,0.0 121.6183,25.042504,0.0 121.617808,25.041415,0.0 121.618089,25.040843,0.0 121.617964,25.037396,0.0 121.618149,25.03548,0.0 121.619167,25.03383,0.0 121.62036,25.028269,0.0 121.617278,25.021411,0.0 121.626333,25.01873,0.0 121.631778,25.025711,0.0 121.640188,25.02353,0.0 121.646964,25.021615,0.0 121.653895,25.024399,0.0 121.660923,25.023442,0.0 121.66485,25.027812,0.0 121.6616,25.030412,0.0 121.652211,25.027595,0.0 121.646454,25.028884,0.0 121.641694,25.031215,0.0 121.636026,25.034195,0.0 121.630144,25.035137,0.0</coordinates></LinearRing></outerBoundaryIs></Polygon><styleUrl>#spolygon-map</styleUrl></Placemark><Placemark><Polygon><outerBoundaryIs><LinearRing><coordinates>121.58679,25.043096,0.0 121.586657,25.043678,0.0 121.586848,25.04444,0.0 121.58538,25.045025,0.0 121.584099,25.044753,0.0 121.582861,25.043452,0.0 121.584269,25.042319,0.0 121.585701,25.041601,0.0 121.586763,25.041604,0.0 121.587213,25.042271,0.0 121.58679,25.043096,0.0</coordinates></LinearRing></outerBoundaryIs></Polygon><styleUrl>#spolygon-map</styleUrl></Placemark><Placemark><Polygon><outerBoundaryIs><LinearRing><coordinates>121.590178,25.046483,0.0 121.5888,25.046589,0.0 121.585853,25.04605,0.0 121.586812,25.044368,0.0 121.586656,25.043667,0.0 121.58685,25.042967,0.0 121.587269,25.042192,0.0 121.588638,25.040638,0.0 121.588963,25.040168,0.0 121.58967,25.039379,0.0 121.590217,25.038791,0.0 121.590376,25.038292,0.0 121.590931,25.037601,0.0 121.591636,25.038727,0.0 121.591394,25.039005,0.0 121.590858,25.040227,0.0 121.590729,25.041053,0.0 121.59084,25.041262,0.0 121.591081,25.041331,0.0 121.591539,25.041282,0.0 121.592118,25.040172,0.0 121.592406,25.040015,0.0 121.592697,25.040095,0.0 121.593012,25.040435,0.0 121.594516,25.041044,0.0 121.594527,25.042696,0.0 121.593966,25.043353,0.0 121.593615,25.044232,0.0 121.593865,25.044942,0.0 121.593304,25.045368,0.0 121.593069,25.046256,0.0 121.590178,25.046483,0.0</coordinates></LinearRing></outerBoundaryIs></Polygon><styleUrl>#spolygon-map</styleUrl></Placemark><Placemark><Polygon><outerBoundaryIs><LinearRing><coordinates>121.587027,25.046392,0.0 121.585377,25.047757,0.0 121.583705,25.04661,0.0 121.582548,25.043718,0.0 121.583923,25.044634,0.0 121.585177,25.044927,0.0 121.585865,25.046056,0.0 121.587027,25.046392,0.0</coordinates></LinearRing></outerBoundaryIs></Polygon><styleUrl>#spolygon-map</styleUrl></Placemark><Placemark><Polygon><outerBoundaryIs><LinearRing><coordinates>121.618016,25.045611,0.0 121.616955,25.047868,0.0 121.615263,25.048865,0.0 121.613071,25.049046,0.0 121.61234,25.048359,0.0 121.611047,25.046872,0.0 121.610872,25.044419,0.0 121.609265,25.044234,0.0 121.608924,25.043294,0.0 121.608643,25.042303,0.0 121.608526,25.040932,0.0 121.608586,25.038475,0.0 121.612066,25.03851,0.0 121.614412,25.038511,0.0 121.616198,25.038707,0.0 121.618226,25.039125,0.0 121.617807,25.04113,0.0 121.617791,25.042122,0.0 121.619278,25.043246,0.0 121.618016,25.045611,0.0</coordinates></LinearRing></outerBoundaryIs></Polygon><styleUrl>#spolygon-map</styleUrl></Placemark><Placemark><Polygon><outerBoundaryIs><LinearRing><coordinates>121.589636,25.047724,0.0 121.590533,25.048314,0.0 121.590961,25.048969,0.0 121.588595,25.049151,0.0 121.586839,25.048736,0.0 121.585421,25.047721,0.0 121.587039,25.046394,0.0 121.589086,25.046584,0.0 121.589636,25.047724,0.0</coordinates></LinearRing></outerBoundaryIs></Polygon><styleUrl>#spolygon-map</styleUrl></Placemark><Placemark><Polygon><outerBoundaryIs><LinearRing><coordinates>121.590913,25.049699,0.0 121.593304,25.050266,0.0 121.59092,25.050699,0.0 121.588757,25.05036,0.0 121.58674,25.050032,0.0 121.583505,25.049499,0.0 121.580554,25.048918,0.0 121.58041,25.047725,0.0 121.580689,25.046143,0.0 121.581951,25.044204,0.0 121.584049,25.047064,0.0 121.587212,25.048824,0.0 121.589089,25.049267,0.0 121.590913,25.049699,0.0</coordinates></LinearRing></outerBoundaryIs></Polygon><styleUrl>#spolygon-map</styleUrl></Placemark><Placemark><Polygon><outerBoundaryIs><LinearRing><coordinates>121.600902,25.047908,0.0 121.602642,25.04979,0.0 121.605378,25.049928,0.0 121.607392,25.050368,0.0 121.601469,25.052046,0.0 121.59394,25.050703,0.0 121.591559,25.049852,0.0 121.590992,25.048697,0.0 121.589712,25.04795,0.0 121.590178,25.046483,0.0 121.593091,25.046266,0.0 121.593312,25.045365,0.0 121.593827,25.044901,0.0 121.593621,25.044158,0.0 121.594018,25.043321,0.0 121.594571,25.042612,0.0 121.594334,25.041025,0.0 121.59418,25.039535,0.0 121.595504,25.038657,0.0 121.597305,25.034696,0.0 121.599946,25.035273,0.0 121.601376,25.039417,0.0 121.60039,25.041745,0.0 121.600335,25.046399,0.0 121.600902,25.047908,0.0</coordinates></LinearRing></outerBoundaryIs></Polygon><styleUrl>#spolygon-map</styleUrl></Placemark><Placemark><Polygon><outerBoundaryIs><LinearRing><coordinates>121.588985,25.050397,0.0 121.588038,25.054142,0.0 121.586192,25.054457,0.0 121.580973,25.053161,0.0 121.580047,25.051501,0.0 121.580231,25.048886,0.0 121.582102,25.049227,0.0 121.584203,25.049624,0.0 121.588119,25.050256,0.0 121.588985,25.050397,0.0</coordinates></LinearRing></outerBoundaryIs></Polygon><styleUrl>#spolygon-map</styleUrl></Placemark><Placemark><Polygon><outerBoundaryIs><LinearRing><coordinates>121.620984,25.054922,0.0 121.61892,25.054804,0.0 121.616149,25.055194,0.0 121.615769,25.054192,0.0 121.615923,25.052374,0.0 121.615702,25.051148,0.0 121.615763,25.049686,0.0 121.61633,25.050687,0.0 121.620115,25.053441,0.0 121.620984,25.054922,0.0</coordinates></LinearRing></outerBoundaryIs></Polygon><styleUrl>#spolygon-map</styleUrl></Placemark><Placemark><Polygon><outerBoundaryIs><LinearRing><coordinates>121.615574,25.055249,0.0 121.61478,25.054398,0.0 121.612826,25.053797,0.0 121.608992,25.053088,0.0 121.605795,25.051588,0.0 121.606857,25.04982,0.0 121.603808,25.050233,0.0 121.601144,25.048509,0.0 121.600339,25.046788,0.0 121.600452,25.04261,0.0 121.601215,25.039987,0.0 121.604162,25.037273,0.0 121.607529,25.038209,0.0 121.608473,25.039511,0.0 121.608539,25.041782,0.0 121.608608,25.042673,0.0 121.608999,25.043614,0.0 121.61027,25.044299,0.0 121.611288,25.045306,0.0 121.612212,25.0475,0.0 121.612557,25.048797,0.0 121.614101,25.048908,0.0 121.615835,25.048951,0.0 121.615582,25.050353,0.0 121.615717,25.051775,0.0 121.615642,25.053232,0.0 121.615712,25.054855,0.0 121.615574,25.055249,0.0</coordinates></LinearRing></outerBoundaryIs></Polygon><styleUrl>#spolygon-map</styleUrl></Placemark><Placemark><Polygon><outerBoundaryIs><LinearRing><coordinates>121.606524,25.052686,0.0 121.605905,25.055691,0.0 121.604654,25.056047,0.0 121.603466,25.055416,0.0 121.601814,25.054661,0.0 121.599651,25.054505,0.0 121.597616,25.054061,0.0 121.594772,25.054409,0.0 121.601469,25.052046,0.0 121.606524,25.052686,0.0</coordinates></LinearRing></outerBoundaryIs></Polygon><styleUrl>#spolygon-map</styleUrl></Placemark><Placemark><Polygon><outerBoundaryIs><LinearRing><coordinates>121.605782,25.05608,0.0 121.605493,25.057309,0.0 121.602354,25.057617,0.0 121.599025,25.056578,0.0 121.59458,25.054832,0.0 121.596377,25.054344,0.0 121.599262,25.054287,0.0 121.601692,25.054644,0.0 121.603073,25.055138,0.0 121.60448,25.056019,0.0 121.605782,25.05608,0.0</coordinates></LinearRing></outerBoundaryIs></Polygon><styleUrl>#spolygon-map</styleUrl></Placemark><Placemark><Polygon><outerBoundaryIs><LinearRing><coordinates>121.59458,25.054832,0.0 121.592096,25.05918,0.0 121.588496,25.055964,0.0 121.588091,25.053966,0.0 121.589456,25.050477,0.0 121.592683,25.050977,0.0 121.594772,25.054409,0.0 121.59458,25.054832,0.0</coordinates></LinearRing></outerBoundaryIs></Polygon><styleUrl>#spolygon-map</styleUrl></Placemark><Placemark><Polygon><outerBoundaryIs><LinearRing><coordinates>121.59639,25.059677,0.0 121.592566,25.058364,0.0 121.596277,25.055411,0.0 121.599969,25.056997,0.0 121.602667,25.057657,0.0 121.605107,25.058896,0.0 121.598889,25.059093,0.0 121.59639,25.059677,0.0</coordinates></LinearRing></outerBoundaryIs></Polygon><styleUrl>#spolygon-map</styleUrl></Placemark><Placemark><Polygon><outerBoundaryIs><LinearRing><coordinates>121.611475,25.056267,0.0 121.609817,25.059111,0.0 121.607727,25.059953,0.0 121.60536,25.057881,0.0 121.605619,25.056773,0.0 121.606097,25.054838,0.0 121.608239,25.052965,0.0 121.612413,25.053756,0.0 121.614622,25.054128,0.0 121.615254,25.055275,0.0 121.612053,25.05594,0.0 121.611475,25.056267,0.0</coordinates></LinearRing></outerBoundaryIs></Polygon><styleUrl>#spolygon-map</styleUrl></Placemark><Placemark><Polygon><outerBoundaryIs><LinearRing><coordinates>121.616312,25.063952,0.0 121.612483,25.063908,0.0 121.610194,25.06105,0.0 121.609902,25.058449,0.0 121.612002,25.055964,0.0 121.613971,25.055276,0.0 121.618472,25.054885,0.0 121.620244,25.054797,0.0 121.62239,25.057022,0.0 121.620381,25.061915,0.0 121.616312,25.063952,0.0</coordinates></LinearRing></outerBoundaryIs></Polygon><styleUrl>#spolygon-map</styleUrl></Placemark></Document>
</kml>
