<?xml version="1.0" encoding="UTF-8"?>
<kml xmlns="http://www.opengis.net/kml/2.2">
	<Document>
		<name>臺南市下營區</name>
		<Style id="spolygon">
			<LabelStyle>
				<scale>0.0</scale>
			</LabelStyle>
			<LineStyle>
				<color>330030ff</color>
				<width>0</width>
			</LineStyle>
			<PolyStyle>
				<color>330030ff</color>
			</PolyStyle>
		</Style>
		<StyleMap id="spolygon-map">
			<Pair>
				<key>normal</key>
				<styleUrl>#spolygon</styleUrl>
			</Pair>
		</StyleMap>
	<Placemark><Polygon><outerBoundaryIs><LinearRing><coordinates>120.27787,23.215613,0.0 120.277089,23.215058,0.0 120.275531,23.21526,0.0 120.27464,23.215174,0.0 120.271979,23.216442,0.0 120.270142,23.216556,0.0 120.271387,23.209501,0.0 120.271283,23.204954,0.0 120.269175,23.201742,0.0 120.281946,23.203478,0.0 120.281239,23.21138,0.0 120.282334,23.214775,0.0 120.279379,23.216335,0.0 120.27787,23.215613,0.0</coordinates></LinearRing></outerBoundaryIs></Polygon><styleUrl>#spolygon-map</styleUrl></Placemark><Placemark><Polygon><outerBoundaryIs><LinearRing><coordinates>120.269895,23.217049,0.0 120.267199,23.218739,0.0 120.266754,23.220004,0.0 120.258043,23.215816,0.0 120.249354,23.213214,0.0 120.246808,23.21056,0.0 120.248404,23.205644,0.0 120.252491,23.203848,0.0 120.255886,23.201528,0.0 120.25757,23.200962,0.0 120.260302,23.201982,0.0 120.263292,23.20262,0.0 120.266308,23.203542,0.0 120.267556,23.204337,0.0 120.269933,23.202975,0.0 120.271782,23.205903,0.0 120.271133,23.211202,0.0 120.270085,23.216745,0.0 120.269895,23.217049,0.0</coordinates></LinearRing></outerBoundaryIs></Polygon><styleUrl>#spolygon-map</styleUrl></Placemark><Placemark><Polygon><outerBoundaryIs><LinearRing><coordinates>120.27787,23.215613,0.0 120.277205,23.216352,0.0 120.279013,23.217046,0.0 120.278231,23.219958,0.0 120.273172,23.223334,0.0 120.266684,23.220443,0.0 120.267052,23.218956,0.0 120.268077,23.21807,0.0 120.272918,23.215999,0.0 120.274901,23.215184,0.0 120.276118,23.214945,0.0 120.277761,23.215281,0.0 120.27787,23.215613,0.0</coordinates></LinearRing></outerBoundaryIs></Polygon><styleUrl>#spolygon-map</styleUrl></Placemark><Placemark><Polygon><outerBoundaryIs><LinearRing><coordinates>120.293,23.223212,0.0 120.291763,23.225091,0.0 120.29011,23.226204,0.0 120.290238,23.227717,0.0 120.289396,23.228796,0.0 120.28643,23.228204,0.0 120.283702,23.229886,0.0 120.279793,23.229065,0.0 120.278148,23.224162,0.0 120.278456,23.218821,0.0 120.277491,23.217116,0.0 120.277711,23.215944,0.0 120.278734,23.215971,0.0 120.282134,23.214785,0.0 120.281308,23.211672,0.0 120.281596,23.207208,0.0 120.290221,23.203378,0.0 120.290256,23.201941,0.0 120.291781,23.201686,0.0 120.292581,23.202193,0.0 120.292839,23.203222,0.0 120.292679,23.204684,0.0 120.292958,23.205531,0.0 120.29117,23.207318,0.0 120.289478,23.206278,0.0 120.288862,23.207299,0.0 120.289546,23.20872,0.0 120.287901,23.210927,0.0 120.288396,23.213737,0.0 120.288205,23.214962,0.0 120.286905,23.216053,0.0 120.287817,23.21678,0.0 120.290354,23.219013,0.0 120.290924,23.221158,0.0 120.292908,23.221746,0.0 120.294505,23.220453,0.0 120.294108,23.222369,0.0 120.293,23.223212,0.0</coordinates></LinearRing></outerBoundaryIs></Polygon><styleUrl>#spolygon-map</styleUrl></Placemark><Placemark><Polygon><outerBoundaryIs><LinearRing><coordinates>120.249016,23.233289,0.0 120.24269,23.228809,0.0 120.239743,23.221499,0.0 120.235944,23.222103,0.0 120.23336,23.223386,0.0 120.236739,23.21555,0.0 120.247368,23.213391,0.0 120.252946,23.219046,0.0 120.253592,23.227178,0.0 120.252908,23.231213,0.0 120.24814,23.232484,0.0 120.249016,23.233289,0.0</coordinates></LinearRing></outerBoundaryIs></Polygon><styleUrl>#spolygon-map</styleUrl></Placemark><Placemark><Polygon><outerBoundaryIs><LinearRing><coordinates>120.269519,23.220968,0.0 120.268726,23.22564,0.0 120.268406,23.231633,0.0 120.268878,23.233147,0.0 120.266691,23.234888,0.0 120.26485,23.234927,0.0 120.26341,23.234253,0.0 120.26128,23.233752,0.0 120.263126,23.229977,0.0 120.265205,23.225353,0.0 120.266811,23.220463,0.0 120.269519,23.220968,0.0</coordinates></LinearRing></outerBoundaryIs></Polygon><styleUrl>#spolygon-map</styleUrl></Placemark><Placemark><Polygon><outerBoundaryIs><LinearRing><coordinates>120.260759,23.235354,0.0 120.260104,23.234628,0.0 120.255659,23.235374,0.0 120.251448,23.233936,0.0 120.248202,23.232546,0.0 120.251987,23.231353,0.0 120.253655,23.227617,0.0 120.252863,23.220947,0.0 120.253413,23.212815,0.0 120.263165,23.219416,0.0 120.266268,23.22294,0.0 120.263282,23.229632,0.0 120.261475,23.233214,0.0 120.260759,23.235354,0.0</coordinates></LinearRing></outerBoundaryIs></Polygon><styleUrl>#spolygon-map</styleUrl></Placemark><Placemark><Polygon><outerBoundaryIs><LinearRing><coordinates>120.26484,23.234924,0.0 120.263054,23.236439,0.0 120.260971,23.236297,0.0 120.261048,23.234488,0.0 120.263336,23.234189,0.0 120.26484,23.234924,0.0</coordinates></LinearRing></outerBoundaryIs></Polygon><styleUrl>#spolygon-map</styleUrl></Placemark><Placemark><Polygon><outerBoundaryIs><LinearRing><coordinates>120.283671,23.230151,0.0 120.282445,23.231428,0.0 120.281934,23.237943,0.0 120.280518,23.244259,0.0 120.278116,23.244466,0.0 120.272575,23.242872,0.0 120.265016,23.238388,0.0 120.263133,23.23747,0.0 120.26319,23.23648,0.0 120.26485,23.234927,0.0 120.266691,23.234888,0.0 120.268878,23.233147,0.0 120.268406,23.231633,0.0 120.268726,23.22564,0.0 120.269519,23.220968,0.0 120.276866,23.226555,0.0 120.283595,23.229878,0.0 120.283671,23.230151,0.0</coordinates></LinearRing></outerBoundaryIs></Polygon><styleUrl>#spolygon-map</styleUrl></Placemark><Placemark><Polygon><outerBoundaryIs><LinearRing><coordinates>120.254552,23.248574,0.0 120.250228,23.242931,0.0 120.254007,23.237154,0.0 120.249125,23.233415,0.0 120.252363,23.234636,0.0 120.255877,23.235364,0.0 120.260054,23.234907,0.0 120.260708,23.235675,0.0 120.261016,23.23665,0.0 120.260828,23.238055,0.0 120.26019,23.240434,0.0 120.258024,23.244961,0.0 120.254552,23.248574,0.0</coordinates></LinearRing></outerBoundaryIs></Polygon><styleUrl>#spolygon-map</styleUrl></Placemark><Placemark><Polygon><outerBoundaryIs><LinearRing><coordinates>120.253718,23.249384,0.0 120.249685,23.248101,0.0 120.247016,23.24659,0.0 120.243457,23.244575,0.0 120.23996,23.243709,0.0 120.237583,23.243352,0.0 120.234842,23.246637,0.0 120.2285,23.247209,0.0 120.228722,23.246268,0.0 120.229557,23.24547,0.0 120.230821,23.243687,0.0 120.23148,23.242489,0.0 120.232549,23.242287,0.0 120.232111,23.241789,0.0 120.230892,23.240724,0.0 120.228882,23.238879,0.0 120.227706,23.237878,0.0 120.225935,23.236835,0.0 120.223963,23.236357,0.0 120.221768,23.236105,0.0 120.221248,23.235529,0.0 120.220907,23.234146,0.0 120.220026,23.232401,0.0 120.219971,23.231904,0.0 120.223705,23.230796,0.0 120.225966,23.22867,0.0 120.229617,23.226015,0.0 120.234521,23.222978,0.0 120.237972,23.221556,0.0 120.241728,23.226704,0.0 120.245328,23.23348,0.0 120.252242,23.23568,0.0 120.25068,23.242228,0.0 120.253718,23.249384,0.0</coordinates></LinearRing></outerBoundaryIs></Polygon><styleUrl>#spolygon-map</styleUrl></Placemark><Placemark><Polygon><outerBoundaryIs><LinearRing><coordinates>120.279477,23.247809,0.0 120.2692,23.248209,0.0 120.266039,23.250739,0.0 120.262181,23.248333,0.0 120.264567,23.24183,0.0 120.272809,23.243502,0.0 120.279016,23.244954,0.0 120.279477,23.247809,0.0</coordinates></LinearRing></outerBoundaryIs></Polygon><styleUrl>#spolygon-map</styleUrl></Placemark><Placemark><Polygon><outerBoundaryIs><LinearRing><coordinates>120.262844,23.251136,0.0 120.262976,23.253275,0.0 120.258371,23.250705,0.0 120.255354,23.247794,0.0 120.259323,23.242241,0.0 120.260759,23.239257,0.0 120.260787,23.237094,0.0 120.260973,23.236301,0.0 120.26298,23.236683,0.0 120.26416,23.237404,0.0 120.266422,23.241906,0.0 120.261779,23.246619,0.0 120.262844,23.251136,0.0</coordinates></LinearRing></outerBoundaryIs></Polygon><styleUrl>#spolygon-map</styleUrl></Placemark><Placemark><Polygon><outerBoundaryIs><LinearRing><coordinates>120.27793,23.261029,0.0 120.275407,23.260927,0.0 120.273676,23.261077,0.0 120.272088,23.261251,0.0 120.272089,23.257925,0.0 120.2712,23.257108,0.0 120.268895,23.257213,0.0 120.267674,23.25662,0.0 120.26718,23.255487,0.0 120.265519,23.254879,0.0 120.2641,23.254475,0.0 120.263297,23.253129,0.0 120.266039,23.250739,0.0 120.2692,23.248209,0.0 120.279477,23.247809,0.0 120.278372,23.256284,0.0 120.278114,23.259182,0.0 120.27793,23.261029,0.0</coordinates></LinearRing></outerBoundaryIs></Polygon><styleUrl>#spolygon-map</styleUrl></Placemark><Placemark><Polygon><outerBoundaryIs><LinearRing><coordinates>120.299342,23.262535,0.0 120.298371,23.264063,0.0 120.297117,23.264875,0.0 120.295433,23.26429,0.0 120.294976,23.263068,0.0 120.294307,23.261813,0.0 120.292451,23.261705,0.0 120.290526,23.261931,0.0 120.289156,23.26222,0.0 120.28836,23.261366,0.0 120.288234,23.26039,0.0 120.286841,23.260061,0.0 120.284417,23.260118,0.0 120.282862,23.260564,0.0 120.281233,23.261446,0.0 120.27793,23.261029,0.0 120.278244,23.257138,0.0 120.279022,23.252537,0.0 120.278116,23.244466,0.0 120.280518,23.244259,0.0 120.281934,23.237943,0.0 120.282445,23.231428,0.0 120.283671,23.230151,0.0 120.285688,23.231718,0.0 120.287957,23.231829,0.0 120.288179,23.232888,0.0 120.286263,23.232827,0.0 120.286181,23.234113,0.0 120.28718,23.235392,0.0 120.286345,23.236758,0.0 120.287568,23.236804,0.0 120.288004,23.237757,0.0 120.288223,23.238824,0.0 120.288473,23.239669,0.0 120.289429,23.240881,0.0 120.290199,23.241791,0.0 120.290946,23.241936,0.0 120.291604,23.24274,0.0 120.292523,23.243318,0.0 120.293285,23.243817,0.0 120.293821,23.244497,0.0 120.294725,23.245456,0.0 120.295713,23.246342,0.0 120.296912,23.246993,0.0 120.297132,23.248026,0.0 120.297539,23.248896,0.0 120.297215,23.251952,0.0 120.298523,23.253012,0.0 120.299335,23.257654,0.0 120.299754,23.258947,0.0 120.299452,23.261285,0.0 120.299985,23.261465,0.0 120.299413,23.262305,0.0 120.299342,23.262535,0.0</coordinates></LinearRing></outerBoundaryIs></Polygon><styleUrl>#spolygon-map</styleUrl></Placemark></Document>
</kml>
