<?xml version="1.0" encoding="UTF-8"?>
<kml xmlns="http://www.opengis.net/kml/2.2">
	<Document>
		<name>花蓮縣壽豐鄉</name>
		<Style id="spolygon">
			<LabelStyle>
				<scale>0.0</scale>
			</LabelStyle>
			<LineStyle>
				<color>330030ff</color>
				<width>0</width>
			</LineStyle>
			<PolyStyle>
				<color>330030ff</color>
			</PolyStyle>
		</Style>
		<StyleMap id="spolygon-map">
			<Pair>
				<key>normal</key>
				<styleUrl>#spolygon</styleUrl>
			</Pair>
		</StyleMap>
	<Placemark><Polygon><outerBoundaryIs><LinearRing><coordinates>121.592308,23.911152,0.0 121.583157,23.898255,0.0 121.570585,23.890965,0.0 121.556695,23.881484,0.0 121.535349,23.85046,0.0 121.527904,23.829636,0.0 121.552501,23.826157,0.0 121.566778,23.834631,0.0 121.57298,23.840353,0.0 121.574461,23.848188,0.0 121.570889,23.858732,0.0 121.574859,23.866136,0.0 121.577273,23.874407,0.0 121.583339,23.879442,0.0 121.587779,23.885295,0.0 121.589913,23.891593,0.0 121.593149,23.900028,0.0 121.598185,23.909571,0.0 121.596028,23.91661,0.0 121.593171,23.91186,0.0 121.592308,23.911152,0.0</coordinates></LinearRing></outerBoundaryIs></Polygon><styleUrl>#spolygon-map</styleUrl></Placemark><Placemark><Polygon><outerBoundaryIs><LinearRing><coordinates>121.551752,23.825132,0.0 121.540797,23.809018,0.0 121.532458,23.782082,0.0 121.517876,23.759088,0.0 121.516675,23.757848,0.0 121.516694,23.755979,0.0 121.517207,23.754165,0.0 121.516803,23.752633,0.0 121.516647,23.750324,0.0 121.516642,23.748363,0.0 121.51862,23.748397,0.0 121.519634,23.747165,0.0 121.519649,23.743914,0.0 121.519628,23.741075,0.0 121.520504,23.73811,0.0 121.522173,23.735915,0.0 121.523586,23.734282,0.0 121.524248,23.73184,0.0 121.52627,23.731266,0.0 121.528078,23.732116,0.0 121.530691,23.73212,0.0 121.533138,23.733265,0.0 121.536059,23.733294,0.0 121.537747,23.732755,0.0 121.539841,23.734059,0.0 121.542255,23.735486,0.0 121.543623,23.737545,0.0 121.545222,23.73956,0.0 121.545232,23.741183,0.0 121.546472,23.741894,0.0 121.549267,23.741595,0.0 121.550912,23.742847,0.0 121.55314,23.744096,0.0 121.555239,23.743818,0.0 121.556734,23.744853,0.0 121.558141,23.747525,0.0 121.558534,23.748718,0.0 121.559113,23.748014,0.0 121.560212,23.747947,0.0 121.5613,23.74869,0.0 121.562609,23.748672,0.0 121.563523,23.747395,0.0 121.564514,23.746563,0.0 121.565606,23.747153,0.0 121.567682,23.746892,0.0 121.568569,23.748487,0.0 121.569134,23.749785,0.0 121.569837,23.751568,0.0 121.570621,23.753274,0.0 121.571244,23.75571,0.0 121.571899,23.756997,0.0 121.572005,23.758443,0.0 121.572612,23.759649,0.0 121.572485,23.761295,0.0 121.571434,23.762353,0.0 121.570576,23.76428,0.0 121.570328,23.767777,0.0 121.570326,23.773186,0.0 121.570216,23.777349,0.0 121.570229,23.781142,0.0 121.570811,23.785857,0.0 121.571304,23.78961,0.0 121.571808,23.792608,0.0 121.572031,23.797555,0.0 121.572546,23.800558,0.0 121.57334,23.803162,0.0 121.574157,23.805521,0.0 121.575655,23.80996,0.0 121.57104,23.812694,0.0 121.562807,23.823187,0.0 121.561626,23.83173,0.0 121.551752,23.825132,0.0</coordinates></LinearRing></outerBoundaryIs></Polygon><styleUrl>#spolygon-map</styleUrl></Placemark><Placemark><Polygon><outerBoundaryIs><LinearRing><coordinates>121.564996,23.917946,0.0 121.557371,23.898191,0.0 121.525819,23.896745,0.0 121.513956,23.891744,0.0 121.518107,23.879769,0.0 121.528491,23.872856,0.0 121.540405,23.881311,0.0 121.566843,23.890507,0.0 121.581977,23.896761,0.0 121.590536,23.908191,0.0 121.58971,23.909304,0.0 121.584583,23.911405,0.0 121.5798,23.913141,0.0 121.574387,23.914498,0.0 121.567027,23.916907,0.0 121.564996,23.917946,0.0</coordinates></LinearRing></outerBoundaryIs></Polygon><styleUrl>#spolygon-map</styleUrl></Placemark><Placemark><Polygon><outerBoundaryIs><LinearRing><coordinates>121.501202,23.883307,0.0 121.51363,23.878746,0.0 121.516876,23.883819,0.0 121.507293,23.889717,0.0 121.501202,23.883307,0.0</coordinates></LinearRing></outerBoundaryIs></Polygon><styleUrl>#spolygon-map</styleUrl></Placemark><Placemark><Polygon><outerBoundaryIs><LinearRing><coordinates>121.517736,23.877615,0.0 121.509506,23.865956,0.0 121.501678,23.857128,0.0 121.518824,23.854563,0.0 121.533868,23.854831,0.0 121.556533,23.88083,0.0 121.533129,23.877425,0.0 121.522486,23.87463,0.0 121.517736,23.877615,0.0</coordinates></LinearRing></outerBoundaryIs></Polygon><styleUrl>#spolygon-map</styleUrl></Placemark><Placemark><Polygon><outerBoundaryIs><LinearRing><coordinates>121.511898,23.947916,0.0 121.510739,23.947782,0.0 121.510351,23.947305,0.0 121.509264,23.947354,0.0 121.508735,23.946814,0.0 121.508474,23.946359,0.0 121.507037,23.944889,0.0 121.507587,23.943125,0.0 121.508519,23.941957,0.0 121.508545,23.941047,0.0 121.508322,23.940549,0.0 121.507538,23.939565,0.0 121.50546,23.937635,0.0 121.506291,23.931043,0.0 121.504756,23.926691,0.0 121.502237,23.922783,0.0 121.501124,23.918922,0.0 121.50367,23.913362,0.0 121.504799,23.906801,0.0 121.503867,23.90337,0.0 121.503518,23.898633,0.0 121.501486,23.894267,0.0 121.502409,23.893,0.0 121.50141,23.891825,0.0 121.499853,23.890419,0.0 121.49826,23.889357,0.0 121.498705,23.886294,0.0 121.496013,23.88486,0.0 121.493237,23.882547,0.0 121.490878,23.880026,0.0 121.488412,23.87893,0.0 121.486602,23.878895,0.0 121.48315,23.877668,0.0 121.48028,23.875434,0.0 121.47835,23.873193,0.0 121.481698,23.869436,0.0 121.496014,23.874313,0.0 121.509861,23.890045,0.0 121.514485,23.89821,0.0 121.515431,23.908451,0.0 121.520503,23.918123,0.0 121.533152,23.928074,0.0 121.535572,23.929487,0.0 121.534729,23.930558,0.0 121.534665,23.93129,0.0 121.533876,23.932125,0.0 121.531764,23.934117,0.0 121.5304,23.935508,0.0 121.528723,23.937502,0.0 121.527006,23.938271,0.0 121.523811,23.941183,0.0 121.521456,23.943299,0.0 121.520208,23.944394,0.0 121.517998,23.945916,0.0 121.516201,23.947112,0.0 121.514582,23.94793,0.0 121.512424,23.948023,0.0 121.511898,23.947916,0.0</coordinates></LinearRing></outerBoundaryIs></Polygon><styleUrl>#spolygon-map</styleUrl></Placemark><Placemark><Polygon><outerBoundaryIs><LinearRing><coordinates>121.525375,23.830591,0.0 121.523552,23.81555,0.0 121.522551,23.810163,0.0 121.520531,23.80516,0.0 121.518215,23.802534,0.0 121.517411,23.798191,0.0 121.517653,23.795294,0.0 121.518557,23.79306,0.0 121.519694,23.790923,0.0 121.519305,23.787906,0.0 121.516576,23.785146,0.0 121.51503,23.783381,0.0 121.512151,23.782099,0.0 121.509979,23.781734,0.0 121.508147,23.780806,0.0 121.506261,23.780484,0.0 121.503518,23.779893,0.0 121.501143,23.778309,0.0 121.498988,23.776937,0.0 121.496897,23.77511,0.0 121.496133,23.773192,0.0 121.496802,23.771269,0.0 121.497848,23.77017,0.0 121.497742,23.767954,0.0 121.498864,23.76753,0.0 121.500128,23.766881,0.0 121.500603,23.766089,0.0 121.501476,23.765901,0.0 121.503144,23.766022,0.0 121.503526,23.765416,0.0 121.504581,23.765503,0.0 121.505476,23.765852,0.0 121.505977,23.765469,0.0 121.50624,23.764371,0.0 121.507615,23.764089,0.0 121.508845,23.76382,0.0 121.509825,23.763314,0.0 121.510584,23.7629,0.0 121.511983,23.763352,0.0 121.512457,23.761944,0.0 121.514198,23.76024,0.0 121.515509,23.759773,0.0 121.517153,23.759366,0.0 121.532103,23.773187,0.0 121.537968,23.794468,0.0 121.547483,23.818313,0.0 121.53315,23.827754,0.0 121.525375,23.830591,0.0</coordinates></LinearRing></outerBoundaryIs></Polygon><styleUrl>#spolygon-map</styleUrl></Placemark><Placemark><Polygon><outerBoundaryIs><LinearRing><coordinates>121.535928,23.928746,0.0 121.521216,23.920064,0.0 121.515838,23.909375,0.0 121.521274,23.898192,0.0 121.557486,23.897158,0.0 121.562843,23.913623,0.0 121.560208,23.920072,0.0 121.556486,23.922286,0.0 121.555515,23.922768,0.0 121.553524,23.924392,0.0 121.552253,23.924489,0.0 121.550958,23.92544,0.0 121.54828,23.926138,0.0 121.545888,23.925995,0.0 121.542576,23.9266,0.0 121.539313,23.927291,0.0 121.53641,23.928455,0.0 121.535928,23.928746,0.0</coordinates></LinearRing></outerBoundaryIs></Polygon><styleUrl>#spolygon-map</styleUrl></Placemark><Placemark><Polygon><outerBoundaryIs><LinearRing><coordinates>121.485098,23.831336,0.0 121.473515,23.828688,0.0 121.458146,23.826979,0.0 121.452823,23.825283,0.0 121.449594,23.821332,0.0 121.441866,23.820757,0.0 121.443387,23.817612,0.0 121.447103,23.814829,0.0 121.450493,23.812546,0.0 121.453893,23.81066,0.0 121.456973,23.809488,0.0 121.458147,23.808724,0.0 121.460886,23.808247,0.0 121.464543,23.807987,0.0 121.467546,23.807621,0.0 121.471348,23.807544,0.0 121.475105,23.807388,0.0 121.478991,23.807284,0.0 121.482023,23.807148,0.0 121.485212,23.807002,0.0 121.488944,23.807582,0.0 121.494452,23.807899,0.0 121.498349,23.808141,0.0 121.503345,23.809134,0.0 121.497343,23.821555,0.0 121.485716,23.830244,0.0 121.485098,23.831336,0.0</coordinates></LinearRing></outerBoundaryIs></Polygon><styleUrl>#spolygon-map</styleUrl></Placemark><Placemark><Polygon><outerBoundaryIs><LinearRing><coordinates>121.517736,23.877615,0.0 121.5077,23.881327,0.0 121.492776,23.871087,0.0 121.491574,23.863673,0.0 121.507474,23.863282,0.0 121.514489,23.873192,0.0 121.517736,23.877615,0.0</coordinates></LinearRing></outerBoundaryIs></Polygon><styleUrl>#spolygon-map</styleUrl></Placemark><Placemark><Polygon><outerBoundaryIs><LinearRing><coordinates>121.490981,23.839488,0.0 121.470307,23.848778,0.0 121.4597,23.853457,0.0 121.457412,23.852886,0.0 121.452595,23.851503,0.0 121.448363,23.848195,0.0 121.449112,23.846136,0.0 121.450502,23.844446,0.0 121.447905,23.842049,0.0 121.447919,23.84062,0.0 121.449655,23.837886,0.0 121.450606,23.834822,0.0 121.452589,23.831841,0.0 121.452988,23.829253,0.0 121.458146,23.826979,0.0 121.473515,23.828688,0.0 121.485098,23.831336,0.0 121.490981,23.839488,0.0</coordinates></LinearRing></outerBoundaryIs></Polygon><styleUrl>#spolygon-map</styleUrl></Placemark><Placemark><Polygon><outerBoundaryIs><LinearRing><coordinates>121.477548,23.87144,0.0 121.476923,23.870045,0.0 121.4761,23.86883,0.0 121.474377,23.86714,0.0 121.472536,23.866232,0.0 121.470681,23.866441,0.0 121.468525,23.864321,0.0 121.465713,23.862957,0.0 121.464251,23.859742,0.0 121.462529,23.856973,0.0 121.462862,23.852886,0.0 121.478712,23.844517,0.0 121.501375,23.857304,0.0 121.48315,23.86826,0.0 121.477548,23.87144,0.0</coordinates></LinearRing></outerBoundaryIs></Polygon><styleUrl>#spolygon-map</styleUrl></Placemark><Placemark><Polygon><outerBoundaryIs><LinearRing><coordinates>121.536633,23.852727,0.0 121.521152,23.857812,0.0 121.516435,23.847856,0.0 121.507727,23.840944,0.0 121.496137,23.833192,0.0 121.493498,23.822336,0.0 121.501097,23.817431,0.0 121.507189,23.810038,0.0 121.515324,23.813745,0.0 121.522051,23.815898,0.0 121.524438,23.823189,0.0 121.530333,23.843125,0.0 121.536633,23.852727,0.0</coordinates></LinearRing></outerBoundaryIs></Polygon><styleUrl>#spolygon-map</styleUrl></Placemark><Placemark><Polygon><outerBoundaryIs><LinearRing><coordinates>121.503118,23.856299,0.0 121.491922,23.826935,0.0 121.502448,23.833717,0.0 121.514981,23.844161,0.0 121.517628,23.852918,0.0 121.503118,23.856299,0.0</coordinates></LinearRing></outerBoundaryIs></Polygon><styleUrl>#spolygon-map</styleUrl></Placemark><Placemark><Polygon><outerBoundaryIs><LinearRing><coordinates>121.60732,23.939254,0.0 121.604973,23.935166,0.0 121.603619,23.931208,0.0 121.601518,23.926561,0.0 121.600002,23.923188,0.0 121.597907,23.919918,0.0 121.598917,23.910428,0.0 121.594092,23.901554,0.0 121.590191,23.892904,0.0 121.58812,23.885606,0.0 121.584288,23.879126,0.0 121.577075,23.875844,0.0 121.575197,23.865822,0.0 121.570959,23.859356,0.0 121.574104,23.848917,0.0 121.572849,23.841415,0.0 121.567392,23.835316,0.0 121.563193,23.828084,0.0 121.563939,23.817598,0.0 121.577115,23.812352,0.0 121.579115,23.81462,0.0 121.58135,23.817521,0.0 121.582885,23.820351,0.0 121.584264,23.825416,0.0 121.584254,23.827149,0.0 121.585247,23.829272,0.0 121.585861,23.829112,0.0 121.586079,23.829786,0.0 121.587334,23.82832,0.0 121.587073,23.829482,0.0 121.587985,23.832056,0.0 121.588667,23.834697,0.0 121.589338,23.836972,0.0 121.590873,23.840086,0.0 121.592488,23.843574,0.0 121.59354,23.846618,0.0 121.594537,23.849535,0.0 121.595522,23.852141,0.0 121.596289,23.854772,0.0 121.597096,23.857099,0.0 121.597638,23.85962,0.0 121.598108,23.862291,0.0 121.599107,23.86561,0.0 121.599581,23.868342,0.0 121.600256,23.871089,0.0 121.600806,23.873798,0.0 121.601199,23.876121,0.0 121.601865,23.877941,0.0 121.601938,23.880719,0.0 121.602795,23.883061,0.0 121.603161,23.885615,0.0 121.603452,23.887871,0.0 121.603957,23.89058,0.0 121.604333,23.89318,0.0 121.604552,23.896368,0.0 121.604758,23.898015,0.0 121.60467,23.901332,0.0 121.604144,23.903517,0.0 121.604178,23.906323,0.0 121.604175,23.90935,0.0 121.605222,23.91475,0.0 121.60562,23.916347,0.0 121.606515,23.919171,0.0 121.607689,23.921201,0.0 121.608519,23.9238,0.0 121.60872,23.926601,0.0 121.609289,23.929251,0.0 121.610178,23.930961,0.0 121.610926,23.932269,0.0 121.61125,23.934146,0.0 121.611071,23.935228,0.0 121.610812,23.936823,0.0 121.610216,23.939001,0.0 121.609232,23.943118,0.0 121.60732,23.939254,0.0</coordinates></LinearRing></outerBoundaryIs></Polygon><styleUrl>#spolygon-map</styleUrl></Placemark></Document>
</kml>
