<?xml version="1.0" encoding="UTF-8"?>
<kml xmlns="http://www.opengis.net/kml/2.2">
	<Document>
		<name>苗栗縣獅潭鄉</name>
		<Style id="spolygon">
			<LabelStyle>
				<scale>0.0</scale>
			</LabelStyle>
			<LineStyle>
				<color>330030ff</color>
				<width>0</width>
			</LineStyle>
			<PolyStyle>
				<color>330030ff</color>
			</PolyStyle>
		</Style>
		<StyleMap id="spolygon-map">
			<Pair>
				<key>normal</key>
				<styleUrl>#spolygon</styleUrl>
			</Pair>
		</StyleMap>
	<Placemark><Polygon><outerBoundaryIs><LinearRing><coordinates>120.8731,24.487401,0.0 120.872064,24.486725,0.0 120.871375,24.485464,0.0 120.871208,24.483846,0.0 120.870919,24.482416,0.0 120.870512,24.481632,0.0 120.869794,24.480674,0.0 120.869258,24.479754,0.0 120.868897,24.478199,0.0 120.868072,24.476615,0.0 120.867461,24.474553,0.0 120.866754,24.472635,0.0 120.866528,24.471348,0.0 120.866071,24.469996,0.0 120.866236,24.468809,0.0 120.866363,24.467635,0.0 120.866027,24.466411,0.0 120.864884,24.464728,0.0 120.865412,24.46421,0.0 120.866725,24.464175,0.0 120.868345,24.464426,0.0 120.87098,24.465382,0.0 120.874219,24.466474,0.0 120.876755,24.466929,0.0 120.877502,24.465788,0.0 120.877476,24.463803,0.0 120.87676,24.461687,0.0 120.875987,24.46035,0.0 120.874798,24.458491,0.0 120.874345,24.457155,0.0 120.875558,24.456121,0.0 120.876705,24.454366,0.0 120.878132,24.453679,0.0 120.879878,24.452211,0.0 120.881806,24.450558,0.0 120.883356,24.449503,0.0 120.883223,24.448312,0.0 120.887363,24.445517,0.0 120.891102,24.444663,0.0 120.893924,24.444677,0.0 120.896127,24.445023,0.0 120.898157,24.444989,0.0 120.900283,24.445603,0.0 120.902548,24.446459,0.0 120.904164,24.447135,0.0 120.905951,24.447947,0.0 120.907355,24.449236,0.0 120.909049,24.450579,0.0 120.910481,24.451972,0.0 120.91122,24.454157,0.0 120.911222,24.456267,0.0 120.911847,24.458733,0.0 120.912646,24.460386,0.0 120.913494,24.462114,0.0 120.914852,24.463632,0.0 120.916228,24.465,0.0 120.916381,24.465996,0.0 120.915375,24.466931,0.0 120.914879,24.46764,0.0 120.915313,24.46762,0.0 120.916078,24.468195,0.0 120.916462,24.469546,0.0 120.916603,24.470838,0.0 120.916677,24.472424,0.0 120.916419,24.473607,0.0 120.916861,24.474437,0.0 120.917593,24.475737,0.0 120.915551,24.476508,0.0 120.907944,24.47584,0.0 120.906883,24.473191,0.0 120.906621,24.47109,0.0 120.903016,24.471711,0.0 120.898623,24.472119,0.0 120.89495,24.472973,0.0 120.892045,24.472574,0.0 120.888058,24.473291,0.0 120.886992,24.47444,0.0 120.886919,24.477475,0.0 120.884205,24.477814,0.0 120.880554,24.479149,0.0 120.879059,24.480616,0.0 120.878593,24.482301,0.0 120.876758,24.485619,0.0 120.873936,24.486972,0.0 120.8731,24.487401,0.0</coordinates></LinearRing></outerBoundaryIs></Polygon><styleUrl>#spolygon-map</styleUrl></Placemark><Placemark><Polygon><outerBoundaryIs><LinearRing><coordinates>120.893433,24.48984,0.0 120.891389,24.490969,0.0 120.888095,24.492307,0.0 120.886476,24.493716,0.0 120.883043,24.495224,0.0 120.881158,24.495887,0.0 120.878697,24.498725,0.0 120.877644,24.497997,0.0 120.87649,24.497167,0.0 120.875933,24.496239,0.0 120.87606,24.494994,0.0 120.875664,24.494042,0.0 120.875266,24.492546,0.0 120.875248,24.491674,0.0 120.873755,24.491145,0.0 120.873196,24.490993,0.0 120.872669,24.490037,0.0 120.87232,24.489289,0.0 120.872852,24.488114,0.0 120.873337,24.487214,0.0 120.876023,24.486014,0.0 120.87832,24.483458,0.0 120.879,24.481328,0.0 120.87998,24.479374,0.0 120.882901,24.478007,0.0 120.886283,24.477805,0.0 120.88706,24.475055,0.0 120.887502,24.473616,0.0 120.890431,24.472486,0.0 120.89426,24.473162,0.0 120.897388,24.472259,0.0 120.901874,24.47149,0.0 120.906072,24.471071,0.0 120.906938,24.47199,0.0 120.907454,24.475086,0.0 120.907839,24.477612,0.0 120.907488,24.480363,0.0 120.906252,24.482253,0.0 120.904399,24.481804,0.0 120.90257,24.481384,0.0 120.899892,24.483798,0.0 120.898467,24.485182,0.0 120.897943,24.487628,0.0 120.89508,24.488388,0.0 120.893554,24.489662,0.0 120.893433,24.48984,0.0</coordinates></LinearRing></outerBoundaryIs></Polygon><styleUrl>#spolygon-map</styleUrl></Placemark><Placemark><Polygon><outerBoundaryIs><LinearRing><coordinates>120.891633,24.510382,0.0 120.890716,24.51064,0.0 120.889943,24.510896,0.0 120.889107,24.510906,0.0 120.88803,24.511479,0.0 120.887157,24.511946,0.0 120.886498,24.511623,0.0 120.88565,24.510687,0.0 120.884973,24.510061,0.0 120.884535,24.509226,0.0 120.884009,24.508778,0.0 120.882982,24.508802,0.0 120.882365,24.508267,0.0 120.881945,24.507463,0.0 120.881272,24.506777,0.0 120.880214,24.505724,0.0 120.879463,24.504866,0.0 120.878954,24.504028,0.0 120.879605,24.50312,0.0 120.880214,24.502108,0.0 120.879441,24.501205,0.0 120.87886,24.50022,0.0 120.878799,24.49897,0.0 120.881286,24.495833,0.0 120.883517,24.49511,0.0 120.886488,24.493495,0.0 120.888709,24.491986,0.0 120.891656,24.49095,0.0 120.893443,24.489819,0.0 120.895037,24.488502,0.0 120.897831,24.487813,0.0 120.898299,24.485324,0.0 120.899534,24.484124,0.0 120.902371,24.481504,0.0 120.904184,24.481713,0.0 120.906095,24.482488,0.0 120.907258,24.480707,0.0 120.908007,24.477865,0.0 120.907944,24.47584,0.0 120.915551,24.476508,0.0 120.919027,24.476563,0.0 120.919693,24.477799,0.0 120.920356,24.478811,0.0 120.921403,24.479881,0.0 120.921916,24.480967,0.0 120.921292,24.481839,0.0 120.920513,24.482601,0.0 120.920584,24.483843,0.0 120.920737,24.484694,0.0 120.920521,24.48571,0.0 120.920379,24.486941,0.0 120.919939,24.487689,0.0 120.919558,24.488587,0.0 120.919618,24.489476,0.0 120.919208,24.490285,0.0 120.919578,24.491012,0.0 120.919952,24.49191,0.0 120.920133,24.49277,0.0 120.920651,24.493623,0.0 120.921124,24.495343,0.0 120.921931,24.49553,0.0 120.92286,24.495688,0.0 120.923234,24.495827,0.0 120.92473,24.496024,0.0 120.92533,24.496157,0.0 120.926676,24.496304,0.0 120.925106,24.497885,0.0 120.920091,24.500988,0.0 120.911836,24.502377,0.0 120.906378,24.502919,0.0 120.902816,24.503923,0.0 120.902108,24.507081,0.0 120.897688,24.509175,0.0 120.891633,24.510382,0.0</coordinates></LinearRing></outerBoundaryIs></Polygon><styleUrl>#spolygon-map</styleUrl></Placemark><Placemark><Polygon><outerBoundaryIs><LinearRing><coordinates>120.916449,24.535467,0.0 120.912791,24.538062,0.0 120.90783,24.537755,0.0 120.907262,24.536518,0.0 120.90684,24.535196,0.0 120.906934,24.5339,0.0 120.906381,24.532611,0.0 120.905787,24.531446,0.0 120.905053,24.530109,0.0 120.904227,24.528707,0.0 120.903408,24.527537,0.0 120.902963,24.526268,0.0 120.902001,24.525523,0.0 120.901128,24.525124,0.0 120.900398,24.524994,0.0 120.899523,24.524661,0.0 120.899091,24.523936,0.0 120.899588,24.522643,0.0 120.89905,24.521207,0.0 120.898253,24.520284,0.0 120.897516,24.51888,0.0 120.897296,24.517873,0.0 120.896736,24.517168,0.0 120.896261,24.516539,0.0 120.895643,24.516003,0.0 120.895352,24.515243,0.0 120.894836,24.515102,0.0 120.893855,24.514777,0.0 120.893064,24.513975,0.0 120.891969,24.5137,0.0 120.891336,24.513286,0.0 120.891506,24.512047,0.0 120.891566,24.511017,0.0 120.893232,24.509838,0.0 120.900651,24.508872,0.0 120.902339,24.505524,0.0 120.904863,24.503403,0.0 120.908197,24.503465,0.0 120.915269,24.501095,0.0 120.923254,24.499614,0.0 120.926925,24.496248,0.0 120.927576,24.49664,0.0 120.928998,24.497227,0.0 120.929711,24.49807,0.0 120.930748,24.497747,0.0 120.932313,24.497029,0.0 120.933532,24.497201,0.0 120.935923,24.498011,0.0 120.937266,24.498678,0.0 120.939036,24.499116,0.0 120.94026,24.500174,0.0 120.941252,24.501318,0.0 120.942276,24.502515,0.0 120.943299,24.503451,0.0 120.942528,24.505467,0.0 120.940216,24.506983,0.0 120.939021,24.509504,0.0 120.936633,24.511515,0.0 120.933811,24.512415,0.0 120.933429,24.514071,0.0 120.932857,24.517517,0.0 120.928368,24.517606,0.0 120.926775,24.520249,0.0 120.922251,24.522821,0.0 120.922453,24.525308,0.0 120.923651,24.528939,0.0 120.919924,24.531482,0.0 120.918855,24.53249,0.0 120.918786,24.535888,0.0 120.91743,24.535763,0.0 120.916449,24.535467,0.0</coordinates></LinearRing></outerBoundaryIs></Polygon><styleUrl>#spolygon-map</styleUrl></Placemark><Placemark><Polygon><outerBoundaryIs><LinearRing><coordinates>120.92462,24.550234,0.0 120.921877,24.548954,0.0 120.919167,24.548786,0.0 120.915871,24.548457,0.0 120.913783,24.546152,0.0 120.911066,24.546275,0.0 120.9062,24.546858,0.0 120.905771,24.545819,0.0 120.905315,24.545425,0.0 120.904856,24.545009,0.0 120.904735,24.544672,0.0 120.9045,24.54369,0.0 120.903614,24.542803,0.0 120.90423,24.541666,0.0 120.905259,24.540599,0.0 120.90587,24.539143,0.0 120.907327,24.538128,0.0 120.910314,24.538666,0.0 120.915271,24.536864,0.0 120.917475,24.53579,0.0 120.918872,24.535548,0.0 120.919109,24.532402,0.0 120.920074,24.531417,0.0 120.923623,24.528779,0.0 120.922409,24.524977,0.0 120.922696,24.522598,0.0 120.927322,24.520114,0.0 120.928668,24.517503,0.0 120.932883,24.517458,0.0 120.933394,24.513893,0.0 120.933908,24.512225,0.0 120.937021,24.511408,0.0 120.939351,24.509247,0.0 120.940256,24.506816,0.0 120.942643,24.505417,0.0 120.9434,24.503488,0.0 120.944745,24.503004,0.0 120.946381,24.503158,0.0 120.947501,24.504362,0.0 120.948653,24.505817,0.0 120.949736,24.506467,0.0 120.950888,24.506494,0.0 120.952784,24.506577,0.0 120.954113,24.506276,0.0 120.954453,24.50541,0.0 120.955617,24.504779,0.0 120.957056,24.505004,0.0 120.958773,24.504733,0.0 120.962414,24.504405,0.0 120.964834,24.505606,0.0 120.964565,24.507484,0.0 120.962166,24.509476,0.0 120.959445,24.512186,0.0 120.957814,24.512693,0.0 120.956759,24.513719,0.0 120.955989,24.514901,0.0 120.955287,24.516221,0.0 120.954243,24.517045,0.0 120.953252,24.516779,0.0 120.953321,24.517452,0.0 120.954185,24.518754,0.0 120.954371,24.520067,0.0 120.954626,24.521536,0.0 120.954331,24.522743,0.0 120.953757,24.523331,0.0 120.952453,24.524058,0.0 120.950995,24.525121,0.0 120.951692,24.526333,0.0 120.950354,24.527461,0.0 120.949259,24.528076,0.0 120.94911,24.52947,0.0 120.950707,24.529865,0.0 120.951829,24.531034,0.0 120.951719,24.532407,0.0 120.952842,24.53317,0.0 120.953249,24.533898,0.0 120.953473,24.53501,0.0 120.953857,24.536444,0.0 120.95463,24.537289,0.0 120.955261,24.538601,0.0 120.955479,24.539914,0.0 120.954483,24.540727,0.0 120.953894,24.541702,0.0 120.952683,24.542665,0.0 120.947308,24.543342,0.0 120.945667,24.544154,0.0 120.940845,24.54478,0.0 120.937198,24.541856,0.0 120.931402,24.543216,0.0 120.926667,24.54806,0.0 120.92462,24.550234,0.0</coordinates></LinearRing></outerBoundaryIs></Polygon><styleUrl>#spolygon-map</styleUrl></Placemark><Placemark><Polygon><outerBoundaryIs><LinearRing><coordinates>120.935692,24.581283,0.0 120.934193,24.581056,0.0 120.933905,24.580366,0.0 120.933232,24.579936,0.0 120.932264,24.580028,0.0 120.931537,24.579713,0.0 120.931082,24.578791,0.0 120.930574,24.578096,0.0 120.930313,24.577461,0.0 120.929618,24.576639,0.0 120.929534,24.575839,0.0 120.928895,24.575372,0.0 120.928415,24.57487,0.0 120.9278,24.573584,0.0 120.927487,24.572699,0.0 120.92602,24.570863,0.0 120.925132,24.569191,0.0 120.924082,24.567385,0.0 120.923034,24.56582,0.0 120.922093,24.563946,0.0 120.92021,24.560625,0.0 120.918915,24.557926,0.0 120.916183,24.558923,0.0 120.913804,24.559067,0.0 120.910515,24.557503,0.0 120.909138,24.555382,0.0 120.90813,24.554189,0.0 120.908033,24.553339,0.0 120.907267,24.552427,0.0 120.906911,24.551342,0.0 120.906137,24.550706,0.0 120.905973,24.549687,0.0 120.905856,24.548738,0.0 120.906158,24.547545,0.0 120.909239,24.546981,0.0 120.913302,24.545593,0.0 120.914916,24.54819,0.0 120.918048,24.548927,0.0 120.920824,24.5496,0.0 120.923599,24.550361,0.0 120.926078,24.548835,0.0 120.930951,24.543422,0.0 120.936819,24.541805,0.0 120.940538,24.544699,0.0 120.94525,24.544294,0.0 120.947039,24.543539,0.0 120.951588,24.542821,0.0 120.954537,24.543456,0.0 120.955776,24.544395,0.0 120.955794,24.545582,0.0 120.955823,24.546802,0.0 120.955953,24.548375,0.0 120.955972,24.54939,0.0 120.956253,24.550657,0.0 120.956662,24.551671,0.0 120.957668,24.55232,0.0 120.958407,24.552574,0.0 120.95909,24.552927,0.0 120.959405,24.553531,0.0 120.959445,24.554348,0.0 120.959733,24.555224,0.0 120.96017,24.556151,0.0 120.960565,24.556946,0.0 120.961094,24.557425,0.0 120.961582,24.557999,0.0 120.962064,24.558518,0.0 120.962497,24.55915,0.0 120.962552,24.559842,0.0 120.962748,24.560591,0.0 120.961483,24.562716,0.0 120.958364,24.564755,0.0 120.955688,24.564906,0.0 120.954268,24.566901,0.0 120.953585,24.569804,0.0 120.949774,24.572029,0.0 120.94721,24.572956,0.0 120.945056,24.570413,0.0 120.942461,24.571529,0.0 120.939655,24.571818,0.0 120.937797,24.571268,0.0 120.937714,24.573364,0.0 120.936725,24.575017,0.0 120.938743,24.576872,0.0 120.936454,24.577233,0.0 120.934546,24.577967,0.0 120.935746,24.581144,0.0 120.935692,24.581283,0.0</coordinates></LinearRing></outerBoundaryIs></Polygon><styleUrl>#spolygon-map</styleUrl></Placemark><Placemark><Polygon><outerBoundaryIs><LinearRing><coordinates>120.953936,24.599623,0.0 120.952991,24.600087,0.0 120.951976,24.600658,0.0 120.951141,24.600828,0.0 120.95021,24.600999,0.0 120.949263,24.601159,0.0 120.94888,24.600858,0.0 120.948768,24.600261,0.0 120.94817,24.599857,0.0 120.947804,24.599156,0.0 120.947123,24.598915,0.0 120.946483,24.598508,0.0 120.94594,24.598034,0.0 120.945427,24.597141,0.0 120.944935,24.596232,0.0 120.944144,24.59595,0.0 120.943101,24.595766,0.0 120.942318,24.595875,0.0 120.941645,24.595721,0.0 120.94119,24.595062,0.0 120.940804,24.594459,0.0 120.940057,24.593701,0.0 120.939377,24.593169,0.0 120.938663,24.592074,0.0 120.938251,24.591202,0.0 120.937376,24.590042,0.0 120.93673,24.589408,0.0 120.936363,24.588617,0.0 120.935875,24.587772,0.0 120.935416,24.586895,0.0 120.935015,24.5858,0.0 120.934632,24.58519,0.0 120.934337,24.584397,0.0 120.934241,24.583423,0.0 120.934143,24.582112,0.0 120.935563,24.581478,0.0 120.934969,24.578939,0.0 120.935038,24.576936,0.0 120.938347,24.577047,0.0 120.93736,24.575638,0.0 120.937835,24.57393,0.0 120.937025,24.571179,0.0 120.938688,24.572465,0.0 120.941373,24.572114,0.0 120.944675,24.570192,0.0 120.946664,24.57222,0.0 120.948675,24.573143,0.0 120.952476,24.57021,0.0 120.95454,24.568248,0.0 120.954801,24.565745,0.0 120.957318,24.564759,0.0 120.960804,24.563482,0.0 120.963147,24.561048,0.0 120.963932,24.561406,0.0 120.964445,24.561749,0.0 120.964908,24.562194,0.0 120.965262,24.562886,0.0 120.965609,24.563536,0.0 120.966106,24.564192,0.0 120.966543,24.564986,0.0 120.9673,24.565847,0.0 120.967858,24.566446,0.0 120.968386,24.566839,0.0 120.968864,24.567436,0.0 120.969148,24.568124,0.0 120.969642,24.568538,0.0 120.970094,24.569131,0.0 120.969891,24.569835,0.0 120.969505,24.570527,0.0 120.969355,24.571227,0.0 120.969601,24.571815,0.0 120.969743,24.572512,0.0 120.969939,24.573223,0.0 120.970572,24.574403,0.0 120.970569,24.575421,0.0 120.970605,24.576363,0.0 120.971315,24.577177,0.0 120.972042,24.577678,0.0 120.972482,24.578404,0.0 120.972855,24.579401,0.0 120.973188,24.580453,0.0 120.973557,24.581415,0.0 120.974036,24.582362,0.0 120.974555,24.583259,0.0 120.973472,24.583992,0.0 120.972538,24.584379,0.0 120.971893,24.585025,0.0 120.970808,24.585149,0.0 120.969879,24.585641,0.0 120.969025,24.586122,0.0 120.96811,24.586329,0.0 120.967193,24.58645,0.0 120.966553,24.587085,0.0 120.966245,24.588547,0.0 120.96585,24.589342,0.0 120.965185,24.58992,0.0 120.96432,24.590558,0.0 120.963751,24.591129,0.0 120.963264,24.59178,0.0 120.962801,24.591762,0.0 120.962321,24.592004,0.0 120.961782,24.592411,0.0 120.96171,24.592967,0.0 120.961333,24.59351,0.0 120.960644,24.593839,0.0 120.960191,24.594308,0.0 120.959698,24.594207,0.0 120.959202,24.594666,0.0 120.959193,24.595117,0.0 120.958592,24.595341,0.0 120.958788,24.595682,0.0 120.958603,24.596067,0.0 120.957693,24.595907,0.0 120.957433,24.596566,0.0 120.956956,24.597046,0.0 120.956644,24.597495,0.0 120.956309,24.597844,0.0 120.956023,24.598311,0.0 120.956197,24.599022,0.0 120.95599,24.599799,0.0 120.955657,24.599812,0.0 120.954582,24.599599,0.0 120.953936,24.599623,0.0</coordinates></LinearRing></outerBoundaryIs></Polygon><styleUrl>#spolygon-map</styleUrl></Placemark></Document>
</kml>
