<?xml version="1.0" encoding="UTF-8"?>
<kml xmlns="http://www.opengis.net/kml/2.2">
	<Document>
		<name>苗栗縣大湖鄉</name>
		<Style id="spolygon">
			<LabelStyle>
				<scale>0.0</scale>
			</LabelStyle>
			<LineStyle>
				<color>330030ff</color>
				<width>0</width>
			</LineStyle>
			<PolyStyle>
				<color>330030ff</color>
			</PolyStyle>
		</Style>
		<StyleMap id="spolygon-map">
			<Pair>
				<key>normal</key>
				<styleUrl>#spolygon</styleUrl>
			</Pair>
		</StyleMap>
	<Placemark><Polygon><outerBoundaryIs><LinearRing><coordinates>120.814824,24.366637,0.0 120.812725,24.37043,0.0 120.810784,24.37288,0.0 120.809204,24.373326,0.0 120.808539,24.372327,0.0 120.807801,24.371966,0.0 120.806983,24.371281,0.0 120.806813,24.370122,0.0 120.80706,24.36871,0.0 120.807111,24.367339,0.0 120.806547,24.366425,0.0 120.805779,24.365688,0.0 120.804889,24.364657,0.0 120.80366,24.363456,0.0 120.802408,24.362454,0.0 120.801479,24.361755,0.0 120.800214,24.360846,0.0 120.798861,24.359815,0.0 120.797583,24.358997,0.0 120.79678,24.357588,0.0 120.795768,24.356878,0.0 120.794638,24.356385,0.0 120.793352,24.355892,0.0 120.792065,24.355187,0.0 120.791086,24.354422,0.0 120.789472,24.354254,0.0 120.788912,24.353604,0.0 120.78773,24.353029,0.0 120.787079,24.353298,0.0 120.78648,24.353089,0.0 120.786269,24.352475,0.0 120.785352,24.351965,0.0 120.78387,24.353214,0.0 120.783301,24.353314,0.0 120.782,24.352269,0.0 120.78112,24.351781,0.0 120.780369,24.351689,0.0 120.779588,24.350667,0.0 120.778852,24.35043,0.0 120.777761,24.350239,0.0 120.777943,24.349647,0.0 120.777546,24.348772,0.0 120.777102,24.347872,0.0 120.776705,24.34669,0.0 120.777118,24.345954,0.0 120.777297,24.344816,0.0 120.776361,24.343995,0.0 120.776122,24.343224,0.0 120.775478,24.342215,0.0 120.775981,24.341349,0.0 120.775995,24.340338,0.0 120.775912,24.339492,0.0 120.776758,24.339635,0.0 120.778303,24.341054,0.0 120.7791,24.342206,0.0 120.779887,24.343509,0.0 120.781069,24.344576,0.0 120.782179,24.344532,0.0 120.783222,24.343612,0.0 120.783945,24.34341,0.0 120.784562,24.34316,0.0 120.784402,24.342475,0.0 120.783811,24.342001,0.0 120.784259,24.341439,0.0 120.785203,24.341357,0.0 120.786399,24.342163,0.0 120.787342,24.342145,0.0 120.78863,24.341624,0.0 120.789978,24.340933,0.0 120.790751,24.34089,0.0 120.791189,24.341761,0.0 120.791721,24.342633,0.0 120.792692,24.343126,0.0 120.793563,24.34267,0.0 120.794384,24.341668,0.0 120.79432,24.34045,0.0 120.794439,24.33965,0.0 120.795463,24.33949,0.0 120.79661,24.340054,0.0 120.797487,24.340922,0.0 120.798445,24.341152,0.0 120.799409,24.340777,0.0 120.800047,24.339762,0.0 120.800781,24.339252,0.0 120.801504,24.339533,0.0 120.801401,24.340406,0.0 120.801486,24.341143,0.0 120.802585,24.341444,0.0 120.803744,24.34205,0.0 120.804972,24.342767,0.0 120.806041,24.342923,0.0 120.806916,24.342289,0.0 120.807439,24.341837,0.0 120.808356,24.342251,0.0 120.80953,24.343006,0.0 120.810257,24.343773,0.0 120.810092,24.344987,0.0 120.809948,24.34577,0.0 120.811424,24.346182,0.0 120.812172,24.347138,0.0 120.813304,24.347188,0.0 120.814549,24.3462,0.0 120.814588,24.345391,0.0 120.813522,24.344415,0.0 120.812062,24.343435,0.0 120.81206,24.342607,0.0 120.812,24.341625,0.0 120.813129,24.340881,0.0 120.814549,24.341369,0.0 120.815094,24.342773,0.0 120.816833,24.343374,0.0 120.818818,24.34425,0.0 120.820341,24.343717,0.0 120.821232,24.342461,0.0 120.821982,24.341588,0.0 120.823443,24.341459,0.0 120.825122,24.342456,0.0 120.826806,24.342762,0.0 120.829154,24.34284,0.0 120.830851,24.343209,0.0 120.83264,24.344119,0.0 120.833532,24.344718,0.0 120.834107,24.345899,0.0 120.835051,24.3471,0.0 120.836181,24.347567,0.0 120.837181,24.347341,0.0 120.837577,24.346487,0.0 120.838594,24.345862,0.0 120.839855,24.34582,0.0 120.840591,24.346604,0.0 120.839779,24.347627,0.0 120.839635,24.348178,0.0 120.840492,24.347753,0.0 120.840798,24.347929,0.0 120.840658,24.349491,0.0 120.839874,24.350129,0.0 120.84007,24.3519,0.0 120.84028,24.352418,0.0 120.84099,24.352868,0.0 120.841058,24.353514,0.0 120.841302,24.354112,0.0 120.842626,24.354373,0.0 120.843934,24.354717,0.0 120.844811,24.354924,0.0 120.844557,24.355857,0.0 120.845016,24.356555,0.0 120.845431,24.357174,0.0 120.845903,24.357809,0.0 120.844371,24.358209,0.0 120.842333,24.360235,0.0 120.842637,24.361499,0.0 120.84299,24.36177,0.0 120.843042,24.362163,0.0 120.84341,24.362744,0.0 120.842887,24.362555,0.0 120.841211,24.362517,0.0 120.840344,24.363049,0.0 120.839877,24.363137,0.0 120.838681,24.3628,0.0 120.837904,24.362425,0.0 120.837189,24.360774,0.0 120.834914,24.359882,0.0 120.830972,24.358077,0.0 120.826341,24.357205,0.0 120.824772,24.358719,0.0 120.823327,24.359336,0.0 120.822408,24.361256,0.0 120.820112,24.361464,0.0 120.818515,24.36239,0.0 120.816847,24.364524,0.0 120.814824,24.366637,0.0</coordinates></LinearRing></outerBoundaryIs></Polygon><styleUrl>#spolygon-map</styleUrl></Placemark><Placemark><Polygon><outerBoundaryIs><LinearRing><coordinates>120.873129,24.380799,0.0 120.870603,24.380948,0.0 120.869657,24.381736,0.0 120.868027,24.380529,0.0 120.867973,24.380216,0.0 120.867496,24.379948,0.0 120.866972,24.380075,0.0 120.866755,24.38067,0.0 120.865986,24.380808,0.0 120.865342,24.380739,0.0 120.864763,24.380469,0.0 120.863894,24.379562,0.0 120.863846,24.379323,0.0 120.864032,24.379207,0.0 120.864493,24.378946,0.0 120.864683,24.378748,0.0 120.864776,24.378484,0.0 120.864825,24.378119,0.0 120.864937,24.378011,0.0 120.865297,24.37785,0.0 120.865467,24.377667,0.0 120.865579,24.377292,0.0 120.865377,24.377117,0.0 120.864855,24.377082,0.0 120.863628,24.377478,0.0 120.863255,24.377347,0.0 120.86293,24.377219,0.0 120.862407,24.377368,0.0 120.862261,24.377777,0.0 120.861744,24.377572,0.0 120.86114,24.377184,0.0 120.860785,24.377006,0.0 120.860798,24.376634,0.0 120.860329,24.375358,0.0 120.859983,24.375277,0.0 120.859726,24.375389,0.0 120.859597,24.375159,0.0 120.859579,24.374919,0.0 120.859439,24.374742,0.0 120.859044,24.374425,0.0 120.858716,24.374105,0.0 120.858037,24.373325,0.0 120.857954,24.372874,0.0 120.85771,24.372586,0.0 120.856738,24.371682,0.0 120.856332,24.371499,0.0 120.855854,24.371437,0.0 120.855363,24.371634,0.0 120.853958,24.371291,0.0 120.85228,24.369542,0.0 120.852031,24.36899,0.0 120.852032,24.368386,0.0 120.851745,24.368143,0.0 120.850978,24.367286,0.0 120.850645,24.366732,0.0 120.850682,24.365243,0.0 120.850434,24.364342,0.0 120.85,24.364179,0.0 120.849943,24.363585,0.0 120.850339,24.362744,0.0 120.850279,24.362599,0.0 120.849748,24.362717,0.0 120.849269,24.362806,0.0 120.848967,24.362548,0.0 120.849166,24.361789,0.0 120.849608,24.361054,0.0 120.85018,24.361109,0.0 120.850927,24.361018,0.0 120.851529,24.361152,0.0 120.852209,24.361735,0.0 120.852862,24.361603,0.0 120.853559,24.361118,0.0 120.85382,24.360039,0.0 120.854377,24.359356,0.0 120.854757,24.358997,0.0 120.855308,24.358712,0.0 120.855829,24.358715,0.0 120.85623,24.358932,0.0 120.856447,24.359426,0.0 120.85692,24.359342,0.0 120.857001,24.358792,0.0 120.857185,24.358019,0.0 120.857396,24.35724,0.0 120.857504,24.356695,0.0 120.857681,24.355981,0.0 120.858435,24.355541,0.0 120.859277,24.355463,0.0 120.859834,24.354919,0.0 120.860707,24.355354,0.0 120.86116,24.355845,0.0 120.86159,24.356864,0.0 120.862166,24.357223,0.0 120.862981,24.357845,0.0 120.86369,24.358099,0.0 120.865304,24.359016,0.0 120.866337,24.359438,0.0 120.867139,24.359636,0.0 120.868189,24.360215,0.0 120.868795,24.360316,0.0 120.869813,24.360564,0.0 120.871094,24.360763,0.0 120.871791,24.360852,0.0 120.872811,24.361456,0.0 120.873499,24.362162,0.0 120.873908,24.363011,0.0 120.87442,24.362598,0.0 120.87464,24.361586,0.0 120.875097,24.360873,0.0 120.876401,24.360445,0.0 120.877454,24.360273,0.0 120.878761,24.36027,0.0 120.879893,24.360669,0.0 120.880783,24.361488,0.0 120.882523,24.362211,0.0 120.883437,24.36261,0.0 120.88456,24.363217,0.0 120.885105,24.363815,0.0 120.885918,24.36379,0.0 120.886667,24.363874,0.0 120.883416,24.367577,0.0 120.880799,24.369032,0.0 120.879359,24.372693,0.0 120.878136,24.374321,0.0 120.877013,24.376104,0.0 120.87429,24.378627,0.0 120.87314,24.380649,0.0 120.873129,24.380799,0.0</coordinates></LinearRing></outerBoundaryIs></Polygon><styleUrl>#spolygon-map</styleUrl></Placemark><Placemark><Polygon><outerBoundaryIs><LinearRing><coordinates>120.914276,24.38797,0.0 120.915601,24.391136,0.0 120.91443,24.392033,0.0 120.911955,24.390664,0.0 120.908614,24.389437,0.0 120.905006,24.38913,0.0 120.898043,24.386677,0.0 120.894661,24.385476,0.0 120.891879,24.385615,0.0 120.888646,24.386535,0.0 120.885425,24.389208,0.0 120.880976,24.391794,0.0 120.88081,24.390571,0.0 120.880841,24.388171,0.0 120.880533,24.386639,0.0 120.878831,24.386567,0.0 120.875856,24.385892,0.0 120.874931,24.384211,0.0 120.873104,24.383299,0.0 120.873129,24.380799,0.0 120.874006,24.378783,0.0 120.87681,24.376309,0.0 120.878051,24.374387,0.0 120.879372,24.373032,0.0 120.880627,24.369208,0.0 120.883106,24.367869,0.0 120.886564,24.364037,0.0 120.887803,24.36335,0.0 120.889064,24.362974,0.0 120.890624,24.363511,0.0 120.891597,24.363558,0.0 120.893382,24.36313,0.0 120.894417,24.36296,0.0 120.895144,24.362829,0.0 120.896293,24.362868,0.0 120.897642,24.362801,0.0 120.898848,24.362592,0.0 120.899488,24.36193,0.0 120.901091,24.362642,0.0 120.902279,24.363559,0.0 120.903846,24.364792,0.0 120.904761,24.365008,0.0 120.906278,24.36435,0.0 120.907489,24.364226,0.0 120.909408,24.364537,0.0 120.912375,24.364884,0.0 120.913697,24.367677,0.0 120.91354,24.372324,0.0 120.914801,24.375922,0.0 120.914083,24.37957,0.0 120.914314,24.38272,0.0 120.914758,24.387216,0.0 120.914276,24.38797,0.0</coordinates></LinearRing></outerBoundaryIs></Polygon><styleUrl>#spolygon-map</styleUrl></Placemark><Placemark><Polygon><outerBoundaryIs><LinearRing><coordinates>120.83707,24.401274,0.0 120.835739,24.400685,0.0 120.834256,24.399184,0.0 120.833269,24.398239,0.0 120.832453,24.397844,0.0 120.831379,24.396288,0.0 120.830317,24.395915,0.0 120.829136,24.395599,0.0 120.828177,24.395391,0.0 120.827019,24.395553,0.0 120.825939,24.39525,0.0 120.825203,24.394875,0.0 120.824798,24.392947,0.0 120.825039,24.391695,0.0 120.8245,24.390104,0.0 120.823399,24.389224,0.0 120.822602,24.388879,0.0 120.822818,24.387393,0.0 120.822642,24.385958,0.0 120.822143,24.384643,0.0 120.822269,24.383197,0.0 120.821525,24.381373,0.0 120.820449,24.380183,0.0 120.820101,24.379281,0.0 120.819773,24.378439,0.0 120.819183,24.377523,0.0 120.818841,24.376261,0.0 120.817538,24.375457,0.0 120.816089,24.375215,0.0 120.81432,24.374803,0.0 120.813185,24.374875,0.0 120.812151,24.375222,0.0 120.810884,24.375146,0.0 120.810246,24.373627,0.0 120.812219,24.371789,0.0 120.813825,24.368379,0.0 120.815847,24.365296,0.0 120.817988,24.363335,0.0 120.819466,24.361658,0.0 120.821545,24.361406,0.0 120.822926,24.360543,0.0 120.8242,24.359074,0.0 120.825501,24.357608,0.0 120.829046,24.357611,0.0 120.833172,24.358755,0.0 120.836681,24.360661,0.0 120.83763,24.36191,0.0 120.838252,24.362693,0.0 120.839697,24.363023,0.0 120.840141,24.36321,0.0 120.840781,24.362745,0.0 120.842157,24.36246,0.0 120.843187,24.36266,0.0 120.843148,24.362274,0.0 120.84302,24.361844,0.0 120.842719,24.36159,0.0 120.842535,24.360863,0.0 120.843804,24.35892,0.0 120.846077,24.358032,0.0 120.846651,24.35823,0.0 120.847108,24.358635,0.0 120.847213,24.359703,0.0 120.847241,24.360269,0.0 120.847817,24.360644,0.0 120.848706,24.360709,0.0 120.849345,24.360959,0.0 120.849427,24.361323,0.0 120.849001,24.362073,0.0 120.849067,24.362714,0.0 120.84941,24.362823,0.0 120.8501,24.362575,0.0 120.850336,24.362661,0.0 120.850194,24.363031,0.0 120.84992,24.364067,0.0 120.85031,24.364231,0.0 120.850557,24.364607,0.0 120.850643,24.366016,0.0 120.850694,24.36684,0.0 120.85163,24.367929,0.0 120.852001,24.368271,0.0 120.852013,24.368552,0.0 120.851993,24.369173,0.0 120.853026,24.370118,0.0 120.854461,24.371356,0.0 120.855491,24.371607,0.0 120.855933,24.37142,0.0 120.856434,24.371542,0.0 120.857408,24.372014,0.0 120.857769,24.372683,0.0 120.857977,24.372985,0.0 120.858186,24.373507,0.0 120.858859,24.374276,0.0 120.859251,24.374586,0.0 120.859496,24.374789,0.0 120.859586,24.375017,0.0 120.859642,24.375339,0.0 120.859798,24.375366,0.0 120.859945,24.375331,0.0 120.8592,24.375975,0.0 120.858709,24.376393,0.0 120.858335,24.376453,0.0 120.857855,24.376654,0.0 120.857267,24.376775,0.0 120.856775,24.376794,0.0 120.856492,24.377001,0.0 120.855961,24.377126,0.0 120.85558,24.377534,0.0 120.855186,24.37769,0.0 120.854639,24.377967,0.0 120.854188,24.377878,0.0 120.853681,24.377844,0.0 120.853285,24.377969,0.0 120.852959,24.377967,0.0 120.852823,24.37818,0.0 120.852516,24.378096,0.0 120.852237,24.378401,0.0 120.852081,24.378617,0.0 120.851881,24.378851,0.0 120.851356,24.378693,0.0 120.850578,24.37893,0.0 120.850533,24.379589,0.0 120.849794,24.379542,0.0 120.849561,24.379649,0.0 120.849213,24.379914,0.0 120.848845,24.38019,0.0 120.848244,24.380892,0.0 120.848128,24.38158,0.0 120.84793,24.382024,0.0 120.847358,24.38206,0.0 120.84692,24.382253,0.0 120.844495,24.383815,0.0 120.843325,24.384833,0.0 120.842434,24.385417,0.0 120.841157,24.386136,0.0 120.841234,24.388641,0.0 120.841237,24.392107,0.0 120.839519,24.394648,0.0 120.838847,24.396708,0.0 120.837755,24.399269,0.0 120.83707,24.401274,0.0</coordinates></LinearRing></outerBoundaryIs></Polygon><styleUrl>#spolygon-map</styleUrl></Placemark><Placemark><Polygon><outerBoundaryIs><LinearRing><coordinates>120.837125,24.401309,0.0 120.837286,24.400387,0.0 120.838293,24.397795,0.0 120.839319,24.395385,0.0 120.840911,24.392624,0.0 120.84148,24.39022,0.0 120.841185,24.38638,0.0 120.841921,24.385605,0.0 120.843219,24.384885,0.0 120.843988,24.384268,0.0 120.845924,24.382024,0.0 120.847257,24.382044,0.0 120.847693,24.38209,0.0 120.848231,24.381791,0.0 120.848113,24.38116,0.0 120.848844,24.380261,0.0 120.849133,24.379947,0.0 120.849498,24.379806,0.0 120.849728,24.379549,0.0 120.850385,24.379621,0.0 120.850512,24.379236,0.0 120.851024,24.378819,0.0 120.851807,24.378841,0.0 120.852046,24.378714,0.0 120.852226,24.37848,0.0 120.85228,24.378173,0.0 120.852776,24.378191,0.0 120.852929,24.377981,0.0 120.853229,24.377991,0.0 120.853517,24.377896,0.0 120.854074,24.377863,0.0 120.854583,24.377981,0.0 120.854994,24.377746,0.0 120.855475,24.377653,0.0 120.855811,24.377304,0.0 120.856287,24.376966,0.0 120.856701,24.376905,0.0 120.857128,24.376803,0.0 120.857745,24.376695,0.0 120.85819,24.376479,0.0 120.858662,24.376442,0.0 120.858919,24.376136,0.0 120.859577,24.375688,0.0 120.860105,24.375234,0.0 120.860656,24.376049,0.0 120.860817,24.376722,0.0 120.860775,24.377098,0.0 120.861281,24.377234,0.0 120.861953,24.377988,0.0 120.862346,24.377671,0.0 120.862588,24.377207,0.0 120.863119,24.377251,0.0 120.863408,24.377486,0.0 120.863946,24.377349,0.0 120.865026,24.377081,0.0 120.865459,24.377165,0.0 120.865581,24.377343,0.0 120.865428,24.377725,0.0 120.865225,24.377885,0.0 120.864899,24.378035,0.0 120.864802,24.378176,0.0 120.864763,24.378562,0.0 120.864641,24.378812,0.0 120.864255,24.37912,0.0 120.86395,24.379235,0.0 120.863824,24.379379,0.0 120.864095,24.37987,0.0 120.864843,24.380519,0.0 120.865431,24.380751,0.0 120.866262,24.380841,0.0 120.866843,24.380264,0.0 120.867132,24.379994,0.0 120.867618,24.37997,0.0 120.868029,24.380359,0.0 120.868127,24.380863,0.0 120.869972,24.381537,0.0 120.871235,24.381585,0.0 120.873062,24.381818,0.0 120.874063,24.383465,0.0 120.875153,24.384961,0.0 120.876417,24.386246,0.0 120.879517,24.386585,0.0 120.88092,24.386908,0.0 120.880605,24.388943,0.0 120.88047,24.391132,0.0 120.881312,24.392863,0.0 120.880993,24.395209,0.0 120.879295,24.396857,0.0 120.876923,24.398177,0.0 120.872565,24.398531,0.0 120.868929,24.399473,0.0 120.86856,24.398633,0.0 120.863768,24.399974,0.0 120.859502,24.400045,0.0 120.857157,24.398632,0.0 120.852696,24.39943,0.0 120.848435,24.400039,0.0 120.844915,24.399826,0.0 120.842882,24.39965,0.0 120.839036,24.399829,0.0 120.837125,24.401309,0.0</coordinates></LinearRing></outerBoundaryIs></Polygon><styleUrl>#spolygon-map</styleUrl></Placemark><Placemark><Polygon><outerBoundaryIs><LinearRing><coordinates>120.843257,24.421028,0.0 120.843255,24.421196,0.0 120.842531,24.420985,0.0 120.841815,24.420657,0.0 120.840853,24.419117,0.0 120.840264,24.41789,0.0 120.840012,24.416856,0.0 120.839139,24.416451,0.0 120.838203,24.415946,0.0 120.837234,24.415867,0.0 120.836703,24.415108,0.0 120.836266,24.414408,0.0 120.836122,24.412891,0.0 120.836426,24.411732,0.0 120.838104,24.411244,0.0 120.839242,24.410049,0.0 120.83995,24.409149,0.0 120.840459,24.407475,0.0 120.840689,24.406347,0.0 120.840261,24.405807,0.0 120.839913,24.404982,0.0 120.838879,24.404153,0.0 120.837814,24.403481,0.0 120.837164,24.402959,0.0 120.837644,24.401935,0.0 120.837267,24.401455,0.0 120.838706,24.399963,0.0 120.84239,24.399587,0.0 120.844816,24.39981,0.0 120.848017,24.400178,0.0 120.852235,24.399362,0.0 120.856848,24.398781,0.0 120.8591,24.399834,0.0 120.863259,24.40002,0.0 120.867601,24.398963,0.0 120.868771,24.400078,0.0 120.868921,24.40209,0.0 120.866579,24.40288,0.0 120.86343,24.404396,0.0 120.861024,24.406908,0.0 120.858409,24.409185,0.0 120.855606,24.410637,0.0 120.852987,24.411714,0.0 120.851771,24.411675,0.0 120.852062,24.414754,0.0 120.85194,24.414912,0.0 120.851874,24.415213,0.0 120.850461,24.417151,0.0 120.850195,24.417541,0.0 120.849849,24.417734,0.0 120.849353,24.417524,0.0 120.846297,24.418867,0.0 120.845782,24.418763,0.0 120.845184,24.418808,0.0 120.844634,24.419114,0.0 120.844446,24.419513,0.0 120.844194,24.420132,0.0 120.843667,24.420049,0.0 120.843373,24.420257,0.0 120.843187,24.420634,0.0 120.843257,24.421028,0.0</coordinates></LinearRing></outerBoundaryIs></Polygon><styleUrl>#spolygon-map</styleUrl></Placemark><Placemark><Polygon><outerBoundaryIs><LinearRing><coordinates>120.86687,24.425246,0.0 120.866954,24.423347,0.0 120.865751,24.420968,0.0 120.868169,24.419526,0.0 120.871385,24.420848,0.0 120.872668,24.42355,0.0 120.869846,24.424356,0.0 120.86687,24.425246,0.0</coordinates></LinearRing></outerBoundaryIs></Polygon><styleUrl>#spolygon-map</styleUrl></Placemark><Placemark><Polygon><outerBoundaryIs><LinearRing><coordinates>120.860044,24.425287,0.0 120.856548,24.42443,0.0 120.853785,24.423716,0.0 120.849117,24.425878,0.0 120.84703,24.424131,0.0 120.844679,24.423158,0.0 120.842884,24.422496,0.0 120.842341,24.421067,0.0 120.84311,24.421091,0.0 120.843343,24.421149,0.0 120.843169,24.420756,0.0 120.8433,24.420406,0.0 120.843548,24.420046,0.0 120.844081,24.420154,0.0 120.844346,24.419841,0.0 120.844526,24.419225,0.0 120.845087,24.418915,0.0 120.8456,24.418693,0.0 120.846112,24.418801,0.0 120.849252,24.417528,0.0 120.849696,24.417699,0.0 120.850081,24.417653,0.0 120.850381,24.417292,0.0 120.851819,24.415269,0.0 120.851928,24.414965,0.0 120.852035,24.414822,0.0 120.85148,24.411801,0.0 120.852665,24.411691,0.0 120.85465,24.411012,0.0 120.857502,24.409987,0.0 120.860495,24.40731,0.0 120.863014,24.404751,0.0 120.865557,24.403564,0.0 120.86797,24.402301,0.0 120.868778,24.400874,0.0 120.869698,24.398981,0.0 120.874492,24.398309,0.0 120.87783,24.397675,0.0 120.879688,24.396608,0.0 120.881579,24.394114,0.0 120.880457,24.391873,0.0 120.884957,24.389772,0.0 120.888065,24.386875,0.0 120.89138,24.385727,0.0 120.894422,24.385427,0.0 120.897428,24.386486,0.0 120.904581,24.388975,0.0 120.904759,24.392639,0.0 120.903005,24.395331,0.0 120.900904,24.398223,0.0 120.897214,24.402106,0.0 120.893944,24.404535,0.0 120.891916,24.406537,0.0 120.891308,24.409553,0.0 120.891203,24.410137,0.0 120.890947,24.410607,0.0 120.890422,24.411061,0.0 120.891682,24.413086,0.0 120.891162,24.415979,0.0 120.888629,24.417651,0.0 120.884906,24.415021,0.0 120.882375,24.415271,0.0 120.879279,24.413983,0.0 120.877358,24.413121,0.0 120.87561,24.414482,0.0 120.874747,24.416841,0.0 120.872752,24.418326,0.0 120.871272,24.419798,0.0 120.870575,24.420111,0.0 120.867217,24.419824,0.0 120.86442,24.420855,0.0 120.862052,24.422256,0.0 120.860324,24.425283,0.0 120.860044,24.425287,0.0</coordinates></LinearRing></outerBoundaryIs></Polygon><styleUrl>#spolygon-map</styleUrl></Placemark><Placemark><Polygon><outerBoundaryIs><LinearRing><coordinates>120.862702,24.427816,0.0 120.861039,24.426387,0.0 120.861512,24.423135,0.0 120.86388,24.420937,0.0 120.866093,24.421545,0.0 120.867132,24.423742,0.0 120.866412,24.425519,0.0 120.863826,24.427008,0.0 120.862702,24.427816,0.0</coordinates></LinearRing></outerBoundaryIs></Polygon><styleUrl>#spolygon-map</styleUrl></Placemark><Placemark><Polygon><outerBoundaryIs><LinearRing><coordinates>120.912059,24.43338,0.0 120.908898,24.431467,0.0 120.906247,24.42838,0.0 120.903872,24.427122,0.0 120.899542,24.42643,0.0 120.895779,24.426643,0.0 120.89381,24.425497,0.0 120.891197,24.423318,0.0 120.889658,24.423295,0.0 120.888139,24.42127,0.0 120.889503,24.420125,0.0 120.890573,24.417829,0.0 120.89187,24.414266,0.0 120.890744,24.411839,0.0 120.890776,24.410676,0.0 120.891103,24.410449,0.0 120.891182,24.41004,0.0 120.89152,24.407682,0.0 120.892563,24.405328,0.0 120.89614,24.402801,0.0 120.899316,24.399983,0.0 120.90256,24.39601,0.0 120.904096,24.39376,0.0 120.90487,24.389526,0.0 120.907501,24.389337,0.0 120.911305,24.390398,0.0 120.913593,24.391683,0.0 120.917441,24.393373,0.0 120.919471,24.396517,0.0 120.919133,24.400574,0.0 120.917827,24.403041,0.0 120.917445,24.403219,0.0 120.917474,24.403457,0.0 120.917275,24.403463,0.0 120.917287,24.40359,0.0 120.916488,24.403054,0.0 120.915545,24.402561,0.0 120.914552,24.40259,0.0 120.913987,24.402836,0.0 120.913636,24.40333,0.0 120.913501,24.403721,0.0 120.912894,24.403953,0.0 120.912062,24.403976,0.0 120.911279,24.40433,0.0 120.910756,24.404982,0.0 120.910624,24.405766,0.0 120.911013,24.406452,0.0 120.911217,24.407314,0.0 120.91109,24.407938,0.0 120.910233,24.407862,0.0 120.910595,24.408626,0.0 120.911819,24.410066,0.0 120.911763,24.412577,0.0 120.911039,24.412002,0.0 120.911205,24.411823,0.0 120.911098,24.411764,0.0 120.910694,24.411783,0.0 120.910209,24.412062,0.0 120.909864,24.41227,0.0 120.910151,24.412852,0.0 120.910461,24.412951,0.0 120.910597,24.413113,0.0 120.910711,24.41365,0.0 120.910723,24.413815,0.0 120.910824,24.414259,0.0 120.909879,24.414862,0.0 120.908077,24.415663,0.0 120.907287,24.416304,0.0 120.907098,24.417142,0.0 120.907537,24.417983,0.0 120.907965,24.418967,0.0 120.90748,24.41995,0.0 120.907758,24.421102,0.0 120.908133,24.421938,0.0 120.907839,24.422897,0.0 120.907334,24.423112,0.0 120.907338,24.423531,0.0 120.908476,24.424266,0.0 120.910817,24.426407,0.0 120.911642,24.428619,0.0 120.911688,24.429772,0.0 120.911785,24.432575,0.0 120.912059,24.43338,0.0</coordinates></LinearRing></outerBoundaryIs></Polygon><styleUrl>#spolygon-map</styleUrl></Placemark><Placemark><Polygon><outerBoundaryIs><LinearRing><coordinates>120.896643,24.436441,0.0 120.894792,24.437086,0.0 120.891178,24.437054,0.0 120.887861,24.435515,0.0 120.884245,24.434471,0.0 120.882626,24.433833,0.0 120.880976,24.431737,0.0 120.878922,24.431643,0.0 120.876875,24.431871,0.0 120.873903,24.429496,0.0 120.870748,24.427507,0.0 120.867324,24.428144,0.0 120.86487,24.427887,0.0 120.862525,24.428535,0.0 120.863826,24.427008,0.0 120.866412,24.425519,0.0 120.869846,24.424356,0.0 120.872668,24.42355,0.0 120.871385,24.420848,0.0 120.871543,24.419475,0.0 120.873394,24.417993,0.0 120.874878,24.415909,0.0 120.876241,24.413863,0.0 120.878045,24.413082,0.0 120.880471,24.414503,0.0 120.883597,24.41478,0.0 120.886058,24.415927,0.0 120.890447,24.418234,0.0 120.889046,24.420222,0.0 120.88824,24.421965,0.0 120.890322,24.42322,0.0 120.891723,24.423504,0.0 120.894203,24.425906,0.0 120.89643,24.426707,0.0 120.900442,24.426422,0.0 120.904738,24.42733,0.0 120.906718,24.42913,0.0 120.909836,24.432048,0.0 120.912052,24.434058,0.0 120.910626,24.43461,0.0 120.905369,24.435916,0.0 120.900989,24.436843,0.0 120.898383,24.435992,0.0 120.897114,24.436204,0.0 120.896665,24.436507,0.0 120.896643,24.436441,0.0</coordinates></LinearRing></outerBoundaryIs></Polygon><styleUrl>#spolygon-map</styleUrl></Placemark><Placemark><Polygon><outerBoundaryIs><LinearRing><coordinates>120.875319,24.456372,0.0 120.874131,24.457255,0.0 120.873691,24.455566,0.0 120.873838,24.454152,0.0 120.872609,24.454796,0.0 120.871023,24.455624,0.0 120.8692,24.455881,0.0 120.86721,24.455915,0.0 120.866583,24.45401,0.0 120.865309,24.453165,0.0 120.864171,24.453067,0.0 120.863454,24.45141,0.0 120.863256,24.450017,0.0 120.862492,24.448466,0.0 120.861748,24.447817,0.0 120.860659,24.447381,0.0 120.860199,24.446709,0.0 120.860339,24.446031,0.0 120.859859,24.445811,0.0 120.859026,24.445359,0.0 120.857769,24.444763,0.0 120.857461,24.443175,0.0 120.855893,24.442193,0.0 120.855162,24.44051,0.0 120.853734,24.439198,0.0 120.851698,24.439046,0.0 120.850215,24.438463,0.0 120.847335,24.437521,0.0 120.845952,24.436674,0.0 120.844199,24.434098,0.0 120.842215,24.430838,0.0 120.840013,24.429375,0.0 120.838992,24.428154,0.0 120.839363,24.426558,0.0 120.841322,24.425605,0.0 120.842344,24.424387,0.0 120.842841,24.422936,0.0 120.846273,24.423598,0.0 120.848496,24.425936,0.0 120.852656,24.424486,0.0 120.855784,24.423456,0.0 120.858099,24.425276,0.0 120.86112,24.426682,0.0 120.86259,24.428573,0.0 120.865144,24.428056,0.0 120.867635,24.428065,0.0 120.870965,24.42757,0.0 120.874492,24.430189,0.0 120.877067,24.431904,0.0 120.879197,24.431661,0.0 120.881137,24.431763,0.0 120.882696,24.433972,0.0 120.884558,24.434507,0.0 120.888052,24.435687,0.0 120.891433,24.437083,0.0 120.894944,24.437112,0.0 120.896644,24.436461,0.0 120.896765,24.436454,0.0 120.897735,24.43599,0.0 120.899923,24.436569,0.0 120.904103,24.436403,0.0 120.909403,24.43442,0.0 120.912364,24.434868,0.0 120.912746,24.436904,0.0 120.911242,24.440073,0.0 120.910016,24.443631,0.0 120.908661,24.444825,0.0 120.907363,24.445806,0.0 120.90612,24.446189,0.0 120.905257,24.445972,0.0 120.904521,24.446597,0.0 120.90291,24.446604,0.0 120.901042,24.445939,0.0 120.898775,24.445083,0.0 120.896768,24.445001,0.0 120.894722,24.444798,0.0 120.892017,24.444558,0.0 120.888728,24.445075,0.0 120.884363,24.447303,0.0 120.883496,24.449071,0.0 120.882328,24.450193,0.0 120.880674,24.451509,0.0 120.878547,24.453374,0.0 120.877185,24.454087,0.0 120.875886,24.455499,0.0 120.875319,24.456372,0.0</coordinates></LinearRing></outerBoundaryIs></Polygon><styleUrl>#spolygon-map</styleUrl></Placemark></Document>
</kml>
