<?xml version="1.0" encoding="UTF-8"?>
<kml xmlns="http://www.opengis.net/kml/2.2">
	<Document>
		<name>雲林縣大埤鄉</name>
		<Style id="spolygon">
			<LabelStyle>
				<scale>0.0</scale>
			</LabelStyle>
			<LineStyle>
				<color>330030ff</color>
				<width>0</width>
			</LineStyle>
			<PolyStyle>
				<color>330030ff</color>
			</PolyStyle>
		</Style>
		<StyleMap id="spolygon-map">
			<Pair>
				<key>normal</key>
				<styleUrl>#spolygon</styleUrl>
			</Pair>
		</StyleMap>
	<Placemark><Polygon><outerBoundaryIs><LinearRing><coordinates>120.43032,23.669688,0.0 120.431723,23.661469,0.0 120.443086,23.658709,0.0 120.45739,23.662593,0.0 120.46415,23.665632,0.0 120.46324,23.665588,0.0 120.462384,23.665621,0.0 120.461499,23.665354,0.0 120.460457,23.665078,0.0 120.459605,23.664815,0.0 120.458799,23.664769,0.0 120.458183,23.66521,0.0 120.458463,23.665818,0.0 120.458996,23.66628,0.0 120.459108,23.666992,0.0 120.459212,23.667714,0.0 120.458509,23.668527,0.0 120.457848,23.669082,0.0 120.456861,23.669812,0.0 120.45584,23.670777,0.0 120.454769,23.672141,0.0 120.453796,23.672833,0.0 120.453054,23.673278,0.0 120.452525,23.673517,0.0 120.451804,23.673871,0.0 120.450826,23.674148,0.0 120.449648,23.674026,0.0 120.448809,23.673748,0.0 120.448635,23.673178,0.0 120.448952,23.672358,0.0 120.449832,23.671998,0.0 120.449446,23.671477,0.0 120.449116,23.670801,0.0 120.449125,23.669859,0.0 120.449165,23.669397,0.0 120.448451,23.668952,0.0 120.447537,23.668797,0.0 120.446783,23.668851,0.0 120.446154,23.669463,0.0 120.446381,23.670247,0.0 120.44693,23.670868,0.0 120.446834,23.671802,0.0 120.446725,23.672603,0.0 120.446352,23.673272,0.0 120.445823,23.673647,0.0 120.444982,23.673755,0.0 120.444715,23.672875,0.0 120.444952,23.671741,0.0 120.444685,23.670647,0.0 120.444118,23.670228,0.0 120.443355,23.669952,0.0 120.442722,23.670159,0.0 120.442254,23.670695,0.0 120.4414,23.671247,0.0 120.440663,23.671719,0.0 120.439765,23.671767,0.0 120.438806,23.671518,0.0 120.437748,23.671505,0.0 120.436728,23.671871,0.0 120.435946,23.672194,0.0 120.434956,23.671581,0.0 120.43388,23.671069,0.0 120.433112,23.67086,0.0 120.432153,23.670742,0.0 120.431186,23.670734,0.0 120.43032,23.669688,0.0</coordinates></LinearRing></outerBoundaryIs></Polygon><styleUrl>#spolygon-map</styleUrl></Placemark><Placemark><Polygon><outerBoundaryIs><LinearRing><coordinates>120.43524,23.641271,0.0 120.410125,23.636466,0.0 120.406609,23.625186,0.0 120.409239,23.62521,0.0 120.412775,23.623968,0.0 120.413787,23.623268,0.0 120.415359,23.621531,0.0 120.416742,23.622748,0.0 120.418663,23.624223,0.0 120.420245,23.625188,0.0 120.421144,23.623295,0.0 120.423897,23.627669,0.0 120.436817,23.636268,0.0 120.43524,23.641271,0.0</coordinates></LinearRing></outerBoundaryIs></Polygon><styleUrl>#spolygon-map</styleUrl></Placemark><Placemark><Polygon><outerBoundaryIs><LinearRing><coordinates>120.434521,23.65847,0.0 120.419381,23.652064,0.0 120.430385,23.648913,0.0 120.434244,23.657313,0.0 120.434521,23.65847,0.0</coordinates></LinearRing></outerBoundaryIs></Polygon><styleUrl>#spolygon-map</styleUrl></Placemark><Placemark><Polygon><outerBoundaryIs><LinearRing><coordinates>120.386621,23.648493,0.0 120.386274,23.647471,0.0 120.385718,23.645661,0.0 120.384772,23.642759,0.0 120.383879,23.639868,0.0 120.383177,23.637542,0.0 120.382068,23.635188,0.0 120.380996,23.632992,0.0 120.379612,23.630264,0.0 120.391834,23.631233,0.0 120.400081,23.639674,0.0 120.391062,23.64652,0.0 120.386621,23.648493,0.0</coordinates></LinearRing></outerBoundaryIs></Polygon><styleUrl>#spolygon-map</styleUrl></Placemark><Placemark><Polygon><outerBoundaryIs><LinearRing><coordinates>120.417542,23.667006,0.0 120.407418,23.652752,0.0 120.427726,23.656246,0.0 120.431723,23.661469,0.0 120.43032,23.669688,0.0 120.417542,23.667006,0.0</coordinates></LinearRing></outerBoundaryIs></Polygon><styleUrl>#spolygon-map</styleUrl></Placemark><Placemark><Polygon><outerBoundaryIs><LinearRing><coordinates>120.37942,23.629902,0.0 120.378022,23.627282,0.0 120.376561,23.624594,0.0 120.375239,23.622239,0.0 120.373659,23.619603,0.0 120.372404,23.617494,0.0 120.371408,23.616056,0.0 120.370334,23.615544,0.0 120.369225,23.614883,0.0 120.368593,23.613523,0.0 120.368072,23.612268,0.0 120.367776,23.611245,0.0 120.367164,23.609976,0.0 120.366822,23.608676,0.0 120.367165,23.607901,0.0 120.368322,23.607662,0.0 120.370434,23.609276,0.0 120.374529,23.609796,0.0 120.379764,23.609927,0.0 120.380537,23.611391,0.0 120.382562,23.612492,0.0 120.383302,23.613481,0.0 120.382812,23.614689,0.0 120.383826,23.616641,0.0 120.383644,23.619419,0.0 120.382648,23.627057,0.0 120.37942,23.629902,0.0</coordinates></LinearRing></outerBoundaryIs></Polygon><styleUrl>#spolygon-map</styleUrl></Placemark><Placemark><Polygon><outerBoundaryIs><LinearRing><coordinates>120.434047,23.651488,0.0 120.438931,23.639488,0.0 120.448014,23.632556,0.0 120.450195,23.629462,0.0 120.453638,23.630348,0.0 120.452079,23.627708,0.0 120.453664,23.626519,0.0 120.457044,23.627238,0.0 120.460379,23.629342,0.0 120.466304,23.630284,0.0 120.468437,23.630806,0.0 120.468172,23.632809,0.0 120.468412,23.634088,0.0 120.468972,23.636596,0.0 120.445333,23.645308,0.0 120.435454,23.650234,0.0 120.434047,23.651488,0.0</coordinates></LinearRing></outerBoundaryIs></Polygon><styleUrl>#spolygon-map</styleUrl></Placemark><Placemark><Polygon><outerBoundaryIs><LinearRing><coordinates>120.400166,23.64649,0.0 120.395659,23.634693,0.0 120.394242,23.624015,0.0 120.39658,23.624938,0.0 120.399396,23.625872,0.0 120.401287,23.630915,0.0 120.403924,23.633905,0.0 120.406398,23.632353,0.0 120.407571,23.643927,0.0 120.400166,23.64649,0.0</coordinates></LinearRing></outerBoundaryIs></Polygon><styleUrl>#spolygon-map</styleUrl></Placemark><Placemark><Polygon><outerBoundaryIs><LinearRing><coordinates>120.439224,23.639353,0.0 120.425328,23.629735,0.0 120.421613,23.61992,0.0 120.425027,23.618052,0.0 120.427311,23.619316,0.0 120.431064,23.61913,0.0 120.432998,23.622167,0.0 120.434219,23.622727,0.0 120.43715,23.62204,0.0 120.436984,23.623798,0.0 120.435065,23.6249,0.0 120.436783,23.626236,0.0 120.440641,23.625958,0.0 120.442493,23.628699,0.0 120.444487,23.630537,0.0 120.446688,23.62973,0.0 120.448014,23.632556,0.0 120.439224,23.639353,0.0</coordinates></LinearRing></outerBoundaryIs></Polygon><styleUrl>#spolygon-map</styleUrl></Placemark><Placemark><Polygon><outerBoundaryIs><LinearRing><coordinates>120.406869,23.648023,0.0 120.416998,23.636386,0.0 120.434388,23.646483,0.0 120.42536,23.64873,0.0 120.406869,23.648023,0.0</coordinates></LinearRing></outerBoundaryIs></Polygon><styleUrl>#spolygon-map</styleUrl></Placemark><Placemark><Polygon><outerBoundaryIs><LinearRing><coordinates>120.434521,23.65847,0.0 120.440437,23.64629,0.0 120.459542,23.638732,0.0 120.469212,23.637732,0.0 120.469767,23.640393,0.0 120.470343,23.642998,0.0 120.470945,23.645711,0.0 120.471399,23.647776,0.0 120.471869,23.650037,0.0 120.472346,23.652321,0.0 120.472699,23.654056,0.0 120.463387,23.656144,0.0 120.454768,23.65861,0.0 120.445445,23.661038,0.0 120.434521,23.65847,0.0</coordinates></LinearRing></outerBoundaryIs></Polygon><styleUrl>#spolygon-map</styleUrl></Placemark><Placemark><Polygon><outerBoundaryIs><LinearRing><coordinates>120.383353,23.629942,0.0 120.383074,23.619584,0.0 120.38539,23.619221,0.0 120.387207,23.621183,0.0 120.39239,23.622388,0.0 120.392369,23.62365,0.0 120.394016,23.624052,0.0 120.390201,23.63071,0.0 120.383353,23.629942,0.0</coordinates></LinearRing></outerBoundaryIs></Polygon><styleUrl>#spolygon-map</styleUrl></Placemark><Placemark><Polygon><outerBoundaryIs><LinearRing><coordinates>120.407343,23.668608,0.0 120.405674,23.667534,0.0 120.40434,23.666676,0.0 120.402994,23.665817,0.0 120.401658,23.66497,0.0 120.400394,23.664161,0.0 120.399088,23.66333,0.0 120.398452,23.66289,0.0 120.397812,23.66221,0.0 120.397154,23.661445,0.0 120.396373,23.660577,0.0 120.395051,23.65931,0.0 120.39364,23.657995,0.0 120.391561,23.655955,0.0 120.389841,23.654097,0.0 120.387955,23.65202,0.0 120.387242,23.650344,0.0 120.386662,23.648599,0.0 120.406869,23.648023,0.0 120.415287,23.664808,0.0 120.407402,23.668647,0.0 120.407343,23.668608,0.0</coordinates></LinearRing></outerBoundaryIs></Polygon><styleUrl>#spolygon-map</styleUrl></Placemark><Placemark><Polygon><outerBoundaryIs><LinearRing><coordinates>120.4545,23.662829,0.0 120.45868,23.656057,0.0 120.472859,23.654817,0.0 120.473483,23.657756,0.0 120.474052,23.660402,0.0 120.474438,23.662385,0.0 120.473753,23.662656,0.0 120.472936,23.662947,0.0 120.472046,23.663282,0.0 120.471327,23.66381,0.0 120.471129,23.664699,0.0 120.470878,23.665411,0.0 120.470314,23.666222,0.0 120.469459,23.666386,0.0 120.468725,23.666616,0.0 120.468107,23.667025,0.0 120.46742,23.667404,0.0 120.466761,23.667524,0.0 120.466463,23.666809,0.0 120.466555,23.665905,0.0 120.466427,23.665179,0.0 120.465666,23.664701,0.0 120.465014,23.665044,0.0 120.460675,23.663351,0.0 120.4545,23.662829,0.0</coordinates></LinearRing></outerBoundaryIs></Polygon><styleUrl>#spolygon-map</styleUrl></Placemark><Placemark><Polygon><outerBoundaryIs><LinearRing><coordinates>120.416759,23.679538,0.0 120.415646,23.677647,0.0 120.414487,23.675642,0.0 120.413483,23.673921,0.0 120.412765,23.672848,0.0 120.411715,23.671512,0.0 120.40947,23.670007,0.0 120.407402,23.668647,0.0 120.424839,23.668381,0.0 120.430076,23.670752,0.0 120.429205,23.67102,0.0 120.429134,23.671647,0.0 120.428978,23.67224,0.0 120.42856,23.67283,0.0 120.428657,23.673603,0.0 120.428247,23.674211,0.0 120.427021,23.674454,0.0 120.4257,23.674165,0.0 120.424419,23.673747,0.0 120.422827,23.6734,0.0 120.42179,23.673728,0.0 120.421436,23.674325,0.0 120.421298,23.675214,0.0 120.420655,23.675986,0.0 120.419729,23.676843,0.0 120.41886,23.677625,0.0 120.417817,23.678565,0.0 120.416823,23.679477,0.0 120.416759,23.679538,0.0</coordinates></LinearRing></outerBoundaryIs></Polygon><styleUrl>#spolygon-map</styleUrl></Placemark></Document>
</kml>
