<?xml version="1.0" encoding="UTF-8"?>
<kml xmlns="http://www.opengis.net/kml/2.2">
	<Document>
		<name>雲林縣土庫鎮</name>
		<Style id="spolygon">
			<LabelStyle>
				<scale>0.0</scale>
			</LabelStyle>
			<LineStyle>
				<color>330030ff</color>
				<width>0</width>
			</LineStyle>
			<PolyStyle>
				<color>330030ff</color>
			</PolyStyle>
		</Style>
		<StyleMap id="spolygon-map">
			<Pair>
				<key>normal</key>
				<styleUrl>#spolygon</styleUrl>
			</Pair>
		</StyleMap>
	<Placemark><Polygon><outerBoundaryIs><LinearRing><coordinates>120.376131,23.693629,0.0 120.366033,23.693741,0.0 120.358655,23.685273,0.0 120.359938,23.680192,0.0 120.370153,23.67845,0.0 120.373307,23.67668,0.0 120.378418,23.676646,0.0 120.37725,23.682145,0.0 120.376639,23.690059,0.0 120.37645,23.692966,0.0 120.376131,23.693629,0.0</coordinates></LinearRing></outerBoundaryIs></Polygon><styleUrl>#spolygon-map</styleUrl></Placemark><Placemark><Polygon><outerBoundaryIs><LinearRing><coordinates>120.3528,23.729281,0.0 120.353455,23.705969,0.0 120.357062,23.707354,0.0 120.36242,23.728219,0.0 120.357447,23.732433,0.0 120.356821,23.735047,0.0 120.354207,23.734894,0.0 120.352253,23.736996,0.0 120.352224,23.735549,0.0 120.35238,23.734186,0.0 120.352553,23.732607,0.0 120.352756,23.730888,0.0 120.352876,23.729288,0.0 120.3528,23.729281,0.0</coordinates></LinearRing></outerBoundaryIs></Polygon><styleUrl>#spolygon-map</styleUrl></Placemark><Placemark><Polygon><outerBoundaryIs><LinearRing><coordinates>120.387436,23.69708,0.0 120.385726,23.697155,0.0 120.38423,23.697058,0.0 120.384844,23.695831,0.0 120.384633,23.695227,0.0 120.384436,23.693976,0.0 120.382526,23.694031,0.0 120.38113,23.694118,0.0 120.37986,23.694199,0.0 120.378731,23.694271,0.0 120.377827,23.694055,0.0 120.377446,23.693237,0.0 120.377186,23.685698,0.0 120.37745,23.681579,0.0 120.382009,23.676776,0.0 120.383841,23.678476,0.0 120.389852,23.677541,0.0 120.393125,23.682163,0.0 120.392349,23.682067,0.0 120.392679,23.683374,0.0 120.393254,23.684195,0.0 120.393797,23.685382,0.0 120.394238,23.687165,0.0 120.394388,23.688001,0.0 120.3952,23.68925,0.0 120.396423,23.691208,0.0 120.397481,23.692916,0.0 120.398609,23.694738,0.0 120.399473,23.69613,0.0 120.398408,23.696529,0.0 120.396661,23.696629,0.0 120.394866,23.696728,0.0 120.39291,23.696817,0.0 120.391283,23.696894,0.0 120.388998,23.697012,0.0 120.387436,23.69708,0.0</coordinates></LinearRing></outerBoundaryIs></Polygon><styleUrl>#spolygon-map</styleUrl></Placemark><Placemark><Polygon><outerBoundaryIs><LinearRing><coordinates>120.3528,23.729281,0.0 120.349766,23.729216,0.0 120.347722,23.727569,0.0 120.347589,23.725396,0.0 120.347886,23.723249,0.0 120.348178,23.721455,0.0 120.347293,23.720928,0.0 120.345116,23.721081,0.0 120.344396,23.720299,0.0 120.343971,23.717311,0.0 120.343586,23.714621,0.0 120.343149,23.711716,0.0 120.342798,23.710001,0.0 120.340868,23.710201,0.0 120.337861,23.710549,0.0 120.337411,23.709924,0.0 120.339072,23.706367,0.0 120.340597,23.703073,0.0 120.337936,23.703247,0.0 120.334906,23.70413,0.0 120.334551,23.701444,0.0 120.34298,23.696751,0.0 120.351126,23.699321,0.0 120.353087,23.706035,0.0 120.3528,23.729281,0.0</coordinates></LinearRing></outerBoundaryIs></Polygon><styleUrl>#spolygon-map</styleUrl></Placemark><Placemark><Polygon><outerBoundaryIs><LinearRing><coordinates>120.388637,23.672619,0.0 120.389545,23.669905,0.0 120.390726,23.671408,0.0 120.392033,23.673651,0.0 120.393245,23.67585,0.0 120.389826,23.67487,0.0 120.388637,23.672619,0.0</coordinates></LinearRing></outerBoundaryIs></Polygon><styleUrl>#spolygon-map</styleUrl></Placemark><Placemark><Polygon><outerBoundaryIs><LinearRing><coordinates>120.36242,23.728219,0.0 120.357062,23.707354,0.0 120.362271,23.7048,0.0 120.369531,23.711397,0.0 120.370554,23.713918,0.0 120.369891,23.714951,0.0 120.369984,23.71697,0.0 120.370104,23.719472,0.0 120.370197,23.721499,0.0 120.370272,23.723086,0.0 120.370327,23.724111,0.0 120.370169,23.724998,0.0 120.370194,23.726228,0.0 120.370295,23.727319,0.0 120.370524,23.728437,0.0 120.370619,23.729526,0.0 120.37066,23.730562,0.0 120.371298,23.731617,0.0 120.372172,23.733081,0.0 120.372694,23.733945,0.0 120.369253,23.733471,0.0 120.367424,23.730906,0.0 120.366047,23.73055,0.0 120.364456,23.730198,0.0 120.36242,23.728219,0.0</coordinates></LinearRing></outerBoundaryIs></Polygon><styleUrl>#spolygon-map</styleUrl></Placemark><Placemark><Polygon><outerBoundaryIs><LinearRing><coordinates>120.353087,23.706035,0.0 120.351126,23.699321,0.0 120.357665,23.695727,0.0 120.360222,23.705128,0.0 120.353087,23.706035,0.0</coordinates></LinearRing></outerBoundaryIs></Polygon><styleUrl>#spolygon-map</styleUrl></Placemark><Placemark><Polygon><outerBoundaryIs><LinearRing><coordinates>120.362271,23.7048,0.0 120.366033,23.693741,0.0 120.376131,23.693629,0.0 120.375801,23.694557,0.0 120.375729,23.695708,0.0 120.375295,23.696278,0.0 120.374949,23.696985,0.0 120.375043,23.698044,0.0 120.375208,23.69932,0.0 120.375278,23.700788,0.0 120.375605,23.702017,0.0 120.375433,23.702983,0.0 120.37647,23.703364,0.0 120.377652,23.705053,0.0 120.378255,23.707107,0.0 120.378193,23.708822,0.0 120.378362,23.710304,0.0 120.378602,23.712628,0.0 120.377051,23.713547,0.0 120.374476,23.713699,0.0 120.371157,23.713887,0.0 120.370058,23.711659,0.0 120.363286,23.707504,0.0 120.362271,23.7048,0.0</coordinates></LinearRing></outerBoundaryIs></Polygon><styleUrl>#spolygon-map</styleUrl></Placemark><Placemark><Polygon><outerBoundaryIs><LinearRing><coordinates>120.393341,23.682313,0.0 120.387722,23.675496,0.0 120.390695,23.676268,0.0 120.393544,23.67895,0.0 120.396905,23.679528,0.0 120.396536,23.680508,0.0 120.395943,23.682059,0.0 120.395069,23.683008,0.0 120.394294,23.683195,0.0 120.393538,23.682487,0.0 120.393341,23.682313,0.0</coordinates></LinearRing></outerBoundaryIs></Polygon><styleUrl>#spolygon-map</styleUrl></Placemark><Placemark><Polygon><outerBoundaryIs><LinearRing><coordinates>120.343115,23.685688,0.0 120.342306,23.68489,0.0 120.342071,23.683914,0.0 120.341621,23.682131,0.0 120.339463,23.682542,0.0 120.339014,23.682395,0.0 120.338724,23.681168,0.0 120.33811,23.679899,0.0 120.338062,23.678305,0.0 120.338167,23.676852,0.0 120.340538,23.676898,0.0 120.340827,23.674559,0.0 120.340862,23.672328,0.0 120.342213,23.671178,0.0 120.342859,23.669581,0.0 120.342277,23.667133,0.0 120.342044,23.665401,0.0 120.342937,23.664466,0.0 120.343758,23.662754,0.0 120.34639,23.664266,0.0 120.3485,23.665284,0.0 120.356223,23.666926,0.0 120.362581,23.666464,0.0 120.366993,23.667844,0.0 120.368165,23.67177,0.0 120.369677,23.672708,0.0 120.375957,23.674305,0.0 120.373635,23.676774,0.0 120.37063,23.678252,0.0 120.360455,23.680251,0.0 120.355093,23.678619,0.0 120.349209,23.679766,0.0 120.34483,23.684115,0.0 120.343115,23.685688,0.0</coordinates></LinearRing></outerBoundaryIs></Polygon><styleUrl>#spolygon-map</styleUrl></Placemark><Placemark><Polygon><outerBoundaryIs><LinearRing><coordinates>120.334402,23.700367,0.0 120.334095,23.697993,0.0 120.333823,23.696911,0.0 120.333631,23.695824,0.0 120.334233,23.695267,0.0 120.334918,23.694796,0.0 120.33491,23.694012,0.0 120.335498,23.693107,0.0 120.336216,23.692435,0.0 120.336623,23.691679,0.0 120.337177,23.690943,0.0 120.337965,23.690405,0.0 120.338606,23.689947,0.0 120.339268,23.689537,0.0 120.339982,23.688926,0.0 120.34055,23.68837,0.0 120.34124,23.687667,0.0 120.341883,23.686947,0.0 120.342569,23.686239,0.0 120.343223,23.68568,0.0 120.347486,23.680797,0.0 120.35139,23.679253,0.0 120.357949,23.679509,0.0 120.359513,23.689333,0.0 120.348496,23.698436,0.0 120.336198,23.697858,0.0 120.334402,23.700367,0.0</coordinates></LinearRing></outerBoundaryIs></Polygon><styleUrl>#spolygon-map</styleUrl></Placemark><Placemark><Polygon><outerBoundaryIs><LinearRing><coordinates>120.397111,23.679533,0.0 120.392488,23.673959,0.0 120.39211,23.672901,0.0 120.390168,23.67105,0.0 120.389387,23.669796,0.0 120.388732,23.664879,0.0 120.400783,23.67177,0.0 120.405621,23.674211,0.0 120.405186,23.675499,0.0 120.404522,23.677051,0.0 120.403671,23.678136,0.0 120.403202,23.67878,0.0 120.40394,23.67997,0.0 120.403914,23.680656,0.0 120.40247,23.680502,0.0 120.399542,23.679956,0.0 120.397111,23.679533,0.0</coordinates></LinearRing></outerBoundaryIs></Polygon><styleUrl>#spolygon-map</styleUrl></Placemark><Placemark><Polygon><outerBoundaryIs><LinearRing><coordinates>120.3871,23.674828,0.0 120.385836,23.669904,0.0 120.3871,23.674828,0.0</coordinates></LinearRing></outerBoundaryIs></Polygon><styleUrl>#spolygon-map</styleUrl></Placemark><Placemark><Polygon><outerBoundaryIs><LinearRing><coordinates>120.329639,23.745433,0.0 120.330265,23.744991,0.0 120.330947,23.744159,0.0 120.331298,23.74332,0.0 120.332005,23.742572,0.0 120.332865,23.741919,0.0 120.334629,23.740784,0.0 120.335729,23.739793,0.0 120.336554,23.739165,0.0 120.33767,23.738463,0.0 120.3391,23.737826,0.0 120.340339,23.737506,0.0 120.341971,23.737373,0.0 120.343595,23.737244,0.0 120.344564,23.737093,0.0 120.34562,23.736142,0.0 120.346964,23.736087,0.0 120.347312,23.736779,0.0 120.347406,23.737662,0.0 120.34832,23.737978,0.0 120.350012,23.738569,0.0 120.350889,23.738253,0.0 120.351736,23.737556,0.0 120.353167,23.735447,0.0 120.355591,23.735218,0.0 120.356938,23.734522,0.0 120.359497,23.72885,0.0 120.364456,23.730198,0.0 120.366047,23.73055,0.0 120.367424,23.730906,0.0 120.369253,23.733471,0.0 120.372723,23.733995,0.0 120.373389,23.734036,0.0 120.374132,23.733396,0.0 120.375307,23.732608,0.0 120.376646,23.731756,0.0 120.377763,23.731056,0.0 120.378692,23.731283,0.0 120.379825,23.731784,0.0 120.380935,23.731588,0.0 120.381517,23.7325,0.0 120.38207,23.733536,0.0 120.382226,23.73481,0.0 120.381811,23.73581,0.0 120.380943,23.736884,0.0 120.380279,23.737752,0.0 120.379759,23.738434,0.0 120.379269,23.739453,0.0 120.378471,23.740393,0.0 120.377413,23.741323,0.0 120.376765,23.741657,0.0 120.376183,23.743339,0.0 120.375594,23.745063,0.0 120.375177,23.746432,0.0 120.373488,23.746298,0.0 120.37249,23.745904,0.0 120.371521,23.745252,0.0 120.370474,23.744715,0.0 120.369453,23.744515,0.0 120.36799,23.74433,0.0 120.366326,23.743838,0.0 120.364873,23.743288,0.0 120.36312,23.742933,0.0 120.361525,23.742796,0.0 120.360322,23.742649,0.0 120.358963,23.742587,0.0 120.357942,23.742801,0.0 120.357049,23.743452,0.0 120.356315,23.743869,0.0 120.355018,23.74397,0.0 120.354014,23.743638,0.0 120.353057,23.74323,0.0 120.351687,23.742969,0.0 120.350667,23.742696,0.0 120.349913,23.742996,0.0 120.349143,23.743365,0.0 120.349159,23.744496,0.0 120.348193,23.74514,0.0 120.34733,23.745414,0.0 120.345863,23.746304,0.0 120.344595,23.746621,0.0 120.343112,23.747249,0.0 120.341668,23.747586,0.0 120.340023,23.747719,0.0 120.339473,23.748249,0.0 120.337874,23.748304,0.0 120.336432,23.748205,0.0 120.334704,23.74806,0.0 120.332772,23.747979,0.0 120.331619,23.748092,0.0 120.330831,23.747677,0.0 120.330601,23.746977,0.0 120.330419,23.746134,0.0 120.329787,23.745743,0.0 120.329639,23.745433,0.0</coordinates></LinearRing></outerBoundaryIs></Polygon><styleUrl>#spolygon-map</styleUrl></Placemark><Placemark><Polygon><outerBoundaryIs><LinearRing><coordinates>120.405743,23.673832,0.0 120.393088,23.666431,0.0 120.381657,23.66416,0.0 120.379349,23.653582,0.0 120.380002,23.65362,0.0 120.381207,23.65363,0.0 120.382941,23.653323,0.0 120.384738,23.652802,0.0 120.386441,23.652012,0.0 120.387955,23.65202,0.0 120.389841,23.654097,0.0 120.391561,23.655955,0.0 120.39364,23.657995,0.0 120.395051,23.65931,0.0 120.396373,23.660577,0.0 120.397154,23.661445,0.0 120.397812,23.66221,0.0 120.398452,23.66289,0.0 120.399088,23.66333,0.0 120.400394,23.664161,0.0 120.401658,23.66497,0.0 120.402994,23.665817,0.0 120.40434,23.666676,0.0 120.405674,23.667534,0.0 120.407343,23.668608,0.0 120.406502,23.670007,0.0 120.405873,23.671212,0.0 120.406503,23.671966,0.0 120.406129,23.672936,0.0 120.405743,23.673832,0.0</coordinates></LinearRing></outerBoundaryIs></Polygon><styleUrl>#spolygon-map</styleUrl></Placemark><Placemark><Polygon><outerBoundaryIs><LinearRing><coordinates>120.343771,23.662569,0.0 120.343288,23.661106,0.0 120.342485,23.659053,0.0 120.341775,23.657233,0.0 120.341454,23.656112,0.0 120.341299,23.654655,0.0 120.341364,23.653504,0.0 120.342458,23.653224,0.0 120.341939,23.65152,0.0 120.342018,23.650577,0.0 120.342151,23.649376,0.0 120.342127,23.648252,0.0 120.34205,23.647008,0.0 120.341188,23.645607,0.0 120.34107,23.644609,0.0 120.340965,23.643829,0.0 120.341671,23.644313,0.0 120.342386,23.645407,0.0 120.343207,23.645604,0.0 120.343853,23.646052,0.0 120.345148,23.645829,0.0 120.345918,23.645063,0.0 120.346992,23.645652,0.0 120.34877,23.646316,0.0 120.350484,23.646845,0.0 120.35197,23.647099,0.0 120.353319,23.646988,0.0 120.355153,23.647067,0.0 120.35612,23.647476,0.0 120.358059,23.648249,0.0 120.359076,23.648434,0.0 120.360175,23.648682,0.0 120.361208,23.648914,0.0 120.362107,23.64913,0.0 120.363087,23.649434,0.0 120.364445,23.649819,0.0 120.365484,23.650182,0.0 120.366709,23.650578,0.0 120.367714,23.65086,0.0 120.368892,23.651246,0.0 120.369807,23.65155,0.0 120.370971,23.65188,0.0 120.372273,23.652257,0.0 120.373028,23.652568,0.0 120.373823,23.653045,0.0 120.375135,23.653508,0.0 120.376238,23.653578,0.0 120.377291,23.653492,0.0 120.378305,23.653578,0.0 120.379087,23.657253,0.0 120.375559,23.65958,0.0 120.365885,23.662358,0.0 120.361157,23.66365,0.0 120.357574,23.667162,0.0 120.349823,23.666075,0.0 120.346913,23.664555,0.0 120.344264,23.662785,0.0 120.343771,23.662569,0.0</coordinates></LinearRing></outerBoundaryIs></Polygon><styleUrl>#spolygon-map</styleUrl></Placemark><Placemark><Polygon><outerBoundaryIs><LinearRing><coordinates>120.376061,23.676684,0.0 120.37137,23.673796,0.0 120.370144,23.671638,0.0 120.367306,23.671847,0.0 120.366422,23.667085,0.0 120.360887,23.663372,0.0 120.366829,23.66266,0.0 120.376335,23.659552,0.0 120.378963,23.660086,0.0 120.38678,23.669849,0.0 120.3834,23.671005,0.0 120.383581,23.678315,0.0 120.378418,23.676646,0.0 120.376061,23.676684,0.0</coordinates></LinearRing></outerBoundaryIs></Polygon><styleUrl>#spolygon-map</styleUrl></Placemark></Document>
</kml>
