<?xml version="1.0" encoding="UTF-8"?>
<kml xmlns="http://www.opengis.net/kml/2.2">
	<Document>
		<name>高雄市茄萣區</name>
		<Style id="spolygon">
			<LabelStyle>
				<scale>0.0</scale>
			</LabelStyle>
			<LineStyle>
				<color>330030ff</color>
				<width>0</width>
			</LineStyle>
			<PolyStyle>
				<color>330030ff</color>
			</PolyStyle>
		</Style>
		<StyleMap id="spolygon-map">
			<Pair>
				<key>normal</key>
				<styleUrl>#spolygon</styleUrl>
			</Pair>
		</StyleMap>
	<Placemark><Polygon><outerBoundaryIs><LinearRing><coordinates>120.188926,22.91873,0.0 120.188036,22.919843,0.0 120.183891,22.918011,0.0 120.180974,22.914967,0.0 120.182396,22.914931,0.0 120.183008,22.914765,0.0 120.183966,22.914616,0.0 120.184904,22.914522,0.0 120.186294,22.914407,0.0 120.190104,22.91662,0.0 120.188926,22.91873,0.0</coordinates></LinearRing></outerBoundaryIs></Polygon><styleUrl>#spolygon-map</styleUrl></Placemark><Placemark><Polygon><outerBoundaryIs><LinearRing><coordinates>120.180974,22.914967,0.0 120.177807,22.913248,0.0 120.175743,22.911935,0.0 120.175746,22.911513,0.0 120.17582,22.910721,0.0 120.176152,22.909971,0.0 120.176408,22.909428,0.0 120.17668,22.908109,0.0 120.176717,22.907529,0.0 120.178615,22.909943,0.0 120.17924,22.910041,0.0 120.179888,22.910288,0.0 120.180827,22.91053,0.0 120.181118,22.910917,0.0 120.18187,22.911068,0.0 120.182484,22.912487,0.0 120.182956,22.913001,0.0 120.184834,22.912966,0.0 120.187366,22.913604,0.0 120.190399,22.914665,0.0 120.186294,22.914389,0.0 120.184487,22.914599,0.0 120.183886,22.914641,0.0 120.182934,22.914773,0.0 120.182314,22.914861,0.0 120.180974,22.914967,0.0</coordinates></LinearRing></outerBoundaryIs></Polygon><styleUrl>#spolygon-map</styleUrl></Placemark><Placemark><Polygon><outerBoundaryIs><LinearRing><coordinates>120.190729,22.91303,0.0 120.187366,22.913604,0.0 120.184834,22.912966,0.0 120.182956,22.913001,0.0 120.182484,22.912487,0.0 120.18187,22.911068,0.0 120.181118,22.910917,0.0 120.180827,22.91053,0.0 120.179888,22.910288,0.0 120.17924,22.910041,0.0 120.178615,22.909943,0.0 120.178449,22.906903,0.0 120.180217,22.906829,0.0 120.183591,22.905819,0.0 120.185238,22.9059,0.0 120.187833,22.906157,0.0 120.189512,22.907089,0.0 120.192157,22.907502,0.0 120.19525,22.907829,0.0 120.197241,22.908076,0.0 120.192777,22.91062,0.0 120.190729,22.91303,0.0</coordinates></LinearRing></outerBoundaryIs></Polygon><styleUrl>#spolygon-map</styleUrl></Placemark><Placemark><Polygon><outerBoundaryIs><LinearRing><coordinates>120.178001,22.90784,0.0 120.176949,22.906733,0.0 120.177239,22.905922,0.0 120.177364,22.90552,0.0 120.177722,22.904881,0.0 120.177822,22.904256,0.0 120.178001,22.903794,0.0 120.178003,22.903501,0.0 120.178025,22.9033,0.0 120.178135,22.903043,0.0 120.177962,22.902835,0.0 120.178404,22.902577,0.0 120.178457,22.902192,0.0 120.178461,22.901551,0.0 120.178245,22.901028,0.0 120.178321,22.900362,0.0 120.181203,22.900994,0.0 120.182697,22.900927,0.0 120.183683,22.900826,0.0 120.187736,22.90233,0.0 120.192171,22.904086,0.0 120.194173,22.903478,0.0 120.194688,22.904562,0.0 120.196357,22.905281,0.0 120.197586,22.906996,0.0 120.196964,22.907729,0.0 120.193519,22.907655,0.0 120.191138,22.907302,0.0 120.188794,22.90688,0.0 120.187139,22.906119,0.0 120.183709,22.905172,0.0 120.181848,22.906063,0.0 120.179346,22.906483,0.0 120.178001,22.90784,0.0</coordinates></LinearRing></outerBoundaryIs></Polygon><styleUrl>#spolygon-map</styleUrl></Placemark><Placemark><Polygon><outerBoundaryIs><LinearRing><coordinates>120.194067,22.903502,0.0 120.192084,22.904092,0.0 120.18729,22.902296,0.0 120.183493,22.900847,0.0 120.182696,22.900913,0.0 120.180984,22.900963,0.0 120.178285,22.900279,0.0 120.177769,22.900305,0.0 120.178017,22.899661,0.0 120.178094,22.899941,0.0 120.178516,22.900083,0.0 120.179054,22.899583,0.0 120.180894,22.899764,0.0 120.18184,22.899915,0.0 120.182876,22.900264,0.0 120.183953,22.90033,0.0 120.192773,22.902382,0.0 120.194067,22.903502,0.0</coordinates></LinearRing></outerBoundaryIs></Polygon><styleUrl>#spolygon-map</styleUrl></Placemark><Placemark><Polygon><outerBoundaryIs><LinearRing><coordinates>120.184275,22.897269,0.0 120.1832,22.897193,0.0 120.182109,22.896817,0.0 120.180739,22.895352,0.0 120.180691,22.894586,0.0 120.181087,22.894491,0.0 120.183344,22.895144,0.0 120.184839,22.895235,0.0 120.184275,22.897269,0.0</coordinates></LinearRing></outerBoundaryIs></Polygon><styleUrl>#spolygon-map</styleUrl></Placemark><Placemark><Polygon><outerBoundaryIs><LinearRing><coordinates>120.199221,22.905758,0.0 120.198733,22.907772,0.0 120.197258,22.908476,0.0 120.197657,22.907225,0.0 120.197048,22.905145,0.0 120.194698,22.904907,0.0 120.194224,22.903478,0.0 120.193489,22.902352,0.0 120.191211,22.900471,0.0 120.189403,22.898351,0.0 120.187187,22.897999,0.0 120.185517,22.897237,0.0 120.184528,22.897268,0.0 120.183886,22.895194,0.0 120.182911,22.894981,0.0 120.180757,22.894368,0.0 120.18119,22.893882,0.0 120.181588,22.893302,0.0 120.183688,22.893839,0.0 120.185262,22.894199,0.0 120.187037,22.894705,0.0 120.188549,22.895816,0.0 120.190163,22.897588,0.0 120.191867,22.897684,0.0 120.192787,22.898845,0.0 120.194329,22.899835,0.0 120.19857,22.900913,0.0 120.199221,22.905758,0.0</coordinates></LinearRing></outerBoundaryIs></Polygon><styleUrl>#spolygon-map</styleUrl></Placemark><Placemark><Polygon><outerBoundaryIs><LinearRing><coordinates>120.191071,22.89398,0.0 120.187427,22.892774,0.0 120.185746,22.892596,0.0 120.184495,22.892639,0.0 120.183603,22.892583,0.0 120.181948,22.891633,0.0 120.182476,22.891322,0.0 120.182574,22.890833,0.0 120.184681,22.890902,0.0 120.185845,22.891032,0.0 120.187893,22.890652,0.0 120.188888,22.891294,0.0 120.190134,22.891359,0.0 120.191353,22.892121,0.0 120.191071,22.89398,0.0</coordinates></LinearRing></outerBoundaryIs></Polygon><styleUrl>#spolygon-map</styleUrl></Placemark><Placemark><Polygon><outerBoundaryIs><LinearRing><coordinates>120.197381,22.898502,0.0 120.195143,22.900071,0.0 120.19289,22.899033,0.0 120.191928,22.897719,0.0 120.190411,22.897681,0.0 120.188592,22.895864,0.0 120.187187,22.894778,0.0 120.18528,22.894199,0.0 120.1838,22.893864,0.0 120.182359,22.893556,0.0 120.18145,22.892576,0.0 120.181968,22.892498,0.0 120.183151,22.89245,0.0 120.184202,22.892475,0.0 120.185143,22.892643,0.0 120.186716,22.892531,0.0 120.189699,22.893508,0.0 120.192027,22.892536,0.0 120.195654,22.892717,0.0 120.197565,22.895108,0.0 120.197007,22.896974,0.0 120.197381,22.898502,0.0</coordinates></LinearRing></outerBoundaryIs></Polygon><styleUrl>#spolygon-map</styleUrl></Placemark><Placemark><Polygon><outerBoundaryIs><LinearRing><coordinates>120.198366,22.892071,0.0 120.193641,22.89223,0.0 120.191863,22.892551,0.0 120.190749,22.891626,0.0 120.189766,22.891244,0.0 120.188458,22.890985,0.0 120.186953,22.890451,0.0 120.185308,22.890867,0.0 120.183375,22.890773,0.0 120.182613,22.890248,0.0 120.183243,22.889743,0.0 120.183102,22.889253,0.0 120.184004,22.887919,0.0 120.186245,22.886097,0.0 120.187279,22.887859,0.0 120.196421,22.887517,0.0 120.199521,22.88949,0.0 120.198366,22.892071,0.0</coordinates></LinearRing></outerBoundaryIs></Polygon><styleUrl>#spolygon-map</styleUrl></Placemark><Placemark><Polygon><outerBoundaryIs><LinearRing><coordinates>120.191211,22.900471,0.0 120.193489,22.902352,0.0 120.186442,22.900883,0.0 120.183248,22.900264,0.0 120.182157,22.900012,0.0 120.181291,22.899809,0.0 120.180119,22.899618,0.0 120.179249,22.898931,0.0 120.180782,22.89891,0.0 120.181714,22.89903,0.0 120.182636,22.899283,0.0 120.184401,22.899574,0.0 120.189626,22.89975,0.0 120.191211,22.900471,0.0</coordinates></LinearRing></outerBoundaryIs></Polygon><styleUrl>#spolygon-map</styleUrl></Placemark><Placemark><Polygon><outerBoundaryIs><LinearRing><coordinates>120.18449,22.899209,0.0 120.182743,22.899292,0.0 120.182017,22.899113,0.0 120.180937,22.898942,0.0 120.179476,22.898334,0.0 120.178809,22.898281,0.0 120.179531,22.898,0.0 120.180754,22.897503,0.0 120.181895,22.897841,0.0 120.182542,22.898057,0.0 120.184311,22.898398,0.0 120.18449,22.899209,0.0</coordinates></LinearRing></outerBoundaryIs></Polygon><styleUrl>#spolygon-map</styleUrl></Placemark><Placemark><Polygon><outerBoundaryIs><LinearRing><coordinates>120.184419,22.897949,0.0 120.183048,22.898161,0.0 120.182012,22.897862,0.0 120.18118,22.897607,0.0 120.179414,22.897356,0.0 120.179724,22.896873,0.0 120.18002,22.89631,0.0 120.180204,22.895904,0.0 120.182333,22.896902,0.0 120.183453,22.89726,0.0 120.184528,22.897268,0.0 120.184419,22.897949,0.0</coordinates></LinearRing></outerBoundaryIs></Polygon><styleUrl>#spolygon-map</styleUrl></Placemark><Placemark><Polygon><outerBoundaryIs><LinearRing><coordinates>120.189014,22.89818,0.0 120.19118,22.900243,0.0 120.188468,22.899742,0.0 120.184685,22.898341,0.0 120.185904,22.897593,0.0 120.187663,22.898087,0.0 120.189014,22.89818,0.0</coordinates></LinearRing></outerBoundaryIs></Polygon><styleUrl>#spolygon-map</styleUrl></Placemark><Placemark><Polygon><outerBoundaryIs><LinearRing><coordinates>120.210667,22.887439,0.0 120.210403,22.889111,0.0 120.209773,22.890607,0.0 120.208932,22.891761,0.0 120.20739,22.89232,0.0 120.204406,22.891657,0.0 120.203524,22.889557,0.0 120.203159,22.887706,0.0 120.201439,22.887906,0.0 120.195655,22.887481,0.0 120.187141,22.887831,0.0 120.185815,22.885797,0.0 120.185371,22.884722,0.0 120.185539,22.883606,0.0 120.185828,22.882799,0.0 120.186265,22.881909,0.0 120.187727,22.879535,0.0 120.188492,22.876816,0.0 120.190008,22.873332,0.0 120.1925,22.865551,0.0 120.189053,22.863353,0.0 120.193295,22.859844,0.0 120.190341,22.855864,0.0 120.193152,22.848198,0.0 120.196675,22.850047,0.0 120.198284,22.849951,0.0 120.202846,22.854652,0.0 120.204979,22.854818,0.0 120.207139,22.85484,0.0 120.209895,22.853233,0.0 120.213978,22.851847,0.0 120.215521,22.853624,0.0 120.217657,22.856069,0.0 120.218979,22.859118,0.0 120.219109,22.860884,0.0 120.220087,22.863908,0.0 120.219607,22.864944,0.0 120.217446,22.866154,0.0 120.21677,22.867237,0.0 120.217765,22.869427,0.0 120.21847,22.870571,0.0 120.219643,22.870649,0.0 120.218725,22.871484,0.0 120.218473,22.875725,0.0 120.218345,22.880555,0.0 120.215927,22.881912,0.0 120.211502,22.882398,0.0 120.209268,22.88249,0.0 120.207442,22.883497,0.0 120.207225,22.884449,0.0 120.209403,22.885568,0.0 120.210584,22.887075,0.0 120.210667,22.887439,0.0</coordinates></LinearRing></outerBoundaryIs></Polygon><styleUrl>#spolygon-map</styleUrl></Placemark></Document>
</kml>
