<?xml version="1.0" encoding="UTF-8"?>
<kml xmlns="http://www.opengis.net/kml/2.2">
	<Document>
		<name>高雄市左營區</name>
		<Style id="spolygon">
			<LabelStyle>
				<scale>0.0</scale>
			</LabelStyle>
			<LineStyle>
				<color>330030ff</color>
				<width>0</width>
			</LineStyle>
			<PolyStyle>
				<color>330030ff</color>
			</PolyStyle>
		</Style>
		<StyleMap id="spolygon-map">
			<Pair>
				<key>normal</key>
				<styleUrl>#spolygon</styleUrl>
			</Pair>
		</StyleMap>
	<Placemark><Polygon><outerBoundaryIs><LinearRing><coordinates>120.297326,22.690987,0.0 120.298001,22.693552,0.0 120.292361,22.692221,0.0 120.29131,22.6907,0.0 120.293662,22.690345,0.0 120.295587,22.689861,0.0 120.297326,22.690987,0.0</coordinates></LinearRing></outerBoundaryIs></Polygon><styleUrl>#spolygon-map</styleUrl></Placemark><Placemark><Polygon><outerBoundaryIs><LinearRing><coordinates>120.294072,22.69034,0.0 120.291544,22.689941,0.0 120.292278,22.68858,0.0 120.292881,22.688306,0.0 120.294129,22.688323,0.0 120.294743,22.689934,0.0 120.294072,22.69034,0.0</coordinates></LinearRing></outerBoundaryIs></Polygon><styleUrl>#spolygon-map</styleUrl></Placemark><Placemark><Polygon><outerBoundaryIs><LinearRing><coordinates>120.292576,22.688536,0.0 120.291152,22.687866,0.0 120.292808,22.686963,0.0 120.293483,22.687839,0.0 120.292576,22.688536,0.0</coordinates></LinearRing></outerBoundaryIs></Polygon><styleUrl>#spolygon-map</styleUrl></Placemark><Placemark><Polygon><outerBoundaryIs><LinearRing><coordinates>120.29428,22.686134,0.0 120.292768,22.686825,0.0 120.292418,22.686006,0.0 120.292972,22.685234,0.0 120.29428,22.686134,0.0</coordinates></LinearRing></outerBoundaryIs></Polygon><styleUrl>#spolygon-map</styleUrl></Placemark><Placemark><Polygon><outerBoundaryIs><LinearRing><coordinates>120.294503,22.686225,0.0 120.292666,22.684408,0.0 120.294765,22.685861,0.0 120.294503,22.686225,0.0</coordinates></LinearRing></outerBoundaryIs></Polygon><styleUrl>#spolygon-map</styleUrl></Placemark><Placemark><Polygon><outerBoundaryIs><LinearRing><coordinates>120.295753,22.686331,0.0 120.294052,22.687758,0.0 120.293535,22.686886,0.0 120.294949,22.685656,0.0 120.295753,22.686331,0.0</coordinates></LinearRing></outerBoundaryIs></Polygon><styleUrl>#spolygon-map</styleUrl></Placemark><Placemark><Polygon><outerBoundaryIs><LinearRing><coordinates>120.296419,22.686564,0.0 120.29589,22.687913,0.0 120.294744,22.688857,0.0 120.295172,22.68678,0.0 120.296419,22.686564,0.0</coordinates></LinearRing></outerBoundaryIs></Polygon><styleUrl>#spolygon-map</styleUrl></Placemark><Placemark><Polygon><outerBoundaryIs><LinearRing><coordinates>120.297453,22.689683,0.0 120.295379,22.689593,0.0 120.295606,22.688192,0.0 120.296934,22.687129,0.0 120.297453,22.689683,0.0</coordinates></LinearRing></outerBoundaryIs></Polygon><styleUrl>#spolygon-map</styleUrl></Placemark><Placemark><Polygon><outerBoundaryIs><LinearRing><coordinates>120.310636,22.688957,0.0 120.315249,22.693443,0.0 120.316535,22.694448,0.0 120.314919,22.69586,0.0 120.313356,22.69769,0.0 120.304799,22.691503,0.0 120.302023,22.689819,0.0 120.300341,22.690546,0.0 120.297815,22.691594,0.0 120.2967,22.689999,0.0 120.296934,22.687129,0.0 120.293134,22.683091,0.0 120.292246,22.681575,0.0 120.293232,22.679866,0.0 120.292975,22.679034,0.0 120.297623,22.678608,0.0 120.303406,22.68418,0.0 120.306535,22.685484,0.0 120.310636,22.688957,0.0</coordinates></LinearRing></outerBoundaryIs></Polygon><styleUrl>#spolygon-map</styleUrl></Placemark><Placemark><Polygon><outerBoundaryIs><LinearRing><coordinates>120.301735,22.69464,0.0 120.301534,22.696699,0.0 120.300135,22.69503,0.0 120.29897,22.693286,0.0 120.299522,22.69094,0.0 120.301618,22.689842,0.0 120.302691,22.693562,0.0 120.301735,22.69464,0.0</coordinates></LinearRing></outerBoundaryIs></Polygon><styleUrl>#spolygon-map</styleUrl></Placemark><Placemark><Polygon><outerBoundaryIs><LinearRing><coordinates>120.311877,22.699393,0.0 120.302599,22.699302,0.0 120.302015,22.697709,0.0 120.301534,22.696699,0.0 120.301735,22.69464,0.0 120.302691,22.693562,0.0 120.304372,22.690589,0.0 120.311877,22.699393,0.0</coordinates></LinearRing></outerBoundaryIs></Polygon><styleUrl>#spolygon-map</styleUrl></Placemark><Placemark><Polygon><outerBoundaryIs><LinearRing><coordinates>120.29808,22.697314,0.0 120.298676,22.692859,0.0 120.299307,22.695048,0.0 120.299007,22.696509,0.0 120.298772,22.697304,0.0 120.29808,22.697314,0.0</coordinates></LinearRing></outerBoundaryIs></Polygon><styleUrl>#spolygon-map</styleUrl></Placemark><Placemark><Polygon><outerBoundaryIs><LinearRing><coordinates>120.294923,22.705244,0.0 120.293923,22.705095,0.0 120.292462,22.699666,0.0 120.292392,22.694284,0.0 120.298772,22.697304,0.0 120.299007,22.696509,0.0 120.299307,22.695048,0.0 120.300143,22.695049,0.0 120.301437,22.696863,0.0 120.302322,22.698163,0.0 120.302517,22.699936,0.0 120.297207,22.701897,0.0 120.294923,22.705244,0.0</coordinates></LinearRing></outerBoundaryIs></Polygon><styleUrl>#spolygon-map</styleUrl></Placemark><Placemark><Polygon><outerBoundaryIs><LinearRing><coordinates>120.296211,22.706761,0.0 120.294811,22.707569,0.0 120.294046,22.707105,0.0 120.293078,22.706588,0.0 120.292804,22.705603,0.0 120.293923,22.705095,0.0 120.296058,22.705769,0.0 120.296211,22.706761,0.0</coordinates></LinearRing></outerBoundaryIs></Polygon><styleUrl>#spolygon-map</styleUrl></Placemark><Placemark><Polygon><outerBoundaryIs><LinearRing><coordinates>120.29797,22.708542,0.0 120.296444,22.709202,0.0 120.296082,22.708897,0.0 120.295754,22.708525,0.0 120.295387,22.708126,0.0 120.295113,22.707489,0.0 120.297211,22.70611,0.0 120.299876,22.707841,0.0 120.299012,22.708069,0.0 120.29797,22.708542,0.0</coordinates></LinearRing></outerBoundaryIs></Polygon><styleUrl>#spolygon-map</styleUrl></Placemark><Placemark><Polygon><outerBoundaryIs><LinearRing><coordinates>120.292447,22.703222,0.0 120.285958,22.698473,0.0 120.286452,22.694927,0.0 120.288752,22.695693,0.0 120.29065,22.69735,0.0 120.292462,22.699666,0.0 120.292447,22.703222,0.0</coordinates></LinearRing></outerBoundaryIs></Polygon><styleUrl>#spolygon-map</styleUrl></Placemark><Placemark><Polygon><outerBoundaryIs><LinearRing><coordinates>120.283677,22.707473,0.0 120.274698,22.706597,0.0 120.271213,22.700883,0.0 120.272052,22.695848,0.0 120.273467,22.689559,0.0 120.27239,22.687881,0.0 120.280395,22.68795,0.0 120.285931,22.687903,0.0 120.287976,22.686163,0.0 120.290095,22.68728,0.0 120.291816,22.68912,0.0 120.291305,22.690971,0.0 120.292385,22.693651,0.0 120.291221,22.697346,0.0 120.28895,22.696143,0.0 120.287629,22.694914,0.0 120.285945,22.697433,0.0 120.284201,22.706464,0.0 120.283677,22.707473,0.0</coordinates></LinearRing></outerBoundaryIs></Polygon><styleUrl>#spolygon-map</styleUrl></Placemark><Placemark><Polygon><outerBoundaryIs><LinearRing><coordinates>120.291048,22.685347,0.0 120.292336,22.686402,0.0 120.291027,22.68776,0.0 120.28966,22.686069,0.0 120.290818,22.68513,0.0 120.291048,22.685347,0.0</coordinates></LinearRing></outerBoundaryIs></Polygon><styleUrl>#spolygon-map</styleUrl></Placemark><Placemark><Polygon><outerBoundaryIs><LinearRing><coordinates>120.292175,22.685985,0.0 120.290869,22.685113,0.0 120.291146,22.684492,0.0 120.292859,22.684121,0.0 120.292402,22.685742,0.0 120.292175,22.685985,0.0</coordinates></LinearRing></outerBoundaryIs></Polygon><styleUrl>#spolygon-map</styleUrl></Placemark><Placemark><Polygon><outerBoundaryIs><LinearRing><coordinates>120.291948,22.683798,0.0 120.290782,22.684254,0.0 120.290843,22.682603,0.0 120.291398,22.68229,0.0 120.292859,22.684121,0.0 120.291948,22.683798,0.0</coordinates></LinearRing></outerBoundaryIs></Polygon><styleUrl>#spolygon-map</styleUrl></Placemark><Placemark><Polygon><outerBoundaryIs><LinearRing><coordinates>120.290859,22.68394,0.0 120.290017,22.685675,0.0 120.289445,22.683808,0.0 120.290193,22.683328,0.0 120.290908,22.683672,0.0 120.290859,22.68394,0.0</coordinates></LinearRing></outerBoundaryIs></Polygon><styleUrl>#spolygon-map</styleUrl></Placemark><Placemark><Polygon><outerBoundaryIs><LinearRing><coordinates>120.28963,22.683668,0.0 120.289061,22.682414,0.0 120.290212,22.682135,0.0 120.29054,22.683077,0.0 120.28973,22.68358,0.0 120.28963,22.683668,0.0</coordinates></LinearRing></outerBoundaryIs></Polygon><styleUrl>#spolygon-map</styleUrl></Placemark><Placemark><Polygon><outerBoundaryIs><LinearRing><coordinates>120.289909,22.685587,0.0 120.288881,22.68547,0.0 120.288523,22.683432,0.0 120.289909,22.685587,0.0</coordinates></LinearRing></outerBoundaryIs></Polygon><styleUrl>#spolygon-map</styleUrl></Placemark><Placemark><Polygon><outerBoundaryIs><LinearRing><coordinates>120.289345,22.685843,0.0 120.28946,22.686932,0.0 120.287914,22.685269,0.0 120.289345,22.685843,0.0</coordinates></LinearRing></outerBoundaryIs></Polygon><styleUrl>#spolygon-map</styleUrl></Placemark><Placemark><Polygon><outerBoundaryIs><LinearRing><coordinates>120.287152,22.680849,0.0 120.288129,22.684011,0.0 120.287152,22.680835,0.0 120.287152,22.680849,0.0</coordinates></LinearRing></outerBoundaryIs></Polygon><styleUrl>#spolygon-map</styleUrl></Placemark><Placemark><Polygon><outerBoundaryIs><LinearRing><coordinates>120.289409,22.680983,0.0 120.289048,22.682437,0.0 120.287325,22.682545,0.0 120.287316,22.679052,0.0 120.289267,22.680296,0.0 120.289409,22.680983,0.0</coordinates></LinearRing></outerBoundaryIs></Polygon><styleUrl>#spolygon-map</styleUrl></Placemark><Placemark><Polygon><outerBoundaryIs><LinearRing><coordinates>120.290212,22.682135,0.0 120.289571,22.681428,0.0 120.28878,22.680108,0.0 120.287275,22.67905,0.0 120.28748,22.678507,0.0 120.287751,22.678549,0.0 120.288714,22.678298,0.0 120.288768,22.677857,0.0 120.289157,22.677362,0.0 120.289481,22.676296,0.0 120.291628,22.679252,0.0 120.289925,22.680457,0.0 120.290212,22.682135,0.0</coordinates></LinearRing></outerBoundaryIs></Polygon><styleUrl>#spolygon-map</styleUrl></Placemark><Placemark><Polygon><outerBoundaryIs><LinearRing><coordinates>120.292399,22.681957,0.0 120.291899,22.682619,0.0 120.290421,22.681478,0.0 120.291502,22.68011,0.0 120.289721,22.676645,0.0 120.290569,22.675145,0.0 120.293112,22.673032,0.0 120.297007,22.677327,0.0 120.292946,22.678899,0.0 120.293223,22.679577,0.0 120.291793,22.680821,0.0 120.292399,22.681957,0.0</coordinates></LinearRing></outerBoundaryIs></Polygon><styleUrl>#spolygon-map</styleUrl></Placemark><Placemark><Polygon><outerBoundaryIs><LinearRing><coordinates>120.290634,22.670452,0.0 120.292443,22.672314,0.0 120.29075,22.674971,0.0 120.288507,22.673401,0.0 120.290634,22.670452,0.0</coordinates></LinearRing></outerBoundaryIs></Polygon><styleUrl>#spolygon-map</styleUrl></Placemark><Placemark><Polygon><outerBoundaryIs><LinearRing><coordinates>120.264594,22.690097,0.0 120.263465,22.688899,0.0 120.264145,22.676349,0.0 120.258706,22.668747,0.0 120.257595,22.668194,0.0 120.25823,22.667496,0.0 120.259458,22.667942,0.0 120.261059,22.669759,0.0 120.262937,22.67115,0.0 120.2658,22.672225,0.0 120.270716,22.673196,0.0 120.273933,22.674014,0.0 120.277284,22.673338,0.0 120.281123,22.671964,0.0 120.28272,22.672515,0.0 120.284754,22.677308,0.0 120.286506,22.679306,0.0 120.285905,22.687556,0.0 120.282594,22.687936,0.0 120.275302,22.687951,0.0 120.273134,22.682793,0.0 120.264594,22.690097,0.0</coordinates></LinearRing></outerBoundaryIs></Polygon><styleUrl>#spolygon-map</styleUrl></Placemark><Placemark><Polygon><outerBoundaryIs><LinearRing><coordinates>120.287269,22.679017,0.0 120.285228,22.677686,0.0 120.282719,22.672627,0.0 120.283212,22.671515,0.0 120.285318,22.671256,0.0 120.288386,22.673315,0.0 120.290675,22.674918,0.0 120.289456,22.676235,0.0 120.28908,22.677515,0.0 120.288836,22.677858,0.0 120.288717,22.678325,0.0 120.287746,22.678501,0.0 120.287475,22.678467,0.0 120.287269,22.679017,0.0</coordinates></LinearRing></outerBoundaryIs></Polygon><styleUrl>#spolygon-map</styleUrl></Placemark><Placemark><Polygon><outerBoundaryIs><LinearRing><coordinates>120.289632,22.671215,0.0 120.286497,22.670814,0.0 120.287737,22.670842,0.0 120.288628,22.670323,0.0 120.290039,22.669852,0.0 120.289632,22.671215,0.0</coordinates></LinearRing></outerBoundaryIs></Polygon><styleUrl>#spolygon-map</styleUrl></Placemark><Placemark><Polygon><outerBoundaryIs><LinearRing><coordinates>120.288192,22.669579,0.0 120.288585,22.67044,0.0 120.287598,22.670799,0.0 120.287355,22.669778,0.0 120.288192,22.669579,0.0</coordinates></LinearRing></outerBoundaryIs></Polygon><styleUrl>#spolygon-map</styleUrl></Placemark><Placemark><Polygon><outerBoundaryIs><LinearRing><coordinates>120.287906,22.669523,0.0 120.287183,22.670188,0.0 120.286731,22.668836,0.0 120.288839,22.668323,0.0 120.288788,22.670083,0.0 120.287906,22.669523,0.0</coordinates></LinearRing></outerBoundaryIs></Polygon><styleUrl>#spolygon-map</styleUrl></Placemark><Placemark><Polygon><outerBoundaryIs><LinearRing><coordinates>120.305262,22.669715,0.0 120.30346,22.670337,0.0 120.301948,22.672086,0.0 120.299766,22.673569,0.0 120.299747,22.675701,0.0 120.299656,22.678207,0.0 120.294875,22.675017,0.0 120.293291,22.672643,0.0 120.294295,22.671659,0.0 120.295396,22.670097,0.0 120.29735,22.668292,0.0 120.297678,22.667207,0.0 120.299127,22.666406,0.0 120.303214,22.665803,0.0 120.305375,22.66661,0.0 120.306901,22.66802,0.0 120.305262,22.669715,0.0</coordinates></LinearRing></outerBoundaryIs></Polygon><styleUrl>#spolygon-map</styleUrl></Placemark><Placemark><Polygon><outerBoundaryIs><LinearRing><coordinates>120.314535,22.668698,0.0 120.312402,22.668471,0.0 120.30957,22.668141,0.0 120.306901,22.66802,0.0 120.305375,22.66661,0.0 120.303214,22.665803,0.0 120.303098,22.661171,0.0 120.303277,22.656121,0.0 120.30609,22.656772,0.0 120.30848,22.656382,0.0 120.311195,22.654874,0.0 120.312246,22.658148,0.0 120.311456,22.660555,0.0 120.312054,22.663938,0.0 120.31484,22.667644,0.0 120.314535,22.668698,0.0</coordinates></LinearRing></outerBoundaryIs></Polygon><styleUrl>#spolygon-map</styleUrl></Placemark><Placemark><Polygon><outerBoundaryIs><LinearRing><coordinates>120.306742,22.671024,0.0 120.30358,22.670795,0.0 120.304659,22.669873,0.0 120.307027,22.668356,0.0 120.30957,22.668141,0.0 120.312402,22.668471,0.0 120.314535,22.668698,0.0 120.314125,22.669845,0.0 120.313926,22.670848,0.0 120.313794,22.671227,0.0 120.313394,22.671381,0.0 120.31262,22.671626,0.0 120.312202,22.671759,0.0 120.311707,22.671908,0.0 120.309049,22.671826,0.0 120.306923,22.671033,0.0 120.306742,22.671024,0.0</coordinates></LinearRing></outerBoundaryIs></Polygon><styleUrl>#spolygon-map</styleUrl></Placemark><Placemark><Polygon><outerBoundaryIs><LinearRing><coordinates>120.303755,22.67127,0.0 120.305157,22.674275,0.0 120.306313,22.676401,0.0 120.305743,22.680669,0.0 120.298951,22.679466,0.0 120.300116,22.677356,0.0 120.299815,22.675228,0.0 120.300158,22.673009,0.0 120.302338,22.671837,0.0 120.303755,22.67127,0.0</coordinates></LinearRing></outerBoundaryIs></Polygon><styleUrl>#spolygon-map</styleUrl></Placemark><Placemark><Polygon><outerBoundaryIs><LinearRing><coordinates>120.310448,22.685148,0.0 120.313102,22.687577,0.0 120.310154,22.688439,0.0 120.305887,22.685238,0.0 120.302587,22.683315,0.0 120.307414,22.679195,0.0 120.305986,22.675871,0.0 120.304782,22.673466,0.0 120.306625,22.671061,0.0 120.308091,22.671696,0.0 120.311299,22.672008,0.0 120.312099,22.671793,0.0 120.312495,22.671663,0.0 120.313188,22.67145,0.0 120.313744,22.671264,0.0 120.313914,22.670911,0.0 120.313972,22.670615,0.0 120.314698,22.669034,0.0 120.31759,22.669685,0.0 120.319652,22.672306,0.0 120.321243,22.675106,0.0 120.321926,22.677383,0.0 120.319863,22.678515,0.0 120.317792,22.67907,0.0 120.315159,22.679087,0.0 120.313475,22.679369,0.0 120.310632,22.680801,0.0 120.308264,22.683587,0.0 120.310448,22.685148,0.0</coordinates></LinearRing></outerBoundaryIs></Polygon><styleUrl>#spolygon-map</styleUrl></Placemark><Placemark><Polygon><outerBoundaryIs><LinearRing><coordinates>120.320359,22.689936,0.0 120.318442,22.691605,0.0 120.316523,22.693234,0.0 120.315249,22.693443,0.0 120.31123,22.689157,0.0 120.312321,22.686415,0.0 120.309198,22.684245,0.0 120.309185,22.681881,0.0 120.312618,22.679732,0.0 120.314358,22.679156,0.0 120.317373,22.679114,0.0 120.31936,22.678713,0.0 120.321593,22.677579,0.0 120.323675,22.677475,0.0 120.325254,22.679342,0.0 120.326365,22.680344,0.0 120.324947,22.680441,0.0 120.323489,22.680259,0.0 120.322103,22.681533,0.0 120.322926,22.682749,0.0 120.324391,22.684557,0.0 120.324253,22.685263,0.0 120.323521,22.68607,0.0 120.323103,22.687254,0.0 120.321898,22.689403,0.0 120.321242,22.690106,0.0 120.320359,22.689936,0.0</coordinates></LinearRing></outerBoundaryIs></Polygon><styleUrl>#spolygon-map</styleUrl></Placemark></Document>
</kml>
