	新北市		3,107,278	3,162,346	3,222,629	3,260,731	3,305,615	3,355,299	3,420,535	3,459,624	3,510,917	3,567,896	3,610,252	3,641,446	3,676,533	3,708,099	3,736,677	3,767,095	3,798,015	3,833,730	3,873,653	3,897,367	3,916,451	3,939,305	3,954,929
		板橋區	542,942	543,982	544,067	539,115	530,003	524,323	519,459	520,286	523,850	529,059	532,694	535,476	539,356	541,512	542,319	544,292	547,625	550,767	552,884	554,596	555,335	557,440	556,920
		三重區	378,397	382,003	383,943	382,880	380,099	377,498	378,502	378,671	380,084	382,266	384,051	384,217	384,618	384,092	383,959	383,636	383,621	384,722	388,304	389,968	390,421	390,090	389,813
		中和區	379,968	383,516	387,264	387,123	386,347	383,715	385,912	388,174	392,176	398,123	401,619	403,510	406,325	408,126	408,989	411,011	410,183	412,060	414,535	414,356	414,939	416,499	415,742
		永和區	247,473	246,355	245,743	241,104	233,082	230,734	228,909	227,673	227,700	228,099	229,383	230,660	231,816	233,384	235,059	235,697	236,413	236,598	236,812	234,536	232,386	230,768	229,062
		新莊區	308,293	314,980	321,970	328,758	339,143	346,132	353,878	359,367	365,048	372,175	376,584	380,334	383,745	386,941	389,074	392,472	396,337	398,317	400,848	402,204	404,089	407,012	409,760
		新店區	233,277	240,558	245,897	248,822	250,559	254,078	259,166	261,024	263,603	268,290	272,500	275,467	280,661	285,186	287,472	289,366	290,590	292,693	294,602	296,411	296,581	297,637	299,017
		樹林區	115,581	120,115	124,857	129,220	135,322	140,110	144,566	147,071	151,260	154,158	156,159	157,913	159,101	159,930	160,762	162,476	164,723	168,689	172,300	176,077	179,788	182,012	183,407
		鶯歌區	67,214	68,275	69,429	69,667	70,908	72,300	74,861	76,944	78,581	80,397	81,643	82,498	82,604	83,468	84,443	85,001	85,656	86,258	86,589	86,821	87,683	88,336	88,637
		三峽區	61,627	62,993	64,554	66,361	69,989	73,462	76,696	78,770	80,936	82,880	84,189	85,185	85,964	86,958	88,764	91,395	95,024	97,967	100,637	103,450	105,629	107,794	110,010
		淡水區	85,980	88,127	91,642	94,293	97,254	101,199	105,780	108,467	111,882	116,107	119,533	121,405	123,646	126,132	128,087	129,898	132,101	135,355	140,156	143,481	146,756	150,687	155,241
		汐止區	97,261	102,041	108,489	112,396	118,939	127,924	141,470	147,507	154,976	161,550	165,143	167,224	170,765	173,890	176,130	178,846	180,993	183,441	186,979	189,618	190,679	192,676	194,200
		瑞芳區	53,174	52,921	53,135	52,859	52,630	51,356	50,085	49,023	47,825	47,078	46,515	46,314	45,804	45,195	44,397	43,831	43,526	43,088	42,713	42,432	42,031	41,617	41,490
		土城區	142,348	148,111	155,814	171,629	188,170	202,436	213,169	219,793	224,897	230,208	231,938	234,125	235,729	236,202	236,345	237,000	237,443	238,230	238,897	238,477	239,156	239,717	239,258
		蘆洲區	112,560	119,354	125,890	131,956	138,727	146,144	152,384	155,843	160,516	165,595	169,316	173,209	177,232	181,608	185,796	189,403	192,066	194,686	197,043	197,793	198,373	199,490	199,426
		五股區	48,796	50,453	52,480	54,413	57,017	59,218	63,647	65,940	67,977	69,784	70,649	71,606	72,911	74,307	75,609	76,470	77,329	77,754	79,149	79,958	80,518	81,225	81,744
		泰山區	53,658	55,520	57,295	58,336	59,550	59,787	60,763	61,446	61,913	62,305	62,783	63,499	65,649	67,787	69,741	72,589	74,422	75,830	76,491	76,470	77,057	77,617	77,939
		林口區	34,125	35,884	37,640	38,435	41,214	45,026	47,066	48,442	50,118	51,214	52,651	53,889	54,848	56,423	58,777	62,126	67,127	72,964	78,462	83,165	86,628	89,886	94,108
		深坑區	13,409	14,073	14,929	15,785	17,560	18,581	19,456	19,440	19,816	20,079	20,264	20,433	20,745	21,167	21,412	21,722	22,301	22,829	23,108	23,241	23,531	23,569	23,622
		石碇區	7,065	7,250	7,674	7,674	7,691	7,658	7,537	7,443	7,266	7,319	7,612	7,668	7,700	7,692	7,782	7,860	7,846	7,847	7,973	7,973	7,887	7,895	7,848
		坪林區	5,763	5,826	6,108	6,041	6,000	6,002	6,008	6,069	5,996	5,916	6,071	6,207	6,194	6,303	6,735	6,650	6,607	6,541	6,549	6,537	6,533	6,483	6,460
		三芝區	17,234	17,440	17,959	18,517	19,176	20,159	21,459	22,068	22,384	22,644	23,027	23,024	23,224	23,342	23,566	23,575	23,613	23,479	23,369	23,263	23,319	23,460	23,464
		石門區	9,452	9,860	9,952	9,870	9,915	9,984	10,034	10,265	10,860	10,859	11,158	11,381	11,306	11,311	11,626	11,703	11,857	12,023	12,380	12,700	12,841	12,798	12,794
		八里區	17,648	18,005	19,667	20,844	22,302	24,119	25,470	26,294	27,576	28,519	29,624	30,366	30,955	31,453	31,989	32,470	32,738	33,231	33,958	34,791	35,423	35,721	36,201
		平溪區	6,969	6,925	7,236	6,855	6,608	6,339	6,400	6,227	5,961	5,793	6,257	6,029	5,845	5,789	6,313	5,855	5,627	5,520	5,447	5,344	5,197	5,109	5,002
		雙溪區	12,145	12,051	12,075	11,359	11,026	10,721	10,951	10,446	10,181	9,976	10,483	10,237	10,061	9,983	10,371	9,986	9,963	9,877	9,832	9,729	9,555	9,465	9,412
		貢寮區	14,166	14,289	14,293	14,129	13,897	13,848	13,715	13,616	13,704	13,550	13,784	14,439	14,077	14,091	14,255	14,006	14,032	13,970	13,876	13,776	13,538	13,412	13,306
		金山區	18,751	18,912	19,457	19,466	19,861	20,128	20,797	20,824	21,155	21,293	21,611	21,802	21,851	21,910	21,972	22,191	22,215	22,306	22,408	22,380	22,447	22,486	22,392
		萬里區	18,755	19,215	19,543	19,312	19,126	18,816	18,653	18,678	18,770	18,574	18,480	18,698	19,061	19,038	19,805	20,231	20,635	21,085	21,604	22,009	22,204	22,429	22,618
		烏來區	3,247	3,312	3,627	3,512	3,500	3,502	3,742	3,813	3,906	4,086	4,531	4,631	4,740	4,879	5,128	5,337	5,402	5,603	5,748	5,811	5,927	5,975	6,036
	臺北市		2,717,992	2,696,073	2,653,245	2,653,578	2,632,863	2,605,374	2,598,493	2,639,939	2,641,312	2,646,474	2,633,802	2,641,856	2,627,138	2,622,472	2,616,375	2,632,242	2,629,269	2,622,923	2,607,428	2,618,772	2,650,968	2,673,226	2,686,516
		松山區	217,353	213,639	213,090	213,496	211,064	209,932	205,823	208,198	207,615	207,303	205,031	205,289	205,593	205,962	208,101	209,422	210,986	210,097	207,995	208,434	209,948	210,905	210,343
		信義區	245,447	247,726	245,255	246,925	243,780	240,212	239,888	242,500	241,917	240,294	237,530	237,362	234,590	232,506	230,780	231,476	228,868	227,770	225,364	225,092	226,541	227,734	228,496
		大安區	352,107	341,765	335,993	337,309	329,516	317,201	314,217	319,003	317,110	316,977	315,818	315,714	313,011	312,554	312,166	314,171	314,924	313,848	311,612	311,565	313,846	313,426	313,363
		中山區	235,963	232,683	226,775	226,566	221,585	215,980	212,238	215,168	214,652	215,532	216,043	217,569	216,999	216,868	216,906	219,582	218,483	218,841	218,245	220,126	224,102	226,659	228,753
		中正區	183,668	181,233	175,261	174,708	170,853	166,892	164,955	166,532	165,324	163,090	161,635	161,808	159,599	158,486	157,335	158,604	159,486	159,337	158,752	159,536	161,449	162,154	163,140
		大同區	149,817	147,505	140,922	138,170	135,098	134,183	133,661	134,563	133,503	132,694	131,343	131,077	129,440	128,512	126,810	126,923	126,128	124,653	123,399	124,600	126,640	128,809	129,820
		萬華區	230,801	228,384	220,896	217,632	213,983	211,091	208,464	209,780	207,943	206,855	204,024	203,451	200,266	197,445	194,743	194,879	192,470	190,361	188,437	189,099	190,855	192,628	193,480
		文山區	225,755	226,295	223,822	223,003	227,707	229,992	235,361	243,939	248,602	253,131	253,920	256,528	256,506	258,046	258,953	261,417	261,666	261,719	260,869	262,307	266,442	269,310	271,341
		南港區	117,764	117,698	115,177	113,412	112,411	111,733	110,982	112,699	113,070	114,144	113,937	113,839	113,122	112,982	113,052	113,258	113,716	113,672	113,149	114,023	116,131	118,490	119,752
		內湖區	214,750	215,529	216,149	219,951	226,055	231,972	237,349	244,642	249,588	253,584	254,521	258,611	259,789	261,201	261,837	264,624	265,518	266,808	267,704	270,245	275,652	280,025	282,842
		士林區	300,512	301,068	298,419	299,127	298,255	294,405	293,731	296,810	295,209	294,443	292,096	291,493	289,194	288,921	287,753	288,212	287,048	286,065	283,855	284,539	287,072	288,894	289,742
		北投區	244,055	242,548	241,486	243,279	242,556	241,781	241,824	246,105	246,779	248,427	247,904	249,115	249,029	248,989	247,939	249,674	249,976	249,752	248,047	249,206	252,290	254,192	255,444
	臺中市		2,061,036	2,112,465	2,167,852	2,212,603	2,257,950	2,303,762	2,349,722	2,385,367	2,421,996	2,460,098	2,485,968	2,508,495	2,529,763	2,548,332	2,566,220	2,587,828	2,606,794	2,624,072	2,635,761	2,648,419	2,664,394	2,684,893	2,701,661
		中區	34,447	33,564	33,291	31,772	28,282	26,815	25,554	24,700	23,557	23,096	23,420	23,536	23,535	23,762	24,062	23,527	24,010	23,603	23,228	22,472	21,610	20,647	20,008
		東區	76,654	75,909	74,999	73,406	72,098	70,808	70,737	70,104	70,277	70,575	70,662	70,146	70,342	70,529	72,374	73,091	73,748	74,072	73,891	73,969	73,960	74,282	74,572
		南區	70,868	71,871	73,321	75,663	79,671	84,030	88,032	91,182	95,450	98,779	100,747	103,189	104,911	105,943	107,272	109,243	110,358	111,878	112,722	113,659	115,032	116,807	118,349
		西區	111,233	112,308	111,749	110,793	109,797	109,576	110,061	109,966	111,197	112,650	113,768	114,883	115,561	116,401	116,676	116,156	116,812	117,325	117,390	117,365	117,210	116,784	116,397
		北區	141,110	143,194	143,735	143,746	144,632	145,115	146,634	145,067	146,265	148,037	148,225	148,367	147,928	147,249	146,787	146,665	147,469	147,721	147,529	147,639	147,679	147,798	147,880
		西屯區	117,068	122,274	127,655	134,364	141,324	148,426	156,957	161,594	166,736	173,071	177,288	181,513	184,926	188,656	192,996	195,444	197,900	201,333	203,680	206,536	209,672	212,750	215,485
		南屯區	65,100	71,511	78,958	81,272	89,093	96,765	103,579	109,853	116,666	123,287	127,769	132,001	135,899	138,674	139,808	143,597	145,983	148,206	150,884	153,779	155,768	158,300	159,952
		北屯區	157,717	164,329	172,893	181,638	188,324	194,849	200,407	205,322	210,441	216,295	221,815	223,071	226,285	230,078	232,803	236,669	239,618	241,990	244,311	246,880	249,742	252,668	255,978
		豐原區	154,175	155,959	156,906	157,548	158,315	158,847	159,580	160,256	161,032	161,104	161,589	162,115	162,828	163,228	163,746	164,051	164,619	165,238	165,245	165,433	165,609	166,085	166,090
		東勢區	61,237	61,499	61,157	60,753	60,612	60,462	60,043	59,647	58,560	57,858	57,410	57,105	56,762	56,230	55,681	55,259	54,790	54,201	53,696	53,259	52,780	52,403	51,953
		大甲區	74,542	75,298	76,069	76,783	77,287	77,713	77,945	78,013	78,059	78,406	78,483	78,809	79,303	79,643	79,636	79,496	79,264	78,917	78,707	78,387	78,118	77,986	77,847
		清水區	82,890	83,827	84,302	84,368	84,284	84,276	84,503	84,624	84,754	85,135	85,038	85,331	85,560	85,700	85,572	85,728	85,948	85,770	85,743	85,620	85,629	85,734	86,061
		沙鹿區	69,117	69,911	69,925	70,505	70,741	70,760	71,149	71,689	71,781	72,486	73,069	73,631	74,353	75,043	75,862	77,273	78,436	79,553	80,640	81,534	83,238	84,797	86,305
		梧棲區	43,307	44,086	45,421	46,702	47,367	48,026	48,598	49,365	49,572	50,127	50,678	51,137	51,810	52,378	53,166	53,723	54,195	54,748	54,943	55,262	55,544	55,857	56,008
		后里區	54,032	54,575	54,890	55,114	54,989	54,847	54,852	54,875	54,953	55,386	55,350	55,554	55,674	55,042	54,776	54,630	54,562	54,566	54,401	54,287	54,033	54,089	54,076
		神岡區	53,701	55,332	56,428	57,516	58,347	59,257	60,184	60,861	61,571	62,487	62,881	63,186	63,624	63,852	63,817	64,230	64,271	64,159	63,982	63,753	63,921	64,534	64,899
		潭子區	62,325	64,194	67,009	71,204	75,351	79,230	82,321	84,828	87,405	89,956	90,987	93,083	94,220	94,834	95,462	96,450	97,416	98,456	99,677	100,481	101,781	103,516	104,471
		大雅區	56,156	58,494	61,157	64,766	68,883	71,876	74,651	76,994	79,125	80,974	82,158	83,276	84,297	85,177	85,739	86,993	87,976	88,864	89,499	89,825	90,591	91,367	91,939
		新社區	27,106	27,324	27,452	27,328	27,243	27,302	27,190	27,089	26,915	26,740	26,698	26,654	26,565	26,333	26,194	25,915	25,820	25,819	25,761	25,637	25,495	25,378	25,322
		石岡區	15,110	15,293	15,449	15,370	15,399	15,297	15,444	15,573	15,382	15,264	15,290	15,419	15,457	15,650	15,887	16,109	16,167	16,162	16,146	15,976	15,792	15,763	15,636
		外埔區	27,890	28,401	28,834	29,172	29,666	30,034	30,228	30,724	31,126	31,449	31,515	31,597	31,389	31,253	31,428	31,630	31,888	31,986	32,007	32,051	32,005	31,797	31,845
		大安區	20,723	20,810	21,044	21,023	21,069	21,150	21,263	21,329	21,370	21,360	21,435	21,420	21,289	21,099	20,964	20,817	20,787	20,605	20,417	20,308	20,081	19,910	19,720
		烏日區	57,940	58,760	58,788	59,951	60,507	61,958	63,069	63,860	64,037	64,668	65,088	65,186	65,413	65,765	66,083	67,065	67,445	67,970	68,373	68,709	69,224	70,068	70,624
		大肚區	49,064	50,132	50,989	51,773	52,106	52,603	53,211	53,780	54,389	54,685	54,973	55,061	55,180	55,566	55,722	55,886	55,932	55,945	55,874	55,725	55,739	55,863	55,995
		龍井區	49,640	51,482	53,148	54,857	56,639	58,889	60,833	62,893	65,092	66,895	67,624	68,486	68,878	69,582	70,372	71,510	71,961	73,041	73,934	74,474	74,682	75,138	75,664
		霧峰區	62,760	64,286	64,185	65,499	66,199	66,939	67,635	68,307	67,648	66,354	65,924	65,525	65,188	64,957	64,747	64,627	64,474	64,228	63,906	63,975	63,904	64,183	64,280
		太平區	122,923	129,182	135,103	143,015	148,810	153,693	158,145	162,615	165,524	166,923	167,907	168,892	169,969	170,363	170,712	171,139	171,628	172,363	172,389	172,965	174,284	176,594	178,870
		大里區	132,039	138,498	152,261	156,040	159,896	163,336	165,902	169,239	171,940	174,930	176,860	178,998	181,308	184,164	186,818	189,945	192,437	194,550	196,056	197,716	200,588	203,239	204,846
		和平區	10,162	10,162	10,734	10,662	11,019	10,883	11,015	11,018	11,172	11,121	11,317	11,324	11,309	11,181	11,058	10,960	10,880	10,803	10,730	10,743	10,683	10,556	10,589
	臺南市		1,725,402	1,741,289	1,759,493	1,771,997	1,788,612	1,799,940	1,814,062	1,822,102	1,831,783	1,842,337	1,848,243	1,852,664	1,856,461	1,860,591	1,862,918	1,866,727	1,870,061	1,873,005	1,875,406	1,873,794	1,876,960	1,881,645	1,883,208
		新營區	72,279	73,054	73,462	74,332	75,114	75,446	75,297	75,836	76,475	77,198	77,661	77,946	78,057	78,390	78,365	78,742	78,985	78,715	78,233	78,105	78,473	78,475	78,521
		鹽水區	28,972	28,949	29,057	29,344	29,372	29,462	29,269	29,209	29,141	28,947	28,829	28,815	28,682	28,488	28,397	28,115	27,872	27,585	27,321	27,160	26,891	26,695	26,426
		白河區	38,468	38,358	38,096	37,691	37,260	36,832	36,296	35,818	35,324	34,833	34,554	34,223	33,843	33,547	33,132	32,795	32,323	31,926	31,735	31,395	30,947	30,602	30,178
		柳營區	24,420	24,497	24,719	24,846	24,848	24,857	24,849	24,683	24,548	24,389	24,124	23,984	23,998	23,826	23,673	23,463	23,241	23,147	22,987	22,726	22,443	22,160	21,932
		後壁區	29,704	29,690	29,494	29,431	29,484	29,380	29,283	28,837	28,537	28,186	27,820	27,553	27,317	27,161	26,852	26,768	26,538	26,294	26,163	25,884	25,569	25,280	24,910
		東山區	27,348	27,235	27,137	26,965	26,689	26,497	26,169	25,813	25,649	25,298	25,149	24,900	24,728	24,385	24,222	23,959	23,793	23,532	23,414	23,117	22,771	22,529	22,195
		麻豆區	46,718	47,000	47,042	47,407	47,609	47,657	47,559	47,421	47,457	47,457	47,382	47,165	46,919	46,666	46,571	46,362	46,322	46,164	46,089	45,795	45,609	45,377	45,230
		下營區	29,145	29,114	28,957	28,870	28,736	28,584	28,471	28,311	28,121	28,032	27,833	27,672	27,525	27,340	27,161	26,906	26,793	26,612	26,411	26,119	25,803	25,612	25,333
		六甲區	26,448	26,628	26,186	25,442	25,489	25,507	25,522	25,406	25,293	25,253	25,223	25,163	25,097	24,975	24,869	24,599	24,400	24,211	23,984	23,694	23,509	23,346	23,151
		官田區	24,030	24,205	24,411	24,164	24,159	24,148	24,160	24,061	23,916	23,958	23,553	23,358	23,271	23,234	23,149	22,825	22,642	22,529	22,455	22,212	21,965	21,912	21,823
		大內區	12,923	12,978	12,976	12,879	12,693	12,599	12,448	12,363	12,175	12,116	11,978	11,926	11,812	11,611	11,557	11,458	11,342	11,205	11,093	10,899	10,674	10,537	10,408
		佳里區	54,764	55,002	55,129	56,099	56,733	56,959	57,172	57,116	57,403	57,980	58,257	58,567	58,858	58,855	58,811	59,216	59,244	59,329	59,464	59,269	59,155	59,289	59,372
		學甲區	31,650	31,648	31,187	31,371	31,220	30,995	30,943	30,727	30,426	30,090	29,992	29,772	29,547	29,336	29,094	28,805	28,582	28,313	28,173	27,864	27,583	27,414	27,167
		西港區	23,808	24,116	24,483	24,961	25,397	25,752	25,917	26,049	26,226	26,222	26,236	26,130	26,087	25,982	25,960	25,809	25,542	25,415	25,357	25,200	25,069	25,034	24,914
		七股區	26,635	26,639	27,432	26,630	26,322	26,334	26,287	26,279	26,109	25,952	25,976	25,910	25,705	25,547	25,517	25,136	25,348	25,115	24,958	24,815	24,649	24,225	23,871
		將軍區	24,846	24,636	24,434	24,430	24,383	24,141	24,092	23,923	23,825	23,569	23,440	23,215	23,049	22,813	22,711	22,421	22,103	21,935	21,798	21,579	21,261	21,005	20,808
		北門區	14,909	14,791	15,069	14,676	14,429	14,150	14,185	13,900	13,614	13,449	13,477	13,302	13,176	12,949	12,922	12,765	12,625	12,529	12,560	12,468	12,254	12,083	11,876
		新化區	42,093	42,236	42,154	42,824	43,807	44,286	44,527	44,939	45,207	45,398	45,348	45,380	45,192	44,970	44,857	44,795	44,500	44,469	44,361	44,096	44,023	43,940	43,836
		善化區	41,173	41,437	41,238	41,354	41,769	41,693	41,826	41,776	41,873	41,968	42,022	41,849	41,767	41,772	41,863	42,153	42,614	43,021	43,361	43,477	43,995	44,619	45,167
		新市區	28,609	29,124	29,851	30,540	31,230	31,965	32,514	33,648	34,121	34,475	34,583	35,091	35,381	35,719	35,704	35,805	35,433	35,307	34,977	34,740	35,035	35,187	35,336
		安定區	27,679	27,957	28,307	28,784	29,092	29,153	29,550	29,693	29,854	29,933	29,949	29,947	29,891	29,963	29,844	29,830	30,066	30,111	30,129	30,232	30,263	30,298	30,215
		山上區	8,259	8,256	8,401	8,120	8,074	8,034	8,160	8,135	8,109	8,103	8,279	8,190	8,103	8,110	8,182	8,125	8,112	8,036	8,021	7,864	7,757	7,696	7,570
		玉井區	18,409	18,266	18,136	17,889	17,726	17,497	17,435	17,266	17,179	17,076	16,945	16,821	16,597	16,484	16,260	16,006	15,868	15,696	15,579	15,413	15,223	15,058	14,821
		楠西區	13,030	12,892	12,778	12,673	12,624	12,440	12,418	12,258	12,082	11,932	11,835	11,638	11,477	11,295	11,242	11,149	11,024	10,871	10,794	10,663	10,445	10,272	10,186
		南化區	9,729	9,769	9,702	9,962	9,842	9,874	10,089	9,777	9,594	9,513	9,563	9,307	9,148	9,031	9,057	9,061	8,982	8,980	9,009	8,925	8,840	8,814	8,894
		左鎮區	6,586	6,515	6,617	6,449	6,380	6,289	6,384	6,230	6,120	6,036	6,080	5,961	5,879	5,736	5,729	5,712	5,646	5,576	5,614	5,492	5,359	5,294	5,211
		仁德區	59,716	60,587	61,265	62,983	64,282	64,505	65,243	65,298	65,789	66,182	66,172	66,245	66,682	66,834	67,433	68,107	67,838	68,481	68,947	69,343	70,232	71,270	72,444
		歸仁區	57,872	59,665	60,893	57,683	59,335	60,764	61,662	62,352	63,248	63,926	63,961	64,073	64,078	64,229	64,604	65,171	65,564	65,729	65,924	65,819	66,104	66,655	67,101
		關廟區	39,170	39,211	39,055	39,127	39,308	39,248	39,158	38,900	38,791	38,618	38,386	38,348	38,100	37,882	37,531	37,307	37,036	36,715	36,380	36,026	35,593	35,353	35,105
		龍崎區	4,990	4,932	5,610	5,054	4,843	4,724	4,626	4,615	4,512	4,404	4,418	4,413	4,315	4,348	4,379	4,406	4,440	4,464	4,433	4,382	4,311	4,325	4,310
		永康區	141,479	147,272	155,745	166,359	173,552	179,214	184,740	189,631	193,005	197,194	198,372	200,719	202,552	204,196	206,411	208,919	210,585	212,540	214,622	216,748	220,825	224,303	226,875
		東區	156,914	159,025	161,206	162,827	166,324	169,777	172,072	174,766	178,431	181,538	185,752	187,680	189,344	192,331	192,774	192,157	193,764	194,234	194,401	194,183	193,782	192,972	191,576
		南區	141,562	141,970	141,560	141,707	139,763	137,746	136,162	136,051	135,063	134,371	133,241	133,036	132,345	130,676	128,598	128,225	127,750	127,390	126,571	126,173	126,129	126,018	125,611
		西區	51,370	50,928	50,786	48,795	47,853	46,316	46,389	45,218	44,199	43,621	43,618	43,570	43,853
		北區	126,225	125,689	125,284	123,078	121,173	120,651	120,476	119,098	118,338	118,777	119,721	120,557	122,337	124,164	126,124	127,687	128,314	130,094	131,203	131,925	132,098	132,233	132,336
		中區	57,065	56,140	55,067	53,406	52,400	51,070	49,083	48,185	46,705	45,476	44,414	42,943	41,587
		安南區	135,016	138,569	142,217	145,340	148,577	151,437	154,738	157,947	160,884	163,291	164,557	165,790	166,867	168,418	169,946	172,344	174,309	175,630	177,116	178,119	179,987	182,749	185,412
		安平區	21,389	22,309	24,350	27,505	30,721	33,957	38,891	40,567	44,440	47,576	49,543	51,505	53,295	55,264	56,177	57,626	59,275	60,613	61,740	62,602	63,593	64,348	64,589
		中西區														84,064	83,240	81,998	81,246	80,492	80,029	79,271	78,741	78,666	78,498
	高雄市		2,528,578	2,552,487	2,572,147	2,595,883	2,619,947	2,641,749	2,663,302	2,689,374	2,705,857	2,725,267	2,731,415	2,742,905	2,746,819	2,751,602	2,753,486	2,760,180	2,764,868	2,769,054	2,770,887	2,773,483	2,774,470	2,778,659	2,779,877
		鹽埕區	35,827	35,035	34,733	34,164	33,584	33,008	33,226	32,393	31,961	31,506	31,077	30,890	30,298	29,815	29,410	29,008	28,635	28,067	27,651	27,399	26,723	26,222	25,847
		鼓山區	110,482	111,921	110,879	110,136	109,855	110,016	109,957	110,549	109,272	108,667	107,647	107,855	108,157	111,635	114,789	118,777	122,551	125,641	129,521	131,728	132,868	133,964	135,102
		左營區	108,858	110,891	112,460	115,562	121,302	128,728	133,413	141,788	152,070	160,363	165,952	172,327	176,565	179,441	181,133	183,705	186,026	188,671	189,944	191,991	193,482	194,815	195,436
		楠梓區	121,472	124,512	128,304	133,100	137,549	141,330	144,094	148,179	151,274	154,073	155,449	157,067	159,279	161,814	163,815	166,101	168,728	170,416	171,906	173,053	173,969	175,798	177,579
		三民區	324,352	327,828	327,590	330,921	336,803	340,732	342,105	349,108	352,936	357,024	357,536	360,832	361,305	360,363	358,124	357,862	357,096	355,927	355,097	354,022	352,159	349,710	348,488
		新興區	70,322	69,342	68,278	67,854	65,720	62,978	62,430	62,199	61,175	60,738	60,653	61,188	59,862	59,486	58,711	58,067	57,373	56,704	55,744	55,287	54,345	53,749	53,170
		前金區	38,435	38,134	37,094	37,225	36,462	35,691	35,021	34,973	34,081	33,474	32,870	32,597	32,001	31,309	30,766	30,325	29,965	29,774	29,208	28,859	28,446	28,250	28,038
		苓雅區	220,300	219,351	216,970	215,710	212,984	208,593	203,124	204,494	202,599	201,387	199,535	199,250	196,942	193,997	191,705	189,820	188,020	186,765	185,021	183,948	181,717	179,512	177,716
		前鎮區	208,410	207,151	205,197	204,743	201,710	201,477	200,026	202,081	202,794	203,385	203,001	204,083	202,230	201,871	200,511	200,660	200,427	200,614	199,951	199,144	197,693	196,246	194,835
		旗津區	34,487	34,474	34,117	33,816	33,120	32,034	32,103	31,697	31,032	30,939	30,872	30,480	30,072	29,828	30,210	30,158	30,049	29,940	29,975	29,968	29,781	29,468	29,040
		小港區	123,480	127,270	129,727	133,017	136,946	139,034	140,643	144,841	146,311	149,004	149,865	152,941	152,639	153,118	151,475	150,223	151,685	153,123	153,896	154,548	154,772	155,779	156,115
		鳳山區	293,522	294,471	298,059	301,374	303,956	309,062	315,488	316,350	318,562	321,707	322,678	323,799	328,878	333,474	336,510	338,596	338,900	339,240	339,952	341,120	345,346	349,816	352,574
		林園區	63,311	64,933	66,346	68,379	70,175	71,033	71,473	71,764	71,892	72,184	72,173	71,255	71,117	70,752	71,370	71,562	71,336	70,979	70,770	70,512	70,439	70,383	70,436
		大寮區	96,336	101,218	105,888	107,483	110,589	112,526	114,932	115,150	115,897	115,692	115,396	114,342	114,022	110,745	109,648	109,607	109,313	109,449	109,257	108,984	109,157	109,780	110,449
		大樹區	44,172	44,618	45,690	46,040	46,340	46,972	47,420	47,167	47,137	46,927	46,588	46,085	45,802	45,576	45,245	45,128	44,871	44,585	44,230	43,955	43,609	43,429	43,418
		大社區	26,737	27,922	29,134	30,162	31,161	32,269	33,323	33,139	33,186	33,118	33,613	32,580	32,489	32,307	32,501	32,621	32,692	32,843	32,808	32,941	33,296	33,766	34,097
		仁武區	36,803	37,878	40,128	42,636	44,682	46,150	47,663	49,303	51,225	53,206	54,572	55,768	57,773	60,555	63,385	66,129	67,881	68,995	70,242	72,202	74,867	77,371	79,392
		鳥松區	29,051	29,990	31,222	31,956	32,821	34,240	36,366	36,713	37,207	37,863	38,718	39,080	39,730	40,129	40,582	40,982	41,314	41,730	42,135	42,595	43,191	43,696	43,781
		岡山區	84,655	85,991	86,834	88,227	89,284	90,651	91,015	92,186	92,864	93,541	93,975	94,235	94,822	95,381	95,548	95,680	96,138	96,731	97,095	97,102	97,417	97,587	97,800
		橋頭區	36,376	36,591	37,194	37,562	37,955	38,085	38,873	38,281	38,136	37,996	37,780	37,721	37,392	37,174	36,975	36,874	36,653	36,439	36,284	36,415	36,809	36,962	37,010
		燕巢區	32,703	32,936	33,280	33,204	33,179	33,092	33,118	32,911	32,804	32,561	32,136	31,794	31,711	31,618	31,493	31,550	31,227	31,220	31,059	30,790	30,941	30,758	30,542
		田寮區	10,164	10,166	10,831	10,015	9,888	10,030	10,120	10,041	9,823	9,622	9,715	9,501	9,238	8,979	8,878	8,721	8,576	8,441	8,325	8,214	8,012	7,852	7,732
		阿蓮區	29,666	29,885	30,172	30,429	30,691	31,013	31,140	31,327	31,350	31,595	31,446	31,414	31,361	31,248	31,080	30,940	30,907	30,698	30,613	30,383	30,225	30,033	29,795
		路竹區	51,503	51,754	51,913	52,452	52,814	52,981	53,045	53,257	53,408	53,589	53,582	53,963	54,103	54,271	54,588	54,703	54,576	54,369	54,137	53,791	53,443	53,145	53,036
		湖內區	25,814	25,974	25,983	26,242	26,788	27,214	27,877	28,375	28,670	28,890	28,746	28,651	28,460	28,470	28,510	28,702	28,605	28,634	28,697	28,827	28,806	29,120	29,203
		茄萣區	33,030	33,353	33,492	33,285	33,344	33,549	33,376	33,498	33,245	33,235	33,359	32,946	32,790	32,670	32,500	32,241	32,021	31,762	31,583	31,433	31,008	30,999	30,868
		永安區	11,184	11,256	12,086	12,655	13,292	13,680	15,227	14,787	14,552	14,661	14,894	14,627	14,415	14,427	14,456	14,308	14,223	14,134	14,253	14,301	14,106	14,129	14,138
		彌陀區	21,512	21,694	21,885	21,981	21,906	21,876	23,005	21,906	21,784	21,762	21,762	21,575	21,518	21,262	21,157	20,998	20,830	20,714	20,613	20,433	20,217	20,123	19,920
		梓官區	38,308	38,718	39,162	39,347	39,559	39,632	40,444	39,878	39,603	39,318	39,218	39,124	38,669	38,435	38,052	37,582	37,218	36,976	36,867	36,726	36,559	36,519	36,381
		旗山區	46,901	47,039	46,786	46,239	45,983	45,521	45,457	44,807	44,176	43,880	43,528	43,116	42,788	42,358	41,787	41,404	41,054	40,720	40,368	39,873	39,423	39,038	38,563
		美濃區	50,668	50,552	50,394	50,006	49,408	48,797	48,216	47,662	47,160	46,558	46,246	45,961	45,538	45,187	44,846	44,506	44,130	43,710	43,444	42,993	42,658	42,157	41,668
		六龜區	18,478	18,452	18,626	18,703	18,843	18,417	18,157	17,884	17,574	17,208	17,081	16,824	16,548	16,310	16,115	15,837	15,660	15,455	15,354	14,833	14,421	14,203	13,943
		甲仙區	9,377	9,253	9,252	9,209	9,253	9,208	9,110	9,035	8,920	8,873	9,005	8,780	8,639	8,491	8,575	8,387	8,222	8,102	7,616	7,228	6,981	6,625	6,444
		杉林區	13,983	13,947	14,192	13,971	13,756	13,757	13,852	13,379	13,129	12,910	12,676	12,448	12,151	11,941	11,790	11,589	11,390	11,186	11,102	11,842	12,136	12,577	12,587
		內門區	18,638	18,578	18,656	18,574	18,713	18,718	18,480	18,383	18,226	17,986	17,870	17,665	17,462	17,179	16,914	16,751	16,550	16,308	16,085	15,951	15,662	15,510	15,351
		茂林區	1,589	1,635	1,673	1,645	1,659	1,660	1,862	1,761	1,745	1,723	1,907	1,849	1,781	1,757	1,785	1,767	1,756	1,776	1,850	1,874	1,834	1,839	1,832
		桃源區	4,787	4,805	4,887	4,809	4,781	4,831	4,857	4,838	4,781	4,752	4,895	4,900	4,864	4,846	4,981	4,818	4,787	4,747	4,777	4,817	4,700	4,559	4,406
		那瑪夏區	2,885	2,969	3,033	3,050	3,092	3,164	3,264	3,290	3,296	3,350	3,399	3,392	3,408	3,383	3,566	3,491	3,483	3,469	3,457	3,401	3,252	3,170	3,145
	宜蘭縣		453,765	456,857	462,509	464,359	465,043	465,120	466,603	465,627	465,004	465,186	465,799	464,107	463,285	462,286	461,586	460,426	460,398	460,902	461,625	460,486	459,061	458,595	458,456
		宜蘭市	88,710	89,059	89,649	91,133	92,313	92,542	92,038	92,013	91,908	91,951	92,097	92,768	93,623	94,188	94,606	95,383	96,094	95,874	95,831	95,568	95,521	96,016	95,985
		羅東鎮	65,456	65,590	65,678	66,460	66,921	67,569	68,075	68,480	69,193	69,777	70,258	70,775	72,020	73,196	73,629	74,018	74,173	73,722	73,038	72,958	72,860	72,468	72,352
		蘇澳鎮	51,376	51,189	50,927	50,357	49,584	48,834	48,545	48,023	47,239	46,779	46,469	45,869	45,273	44,487	43,895	43,219	42,915	43,665	43,305	42,986	42,417	41,855	41,382
		頭城鎮	34,669	34,507	34,692	34,625	34,391	34,120	33,624	33,632	33,340	33,337	33,113	33,062	32,817	32,577	32,188	31,924	31,610	31,300	31,161	30,899	30,556	30,304	30,043
		礁溪鄉	37,879	38,219	38,944	38,890	38,771	38,519	38,760	38,514	38,382	38,187	38,133	37,685	37,267	37,032	36,625	36,059	35,900	35,940	35,895	35,876	35,924	36,010	35,998
		壯圍鄉	24,404	24,727	25,839	25,743	25,758	26,049	27,273	26,263	26,266	26,451	27,136	26,355	26,137	25,992	25,878	25,457	25,271	25,072	25,109	25,004	24,674	24,551	24,468
		員山鄉	31,435	31,921	32,257	32,771	32,953	33,080	33,819	33,919	33,971	33,932	34,153	33,566	33,254	32,833	32,711	32,506	32,345	32,213	32,378	32,347	32,304	32,106	32,159
		冬山鄉	49,581	50,223	51,069	51,430	51,645	51,772	51,828	51,926	51,723	51,739	51,313	51,382	50,988	50,754	50,907	51,161	51,391	51,722	52,330	52,635	52,975	53,363	53,731
		五結鄉	36,834	37,220	37,513	37,995	38,420	38,406	38,233	38,827	39,123	39,393	39,034	38,897	38,468	38,047	37,702	37,686	37,821	38,469	38,797	38,850	38,772	38,999	39,230
		三星鄉	22,401	22,984	24,278	23,315	22,727	22,602	22,778	22,479	22,333	22,142	22,265	21,999	21,734	21,530	21,712	21,295	21,203	21,268	21,710	21,362	21,203	21,122	21,191
		大同鄉	5,313	5,450	5,580	5,612	5,644	5,648	5,708	5,687	5,699	5,684	5,901	5,842	5,788	5,772	5,812	5,802	5,830	5,815	6,004	5,987	5,931	5,915	6,005
		南澳鄉	5,707	5,768	6,083	6,028	5,916	5,979	5,922	5,864	5,827	5,814	5,927	5,907	5,916	5,878	5,921	5,916	5,845	5,842	6,067	6,014	5,924	5,886	5,912
	桃園縣		1,385,165	1,415,546	1,448,186	1,483,955	1,524,127	1,570,456	1,614,471	1,650,984	1,691,292	1,732,617	1,762,963	1,792,603	1,822,075	1,853,029	1,880,316	1,911,161	1,934,968	1,958,686	1,978,782	2,002,060	2,013,305	2,030,161	2,044,023
		桃園市	246,056	251,520	256,612	260,680	271,536	283,861	294,974	304,857	316,438	328,754	338,361	347,160	357,647	368,765	377,345	384,803	391,822	397,056	401,096	406,851	410,113	413,488	415,414
		中壢市	276,878	282,643	289,054	295,825	301,287	306,473	310,723	314,017	318,649	324,931	329,913	334,683	339,586	346,144	350,981	355,707	358,656	362,129	365,109	369,770	372,429	376,217	378,918
		平鎮市	150,703	154,585	158,621	163,549	170,038	175,363	179,830	183,905	188,344	191,948	194,521	196,408	198,273	198,353	198,375	200,331	202,680	205,266	206,471	207,457	208,561	209,552	211,146
		八德市	135,897	137,953	142,822	152,821	148,899	151,759	154,412	158,133	161,700	164,933	166,355	167,085	168,910	169,703	170,695	171,697	172,125	173,585	175,127	176,868	177,435	178,889	179,502
		楊梅市	98,943	101,247	103,216	105,696	108,249	113,606	118,958	122,950	126,323	129,419	131,694	133,432	134,937	136,178	138,258	140,641	142,895	145,347	148,092	150,926	152,441	154,324	155,754
		大溪鎮	77,658	78,545	79,355	78,711	80,993	81,646	82,119	82,443	82,925	83,348	83,631	84,265	84,497	86,070	87,591	89,365	90,393	91,146	91,875	92,081	91,979	91,891	91,961
		蘆竹鄉	58,156	60,119	62,510	65,447	69,825	75,345	81,025	85,764	91,664	98,039	103,095	108,452	113,535	118,581	122,947	127,765	131,942	135,768	138,727	142,120	143,886	146,779	149,852
		大園鄉	61,219	63,128	65,212	67,103	70,210	72,138	74,009	75,476	76,482	77,186	78,163	78,837	78,967	79,404	79,683	79,354	79,627	80,274	81,309	81,966	82,136	82,756	83,586
		龜山鄉	95,756	98,134	99,438	99,102	103,481	106,052	108,866	110,352	112,195	114,391	115,466	117,969	119,843	122,705	125,214	129,846	131,691	133,977	135,692	137,996	138,355	139,605	140,509
		龍潭鄉	82,698	84,572	86,389	88,249	90,366	93,716	97,343	100,280	103,088	105,723	107,055	108,530	109,554	110,222	111,148	112,072	112,758	113,633	114,266	115,166	114,958	115,146	115,728
		新屋鄉	45,750	46,775	47,420	47,881	48,314	48,998	49,243	49,050	49,195	49,100	49,079	49,454	49,578	49,593	49,634	49,844	49,961	49,683	49,576	49,112	48,652	48,276	48,025
		觀音鄉	43,911	44,775	45,896	47,200	49,085	49,808	51,138	51,893	52,699	53,486	54,227	54,942	55,473	56,300	57,552	58,901	59,799	60,368	60,831	61,077	61,676	62,612	63,003
		復興鄉	11,540	11,550	11,641	11,691	11,844	11,691	11,831	11,864	11,590	11,359	11,403	11,386	11,275	11,011	10,893	10,835	10,619	10,454	10,611	10,670	10,684	10,626	10,625
	新竹縣		379,443	385,668	393,030	401,188	408,577	414,932	421,721	427,980	433,767	439,713	446,300	452,679	459,287	467,246	477,677	487,692	495,821	503,273	510,882	513,015	517,641	523,993	530,486
		竹北市	67,178	68,955	71,328	74,461	77,003	79,431	82,579	85,357	87,998	90,145	92,814	95,896	100,096	105,651	112,175	119,720	126,255	132,136	137,861	141,852	146,826	152,617	158,849
		關西鎮	33,227	33,235	33,148	33,055	32,813	32,706	32,357	32,387	32,299	32,460	32,704	32,849	32,887	32,759	32,896	32,713	32,673	32,451	32,431	31,775	31,553	31,239	30,919
		新埔鎮	36,261	36,598	36,778	36,736	36,839	36,872	36,781	36,618	36,708	36,669	36,677	36,591	36,529	36,378	36,291	36,242	36,102	36,085	36,012	35,495	35,240	34,960	34,674
		竹東鎮	76,632	77,789	79,043	80,644	81,552	82,912	84,408	85,472	86,595	88,062	89,347	91,272	92,743	93,993	94,789	95,824	96,546	97,086	97,089	96,751	96,421	96,594	96,326
		湖口鄉	54,078	55,515	57,220	59,122	61,223	62,349	63,428	64,604	65,932	67,511	68,421	69,728	70,535	71,420	72,363	73,418	74,214	75,066	75,546	75,408	75,921	76,501	76,753
		橫山鄉	15,922	15,859	15,871	15,772	15,759	15,559	15,428	15,373	15,206	15,007	15,086	14,952	14,866	14,778	14,864	14,797	14,635	14,590	14,772	14,368	14,200	14,013	13,912
		新豐鄉	37,187	38,192	39,036	40,088	41,056	42,391	43,673	44,559	45,529	46,293	46,972	47,364	47,954	48,823	50,311	51,029	51,664	52,334	52,761	53,288	53,610	54,427	55,386
		芎林鄉	17,824	18,082	18,244	18,615	19,014	19,391	19,561	19,908	20,370	20,744	20,897	20,795	20,662	20,551	20,615	20,744	20,778	20,879	20,963	20,778	20,519	20,354	20,256
		寶山鄉	10,172	10,401	10,866	11,498	12,238	12,507	12,790	13,202	12,985	12,951	13,063	13,099	13,146	13,300	13,554	13,807	13,788	13,748	13,998	14,078	14,106	14,085	14,103
		北埔鄉	10,758	10,754	11,065	10,850	10,778	10,690	10,634	10,648	10,595	10,577	10,608	10,554	10,525	10,531	10,572	10,456	10,341	10,262	10,289	10,119	9,994	9,883	9,838
		峨眉鄉	7,102	7,090	7,023	6,852	6,763	6,651	6,673	6,569	6,511	6,392	6,406	6,363	6,344	6,233	6,260	6,187	6,154	6,062	6,133	5,999	5,904	5,831	5,764
		尖石鄉	8,319	8,432	8,446	8,475	8,551	8,499	8,457	8,375	8,224	8,162	8,350	8,351	8,274	8,220	8,334	8,204	8,207	8,161	8,351	8,439	8,731	8,964	9,167
		五峰鄉	4,783	4,766	4,962	5,020	4,988	4,974	4,952	4,908	4,815	4,740	4,955	4,865	4,726	4,609	4,653	4,551	4,464	4,413	4,676	4,665	4,616	4,525	4,539
	苗栗縣		551,016	553,557	556,188	558,191	560,128	560,099	560,344	559,858	559,804	559,703	560,640	560,766	560,903	560,643	559,944	559,986	560,163	560,397	561,744	560,968	562,010	563,976	565,554
		苗栗市	88,907	89,043	89,309	89,565	89,719	89,806	89,989	90,041	90,403	90,877	91,059	90,977	91,226	91,109	90,747	90,828	91,082	91,136	90,826	90,703	90,900	91,007	91,109
		苑裡鎮	48,598	48,748	48,662	48,820	49,184	49,311	49,415	49,430	49,485	49,463	49,437	49,474	49,340	49,329	49,178	49,024	49,071	49,034	49,016	48,645	48,506	48,452	48,493
		通霄鎮	43,533	43,581	43,385	43,250	43,063	42,748	42,384	41,957	41,782	41,347	41,249	41,046	40,720	40,336	39,990	39,581	39,218	38,773	38,535	37,977	37,614	37,449	37,155
		竹南鎮	62,792	63,838	64,781	65,308	66,132	66,718	67,304	68,158	68,789	69,504	70,541	71,135	71,810	72,395	73,074	74,233	75,246	76,323	77,344	78,420	79,656	80,864	82,351
		頭份鎮	79,629	80,458	81,314	82,632	83,622	84,833	86,062	86,845	87,935	88,924	89,384	90,168	91,102	92,218	92,925	93,757	94,525	95,687	96,261	97,150	98,377	99,993	101,527
		後龍鎮	44,023	43,946	44,040	44,102	44,150	43,870	43,708	43,248	42,856	42,613	42,284	42,074	41,948	41,637	41,259	40,701	40,460	40,127	39,822	39,389	38,986	38,777	38,439
		卓蘭鎮	20,658	20,687	20,651	20,598	20,608	20,324	20,134	20,067	19,831	19,665	19,589	19,451	19,300	19,137	18,879	18,681	18,536	18,391	18,497	18,446	18,417	18,480	18,460
		大湖鄉	19,187	18,975	18,977	18,853	18,696	18,436	18,067	17,902	17,680	17,312	17,120	17,039	16,947	16,834	16,667	16,431	16,218	16,165	16,186	16,052	15,899	15,798	15,694
		公館鄉	33,182	33,515	33,983	34,268	34,676	34,702	34,614	34,625	34,559	34,773	34,875	34,884	34,753	34,635	34,518	34,577	34,647	34,744	34,813	34,745	34,847	34,932	34,790
		銅鑼鄉	20,846	20,987	21,026	21,040	20,953	21,042	21,256	21,000	20,980	20,829	20,692	20,603	20,639	20,501	20,265	20,086	19,885	19,597	19,633	19,401	19,332	19,178	19,036
		南庄鄉	14,376	14,327	14,073	13,897	13,642	13,324	13,048	12,816	12,532	12,247	12,239	12,102	11,911	11,807	11,695	11,628	11,449	11,301	11,318	11,117	11,010	10,863	10,742
		頭屋鄉	12,721	12,790	12,936	12,799	12,764	12,650	12,646	12,677	12,504	12,366	12,293	12,294	12,209	12,105	12,092	12,025	11,906	11,678	11,702	11,605	11,513	11,454	11,408
		三義鄉	17,707	17,910	17,995	18,151	18,298	18,279	18,250	18,179	18,099	18,020	18,071	18,092	17,956	17,936	17,990	17,883	17,687	17,643	17,713	17,548	17,487	17,495	17,411
		西湖鄉	9,981	9,897	9,766	9,723	9,608	9,525	9,284	9,054	8,870	8,667	8,599	8,476	8,352	8,265	8,204	8,126	7,985	7,924	7,939	7,869	7,801	7,748	7,649
		造橋鄉	14,535	14,747	14,787	14,916	14,932	14,710	14,696	14,529	14,403	14,301	14,356	14,200	14,141	14,066	13,998	13,965	13,857	13,725	13,737	13,727	13,687	13,626	13,517
		三灣鄉	8,211	8,232	8,533	8,382	8,314	8,203	8,151	8,033	7,915	7,807	7,783	7,738	7,626	7,555	7,505	7,552	7,496	7,400	7,393	7,264	7,210	7,191	7,126
		獅潭鄉	6,500	6,368	6,339	6,192	6,126	6,034	5,825	5,758	5,656	5,526	5,469	5,420	5,352	5,262	5,308	5,201	5,188	5,048	5,059	4,928	4,821	4,777	4,678
		泰安鄉	5,630	5,508	5,631	5,695	5,631	5,584	5,511	5,539	5,525	5,462	5,600	5,593	5,571	5,516	5,650	5,707	5,707	5,701	5,950	5,982	5,947	5,892	5,969
	彰化縣		1,254,228	1,264,955	1,273,655	1,281,296	1,288,447	1,292,482	1,297,744	1,301,467	1,305,640	1,310,531	1,313,994	1,316,179	1,316,443	1,316,762	1,315,826	1,315,034	1,314,354	1,312,935	1,312,467	1,307,286	1,303,039	1,299,868	1,296,013
		彰化市	217,328	219,536	221,090	222,722	223,675	224,066	225,006	226,151	227,715	229,915	231,129	232,156	233,435	234,308	234,614	235,322	235,998	236,631	237,160	236,503	236,646	236,636	236,172
		鹿港鎮	79,087	79,647	80,401	80,991	81,233	81,302	81,615	82,374	82,811	83,585	83,962	84,314	84,453	84,767	85,020	85,084	85,239	85,340	85,364	85,325	85,476	85,858	85,964
		和美鎮	77,296	78,886	79,865	80,767	81,458	82,363	83,218	84,183	85,450	86,439	87,176	87,698	87,792	88,245	88,416	88,841	89,053	89,386	89,624	89,723	90,173	90,298	90,541
		北斗鎮	31,868	32,147	32,360	32,700	32,809	33,042	33,414	33,593	33,681	33,809	33,869	33,718	33,604	33,505	33,459	33,494	33,548	33,620	33,631	33,516	33,379	33,280	33,151
		員林鎮	122,635	122,989	123,121	124,400	125,054	125,905	126,047	126,371	126,402	126,528	126,800	127,102	127,284	127,042	126,420	126,175	126,189	125,962	125,838	125,476	125,144	125,141	124,938
		溪湖鎮	52,168	52,684	53,077	53,627	54,197	54,732	54,827	55,183	55,272	55,481	55,875	55,953	56,106	56,356	56,417	56,430	56,607	56,449	56,260	56,119	55,918	55,899	55,802
		田中鎮	45,916	46,360	46,869	46,278	46,689	46,885	47,097	47,139	46,982	46,813	46,574	46,421	46,193	45,722	45,502	45,176	45,061	44,769	44,499	44,065	43,652	43,428	43,106
		二林鎮	57,452	57,595	57,826	57,740	57,713	57,510	57,387	57,336	57,228	56,996	56,884	56,903	56,724	56,449	56,050	55,538	55,045	54,795	54,479	53,939	53,552	53,198	52,864
		線西鄉	15,206	15,439	15,700	15,837	16,045	16,304	16,514	16,579	16,789	16,790	16,936	17,021	17,125	17,010	17,024	17,008	17,042	17,030	17,081	17,138	16,998	17,056	17,123
		伸港鄉	30,244	30,794	31,063	31,468	31,929	32,380	32,870	33,313	33,656	34,044	34,474	34,777	34,968	35,179	35,440	35,539	35,724	35,825	35,942	35,964	35,985	36,037	36,114
		福興鄉	44,742	45,345	45,884	46,366	46,903	47,329	47,723	47,800	48,053	48,381	48,611	48,679	48,648	48,607	48,704	48,782	48,940	49,005	49,130	48,945	48,625	48,182	48,015
		秀水鄉	34,193	34,599	35,026	35,541	36,026	36,423	36,844	37,237	37,516	37,782	37,905	38,063	38,286	38,431	38,510	38,675	38,853	38,968	38,985	39,122	39,273	39,429	39,385
		花壇鄉	42,012	42,598	43,256	43,884	44,499	44,998	45,389	45,575	45,776	45,981	46,007	46,185	46,260	46,336	46,248	46,357	46,125	46,193	46,238	46,187	46,047	46,017	45,987
		芬園鄉	25,855	26,059	26,383	26,556	26,918	26,859	26,761	26,702	26,648	26,788	26,630	26,373	26,069	25,968	25,671	25,515	25,340	25,090	24,980	24,814	24,670	24,457	24,258
		大村鄉	32,702	33,078	33,423	33,713	33,984	34,214	34,621	34,876	35,137	35,377	35,761	35,714	35,885	36,137	36,436	36,547	36,412	36,501	36,646	36,597	36,533	36,469	36,452
		埔鹽鄉	34,605	34,851	35,170	35,331	35,367	35,370	35,729	35,652	35,696	35,660	35,605	35,505	35,280	35,061	35,037	34,897	34,764	34,667	34,565	34,284	34,082	33,712	33,456
		埔心鄉	32,748	33,292	33,718	33,901	34,055	34,085	34,379	34,424	34,561	34,745	34,777	34,918	34,920	35,082	35,136	35,471	35,550	35,498	35,410	35,325	35,278	35,186	35,034
		永靖鄉	39,299	39,533	39,778	39,846	39,978	40,021	39,957	39,982	40,026	40,128	40,243	40,064	40,157	40,115	39,999	39,965	39,723	39,595	39,607	39,269	38,907	38,718	38,530
		社頭鄉	43,154	43,589	43,852	44,030	44,307	44,427	44,668	44,835	45,026	45,184	45,369	45,461	45,577	45,591	45,631	45,600	45,498	45,231	45,038	44,767	44,418	44,211	43,868
		二水鄉	19,872	19,767	19,596	19,405	19,281	19,036	18,882	18,670	18,485	18,219	18,077	18,016	17,786	17,705	17,515	17,283	17,122	16,929	16,749	16,520	16,345	16,133	15,999
		田尾鄉	27,514	27,652	27,773	28,131	28,415	28,603	28,850	28,836	29,019	29,232	29,343	29,949	29,462	29,384	29,387	29,246	29,163	28,911	28,890	28,639	28,355	28,050	27,984
		埤頭鄉	33,103	33,258	33,384	33,472	33,386	33,319	32,983	33,014	32,790	32,749	32,685	32,524	32,452	32,316	32,303	32,088	32,080	32,015	32,008	31,771	31,501	31,415	31,221
		芳苑鄉	40,538	40,604	40,565	40,553	40,821	40,111	40,452	39,683	39,330	38,902	38,591	38,306	38,131	37,980	37,781	37,402	37,065	36,784	36,637	36,320	35,752	35,337	35,104
		大城鄉	22,864	22,715	22,724	22,524	22,384	22,088	21,809	21,618	21,410	21,040	20,943	20,601	20,324	20,063	19,888	19,515	19,241	19,094	19,151	18,936	18,639	18,337	18,043
		竹塘鄉	18,101	18,103	18,140	17,983	17,753	17,510	17,334	17,173	17,189	17,101	17,059	17,023	16,920	16,819	16,806	16,779	16,763	16,616	16,693	16,470	16,365	16,201	16,040
		溪州鄉	33,726	33,835	33,611	33,530	33,568	33,600	33,368	33,168	32,992	32,862	32,709	32,735	32,602	32,584	32,412	32,305	32,209	32,031	31,862	31,552	31,326	31,183	30,862
	南投縣		539,211	542,396	544,610	546,091	546,517	545,667	546,707	545,874	544,038	541,537	541,818	541,292	540,397	538,413	537,168	535,205	533,717	531,753	530,824	526,491	522,807	520,196	517,222
		南投市	98,634	100,015	101,015	102,051	102,990	103,326	104,152	104,777	104,723	104,460	104,563	105,061	105,257	105,356	105,322	105,506	105,671	105,143	104,670	104,083	103,687	103,285	102,790
		埔里鎮	86,313	86,572	87,070	87,493	87,362	87,474	87,975	88,271	87,933	87,526	87,519	87,417	87,350	87,069	86,920	86,684	86,415	86,189	85,779	85,088	84,596	84,300	83,701
		草屯鎮	91,263	92,456	93,130	94,082	94,825	95,628	96,352	96,833	97,280	97,740	98,180	98,617	99,059	99,342	99,523	99,752	99,884	100,143	100,294	99,674	99,249	99,374	99,297
		竹山鎮	62,622	62,923	63,078	62,944	63,054	62,669	62,592	62,269	61,811	61,209	61,068	60,782	60,459	60,022	59,796	59,415	59,329	59,003	58,826	58,338	57,988	57,560	57,101
		集集鎮	12,678	12,750	12,767	12,514	12,429	12,347	12,296	12,250	12,335	12,279	12,302	12,328	12,459	12,393	12,311	12,216	12,109	12,055	12,103	11,920	11,737	11,576	11,413
		名間鄉	41,643	42,082	42,486	42,895	42,902	42,968	42,832	42,754	42,768	42,847	42,900	42,774	42,670	42,454	42,253	41,910	41,677	41,589	41,603	41,218	40,966	40,682	40,382
		鹿谷鄉	22,341	22,267	22,125	21,988	21,883	21,655	21,568	21,279	21,062	20,801	20,597	20,428	20,292	20,077	19,879	19,761	19,581	19,437	19,376	19,100	18,947	18,878	18,667
		中寮鄉	19,722	19,548	19,512	19,240	19,046	18,742	18,567	18,252	17,925	17,688	17,680	17,394	17,180	17,031	16,941	16,763	16,587	16,445	16,405	16,183	16,005	15,901	15,719
		魚池鄉	18,682	18,716	18,740	18,460	18,433	18,183	18,102	17,894	17,910	17,713	17,833	17,806	17,645	17,541	17,549	17,422	17,342	17,344	17,411	17,181	16,927	16,747	16,696
		國姓鄉	26,177	26,115	25,778	25,622	25,579	25,339	25,025	24,643	24,173	23,675	23,401	23,136	22,795	22,392	22,133	21,776	21,497	21,195	20,964	20,668	20,351	20,165	19,919
		水里鄉	26,548	26,101	25,615	25,210	24,566	24,203	23,837	23,425	22,996	22,632	22,479	22,276	22,106	21,837	21,613	21,273	20,913	20,593	20,383	20,063	19,700	19,341	19,071
		信義鄉	17,830	17,955	18,079	18,304	18,096	18,151	18,006	17,869	17,750	17,673	17,811	17,761	17,593	17,421	17,356	17,222	17,258	17,166	17,360	17,314	17,059	16,802	16,727
		仁愛鄉	14,758	14,896	15,215	15,288	15,352	14,982	15,403	15,358	15,372	15,294	15,485	15,512	15,532	15,478	15,572	15,505	15,454	15,451	15,650	15,661	15,595	15,585	15,739
	雲林縣		753,710	753,841	755,753	753,791	753,998	752,427	751,913	748,995	746,241	743,368	743,562	742,797	740,501	736,772	733,330	728,490	725,672	723,674	722,795	717,653	713,556	710,991	707,792
		斗六市	91,030	92,042	93,016	94,356	95,369	96,805	97,826	98,896	99,680	101,019	101,690	102,460	103,425	103,910	104,303	104,918	105,574	106,226	106,723	106,854	107,143	107,727	108,011
		斗南鎮	46,382	46,666	46,794	47,357	47,545	47,609	47,718	47,860	47,979	48,249	48,377	48,446	48,534	48,199	48,067	47,969	47,823	47,585	47,461	47,120	46,815	46,570	46,271
		虎尾鎮	67,308	67,672	67,770	66,714	66,670	66,276	66,617	66,734	67,007	67,471	67,619	67,945	68,382	68,504	68,569	68,979	69,420	69,874	70,259	70,025	70,080	70,423	70,486
		西螺鎮	50,566	50,603	50,671	50,393	50,479	50,303	50,055	50,142	50,076	50,007	50,239	50,198	50,163	50,005	49,711	49,207	49,282	48,990	48,954	48,502	48,125	47,791	47,482
		土庫鎮	32,583	32,688	32,937	32,896	32,878	32,800	32,721	32,470	32,349	32,048	32,107	32,111	31,971	31,805	31,549	31,341	31,099	30,952	30,730	30,476	30,247	29,957	29,797
		北港鎮	49,710	49,464	49,029	48,957	48,486	48,161	47,947	47,325	46,910	46,346	46,434	45,921	45,609	45,353	45,082	44,657	44,336	43,781	43,537	43,059	42,483	42,257	41,986
		古坑鄉	36,716	36,737	36,846	36,712	36,859	36,815	36,547	36,325	36,206	35,794	35,766	35,672	35,525	35,600	35,423	35,079	34,952	34,976	34,598	34,061	33,659	33,280	32,865
		大埤鄉	23,990	23,954	23,880	24,069	24,278	24,032	23,741	23,477	23,294	23,072	22,907	22,811	22,636	22,476	22,347	22,064	21,912	21,702	21,533	21,234	20,893	20,582	20,290
		莿桐鄉	31,588	31,661	31,827	31,910	31,995	32,169	32,245	32,067	32,091	31,993	31,927	32,004	31,776	31,516	31,422	31,163	30,841	30,741	30,715	30,477	30,251	29,906	29,825
		林內鄉	21,958	22,086	22,110	21,997	21,751	21,748	21,504	21,519	21,202	21,351	21,377	21,045	20,985	21,036	20,719	20,608	20,415	20,144	20,089	19,720	19,581	19,352	19,117
		二崙鄉	33,592	33,367	33,442	33,183	33,085	32,876	32,767	32,671	32,514	32,301	32,201	32,079	31,980	31,700	31,362	30,908	30,570	30,289	30,076	29,665	29,331	29,060	28,712
		崙背鄉	30,206	30,170	30,105	30,154	30,034	29,948	29,860	29,662	29,594	29,504	29,332	29,293	29,094	28,859	28,572	28,348	28,099	27,976	27,755	27,350	26,879	26,570	26,241
		麥寮鄉	31,863	31,820	31,960	31,722	31,932	32,118	32,614	32,717	32,527	32,277	32,436	32,599	32,566	32,613	32,748	32,968	33,279	34,036	35,053	37,029	39,147	41,096	42,526
		東勢鄉	19,874	19,844	20,040	20,039	20,037	20,045	19,960	19,838	19,617	19,308	19,101	18,904	18,667	18,486	18,296	17,901	17,616	17,370	17,170	16,780	16,379	16,100	15,810
		褒忠鄉	15,918	15,870	15,997	15,844	15,743	15,714	15,946	15,853	15,784	15,550	15,476	15,414	15,289	15,231	15,111	14,981	14,813	14,624	14,623	14,251	13,997	13,869	13,706
		臺西鄉	31,430	31,277	31,202	31,007	30,720	30,405	30,494	29,912	29,587	29,230	29,238	29,079	28,534	28,077	28,152	27,676	27,468	26,986	26,563	26,223	25,662	25,068	24,897
		元長鄉	34,214	34,151	34,158	33,690	33,604	33,409	33,003	32,793	32,439	31,926	31,940	31,674	31,366	30,993	30,710	30,150	29,739	29,388	29,325	28,795	28,367	28,002	27,640
		四湖鄉	33,479	33,315	33,239	32,939	32,974	32,400	31,524	31,166	30,694	30,081	29,855	29,907	29,382	28,885	28,456	27,946	27,583	27,462	27,252	26,694	26,316	25,907	25,501
		口湖鄉	35,906	35,525	35,719	35,296	35,119	34,785	34,939	34,187	33,759	33,323	33,254	33,360	33,124	32,569	32,131	31,515	31,031	31,030	30,894	30,392	29,898	29,646	29,344
		水林鄉	35,397	34,929	35,011	34,556	34,440	34,009	33,885	33,381	32,932	32,518	32,286	31,875	31,493	30,955	30,600	30,112	29,820	29,542	29,485	28,946	28,303	27,828	27,285
	嘉義縣		554,746	556,580	562,897	564,381	565,804	565,700	567,695	565,733	562,662	562,305	563,365	562,394	560,410	557,903	557,101	553,841	551,345	548,731	547,716	543,248	537,942	533,723	529,229
		太保市	27,651	28,041	28,706	29,572	29,862	30,313	30,823	31,454	32,036	32,854	33,302	33,732	34,330	34,597	35,066	35,180	35,669	35,896	36,210	36,685	36,673	36,946	37,023
		朴子市	45,046	45,018	44,985	44,826	44,790	44,667	44,530	44,295	44,229	44,107	44,296	44,158	44,166	44,057	44,463	44,329	44,222	44,281	44,326	44,093	43,895	43,855	43,599
		布袋鎮	36,645	36,183	35,874	35,465	34,911	34,698	34,511	34,091	33,611	33,351	33,414	33,160	32,770	32,480	32,274	31,667	31,372	30,888	30,824	30,216	29,664	29,244	28,701
		大林鎮	36,382	36,521	36,963	36,950	36,972	36,724	36,651	36,503	36,238	36,205	36,144	35,985	35,648	35,309	34,938	34,666	34,382	34,101	33,982	33,635	33,207	32,917	32,593
		民雄鄉	60,082	61,289	62,899	64,552	66,174	67,457	68,243	69,328	69,862	70,625	71,034	71,605	71,857	72,451	72,556	72,836	72,762	72,641	72,793	72,539	72,451	72,286	72,096
		溪口鄉	18,744	18,639	18,851	18,658	18,615	18,618	18,974	18,365	18,115	17,929	17,782	17,652	17,490	17,273	17,371	17,051	16,812	16,695	16,563	16,269	16,015	15,823	15,546
		新港鄉	36,007	36,044	36,135	36,344	36,542	36,558	36,241	36,059	35,929	36,221	36,065	36,110	35,969	35,815	35,724	35,488	35,363	35,149	34,995	34,676	34,231	33,830	33,507
		六腳鄉	31,337	31,231	31,029	30,969	30,673	30,653	30,296	29,945	29,540	29,152	28,879	28,582	28,293	27,939	27,787	27,645	27,327	27,041	26,890	26,379	25,903	25,356	24,947
		東石鄉	33,328	32,718	32,794	32,282	32,091	31,649	31,465	30,773	30,267	29,957	30,118	29,855	29,718	29,399	29,374	28,978	28,761	28,399	28,224	27,741	27,202	26,713	26,305
		義竹鄉	25,655	25,473	25,517	25,175	24,910	24,507	24,749	24,082	23,694	23,306	23,827	22,934	22,667	22,303	22,407	22,020	21,880	21,671	21,617	21,129	20,653	20,158	19,856
		鹿草鄉	19,777	19,726	20,016	19,675	19,497	19,265	19,044	18,782	18,483	18,260	18,159	18,052	17,827	17,727	17,661	17,529	17,512	17,429	17,405	17,232	17,022	16,832	16,652
		水上鄉	50,802	51,416	52,282	53,317	54,073	54,266	55,090	55,722	55,170	55,395	55,411	55,724	55,483	55,276	54,533	54,061	53,498	53,130	52,562	52,274	51,793	51,497	51,289
		中埔鄉	45,545	45,797	46,417	47,201	47,473	47,806	48,480	48,458	48,365	48,435	48,301	48,452	48,340	48,157	48,069	48,219	48,039	47,840	47,790	47,579	47,291	47,025	46,694
		竹崎鄉	41,771	42,223	42,261	42,401	42,367	41,991	41,778	41,580	41,434	41,288	41,189	41,210	40,916	40,576	40,130	39,721	39,460	39,155	38,962	38,608	38,179	37,923	37,372
		梅山鄉	24,462	24,461	24,488	24,592	24,438	24,127	23,966	23,845	23,639	23,433	23,453	23,249	23,128	22,874	22,778	22,515	22,332	22,184	22,049	21,634	21,171	20,842	20,576
		番路鄉	11,558	11,697	11,854	11,967	12,075	12,198	12,455	12,309	12,170	12,085	12,054	12,095	12,037	11,958	12,051	11,885	11,778	11,619	11,730	11,684	11,881	12,227	12,174
		大埔鄉	3,730	3,792	5,433	3,984	3,833	3,756	3,928	3,764	3,626	3,547	3,815	3,644	3,542	3,524	3,733	3,900	4,011	4,434	4,572	4,649	4,554	4,547	4,567
		阿里山鄉	6,224	6,311	6,393	6,451	6,508	6,447	6,471	6,378	6,254	6,155	6,122	6,195	6,229	6,188	6,186	6,151	6,165	6,178	6,222	6,226	6,157	5,702	5,732
	屏東縣		897,176	901,491	906,428	909,110	911,843	912,850	913,764	910,540	909,015	907,590	909,364	906,178	903,772	900,199	898,300	893,544	889,563	884,838	882,640	873,509	864,529	858,441	852,286
		屏東市	212,335	213,309	214,304	214,728	215,096	214,627	214,628	214,313	214,727	215,282	215,245	215,584	216,338	216,777	216,708	216,425	215,962	214,987	213,614	211,027	209,416	207,862	205,945
		潮州鎮	55,184	55,717	55,975	56,675	57,411	57,915	57,813	57,770	57,795	57,879	57,835	57,727	57,644	57,621	57,202	56,973	56,896	56,781	55,969	55,456	55,312	55,205	55,207
		東港鎮	46,892	47,072	47,118	47,869	48,230	48,798	48,755	49,454	49,572	49,753	49,271	49,889	50,119	50,188	50,151	50,313	50,524	50,360	50,234	50,141	49,568	49,185	48,585
		恆春鎮	31,936	32,031	32,210	31,962	31,869	31,640	31,552	31,352	31,304	31,225	31,452	31,608	31,687	31,625	31,431	31,314	31,288	31,143	31,170	31,165	30,867	30,758	30,823
		萬丹鄉	50,314	51,122	51,887	52,620	53,224	53,682	53,887	54,259	54,394	54,499	54,473	54,513	54,612	54,532	54,437	54,433	54,542	54,521	54,309	53,980	53,515	53,125	52,536
		長治鄉	27,618	27,926	28,392	28,830	29,208	29,850	30,087	30,241	30,356	30,305	30,516	30,544	30,721	30,772	30,884	30,939	30,983	30,994	30,979	30,944	30,686	30,600	30,488
		麟洛鄉	11,154	11,344	11,336	11,431	11,746	11,828	11,892	12,011	12,043	12,072	12,060	11,981	11,920	11,792	11,819	11,716	11,694	11,619	11,649	11,516	11,406	11,301	11,303
		九如鄉	21,325	21,452	21,713	21,979	22,480	22,914	23,151	23,202	23,333	23,577	23,545	23,439	23,475	23,491	23,315	23,257	23,226	23,092	23,004	22,859	22,689	22,563	22,408
		里港鄉	26,588	26,729	26,951	27,044	27,247	27,562	27,578	27,445	27,295	27,201	27,255	27,132	27,030	26,862	26,811	26,617	26,489	26,317	26,231	25,923	25,759	26,282	26,506
		鹽埔鄉	27,820	28,080	28,500	28,750	28,843	28,808	28,838	28,743	28,809	28,583	28,772	28,632	28,435	28,313	28,175	27,952	27,778	27,576	27,479	27,317	27,036	26,802	26,660
		高樹鄉	30,438	31,132	30,967	30,915	30,907	30,716	30,416	30,027	29,728	29,426	29,208	29,028	28,717	28,307	28,093	27,819	27,533	27,325	27,226	26,797	26,331	25,999	25,682
		萬巒鄉	25,052	24,919	25,116	25,128	25,189	25,044	24,770	24,585	24,412	24,222	24,055	23,808	23,567	23,424	23,144	22,907	22,694	22,457	22,282	21,973	21,635	21,391	21,164
		內埔鄉	62,386	62,554	62,635	62,780	63,231	63,520	63,064	62,887	62,693	62,706	62,320	61,829	61,402	60,867	60,368	59,960	59,441	59,105	58,685	57,955	57,508	57,070	56,550
		竹田鄉	19,404	19,493	19,667	19,801	19,663	19,698	19,655	19,471	19,467	19,382	19,314	19,198	19,063	18,943	18,789	18,696	18,491	18,487	18,474	18,425	18,169	18,041	17,806
		新埤鄉	12,642	12,590	12,621	12,459	12,394	12,269	12,140	12,005	11,996	11,864	11,864	11,781	11,614	11,422	11,309	11,145	11,097	10,904	10,913	10,706	10,532	10,373	10,243
		枋寮鄉	31,422	31,433	31,376	31,091	31,077	30,936	30,578	30,197	30,026	29,786	29,474	29,200	28,955	28,585	28,109	27,632	27,419	27,137	26,986	26,628	26,218	25,971	25,693
		新園鄉	41,636	42,148	42,100	42,240	42,187	41,994	41,943	41,966	41,554	41,523	41,372	41,306	41,132	40,815	40,549	40,003	39,486	39,188	38,980	38,300	37,819	37,429	37,117
		崁頂鄉	13,846	13,964	14,067	13,991	13,958	14,051	14,431	14,788	15,138	15,305	15,320	15,374	15,514	15,788	16,350	16,809	17,058	17,042	17,335	17,379	17,053	16,680	16,429
		林邊鄉	23,674	23,820	23,898	23,912	23,840	23,790	23,602	23,365	23,130	22,953	22,795	22,562	22,232	21,850	21,725	21,491	21,305	21,101	21,143	20,854	20,286	19,909	19,573
		南州鄉	14,295	14,287	14,216	14,182	14,066	13,938	13,833	13,691	13,390	13,316	13,265	13,122	12,894	12,673	12,580	12,304	12,168	12,016	11,919	11,700	11,522	11,276	11,130
		佳冬鄉	24,689	24,611	24,495	24,470	24,420	24,334	24,116	23,851	23,717	23,500	23,424	23,139	22,967	22,815	22,414	22,070	21,787	21,711	21,715	21,377	21,030	20,799	20,538
		琉球鄉	13,898	13,463	13,671	13,161	12,886	12,619	13,800	12,562	12,472	12,514	14,485	13,316	13,215	13,139	13,289	12,813	12,652	12,550	12,620	12,300	12,169	12,145	12,415
		車城鄉	12,646	12,395	12,187	12,027	11,905	11,619	11,424	11,199	10,968	10,862	11,014	10,915	10,639	10,460	10,436	10,260	10,082	9,954	9,999	9,625	9,410	9,196	9,106
		滿州鄉	9,451	9,363	9,378	9,371	9,269	9,153	9,174	9,156	9,017	8,827	9,175	8,930	8,726	8,591	8,981	8,786	8,675	8,541	8,679	8,453	8,256	8,243	8,124
		枋山鄉	7,058	6,938	6,956	6,991	6,826	6,784	7,046	6,831	6,765	6,665	6,771	6,609	6,486	6,333	6,388	6,328	6,240	6,156	6,180	6,062	5,919	5,855	5,775
		三地門鄉	6,754	6,787	7,020	6,986	6,984	7,050	7,229	7,280	7,250	7,193	7,435	7,449	7,321	7,250	7,396	7,301	7,234	7,306	7,556	7,573	7,548	7,522	7,566
		霧臺鄉	2,838	2,758	3,037	2,877	2,812	2,853	3,358	3,013	2,845	2,775	3,120	2,961	2,879	2,755	2,858	2,839	2,737	2,684	2,915	2,978	2,966	3,106	3,199
		瑪家鄉	5,916	6,025	6,099	6,156	6,068	6,123	6,260	6,257	6,273	6,251	6,344	6,380	6,412	6,419	6,561	6,571	6,531	6,430	6,537	6,544	6,550	6,584	6,598
		泰武鄉	4,547	4,585	4,677	4,717	4,708	4,790	4,776	4,774	4,814	4,764	4,821	4,909	4,901	4,875	5,032	4,971	4,918	4,919	5,122	5,099	5,089	5,062	5,131
		來義鄉	7,610	7,688	7,797	7,840	7,868	7,960	7,975	8,007	8,071	7,965	8,011	8,048	8,018	7,938	7,905	7,886	7,791	7,694	7,883	7,764	7,688	7,651	7,610
		春日鄉	5,232	5,220	5,278	5,264	5,345	5,314	5,284	5,249	5,180	5,123	5,121	5,090	5,081	5,043	5,042	5,026	5,001	4,927	4,866	4,821	4,842	4,831	4,823
		獅子鄉	5,250	5,232	5,283	5,325	5,296	5,287	5,283	5,238	5,214	5,139	5,113	5,091	5,079	5,022	5,035	5,023	4,971	4,949	4,983	4,873	4,815	4,789	4,776
		牡丹鄉	5,326	5,304	5,501	5,538	5,590	5,384	5,426	5,351	5,267	5,153	5,119	5,084	4,977	4,912	5,014	4,965	4,870	4,865	5,004	4,995	4,920	4,836	4,777
	臺東縣		255,887	255,362	255,536	254,718	254,375	253,831	253,002	249,937	247,801	245,312	244,612	243,965	242,842	240,373	238,943	235,957	233,660	231,849	232,497	230,673	228,290	226,252	224,821
		臺東市	108,086	108,353	108,606	109,189	110,095	110,921	111,646	111,060	111,039	110,941	110,894	110,899	110,916	110,920	110,690	110,559	110,204	109,839	109,576	108,870	108,310	107,720	107,316
		成功鎮	20,643	20,499	20,287	20,205	20,394	20,250	19,786	19,366	19,075	18,687	18,469	18,234	17,828	17,438	17,087	16,713	16,422	16,189	15,984	15,810	15,542	15,253	15,051
		關山鎮	11,947	11,877	11,976	11,839	11,808	11,725	11,562	11,333	11,224	11,020	10,962	10,821	10,624	10,421	10,297	10,095	9,987	9,880	9,849	9,715	9,559	9,425	9,268
		卑南鄉	21,534	21,015	20,931	20,999	20,810	20,699	20,539	20,496	20,367	20,162	20,057	19,926	19,649	19,408	19,033	18,745	18,447	18,324	18,379	18,231	18,055	17,834	17,763
		大武鄉	7,350	7,273	7,308	7,232	7,019	6,988	7,006	6,997	6,767	6,660	6,739	6,942	8,100	7,638	7,730	7,372	7,085	6,890	7,160	7,012	6,790	6,632	6,531
		太麻里鄉	14,503	14,522	14,561	14,495	14,454	14,468	14,150	13,871	13,690	13,435	13,348	13,277	13,104	12,829	12,586	12,413	12,210	12,136	12,094	12,014	11,823	11,669	11,595
		東河鄉	13,629	14,076	14,180	13,805	13,257	12,915	12,491	12,036	11,636	11,240	10,998	10,873	10,605	10,330	10,224	9,915	9,729	9,532	9,523	9,329	9,222	9,108	8,992
		長濱鄉	12,368	12,245	12,212	12,104	11,950	11,726	11,567	11,138	10,819	10,480	10,228	10,024	9,710	9,469	9,206	8,987	8,839	8,611	8,477	8,291	8,031	7,869	7,733
		鹿野鄉	11,027	11,210	11,113	10,816	10,738	10,635	10,457	10,298	10,169	9,971	9,809	9,745	9,550	9,452	9,457	9,128	8,940	8,747	8,676	8,584	8,403	8,304	8,229
		池上鄉	11,772	11,696	11,718	11,666	11,595	11,551	11,368	11,117	10,914	10,715	10,508	10,397	10,180	9,953	9,893	9,650	9,478	9,366	9,356	9,196	9,012	8,824	8,679
		綠島鄉	3,546	3,144	3,043	2,802	2,634	2,513	2,810	2,743	2,717	2,799	3,246	3,289	3,201	3,132	3,145	3,026	3,093	3,156	3,331	3,358	3,400	3,462	3,580
		延平鄉	4,017	3,976	4,004	3,946	3,929	3,891	3,863	3,815	3,764	3,708	3,729	3,769	3,692	3,720	3,768	3,703	3,629	3,566	3,621	3,599	3,560	3,551	3,552
		海端鄉	5,022	5,050	5,058	5,030	4,976	4,954	4,927	4,871	4,862	4,823	4,786	4,742	4,692	4,674	4,654	4,619	4,576	4,537	4,535	4,510	4,408	4,379	4,363
		達仁鄉	4,170	4,193	4,233	4,259	4,267	4,185	4,341	4,308	4,245	4,170	4,203	4,141	4,047	3,959	3,990	3,815	3,739	3,722	4,103	4,095	3,965	3,832	3,762
		金峰鄉	3,262	3,228	3,299	3,341	3,426	3,416	3,437	3,395	3,369	3,358	3,401	3,441	3,388	3,373	3,422	3,348	3,322	3,329	3,526	3,560	3,519	3,520	3,502
		蘭嶼鄉	3,011	3,005	3,007	2,990	3,023	2,994	3,052	3,093	3,144	3,143	3,235	3,445	3,556	3,657	3,761	3,869	3,960	4,025	4,307	4,499	4,691	4,870	4,905
	花蓮縣		353,490	355,609	357,464	358,247	358,981	358,660	358,077	356,601	355,686	353,630	353,139	352,154	351,146	349,149	347,298	345,303	343,302	341,433	340,964	338,805	336,838	335,190	333,897
		花蓮市	107,504	107,090	107,441	107,824	108,192	108,414	109,095	108,777	108,407	107,815	108,103	107,525	108,145	109,324	109,582	109,573	109,847	110,035	109,945	109,251	108,755	108,077	107,281
		鳳林鎮	15,993	15,912	15,740	15,653	15,399	15,208	14,923	14,565	14,273	14,027	13,831	13,634	13,427	13,113	13,022	12,680	12,451	12,308	12,174	11,957	11,712	11,532	11,397
		玉里鎮	36,789	36,455	35,588	35,038	34,507	34,323	33,701	33,494	32,984	32,319	31,822	31,202	30,718	29,860	29,363	28,659	28,138	27,685	27,279	26,879	26,452	26,055	25,695
		新城鄉	19,286	19,510	19,791	20,184	20,406	20,334	20,455	20,479	20,517	20,554	20,702	20,978	21,215	21,042	21,032	20,822	20,501	20,322	20,324	20,206	20,130	20,131	20,148
		吉安鄉	63,023	65,909	67,360	68,618	70,156	71,374	72,130	73,632	75,202	76,577	76,953	77,916	78,401	78,018	77,869	78,739	78,922	79,048	79,445	79,688	80,464	81,325	82,157
		壽豐鄉	21,520	21,457	21,530	21,642	21,466	21,225	21,229	20,899	20,702	20,594	20,498	20,436	20,298	20,198	20,029	19,641	19,325	19,111	18,908	18,660	18,494	18,265	18,109
		光復鄉	18,809	18,910	18,820	18,295	18,140	17,947	17,566	17,279	16,988	16,507	16,309	16,114	15,825	15,551	15,325	14,930	14,680	14,388	14,271	14,120	13,837	13,613	13,459
		豐濱鄉	7,634	7,564	7,455	7,381	7,326	7,203	7,096	6,839	6,615	6,405	6,345	6,138	5,939	5,694	5,619	5,472	5,356	5,174	5,135	5,065	4,857	4,668	4,632
		瑞穗鄉	16,895	16,803	16,787	16,676	16,591	16,142	16,018	15,796	15,520	15,208	14,859	14,671	14,420	14,149	13,919	13,620	13,380	13,163	13,086	12,863	12,588	12,372	12,170
		富里鄉	16,002	15,850	16,162	15,910	15,871	15,596	15,136	14,228	13,986	13,526	13,510	13,448	13,191	12,841	12,478	12,282	12,049	11,811	11,869	11,667	11,387	11,189	10,966
		秀林鄉	14,355	14,428	14,959	15,211	15,183	15,131	15,149	15,213	15,316	15,283	15,460	15,494	15,312	15,280	15,115	15,005	14,951	14,904	15,107	15,244	15,173	15,167	15,267
		萬榮鄉	7,788	7,860	7,957	7,914	7,895	8,004	7,942	7,927	7,837	7,675	7,635	7,610	7,398	7,321	7,224	7,216	7,137	7,027	7,001	6,856	6,756	6,612	6,495
		卓溪鄉	7,892	7,861	7,874	7,901	7,849	7,759	7,637	7,473	7,339	7,140	7,112	6,988	6,857	6,758	6,721	6,664	6,565	6,457	6,420	6,349	6,233	6,184	6,121
	澎湖縣		95,446	95,085	95,288	92,645	90,937	90,087	91,169	89,463	89,013	89,496	92,268	92,446	92,253	91,808	92,489	91,785	92,390	93,308	96,210	96,918	97,157	98,843	100,400
		馬公市	53,531	53,595	53,398	53,049	52,639	52,218	50,913	52,105	52,229	52,722	53,132	53,848	54,009	53,997	54,049	53,942	54,566	55,126	56,435	57,061	57,468	58,490	59,502
		湖西鄉	14,551	14,741	15,086	13,930	13,286	12,980	13,122	12,786	12,619	12,673	12,943	13,114	13,035	12,933	12,976	12,933	12,860	13,017	13,520	13,660	13,699	13,915	14,221
		白沙鄉	9,798	9,664	9,636	9,311	9,144	8,977	9,386	8,992	8,995	9,003	9,559	9,559	9,446	9,253	9,354	9,219	9,176	9,202	9,458	9,471	9,412	9,491	9,591
		西嶼鄉	9,634	9,451	9,384	9,126	8,973	8,742	9,127	8,528	8,361	8,264	8,593	8,507	8,420	8,308	8,309	8,163	8,171	8,177	8,483	8,437	8,354	8,354	8,403
		望安鄉	4,217	4,052	4,119	3,845	3,624	4,000	5,211	4,000	3,790	3,840	4,946	4,321	4,194	4,190	4,587	4,393	4,426	4,502	4,743	4,747	4,661	4,995	5,021
		七美鄉	3,715	3,582	3,665	3,384	3,271	3,170	3,410	3,052	3,019	2,994	3,095	3,097	3,149	3,127	3,214	3,135	3,191	3,284	3,571	3,542	3,563	3,598	3,662
	基隆市		355,894	359,482	363,037	364,520	368,771	374,199	379,370	382,118	385,201	388,425	390,966	391,450	392,242	392,337	391,727	390,633	390,397	388,979	388,321	384,134	379,927	377,153	374,914
		中正區	62,310	62,168	61,910	61,819	61,654	60,507	60,159	59,734	59,549	59,498	59,585	59,498	59,436	59,127	58,844	58,029	57,601	56,803	56,247	55,271	54,447	54,020	53,571
		七堵區	51,885	53,453	54,495	55,091	55,787	56,181	56,033	55,617	55,889	56,170	56,069	55,684	55,526	55,519	55,251	55,111	55,169	55,199	55,496	55,161	54,711	54,217	54,041
		暖暖區	26,540	27,249	28,062	28,999	30,670	33,191	35,819	35,848	36,725	37,572	38,244	38,245	38,433	38,500	38,372	38,548	38,469	38,210	38,095	37,958	37,943	37,851	37,860
		仁愛區	62,902	62,392	62,163	60,579	58,662	56,438	54,198	53,796	52,286	51,074	50,341	49,607	49,048	48,588	49,327	49,981	50,362	50,340	50,400	49,581	48,717	47,741	47,034
		中山區	49,377	49,369	49,074	48,874	49,528	50,291	51,183	51,707	52,444	53,308	54,097	54,457	54,496	54,141	53,784	52,973	52,330	51,908	51,574	50,909	50,297	49,794	49,254
		安樂區	60,333	61,821	63,417	65,294	67,404	70,580	74,374	77,296	79,059	80,664	81,900	83,418	84,237	85,025	84,954	84,904	85,303	85,117	84,859	84,017	82,779	82,285	81,906
		信義區	42,547	43,030	43,916	43,864	45,066	47,011	47,604	48,120	49,249	50,139	50,730	50,541	51,066	51,437	51,195	51,087	51,163	51,402	51,650	51,237	51,033	51,245	51,248
	新竹市		328,911	332,707	335,460	338,140	340,255	345,954	351,800	356,243	361,958	368,439	373,296	378,797	382,897	386,950	390,692	394,757	399,035	405,371	411,587	415,344	420,052	425,071	428,483
		東區	157,676	158,665	159,925	161,067	162,463	165,436	169,041	170,060	172,098	175,176	177,796	180,958	183,381	185,530	186,903	187,962	190,163	192,396	194,927	197,254	200,092	203,119	204,578
		北區	120,338	121,995	122,472	122,221	121,494	122,713	123,497	124,567	126,350	128,325	129,742	130,809	131,919	133,497	135,275	137,630	139,039	141,823	144,484	145,441	146,212	147,561	148,041
		香山區	50,897	52,047	53,063	54,852	56,298	57,805	59,262	61,616	63,510	64,938	65,758	67,030	67,597	67,923	68,514	69,165	69,833	71,152	72,176	72,649	73,748	74,391	75,864
	嘉義市		258,468	258,698	258,599	260,368	261,391	262,860	262,822	263,050	265,109	266,183	267,993	267,907	269,594	270,341	271,701	272,364	273,075	273,793	273,861	272,390	271,526	271,220	270,872
		東區	130,002	130,704	130,108	130,311	130,082	130,021	128,818	128,979	130,052	130,112	130,754	131,286	132,362	132,115	128,921	128,482	128,497	128,284	127,736	125,297	124,495	124,242	123,821
		西區	128,466	127,994	128,491	130,057	131,309	132,839	134,004	134,071	135,057	136,071	137,239	136,621	137,232	138,226	142,780	143,882	144,578	145,509	146,125	147,093	147,031	146,978	147,051
	金門縣		43,442	44,170	45,807	46,516	47,394	47,924	51,080	51,060	51,731	53,832	56,958	58,933	60,983	64,456	70,264	76,491	81,547	84,570	93,803	97,364	103,883	113,111	120,713
		金城鎮	14,878	15,138	15,562	15,807	15,978	16,130	17,068	17,158	17,394	18,201	19,327	19,988	20,784	22,035	23,892	25,964	27,954	28,840	31,563	32,315	34,245	36,974	39,062
		金湖鎮	7,026	10,207	10,543	10,642	10,824	10,939	11,802	11,452	11,574	12,001	12,496	13,027	13,514	14,228	15,575	17,149	18,203	18,720	20,467	21,328	22,738	24,623	26,074
		金沙鎮	10,096	7,403	7,763	7,843	8,017	8,135	8,597	8,561	8,660	8,997	9,531	9,807	10,054	10,631	11,567	12,375	13,035	13,514	14,851	15,324	16,301	17,543	18,567
		金寧鄉	7,250	7,181	7,514	7,769	8,016	8,100	8,749	8,719	8,894	9,273	9,942	10,285	10,687	11,436	12,628	13,821	14,832	15,588	17,836	18,938	20,520	22,939	25,118
		烈嶼鄉	4,094	4,156	4,320	4,357	4,469	4,527	4,738	4,787	4,826	4,994	5,248	5,448	5,580	5,747	6,103	6,710	7,091	7,451	8,580	8,921	9,515	10,424	11,236
		烏坵鄉	98	85	105	98	90	93	126	383	383	366	414	378	364	379	499	472	432	457	506	538	564	608	656
	連江縣		5,547	5,958	5,603	5,566	5,856	6,061	8,419	6,655	6,560	6,733	8,851	8,763	8,806	9,359	10,345	9,786	9,946	9,755	9,919	9,944	10,106	11,310	12,165
		南竿鄉	3,049	3,454	3,176	3,196	3,429	3,437	4,437	3,717	3,709	3,870	5,224	4,896	5,101	5,505	6,025	5,846	5,945	5,798	5,939	5,904	6,000	6,780	7,288
		北竿鄉	1,246	1,290	1,200	1,203	1,226	1,255	1,869	1,354	1,324	1,337	1,866	1,885	1,774	1,831	1,932	1,804	1,824	1,762	1,755	1,801	1,864	2,071	2,268
		莒光鄉	545	545	585	536	573	683	1,337	813	754	746	873	1,087	1,036	1,109	1,420	1,176	1,180	1,183	1,166	1,186	1,163	1,327	1,438
		東引鄉	707	669	642	631	628	686	776	771	773	780	888	895	895	914	968	960	997	1,012	1,059	1,053	1,079	1,132	1,171
