{
   "results" : [
      {
         "address_components" : [
            {
               "long_name" : "莿桐鄉",
               "short_name" : "莿桐鄉",
               "types" : [ "locality", "political" ]
            },
            {
               "long_name" : "雲林縣",
               "short_name" : "雲林縣",
               "types" : [ "administrative_area_level_2", "political" ]
            },
            {
               "long_name" : "台灣",
               "short_name" : "TW",
               "types" : [ "country", "political" ]
            },
            {
               "long_name" : "647",
               "short_name" : "647",
               "types" : [ "postal_code" ]
            }
         ],
         "formatted_address" : "647台灣雲林縣莿桐鄉",
         "geometry" : {
            "bounds" : {
               "northeast" : {
                  "lat" : 23.8014992,
                  "lng" : 120.5937674
               },
               "southwest" : {
                  "lat" : 23.7293206,
                  "lng" : 120.4770519
               }
            },
            "location" : {
               "lat" : 23.7769338,
               "lng" : 120.5394232
            },
            "location_type" : "APPROXIMATE",
            "viewport" : {
               "northeast" : {
                  "lat" : 23.8014992,
                  "lng" : 120.5937674
               },
               "southwest" : {
                  "lat" : 23.7293206,
                  "lng" : 120.4770519
               }
            }
         },
         "types" : [ "locality", "political" ]
      }
   ],
   "status" : "OK"
}
