{
   "results" : [
      {
         "address_components" : [
            {
               "long_name" : "將軍區",
               "short_name" : "將軍區",
               "types" : [ "locality", "political" ]
            },
            {
               "long_name" : "台南市",
               "short_name" : "台南市",
               "types" : [ "administrative_area_level_2", "political" ]
            },
            {
               "long_name" : "台灣",
               "short_name" : "TW",
               "types" : [ "country", "political" ]
            },
            {
               "long_name" : "725",
               "short_name" : "725",
               "types" : [ "postal_code" ]
            }
         ],
         "formatted_address" : "725台灣台南市將軍區",
         "geometry" : {
            "bounds" : {
               "northeast" : {
                  "lat" : 23.238097,
                  "lng" : 120.1782839
               },
               "southwest" : {
                  "lat" : 23.1815956,
                  "lng" : 120.0656583
               }
            },
            "location" : {
               "lat" : 23.2054945,
               "lng" : 120.1011836
            },
            "location_type" : "APPROXIMATE",
            "viewport" : {
               "northeast" : {
                  "lat" : 23.238097,
                  "lng" : 120.1782839
               },
               "southwest" : {
                  "lat" : 23.1815956,
                  "lng" : 120.0656583
               }
            }
         },
         "types" : [ "locality", "political" ]
      }
   ],
   "status" : "OK"
}
