{
   "results" : [
      {
         "address_components" : [
            {
               "long_name" : "大安區",
               "short_name" : "大安區",
               "types" : [ "locality", "political" ]
            },
            {
               "long_name" : "台北市",
               "short_name" : "北市",
               "types" : [ "administrative_area_level_2", "political" ]
            },
            {
               "long_name" : "台灣",
               "short_name" : "TW",
               "types" : [ "country", "political" ]
            },
            {
               "long_name" : "106",
               "short_name" : "106",
               "types" : [ "postal_code" ]
            }
         ],
         "formatted_address" : "106台灣台北市大安區",
         "geometry" : {
            "bounds" : {
               "northeast" : {
                  "lat" : 25.0454178,
                  "lng" : 121.5659696
               },
               "southwest" : {
                  "lat" : 25.0071971,
                  "lng" : 121.5217223
               }
            },
            "location" : {
               "lat" : 25.0277506,
               "lng" : 121.5434647
            },
            "location_type" : "APPROXIMATE",
            "viewport" : {
               "northeast" : {
                  "lat" : 25.0454178,
                  "lng" : 121.5659696
               },
               "southwest" : {
                  "lat" : 25.0071971,
                  "lng" : 121.5217223
               }
            }
         },
         "types" : [ "locality", "political" ]
      }
   ],
   "status" : "OK"
}
