{
   "results" : [
      {
         "address_components" : [
            {
               "long_name" : "信義鄉",
               "short_name" : "信義鄉",
               "types" : [ "locality", "political" ]
            },
            {
               "long_name" : "南投縣",
               "short_name" : "南投縣",
               "types" : [ "administrative_area_level_2", "political" ]
            },
            {
               "long_name" : "台灣",
               "short_name" : "TW",
               "types" : [ "country", "political" ]
            },
            {
               "long_name" : "556",
               "short_name" : "556",
               "types" : [ "postal_code" ]
            }
         ],
         "formatted_address" : "556台灣南投縣信義鄉",
         "geometry" : {
            "bounds" : {
               "northeast" : {
                  "lat" : 23.8647836,
                  "lng" : 121.2412329
               },
               "southwest" : {
                  "lat" : 23.435385,
                  "lng" : 120.8039399
               }
            },
            "location" : {
               "lat" : 23.6679756,
               "lng" : 120.9876321
            },
            "location_type" : "APPROXIMATE",
            "viewport" : {
               "northeast" : {
                  "lat" : 23.8647836,
                  "lng" : 121.2412329
               },
               "southwest" : {
                  "lat" : 23.435385,
                  "lng" : 120.8039399
               }
            }
         },
         "types" : [ "locality", "political" ]
      }
   ],
   "status" : "OK"
}
