{
   "results" : [
      {
         "address_components" : [
            {
               "long_name" : "大樹區",
               "short_name" : "大樹區",
               "types" : [ "locality", "political" ]
            },
            {
               "long_name" : "高雄市",
               "short_name" : "高雄市",
               "types" : [ "administrative_area_level_2", "political" ]
            },
            {
               "long_name" : "台灣",
               "short_name" : "TW",
               "types" : [ "country", "political" ]
            },
            {
               "long_name" : "840",
               "short_name" : "840",
               "types" : [ "postal_code" ]
            }
         ],
         "formatted_address" : "840台灣高雄市大樹區",
         "geometry" : {
            "bounds" : {
               "northeast" : {
                  "lat" : 22.7778031,
                  "lng" : 120.4560756
               },
               "southwest" : {
                  "lat" : 22.6429302,
                  "lng" : 120.3897875
               }
            },
            "location" : {
               "lat" : 22.708371,
               "lng" : 120.4242401
            },
            "location_type" : "APPROXIMATE",
            "viewport" : {
               "northeast" : {
                  "lat" : 22.7778031,
                  "lng" : 120.4560756
               },
               "southwest" : {
                  "lat" : 22.6429302,
                  "lng" : 120.3897875
               }
            }
         },
         "types" : [ "locality", "political" ]
      }
   ],
   "status" : "OK"
}
