{
   "results" : [
      {
         "address_components" : [
            {
               "long_name" : "布袋鎮",
               "short_name" : "布袋鎮",
               "types" : [ "locality", "political" ]
            },
            {
               "long_name" : "嘉義縣",
               "short_name" : "嘉義縣",
               "types" : [ "administrative_area_level_2", "political" ]
            },
            {
               "long_name" : "台灣",
               "short_name" : "TW",
               "types" : [ "country", "political" ]
            },
            {
               "long_name" : "625",
               "short_name" : "625",
               "types" : [ "postal_code" ]
            }
         ],
         "formatted_address" : "625台灣嘉義縣布袋鎮",
         "geometry" : {
            "bounds" : {
               "northeast" : {
                  "lat" : 23.4529487,
                  "lng" : 120.2376153
               },
               "southwest" : {
                  "lat" : 23.3099141,
                  "lng" : 120.1174411
               }
            },
            "location" : {
               "lat" : 23.3627901,
               "lng" : 120.1704766
            },
            "location_type" : "APPROXIMATE",
            "viewport" : {
               "northeast" : {
                  "lat" : 23.4529487,
                  "lng" : 120.2376153
               },
               "southwest" : {
                  "lat" : 23.3099141,
                  "lng" : 120.1174411
               }
            }
         },
         "types" : [ "locality", "political" ]
      }
   ],
   "status" : "OK"
}
