{
   "results" : [
      {
         "address_components" : [
            {
               "long_name" : "六龜區",
               "short_name" : "六龜區",
               "types" : [ "locality", "political" ]
            },
            {
               "long_name" : "高雄市",
               "short_name" : "高雄市",
               "types" : [ "administrative_area_level_2", "political" ]
            },
            {
               "long_name" : "台灣",
               "short_name" : "TW",
               "types" : [ "country", "political" ]
            },
            {
               "long_name" : "844",
               "short_name" : "844",
               "types" : [ "postal_code" ]
            }
         ],
         "formatted_address" : "844台灣高雄市六龜區",
         "geometry" : {
            "bounds" : {
               "northeast" : {
                  "lat" : 23.14078,
                  "lng" : 120.745508
               },
               "southwest" : {
                  "lat" : 22.8637286,
                  "lng" : 120.5922967
               }
            },
            "location" : {
               "lat" : 23.0026195,
               "lng" : 120.6545022
            },
            "location_type" : "APPROXIMATE",
            "viewport" : {
               "northeast" : {
                  "lat" : 23.14078,
                  "lng" : 120.745508
               },
               "southwest" : {
                  "lat" : 22.8637286,
                  "lng" : 120.5922967
               }
            }
         },
         "types" : [ "locality", "political" ]
      }
   ],
   "status" : "OK"
}
