{
   "results" : [
      {
         "address_components" : [
            {
               "long_name" : "鶯歌區",
               "short_name" : "鶯歌區",
               "types" : [ "locality", "political" ]
            },
            {
               "long_name" : "新北市",
               "short_name" : "新北市",
               "types" : [ "administrative_area_level_2", "political" ]
            },
            {
               "long_name" : "台灣",
               "short_name" : "TW",
               "types" : [ "country", "political" ]
            },
            {
               "long_name" : "239",
               "short_name" : "239",
               "types" : [ "postal_code" ]
            }
         ],
         "formatted_address" : "239台灣新北市鶯歌區",
         "geometry" : {
            "bounds" : {
               "northeast" : {
                  "lat" : 24.9823133,
                  "lng" : 121.3822932
               },
               "southwest" : {
                  "lat" : 24.9280449,
                  "lng" : 121.3157741
               }
            },
            "location" : {
               "lat" : 24.95,
               "lng" : 121.35
            },
            "location_type" : "APPROXIMATE",
            "viewport" : {
               "northeast" : {
                  "lat" : 24.9823133,
                  "lng" : 121.3822932
               },
               "southwest" : {
                  "lat" : 24.9280449,
                  "lng" : 121.3157741
               }
            }
         },
         "types" : [ "locality", "political" ]
      }
   ],
   "status" : "OK"
}
