{
   "results" : [
      {
         "address_components" : [
            {
               "long_name" : "中寮鄉",
               "short_name" : "中寮鄉",
               "types" : [ "locality", "political" ]
            },
            {
               "long_name" : "南投縣",
               "short_name" : "南投縣",
               "types" : [ "administrative_area_level_2", "political" ]
            },
            {
               "long_name" : "台灣",
               "short_name" : "TW",
               "types" : [ "country", "political" ]
            },
            {
               "long_name" : "541",
               "short_name" : "541",
               "types" : [ "postal_code" ]
            }
         ],
         "formatted_address" : "541台灣南投縣中寮鄉",
         "geometry" : {
            "bounds" : {
               "northeast" : {
                  "lat" : 23.9715046,
                  "lng" : 120.8549675
               },
               "southwest" : {
                  "lat" : 23.8452578,
                  "lng" : 120.7071105
               }
            },
            "location" : {
               "lat" : 23.9038889,
               "lng" : 120.7819444
            },
            "location_type" : "APPROXIMATE",
            "viewport" : {
               "northeast" : {
                  "lat" : 23.9715046,
                  "lng" : 120.8549675
               },
               "southwest" : {
                  "lat" : 23.8452578,
                  "lng" : 120.7071105
               }
            }
         },
         "types" : [ "locality", "political" ]
      }
   ],
   "status" : "OK"
}
