{
   "results" : [
      {
         "address_components" : [
            {
               "long_name" : "名間鄉",
               "short_name" : "名間鄉",
               "types" : [ "locality", "political" ]
            },
            {
               "long_name" : "南投縣",
               "short_name" : "南投縣",
               "types" : [ "administrative_area_level_2", "political" ]
            },
            {
               "long_name" : "台灣",
               "short_name" : "TW",
               "types" : [ "country", "political" ]
            },
            {
               "long_name" : "551",
               "short_name" : "551",
               "types" : [ "postal_code" ]
            }
         ],
         "formatted_address" : "551台灣南投縣名間鄉",
         "geometry" : {
            "bounds" : {
               "northeast" : {
                  "lat" : 23.8902946,
                  "lng" : 120.7372499
               },
               "southwest" : {
                  "lat" : 23.8013109,
                  "lng" : 120.6155614
               }
            },
            "location" : {
               "lat" : 23.851,
               "lng" : 120.6775
            },
            "location_type" : "APPROXIMATE",
            "viewport" : {
               "northeast" : {
                  "lat" : 23.8902946,
                  "lng" : 120.7372499
               },
               "southwest" : {
                  "lat" : 23.8013109,
                  "lng" : 120.6155614
               }
            }
         },
         "types" : [ "locality", "political" ]
      }
   ],
   "status" : "OK"
}
