{
   "results" : [
      {
         "address_components" : [
            {
               "long_name" : "僑鄉文化展示館",
               "short_name" : "僑鄉文化展示館",
               "types" : [ "point_of_interest", "establishment" ]
            },
            {
               "long_name" : "金城鎮",
               "short_name" : "金城鎮",
               "types" : [ "locality", "political" ]
            },
            {
               "long_name" : "金城鎮",
               "short_name" : "金城鎮",
               "types" : [ "administrative_area_level_3", "political" ]
            },
            {
               "long_name" : "金門縣",
               "short_name" : "金門縣",
               "types" : [ "administrative_area_level_2", "political" ]
            },
            {
               "long_name" : "台灣",
               "short_name" : "TW",
               "types" : [ "country", "political" ]
            },
            {
               "long_name" : "893",
               "short_name" : "893",
               "types" : [ "postal_code" ]
            }
         ],
         "formatted_address" : "893金門縣金城鎮僑鄉文化展示館",
         "geometry" : {
            "location" : {
               "lat" : 24.4096693,
               "lng" : 118.2988823
            },
            "location_type" : "APPROXIMATE",
            "viewport" : {
               "northeast" : {
                  "lat" : 24.4110182802915,
                  "lng" : 118.3002312802915
               },
               "southwest" : {
                  "lat" : 24.40832031970849,
                  "lng" : 118.2975333197085
               }
            }
         },
         "partial_match" : true,
         "types" : [ "point_of_interest", "establishment" ]
      }
   ],
   "status" : "OK"
}
