{
   "results" : [
      {
         "address_components" : [
            {
               "long_name" : "茄萣區",
               "short_name" : "茄萣區",
               "types" : [ "locality", "political" ]
            },
            {
               "long_name" : "高雄市",
               "short_name" : "高雄市",
               "types" : [ "administrative_area_level_2", "political" ]
            },
            {
               "long_name" : "台灣",
               "short_name" : "TW",
               "types" : [ "country", "political" ]
            },
            {
               "long_name" : "852",
               "short_name" : "852",
               "types" : [ "postal_code" ]
            }
         ],
         "formatted_address" : "852台灣高雄市茄萣區",
         "geometry" : {
            "bounds" : {
               "northeast" : {
                  "lat" : 22.9202457,
                  "lng" : 120.220542
               },
               "southwest" : {
                  "lat" : 22.8480836,
                  "lng" : 120.1746925
               }
            },
            "location" : {
               "lat" : 22.9067861,
               "lng" : 120.1826028
            },
            "location_type" : "APPROXIMATE",
            "viewport" : {
               "northeast" : {
                  "lat" : 22.9202457,
                  "lng" : 120.220542
               },
               "southwest" : {
                  "lat" : 22.8480836,
                  "lng" : 120.1746925
               }
            }
         },
         "types" : [ "locality", "political" ]
      }
   ],
   "status" : "OK"
}
