{
   "results" : [
      {
         "address_components" : [
            {
               "long_name" : "三峽區",
               "short_name" : "三峽區",
               "types" : [ "locality", "political" ]
            },
            {
               "long_name" : "新北市",
               "short_name" : "新北市",
               "types" : [ "administrative_area_level_2", "political" ]
            },
            {
               "long_name" : "台灣",
               "short_name" : "TW",
               "types" : [ "country", "political" ]
            },
            {
               "long_name" : "237",
               "short_name" : "237",
               "types" : [ "postal_code" ]
            }
         ],
         "formatted_address" : "237台灣新北市三峽區",
         "geometry" : {
            "bounds" : {
               "northeast" : {
                  "lat" : 24.9521218,
                  "lng" : 121.4972
               },
               "southwest" : {
                  "lat" : 24.7900797,
                  "lng" : 121.3175693
               }
            },
            "location" : {
               "lat" : 24.9333333,
               "lng" : 121.3666667
            },
            "location_type" : "APPROXIMATE",
            "viewport" : {
               "northeast" : {
                  "lat" : 24.9521218,
                  "lng" : 121.4972
               },
               "southwest" : {
                  "lat" : 24.7900797,
                  "lng" : 121.3175693
               }
            }
         },
         "types" : [ "locality", "political" ]
      }
   ],
   "status" : "OK"
}
