{
   "results" : [
      {
         "address_components" : [
            {
               "long_name" : "池上鄉",
               "short_name" : "池上鄉",
               "types" : [ "locality", "political" ]
            },
            {
               "long_name" : "台東縣",
               "short_name" : "台東縣",
               "types" : [ "administrative_area_level_2", "political" ]
            },
            {
               "long_name" : "台灣",
               "short_name" : "TW",
               "types" : [ "country", "political" ]
            },
            {
               "long_name" : "958",
               "short_name" : "958",
               "types" : [ "postal_code" ]
            }
         ],
         "formatted_address" : "958台灣台東縣池上鄉",
         "geometry" : {
            "bounds" : {
               "northeast" : {
                  "lat" : 23.1592541,
                  "lng" : 121.2676671
               },
               "southwest" : {
                  "lat" : 23.0262481,
                  "lng" : 121.172882
               }
            },
            "location" : {
               "lat" : 23.1166667,
               "lng" : 121.2166667
            },
            "location_type" : "APPROXIMATE",
            "viewport" : {
               "northeast" : {
                  "lat" : 23.1592541,
                  "lng" : 121.2676671
               },
               "southwest" : {
                  "lat" : 23.0262481,
                  "lng" : 121.172882
               }
            }
         },
         "types" : [ "locality", "political" ]
      }
   ],
   "status" : "OK"
}
