{
   "results" : [
      {
         "address_components" : [
            {
               "long_name" : "信義區",
               "short_name" : "信義區",
               "types" : [ "locality", "political" ]
            },
            {
               "long_name" : "基隆市",
               "short_name" : "基隆市",
               "types" : [ "administrative_area_level_2", "political" ]
            },
            {
               "long_name" : "台灣",
               "short_name" : "TW",
               "types" : [ "country", "political" ]
            },
            {
               "long_name" : "201",
               "short_name" : "201",
               "types" : [ "postal_code" ]
            }
         ],
         "formatted_address" : "201台灣基隆市信義區",
         "geometry" : {
            "bounds" : {
               "northeast" : {
                  "lat" : 25.1450183,
                  "lng" : 121.7988746
               },
               "southwest" : {
                  "lat" : 25.1101284,
                  "lng" : 121.7462227
               }
            },
            "location" : {
               "lat" : 25.1284336,
               "lng" : 121.7822278
            },
            "location_type" : "APPROXIMATE",
            "viewport" : {
               "northeast" : {
                  "lat" : 25.1450183,
                  "lng" : 121.7988746
               },
               "southwest" : {
                  "lat" : 25.1101284,
                  "lng" : 121.7462227
               }
            }
         },
         "types" : [ "locality", "political" ]
      }
   ],
   "status" : "OK"
}
