{
   "results" : [
      {
         "address_components" : [
            {
               "long_name" : "頭城鎮",
               "short_name" : "頭城鎮",
               "types" : [ "locality", "political" ]
            },
            {
               "long_name" : "宜蘭縣",
               "short_name" : "宜蘭縣",
               "types" : [ "administrative_area_level_2", "political" ]
            },
            {
               "long_name" : "台灣",
               "short_name" : "TW",
               "types" : [ "country", "political" ]
            },
            {
               "long_name" : "261",
               "short_name" : "261",
               "types" : [ "postal_code" ]
            }
         ],
         "formatted_address" : "261台灣宜蘭縣頭城鎮",
         "geometry" : {
            "bounds" : {
               "northeast" : {
                  "lat" : 24.9884546,
                  "lng" : 121.9660124
               },
               "southwest" : {
                  "lat" : 24.8088625,
                  "lng" : 121.7473627
               }
            },
            "location" : {
               "lat" : 24.85,
               "lng" : 121.8166667
            },
            "location_type" : "APPROXIMATE",
            "viewport" : {
               "northeast" : {
                  "lat" : 24.9884546,
                  "lng" : 121.9660124
               },
               "southwest" : {
                  "lat" : 24.8088625,
                  "lng" : 121.7473627
               }
            }
         },
         "types" : [ "locality", "political" ]
      }
   ],
   "status" : "OK"
}
