{
   "results" : [
      {
         "address_components" : [
            {
               "long_name" : "安定區",
               "short_name" : "安定區",
               "types" : [ "locality", "political" ]
            },
            {
               "long_name" : "台南市",
               "short_name" : "台南市",
               "types" : [ "administrative_area_level_2", "political" ]
            },
            {
               "long_name" : "台灣",
               "short_name" : "TW",
               "types" : [ "country", "political" ]
            },
            {
               "long_name" : "745",
               "short_name" : "745",
               "types" : [ "postal_code" ]
            }
         ],
         "formatted_address" : "745台灣台南市安定區",
         "geometry" : {
            "bounds" : {
               "northeast" : {
                  "lat" : 23.1350461,
                  "lng" : 120.2692322
               },
               "southwest" : {
                  "lat" : 23.0665572,
                  "lng" : 120.187335
               }
            },
            "location" : {
               "lat" : 23.095298,
               "lng" : 120.2166519
            },
            "location_type" : "APPROXIMATE",
            "viewport" : {
               "northeast" : {
                  "lat" : 23.1350461,
                  "lng" : 120.2692322
               },
               "southwest" : {
                  "lat" : 23.0665572,
                  "lng" : 120.187335
               }
            }
         },
         "types" : [ "locality", "political" ]
      }
   ],
   "status" : "OK"
}
