{
   "results" : [
      {
         "address_components" : [
            {
               "long_name" : "冬山鄉",
               "short_name" : "冬山鄉",
               "types" : [ "locality", "political" ]
            },
            {
               "long_name" : "宜蘭縣",
               "short_name" : "宜蘭縣",
               "types" : [ "administrative_area_level_2", "political" ]
            },
            {
               "long_name" : "台灣",
               "short_name" : "TW",
               "types" : [ "country", "political" ]
            },
            {
               "long_name" : "269",
               "short_name" : "269",
               "types" : [ "postal_code" ]
            }
         ],
         "formatted_address" : "269台灣宜蘭縣冬山鄉",
         "geometry" : {
            "bounds" : {
               "northeast" : {
                  "lat" : 24.6938243,
                  "lng" : 121.8259691
               },
               "southwest" : {
                  "lat" : 24.5992966,
                  "lng" : 121.6797803
               }
            },
            "location" : {
               "lat" : 24.631919,
               "lng" : 121.7537404
            },
            "location_type" : "APPROXIMATE",
            "viewport" : {
               "northeast" : {
                  "lat" : 24.6938243,
                  "lng" : 121.8259691
               },
               "southwest" : {
                  "lat" : 24.5992966,
                  "lng" : 121.6797803
               }
            }
         },
         "types" : [ "locality", "political" ]
      }
   ],
   "status" : "OK"
}
