{
   "results" : [
      {
         "address_components" : [
            {
               "long_name" : "魚池鄉",
               "short_name" : "魚池鄉",
               "types" : [ "locality", "political" ]
            },
            {
               "long_name" : "南投縣",
               "short_name" : "南投縣",
               "types" : [ "administrative_area_level_2", "political" ]
            },
            {
               "long_name" : "台灣",
               "short_name" : "TW",
               "types" : [ "country", "political" ]
            },
            {
               "long_name" : "555",
               "short_name" : "555",
               "types" : [ "postal_code" ]
            }
         ],
         "formatted_address" : "555台灣南投縣魚池鄉",
         "geometry" : {
            "bounds" : {
               "northeast" : {
                  "lat" : 23.9332556,
                  "lng" : 120.9949438
               },
               "southwest" : {
                  "lat" : 23.8098539,
                  "lng" : 120.8655809
               }
            },
            "location" : {
               "lat" : 23.9,
               "lng" : 120.9333333
            },
            "location_type" : "APPROXIMATE",
            "viewport" : {
               "northeast" : {
                  "lat" : 23.9332556,
                  "lng" : 120.9949438
               },
               "southwest" : {
                  "lat" : 23.8098539,
                  "lng" : 120.8655809
               }
            }
         },
         "types" : [ "locality", "political" ]
      }
   ],
   "status" : "OK"
}
