{
   "results" : [
      {
         "address_components" : [
            {
               "long_name" : "花壇鄉",
               "short_name" : "花壇鄉",
               "types" : [ "locality", "political" ]
            },
            {
               "long_name" : "彰化縣",
               "short_name" : "彰化縣",
               "types" : [ "administrative_area_level_2", "political" ]
            },
            {
               "long_name" : "台灣",
               "short_name" : "TW",
               "types" : [ "country", "political" ]
            },
            {
               "long_name" : "503",
               "short_name" : "503",
               "types" : [ "postal_code" ]
            }
         ],
         "formatted_address" : "503台灣彰化縣花壇鄉",
         "geometry" : {
            "bounds" : {
               "northeast" : {
                  "lat" : 24.0563378,
                  "lng" : 120.6051021
               },
               "southwest" : {
                  "lat" : 24.0020105,
                  "lng" : 120.5174241
               }
            },
            "location" : {
               "lat" : 24.0288453,
               "lng" : 120.5624474
            },
            "location_type" : "APPROXIMATE",
            "viewport" : {
               "northeast" : {
                  "lat" : 24.0563378,
                  "lng" : 120.6051021
               },
               "southwest" : {
                  "lat" : 24.0020105,
                  "lng" : 120.5174241
               }
            }
         },
         "types" : [ "locality", "political" ]
      }
   ],
   "status" : "OK"
}
