{
   "results" : [
      {
         "address_components" : [
            {
               "long_name" : "枋寮鄉",
               "short_name" : "枋寮鄉",
               "types" : [ "locality", "political" ]
            },
            {
               "long_name" : "屏東縣",
               "short_name" : "屏東縣",
               "types" : [ "administrative_area_level_2", "political" ]
            },
            {
               "long_name" : "台灣",
               "short_name" : "TW",
               "types" : [ "country", "political" ]
            },
            {
               "long_name" : "940",
               "short_name" : "940",
               "types" : [ "postal_code" ]
            }
         ],
         "formatted_address" : "940台灣屏東縣枋寮鄉",
         "geometry" : {
            "bounds" : {
               "northeast" : {
                  "lat" : 22.4577411,
                  "lng" : 120.6402721
               },
               "southwest" : {
                  "lat" : 22.3405637,
                  "lng" : 120.5454247
               }
            },
            "location" : {
               "lat" : 22.3656111,
               "lng" : 120.5935833
            },
            "location_type" : "APPROXIMATE",
            "viewport" : {
               "northeast" : {
                  "lat" : 22.4577411,
                  "lng" : 120.6402721
               },
               "southwest" : {
                  "lat" : 22.3405637,
                  "lng" : 120.5454247
               }
            }
         },
         "types" : [ "locality", "political" ]
      }
   ],
   "status" : "OK"
}
