{
   "results" : [
      {
         "address_components" : [
            {
               "long_name" : "鼓山區",
               "short_name" : "鼓山區",
               "types" : [ "locality", "political" ]
            },
            {
               "long_name" : "高雄市",
               "short_name" : "高雄市",
               "types" : [ "administrative_area_level_2", "political" ]
            },
            {
               "long_name" : "台灣",
               "short_name" : "TW",
               "types" : [ "country", "political" ]
            },
            {
               "long_name" : "804",
               "short_name" : "804",
               "types" : [ "postal_code" ]
            }
         ],
         "formatted_address" : "804台灣高雄市鼓山區",
         "geometry" : {
            "bounds" : {
               "northeast" : {
                  "lat" : 22.6741543,
                  "lng" : 120.3087622
               },
               "southwest" : {
                  "lat" : 22.6135352,
                  "lng" : 120.2498697
               }
            },
            "location" : {
               "lat" : 22.6488889,
               "lng" : 120.2725
            },
            "location_type" : "APPROXIMATE",
            "viewport" : {
               "northeast" : {
                  "lat" : 22.6741543,
                  "lng" : 120.3087622
               },
               "southwest" : {
                  "lat" : 22.6135352,
                  "lng" : 120.2498697
               }
            }
         },
         "types" : [ "locality", "political" ]
      }
   ],
   "status" : "OK"
}
