{
   "results" : [
      {
         "address_components" : [
            {
               "long_name" : "九如鄉",
               "short_name" : "九如鄉",
               "types" : [ "locality", "political" ]
            },
            {
               "long_name" : "屏東縣",
               "short_name" : "屏東縣",
               "types" : [ "administrative_area_level_2", "political" ]
            },
            {
               "long_name" : "台灣",
               "short_name" : "TW",
               "types" : [ "country", "political" ]
            },
            {
               "long_name" : "904",
               "short_name" : "904",
               "types" : [ "postal_code" ]
            }
         ],
         "formatted_address" : "904台灣屏東縣九如鄉",
         "geometry" : {
            "bounds" : {
               "northeast" : {
                  "lat" : 22.7717994,
                  "lng" : 120.5404512
               },
               "southwest" : {
                  "lat" : 22.688839,
                  "lng" : 120.448072
               }
            },
            "location" : {
               "lat" : 22.7416068,
               "lng" : 120.4703258
            },
            "location_type" : "APPROXIMATE",
            "viewport" : {
               "northeast" : {
                  "lat" : 22.7717994,
                  "lng" : 120.5404512
               },
               "southwest" : {
                  "lat" : 22.688839,
                  "lng" : 120.448072
               }
            }
         },
         "types" : [ "locality", "political" ]
      }
   ],
   "status" : "OK"
}
