{
   "results" : [
      {
         "address_components" : [
            {
               "long_name" : "高樹鄉",
               "short_name" : "高樹鄉",
               "types" : [ "locality", "political" ]
            },
            {
               "long_name" : "屏東縣",
               "short_name" : "屏東縣",
               "types" : [ "administrative_area_level_2", "political" ]
            },
            {
               "long_name" : "台灣",
               "short_name" : "TW",
               "types" : [ "country", "political" ]
            },
            {
               "long_name" : "906",
               "short_name" : "906",
               "types" : [ "postal_code" ]
            }
         ],
         "formatted_address" : "906台灣屏東縣高樹鄉",
         "geometry" : {
            "bounds" : {
               "northeast" : {
                  "lat" : 22.8851845,
                  "lng" : 120.6476877
               },
               "southwest" : {
                  "lat" : 22.7198314,
                  "lng" : 120.5449351
               }
            },
            "location" : {
               "lat" : 22.8196569,
               "lng" : 120.6084832
            },
            "location_type" : "APPROXIMATE",
            "viewport" : {
               "northeast" : {
                  "lat" : 22.8851845,
                  "lng" : 120.6476877
               },
               "southwest" : {
                  "lat" : 22.7198314,
                  "lng" : 120.5449351
               }
            }
         },
         "types" : [ "locality", "political" ]
      }
   ],
   "status" : "OK"
}
