{
   "results" : [
      {
         "address_components" : [
            {
               "long_name" : "義竹鄉",
               "short_name" : "義竹鄉",
               "types" : [ "locality", "political" ]
            },
            {
               "long_name" : "嘉義縣",
               "short_name" : "嘉義縣",
               "types" : [ "administrative_area_level_2", "political" ]
            },
            {
               "long_name" : "台灣",
               "short_name" : "TW",
               "types" : [ "country", "political" ]
            },
            {
               "long_name" : "624",
               "short_name" : "624",
               "types" : [ "postal_code" ]
            }
         ],
         "formatted_address" : "624台灣嘉義縣義竹鄉",
         "geometry" : {
            "bounds" : {
               "northeast" : {
                  "lat" : 23.4076205,
                  "lng" : 120.2864571
               },
               "southwest" : {
                  "lat" : 23.290033,
                  "lng" : 120.1626246
               }
            },
            "location" : {
               "lat" : 23.3530108,
               "lng" : 120.2166519
            },
            "location_type" : "APPROXIMATE",
            "viewport" : {
               "northeast" : {
                  "lat" : 23.4076205,
                  "lng" : 120.2864571
               },
               "southwest" : {
                  "lat" : 23.290033,
                  "lng" : 120.1626246
               }
            }
         },
         "types" : [ "locality", "political" ]
      }
   ],
   "status" : "OK"
}
