{
   "results" : [
      {
         "address_components" : [
            {
               "long_name" : "彰化市",
               "short_name" : "彰化市",
               "types" : [ "locality", "political" ]
            },
            {
               "long_name" : "彰化縣",
               "short_name" : "彰化縣",
               "types" : [ "administrative_area_level_2", "political" ]
            },
            {
               "long_name" : "台灣",
               "short_name" : "TW",
               "types" : [ "country", "political" ]
            },
            {
               "long_name" : "500",
               "short_name" : "500",
               "types" : [ "postal_code" ]
            }
         ],
         "formatted_address" : "500台灣彰化縣彰化市",
         "geometry" : {
            "bounds" : {
               "northeast" : {
                  "lat" : 24.1139398,
                  "lng" : 120.6258759
               },
               "southwest" : {
                  "lat" : 24.0377971,
                  "lng" : 120.4997915
               }
            },
            "location" : {
               "lat" : 24.0666667,
               "lng" : 120.5333333
            },
            "location_type" : "APPROXIMATE",
            "viewport" : {
               "northeast" : {
                  "lat" : 24.1139398,
                  "lng" : 120.6258759
               },
               "southwest" : {
                  "lat" : 24.0377971,
                  "lng" : 120.4997915
               }
            }
         },
         "types" : [ "locality", "political" ]
      }
   ],
   "status" : "OK"
}
