{
   "results" : [
      {
         "address_components" : [
            {
               "long_name" : "萬丹鄉",
               "short_name" : "萬丹鄉",
               "types" : [ "locality", "political" ]
            },
            {
               "long_name" : "屏東縣",
               "short_name" : "屏東縣",
               "types" : [ "administrative_area_level_2", "political" ]
            },
            {
               "long_name" : "台灣",
               "short_name" : "TW",
               "types" : [ "country", "political" ]
            },
            {
               "long_name" : "913",
               "short_name" : "913",
               "types" : [ "postal_code" ]
            }
         ],
         "formatted_address" : "913台灣屏東縣萬丹鄉",
         "geometry" : {
            "bounds" : {
               "northeast" : {
                  "lat" : 22.630301,
                  "lng" : 120.523153
               },
               "southwest" : {
                  "lat" : 22.5249434,
                  "lng" : 120.4334657
               }
            },
            "location" : {
               "lat" : 22.591522,
               "lng" : 120.4703258
            },
            "location_type" : "APPROXIMATE",
            "viewport" : {
               "northeast" : {
                  "lat" : 22.630301,
                  "lng" : 120.523153
               },
               "southwest" : {
                  "lat" : 22.5249434,
                  "lng" : 120.4334657
               }
            }
         },
         "types" : [ "locality", "political" ]
      }
   ],
   "status" : "OK"
}
