{
   "results" : [
      {
         "address_components" : [
            {
               "long_name" : "松山區",
               "short_name" : "松山區",
               "types" : [ "locality", "political" ]
            },
            {
               "long_name" : "台北市",
               "short_name" : "北市",
               "types" : [ "administrative_area_level_2", "political" ]
            },
            {
               "long_name" : "台灣",
               "short_name" : "TW",
               "types" : [ "country", "political" ]
            },
            {
               "long_name" : "105",
               "short_name" : "105",
               "types" : [ "postal_code" ]
            }
         ],
         "formatted_address" : "105台灣台北市松山區",
         "geometry" : {
            "bounds" : {
               "northeast" : {
                  "lat" : 25.0759635,
                  "lng" : 121.5800758
               },
               "southwest" : {
                  "lat" : 25.0443819,
                  "lng" : 121.5385389
               }
            },
            "location" : {
               "lat" : 25.0591662,
               "lng" : 121.5589142
            },
            "location_type" : "APPROXIMATE",
            "viewport" : {
               "northeast" : {
                  "lat" : 25.0759635,
                  "lng" : 121.5800758
               },
               "southwest" : {
                  "lat" : 25.0443819,
                  "lng" : 121.5385389
               }
            }
         },
         "types" : [ "locality", "political" ]
      }
   ],
   "status" : "OK"
}
