{
   "results" : [
      {
         "address_components" : [
            {
               "long_name" : "六甲區",
               "short_name" : "六甲區",
               "types" : [ "locality", "political" ]
            },
            {
               "long_name" : "台南市",
               "short_name" : "台南市",
               "types" : [ "administrative_area_level_2", "political" ]
            },
            {
               "long_name" : "台灣",
               "short_name" : "TW",
               "types" : [ "country", "political" ]
            },
            {
               "long_name" : "734",
               "short_name" : "734",
               "types" : [ "postal_code" ]
            }
         ],
         "formatted_address" : "734台灣台南市六甲區",
         "geometry" : {
            "bounds" : {
               "northeast" : {
                  "lat" : 23.2638691,
                  "lng" : 120.4770232
               },
               "southwest" : {
                  "lat" : 23.1923347,
                  "lng" : 120.2844329
               }
            },
            "location" : {
               "lat" : 23.2426813,
               "lng" : 120.3320195
            },
            "location_type" : "APPROXIMATE",
            "viewport" : {
               "northeast" : {
                  "lat" : 23.2638691,
                  "lng" : 120.4770232
               },
               "southwest" : {
                  "lat" : 23.1923347,
                  "lng" : 120.2844329
               }
            }
         },
         "types" : [ "locality", "political" ]
      }
   ],
   "status" : "OK"
}
