{
   "results" : [
      {
         "address_components" : [
            {
               "long_name" : "和平區",
               "short_name" : "和平區",
               "types" : [ "locality", "political" ]
            },
            {
               "long_name" : "台中市",
               "short_name" : "台中市",
               "types" : [ "administrative_area_level_2", "political" ]
            },
            {
               "long_name" : "台灣",
               "short_name" : "TW",
               "types" : [ "country", "political" ]
            },
            {
               "long_name" : "424",
               "short_name" : "424",
               "types" : [ "postal_code" ]
            }
         ],
         "formatted_address" : "424台灣台中市和平區",
         "geometry" : {
            "bounds" : {
               "northeast" : {
                  "lat" : 24.4416975,
                  "lng" : 121.4509513
               },
               "southwest" : {
                  "lat" : 24.1073838,
                  "lng" : 120.8653486
               }
            },
            "location" : {
               "lat" : 24.2666667,
               "lng" : 121.15
            },
            "location_type" : "APPROXIMATE",
            "viewport" : {
               "northeast" : {
                  "lat" : 24.4416975,
                  "lng" : 121.4509513
               },
               "southwest" : {
                  "lat" : 24.1073838,
                  "lng" : 120.8653486
               }
            }
         },
         "types" : [ "locality", "political" ]
      }
   ],
   "status" : "OK"
}
