{
   "results" : [
      {
         "address_components" : [
            {
               "long_name" : "北竿鄉",
               "short_name" : "北竿鄉",
               "types" : [ "natural_feature", "establishment" ]
            },
            {
               "long_name" : "連江縣",
               "short_name" : "連江縣",
               "types" : [ "sublocality_level_1", "sublocality", "political" ]
            },
            {
               "long_name" : "台灣",
               "short_name" : "TW",
               "types" : [ "country", "political" ]
            }
         ],
         "formatted_address" : "台灣連江縣北竿鄉",
         "geometry" : {
            "location" : {
               "lat" : 26.223611,
               "lng" : 119.989167
            },
            "location_type" : "APPROXIMATE",
            "viewport" : {
               "northeast" : {
                  "lat" : 26.2336201,
                  "lng" : 120.0051744
               },
               "southwest" : {
                  "lat" : 26.213601,
                  "lng" : 119.9731596
               }
            }
         },
         "types" : [ "natural_feature", "establishment" ]
      }
   ],
   "status" : "OK"
}
