{
   "results" : [
      {
         "address_components" : [
            {
               "long_name" : "桃源區",
               "short_name" : "桃源區",
               "types" : [ "locality", "political" ]
            },
            {
               "long_name" : "高雄市",
               "short_name" : "高雄市",
               "types" : [ "administrative_area_level_2", "political" ]
            },
            {
               "long_name" : "台灣",
               "short_name" : "TW",
               "types" : [ "country", "political" ]
            },
            {
               "long_name" : "848",
               "short_name" : "848",
               "types" : [ "postal_code" ]
            }
         ],
         "formatted_address" : "848台灣高雄市桃源區",
         "geometry" : {
            "bounds" : {
               "northeast" : {
                  "lat" : 23.4717267,
                  "lng" : 121.0490148
               },
               "southwest" : {
                  "lat" : 22.9751944,
                  "lng" : 120.6658317
               }
            },
            "location" : {
               "lat" : 23.2280755,
               "lng" : 120.8498944
            },
            "location_type" : "APPROXIMATE",
            "viewport" : {
               "northeast" : {
                  "lat" : 23.4717267,
                  "lng" : 121.0490148
               },
               "southwest" : {
                  "lat" : 22.9751944,
                  "lng" : 120.6658317
               }
            }
         },
         "types" : [ "locality", "political" ]
      }
   ],
   "status" : "OK"
}
