{
   "results" : [
      {
         "address_components" : [
            {
               "long_name" : "湖西鄉",
               "short_name" : "湖西鄉",
               "types" : [ "locality", "political" ]
            },
            {
               "long_name" : "澎湖縣",
               "short_name" : "澎湖縣",
               "types" : [ "administrative_area_level_2", "political" ]
            },
            {
               "long_name" : "台灣",
               "short_name" : "TW",
               "types" : [ "country", "political" ]
            },
            {
               "long_name" : "885",
               "short_name" : "885",
               "types" : [ "postal_code" ]
            }
         ],
         "formatted_address" : "885台灣澎湖縣湖西鄉",
         "geometry" : {
            "bounds" : {
               "northeast" : {
                  "lat" : 23.6276674,
                  "lng" : 119.7269552
               },
               "southwest" : {
                  "lat" : 23.5340494,
                  "lng" : 119.6029826
               }
            },
            "location" : {
               "lat" : 23.5833333,
               "lng" : 119.6666667
            },
            "location_type" : "APPROXIMATE",
            "viewport" : {
               "northeast" : {
                  "lat" : 23.6276674,
                  "lng" : 119.7269552
               },
               "southwest" : {
                  "lat" : 23.5340494,
                  "lng" : 119.6029826
               }
            }
         },
         "types" : [ "locality", "political" ]
      }
   ],
   "status" : "OK"
}
