{
   "results" : [
      {
         "address_components" : [
            {
               "long_name" : "瑞穗鄉",
               "short_name" : "瑞穗鄉",
               "types" : [ "locality", "political" ]
            },
            {
               "long_name" : "花蓮縣",
               "short_name" : "花蓮縣",
               "types" : [ "administrative_area_level_2", "political" ]
            },
            {
               "long_name" : "台灣",
               "short_name" : "TW",
               "types" : [ "country", "political" ]
            },
            {
               "long_name" : "978",
               "short_name" : "978",
               "types" : [ "postal_code" ]
            }
         ],
         "formatted_address" : "978台灣花蓮縣瑞穗鄉",
         "geometry" : {
            "bounds" : {
               "northeast" : {
                  "lat" : 23.6054533,
                  "lng" : 121.4924991
               },
               "southwest" : {
                  "lat" : 23.4344934,
                  "lng" : 121.3252057
               }
            },
            "location" : {
               "lat" : 23.5205619,
               "lng" : 121.4113308
            },
            "location_type" : "APPROXIMATE",
            "viewport" : {
               "northeast" : {
                  "lat" : 23.6054533,
                  "lng" : 121.4924991
               },
               "southwest" : {
                  "lat" : 23.4344934,
                  "lng" : 121.3252057
               }
            }
         },
         "types" : [ "locality", "political" ]
      }
   ],
   "status" : "OK"
}
