{
   "results" : [
      {
         "address_components" : [
            {
               "long_name" : "新埔鎮",
               "short_name" : "新埔鎮",
               "types" : [ "locality", "political" ]
            },
            {
               "long_name" : "新竹縣",
               "short_name" : "新竹縣",
               "types" : [ "administrative_area_level_2", "political" ]
            },
            {
               "long_name" : "台灣",
               "short_name" : "TW",
               "types" : [ "country", "political" ]
            },
            {
               "long_name" : "305",
               "short_name" : "305",
               "types" : [ "postal_code" ]
            }
         ],
         "formatted_address" : "305台灣新竹縣新埔鎮",
         "geometry" : {
            "bounds" : {
               "northeast" : {
                  "lat" : 24.8824224,
                  "lng" : 121.1613961
               },
               "southwest" : {
                  "lat" : 24.7912135,
                  "lng" : 121.0135942
               }
            },
            "location" : {
               "lat" : 24.8496061,
               "lng" : 121.0908329
            },
            "location_type" : "APPROXIMATE",
            "viewport" : {
               "northeast" : {
                  "lat" : 24.8824224,
                  "lng" : 121.1613961
               },
               "southwest" : {
                  "lat" : 24.7912135,
                  "lng" : 121.0135942
               }
            }
         },
         "types" : [ "locality", "political" ]
      }
   ],
   "status" : "OK"
}
