{
   "results" : [
      {
         "address_components" : [
            {
               "long_name" : "鹽埕區",
               "short_name" : "鹽埕區",
               "types" : [ "locality", "political" ]
            },
            {
               "long_name" : "高雄市",
               "short_name" : "高雄市",
               "types" : [ "administrative_area_level_2", "political" ]
            },
            {
               "long_name" : "台灣",
               "short_name" : "TW",
               "types" : [ "country", "political" ]
            },
            {
               "long_name" : "803",
               "short_name" : "803",
               "types" : [ "postal_code" ]
            }
         ],
         "formatted_address" : "803台灣高雄市鹽埕區",
         "geometry" : {
            "bounds" : {
               "northeast" : {
                  "lat" : 22.6347297,
                  "lng" : 120.2904237
               },
               "southwest" : {
                  "lat" : 22.6162525,
                  "lng" : 120.2770551
               }
            },
            "location" : {
               "lat" : 22.6224414,
               "lng" : 120.2830007
            },
            "location_type" : "APPROXIMATE",
            "viewport" : {
               "northeast" : {
                  "lat" : 22.6347297,
                  "lng" : 120.2904237
               },
               "southwest" : {
                  "lat" : 22.6162525,
                  "lng" : 120.2770551
               }
            }
         },
         "types" : [ "locality", "political" ]
      }
   ],
   "status" : "OK"
}
