{
   "results" : [
      {
         "address_components" : [
            {
               "long_name" : "下營區",
               "short_name" : "下營區",
               "types" : [ "locality", "political" ]
            },
            {
               "long_name" : "台南市",
               "short_name" : "台南市",
               "types" : [ "administrative_area_level_2", "political" ]
            },
            {
               "long_name" : "台灣",
               "short_name" : "TW",
               "types" : [ "country", "political" ]
            },
            {
               "long_name" : "735",
               "short_name" : "735",
               "types" : [ "postal_code" ]
            }
         ],
         "formatted_address" : "735台灣台南市下營區",
         "geometry" : {
            "bounds" : {
               "northeast" : {
                  "lat" : 23.264852,
                  "lng" : 120.3000009
               },
               "southwest" : {
                  "lat" : 23.2013236,
                  "lng" : 120.2201276
               }
            },
            "location" : {
               "lat" : 23.2292915,
               "lng" : 120.2685799
            },
            "location_type" : "APPROXIMATE",
            "viewport" : {
               "northeast" : {
                  "lat" : 23.264852,
                  "lng" : 120.3000009
               },
               "southwest" : {
                  "lat" : 23.2013236,
                  "lng" : 120.2201276
               }
            }
         },
         "types" : [ "locality", "political" ]
      }
   ],
   "status" : "OK"
}
