{
   "results" : [
      {
         "address_components" : [
            {
               "long_name" : "平溪區",
               "short_name" : "平溪區",
               "types" : [ "locality", "political" ]
            },
            {
               "long_name" : "新北市",
               "short_name" : "新北市",
               "types" : [ "administrative_area_level_2", "political" ]
            },
            {
               "long_name" : "台灣",
               "short_name" : "TW",
               "types" : [ "country", "political" ]
            },
            {
               "long_name" : "226",
               "short_name" : "226",
               "types" : [ "postal_code" ]
            }
         ],
         "formatted_address" : "226台灣新北市平溪區",
         "geometry" : {
            "bounds" : {
               "northeast" : {
                  "lat" : 25.0773756,
                  "lng" : 121.8168656
               },
               "southwest" : {
                  "lat" : 24.9740033,
                  "lng" : 121.7010411
               }
            },
            "location" : {
               "lat" : 25.0345984,
               "lng" : 121.7537404
            },
            "location_type" : "APPROXIMATE",
            "viewport" : {
               "northeast" : {
                  "lat" : 25.0773756,
                  "lng" : 121.8168656
               },
               "southwest" : {
                  "lat" : 24.9740033,
                  "lng" : 121.7010411
               }
            }
         },
         "types" : [ "locality", "political" ]
      }
   ],
   "status" : "OK"
}
