{
   "results" : [
      {
         "address_components" : [
            {
               "long_name" : "鹿谷鄉",
               "short_name" : "鹿谷鄉",
               "types" : [ "locality", "political" ]
            },
            {
               "long_name" : "南投縣",
               "short_name" : "南投縣",
               "types" : [ "administrative_area_level_2", "political" ]
            },
            {
               "long_name" : "台灣",
               "short_name" : "TW",
               "types" : [ "country", "political" ]
            },
            {
               "long_name" : "558",
               "short_name" : "558",
               "types" : [ "postal_code" ]
            }
         ],
         "formatted_address" : "558台灣南投縣鹿谷鄉",
         "geometry" : {
            "bounds" : {
               "northeast" : {
                  "lat" : 23.8182565,
                  "lng" : 120.8406855
               },
               "southwest" : {
                  "lat" : 23.6490894,
                  "lng" : 120.7136328
               }
            },
            "location" : {
               "lat" : 23.7348372,
               "lng" : 120.7809676
            },
            "location_type" : "APPROXIMATE",
            "viewport" : {
               "northeast" : {
                  "lat" : 23.8182565,
                  "lng" : 120.8406855
               },
               "southwest" : {
                  "lat" : 23.6490894,
                  "lng" : 120.7136328
               }
            }
         },
         "types" : [ "locality", "political" ]
      }
   ],
   "status" : "OK"
}
