{
   "results" : [
      {
         "address_components" : [
            {
               "long_name" : "前鎮區",
               "short_name" : "前鎮區",
               "types" : [ "locality", "political" ]
            },
            {
               "long_name" : "高雄市",
               "short_name" : "高雄市",
               "types" : [ "administrative_area_level_2", "political" ]
            },
            {
               "long_name" : "台灣",
               "short_name" : "TW",
               "types" : [ "country", "political" ]
            },
            {
               "long_name" : "806",
               "short_name" : "806",
               "types" : [ "postal_code" ]
            }
         ],
         "formatted_address" : "806台灣高雄市前鎮區",
         "geometry" : {
            "bounds" : {
               "northeast" : {
                  "lat" : 22.618323,
                  "lng" : 120.3394077
               },
               "southwest" : {
                  "lat" : 22.5612453,
                  "lng" : 120.2818466
               }
            },
            "location" : {
               "lat" : 22.5970794,
               "lng" : 120.3147208
            },
            "location_type" : "APPROXIMATE",
            "viewport" : {
               "northeast" : {
                  "lat" : 22.618323,
                  "lng" : 120.3394077
               },
               "southwest" : {
                  "lat" : 22.5612453,
                  "lng" : 120.2818466
               }
            }
         },
         "types" : [ "locality", "political" ]
      }
   ],
   "status" : "OK"
}
