<?xml version="1.0" encoding="UTF-8"?>
<kml xmlns="http://www.opengis.net/kml/2.2">
	<Document>
		<name>屏東縣三地門鄉</name>
		<Style id="spolygon">
			<LabelStyle>
				<scale>0.0</scale>
			</LabelStyle>
			<LineStyle>
				<color>330030ff</color>
				<width>0</width>
			</LineStyle>
			<PolyStyle>
				<color>330030ff</color>
			</PolyStyle>
		</Style>
		<StyleMap id="spolygon-map">
			<Pair>
				<key>normal</key>
				<styleUrl>#spolygon</styleUrl>
			</Pair>
		</StyleMap>
	<Placemark><Polygon><outerBoundaryIs><LinearRing><coordinates>120.689933,22.749007,0.0 120.689507,22.749605,0.0 120.689054,22.74997,0.0 120.688952,22.750685,0.0 120.68889,22.75129,0.0 120.688919,22.751697,0.0 120.68869,22.752471,0.0 120.688522,22.752877,0.0 120.688051,22.753564,0.0 120.686857,22.755041,0.0 120.685914,22.755926,0.0 120.685266,22.757018,0.0 120.684984,22.758322,0.0 120.684258,22.757912,0.0 120.682173,22.756115,0.0 120.680049,22.754711,0.0 120.678118,22.753235,0.0 120.67638,22.750834,0.0 120.675882,22.750111,0.0 120.674651,22.747166,0.0 120.674071,22.746382,0.0 120.673338,22.745942,0.0 120.672475,22.745462,0.0 120.671597,22.745329,0.0 120.670688,22.745472,0.0 120.669701,22.745528,0.0 120.667915,22.744958,0.0 120.666187,22.743812,0.0 120.665027,22.743342,0.0 120.663714,22.742694,0.0 120.662889,22.742351,0.0 120.658182,22.742646,0.0 120.657119,22.742736,0.0 120.656708,22.742704,0.0 120.654277,22.742064,0.0 120.650564,22.741769,0.0 120.648661,22.741223,0.0 120.647859,22.740614,0.0 120.646329,22.739881,0.0 120.645542,22.739103,0.0 120.645141,22.738716,0.0 120.64453,22.738613,0.0 120.643919,22.738697,0.0 120.64315,22.738915,0.0 120.642027,22.738445,0.0 120.64143,22.738209,0.0 120.640747,22.738553,0.0 120.640166,22.738768,0.0 120.63974,22.739018,0.0 120.639415,22.739514,0.0 120.637966,22.739585,0.0 120.637109,22.73919,0.0 120.635986,22.738922,0.0 120.635898,22.738916,0.0 120.635869,22.738779,0.0 120.635853,22.738641,0.0 120.635896,22.738451,0.0 120.635969,22.738318,0.0 120.636093,22.738201,0.0 120.636205,22.738152,0.0 120.636369,22.738154,0.0 120.636559,22.738232,0.0 120.636755,22.738268,0.0 120.636972,22.738201,0.0 120.63708,22.738131,0.0 120.637203,22.738007,0.0 120.637336,22.737852,0.0 120.637457,22.737676,0.0 120.637516,22.737541,0.0 120.637514,22.737426,0.0 120.637479,22.73727,0.0 120.637437,22.737161,0.0 120.637421,22.737055,0.0 120.637475,22.73692,0.0 120.63757,22.736827,0.0 120.637696,22.736751,0.0 120.637798,22.736652,0.0 120.637873,22.73655,0.0 120.637954,22.736395,0.0 120.63803,22.736262,0.0 120.638137,22.736095,0.0 120.638352,22.735987,0.0 120.638572,22.735963,0.0 120.638771,22.73588,0.0 120.638959,22.735783,0.0 120.639081,22.735722,0.0 120.639255,22.735675,0.0 120.639355,22.735617,0.0 120.639379,22.735515,0.0 120.639363,22.735368,0.0 120.639316,22.735158,0.0 120.639292,22.735012,0.0 120.639249,22.734829,0.0 120.639177,22.734578,0.0 120.63913,22.734397,0.0 120.639058,22.734121,0.0 120.639018,22.734011,0.0 120.638941,22.733713,0.0 120.638912,22.733548,0.0 120.638859,22.733254,0.0 120.638806,22.732997,0.0 120.638782,22.732816,0.0 120.63882,22.732669,0.0 120.639005,22.732512,0.0 120.639095,22.73244,0.0 120.639315,22.732309,0.0 120.639404,22.732219,0.0 120.639385,22.732099,0.0 120.639351,22.731998,0.0 120.639239,22.731731,0.0 120.639183,22.73158,0.0 120.639127,22.731327,0.0 120.639076,22.731096,0.0 120.639034,22.730956,0.0 120.638973,22.730746,0.0 120.638922,22.730525,0.0 120.638904,22.730378,0.0 120.638883,22.730211,0.0 120.638856,22.730068,0.0 120.638825,22.729836,0.0 120.638801,22.729709,0.0 120.638756,22.72947,0.0 120.63873,22.72924,0.0 120.638711,22.729106,0.0 120.638698,22.728978,0.0 120.63868,22.72886,0.0 120.638677,22.728722,0.0 120.638667,22.728512,0.0 120.638633,22.728293,0.0 120.638647,22.728029,0.0 120.638623,22.727869,0.0 120.638605,22.727695,0.0 120.638595,22.727528,0.0 120.638579,22.727413,0.0 120.638569,22.727185,0.0 120.638569,22.726986,0.0 120.638586,22.72686,0.0 120.638616,22.726722,0.0 120.638659,22.726589,0.0 120.638721,22.726424,0.0 120.638743,22.726271,0.0 120.638674,22.726108,0.0 120.638519,22.725898,0.0 120.638436,22.725791,0.0 120.638356,22.725653,0.0 120.638313,22.725525,0.0 120.638284,22.725373,0.0 120.638274,22.725263,0.0 120.638239,22.725039,0.0 120.638178,22.724784,0.0 120.63812,22.724596,0.0 120.638075,22.724467,0.0 120.637979,22.72428,0.0 120.637857,22.72407,0.0 120.637755,22.723972,0.0 120.637662,22.723909,0.0 120.637493,22.723802,0.0 120.63725,22.723653,0.0 120.637057,22.723551,0.0 120.636952,22.723499,0.0 120.636779,22.723415,0.0 120.63658,22.723317,0.0 120.636496,22.723215,0.0 120.636471,22.722811,0.0 120.636542,22.721843,0.0 120.636517,22.721639,0.0 120.63623,22.721632,0.0 120.636121,22.721505,0.0 120.63597,22.72092,0.0 120.635489,22.720179,0.0 120.635253,22.719959,0.0 120.634604,22.719831,0.0 120.634589,22.719301,0.0 120.634262,22.718232,0.0 120.633516,22.716381,0.0 120.633264,22.716004,0.0 120.633052,22.71591,0.0 120.632734,22.715734,0.0 120.632181,22.715416,0.0 120.631669,22.715133,0.0 120.63096,22.714743,0.0 120.630237,22.714335,0.0 120.629775,22.714079,0.0 120.62945,22.7139,0.0 120.629191,22.71375,0.0 120.629255,22.713576,0.0 120.629651,22.713358,0.0 120.630038,22.713169,0.0 120.630543,22.712873,0.0 120.630956,22.712623,0.0 120.631397,22.712389,0.0 120.631605,22.712302,0.0 120.63193,22.712189,0.0 120.632146,22.712063,0.0 120.63235,22.711897,0.0 120.632546,22.71171,0.0 120.632771,22.71158,0.0 120.633052,22.711515,0.0 120.634278,22.711113,0.0 120.63505,22.711068,0.0 120.636159,22.711048,0.0 120.636696,22.711071,0.0 120.63734,22.7111,0.0 120.638289,22.71101,0.0 120.638801,22.711094,0.0 120.639581,22.711478,0.0 120.640075,22.711822,0.0 120.640839,22.711986,0.0 120.642398,22.711981,0.0 120.642684,22.711952,0.0 120.643574,22.711967,0.0 120.645296,22.711705,0.0 120.645976,22.711668,0.0 120.646688,22.711403,0.0 120.647638,22.711155,0.0 120.649447,22.710669,0.0 120.650889,22.710347,0.0 120.651797,22.710231,0.0 120.652315,22.710081,0.0 120.653341,22.709718,0.0 120.654366,22.709433,0.0 120.655348,22.709505,0.0 120.655866,22.71054,0.0 120.656212,22.71106,0.0 120.656495,22.711908,0.0 120.657063,22.713322,0.0 120.657356,22.713711,0.0 120.658057,22.714094,0.0 120.658328,22.714174,0.0 120.658637,22.714212,0.0 120.658867,22.714213,0.0 120.659135,22.714167,0.0 120.659465,22.71403,0.0 120.660076,22.713597,0.0 120.660604,22.713131,0.0 120.660956,22.712841,0.0 120.661095,22.712577,0.0 120.661141,22.712207,0.0 120.661093,22.711518,0.0 120.660869,22.710903,0.0 120.660644,22.710458,0.0 120.66052,22.710218,0.0 120.660391,22.709753,0.0 120.660343,22.709245,0.0 120.660035,22.708569,0.0 120.659974,22.708197,0.0 120.660288,22.707689,0.0 120.660355,22.707516,0.0 120.660494,22.707371,0.0 120.66118,22.706899,0.0 120.661649,22.706651,0.0 120.661992,22.706605,0.0 120.662359,22.706642,0.0 120.66268,22.706789,0.0 120.66313,22.707284,0.0 120.663305,22.707752,0.0 120.663383,22.708229,0.0 120.66342,22.708529,0.0 120.663519,22.708854,0.0 120.663665,22.709085,0.0 120.663948,22.709356,0.0 120.664149,22.709456,0.0 120.664495,22.709518,0.0 120.664763,22.709518,0.0 120.665214,22.709438,0.0 120.665582,22.709267,0.0 120.666231,22.709,0.0 120.666921,22.708746,0.0 120.667398,22.708503,0.0 120.667728,22.708375,0.0 120.668334,22.708097,0.0 120.668962,22.707716,0.0 120.670201,22.706881,0.0 120.670787,22.706526,0.0 120.671226,22.706148,0.0 120.671921,22.705709,0.0 120.67249,22.705297,0.0 120.672816,22.704968,0.0 120.672955,22.704769,0.0 120.67308,22.704763,0.0 120.673493,22.704998,0.0 120.674144,22.705456,0.0 120.674786,22.705848,0.0 120.675345,22.706282,0.0 120.675821,22.70641,0.0 120.676585,22.706438,0.0 120.676793,22.706457,0.0 120.677241,22.706503,0.0 120.677739,22.706276,0.0 120.67815,22.705439,0.0 120.678276,22.705071,0.0 120.678362,22.704333,0.0 120.678379,22.704067,0.0 120.678464,22.703358,0.0 120.67859,22.70299,0.0 120.678787,22.702702,0.0 120.679361,22.702019,0.0 120.679745,22.701665,0.0 120.681101,22.701449,0.0 120.681933,22.702275,0.0 120.682296,22.703284,0.0 120.682174,22.703939,0.0 120.681913,22.70486,0.0 120.68189,22.705383,0.0 120.682055,22.705652,0.0 120.68243,22.706001,0.0 120.682565,22.70652,0.0 120.682428,22.706762,0.0 120.681033,22.707671,0.0 120.679492,22.708422,0.0 120.679267,22.708909,0.0 120.67943,22.709456,0.0 120.679634,22.709748,0.0 120.679756,22.710039,0.0 120.679796,22.71071,0.0 120.679561,22.711901,0.0 120.679396,22.712262,0.0 120.678958,22.712584,0.0 120.678834,22.713029,0.0 120.680716,22.71459,0.0 120.68098,22.714941,0.0 120.681055,22.715517,0.0 120.680604,22.715832,0.0 120.678853,22.716449,0.0 120.67605,22.717814,0.0 120.674024,22.719533,0.0 120.67279,22.721063,0.0 120.672406,22.721798,0.0 120.672155,22.72236,0.0 120.671842,22.723393,0.0 120.671855,22.723888,0.0 120.67201,22.724633,0.0 120.672441,22.725497,0.0 120.672715,22.725874,0.0 120.672559,22.726007,0.0 120.672264,22.726135,0.0 120.672096,22.726117,0.0 120.671643,22.7258,0.0 120.671302,22.725634,0.0 120.671175,22.725399,0.0 120.670845,22.724872,0.0 120.670704,22.724671,0.0 120.670561,22.724382,0.0 120.668556,22.724418,0.0 120.667876,22.724473,0.0 120.666559,22.72504,0.0 120.667237,22.725782,0.0 120.667337,22.725883,0.0 120.667492,22.726015,0.0 120.66754,22.726146,0.0 120.667295,22.726746,0.0 120.667105,22.727037,0.0 120.667072,22.727143,0.0 120.667069,22.727824,0.0 120.666878,22.728244,0.0 120.66662,22.728709,0.0 120.666559,22.728837,0.0 120.666577,22.729036,0.0 120.666623,22.72988,0.0 120.666679,22.729982,0.0 120.667234,22.730491,0.0 120.667343,22.730645,0.0 120.667366,22.730923,0.0 120.667403,22.731207,0.0 120.667563,22.731826,0.0 120.667604,22.732434,0.0 120.667656,22.732571,0.0 120.667808,22.732603,0.0 120.668127,22.732498,0.0 120.668317,22.732476,0.0 120.668445,22.732512,0.0 120.668553,22.732632,0.0 120.668606,22.73275,0.0 120.668733,22.733231,0.0 120.668951,22.733301,0.0 120.669844,22.733294,0.0 120.670267,22.733453,0.0 120.670499,22.733605,0.0 120.670746,22.73361,0.0 120.671278,22.733518,0.0 120.671667,22.733623,0.0 120.672186,22.733863,0.0 120.672536,22.73411,0.0 120.672635,22.734221,0.0 120.672985,22.734657,0.0 120.673257,22.734931,0.0 120.674069,22.731413,0.0 120.674886,22.72955,0.0 120.675574,22.72963,0.0 120.675986,22.730012,0.0 120.676986,22.730631,0.0 120.678353,22.731959,0.0 120.678971,22.732288,0.0 120.67956,22.732221,0.0 120.680607,22.731758,0.0 120.682081,22.731352,0.0 120.68292,22.731627,0.0 120.683361,22.73201,0.0 120.684639,22.733489,0.0 120.685972,22.735338,0.0 120.686368,22.736143,0.0 120.686857,22.736471,0.0 120.687755,22.736638,0.0 120.688625,22.73642,0.0 120.689691,22.735894,0.0 120.690218,22.735371,0.0 120.691221,22.73477,0.0 120.692046,22.734704,0.0 120.692872,22.734855,0.0 120.693106,22.735077,0.0 120.693529,22.736852,0.0 120.693542,22.737782,0.0 120.693158,22.738233,0.0 120.692303,22.738448,0.0 120.690829,22.738596,0.0 120.690358,22.738801,0.0 120.690078,22.73899,0.0 120.68959,22.739687,0.0 120.689013,22.740862,0.0 120.688584,22.741448,0.0 120.688329,22.742227,0.0 120.688308,22.744654,0.0 120.68863,22.747323,0.0 120.688949,22.748089,0.0 120.689452,22.748596,0.0 120.689933,22.749007,0.0</coordinates></LinearRing></outerBoundaryIs></Polygon><styleUrl>#spolygon-map</styleUrl></Placemark><Placemark><Polygon><outerBoundaryIs><LinearRing><coordinates>120.670221,22.775347,0.0 120.668358,22.776601,0.0 120.665248,22.779724,0.0 120.663307,22.782411,0.0 120.662415,22.783091,0.0 120.658769,22.784169,0.0 120.65653,22.784622,0.0 120.652045,22.783249,0.0 120.64806,22.782667,0.0 120.646089,22.783649,0.0 120.644813,22.784827,0.0 120.642291,22.78441,0.0 120.637443,22.782794,0.0 120.63448,22.782311,0.0 120.633358,22.782735,0.0 120.633564,22.783847,0.0 120.634029,22.784699,0.0 120.634288,22.785386,0.0 120.633641,22.785971,0.0 120.631236,22.785742,0.0 120.629445,22.785952,0.0 120.629357,22.785882,0.0 120.629325,22.785731,0.0 120.629334,22.785607,0.0 120.629376,22.785501,0.0 120.629433,22.785397,0.0 120.629542,22.785214,0.0 120.629583,22.785095,0.0 120.62969,22.784876,0.0 120.629791,22.784633,0.0 120.629844,22.784493,0.0 120.629935,22.784301,0.0 120.63001,22.784152,0.0 120.630101,22.783947,0.0 120.630211,22.783721,0.0 120.630269,22.7836,0.0 120.630388,22.783376,0.0 120.630461,22.783225,0.0 120.630516,22.783099,0.0 120.630631,22.782855,0.0 120.630712,22.782691,0.0 120.630826,22.78242,0.0 120.63087,22.782269,0.0 120.630871,22.782115,0.0 120.63078,22.781993,0.0 120.630658,22.781898,0.0 120.63054,22.78183,0.0 120.63041,22.781773,0.0 120.630286,22.781723,0.0 120.630149,22.781692,0.0 120.62988,22.781664,0.0 120.629733,22.781636,0.0 120.629792,22.781539,0.0 120.629935,22.781436,0.0 120.630052,22.781364,0.0 120.630154,22.781281,0.0 120.630263,22.781188,0.0 120.63039,22.781053,0.0 120.630447,22.780902,0.0 120.630455,22.780789,0.0 120.630439,22.780627,0.0 120.630392,22.780426,0.0 120.630348,22.780313,0.0 120.630296,22.780166,0.0 120.63021,22.779919,0.0 120.630134,22.77975,0.0 120.630074,22.779617,0.0 120.630002,22.779445,0.0 120.629938,22.779307,0.0 120.629904,22.779196,0.0 120.629842,22.779085,0.0 120.629728,22.778837,0.0 120.629622,22.778606,0.0 120.629556,22.778441,0.0 120.62948,22.77829,0.0 120.629416,22.778123,0.0 120.62937,22.778003,0.0 120.629294,22.77782,0.0 120.62922,22.777637,0.0 120.62916,22.777492,0.0 120.629076,22.777264,0.0 120.629014,22.777126,0.0 120.628934,22.776907,0.0 120.628833,22.77667,0.0 120.628786,22.776557,0.0 120.628748,22.776414,0.0 120.628821,22.776288,0.0 120.62893,22.776209,0.0 120.629071,22.776115,0.0 120.629272,22.775993,0.0 120.629433,22.775915,0.0 120.629614,22.775865,0.0 120.629799,22.775823,0.0 120.62995,22.775798,0.0 120.630141,22.775758,0.0 120.630406,22.775705,0.0 120.630543,22.775671,0.0 120.630758,22.775636,0.0 120.630929,22.77567,0.0 120.631082,22.77574,0.0 120.631244,22.775808,0.0 120.63141,22.775876,0.0 120.631543,22.775929,0.0 120.63168,22.775981,0.0 120.631802,22.776092,0.0 120.631872,22.7762,0.0 120.631984,22.776275,0.0 120.632173,22.776264,0.0 120.63238,22.776253,0.0 120.632527,22.776233,0.0 120.63272,22.776202,0.0 120.632955,22.776228,0.0 120.633056,22.776323,0.0 120.633091,22.776402,0.0 120.63316,22.776246,0.0 120.633188,22.776122,0.0 120.633212,22.775996,0.0 120.63321,22.775865,0.0 120.633201,22.775745,0.0 120.633269,22.775671,0.0 120.633346,22.775608,0.0 120.633473,22.775556,0.0 120.633593,22.775507,0.0 120.633827,22.775385,0.0 120.633963,22.775304,0.0 120.634176,22.775208,0.0 120.634425,22.775116,0.0 120.634586,22.775028,0.0 120.634776,22.774911,0.0 120.634907,22.774798,0.0 120.635083,22.774632,0.0 120.635347,22.774472,0.0 120.635441,22.774405,0.0 120.635575,22.774292,0.0 120.635671,22.7742,0.0 120.635894,22.773963,0.0 120.635992,22.773866,0.0 120.636199,22.77365,0.0 120.636574,22.773253,0.0 120.636691,22.773136,0.0 120.636919,22.772879,0.0 120.637145,22.772623,0.0 120.637234,22.772512,0.0 120.637429,22.772312,0.0 120.637683,22.772023,0.0 120.637835,22.771852,0.0 120.637882,22.771746,0.0 120.637789,22.77145,0.0 120.637671,22.771095,0.0 120.637603,22.770966,0.0 120.637466,22.770914,0.0 120.637503,22.770808,0.0 120.63763,22.770757,0.0 120.63778,22.7707,0.0 120.637926,22.770642,0.0 120.638067,22.770586,0.0 120.638172,22.770543,0.0 120.638297,22.770528,0.0 120.638428,22.770571,0.0 120.63859,22.770619,0.0 120.638709,22.770666,0.0 120.639012,22.770782,0.0 120.639167,22.770848,0.0 120.639321,22.770889,0.0 120.639495,22.770926,0.0 120.639628,22.770967,0.0 120.639794,22.770983,0.0 120.639948,22.77101,0.0 120.64019,22.771056,0.0 120.640308,22.771131,0.0 120.640417,22.771214,0.0 120.640499,22.7713,0.0 120.640603,22.771407,0.0 120.640748,22.771457,0.0 120.640871,22.771414,0.0 120.64109,22.771363,0.0 120.641234,22.771325,0.0 120.641388,22.771282,0.0 120.641544,22.771258,0.0 120.641685,22.771215,0.0 120.641837,22.7712,0.0 120.641989,22.771171,0.0 120.642204,22.771126,0.0 120.642344,22.77109,0.0 120.642477,22.771061,0.0 120.642639,22.771034,0.0 120.642782,22.771003,0.0 120.643071,22.770974,0.0 120.643242,22.77097,0.0 120.643371,22.770939,0.0 120.643498,22.770907,0.0 120.643705,22.770845,0.0 120.643884,22.770764,0.0 120.644027,22.770692,0.0 120.64427,22.770528,0.0 120.644481,22.77037,0.0 120.644608,22.770269,0.0 120.644796,22.770086,0.0 120.644917,22.769956,0.0 120.645044,22.769811,0.0 120.64513,22.769712,0.0 120.645231,22.769595,0.0 120.64526,22.769496,0.0 120.645254,22.769317,0.0 120.645288,22.769178,0.0 120.645378,22.769017,0.0 120.645549,22.768837,0.0 120.645615,22.768702,0.0 120.645683,22.768585,0.0 120.645807,22.768409,0.0 120.645874,22.768301,0.0 120.645922,22.768104,0.0 120.645823,22.767948,0.0 120.64595,22.767671,0.0 120.646842,22.765742,0.0 120.647514,22.764938,0.0 120.648185,22.764538,0.0 120.649253,22.764287,0.0 120.650194,22.764558,0.0 120.650846,22.764577,0.0 120.652041,22.764142,0.0 120.653003,22.763239,0.0 120.653385,22.762668,0.0 120.653314,22.762198,0.0 120.65314,22.761787,0.0 120.652893,22.761444,0.0 120.652882,22.761224,0.0 120.653009,22.761006,0.0 120.653534,22.76084,0.0 120.654421,22.760975,0.0 120.65556,22.761413,0.0 120.65648,22.761682,0.0 120.657949,22.761804,0.0 120.661261,22.762064,0.0 120.66311,22.762181,0.0 120.664593,22.762681,0.0 120.66573,22.762812,0.0 120.667264,22.762147,0.0 120.668286,22.761609,0.0 120.669645,22.761041,0.0 120.670731,22.760942,0.0 120.670706,22.76273,0.0 120.670237,22.764738,0.0 120.670346,22.76768,0.0 120.669969,22.770698,0.0 120.670027,22.771899,0.0 120.670449,22.772918,0.0 120.670587,22.774524,0.0 120.670221,22.775347,0.0</coordinates></LinearRing></outerBoundaryIs></Polygon><styleUrl>#spolygon-map</styleUrl></Placemark><Placemark><Polygon><outerBoundaryIs><LinearRing><coordinates>120.702603,22.879314,0.0 120.702189,22.878147,0.0 120.701835,22.877113,0.0 120.700945,22.876041,0.0 120.70022,22.875493,0.0 120.6993,22.874787,0.0 120.698755,22.874174,0.0 120.697895,22.873064,0.0 120.697075,22.872301,0.0 120.695509,22.871212,0.0 120.693709,22.869762,0.0 120.691976,22.868454,0.0 120.691947,22.867659,0.0 120.691017,22.865562,0.0 120.690539,22.864875,0.0 120.689581,22.864728,0.0 120.687227,22.864638,0.0 120.685776,22.864427,0.0 120.684354,22.863636,0.0 120.682842,22.863286,0.0 120.68089,22.863072,0.0 120.679185,22.862953,0.0 120.678848,22.862704,0.0 120.678629,22.861616,0.0 120.678101,22.859492,0.0 120.677005,22.857535,0.0 120.676812,22.857169,0.0 120.678072,22.855483,0.0 120.678744,22.852673,0.0 120.678893,22.845609,0.0 120.679326,22.841673,0.0 120.679222,22.836773,0.0 120.678068,22.835226,0.0 120.677698,22.834341,0.0 120.678128,22.832176,0.0 120.677876,22.828898,0.0 120.675249,22.825587,0.0 120.675028,22.825194,0.0 120.675121,22.824544,0.0 120.67731,22.818843,0.0 120.678383,22.813973,0.0 120.678526,22.809521,0.0 120.675331,22.80285,0.0 120.674532,22.801193,0.0 120.674491,22.799141,0.0 120.674377,22.79854,0.0 120.674339,22.796305,0.0 120.674119,22.794945,0.0 120.67424,22.794684,0.0 120.674555,22.794483,0.0 120.676315,22.793512,0.0 120.676751,22.793059,0.0 120.677139,22.792129,0.0 120.678355,22.789269,0.0 120.679618,22.788366,0.0 120.681009,22.787771,0.0 120.682838,22.786916,0.0 120.685768,22.787274,0.0 120.693459,22.788224,0.0 120.702053,22.789627,0.0 120.702464,22.790032,0.0 120.707851,22.797165,0.0 120.711263,22.799819,0.0 120.713114,22.802627,0.0 120.715232,22.804647,0.0 120.71569,22.804817,0.0 120.716558,22.804798,0.0 120.718498,22.804524,0.0 120.719086,22.804574,0.0 120.719661,22.804799,0.0 120.720113,22.805393,0.0 120.720576,22.806808,0.0 120.721435,22.807414,0.0 120.722335,22.808597,0.0 120.722791,22.809112,0.0 120.724211,22.809108,0.0 120.725387,22.809345,0.0 120.726896,22.809785,0.0 120.728486,22.810788,0.0 120.728926,22.811644,0.0 120.728856,22.813033,0.0 120.72849,22.816672,0.0 120.72846,22.817159,0.0 120.728753,22.81751,0.0 120.730535,22.819694,0.0 120.731332,22.821255,0.0 120.731416,22.82366,0.0 120.73166,22.82429,0.0 120.732819,22.82422,0.0 120.733663,22.823989,0.0 120.734879,22.823616,0.0 120.736656,22.823271,0.0 120.739078,22.8223,0.0 120.739455,22.822061,0.0 120.740321,22.822327,0.0 120.742362,22.822964,0.0 120.743427,22.82328,0.0 120.744444,22.82376,0.0 120.745464,22.824568,0.0 120.746244,22.824985,0.0 120.747047,22.825293,0.0 120.750048,22.826237,0.0 120.751966,22.826818,0.0 120.753221,22.827409,0.0 120.754318,22.828266,0.0 120.754957,22.828793,0.0 120.756147,22.829084,0.0 120.756964,22.829465,0.0 120.757732,22.830145,0.0 120.758137,22.830582,0.0 120.758185,22.830343,0.0 120.758462,22.830399,0.0 120.758795,22.830014,0.0 120.758946,22.829829,0.0 120.759175,22.829707,0.0 120.759579,22.829636,0.0 120.76014,22.829648,0.0 120.760496,22.829603,0.0 120.761021,22.82957,0.0 120.761483,22.82958,0.0 120.761929,22.829642,0.0 120.762302,22.829764,0.0 120.762598,22.829988,0.0 120.762772,22.830325,0.0 120.762862,22.830742,0.0 120.762979,22.831025,0.0 120.763249,22.831718,0.0 120.763321,22.83201,0.0 120.76342,22.832148,0.0 120.763511,22.832103,0.0 120.763722,22.831979,0.0 120.76397,22.831896,0.0 120.764326,22.831831,0.0 120.764712,22.831791,0.0 120.765104,22.831719,0.0 120.765674,22.83174,0.0 120.766036,22.831752,0.0 120.766609,22.831818,0.0 120.767109,22.831898,0.0 120.767881,22.832134,0.0 120.768492,22.832579,0.0 120.769125,22.833039,0.0 120.769402,22.833256,0.0 120.770345,22.834077,0.0 120.770911,22.834457,0.0 120.771321,22.834704,0.0 120.771945,22.835021,0.0 120.772572,22.835351,0.0 120.773108,22.835754,0.0 120.773562,22.836294,0.0 120.773695,22.836612,0.0 120.77391,22.837356,0.0 120.774009,22.837672,0.0 120.774181,22.837954,0.0 120.773905,22.838451,0.0 120.773455,22.839599,0.0 120.77319,22.840585,0.0 120.772771,22.841172,0.0 120.771844,22.841656,0.0 120.771399,22.842059,0.0 120.771,22.842885,0.0 120.770462,22.843835,0.0 120.769914,22.844554,0.0 120.768869,22.845081,0.0 120.76803,22.845784,0.0 120.767114,22.846998,0.0 120.766478,22.847845,0.0 120.766327,22.848197,0.0 120.765923,22.848703,0.0 120.764883,22.848791,0.0 120.764158,22.848993,0.0 120.763979,22.849402,0.0 120.763966,22.849935,0.0 120.763885,22.850736,0.0 120.763758,22.851729,0.0 120.763464,22.852853,0.0 120.763146,22.854042,0.0 120.762846,22.855047,0.0 120.762364,22.856197,0.0 120.761896,22.857061,0.0 120.7613,22.857801,0.0 120.760739,22.858575,0.0 120.760141,22.859158,0.0 120.759799,22.859682,0.0 120.759054,22.86057,0.0 120.758479,22.861147,0.0 120.758085,22.861431,0.0 120.757004,22.861937,0.0 120.756293,22.862553,0.0 120.755728,22.863367,0.0 120.75529,22.864445,0.0 120.754626,22.864885,0.0 120.753652,22.86524,0.0 120.752489,22.864764,0.0 120.75191,22.864729,0.0 120.750031,22.865304,0.0 120.748971,22.86591,0.0 120.747963,22.866836,0.0 120.746584,22.867784,0.0 120.746417,22.868441,0.0 120.746195,22.869434,0.0 120.745451,22.870135,0.0 120.744182,22.871183,0.0 120.743479,22.872047,0.0 120.74305,22.873087,0.0 120.742418,22.873736,0.0 120.74153,22.874023,0.0 120.739885,22.874183,0.0 120.737896,22.874279,0.0 120.736639,22.874532,0.0 120.735378,22.874896,0.0 120.733992,22.875169,0.0 120.732839,22.875492,0.0 120.730938,22.876257,0.0 120.729355,22.877295,0.0 120.728128,22.878171,0.0 120.727332,22.87875,0.0 120.726425,22.879543,0.0 120.725658,22.8804,0.0 120.725018,22.880834,0.0 120.72426,22.880953,0.0 120.722092,22.881303,0.0 120.7212,22.881722,0.0 120.720357,22.88198,0.0 120.719427,22.881741,0.0 120.71712,22.880969,0.0 120.715869,22.880834,0.0 120.713495,22.880834,0.0 120.711306,22.881155,0.0 120.71077,22.881166,0.0 120.70978,22.881103,0.0 120.708944,22.881433,0.0 120.708003,22.881615,0.0 120.707643,22.88156,0.0 120.706458,22.881273,0.0 120.705163,22.880927,0.0 120.70386,22.88028,0.0 120.702846,22.879587,0.0 120.702603,22.879314,0.0</coordinates></LinearRing></outerBoundaryIs></Polygon><styleUrl>#spolygon-map</styleUrl></Placemark><Placemark><Polygon><outerBoundaryIs><LinearRing><coordinates>120.6575,22.809906,0.0 120.65529,22.810604,0.0 120.645725,22.811617,0.0 120.640777,22.810671,0.0 120.640113,22.81048,0.0 120.639234,22.810017,0.0 120.638814,22.81008,0.0 120.637901,22.810543,0.0 120.636627,22.811045,0.0 120.636228,22.810936,0.0 120.635624,22.810497,0.0 120.633104,22.808491,0.0 120.632923,22.808242,0.0 120.632917,22.808032,0.0 120.632964,22.807702,0.0 120.632899,22.807492,0.0 120.632701,22.807284,0.0 120.632325,22.807134,0.0 120.632113,22.806815,0.0 120.631606,22.805782,0.0 120.631415,22.805093,0.0 120.630788,22.804505,0.0 120.630087,22.803817,0.0 120.630084,22.803623,0.0 120.6301,22.80346,0.0 120.630103,22.803311,0.0 120.630124,22.803011,0.0 120.630145,22.802736,0.0 120.630154,22.802566,0.0 120.630159,22.802372,0.0 120.630175,22.802212,0.0 120.63018,22.802011,0.0 120.630194,22.801885,0.0 120.630215,22.80163,0.0 120.630234,22.801347,0.0 120.630255,22.801009,0.0 120.630244,22.800853,0.0 120.63024,22.800582,0.0 120.630234,22.800293,0.0 120.630226,22.800139,0.0 120.630213,22.799866,0.0 120.6302,22.799582,0.0 120.630174,22.799356,0.0 120.630163,22.79916,0.0 120.63013,22.798875,0.0 120.63011,22.798735,0.0 120.630104,22.798559,0.0 120.630084,22.798398,0.0 120.630064,22.798146,0.0 120.630044,22.797868,0.0 120.630035,22.797588,0.0 120.630027,22.797441,0.0 120.630016,22.797179,0.0 120.630014,22.797005,0.0 120.630005,22.796834,0.0 120.629995,22.796567,0.0 120.629982,22.796409,0.0 120.629974,22.796208,0.0 120.629959,22.796059,0.0 120.629955,22.795881,0.0 120.629948,22.795714,0.0 120.629938,22.795515,0.0 120.629929,22.795122,0.0 120.629908,22.794856,0.0 120.629902,22.794698,0.0 120.629888,22.79444,0.0 120.629883,22.794287,0.0 120.629866,22.794104,0.0 120.629878,22.793957,0.0 120.629997,22.793894,0.0 120.630144,22.793856,0.0 120.630291,22.793836,0.0 120.630319,22.793683,0.0 120.630314,22.793455,0.0 120.630338,22.793353,0.0 120.630276,22.793249,0.0 120.630256,22.793111,0.0 120.630222,22.792955,0.0 120.63019,22.792824,0.0 120.630148,22.792718,0.0 120.63004,22.792589,0.0 120.629912,22.792449,0.0 120.629805,22.792397,0.0 120.629594,22.792333,0.0 120.629421,22.792281,0.0 120.629287,22.792229,0.0 120.629193,22.792068,0.0 120.629259,22.79194,0.0 120.629364,22.791802,0.0 120.629495,22.791762,0.0 120.629638,22.791764,0.0 120.629751,22.791742,0.0 120.629815,22.791638,0.0 120.629701,22.791584,0.0 120.629767,22.791491,0.0 120.629868,22.79144,0.0 120.629967,22.791372,0.0 120.630056,22.791246,0.0 120.630044,22.791068,0.0 120.630028,22.790955,0.0 120.630013,22.79077,0.0 120.630015,22.790623,0.0 120.630007,22.790456,0.0 120.629994,22.790137,0.0 120.629985,22.790013,0.0 120.629973,22.789781,0.0 120.629965,22.789645,0.0 120.629954,22.789525,0.0 120.629942,22.78937,0.0 120.629928,22.789207,0.0 120.62991,22.789067,0.0 120.629883,22.788902,0.0 120.629867,22.788782,0.0 120.629823,22.788523,0.0 120.629799,22.788368,0.0 120.635165,22.788589,0.0 120.635279,22.788515,0.0 120.635627,22.788238,0.0 120.63622,22.787968,0.0 120.636813,22.787746,0.0 120.637312,22.787639,0.0 120.638708,22.787529,0.0 120.639675,22.78782,0.0 120.641089,22.788754,0.0 120.6449,22.792158,0.0 120.64957,22.796052,0.0 120.651332,22.797209,0.0 120.651861,22.797664,0.0 120.652098,22.799209,0.0 120.652251,22.802013,0.0 120.653728,22.805213,0.0 120.655737,22.808318,0.0 120.6575,22.809906,0.0</coordinates></LinearRing></outerBoundaryIs></Polygon><styleUrl>#spolygon-map</styleUrl></Placemark><Placemark><Polygon><outerBoundaryIs><LinearRing><coordinates>120.676732,22.857267,0.0 120.676242,22.857093,0.0 120.674789,22.856704,0.0 120.672611,22.856395,0.0 120.671296,22.856462,0.0 120.670284,22.856733,0.0 120.669664,22.857039,0.0 120.669093,22.857731,0.0 120.66857,22.858716,0.0 120.667598,22.858884,0.0 120.666549,22.858913,0.0 120.665548,22.858688,0.0 120.664294,22.858809,0.0 120.662998,22.859168,0.0 120.661855,22.859402,0.0 120.661299,22.859562,0.0 120.660016,22.858753,0.0 120.658706,22.857686,0.0 120.656575,22.855056,0.0 120.656047,22.854044,0.0 120.65588,22.853138,0.0 120.65574,22.849446,0.0 120.654806,22.846902,0.0 120.654189,22.846047,0.0 120.653441,22.845154,0.0 120.653065,22.84467,0.0 120.652887,22.843979,0.0 120.652546,22.842005,0.0 120.651911,22.841041,0.0 120.650562,22.839892,0.0 120.649849,22.838829,0.0 120.649718,22.837921,0.0 120.649574,22.836252,0.0 120.648928,22.835458,0.0 120.647887,22.83463,0.0 120.647816,22.834298,0.0 120.647875,22.83193,0.0 120.647614,22.831234,0.0 120.646638,22.830918,0.0 120.644347,22.830931,0.0 120.640968,22.83,0.0 120.640453,22.828849,0.0 120.640055,22.827142,0.0 120.639343,22.82667,0.0 120.639131,22.826431,0.0 120.638723,22.825504,0.0 120.638511,22.825284,0.0 120.638154,22.825157,0.0 120.637499,22.825156,0.0 120.637027,22.825322,0.0 120.636562,22.82537,0.0 120.636162,22.825577,0.0 120.635785,22.825816,0.0 120.635246,22.825936,0.0 120.634989,22.826229,0.0 120.63438,22.826095,0.0 120.633797,22.825913,0.0 120.63338,22.826095,0.0 120.633141,22.826259,0.0 120.632997,22.826161,0.0 120.632927,22.826139,0.0 120.632798,22.826242,0.0 120.632581,22.826339,0.0 120.632223,22.826485,0.0 120.631936,22.826608,0.0 120.631854,22.826613,0.0 120.631609,22.826465,0.0 120.63148,22.826395,0.0 120.631351,22.826395,0.0 120.63114,22.826509,0.0 120.630939,22.826574,0.0 120.630827,22.826599,0.0 120.630625,22.826547,0.0 120.630436,22.826384,0.0 120.630264,22.826257,0.0 120.630185,22.826121,0.0 120.630235,22.825956,0.0 120.630327,22.825826,0.0 120.630358,22.825717,0.0 120.630266,22.825706,0.0 120.630137,22.825739,0.0 120.630052,22.825649,0.0 120.629905,22.825551,0.0 120.629863,22.825457,0.0 120.629746,22.825409,0.0 120.629563,22.825417,0.0 120.629335,22.825408,0.0 120.629277,22.825238,0.0 120.62927,22.82511,0.0 120.629289,22.824963,0.0 120.629235,22.824694,0.0 120.629156,22.82452,0.0 120.629062,22.824328,0.0 120.628859,22.824172,0.0 120.628628,22.824045,0.0 120.628442,22.823929,0.0 120.628271,22.823832,0.0 120.628135,22.823741,0.0 120.628039,22.823612,0.0 120.628032,22.823486,0.0 120.628053,22.823328,0.0 120.628073,22.823217,0.0 120.628097,22.823025,0.0 120.628084,22.822874,0.0 120.628021,22.822748,0.0 120.627956,22.822644,0.0 120.627896,22.822506,0.0 120.627885,22.822323,0.0 120.627899,22.82214,0.0 120.627907,22.821971,0.0 120.627918,22.821846,0.0 120.627927,22.821684,0.0 120.627941,22.82153,0.0 120.627953,22.821418,0.0 120.627955,22.821309,0.0 120.627956,22.821181,0.0 120.627949,22.821059,0.0 120.627923,22.820939,0.0 120.627845,22.82076,0.0 120.627777,22.820652,0.0 120.627699,22.820498,0.0 120.627646,22.820342,0.0 120.627505,22.820091,0.0 120.627413,22.820008,0.0 120.627253,22.819933,0.0 120.627123,22.819824,0.0 120.627036,22.819727,0.0 120.62707,22.819594,0.0 120.627127,22.81951,0.0 120.627223,22.819449,0.0 120.627356,22.819411,0.0 120.627493,22.819405,0.0 120.627653,22.819408,0.0 120.627758,22.819439,0.0 120.627895,22.819471,0.0 120.627965,22.819483,0.0 120.628129,22.819474,0.0 120.62827,22.819463,0.0 120.628419,22.819479,0.0 120.628546,22.819507,0.0 120.628627,22.819538,0.0 120.628768,22.819519,0.0 120.628881,22.819451,0.0 120.629049,22.81937,0.0 120.6294,22.81926,0.0 120.629383,22.819129,0.0 120.629401,22.819019,0.0 120.629509,22.818938,0.0 120.629651,22.818891,0.0 120.629844,22.818812,0.0 120.629957,22.818742,0.0 120.63008,22.818646,0.0 120.630139,22.818551,0.0 120.630151,22.818443,0.0 120.63014,22.818271,0.0 120.630192,22.818122,0.0 120.630341,22.817955,0.0 120.630424,22.81787,0.0 120.63051,22.817791,0.0 120.630602,22.817685,0.0 120.63078,22.817575,0.0 120.630962,22.817494,0.0 120.631085,22.81742,0.0 120.631274,22.81735,0.0 120.631411,22.817312,0.0 120.6316,22.817249,0.0 120.631771,22.817209,0.0 120.63196,22.817142,0.0 120.63216,22.81707,0.0 120.632392,22.816989,0.0 120.632689,22.816884,0.0 120.632851,22.816823,0.0 120.633063,22.816695,0.0 120.633193,22.81667,0.0 120.633425,22.816626,0.0 120.633569,22.816577,0.0 120.633854,22.816476,0.0 120.634127,22.816372,0.0 120.634264,22.816294,0.0 120.634263,22.816169,0.0 120.634196,22.816077,0.0 120.634124,22.815995,0.0 120.634055,22.815918,0.0 120.634152,22.815844,0.0 120.634324,22.815788,0.0 120.634494,22.81573,0.0 120.634682,22.815638,0.0 120.634822,22.815579,0.0 120.634994,22.815503,0.0 120.635175,22.815424,0.0 120.635315,22.815352,0.0 120.635479,22.815287,0.0 120.63556,22.815172,0.0 120.635563,22.815046,0.0 120.635554,22.814906,0.0 120.635538,22.814786,0.0 120.635522,22.814669,0.0 120.6355,22.814511,0.0 120.635394,22.81447,0.0 120.63519,22.814458,0.0 120.635059,22.814435,0.0 120.634823,22.814344,0.0 120.634666,22.814263,0.0 120.634517,22.814156,0.0 120.634364,22.814041,0.0 120.634247,22.813955,0.0 120.634107,22.81386,0.0 120.633957,22.813758,0.0 120.633683,22.813576,0.0 120.633554,22.813486,0.0 120.633401,22.813379,0.0 120.633273,22.8133,0.0 120.633131,22.813225,0.0 120.632971,22.813112,0.0 120.632875,22.813053,0.0 120.632717,22.812931,0.0 120.632603,22.812824,0.0 120.632423,22.812718,0.0 120.632269,22.812647,0.0 120.632076,22.812563,0.0 120.631952,22.812495,0.0 120.631683,22.812364,0.0 120.631553,22.812314,0.0 120.631353,22.81223,0.0 120.631228,22.812198,0.0 120.631048,22.812195,0.0 120.630882,22.812197,0.0 120.630563,22.812208,0.0 120.630248,22.812218,0.0 120.630084,22.812198,0.0 120.629936,22.812118,0.0 120.629781,22.812021,0.0 120.629537,22.811869,0.0 120.629306,22.811728,0.0 120.629193,22.811654,0.0 120.62913,22.811525,0.0 120.629144,22.811405,0.0 120.629169,22.811225,0.0 120.62919,22.811067,0.0 120.62921,22.810936,0.0 120.629238,22.810751,0.0 120.629252,22.810606,0.0 120.629284,22.810371,0.0 120.629316,22.810107,0.0 120.629343,22.809949,0.0 120.629369,22.809733,0.0 120.629385,22.809591,0.0 120.629412,22.809324,0.0 120.629426,22.8092,0.0 120.629458,22.808974,0.0 120.629472,22.808857,0.0 120.629502,22.808672,0.0 120.629516,22.808527,0.0 120.62955,22.808266,0.0 120.629582,22.808015,0.0 120.629594,22.807898,0.0 120.629626,22.807602,0.0 120.62967,22.807277,0.0 120.629688,22.807097,0.0 120.629718,22.806896,0.0 120.629752,22.806614,0.0 120.629764,22.806485,0.0 120.629794,22.806268,0.0 120.62981,22.806124,0.0 120.629842,22.805853,0.0 120.629863,22.805666,0.0 120.62989,22.805442,0.0 120.629913,22.805232,0.0 120.629939,22.805006,0.0 120.629971,22.804763,0.0 120.629999,22.804514,0.0 120.630031,22.804237,0.0 120.630049,22.804072,0.0 120.630068,22.803855,0.0 120.630087,22.803817,0.0 120.630788,22.804505,0.0 120.631415,22.805093,0.0 120.631606,22.805782,0.0 120.632113,22.806815,0.0 120.632325,22.807134,0.0 120.632701,22.807284,0.0 120.632899,22.807492,0.0 120.632964,22.807702,0.0 120.632917,22.808032,0.0 120.632923,22.808242,0.0 120.633104,22.808491,0.0 120.635624,22.810497,0.0 120.636228,22.810936,0.0 120.636627,22.811045,0.0 120.637901,22.810543,0.0 120.638814,22.81008,0.0 120.639234,22.810017,0.0 120.640113,22.81048,0.0 120.640777,22.810671,0.0 120.645725,22.811617,0.0 120.65529,22.810604,0.0 120.6575,22.809906,0.0 120.662053,22.807692,0.0 120.668959,22.804853,0.0 120.672133,22.803078,0.0 120.674515,22.801471,0.0 120.677077,22.805165,0.0 120.678638,22.811316,0.0 120.677419,22.817513,0.0 120.67688,22.82135,0.0 120.675031,22.824927,0.0 120.675104,22.825408,0.0 120.677606,22.828484,0.0 120.678028,22.829372,0.0 120.677859,22.833503,0.0 120.677861,22.835052,0.0 120.678812,22.835914,0.0 120.678958,22.840197,0.0 120.679375,22.843592,0.0 120.678383,22.848243,0.0 120.678554,22.854217,0.0 120.67742,22.856542,0.0 120.676732,22.857267,0.0</coordinates></LinearRing></outerBoundaryIs></Polygon><styleUrl>#spolygon-map</styleUrl></Placemark><Placemark><Polygon><outerBoundaryIs><LinearRing><coordinates>120.649099,22.876967,0.0 120.648518,22.877085,0.0 120.648237,22.87735,0.0 120.648093,22.877545,0.0 120.647865,22.87816,0.0 120.647723,22.879054,0.0 120.647519,22.879634,0.0 120.647203,22.879717,0.0 120.646564,22.879846,0.0 120.646069,22.879981,0.0 120.645849,22.879989,0.0 120.645686,22.879921,0.0 120.64561,22.879792,0.0 120.645497,22.879546,0.0 120.645365,22.879178,0.0 120.645236,22.878863,0.0 120.644991,22.878461,0.0 120.644768,22.878275,0.0 120.644529,22.878031,0.0 120.644504,22.877724,0.0 120.644445,22.877281,0.0 120.644419,22.876913,0.0 120.644447,22.876627,0.0 120.644504,22.876408,0.0 120.644607,22.876311,0.0 120.644688,22.876153,0.0 120.644735,22.87583,0.0 120.644773,22.875318,0.0 120.644909,22.874718,0.0 120.644994,22.874338,0.0 120.645035,22.873341,0.0 120.647808,22.873218,0.0 120.647695,22.873019,0.0 120.647527,22.872719,0.0 120.647339,22.872391,0.0 120.64715,22.872054,0.0 120.646991,22.871771,0.0 120.646793,22.871423,0.0 120.646631,22.871136,0.0 120.646464,22.870833,0.0 120.646243,22.87044,0.0 120.645956,22.869943,0.0 120.645859,22.869787,0.0 120.645756,22.86961,0.0 120.645673,22.869495,0.0 120.645521,22.869276,0.0 120.645376,22.869061,0.0 120.645297,22.868912,0.0 120.645225,22.868708,0.0 120.645189,22.868577,0.0 120.645111,22.868243,0.0 120.645076,22.868116,0.0 120.644993,22.867942,0.0 120.644936,22.8678,0.0 120.644812,22.867626,0.0 120.644677,22.86749,0.0 120.644606,22.867388,0.0 120.644515,22.867201,0.0 120.644431,22.867043,0.0 120.644377,22.866833,0.0 120.644337,22.866695,0.0 120.644307,22.866561,0.0 120.644267,22.866417,0.0 120.644218,22.86629,0.0 120.644135,22.866159,0.0 120.644027,22.866071,0.0 120.643824,22.86587,0.0 120.643762,22.865772,0.0 120.643705,22.865644,0.0 120.643648,22.86551,0.0 120.6436,22.865318,0.0 120.643559,22.865167,0.0 120.643484,22.864975,0.0 120.643346,22.86476,0.0 120.643203,22.864565,0.0 120.643149,22.864448,0.0 120.643109,22.864306,0.0 120.643104,22.864175,0.0 120.643102,22.864035,0.0 120.643113,22.863777,0.0 120.643132,22.863608,0.0 120.643152,22.863425,0.0 120.643163,22.863166,0.0 120.643121,22.862895,0.0 120.643054,22.862709,0.0 120.642992,22.862556,0.0 120.642911,22.862418,0.0 120.642778,22.862277,0.0 120.642654,22.862146,0.0 120.642508,22.86199,0.0 120.642312,22.861759,0.0 120.642201,22.861646,0.0 120.642023,22.861454,0.0 120.641848,22.861262,0.0 120.641648,22.861035,0.0 120.641558,22.860936,0.0 120.641456,22.860798,0.0 120.641321,22.860576,0.0 120.641133,22.860273,0.0 120.64105,22.860102,0.0 120.640977,22.859964,0.0 120.640937,22.859846,0.0 120.64091,22.859709,0.0 120.640897,22.859521,0.0 120.640892,22.859397,0.0 120.640895,22.859286,0.0 120.640876,22.859176,0.0 120.640857,22.859036,0.0 120.640795,22.858864,0.0 120.640682,22.858721,0.0 120.640609,22.858595,0.0 120.640534,22.85843,0.0 120.640472,22.858251,0.0 120.640423,22.858123,0.0 120.640275,22.857881,0.0 120.64018,22.857713,0.0 120.640124,22.857587,0.0 120.64008,22.85746,0.0 120.640062,22.857309,0.0 120.640027,22.857146,0.0 120.640019,22.857009,0.0 120.640001,22.85686,0.0 120.639979,22.85669,0.0 120.639964,22.8565,0.0 120.639953,22.856358,0.0 120.639972,22.856239,0.0 120.640051,22.856146,0.0 120.640218,22.855998,0.0 120.640307,22.855923,0.0 120.640484,22.855759,0.0 120.640544,22.855587,0.0 120.64052,22.855391,0.0 120.640477,22.855258,0.0 120.64045,22.85512,0.0 120.640456,22.855011,0.0 120.640516,22.854894,0.0 120.640554,22.854793,0.0 120.640546,22.854673,0.0 120.640457,22.854492,0.0 120.640365,22.854445,0.0 120.640243,22.854397,0.0 120.640116,22.854191,0.0 120.640033,22.853997,0.0 120.63999,22.853877,0.0 120.639955,22.853746,0.0 120.639923,22.853604,0.0 120.639899,22.853441,0.0 120.639891,22.853179,0.0 120.6399,22.853021,0.0 120.639922,22.852838,0.0 120.640004,22.852516,0.0 120.640053,22.852421,0.0 120.640086,22.852322,0.0 120.640094,22.852182,0.0 120.64007,22.852082,0.0 120.639943,22.85203,0.0 120.639794,22.852089,0.0 120.639625,22.852158,0.0 120.639474,22.852189,0.0 120.639362,22.852241,0.0 120.639202,22.852351,0.0 120.639034,22.852333,0.0 120.638915,22.85226,0.0 120.638793,22.852143,0.0 120.638692,22.851993,0.0 120.638611,22.851896,0.0 120.638476,22.851803,0.0 120.638308,22.851751,0.0 120.638143,22.85164,0.0 120.637978,22.851511,0.0 120.637821,22.851382,0.0 120.63765,22.851257,0.0 120.637491,22.85116,0.0 120.637326,22.851078,0.0 120.637142,22.850979,0.0 120.637012,22.850879,0.0 120.636928,22.850782,0.0 120.636723,22.850569,0.0 120.636612,22.850463,0.0 120.636442,22.850363,0.0 120.636271,22.850292,0.0 120.635963,22.850125,0.0 120.635912,22.85,0.0 120.635931,22.849876,0.0 120.635853,22.849761,0.0 120.63565,22.849571,0.0 120.635501,22.849415,0.0 120.635401,22.849272,0.0 120.635281,22.84915,0.0 120.635171,22.849041,0.0 120.63507,22.84894,0.0 120.6349,22.848824,0.0 120.634743,22.848758,0.0 120.634602,22.848704,0.0 120.634456,22.848685,0.0 120.634326,22.848674,0.0 120.634237,22.84861,0.0 120.634055,22.848502,0.0 120.633899,22.848472,0.0 120.633749,22.848485,0.0 120.633581,22.848516,0.0 120.633435,22.848525,0.0 120.633168,22.848527,0.0 120.632989,22.848504,0.0 120.632714,22.84841,0.0 120.632446,22.84827,0.0 120.632356,22.848218,0.0 120.632098,22.848086,0.0 120.631864,22.847973,0.0 120.631808,22.847948,0.0 120.631642,22.847873,0.0 120.631478,22.847793,0.0 120.631246,22.847694,0.0 120.631103,22.847637,0.0 120.630773,22.847467,0.0 120.630553,22.847383,0.0 120.630448,22.847358,0.0 120.630182,22.847267,0.0 120.629897,22.847187,0.0 120.629771,22.847164,0.0 120.629575,22.847114,0.0 120.629439,22.847084,0.0 120.629304,22.847032,0.0 120.629196,22.846984,0.0 120.629047,22.846959,0.0 120.628898,22.846932,0.0 120.628768,22.846922,0.0 120.628606,22.846904,0.0 120.628482,22.846863,0.0 120.628309,22.846813,0.0 120.628165,22.846765,0.0 120.628014,22.846713,0.0 120.627905,22.846665,0.0 120.627888,22.846593,0.0 120.62808,22.846282,0.0 120.628224,22.846045,0.0 120.628335,22.84586,0.0 120.628392,22.84575,0.0 120.62856,22.845405,0.0 120.628664,22.845252,0.0 120.628846,22.845051,0.0 120.628952,22.844929,0.0 120.62913,22.844722,0.0 120.629225,22.844625,0.0 120.629367,22.844474,0.0 120.62944,22.844398,0.0 120.629666,22.844143,0.0 120.629851,22.843943,0.0 120.630034,22.843733,0.0 120.630125,22.843618,0.0 120.630233,22.843483,0.0 120.63035,22.843393,0.0 120.630571,22.843317,0.0 120.630765,22.84334,0.0 120.630933,22.843374,0.0 120.631229,22.843397,0.0 120.631374,22.84342,0.0 120.631491,22.843416,0.0 120.631719,22.843351,0.0 120.63188,22.843243,0.0 120.631988,22.843157,0.0 120.632145,22.843052,0.0 120.632375,22.842969,0.0 120.632447,22.842838,0.0 120.632498,22.842718,0.0 120.632506,22.842585,0.0 120.632517,22.842434,0.0 120.63254,22.842267,0.0 120.632492,22.842127,0.0 120.632407,22.841982,0.0 120.632306,22.841851,0.0 120.632187,22.841823,0.0 120.631993,22.841873,0.0 120.631753,22.841953,0.0 120.631648,22.841834,0.0 120.631598,22.841732,0.0 120.631471,22.841535,0.0 120.631411,22.841424,0.0 120.631339,22.84128,0.0 120.631249,22.841144,0.0 120.631204,22.840984,0.0 120.631172,22.840785,0.0 120.63113,22.840552,0.0 120.631121,22.840412,0.0 120.63108,22.84022,0.0 120.631067,22.840103,0.0 120.63097,22.839764,0.0 120.630936,22.839529,0.0 120.630942,22.839362,0.0 120.631007,22.839265,0.0 120.631039,22.839139,0.0 120.631019,22.839042,0.0 120.630985,22.838924,0.0 120.63095,22.838805,0.0 120.630897,22.838666,0.0 120.630842,22.838538,0.0 120.630737,22.838276,0.0 120.630674,22.838142,0.0 120.63054,22.837982,0.0 120.630422,22.837835,0.0 120.630276,22.837665,0.0 120.630167,22.83754,0.0 120.630077,22.837432,0.0 120.629987,22.837319,0.0 120.629974,22.837208,0.0 120.629955,22.837084,0.0 120.62983,22.836908,0.0 120.629644,22.836715,0.0 120.629518,22.836625,0.0 120.629377,22.836525,0.0 120.629311,22.836437,0.0 120.629225,22.836297,0.0 120.62918,22.836175,0.0 120.629244,22.836091,0.0 120.629301,22.836017,0.0 120.629377,22.835897,0.0 120.629366,22.835787,0.0 120.629311,22.835617,0.0 120.629327,22.835423,0.0 120.629383,22.835155,0.0 120.629405,22.835015,0.0 120.629467,22.834742,0.0 120.629524,22.834568,0.0 120.629547,22.834403,0.0 120.629585,22.834272,0.0 120.629652,22.834051,0.0 120.629688,22.833877,0.0 120.62973,22.833778,0.0 120.629777,22.83362,0.0 120.629823,22.833501,0.0 120.62992,22.833284,0.0 120.629962,22.83307,0.0 120.629991,22.832907,0.0 120.630012,22.832693,0.0 120.630016,22.832451,0.0 120.630004,22.832241,0.0 120.629974,22.832018,0.0 120.629886,22.831715,0.0 120.629909,22.831591,0.0 120.629914,22.831458,0.0 120.629922,22.831288,0.0 120.629928,22.831153,0.0 120.629915,22.830884,0.0 120.629904,22.830715,0.0 120.629912,22.830606,0.0 120.629947,22.830403,0.0 120.63006,22.830284,0.0 120.630204,22.830221,0.0 120.63033,22.830165,0.0 120.63051,22.830064,0.0 120.630863,22.8299,0.0 120.631176,22.829742,0.0 120.631444,22.829623,0.0 120.631614,22.82954,0.0 120.631796,22.829496,0.0 120.631941,22.829437,0.0 120.632037,22.829358,0.0 120.63193,22.82929,0.0 120.631809,22.82922,0.0 120.631576,22.829066,0.0 120.631439,22.828978,0.0 120.631264,22.828871,0.0 120.630996,22.828767,0.0 120.630876,22.828715,0.0 120.630759,22.828678,0.0 120.630531,22.828583,0.0 120.630442,22.828515,0.0 120.630369,22.828402,0.0 120.630354,22.828298,0.0 120.630338,22.828178,0.0 120.630289,22.828013,0.0 120.630222,22.827758,0.0 120.630196,22.827604,0.0 120.630149,22.827428,0.0 120.630104,22.827304,0.0 120.630057,22.827182,0.0 120.629967,22.827048,0.0 120.629865,22.826922,0.0 120.629784,22.82677,0.0 120.6297,22.826594,0.0 120.629659,22.826454,0.0 120.62965,22.826298,0.0 120.629694,22.826156,0.0 120.629752,22.826,0.0 120.62981,22.825745,0.0 120.629859,22.825576,0.0 120.629905,22.825551,0.0 120.630052,22.825649,0.0 120.630137,22.825739,0.0 120.630266,22.825706,0.0 120.630358,22.825717,0.0 120.630327,22.825826,0.0 120.630235,22.825956,0.0 120.630185,22.826121,0.0 120.630264,22.826257,0.0 120.630436,22.826384,0.0 120.630625,22.826547,0.0 120.630827,22.826599,0.0 120.630939,22.826574,0.0 120.63114,22.826509,0.0 120.631351,22.826395,0.0 120.63148,22.826395,0.0 120.631609,22.826465,0.0 120.631854,22.826613,0.0 120.631936,22.826608,0.0 120.632223,22.826485,0.0 120.632581,22.826339,0.0 120.632798,22.826242,0.0 120.632927,22.826139,0.0 120.632997,22.826161,0.0 120.633141,22.826259,0.0 120.63338,22.826095,0.0 120.633797,22.825913,0.0 120.63438,22.826095,0.0 120.634989,22.826229,0.0 120.635246,22.825936,0.0 120.635785,22.825816,0.0 120.636162,22.825577,0.0 120.636562,22.82537,0.0 120.637027,22.825322,0.0 120.637499,22.825156,0.0 120.638154,22.825157,0.0 120.638511,22.825284,0.0 120.638723,22.825504,0.0 120.639131,22.826431,0.0 120.639343,22.82667,0.0 120.640055,22.827142,0.0 120.640453,22.828849,0.0 120.640968,22.83,0.0 120.644347,22.830931,0.0 120.646638,22.830918,0.0 120.647614,22.831234,0.0 120.647875,22.83193,0.0 120.647816,22.834298,0.0 120.647887,22.83463,0.0 120.648928,22.835458,0.0 120.649574,22.836252,0.0 120.649718,22.837921,0.0 120.649849,22.838829,0.0 120.650562,22.839892,0.0 120.651911,22.841041,0.0 120.652546,22.842005,0.0 120.652887,22.843979,0.0 120.653065,22.84467,0.0 120.653441,22.845154,0.0 120.654189,22.846047,0.0 120.654806,22.846902,0.0 120.65574,22.849446,0.0 120.65588,22.853138,0.0 120.656047,22.854044,0.0 120.656575,22.855056,0.0 120.658706,22.857686,0.0 120.660016,22.858753,0.0 120.661299,22.859562,0.0 120.660629,22.859851,0.0 120.660049,22.86066,0.0 120.65948,22.861921,0.0 120.659403,22.863757,0.0 120.658964,22.865173,0.0 120.658645,22.866071,0.0 120.659093,22.867888,0.0 120.659657,22.86995,0.0 120.659596,22.870462,0.0 120.658837,22.873075,0.0 120.658361,22.875275,0.0 120.658303,22.87665,0.0 120.658328,22.877784,0.0 120.65821,22.878869,0.0 120.65805,22.879711,0.0 120.657634,22.880263,0.0 120.65704,22.880813,0.0 120.656482,22.881347,0.0 120.655867,22.881619,0.0 120.655319,22.881617,0.0 120.65434,22.881186,0.0 120.653826,22.880797,0.0 120.65327,22.880389,0.0 120.652938,22.880118,0.0 120.652501,22.87969,0.0 120.652285,22.879301,0.0 120.652109,22.878784,0.0 120.651916,22.878341,0.0 120.651813,22.878122,0.0 120.651477,22.877728,0.0 120.651129,22.877325,0.0 120.650679,22.877162,0.0 120.650199,22.877098,0.0 120.649603,22.876979,0.0 120.649099,22.876967,0.0</coordinates></LinearRing></outerBoundaryIs></Polygon><styleUrl>#spolygon-map</styleUrl></Placemark><Placemark><Polygon><outerBoundaryIs><LinearRing><coordinates>120.672868,22.802617,0.0 120.671498,22.803644,0.0 120.66471,22.806321,0.0 120.661278,22.807957,0.0 120.656584,22.808958,0.0 120.654679,22.807037,0.0 120.65283,22.803834,0.0 120.652041,22.800882,0.0 120.652003,22.798148,0.0 120.651635,22.797427,0.0 120.650365,22.796532,0.0 120.648068,22.794971,0.0 120.642572,22.789791,0.0 120.64013,22.788131,0.0 120.639067,22.787575,0.0 120.638109,22.787499,0.0 120.637054,22.787681,0.0 120.636486,22.787854,0.0 120.635848,22.788103,0.0 120.6354,22.788405,0.0 120.635214,22.788567,0.0 120.629841,22.788366,0.0 120.629797,22.788358,0.0 120.629762,22.788164,0.0 120.62975,22.788028,0.0 120.629724,22.78789,0.0 120.629708,22.787764,0.0 120.629691,22.787558,0.0 120.629665,22.787373,0.0 120.629643,22.787197,0.0 120.629626,22.787059,0.0 120.62957,22.786808,0.0 120.629538,22.786684,0.0 120.629516,22.786569,0.0 120.62952,22.78642,0.0 120.629489,22.786291,0.0 120.629433,22.786156,0.0 120.629377,22.785968,0.0 120.629679,22.785908,0.0 120.632853,22.785895,0.0 120.634161,22.785744,0.0 120.634331,22.785092,0.0 120.633746,22.784197,0.0 120.633303,22.783523,0.0 120.633624,22.782539,0.0 120.635375,22.782543,0.0 120.639617,22.783488,0.0 120.643911,22.784775,0.0 120.645451,22.784436,0.0 120.64694,22.783109,0.0 120.649685,22.782849,0.0 120.655177,22.783901,0.0 120.657068,22.785396,0.0 120.660946,22.783485,0.0 120.662965,22.782812,0.0 120.664547,22.780605,0.0 120.666838,22.778149,0.0 120.669087,22.776151,0.0 120.671091,22.775031,0.0 120.673231,22.774789,0.0 120.679257,22.775309,0.0 120.679317,22.776467,0.0 120.67902,22.777216,0.0 120.678644,22.777943,0.0 120.678388,22.778258,0.0 120.678031,22.778666,0.0 120.677952,22.779027,0.0 120.678232,22.779651,0.0 120.678497,22.780408,0.0 120.678354,22.780839,0.0 120.678057,22.781039,0.0 120.677207,22.781173,0.0 120.676557,22.781384,0.0 120.675946,22.782094,0.0 120.675458,22.784075,0.0 120.675015,22.78626,0.0 120.67478,22.786853,0.0 120.674402,22.787152,0.0 120.672809,22.78824,0.0 120.670296,22.791165,0.0 120.669035,22.792822,0.0 120.667574,22.795142,0.0 120.667232,22.795611,0.0 120.666965,22.796466,0.0 120.667133,22.797782,0.0 120.667437,22.798679,0.0 120.668271,22.798814,0.0 120.66927,22.798758,0.0 120.670131,22.798107,0.0 120.670867,22.797196,0.0 120.671226,22.797039,0.0 120.671896,22.79772,0.0 120.672862,22.798578,0.0 120.673251,22.799157,0.0 120.673277,22.799631,0.0 120.673033,22.80091,0.0 120.673012,22.80143,0.0 120.672761,22.801921,0.0 120.672751,22.802316,0.0 120.672868,22.802617,0.0</coordinates></LinearRing></outerBoundaryIs></Polygon><styleUrl>#spolygon-map</styleUrl></Placemark><Placemark><Polygon><outerBoundaryIs><LinearRing><coordinates>120.701888,22.745979,0.0 120.701209,22.745556,0.0 120.70058,22.745327,0.0 120.700133,22.745414,0.0 120.6997,22.745709,0.0 120.698946,22.746568,0.0 120.698424,22.747111,0.0 120.698015,22.747196,0.0 120.697522,22.747195,0.0 120.696984,22.747251,0.0 120.696537,22.747361,0.0 120.695825,22.747289,0.0 120.695332,22.747241,0.0 120.693908,22.747125,0.0 120.693453,22.747152,0.0 120.693112,22.747327,0.0 120.692876,22.747679,0.0 120.692745,22.748252,0.0 120.692365,22.74878,0.0 120.691782,22.749151,0.0 120.69082,22.749355,0.0 120.689933,22.749007,0.0 120.689177,22.748338,0.0 120.688761,22.747716,0.0 120.688546,22.746912,0.0 120.688257,22.742999,0.0 120.688407,22.741748,0.0 120.68885,22.741189,0.0 120.689426,22.740219,0.0 120.689856,22.739236,0.0 120.690138,22.738941,0.0 120.69056,22.738686,0.0 120.691183,22.73857,0.0 120.692937,22.738341,0.0 120.693394,22.738055,0.0 120.693572,22.737523,0.0 120.693296,22.735623,0.0 120.692989,22.734911,0.0 120.692488,22.734773,0.0 120.691538,22.734708,0.0 120.690675,22.735058,0.0 120.689849,22.735766,0.0 120.689038,22.736256,0.0 120.688111,22.736598,0.0 120.687166,22.736566,0.0 120.686563,22.736362,0.0 120.686181,22.735799,0.0 120.68577,22.735035,0.0 120.683567,22.732256,0.0 120.68317,22.731804,0.0 120.682479,22.731407,0.0 120.681285,22.73154,0.0 120.680165,22.73203,0.0 120.679236,22.732288,0.0 120.678691,22.732206,0.0 120.677398,22.731,0.0 120.676228,22.730218,0.0 120.675752,22.729825,0.0 120.675149,22.729029,0.0 120.674458,22.730337,0.0 120.67364,22.732776,0.0 120.673071,22.734777,0.0 120.672734,22.734327,0.0 120.672583,22.73416,0.0 120.672422,22.734017,0.0 120.671962,22.733743,0.0 120.671481,22.733561,0.0 120.67105,22.733533,0.0 120.670608,22.733625,0.0 120.670395,22.733516,0.0 120.670053,22.733369,0.0 120.669455,22.733298,0.0 120.668809,22.733271,0.0 120.668686,22.733154,0.0 120.668582,22.732675,0.0 120.668492,22.732542,0.0 120.668379,22.73248,0.0 120.668212,22.73248,0.0 120.667889,22.732585,0.0 120.667723,22.732594,0.0 120.667623,22.732526,0.0 120.667577,22.732016,0.0 120.667455,22.731354,0.0 120.66737,22.730988,0.0 120.667361,22.730778,0.0 120.66731,22.73057,0.0 120.666727,22.730027,0.0 120.666637,22.729921,0.0 120.666582,22.729124,0.0 120.666558,22.728894,0.0 120.666598,22.728745,0.0 120.666692,22.728596,0.0 120.667026,22.727921,0.0 120.667079,22.727755,0.0 120.667076,22.727093,0.0 120.667125,22.727007,0.0 120.66751,22.726288,0.0 120.667541,22.726071,0.0 120.6674,22.725929,0.0 120.66728,22.725822,0.0 120.666841,22.725322,0.0 120.667452,22.724558,0.0 120.668213,22.724427,0.0 120.67052,22.724373,0.0 120.670589,22.724411,0.0 120.670745,22.724739,0.0 120.671121,22.725234,0.0 120.67123,22.725548,0.0 120.671479,22.725682,0.0 120.671794,22.725902,0.0 120.672199,22.726146,0.0 120.672412,22.72609,0.0 120.67271,22.72591,0.0 120.672705,22.725849,0.0 120.672131,22.724954,0.0 120.671881,22.724168,0.0 120.671841,22.723646,0.0 120.671966,22.72285,0.0 120.672269,22.722089,0.0 120.672519,22.721552,0.0 120.673366,22.720204,0.0 120.674448,22.719077,0.0 120.677199,22.71713,0.0 120.679852,22.716058,0.0 120.680891,22.715681,0.0 120.681097,22.715275,0.0 120.680852,22.714731,0.0 120.679202,22.713486,0.0 120.678794,22.712787,0.0 120.679259,22.71237,0.0 120.679519,22.712116,0.0 120.679658,22.711382,0.0 120.679815,22.710292,0.0 120.679703,22.709849,0.0 120.679611,22.709671,0.0 120.679307,22.709214,0.0 120.67935,22.70858,0.0 120.679624,22.708303,0.0 120.682004,22.707077,0.0 120.682531,22.706622,0.0 120.682552,22.706243,0.0 120.68221,22.705813,0.0 120.681939,22.70553,0.0 120.681872,22.705101,0.0 120.681996,22.704478,0.0 120.682285,22.703605,0.0 120.682232,22.702871,0.0 120.681524,22.701678,0.0 120.680828,22.701396,0.0 120.679689,22.701664,0.0 120.679768,22.701555,0.0 120.680199,22.701183,0.0 120.680627,22.70047,0.0 120.681088,22.699787,0.0 120.681502,22.699253,0.0 120.682046,22.698863,0.0 120.682358,22.698818,0.0 120.682631,22.698846,0.0 120.682844,22.698928,0.0 120.68332,22.699198,0.0 120.683933,22.699319,0.0 120.684355,22.699491,0.0 120.684705,22.699717,0.0 120.685076,22.699797,0.0 120.685373,22.699791,0.0 120.686151,22.699605,0.0 120.68664,22.699288,0.0 120.686946,22.698877,0.0 120.687026,22.698487,0.0 120.68699,22.698164,0.0 120.68723,22.697456,0.0 120.687657,22.696495,0.0 120.688154,22.696462,0.0 120.688647,22.696526,0.0 120.688992,22.696719,0.0 120.689668,22.697248,0.0 120.689999,22.697317,0.0 120.69028,22.697471,0.0 120.690697,22.697858,0.0 120.691157,22.69796,0.0 120.691715,22.697859,0.0 120.692378,22.697667,0.0 120.692732,22.69746,0.0 120.69328,22.697181,0.0 120.693547,22.696942,0.0 120.693966,22.69652,0.0 120.694226,22.696277,0.0 120.694371,22.695796,0.0 120.694459,22.695149,0.0 120.694828,22.694596,0.0 120.695322,22.694107,0.0 120.69587,22.693621,0.0 120.696396,22.693407,0.0 120.697426,22.69347,0.0 120.698124,22.693591,0.0 120.698784,22.693633,0.0 120.699461,22.693654,0.0 120.700102,22.693568,0.0 120.70075,22.693596,0.0 120.701081,22.69359,0.0 120.701442,22.69341,0.0 120.70181,22.692912,0.0 120.70207,22.692643,0.0 120.702672,22.692362,0.0 120.703278,22.692043,0.0 120.703926,22.691863,0.0 120.704474,22.691792,0.0 120.705151,22.691726,0.0 120.705665,22.691589,0.0 120.706023,22.691415,0.0 120.706653,22.691205,0.0 120.7068,22.691668,0.0 120.706882,22.692156,0.0 120.706804,22.692316,0.0 120.706147,22.692603,0.0 120.70611,22.692784,0.0 120.706413,22.693092,0.0 120.70657,22.693514,0.0 120.70669,22.693808,0.0 120.706889,22.694099,0.0 120.706973,22.694395,0.0 120.707209,22.694678,0.0 120.707334,22.694979,0.0 120.707281,22.695209,0.0 120.707092,22.695436,0.0 120.70716,22.695579,0.0 120.70749,22.69588,0.0 120.707747,22.696255,0.0 120.708025,22.696423,0.0 120.708596,22.697399,0.0 120.70907,22.698176,0.0 120.709346,22.698513,0.0 120.709613,22.698904,0.0 120.709762,22.699083,0.0 120.709958,22.699366,0.0 120.710023,22.699558,0.0 120.710004,22.699813,0.0 120.709956,22.700061,0.0 120.709819,22.700386,0.0 120.709693,22.700584,0.0 120.709615,22.700842,0.0 120.709597,22.701178,0.0 120.709697,22.701533,0.0 120.709887,22.701996,0.0 120.709934,22.70228,0.0 120.710011,22.702574,0.0 120.710165,22.702823,0.0 120.710486,22.70327,0.0 120.710634,22.703553,0.0 120.710788,22.703876,0.0 120.711174,22.704373,0.0 120.711317,22.704511,0.0 120.711513,22.704649,0.0 120.711757,22.704955,0.0 120.712137,22.705366,0.0 120.712292,22.705543,0.0 120.712458,22.705825,0.0 120.712642,22.706169,0.0 120.712885,22.706472,0.0 120.713057,22.706842,0.0 120.71317,22.707172,0.0 120.71321,22.707596,0.0 120.713215,22.708023,0.0 120.713084,22.708402,0.0 120.712904,22.708682,0.0 120.712862,22.708919,0.0 120.712766,22.70919,0.0 120.712707,22.709339,0.0 120.712694,22.709537,0.0 120.712777,22.709831,0.0 120.712973,22.710177,0.0 120.713074,22.710457,0.0 120.71318,22.710735,0.0 120.713209,22.710954,0.0 120.713256,22.711347,0.0 120.713297,22.711715,0.0 120.713368,22.71199,0.0 120.713493,22.712189,0.0 120.713736,22.712449,0.0 120.713795,22.712682,0.0 120.713843,22.713016,0.0 120.71386,22.713253,0.0 120.713972,22.713524,0.0 120.714192,22.713773,0.0 120.714365,22.714022,0.0 120.714519,22.71427,0.0 120.714649,22.714643,0.0 120.714702,22.715052,0.0 120.714785,22.715384,0.0 120.714933,22.715755,0.0 120.714962,22.715876,0.0 120.714962,22.716211,0.0 120.714896,22.716409,0.0 120.714698,22.716741,0.0 120.714561,22.717066,0.0 120.714376,22.717408,0.0 120.714202,22.717747,0.0 120.713993,22.71809,0.0 120.713831,22.71841,0.0 120.713646,22.718708,0.0 120.713568,22.718922,0.0 120.713347,22.71929,0.0 120.713019,22.719503,0.0 120.712691,22.719697,0.0 120.712452,22.719972,0.0 120.712297,22.720231,0.0 120.712094,22.720437,0.0 120.711736,22.720714,0.0 120.711324,22.720968,0.0 120.711139,22.721049,0.0 120.710812,22.721055,0.0 120.710544,22.721037,0.0 120.710359,22.721016,0.0 120.710109,22.721043,0.0 120.709811,22.721092,0.0 120.709579,22.721191,0.0 120.70934,22.721317,0.0 120.708839,22.721611,0.0 120.708642,22.721855,0.0 120.708439,22.722214,0.0 120.708265,22.722462,0.0 120.70808,22.722631,0.0 120.707954,22.722712,0.0 120.707576,22.722964,0.0 120.70733,22.723327,0.0 120.707161,22.723755,0.0 120.706802,22.724182,0.0 120.706247,22.724641,0.0 120.705854,22.725092,0.0 120.705539,22.725315,0.0 120.704411,22.725891,0.0 120.703386,22.726194,0.0 120.703072,22.726338,0.0 120.70294,22.726848,0.0 120.703209,22.72737,0.0 120.703681,22.728167,0.0 120.703929,22.728698,0.0 120.704002,22.729356,0.0 120.704166,22.729893,0.0 120.704382,22.73051,0.0 120.704375,22.730916,0.0 120.704256,22.731347,0.0 120.704106,22.731625,0.0 120.703815,22.73211,0.0 120.703434,22.732795,0.0 120.703359,22.733267,0.0 120.703183,22.73387,0.0 120.703141,22.734425,0.0 120.703155,22.735041,0.0 120.703295,22.735355,0.0 120.703577,22.735686,0.0 120.703764,22.735973,0.0 120.703862,22.736359,0.0 120.703868,22.73686,0.0 120.703761,22.737131,0.0 120.70358,22.737571,0.0 120.703451,22.73783,0.0 120.703211,22.738227,0.0 120.702996,22.738434,0.0 120.702755,22.738676,0.0 120.702677,22.738933,0.0 120.702669,22.739624,0.0 120.702591,22.740043,0.0 120.702524,22.740639,0.0 120.702623,22.741147,0.0 120.702761,22.741868,0.0 120.702728,22.742696,0.0 120.702624,22.743342,0.0 120.702558,22.74387,0.0 120.702479,22.744362,0.0 120.702425,22.744556,0.0 120.702372,22.744696,0.0 120.702097,22.74514,0.0 120.701747,22.745815,0.0 120.701888,22.745979,0.0</coordinates></LinearRing></outerBoundaryIs></Polygon><styleUrl>#spolygon-map</styleUrl></Placemark><Placemark><Polygon><outerBoundaryIs><LinearRing><coordinates>120.674515,22.801471,0.0 120.672751,22.802316,0.0 120.672761,22.801921,0.0 120.673012,22.80143,0.0 120.673033,22.80091,0.0 120.673277,22.799631,0.0 120.673251,22.799157,0.0 120.672862,22.798578,0.0 120.671896,22.79772,0.0 120.671226,22.797039,0.0 120.670867,22.797196,0.0 120.670131,22.798107,0.0 120.66927,22.798758,0.0 120.668271,22.798814,0.0 120.667437,22.798679,0.0 120.667133,22.797782,0.0 120.666965,22.796466,0.0 120.667232,22.795611,0.0 120.667574,22.795142,0.0 120.669035,22.792822,0.0 120.670296,22.791165,0.0 120.672809,22.78824,0.0 120.674402,22.787152,0.0 120.67478,22.786853,0.0 120.675015,22.78626,0.0 120.675458,22.784075,0.0 120.675946,22.782094,0.0 120.676557,22.781384,0.0 120.677207,22.781173,0.0 120.678057,22.781039,0.0 120.678354,22.780839,0.0 120.678497,22.780408,0.0 120.678232,22.779651,0.0 120.677952,22.779027,0.0 120.678031,22.778666,0.0 120.678388,22.778258,0.0 120.678644,22.777943,0.0 120.67902,22.777216,0.0 120.679317,22.776467,0.0 120.679257,22.775309,0.0 120.673231,22.774789,0.0 120.671091,22.775031,0.0 120.670587,22.774524,0.0 120.670449,22.772918,0.0 120.670027,22.771899,0.0 120.669969,22.770698,0.0 120.670346,22.76768,0.0 120.670237,22.764738,0.0 120.670706,22.76273,0.0 120.670731,22.760942,0.0 120.670679,22.76012,0.0 120.670862,22.75928,0.0 120.671697,22.758359,0.0 120.67181,22.756496,0.0 120.671923,22.755304,0.0 120.672123,22.752577,0.0 120.671683,22.748761,0.0 120.671405,22.747074,0.0 120.671597,22.745329,0.0 120.672475,22.745462,0.0 120.673338,22.745942,0.0 120.674071,22.746382,0.0 120.674651,22.747166,0.0 120.675882,22.750111,0.0 120.67638,22.750834,0.0 120.678118,22.753235,0.0 120.680049,22.754711,0.0 120.682173,22.756115,0.0 120.684258,22.757912,0.0 120.684984,22.758322,0.0 120.685266,22.757018,0.0 120.685914,22.755926,0.0 120.686857,22.755041,0.0 120.688051,22.753564,0.0 120.688522,22.752877,0.0 120.68869,22.752471,0.0 120.688919,22.751697,0.0 120.68889,22.75129,0.0 120.688952,22.750685,0.0 120.689054,22.74997,0.0 120.689507,22.749605,0.0 120.689933,22.749007,0.0 120.69082,22.749355,0.0 120.691782,22.749151,0.0 120.692365,22.74878,0.0 120.692745,22.748252,0.0 120.692876,22.747679,0.0 120.693112,22.747327,0.0 120.693453,22.747152,0.0 120.693908,22.747125,0.0 120.695332,22.747241,0.0 120.695825,22.747289,0.0 120.696537,22.747361,0.0 120.696984,22.747251,0.0 120.697522,22.747195,0.0 120.698015,22.747196,0.0 120.698424,22.747111,0.0 120.698946,22.746568,0.0 120.6997,22.745709,0.0 120.700133,22.745414,0.0 120.70058,22.745327,0.0 120.701209,22.745556,0.0 120.701888,22.745979,0.0 120.702443,22.74643,0.0 120.70295,22.746788,0.0 120.703612,22.747144,0.0 120.704253,22.747441,0.0 120.705491,22.747856,0.0 120.706051,22.748022,0.0 120.706642,22.748165,0.0 120.707227,22.74818,0.0 120.707788,22.748212,0.0 120.708063,22.748287,0.0 120.708498,22.748412,0.0 120.708811,22.748503,0.0 120.709556,22.748706,0.0 120.710214,22.748881,0.0 120.711004,22.749047,0.0 120.711524,22.749122,0.0 120.712021,22.749159,0.0 120.712679,22.749161,0.0 120.712998,22.749139,0.0 120.713252,22.749101,0.0 120.713576,22.74897,0.0 120.713774,22.748966,0.0 120.713964,22.749013,0.0 120.714088,22.748989,0.0 120.714453,22.748742,0.0 120.714732,22.74841,0.0 120.714887,22.748239,0.0 120.715015,22.747898,0.0 120.715113,22.747621,0.0 120.715146,22.74732,0.0 120.715225,22.746916,0.0 120.715349,22.746765,0.0 120.715597,22.746524,0.0 120.715897,22.746308,0.0 120.716144,22.746211,0.0 120.716281,22.746218,0.0 120.716378,22.746327,0.0 120.716527,22.746623,0.0 120.716664,22.746858,0.0 120.716975,22.747227,0.0 120.717216,22.747426,0.0 120.717534,22.747711,0.0 120.717749,22.747928,0.0 120.717984,22.748235,0.0 120.718241,22.748466,0.0 120.718546,22.748778,0.0 120.718739,22.748991,0.0 120.719029,22.749129,0.0 120.719506,22.749324,0.0 120.719669,22.749482,0.0 120.719758,22.749774,0.0 120.71975,22.750284,0.0 120.719719,22.750643,0.0 120.719722,22.751094,0.0 120.719662,22.751413,0.0 120.719526,22.751936,0.0 120.719321,22.752498,0.0 120.719044,22.753044,0.0 120.718812,22.75345,0.0 120.718618,22.753732,0.0 120.718577,22.753985,0.0 120.718606,22.754163,0.0 120.718629,22.754294,0.0 120.71859,22.754669,0.0 120.71853,22.755034,0.0 120.718544,22.755414,0.0 120.718562,22.755802,0.0 120.718621,22.755976,0.0 120.718807,22.756204,0.0 120.718896,22.756493,0.0 120.718887,22.756963,0.0 120.718801,22.757414,0.0 120.718696,22.757857,0.0 120.718449,22.758084,0.0 120.718202,22.758123,0.0 120.718077,22.758118,0.0 120.717839,22.758117,0.0 120.717734,22.758194,0.0 120.717697,22.758358,0.0 120.717674,22.758627,0.0 120.717729,22.758921,0.0 120.717691,22.759149,0.0 120.717654,22.759363,0.0 120.717549,22.759679,0.0 120.717406,22.760074,0.0 120.717305,22.760387,0.0 120.71726,22.760656,0.0 120.717267,22.760925,0.0 120.717274,22.761173,0.0 120.717236,22.761478,0.0 120.717191,22.76174,0.0 120.717023,22.762121,0.0 120.716851,22.762425,0.0 120.716508,22.762626,0.0 120.716232,22.762652,0.0 120.716068,22.762713,0.0 120.715926,22.762934,0.0 120.715851,22.763121,0.0 120.715929,22.763469,0.0 120.715965,22.763869,0.0 120.715927,22.764271,0.0 120.7158,22.764754,0.0 120.715616,22.765155,0.0 120.715459,22.765473,0.0 120.715362,22.765651,0.0 120.715138,22.765908,0.0 120.714892,22.766127,0.0 120.714687,22.766296,0.0 120.71453,22.766483,0.0 120.7145,22.766614,0.0 120.71473,22.767131,0.0 120.714856,22.76747,0.0 120.714922,22.767863,0.0 120.714851,22.76815,0.0 120.714672,22.768328,0.0 120.714456,22.768391,0.0 120.714299,22.768417,0.0 120.714165,22.768336,0.0 120.714009,22.768245,0.0 120.7138,22.768258,0.0 120.713577,22.768258,0.0 120.71345,22.768188,0.0 120.713324,22.768224,0.0 120.713077,22.768429,0.0 120.712913,22.768616,0.0 120.712675,22.768699,0.0 120.712458,22.769055,0.0 120.712294,22.769346,0.0 120.71205,22.769824,0.0 120.711998,22.770046,0.0 120.711968,22.770287,0.0 120.711915,22.770522,0.0 120.711788,22.770716,0.0 120.711587,22.77079,0.0 120.711274,22.770755,0.0 120.711081,22.770617,0.0 120.710917,22.77059,0.0 120.710857,22.770816,0.0 120.710912,22.771213,0.0 120.710948,22.771532,0.0 120.71097,22.771897,0.0 120.710962,22.772166,0.0 120.711103,22.772415,0.0 120.711583,22.772786,0.0 120.712371,22.773345,0.0 120.712869,22.773748,0.0 120.713427,22.774216,0.0 120.713817,22.774664,0.0 120.714092,22.774913,0.0 120.714643,22.775361,0.0 120.715111,22.775817,0.0 120.715434,22.776166,0.0 120.715754,22.776457,0.0 120.716245,22.776761,0.0 120.717049,22.777205,0.0 120.717707,22.777603,0.0 120.718116,22.777852,0.0 120.71857,22.778226,0.0 120.719068,22.77871,0.0 120.719432,22.779097,0.0 120.719919,22.779549,0.0 120.720536,22.780117,0.0 120.721005,22.780648,0.0 120.721306,22.781012,0.0 120.721655,22.781509,0.0 120.721974,22.782013,0.0 120.722275,22.782499,0.0 120.72252,22.782872,0.0 120.72272,22.783205,0.0 120.722929,22.783349,0.0 120.723197,22.783427,0.0 120.723502,22.783454,0.0 120.723979,22.783448,0.0 120.724537,22.783429,0.0 120.724977,22.783457,0.0 120.72545,22.783613,0.0 120.725896,22.783869,0.0 120.726327,22.784319,0.0 120.726505,22.784665,0.0 120.726519,22.785105,0.0 120.726552,22.785489,0.0 120.726745,22.785876,0.0 120.726998,22.786312,0.0 120.727176,22.786739,0.0 120.727327,22.787227,0.0 120.727371,22.787674,0.0 120.727355,22.788103,0.0 120.727269,22.788507,0.0 120.727037,22.788976,0.0 120.726783,22.789526,0.0 120.726707,22.790009,0.0 120.726703,22.790524,0.0 120.726858,22.790951,0.0 120.727171,22.791304,0.0 120.72749,22.791589,0.0 120.72791,22.792055,0.0 120.728103,22.792371,0.0 120.728348,22.79278,0.0 120.728638,22.793244,0.0 120.729051,22.793682,0.0 120.729482,22.794089,0.0 120.729817,22.794359,0.0 120.730382,22.794664,0.0 120.731235,22.794986,0.0 120.731815,22.795236,0.0 120.732321,22.795519,0.0 120.732857,22.795707,0.0 120.733274,22.795879,0.0 120.733385,22.796094,0.0 120.733388,22.796602,0.0 120.733291,22.796891,0.0 120.733275,22.797092,0.0 120.733431,22.797415,0.0 120.733758,22.797941,0.0 120.73396,22.798229,0.0 120.734156,22.798432,0.0 120.734568,22.799345,0.0 120.734861,22.800307,0.0 120.735314,22.801414,0.0 120.735487,22.802062,0.0 120.735738,22.803212,0.0 120.736099,22.804312,0.0 120.736713,22.805259,0.0 120.737323,22.806391,0.0 120.737904,22.808074,0.0 120.738521,22.809003,0.0 120.739043,22.809864,0.0 120.739547,22.810678,0.0 120.739685,22.811353,0.0 120.739754,22.812091,0.0 120.740129,22.812869,0.0 120.740647,22.813786,0.0 120.740845,22.814283,0.0 120.740826,22.81462,0.0 120.740663,22.815123,0.0 120.740591,22.816003,0.0 120.740656,22.81685,0.0 120.740592,22.817575,0.0 120.740376,22.818647,0.0 120.740164,22.819656,0.0 120.739864,22.820727,0.0 120.739501,22.821573,0.0 120.739408,22.821982,0.0 120.73939,22.822103,0.0 120.73797,22.822754,0.0 120.735869,22.823469,0.0 120.733993,22.82386,0.0 120.7331,22.824159,0.0 120.7324,22.824314,0.0 120.731402,22.824168,0.0 120.73154,22.822928,0.0 120.731051,22.820677,0.0 120.729851,22.818645,0.0 120.728545,22.817306,0.0 120.728447,22.816936,0.0 120.728516,22.815994,0.0 120.728938,22.812042,0.0 120.72882,22.811236,0.0 120.728139,22.81044,0.0 120.726243,22.80952,0.0 120.724746,22.809219,0.0 120.723596,22.809082,0.0 120.722593,22.809053,0.0 120.722018,22.807955,0.0 120.720727,22.807,0.0 120.720429,22.806428,0.0 120.71989,22.804944,0.0 120.719434,22.804688,0.0 120.718832,22.804549,0.0 120.717776,22.804522,0.0 120.716026,22.804851,0.0 120.715516,22.804753,0.0 120.714332,22.803859,0.0 120.712215,22.801076,0.0 120.709249,22.798389,0.0 120.705367,22.794324,0.0 120.702284,22.789817,0.0 120.701771,22.789529,0.0 120.69208,22.788172,0.0 120.683455,22.786943,0.0 120.682271,22.787058,0.0 120.680288,22.788128,0.0 120.678813,22.788834,0.0 120.678069,22.78972,0.0 120.67688,22.792869,0.0 120.676596,22.793314,0.0 120.675512,22.793896,0.0 120.674387,22.794585,0.0 120.674178,22.79479,0.0 120.674129,22.795124,0.0 120.674337,22.79714,0.0 120.674404,22.798813,0.0 120.674702,22.799699,0.0 120.674515,22.801471,0.0</coordinates></LinearRing></outerBoundaryIs></Polygon><styleUrl>#spolygon-map</styleUrl></Placemark><Placemark><Polygon><outerBoundaryIs><LinearRing><coordinates>120.670731,22.760942,0.0 120.669645,22.761041,0.0 120.668286,22.761609,0.0 120.667264,22.762147,0.0 120.66573,22.762812,0.0 120.664593,22.762681,0.0 120.66311,22.762181,0.0 120.661261,22.762064,0.0 120.657949,22.761804,0.0 120.65648,22.761682,0.0 120.65556,22.761413,0.0 120.654421,22.760975,0.0 120.653534,22.76084,0.0 120.653009,22.761006,0.0 120.652882,22.761224,0.0 120.652893,22.761444,0.0 120.65314,22.761787,0.0 120.653314,22.762198,0.0 120.653385,22.762668,0.0 120.653003,22.763239,0.0 120.652041,22.764142,0.0 120.650846,22.764577,0.0 120.650194,22.764558,0.0 120.649253,22.764287,0.0 120.648185,22.764538,0.0 120.647514,22.764938,0.0 120.646842,22.765742,0.0 120.64595,22.767671,0.0 120.645823,22.767948,0.0 120.645586,22.767708,0.0 120.645368,22.767507,0.0 120.645218,22.767559,0.0 120.645039,22.767651,0.0 120.644818,22.767768,0.0 120.644701,22.767835,0.0 120.64443,22.767941,0.0 120.644274,22.767999,0.0 120.643983,22.768102,0.0 120.6437,22.768235,0.0 120.64356,22.768307,0.0 120.643423,22.768356,0.0 120.643281,22.768351,0.0 120.643011,22.768229,0.0 120.64289,22.768168,0.0 120.64271,22.768059,0.0 120.642555,22.767973,0.0 120.642303,22.767825,0.0 120.64216,22.767732,0.0 120.642039,22.76764,0.0 120.641937,22.767556,0.0 120.641781,22.767434,0.0 120.641679,22.767359,0.0 120.641517,22.767218,0.0 120.641415,22.767099,0.0 120.641298,22.766933,0.0 120.641252,22.766771,0.0 120.641289,22.766611,0.0 120.641355,22.766473,0.0 120.641421,22.766281,0.0 120.641444,22.766139,0.0 120.641335,22.766076,0.0 120.641196,22.766014,0.0 120.640928,22.765944,0.0 120.640802,22.765923,0.0 120.640605,22.765893,0.0 120.640449,22.765864,0.0 120.640277,22.76582,0.0 120.64014,22.765728,0.0 120.639987,22.765621,0.0 120.639868,22.765508,0.0 120.639717,22.76537,0.0 120.639611,22.765207,0.0 120.639507,22.765026,0.0 120.639412,22.764884,0.0 120.639271,22.764714,0.0 120.639152,22.764576,0.0 120.638921,22.764359,0.0 120.638774,22.764232,0.0 120.638612,22.764112,0.0 120.638385,22.763949,0.0 120.638242,22.763854,0.0 120.638081,22.763747,0.0 120.637925,22.76365,0.0 120.637799,22.763564,0.0 120.637682,22.763473,0.0 120.637525,22.763328,0.0 120.637416,22.763209,0.0 120.637265,22.763039,0.0 120.637118,22.762919,0.0 120.636858,22.762747,0.0 120.636654,22.762602,0.0 120.636517,22.762531,0.0 120.636351,22.762457,0.0 120.63621,22.762404,0.0 120.636065,22.762334,0.0 120.635854,22.762223,0.0 120.635731,22.762144,0.0 120.635492,22.761974,0.0 120.635367,22.761865,0.0 120.63523,22.761713,0.0 120.635108,22.761578,0.0 120.635002,22.761408,0.0 120.634929,22.761239,0.0 120.634823,22.760943,0.0 120.634742,22.760649,0.0 120.634718,22.760507,0.0 120.63469,22.760321,0.0 120.634649,22.760175,0.0 120.634586,22.759974,0.0 120.634527,22.759847,0.0 120.634474,22.75975,0.0 120.634341,22.759612,0.0 120.634134,22.759401,0.0 120.634027,22.759284,0.0 120.633946,22.759189,0.0 120.633844,22.75903,0.0 120.63378,22.758931,0.0 120.633738,22.758829,0.0 120.633697,22.758685,0.0 120.633681,22.758567,0.0 120.633651,22.758405,0.0 120.633604,22.758262,0.0 120.633536,22.758113,0.0 120.633488,22.757986,0.0 120.633437,22.757869,0.0 120.633396,22.75774,0.0 120.633355,22.757596,0.0 120.633341,22.757476,0.0 120.633344,22.757304,0.0 120.633363,22.757128,0.0 120.63338,22.756957,0.0 120.633386,22.756672,0.0 120.633383,22.756503,0.0 120.63339,22.756295,0.0 120.63339,22.756157,0.0 120.633394,22.755968,0.0 120.633383,22.755774,0.0 120.633371,22.755629,0.0 120.633355,22.7555,0.0 120.633326,22.755392,0.0 120.633271,22.755243,0.0 120.63321,22.755103,0.0 120.633055,22.754985,0.0 120.632981,22.75477,0.0 120.632851,22.754596,0.0 120.632754,22.754451,0.0 120.632664,22.754323,0.0 120.632459,22.754033,0.0 120.632306,22.753802,0.0 120.632321,22.753674,0.0 120.63233,22.753545,0.0 120.632317,22.75338,0.0 120.632242,22.753283,0.0 120.632134,22.753163,0.0 120.631961,22.752903,0.0 120.631879,22.752754,0.0 120.631769,22.752508,0.0 120.631698,22.752343,0.0 120.631653,22.752198,0.0 120.631567,22.752031,0.0 120.631518,22.751879,0.0 120.631451,22.751748,0.0 120.631406,22.751577,0.0 120.631358,22.751452,0.0 120.631326,22.751319,0.0 120.631307,22.751186,0.0 120.631282,22.751048,0.0 120.631273,22.75087,0.0 120.631274,22.750745,0.0 120.631281,22.750594,0.0 120.6313,22.750459,0.0 120.631325,22.75031,0.0 120.631375,22.750132,0.0 120.631423,22.749994,0.0 120.631488,22.749856,0.0 120.631569,22.749712,0.0 120.631664,22.749633,0.0 120.631834,22.749539,0.0 120.631983,22.74944,0.0 120.632216,22.749226,0.0 120.632275,22.749054,0.0 120.632282,22.748876,0.0 120.632269,22.748759,0.0 120.632224,22.748646,0.0 120.632137,22.748533,0.0 120.632021,22.748435,0.0 120.631898,22.748313,0.0 120.631907,22.748153,0.0 120.63193,22.747979,0.0 120.631964,22.747798,0.0 120.631959,22.747649,0.0 120.631949,22.747536,0.0 120.631932,22.747403,0.0 120.631937,22.747275,0.0 120.631958,22.747155,0.0 120.632045,22.746934,0.0 120.632155,22.74683,0.0 120.63232,22.746761,0.0 120.632573,22.746651,0.0 120.632749,22.746534,0.0 120.632767,22.746394,0.0 120.63275,22.746159,0.0 120.632803,22.746005,0.0 120.63291,22.745909,0.0 120.633054,22.745846,0.0 120.633196,22.745767,0.0 120.633395,22.745621,0.0 120.633511,22.745526,0.0 120.633664,22.745368,0.0 120.633788,22.745224,0.0 120.633914,22.745064,0.0 120.634038,22.744888,0.0 120.634178,22.744699,0.0 120.634256,22.744598,0.0 120.634302,22.744496,0.0 120.634291,22.744349,0.0 120.634238,22.744209,0.0 120.634102,22.743983,0.0 120.634033,22.743845,0.0 120.634019,22.74373,0.0 120.634006,22.743615,0.0 120.634053,22.743446,0.0 120.634109,22.743329,0.0 120.634182,22.743164,0.0 120.634231,22.74299,0.0 120.634253,22.742857,0.0 120.634264,22.742665,0.0 120.634237,22.742509,0.0 120.634238,22.742261,0.0 120.634246,22.74215,0.0 120.634276,22.741979,0.0 120.634295,22.741857,0.0 120.63432,22.741694,0.0 120.63432,22.741588,0.0 120.634342,22.741304,0.0 120.634418,22.740995,0.0 120.634518,22.740776,0.0 120.634556,22.740672,0.0 120.634664,22.740442,0.0 120.634786,22.740305,0.0 120.634877,22.740217,0.0 120.634985,22.740116,0.0 120.635114,22.739985,0.0 120.635294,22.739825,0.0 120.635409,22.739742,0.0 120.635554,22.739607,0.0 120.635633,22.739494,0.0 120.63574,22.739246,0.0 120.635828,22.73909,0.0 120.635896,22.738925,0.0 120.636529,22.738938,0.0 120.637758,22.739537,0.0 120.638655,22.739607,0.0 120.639579,22.739352,0.0 120.639953,22.738865,0.0 120.640508,22.738688,0.0 120.641173,22.738231,0.0 120.641569,22.738225,0.0 120.642796,22.738916,0.0 120.643415,22.738845,0.0 120.64417,22.738642,0.0 120.644781,22.738643,0.0 120.645282,22.738818,0.0 120.646016,22.739648,0.0 120.646777,22.74011,0.0 120.648399,22.741083,0.0 120.649443,22.74148,0.0 120.652072,22.741842,0.0 120.656055,22.742569,0.0 120.656949,22.74274,0.0 120.657344,22.742716,0.0 120.661858,22.742295,0.0 120.663203,22.742433,0.0 120.664254,22.743018,0.0 120.665569,22.743488,0.0 120.667037,22.744315,0.0 120.669026,22.745425,0.0 120.67028,22.74553,0.0 120.671127,22.745357,0.0 120.671621,22.748352,0.0 120.671934,22.750748,0.0 120.672081,22.754158,0.0 120.671847,22.756009,0.0 120.671878,22.757957,0.0 120.671028,22.758949,0.0 120.670697,22.759835,0.0 120.670732,22.76054,0.0 120.670731,22.760942,0.0</coordinates></LinearRing></outerBoundaryIs></Polygon><styleUrl>#spolygon-map</styleUrl></Placemark></Document>
</kml>
