<?xml version="1.0" encoding="UTF-8"?>
<kml xmlns="http://www.opengis.net/kml/2.2">
	<Document>
		<name>南投縣竹山鎮</name>
		<Style id="spolygon">
			<LabelStyle>
				<scale>0.0</scale>
			</LabelStyle>
			<LineStyle>
				<color>330030ff</color>
				<width>0</width>
			</LineStyle>
			<PolyStyle>
				<color>330030ff</color>
			</PolyStyle>
		</Style>
		<StyleMap id="spolygon-map">
			<Pair>
				<key>normal</key>
				<styleUrl>#spolygon</styleUrl>
			</Pair>
		</StyleMap>
	<Placemark><Polygon><outerBoundaryIs><LinearRing><coordinates>120.674204,23.749451,0.0 120.67431,23.747282,0.0 120.674844,23.744217,0.0 120.675448,23.742857,0.0 120.677792,23.740688,0.0 120.679844,23.74337,0.0 120.680524,23.746949,0.0 120.681692,23.747929,0.0 120.677533,23.747954,0.0 120.677388,23.748719,0.0 120.675158,23.74899,0.0 120.674204,23.749451,0.0</coordinates></LinearRing></outerBoundaryIs></Polygon><styleUrl>#spolygon-map</styleUrl></Placemark><Placemark><Polygon><outerBoundaryIs><LinearRing><coordinates>120.68191,23.801555,0.0 120.681557,23.801654,0.0 120.681129,23.801707,0.0 120.680553,23.801701,0.0 120.680294,23.801685,0.0 120.679893,23.801623,0.0 120.679419,23.801459,0.0 120.679217,23.801364,0.0 120.67881,23.801267,0.0 120.678362,23.801125,0.0 120.677896,23.800892,0.0 120.677492,23.800734,0.0 120.677131,23.800552,0.0 120.676661,23.800366,0.0 120.676229,23.800177,0.0 120.675896,23.800039,0.0 120.675507,23.799925,0.0 120.675162,23.799823,0.0 120.674913,23.799726,0.0 120.674523,23.799508,0.0 120.674196,23.799294,0.0 120.673922,23.79909,0.0 120.673604,23.79882,0.0 120.673278,23.798486,0.0 120.673063,23.798245,0.0 120.672901,23.798131,0.0 120.672617,23.797975,0.0 120.672427,23.79788,0.0 120.672184,23.797737,0.0 120.671774,23.797489,0.0 120.671364,23.797241,0.0 120.670918,23.796974,0.0 120.670472,23.796677,0.0 120.670271,23.796546,0.0 120.669996,23.796363,0.0 120.669724,23.796168,0.0 120.66953,23.796022,0.0 120.669321,23.795799,0.0 120.669171,23.795601,0.0 120.669015,23.795426,0.0 120.668748,23.795164,0.0 120.668426,23.794917,0.0 120.668092,23.794668,0.0 120.66789,23.794509,0.0 120.667637,23.794283,0.0 120.667306,23.794022,0.0 120.666878,23.793728,0.0 120.666631,23.793572,0.0 120.666268,23.793402,0.0 120.665839,23.793194,0.0 120.665456,23.793002,0.0 120.665066,23.792819,0.0 120.664706,23.792595,0.0 120.664288,23.792361,0.0 120.664021,23.792237,0.0 120.663626,23.792098,0.0 120.663185,23.791957,0.0 120.662634,23.791807,0.0 120.662046,23.79166,0.0 120.661288,23.791549,0.0 120.660384,23.7914,0.0 120.659441,23.791265,0.0 120.658898,23.791182,0.0 120.658727,23.791153,0.0 120.658263,23.791066,0.0 120.657881,23.790941,0.0 120.657664,23.789227,0.0 120.65939,23.784176,0.0 120.660382,23.781449,0.0 120.661708,23.779581,0.0 120.664405,23.779171,0.0 120.666544,23.779395,0.0 120.667365,23.778595,0.0 120.667877,23.774779,0.0 120.669776,23.770058,0.0 120.672366,23.766479,0.0 120.674638,23.767331,0.0 120.674687,23.766972,0.0 120.67493,23.766692,0.0 120.67522,23.766271,0.0 120.676004,23.766002,0.0 120.676246,23.765632,0.0 120.676362,23.765419,0.0 120.67697,23.764967,0.0 120.67747,23.764681,0.0 120.677977,23.764576,0.0 120.678496,23.764451,0.0 120.678487,23.763864,0.0 120.678624,23.763659,0.0 120.679326,23.76311,0.0 120.680004,23.762947,0.0 120.680645,23.762492,0.0 120.68234,23.76096,0.0 120.68237,23.762213,0.0 120.681961,23.762504,0.0 120.681716,23.762801,0.0 120.681644,23.763194,0.0 120.681713,23.764049,0.0 120.682592,23.765367,0.0 120.684993,23.767564,0.0 120.685719,23.769164,0.0 120.685342,23.769996,0.0 120.684979,23.7761,0.0 120.684361,23.777929,0.0 120.684163,23.778723,0.0 120.683614,23.788413,0.0 120.683583,23.80108,0.0 120.68341,23.801359,0.0 120.683244,23.801363,0.0 120.682971,23.80139,0.0 120.682568,23.801418,0.0 120.682141,23.801519,0.0 120.68191,23.801555,0.0</coordinates></LinearRing></outerBoundaryIs></Polygon><styleUrl>#spolygon-map</styleUrl></Placemark><Placemark><Polygon><outerBoundaryIs><LinearRing><coordinates>120.733044,23.713992,0.0 120.732107,23.713156,0.0 120.730322,23.712521,0.0 120.728022,23.713537,0.0 120.725046,23.717929,0.0 120.723235,23.719224,0.0 120.717741,23.715921,0.0 120.715014,23.712322,0.0 120.715394,23.710426,0.0 120.715199,23.709202,0.0 120.714051,23.702888,0.0 120.713461,23.696438,0.0 120.711606,23.689506,0.0 120.713816,23.687551,0.0 120.716688,23.687405,0.0 120.720157,23.686783,0.0 120.721705,23.685043,0.0 120.722189,23.683403,0.0 120.72211,23.681796,0.0 120.721376,23.679596,0.0 120.721378,23.678654,0.0 120.722345,23.67834,0.0 120.723089,23.676325,0.0 120.723747,23.674311,0.0 120.724212,23.669232,0.0 120.72168,23.669334,0.0 120.719547,23.670379,0.0 120.717871,23.670185,0.0 120.715552,23.670943,0.0 120.71346,23.672102,0.0 120.712033,23.671813,0.0 120.709888,23.672129,0.0 120.708104,23.671063,0.0 120.707152,23.670889,0.0 120.705434,23.671286,0.0 120.70442,23.671284,0.0 120.704007,23.670901,0.0 120.703982,23.670215,0.0 120.703407,23.668577,0.0 120.701884,23.667658,0.0 120.700551,23.66652,0.0 120.698438,23.664877,0.0 120.698086,23.663883,0.0 120.698709,23.662475,0.0 120.69838,23.661637,0.0 120.697678,23.661333,0.0 120.696291,23.661511,0.0 120.695813,23.662005,0.0 120.694576,23.662621,0.0 120.694344,23.660293,0.0 120.693935,23.657235,0.0 120.694443,23.654318,0.0 120.700012,23.644856,0.0 120.702843,23.640234,0.0 120.703951,23.639046,0.0 120.703811,23.638556,0.0 120.703459,23.638332,0.0 120.703512,23.637709,0.0 120.703315,23.636117,0.0 120.703467,23.635481,0.0 120.704535,23.634208,0.0 120.705922,23.632772,0.0 120.70763,23.631205,0.0 120.711327,23.628694,0.0 120.713056,23.627842,0.0 120.713193,23.628029,0.0 120.713597,23.628357,0.0 120.714089,23.628636,0.0 120.714554,23.62886,0.0 120.714995,23.629059,0.0 120.715374,23.629245,0.0 120.715794,23.629442,0.0 120.716292,23.629552,0.0 120.716556,23.629562,0.0 120.71692,23.629537,0.0 120.717328,23.62956,0.0 120.717629,23.62961,0.0 120.717929,23.629771,0.0 120.718104,23.629903,0.0 120.718365,23.629957,0.0 120.718602,23.629897,0.0 120.718825,23.629651,0.0 120.718816,23.629628,0.0 120.718996,23.629378,0.0 120.719142,23.629141,0.0 120.719289,23.628941,0.0 120.719485,23.62865,0.0 120.719644,23.628395,0.0 120.719772,23.628145,0.0 120.719873,23.627849,0.0 120.719955,23.627551,0.0 120.720105,23.62715,0.0 120.720205,23.626805,0.0 120.72028,23.626617,0.0 120.720422,23.626263,0.0 120.720569,23.626085,0.0 120.720774,23.625869,0.0 120.720938,23.625594,0.0 120.721043,23.625384,0.0 120.721175,23.625201,0.0 120.721365,23.62503,0.0 120.72158,23.624816,0.0 120.721809,23.624667,0.0 120.721974,23.624483,0.0 120.722106,23.624291,0.0 120.722258,23.623932,0.0 120.722377,23.623621,0.0 120.722542,23.623289,0.0 120.722702,23.623035,0.0 120.722875,23.622811,0.0 120.723081,23.622534,0.0 120.723381,23.622298,0.0 120.723649,23.622065,0.0 120.723938,23.621843,0.0 120.724216,23.621741,0.0 120.724596,23.621713,0.0 120.725051,23.621759,0.0 120.725317,23.62182,0.0 120.725608,23.621717,0.0 120.725782,23.621548,0.0 120.725913,23.621322,0.0 120.726064,23.621036,0.0 120.726224,23.620783,0.0 120.726677,23.620181,0.0 120.726932,23.619967,0.0 120.72718,23.619889,0.0 120.727567,23.619826,0.0 120.728018,23.619789,0.0 120.728309,23.619697,0.0 120.728695,23.619517,0.0 120.729261,23.619193,0.0 120.72956,23.61901,0.0 120.729937,23.618778,0.0 120.730337,23.618562,0.0 120.73067,23.618276,0.0 120.730746,23.617854,0.0 120.730714,23.617461,0.0 120.730653,23.617035,0.0 120.730588,23.616685,0.0 120.730691,23.616278,0.0 120.730839,23.615893,0.0 120.731001,23.615563,0.0 120.731122,23.615243,0.0 120.731182,23.614929,0.0 120.731258,23.614618,0.0 120.731285,23.614157,0.0 120.731235,23.613609,0.0 120.731224,23.613394,0.0 120.731233,23.613112,0.0 120.731257,23.612629,0.0 120.731242,23.612107,0.0 120.731195,23.611748,0.0 120.731117,23.611419,0.0 120.731005,23.611093,0.0 120.73113,23.610735,0.0 120.731662,23.610661,0.0 120.732172,23.61054,0.0 120.732564,23.610466,0.0 120.733074,23.610375,0.0 120.733896,23.610218,0.0 120.734534,23.610075,0.0 120.734985,23.60992,0.0 120.735336,23.609758,0.0 120.735853,23.609549,0.0 120.736346,23.609516,0.0 120.73661,23.609545,0.0 120.736988,23.609596,0.0 120.737392,23.609633,0.0 120.737715,23.609678,0.0 120.738591,23.609942,0.0 120.739009,23.610143,0.0 120.739267,23.610286,0.0 120.739617,23.610519,0.0 120.740122,23.610946,0.0 120.740404,23.611288,0.0 120.740651,23.611634,0.0 120.740957,23.611973,0.0 120.741209,23.612183,0.0 120.741545,23.612344,0.0 120.741997,23.612489,0.0 120.742402,23.612544,0.0 120.743025,23.612595,0.0 120.743416,23.612602,0.0 120.743872,23.612625,0.0 120.744382,23.612667,0.0 120.744869,23.612634,0.0 120.74533,23.612608,0.0 120.745777,23.612577,0.0 120.746087,23.612512,0.0 120.746349,23.612478,0.0 120.746623,23.612343,0.0 120.746858,23.612082,0.0 120.74713,23.611735,0.0 120.747446,23.611266,0.0 120.747643,23.611207,0.0 120.747839,23.611318,0.0 120.748103,23.611461,0.0 120.748474,23.611665,0.0 120.748785,23.611866,0.0 120.749,23.612015,0.0 120.749209,23.612203,0.0 120.749464,23.612522,0.0 120.749659,23.612831,0.0 120.74986,23.613116,0.0 120.749995,23.613383,0.0 120.750149,23.613611,0.0 120.750381,23.613941,0.0 120.750567,23.614183,0.0 120.750796,23.614377,0.0 120.751076,23.614509,0.0 120.751451,23.614636,0.0 120.751853,23.614702,0.0 120.752154,23.614759,0.0 120.752649,23.614811,0.0 120.752931,23.614848,0.0 120.753362,23.614824,0.0 120.753699,23.614788,0.0 120.753967,23.614739,0.0 120.754169,23.614687,0.0 120.754307,23.61464,0.0 120.754801,23.61444,0.0 120.75519,23.614253,0.0 120.755572,23.614042,0.0 120.755901,23.613826,0.0 120.75628,23.613528,0.0 120.756705,23.613244,0.0 120.757167,23.613013,0.0 120.757561,23.612824,0.0 120.757862,23.612639,0.0 120.758075,23.612585,0.0 120.758781,23.612378,0.0 120.7597,23.612398,0.0 120.760536,23.612363,0.0 120.761381,23.612322,0.0 120.76219,23.61233,0.0 120.762875,23.612453,0.0 120.763682,23.612465,0.0 120.764277,23.612238,0.0 120.764867,23.611857,0.0 120.765311,23.611384,0.0 120.765996,23.610658,0.0 120.766574,23.610038,0.0 120.767308,23.609649,0.0 120.767869,23.609442,0.0 120.768554,23.608957,0.0 120.769242,23.608539,0.0 120.769627,23.608076,0.0 120.769726,23.607589,0.0 120.769641,23.606934,0.0 120.769842,23.606372,0.0 120.770045,23.606057,0.0 120.770592,23.605906,0.0 120.771184,23.605902,0.0 120.772218,23.605818,0.0 120.773275,23.605655,0.0 120.774213,23.605361,0.0 120.775088,23.604935,0.0 120.776161,23.604332,0.0 120.776746,23.603834,0.0 120.777045,23.603222,0.0 120.777323,23.602676,0.0 120.777735,23.602327,0.0 120.779004,23.601805,0.0 120.780229,23.60147,0.0 120.781476,23.601222,0.0 120.783124,23.600739,0.0 120.784228,23.600772,0.0 120.785541,23.600963,0.0 120.786463,23.601181,0.0 120.787446,23.601271,0.0 120.788871,23.601209,0.0 120.790339,23.601044,0.0 120.791445,23.600624,0.0 120.792348,23.599841,0.0 120.793065,23.599192,0.0 120.79372,23.598629,0.0 120.794086,23.598241,0.0 120.7943,23.59788,0.0 120.794912,23.597249,0.0 120.79591,23.597173,0.0 120.796725,23.59722,0.0 120.797271,23.597374,0.0 120.79807,23.597445,0.0 120.799004,23.597317,0.0 120.799534,23.597173,0.0 120.800388,23.596784,0.0 120.8017,23.596639,0.0 120.802563,23.596584,0.0 120.803324,23.596648,0.0 120.803724,23.596824,0.0 120.80393,23.597306,0.0 120.804037,23.597658,0.0 120.804219,23.597929,0.0 120.804647,23.598257,0.0 120.80512,23.598619,0.0 120.805832,23.598762,0.0 120.806155,23.598771,0.0 120.806692,23.598704,0.0 120.807093,23.598605,0.0 120.80755,23.598531,0.0 120.807999,23.598593,0.0 120.808117,23.598595,0.0 120.809297,23.598689,0.0 120.810178,23.599052,0.0 120.811255,23.600136,0.0 120.812724,23.60059,0.0 120.813703,23.600952,0.0 120.813944,23.601074,0.0 120.813977,23.601192,0.0 120.814025,23.601497,0.0 120.814056,23.60165,0.0 120.814137,23.601838,0.0 120.814251,23.602124,0.0 120.814388,23.602348,0.0 120.815056,23.603198,0.0 120.815839,23.603869,0.0 120.816212,23.603817,0.0 120.816306,23.60381,0.0 120.817085,23.60383,0.0 120.817504,23.603885,0.0 120.817702,23.603948,0.0 120.81809,23.604048,0.0 120.818308,23.604475,0.0 120.818274,23.604606,0.0 120.817679,23.605217,0.0 120.817326,23.605544,0.0 120.81725,23.605776,0.0 120.81725,23.605988,0.0 120.817358,23.606627,0.0 120.817647,23.607291,0.0 120.817868,23.607646,0.0 120.818325,23.608116,0.0 120.818911,23.608374,0.0 120.819074,23.608431,0.0 120.819412,23.608433,0.0 120.819869,23.608466,0.0 120.82004,23.608511,0.0 120.820305,23.608624,0.0 120.820646,23.608737,0.0 120.820858,23.608681,0.0 120.82128,23.608763,0.0 120.821737,23.609071,0.0 120.822018,23.609329,0.0 120.821996,23.609394,0.0 120.821915,23.60952,0.0 120.821692,23.609704,0.0 120.821558,23.609885,0.0 120.821524,23.610061,0.0 120.821585,23.610289,0.0 120.821728,23.610484,0.0 120.821885,23.61061,0.0 120.822356,23.610882,0.0 120.823129,23.611266,0.0 120.823694,23.611507,0.0 120.823893,23.611617,0.0 120.824663,23.612153,0.0 120.825139,23.612535,0.0 120.825166,23.612574,0.0 120.8252,23.612747,0.0 120.825125,23.612973,0.0 120.824981,23.613223,0.0 120.824762,23.613537,0.0 120.824674,23.613657,0.0 120.824503,23.613776,0.0 120.824339,23.61385,0.0 120.824159,23.613904,0.0 120.824012,23.613994,0.0 120.823957,23.614082,0.0 120.823861,23.614292,0.0 120.823642,23.614944,0.0 120.82358,23.615303,0.0 120.823706,23.615953,0.0 120.823704,23.616361,0.0 120.82364,23.616694,0.0 120.823564,23.616938,0.0 120.823461,23.61736,0.0 120.823443,23.617458,0.0 120.823413,23.617793,0.0 120.823338,23.618107,0.0 120.823242,23.618365,0.0 120.823188,23.618428,0.0 120.823017,23.61852,0.0 120.822681,23.618486,0.0 120.822473,23.618449,0.0 120.82235,23.618485,0.0 120.822002,23.618805,0.0 120.821852,23.618931,0.0 120.821585,23.619143,0.0 120.821299,23.619339,0.0 120.8211,23.619471,0.0 120.821001,23.619501,0.0 120.820446,23.619514,0.0 120.819559,23.619721,0.0 120.819293,23.620053,0.0 120.819052,23.620371,0.0 120.818901,23.620571,0.0 120.818553,23.620998,0.0 120.818006,23.621582,0.0 120.817514,23.621941,0.0 120.817322,23.622145,0.0 120.816805,23.622754,0.0 120.816449,23.623192,0.0 120.816394,23.623329,0.0 120.816366,23.623618,0.0 120.816393,23.623806,0.0 120.8164,23.623989,0.0 120.816523,23.624133,0.0 120.816706,23.624465,0.0 120.816856,23.624836,0.0 120.816453,23.62491,0.0 120.816316,23.624959,0.0 120.81618,23.625061,0.0 120.816084,23.62521,0.0 120.816022,23.625467,0.0 120.816022,23.625738,0.0 120.816062,23.62602,0.0 120.816267,23.626316,0.0 120.816525,23.626598,0.0 120.816613,23.626987,0.0 120.816627,23.627294,0.0 120.816524,23.627594,0.0 120.816441,23.628052,0.0 120.816331,23.62861,0.0 120.816197,23.629123,0.0 120.816049,23.629355,0.0 120.815816,23.629535,0.0 120.815332,23.62987,0.0 120.815038,23.630071,0.0 120.814738,23.630308,0.0 120.814599,23.630591,0.0 120.814555,23.630807,0.0 120.814449,23.631481,0.0 120.81438,23.631953,0.0 120.814256,23.632529,0.0 120.814197,23.632783,0.0 120.814196,23.633002,0.0 120.814241,23.633248,0.0 120.814276,23.633391,0.0 120.81433,23.633766,0.0 120.81435,23.634037,0.0 120.814308,23.634693,0.0 120.814328,23.635095,0.0 120.814335,23.635258,0.0 120.814362,23.635341,0.0 120.814474,23.6357,0.0 120.814525,23.63598,0.0 120.814545,23.636093,0.0 120.814477,23.636339,0.0 120.814442,23.636452,0.0 120.814258,23.636833,0.0 120.813976,23.63729,0.0 120.813792,23.637655,0.0 120.813757,23.638052,0.0 120.813818,23.638434,0.0 120.813879,23.638704,0.0 120.813899,23.639012,0.0 120.813912,23.639375,0.0 120.813884,23.63972,0.0 120.813835,23.640587,0.0 120.813781,23.640882,0.0 120.813663,23.641113,0.0 120.813465,23.641447,0.0 120.812932,23.641988,0.0 120.812764,23.64209,0.0 120.812062,23.642396,0.0 120.811632,23.642573,0.0 120.811332,23.642722,0.0 120.810819,23.643157,0.0 120.810464,23.643502,0.0 120.809754,23.643984,0.0 120.809415,23.644159,0.0 120.809349,23.644201,0.0 120.809145,23.644372,0.0 120.808974,23.644629,0.0 120.808871,23.6449,0.0 120.80868,23.64527,0.0 120.808351,23.645791,0.0 120.808208,23.64596,0.0 120.808115,23.646025,0.0 120.807803,23.646126,0.0 120.807437,23.646137,0.0 120.807027,23.646166,0.0 120.806334,23.646373,0.0 120.806047,23.646388,0.0 120.805892,23.646429,0.0 120.805429,23.646577,0.0 120.805056,23.646793,0.0 120.804604,23.647118,0.0 120.804396,23.647454,0.0 120.80443,23.647763,0.0 120.804421,23.647987,0.0 120.804324,23.648226,0.0 120.804274,23.648359,0.0 120.804203,23.648621,0.0 120.804108,23.648914,0.0 120.804072,23.649099,0.0 120.803327,23.649302,0.0 120.802129,23.649122,0.0 120.801459,23.649089,0.0 120.801189,23.649071,0.0 120.800298,23.649183,0.0 120.800033,23.649279,0.0 120.799919,23.649345,0.0 120.79856,23.650097,0.0 120.797166,23.650793,0.0 120.796493,23.651096,0.0 120.796006,23.651347,0.0 120.79516,23.651795,0.0 120.793766,23.652515,0.0 120.793342,23.652831,0.0 120.79238,23.653511,0.0 120.79132,23.654313,0.0 120.790992,23.654504,0.0 120.790597,23.654718,0.0 120.790386,23.654818,0.0 120.788507,23.655596,0.0 120.787863,23.655864,0.0 120.787422,23.656073,0.0 120.787134,23.656101,0.0 120.786954,23.656064,0.0 120.786126,23.65565,0.0 120.785606,23.655389,0.0 120.785121,23.655249,0.0 120.784781,23.655142,0.0 120.784117,23.65517,0.0 120.783485,23.655319,0.0 120.78322,23.655406,0.0 120.782806,23.655487,0.0 120.782533,23.655365,0.0 120.782383,23.655236,0.0 120.781889,23.655081,0.0 120.780964,23.654933,0.0 120.780269,23.654962,0.0 120.779924,23.655085,0.0 120.779809,23.65516,0.0 120.779583,23.655367,0.0 120.779092,23.655836,0.0 120.778823,23.656082,0.0 120.778355,23.656519,0.0 120.777879,23.656955,0.0 120.777734,23.657108,0.0 120.777587,23.657313,0.0 120.777456,23.65744,0.0 120.777331,23.657581,0.0 120.776973,23.657917,0.0 120.776792,23.658034,0.0 120.776254,23.658227,0.0 120.776121,23.658259,0.0 120.775733,23.658323,0.0 120.775584,23.658339,0.0 120.775213,23.658388,0.0 120.774899,23.658451,0.0 120.774622,23.658509,0.0 120.774366,23.658615,0.0 120.773776,23.658756,0.0 120.773415,23.658853,0.0 120.772709,23.659112,0.0 120.77261,23.659149,0.0 120.772119,23.659282,0.0 120.771745,23.659291,0.0 120.771254,23.659337,0.0 120.771053,23.659407,0.0 120.770672,23.659612,0.0 120.770522,23.659831,0.0 120.770407,23.660049,0.0 120.770115,23.660699,0.0 120.770061,23.660902,0.0 120.76999,23.661419,0.0 120.769945,23.66176,0.0 120.769811,23.66257,0.0 120.769678,23.662961,0.0 120.769297,23.66382,0.0 120.769279,23.663913,0.0 120.769306,23.664393,0.0 120.76941,23.665141,0.0 120.769497,23.665766,0.0 120.769505,23.66611,0.0 120.769504,23.666617,0.0 120.769478,23.666787,0.0 120.769384,23.667044,0.0 120.769284,23.667296,0.0 120.769176,23.667565,0.0 120.768937,23.667944,0.0 120.768816,23.668142,0.0 120.768601,23.66844,0.0 120.768477,23.668878,0.0 120.768512,23.669185,0.0 120.768536,23.669266,0.0 120.768643,23.669623,0.0 120.768714,23.66982,0.0 120.768775,23.670005,0.0 120.768819,23.67012,0.0 120.768921,23.670425,0.0 120.769017,23.67075,0.0 120.769051,23.670922,0.0 120.769112,23.671342,0.0 120.769105,23.671604,0.0 120.769015,23.671854,0.0 120.768926,23.671992,0.0 120.768809,23.67219,0.0 120.768678,23.672359,0.0 120.768449,23.672582,0.0 120.768437,23.672595,0.0 120.768334,23.672729,0.0 120.76814,23.672866,0.0 120.76791,23.672963,0.0 120.767557,23.673044,0.0 120.767241,23.673091,0.0 120.766825,23.673149,0.0 120.766552,23.67318,0.0 120.766086,23.673397,0.0 120.765934,23.673545,0.0 120.765719,23.673632,0.0 120.765197,23.673737,0.0 120.764643,23.673818,0.0 120.764546,23.673841,0.0 120.764467,23.673906,0.0 120.764435,23.674087,0.0 120.764423,23.674322,0.0 120.764421,23.674734,0.0 120.764377,23.675063,0.0 120.76436,23.675159,0.0 120.76427,23.675391,0.0 120.764217,23.675479,0.0 120.764052,23.67569,0.0 120.763877,23.67589,0.0 120.76371,23.676015,0.0 120.763193,23.676371,0.0 120.762659,23.676879,0.0 120.762517,23.677163,0.0 120.762482,23.677375,0.0 120.762507,23.67782,0.0 120.762619,23.678287,0.0 120.762652,23.678399,0.0 120.762662,23.678542,0.0 120.762643,23.678736,0.0 120.762645,23.678809,0.0 120.762673,23.678949,0.0 120.762632,23.67905,0.0 120.762523,23.679127,0.0 120.762346,23.679184,0.0 120.761934,23.679205,0.0 120.761754,23.679205,0.0 120.761412,23.679191,0.0 120.761068,23.679109,0.0 120.760749,23.679051,0.0 120.760266,23.678961,0.0 120.759913,23.678944,0.0 120.759049,23.678968,0.0 120.758652,23.679015,0.0 120.758268,23.679049,0.0 120.75796,23.679041,0.0 120.757801,23.679284,0.0 120.75764,23.679636,0.0 120.757516,23.679911,0.0 120.757284,23.680414,0.0 120.757241,23.680523,0.0 120.757115,23.680705,0.0 120.756977,23.680841,0.0 120.756693,23.680996,0.0 120.756298,23.681141,0.0 120.756135,23.681192,0.0 120.75594,23.681241,0.0 120.755769,23.681269,0.0 120.755322,23.681391,0.0 120.755154,23.681441,0.0 120.754764,23.681614,0.0 120.754462,23.681742,0.0 120.753496,23.682218,0.0 120.753399,23.682277,0.0 120.753193,23.682404,0.0 120.752891,23.682538,0.0 120.752571,23.682711,0.0 120.752464,23.682766,0.0 120.752032,23.682991,0.0 120.751913,23.683059,0.0 120.751362,23.683387,0.0 120.750946,23.683673,0.0 120.750865,23.683728,0.0 120.750287,23.684036,0.0 120.749659,23.684421,0.0 120.74891,23.684928,0.0 120.748552,23.685166,0.0 120.748256,23.68536,0.0 120.747423,23.685871,0.0 120.747223,23.685997,0.0 120.746442,23.686694,0.0 120.7462,23.686902,0.0 120.745302,23.687682,0.0 120.745133,23.687856,0.0 120.744568,23.688399,0.0 120.744304,23.688584,0.0 120.744233,23.68863,0.0 120.743809,23.688908,0.0 120.743377,23.689025,0.0 120.742534,23.689199,0.0 120.742228,23.689305,0.0 120.741922,23.689431,0.0 120.741525,23.689608,0.0 120.74111,23.689992,0.0 120.740561,23.690535,0.0 120.740055,23.690854,0.0 120.739821,23.690939,0.0 120.739443,23.691095,0.0 120.739268,23.691191,0.0 120.739135,23.691332,0.0 120.739027,23.691528,0.0 120.738974,23.691763,0.0 120.738942,23.692002,0.0 120.738888,23.692254,0.0 120.73874,23.692805,0.0 120.738666,23.692961,0.0 120.738571,23.693116,0.0 120.738529,23.693272,0.0 120.738233,23.693736,0.0 120.738127,23.693901,0.0 120.737702,23.694522,0.0 120.737579,23.694687,0.0 120.737259,23.695069,0.0 120.737041,23.695383,0.0 120.7369,23.69561,0.0 120.736848,23.695767,0.0 120.736793,23.695862,0.0 120.736551,23.695998,0.0 120.736361,23.696009,0.0 120.73613,23.695999,0.0 120.735919,23.695988,0.0 120.735578,23.69602,0.0 120.735233,23.696115,0.0 120.73517,23.696201,0.0 120.735066,23.696794,0.0 120.73499,23.696985,0.0 120.734923,23.697106,0.0 120.734723,23.697281,0.0 120.73434,23.697627,0.0 120.734186,23.697857,0.0 120.734088,23.698034,0.0 120.733948,23.698163,0.0 120.733589,23.698339,0.0 120.733502,23.698426,0.0 120.733383,23.698518,0.0 120.733272,23.69855,0.0 120.733136,23.698504,0.0 120.732906,23.698511,0.0 120.73285,23.698551,0.0 120.732777,23.698626,0.0 120.732728,23.698696,0.0 120.732721,23.698752,0.0 120.732749,23.698851,0.0 120.732773,23.699034,0.0 120.732745,23.699199,0.0 120.732701,23.699289,0.0 120.732379,23.699652,0.0 120.732274,23.699864,0.0 120.732178,23.699948,0.0 120.731887,23.700119,0.0 120.731744,23.700186,0.0 120.731489,23.700332,0.0 120.731269,23.700467,0.0 120.731235,23.700522,0.0 120.731193,23.700627,0.0 120.731178,23.700844,0.0 120.731234,23.701,0.0 120.731401,23.701201,0.0 120.731502,23.701382,0.0 120.731541,23.701475,0.0 120.73168,23.701642,0.0 120.731898,23.70187,0.0 120.732135,23.702108,0.0 120.732162,23.702155,0.0 120.732294,23.702384,0.0 120.732396,23.702511,0.0 120.732743,23.702849,0.0 120.733002,23.702954,0.0 120.733136,23.702972,0.0 120.733267,23.703023,0.0 120.733627,23.703201,0.0 120.733698,23.703224,0.0 120.733811,23.703337,0.0 120.734032,23.70352,0.0 120.73428,23.703633,0.0 120.734399,23.703728,0.0 120.734619,23.704029,0.0 120.7349,23.704415,0.0 120.734971,23.704527,0.0 120.735085,23.704843,0.0 120.7351,23.704895,0.0 120.735211,23.705529,0.0 120.735198,23.705727,0.0 120.735172,23.705965,0.0 120.735188,23.706166,0.0 120.735305,23.706439,0.0 120.735417,23.706649,0.0 120.735572,23.706999,0.0 120.735776,23.707214,0.0 120.735938,23.707422,0.0 120.735983,23.707605,0.0 120.736002,23.707835,0.0 120.736057,23.707934,0.0 120.736146,23.70812,0.0 120.736369,23.708522,0.0 120.73648,23.708775,0.0 120.736642,23.709213,0.0 120.736635,23.709279,0.0 120.736447,23.709827,0.0 120.736295,23.710255,0.0 120.736141,23.710395,0.0 120.735939,23.710647,0.0 120.735812,23.710824,0.0 120.735581,23.711169,0.0 120.735455,23.711313,0.0 120.735279,23.711493,0.0 120.735128,23.711618,0.0 120.735064,23.71168,0.0 120.735056,23.71175,0.0 120.735022,23.711971,0.0 120.734996,23.712061,0.0 120.734894,23.712207,0.0 120.734862,23.712261,0.0 120.734685,23.71251,0.0 120.734562,23.712695,0.0 120.734526,23.712837,0.0 120.734452,23.712943,0.0 120.734272,23.713128,0.0 120.734049,23.71334,0.0 120.733985,23.713394,0.0 120.73385,23.713479,0.0 120.733569,23.713614,0.0 120.733364,23.713661,0.0 120.733136,23.713706,0.0 120.733055,23.713878,0.0 120.733045,23.71395,0.0 120.733044,23.713992,0.0</coordinates></LinearRing></outerBoundaryIs></Polygon><styleUrl>#spolygon-map</styleUrl></Placemark><Placemark><Polygon><outerBoundaryIs><LinearRing><coordinates>120.705649,23.817593,0.0 120.705263,23.817121,0.0 120.704186,23.815672,0.0 120.703172,23.814406,0.0 120.702862,23.814015,0.0 120.701691,23.812656,0.0 120.70036,23.811005,0.0 120.698475,23.808891,0.0 120.697543,23.807916,0.0 120.696817,23.807294,0.0 120.696286,23.806954,0.0 120.695555,23.806449,0.0 120.695198,23.80622,0.0 120.695385,23.804659,0.0 120.696171,23.80227,0.0 120.696965,23.800851,0.0 120.69817,23.799418,0.0 120.705345,23.794752,0.0 120.707949,23.791972,0.0 120.710824,23.789731,0.0 120.71426,23.788451,0.0 120.716516,23.788592,0.0 120.72311,23.792483,0.0 120.727346,23.793818,0.0 120.729423,23.79351,0.0 120.732099,23.790979,0.0 120.735833,23.7888,0.0 120.739184,23.787869,0.0 120.741214,23.786592,0.0 120.74161,23.786318,0.0 120.741838,23.786285,0.0 120.742313,23.786344,0.0 120.742591,23.786374,0.0 120.742878,23.786535,0.0 120.743544,23.786759,0.0 120.74388,23.786841,0.0 120.743962,23.786911,0.0 120.744098,23.787297,0.0 120.744266,23.787575,0.0 120.744284,23.78811,0.0 120.744471,23.788248,0.0 120.744745,23.78831,0.0 120.744854,23.788441,0.0 120.745033,23.788753,0.0 120.744542,23.78961,0.0 120.743577,23.790432,0.0 120.738444,23.792767,0.0 120.736409,23.795075,0.0 120.7363,23.797768,0.0 120.735538,23.800173,0.0 120.732144,23.802966,0.0 120.73064,23.804562,0.0 120.7289,23.806013,0.0 120.726848,23.805451,0.0 120.723645,23.805331,0.0 120.72231,23.805671,0.0 120.721769,23.806524,0.0 120.722097,23.807673,0.0 120.721728,23.808722,0.0 120.721023,23.809653,0.0 120.718968,23.810596,0.0 120.716467,23.810785,0.0 120.71307,23.809533,0.0 120.709593,23.811878,0.0 120.705827,23.81742,0.0 120.705649,23.817593,0.0</coordinates></LinearRing></outerBoundaryIs></Polygon><styleUrl>#spolygon-map</styleUrl></Placemark><Placemark><Polygon><outerBoundaryIs><LinearRing><coordinates>120.682093,23.755174,0.0 120.679274,23.753795,0.0 120.67644,23.754264,0.0 120.673501,23.754291,0.0 120.673748,23.751639,0.0 120.674052,23.750419,0.0 120.675158,23.74899,0.0 120.677388,23.748719,0.0 120.677533,23.747954,0.0 120.681692,23.747929,0.0 120.683537,23.749293,0.0 120.683419,23.750159,0.0 120.683125,23.752338,0.0 120.683207,23.752574,0.0 120.68353,23.752813,0.0 120.685229,23.753335,0.0 120.684179,23.754311,0.0 120.682802,23.7545,0.0 120.682093,23.755174,0.0</coordinates></LinearRing></outerBoundaryIs></Polygon><styleUrl>#spolygon-map</styleUrl></Placemark><Placemark><Polygon><outerBoundaryIs><LinearRing><coordinates>120.733017,23.831222,0.0 120.73264,23.831336,0.0 120.731888,23.831601,0.0 120.731511,23.831802,0.0 120.731006,23.832239,0.0 120.730856,23.832372,0.0 120.730581,23.832529,0.0 120.73005,23.832772,0.0 120.729658,23.833076,0.0 120.729364,23.833234,0.0 120.729021,23.833359,0.0 120.728525,23.833645,0.0 120.72799,23.834024,0.0 120.727231,23.833061,0.0 120.726747,23.832701,0.0 120.725562,23.831879,0.0 120.724743,23.83144,0.0 120.723735,23.830905,0.0 120.722887,23.830454,0.0 120.722413,23.829932,0.0 120.723983,23.827201,0.0 120.72474,23.82395,0.0 120.725201,23.821343,0.0 120.726737,23.81835,0.0 120.727383,23.815107,0.0 120.727702,23.810674,0.0 120.72922,23.809253,0.0 120.733284,23.808088,0.0 120.73325,23.80521,0.0 120.735538,23.800173,0.0 120.7363,23.797768,0.0 120.736409,23.795075,0.0 120.738444,23.792767,0.0 120.743577,23.790432,0.0 120.744542,23.78961,0.0 120.745215,23.788956,0.0 120.745491,23.789146,0.0 120.745615,23.789097,0.0 120.745842,23.788894,0.0 120.746321,23.78899,0.0 120.74669,23.789112,0.0 120.746939,23.789216,0.0 120.747356,23.789206,0.0 120.747592,23.789236,0.0 120.747776,23.789398,0.0 120.748078,23.789471,0.0 120.748214,23.789498,0.0 120.748674,23.789738,0.0 120.749075,23.790019,0.0 120.749619,23.789957,0.0 120.749811,23.78998,0.0 120.750179,23.789924,0.0 120.750555,23.789714,0.0 120.750895,23.789534,0.0 120.75109,23.789539,0.0 120.751436,23.78977,0.0 120.751718,23.789892,0.0 120.752388,23.790056,0.0 120.752778,23.790276,0.0 120.753051,23.790378,0.0 120.753209,23.790484,0.0 120.753256,23.79081,0.0 120.753286,23.790949,0.0 120.753321,23.791611,0.0 120.753343,23.791893,0.0 120.753534,23.792171,0.0 120.753726,23.792252,0.0 120.754163,23.792779,0.0 120.754566,23.792987,0.0 120.754402,23.793237,0.0 120.752885,23.794931,0.0 120.748748,23.796619,0.0 120.745517,23.799345,0.0 120.743557,23.800821,0.0 120.739918,23.805506,0.0 120.738969,23.811197,0.0 120.739378,23.817352,0.0 120.739893,23.82108,0.0 120.736251,23.82494,0.0 120.733179,23.829933,0.0 120.733017,23.831222,0.0</coordinates></LinearRing></outerBoundaryIs></Polygon><styleUrl>#spolygon-map</styleUrl></Placemark><Placemark><Polygon><outerBoundaryIs><LinearRing><coordinates>120.686505,23.754212,0.0 120.685461,23.755012,0.0 120.684822,23.755866,0.0 120.683584,23.756274,0.0 120.682093,23.755174,0.0 120.683601,23.755193,0.0 120.684995,23.753534,0.0 120.685638,23.753492,0.0 120.686364,23.753933,0.0 120.686505,23.754212,0.0</coordinates></LinearRing></outerBoundaryIs></Polygon><styleUrl>#spolygon-map</styleUrl></Placemark><Placemark><Polygon><outerBoundaryIs><LinearRing><coordinates>120.645928,23.787011,0.0 120.645697,23.786978,0.0 120.64534,23.786943,0.0 120.645153,23.786921,0.0 120.644832,23.786855,0.0 120.644571,23.786755,0.0 120.644098,23.786531,0.0 120.643502,23.78622,0.0 120.643122,23.786009,0.0 120.642712,23.785813,0.0 120.64233,23.785693,0.0 120.641972,23.785638,0.0 120.641536,23.785624,0.0 120.641184,23.785765,0.0 120.640816,23.785924,0.0 120.640471,23.786023,0.0 120.640406,23.785887,0.0 120.640512,23.785608,0.0 120.640669,23.78524,0.0 120.640819,23.784922,0.0 120.640956,23.78464,0.0 120.641112,23.784298,0.0 120.641287,23.783905,0.0 120.641463,23.783515,0.0 120.64162,23.78315,0.0 120.641802,23.782784,0.0 120.641997,23.782417,0.0 120.642267,23.781948,0.0 120.642565,23.781502,0.0 120.642817,23.781161,0.0 120.643125,23.78079,0.0 120.643435,23.78045,0.0 120.643709,23.780139,0.0 120.643979,23.779789,0.0 120.644242,23.779447,0.0 120.644462,23.779097,0.0 120.644726,23.778658,0.0 120.644956,23.778327,0.0 120.645259,23.777876,0.0 120.645531,23.777466,0.0 120.645927,23.776945,0.0 120.646282,23.776569,0.0 120.646587,23.776224,0.0 120.646952,23.77574,0.0 120.647259,23.775318,0.0 120.647574,23.774867,0.0 120.647855,23.774419,0.0 120.647973,23.774239,0.0 120.648149,23.773905,0.0 120.648311,23.77356,0.0 120.648427,23.773328,0.0 120.648493,23.773215,0.0 120.648601,23.772818,0.0 120.648825,23.77231,0.0 120.648938,23.771999,0.0 120.64912,23.771525,0.0 120.649335,23.770962,0.0 120.649569,23.770384,0.0 120.649777,23.769877,0.0 120.650006,23.769302,0.0 120.650226,23.768785,0.0 120.650345,23.768483,0.0 120.650564,23.767919,0.0 120.650707,23.767574,0.0 120.650961,23.766929,0.0 120.651191,23.766354,0.0 120.651418,23.765792,0.0 120.651612,23.765305,0.0 120.651835,23.764734,0.0 120.651964,23.764378,0.0 120.652192,23.763825,0.0 120.652378,23.763345,0.0 120.652588,23.762835,0.0 120.652761,23.7624,0.0 120.652918,23.762001,0.0 120.653074,23.761602,0.0 120.653195,23.761293,0.0 120.653312,23.760972,0.0 120.65344,23.760679,0.0 120.65842,23.760891,0.0 120.662422,23.761372,0.0 120.662251,23.761823,0.0 120.662821,23.762508,0.0 120.664099,23.762344,0.0 120.670548,23.761288,0.0 120.671318,23.762475,0.0 120.671309,23.764127,0.0 120.669776,23.770058,0.0 120.667877,23.774779,0.0 120.667365,23.778595,0.0 120.666544,23.779395,0.0 120.664405,23.779171,0.0 120.661708,23.779581,0.0 120.660382,23.781449,0.0 120.65939,23.784176,0.0 120.657664,23.789227,0.0 120.657265,23.79071,0.0 120.655866,23.79021,0.0 120.65486,23.789885,0.0 120.654223,23.789651,0.0 120.65357,23.789447,0.0 120.652965,23.7893,0.0 120.652536,23.789198,0.0 120.652098,23.789081,0.0 120.651994,23.789038,0.0 120.651701,23.788938,0.0 120.651298,23.788792,0.0 120.650847,23.78862,0.0 120.650374,23.788457,0.0 120.650063,23.788341,0.0 120.649457,23.788121,0.0 120.649013,23.787936,0.0 120.648601,23.787794,0.0 120.648131,23.787688,0.0 120.647882,23.78762,0.0 120.647516,23.787477,0.0 120.647166,23.787323,0.0 120.646779,23.787187,0.0 120.64637,23.787089,0.0 120.646046,23.787034,0.0 120.645928,23.787011,0.0</coordinates></LinearRing></outerBoundaryIs></Polygon><styleUrl>#spolygon-map</styleUrl></Placemark><Placemark><Polygon><outerBoundaryIs><LinearRing><coordinates>120.670548,23.761288,0.0 120.664099,23.762344,0.0 120.662821,23.762508,0.0 120.662251,23.761823,0.0 120.662422,23.761372,0.0 120.65842,23.760891,0.0 120.65344,23.760679,0.0 120.653651,23.76016,0.0 120.653879,23.759579,0.0 120.654117,23.75899,0.0 120.65432,23.75848,0.0 120.654573,23.757833,0.0 120.654774,23.757364,0.0 120.654969,23.756849,0.0 120.655205,23.756279,0.0 120.655449,23.755686,0.0 120.655586,23.7553,0.0 120.655686,23.755025,0.0 120.655775,23.754695,0.0 120.655824,23.754407,0.0 120.655887,23.754131,0.0 120.655942,23.753851,0.0 120.655939,23.753684,0.0 120.655869,23.7534,0.0 120.655728,23.752865,0.0 120.655604,23.75235,0.0 120.655482,23.751848,0.0 120.655336,23.751225,0.0 120.655248,23.750868,0.0 120.655044,23.750082,0.0 120.654834,23.74921,0.0 120.654708,23.748688,0.0 120.654811,23.74847,0.0 120.659084,23.748427,0.0 120.66238,23.748572,0.0 120.674218,23.748487,0.0 120.674052,23.750419,0.0 120.673748,23.751639,0.0 120.673501,23.754291,0.0 120.673287,23.755422,0.0 120.672694,23.756215,0.0 120.671734,23.756737,0.0 120.670179,23.757156,0.0 120.669505,23.758292,0.0 120.669523,23.759626,0.0 120.670548,23.761288,0.0</coordinates></LinearRing></outerBoundaryIs></Polygon><styleUrl>#spolygon-map</styleUrl></Placemark><Placemark><Polygon><outerBoundaryIs><LinearRing><coordinates>120.681613,23.728418,0.0 120.680034,23.728001,0.0 120.678728,23.728003,0.0 120.680559,23.719521,0.0 120.680663,23.718287,0.0 120.680021,23.716883,0.0 120.679135,23.715843,0.0 120.67864,23.715201,0.0 120.677998,23.714064,0.0 120.678361,23.713297,0.0 120.679163,23.711705,0.0 120.679749,23.708214,0.0 120.67935,23.705389,0.0 120.679218,23.704102,0.0 120.679728,23.703503,0.0 120.680499,23.702432,0.0 120.681387,23.696251,0.0 120.683069,23.693529,0.0 120.685146,23.693023,0.0 120.686643,23.69265,0.0 120.688819,23.691087,0.0 120.69,23.689464,0.0 120.691158,23.688401,0.0 120.694019,23.687899,0.0 120.696787,23.688159,0.0 120.701696,23.690228,0.0 120.706373,23.688954,0.0 120.711606,23.689506,0.0 120.713461,23.696438,0.0 120.714051,23.702888,0.0 120.711361,23.706552,0.0 120.709792,23.707614,0.0 120.708405,23.708546,0.0 120.701978,23.712333,0.0 120.69678,23.715698,0.0 120.695925,23.717064,0.0 120.695995,23.718509,0.0 120.694989,23.718471,0.0 120.694248,23.7187,0.0 120.693502,23.71943,0.0 120.69232,23.722012,0.0 120.691715,23.722537,0.0 120.689542,23.722553,0.0 120.688659,23.723285,0.0 120.68789,23.725015,0.0 120.685547,23.728308,0.0 120.684663,23.728844,0.0 120.683687,23.728971,0.0 120.681613,23.728418,0.0</coordinates></LinearRing></outerBoundaryIs></Polygon><styleUrl>#spolygon-map</styleUrl></Placemark><Placemark><Polygon><outerBoundaryIs><LinearRing><coordinates>120.683058,23.76196,0.0 120.681282,23.759073,0.0 120.680917,23.756269,0.0 120.682093,23.755174,0.0 120.683584,23.756274,0.0 120.684822,23.755866,0.0 120.685461,23.755012,0.0 120.686505,23.754212,0.0 120.68674,23.754847,0.0 120.687163,23.75584,0.0 120.687351,23.756071,0.0 120.687714,23.756458,0.0 120.687789,23.756719,0.0 120.687811,23.757298,0.0 120.687662,23.757652,0.0 120.687243,23.758735,0.0 120.686226,23.760463,0.0 120.685378,23.761321,0.0 120.684716,23.76159,0.0 120.683365,23.76185,0.0 120.683058,23.76196,0.0</coordinates></LinearRing></outerBoundaryIs></Polygon><styleUrl>#spolygon-map</styleUrl></Placemark><Placemark><Polygon><outerBoundaryIs><LinearRing><coordinates>120.670994,23.766054,0.0 120.671275,23.763077,0.0 120.671147,23.762025,0.0 120.673926,23.760819,0.0 120.679418,23.757401,0.0 120.680235,23.756865,0.0 120.681282,23.759073,0.0 120.681795,23.76149,0.0 120.68012,23.762884,0.0 120.679642,23.763027,0.0 120.678886,23.7635,0.0 120.678536,23.763722,0.0 120.678513,23.764318,0.0 120.678431,23.764508,0.0 120.677497,23.764668,0.0 120.677261,23.764778,0.0 120.676448,23.765355,0.0 120.676296,23.765515,0.0 120.676184,23.76583,0.0 120.675714,23.76599,0.0 120.675037,23.766424,0.0 120.674757,23.766843,0.0 120.67466,23.76713,0.0 120.673771,23.767148,0.0 120.670994,23.766054,0.0</coordinates></LinearRing></outerBoundaryIs></Polygon><styleUrl>#spolygon-map</styleUrl></Placemark><Placemark><Polygon><outerBoundaryIs><LinearRing><coordinates>120.681692,23.747929,0.0 120.680524,23.746949,0.0 120.679844,23.74337,0.0 120.679286,23.739179,0.0 120.679409,23.737639,0.0 120.680955,23.735879,0.0 120.681603,23.731282,0.0 120.682816,23.728876,0.0 120.684392,23.728909,0.0 120.685278,23.728572,0.0 120.685825,23.72781,0.0 120.688339,23.724382,0.0 120.688982,23.722608,0.0 120.690603,23.72249,0.0 120.692017,23.722353,0.0 120.692527,23.721381,0.0 120.69388,23.718902,0.0 120.694495,23.718612,0.0 120.695512,23.718508,0.0 120.695962,23.718067,0.0 120.696105,23.716426,0.0 120.699756,23.713679,0.0 120.704244,23.711297,0.0 120.709341,23.7079,0.0 120.710891,23.706925,0.0 120.712201,23.705479,0.0 120.714503,23.707501,0.0 120.715409,23.70999,0.0 120.714898,23.711414,0.0 120.715322,23.712792,0.0 120.721732,23.719975,0.0 120.721388,23.721469,0.0 120.721382,23.723115,0.0 120.721141,23.723627,0.0 120.719637,23.725211,0.0 120.719425,23.727082,0.0 120.719677,23.729819,0.0 120.718705,23.731688,0.0 120.718386,23.732859,0.0 120.711939,23.735168,0.0 120.710522,23.735378,0.0 120.705645,23.736813,0.0 120.704404,23.737023,0.0 120.702408,23.73708,0.0 120.701234,23.737482,0.0 120.700149,23.738293,0.0 120.699211,23.738449,0.0 120.698018,23.737232,0.0 120.697085,23.736621,0.0 120.695494,23.736751,0.0 120.694517,23.73823,0.0 120.691766,23.739886,0.0 120.689356,23.740725,0.0 120.686623,23.742799,0.0 120.686024,23.743563,0.0 120.685827,23.745565,0.0 120.685622,23.746501,0.0 120.684206,23.74838,0.0 120.683924,23.748794,0.0 120.681692,23.747929,0.0</coordinates></LinearRing></outerBoundaryIs></Polygon><styleUrl>#spolygon-map</styleUrl></Placemark><Placemark><Polygon><outerBoundaryIs><LinearRing><coordinates>120.711606,23.689506,0.0 120.706373,23.688954,0.0 120.701696,23.690228,0.0 120.696787,23.688159,0.0 120.694019,23.687899,0.0 120.691158,23.688401,0.0 120.69,23.689464,0.0 120.688819,23.691087,0.0 120.686643,23.69265,0.0 120.685146,23.693023,0.0 120.683069,23.693529,0.0 120.681387,23.696251,0.0 120.677976,23.691492,0.0 120.675884,23.6859,0.0 120.674217,23.683899,0.0 120.667919,23.682165,0.0 120.663409,23.680474,0.0 120.662976,23.677628,0.0 120.662357,23.6732,0.0 120.663473,23.671236,0.0 120.66488,23.670745,0.0 120.667664,23.670586,0.0 120.670365,23.670384,0.0 120.672415,23.669497,0.0 120.67418,23.668245,0.0 120.675917,23.666992,0.0 120.67717,23.666392,0.0 120.678763,23.665661,0.0 120.679844,23.665481,0.0 120.680724,23.666137,0.0 120.682142,23.667345,0.0 120.6838,23.668274,0.0 120.684529,23.667847,0.0 120.685584,23.666644,0.0 120.686411,23.665338,0.0 120.686841,23.663845,0.0 120.687838,23.66314,0.0 120.688581,23.663257,0.0 120.69068,23.663349,0.0 120.692272,23.663542,0.0 120.693266,23.663754,0.0 120.693835,23.663545,0.0 120.69532,23.662241,0.0 120.696021,23.661797,0.0 120.696683,23.661379,0.0 120.698091,23.66144,0.0 120.698586,23.661918,0.0 120.698646,23.662812,0.0 120.698063,23.664526,0.0 120.699983,23.665828,0.0 120.70147,23.667544,0.0 120.702788,23.668005,0.0 120.703777,23.669185,0.0 120.703905,23.670617,0.0 120.704204,23.671137,0.0 120.704875,23.671343,0.0 120.706552,23.671021,0.0 120.707628,23.670908,0.0 120.709227,23.672051,0.0 120.711501,23.671828,0.0 120.712529,23.672139,0.0 120.715139,23.670999,0.0 120.716214,23.670963,0.0 120.718492,23.670206,0.0 120.720748,23.669867,0.0 120.724042,23.669101,0.0 120.724182,23.670097,0.0 120.723689,23.674782,0.0 120.722545,23.678105,0.0 120.721606,23.678524,0.0 120.721207,23.678889,0.0 120.721885,23.680696,0.0 120.722166,23.682398,0.0 120.72202,23.684279,0.0 120.721009,23.68597,0.0 120.718484,23.687295,0.0 120.714954,23.687401,0.0 120.713095,23.68791,0.0 120.711606,23.689506,0.0</coordinates></LinearRing></outerBoundaryIs></Polygon><styleUrl>#spolygon-map</styleUrl></Placemark><Placemark><Polygon><outerBoundaryIs><LinearRing><coordinates>120.729424,23.761184,0.0 120.727584,23.759259,0.0 120.725975,23.758901,0.0 120.723763,23.759317,0.0 120.719962,23.761191,0.0 120.716933,23.76198,0.0 120.713905,23.761909,0.0 120.711864,23.761352,0.0 120.709681,23.759601,0.0 120.711436,23.757649,0.0 120.713562,23.755822,0.0 120.713287,23.754783,0.0 120.712289,23.75331,0.0 120.711417,23.75213,0.0 120.711292,23.750913,0.0 120.711939,23.749277,0.0 120.714132,23.746107,0.0 120.715364,23.74324,0.0 120.715748,23.741187,0.0 120.717186,23.738758,0.0 120.717695,23.737757,0.0 120.71793,23.737042,0.0 120.718212,23.734972,0.0 120.718464,23.732336,0.0 120.719596,23.730153,0.0 120.719752,23.729492,0.0 120.719345,23.726012,0.0 120.720448,23.72442,0.0 120.721302,23.723422,0.0 120.721507,23.722738,0.0 120.721482,23.720754,0.0 120.723235,23.719224,0.0 120.725046,23.717929,0.0 120.728022,23.713537,0.0 120.730322,23.712521,0.0 120.732107,23.713156,0.0 120.733044,23.713992,0.0 120.732983,23.714273,0.0 120.73286,23.714476,0.0 120.732878,23.714715,0.0 120.732948,23.714896,0.0 120.733136,23.715239,0.0 120.733235,23.715607,0.0 120.733315,23.715754,0.0 120.733655,23.716093,0.0 120.734189,23.716541,0.0 120.734211,23.716631,0.0 120.733957,23.717435,0.0 120.733854,23.717714,0.0 120.733875,23.718008,0.0 120.734007,23.718349,0.0 120.734021,23.718561,0.0 120.734057,23.718719,0.0 120.7342,23.718918,0.0 120.734405,23.71895,0.0 120.734613,23.719048,0.0 120.734682,23.719276,0.0 120.734744,23.719486,0.0 120.734909,23.719563,0.0 120.735034,23.71969,0.0 120.735055,23.719956,0.0 120.735121,23.720044,0.0 120.735307,23.720182,0.0 120.735402,23.720385,0.0 120.735376,23.720503,0.0 120.735259,23.720591,0.0 120.735262,23.720713,0.0 120.735335,23.72092,0.0 120.735306,23.721065,0.0 120.735181,23.72127,0.0 120.735227,23.721694,0.0 120.735326,23.721957,0.0 120.735314,23.722248,0.0 120.73536,23.722399,0.0 120.735565,23.722521,0.0 120.735912,23.722912,0.0 120.735939,23.723131,0.0 120.735756,23.723346,0.0 120.735489,23.723465,0.0 120.735298,23.723573,0.0 120.73519,23.723783,0.0 120.735201,23.723945,0.0 120.735368,23.72414,0.0 120.735813,23.724407,0.0 120.736111,23.724789,0.0 120.736318,23.725085,0.0 120.736425,23.725261,0.0 120.73652,23.725528,0.0 120.736547,23.725844,0.0 120.736503,23.726121,0.0 120.736283,23.726374,0.0 120.736036,23.726484,0.0 120.735706,23.726384,0.0 120.735459,23.72637,0.0 120.735139,23.726437,0.0 120.734876,23.726651,0.0 120.734464,23.727073,0.0 120.734293,23.727357,0.0 120.734065,23.727668,0.0 120.733654,23.727873,0.0 120.733323,23.728272,0.0 120.733223,23.728635,0.0 120.733258,23.728795,0.0 120.733557,23.729232,0.0 120.733931,23.729528,0.0 120.734603,23.730012,0.0 120.734778,23.730304,0.0 120.734948,23.730694,0.0 120.735079,23.731094,0.0 120.735238,23.731377,0.0 120.735301,23.731517,0.0 120.735424,23.731867,0.0 120.735563,23.732138,0.0 120.735594,23.732551,0.0 120.735545,23.733285,0.0 120.73554,23.73365,0.0 120.735475,23.734039,0.0 120.735252,23.73421,0.0 120.734937,23.734566,0.0 120.734428,23.735227,0.0 120.734021,23.735842,0.0 120.733785,23.736054,0.0 120.733514,23.736178,0.0 120.733138,23.736251,0.0 120.732856,23.736287,0.0 120.732323,23.736309,0.0 120.731854,23.736344,0.0 120.731674,23.736382,0.0 120.731091,23.736629,0.0 120.730722,23.736836,0.0 120.730608,23.736967,0.0 120.730624,23.737207,0.0 120.730801,23.737372,0.0 120.731229,23.737813,0.0 120.731453,23.738106,0.0 120.731641,23.738375,0.0 120.73204,23.738884,0.0 120.732126,23.739227,0.0 120.732118,23.739494,0.0 120.731831,23.739762,0.0 120.731715,23.739766,0.0 120.731522,23.739673,0.0 120.731104,23.739424,0.0 120.730727,23.739405,0.0 120.730356,23.739251,0.0 120.72993,23.739233,0.0 120.729627,23.739214,0.0 120.729291,23.739175,0.0 120.728753,23.73909,0.0 120.728478,23.739153,0.0 120.728292,23.739322,0.0 120.728162,23.739385,0.0 120.728104,23.739478,0.0 120.728088,23.739633,0.0 120.728289,23.739995,0.0 120.72855,23.740289,0.0 120.728693,23.740501,0.0 120.72888,23.740777,0.0 120.729015,23.741078,0.0 120.72906,23.741199,0.0 120.729185,23.741313,0.0 120.72933,23.741432,0.0 120.729558,23.741616,0.0 120.729677,23.741666,0.0 120.729791,23.741706,0.0 120.729952,23.741786,0.0 120.730157,23.741804,0.0 120.730583,23.741683,0.0 120.730846,23.741661,0.0 120.731077,23.741718,0.0 120.731248,23.741847,0.0 120.731362,23.741998,0.0 120.731509,23.742265,0.0 120.731585,23.742389,0.0 120.731932,23.742451,0.0 120.732183,23.742526,0.0 120.732559,23.742671,0.0 120.73284,23.742843,0.0 120.733138,23.742943,0.0 120.733324,23.742882,0.0 120.733545,23.742887,0.0 120.733966,23.74287,0.0 120.734354,23.742593,0.0 120.734663,23.742336,0.0 120.734952,23.742361,0.0 120.735018,23.742652,0.0 120.734998,23.743034,0.0 120.735174,23.743994,0.0 120.735442,23.744375,0.0 120.73566,23.744387,0.0 120.735923,23.744214,0.0 120.736382,23.744185,0.0 120.736651,23.744204,0.0 120.736872,23.744159,0.0 120.737161,23.744094,0.0 120.737497,23.744146,0.0 120.737547,23.744426,0.0 120.737484,23.744553,0.0 120.737416,23.744857,0.0 120.737514,23.745415,0.0 120.73779,23.74547,0.0 120.738781,23.745494,0.0 120.739176,23.74561,0.0 120.739642,23.745825,0.0 120.739954,23.746047,0.0 120.739934,23.746196,0.0 120.73987,23.746295,0.0 120.739669,23.746733,0.0 120.739684,23.746804,0.0 120.739936,23.746878,0.0 120.740147,23.746952,0.0 120.740343,23.747084,0.0 120.740374,23.747215,0.0 120.740452,23.747614,0.0 120.740683,23.748123,0.0 120.740756,23.748247,0.0 120.740791,23.748288,0.0 120.740939,23.748466,0.0 120.741141,23.748695,0.0 120.741394,23.748964,0.0 120.741697,23.749185,0.0 120.741891,23.749357,0.0 120.7421,23.749621,0.0 120.742185,23.749782,0.0 120.742254,23.750069,0.0 120.742214,23.750204,0.0 120.742087,23.750283,0.0 120.741888,23.750294,0.0 120.7415,23.749932,0.0 120.741282,23.749896,0.0 120.740775,23.750207,0.0 120.740588,23.75047,0.0 120.740385,23.750876,0.0 120.740306,23.751084,0.0 120.740294,23.751154,0.0 120.740286,23.751321,0.0 120.740297,23.75149,0.0 120.740332,23.751743,0.0 120.740339,23.751899,0.0 120.74035,23.752242,0.0 120.740193,23.752801,0.0 120.740175,23.752865,0.0 120.740099,23.753221,0.0 120.740064,23.753437,0.0 120.740049,23.753661,0.0 120.740008,23.753824,0.0 120.739839,23.754133,0.0 120.739558,23.754353,0.0 120.739318,23.754511,0.0 120.738932,23.754628,0.0 120.738487,23.754745,0.0 120.738035,23.754789,0.0 120.7375,23.754784,0.0 120.736946,23.754871,0.0 120.736523,23.755215,0.0 120.736222,23.755813,0.0 120.736099,23.756434,0.0 120.735886,23.756783,0.0 120.735231,23.756782,0.0 120.734837,23.756621,0.0 120.733982,23.756468,0.0 120.733139,23.756406,0.0 120.732977,23.756433,0.0 120.732685,23.756534,0.0 120.732348,23.756689,0.0 120.732101,23.756878,0.0 120.731839,23.757212,0.0 120.731595,23.757668,0.0 120.731413,23.758268,0.0 120.731323,23.758385,0.0 120.730918,23.758585,0.0 120.730279,23.759087,0.0 120.730057,23.759315,0.0 120.730026,23.759527,0.0 120.730367,23.760162,0.0 120.730431,23.760521,0.0 120.730355,23.760803,0.0 120.730002,23.761089,0.0 120.72965,23.761181,0.0 120.729424,23.761184,0.0</coordinates></LinearRing></outerBoundaryIs></Polygon><styleUrl>#spolygon-map</styleUrl></Placemark><Placemark><Polygon><outerBoundaryIs><LinearRing><coordinates>120.741586,23.786274,0.0 120.740287,23.787287,0.0 120.737233,23.788336,0.0 120.73405,23.790125,0.0 120.729913,23.793118,0.0 120.728631,23.793752,0.0 120.72511,23.793452,0.0 120.719046,23.790175,0.0 120.714948,23.78705,0.0 120.712804,23.784985,0.0 120.711416,23.785086,0.0 120.710759,23.785135,0.0 120.710433,23.785838,0.0 120.710171,23.786389,0.0 120.709911,23.78688,0.0 120.709532,23.786674,0.0 120.709499,23.785895,0.0 120.709497,23.785349,0.0 120.709936,23.783675,0.0 120.710164,23.782016,0.0 120.709509,23.780222,0.0 120.708226,23.777753,0.0 120.704586,23.772682,0.0 120.701209,23.770759,0.0 120.700316,23.770489,0.0 120.699144,23.767168,0.0 120.700197,23.766859,0.0 120.700887,23.76697,0.0 120.701175,23.766522,0.0 120.701568,23.766376,0.0 120.702656,23.766811,0.0 120.703248,23.766688,0.0 120.704145,23.766374,0.0 120.704462,23.766639,0.0 120.704895,23.766493,0.0 120.705277,23.766218,0.0 120.706636,23.764507,0.0 120.707413,23.764064,0.0 120.707612,23.763121,0.0 120.708213,23.761991,0.0 120.709149,23.76148,0.0 120.709691,23.761312,0.0 120.709559,23.760662,0.0 120.709585,23.759955,0.0 120.711216,23.760886,0.0 120.712632,23.761731,0.0 120.715275,23.761957,0.0 120.718231,23.761741,0.0 120.721382,23.760553,0.0 120.724743,23.759042,0.0 120.727096,23.759046,0.0 120.728039,23.759833,0.0 120.729348,23.761185,0.0 120.728999,23.760997,0.0 120.728487,23.760436,0.0 120.728045,23.759986,0.0 120.727641,23.759652,0.0 120.727174,23.759457,0.0 120.726732,23.759406,0.0 120.725816,23.759454,0.0 120.725388,23.75958,0.0 120.724833,23.759988,0.0 120.724571,23.760389,0.0 120.724379,23.76089,0.0 120.724327,23.761361,0.0 120.724296,23.761867,0.0 120.724053,23.762659,0.0 120.723723,23.763211,0.0 120.722836,23.764144,0.0 120.7223,23.764679,0.0 120.721841,23.765111,0.0 120.721484,23.765402,0.0 120.721105,23.765828,0.0 120.720771,23.766028,0.0 120.720459,23.766147,0.0 120.71998,23.766521,0.0 120.719622,23.766739,0.0 120.719325,23.766739,0.0 120.719054,23.766844,0.0 120.718444,23.76729,0.0 120.717616,23.76765,0.0 120.716835,23.76805,0.0 120.715877,23.768861,0.0 120.715352,23.769359,0.0 120.71458,23.770349,0.0 120.713822,23.771293,0.0 120.713665,23.771641,0.0 120.71365,23.771857,0.0 120.713739,23.772259,0.0 120.713828,23.772849,0.0 120.713815,23.773246,0.0 120.714384,23.773378,0.0 120.714772,23.773467,0.0 120.715033,23.773645,0.0 120.715245,23.773774,0.0 120.715479,23.773816,0.0 120.716115,23.773862,0.0 120.716465,23.773982,0.0 120.716645,23.774314,0.0 120.716933,23.77455,0.0 120.717339,23.774584,0.0 120.717772,23.774659,0.0 120.71876,23.774828,0.0 120.719195,23.774901,0.0 120.7196,23.775166,0.0 120.720095,23.775874,0.0 120.720149,23.776249,0.0 120.720066,23.776946,0.0 120.72007,23.777343,0.0 120.720123,23.778034,0.0 120.720329,23.778509,0.0 120.72063,23.778931,0.0 120.720893,23.779135,0.0 120.721217,23.779284,0.0 120.721425,23.779161,0.0 120.721846,23.778791,0.0 120.722405,23.778564,0.0 120.722663,23.778506,0.0 120.723128,23.778821,0.0 120.723538,23.779133,0.0 120.723908,23.779109,0.0 120.724538,23.778846,0.0 120.725034,23.778792,0.0 120.725375,23.778949,0.0 120.72586,23.779403,0.0 120.726054,23.77962,0.0 120.726622,23.779491,0.0 120.727349,23.779374,0.0 120.727811,23.779551,0.0 120.728115,23.779633,0.0 120.728423,23.779455,0.0 120.728655,23.779201,0.0 120.728919,23.779104,0.0 120.729615,23.778972,0.0 120.730207,23.779,0.0 120.730666,23.779042,0.0 120.730911,23.779378,0.0 120.731129,23.779663,0.0 120.73121,23.779885,0.0 120.731319,23.780194,0.0 120.731582,23.780409,0.0 120.731804,23.780676,0.0 120.731818,23.780854,0.0 120.731676,23.781256,0.0 120.731466,23.781817,0.0 120.731574,23.782089,0.0 120.731628,23.782508,0.0 120.731731,23.783026,0.0 120.731758,23.783364,0.0 120.731812,23.783586,0.0 120.732198,23.78364,0.0 120.732857,23.783716,0.0 120.73314,23.783859,0.0 120.733359,23.78388,0.0 120.733527,23.783984,0.0 120.733746,23.783993,0.0 120.733938,23.783969,0.0 120.734536,23.784121,0.0 120.735079,23.784235,0.0 120.735348,23.784341,0.0 120.735494,23.784177,0.0 120.735723,23.784001,0.0 120.736065,23.784002,0.0 120.736354,23.784162,0.0 120.736696,23.784276,0.0 120.737374,23.784442,0.0 120.737834,23.784492,0.0 120.738355,23.784586,0.0 120.738706,23.784543,0.0 120.738921,23.784435,0.0 120.739227,23.784246,0.0 120.739638,23.784364,0.0 120.739934,23.784421,0.0 120.740252,23.784383,0.0 120.740645,23.784364,0.0 120.741452,23.784561,0.0 120.741726,23.784724,0.0 120.741867,23.78491,0.0 120.741867,23.785095,0.0 120.741785,23.78558,0.0 120.741656,23.786016,0.0 120.741586,23.786274,0.0</coordinates></LinearRing></outerBoundaryIs></Polygon><styleUrl>#spolygon-map</styleUrl></Placemark><Placemark><Polygon><outerBoundaryIs><LinearRing><coordinates>120.68379,23.801342,0.0 120.683606,23.801352,0.0 120.683543,23.795581,0.0 120.683668,23.782305,0.0 120.684258,23.778279,0.0 120.684751,23.77686,0.0 120.685074,23.773881,0.0 120.685521,23.769554,0.0 120.686277,23.768445,0.0 120.697495,23.770574,0.0 120.700316,23.770489,0.0 120.701209,23.770759,0.0 120.704586,23.772682,0.0 120.708226,23.777753,0.0 120.709509,23.780222,0.0 120.710164,23.782016,0.0 120.709936,23.783675,0.0 120.709497,23.785349,0.0 120.709499,23.785895,0.0 120.709532,23.786674,0.0 120.709911,23.78688,0.0 120.710171,23.786389,0.0 120.710433,23.785838,0.0 120.710759,23.785135,0.0 120.711416,23.785086,0.0 120.712804,23.784985,0.0 120.714948,23.78705,0.0 120.715516,23.788385,0.0 120.712563,23.789267,0.0 120.708914,23.790937,0.0 120.705982,23.794169,0.0 120.701822,23.796617,0.0 120.697272,23.800468,0.0 120.69657,23.801537,0.0 120.695641,23.803689,0.0 120.695211,23.805982,0.0 120.694766,23.805983,0.0 120.693673,23.805308,0.0 120.693178,23.80498,0.0 120.692346,23.804558,0.0 120.691063,23.804212,0.0 120.689947,23.80379,0.0 120.689114,23.803407,0.0 120.688231,23.802836,0.0 120.687212,23.802272,0.0 120.686702,23.801994,0.0 120.686026,23.801778,0.0 120.684539,23.801362,0.0 120.683816,23.80134,0.0 120.68379,23.801342,0.0</coordinates></LinearRing></outerBoundaryIs></Polygon><styleUrl>#spolygon-map</styleUrl></Placemark><Placemark><Polygon><outerBoundaryIs><LinearRing><coordinates>120.700316,23.770489,0.0 120.697495,23.770574,0.0 120.686277,23.768445,0.0 120.683708,23.766575,0.0 120.681974,23.764687,0.0 120.681691,23.763415,0.0 120.681668,23.76302,0.0 120.681827,23.762675,0.0 120.682149,23.762335,0.0 120.683058,23.76196,0.0 120.68366,23.7618,0.0 120.684999,23.761492,0.0 120.685848,23.760938,0.0 120.687015,23.759227,0.0 120.68739,23.758214,0.0 120.687785,23.759075,0.0 120.688188,23.759685,0.0 120.688569,23.759756,0.0 120.688866,23.759517,0.0 120.689695,23.759409,0.0 120.690163,23.759511,0.0 120.690282,23.759184,0.0 120.690547,23.758715,0.0 120.690919,23.758567,0.0 120.691409,23.75796,0.0 120.692633,23.75725,0.0 120.693567,23.758414,0.0 120.695018,23.758819,0.0 120.696348,23.758492,0.0 120.697213,23.758581,0.0 120.698555,23.760067,0.0 120.700476,23.760534,0.0 120.700401,23.761818,0.0 120.699077,23.762922,0.0 120.698832,23.767237,0.0 120.700316,23.770489,0.0</coordinates></LinearRing></outerBoundaryIs></Polygon><styleUrl>#spolygon-map</styleUrl></Placemark><Placemark><Polygon><outerBoundaryIs><LinearRing><coordinates>120.709681,23.759601,0.0 120.709463,23.760463,0.0 120.709818,23.761066,0.0 120.709499,23.761467,0.0 120.708644,23.761678,0.0 120.707703,23.762981,0.0 120.707586,23.763426,0.0 120.707298,23.76422,0.0 120.706581,23.764929,0.0 120.705086,23.766335,0.0 120.704704,23.766628,0.0 120.70431,23.76648,0.0 120.703611,23.766357,0.0 120.702853,23.766776,0.0 120.7023,23.766635,0.0 120.701366,23.766357,0.0 120.70099,23.766905,0.0 120.700792,23.766988,0.0 120.699476,23.767058,0.0 120.698832,23.767237,0.0 120.699077,23.762922,0.0 120.700401,23.761818,0.0 120.700476,23.760534,0.0 120.698555,23.760067,0.0 120.697213,23.758581,0.0 120.696348,23.758492,0.0 120.695018,23.758819,0.0 120.693567,23.758414,0.0 120.692633,23.75725,0.0 120.693425,23.756843,0.0 120.69405,23.75618,0.0 120.694425,23.756282,0.0 120.694886,23.756699,0.0 120.695241,23.756997,0.0 120.695547,23.756885,0.0 120.695859,23.756705,0.0 120.69633,23.756796,0.0 120.696331,23.756426,0.0 120.696671,23.75626,0.0 120.697857,23.756149,0.0 120.69928,23.755895,0.0 120.700147,23.755366,0.0 120.701114,23.754602,0.0 120.701717,23.753924,0.0 120.701783,23.753193,0.0 120.702126,23.752196,0.0 120.702456,23.751648,0.0 120.702435,23.750494,0.0 120.702606,23.750181,0.0 120.703142,23.749565,0.0 120.703528,23.748562,0.0 120.703827,23.748077,0.0 120.704145,23.747766,0.0 120.705144,23.747565,0.0 120.706152,23.74774,0.0 120.707354,23.748041,0.0 120.709974,23.749066,0.0 120.711486,23.750069,0.0 120.711263,23.75161,0.0 120.711757,23.752681,0.0 120.712821,23.753742,0.0 120.713428,23.755195,0.0 120.713562,23.756001,0.0 120.710713,23.758307,0.0 120.709681,23.759601,0.0</coordinates></LinearRing></outerBoundaryIs></Polygon><styleUrl>#spolygon-map</styleUrl></Placemark><Placemark><Polygon><outerBoundaryIs><LinearRing><coordinates>120.722327,23.830183,0.0 120.721788,23.829938,0.0 120.720968,23.829672,0.0 120.720101,23.829456,0.0 120.718879,23.829009,0.0 120.718269,23.828737,0.0 120.717701,23.82838,0.0 120.716154,23.827487,0.0 120.715364,23.826944,0.0 120.714523,23.82636,0.0 120.713238,23.825583,0.0 120.712709,23.825156,0.0 120.711854,23.824691,0.0 120.71064,23.82401,0.0 120.710124,23.823573,0.0 120.709464,23.822707,0.0 120.708852,23.821859,0.0 120.708536,23.821344,0.0 120.708388,23.821023,0.0 120.708265,23.820736,0.0 120.708136,23.820535,0.0 120.707251,23.819448,0.0 120.706272,23.818319,0.0 120.705649,23.817593,0.0 120.706717,23.816268,0.0 120.711577,23.809038,0.0 120.715293,23.810399,0.0 120.71773,23.810763,0.0 120.72005,23.810236,0.0 120.72147,23.809126,0.0 120.721912,23.80835,0.0 120.722134,23.806944,0.0 120.721991,23.806118,0.0 120.722737,23.805426,0.0 120.72498,23.805496,0.0 120.728152,23.806016,0.0 120.72948,23.805673,0.0 120.731405,23.803933,0.0 120.733678,23.802312,0.0 120.733492,23.807328,0.0 120.730873,23.808716,0.0 120.727979,23.809914,0.0 120.727491,23.812701,0.0 120.727277,23.816502,0.0 120.725927,23.819888,0.0 120.724674,23.823053,0.0 120.724364,23.826378,0.0 120.72281,23.828782,0.0 120.722327,23.830183,0.0</coordinates></LinearRing></outerBoundaryIs></Polygon><styleUrl>#spolygon-map</styleUrl></Placemark><Placemark><Polygon><outerBoundaryIs><LinearRing><coordinates>120.692633,23.75725,0.0 120.691409,23.75796,0.0 120.690919,23.758567,0.0 120.690547,23.758715,0.0 120.690282,23.759184,0.0 120.690163,23.759511,0.0 120.689695,23.759409,0.0 120.688866,23.759517,0.0 120.688569,23.759756,0.0 120.688188,23.759685,0.0 120.687785,23.759075,0.0 120.68739,23.758214,0.0 120.687778,23.757437,0.0 120.687826,23.757189,0.0 120.68777,23.756615,0.0 120.687535,23.756219,0.0 120.687248,23.755962,0.0 120.687055,23.755652,0.0 120.686585,23.754421,0.0 120.686364,23.753933,0.0 120.685638,23.753492,0.0 120.683854,23.752909,0.0 120.683343,23.752706,0.0 120.683162,23.752473,0.0 120.683125,23.752309,0.0 120.683468,23.749588,0.0 120.68362,23.749114,0.0 120.684115,23.748571,0.0 120.684906,23.747507,0.0 120.685749,23.746231,0.0 120.685808,23.744642,0.0 120.686222,23.743256,0.0 120.687947,23.741643,0.0 120.69053,23.740217,0.0 120.693725,23.738885,0.0 120.694971,23.73719,0.0 120.696327,23.73657,0.0 120.697679,23.736933,0.0 120.698619,23.738098,0.0 120.699596,23.738515,0.0 120.700613,23.73793,0.0 120.701668,23.737169,0.0 120.703098,23.736998,0.0 120.705211,23.736943,0.0 120.707935,23.735976,0.0 120.711172,23.735214,0.0 120.718212,23.734972,0.0 120.71793,23.737042,0.0 120.717695,23.737757,0.0 120.717186,23.738758,0.0 120.715748,23.741187,0.0 120.715364,23.74324,0.0 120.714132,23.746107,0.0 120.711939,23.749277,0.0 120.710655,23.749498,0.0 120.708856,23.748529,0.0 120.706672,23.747922,0.0 120.705557,23.747615,0.0 120.704534,23.74762,0.0 120.703981,23.747926,0.0 120.703681,23.7483,0.0 120.703265,23.749353,0.0 120.703026,23.749746,0.0 120.702484,23.75037,0.0 120.702336,23.751176,0.0 120.702395,23.751826,0.0 120.701907,23.752681,0.0 120.70177,23.753719,0.0 120.70144,23.754199,0.0 120.700622,23.755073,0.0 120.69946,23.755852,0.0 120.698267,23.755969,0.0 120.696976,23.756281,0.0 120.696401,23.756304,0.0 120.696379,23.756765,0.0 120.696136,23.756782,0.0 120.695637,23.756775,0.0 120.69538,23.756998,0.0 120.695158,23.756902,0.0 120.694618,23.756601,0.0 120.694245,23.756192,0.0 120.693759,23.756306,0.0 120.693084,23.75707,0.0 120.692633,23.75725,0.0</coordinates></LinearRing></outerBoundaryIs></Polygon><styleUrl>#spolygon-map</styleUrl></Placemark><Placemark><Polygon><outerBoundaryIs><LinearRing><coordinates>120.654433,23.660911,0.0 120.649814,23.661544,0.0 120.648267,23.661243,0.0 120.645664,23.660711,0.0 120.64361,23.66051,0.0 120.639687,23.660891,0.0 120.639551,23.660843,0.0 120.639278,23.660676,0.0 120.639249,23.660538,0.0 120.639298,23.660396,0.0 120.639178,23.660253,0.0 120.639045,23.660131,0.0 120.638978,23.659989,0.0 120.638895,23.65981,0.0 120.638747,23.65969,0.0 120.638571,23.659658,0.0 120.638471,23.659606,0.0 120.638404,23.65943,0.0 120.638338,23.659321,0.0 120.638323,23.659179,0.0 120.638282,23.659077,0.0 120.638135,23.65896,0.0 120.638059,23.658865,0.0 120.638036,23.658734,0.0 120.63809,23.658634,0.0 120.638162,23.658465,0.0 120.638132,23.658368,0.0 120.638058,23.658242,0.0 120.637999,23.65816,0.0 120.637808,23.658101,0.0 120.637638,23.658015,0.0 120.637567,23.657899,0.0 120.637384,23.657653,0.0 120.637352,23.657554,0.0 120.637345,23.657423,0.0 120.637332,23.657226,0.0 120.637249,23.657106,0.0 120.637091,23.65707,0.0 120.636888,23.657031,0.0 120.636823,23.656923,0.0 120.63682,23.656699,0.0 120.636798,23.656582,0.0 120.637018,23.656372,0.0 120.637087,23.656273,0.0 120.63698,23.65609,0.0 120.636994,23.655932,0.0 120.636991,23.655826,0.0 120.636976,23.655695,0.0 120.636953,23.655566,0.0 120.636883,23.655358,0.0 120.636742,23.655164,0.0 120.636657,23.654945,0.0 120.636613,23.654757,0.0 120.636524,23.654649,0.0 120.636356,23.654578,0.0 120.636264,23.654535,0.0 120.636285,23.654402,0.0 120.636316,23.654131,0.0 120.636247,23.653903,0.0 120.636173,23.653688,0.0 120.636101,23.653458,0.0 120.636046,23.653295,0.0 120.63601,23.653058,0.0 120.635918,23.652974,0.0 120.635805,23.652911,0.0 120.635704,23.652843,0.0 120.635582,23.652761,0.0 120.63554,23.652608,0.0 120.635471,23.652422,0.0 120.635405,23.65226,0.0 120.635377,23.652124,0.0 120.635304,23.652041,0.0 120.635135,23.652006,0.0 120.634988,23.651656,0.0 120.634958,23.6515,0.0 120.635061,23.651291,0.0 120.635207,23.651092,0.0 120.635292,23.65081,0.0 120.635294,23.650668,0.0 120.635207,23.650557,0.0 120.634985,23.650308,0.0 120.635048,23.650083,0.0 120.635088,23.649823,0.0 120.635141,23.649668,0.0 120.635273,23.649505,0.0 120.635507,23.649341,0.0 120.635685,23.649129,0.0 120.635754,23.648949,0.0 120.635958,23.648791,0.0 120.636139,23.6486,0.0 120.636236,23.648429,0.0 120.636342,23.648246,0.0 120.635965,23.648092,0.0 120.635914,23.647979,0.0 120.635743,23.647807,0.0 120.635659,23.6477,0.0 120.635626,23.647637,0.0 120.635348,23.647551,0.0 120.635184,23.647433,0.0 120.63506,23.647268,0.0 120.634902,23.647143,0.0 120.634797,23.64701,0.0 120.634875,23.646832,0.0 120.634945,23.646624,0.0 120.634968,23.64636,0.0 120.634997,23.646211,0.0 120.634939,23.646048,0.0 120.63493,23.64589,0.0 120.634909,23.645832,0.0 120.634794,23.645746,0.0 120.634713,23.645673,0.0 120.634687,23.645497,0.0 120.634698,23.645402,0.0 120.634765,23.645287,0.0 120.634753,23.645156,0.0 120.634844,23.645028,0.0 120.634997,23.645003,0.0 120.635057,23.644875,0.0 120.635062,23.644683,0.0 120.635103,23.644516,0.0 120.635222,23.644392,0.0 120.635281,23.644173,0.0 120.635285,23.643941,0.0 120.635263,23.643767,0.0 120.635208,23.643586,0.0 120.635241,23.643369,0.0 120.635278,23.643135,0.0 120.635197,23.642864,0.0 120.635074,23.642624,0.0 120.63487,23.642353,0.0 120.634705,23.642142,0.0 120.634551,23.642034,0.0 120.634383,23.641999,0.0 120.634243,23.641949,0.0 120.634153,23.641667,0.0 120.634068,23.641572,0.0 120.6338,23.641436,0.0 120.63354,23.641273,0.0 120.633551,23.641092,0.0 120.633388,23.64092,0.0 120.633166,23.6408,0.0 120.63312,23.640916,0.0 120.63221,23.6405,0.0 120.631982,23.640384,0.0 120.631828,23.640246,0.0 120.631748,23.640133,0.0 120.631692,23.639851,0.0 120.631708,23.639542,0.0 120.63174,23.639239,0.0 120.631729,23.639072,0.0 120.631672,23.638878,0.0 120.631566,23.638674,0.0 120.631474,23.638512,0.0 120.631316,23.638272,0.0 120.631141,23.638021,0.0 120.630946,23.63781,0.0 120.63067,23.637598,0.0 120.630449,23.637369,0.0 120.63026,23.637136,0.0 120.630185,23.636838,0.0 120.630131,23.63654,0.0 120.629931,23.636298,0.0 120.629696,23.636076,0.0 120.629516,23.635834,0.0 120.629364,23.635565,0.0 120.629177,23.635305,0.0 120.629066,23.635167,0.0 120.629119,23.634923,0.0 120.629269,23.634833,0.0 120.629542,23.634667,0.0 120.629799,23.634284,0.0 120.630071,23.63358,0.0 120.630084,23.633429,0.0 120.63009,23.63328,0.0 120.630118,23.633086,0.0 120.630156,23.632901,0.0 120.63016,23.632772,0.0 120.630139,23.632535,0.0 120.630097,23.632368,0.0 120.630018,23.632081,0.0 120.629873,23.631823,0.0 120.629388,23.631181,0.0 120.629264,23.630948,0.0 120.629192,23.630801,0.0 120.629138,23.6307,0.0 120.629009,23.630598,0.0 120.6289,23.630518,0.0 120.628834,23.630464,0.0 120.628769,23.630387,0.0 120.628707,23.630319,0.0 120.628696,23.630209,0.0 120.628703,23.630012,0.0 120.62878,23.629631,0.0 120.62891,23.629218,0.0 120.628981,23.629081,0.0 120.62907,23.628896,0.0 120.629124,23.628751,0.0 120.629424,23.628283,0.0 120.629656,23.628089,0.0 120.629928,23.627211,0.0 120.629967,23.626925,0.0 120.629974,23.626607,0.0 120.630003,23.626078,0.0 120.630061,23.625799,0.0 120.630107,23.625559,0.0 120.630192,23.625264,0.0 120.630302,23.625023,0.0 120.630467,23.624508,0.0 120.630564,23.62429,0.0 120.630578,23.624229,0.0 120.630577,23.6241,0.0 120.630453,23.623542,0.0 120.630416,23.623273,0.0 120.630494,23.623077,0.0 120.630631,23.622904,0.0 120.630715,23.622818,0.0 120.630721,23.622624,0.0 120.630742,23.622473,0.0 120.630739,23.622317,0.0 120.630777,23.622089,0.0 120.630859,23.621954,0.0 120.630962,23.621812,0.0 120.631053,23.621695,0.0 120.631246,23.621569,0.0 120.631401,23.621452,0.0 120.631523,23.621393,0.0 120.631633,23.621344,0.0 120.631747,23.62127,0.0 120.631859,23.621139,0.0 120.631982,23.621024,0.0 120.63203,23.620923,0.0 120.632155,23.620839,0.0 120.632332,23.620648,0.0 120.632469,23.620499,0.0 120.632631,23.620312,0.0 120.632725,23.620198,0.0 120.632801,23.620098,0.0 120.632853,23.619922,0.0 120.63289,23.619832,0.0 120.633018,23.619735,0.0 120.633125,23.619641,0.0 120.633275,23.619512,0.0 120.633447,23.619357,0.0 120.633532,23.619215,0.0 120.633693,23.619127,0.0 120.633923,23.619114,0.0 120.634181,23.619232,0.0 120.634348,23.619328,0.0 120.634423,23.61945,0.0 120.634541,23.619594,0.0 120.634722,23.619719,0.0 120.634988,23.619844,0.0 120.635279,23.619833,0.0 120.635402,23.619881,0.0 120.635555,23.620055,0.0 120.635679,23.620234,0.0 120.635815,23.620489,0.0 120.636006,23.620812,0.0 120.63613,23.62102,0.0 120.636344,23.621186,0.0 120.6365,23.621312,0.0 120.636637,23.62143,0.0 120.636748,23.621634,0.0 120.636941,23.621907,0.0 120.63709,23.622133,0.0 120.637187,23.622321,0.0 120.637288,23.622441,0.0 120.637458,23.622624,0.0 120.637644,23.622819,0.0 120.637794,23.623009,0.0 120.637859,23.623174,0.0 120.637922,23.623327,0.0 120.638009,23.623508,0.0 120.638079,23.623732,0.0 120.638219,23.623922,0.0 120.638329,23.624071,0.0 120.638441,23.624324,0.0 120.638609,23.624568,0.0 120.638888,23.624867,0.0 120.639221,23.625077,0.0 120.639581,23.625338,0.0 120.639866,23.625438,0.0 120.640155,23.625513,0.0 120.640469,23.625624,0.0 120.640839,23.625779,0.0 120.641006,23.625937,0.0 120.641237,23.626179,0.0 120.641408,23.626383,0.0 120.641559,23.626656,0.0 120.641752,23.626923,0.0 120.641986,23.627073,0.0 120.642239,23.627195,0.0 120.642374,23.62729,0.0 120.642441,23.627397,0.0 120.642513,23.627686,0.0 120.642678,23.627878,0.0 120.64288,23.628093,0.0 120.643033,23.628186,0.0 120.643359,23.628171,0.0 120.643677,23.628174,0.0 120.643862,23.628249,0.0 120.643979,23.628504,0.0 120.644058,23.628762,0.0 120.644088,23.628938,0.0 120.644228,23.629064,0.0 120.644414,23.62927,0.0 120.644455,23.629456,0.0 120.64453,23.629693,0.0 120.644667,23.629959,0.0 120.644661,23.630115,0.0 120.644669,23.63026,0.0 120.644838,23.630432,0.0 120.644848,23.630524,0.0 120.644889,23.630761,0.0 120.645073,23.63094,0.0 120.645235,23.630988,0.0 120.645566,23.630989,0.0 120.645902,23.63098,0.0 120.646328,23.630999,0.0 120.646675,23.631009,0.0 120.646889,23.630888,0.0 120.647119,23.630773,0.0 120.647356,23.630665,0.0 120.647502,23.630591,0.0 120.647708,23.630431,0.0 120.648044,23.630351,0.0 120.64827,23.630232,0.0 120.648756,23.629964,0.0 120.649077,23.629839,0.0 120.649338,23.629826,0.0 120.649651,23.629795,0.0 120.650007,23.629782,0.0 120.650378,23.629823,0.0 120.650689,23.629765,0.0 120.650918,23.629809,0.0 120.651139,23.629895,0.0 120.651361,23.629927,0.0 120.651593,23.629822,0.0 120.651893,23.629594,0.0 120.652072,23.629493,0.0 120.652295,23.629469,0.0 120.652536,23.629526,0.0 120.65276,23.629535,0.0 120.652994,23.629506,0.0 120.653117,23.629421,0.0 120.65325,23.629304,0.0 120.653395,23.629153,0.0 120.653552,23.628907,0.0 120.6536,23.628763,0.0 120.653609,23.628519,0.0 120.653594,23.628316,0.0 120.653587,23.62821,0.0 120.653515,23.627993,0.0 120.653444,23.627799,0.0 120.653398,23.627701,0.0 120.65329,23.627548,0.0 120.653164,23.627315,0.0 120.653104,23.627191,0.0 120.653102,23.626913,0.0 120.653096,23.626592,0.0 120.653079,23.62617,0.0 120.653026,23.625804,0.0 120.652969,23.625605,0.0 120.652876,23.625303,0.0 120.652782,23.62507,0.0 120.652632,23.624848,0.0 120.652562,23.624693,0.0 120.652527,23.624415,0.0 120.652476,23.623832,0.0 120.652423,23.623281,0.0 120.652397,23.623008,0.0 120.652414,23.622746,0.0 120.652484,23.622496,0.0 120.652616,23.62225,0.0 120.652768,23.622022,0.0 120.652914,23.621867,0.0 120.652841,23.62167,0.0 120.652779,23.621465,0.0 120.652722,23.6213,0.0 120.652643,23.621049,0.0 120.652643,23.620873,0.0 120.652592,23.620708,0.0 120.652536,23.62055,0.0 120.652481,23.620372,0.0 120.652484,23.620139,0.0 120.652456,23.619846,0.0 120.65242,23.619735,0.0 120.65234,23.619464,0.0 120.652341,23.619308,0.0 120.65223,23.619136,0.0 120.65206,23.618921,0.0 120.652009,23.618817,0.0 120.651968,23.618668,0.0 120.651994,23.618467,0.0 120.652031,23.618346,0.0 120.652044,23.618221,0.0 120.651992,23.618018,0.0 120.651849,23.617614,0.0 120.651754,23.617331,0.0 120.651676,23.617042,0.0 120.651634,23.61688,0.0 120.651526,23.616645,0.0 120.651403,23.616299,0.0 120.651383,23.616236,0.0 120.651415,23.616145,0.0 120.651564,23.616062,0.0 120.651748,23.616002,0.0 120.651937,23.615957,0.0 120.652344,23.615901,0.0 120.6527,23.615855,0.0 120.652993,23.615828,0.0 120.653363,23.61578,0.0 120.65374,23.615715,0.0 120.65407,23.615619,0.0 120.654252,23.615556,0.0 120.6546,23.615385,0.0 120.655061,23.615167,0.0 120.655376,23.615021,0.0 120.655849,23.614821,0.0 120.656516,23.61454,0.0 120.657025,23.614325,0.0 120.657509,23.614102,0.0 120.657813,23.613988,0.0 120.658116,23.613914,0.0 120.658422,23.613838,0.0 120.658816,23.613365,0.0 120.659161,23.612743,0.0 120.659308,23.612307,0.0 120.659669,23.611884,0.0 120.660032,23.611363,0.0 120.660356,23.61107,0.0 120.660811,23.610735,0.0 120.661065,23.610543,0.0 120.661322,23.61044,0.0 120.661935,23.610473,0.0 120.662577,23.610671,0.0 120.663073,23.610929,0.0 120.663412,23.61109,0.0 120.663988,23.611184,0.0 120.664503,23.61112,0.0 120.665156,23.610913,0.0 120.665748,23.610605,0.0 120.666314,23.610309,0.0 120.666832,23.610186,0.0 120.66735,23.609945,0.0 120.667666,23.609594,0.0 120.667892,23.609416,0.0 120.669128,23.609342,0.0 120.669648,23.609429,0.0 120.670316,23.609507,0.0 120.671265,23.609615,0.0 120.671758,23.609684,0.0 120.672182,23.609694,0.0 120.672685,23.609738,0.0 120.673019,23.609885,0.0 120.673403,23.610107,0.0 120.673871,23.610174,0.0 120.674484,23.610245,0.0 120.675,23.610257,0.0 120.675468,23.610267,0.0 120.676116,23.610454,0.0 120.676609,23.610552,0.0 120.677265,23.610878,0.0 120.67777,23.611051,0.0 120.678602,23.611093,0.0 120.679153,23.611065,0.0 120.679883,23.611006,0.0 120.680458,23.611007,0.0 120.680621,23.610998,0.0 120.681111,23.611017,0.0 120.681564,23.610921,0.0 120.682284,23.610807,0.0 120.682933,23.610831,0.0 120.675841,23.621652,0.0 120.674619,23.625133,0.0 120.673513,23.62747,0.0 120.673257,23.628456,0.0 120.673533,23.630901,0.0 120.673136,23.631966,0.0 120.671151,23.635833,0.0 120.670489,23.63792,0.0 120.668147,23.641285,0.0 120.666789,23.642867,0.0 120.664976,23.645592,0.0 120.663955,23.647721,0.0 120.662845,23.648216,0.0 120.66102,23.648209,0.0 120.659778,23.648466,0.0 120.658915,23.649548,0.0 120.657996,23.650203,0.0 120.656185,23.650422,0.0 120.654354,23.651023,0.0 120.653209,23.65177,0.0 120.652454,23.65282,0.0 120.65284,23.654871,0.0 120.653676,23.657216,0.0 120.654433,23.660911,0.0</coordinates></LinearRing></outerBoundaryIs></Polygon><styleUrl>#spolygon-map</styleUrl></Placemark><Placemark><Polygon><outerBoundaryIs><LinearRing><coordinates>120.743382,23.826982,0.0 120.742805,23.827148,0.0 120.742079,23.827305,0.0 120.740877,23.827461,0.0 120.739924,23.827656,0.0 120.738915,23.828013,0.0 120.738149,23.828531,0.0 120.73767,23.828785,0.0 120.736683,23.82933,0.0 120.735674,23.829856,0.0 120.735058,23.830176,0.0 120.734006,23.830842,0.0 120.733375,23.831177,0.0 120.733089,23.831204,0.0 120.733017,23.831222,0.0 120.733179,23.829933,0.0 120.736251,23.82494,0.0 120.739893,23.82108,0.0 120.739378,23.817352,0.0 120.738969,23.811197,0.0 120.739918,23.805506,0.0 120.743557,23.800821,0.0 120.745517,23.799345,0.0 120.748748,23.796619,0.0 120.752885,23.794931,0.0 120.754402,23.793237,0.0 120.754886,23.793107,0.0 120.755468,23.79328,0.0 120.756303,23.793408,0.0 120.756648,23.793611,0.0 120.757045,23.794079,0.0 120.757499,23.794665,0.0 120.757513,23.795198,0.0 120.757402,23.795498,0.0 120.757379,23.79568,0.0 120.757482,23.795979,0.0 120.757779,23.796523,0.0 120.758081,23.79695,0.0 120.758206,23.796986,0.0 120.758404,23.797136,0.0 120.75857,23.797326,0.0 120.758772,23.797606,0.0 120.758938,23.797814,0.0 120.7592,23.797988,0.0 120.759444,23.798162,0.0 120.759654,23.798253,0.0 120.759896,23.798348,0.0 120.760105,23.798683,0.0 120.760124,23.798886,0.0 120.760114,23.799082,0.0 120.760107,23.799193,0.0 120.760273,23.799464,0.0 120.760364,23.799848,0.0 120.760393,23.800428,0.0 120.76035,23.800676,0.0 120.760259,23.800931,0.0 120.759978,23.801274,0.0 120.759737,23.801377,0.0 120.759516,23.801445,0.0 120.759346,23.801519,0.0 120.759336,23.801663,0.0 120.759382,23.801842,0.0 120.759436,23.802195,0.0 120.759184,23.803022,0.0 120.759034,23.803157,0.0 120.758803,23.803213,0.0 120.758548,23.80329,0.0 120.758407,23.803398,0.0 120.758235,23.803524,0.0 120.757993,23.803569,0.0 120.757364,23.803633,0.0 120.756957,23.803739,0.0 120.756571,23.803797,0.0 120.756433,23.804153,0.0 120.756416,23.804697,0.0 120.756353,23.80504,0.0 120.75619,23.805347,0.0 120.756253,23.805611,0.0 120.756781,23.805867,0.0 120.757153,23.806008,0.0 120.757776,23.806341,0.0 120.757906,23.806476,0.0 120.758,23.806736,0.0 120.758139,23.806795,0.0 120.758334,23.806804,0.0 120.758677,23.806762,0.0 120.758956,23.80683,0.0 120.759246,23.807138,0.0 120.759654,23.807605,0.0 120.759984,23.80796,0.0 120.760163,23.808317,0.0 120.76041,23.808796,0.0 120.760668,23.809314,0.0 120.760825,23.809592,0.0 120.760974,23.809693,0.0 120.761067,23.810073,0.0 120.760969,23.810637,0.0 120.761155,23.810764,0.0 120.761565,23.810954,0.0 120.761955,23.811311,0.0 120.762298,23.811831,0.0 120.762368,23.812088,0.0 120.762415,23.812296,0.0 120.762465,23.812409,0.0 120.762519,23.812547,0.0 120.762586,23.812696,0.0 120.762687,23.81285,0.0 120.762744,23.812987,0.0 120.762858,23.813304,0.0 120.762914,23.813595,0.0 120.762951,23.813706,0.0 120.763031,23.813819,0.0 120.763125,23.813957,0.0 120.763222,23.814065,0.0 120.763243,23.814239,0.0 120.763276,23.81449,0.0 120.763292,23.81462,0.0 120.763295,23.814749,0.0 120.763285,23.815006,0.0 120.763284,23.81514,0.0 120.763351,23.815404,0.0 120.763401,23.815609,0.0 120.763448,23.815772,0.0 120.763575,23.816163,0.0 120.763699,23.816472,0.0 120.763829,23.81677,0.0 120.763936,23.816949,0.0 120.763593,23.816975,0.0 120.763187,23.817076,0.0 120.762828,23.81718,0.0 120.76249,23.817294,0.0 120.761993,23.817506,0.0 120.76151,23.817767,0.0 120.761089,23.818005,0.0 120.760688,23.818271,0.0 120.760224,23.818625,0.0 120.759918,23.818907,0.0 120.759744,23.819094,0.0 120.759478,23.81931,0.0 120.759115,23.819553,0.0 120.758704,23.819833,0.0 120.758139,23.820191,0.0 120.757457,23.820381,0.0 120.757,23.820408,0.0 120.756386,23.820524,0.0 120.756012,23.820686,0.0 120.755693,23.821042,0.0 120.755447,23.821489,0.0 120.754692,23.822352,0.0 120.754121,23.822631,0.0 120.753216,23.82309,0.0 120.752542,23.823421,0.0 120.751664,23.823946,0.0 120.751209,23.824214,0.0 120.750733,23.824432,0.0 120.750007,23.824717,0.0 120.749144,23.824989,0.0 120.748817,23.825124,0.0 120.747826,23.825533,0.0 120.747607,23.825621,0.0 120.746948,23.825983,0.0 120.746191,23.826235,0.0 120.745349,23.826371,0.0 120.744722,23.826605,0.0 120.743906,23.826818,0.0 120.743382,23.826982,0.0</coordinates></LinearRing></outerBoundaryIs></Polygon><styleUrl>#spolygon-map</styleUrl></Placemark><Placemark><Polygon><outerBoundaryIs><LinearRing><coordinates>120.671147,23.762025,0.0 120.669713,23.760238,0.0 120.669397,23.759073,0.0 120.669811,23.757573,0.0 120.670794,23.756947,0.0 120.672327,23.756445,0.0 120.673036,23.755952,0.0 120.673471,23.75482,0.0 120.679231,23.753802,0.0 120.681432,23.755762,0.0 120.680464,23.756715,0.0 120.679978,23.757077,0.0 120.676436,23.759259,0.0 120.672006,23.761844,0.0 120.671147,23.762025,0.0</coordinates></LinearRing></outerBoundaryIs></Polygon><styleUrl>#spolygon-map</styleUrl></Placemark><Placemark><Polygon><outerBoundaryIs><LinearRing><coordinates>120.694576,23.662621,0.0 120.693522,23.663754,0.0 120.692982,23.663701,0.0 120.691267,23.663452,0.0 120.690317,23.663411,0.0 120.688198,23.663134,0.0 120.687204,23.663324,0.0 120.686641,23.664447,0.0 120.686211,23.665938,0.0 120.685071,23.667245,0.0 120.684188,23.668196,0.0 120.683241,23.668118,0.0 120.681433,23.666741,0.0 120.68027,23.665718,0.0 120.679446,23.665401,0.0 120.677938,23.666052,0.0 120.67643,23.666652,0.0 120.675263,23.667383,0.0 120.673183,23.668923,0.0 120.671646,23.669888,0.0 120.669285,23.670513,0.0 120.666037,23.670671,0.0 120.664135,23.670971,0.0 120.663018,23.671615,0.0 120.66045,23.672015,0.0 120.657728,23.668858,0.0 120.656162,23.665626,0.0 120.654433,23.660911,0.0 120.653002,23.655325,0.0 120.652512,23.653762,0.0 120.652696,23.652295,0.0 120.653902,23.651327,0.0 120.655348,23.650637,0.0 120.657262,23.650436,0.0 120.658448,23.649897,0.0 120.659564,23.648764,0.0 120.660286,23.648312,0.0 120.662188,23.648228,0.0 120.663446,23.648084,0.0 120.664238,23.647358,0.0 120.665571,23.644709,0.0 120.667242,23.642037,0.0 120.669869,23.63898,0.0 120.670838,23.637081,0.0 120.67203,23.633963,0.0 120.673393,23.631422,0.0 120.673535,23.630328,0.0 120.673343,23.62804,0.0 120.674335,23.626042,0.0 120.675282,23.622882,0.0 120.677598,23.618484,0.0 120.682964,23.610829,0.0 120.683582,23.610875,0.0 120.683839,23.611047,0.0 120.684153,23.611312,0.0 120.684569,23.611769,0.0 120.684831,23.61198,0.0 120.68517,23.612346,0.0 120.685394,23.612674,0.0 120.685495,23.613085,0.0 120.6855,23.613848,0.0 120.68563,23.614329,0.0 120.685588,23.614902,0.0 120.685375,23.61548,0.0 120.685585,23.616467,0.0 120.685899,23.616937,0.0 120.686149,23.617346,0.0 120.686097,23.617964,0.0 120.68605,23.61821,0.0 120.686708,23.618471,0.0 120.68773,23.618803,0.0 120.68828,23.618996,0.0 120.688874,23.619311,0.0 120.68924,23.619526,0.0 120.6899,23.619789,0.0 120.690394,23.619969,0.0 120.690733,23.620112,0.0 120.691311,23.620354,0.0 120.691814,23.620353,0.0 120.692549,23.620047,0.0 120.693176,23.619965,0.0 120.694051,23.620177,0.0 120.694674,23.620298,0.0 120.6951,23.620213,0.0 120.695568,23.620094,0.0 120.696271,23.620114,0.0 120.69644,23.620096,0.0 120.69707,23.61984,0.0 120.697406,23.619511,0.0 120.697909,23.619076,0.0 120.698618,23.618937,0.0 120.699548,23.618792,0.0 120.700225,23.618378,0.0 120.700715,23.618262,0.0 120.701046,23.618138,0.0 120.7015,23.617814,0.0 120.701982,23.617454,0.0 120.703123,23.617409,0.0 120.704217,23.617336,0.0 120.704795,23.617281,0.0 120.705223,23.617332,0.0 120.70543,23.61768,0.0 120.705747,23.617971,0.0 120.706562,23.618553,0.0 120.707716,23.618641,0.0 120.708058,23.618667,0.0 120.708342,23.618563,0.0 120.708809,23.618663,0.0 120.709114,23.618786,0.0 120.709347,23.618874,0.0 120.709915,23.619049,0.0 120.71028,23.619165,0.0 120.710641,23.619319,0.0 120.711095,23.619505,0.0 120.711358,23.619621,0.0 120.711659,23.619807,0.0 120.71193,23.62004,0.0 120.712286,23.620243,0.0 120.712643,23.6204,0.0 120.712982,23.620525,0.0 120.713419,23.62065,0.0 120.713831,23.620795,0.0 120.713998,23.620922,0.0 120.714125,23.621285,0.0 120.714177,23.62168,0.0 120.714186,23.622089,0.0 120.714169,23.62254,0.0 120.714108,23.622983,0.0 120.71406,23.623233,0.0 120.713958,23.623513,0.0 120.713853,23.623937,0.0 120.713764,23.624346,0.0 120.713707,23.624535,0.0 120.713583,23.624971,0.0 120.713505,23.625406,0.0 120.713432,23.625761,0.0 120.713379,23.626316,0.0 120.713344,23.626704,0.0 120.713222,23.62706,0.0 120.713092,23.627376,0.0 120.713039,23.627812,0.0 120.712393,23.62814,0.0 120.708981,23.630194,0.0 120.706527,23.632217,0.0 120.705282,23.633424,0.0 120.703859,23.634991,0.0 120.70336,23.635677,0.0 120.703393,23.636918,0.0 120.703511,23.638111,0.0 120.70348,23.638458,0.0 120.704057,23.638708,0.0 120.703669,23.639474,0.0 120.702281,23.641675,0.0 120.696759,23.64929,0.0 120.693916,23.65598,0.0 120.694329,23.659173,0.0 120.694266,23.661767,0.0 120.694576,23.662621,0.0</coordinates></LinearRing></outerBoundaryIs></Polygon><styleUrl>#spolygon-map</styleUrl></Placemark><Placemark><Polygon><outerBoundaryIs><LinearRing><coordinates>120.677689,23.727787,0.0 120.676504,23.727199,0.0 120.674043,23.727594,0.0 120.670212,23.728845,0.0 120.667696,23.729215,0.0 120.662699,23.729944,0.0 120.660919,23.73099,0.0 120.659512,23.730648,0.0 120.659981,23.728636,0.0 120.661198,23.726918,0.0 120.661292,23.726544,0.0 120.661388,23.72356,0.0 120.662456,23.720006,0.0 120.663774,23.715935,0.0 120.663913,23.713775,0.0 120.663167,23.710795,0.0 120.661564,23.708593,0.0 120.659958,23.707711,0.0 120.659014,23.707574,0.0 120.656141,23.705712,0.0 120.655706,23.70337,0.0 120.655484,23.700198,0.0 120.656225,23.697937,0.0 120.65783,23.694422,0.0 120.659073,23.692925,0.0 120.660053,23.692146,0.0 120.661794,23.688146,0.0 120.662528,23.685091,0.0 120.667919,23.682165,0.0 120.674217,23.683899,0.0 120.675884,23.6859,0.0 120.677976,23.691492,0.0 120.681387,23.696251,0.0 120.680499,23.702432,0.0 120.679728,23.703503,0.0 120.679218,23.704102,0.0 120.67935,23.705389,0.0 120.679749,23.708214,0.0 120.679163,23.711705,0.0 120.678361,23.713297,0.0 120.677998,23.714064,0.0 120.67864,23.715201,0.0 120.679135,23.715843,0.0 120.680021,23.716883,0.0 120.680663,23.718287,0.0 120.680559,23.719521,0.0 120.677689,23.727787,0.0</coordinates></LinearRing></outerBoundaryIs></Polygon><styleUrl>#spolygon-map</styleUrl></Placemark><Placemark><Polygon><outerBoundaryIs><LinearRing><coordinates>120.674218,23.748487,0.0 120.66238,23.748572,0.0 120.659084,23.748427,0.0 120.654811,23.74847,0.0 120.654642,23.74846,0.0 120.654633,23.748266,0.0 120.654619,23.748004,0.0 120.65455,23.747654,0.0 120.654518,23.747403,0.0 120.654524,23.747184,0.0 120.654553,23.74688,0.0 120.654567,23.746595,0.0 120.654572,23.746221,0.0 120.654576,23.745873,0.0 120.65462,23.745532,0.0 120.654606,23.745171,0.0 120.654562,23.744959,0.0 120.654512,23.744735,0.0 120.654517,23.744563,0.0 120.654454,23.744268,0.0 120.65441,23.743981,0.0 120.654398,23.743723,0.0 120.654397,23.74331,0.0 120.654388,23.742931,0.0 120.654368,23.742545,0.0 120.654359,23.742233,0.0 120.654349,23.741994,0.0 120.654356,23.741694,0.0 120.654365,23.741303,0.0 120.654384,23.740987,0.0 120.654419,23.740376,0.0 120.654442,23.740046,0.0 120.654457,23.739793,0.0 120.654545,23.739507,0.0 120.654654,23.739175,0.0 120.654804,23.738801,0.0 120.655001,23.738354,0.0 120.655149,23.737962,0.0 120.655281,23.737617,0.0 120.655316,23.737472,0.0 120.655457,23.736953,0.0 120.655541,23.736608,0.0 120.655559,23.736462,0.0 120.655648,23.736173,0.0 120.65569,23.736015,0.0 120.655755,23.735749,0.0 120.655798,23.735586,0.0 120.655817,23.735408,0.0 120.655831,23.735198,0.0 120.655815,23.735038,0.0 120.659609,23.731908,0.0 120.661994,23.730191,0.0 120.664074,23.729609,0.0 120.669641,23.728973,0.0 120.671888,23.728251,0.0 120.675582,23.72722,0.0 120.67692,23.727385,0.0 120.678728,23.728003,0.0 120.680034,23.728001,0.0 120.681613,23.728418,0.0 120.681286,23.73514,0.0 120.679476,23.737511,0.0 120.679372,23.738321,0.0 120.6789,23.739979,0.0 120.676179,23.742041,0.0 120.675083,23.743574,0.0 120.674551,23.745659,0.0 120.674218,23.748487,0.0</coordinates></LinearRing></outerBoundaryIs></Polygon><styleUrl>#spolygon-map</styleUrl></Placemark><Placemark><Polygon><outerBoundaryIs><LinearRing><coordinates>120.644529,23.736644,0.0 120.644428,23.736588,0.0 120.644368,23.736486,0.0 120.644304,23.736377,0.0 120.644216,23.736244,0.0 120.644146,23.736095,0.0 120.644053,23.735878,0.0 120.643979,23.73567,0.0 120.643917,23.735453,0.0 120.643937,23.735121,0.0 120.643907,23.734927,0.0 120.643858,23.734595,0.0 120.643773,23.734491,0.0 120.643547,23.734398,0.0 120.643416,23.734172,0.0 120.643417,23.733946,0.0 120.643442,23.733587,0.0 120.64344,23.733353,0.0 120.643397,23.733197,0.0 120.643219,23.732801,0.0 120.643141,23.732627,0.0 120.643032,23.732365,0.0 120.642922,23.732132,0.0 120.642794,23.731947,0.0 120.642646,23.731786,0.0 120.642535,23.731635,0.0 120.642377,23.731375,0.0 120.642179,23.730998,0.0 120.642106,23.730808,0.0 120.642057,23.730645,0.0 120.641958,23.73055,0.0 120.641741,23.730466,0.0 120.641548,23.730382,0.0 120.641315,23.730456,0.0 120.641255,23.730465,0.0 120.641003,23.730485,0.0 120.640724,23.73064,0.0 120.640509,23.730723,0.0 120.640262,23.730819,0.0 120.640212,23.73076,0.0 120.640191,23.730654,0.0 120.64015,23.730415,0.0 120.640111,23.730223,0.0 120.640012,23.72983,0.0 120.640016,23.729469,0.0 120.640031,23.729351,0.0 120.639904,23.72922,0.0 120.639832,23.729019,0.0 120.63982,23.728838,0.0 120.639806,23.728577,0.0 120.639861,23.728299,0.0 120.639904,23.728003,0.0 120.640051,23.727787,0.0 120.640099,23.727512,0.0 120.640021,23.727286,0.0 120.639855,23.726906,0.0 120.639728,23.726624,0.0 120.639677,23.726344,0.0 120.639731,23.72612,0.0 120.639955,23.725924,0.0 120.640099,23.725771,0.0 120.640021,23.725525,0.0 120.64007,23.725259,0.0 120.6402,23.725115,0.0 120.64035,23.724998,0.0 120.640891,23.725019,0.0 120.641028,23.725008,0.0 120.641053,23.724785,0.0 120.641155,23.724683,0.0 120.641336,23.724528,0.0 120.641356,23.724372,0.0 120.641302,23.724237,0.0 120.641146,23.724026,0.0 120.64111,23.723898,0.0 120.641063,23.723809,0.0 120.640922,23.723667,0.0 120.640961,23.723498,0.0 120.641077,23.723349,0.0 120.641233,23.723126,0.0 120.641368,23.722909,0.0 120.641495,23.722659,0.0 120.641641,23.722404,0.0 120.641671,23.722283,0.0 120.641584,23.722161,0.0 120.641479,23.722052,0.0 120.6413,23.721837,0.0 120.641181,23.721652,0.0 120.641132,23.721507,0.0 120.641077,23.721268,0.0 120.641049,23.720952,0.0 120.641019,23.720672,0.0 120.640999,23.720443,0.0 120.6409,23.720233,0.0 120.640649,23.719939,0.0 120.640452,23.719593,0.0 120.640409,23.719327,0.0 120.640531,23.719088,0.0 120.64073,23.718745,0.0 120.640761,23.718558,0.0 120.640748,23.718253,0.0 120.64073,23.71782,0.0 120.640725,23.717578,0.0 120.640631,23.717418,0.0 120.640477,23.717189,0.0 120.640419,23.717049,0.0 120.640359,23.716789,0.0 120.640304,23.716593,0.0 120.640198,23.71645,0.0 120.64017,23.716243,0.0 120.640208,23.71604,0.0 120.640292,23.715665,0.0 120.640457,23.715408,0.0 120.640475,23.715304,0.0 120.640233,23.715168,0.0 120.640037,23.715064,0.0 120.639912,23.714842,0.0 120.639817,23.714662,0.0 120.639726,23.714503,0.0 120.639738,23.71447,0.0 120.639921,23.714368,0.0 120.640181,23.714346,0.0 120.640401,23.714313,0.0 120.640653,23.71428,0.0 120.640711,23.714147,0.0 120.640696,23.713962,0.0 120.640671,23.713756,0.0 120.640591,23.713469,0.0 120.640552,23.713187,0.0 120.640436,23.713026,0.0 120.640269,23.712864,0.0 120.640071,23.712633,0.0 120.639966,23.712436,0.0 120.639801,23.712266,0.0 120.639664,23.712113,0.0 120.639699,23.71193,0.0 120.639557,23.711726,0.0 120.639437,23.71139,0.0 120.639351,23.71108,0.0 120.639242,23.710852,0.0 120.639112,23.710712,0.0 120.638973,23.710578,0.0 120.639174,23.710511,0.0 120.639509,23.710451,0.0 120.639787,23.710402,0.0 120.639927,23.710364,0.0 120.640075,23.71019,0.0 120.640183,23.710005,0.0 120.64023,23.709859,0.0 120.640232,23.709741,0.0 120.640169,23.709459,0.0 120.64007,23.709276,0.0 120.64001,23.709161,0.0 120.639865,23.708971,0.0 120.63972,23.708896,0.0 120.639706,23.708779,0.0 120.639954,23.708619,0.0 120.64017,23.7084,0.0 120.640418,23.70818,0.0 120.640443,23.707979,0.0 120.640477,23.707724,0.0 120.640579,23.707512,0.0 120.640602,23.707365,0.0 120.640441,23.707119,0.0 120.640364,23.706918,0.0 120.640548,23.706902,0.0 120.640689,23.706783,0.0 120.640894,23.706605,0.0 120.640987,23.706456,0.0 120.64106,23.706238,0.0 120.641137,23.705989,0.0 120.641349,23.705814,0.0 120.641352,23.705723,0.0 120.641422,23.705572,0.0 120.641561,23.705505,0.0 120.641769,23.705551,0.0 120.641898,23.70558,0.0 120.642029,23.705549,0.0 120.642132,23.705463,0.0 120.642373,23.705342,0.0 120.6426,23.705406,0.0 120.642869,23.705386,0.0 120.643083,23.70531,0.0 120.643195,23.705222,0.0 120.64325,23.705107,0.0 120.643308,23.704947,0.0 120.643536,23.70474,0.0 120.643836,23.704465,0.0 120.644088,23.704276,0.0 120.644304,23.704132,0.0 120.644605,23.704063,0.0 120.644915,23.704057,0.0 120.645059,23.703987,0.0 120.64513,23.703852,0.0 120.645116,23.703633,0.0 120.645217,23.703437,0.0 120.645413,23.703324,0.0 120.645615,23.703243,0.0 120.64565,23.703155,0.0 120.645608,23.703054,0.0 120.645476,23.702911,0.0 120.645396,23.702753,0.0 120.64534,23.702593,0.0 120.645307,23.702453,0.0 120.645357,23.702245,0.0 120.645338,23.702062,0.0 120.645304,23.701978,0.0 120.645222,23.701863,0.0 120.645072,23.701669,0.0 120.644959,23.701522,0.0 120.644759,23.701316,0.0 120.644621,23.701243,0.0 120.644396,23.701184,0.0 120.644265,23.701116,0.0 120.644171,23.700958,0.0 120.644114,23.700687,0.0 120.644081,23.700522,0.0 120.643971,23.700339,0.0 120.643808,23.700108,0.0 120.643675,23.699999,0.0 120.643506,23.699875,0.0 120.643393,23.699755,0.0 120.643426,23.699674,0.0 120.643632,23.699625,0.0 120.643829,23.699542,0.0 120.643897,23.69939,0.0 120.643901,23.699241,0.0 120.643916,23.698934,0.0 120.644002,23.698698,0.0 120.644118,23.698436,0.0 120.644193,23.698265,0.0 120.644308,23.69794,0.0 120.644483,23.697593,0.0 120.644564,23.697326,0.0 120.644723,23.697142,0.0 120.644855,23.696885,0.0 120.64507,23.696747,0.0 120.645165,23.696425,0.0 120.645259,23.696229,0.0 120.645599,23.695972,0.0 120.645681,23.695866,0.0 120.645671,23.695676,0.0 120.645627,23.695591,0.0 120.645435,23.695358,0.0 120.6456,23.695146,0.0 120.645721,23.694907,0.0 120.645865,23.694528,0.0 120.645898,23.694336,0.0 120.645938,23.694144,0.0 120.645995,23.693858,0.0 120.645997,23.693709,0.0 120.646038,23.693402,0.0 120.646166,23.693359,0.0 120.646343,23.69326,0.0 120.646494,23.69308,0.0 120.646562,23.692868,0.0 120.64659,23.692694,0.0 120.646629,23.692322,0.0 120.646616,23.692042,0.0 120.646561,23.691886,0.0 120.646587,23.691739,0.0 120.646298,23.691506,0.0 120.646102,23.691291,0.0 120.646006,23.691097,0.0 120.645998,23.690919,0.0 120.646001,23.690781,0.0 120.645761,23.690561,0.0 120.645581,23.690369,0.0 120.645529,23.690168,0.0 120.645567,23.690019,0.0 120.645703,23.689827,0.0 120.645866,23.689654,0.0 120.645918,23.689449,0.0 120.645894,23.689227,0.0 120.645719,23.688967,0.0 120.645601,23.688694,0.0 120.645581,23.688484,0.0 120.645611,23.688335,0.0 120.64564,23.688127,0.0 120.645614,23.687902,0.0 120.645529,23.687653,0.0 120.645654,23.68734,0.0 120.64576,23.687195,0.0 120.646125,23.687065,0.0 120.646488,23.686926,0.0 120.646818,23.686909,0.0 120.646919,23.686794,0.0 120.646962,23.686652,0.0 120.646974,23.686476,0.0 120.647008,23.686266,0.0 120.646981,23.686135,0.0 120.646851,23.685963,0.0 120.646725,23.685854,0.0 120.646713,23.685617,0.0 120.64671,23.685371,0.0 120.646643,23.685211,0.0 120.646419,23.685014,0.0 120.646224,23.684846,0.0 120.646283,23.684707,0.0 120.646498,23.684511,0.0 120.646616,23.684348,0.0 120.646744,23.684105,0.0 120.646923,23.683961,0.0 120.647133,23.683876,0.0 120.647235,23.683754,0.0 120.647274,23.683621,0.0 120.647432,23.683526,0.0 120.647664,23.683428,0.0 120.647922,23.68332,0.0 120.648089,23.683133,0.0 120.648218,23.682955,0.0 120.648265,23.682858,0.0 120.648192,23.682724,0.0 120.648112,23.682523,0.0 120.648101,23.68239,0.0 120.648111,23.682205,0.0 120.647934,23.682153,0.0 120.647696,23.682082,0.0 120.647655,23.681929,0.0 120.647754,23.681762,0.0 120.647901,23.681647,0.0 120.647962,23.681462,0.0 120.647914,23.681372,0.0 120.647893,23.681243,0.0 120.647972,23.681092,0.0 120.647846,23.680895,0.0 120.6477,23.680728,0.0 120.647714,23.680554,0.0 120.64758,23.68031,0.0 120.647423,23.680084,0.0 120.6475,23.679944,0.0 120.647634,23.679761,0.0 120.647593,23.679592,0.0 120.647545,23.679454,0.0 120.647436,23.679305,0.0 120.647101,23.679126,0.0 120.646979,23.679017,0.0 120.646919,23.678895,0.0 120.646922,23.678764,0.0 120.646907,23.678636,0.0 120.646944,23.678478,0.0 120.646922,23.678225,0.0 120.646814,23.67815,0.0 120.646673,23.678086,0.0 120.646537,23.67793,0.0 120.646503,23.677729,0.0 120.646456,23.677589,0.0 120.646365,23.67746,0.0 120.646216,23.677374,0.0 120.646103,23.677295,0.0 120.646035,23.67713,0.0 120.646069,23.676927,0.0 120.646091,23.676728,0.0 120.646187,23.676498,0.0 120.646342,23.676235,0.0 120.646511,23.675926,0.0 120.646501,23.675756,0.0 120.646442,23.675628,0.0 120.646311,23.675453,0.0 120.646256,23.675336,0.0 120.646171,23.675207,0.0 120.646052,23.67506,0.0 120.64607,23.675006,0.0 120.646283,23.674882,0.0 120.646442,23.6747,0.0 120.646587,23.674589,0.0 120.646736,23.674477,0.0 120.646904,23.674448,0.0 120.646957,23.674328,0.0 120.646973,23.674229,0.0 120.647002,23.674017,0.0 120.647044,23.673742,0.0 120.647072,23.673525,0.0 120.647079,23.673322,0.0 120.646913,23.673121,0.0 120.646865,23.673012,0.0 120.646903,23.672811,0.0 120.646857,23.672612,0.0 120.646643,23.672461,0.0 120.646314,23.672311,0.0 120.646008,23.672155,0.0 120.645751,23.671994,0.0 120.645416,23.671824,0.0 120.645086,23.671805,0.0 120.644925,23.671631,0.0 120.644897,23.671348,0.0 120.645033,23.67108,0.0 120.644852,23.670822,0.0 120.644772,23.67054,0.0 120.644734,23.670359,0.0 120.644576,23.670038,0.0 120.644495,23.669858,0.0 120.644559,23.669693,0.0 120.644425,23.669544,0.0 120.644299,23.669473,0.0 120.644273,23.669263,0.0 120.644254,23.669013,0.0 120.644198,23.668843,0.0 120.644157,23.66871,0.0 120.64435,23.668392,0.0 120.644411,23.668261,0.0 120.64449,23.668031,0.0 120.644473,23.667808,0.0 120.644383,23.667609,0.0 120.644176,23.667412,0.0 120.64394,23.667305,0.0 120.643795,23.667172,0.0 120.64354,23.666968,0.0 120.64343,23.666787,0.0 120.643325,23.666636,0.0 120.643103,23.666561,0.0 120.643005,23.666378,0.0 120.642923,23.66624,0.0 120.642805,23.666237,0.0 120.642687,23.666122,0.0 120.642514,23.666108,0.0 120.642416,23.66604,0.0 120.642325,23.665983,0.0 120.64222,23.665992,0.0 120.642057,23.666028,0.0 120.641928,23.666025,0.0 120.641865,23.665892,0.0 120.641723,23.66572,0.0 120.641527,23.665683,0.0 120.641325,23.665665,0.0 120.641336,23.665482,0.0 120.641348,23.665329,0.0 120.641266,23.665195,0.0 120.641114,23.665014,0.0 120.640846,23.664702,0.0 120.640561,23.664383,0.0 120.640497,23.66425,0.0 120.64041,23.664078,0.0 120.640354,23.663976,0.0 120.640365,23.663825,0.0 120.640426,23.663697,0.0 120.640426,23.663511,0.0 120.64039,23.663229,0.0 120.640342,23.662854,0.0 120.64031,23.662597,0.0 120.640271,23.66245,0.0 120.640193,23.662303,0.0 120.640167,23.66208,0.0 120.640114,23.661883,0.0 120.640029,23.661655,0.0 120.640009,23.661454,0.0 120.640042,23.661267,0.0 120.64009,23.661073,0.0 120.639999,23.660937,0.0 120.639815,23.660932,0.0 120.639687,23.660891,0.0 120.64361,23.66051,0.0 120.645664,23.660711,0.0 120.648267,23.661243,0.0 120.649814,23.661544,0.0 120.654433,23.660911,0.0 120.656162,23.665626,0.0 120.657728,23.668858,0.0 120.66045,23.672015,0.0 120.662648,23.674418,0.0 120.663361,23.679756,0.0 120.663259,23.681981,0.0 120.661921,23.687683,0.0 120.66139,23.689276,0.0 120.659893,23.6923,0.0 120.658399,23.693651,0.0 120.657049,23.695871,0.0 120.655527,23.699638,0.0 120.655542,23.7019,0.0 120.655995,23.705454,0.0 120.657504,23.706681,0.0 120.659412,23.707652,0.0 120.660554,23.707898,0.0 120.662599,23.70972,0.0 120.663616,23.711986,0.0 120.663977,23.714949,0.0 120.66315,23.717295,0.0 120.66156,23.722501,0.0 120.661502,23.72593,0.0 120.66128,23.726684,0.0 120.660398,23.728016,0.0 120.659588,23.729829,0.0 120.659609,23.731908,0.0 120.655815,23.735038,0.0 120.655739,23.734848,0.0 120.65559,23.734647,0.0 120.655461,23.734543,0.0 120.655301,23.734488,0.0 120.655071,23.734429,0.0 120.654871,23.734433,0.0 120.654591,23.734464,0.0 120.654376,23.73452,0.0 120.654164,23.734612,0.0 120.653948,23.734722,0.0 120.653797,23.734801,0.0 120.653513,23.73496,0.0 120.653269,23.735116,0.0 120.652956,23.7353,0.0 120.652643,23.735455,0.0 120.65232,23.735621,0.0 120.652138,23.735704,0.0 120.651962,23.735783,0.0 120.651602,23.735884,0.0 120.651279,23.735982,0.0 120.651035,23.736072,0.0 120.650886,23.736171,0.0 120.650664,23.736107,0.0 120.650438,23.735985,0.0 120.650183,23.735867,0.0 120.650088,23.735833,0.0 120.649936,23.735711,0.0 120.649759,23.735783,0.0 120.649464,23.735913,0.0 120.6492,23.735815,0.0 120.649012,23.735767,0.0 120.648768,23.735744,0.0 120.648488,23.735829,0.0 120.648337,23.735933,0.0 120.648045,23.736002,0.0 120.647722,23.736029,0.0 120.647421,23.736014,0.0 120.647079,23.735989,0.0 120.646624,23.735902,0.0 120.646431,23.735773,0.0 120.646333,23.735646,0.0 120.646228,23.735644,0.0 120.646065,23.735799,0.0 120.645873,23.735853,0.0 120.645783,23.735907,0.0 120.645717,23.736026,0.0 120.645631,23.736132,0.0 120.645334,23.73619,0.0 120.645127,23.73628,0.0 120.644942,23.736381,0.0 120.644664,23.736593,0.0 120.644614,23.736651,0.0 120.644529,23.736644,0.0</coordinates></LinearRing></outerBoundaryIs></Polygon><styleUrl>#spolygon-map</styleUrl></Placemark></Document>
</kml>
