<?xml version="1.0" encoding="UTF-8"?>
<kml xmlns="http://www.opengis.net/kml/2.2">
	<Document>
		<name>宜蘭縣南澳鄉</name>
		<Style id="spolygon">
			<LabelStyle>
				<scale>0.0</scale>
			</LabelStyle>
			<LineStyle>
				<color>330030ff</color>
				<width>0</width>
			</LineStyle>
			<PolyStyle>
				<color>330030ff</color>
			</PolyStyle>
		</Style>
		<StyleMap id="spolygon-map">
			<Pair>
				<key>normal</key>
				<styleUrl>#spolygon</styleUrl>
			</Pair>
		</StyleMap>
	<Placemark><Polygon><outerBoundaryIs><LinearRing><coordinates>121.765024,24.574776,0.0 121.764525,24.57516,0.0 121.764247,24.576155,0.0 121.763815,24.576662,0.0 121.762872,24.576958,0.0 121.761878,24.577024,0.0 121.760998,24.57667,0.0 121.760636,24.576205,0.0 121.760264,24.574195,0.0 121.760088,24.573797,0.0 121.759767,24.573534,0.0 121.758931,24.573529,0.0 121.756948,24.574031,0.0 121.75628,24.574035,0.0 121.755888,24.573847,0.0 121.755153,24.572923,0.0 121.754597,24.572231,0.0 121.754027,24.572019,0.0 121.75296,24.572052,0.0 121.752215,24.572297,0.0 121.751821,24.572168,0.0 121.7512,24.571713,0.0 121.750258,24.570709,0.0 121.749314,24.569429,0.0 121.748982,24.568277,0.0 121.74849,24.566768,0.0 121.747929,24.565515,0.0 121.747751,24.565485,0.0 121.74716,24.565912,0.0 121.745171,24.566761,0.0 121.74302,24.567605,0.0 121.741116,24.567165,0.0 121.740668,24.567097,0.0 121.739519,24.56715,0.0 121.737919,24.566425,0.0 121.736964,24.566116,0.0 121.735977,24.566066,0.0 121.735563,24.566311,0.0 121.73449,24.567208,0.0 121.733976,24.562269,0.0 121.734475,24.558649,0.0 121.735026,24.557258,0.0 121.734822,24.556528,0.0 121.732423,24.556174,0.0 121.7295,24.555001,0.0 121.728011,24.553291,0.0 121.727755,24.550332,0.0 121.727227,24.548964,0.0 121.727223,24.548197,0.0 121.728377,24.547424,0.0 121.728613,24.546765,0.0 121.728524,24.545121,0.0 121.728002,24.544758,0.0 121.726723,24.544618,0.0 121.725402,24.54415,0.0 121.724643,24.544117,0.0 121.723807,24.544669,0.0 121.72285,24.544966,0.0 121.72233,24.544932,0.0 121.721005,24.543623,0.0 121.719521,24.542643,0.0 121.718673,24.54104,0.0 121.717071,24.54028,0.0 121.716468,24.539607,0.0 121.715901,24.538221,0.0 121.715374,24.536944,0.0 121.715448,24.535811,0.0 121.716314,24.533578,0.0 121.717584,24.532184,0.0 121.717895,24.530629,0.0 121.71837,24.529933,0.0 121.719089,24.529856,0.0 121.720528,24.530142,0.0 121.721511,24.52736,0.0 121.722185,24.52648,0.0 121.722776,24.525161,0.0 121.723654,24.524938,0.0 121.726175,24.525803,0.0 121.728691,24.525754,0.0 121.729311,24.52513,0.0 121.730113,24.525849,0.0 121.730639,24.527665,0.0 121.731824,24.528771,0.0 121.732239,24.530487,0.0 121.734642,24.532361,0.0 121.737748,24.534535,0.0 121.738895,24.53564,0.0 121.741553,24.536873,0.0 121.744475,24.539149,0.0 121.745919,24.540506,0.0 121.747909,24.540867,0.0 121.750259,24.539744,0.0 121.754088,24.539724,0.0 121.757584,24.539505,0.0 121.760669,24.538176,0.0 121.761943,24.535711,0.0 121.762794,24.530318,0.0 121.764984,24.527327,0.0 121.769383,24.524206,0.0 121.774104,24.519736,0.0 121.779659,24.513124,0.0 121.7817,24.509846,0.0 121.783605,24.508422,0.0 121.789294,24.505833,0.0 121.794578,24.503161,0.0 121.797917,24.501628,0.0 121.798972,24.500924,0.0 121.79997,24.500237,0.0 121.802355,24.499113,0.0 121.804187,24.497773,0.0 121.807089,24.496915,0.0 121.808038,24.495698,0.0 121.808872,24.493774,0.0 121.80938,24.492559,0.0 121.808784,24.491518,0.0 121.806345,24.489982,0.0 121.805233,24.488725,0.0 121.804012,24.487586,0.0 121.802608,24.486819,0.0 121.802014,24.485913,0.0 121.802006,24.484768,0.0 121.8028,24.482238,0.0 121.802195,24.479715,0.0 121.800191,24.477031,0.0 121.796046,24.473366,0.0 121.79073,24.469538,0.0 121.790094,24.469162,0.0 121.785635,24.467796,0.0 121.783578,24.46749,0.0 121.783789,24.464108,0.0 121.784052,24.461567,0.0 121.784729,24.461162,0.0 121.788038,24.460367,0.0 121.788575,24.460286,0.0 121.789257,24.461235,0.0 121.790475,24.461665,0.0 121.796454,24.463399,0.0 121.798418,24.463961,0.0 121.79982,24.464366,0.0 121.801991,24.464996,0.0 121.802368,24.465136,0.0 121.803877,24.46584,0.0 121.804631,24.466211,0.0 121.804728,24.466297,0.0 121.80499,24.466468,0.0 121.806206,24.467321,0.0 121.806774,24.467766,0.0 121.806838,24.467818,0.0 121.807012,24.46796,0.0 121.80732,24.468234,0.0 121.807523,24.468514,0.0 121.807588,24.469579,0.0 121.807831,24.469837,0.0 121.808864,24.47019,0.0 121.80907,24.470253,0.0 121.810206,24.469552,0.0 121.81049,24.469757,0.0 121.811711,24.471046,0.0 121.813536,24.471961,0.0 121.8151,24.474173,0.0 121.816395,24.476386,0.0 121.817924,24.47893,0.0 121.816839,24.481747,0.0 121.81651,24.48659,0.0 121.81609,24.489516,0.0 121.81455,24.492155,0.0 121.814756,24.499407,0.0 121.81537,24.507863,0.0 121.813228,24.51014,0.0 121.81124,24.511466,0.0 121.809348,24.515349,0.0 121.807855,24.519285,0.0 121.806869,24.521227,0.0 121.805036,24.521931,0.0 121.799364,24.521852,0.0 121.798089,24.52237,0.0 121.794707,24.524434,0.0 121.790556,24.524913,0.0 121.786772,24.526577,0.0 121.786104,24.528298,0.0 121.784929,24.538407,0.0 121.783837,24.542688,0.0 121.776375,24.55051,0.0 121.776379,24.551241,0.0 121.777305,24.552314,0.0 121.778474,24.554098,0.0 121.778186,24.559142,0.0 121.778752,24.560308,0.0 121.781885,24.562996,0.0 121.782213,24.5642,0.0 121.781339,24.565155,0.0 121.777834,24.56689,0.0 121.771861,24.570137,0.0 121.768801,24.572893,0.0 121.76658,24.575572,0.0 121.76585,24.575964,0.0 121.765504,24.575363,0.0 121.765527,24.575117,0.0 121.765426,24.574842,0.0 121.765107,24.57476,0.0 121.765024,24.574776,0.0</coordinates></LinearRing></outerBoundaryIs></Polygon><styleUrl>#spolygon-map</styleUrl></Placemark><Placemark><Polygon><outerBoundaryIs><LinearRing><coordinates>121.750259,24.539744,0.0 121.747909,24.540867,0.0 121.745919,24.540506,0.0 121.744475,24.539149,0.0 121.741553,24.536873,0.0 121.738895,24.53564,0.0 121.737748,24.534535,0.0 121.734642,24.532361,0.0 121.732239,24.530487,0.0 121.731824,24.528771,0.0 121.730639,24.527665,0.0 121.730113,24.525849,0.0 121.729311,24.52513,0.0 121.729402,24.524289,0.0 121.732788,24.522774,0.0 121.737099,24.522224,0.0 121.738213,24.521634,0.0 121.738126,24.520355,0.0 121.737123,24.519556,0.0 121.735833,24.517516,0.0 121.73862,24.516077,0.0 121.741895,24.516098,0.0 121.743295,24.51642,0.0 121.74482,24.517655,0.0 121.746216,24.517282,0.0 121.749172,24.517414,0.0 121.749969,24.517154,0.0 121.749318,24.515111,0.0 121.747308,24.512929,0.0 121.747054,24.510427,0.0 121.74637,24.50959,0.0 121.744451,24.50927,0.0 121.74309,24.508693,0.0 121.742085,24.507492,0.0 121.742714,24.505881,0.0 121.74546,24.504223,0.0 121.748216,24.504282,0.0 121.75106,24.505766,0.0 121.753254,24.50539,0.0 121.755847,24.504866,0.0 121.758009,24.505768,0.0 121.76053,24.506706,0.0 121.761928,24.506625,0.0 121.763117,24.505194,0.0 121.764188,24.503947,0.0 121.766061,24.503316,0.0 121.76672,24.500024,0.0 121.766894,24.49891,0.0 121.77052,24.495348,0.0 121.771836,24.493376,0.0 121.773777,24.490155,0.0 121.776638,24.4874,0.0 121.779458,24.484816,0.0 121.781024,24.483002,0.0 121.781305,24.482094,0.0 121.781745,24.480916,0.0 121.781635,24.479418,0.0 121.781634,24.478506,0.0 121.781597,24.477676,0.0 121.782019,24.47486,0.0 121.782888,24.473467,0.0 121.782623,24.471437,0.0 121.783378,24.468678,0.0 121.783943,24.467544,0.0 121.787956,24.468289,0.0 121.790317,24.469253,0.0 121.792498,24.470757,0.0 121.798118,24.475072,0.0 121.801192,24.478171,0.0 121.80272,24.481228,0.0 121.802694,24.482945,0.0 121.801937,24.485475,0.0 121.802237,24.486316,0.0 121.803052,24.487187,0.0 121.804677,24.487987,0.0 121.805901,24.489597,0.0 121.807085,24.490516,0.0 121.809081,24.49192,0.0 121.80931,24.493165,0.0 121.808141,24.494485,0.0 121.807784,24.496204,0.0 121.805913,24.497258,0.0 121.803635,24.49786,0.0 121.801439,24.499825,0.0 121.799383,24.500644,0.0 121.798834,24.501017,0.0 121.797037,24.502138,0.0 121.792084,24.504555,0.0 121.78599,24.507164,0.0 121.782615,24.509033,0.0 121.780645,24.511873,0.0 121.775967,24.517369,0.0 121.771615,24.522005,0.0 121.767001,24.525902,0.0 121.763303,24.529339,0.0 121.762003,24.533454,0.0 121.761509,24.537128,0.0 121.759055,24.539127,0.0 121.755781,24.539615,0.0 121.750774,24.539606,0.0 121.750259,24.539744,0.0</coordinates></LinearRing></outerBoundaryIs></Polygon><styleUrl>#spolygon-map</styleUrl></Placemark><Placemark><Polygon><outerBoundaryIs><LinearRing><coordinates>121.731995,24.621608,0.0 121.731755,24.62146,0.0 121.731257,24.62093,0.0 121.730248,24.620937,0.0 121.729379,24.620844,0.0 121.728453,24.620869,0.0 121.727743,24.62059,0.0 121.727133,24.619968,0.0 121.7261,24.619641,0.0 121.725136,24.618847,0.0 121.72465,24.618323,0.0 121.724477,24.618207,0.0 121.724627,24.617145,0.0 121.724866,24.616281,0.0 121.725437,24.615078,0.0 121.725546,24.614538,0.0 121.725228,24.613651,0.0 121.725174,24.613096,0.0 121.725593,24.61178,0.0 121.725399,24.611269,0.0 121.724844,24.61019,0.0 121.724033,24.608743,0.0 121.723835,24.608136,0.0 121.724196,24.607178,0.0 121.724785,24.606464,0.0 121.725652,24.605618,0.0 121.726488,24.604955,0.0 121.72668,24.604523,0.0 121.727145,24.603586,0.0 121.727523,24.602769,0.0 121.728858,24.601691,0.0 121.729702,24.601269,0.0 121.731069,24.600001,0.0 121.73185,24.599539,0.0 121.731642,24.598359,0.0 121.731689,24.597883,0.0 121.732267,24.596939,0.0 121.732937,24.595712,0.0 121.733041,24.59524,0.0 121.732924,24.59446,0.0 121.732969,24.593985,0.0 121.733681,24.592797,0.0 121.734098,24.592093,0.0 121.73463,24.591664,0.0 121.735315,24.591491,0.0 121.736644,24.59157,0.0 121.73702,24.591483,0.0 121.738032,24.590498,0.0 121.738676,24.590084,0.0 121.739917,24.589449,0.0 121.740635,24.589163,0.0 121.742386,24.5888,0.0 121.743764,24.588245,0.0 121.745004,24.587184,0.0 121.745828,24.586537,0.0 121.747937,24.584653,0.0 121.749963,24.583323,0.0 121.752105,24.582226,0.0 121.753833,24.581821,0.0 121.756435,24.581194,0.0 121.757592,24.581334,0.0 121.75868,24.581765,0.0 121.759055,24.581709,0.0 121.759739,24.581019,0.0 121.759918,24.580603,0.0 121.760137,24.579471,0.0 121.760469,24.579002,0.0 121.76066,24.57894,0.0 121.761088,24.579161,0.0 121.761852,24.579722,0.0 121.762144,24.579592,0.0 121.76222,24.579104,0.0 121.762287,24.578352,0.0 121.762808,24.577516,0.0 121.763158,24.577338,0.0 121.763577,24.577451,0.0 121.764089,24.577663,0.0 121.764456,24.577546,0.0 121.764937,24.576986,0.0 121.765811,24.576409,0.0 121.765893,24.576133,0.0 121.76658,24.575572,0.0 121.768801,24.572893,0.0 121.771861,24.570137,0.0 121.777834,24.56689,0.0 121.781339,24.565155,0.0 121.782213,24.5642,0.0 121.781885,24.562996,0.0 121.778752,24.560308,0.0 121.778186,24.559142,0.0 121.778474,24.554098,0.0 121.777305,24.552314,0.0 121.776379,24.551241,0.0 121.776375,24.55051,0.0 121.783837,24.542688,0.0 121.784929,24.538407,0.0 121.786104,24.528298,0.0 121.786772,24.526577,0.0 121.790556,24.524913,0.0 121.794707,24.524434,0.0 121.798089,24.52237,0.0 121.799364,24.521852,0.0 121.805036,24.521931,0.0 121.806869,24.521227,0.0 121.807855,24.519285,0.0 121.809348,24.515349,0.0 121.81124,24.511466,0.0 121.813228,24.51014,0.0 121.81537,24.507863,0.0 121.814756,24.499407,0.0 121.81455,24.492155,0.0 121.81609,24.489516,0.0 121.81651,24.48659,0.0 121.816839,24.481747,0.0 121.817924,24.47893,0.0 121.81946,24.481457,0.0 121.819608,24.483553,0.0 121.819093,24.487317,0.0 121.819113,24.490339,0.0 121.818518,24.492069,0.0 121.821689,24.492607,0.0 121.822882,24.493257,0.0 121.823148,24.493479,0.0 121.823527,24.494342,0.0 121.824303,24.495734,0.0 121.82529,24.49712,0.0 121.825179,24.498136,0.0 121.82443,24.499653,0.0 121.824828,24.50079,0.0 121.82574,24.502396,0.0 121.826667,24.504581,0.0 121.827865,24.506815,0.0 121.828668,24.508726,0.0 121.828453,24.509868,0.0 121.82828,24.511688,0.0 121.828229,24.513738,0.0 121.828241,24.515531,0.0 121.829191,24.515872,0.0 121.82968,24.516725,0.0 121.831152,24.51825,0.0 121.832251,24.519553,0.0 121.832924,24.520339,0.0 121.833832,24.521215,0.0 121.835704,24.521939,0.0 121.835431,24.522522,0.0 121.835232,24.523068,0.0 121.834903,24.523294,0.0 121.836467,24.526165,0.0 121.837901,24.528871,0.0 121.84007,24.530647,0.0 121.843038,24.530939,0.0 121.846077,24.531754,0.0 121.847582,24.535014,0.0 121.848723,24.537435,0.0 121.848319,24.538415,0.0 121.845469,24.539407,0.0 121.844781,24.540131,0.0 121.844054,24.542293,0.0 121.841291,24.542494,0.0 121.839811,24.542934,0.0 121.838082,24.54652,0.0 121.836073,24.548628,0.0 121.834336,24.551012,0.0 121.832723,24.551822,0.0 121.830567,24.552081,0.0 121.826791,24.551978,0.0 121.825436,24.550937,0.0 121.824221,24.550759,0.0 121.822407,24.551756,0.0 121.819985,24.552632,0.0 121.818242,24.554122,0.0 121.816371,24.556753,0.0 121.815908,24.558174,0.0 121.815111,24.560028,0.0 121.815795,24.561443,0.0 121.81553,24.562246,0.0 121.814867,24.563914,0.0 121.814546,24.566458,0.0 121.8149,24.569094,0.0 121.815256,24.571898,0.0 121.813782,24.57351,0.0 121.813386,24.574745,0.0 121.813525,24.575484,0.0 121.815157,24.577449,0.0 121.815641,24.579389,0.0 121.814706,24.58075,0.0 121.813613,24.581906,0.0 121.812967,24.582918,0.0 121.812041,24.585822,0.0 121.810233,24.587866,0.0 121.807741,24.588311,0.0 121.807822,24.590408,0.0 121.807632,24.592382,0.0 121.805814,24.592823,0.0 121.803998,24.593573,0.0 121.802183,24.594508,0.0 121.800506,24.596058,0.0 121.799239,24.598285,0.0 121.797903,24.600266,0.0 121.795849,24.601284,0.0 121.795435,24.600552,0.0 121.794582,24.599674,0.0 121.793879,24.59936,0.0 121.793405,24.598725,0.0 121.793184,24.598111,0.0 121.790831,24.596988,0.0 121.789538,24.596855,0.0 121.788912,24.597309,0.0 121.787863,24.598232,0.0 121.788421,24.600421,0.0 121.787775,24.601207,0.0 121.786691,24.601366,0.0 121.786691,24.601939,0.0 121.786402,24.603247,0.0 121.786029,24.603771,0.0 121.785523,24.603974,0.0 121.784765,24.604231,0.0 121.784305,24.604784,0.0 121.782921,24.605999,0.0 121.782041,24.606602,0.0 121.780639,24.607049,0.0 121.780302,24.60736,0.0 121.779741,24.607873,0.0 121.779494,24.608472,0.0 121.778861,24.608674,0.0 121.778141,24.608777,0.0 121.777738,24.609068,0.0 121.777395,24.609847,0.0 121.77694,24.610377,0.0 121.77629,24.610705,0.0 121.776262,24.610954,0.0 121.776408,24.611531,0.0 121.776089,24.611591,0.0 121.77524,24.611284,0.0 121.774532,24.61141,0.0 121.773664,24.611432,0.0 121.773222,24.611468,0.0 121.772527,24.611684,0.0 121.771866,24.61215,0.0 121.770746,24.612592,0.0 121.770214,24.612727,0.0 121.76972,24.613005,0.0 121.769528,24.613413,0.0 121.768785,24.613967,0.0 121.768095,24.613973,0.0 121.766785,24.614122,0.0 121.766474,24.614457,0.0 121.766148,24.615468,0.0 121.766031,24.615956,0.0 121.765496,24.616092,0.0 121.764066,24.616533,0.0 121.762664,24.617016,0.0 121.761752,24.617413,0.0 121.760818,24.617644,0.0 121.76053,24.617767,0.0 121.759951,24.618463,0.0 121.759795,24.618613,0.0 121.758913,24.619019,0.0 121.758293,24.619115,0.0 121.757154,24.619161,0.0 121.756802,24.618894,0.0 121.75646,24.618275,0.0 121.756445,24.617925,0.0 121.756363,24.617806,0.0 121.755629,24.617765,0.0 121.755534,24.617725,0.0 121.755299,24.617134,0.0 121.754786,24.61637,0.0 121.754247,24.616343,0.0 121.753091,24.617066,0.0 121.752918,24.617559,0.0 121.752647,24.617818,0.0 121.752318,24.617912,0.0 121.751904,24.617783,0.0 121.751176,24.618053,0.0 121.750402,24.618403,0.0 121.750138,24.618354,0.0 121.750142,24.6179,0.0 121.750659,24.61741,0.0 121.751301,24.616703,0.0 121.751216,24.616295,0.0 121.750859,24.615035,0.0 121.750983,24.614777,0.0 121.751446,24.614741,0.0 121.751928,24.614531,0.0 121.752064,24.614243,0.0 121.751856,24.613998,0.0 121.751372,24.613789,0.0 121.751238,24.613446,0.0 121.751475,24.613289,0.0 121.752021,24.613334,0.0 121.752439,24.61302,0.0 121.752281,24.612613,0.0 121.75271,24.612098,0.0 121.752965,24.611673,0.0 121.752931,24.611323,0.0 121.752673,24.611191,0.0 121.752223,24.611439,0.0 121.751618,24.611952,0.0 121.751192,24.612025,0.0 121.750743,24.612399,0.0 121.750297,24.61242,0.0 121.750234,24.612339,0.0 121.750163,24.611921,0.0 121.750427,24.61099,0.0 121.749997,24.610453,0.0 121.749329,24.609993,0.0 121.748817,24.609095,0.0 121.747758,24.608297,0.0 121.747411,24.607847,0.0 121.747011,24.606967,0.0 121.746866,24.606891,0.0 121.746622,24.607037,0.0 121.746764,24.607627,0.0 121.746685,24.608126,0.0 121.746317,24.60846,0.0 121.746096,24.608937,0.0 121.745817,24.609724,0.0 121.746114,24.610152,0.0 121.746015,24.610394,0.0 121.746248,24.610672,0.0 121.746401,24.610983,0.0 121.746082,24.611174,0.0 121.746267,24.611277,0.0 121.746741,24.611227,0.0 121.746987,24.611506,0.0 121.746952,24.611953,0.0 121.747728,24.612803,0.0 121.747862,24.613057,0.0 121.747663,24.613405,0.0 121.747272,24.614107,0.0 121.746856,24.614798,0.0 121.74724,24.61506,0.0 121.747838,24.61531,0.0 121.748029,24.615927,0.0 121.747636,24.616428,0.0 121.746894,24.616993,0.0 121.746527,24.617356,0.0 121.745675,24.617505,0.0 121.745722,24.618014,0.0 121.745652,24.618753,0.0 121.745579,24.619472,0.0 121.745242,24.619724,0.0 121.744731,24.620169,0.0 121.744437,24.620278,0.0 121.743963,24.619726,0.0 121.743742,24.619496,0.0 121.743138,24.619145,0.0 121.742679,24.618913,0.0 121.741795,24.618928,0.0 121.741412,24.618792,0.0 121.741095,24.618306,0.0 121.740716,24.617798,0.0 121.73881,24.61681,0.0 121.738048,24.616319,0.0 121.737728,24.616283,0.0 121.736958,24.617038,0.0 121.736461,24.618334,0.0 121.736584,24.619022,0.0 121.73674,24.61924,0.0 121.736249,24.619804,0.0 121.735257,24.62068,0.0 121.734751,24.620929,0.0 121.734347,24.621436,0.0 121.73397,24.62135,0.0 121.733356,24.621446,0.0 121.732615,24.621467,0.0 121.731995,24.621608,0.0</coordinates></LinearRing></outerBoundaryIs></Polygon><styleUrl>#spolygon-map</styleUrl></Placemark><Placemark><Polygon><outerBoundaryIs><LinearRing><coordinates>121.706389,24.57922,0.0 121.705767,24.579959,0.0 121.705221,24.581009,0.0 121.704845,24.581096,0.0 121.704156,24.580592,0.0 121.702563,24.579608,0.0 121.701708,24.579222,0.0 121.700061,24.579218,0.0 121.698657,24.579152,0.0 121.697701,24.578699,0.0 121.696952,24.577738,0.0 121.696197,24.577229,0.0 121.69486,24.577274,0.0 121.694407,24.577001,0.0 121.693625,24.576187,0.0 121.692182,24.575465,0.0 121.691277,24.574738,0.0 121.690527,24.57377,0.0 121.690208,24.573549,0.0 121.689137,24.573287,0.0 121.688516,24.572965,0.0 121.688159,24.571716,0.0 121.688085,24.570525,0.0 121.687855,24.569896,0.0 121.686729,24.568651,0.0 121.686156,24.567916,0.0 121.685086,24.566272,0.0 121.68485,24.565172,0.0 121.684662,24.564408,0.0 121.684417,24.563973,0.0 121.683047,24.563354,0.0 121.681368,24.561802,0.0 121.680529,24.561271,0.0 121.680127,24.561119,0.0 121.678714,24.561051,0.0 121.677546,24.561393,0.0 121.676301,24.561565,0.0 121.675356,24.561502,0.0 121.674024,24.561138,0.0 121.672093,24.561009,0.0 121.671284,24.557579,0.0 121.670357,24.554193,0.0 121.668917,24.5463,0.0 121.667559,24.540805,0.0 121.666615,24.534254,0.0 121.665321,24.527543,0.0 121.663691,24.523265,0.0 121.661511,24.520844,0.0 121.661079,24.518416,0.0 121.660847,24.514195,0.0 121.656631,24.510152,0.0 121.651578,24.506336,0.0 121.649549,24.506025,0.0 121.646261,24.505528,0.0 121.64341,24.504678,0.0 121.645199,24.502594,0.0 121.649176,24.499564,0.0 121.652252,24.496218,0.0 121.652992,24.494571,0.0 121.65418,24.49274,0.0 121.656365,24.490767,0.0 121.659206,24.490344,0.0 121.665192,24.490227,0.0 121.667239,24.490491,0.0 121.667633,24.48944,0.0 121.66557,24.486116,0.0 121.664011,24.483703,0.0 121.663353,24.48188,0.0 121.66314,24.479415,0.0 121.663878,24.477449,0.0 121.666066,24.47607,0.0 121.672335,24.472983,0.0 121.676548,24.467828,0.0 121.681116,24.463973,0.0 121.684053,24.462818,0.0 121.687495,24.462939,0.0 121.692145,24.46495,0.0 121.695703,24.467947,0.0 121.697007,24.469356,0.0 121.699353,24.469573,0.0 121.70244,24.4686,0.0 121.707673,24.467663,0.0 121.717592,24.466452,0.0 121.722274,24.466427,0.0 121.726549,24.466627,0.0 121.728126,24.465499,0.0 121.729362,24.464828,0.0 121.733694,24.463477,0.0 121.735476,24.462013,0.0 121.737253,24.459729,0.0 121.741142,24.456424,0.0 121.747023,24.451167,0.0 121.750915,24.448625,0.0 121.753014,24.447789,0.0 121.756188,24.447865,0.0 121.761242,24.449674,0.0 121.7666,24.452108,0.0 121.769609,24.452674,0.0 121.777881,24.453988,0.0 121.779548,24.456445,0.0 121.780028,24.4578,0.0 121.781584,24.458778,0.0 121.784823,24.459687,0.0 121.7874,24.459495,0.0 121.787653,24.459672,0.0 121.786442,24.460605,0.0 121.784348,24.46139,0.0 121.78401,24.461975,0.0 121.783686,24.466849,0.0 121.783378,24.468678,0.0 121.782623,24.471437,0.0 121.782888,24.473467,0.0 121.782019,24.47486,0.0 121.781597,24.477676,0.0 121.781634,24.478506,0.0 121.781635,24.479418,0.0 121.781745,24.480916,0.0 121.781305,24.482094,0.0 121.781024,24.483002,0.0 121.779458,24.484816,0.0 121.776638,24.4874,0.0 121.773777,24.490155,0.0 121.771836,24.493376,0.0 121.77052,24.495348,0.0 121.766894,24.49891,0.0 121.76672,24.500024,0.0 121.766061,24.503316,0.0 121.764188,24.503947,0.0 121.763117,24.505194,0.0 121.761928,24.506625,0.0 121.76053,24.506706,0.0 121.758009,24.505768,0.0 121.755847,24.504866,0.0 121.753254,24.50539,0.0 121.75106,24.505766,0.0 121.748216,24.504282,0.0 121.74546,24.504223,0.0 121.742714,24.505881,0.0 121.742085,24.507492,0.0 121.74309,24.508693,0.0 121.744451,24.50927,0.0 121.74637,24.50959,0.0 121.747054,24.510427,0.0 121.747308,24.512929,0.0 121.749318,24.515111,0.0 121.749969,24.517154,0.0 121.749172,24.517414,0.0 121.746216,24.517282,0.0 121.74482,24.517655,0.0 121.743295,24.51642,0.0 121.741895,24.516098,0.0 121.73862,24.516077,0.0 121.735833,24.517516,0.0 121.737123,24.519556,0.0 121.738126,24.520355,0.0 121.738213,24.521634,0.0 121.737099,24.522224,0.0 121.732788,24.522774,0.0 121.729402,24.524289,0.0 121.729311,24.52513,0.0 121.728691,24.525754,0.0 121.726175,24.525803,0.0 121.723654,24.524938,0.0 121.722776,24.525161,0.0 121.722185,24.52648,0.0 121.721511,24.52736,0.0 121.720528,24.530142,0.0 121.719089,24.529856,0.0 121.71837,24.529933,0.0 121.717895,24.530629,0.0 121.717584,24.532184,0.0 121.716314,24.533578,0.0 121.715448,24.535811,0.0 121.715374,24.536944,0.0 121.715901,24.538221,0.0 121.716468,24.539607,0.0 121.717071,24.54028,0.0 121.718673,24.54104,0.0 121.719521,24.542643,0.0 121.721005,24.543623,0.0 121.72233,24.544932,0.0 121.72285,24.544966,0.0 121.723807,24.544669,0.0 121.724643,24.544117,0.0 121.725402,24.54415,0.0 121.726723,24.544618,0.0 121.728002,24.544758,0.0 121.728524,24.545121,0.0 121.728613,24.546765,0.0 121.728377,24.547424,0.0 121.727223,24.548197,0.0 121.727227,24.548964,0.0 121.727755,24.550332,0.0 121.728011,24.553291,0.0 121.7295,24.555001,0.0 121.732423,24.556174,0.0 121.734822,24.556528,0.0 121.735026,24.557258,0.0 121.734475,24.558649,0.0 121.733976,24.562269,0.0 121.73449,24.567208,0.0 121.732585,24.568383,0.0 121.73215,24.569044,0.0 121.730819,24.570226,0.0 121.729812,24.570823,0.0 121.728345,24.571685,0.0 121.72713,24.572224,0.0 121.726509,24.573066,0.0 121.725902,24.575604,0.0 121.725537,24.576096,0.0 121.724179,24.576996,0.0 121.723387,24.577304,0.0 121.722826,24.577048,0.0 121.722464,24.576598,0.0 121.722372,24.57523,0.0 121.722211,24.574674,0.0 121.721129,24.574128,0.0 121.720301,24.573441,0.0 121.719733,24.572711,0.0 121.719154,24.572255,0.0 121.71774,24.572127,0.0 121.716956,24.572313,0.0 121.715947,24.572778,0.0 121.715204,24.573019,0.0 121.715001,24.574013,0.0 121.714902,24.57425,0.0 121.713593,24.574769,0.0 121.712914,24.575251,0.0 121.712354,24.575989,0.0 121.711877,24.57587,0.0 121.711216,24.575658,0.0 121.710773,24.575814,0.0 121.710232,24.576121,0.0 121.709982,24.576413,0.0 121.708743,24.578275,0.0 121.70791,24.578389,0.0 121.70743,24.578339,0.0 121.706389,24.57922,0.0</coordinates></LinearRing></outerBoundaryIs></Polygon><styleUrl>#spolygon-map</styleUrl></Placemark><Placemark><Polygon><outerBoundaryIs><LinearRing><coordinates>121.663447,24.49028,0.0 121.657212,24.490535,0.0 121.65547,24.49141,0.0 121.653635,24.493473,0.0 121.652647,24.49544,0.0 121.651011,24.497547,0.0 121.647537,24.501215,0.0 121.644454,24.503191,0.0 121.639679,24.503349,0.0 121.636105,24.501573,0.0 121.633719,24.499601,0.0 121.631477,24.498587,0.0 121.629095,24.497573,0.0 121.626988,24.495503,0.0 121.626635,24.494737,0.0 121.625018,24.493017,0.0 121.62417,24.491038,0.0 121.624149,24.486816,0.0 121.623928,24.484451,0.0 121.622312,24.48273,0.0 121.621884,24.481069,0.0 121.62173,24.478191,0.0 121.620538,24.477429,0.0 121.620743,24.476468,0.0 121.621573,24.47461,0.0 121.621561,24.472244,0.0 121.620508,24.471225,0.0 121.618617,24.470337,0.0 121.61833,24.468931,0.0 121.624165,24.466615,0.0 121.63921,24.462672,0.0 121.641646,24.461064,0.0 121.645523,24.458536,0.0 121.646052,24.454607,0.0 121.646588,24.45214,0.0 121.647729,24.450993,0.0 121.649473,24.450529,0.0 121.652216,24.450563,0.0 121.656289,24.447259,0.0 121.65972,24.445395,0.0 121.664352,24.444096,0.0 121.671084,24.443929,0.0 121.674322,24.443413,0.0 121.67601,24.441807,0.0 121.680288,24.439802,0.0 121.682976,24.438968,0.0 121.687163,24.438584,0.0 121.688356,24.437848,0.0 121.689995,24.436654,0.0 121.691781,24.43491,0.0 121.691871,24.433038,0.0 121.69141,24.43089,0.0 121.693713,24.428944,0.0 121.695299,24.427074,0.0 121.695009,24.425139,0.0 121.695245,24.424554,0.0 121.697476,24.424032,0.0 121.698594,24.424173,0.0 121.69884,24.425304,0.0 121.698211,24.42706,0.0 121.698216,24.427973,0.0 121.699414,24.42826,0.0 121.700332,24.428219,0.0 121.700415,24.428949,0.0 121.69994,24.429609,0.0 121.69979,24.43118,0.0 121.699156,24.432078,0.0 121.699641,24.433171,0.0 121.700919,24.433348,0.0 121.701746,24.431409,0.0 121.703053,24.429686,0.0 121.702484,24.427826,0.0 121.702155,24.426074,0.0 121.703346,24.425009,0.0 121.706015,24.42434,0.0 121.709096,24.425969,0.0 121.716913,24.425804,0.0 121.72086,24.425237,0.0 121.722445,24.423513,0.0 121.723119,24.42267,0.0 121.724917,24.423173,0.0 121.726192,24.422984,0.0 121.7279,24.421679,0.0 121.730056,24.422034,0.0 121.732091,24.422097,0.0 121.733406,24.421908,0.0 121.733768,24.422308,0.0 121.734263,24.425155,0.0 121.735541,24.425514,0.0 121.737612,24.424883,0.0 121.739596,24.423102,0.0 121.740832,24.423023,0.0 121.741356,24.423824,0.0 121.741288,24.425906,0.0 121.741971,24.426779,0.0 121.744286,24.426877,0.0 121.745404,24.427109,0.0 121.746008,24.428129,0.0 121.746695,24.429513,0.0 121.747851,24.429361,0.0 121.749483,24.428732,0.0 121.751161,24.429162,0.0 121.751963,24.429889,0.0 121.751655,24.43179,0.0 121.750743,24.432707,0.0 121.749869,24.433442,0.0 121.748229,24.436807,0.0 121.750485,24.438722,0.0 121.751258,24.437898,0.0 121.754338,24.433456,0.0 121.75616,24.431329,0.0 121.757968,24.426681,0.0 121.757153,24.423873,0.0 121.755942,24.421505,0.0 121.756686,24.419091,0.0 121.756392,24.416755,0.0 121.755861,24.41453,0.0 121.756757,24.411074,0.0 121.756856,24.407603,0.0 121.758996,24.405292,0.0 121.759581,24.403024,0.0 121.758413,24.401076,0.0 121.758155,24.397973,0.0 121.7561,24.394367,0.0 121.755449,24.392252,0.0 121.752593,24.388194,0.0 121.752266,24.386844,0.0 121.752047,24.383485,0.0 121.751194,24.380805,0.0 121.750671,24.38015,0.0 121.749394,24.379901,0.0 121.746844,24.380352,0.0 121.74477,24.380179,0.0 121.746319,24.378466,0.0 121.755305,24.372442,0.0 121.758177,24.370568,0.0 121.760246,24.37026,0.0 121.764098,24.36946,0.0 121.768551,24.367168,0.0 121.772195,24.365476,0.0 121.776207,24.364191,0.0 121.779184,24.363787,0.0 121.782824,24.363918,0.0 121.782874,24.364256,0.0 121.783009,24.364959,0.0 121.783081,24.365435,0.0 121.783257,24.365879,0.0 121.783897,24.366855,0.0 121.784522,24.367549,0.0 121.784677,24.367657,0.0 121.784673,24.36784,0.0 121.784538,24.367996,0.0 121.784433,24.368175,0.0 121.784524,24.368583,0.0 121.784814,24.369155,0.0 121.785051,24.36993,0.0 121.785555,24.37081,0.0 121.785876,24.371429,0.0 121.786385,24.371912,0.0 121.786791,24.372747,0.0 121.787266,24.37339,0.0 121.787364,24.37374,0.0 121.787419,24.374486,0.0 121.78758,24.374982,0.0 121.787492,24.37543,0.0 121.787282,24.375848,0.0 121.787129,24.376172,0.0 121.787163,24.376508,0.0 121.78733,24.376821,0.0 121.78746,24.377159,0.0 121.787459,24.377804,0.0 121.787529,24.378348,0.0 121.78778,24.379403,0.0 121.787776,24.380387,0.0 121.787877,24.38077,0.0 121.787943,24.382061,0.0 121.788031,24.382367,0.0 121.787985,24.382824,0.0 121.787887,24.383212,0.0 121.78788,24.383337,0.0 121.787953,24.383537,0.0 121.788014,24.383988,0.0 121.7881,24.385051,0.0 121.788149,24.385489,0.0 121.78821,24.385888,0.0 121.788287,24.386695,0.0 121.788289,24.387889,0.0 121.788332,24.38835,0.0 121.788542,24.38878,0.0 121.788596,24.389247,0.0 121.788577,24.390136,0.0 121.788616,24.390425,0.0 121.788597,24.390718,0.0 121.788522,24.391066,0.0 121.78854,24.392326,0.0 121.788603,24.392878,0.0 121.788611,24.393341,0.0 121.788717,24.393717,0.0 121.788715,24.394182,0.0 121.788771,24.394683,0.0 121.788791,24.395283,0.0 121.78885,24.395757,0.0 121.788831,24.396227,0.0 121.788925,24.396623,0.0 121.788918,24.397231,0.0 121.789052,24.397812,0.0 121.78924,24.398583,0.0 121.789262,24.399116,0.0 121.789316,24.399763,0.0 121.78948,24.400408,0.0 121.789602,24.401035,0.0 121.789796,24.402088,0.0 121.789931,24.402889,0.0 121.790192,24.404402,0.0 121.790325,24.405545,0.0 121.790387,24.406344,0.0 121.79101,24.409052,0.0 121.791572,24.410852,0.0 121.792013,24.412475,0.0 121.792086,24.413168,0.0 121.79231,24.414096,0.0 121.79259,24.415009,0.0 121.792936,24.416063,0.0 121.793358,24.417133,0.0 121.793776,24.418036,0.0 121.794233,24.418835,0.0 121.794433,24.41931,0.0 121.794483,24.419622,0.0 121.794572,24.419847,0.0 121.794955,24.420506,0.0 121.795077,24.420835,0.0 121.79524,24.42145,0.0 121.795387,24.422014,0.0 121.795654,24.422487,0.0 121.795745,24.422698,0.0 121.795791,24.423147,0.0 121.796011,24.423683,0.0 121.79628,24.42423,0.0 121.796363,24.42446,0.0 121.796388,24.424625,0.0 121.796423,24.424825,0.0 121.796566,24.4251,0.0 121.796701,24.425436,0.0 121.797052,24.426172,0.0 121.797524,24.42714,0.0 121.797751,24.427705,0.0 121.798005,24.428277,0.0 121.798237,24.428757,0.0 121.798861,24.430119,0.0 121.799243,24.43113,0.0 121.797783,24.431912,0.0 121.79543,24.432726,0.0 121.794836,24.433512,0.0 121.794496,24.43439,0.0 121.793226,24.435759,0.0 121.791952,24.436691,0.0 121.791359,24.438791,0.0 121.791026,24.439348,0.0 121.789481,24.440096,0.0 121.788072,24.440967,0.0 121.78674,24.443379,0.0 121.785945,24.445603,0.0 121.78481,24.447274,0.0 121.782873,24.449874,0.0 121.781487,24.452488,0.0 121.780744,24.454325,0.0 121.780526,24.454357,0.0 121.771884,24.453152,0.0 121.768726,24.452508,0.0 121.765329,24.451748,0.0 121.758529,24.448526,0.0 121.754083,24.447692,0.0 121.751681,24.448285,0.0 121.748686,24.449966,0.0 121.744266,24.45384,0.0 121.739247,24.457931,0.0 121.736219,24.461055,0.0 121.734653,24.462922,0.0 121.732051,24.463954,0.0 121.728552,24.465145,0.0 121.727212,24.466306,0.0 121.724605,24.466612,0.0 121.718874,24.466209,0.0 121.713704,24.466858,0.0 121.703436,24.46823,0.0 121.700499,24.469294,0.0 121.698157,24.46967,0.0 121.696456,24.468902,0.0 121.695001,24.467265,0.0 121.689594,24.463615,0.0 121.686147,24.462763,0.0 121.682409,24.463282,0.0 121.679277,24.465305,0.0 121.674019,24.47067,0.0 121.67189,24.473807,0.0 121.664425,24.477036,0.0 121.663285,24.47841,0.0 121.663147,24.480694,0.0 121.663606,24.482655,0.0 121.664664,24.484659,0.0 121.667128,24.4883,0.0 121.667587,24.490216,0.0 121.666641,24.490494,0.0 121.663447,24.49028,0.0</coordinates></LinearRing></outerBoundaryIs></Polygon><styleUrl>#spolygon-map</styleUrl></Placemark><Placemark><Polygon><outerBoundaryIs><LinearRing><coordinates>121.616975,24.466206,0.0 121.614684,24.467657,0.0 121.611288,24.469065,0.0 121.607797,24.469407,0.0 121.597859,24.469938,0.0 121.593746,24.471266,0.0 121.590531,24.473327,0.0 121.588299,24.474894,0.0 121.586953,24.474325,0.0 121.58613,24.47064,0.0 121.586832,24.467358,0.0 121.588524,24.465467,0.0 121.58825,24.464156,0.0 121.58312,24.458643,0.0 121.581593,24.457748,0.0 121.58043,24.457916,0.0 121.578288,24.459563,0.0 121.575257,24.462608,0.0 121.572751,24.462945,0.0 121.568539,24.462223,0.0 121.560752,24.463154,0.0 121.555031,24.465429,0.0 121.54966,24.466023,0.0 121.544467,24.466287,0.0 121.539624,24.464583,0.0 121.536039,24.463859,0.0 121.531918,24.463463,0.0 121.528064,24.462657,0.0 121.52269,24.46243,0.0 121.519282,24.461212,0.0 121.51355,24.461027,0.0 121.502807,24.461883,0.0 121.498238,24.461406,0.0 121.494741,24.460188,0.0 121.489621,24.456352,0.0 121.486572,24.455132,0.0 121.482895,24.453669,0.0 121.479704,24.449426,0.0 121.477316,24.446555,0.0 121.476062,24.446231,0.0 121.474102,24.446238,0.0 121.473702,24.44624,0.0 121.471934,24.446285,0.0 121.471934,24.445279,0.0 121.472079,24.44368,0.0 121.471884,24.443015,0.0 121.471217,24.442281,0.0 121.470346,24.440413,0.0 121.469281,24.439109,0.0 121.469045,24.438613,0.0 121.468499,24.436563,0.0 121.467709,24.436171,0.0 121.467064,24.435714,0.0 121.464485,24.43372,0.0 121.462852,24.432509,0.0 121.461815,24.432169,0.0 121.461026,24.431516,0.0 121.459487,24.429946,0.0 121.458916,24.429257,0.0 121.458814,24.428729,0.0 121.458729,24.426716,0.0 121.458877,24.425512,0.0 121.458903,24.423392,0.0 121.458388,24.422511,0.0 121.458275,24.42109,0.0 121.458131,24.420101,0.0 121.458085,24.418659,0.0 121.458103,24.414294,0.0 121.457935,24.413996,0.0 121.45745,24.413661,0.0 121.456915,24.413449,0.0 121.455258,24.412521,0.0 121.45454,24.412424,0.0 121.453696,24.412129,0.0 121.452717,24.411497,0.0 121.451093,24.410347,0.0 121.450524,24.410059,0.0 121.449696,24.409556,0.0 121.448584,24.409178,0.0 121.447161,24.408796,0.0 121.446953,24.408422,0.0 121.446356,24.407026,0.0 121.44589,24.406403,0.0 121.444797,24.405356,0.0 121.444125,24.404652,0.0 121.443313,24.404144,0.0 121.44287,24.40336,0.0 121.442299,24.402414,0.0 121.442245,24.401321,0.0 121.441767,24.400679,0.0 121.441857,24.400243,0.0 121.442364,24.399585,0.0 121.443337,24.398436,0.0 121.443583,24.39767,0.0 121.443465,24.397205,0.0 121.442974,24.395881,0.0 121.441619,24.394565,0.0 121.440983,24.39368,0.0 121.439937,24.39292,0.0 121.438965,24.392209,0.0 121.438721,24.391759,0.0 121.438733,24.390285,0.0 121.438458,24.387525,0.0 121.438458,24.385477,0.0 121.438171,24.38453,0.0 121.437321,24.383314,0.0 121.437411,24.382745,0.0 121.43862,24.380407,0.0 121.439716,24.378754,0.0 121.441214,24.375118,0.0 121.441635,24.373832,0.0 121.441904,24.37382,0.0 121.443412,24.3748,0.0 121.443996,24.374771,0.0 121.445123,24.374777,0.0 121.446416,24.375251,0.0 121.446926,24.375595,0.0 121.447075,24.375288,0.0 121.447127,24.37401,0.0 121.447872,24.371918,0.0 121.448594,24.370444,0.0 121.449599,24.368892,0.0 121.449919,24.367943,0.0 121.451191,24.36531,0.0 121.453158,24.36448,0.0 121.454165,24.363728,0.0 121.455397,24.362844,0.0 121.456327,24.361794,0.0 121.457177,24.361105,0.0 121.45834,24.360643,0.0 121.459013,24.35986,0.0 121.460835,24.358202,0.0 121.462343,24.35755,0.0 121.464442,24.356311,0.0 121.465106,24.355514,0.0 121.466539,24.35493,0.0 121.467657,24.354728,0.0 121.469166,24.354233,0.0 121.470781,24.353377,0.0 121.472607,24.352839,0.0 121.474248,24.351969,0.0 121.475105,24.351326,0.0 121.475447,24.351279,0.0 121.476441,24.351513,0.0 121.478228,24.35195,0.0 121.478779,24.351933,0.0 121.479178,24.351566,0.0 121.480184,24.350637,0.0 121.480793,24.35003,0.0 121.480938,24.349194,0.0 121.481549,24.348861,0.0 121.483589,24.34857,0.0 121.484719,24.34846,0.0 121.485512,24.3486,0.0 121.485784,24.348479,0.0 121.485783,24.348071,0.0 121.486531,24.347425,0.0 121.487145,24.34643,0.0 121.487669,24.345909,0.0 121.488743,24.345445,0.0 121.490033,24.344567,0.0 121.490757,24.34403,0.0 121.49206,24.342247,0.0 121.492743,24.341771,0.0 121.493733,24.34114,0.0 121.495257,24.340372,0.0 121.496957,24.339838,0.0 121.498174,24.339254,0.0 121.498774,24.339282,0.0 121.49971,24.339509,0.0 121.500137,24.339866,0.0 121.501193,24.341071,0.0 121.502329,24.341548,0.0 121.502944,24.341972,0.0 121.503911,24.342836,0.0 121.504964,24.343024,0.0 121.506316,24.343094,0.0 121.507334,24.343314,0.0 121.507693,24.343236,0.0 121.507908,24.342646,0.0 121.50836,24.342225,0.0 121.509166,24.341459,0.0 121.509999,24.341095,0.0 121.511735,24.341067,0.0 121.513536,24.340808,0.0 121.514463,24.341166,0.0 121.515373,24.341775,0.0 121.515801,24.341681,0.0 121.517029,24.34109,0.0 121.518118,24.341029,0.0 121.519029,24.341448,0.0 121.52041,24.342536,0.0 121.521288,24.342908,0.0 121.522423,24.342997,0.0 121.524482,24.342653,0.0 121.525532,24.342151,0.0 121.526453,24.340956,0.0 121.527706,24.339193,0.0 121.528055,24.338939,0.0 121.529757,24.338942,0.0 121.530249,24.338864,0.0 121.531024,24.338502,0.0 121.53292,24.337141,0.0 121.533396,24.337033,0.0 121.534189,24.337236,0.0 121.535566,24.337346,0.0 121.536225,24.337238,0.0 121.537973,24.336322,0.0 121.538865,24.336012,0.0 121.540057,24.335879,0.0 121.541068,24.336164,0.0 121.542449,24.337085,0.0 121.543368,24.337411,0.0 121.544488,24.337833,0.0 121.545238,24.337709,0.0 121.547162,24.336946,0.0 121.548299,24.336411,0.0 121.549339,24.335654,0.0 121.550722,24.334265,0.0 121.55246,24.333019,0.0 121.554241,24.331936,0.0 121.555774,24.33138,0.0 121.556156,24.331087,0.0 121.556612,24.330429,0.0 121.557214,24.328706,0.0 121.557177,24.327874,0.0 121.557662,24.326244,0.0 121.558287,24.325134,0.0 121.558858,24.324145,0.0 121.559829,24.322887,0.0 121.560278,24.322641,0.0 121.563005,24.322349,0.0 121.563463,24.322201,0.0 121.565066,24.320621,0.0 121.566278,24.319323,0.0 121.566844,24.319132,0.0 121.567646,24.319203,0.0 121.568037,24.318974,0.0 121.568884,24.318138,0.0 121.569526,24.317975,0.0 121.570543,24.317955,0.0 121.571704,24.318134,0.0 121.572306,24.318475,0.0 121.57321,24.319169,0.0 121.573987,24.319477,0.0 121.575298,24.319687,0.0 121.576382,24.319561,0.0 121.577439,24.319099,0.0 121.578095,24.318446,0.0 121.578461,24.318185,0.0 121.579786,24.31785,0.0 121.582606,24.317734,0.0 121.583455,24.317378,0.0 121.584536,24.316602,0.0 121.586703,24.316312,0.0 121.58762,24.316017,0.0 121.588318,24.315518,0.0 121.588889,24.314545,0.0 121.589387,24.313816,0.0 121.589637,24.313831,0.0 121.590375,24.31458,0.0 121.590743,24.314892,0.0 121.592097,24.315464,0.0 121.59279,24.315699,0.0 121.593151,24.316049,0.0 121.593494,24.316314,0.0 121.593828,24.31639,0.0 121.596714,24.316349,0.0 121.597464,24.316177,0.0 121.599412,24.315415,0.0 121.60017,24.315092,0.0 121.601419,24.314541,0.0 121.60269,24.313466,0.0 121.603206,24.313082,0.0 121.603801,24.312109,0.0 121.604772,24.311049,0.0 121.605699,24.309486,0.0 121.605883,24.309494,0.0 121.606412,24.31034,0.0 121.606632,24.310974,0.0 121.606686,24.311714,0.0 121.60699,24.312638,0.0 121.606885,24.313228,0.0 121.606538,24.313848,0.0 121.605284,24.315221,0.0 121.605115,24.315596,0.0 121.605382,24.316453,0.0 121.605392,24.316875,0.0 121.605186,24.317395,0.0 121.604382,24.318468,0.0 121.603201,24.319244,0.0 121.601736,24.31997,0.0 121.601139,24.320591,0.0 121.60095,24.321303,0.0 121.601231,24.322356,0.0 121.601384,24.322999,0.0 121.601352,24.323274,0.0 121.600896,24.32384,0.0 121.600147,24.324241,0.0 121.599533,24.324893,0.0 121.59871,24.325567,0.0 121.598713,24.326386,0.0 121.598556,24.326608,0.0 121.596885,24.327876,0.0 121.596486,24.328298,0.0 121.596355,24.328779,0.0 121.595867,24.32969,0.0 121.595946,24.330523,0.0 121.595734,24.331267,0.0 121.595718,24.331587,0.0 121.59618,24.332177,0.0 121.596559,24.332947,0.0 121.596987,24.333489,0.0 121.59783,24.333676,0.0 121.599081,24.33361,0.0 121.599414,24.333426,0.0 121.599791,24.332711,0.0 121.600242,24.331901,0.0 121.600539,24.331128,0.0 121.600978,24.330758,0.0 121.601861,24.330367,0.0 121.603132,24.329321,0.0 121.604232,24.329034,0.0 121.605026,24.329176,0.0 121.606121,24.32979,0.0 121.60649,24.330134,0.0 121.606542,24.330547,0.0 121.606278,24.331105,0.0 121.606464,24.331624,0.0 121.60651,24.332456,0.0 121.606764,24.333236,0.0 121.607381,24.3349,0.0 121.607725,24.335379,0.0 121.608465,24.335401,0.0 121.609617,24.33538,0.0 121.610913,24.335958,0.0 121.611955,24.335931,0.0 121.613139,24.335565,0.0 121.614582,24.333817,0.0 121.615205,24.333317,0.0 121.616073,24.333276,0.0 121.617518,24.333606,0.0 121.618336,24.334253,0.0 121.618624,24.334719,0.0 121.618702,24.335305,0.0 121.618514,24.335949,0.0 121.618132,24.336341,0.0 121.616482,24.336883,0.0 121.616192,24.337259,0.0 121.61612,24.337855,0.0 121.616404,24.339581,0.0 121.616602,24.340742,0.0 121.617259,24.342245,0.0 121.617828,24.344162,0.0 121.618173,24.344849,0.0 121.618715,24.345366,0.0 121.619553,24.345471,0.0 121.620187,24.345369,0.0 121.620436,24.345153,0.0 121.621136,24.343248,0.0 121.621804,24.34157,0.0 121.622587,24.339664,0.0 121.623404,24.339561,0.0 121.625375,24.339935,0.0 121.626153,24.340274,0.0 121.627133,24.341097,0.0 121.627334,24.341141,0.0 121.627459,24.341079,0.0 121.628042,24.339418,0.0 121.628065,24.338883,0.0 121.627819,24.338135,0.0 121.626953,24.336831,0.0 121.626642,24.336252,0.0 121.626705,24.335564,0.0 121.627095,24.33512,0.0 121.627778,24.334841,0.0 121.628623,24.333698,0.0 121.629106,24.333482,0.0 121.629798,24.33354,0.0 121.632164,24.334349,0.0 121.632724,24.33469,0.0 121.63301,24.335109,0.0 121.63313,24.335751,0.0 121.632817,24.336432,0.0 121.632661,24.33706,0.0 121.632643,24.33846,0.0 121.632907,24.339529,0.0 121.632342,24.341526,0.0 121.632184,24.341694,0.0 121.631627,24.342042,0.0 121.631388,24.342731,0.0 121.631268,24.343635,0.0 121.631421,24.344228,0.0 121.631822,24.344472,0.0 121.632473,24.344492,0.0 121.634075,24.34437,0.0 121.634919,24.344603,0.0 121.635564,24.345091,0.0 121.635791,24.345541,0.0 121.635866,24.345945,0.0 121.635763,24.346665,0.0 121.635051,24.348372,0.0 121.634751,24.348602,0.0 121.633694,24.349019,0.0 121.632624,24.34922,0.0 121.63092,24.348329,0.0 121.630419,24.348245,0.0 121.630119,24.348339,0.0 121.629997,24.34889,0.0 121.629848,24.349182,0.0 121.629533,24.349395,0.0 121.627354,24.349436,0.0 121.626854,24.349537,0.0 121.626823,24.349896,0.0 121.627272,24.351461,0.0 121.627123,24.353335,0.0 121.626794,24.3543,0.0 121.626387,24.354722,0.0 121.623208,24.356254,0.0 121.621901,24.357018,0.0 121.621288,24.357907,0.0 121.621187,24.358739,0.0 121.621531,24.359879,0.0 121.622496,24.360916,0.0 121.623384,24.36156,0.0 121.623612,24.362241,0.0 121.623396,24.362447,0.0 121.620726,24.362573,0.0 121.620428,24.362956,0.0 121.620431,24.363538,0.0 121.620828,24.364491,0.0 121.621415,24.365071,0.0 121.621601,24.365635,0.0 121.62162,24.3664,0.0 121.621823,24.36669,0.0 121.622928,24.367045,0.0 121.623827,24.367499,0.0 121.624533,24.36814,0.0 121.625103,24.368598,0.0 121.624414,24.371281,0.0 121.622395,24.374175,0.0 121.621569,24.376516,0.0 121.621974,24.377793,0.0 121.623897,24.379684,0.0 121.628134,24.381694,0.0 121.631136,24.383946,0.0 121.633139,24.385654,0.0 121.635734,24.386227,0.0 121.639285,24.386614,0.0 121.643994,24.387234,0.0 121.649097,24.386847,0.0 121.652643,24.386247,0.0 121.655231,24.385432,0.0 121.657344,24.385259,0.0 121.662811,24.386002,0.0 121.666167,24.387065,0.0 121.669882,24.388217,0.0 121.67184,24.388975,0.0 121.673194,24.388568,0.0 121.674026,24.387541,0.0 121.675335,24.386257,0.0 121.676807,24.385666,0.0 121.67876,24.385475,0.0 121.680958,24.386341,0.0 121.68752,24.390311,0.0 121.690876,24.391319,0.0 121.6955,24.390969,0.0 121.699286,24.390476,0.0 121.703712,24.390328,0.0 121.708653,24.389575,0.0 121.713829,24.388016,0.0 121.715059,24.386988,0.0 121.715995,24.385112,0.0 121.717622,24.381735,0.0 121.719589,24.37705,0.0 121.719217,24.374678,0.0 121.717236,24.369976,0.0 121.716426,24.367715,0.0 121.716979,24.366763,0.0 121.717855,24.366539,0.0 121.725875,24.367542,0.0 121.731664,24.368793,0.0 121.733786,24.370335,0.0 121.736714,24.373315,0.0 121.738726,24.37641,0.0 121.739732,24.377903,0.0 121.74281,24.379239,0.0 121.74477,24.380179,0.0 121.746844,24.380352,0.0 121.749394,24.379901,0.0 121.750671,24.38015,0.0 121.751194,24.380805,0.0 121.752047,24.383485,0.0 121.752266,24.386844,0.0 121.752593,24.388194,0.0 121.755449,24.392252,0.0 121.7561,24.394367,0.0 121.758155,24.397973,0.0 121.758413,24.401076,0.0 121.759581,24.403024,0.0 121.758996,24.405292,0.0 121.756856,24.407603,0.0 121.756757,24.411074,0.0 121.755861,24.41453,0.0 121.756392,24.416755,0.0 121.756686,24.419091,0.0 121.755942,24.421505,0.0 121.757153,24.423873,0.0 121.757968,24.426681,0.0 121.75616,24.431329,0.0 121.754338,24.433456,0.0 121.751258,24.437898,0.0 121.750485,24.438722,0.0 121.748229,24.436807,0.0 121.749869,24.433442,0.0 121.750743,24.432707,0.0 121.751655,24.43179,0.0 121.751963,24.429889,0.0 121.751161,24.429162,0.0 121.749483,24.428732,0.0 121.747851,24.429361,0.0 121.746695,24.429513,0.0 121.746008,24.428129,0.0 121.745404,24.427109,0.0 121.744286,24.426877,0.0 121.741971,24.426779,0.0 121.741288,24.425906,0.0 121.741356,24.423824,0.0 121.740832,24.423023,0.0 121.739596,24.423102,0.0 121.737612,24.424883,0.0 121.735541,24.425514,0.0 121.734263,24.425155,0.0 121.733768,24.422308,0.0 121.733406,24.421908,0.0 121.732091,24.422097,0.0 121.730056,24.422034,0.0 121.7279,24.421679,0.0 121.726192,24.422984,0.0 121.724917,24.423173,0.0 121.723119,24.42267,0.0 121.722445,24.423513,0.0 121.72086,24.425237,0.0 121.716913,24.425804,0.0 121.709096,24.425969,0.0 121.706015,24.42434,0.0 121.703346,24.425009,0.0 121.702155,24.426074,0.0 121.702484,24.427826,0.0 121.703053,24.429686,0.0 121.701746,24.431409,0.0 121.700919,24.433348,0.0 121.699641,24.433171,0.0 121.699156,24.432078,0.0 121.69979,24.43118,0.0 121.69994,24.429609,0.0 121.700415,24.428949,0.0 121.700332,24.428219,0.0 121.699414,24.42826,0.0 121.698216,24.427973,0.0 121.698211,24.42706,0.0 121.69884,24.425304,0.0 121.698594,24.424173,0.0 121.697476,24.424032,0.0 121.695245,24.424554,0.0 121.695009,24.425139,0.0 121.695299,24.427074,0.0 121.693713,24.428944,0.0 121.69141,24.43089,0.0 121.691871,24.433038,0.0 121.691781,24.43491,0.0 121.689995,24.436654,0.0 121.688356,24.437848,0.0 121.687163,24.438584,0.0 121.682976,24.438968,0.0 121.680288,24.439802,0.0 121.67601,24.441807,0.0 121.674322,24.443413,0.0 121.671084,24.443929,0.0 121.664352,24.444096,0.0 121.65972,24.445395,0.0 121.656289,24.447259,0.0 121.652216,24.450563,0.0 121.649473,24.450529,0.0 121.647729,24.450993,0.0 121.646588,24.45214,0.0 121.646052,24.454607,0.0 121.645523,24.458536,0.0 121.641646,24.461064,0.0 121.63921,24.462672,0.0 121.624165,24.466615,0.0 121.618254,24.467588,0.0 121.617968,24.46631,0.0 121.616975,24.466206,0.0</coordinates></LinearRing></outerBoundaryIs></Polygon><styleUrl>#spolygon-map</styleUrl></Placemark><Placemark><Polygon><outerBoundaryIs><LinearRing><coordinates>121.696695,24.390708,0.0 121.693707,24.391306,0.0 121.688839,24.390853,0.0 121.68296,24.387739,0.0 121.679918,24.385762,0.0 121.677724,24.385479,0.0 121.676091,24.385888,0.0 121.674501,24.387028,0.0 121.673471,24.388201,0.0 121.672477,24.388826,0.0 121.670642,24.388798,0.0 121.66848,24.387201,0.0 121.66369,24.386345,0.0 121.659419,24.385469,0.0 121.655988,24.385319,0.0 121.654076,24.385766,0.0 121.65093,24.38662,0.0 121.646067,24.387079,0.0 121.641162,24.387099,0.0 121.637689,24.386329,0.0 121.634217,24.385978,0.0 121.632378,24.385109,0.0 121.629094,24.382164,0.0 121.625257,24.380482,0.0 121.622816,24.378848,0.0 121.621652,24.377173,0.0 121.621722,24.375164,0.0 121.623781,24.372197,0.0 121.625042,24.36927,0.0 121.625506,24.368869,0.0 121.626276,24.369247,0.0 121.627754,24.369347,0.0 121.628709,24.369542,0.0 121.629593,24.370021,0.0 121.630513,24.370437,0.0 121.631139,24.370518,0.0 121.631696,24.370218,0.0 121.63185,24.369664,0.0 121.631172,24.368545,0.0 121.630574,24.367471,0.0 121.630544,24.366668,0.0 121.630884,24.366116,0.0 121.631701,24.365923,0.0 121.632777,24.365986,0.0 121.634174,24.366515,0.0 121.634816,24.366505,0.0 121.635106,24.366024,0.0 121.634909,24.364977,0.0 121.634854,24.363991,0.0 121.635152,24.363615,0.0 121.635486,24.363505,0.0 121.637328,24.363109,0.0 121.63811,24.362546,0.0 121.638433,24.362026,0.0 121.638677,24.360887,0.0 121.6395,24.360224,0.0 121.640206,24.359619,0.0 121.640414,24.359221,0.0 121.640086,24.358353,0.0 121.64013,24.3577,0.0 121.640427,24.357178,0.0 121.640933,24.356774,0.0 121.642241,24.356109,0.0 121.642828,24.354998,0.0 121.643814,24.353563,0.0 121.644652,24.352688,0.0 121.645409,24.352234,0.0 121.646293,24.352101,0.0 121.646717,24.351779,0.0 121.64817,24.350258,0.0 121.648775,24.349484,0.0 121.649584,24.349169,0.0 121.650274,24.349482,0.0 121.650707,24.350362,0.0 121.650719,24.351026,0.0 121.650383,24.35235,0.0 121.650199,24.354163,0.0 121.650037,24.354868,0.0 121.649664,24.355335,0.0 121.648616,24.356073,0.0 121.648043,24.356581,0.0 121.647838,24.357322,0.0 121.647926,24.357965,0.0 121.648875,24.359137,0.0 121.649637,24.359739,0.0 121.650297,24.359874,0.0 121.650897,24.359711,0.0 121.65127,24.359258,0.0 121.651847,24.357878,0.0 121.65227,24.35745,0.0 121.653151,24.356796,0.0 121.653706,24.355974,0.0 121.653846,24.355035,0.0 121.653459,24.353377,0.0 121.653338,24.352498,0.0 121.653487,24.352215,0.0 121.653711,24.352099,0.0 121.654146,24.352235,0.0 121.655686,24.353124,0.0 121.656638,24.353203,0.0 121.657429,24.352931,0.0 121.657752,24.352494,0.0 121.658267,24.35151,0.0 121.6586,24.351349,0.0 121.660085,24.351204,0.0 121.660862,24.351454,0.0 121.661198,24.351773,0.0 121.661468,24.352329,0.0 121.661304,24.352928,0.0 121.661706,24.353193,0.0 121.662482,24.353221,0.0 121.663273,24.352827,0.0 121.663444,24.352199,0.0 121.663422,24.351052,0.0 121.663813,24.349536,0.0 121.664005,24.349102,0.0 121.664997,24.348118,0.0 121.665689,24.347945,0.0 121.66633,24.347615,0.0 121.667134,24.346702,0.0 121.667581,24.345897,0.0 121.667882,24.344527,0.0 121.668553,24.343622,0.0 121.669384,24.342884,0.0 121.670101,24.342782,0.0 121.67113,24.343245,0.0 121.672584,24.343681,0.0 121.67311,24.343784,0.0 121.67371,24.34356,0.0 121.674075,24.343155,0.0 121.67407,24.342268,0.0 121.673596,24.340877,0.0 121.673491,24.340006,0.0 121.673836,24.339249,0.0 121.674233,24.338536,0.0 121.674855,24.337754,0.0 121.675946,24.337452,0.0 121.67694,24.337553,0.0 121.678938,24.3383,0.0 121.682469,24.339982,0.0 121.6841,24.340756,0.0 121.685218,24.340764,0.0 121.685743,24.340633,0.0 121.686067,24.34034,0.0 121.686942,24.338808,0.0 121.687177,24.337462,0.0 121.687264,24.336529,0.0 121.687248,24.335083,0.0 121.687568,24.334296,0.0 121.688233,24.333764,0.0 121.688925,24.333556,0.0 121.689609,24.333605,0.0 121.691723,24.334207,0.0 121.693604,24.33488,0.0 121.694769,24.334906,0.0 121.697122,24.334336,0.0 121.69891,24.333296,0.0 121.69989,24.332472,0.0 121.703866,24.330368,0.0 121.706579,24.3291,0.0 121.708453,24.328593,0.0 121.711559,24.327565,0.0 121.71285,24.32713,0.0 121.713574,24.326876,0.0 121.714666,24.32667,0.0 121.717199,24.326272,0.0 121.719151,24.326089,0.0 121.720711,24.325881,0.0 121.721868,24.325663,0.0 121.723252,24.325489,0.0 121.724904,24.325536,0.0 121.72579,24.325814,0.0 121.72751,24.325959,0.0 121.728826,24.325684,0.0 121.730033,24.325197,0.0 121.732022,24.324246,0.0 121.733229,24.32385,0.0 121.734377,24.323287,0.0 121.734993,24.323101,0.0 121.735844,24.323063,0.0 121.737692,24.323253,0.0 121.739968,24.323544,0.0 121.741535,24.323361,0.0 121.742986,24.32313,0.0 121.744595,24.322878,0.0 121.745617,24.322268,0.0 121.747739,24.32122,0.0 121.750587,24.319204,0.0 121.751303,24.318801,0.0 121.753233,24.31789,0.0 121.754777,24.316628,0.0 121.755566,24.316143,0.0 121.757364,24.315394,0.0 121.759133,24.3142,0.0 121.760025,24.31401,0.0 121.762301,24.31397,0.0 121.764827,24.313474,0.0 121.766461,24.313382,0.0 121.768596,24.313333,0.0 121.770389,24.313096,0.0 121.771365,24.313204,0.0 121.772485,24.313496,0.0 121.772935,24.313814,0.0 121.77359,24.314727,0.0 121.773558,24.31559,0.0 121.773617,24.3157,0.0 121.773526,24.317312,0.0 121.773437,24.318899,0.0 121.773217,24.320379,0.0 121.77267,24.323131,0.0 121.772421,24.325236,0.0 121.772058,24.326928,0.0 121.77126,24.32935,0.0 121.771239,24.330147,0.0 121.771054,24.330892,0.0 121.770789,24.33253,0.0 121.770769,24.334478,0.0 121.771474,24.337976,0.0 121.772776,24.341594,0.0 121.77346,24.34366,0.0 121.7749,24.34714,0.0 121.775651,24.348258,0.0 121.775839,24.34863,0.0 121.776066,24.349046,0.0 121.776276,24.349447,0.0 121.776359,24.349947,0.0 121.776395,24.35018,0.0 121.776574,24.350619,0.0 121.776947,24.351211,0.0 121.777076,24.351467,0.0 121.777091,24.352124,0.0 121.777218,24.352227,0.0 121.777642,24.352803,0.0 121.777905,24.353461,0.0 121.778129,24.354383,0.0 121.77834,24.355054,0.0 121.778589,24.35559,0.0 121.778623,24.355951,0.0 121.778842,24.356347,0.0 121.77918,24.356824,0.0 121.779438,24.357534,0.0 121.779578,24.357815,0.0 121.779761,24.358182,0.0 121.779865,24.358549,0.0 121.780026,24.35888,0.0 121.780277,24.359315,0.0 121.780367,24.359601,0.0 121.780563,24.35992,0.0 121.780989,24.360408,0.0 121.781571,24.36082,0.0 121.781807,24.361225,0.0 121.78208,24.36175,0.0 121.782175,24.362059,0.0 121.782294,24.362365,0.0 121.782762,24.362999,0.0 121.782817,24.363358,0.0 121.779184,24.363787,0.0 121.776207,24.364191,0.0 121.772195,24.365476,0.0 121.768551,24.367168,0.0 121.764098,24.36946,0.0 121.760246,24.37026,0.0 121.758177,24.370568,0.0 121.755305,24.372442,0.0 121.746319,24.378466,0.0 121.74281,24.379239,0.0 121.739732,24.377903,0.0 121.738726,24.37641,0.0 121.736714,24.373315,0.0 121.733786,24.370335,0.0 121.731664,24.368793,0.0 121.725875,24.367542,0.0 121.717855,24.366539,0.0 121.716979,24.366763,0.0 121.716426,24.367715,0.0 121.717236,24.369976,0.0 121.719217,24.374678,0.0 121.719589,24.37705,0.0 121.717622,24.381735,0.0 121.715995,24.385112,0.0 121.715059,24.386988,0.0 121.713829,24.388016,0.0 121.708653,24.389575,0.0 121.703712,24.390328,0.0 121.699286,24.390476,0.0 121.696695,24.390708,0.0</coordinates></LinearRing></outerBoundaryIs></Polygon><styleUrl>#spolygon-map</styleUrl></Placemark></Document>
</kml>
