<?xml version="1.0" encoding="UTF-8"?>
<kml xmlns="http://www.opengis.net/kml/2.2">
	<Document>
		<name>屏東縣萬丹鄉</name>
		<Style id="spolygon">
			<LabelStyle>
				<scale>0.0</scale>
			</LabelStyle>
			<LineStyle>
				<color>330030ff</color>
				<width>0</width>
			</LineStyle>
			<PolyStyle>
				<color>330030ff</color>
			</PolyStyle>
		</Style>
		<StyleMap id="spolygon-map">
			<Pair>
				<key>normal</key>
				<styleUrl>#spolygon</styleUrl>
			</Pair>
		</StyleMap>
	<Placemark><Polygon><outerBoundaryIs><LinearRing><coordinates>120.478193,22.60473,0.0 120.469643,22.605504,0.0 120.469613,22.605547,0.0 120.469305,22.605428,0.0 120.468933,22.605289,0.0 120.468318,22.605199,0.0 120.466993,22.604809,0.0 120.466886,22.600313,0.0 120.469565,22.598407,0.0 120.469764,22.59774,0.0 120.469793,22.597589,0.0 120.469856,22.597447,0.0 120.46992,22.597183,0.0 120.47002,22.596677,0.0 120.46993,22.596286,0.0 120.469791,22.595866,0.0 120.470067,22.595781,0.0 120.471535,22.595492,0.0 120.476447,22.59321,0.0 120.478422,22.597558,0.0 120.478511,22.59787,0.0 120.47851,22.598123,0.0 120.478193,22.60473,0.0</coordinates></LinearRing></outerBoundaryIs></Polygon><styleUrl>#spolygon-map</styleUrl></Placemark><Placemark><Polygon><outerBoundaryIs><LinearRing><coordinates>120.496503,22.563251,0.0 120.494537,22.562615,0.0 120.493589,22.560988,0.0 120.492019,22.559351,0.0 120.491501,22.558927,0.0 120.490254,22.558298,0.0 120.488734,22.557957,0.0 120.488635,22.55776,0.0 120.488392,22.557044,0.0 120.487144,22.557265,0.0 120.486017,22.557623,0.0 120.485171,22.549935,0.0 120.490485,22.549306,0.0 120.491347,22.549198,0.0 120.492872,22.553007,0.0 120.496821,22.561107,0.0 120.496856,22.561195,0.0 120.497409,22.56231,0.0 120.497551,22.562757,0.0 120.496956,22.563015,0.0 120.496503,22.563251,0.0</coordinates></LinearRing></outerBoundaryIs></Polygon><styleUrl>#spolygon-map</styleUrl></Placemark><Placemark><Polygon><outerBoundaryIs><LinearRing><coordinates>120.499655,22.572769,0.0 120.4983,22.574035,0.0 120.498018,22.574201,0.0 120.49227,22.574707,0.0 120.49201,22.574781,0.0 120.491487,22.576897,0.0 120.491365,22.578513,0.0 120.491389,22.579039,0.0 120.491269,22.580055,0.0 120.490082,22.580193,0.0 120.48907,22.579397,0.0 120.488605,22.579175,0.0 120.485295,22.577579,0.0 120.483817,22.576981,0.0 120.4837,22.57661,0.0 120.483407,22.576194,0.0 120.483208,22.575985,0.0 120.482235,22.575686,0.0 120.479861,22.572549,0.0 120.479103,22.571423,0.0 120.480212,22.571164,0.0 120.480219,22.57104,0.0 120.480154,22.570259,0.0 120.480181,22.570202,0.0 120.482464,22.569695,0.0 120.484007,22.569786,0.0 120.484189,22.569522,0.0 120.484701,22.568659,0.0 120.485471,22.568027,0.0 120.486032,22.567812,0.0 120.487482,22.567763,0.0 120.489247,22.567764,0.0 120.490592,22.567802,0.0 120.491125,22.567781,0.0 120.491779,22.568108,0.0 120.494345,22.568938,0.0 120.494641,22.568944,0.0 120.494711,22.569314,0.0 120.495054,22.569536,0.0 120.495262,22.5697,0.0 120.495764,22.570144,0.0 120.495949,22.570336,0.0 120.496032,22.570436,0.0 120.496202,22.570719,0.0 120.496322,22.57094,0.0 120.496419,22.57113,0.0 120.496489,22.571225,0.0 120.496577,22.571341,0.0 120.496735,22.571434,0.0 120.496903,22.571445,0.0 120.497142,22.571403,0.0 120.497413,22.571345,0.0 120.497594,22.57131,0.0 120.497758,22.571297,0.0 120.497914,22.571293,0.0 120.498102,22.571307,0.0 120.498277,22.571332,0.0 120.498436,22.571383,0.0 120.498546,22.571466,0.0 120.498674,22.571611,0.0 120.498843,22.571899,0.0 120.499013,22.57217,0.0 120.499121,22.572335,0.0 120.499204,22.572444,0.0 120.499319,22.572564,0.0 120.499447,22.572664,0.0 120.499585,22.572743,0.0 120.499655,22.572769,0.0</coordinates></LinearRing></outerBoundaryIs></Polygon><styleUrl>#spolygon-map</styleUrl></Placemark><Placemark><Polygon><outerBoundaryIs><LinearRing><coordinates>120.478128,22.606213,0.0 120.477812,22.609958,0.0 120.471047,22.61109,0.0 120.468998,22.611013,0.0 120.466964,22.611733,0.0 120.46694,22.608238,0.0 120.466181,22.608206,0.0 120.464916,22.608421,0.0 120.464216,22.606854,0.0 120.463572,22.60479,0.0 120.466862,22.604779,0.0 120.466993,22.604809,0.0 120.468318,22.605199,0.0 120.468933,22.605289,0.0 120.469305,22.605428,0.0 120.469613,22.605547,0.0 120.469643,22.605504,0.0 120.478193,22.60473,0.0 120.478128,22.606213,0.0</coordinates></LinearRing></outerBoundaryIs></Polygon><styleUrl>#spolygon-map</styleUrl></Placemark><Placemark><Polygon><outerBoundaryIs><LinearRing><coordinates>120.478128,22.606213,0.0 120.478449,22.599355,0.0 120.478515,22.598012,0.0 120.478483,22.597712,0.0 120.487534,22.594201,0.0 120.488153,22.594007,0.0 120.488795,22.594702,0.0 120.489234,22.594741,0.0 120.49012,22.594263,0.0 120.491898,22.59391,0.0 120.493228,22.594273,0.0 120.493807,22.594347,0.0 120.494335,22.593823,0.0 120.494254,22.593692,0.0 120.494178,22.593448,0.0 120.494584,22.593322,0.0 120.496187,22.593309,0.0 120.496951,22.593416,0.0 120.498254,22.593853,0.0 120.502955,22.593929,0.0 120.504484,22.598061,0.0 120.50489,22.599101,0.0 120.505294,22.600727,0.0 120.506102,22.603958,0.0 120.505963,22.604428,0.0 120.505453,22.605695,0.0 120.50532,22.605873,0.0 120.503266,22.606776,0.0 120.501415,22.604404,0.0 120.501361,22.604346,0.0 120.501261,22.604359,0.0 120.498206,22.604948,0.0 120.498188,22.60497,0.0 120.498701,22.607297,0.0 120.494508,22.607047,0.0 120.489314,22.606195,0.0 120.489177,22.606272,0.0 120.487527,22.606296,0.0 120.487369,22.606155,0.0 120.487295,22.606126,0.0 120.486978,22.606086,0.0 120.486543,22.605836,0.0 120.486363,22.605788,0.0 120.486078,22.605867,0.0 120.485432,22.605594,0.0 120.484992,22.605407,0.0 120.483695,22.605017,0.0 120.482561,22.604541,0.0 120.478814,22.60604,0.0 120.478333,22.606221,0.0 120.478128,22.606213,0.0</coordinates></LinearRing></outerBoundaryIs></Polygon><styleUrl>#spolygon-map</styleUrl></Placemark><Placemark><Polygon><outerBoundaryIs><LinearRing><coordinates>120.484935,22.549964,0.0 120.480431,22.550498,0.0 120.480273,22.549366,0.0 120.480114,22.548216,0.0 120.479981,22.547649,0.0 120.47983,22.546567,0.0 120.479785,22.546097,0.0 120.479731,22.545695,0.0 120.479647,22.545128,0.0 120.479553,22.544446,0.0 120.47936,22.543147,0.0 120.479224,22.542183,0.0 120.479121,22.54135,0.0 120.479106,22.541119,0.0 120.478986,22.540412,0.0 120.478931,22.53999,0.0 120.479487,22.539915,0.0 120.479922,22.539763,0.0 120.479815,22.538997,0.0 120.479709,22.538195,0.0 120.479545,22.537009,0.0 120.479255,22.536582,0.0 120.478974,22.536576,0.0 120.477656,22.53647,0.0 120.476622,22.53637,0.0 120.475501,22.536262,0.0 120.472996,22.536026,0.0 120.47295,22.53585,0.0 120.473025,22.535329,0.0 120.473105,22.53511,0.0 120.473199,22.535009,0.0 120.473355,22.53486,0.0 120.473486,22.53468,0.0 120.473605,22.534493,0.0 120.473672,22.534344,0.0 120.47383,22.534209,0.0 120.473934,22.534137,0.0 120.474166,22.533993,0.0 120.474318,22.533886,0.0 120.474274,22.533757,0.0 120.474155,22.533684,0.0 120.473969,22.533632,0.0 120.473837,22.533575,0.0 120.473838,22.533387,0.0 120.473894,22.533071,0.0 120.473959,22.532753,0.0 120.474104,22.532131,0.0 120.474241,22.531499,0.0 120.474283,22.531178,0.0 120.474331,22.53107,0.0 120.474381,22.531084,0.0 120.474783,22.531237,0.0 120.474924,22.531278,0.0 120.475135,22.531279,0.0 120.475241,22.531281,0.0 120.475415,22.531349,0.0 120.475499,22.531453,0.0 120.475564,22.531776,0.0 120.475595,22.532131,0.0 120.475671,22.532684,0.0 120.475734,22.533258,0.0 120.475759,22.533486,0.0 120.4758,22.533827,0.0 120.475857,22.534213,0.0 120.475896,22.534491,0.0 120.47592,22.534722,0.0 120.476293,22.534741,0.0 120.476819,22.534774,0.0 120.477437,22.534799,0.0 120.477678,22.534813,0.0 120.478129,22.534837,0.0 120.478467,22.534859,0.0 120.478542,22.534807,0.0 120.478524,22.53461,0.0 120.478493,22.534396,0.0 120.478469,22.534177,0.0 120.478445,22.53391,0.0 120.478415,22.533648,0.0 120.478403,22.533538,0.0 120.478349,22.533016,0.0 120.478302,22.532587,0.0 120.478273,22.53232,0.0 120.478246,22.532081,0.0 120.478234,22.531948,0.0 120.478196,22.531625,0.0 120.478164,22.53136,0.0 120.478151,22.531171,0.0 120.478191,22.531044,0.0 120.47837,22.530846,0.0 120.478667,22.530552,0.0 120.478902,22.530347,0.0 120.479106,22.530176,0.0 120.479217,22.530106,0.0 120.479333,22.530052,0.0 120.479463,22.529996,0.0 120.479567,22.529911,0.0 120.479646,22.529798,0.0 120.479948,22.529551,0.0 120.480314,22.529263,0.0 120.480586,22.529056,0.0 120.481022,22.528744,0.0 120.481563,22.528351,0.0 120.482099,22.527953,0.0 120.482582,22.527588,0.0 120.482859,22.527379,0.0 120.483038,22.52724,0.0 120.483189,22.527331,0.0 120.483299,22.527381,0.0 120.483403,22.527409,0.0 120.48351,22.527406,0.0 120.483635,22.527355,0.0 120.483782,22.527193,0.0 120.48389,22.527039,0.0 120.48403,22.527069,0.0 120.484166,22.527067,0.0 120.484252,22.526977,0.0 120.484416,22.526696,0.0 120.484561,22.526529,0.0 120.484861,22.526647,0.0 120.485077,22.526709,0.0 120.485194,22.526626,0.0 120.485294,22.52643,0.0 120.485444,22.526144,0.0 120.485661,22.525686,0.0 120.485847,22.525352,0.0 120.485999,22.525159,0.0 120.486221,22.524983,0.0 120.486341,22.524936,0.0 120.486466,22.524998,0.0 120.486562,22.525106,0.0 120.486726,22.525301,0.0 120.486871,22.525498,0.0 120.487066,22.525756,0.0 120.48719,22.525937,0.0 120.487437,22.526292,0.0 120.487629,22.526573,0.0 120.487758,22.526785,0.0 120.487857,22.527,0.0 120.487934,22.527165,0.0 120.488017,22.527287,0.0 120.488147,22.527448,0.0 120.48833,22.527605,0.0 120.488494,22.527729,0.0 120.488671,22.52784,0.0 120.488832,22.527931,0.0 120.489144,22.528074,0.0 120.489407,22.528172,0.0 120.489641,22.528268,0.0 120.48987,22.528336,0.0 120.490309,22.528473,0.0 120.49064,22.528571,0.0 120.490858,22.528674,0.0 120.491118,22.528812,0.0 120.491287,22.528926,0.0 120.491503,22.529096,0.0 120.49174,22.529318,0.0 120.491821,22.529424,0.0 120.491966,22.529648,0.0 120.492077,22.529856,0.0 120.492157,22.530084,0.0 120.492201,22.530249,0.0 120.492257,22.530496,0.0 120.492295,22.530834,0.0 120.49231,22.53104,0.0 120.492338,22.531358,0.0 120.492336,22.531692,0.0 120.492314,22.532085,0.0 120.492302,22.532478,0.0 120.492319,22.532742,0.0 120.492365,22.532957,0.0 120.492427,22.533104,0.0 120.49257,22.533301,0.0 120.492726,22.533437,0.0 120.493044,22.533668,0.0 120.493241,22.533775,0.0 120.493786,22.53407,0.0 120.494078,22.534242,0.0 120.494312,22.53439,0.0 120.494506,22.534564,0.0 120.494626,22.534696,0.0 120.494808,22.534909,0.0 120.495,22.535171,0.0 120.495194,22.535443,0.0 120.495397,22.535764,0.0 120.495547,22.535995,0.0 120.495672,22.536225,0.0 120.495773,22.536404,0.0 120.495951,22.536727,0.0 120.496029,22.536904,0.0 120.496161,22.5372,0.0 120.496311,22.537609,0.0 120.49636,22.537769,0.0 120.496409,22.537925,0.0 120.49644,22.538077,0.0 120.496504,22.538395,0.0 120.496532,22.538571,0.0 120.496563,22.538705,0.0 120.496611,22.538883,0.0 120.496663,22.539014,0.0 120.496725,22.539155,0.0 120.49682,22.539295,0.0 120.496932,22.539419,0.0 120.497067,22.539512,0.0 120.497343,22.53952,0.0 120.497466,22.539498,0.0 120.497659,22.539419,0.0 120.497784,22.539352,0.0 120.498019,22.53922,0.0 120.498322,22.539049,0.0 120.498622,22.538887,0.0 120.498865,22.538766,0.0 120.499026,22.538672,0.0 120.499227,22.538584,0.0 120.499498,22.538538,0.0 120.49984,22.538543,0.0 120.500001,22.538569,0.0 120.500243,22.53863,0.0 120.500637,22.538733,0.0 120.501,22.538879,0.0 120.501257,22.539008,0.0 120.501502,22.539151,0.0 120.501929,22.5394,0.0 120.501898,22.539415,0.0 120.49831,22.541243,0.0 120.494634,22.543169,0.0 120.493353,22.54193,0.0 120.490697,22.54336,0.0 120.48965,22.543813,0.0 120.484178,22.544452,0.0 120.484935,22.549964,0.0</coordinates></LinearRing></outerBoundaryIs></Polygon><styleUrl>#spolygon-map</styleUrl></Placemark><Placemark><Polygon><outerBoundaryIs><LinearRing><coordinates>120.476447,22.59321,0.0 120.466845,22.593772,0.0 120.466742,22.582944,0.0 120.466817,22.582831,0.0 120.472198,22.582804,0.0 120.472509,22.582645,0.0 120.473217,22.58381,0.0 120.478894,22.58199,0.0 120.477837,22.582425,0.0 120.477961,22.582694,0.0 120.478113,22.583236,0.0 120.478213,22.583702,0.0 120.477344,22.584096,0.0 120.476331,22.584576,0.0 120.477293,22.586602,0.0 120.477331,22.587311,0.0 120.476949,22.587764,0.0 120.476688,22.587944,0.0 120.475616,22.58845,0.0 120.476292,22.589469,0.0 120.476398,22.589896,0.0 120.476181,22.59174,0.0 120.476165,22.592489,0.0 120.476447,22.59321,0.0</coordinates></LinearRing></outerBoundaryIs></Polygon><styleUrl>#spolygon-map</styleUrl></Placemark><Placemark><Polygon><outerBoundaryIs><LinearRing><coordinates>120.507944,22.620739,0.0 120.507897,22.620852,0.0 120.507878,22.62096,0.0 120.507884,22.621073,0.0 120.507918,22.621229,0.0 120.507813,22.621477,0.0 120.50779,22.621608,0.0 120.507838,22.621777,0.0 120.507912,22.621958,0.0 120.507987,22.622132,0.0 120.50804,22.622263,0.0 120.508235,22.622745,0.0 120.508285,22.623014,0.0 120.508229,22.62333,0.0 120.508187,22.623426,0.0 120.508119,22.623532,0.0 120.508041,22.623613,0.0 120.507774,22.62394,0.0 120.507428,22.624262,0.0 120.507103,22.624484,0.0 120.506928,22.624606,0.0 120.506678,22.624722,0.0 120.506275,22.624895,0.0 120.506173,22.624626,0.0 120.50611,22.624359,0.0 120.506062,22.624043,0.0 120.505978,22.623761,0.0 120.505914,22.62353,0.0 120.505869,22.623385,0.0 120.505869,22.623162,0.0 120.505895,22.623042,0.0 120.505873,22.622911,0.0 120.505742,22.622805,0.0 120.505716,22.62271,0.0 120.505729,22.622527,0.0 120.505732,22.622331,0.0 120.505672,22.622238,0.0 120.505535,22.622197,0.0 120.505496,22.622014,0.0 120.505468,22.621881,0.0 120.505474,22.621695,0.0 120.505475,22.621438,0.0 120.505467,22.621318,0.0 120.505424,22.621214,0.0 120.505305,22.621042,0.0 120.505199,22.620945,0.0 120.505,22.620811,0.0 120.504797,22.620707,0.0 120.504552,22.620532,0.0 120.504251,22.620303,0.0 120.504049,22.620142,0.0 120.503952,22.620043,0.0 120.503919,22.619882,0.0 120.503917,22.619638,0.0 120.503909,22.619474,0.0 120.503875,22.619367,0.0 120.503704,22.619245,0.0 120.503547,22.619177,0.0 120.503247,22.619151,0.0 120.502972,22.619132,0.0 120.502605,22.61912,0.0 120.50206,22.619125,0.0 120.50182,22.619117,0.0 120.50166,22.619094,0.0 120.5015,22.619005,0.0 120.501295,22.618856,0.0 120.501058,22.618848,0.0 120.500699,22.618863,0.0 120.500362,22.618894,0.0 120.500022,22.618908,0.0 120.499733,22.618914,0.0 120.499327,22.618929,0.0 120.498631,22.618956,0.0 120.498214,22.618964,0.0 120.497938,22.618963,0.0 120.497595,22.618959,0.0 120.497249,22.618976,0.0 120.496907,22.618996,0.0 120.496558,22.618999,0.0 120.496275,22.618989,0.0 120.496246,22.619005,0.0 120.496193,22.618957,0.0 120.496138,22.618937,0.0 120.496063,22.618837,0.0 120.495938,22.618713,0.0 120.49591,22.618638,0.0 120.495937,22.618338,0.0 120.495943,22.618141,0.0 120.495789,22.617863,0.0 120.495753,22.617798,0.0 120.495606,22.617334,0.0 120.495518,22.617129,0.0 120.495427,22.616941,0.0 120.49537,22.616787,0.0 120.495327,22.616519,0.0 120.495196,22.616123,0.0 120.495046,22.615508,0.0 120.494821,22.615104,0.0 120.49484,22.61504,0.0 120.494989,22.614892,0.0 120.499409,22.610514,0.0 120.4994,22.61046,0.0 120.498195,22.605013,0.0 120.498196,22.604954,0.0 120.498234,22.604939,0.0 120.501333,22.604348,0.0 120.501381,22.604359,0.0 120.503153,22.60676,0.0 120.503455,22.606675,0.0 120.505388,22.60583,0.0 120.505615,22.605316,0.0 120.506077,22.604101,0.0 120.505413,22.601197,0.0 120.505262,22.600592,0.0 120.504667,22.598502,0.0 120.503227,22.594641,0.0 120.502718,22.593305,0.0 120.50263,22.593013,0.0 120.50276,22.592716,0.0 120.503149,22.591459,0.0 120.503186,22.591137,0.0 120.503134,22.589513,0.0 120.503086,22.587364,0.0 120.503135,22.587242,0.0 120.504275,22.586941,0.0 120.504317,22.586839,0.0 120.504302,22.585582,0.0 120.505603,22.586394,0.0 120.507441,22.587086,0.0 120.509886,22.587443,0.0 120.510662,22.587527,0.0 120.511752,22.587603,0.0 120.512393,22.587641,0.0 120.516142,22.585378,0.0 120.516144,22.585552,0.0 120.516162,22.585744,0.0 120.516186,22.585877,0.0 120.516252,22.586056,0.0 120.516349,22.586219,0.0 120.516421,22.586339,0.0 120.516587,22.586631,0.0 120.51678,22.586945,0.0 120.517051,22.587413,0.0 120.517106,22.587513,0.0 120.517244,22.587743,0.0 120.51749,22.588047,0.0 120.517701,22.5883,0.0 120.517915,22.588549,0.0 120.518127,22.588803,0.0 120.518448,22.589201,0.0 120.518707,22.589529,0.0 120.519109,22.590061,0.0 120.519363,22.590389,0.0 120.519544,22.590618,0.0 120.519743,22.590878,0.0 120.519949,22.59114,0.0 120.52007,22.591296,0.0 120.520155,22.591403,0.0 120.520517,22.59188,0.0 120.520922,22.592401,0.0 120.521082,22.592609,0.0 120.521215,22.592785,0.0 120.52133,22.592919,0.0 120.52146,22.593055,0.0 120.521593,22.593118,0.0 120.521787,22.593175,0.0 120.521928,22.593196,0.0 120.522082,22.593233,0.0 120.522227,22.593339,0.0 120.522381,22.593559,0.0 120.522481,22.593706,0.0 120.522571,22.593835,0.0 120.522734,22.594106,0.0 120.52284,22.594335,0.0 120.522885,22.594459,0.0 120.522966,22.594707,0.0 120.523035,22.595015,0.0 120.523107,22.595338,0.0 120.523124,22.595446,0.0 120.523131,22.59562,0.0 120.523099,22.595764,0.0 120.52305,22.595947,0.0 120.522963,22.596281,0.0 120.522917,22.596502,0.0 120.522833,22.596865,0.0 120.522775,22.597014,0.0 120.522699,22.597131,0.0 120.522547,22.597248,0.0 120.522347,22.597347,0.0 120.522237,22.597367,0.0 120.522037,22.597403,0.0 120.521899,22.597447,0.0 120.521703,22.597643,0.0 120.521562,22.597875,0.0 120.521514,22.59797,0.0 120.521346,22.59832,0.0 120.521195,22.598615,0.0 120.521046,22.598903,0.0 120.520952,22.599007,0.0 120.520836,22.599083,0.0 120.520565,22.599168,0.0 120.520246,22.599276,0.0 120.519998,22.599374,0.0 120.519829,22.599476,0.0 120.519558,22.599685,0.0 120.519271,22.599993,0.0 120.519123,22.60018,0.0 120.518954,22.600387,0.0 120.518797,22.60061,0.0 120.51869,22.600773,0.0 120.518616,22.600951,0.0 120.518598,22.60107,0.0 120.518583,22.601267,0.0 120.518572,22.601696,0.0 120.518553,22.602061,0.0 120.518529,22.602224,0.0 120.51843,22.602472,0.0 120.518276,22.602826,0.0 120.518133,22.603049,0.0 120.517953,22.603326,0.0 120.517806,22.603509,0.0 120.517501,22.603803,0.0 120.517226,22.604001,0.0 120.51696,22.604195,0.0 120.516633,22.604428,0.0 120.516453,22.604507,0.0 120.516258,22.604561,0.0 120.515916,22.60465,0.0 120.515659,22.604735,0.0 120.515375,22.604921,0.0 120.515165,22.605086,0.0 120.514922,22.605306,0.0 120.514801,22.605441,0.0 120.51467,22.605608,0.0 120.514464,22.605923,0.0 120.514313,22.606126,0.0 120.514094,22.606308,0.0 120.513801,22.606492,0.0 120.513512,22.606677,0.0 120.513352,22.606773,0.0 120.513147,22.606827,0.0 120.513076,22.606829,0.0 120.512751,22.606828,0.0 120.512553,22.60685,0.0 120.512406,22.606879,0.0 120.512131,22.606971,0.0 120.512022,22.607029,0.0 120.512204,22.60721,0.0 120.512375,22.607355,0.0 120.512631,22.607566,0.0 120.512828,22.607729,0.0 120.512839,22.607842,0.0 120.512658,22.608112,0.0 120.512303,22.608658,0.0 120.512092,22.608971,0.0 120.511971,22.609156,0.0 120.511787,22.609426,0.0 120.511543,22.609798,0.0 120.511237,22.610246,0.0 120.511074,22.610503,0.0 120.510887,22.610794,0.0 120.510524,22.611343,0.0 120.510166,22.611891,0.0 120.509978,22.612222,0.0 120.509963,22.612541,0.0 120.509939,22.612651,0.0 120.509714,22.612903,0.0 120.509616,22.613007,0.0 120.509453,22.613139,0.0 120.50915,22.613353,0.0 120.508836,22.613639,0.0 120.508537,22.613963,0.0 120.508179,22.614391,0.0 120.507894,22.614729,0.0 120.507502,22.615186,0.0 120.507169,22.615627,0.0 120.506878,22.616026,0.0 120.506778,22.616229,0.0 120.506764,22.616466,0.0 120.506781,22.616904,0.0 120.506801,22.617225,0.0 120.506814,22.617545,0.0 120.506831,22.617934,0.0 120.506877,22.618169,0.0 120.506948,22.618345,0.0 120.507096,22.618594,0.0 120.507351,22.619026,0.0 120.507536,22.619376,0.0 120.507647,22.619616,0.0 120.50769,22.61972,0.0 120.507791,22.62003,0.0 120.507859,22.620287,0.0 120.50792,22.620545,0.0 120.507941,22.620649,0.0 120.507944,22.620739,0.0</coordinates></LinearRing></outerBoundaryIs></Polygon><styleUrl>#spolygon-map</styleUrl></Placemark><Placemark><Polygon><outerBoundaryIs><LinearRing><coordinates>120.47769,22.630035,0.0 120.47747,22.630017,0.0 120.477131,22.629977,0.0 120.476801,22.629926,0.0 120.476541,22.62989,0.0 120.475903,22.629786,0.0 120.475514,22.629717,0.0 120.475175,22.629671,0.0 120.474714,22.629628,0.0 120.474524,22.629626,0.0 120.474387,22.629528,0.0 120.474396,22.629347,0.0 120.47438,22.629196,0.0 120.474314,22.629051,0.0 120.474155,22.628818,0.0 120.474079,22.62873,0.0 120.473954,22.628718,0.0 120.473801,22.628758,0.0 120.473654,22.628803,0.0 120.47347,22.628823,0.0 120.473357,22.628813,0.0 120.473125,22.628801,0.0 120.472947,22.628808,0.0 120.472706,22.628836,0.0 120.472571,22.628811,0.0 120.472468,22.628634,0.0 120.472363,22.628413,0.0 120.472269,22.628216,0.0 120.472179,22.627954,0.0 120.472109,22.627662,0.0 120.472076,22.627491,0.0 120.472077,22.627355,0.0 120.472038,22.62717,0.0 120.471941,22.626951,0.0 120.471837,22.626767,0.0 120.471743,22.626609,0.0 120.471661,22.626478,0.0 120.471498,22.626285,0.0 120.471327,22.62626,0.0 120.471156,22.626354,0.0 120.470923,22.626446,0.0 120.47073,22.626536,0.0 120.470463,22.626632,0.0 120.470304,22.626672,0.0 120.470136,22.626687,0.0 120.469958,22.626732,0.0 120.469841,22.626745,0.0 120.469547,22.626825,0.0 120.46929,22.626917,0.0 120.469171,22.626957,0.0 120.469051,22.626966,0.0 120.468923,22.626911,0.0 120.468881,22.626706,0.0 120.468906,22.626575,0.0 120.468876,22.626478,0.0 120.468702,22.626391,0.0 120.468515,22.626574,0.0 120.468266,22.626873,0.0 120.46816,22.626983,0.0 120.468009,22.627064,0.0 120.46782,22.6271,0.0 120.467532,22.627144,0.0 120.467309,22.627168,0.0 120.467073,22.627192,0.0 120.467019,22.624966,0.0 120.467015,22.622417,0.0 120.468476,22.622431,0.0 120.468972,22.622048,0.0 120.468994,22.621651,0.0 120.470224,22.621594,0.0 120.470309,22.621631,0.0 120.47031,22.622089,0.0 120.470344,22.622116,0.0 120.470969,22.622111,0.0 120.471283,22.622083,0.0 120.471266,22.621038,0.0 120.472197,22.621562,0.0 120.472211,22.621619,0.0 120.472265,22.621626,0.0 120.472787,22.62158,0.0 120.472792,22.621605,0.0 120.47277,22.622032,0.0 120.473694,22.621987,0.0 120.473746,22.621929,0.0 120.473741,22.621369,0.0 120.473808,22.621319,0.0 120.480897,22.621376,0.0 120.48092,22.621618,0.0 120.480951,22.621882,0.0 120.480987,22.622151,0.0 120.481031,22.622524,0.0 120.48107,22.622792,0.0 120.481098,22.62303,0.0 120.481114,22.623222,0.0 120.481103,22.623382,0.0 120.481056,22.623648,0.0 120.481041,22.623781,0.0 120.480965,22.624332,0.0 120.480905,22.624776,0.0 120.480842,22.625232,0.0 120.480789,22.625487,0.0 120.480675,22.625902,0.0 120.480634,22.626087,0.0 120.48056,22.626326,0.0 120.480467,22.626516,0.0 120.480406,22.626637,0.0 120.480332,22.626816,0.0 120.480291,22.626973,0.0 120.480275,22.627247,0.0 120.480295,22.627716,0.0 120.480302,22.628089,0.0 120.480307,22.628409,0.0 120.480314,22.629053,0.0 120.480315,22.629696,0.0 120.480316,22.630139,0.0 120.480288,22.63029,0.0 120.479976,22.630291,0.0 120.479707,22.630261,0.0 120.479502,22.630195,0.0 120.479276,22.630102,0.0 120.478992,22.630083,0.0 120.478854,22.630073,0.0 120.4785,22.630067,0.0 120.478115,22.630055,0.0 120.477785,22.630043,0.0 120.47769,22.630035,0.0</coordinates></LinearRing></outerBoundaryIs></Polygon><styleUrl>#spolygon-map</styleUrl></Placemark><Placemark><Polygon><outerBoundaryIs><LinearRing><coordinates>120.477496,22.613906,0.0 120.471053,22.615388,0.0 120.47094,22.615392,0.0 120.470553,22.614949,0.0 120.470445,22.614871,0.0 120.470259,22.614878,0.0 120.467496,22.615383,0.0 120.466849,22.615625,0.0 120.466732,22.615652,0.0 120.465908,22.615656,0.0 120.462788,22.616271,0.0 120.458413,22.616303,0.0 120.453788,22.616315,0.0 120.453152,22.616301,0.0 120.452634,22.616126,0.0 120.451693,22.615305,0.0 120.451335,22.615019,0.0 120.450811,22.61488,0.0 120.448192,22.614465,0.0 120.44773,22.614544,0.0 120.444562,22.613908,0.0 120.435098,22.612266,0.0 120.435512,22.611359,0.0 120.435741,22.610809,0.0 120.436186,22.609842,0.0 120.43665,22.608889,0.0 120.437163,22.607908,0.0 120.437542,22.607277,0.0 120.437985,22.60671,0.0 120.438566,22.606215,0.0 120.43901,22.605802,0.0 120.439498,22.605537,0.0 120.440196,22.605196,0.0 120.440625,22.605012,0.0 120.440759,22.604927,0.0 120.461031,22.608239,0.0 120.462565,22.604789,0.0 120.463964,22.606072,0.0 120.464763,22.60842,0.0 120.465852,22.608257,0.0 120.466279,22.608202,0.0 120.466951,22.611681,0.0 120.467017,22.61174,0.0 120.470559,22.611025,0.0 120.475716,22.610353,0.0 120.477524,22.612991,0.0 120.477496,22.613906,0.0</coordinates></LinearRing></outerBoundaryIs></Polygon><styleUrl>#spolygon-map</styleUrl></Placemark><Placemark><Polygon><outerBoundaryIs><LinearRing><coordinates>120.467015,22.622417,0.0 120.467014,22.621595,0.0 120.467013,22.620719,0.0 120.46696,22.620687,0.0 120.466673,22.620673,0.0 120.466327,22.620274,0.0 120.466639,22.620045,0.0 120.466676,22.619966,0.0 120.468519,22.618091,0.0 120.47179,22.617287,0.0 120.473049,22.617129,0.0 120.477187,22.617285,0.0 120.477218,22.617377,0.0 120.47792,22.618048,0.0 120.478494,22.618449,0.0 120.478677,22.618425,0.0 120.478943,22.618322,0.0 120.481203,22.618088,0.0 120.48148,22.618224,0.0 120.482061,22.618612,0.0 120.482459,22.620735,0.0 120.482322,22.620774,0.0 120.482207,22.620784,0.0 120.481974,22.620768,0.0 120.481727,22.620751,0.0 120.481488,22.620741,0.0 120.481277,22.62073,0.0 120.48116,22.620718,0.0 120.480966,22.62071,0.0 120.480748,22.620698,0.0 120.480679,22.620743,0.0 120.480766,22.620899,0.0 120.480822,22.621006,0.0 120.480882,22.621112,0.0 120.480895,22.621309,0.0 120.475748,22.621323,0.0 120.47376,22.621335,0.0 120.473726,22.621452,0.0 120.473741,22.621976,0.0 120.472852,22.622045,0.0 120.472759,22.621986,0.0 120.472793,22.621594,0.0 120.472769,22.621576,0.0 120.472224,22.621628,0.0 120.472205,22.621608,0.0 120.472122,22.621174,0.0 120.471309,22.622065,0.0 120.471098,22.622101,0.0 120.470906,22.622109,0.0 120.470316,22.622112,0.0 120.470315,22.621651,0.0 120.470281,22.621601,0.0 120.470149,22.621596,0.0 120.469007,22.621802,0.0 120.468978,22.622324,0.0 120.46809,22.622434,0.0 120.467015,22.622417,0.0</coordinates></LinearRing></outerBoundaryIs></Polygon><styleUrl>#spolygon-map</styleUrl></Placemark><Placemark><Polygon><outerBoundaryIs><LinearRing><coordinates>120.477194,22.617178,0.0 120.47231,22.617153,0.0 120.470412,22.617861,0.0 120.466683,22.61991,0.0 120.466651,22.619806,0.0 120.465685,22.618721,0.0 120.465682,22.618599,0.0 120.466388,22.617319,0.0 120.466925,22.616824,0.0 120.467383,22.616575,0.0 120.468095,22.616324,0.0 120.46816,22.61627,0.0 120.467938,22.615662,0.0 120.470259,22.614878,0.0 120.470445,22.614871,0.0 120.470553,22.614949,0.0 120.47094,22.615392,0.0 120.471053,22.615388,0.0 120.477496,22.613906,0.0 120.477509,22.615258,0.0 120.477453,22.61547,0.0 120.47729,22.615881,0.0 120.477194,22.617178,0.0</coordinates></LinearRing></outerBoundaryIs></Polygon><styleUrl>#spolygon-map</styleUrl></Placemark><Placemark><Polygon><outerBoundaryIs><LinearRing><coordinates>120.472155,22.577376,0.0 120.46983,22.577294,0.0 120.466864,22.577268,0.0 120.466762,22.577878,0.0 120.45906,22.578638,0.0 120.458766,22.578377,0.0 120.458577,22.578279,0.0 120.456852,22.578226,0.0 120.456812,22.578321,0.0 120.456725,22.578614,0.0 120.456652,22.578636,0.0 120.456545,22.578521,0.0 120.456424,22.578265,0.0 120.456353,22.578186,0.0 120.456175,22.578154,0.0 120.455329,22.578282,0.0 120.454596,22.577999,0.0 120.454171,22.577872,0.0 120.453653,22.577782,0.0 120.453207,22.577841,0.0 120.452835,22.577842,0.0 120.451948,22.577945,0.0 120.451595,22.577949,0.0 120.451173,22.577913,0.0 120.450925,22.577935,0.0 120.450198,22.578133,0.0 120.448821,22.578181,0.0 120.447483,22.578083,0.0 120.446798,22.57793,0.0 120.445707,22.577335,0.0 120.445305,22.577095,0.0 120.445217,22.576387,0.0 120.445098,22.575492,0.0 120.444983,22.574417,0.0 120.444929,22.573762,0.0 120.444875,22.573173,0.0 120.444746,22.572283,0.0 120.44456,22.571142,0.0 120.4445,22.570695,0.0 120.457349,22.571649,0.0 120.458355,22.571205,0.0 120.466605,22.571978,0.0 120.468995,22.571798,0.0 120.469793,22.571887,0.0 120.469957,22.572391,0.0 120.471125,22.574889,0.0 120.472155,22.577376,0.0</coordinates></LinearRing></outerBoundaryIs></Polygon><styleUrl>#spolygon-map</styleUrl></Placemark><Placemark><Polygon><outerBoundaryIs><LinearRing><coordinates>120.479861,22.572549,0.0 120.474864,22.573834,0.0 120.472923,22.574128,0.0 120.469957,22.572391,0.0 120.469793,22.571887,0.0 120.469645,22.570784,0.0 120.468401,22.566757,0.0 120.466319,22.56323,0.0 120.465501,22.561907,0.0 120.463393,22.560267,0.0 120.461773,22.559813,0.0 120.461425,22.55976,0.0 120.461328,22.559694,0.0 120.461193,22.55942,0.0 120.461104,22.559217,0.0 120.461488,22.559132,0.0 120.462034,22.559382,0.0 120.462238,22.559476,0.0 120.46242,22.559512,0.0 120.462588,22.559477,0.0 120.463017,22.559293,0.0 120.463151,22.559303,0.0 120.463686,22.55953,0.0 120.464428,22.559831,0.0 120.464922,22.559997,0.0 120.46513,22.560032,0.0 120.465901,22.560079,0.0 120.466837,22.560125,0.0 120.46702,22.560121,0.0 120.4677,22.560228,0.0 120.46867,22.560269,0.0 120.468934,22.560261,0.0 120.470043,22.560364,0.0 120.47025,22.560394,0.0 120.470656,22.560391,0.0 120.471076,22.560397,0.0 120.471161,22.56035,0.0 120.471672,22.560372,0.0 120.472393,22.561361,0.0 120.472841,22.562184,0.0 120.473172,22.562397,0.0 120.473323,22.562416,0.0 120.473427,22.563177,0.0 120.474023,22.56361,0.0 120.475329,22.565312,0.0 120.479103,22.571423,0.0 120.479861,22.572549,0.0</coordinates></LinearRing></outerBoundaryIs></Polygon><styleUrl>#spolygon-map</styleUrl></Placemark><Placemark><Polygon><outerBoundaryIs><LinearRing><coordinates>120.466845,22.593772,0.0 120.462856,22.594274,0.0 120.46262,22.594264,0.0 120.461995,22.59407,0.0 120.461803,22.594069,0.0 120.460865,22.59438,0.0 120.460496,22.594383,0.0 120.459002,22.594622,0.0 120.456224,22.594712,0.0 120.455263,22.594779,0.0 120.454775,22.594734,0.0 120.454111,22.594619,0.0 120.453121,22.594327,0.0 120.451517,22.59408,0.0 120.449404,22.59382,0.0 120.446748,22.593357,0.0 120.446786,22.592325,0.0 120.446844,22.591637,0.0 120.446906,22.590506,0.0 120.446978,22.58951,0.0 120.447033,22.588228,0.0 120.447055,22.587474,0.0 120.447056,22.586973,0.0 120.446999,22.58618,0.0 120.446826,22.585308,0.0 120.446508,22.583837,0.0 120.446352,22.583231,0.0 120.446211,22.582475,0.0 120.446039,22.581476,0.0 120.445847,22.580394,0.0 120.445635,22.579206,0.0 120.445465,22.578097,0.0 120.445305,22.577095,0.0 120.445707,22.577335,0.0 120.446798,22.57793,0.0 120.447483,22.578083,0.0 120.448821,22.578181,0.0 120.450198,22.578133,0.0 120.450925,22.577935,0.0 120.451173,22.577913,0.0 120.451595,22.577949,0.0 120.451948,22.577945,0.0 120.452835,22.577842,0.0 120.453207,22.577841,0.0 120.453653,22.577782,0.0 120.454171,22.577872,0.0 120.454596,22.577999,0.0 120.455329,22.578282,0.0 120.456175,22.578154,0.0 120.456353,22.578186,0.0 120.456424,22.578265,0.0 120.456545,22.578521,0.0 120.456652,22.578636,0.0 120.456725,22.578614,0.0 120.456812,22.578321,0.0 120.456852,22.578226,0.0 120.458577,22.578279,0.0 120.458766,22.578377,0.0 120.45906,22.578638,0.0 120.466762,22.577878,0.0 120.466864,22.577268,0.0 120.46983,22.577294,0.0 120.472155,22.577376,0.0 120.472682,22.578687,0.0 120.472462,22.581782,0.0 120.472482,22.582096,0.0 120.472646,22.582519,0.0 120.472292,22.582764,0.0 120.472145,22.58282,0.0 120.466758,22.582867,0.0 120.466829,22.592357,0.0 120.466845,22.593772,0.0</coordinates></LinearRing></outerBoundaryIs></Polygon><styleUrl>#spolygon-map</styleUrl></Placemark><Placemark><Polygon><outerBoundaryIs><LinearRing><coordinates>120.494641,22.568944,0.0 120.494345,22.568938,0.0 120.491779,22.568108,0.0 120.491125,22.567781,0.0 120.490592,22.567802,0.0 120.489247,22.567764,0.0 120.487482,22.567763,0.0 120.486032,22.567812,0.0 120.485471,22.568027,0.0 120.484701,22.568659,0.0 120.484189,22.569522,0.0 120.484007,22.569786,0.0 120.482464,22.569695,0.0 120.480181,22.570202,0.0 120.480154,22.570259,0.0 120.480219,22.57104,0.0 120.480212,22.571164,0.0 120.479103,22.571423,0.0 120.475329,22.565312,0.0 120.474023,22.56361,0.0 120.473427,22.563177,0.0 120.473323,22.562416,0.0 120.476793,22.562183,0.0 120.478107,22.562093,0.0 120.478158,22.562091,0.0 120.480906,22.561871,0.0 120.484088,22.561631,0.0 120.486711,22.562737,0.0 120.48677,22.562789,0.0 120.487898,22.563095,0.0 120.488561,22.563411,0.0 120.493735,22.563434,0.0 120.496503,22.563251,0.0 120.495541,22.563722,0.0 120.49458,22.564231,0.0 120.495007,22.565005,0.0 120.495245,22.565231,0.0 120.49559,22.565366,0.0 120.495757,22.5654,0.0 120.495641,22.566626,0.0 120.495266,22.567151,0.0 120.494992,22.567725,0.0 120.49471,22.568648,0.0 120.494641,22.568944,0.0</coordinates></LinearRing></outerBoundaryIs></Polygon><styleUrl>#spolygon-map</styleUrl></Placemark><Placemark><Polygon><outerBoundaryIs><LinearRing><coordinates>120.494803,22.563363,0.0 120.489026,22.563744,0.0 120.488198,22.5632,0.0 120.487397,22.562942,0.0 120.486699,22.562784,0.0 120.484115,22.562796,0.0 120.482264,22.561761,0.0 120.478856,22.562041,0.0 120.478147,22.562091,0.0 120.478072,22.562097,0.0 120.473376,22.562382,0.0 120.47332,22.562393,0.0 120.473132,22.562122,0.0 120.47229,22.561408,0.0 120.471919,22.560688,0.0 120.471291,22.560357,0.0 120.470852,22.559816,0.0 120.470048,22.558449,0.0 120.469813,22.558027,0.0 120.471005,22.558437,0.0 120.472516,22.558959,0.0 120.474362,22.559563,0.0 120.475494,22.55993,0.0 120.476185,22.560158,0.0 120.476538,22.560263,0.0 120.476735,22.560363,0.0 120.477017,22.560565,0.0 120.477359,22.560819,0.0 120.477524,22.561012,0.0 120.477728,22.561254,0.0 120.477916,22.561613,0.0 120.478145,22.562084,0.0 120.478085,22.561379,0.0 120.477917,22.55952,0.0 120.477778,22.557773,0.0 120.477713,22.55724,0.0 120.477653,22.556318,0.0 120.48119,22.55588,0.0 120.48103,22.554828,0.0 120.480835,22.553416,0.0 120.480621,22.551869,0.0 120.480431,22.550498,0.0 120.484935,22.549964,0.0 120.486722,22.557293,0.0 120.487469,22.55723,0.0 120.488526,22.557042,0.0 120.48866,22.557887,0.0 120.488916,22.557991,0.0 120.490815,22.558485,0.0 120.49164,22.559045,0.0 120.493023,22.560239,0.0 120.494207,22.561966,0.0 120.494803,22.563363,0.0</coordinates></LinearRing></outerBoundaryIs></Polygon><styleUrl>#spolygon-map</styleUrl></Placemark><Placemark><Polygon><outerBoundaryIs><LinearRing><coordinates>120.503117,22.588183,0.0 120.498093,22.587985,0.0 120.49803,22.587321,0.0 120.497205,22.587305,0.0 120.497127,22.587235,0.0 120.497113,22.586686,0.0 120.497212,22.586609,0.0 120.497328,22.586515,0.0 120.497382,22.586382,0.0 120.49738,22.586021,0.0 120.497276,22.585914,0.0 120.495378,22.585683,0.0 120.494969,22.585704,0.0 120.494791,22.585836,0.0 120.494559,22.586576,0.0 120.494228,22.586663,0.0 120.493908,22.586615,0.0 120.493471,22.586099,0.0 120.492948,22.586957,0.0 120.492653,22.586934,0.0 120.492544,22.587073,0.0 120.492174,22.587729,0.0 120.492063,22.587772,0.0 120.491606,22.587587,0.0 120.491043,22.587595,0.0 120.491021,22.587577,0.0 120.490983,22.5874,0.0 120.490963,22.587353,0.0 120.490454,22.587349,0.0 120.490418,22.587326,0.0 120.490255,22.586475,0.0 120.489858,22.585627,0.0 120.489589,22.585197,0.0 120.489503,22.584923,0.0 120.489528,22.584765,0.0 120.489592,22.584285,0.0 120.489564,22.584095,0.0 120.489487,22.584056,0.0 120.489013,22.583983,0.0 120.489182,22.580732,0.0 120.490082,22.580193,0.0 120.491269,22.580055,0.0 120.491389,22.579039,0.0 120.491365,22.578513,0.0 120.491487,22.576897,0.0 120.49201,22.574781,0.0 120.49227,22.574707,0.0 120.498018,22.574201,0.0 120.4983,22.574035,0.0 120.499655,22.572769,0.0 120.49976,22.572807,0.0 120.499898,22.572843,0.0 120.500036,22.57286,0.0 120.50015,22.572817,0.0 120.500233,22.572671,0.0 120.500286,22.572526,0.0 120.500351,22.572274,0.0 120.50043,22.57212,0.0 120.500535,22.572021,0.0 120.500694,22.572015,0.0 120.500809,22.572097,0.0 120.500932,22.572235,0.0 120.501077,22.572452,0.0 120.501156,22.57259,0.0 120.501264,22.572701,0.0 120.501402,22.572751,0.0 120.501535,22.572754,0.0 120.501734,22.572736,0.0 120.50196,22.572687,0.0 120.502076,22.572665,0.0 120.502209,22.572638,0.0 120.502375,22.572637,0.0 120.502628,22.572658,0.0 120.502829,22.572688,0.0 120.503047,22.572767,0.0 120.503193,22.572858,0.0 120.503338,22.572956,0.0 120.503471,22.57304,0.0 120.503576,22.573094,0.0 120.503699,22.573135,0.0 120.503855,22.573142,0.0 120.503971,22.573102,0.0 120.504062,22.572989,0.0 120.50418,22.572895,0.0 120.504298,22.572902,0.0 120.504411,22.572961,0.0 120.504521,22.573059,0.0 120.504634,22.573201,0.0 120.504695,22.573368,0.0 120.505061,22.573501,0.0 120.505401,22.573623,0.0 120.505727,22.573733,0.0 120.505985,22.573844,0.0 120.506091,22.573939,0.0 120.506179,22.574093,0.0 120.50621,22.574229,0.0 120.506242,22.574407,0.0 120.506265,22.574565,0.0 120.506297,22.574723,0.0 120.506362,22.574977,0.0 120.506411,22.57511,0.0 120.50653,22.575402,0.0 120.506663,22.575682,0.0 120.50675,22.57587,0.0 120.506829,22.576046,0.0 120.50689,22.576173,0.0 120.506938,22.576281,0.0 120.506999,22.576412,0.0 120.507076,22.576607,0.0 120.50715,22.576821,0.0 120.507197,22.576943,0.0 120.507267,22.57712,0.0 120.50733,22.577255,0.0 120.507421,22.577409,0.0 120.507498,22.577518,0.0 120.507589,22.57762,0.0 120.507688,22.577694,0.0 120.507784,22.577756,0.0 120.507934,22.577819,0.0 120.508038,22.577851,0.0 120.508136,22.577878,0.0 120.508217,22.577962,0.0 120.508287,22.578204,0.0 120.508319,22.578333,0.0 120.508562,22.578661,0.0 120.508689,22.578774,0.0 120.508809,22.578888,0.0 120.509091,22.579175,0.0 120.509336,22.57947,0.0 120.509506,22.579691,0.0 120.509566,22.579813,0.0 120.509664,22.580028,0.0 120.509811,22.580315,0.0 120.509982,22.58053,0.0 120.510184,22.580782,0.0 120.510384,22.581044,0.0 120.510517,22.581225,0.0 120.510694,22.581359,0.0 120.510924,22.581524,0.0 120.511105,22.581602,0.0 120.511303,22.581672,0.0 120.511525,22.581711,0.0 120.511861,22.581773,0.0 120.512055,22.581815,0.0 120.512519,22.581927,0.0 120.512749,22.581988,0.0 120.512814,22.582081,0.0 120.512831,22.582189,0.0 120.512834,22.582454,0.0 120.512845,22.582585,0.0 120.512915,22.58268,0.0 120.513032,22.582689,0.0 120.513314,22.582681,0.0 120.513603,22.582675,0.0 120.514067,22.582663,0.0 120.514348,22.582668,0.0 120.514615,22.582716,0.0 120.5148,22.582742,0.0 120.515028,22.582862,0.0 120.515196,22.583143,0.0 120.515389,22.583416,0.0 120.515572,22.583681,0.0 120.515748,22.583946,0.0 120.515853,22.584143,0.0 120.515891,22.584235,0.0 120.516029,22.584534,0.0 120.51609,22.584733,0.0 120.516113,22.584843,0.0 120.516137,22.585105,0.0 120.516142,22.585287,0.0 120.512278,22.587685,0.0 120.511111,22.58756,0.0 120.510316,22.587503,0.0 120.508748,22.587282,0.0 120.50567,22.58641,0.0 120.505495,22.586346,0.0 120.504254,22.585559,0.0 120.50432,22.586891,0.0 120.504225,22.586952,0.0 120.503091,22.58731,0.0 120.503117,22.588183,0.0</coordinates></LinearRing></outerBoundaryIs></Polygon><styleUrl>#spolygon-map</styleUrl></Placemark><Placemark><Polygon><outerBoundaryIs><LinearRing><coordinates>120.478483,22.597712,0.0 120.477286,22.595193,0.0 120.476973,22.592968,0.0 120.47998,22.59179,0.0 120.486003,22.589464,0.0 120.487091,22.589348,0.0 120.489043,22.588178,0.0 120.489657,22.587839,0.0 120.48991,22.587824,0.0 120.490427,22.587979,0.0 120.494367,22.589852,0.0 120.494552,22.590033,0.0 120.495193,22.59045,0.0 120.496099,22.591331,0.0 120.496271,22.593321,0.0 120.495237,22.593255,0.0 120.494141,22.593382,0.0 120.494199,22.593484,0.0 120.494263,22.593728,0.0 120.494272,22.594288,0.0 120.493517,22.594328,0.0 120.492578,22.594023,0.0 120.49131,22.593901,0.0 120.489541,22.594476,0.0 120.48898,22.594779,0.0 120.488345,22.594167,0.0 120.487959,22.594024,0.0 120.479783,22.597134,0.0 120.478483,22.597712,0.0</coordinates></LinearRing></outerBoundaryIs></Polygon><styleUrl>#spolygon-map</styleUrl></Placemark><Placemark><Polygon><outerBoundaryIs><LinearRing><coordinates>120.502955,22.593929,0.0 120.498254,22.593853,0.0 120.496951,22.593416,0.0 120.496534,22.591615,0.0 120.495857,22.591105,0.0 120.494939,22.590258,0.0 120.494558,22.58994,0.0 120.494104,22.589724,0.0 120.490157,22.587867,0.0 120.489777,22.587825,0.0 120.48931,22.588005,0.0 120.488731,22.587348,0.0 120.488612,22.586397,0.0 120.489497,22.586251,0.0 120.489458,22.586127,0.0 120.489444,22.586088,0.0 120.489473,22.58607,0.0 120.489836,22.586006,0.0 120.490255,22.586475,0.0 120.490418,22.587326,0.0 120.490454,22.587349,0.0 120.490963,22.587353,0.0 120.490983,22.5874,0.0 120.491021,22.587577,0.0 120.491043,22.587595,0.0 120.491606,22.587587,0.0 120.492063,22.587772,0.0 120.492174,22.587729,0.0 120.492544,22.587073,0.0 120.492653,22.586934,0.0 120.492948,22.586957,0.0 120.493471,22.586099,0.0 120.493908,22.586615,0.0 120.494228,22.586663,0.0 120.494559,22.586576,0.0 120.494791,22.585836,0.0 120.494969,22.585704,0.0 120.495378,22.585683,0.0 120.497276,22.585914,0.0 120.49738,22.586021,0.0 120.497382,22.586382,0.0 120.497328,22.586515,0.0 120.497212,22.586609,0.0 120.497113,22.586686,0.0 120.497127,22.587235,0.0 120.497205,22.587305,0.0 120.49803,22.587321,0.0 120.498093,22.587985,0.0 120.503117,22.588183,0.0 120.503147,22.590001,0.0 120.503183,22.591263,0.0 120.502817,22.592551,0.0 120.502671,22.592858,0.0 120.502662,22.593156,0.0 120.502955,22.593929,0.0</coordinates></LinearRing></outerBoundaryIs></Polygon><styleUrl>#spolygon-map</styleUrl></Placemark><Placemark><Polygon><outerBoundaryIs><LinearRing><coordinates>120.48931,22.588005,0.0 120.487369,22.589272,0.0 120.486176,22.589435,0.0 120.4839,22.590299,0.0 120.478454,22.592395,0.0 120.476447,22.59321,0.0 120.476165,22.592489,0.0 120.476181,22.59174,0.0 120.476398,22.589896,0.0 120.476292,22.589469,0.0 120.475616,22.58845,0.0 120.476688,22.587944,0.0 120.476907,22.587852,0.0 120.477581,22.587802,0.0 120.47814,22.587707,0.0 120.478683,22.587593,0.0 120.479379,22.587605,0.0 120.480815,22.587995,0.0 120.482094,22.588151,0.0 120.482505,22.588048,0.0 120.486932,22.586315,0.0 120.488513,22.58579,0.0 120.488699,22.58712,0.0 120.48879,22.587468,0.0 120.48931,22.588005,0.0</coordinates></LinearRing></outerBoundaryIs></Polygon><styleUrl>#spolygon-map</styleUrl></Placemark><Placemark><Polygon><outerBoundaryIs><LinearRing><coordinates>120.490193,22.586007,0.0 120.48961,22.586039,0.0 120.489451,22.586075,0.0 120.489451,22.586106,0.0 120.489481,22.58621,0.0 120.489481,22.586278,0.0 120.488513,22.58579,0.0 120.486932,22.586315,0.0 120.482505,22.588048,0.0 120.482094,22.588151,0.0 120.480815,22.587995,0.0 120.479379,22.587605,0.0 120.478683,22.587593,0.0 120.47814,22.587707,0.0 120.477581,22.587802,0.0 120.476907,22.587852,0.0 120.476949,22.587764,0.0 120.477331,22.587311,0.0 120.477293,22.586602,0.0 120.476331,22.584576,0.0 120.477344,22.584096,0.0 120.478213,22.583702,0.0 120.478409,22.583689,0.0 120.481214,22.583777,0.0 120.482561,22.582919,0.0 120.483173,22.582803,0.0 120.48389,22.582788,0.0 120.484211,22.582732,0.0 120.48455,22.582679,0.0 120.484754,22.582709,0.0 120.484946,22.583128,0.0 120.487236,22.583683,0.0 120.4875,22.583199,0.0 120.487927,22.58367,0.0 120.48851,22.583929,0.0 120.489013,22.583983,0.0 120.489487,22.584056,0.0 120.489564,22.584095,0.0 120.489592,22.584285,0.0 120.489528,22.584765,0.0 120.489503,22.584923,0.0 120.489589,22.585197,0.0 120.489858,22.585627,0.0 120.490193,22.586007,0.0</coordinates></LinearRing></outerBoundaryIs></Polygon><styleUrl>#spolygon-map</styleUrl></Placemark><Placemark><Polygon><outerBoundaryIs><LinearRing><coordinates>120.491478,22.622909,0.0 120.491386,22.622886,0.0 120.49105,22.622813,0.0 120.490938,22.622786,0.0 120.490807,22.622688,0.0 120.490725,22.62253,0.0 120.490662,22.622444,0.0 120.49054,22.622396,0.0 120.490394,22.622398,0.0 120.490223,22.6224,0.0 120.489974,22.622345,0.0 120.4897,22.622274,0.0 120.489437,22.622277,0.0 120.488998,22.622337,0.0 120.488757,22.622366,0.0 120.488606,22.622363,0.0 120.488489,22.622308,0.0 120.488381,22.622179,0.0 120.488293,22.62203,0.0 120.488208,22.621937,0.0 120.488105,22.621871,0.0 120.487707,22.621771,0.0 120.487301,22.621677,0.0 120.486967,22.621599,0.0 120.486705,22.621537,0.0 120.486579,22.621453,0.0 120.486442,22.621236,0.0 120.486297,22.621003,0.0 120.48622,22.620908,0.0 120.486063,22.620837,0.0 120.485909,22.620846,0.0 120.485694,22.620884,0.0 120.485563,22.62091,0.0 120.485437,22.620926,0.0 120.485276,22.620909,0.0 120.485156,22.620864,0.0 120.484979,22.620773,0.0 120.484891,22.620714,0.0 120.484774,22.620601,0.0 120.484683,22.62049,0.0 120.484541,22.620358,0.0 120.484421,22.620279,0.0 120.484267,22.620177,0.0 120.484147,22.620156,0.0 120.484038,22.620192,0.0 120.483898,22.620268,0.0 120.483763,22.620315,0.0 120.48356,22.620326,0.0 120.483279,22.62033,0.0 120.48304,22.620329,0.0 120.482929,22.62029,0.0 120.482817,22.620373,0.0 120.482745,22.620499,0.0 120.482665,22.620666,0.0 120.482459,22.620735,0.0 120.482061,22.618612,0.0 120.48148,22.618224,0.0 120.481203,22.618088,0.0 120.478943,22.618322,0.0 120.478677,22.618425,0.0 120.478494,22.618449,0.0 120.47792,22.618048,0.0 120.477218,22.617377,0.0 120.477187,22.617285,0.0 120.477198,22.617108,0.0 120.477393,22.615646,0.0 120.477504,22.615346,0.0 120.477514,22.613983,0.0 120.477455,22.613813,0.0 120.477812,22.609958,0.0 120.478128,22.606213,0.0 120.478399,22.606205,0.0 120.4821,22.604707,0.0 120.482628,22.604539,0.0 120.484502,22.605268,0.0 120.485222,22.605489,0.0 120.486004,22.605866,0.0 120.48624,22.605813,0.0 120.486444,22.605802,0.0 120.486869,22.606016,0.0 120.487066,22.606111,0.0 120.487344,22.606137,0.0 120.487492,22.60628,0.0 120.487579,22.606312,0.0 120.489234,22.606208,0.0 120.489425,22.6062,0.0 120.494384,22.607695,0.0 120.4994,22.61046,0.0 120.499409,22.610514,0.0 120.494989,22.614892,0.0 120.49484,22.61504,0.0 120.494821,22.615104,0.0 120.495046,22.615508,0.0 120.495196,22.616123,0.0 120.495327,22.616519,0.0 120.49537,22.616787,0.0 120.495427,22.616941,0.0 120.495518,22.617129,0.0 120.495606,22.617334,0.0 120.495753,22.617798,0.0 120.495789,22.617863,0.0 120.495943,22.618141,0.0 120.495937,22.618338,0.0 120.49591,22.618638,0.0 120.495938,22.618713,0.0 120.496063,22.618837,0.0 120.496138,22.618937,0.0 120.496193,22.618957,0.0 120.496246,22.619005,0.0 120.496232,22.619091,0.0 120.49608,22.619151,0.0 120.495678,22.619163,0.0 120.495333,22.619171,0.0 120.494987,22.619184,0.0 120.494292,22.619206,0.0 120.493825,22.619219,0.0 120.493844,22.619401,0.0 120.493467,22.619371,0.0 120.49315,22.619338,0.0 120.493017,22.619415,0.0 120.492998,22.619537,0.0 120.492919,22.620112,0.0 120.492825,22.620683,0.0 120.492776,22.620976,0.0 120.492723,22.62127,0.0 120.492656,22.621558,0.0 120.492627,22.621696,0.0 120.492578,22.62194,0.0 120.492528,22.622267,0.0 120.492507,22.622466,0.0 120.492486,22.622646,0.0 120.492483,22.622908,0.0 120.492485,22.623012,0.0 120.492474,22.623177,0.0 120.492374,22.623142,0.0 120.492059,22.623022,0.0 120.49172,22.62296,0.0 120.491478,22.622909,0.0</coordinates></LinearRing></outerBoundaryIs></Polygon><styleUrl>#spolygon-map</styleUrl></Placemark><Placemark><Polygon><outerBoundaryIs><LinearRing><coordinates>120.457415,22.629834,0.0 120.457109,22.629714,0.0 120.456806,22.629589,0.0 120.456562,22.629498,0.0 120.456261,22.629411,0.0 120.455944,22.62932,0.0 120.455677,22.629253,0.0 120.455348,22.629176,0.0 120.455022,22.629116,0.0 120.454681,22.629036,0.0 120.454406,22.628985,0.0 120.454218,22.628968,0.0 120.454072,22.629011,0.0 120.453894,22.629125,0.0 120.453782,22.629177,0.0 120.453593,22.629233,0.0 120.453401,22.629252,0.0 120.453101,22.629245,0.0 120.452726,22.629212,0.0 120.452545,22.629193,0.0 120.452199,22.629151,0.0 120.451901,22.629114,0.0 120.45171,22.629093,0.0 120.451524,22.629079,0.0 120.451303,22.629047,0.0 120.451041,22.629007,0.0 120.45071,22.628905,0.0 120.45044,22.628831,0.0 120.450318,22.628808,0.0 120.449941,22.628753,0.0 120.449706,22.628727,0.0 120.449518,22.628715,0.0 120.449187,22.628701,0.0 120.448963,22.628693,0.0 120.44868,22.628701,0.0 120.448525,22.628714,0.0 120.448341,22.628745,0.0 120.448122,22.628774,0.0 120.447938,22.628814,0.0 120.447571,22.628923,0.0 120.447354,22.628983,0.0 120.447088,22.629055,0.0 120.446795,22.629117,0.0 120.446527,22.629154,0.0 120.446199,22.629153,0.0 120.445931,22.629114,0.0 120.445667,22.629061,0.0 120.445333,22.629015,0.0 120.445058,22.628971,0.0 120.444712,22.628897,0.0 120.444462,22.628847,0.0 120.444205,22.628805,0.0 120.443986,22.62878,0.0 120.443696,22.628774,0.0 120.44355,22.628776,0.0 120.443362,22.628787,0.0 120.443296,22.628775,0.0 120.443176,22.628727,0.0 120.443085,22.628628,0.0 120.442872,22.628345,0.0 120.442684,22.6281,0.0 120.442568,22.627964,0.0 120.44248,22.627887,0.0 120.442342,22.627894,0.0 120.442166,22.627992,0.0 120.442033,22.62803,0.0 120.441865,22.627996,0.0 120.441674,22.627914,0.0 120.441356,22.62775,0.0 120.441194,22.627659,0.0 120.44106,22.627894,0.0 120.440929,22.628205,0.0 120.440805,22.628502,0.0 120.440687,22.628795,0.0 120.440634,22.628919,0.0 120.440473,22.628946,0.0 120.440213,22.628902,0.0 120.439778,22.628824,0.0 120.439271,22.628739,0.0 120.438773,22.628656,0.0 120.438378,22.628609,0.0 120.438192,22.628656,0.0 120.438084,22.628865,0.0 120.437979,22.628989,0.0 120.437875,22.628989,0.0 120.437775,22.629117,0.0 120.437736,22.629219,0.0 120.437663,22.629302,0.0 120.437526,22.629254,0.0 120.43719,22.629158,0.0 120.436803,22.629069,0.0 120.436367,22.628986,0.0 120.435789,22.628889,0.0 120.435573,22.628845,0.0 120.435456,22.628831,0.0 120.435171,22.628526,0.0 120.434788,22.627477,0.0 120.434386,22.626455,0.0 120.434033,22.625562,0.0 120.433706,22.624615,0.0 120.433576,22.623964,0.0 120.43347,22.62323,0.0 120.433473,22.622803,0.0 120.43346,22.621733,0.0 120.433447,22.620854,0.0 120.433481,22.62032,0.0 120.433515,22.619708,0.0 120.433571,22.618932,0.0 120.433637,22.618159,0.0 120.433729,22.617408,0.0 120.433858,22.616535,0.0 120.434037,22.615504,0.0 120.434171,22.614976,0.0 120.43445,22.613913,0.0 120.43461,22.613415,0.0 120.435098,22.612266,0.0 120.444562,22.613908,0.0 120.44773,22.614544,0.0 120.448192,22.614465,0.0 120.450811,22.61488,0.0 120.451335,22.615019,0.0 120.451693,22.615305,0.0 120.452634,22.616126,0.0 120.453152,22.616301,0.0 120.453788,22.616315,0.0 120.458413,22.616303,0.0 120.462788,22.616271,0.0 120.465908,22.615656,0.0 120.466732,22.615652,0.0 120.466849,22.615625,0.0 120.467496,22.615383,0.0 120.467938,22.615662,0.0 120.46816,22.61627,0.0 120.468095,22.616324,0.0 120.467383,22.616575,0.0 120.466925,22.616824,0.0 120.466388,22.617319,0.0 120.465682,22.618599,0.0 120.465685,22.618721,0.0 120.466651,22.619806,0.0 120.466683,22.61991,0.0 120.466658,22.620009,0.0 120.466321,22.620242,0.0 120.466652,22.620654,0.0 120.466702,22.620677,0.0 120.466993,22.620692,0.0 120.467012,22.620769,0.0 120.467019,22.621916,0.0 120.467014,22.622597,0.0 120.467037,22.627201,0.0 120.466822,22.627236,0.0 120.46644,22.627262,0.0 120.466293,22.627255,0.0 120.465967,22.627184,0.0 120.465835,22.627206,0.0 120.465697,22.627248,0.0 120.465508,22.627275,0.0 120.465297,22.627317,0.0 120.465104,22.627357,0.0 120.464975,22.627397,0.0 120.464856,22.627467,0.0 120.464657,22.627529,0.0 120.464479,22.627648,0.0 120.464378,22.627723,0.0 120.464228,22.627767,0.0 120.464045,22.627816,0.0 120.463843,22.627863,0.0 120.463506,22.627945,0.0 120.463387,22.62799,0.0 120.463139,22.628086,0.0 120.462817,22.628223,0.0 120.462493,22.62831,0.0 120.462266,22.628375,0.0 120.46183,22.628486,0.0 120.461162,22.628665,0.0 120.460654,22.628794,0.0 120.460415,22.628849,0.0 120.460069,22.628941,0.0 120.459795,22.629093,0.0 120.459657,22.62931,0.0 120.459478,22.629585,0.0 120.459383,22.629724,0.0 120.459269,22.629832,0.0 120.459094,22.629954,0.0 120.458856,22.630063,0.0 120.458659,22.630133,0.0 120.458439,22.630139,0.0 120.458234,22.630131,0.0 120.458041,22.630142,0.0 120.45776,22.629992,0.0 120.457597,22.629899,0.0 120.457415,22.629834,0.0</coordinates></LinearRing></outerBoundaryIs></Polygon><styleUrl>#spolygon-map</styleUrl></Placemark><Placemark><Polygon><outerBoundaryIs><LinearRing><coordinates>120.49687,22.561189,0.0 120.494915,22.557306,0.0 120.492837,22.553005,0.0 120.493497,22.54893,0.0 120.493876,22.54989,0.0 120.494139,22.550178,0.0 120.494914,22.55004,0.0 120.495933,22.549822,0.0 120.496486,22.549955,0.0 120.496646,22.549671,0.0 120.496992,22.549374,0.0 120.497335,22.54924,0.0 120.504884,22.547506,0.0 120.505105,22.547602,0.0 120.505462,22.547721,0.0 120.505657,22.547757,0.0 120.505874,22.547792,0.0 120.505949,22.547853,0.0 120.505946,22.547973,0.0 120.505931,22.548216,0.0 120.505942,22.548374,0.0 120.505949,22.548496,0.0 120.505973,22.548641,0.0 120.505986,22.548749,0.0 120.506005,22.548874,0.0 120.506017,22.549009,0.0 120.506009,22.549185,0.0 120.505986,22.549327,0.0 120.505894,22.549582,0.0 120.505861,22.54969,0.0 120.505805,22.549948,0.0 120.505759,22.550115,0.0 120.505746,22.550212,0.0 120.505735,22.55041,0.0 120.50574,22.550582,0.0 120.505729,22.550787,0.0 120.505731,22.5509,0.0 120.505716,22.551027,0.0 120.50569,22.551216,0.0 120.505644,22.551365,0.0 120.50555,22.551588,0.0 120.505398,22.551893,0.0 120.505259,22.552161,0.0 120.505115,22.552373,0.0 120.505029,22.552528,0.0 120.504811,22.552956,0.0 120.50472,22.55313,0.0 120.504619,22.553297,0.0 120.50447,22.553511,0.0 120.504237,22.553831,0.0 120.504203,22.554237,0.0 120.504684,22.555521,0.0 120.503934,22.556099,0.0 120.50394,22.556451,0.0 120.503978,22.556964,0.0 120.504037,22.55733,0.0 120.504034,22.557978,0.0 120.503775,22.55825,0.0 120.503219,22.558332,0.0 120.502268,22.55846,0.0 120.50156,22.55855,0.0 120.500702,22.558724,0.0 120.499596,22.558926,0.0 120.4994,22.559124,0.0 120.49936,22.559943,0.0 120.499101,22.560046,0.0 120.498308,22.560441,0.0 120.497215,22.560993,0.0 120.49687,22.561189,0.0</coordinates></LinearRing></outerBoundaryIs></Polygon><styleUrl>#spolygon-map</styleUrl></Placemark><Placemark><Polygon><outerBoundaryIs><LinearRing><coordinates>120.491347,22.549198,0.0 120.490485,22.549306,0.0 120.485171,22.549935,0.0 120.484269,22.545058,0.0 120.489619,22.543833,0.0 120.491025,22.543659,0.0 120.490787,22.543313,0.0 120.493764,22.541697,0.0 120.495757,22.542572,0.0 120.501852,22.539439,0.0 120.501909,22.53941,0.0 120.501951,22.539413,0.0 120.502087,22.53949,0.0 120.502494,22.539753,0.0 120.502679,22.5399,0.0 120.502899,22.540077,0.0 120.503138,22.540303,0.0 120.503383,22.540537,0.0 120.503661,22.540804,0.0 120.504025,22.54118,0.0 120.504235,22.541442,0.0 120.504325,22.541671,0.0 120.504378,22.541969,0.0 120.50438,22.542138,0.0 120.504345,22.542384,0.0 120.504313,22.542495,0.0 120.504185,22.542734,0.0 120.504006,22.543018,0.0 120.503922,22.543121,0.0 120.503705,22.543358,0.0 120.503558,22.543499,0.0 120.503375,22.543679,0.0 120.503171,22.543857,0.0 120.502893,22.544087,0.0 120.502718,22.544237,0.0 120.502597,22.544345,0.0 120.502451,22.544489,0.0 120.502336,22.544627,0.0 120.50215,22.544893,0.0 120.502018,22.545186,0.0 120.501981,22.545373,0.0 120.501985,22.545508,0.0 120.502036,22.54566,0.0 120.502103,22.545807,0.0 120.502202,22.545999,0.0 120.502347,22.546203,0.0 120.502472,22.546336,0.0 120.502725,22.546556,0.0 120.502876,22.546681,0.0 120.503037,22.546765,0.0 120.503238,22.546867,0.0 120.503545,22.547001,0.0 120.503849,22.547119,0.0 120.504255,22.54727,0.0 120.504806,22.547479,0.0 120.504814,22.547522,0.0 120.497182,22.549287,0.0 120.49677,22.549511,0.0 120.496598,22.55,0.0 120.496293,22.549893,0.0 120.495704,22.549799,0.0 120.49444,22.550206,0.0 120.494034,22.550128,0.0 120.49376,22.549594,0.0 120.491347,22.549198,0.0</coordinates></LinearRing></outerBoundaryIs></Polygon><styleUrl>#spolygon-map</styleUrl></Placemark><Placemark><Polygon><outerBoundaryIs><LinearRing><coordinates>120.489013,22.583983,0.0 120.48851,22.583929,0.0 120.487927,22.58367,0.0 120.4875,22.583199,0.0 120.487236,22.583683,0.0 120.484946,22.583128,0.0 120.484754,22.582709,0.0 120.48455,22.582679,0.0 120.484211,22.582732,0.0 120.48389,22.582788,0.0 120.483173,22.582803,0.0 120.482561,22.582919,0.0 120.481214,22.583777,0.0 120.478409,22.583689,0.0 120.478113,22.583236,0.0 120.477961,22.582694,0.0 120.477837,22.582425,0.0 120.478894,22.58199,0.0 120.473217,22.58381,0.0 120.472539,22.582297,0.0 120.472468,22.581929,0.0 120.472703,22.578895,0.0 120.472233,22.57753,0.0 120.471351,22.575409,0.0 120.470929,22.574338,0.0 120.47375,22.574047,0.0 120.476787,22.573339,0.0 120.4821,22.575553,0.0 120.48244,22.575804,0.0 120.483368,22.576051,0.0 120.483366,22.576507,0.0 120.483663,22.576935,0.0 120.483808,22.5772,0.0 120.48679,22.578006,0.0 120.488961,22.579253,0.0 120.489159,22.58028,0.0 120.48924,22.581653,0.0 120.489013,22.583983,0.0</coordinates></LinearRing></outerBoundaryIs></Polygon><styleUrl>#spolygon-map</styleUrl></Placemark><Placemark><Polygon><outerBoundaryIs><LinearRing><coordinates>120.469779,22.571774,0.0 120.467598,22.571927,0.0 120.458951,22.572693,0.0 120.457477,22.571608,0.0 120.447118,22.57086,0.0 120.444486,22.570694,0.0 120.444411,22.570146,0.0 120.444221,22.569256,0.0 120.444117,22.568831,0.0 120.443806,22.568044,0.0 120.443445,22.56716,0.0 120.443312,22.566458,0.0 120.443123,22.565561,0.0 120.443019,22.564865,0.0 120.44281,22.563225,0.0 120.4427,22.562324,0.0 120.442525,22.56158,0.0 120.442197,22.56066,0.0 120.441992,22.560068,0.0 120.441508,22.559064,0.0 120.441023,22.558035,0.0 120.440728,22.557621,0.0 120.441483,22.557572,0.0 120.442189,22.557542,0.0 120.442857,22.55752,0.0 120.443944,22.557465,0.0 120.445522,22.557441,0.0 120.446544,22.55742,0.0 120.447352,22.557427,0.0 120.447927,22.557472,0.0 120.448717,22.55752,0.0 120.449168,22.557569,0.0 120.449871,22.557716,0.0 120.450658,22.557782,0.0 120.452284,22.557902,0.0 120.452822,22.557933,0.0 120.453489,22.557974,0.0 120.453862,22.558115,0.0 120.454203,22.558372,0.0 120.45437,22.558602,0.0 120.454532,22.558727,0.0 120.45479,22.558816,0.0 120.454947,22.558844,0.0 120.455205,22.558797,0.0 120.455446,22.558703,0.0 120.455771,22.558736,0.0 120.456351,22.558948,0.0 120.456921,22.5592,0.0 120.457565,22.559453,0.0 120.458038,22.559552,0.0 120.458208,22.559582,0.0 120.458493,22.559605,0.0 120.458607,22.559615,0.0 120.458896,22.559645,0.0 120.459178,22.559659,0.0 120.459518,22.559663,0.0 120.459867,22.559678,0.0 120.460208,22.559692,0.0 120.460566,22.559712,0.0 120.460681,22.559721,0.0 120.460968,22.559733,0.0 120.461261,22.55975,0.0 120.461314,22.559748,0.0 120.461425,22.55976,0.0 120.461773,22.559813,0.0 120.463393,22.560267,0.0 120.465501,22.561907,0.0 120.466319,22.56323,0.0 120.468401,22.566757,0.0 120.469645,22.570784,0.0 120.469779,22.571774,0.0</coordinates></LinearRing></outerBoundaryIs></Polygon><styleUrl>#spolygon-map</styleUrl></Placemark><Placemark><Polygon><outerBoundaryIs><LinearRing><coordinates>120.466952,22.604799,0.0 120.46363,22.604793,0.0 120.462565,22.604789,0.0 120.461031,22.608239,0.0 120.440759,22.604927,0.0 120.441048,22.604693,0.0 120.44185,22.604053,0.0 120.442457,22.60357,0.0 120.443102,22.602935,0.0 120.443958,22.601897,0.0 120.444511,22.601165,0.0 120.445078,22.600352,0.0 120.445366,22.599773,0.0 120.445597,22.599261,0.0 120.445784,22.598833,0.0 120.445924,22.598271,0.0 120.445983,22.59801,0.0 120.446148,22.597058,0.0 120.447371,22.597287,0.0 120.44754,22.597383,0.0 120.447907,22.598271,0.0 120.447995,22.598375,0.0 120.448504,22.598377,0.0 120.448696,22.598317,0.0 120.448974,22.59823,0.0 120.449871,22.598251,0.0 120.45021,22.598568,0.0 120.452298,22.59876,0.0 120.452461,22.598802,0.0 120.45267,22.599035,0.0 120.452909,22.599234,0.0 120.453161,22.599389,0.0 120.453482,22.599627,0.0 120.453915,22.599714,0.0 120.455084,22.599817,0.0 120.455141,22.600039,0.0 120.455229,22.6001,0.0 120.456231,22.600126,0.0 120.45639,22.599894,0.0 120.456529,22.599779,0.0 120.456619,22.599739,0.0 120.456758,22.599735,0.0 120.460547,22.600296,0.0 120.462571,22.599226,0.0 120.463557,22.598932,0.0 120.464472,22.598704,0.0 120.466102,22.597823,0.0 120.469104,22.596266,0.0 120.469853,22.595988,0.0 120.470005,22.596573,0.0 120.47002,22.596781,0.0 120.469876,22.597368,0.0 120.469812,22.597521,0.0 120.469775,22.597661,0.0 120.469649,22.598191,0.0 120.46904,22.600323,0.0 120.466952,22.604799,0.0</coordinates></LinearRing></outerBoundaryIs></Polygon><styleUrl>#spolygon-map</styleUrl></Placemark><Placemark><Polygon><outerBoundaryIs><LinearRing><coordinates>120.469791,22.595866,0.0 120.466993,22.597345,0.0 120.464592,22.598646,0.0 120.464303,22.598742,0.0 120.462722,22.599164,0.0 120.460607,22.600279,0.0 120.460493,22.600301,0.0 120.45669,22.599728,0.0 120.456575,22.599759,0.0 120.456455,22.599842,0.0 120.456313,22.599984,0.0 120.456167,22.600185,0.0 120.455152,22.600086,0.0 120.455128,22.599876,0.0 120.455008,22.599804,0.0 120.453563,22.599659,0.0 120.453387,22.599559,0.0 120.452978,22.599282,0.0 120.452791,22.599153,0.0 120.452522,22.598856,0.0 120.452394,22.598765,0.0 120.45026,22.598586,0.0 120.449941,22.59828,0.0 120.449063,22.598217,0.0 120.448829,22.598259,0.0 120.448624,22.59835,0.0 120.448093,22.598394,0.0 120.447926,22.598323,0.0 120.447586,22.59746,0.0 120.44747,22.597317,0.0 120.446157,22.59706,0.0 120.446189,22.596782,0.0 120.446369,22.595843,0.0 120.446558,22.594796,0.0 120.446637,22.59425,0.0 120.446723,22.59356,0.0 120.451024,22.593972,0.0 120.452482,22.594191,0.0 120.453702,22.594489,0.0 120.454568,22.594679,0.0 120.455061,22.594765,0.0 120.455425,22.594775,0.0 120.456918,22.594678,0.0 120.459968,22.594488,0.0 120.460806,22.594384,0.0 120.461403,22.594172,0.0 120.461891,22.59407,0.0 120.462325,22.594152,0.0 120.462738,22.594278,0.0 120.463769,22.593938,0.0 120.475119,22.593341,0.0 120.473621,22.594524,0.0 120.47139,22.595537,0.0 120.469851,22.595837,0.0 120.469791,22.595866,0.0</coordinates></LinearRing></outerBoundaryIs></Polygon><styleUrl>#spolygon-map</styleUrl></Placemark></Document>
</kml>
