<?xml version="1.0" encoding="UTF-8"?>
<kml xmlns="http://www.opengis.net/kml/2.2">
	<Document>
		<name>彰化縣和美鎮</name>
		<Style id="spolygon">
			<LabelStyle>
				<scale>0.0</scale>
			</LabelStyle>
			<LineStyle>
				<color>330030ff</color>
				<width>0</width>
			</LineStyle>
			<PolyStyle>
				<color>330030ff</color>
			</PolyStyle>
		</Style>
		<StyleMap id="spolygon-map">
			<Pair>
				<key>normal</key>
				<styleUrl>#spolygon</styleUrl>
			</Pair>
		</StyleMap>
	<Placemark><Polygon><outerBoundaryIs><LinearRing><coordinates>120.515482,24.083005,0.0 120.514424,24.08333,0.0 120.513309,24.084072,0.0 120.512727,24.084549,0.0 120.512048,24.084565,0.0 120.511847,24.085248,0.0 120.511618,24.085463,0.0 120.509826,24.08538,0.0 120.507979,24.085272,0.0 120.506402,24.085442,0.0 120.504871,24.086348,0.0 120.50473,24.08718,0.0 120.504821,24.088099,0.0 120.504943,24.088952,0.0 120.504844,24.089067,0.0 120.504346,24.089066,0.0 120.503613,24.089082,0.0 120.502975,24.089211,0.0 120.502235,24.089497,0.0 120.501969,24.089541,0.0 120.501892,24.089425,0.0 120.501728,24.089469,0.0 120.501545,24.089424,0.0 120.501049,24.08966,0.0 120.501128,24.089287,0.0 120.502054,24.088744,0.0 120.502963,24.088543,0.0 120.503129,24.08846,0.0 120.502809,24.087912,0.0 120.502992,24.087382,0.0 120.503072,24.08635,0.0 120.502443,24.084611,0.0 120.500958,24.084043,0.0 120.499355,24.083696,0.0 120.498534,24.082357,0.0 120.498587,24.081608,0.0 120.498482,24.080968,0.0 120.498379,24.079756,0.0 120.497731,24.078493,0.0 120.49728,24.077848,0.0 120.497567,24.077666,0.0 120.497719,24.077777,0.0 120.497945,24.077787,0.0 120.498186,24.077783,0.0 120.498412,24.077702,0.0 120.498791,24.077405,0.0 120.499152,24.076966,0.0 120.499369,24.076653,0.0 120.499495,24.076553,0.0 120.499632,24.076418,0.0 120.499801,24.076357,0.0 120.499974,24.076555,0.0 120.500125,24.076806,0.0 120.500224,24.077066,0.0 120.500338,24.077384,0.0 120.500495,24.077923,0.0 120.500594,24.078173,0.0 120.500814,24.078309,0.0 120.501139,24.078397,0.0 120.501323,24.078431,0.0 120.501632,24.07849,0.0 120.501868,24.078582,0.0 120.502331,24.0788,0.0 120.502531,24.078801,0.0 120.502909,24.078788,0.0 120.503434,24.078746,0.0 120.50366,24.078651,0.0 120.503971,24.078435,0.0 120.504236,24.078334,0.0 120.504935,24.078317,0.0 120.50557,24.078291,0.0 120.506038,24.078571,0.0 120.506247,24.07863,0.0 120.506395,24.078572,0.0 120.506616,24.078434,0.0 120.506758,24.07829,0.0 120.507015,24.078261,0.0 120.507283,24.078161,0.0 120.507541,24.077974,0.0 120.507904,24.077894,0.0 120.508142,24.077731,0.0 120.508525,24.077724,0.0 120.509227,24.07783,0.0 120.509329,24.078392,0.0 120.509534,24.080214,0.0 120.509673,24.081502,0.0 120.510529,24.081472,0.0 120.511025,24.081412,0.0 120.511572,24.081332,0.0 120.512063,24.081313,0.0 120.51306,24.081314,0.0 120.513587,24.081292,0.0 120.513891,24.081199,0.0 120.514217,24.08105,0.0 120.514753,24.080837,0.0 120.515409,24.080639,0.0 120.516039,24.080491,0.0 120.516398,24.080427,0.0 120.516624,24.080351,0.0 120.516951,24.080016,0.0 120.517263,24.079755,0.0 120.517433,24.07973,0.0 120.517437,24.079872,0.0 120.517305,24.080024,0.0 120.517068,24.080501,0.0 120.516607,24.081324,0.0 120.516086,24.082112,0.0 120.515705,24.082692,0.0 120.515676,24.082784,0.0 120.515473,24.082953,0.0 120.515482,24.083005,0.0</coordinates></LinearRing></outerBoundaryIs></Polygon><styleUrl>#spolygon-map</styleUrl></Placemark><Placemark><Polygon><outerBoundaryIs><LinearRing><coordinates>120.501049,24.08966,0.0 120.500924,24.089955,0.0 120.50066,24.09006,0.0 120.500098,24.090058,0.0 120.499228,24.090214,0.0 120.498445,24.089939,0.0 120.497469,24.090224,0.0 120.497517,24.090693,0.0 120.497705,24.091356,0.0 120.497908,24.092129,0.0 120.498187,24.092539,0.0 120.498745,24.093695,0.0 120.498973,24.094517,0.0 120.499185,24.095237,0.0 120.498614,24.094879,0.0 120.497097,24.094389,0.0 120.49638,24.094038,0.0 120.495967,24.094052,0.0 120.494824,24.094413,0.0 120.493849,24.094668,0.0 120.493209,24.094397,0.0 120.492319,24.093917,0.0 120.491955,24.094082,0.0 120.491651,24.093907,0.0 120.490878,24.093087,0.0 120.490491,24.092941,0.0 120.489804,24.09331,0.0 120.488441,24.094372,0.0 120.48859,24.094225,0.0 120.488657,24.094051,0.0 120.488596,24.093999,0.0 120.488392,24.093966,0.0 120.488221,24.093902,0.0 120.488018,24.093788,0.0 120.487905,24.093683,0.0 120.487842,24.093501,0.0 120.487832,24.093335,0.0 120.487883,24.093067,0.0 120.487925,24.09289,0.0 120.48792,24.092705,0.0 120.487904,24.092624,0.0 120.487976,24.092584,0.0 120.488183,24.092593,0.0 120.488409,24.092586,0.0 120.488492,24.092488,0.0 120.488545,24.092321,0.0 120.488557,24.092136,0.0 120.488657,24.09195,0.0 120.488667,24.09185,0.0 120.488631,24.091761,0.0 120.488494,24.091662,0.0 120.488442,24.091543,0.0 120.488434,24.091411,0.0 120.488454,24.091249,0.0 120.488491,24.091058,0.0 120.488535,24.090899,0.0 120.488655,24.090762,0.0 120.488751,24.09075,0.0 120.488936,24.090766,0.0 120.489267,24.090754,0.0 120.489562,24.090748,0.0 120.489853,24.090726,0.0 120.490215,24.090623,0.0 120.490536,24.090432,0.0 120.490835,24.090191,0.0 120.491074,24.089929,0.0 120.491185,24.089717,0.0 120.491272,24.089421,0.0 120.491297,24.08925,0.0 120.491246,24.088946,0.0 120.491164,24.088789,0.0 120.491024,24.088561,0.0 120.490839,24.088346,0.0 120.490638,24.088168,0.0 120.4905,24.088092,0.0 120.490308,24.088013,0.0 120.48995,24.087867,0.0 120.489685,24.087707,0.0 120.489614,24.087568,0.0 120.48959,24.087381,0.0 120.48958,24.087085,0.0 120.489595,24.086789,0.0 120.489655,24.086377,0.0 120.489684,24.085952,0.0 120.489663,24.085788,0.0 120.489602,24.085659,0.0 120.489492,24.08554,0.0 120.489369,24.085206,0.0 120.489304,24.085026,0.0 120.48928,24.08472,0.0 120.4893,24.084472,0.0 120.489315,24.084217,0.0 120.489291,24.083974,0.0 120.489201,24.083704,0.0 120.489067,24.083455,0.0 120.488982,24.083275,0.0 120.488771,24.082885,0.0 120.488639,24.082617,0.0 120.488517,24.082288,0.0 120.488438,24.08204,0.0 120.488433,24.081861,0.0 120.488437,24.08161,0.0 120.488501,24.081352,0.0 120.488521,24.08114,0.0 120.488611,24.080885,0.0 120.488749,24.080749,0.0 120.488957,24.080467,0.0 120.489015,24.080371,0.0 120.489202,24.08019,0.0 120.489368,24.079963,0.0 120.48967,24.0796,0.0 120.489954,24.079227,0.0 120.490065,24.07906,0.0 120.490264,24.078859,0.0 120.4904,24.078776,0.0 120.490615,24.078721,0.0 120.490789,24.078703,0.0 120.490899,24.078701,0.0 120.491054,24.078666,0.0 120.491279,24.078634,0.0 120.49145,24.078579,0.0 120.491663,24.078506,0.0 120.491796,24.078428,0.0 120.492112,24.078213,0.0 120.492286,24.078013,0.0 120.492552,24.077726,0.0 120.492652,24.07757,0.0 120.492722,24.077416,0.0 120.49275,24.077236,0.0 120.493161,24.077155,0.0 120.493445,24.077103,0.0 120.493755,24.07708,0.0 120.494143,24.077066,0.0 120.494532,24.077087,0.0 120.49492,24.077136,0.0 120.495313,24.07721,0.0 120.495696,24.077283,0.0 120.496093,24.077348,0.0 120.496466,24.077383,0.0 120.496849,24.077432,0.0 120.497095,24.077462,0.0 120.497253,24.077482,0.0 120.49728,24.077848,0.0 120.497731,24.078493,0.0 120.498379,24.079756,0.0 120.498482,24.080968,0.0 120.498587,24.081608,0.0 120.498534,24.082357,0.0 120.499355,24.083696,0.0 120.500958,24.084043,0.0 120.502443,24.084611,0.0 120.503072,24.08635,0.0 120.502992,24.087382,0.0 120.502809,24.087912,0.0 120.503129,24.08846,0.0 120.502963,24.088543,0.0 120.502054,24.088744,0.0 120.501128,24.089287,0.0 120.501049,24.08966,0.0</coordinates></LinearRing></outerBoundaryIs></Polygon><styleUrl>#spolygon-map</styleUrl></Placemark><Placemark><Polygon><outerBoundaryIs><LinearRing><coordinates>120.508974,24.093544,0.0 120.50824,24.093548,0.0 120.507881,24.093744,0.0 120.507335,24.094121,0.0 120.506626,24.094156,0.0 120.501333,24.095263,0.0 120.499257,24.095711,0.0 120.499185,24.095237,0.0 120.498973,24.094517,0.0 120.498745,24.093695,0.0 120.498187,24.092539,0.0 120.497908,24.092129,0.0 120.497705,24.091356,0.0 120.497517,24.090693,0.0 120.497469,24.090224,0.0 120.498445,24.089939,0.0 120.499228,24.090214,0.0 120.500098,24.090058,0.0 120.50066,24.09006,0.0 120.500924,24.089955,0.0 120.501049,24.08966,0.0 120.501545,24.089424,0.0 120.501728,24.089469,0.0 120.501892,24.089425,0.0 120.501969,24.089541,0.0 120.502235,24.089497,0.0 120.502975,24.089211,0.0 120.503613,24.089082,0.0 120.504346,24.089066,0.0 120.504844,24.089067,0.0 120.504943,24.088952,0.0 120.504821,24.088099,0.0 120.50473,24.08718,0.0 120.504871,24.086348,0.0 120.506402,24.085442,0.0 120.507979,24.085272,0.0 120.509826,24.08538,0.0 120.511618,24.085463,0.0 120.511847,24.085248,0.0 120.512048,24.084565,0.0 120.512727,24.084549,0.0 120.513309,24.084072,0.0 120.514424,24.08333,0.0 120.515482,24.083005,0.0 120.515483,24.083178,0.0 120.515313,24.083514,0.0 120.515151,24.083852,0.0 120.514945,24.084142,0.0 120.514747,24.084266,0.0 120.51463,24.084332,0.0 120.514529,24.084334,0.0 120.514067,24.084597,0.0 120.513859,24.084708,0.0 120.513574,24.084957,0.0 120.513354,24.085158,0.0 120.513226,24.085346,0.0 120.512946,24.085603,0.0 120.512802,24.085834,0.0 120.512738,24.086027,0.0 120.512754,24.08621,0.0 120.512824,24.086279,0.0 120.512656,24.086389,0.0 120.511547,24.087816,0.0 120.510386,24.090084,0.0 120.509409,24.09227,0.0 120.508974,24.093544,0.0</coordinates></LinearRing></outerBoundaryIs></Polygon><styleUrl>#spolygon-map</styleUrl></Placemark><Placemark><Polygon><outerBoundaryIs><LinearRing><coordinates>120.523022,24.084817,0.0 120.522827,24.085035,0.0 120.522636,24.085359,0.0 120.522578,24.086728,0.0 120.52253,24.087281,0.0 120.52294,24.088119,0.0 120.52295,24.089049,0.0 120.522797,24.08971,0.0 120.522848,24.090032,0.0 120.522618,24.090242,0.0 120.521948,24.091758,0.0 120.521742,24.09254,0.0 120.521761,24.092763,0.0 120.521384,24.093588,0.0 120.5212,24.093828,0.0 120.520742,24.094811,0.0 120.52035,24.0956,0.0 120.519752,24.095942,0.0 120.519509,24.096145,0.0 120.519257,24.096734,0.0 120.519197,24.097113,0.0 120.518979,24.097431,0.0 120.518793,24.097896,0.0 120.518498,24.098054,0.0 120.516842,24.098011,0.0 120.514879,24.097933,0.0 120.512467,24.097854,0.0 120.511593,24.097813,0.0 120.510681,24.097682,0.0 120.509309,24.097564,0.0 120.508271,24.097539,0.0 120.507835,24.097505,0.0 120.508003,24.095883,0.0 120.508788,24.094013,0.0 120.50917,24.093049,0.0 120.510005,24.090991,0.0 120.51132,24.088192,0.0 120.512399,24.086761,0.0 120.512864,24.086297,0.0 120.512971,24.086339,0.0 120.513255,24.086365,0.0 120.514231,24.086384,0.0 120.514945,24.08639,0.0 120.515297,24.086357,0.0 120.51553,24.086311,0.0 120.515718,24.08621,0.0 120.516034,24.085905,0.0 120.516516,24.085453,0.0 120.516768,24.085246,0.0 120.516931,24.085055,0.0 120.517067,24.084865,0.0 120.517261,24.08465,0.0 120.517448,24.084483,0.0 120.517682,24.084338,0.0 120.518112,24.083984,0.0 120.518355,24.083795,0.0 120.51865,24.083719,0.0 120.519067,24.083696,0.0 120.519396,24.083738,0.0 120.520324,24.083832,0.0 120.521033,24.083888,0.0 120.521724,24.083919,0.0 120.522108,24.083997,0.0 120.522549,24.084292,0.0 120.523022,24.084817,0.0</coordinates></LinearRing></outerBoundaryIs></Polygon><styleUrl>#spolygon-map</styleUrl></Placemark><Placemark><Polygon><outerBoundaryIs><LinearRing><coordinates>120.527664,24.097455,0.0 120.527429,24.097411,0.0 120.527017,24.097417,0.0 120.526382,24.097706,0.0 120.526046,24.097944,0.0 120.52547,24.0983,0.0 120.524689,24.098338,0.0 120.524173,24.098418,0.0 120.523002,24.098426,0.0 120.520731,24.098458,0.0 120.519924,24.09845,0.0 120.519382,24.098392,0.0 120.518711,24.098306,0.0 120.518575,24.098239,0.0 120.51867,24.098009,0.0 120.518893,24.097663,0.0 120.519085,24.097227,0.0 120.519224,24.096878,0.0 120.51933,24.096602,0.0 120.519608,24.096019,0.0 120.519956,24.095834,0.0 120.520484,24.095466,0.0 120.521072,24.09415,0.0 120.521285,24.093672,0.0 120.521655,24.092997,0.0 120.521781,24.092606,0.0 120.521736,24.092432,0.0 120.522472,24.090476,0.0 120.522775,24.09014,0.0 120.522835,24.089906,0.0 120.52281,24.0895,0.0 120.523017,24.088628,0.0 120.522608,24.08751,0.0 120.522544,24.087035,0.0 120.522614,24.085919,0.0 120.522676,24.085209,0.0 120.522978,24.084903,0.0 120.523263,24.085053,0.0 120.523673,24.085473,0.0 120.523964,24.085705,0.0 120.524169,24.085889,0.0 120.524302,24.085996,0.0 120.524422,24.086137,0.0 120.524495,24.086298,0.0 120.524545,24.086481,0.0 120.524642,24.086937,0.0 120.524689,24.087389,0.0 120.524755,24.08783,0.0 120.524816,24.088051,0.0 120.525106,24.088658,0.0 120.525272,24.089072,0.0 120.525383,24.089272,0.0 120.525455,24.089574,0.0 120.525471,24.089961,0.0 120.52549,24.090057,0.0 120.525538,24.090128,0.0 120.525672,24.090201,0.0 120.525977,24.090216,0.0 120.526239,24.090235,0.0 120.526572,24.090276,0.0 120.526987,24.090324,0.0 120.527336,24.090377,0.0 120.52761,24.090398,0.0 120.528081,24.090442,0.0 120.528529,24.090472,0.0 120.52885,24.090507,0.0 120.529257,24.090543,0.0 120.529648,24.090562,0.0 120.529973,24.090571,0.0 120.53033,24.090568,0.0 120.53082,24.090564,0.0 120.531593,24.090538,0.0 120.532219,24.090521,0.0 120.532827,24.090525,0.0 120.532934,24.090876,0.0 120.532912,24.091593,0.0 120.533144,24.091702,0.0 120.533471,24.091696,0.0 120.533791,24.091704,0.0 120.533994,24.091691,0.0 120.53418,24.091681,0.0 120.53434,24.091667,0.0 120.534658,24.091651,0.0 120.535193,24.091628,0.0 120.535179,24.091941,0.0 120.535158,24.09249,0.0 120.535122,24.093155,0.0 120.534178,24.093321,0.0 120.532771,24.093327,0.0 120.531807,24.093516,0.0 120.530978,24.094109,0.0 120.529887,24.094948,0.0 120.529046,24.095487,0.0 120.528197,24.096278,0.0 120.527908,24.096853,0.0 120.527664,24.097455,0.0</coordinates></LinearRing></outerBoundaryIs></Polygon><styleUrl>#spolygon-map</styleUrl></Placemark><Placemark><Polygon><outerBoundaryIs><LinearRing><coordinates>120.541129,24.098911,0.0 120.540162,24.098695,0.0 120.53931,24.098565,0.0 120.537089,24.098746,0.0 120.535029,24.099131,0.0 120.532156,24.100016,0.0 120.529105,24.100952,0.0 120.526117,24.101826,0.0 120.525804,24.101317,0.0 120.525654,24.10094,0.0 120.525772,24.10055,0.0 120.526397,24.099953,0.0 120.526833,24.099259,0.0 120.527469,24.097979,0.0 120.52775,24.097251,0.0 120.528036,24.096455,0.0 120.528691,24.095822,0.0 120.529427,24.095217,0.0 120.530274,24.094661,0.0 120.531608,24.093611,0.0 120.532205,24.093421,0.0 120.533404,24.093328,0.0 120.534692,24.093294,0.0 120.535505,24.093189,0.0 120.53615,24.093246,0.0 120.536455,24.093269,0.0 120.536704,24.093293,0.0 120.536846,24.0932,0.0 120.536936,24.092789,0.0 120.537311,24.092842,0.0 120.537552,24.092878,0.0 120.537749,24.092951,0.0 120.537873,24.093051,0.0 120.538095,24.093407,0.0 120.538901,24.093758,0.0 120.54003,24.094283,0.0 120.540229,24.094371,0.0 120.540615,24.094134,0.0 120.541067,24.094568,0.0 120.541293,24.094745,0.0 120.541507,24.094828,0.0 120.541838,24.095,0.0 120.541897,24.095187,0.0 120.541686,24.095876,0.0 120.541359,24.096795,0.0 120.541302,24.096962,0.0 120.541223,24.097322,0.0 120.541133,24.097637,0.0 120.54111,24.097736,0.0 120.54112,24.097845,0.0 120.541172,24.098147,0.0 120.541183,24.098335,0.0 120.541192,24.098419,0.0 120.541188,24.09856,0.0 120.541141,24.098801,0.0 120.541129,24.098911,0.0</coordinates></LinearRing></outerBoundaryIs></Polygon><styleUrl>#spolygon-map</styleUrl></Placemark><Placemark><Polygon><outerBoundaryIs><LinearRing><coordinates>120.499257,24.095711,0.0 120.499675,24.097347,0.0 120.50016,24.099276,0.0 120.500681,24.101555,0.0 120.500765,24.102829,0.0 120.49975,24.10228,0.0 120.4966,24.101331,0.0 120.495198,24.101037,0.0 120.492304,24.101403,0.0 120.490687,24.101661,0.0 120.488465,24.102009,0.0 120.4877,24.102387,0.0 120.487158,24.101952,0.0 120.486446,24.100018,0.0 120.485662,24.098064,0.0 120.48564,24.097889,0.0 120.485792,24.097859,0.0 120.485915,24.097797,0.0 120.486093,24.097464,0.0 120.486177,24.09716,0.0 120.486216,24.0969,0.0 120.486322,24.096575,0.0 120.486351,24.096231,0.0 120.486424,24.095992,0.0 120.486566,24.095759,0.0 120.486641,24.095481,0.0 120.486628,24.095309,0.0 120.486533,24.095059,0.0 120.486506,24.09491,0.0 120.486595,24.094779,0.0 120.486934,24.094656,0.0 120.486978,24.094664,0.0 120.487115,24.09472,0.0 120.487316,24.094771,0.0 120.487503,24.094772,0.0 120.487705,24.09476,0.0 120.487862,24.094727,0.0 120.48802,24.094659,0.0 120.488195,24.094528,0.0 120.489282,24.093763,0.0 120.490226,24.093024,0.0 120.490705,24.09298,0.0 120.491215,24.093474,0.0 120.491848,24.094052,0.0 120.492063,24.094,0.0 120.492698,24.094115,0.0 120.493676,24.094599,0.0 120.494014,24.094661,0.0 120.495595,24.094187,0.0 120.496157,24.094022,0.0 120.496536,24.094114,0.0 120.497979,24.094695,0.0 120.49888,24.094994,0.0 120.499245,24.09566,0.0 120.499257,24.095711,0.0</coordinates></LinearRing></outerBoundaryIs></Polygon><styleUrl>#spolygon-map</styleUrl></Placemark><Placemark><Polygon><outerBoundaryIs><LinearRing><coordinates>120.505793,24.102966,0.0 120.505181,24.103619,0.0 120.504486,24.104091,0.0 120.503605,24.104109,0.0 120.502866,24.104337,0.0 120.502194,24.104362,0.0 120.501798,24.104053,0.0 120.501309,24.103285,0.0 120.500834,24.102872,0.0 120.500742,24.102564,0.0 120.500553,24.100925,0.0 120.499867,24.098271,0.0 120.499471,24.096606,0.0 120.500377,24.09545,0.0 120.503997,24.094718,0.0 120.506824,24.094112,0.0 120.507591,24.094122,0.0 120.507984,24.093638,0.0 120.508603,24.093541,0.0 120.508788,24.094013,0.0 120.508003,24.095883,0.0 120.507835,24.097505,0.0 120.507877,24.098231,0.0 120.507973,24.100016,0.0 120.50772,24.100672,0.0 120.506806,24.101815,0.0 120.505793,24.102966,0.0</coordinates></LinearRing></outerBoundaryIs></Polygon><styleUrl>#spolygon-map</styleUrl></Placemark><Placemark><Polygon><outerBoundaryIs><LinearRing><coordinates>120.525966,24.104458,0.0 120.525125,24.105572,0.0 120.524469,24.106094,0.0 120.523864,24.10632,0.0 120.523168,24.106273,0.0 120.522916,24.106091,0.0 120.52242,24.106052,0.0 120.522163,24.10593,0.0 120.521974,24.105511,0.0 120.521627,24.105427,0.0 120.520385,24.105483,0.0 120.519776,24.105526,0.0 120.519544,24.105404,0.0 120.519446,24.105031,0.0 120.519223,24.104947,0.0 120.518635,24.105082,0.0 120.517376,24.105131,0.0 120.516297,24.105043,0.0 120.516049,24.104875,0.0 120.51591,24.104525,0.0 120.516147,24.103012,0.0 120.516133,24.102341,0.0 120.515936,24.101953,0.0 120.515775,24.101823,0.0 120.515122,24.101624,0.0 120.513457,24.101626,0.0 120.511494,24.101893,0.0 120.509551,24.102496,0.0 120.50882,24.103071,0.0 120.508458,24.103359,0.0 120.508011,24.103365,0.0 120.507746,24.103364,0.0 120.50753,24.103455,0.0 120.50714,24.103765,0.0 120.506776,24.103756,0.0 120.50614,24.103359,0.0 120.505793,24.102966,0.0 120.506806,24.101815,0.0 120.50772,24.100672,0.0 120.507973,24.100016,0.0 120.507877,24.098231,0.0 120.508271,24.097539,0.0 120.509309,24.097564,0.0 120.510681,24.097682,0.0 120.511593,24.097813,0.0 120.512467,24.097854,0.0 120.514879,24.097933,0.0 120.516842,24.098011,0.0 120.518498,24.098054,0.0 120.518621,24.098292,0.0 120.519005,24.098325,0.0 120.519635,24.098433,0.0 120.520385,24.098473,0.0 120.521868,24.098419,0.0 120.524062,24.098417,0.0 120.524364,24.098371,0.0 120.525109,24.098312,0.0 120.525676,24.098206,0.0 120.526197,24.097834,0.0 120.526508,24.097578,0.0 120.527208,24.097397,0.0 120.527518,24.097425,0.0 120.527469,24.097979,0.0 120.526833,24.099259,0.0 120.526397,24.099953,0.0 120.525772,24.10055,0.0 120.525654,24.10094,0.0 120.525804,24.101317,0.0 120.526117,24.101826,0.0 120.526224,24.102593,0.0 120.525977,24.103261,0.0 120.525962,24.104239,0.0 120.525966,24.104458,0.0</coordinates></LinearRing></outerBoundaryIs></Polygon><styleUrl>#spolygon-map</styleUrl></Placemark><Placemark><Polygon><outerBoundaryIs><LinearRing><coordinates>120.526689,24.109959,0.0 120.525987,24.110168,0.0 120.526163,24.109495,0.0 120.526501,24.108442,0.0 120.526779,24.10777,0.0 120.527463,24.106856,0.0 120.527701,24.106454,0.0 120.527596,24.106298,0.0 120.527256,24.106267,0.0 120.526096,24.106522,0.0 120.525841,24.106443,0.0 120.525706,24.10619,0.0 120.52577,24.105657,0.0 120.525972,24.104744,0.0 120.525962,24.104239,0.0 120.525977,24.103261,0.0 120.526224,24.102593,0.0 120.526117,24.101826,0.0 120.529105,24.100952,0.0 120.532156,24.100016,0.0 120.535029,24.099131,0.0 120.537089,24.098746,0.0 120.53931,24.098565,0.0 120.540162,24.098695,0.0 120.541129,24.098911,0.0 120.541143,24.099038,0.0 120.541156,24.099244,0.0 120.541153,24.099464,0.0 120.541164,24.0997,0.0 120.541182,24.099785,0.0 120.541274,24.099951,0.0 120.541285,24.100056,0.0 120.541303,24.100121,0.0 120.541372,24.100151,0.0 120.541433,24.100162,0.0 120.541508,24.100189,0.0 120.541551,24.100219,0.0 120.541569,24.100359,0.0 120.541604,24.10063,0.0 120.541639,24.100903,0.0 120.54168,24.10094,0.0 120.541189,24.101218,0.0 120.539996,24.101808,0.0 120.539559,24.102232,0.0 120.53891,24.102884,0.0 120.538072,24.103621,0.0 120.53746,24.10376,0.0 120.536521,24.103998,0.0 120.536154,24.104307,0.0 120.535501,24.104494,0.0 120.534648,24.104769,0.0 120.533379,24.105548,0.0 120.53211,24.106224,0.0 120.530959,24.107256,0.0 120.52932,24.108837,0.0 120.528854,24.109414,0.0 120.528356,24.109688,0.0 120.527216,24.109867,0.0 120.526689,24.109959,0.0</coordinates></LinearRing></outerBoundaryIs></Polygon><styleUrl>#spolygon-map</styleUrl></Placemark><Placemark><Polygon><outerBoundaryIs><LinearRing><coordinates>120.502194,24.104362,0.0 120.501419,24.1063,0.0 120.50082,24.107597,0.0 120.500427,24.107702,0.0 120.499232,24.107923,0.0 120.499282,24.10825,0.0 120.499169,24.108609,0.0 120.498506,24.109358,0.0 120.497963,24.109649,0.0 120.497348,24.109745,0.0 120.4969,24.109951,0.0 120.496255,24.110372,0.0 120.495507,24.109335,0.0 120.494072,24.107477,0.0 120.492942,24.105787,0.0 120.491635,24.103048,0.0 120.492304,24.101403,0.0 120.495198,24.101037,0.0 120.4966,24.101331,0.0 120.49975,24.10228,0.0 120.500765,24.102829,0.0 120.501087,24.103037,0.0 120.501577,24.10372,0.0 120.502011,24.104284,0.0 120.502194,24.104362,0.0</coordinates></LinearRing></outerBoundaryIs></Polygon><styleUrl>#spolygon-map</styleUrl></Placemark><Placemark><Polygon><outerBoundaryIs><LinearRing><coordinates>120.534751,24.109031,0.0 120.534,24.1098,0.0 120.532985,24.110213,0.0 120.530664,24.11094,0.0 120.52984,24.111177,0.0 120.529482,24.111061,0.0 120.529467,24.110724,0.0 120.529303,24.109897,0.0 120.529109,24.109099,0.0 120.530195,24.107979,0.0 120.531627,24.106647,0.0 120.532599,24.105916,0.0 120.53414,24.105077,0.0 120.53513,24.104588,0.0 120.535864,24.104611,0.0 120.536455,24.104781,0.0 120.536561,24.105662,0.0 120.535836,24.107469,0.0 120.534751,24.109031,0.0</coordinates></LinearRing></outerBoundaryIs></Polygon><styleUrl>#spolygon-map</styleUrl></Placemark><Placemark><Polygon><outerBoundaryIs><LinearRing><coordinates>120.496238,24.110385,0.0 120.495549,24.110685,0.0 120.495135,24.110804,0.0 120.494912,24.11072,0.0 120.494443,24.110355,0.0 120.494103,24.110612,0.0 120.494015,24.111044,0.0 120.493487,24.110928,0.0 120.492628,24.110691,0.0 120.492265,24.110667,0.0 120.491594,24.110293,0.0 120.48962,24.109411,0.0 120.489019,24.109323,0.0 120.488664,24.109279,0.0 120.487771,24.108988,0.0 120.487586,24.108715,0.0 120.487133,24.108077,0.0 120.486971,24.108007,0.0 120.485518,24.108531,0.0 120.485099,24.108631,0.0 120.484742,24.107878,0.0 120.484217,24.106808,0.0 120.483811,24.106524,0.0 120.483497,24.106131,0.0 120.483677,24.106057,0.0 120.48409,24.105947,0.0 120.484358,24.105804,0.0 120.485354,24.104626,0.0 120.486564,24.103199,0.0 120.487117,24.10279,0.0 120.4877,24.102387,0.0 120.488465,24.102009,0.0 120.490687,24.101661,0.0 120.491635,24.103048,0.0 120.492942,24.105787,0.0 120.494072,24.107477,0.0 120.495507,24.109335,0.0 120.496255,24.110372,0.0 120.496238,24.110385,0.0</coordinates></LinearRing></outerBoundaryIs></Polygon><styleUrl>#spolygon-map</styleUrl></Placemark><Placemark><Polygon><outerBoundaryIs><LinearRing><coordinates>120.507608,24.110768,0.0 120.506688,24.110811,0.0 120.503477,24.110997,0.0 120.501706,24.111091,0.0 120.501487,24.111443,0.0 120.501137,24.1129,0.0 120.500123,24.11272,0.0 120.498831,24.112476,0.0 120.498286,24.112317,0.0 120.497816,24.111837,0.0 120.496671,24.111185,0.0 120.496238,24.110385,0.0 120.496493,24.110178,0.0 120.497214,24.109816,0.0 120.497616,24.10972,0.0 120.498237,24.109543,0.0 120.498825,24.109012,0.0 120.499281,24.108432,0.0 120.499209,24.108012,0.0 120.499833,24.10779,0.0 120.500681,24.107677,0.0 120.501005,24.107335,0.0 120.501829,24.105218,0.0 120.502445,24.104356,0.0 120.503132,24.104216,0.0 120.504106,24.104104,0.0 120.504877,24.103943,0.0 120.505751,24.103012,0.0 120.505884,24.103039,0.0 120.506627,24.103665,0.0 120.506999,24.103757,0.0 120.507397,24.103576,0.0 120.507663,24.103379,0.0 120.507916,24.103365,0.0 120.508182,24.10463,0.0 120.508165,24.105936,0.0 120.507785,24.106555,0.0 120.507184,24.106769,0.0 120.50656,24.106832,0.0 120.506336,24.107036,0.0 120.50652,24.107911,0.0 120.506566,24.108289,0.0 120.50626,24.108407,0.0 120.506282,24.108677,0.0 120.506838,24.109384,0.0 120.507099,24.109943,0.0 120.507563,24.110538,0.0 120.507608,24.110768,0.0</coordinates></LinearRing></outerBoundaryIs></Polygon><styleUrl>#spolygon-map</styleUrl></Placemark><Placemark><Polygon><outerBoundaryIs><LinearRing><coordinates>120.497816,24.111837,0.0 120.497001,24.112048,0.0 120.495958,24.113242,0.0 120.49566,24.112351,0.0 120.496613,24.111276,0.0 120.497504,24.110951,0.0 120.497816,24.111837,0.0</coordinates></LinearRing></outerBoundaryIs></Polygon><styleUrl>#spolygon-map</styleUrl></Placemark><Placemark><Polygon><outerBoundaryIs><LinearRing><coordinates>120.486548,24.113337,0.0 120.485834,24.113456,0.0 120.485452,24.113353,0.0 120.484689,24.11256,0.0 120.484157,24.112551,0.0 120.483907,24.112557,0.0 120.483651,24.112333,0.0 120.483372,24.112292,0.0 120.482916,24.112371,0.0 120.482636,24.112586,0.0 120.481752,24.113055,0.0 120.481094,24.113425,0.0 120.480786,24.11319,0.0 120.480459,24.1126,0.0 120.480448,24.11253,0.0 120.480606,24.112282,0.0 120.480775,24.111883,0.0 120.480819,24.111692,0.0 120.480815,24.111573,0.0 120.480545,24.111352,0.0 120.479989,24.110961,0.0 120.479496,24.110688,0.0 120.479252,24.110584,0.0 120.479076,24.110557,0.0 120.478874,24.110549,0.0 120.478786,24.110472,0.0 120.478718,24.110251,0.0 120.47864,24.109788,0.0 120.478643,24.1096,0.0 120.478702,24.109366,0.0 120.478725,24.109149,0.0 120.478711,24.10884,0.0 120.478659,24.108551,0.0 120.478656,24.108323,0.0 120.478661,24.108148,0.0 120.478726,24.10798,0.0 120.478911,24.107676,0.0 120.479167,24.107502,0.0 120.479233,24.107425,0.0 120.479252,24.107335,0.0 120.479176,24.107209,0.0 120.479062,24.107152,0.0 120.478695,24.10714,0.0 120.47852,24.107087,0.0 120.478387,24.106964,0.0 120.478338,24.106778,0.0 120.478396,24.106589,0.0 120.478558,24.106226,0.0 120.47867,24.106038,0.0 120.478701,24.105905,0.0 120.478637,24.105804,0.0 120.478522,24.105775,0.0 120.478233,24.105787,0.0 120.478058,24.105772,0.0 120.477959,24.105642,0.0 120.477925,24.105495,0.0 120.477933,24.105317,0.0 120.478071,24.105191,0.0 120.478236,24.105118,0.0 120.478532,24.105132,0.0 120.478723,24.105098,0.0 120.478926,24.105046,0.0 120.479167,24.104896,0.0 120.479191,24.104777,0.0 120.479157,24.104627,0.0 120.479104,24.104462,0.0 120.479081,24.104372,0.0 120.478998,24.104207,0.0 120.478983,24.104095,0.0 120.479026,24.103983,0.0 120.478946,24.10387,0.0 120.478813,24.103765,0.0 120.478767,24.103681,0.0 120.47876,24.103509,0.0 120.478837,24.103345,0.0 120.478929,24.103275,0.0 120.479044,24.103268,0.0 120.479253,24.103392,0.0 120.479505,24.103505,0.0 120.479749,24.103572,0.0 120.480012,24.103622,0.0 120.480219,24.103598,0.0 120.480368,24.10349,0.0 120.48037,24.103313,0.0 120.480329,24.103138,0.0 120.480204,24.102892,0.0 120.480105,24.102741,0.0 120.47985,24.102561,0.0 120.479652,24.102379,0.0 120.4795,24.102315,0.0 120.479331,24.102339,0.0 120.47927,24.102433,0.0 120.479257,24.102822,0.0 120.479233,24.102955,0.0 120.479145,24.103056,0.0 120.478954,24.103108,0.0 120.478768,24.103161,0.0 120.478604,24.103167,0.0 120.478413,24.103093,0.0 120.478128,24.102934,0.0 120.477971,24.102906,0.0 120.477757,24.10293,0.0 120.477589,24.102933,0.0 120.477475,24.102876,0.0 120.477422,24.102652,0.0 120.477389,24.102458,0.0 120.477385,24.102328,0.0 120.477446,24.102226,0.0 120.477542,24.102045,0.0 120.477708,24.101709,0.0 120.477955,24.101308,0.0 120.47802,24.101164,0.0 120.478174,24.100927,0.0 120.4784,24.100644,0.0 120.478611,24.100445,0.0 120.478642,24.100371,0.0 120.478589,24.100196,0.0 120.478563,24.100025,0.0 120.478587,24.099874,0.0 120.478667,24.099783,0.0 120.478947,24.099686,0.0 120.479417,24.09953,0.0 120.479771,24.099351,0.0 120.479997,24.099209,0.0 120.480177,24.099052,0.0 120.480419,24.098846,0.0 120.480587,24.098745,0.0 120.480801,24.098707,0.0 120.481148,24.098838,0.0 120.481331,24.09894,0.0 120.481554,24.099046,0.0 120.481734,24.099082,0.0 120.482024,24.099097,0.0 120.482233,24.099057,0.0 120.482448,24.099022,0.0 120.482605,24.098952,0.0 120.482754,24.098931,0.0 120.482903,24.098964,0.0 120.483142,24.099028,0.0 120.483369,24.099035,0.0 120.483771,24.099059,0.0 120.483972,24.099062,0.0 120.484158,24.099049,0.0 120.484335,24.099016,0.0 120.484506,24.098913,0.0 120.484656,24.098769,0.0 120.484763,24.098587,0.0 120.484868,24.098328,0.0 120.484875,24.098081,0.0 120.484802,24.097848,0.0 120.48478,24.097706,0.0 120.484952,24.09758,0.0 120.485181,24.097444,0.0 120.485311,24.097475,0.0 120.485431,24.097637,0.0 120.485472,24.097782,0.0 120.485549,24.097891,0.0 120.486113,24.099205,0.0 120.48679,24.101011,0.0 120.487387,24.102603,0.0 120.486698,24.103061,0.0 120.485914,24.103978,0.0 120.484644,24.105474,0.0 120.484184,24.105899,0.0 120.483951,24.105994,0.0 120.483486,24.106057,0.0 120.483578,24.10626,0.0 120.484031,24.106685,0.0 120.48439,24.107038,0.0 120.485024,24.10854,0.0 120.485198,24.108605,0.0 120.486203,24.108287,0.0 120.487046,24.107997,0.0 120.487378,24.108395,0.0 120.487684,24.108902,0.0 120.488119,24.109074,0.0 120.48885,24.109317,0.0 120.489344,24.10934,0.0 120.490206,24.109632,0.0 120.492033,24.110525,0.0 120.492032,24.110931,0.0 120.491589,24.11197,0.0 120.491413,24.112561,0.0 120.489955,24.112739,0.0 120.489004,24.112865,0.0 120.488401,24.112924,0.0 120.487602,24.113119,0.0 120.486548,24.113337,0.0</coordinates></LinearRing></outerBoundaryIs></Polygon><styleUrl>#spolygon-map</styleUrl></Placemark><Placemark><Polygon><outerBoundaryIs><LinearRing><coordinates>120.494983,24.116434,0.0 120.49432,24.117268,0.0 120.494063,24.11735,0.0 120.493412,24.116817,0.0 120.492448,24.115713,0.0 120.491979,24.114897,0.0 120.490623,24.115619,0.0 120.489584,24.116021,0.0 120.489389,24.115036,0.0 120.488772,24.115061,0.0 120.487919,24.115072,0.0 120.487306,24.114912,0.0 120.486889,24.114452,0.0 120.486548,24.113337,0.0 120.488029,24.113006,0.0 120.488789,24.112917,0.0 120.489344,24.112783,0.0 120.490691,24.112651,0.0 120.49143,24.112523,0.0 120.491799,24.111378,0.0 120.492265,24.110667,0.0 120.492628,24.110691,0.0 120.493487,24.110928,0.0 120.494015,24.111044,0.0 120.494103,24.110612,0.0 120.494443,24.110355,0.0 120.494912,24.11072,0.0 120.495135,24.110804,0.0 120.495549,24.110685,0.0 120.496238,24.110385,0.0 120.496671,24.111185,0.0 120.496102,24.111834,0.0 120.495718,24.112488,0.0 120.496055,24.113545,0.0 120.496425,24.114652,0.0 120.495512,24.115804,0.0 120.494983,24.116434,0.0</coordinates></LinearRing></outerBoundaryIs></Polygon><styleUrl>#spolygon-map</styleUrl></Placemark><Placemark><Polygon><outerBoundaryIs><LinearRing><coordinates>120.549588,24.113928,0.0 120.549549,24.113948,0.0 120.549156,24.114153,0.0 120.548797,24.114384,0.0 120.547526,24.115344,0.0 120.54702,24.11577,0.0 120.546792,24.115939,0.0 120.546228,24.116255,0.0 120.545876,24.116353,0.0 120.545639,24.116343,0.0 120.545477,24.116403,0.0 120.545216,24.116624,0.0 120.545059,24.116883,0.0 120.544918,24.11712,0.0 120.544139,24.118192,0.0 120.542728,24.118684,0.0 120.540246,24.115199,0.0 120.538217,24.112111,0.0 120.536392,24.109997,0.0 120.534751,24.109031,0.0 120.535836,24.107469,0.0 120.536561,24.105662,0.0 120.536455,24.104781,0.0 120.535864,24.104611,0.0 120.535872,24.104401,0.0 120.536248,24.104204,0.0 120.536728,24.103878,0.0 120.537957,24.103641,0.0 120.538373,24.103398,0.0 120.539371,24.102489,0.0 120.539723,24.102005,0.0 120.540607,24.101491,0.0 120.541602,24.101047,0.0 120.541708,24.100941,0.0 120.541762,24.100884,0.0 120.542006,24.10071,0.0 120.542127,24.10068,0.0 120.542304,24.100709,0.0 120.542474,24.100766,0.0 120.54263,24.100863,0.0 120.542709,24.101026,0.0 120.542755,24.1012,0.0 120.542849,24.101339,0.0 120.542949,24.101422,0.0 120.543121,24.101472,0.0 120.543191,24.101519,0.0 120.543219,24.101613,0.0 120.543244,24.101724,0.0 120.543305,24.101932,0.0 120.543359,24.102097,0.0 120.543422,24.102344,0.0 120.543448,24.102443,0.0 120.543552,24.102644,0.0 120.543603,24.102802,0.0 120.543661,24.103054,0.0 120.543717,24.103315,0.0 120.543768,24.103483,0.0 120.543877,24.103934,0.0 120.544327,24.103857,0.0 120.54451,24.103797,0.0 120.544639,24.103677,0.0 120.544915,24.103405,0.0 120.545029,24.103375,0.0 120.544982,24.103522,0.0 120.544932,24.103769,0.0 120.544872,24.103963,0.0 120.544758,24.104187,0.0 120.544644,24.104338,0.0 120.544659,24.104498,0.0 120.544703,24.104621,0.0 120.544722,24.104798,0.0 120.544811,24.105031,0.0 120.544936,24.105373,0.0 120.545021,24.105596,0.0 120.545098,24.105816,0.0 120.545126,24.105989,0.0 120.54514,24.106134,0.0 120.545165,24.106317,0.0 120.545178,24.106437,0.0 120.545203,24.106591,0.0 120.545267,24.106745,0.0 120.545427,24.107111,0.0 120.545491,24.107282,0.0 120.545554,24.107531,0.0 120.545558,24.107593,0.0 120.545472,24.107606,0.0 120.545404,24.107619,0.0 120.545386,24.107675,0.0 120.545389,24.107796,0.0 120.54541,24.107891,0.0 120.545567,24.107872,0.0 120.545764,24.107797,0.0 120.545839,24.107807,0.0 120.545864,24.10786,0.0 120.54586,24.107925,0.0 120.545831,24.107958,0.0 120.545749,24.10799,0.0 120.54576,24.108076,0.0 120.545831,24.108154,0.0 120.545845,24.10823,0.0 120.545869,24.10838,0.0 120.545883,24.108675,0.0 120.545892,24.109104,0.0 120.545887,24.109484,0.0 120.546016,24.109432,0.0 120.546173,24.109331,0.0 120.546309,24.109207,0.0 120.546474,24.10905,0.0 120.546748,24.108966,0.0 120.547027,24.108875,0.0 120.54736,24.108758,0.0 120.547549,24.108755,0.0 120.547745,24.108785,0.0 120.547892,24.108812,0.0 120.547877,24.108894,0.0 120.547909,24.109008,0.0 120.547955,24.109172,0.0 120.548025,24.109389,0.0 120.548082,24.109625,0.0 120.548103,24.109785,0.0 120.548095,24.109984,0.0 120.548062,24.110161,0.0 120.547972,24.110328,0.0 120.547961,24.110416,0.0 120.548029,24.110531,0.0 120.548252,24.110941,0.0 120.54854,24.111512,0.0 120.548842,24.112106,0.0 120.549076,24.112732,0.0 120.549588,24.113928,0.0</coordinates></LinearRing></outerBoundaryIs></Polygon><styleUrl>#spolygon-map</styleUrl></Placemark><Placemark><Polygon><outerBoundaryIs><LinearRing><coordinates>120.519123,24.118742,0.0 120.518891,24.118908,0.0 120.518469,24.118941,0.0 120.517642,24.119355,0.0 120.517396,24.119329,0.0 120.51568,24.118034,0.0 120.51491,24.117392,0.0 120.513976,24.117094,0.0 120.513908,24.116394,0.0 120.513812,24.115439,0.0 120.513122,24.114882,0.0 120.511455,24.113455,0.0 120.510753,24.112743,0.0 120.51056,24.112753,0.0 120.510045,24.112987,0.0 120.509649,24.11267,0.0 120.509485,24.112648,0.0 120.509058,24.112786,0.0 120.508923,24.112726,0.0 120.508819,24.112474,0.0 120.508613,24.112303,0.0 120.508259,24.111593,0.0 120.508169,24.111136,0.0 120.507871,24.110837,0.0 120.507821,24.110768,0.0 120.507609,24.110688,0.0 120.507342,24.110307,0.0 120.506995,24.109772,0.0 120.506491,24.108918,0.0 120.506259,24.10848,0.0 120.506378,24.108342,0.0 120.506625,24.108214,0.0 120.506311,24.10722,0.0 120.50643,24.106907,0.0 120.506772,24.106789,0.0 120.50749,24.106727,0.0 120.507845,24.106475,0.0 120.508167,24.105278,0.0 120.507961,24.103788,0.0 120.508011,24.103365,0.0 120.508458,24.103359,0.0 120.50882,24.103071,0.0 120.509551,24.102496,0.0 120.511494,24.101893,0.0 120.513457,24.101626,0.0 120.515122,24.101624,0.0 120.515775,24.101823,0.0 120.515936,24.101953,0.0 120.516133,24.102341,0.0 120.516147,24.103012,0.0 120.51591,24.104525,0.0 120.516049,24.104875,0.0 120.516297,24.105043,0.0 120.517376,24.105131,0.0 120.518635,24.105082,0.0 120.519223,24.104947,0.0 120.519446,24.105031,0.0 120.519544,24.105404,0.0 120.519776,24.105526,0.0 120.520385,24.105483,0.0 120.521627,24.105427,0.0 120.521974,24.105511,0.0 120.522163,24.10593,0.0 120.52242,24.106052,0.0 120.522916,24.106091,0.0 120.523168,24.106273,0.0 120.523864,24.10632,0.0 120.524469,24.106094,0.0 120.525125,24.105572,0.0 120.525966,24.104458,0.0 120.525865,24.105193,0.0 120.525726,24.105874,0.0 120.525762,24.10634,0.0 120.525991,24.106521,0.0 120.526633,24.106391,0.0 120.527439,24.106273,0.0 120.527675,24.106364,0.0 120.527674,24.106562,0.0 120.527095,24.10733,0.0 120.526634,24.108004,0.0 120.526355,24.108886,0.0 120.52603,24.109994,0.0 120.525723,24.110275,0.0 120.524624,24.110754,0.0 120.524,24.111487,0.0 120.523134,24.11219,0.0 120.52256,24.112661,0.0 120.522234,24.114411,0.0 120.521677,24.115192,0.0 120.521076,24.11544,0.0 120.520696,24.115838,0.0 120.51991,24.117371,0.0 120.519164,24.118685,0.0 120.519123,24.118742,0.0</coordinates></LinearRing></outerBoundaryIs></Polygon><styleUrl>#spolygon-map</styleUrl></Placemark><Placemark><Polygon><outerBoundaryIs><LinearRing><coordinates>120.516681,24.119332,0.0 120.515901,24.119243,0.0 120.515029,24.119334,0.0 120.51435,24.119342,0.0 120.51274,24.119316,0.0 120.510554,24.11933,0.0 120.508935,24.119303,0.0 120.507511,24.119616,0.0 120.506514,24.119722,0.0 120.505859,24.119762,0.0 120.505399,24.119967,0.0 120.504388,24.12023,0.0 120.503948,24.120142,0.0 120.503695,24.119755,0.0 120.503021,24.119684,0.0 120.501899,24.119466,0.0 120.500889,24.118826,0.0 120.500442,24.118224,0.0 120.500185,24.117479,0.0 120.50015,24.117139,0.0 120.50003,24.116901,0.0 120.499809,24.116675,0.0 120.499557,24.116835,0.0 120.498964,24.116244,0.0 120.498421,24.115357,0.0 120.497918,24.114585,0.0 120.497898,24.114485,0.0 120.498777,24.113365,0.0 120.498664,24.112949,0.0 120.498831,24.112476,0.0 120.500123,24.11272,0.0 120.501137,24.1129,0.0 120.501487,24.111443,0.0 120.501706,24.111091,0.0 120.503477,24.110997,0.0 120.506688,24.110811,0.0 120.507608,24.110768,0.0 120.507871,24.110784,0.0 120.50797,24.110914,0.0 120.508292,24.111487,0.0 120.50825,24.111685,0.0 120.508691,24.112404,0.0 120.508912,24.112619,0.0 120.508952,24.112785,0.0 120.50921,24.112749,0.0 120.509602,24.112637,0.0 120.509928,24.112949,0.0 120.510291,24.112918,0.0 120.510666,24.112716,0.0 120.510986,24.113012,0.0 120.512323,24.114257,0.0 120.513684,24.115348,0.0 120.513874,24.115986,0.0 120.513977,24.116842,0.0 120.51404,24.11718,0.0 120.515057,24.117469,0.0 120.516971,24.119027,0.0 120.517512,24.119389,0.0 120.517162,24.119444,0.0 120.516781,24.119367,0.0 120.516681,24.119332,0.0</coordinates></LinearRing></outerBoundaryIs></Polygon><styleUrl>#spolygon-map</styleUrl></Placemark><Placemark><Polygon><outerBoundaryIs><LinearRing><coordinates>120.499557,24.116835,0.0 120.499122,24.117215,0.0 120.498573,24.117525,0.0 120.497561,24.118018,0.0 120.498031,24.118936,0.0 120.498259,24.119482,0.0 120.498036,24.119718,0.0 120.497931,24.12001,0.0 120.497893,24.12041,0.0 120.495622,24.120097,0.0 120.49552,24.119703,0.0 120.494983,24.116434,0.0 120.496375,24.114736,0.0 120.496417,24.114515,0.0 120.495958,24.113242,0.0 120.497001,24.112048,0.0 120.497816,24.111837,0.0 120.498286,24.112317,0.0 120.498664,24.112949,0.0 120.498777,24.113365,0.0 120.497898,24.114485,0.0 120.497918,24.114585,0.0 120.498421,24.115357,0.0 120.498964,24.116244,0.0 120.499557,24.116835,0.0</coordinates></LinearRing></outerBoundaryIs></Polygon><styleUrl>#spolygon-map</styleUrl></Placemark><Placemark><Polygon><outerBoundaryIs><LinearRing><coordinates>120.495354,24.118658,0.0 120.494335,24.118817,0.0 120.493155,24.118901,0.0 120.491536,24.118599,0.0 120.490618,24.118563,0.0 120.488827,24.119477,0.0 120.486224,24.120949,0.0 120.485384,24.121318,0.0 120.485315,24.120978,0.0 120.485265,24.120769,0.0 120.485141,24.120479,0.0 120.485034,24.120162,0.0 120.484958,24.119874,0.0 120.484831,24.119491,0.0 120.484711,24.119197,0.0 120.484542,24.118974,0.0 120.484369,24.119011,0.0 120.484064,24.119089,0.0 120.483891,24.119121,0.0 120.483731,24.119112,0.0 120.483646,24.118935,0.0 120.483569,24.118879,0.0 120.483401,24.118887,0.0 120.483309,24.118854,0.0 120.483239,24.118672,0.0 120.483144,24.118519,0.0 120.482888,24.118042,0.0 120.482763,24.117849,0.0 120.48266,24.117712,0.0 120.482608,24.117501,0.0 120.482506,24.117249,0.0 120.482404,24.116993,0.0 120.482374,24.116843,0.0 120.482401,24.11671,0.0 120.482512,24.116619,0.0 120.4826,24.116528,0.0 120.482616,24.116444,0.0 120.48259,24.116209,0.0 120.482346,24.1161,0.0 120.482143,24.116106,0.0 120.482064,24.115973,0.0 120.481973,24.115616,0.0 120.481856,24.115311,0.0 120.481822,24.115192,0.0 120.481716,24.11495,0.0 120.481656,24.11475,0.0 120.481565,24.114501,0.0 120.481466,24.114357,0.0 120.481351,24.114218,0.0 120.481131,24.113919,0.0 120.480953,24.113491,0.0 120.481094,24.113425,0.0 120.481752,24.113055,0.0 120.482636,24.112586,0.0 120.482916,24.112371,0.0 120.483372,24.112292,0.0 120.483651,24.112333,0.0 120.483907,24.112557,0.0 120.484157,24.112551,0.0 120.484689,24.11256,0.0 120.485452,24.113353,0.0 120.485834,24.113456,0.0 120.486548,24.113337,0.0 120.486889,24.114452,0.0 120.487306,24.114912,0.0 120.487919,24.115072,0.0 120.488772,24.115061,0.0 120.489389,24.115036,0.0 120.489584,24.116021,0.0 120.490623,24.115619,0.0 120.491979,24.114897,0.0 120.492448,24.115713,0.0 120.493412,24.116817,0.0 120.494063,24.11735,0.0 120.49432,24.117268,0.0 120.494983,24.116434,0.0 120.495354,24.118658,0.0</coordinates></LinearRing></outerBoundaryIs></Polygon><styleUrl>#spolygon-map</styleUrl></Placemark><Placemark><Polygon><outerBoundaryIs><LinearRing><coordinates>120.53684,24.12487,0.0 120.53646,24.124691,0.0 120.535977,24.124504,0.0 120.532782,24.123666,0.0 120.532061,24.123367,0.0 120.53135,24.122889,0.0 120.530193,24.121946,0.0 120.529562,24.121188,0.0 120.529097,24.120134,0.0 120.528941,24.119864,0.0 120.528772,24.119715,0.0 120.528389,24.119422,0.0 120.528172,24.119164,0.0 120.52807,24.118933,0.0 120.527896,24.118114,0.0 120.527588,24.116507,0.0 120.5274,24.115272,0.0 120.527348,24.114074,0.0 120.527293,24.113273,0.0 120.52703,24.111759,0.0 120.527216,24.109867,0.0 120.528356,24.109688,0.0 120.528854,24.109414,0.0 120.529122,24.109151,0.0 120.529427,24.110303,0.0 120.529458,24.110938,0.0 120.52959,24.111153,0.0 120.529932,24.111177,0.0 120.531766,24.110584,0.0 120.533658,24.109998,0.0 120.534469,24.109434,0.0 120.535601,24.109445,0.0 120.536938,24.110639,0.0 120.539195,24.113506,0.0 120.541402,24.117096,0.0 120.543379,24.119413,0.0 120.542545,24.120773,0.0 120.541963,24.121669,0.0 120.541522,24.122247,0.0 120.541309,24.122693,0.0 120.541137,24.123093,0.0 120.541182,24.123287,0.0 120.541047,24.123518,0.0 120.54071,24.123796,0.0 120.540037,24.124059,0.0 120.539503,24.12421,0.0 120.53891,24.12438,0.0 120.53826,24.124504,0.0 120.537511,24.12471,0.0 120.53684,24.12487,0.0</coordinates></LinearRing></outerBoundaryIs></Polygon><styleUrl>#spolygon-map</styleUrl></Placemark><Placemark><Polygon><outerBoundaryIs><LinearRing><coordinates>120.527933,24.12714,0.0 120.527308,24.127105,0.0 120.526461,24.127146,0.0 120.525793,24.126669,0.0 120.525764,24.126454,0.0 120.525777,24.126233,0.0 120.525313,24.126026,0.0 120.524953,24.125845,0.0 120.524765,24.125618,0.0 120.524631,24.125397,0.0 120.524177,24.125719,0.0 120.523842,24.125928,0.0 120.52326,24.12598,0.0 120.522872,24.125817,0.0 120.522083,24.125652,0.0 120.522025,24.125512,0.0 120.522173,24.125264,0.0 120.522264,24.12473,0.0 120.522204,24.124305,0.0 120.522422,24.123846,0.0 120.522515,24.123664,0.0 120.522309,24.123593,0.0 120.522045,24.123582,0.0 120.52178,24.123615,0.0 120.521522,24.123577,0.0 120.52131,24.123485,0.0 120.520986,24.12347,0.0 120.520254,24.123332,0.0 120.520098,24.123135,0.0 120.520067,24.122924,0.0 120.519874,24.122741,0.0 120.51967,24.122765,0.0 120.518947,24.123293,0.0 120.518042,24.123725,0.0 120.51795,24.123486,0.0 120.517802,24.123357,0.0 120.517238,24.12146,0.0 120.516805,24.119922,0.0 120.51669,24.119366,0.0 120.516781,24.119367,0.0 120.517162,24.119444,0.0 120.517512,24.119389,0.0 120.518244,24.119052,0.0 120.518619,24.118924,0.0 120.519013,24.118891,0.0 120.519179,24.118743,0.0 120.521249,24.118904,0.0 120.521819,24.119682,0.0 120.522025,24.119674,0.0 120.522315,24.119658,0.0 120.522801,24.1199,0.0 120.523241,24.119876,0.0 120.5237,24.11986,0.0 120.524402,24.120077,0.0 120.524402,24.120206,0.0 120.523652,24.120393,0.0 120.522339,24.120646,0.0 120.522198,24.120809,0.0 120.524163,24.121961,0.0 120.524472,24.122108,0.0 120.524819,24.121971,0.0 120.525298,24.121483,0.0 120.526173,24.121591,0.0 120.528166,24.122113,0.0 120.529234,24.122848,0.0 120.530055,24.123547,0.0 120.529886,24.123858,0.0 120.528303,24.126439,0.0 120.527933,24.12714,0.0</coordinates></LinearRing></outerBoundaryIs></Polygon><styleUrl>#spolygon-map</styleUrl></Placemark><Placemark><Polygon><outerBoundaryIs><LinearRing><coordinates>120.536729,24.124894,0.0 120.536205,24.125021,0.0 120.535867,24.125131,0.0 120.535558,24.125279,0.0 120.535379,24.125324,0.0 120.53484,24.12539,0.0 120.534648,24.125406,0.0 120.534093,24.12556,0.0 120.533499,24.125817,0.0 120.533136,24.126073,0.0 120.532668,24.126431,0.0 120.532235,24.126922,0.0 120.531757,24.127556,0.0 120.531295,24.128119,0.0 120.53113,24.128387,0.0 120.529384,24.12769,0.0 120.528046,24.127146,0.0 120.528303,24.126439,0.0 120.529886,24.123858,0.0 120.530055,24.123547,0.0 120.529234,24.122848,0.0 120.528166,24.122113,0.0 120.526173,24.121591,0.0 120.525298,24.121483,0.0 120.524819,24.121971,0.0 120.524472,24.122108,0.0 120.524163,24.121961,0.0 120.522198,24.120809,0.0 120.522339,24.120646,0.0 120.523652,24.120393,0.0 120.524402,24.120206,0.0 120.524402,24.120077,0.0 120.5237,24.11986,0.0 120.523241,24.119876,0.0 120.522801,24.1199,0.0 120.522315,24.119658,0.0 120.522025,24.119674,0.0 120.521819,24.119682,0.0 120.521249,24.118904,0.0 120.519179,24.118743,0.0 120.519164,24.118685,0.0 120.51991,24.117371,0.0 120.520696,24.115838,0.0 120.521076,24.11544,0.0 120.521677,24.115192,0.0 120.522234,24.114411,0.0 120.52256,24.112661,0.0 120.523134,24.11219,0.0 120.524,24.111487,0.0 120.524624,24.110754,0.0 120.525723,24.110275,0.0 120.526353,24.110019,0.0 120.52703,24.111759,0.0 120.527293,24.113273,0.0 120.527348,24.114074,0.0 120.5274,24.115272,0.0 120.527588,24.116507,0.0 120.527896,24.118114,0.0 120.52807,24.118933,0.0 120.528172,24.119164,0.0 120.528389,24.119422,0.0 120.528772,24.119715,0.0 120.528941,24.119864,0.0 120.529097,24.120134,0.0 120.529562,24.121188,0.0 120.530193,24.121946,0.0 120.53135,24.122889,0.0 120.532061,24.123367,0.0 120.532782,24.123666,0.0 120.535977,24.124504,0.0 120.53646,24.124691,0.0 120.536729,24.124894,0.0</coordinates></LinearRing></outerBoundaryIs></Polygon><styleUrl>#spolygon-map</styleUrl></Placemark><Placemark><Polygon><outerBoundaryIs><LinearRing><coordinates>120.516977,24.120588,0.0 120.516657,24.120591,0.0 120.515471,24.120786,0.0 120.514022,24.121376,0.0 120.512652,24.122322,0.0 120.512119,24.123552,0.0 120.511964,24.124874,0.0 120.511346,24.125286,0.0 120.51112,24.125644,0.0 120.511367,24.127702,0.0 120.511184,24.128405,0.0 120.510733,24.128555,0.0 120.50965,24.12891,0.0 120.507791,24.127844,0.0 120.506291,24.126294,0.0 120.505519,24.126252,0.0 120.503539,24.126605,0.0 120.501302,24.127491,0.0 120.500984,24.126143,0.0 120.500487,24.124125,0.0 120.500333,24.12326,0.0 120.500158,24.122725,0.0 120.499547,24.121977,0.0 120.498732,24.121694,0.0 120.496007,24.120819,0.0 120.49534,24.120554,0.0 120.495519,24.120029,0.0 120.496199,24.120188,0.0 120.497937,24.12037,0.0 120.497954,24.119834,0.0 120.498251,24.119556,0.0 120.498245,24.119346,0.0 120.497613,24.118106,0.0 120.497869,24.117876,0.0 120.498988,24.117357,0.0 120.499312,24.117051,0.0 120.499702,24.116708,0.0 120.499869,24.116688,0.0 120.500122,24.117041,0.0 120.500144,24.117266,0.0 120.500238,24.117648,0.0 120.500628,24.118516,0.0 120.501383,24.119205,0.0 120.502432,24.119639,0.0 120.503555,24.119712,0.0 120.503827,24.120005,0.0 120.504145,24.120177,0.0 120.504762,24.120205,0.0 120.505625,24.119805,0.0 120.506074,24.119746,0.0 120.507075,24.119663,0.0 120.508414,24.11942,0.0 120.509567,24.119311,0.0 120.511929,24.119367,0.0 120.513536,24.119334,0.0 120.514807,24.119344,0.0 120.515396,24.119278,0.0 120.516381,24.119271,0.0 120.51669,24.119366,0.0 120.516805,24.119922,0.0 120.516977,24.120588,0.0</coordinates></LinearRing></outerBoundaryIs></Polygon><styleUrl>#spolygon-map</styleUrl></Placemark><Placemark><Polygon><outerBoundaryIs><LinearRing><coordinates>120.497185,24.129239,0.0 120.495782,24.129631,0.0 120.493045,24.130362,0.0 120.491635,24.131289,0.0 120.489869,24.133101,0.0 120.489487,24.133449,0.0 120.490017,24.130463,0.0 120.490153,24.12949,0.0 120.489371,24.129362,0.0 120.48683,24.129964,0.0 120.485463,24.130396,0.0 120.484492,24.130656,0.0 120.483645,24.130838,0.0 120.483275,24.130894,0.0 120.482704,24.130883,0.0 120.48246,24.130872,0.0 120.482177,24.13092,0.0 120.482312,24.13042,0.0 120.48244,24.129952,0.0 120.482569,24.129539,0.0 120.482639,24.12927,0.0 120.482869,24.128769,0.0 120.483009,24.128495,0.0 120.483009,24.12831,0.0 120.48304,24.127955,0.0 120.483145,24.127577,0.0 120.483233,24.127118,0.0 120.483815,24.126447,0.0 120.484383,24.125994,0.0 120.484531,24.125753,0.0 120.484849,24.125185,0.0 120.485464,24.124032,0.0 120.485706,24.123743,0.0 120.486372,24.123253,0.0 120.486555,24.123126,0.0 120.486616,24.123065,0.0 120.486421,24.122985,0.0 120.48629,24.122859,0.0 120.486217,24.122706,0.0 120.486042,24.122572,0.0 120.485957,24.122334,0.0 120.485893,24.122108,0.0 120.485795,24.1219,0.0 120.485594,24.121702,0.0 120.485454,24.121582,0.0 120.485396,24.121441,0.0 120.486224,24.120949,0.0 120.488827,24.119477,0.0 120.490618,24.118563,0.0 120.491536,24.118599,0.0 120.493155,24.118901,0.0 120.494335,24.118817,0.0 120.495354,24.118658,0.0 120.495519,24.120029,0.0 120.49534,24.120554,0.0 120.496007,24.120819,0.0 120.498732,24.121694,0.0 120.499547,24.121977,0.0 120.500158,24.122725,0.0 120.500333,24.12326,0.0 120.500487,24.124125,0.0 120.500984,24.126143,0.0 120.501302,24.127491,0.0 120.500271,24.127877,0.0 120.498432,24.128262,0.0 120.49753,24.129055,0.0 120.497185,24.129239,0.0</coordinates></LinearRing></outerBoundaryIs></Polygon><styleUrl>#spolygon-map</styleUrl></Placemark><Placemark><Polygon><outerBoundaryIs><LinearRing><coordinates>120.51382,24.139593,0.0 120.51274,24.139104,0.0 120.51177,24.138923,0.0 120.510713,24.138871,0.0 120.509887,24.138903,0.0 120.508449,24.139115,0.0 120.506743,24.139672,0.0 120.506128,24.140059,0.0 120.505776,24.140552,0.0 120.504781,24.140801,0.0 120.504712,24.140403,0.0 120.504552,24.139896,0.0 120.504463,24.1396,0.0 120.504361,24.139157,0.0 120.504213,24.138574,0.0 120.50412,24.138278,0.0 120.504014,24.137842,0.0 120.503962,24.137421,0.0 120.50393,24.137114,0.0 120.503755,24.136174,0.0 120.503518,24.135314,0.0 120.502884,24.134826,0.0 120.502817,24.134811,0.0 120.502649,24.134421,0.0 120.50242,24.133882,0.0 120.502321,24.133609,0.0 120.502009,24.132794,0.0 120.501861,24.132471,0.0 120.501482,24.132118,0.0 120.499838,24.130928,0.0 120.49784,24.129437,0.0 120.497185,24.129239,0.0 120.498241,24.128417,0.0 120.499042,24.128135,0.0 120.500821,24.127714,0.0 120.501796,24.127261,0.0 120.504757,24.126318,0.0 120.506185,24.126245,0.0 120.5068,24.126842,0.0 120.509026,24.129165,0.0 120.511284,24.131409,0.0 120.512178,24.132857,0.0 120.512674,24.134614,0.0 120.513456,24.136204,0.0 120.513734,24.137975,0.0 120.51382,24.139593,0.0</coordinates></LinearRing></outerBoundaryIs></Polygon><styleUrl>#spolygon-map</styleUrl></Placemark><Placemark><Polygon><outerBoundaryIs><LinearRing><coordinates>120.483992,24.142194,0.0 120.483839,24.142186,0.0 120.483571,24.141999,0.0 120.483253,24.14185,0.0 120.483062,24.14177,0.0 120.482825,24.141564,0.0 120.482678,24.141318,0.0 120.482653,24.141147,0.0 120.482709,24.140935,0.0 120.482536,24.140756,0.0 120.48216,24.14035,0.0 120.481937,24.140157,0.0 120.481887,24.14004,0.0 120.481898,24.139829,0.0 120.481868,24.139578,0.0 120.481877,24.13918,0.0 120.481814,24.138865,0.0 120.481749,24.138602,0.0 120.481756,24.137571,0.0 120.481755,24.136966,0.0 120.481708,24.136567,0.0 120.481649,24.136113,0.0 120.481545,24.135737,0.0 120.481547,24.135337,0.0 120.481644,24.134816,0.0 120.481727,24.134543,0.0 120.481767,24.134119,0.0 120.481757,24.133903,0.0 120.481837,24.133274,0.0 120.481928,24.132413,0.0 120.48202,24.131821,0.0 120.482154,24.131003,0.0 120.482376,24.130882,0.0 120.482608,24.130873,0.0 120.48282,24.130893,0.0 120.483433,24.130885,0.0 120.483899,24.13077,0.0 120.485103,24.13056,0.0 120.485972,24.130282,0.0 120.488175,24.129513,0.0 120.489858,24.129373,0.0 120.490216,24.129578,0.0 120.489639,24.132548,0.0 120.489593,24.133392,0.0 120.490602,24.132289,0.0 120.492197,24.130757,0.0 120.493819,24.130064,0.0 120.497042,24.129315,0.0 120.497587,24.129299,0.0 120.498571,24.129975,0.0 120.501313,24.132022,0.0 120.501123,24.132041,0.0 120.500284,24.132472,0.0 120.499758,24.132732,0.0 120.499265,24.132992,0.0 120.498905,24.133176,0.0 120.498401,24.133384,0.0 120.4979,24.133568,0.0 120.497457,24.133745,0.0 120.496915,24.133951,0.0 120.496613,24.134098,0.0 120.496331,24.134196,0.0 120.495849,24.134385,0.0 120.49553,24.134475,0.0 120.495273,24.134569,0.0 120.494541,24.134779,0.0 120.494144,24.134899,0.0 120.493607,24.135145,0.0 120.49345,24.135224,0.0 120.493189,24.135333,0.0 120.492932,24.135461,0.0 120.492406,24.135694,0.0 120.492135,24.135824,0.0 120.491973,24.135869,0.0 120.491787,24.135948,0.0 120.491518,24.136095,0.0 120.491265,24.136196,0.0 120.491067,24.136249,0.0 120.490818,24.136343,0.0 120.490644,24.136444,0.0 120.490267,24.136572,0.0 120.48982,24.13677,0.0 120.489035,24.137082,0.0 120.488622,24.137167,0.0 120.488377,24.137329,0.0 120.487407,24.137692,0.0 120.487172,24.1378,0.0 120.486967,24.137932,0.0 120.486669,24.138087,0.0 120.486465,24.138188,0.0 120.486433,24.138413,0.0 120.486451,24.138636,0.0 120.486447,24.138796,0.0 120.486445,24.138952,0.0 120.48642,24.139087,0.0 120.486409,24.139237,0.0 120.486401,24.139493,0.0 120.486392,24.139684,0.0 120.486343,24.139807,0.0 120.486371,24.140049,0.0 120.486376,24.140233,0.0 120.486365,24.140334,0.0 120.486377,24.140429,0.0 120.486303,24.140703,0.0 120.486177,24.141051,0.0 120.486086,24.141301,0.0 120.485925,24.141518,0.0 120.485751,24.141635,0.0 120.485379,24.141759,0.0 120.485014,24.141856,0.0 120.484253,24.142085,0.0 120.483992,24.142194,0.0</coordinates></LinearRing></outerBoundaryIs></Polygon><styleUrl>#spolygon-map</styleUrl></Placemark><Placemark><Polygon><outerBoundaryIs><LinearRing><coordinates>120.523651,24.141366,0.0 120.524049,24.141893,0.0 120.524392,24.142414,0.0 120.524771,24.143139,0.0 120.524606,24.143161,0.0 120.51926,24.141297,0.0 120.516259,24.140331,0.0 120.514174,24.139716,0.0 120.513835,24.139147,0.0 120.513638,24.137064,0.0 120.513003,24.13531,0.0 120.512431,24.133946,0.0 120.511874,24.132051,0.0 120.509848,24.129973,0.0 120.50965,24.12891,0.0 120.510733,24.128555,0.0 120.511184,24.128405,0.0 120.511367,24.127702,0.0 120.51112,24.125644,0.0 120.511346,24.125286,0.0 120.511964,24.124874,0.0 120.512119,24.123552,0.0 120.512652,24.122322,0.0 120.514022,24.121376,0.0 120.515471,24.120786,0.0 120.516657,24.120591,0.0 120.516977,24.120588,0.0 120.517729,24.123104,0.0 120.517857,24.123447,0.0 120.518034,24.123529,0.0 120.518388,24.123598,0.0 120.519572,24.122872,0.0 120.519806,24.122703,0.0 120.520004,24.122876,0.0 120.520098,24.12301,0.0 120.520144,24.123269,0.0 120.520703,24.123453,0.0 120.52121,24.123471,0.0 120.521405,24.123532,0.0 120.521666,24.123614,0.0 120.521879,24.123612,0.0 120.522159,24.123565,0.0 120.522453,24.123617,0.0 120.522511,24.123732,0.0 120.522267,24.124157,0.0 120.522203,24.124464,0.0 120.522244,24.125065,0.0 120.522102,24.125404,0.0 120.521989,24.125592,0.0 120.52253,24.125723,0.0 120.523148,24.125931,0.0 120.523595,24.125943,0.0 120.524048,24.125864,0.0 120.524484,24.125472,0.0 120.524707,24.12544,0.0 120.524894,24.125716,0.0 120.525023,24.125905,0.0 120.525724,24.126179,0.0 120.5258,24.126308,0.0 120.52574,24.126556,0.0 120.526244,24.127043,0.0 120.52672,24.127168,0.0 120.527746,24.127129,0.0 120.528046,24.127146,0.0 120.529384,24.12769,0.0 120.53113,24.128387,0.0 120.530804,24.12886,0.0 120.530479,24.129438,0.0 120.530275,24.129837,0.0 120.530005,24.130434,0.0 120.529885,24.130756,0.0 120.529608,24.13124,0.0 120.52935,24.131662,0.0 120.528847,24.13236,0.0 120.528375,24.132893,0.0 120.528076,24.133193,0.0 120.527973,24.133383,0.0 120.527698,24.133969,0.0 120.527354,24.134484,0.0 120.526473,24.135641,0.0 120.525523,24.136932,0.0 120.52469,24.138064,0.0 120.524386,24.138515,0.0 120.523821,24.139265,0.0 120.523669,24.139459,0.0 120.523536,24.139677,0.0 120.523341,24.140216,0.0 120.523306,24.140444,0.0 120.523272,24.140905,0.0 120.523425,24.141106,0.0 120.523651,24.141366,0.0</coordinates></LinearRing></outerBoundaryIs></Polygon><styleUrl>#spolygon-map</styleUrl></Placemark><Placemark><Polygon><outerBoundaryIs><LinearRing><coordinates>120.523032,24.154493,0.0 120.52251,24.15546,0.0 120.519655,24.155107,0.0 120.516917,24.154696,0.0 120.515622,24.154283,0.0 120.515641,24.153789,0.0 120.514536,24.153652,0.0 120.51415,24.153303,0.0 120.513969,24.151971,0.0 120.513455,24.151962,0.0 120.513094,24.151768,0.0 120.513053,24.15142,0.0 120.513131,24.150888,0.0 120.513196,24.149363,0.0 120.51326,24.14812,0.0 120.512619,24.147358,0.0 120.511855,24.146684,0.0 120.510088,24.145866,0.0 120.507397,24.145247,0.0 120.505891,24.144636,0.0 120.505527,24.14351,0.0 120.505364,24.142979,0.0 120.505122,24.142279,0.0 120.505033,24.141937,0.0 120.504791,24.14129,0.0 120.504677,24.140907,0.0 120.504739,24.140824,0.0 120.505501,24.140639,0.0 120.505999,24.140408,0.0 120.506308,24.139817,0.0 120.50757,24.139364,0.0 120.509518,24.138982,0.0 120.510244,24.138843,0.0 120.511159,24.138955,0.0 120.512309,24.138966,0.0 120.5132,24.139378,0.0 120.514174,24.139716,0.0 120.516259,24.140331,0.0 120.51926,24.141297,0.0 120.524606,24.143161,0.0 120.524962,24.143587,0.0 120.525382,24.144814,0.0 120.525656,24.146041,0.0 120.525747,24.147032,0.0 120.52582,24.147971,0.0 120.52581,24.148102,0.0 120.525798,24.148319,0.0 120.525855,24.148546,0.0 120.525789,24.149021,0.0 120.525462,24.149902,0.0 120.525278,24.150316,0.0 120.524984,24.15093,0.0 120.524795,24.15146,0.0 120.524741,24.15167,0.0 120.524586,24.152028,0.0 120.524506,24.152348,0.0 120.524485,24.152434,0.0 120.524361,24.152569,0.0 120.52427,24.152745,0.0 120.524146,24.152923,0.0 120.524,24.153084,0.0 120.523824,24.153244,0.0 120.523514,24.15361,0.0 120.52307,24.154421,0.0 120.523032,24.154493,0.0</coordinates></LinearRing></outerBoundaryIs></Polygon><styleUrl>#spolygon-map</styleUrl></Placemark><Placemark><Polygon><outerBoundaryIs><LinearRing><coordinates>120.52251,24.15546,0.0 120.522044,24.1563,0.0 120.521355,24.157507,0.0 120.521121,24.157919,0.0 120.520942,24.158319,0.0 120.520671,24.158797,0.0 120.52042,24.159304,0.0 120.520243,24.159804,0.0 120.520152,24.160192,0.0 120.520046,24.160565,0.0 120.519873,24.160977,0.0 120.519711,24.161452,0.0 120.519697,24.161484,0.0 120.519507,24.161465,0.0 120.519267,24.161437,0.0 120.519008,24.161405,0.0 120.518691,24.161334,0.0 120.518413,24.161267,0.0 120.518241,24.161212,0.0 120.51805,24.161119,0.0 120.517819,24.161014,0.0 120.517606,24.160913,0.0 120.517425,24.160803,0.0 120.517273,24.160736,0.0 120.517059,24.16063,0.0 120.516774,24.160456,0.0 120.516604,24.160363,0.0 120.51646,24.160275,0.0 120.516288,24.16016,0.0 120.516102,24.16004,0.0 120.515764,24.159787,0.0 120.515431,24.159526,0.0 120.515241,24.159346,0.0 120.514948,24.15903,0.0 120.514781,24.158817,0.0 120.514669,24.158624,0.0 120.514576,24.158435,0.0 120.51442,24.158093,0.0 120.514312,24.157968,0.0 120.513834,24.157626,0.0 120.513398,24.157309,0.0 120.513099,24.157061,0.0 120.512945,24.156977,0.0 120.511604,24.156295,0.0 120.510826,24.155903,0.0 120.510099,24.155533,0.0 120.509382,24.155169,0.0 120.509326,24.154805,0.0 120.509394,24.154186,0.0 120.509452,24.15341,0.0 120.509529,24.152261,0.0 120.509501,24.152145,0.0 120.508777,24.152109,0.0 120.507859,24.152088,0.0 120.507326,24.152037,0.0 120.506479,24.151988,0.0 120.505954,24.151873,0.0 120.505113,24.151831,0.0 120.504316,24.151777,0.0 120.50372,24.151689,0.0 120.503479,24.151597,0.0 120.502905,24.151301,0.0 120.502473,24.151044,0.0 120.502047,24.150873,0.0 120.501644,24.150834,0.0 120.501533,24.150766,0.0 120.501597,24.150273,0.0 120.501556,24.14988,0.0 120.501469,24.149694,0.0 120.501457,24.149643,0.0 120.501495,24.149445,0.0 120.501675,24.149224,0.0 120.50211,24.148755,0.0 120.502395,24.148558,0.0 120.50254,24.148523,0.0 120.50296,24.148496,0.0 120.503622,24.148504,0.0 120.503968,24.148551,0.0 120.504165,24.148693,0.0 120.50453,24.148728,0.0 120.505013,24.14865,0.0 120.505236,24.148566,0.0 120.50544,24.148453,0.0 120.505731,24.148352,0.0 120.505965,24.148214,0.0 120.506035,24.148161,0.0 120.506135,24.148153,0.0 120.506255,24.148105,0.0 120.506268,24.147995,0.0 120.506226,24.147048,0.0 120.506209,24.146015,0.0 120.506214,24.14564,0.0 120.506026,24.14505,0.0 120.507397,24.145247,0.0 120.510088,24.145866,0.0 120.511855,24.146684,0.0 120.512619,24.147358,0.0 120.51326,24.14812,0.0 120.513196,24.149363,0.0 120.513131,24.150888,0.0 120.513053,24.15142,0.0 120.513094,24.151768,0.0 120.513455,24.151962,0.0 120.513969,24.151971,0.0 120.51415,24.153303,0.0 120.514536,24.153652,0.0 120.515641,24.153789,0.0 120.515622,24.154283,0.0 120.516917,24.154696,0.0 120.519655,24.155107,0.0 120.52251,24.15546,0.0</coordinates></LinearRing></outerBoundaryIs></Polygon><styleUrl>#spolygon-map</styleUrl></Placemark></Document>
</kml>
