<?xml version="1.0" encoding="UTF-8"?>
<kml xmlns="http://www.opengis.net/kml/2.2">
	<Document>
		<name>彰化縣北斗鎮</name>
		<Style id="spolygon">
			<LabelStyle>
				<scale>0.0</scale>
			</LabelStyle>
			<LineStyle>
				<color>330030ff</color>
				<width>0</width>
			</LineStyle>
			<PolyStyle>
				<color>330030ff</color>
			</PolyStyle>
		</Style>
		<StyleMap id="spolygon-map">
			<Pair>
				<key>normal</key>
				<styleUrl>#spolygon</styleUrl>
			</Pair>
		</StyleMap>
	<Placemark><Polygon><outerBoundaryIs><LinearRing><coordinates>120.537303,23.86857,0.0 120.535663,23.869219,0.0 120.534756,23.869506,0.0 120.534008,23.869646,0.0 120.533051,23.869802,0.0 120.531498,23.869776,0.0 120.530115,23.869734,0.0 120.52995,23.869793,0.0 120.529395,23.86989,0.0 120.528685,23.870166,0.0 120.528463,23.870222,0.0 120.528254,23.870032,0.0 120.528299,23.869238,0.0 120.528543,23.868864,0.0 120.529361,23.868245,0.0 120.529455,23.867647,0.0 120.529534,23.867359,0.0 120.53007,23.866322,0.0 120.530399,23.865781,0.0 120.530577,23.865059,0.0 120.530634,23.864421,0.0 120.530535,23.863246,0.0 120.530522,23.861815,0.0 120.530553,23.861554,0.0 120.530965,23.861388,0.0 120.531929,23.861296,0.0 120.532691,23.861138,0.0 120.533225,23.860837,0.0 120.53467,23.859355,0.0 120.535386,23.858502,0.0 120.53546,23.85808,0.0 120.535455,23.856165,0.0 120.53549,23.855012,0.0 120.535599,23.854812,0.0 120.535836,23.854541,0.0 120.538193,23.852816,0.0 120.53858,23.852503,0.0 120.53853,23.852148,0.0 120.538648,23.852122,0.0 120.538849,23.852067,0.0 120.539247,23.851921,0.0 120.539682,23.851773,0.0 120.540112,23.851615,0.0 120.540378,23.851526,0.0 120.540557,23.851466,0.0 120.5407,23.851419,0.0 120.540889,23.851353,0.0 120.541105,23.851278,0.0 120.5413,23.85121,0.0 120.541629,23.851093,0.0 120.541875,23.851013,0.0 120.542108,23.850916,0.0 120.542156,23.850881,0.0 120.542231,23.850747,0.0 120.542316,23.850557,0.0 120.542444,23.850282,0.0 120.542547,23.850088,0.0 120.542695,23.849792,0.0 120.542776,23.849642,0.0 120.542893,23.849445,0.0 120.543045,23.8492,0.0 120.543187,23.848975,0.0 120.543348,23.848743,0.0 120.543475,23.848582,0.0 120.543619,23.848455,0.0 120.543804,23.84833,0.0 120.544177,23.84815,0.0 120.544741,23.847879,0.0 120.545077,23.847744,0.0 120.545348,23.847609,0.0 120.545797,23.847408,0.0 120.546197,23.847256,0.0 120.546403,23.847157,0.0 120.546793,23.846979,0.0 120.547072,23.84686,0.0 120.547274,23.846764,0.0 120.547451,23.846662,0.0 120.547607,23.8465,0.0 120.547739,23.846279,0.0 120.547773,23.846241,0.0 120.547897,23.846167,0.0 120.548095,23.84605,0.0 120.548281,23.846036,0.0 120.548448,23.846045,0.0 120.548582,23.846102,0.0 120.548693,23.846142,0.0 120.548807,23.846156,0.0 120.54892,23.846151,0.0 120.549058,23.846118,0.0 120.549252,23.846085,0.0 120.549371,23.846045,0.0 120.549527,23.845966,0.0 120.549663,23.845899,0.0 120.549799,23.845848,0.0 120.54996,23.845777,0.0 120.550112,23.845719,0.0 120.550266,23.845664,0.0 120.550337,23.845633,0.0 120.550504,23.845552,0.0 120.550661,23.845478,0.0 120.550739,23.84543,0.0 120.551024,23.845315,0.0 120.55115,23.845282,0.0 120.551303,23.845224,0.0 120.551461,23.845107,0.0 120.551612,23.844945,0.0 120.551725,23.84482,0.0 120.551785,23.844777,0.0 120.551866,23.844784,0.0 120.552003,23.844976,0.0 120.552188,23.845203,0.0 120.552242,23.845213,0.0 120.552297,23.845163,0.0 120.552384,23.845035,0.0 120.552439,23.845007,0.0 120.552513,23.844993,0.0 120.552651,23.844996,0.0 120.552747,23.845023,0.0 120.552853,23.845037,0.0 120.553087,23.845044,0.0 120.553301,23.845053,0.0 120.553385,23.84505,0.0 120.55347,23.845023,0.0 120.553541,23.844982,0.0 120.553631,23.844937,0.0 120.55376,23.844881,0.0 120.553836,23.844821,0.0 120.553873,23.844785,0.0 120.553978,23.844714,0.0 120.554208,23.844548,0.0 120.554253,23.844504,0.0 120.554317,23.844464,0.0 120.554473,23.844363,0.0 120.554757,23.844173,0.0 120.554987,23.844006,0.0 120.555072,23.843959,0.0 120.555163,23.843916,0.0 120.555259,23.843882,0.0 120.555328,23.843885,0.0 120.555455,23.843962,0.0 120.5555,23.84402,0.0 120.555518,23.844072,0.0 120.555566,23.844129,0.0 120.55561,23.844171,0.0 120.555667,23.844187,0.0 120.555767,23.844151,0.0 120.555958,23.844023,0.0 120.556057,23.843976,0.0 120.556253,23.843906,0.0 120.556372,23.843835,0.0 120.556487,23.843777,0.0 120.556621,23.843684,0.0 120.556709,23.843617,0.0 120.556857,23.843475,0.0 120.557001,23.843287,0.0 120.557116,23.843103,0.0 120.557196,23.842927,0.0 120.557288,23.842731,0.0 120.557357,23.842572,0.0 120.557443,23.842469,0.0 120.557567,23.842341,0.0 120.557815,23.842177,0.0 120.558008,23.842004,0.0 120.558128,23.841949,0.0 120.558946,23.841473,0.0 120.55984,23.840963,0.0 120.560534,23.841523,0.0 120.561148,23.842008,0.0 120.561482,23.842263,0.0 120.562221,23.842844,0.0 120.562756,23.843271,0.0 120.562215,23.843876,0.0 120.561238,23.84494,0.0 120.560731,23.845504,0.0 120.560135,23.846164,0.0 120.559601,23.846754,0.0 120.559166,23.847238,0.0 120.559036,23.847419,0.0 120.558749,23.848029,0.0 120.558363,23.84882,0.0 120.558394,23.848841,0.0 120.558784,23.848684,0.0 120.559198,23.848519,0.0 120.55959,23.848356,0.0 120.559875,23.848244,0.0 120.559969,23.848195,0.0 120.560207,23.848167,0.0 120.560644,23.848168,0.0 120.560997,23.848177,0.0 120.561201,23.848167,0.0 120.56152,23.848136,0.0 120.561869,23.848092,0.0 120.562119,23.848051,0.0 120.562622,23.847989,0.0 120.563168,23.847919,0.0 120.563404,23.847883,0.0 120.563711,23.847842,0.0 120.564144,23.847781,0.0 120.564561,23.847724,0.0 120.564859,23.847683,0.0 120.565115,23.847652,0.0 120.56542,23.847598,0.0 120.56585,23.847477,0.0 120.566161,23.847388,0.0 120.566385,23.847323,0.0 120.566687,23.847231,0.0 120.566971,23.84711,0.0 120.567207,23.847013,0.0 120.567505,23.8469,0.0 120.56781,23.846779,0.0 120.568014,23.846672,0.0 120.568391,23.846485,0.0 120.568977,23.847084,0.0 120.568859,23.847446,0.0 120.566125,23.848898,0.0 120.563369,23.850165,0.0 120.560726,23.851429,0.0 120.558709,23.85219,0.0 120.555267,23.853495,0.0 120.553274,23.854222,0.0 120.553168,23.854337,0.0 120.552731,23.854976,0.0 120.552618,23.855228,0.0 120.552502,23.855595,0.0 120.552303,23.856025,0.0 120.551553,23.857409,0.0 120.551293,23.857793,0.0 120.55061,23.858217,0.0 120.549935,23.858452,0.0 120.549417,23.858355,0.0 120.547928,23.858538,0.0 120.547375,23.85862,0.0 120.547115,23.859272,0.0 120.547064,23.85944,0.0 120.545908,23.861,0.0 120.545726,23.861526,0.0 120.544776,23.862345,0.0 120.543772,23.863368,0.0 120.543527,23.863589,0.0 120.54323,23.864016,0.0 120.54287,23.864345,0.0 120.54272,23.864432,0.0 120.542305,23.864663,0.0 120.541958,23.864908,0.0 120.539919,23.865841,0.0 120.539112,23.866419,0.0 120.538065,23.867215,0.0 120.538094,23.867555,0.0 120.537783,23.867873,0.0 120.537303,23.86857,0.0</coordinates></LinearRing></outerBoundaryIs></Polygon><styleUrl>#spolygon-map</styleUrl></Placemark><Placemark><Polygon><outerBoundaryIs><LinearRing><coordinates>120.554972,23.869933,0.0 120.55378,23.870134,0.0 120.552859,23.870283,0.0 120.552315,23.870373,0.0 120.551021,23.87056,0.0 120.550602,23.870607,0.0 120.550102,23.870625,0.0 120.549538,23.870636,0.0 120.548754,23.870646,0.0 120.548485,23.870654,0.0 120.548257,23.870661,0.0 120.548051,23.870599,0.0 120.547651,23.870545,0.0 120.547646,23.870479,0.0 120.548061,23.869599,0.0 120.54848,23.868609,0.0 120.548594,23.868428,0.0 120.548845,23.868037,0.0 120.549292,23.867226,0.0 120.549295,23.866892,0.0 120.549175,23.866573,0.0 120.5492,23.866321,0.0 120.54942,23.86602,0.0 120.549561,23.865936,0.0 120.549786,23.865981,0.0 120.550053,23.866072,0.0 120.550188,23.865915,0.0 120.55014,23.865521,0.0 120.550202,23.865415,0.0 120.550215,23.865118,0.0 120.550617,23.864963,0.0 120.551697,23.864451,0.0 120.551892,23.864418,0.0 120.551675,23.863785,0.0 120.551437,23.863717,0.0 120.550347,23.863904,0.0 120.549283,23.864041,0.0 120.548285,23.863932,0.0 120.546981,23.864091,0.0 120.545687,23.864558,0.0 120.544692,23.865204,0.0 120.54353,23.866138,0.0 120.542821,23.86683,0.0 120.541965,23.867363,0.0 120.541204,23.867466,0.0 120.540757,23.8673,0.0 120.540033,23.867444,0.0 120.538496,23.868098,0.0 120.537542,23.868174,0.0 120.538046,23.867604,0.0 120.538138,23.867455,0.0 120.538482,23.866939,0.0 120.539452,23.866137,0.0 120.540557,23.865531,0.0 120.542165,23.864778,0.0 120.542523,23.864528,0.0 120.542808,23.864383,0.0 120.543125,23.864134,0.0 120.543383,23.863808,0.0 120.543619,23.863352,0.0 120.544153,23.862918,0.0 120.545354,23.861848,0.0 120.545622,23.861385,0.0 120.546453,23.860284,0.0 120.547118,23.859353,0.0 120.547168,23.858797,0.0 120.547446,23.85859,0.0 120.548749,23.858437,0.0 120.549813,23.858302,0.0 120.550002,23.858462,0.0 120.550946,23.858047,0.0 120.551395,23.85764,0.0 120.551894,23.856799,0.0 120.552467,23.855683,0.0 120.552537,23.855327,0.0 120.552748,23.855029,0.0 120.552901,23.854724,0.0 120.553226,23.854271,0.0 120.553789,23.854039,0.0 120.5568,23.852906,0.0 120.560408,23.85157,0.0 120.56201,23.85081,0.0 120.564073,23.84984,0.0 120.567617,23.848144,0.0 120.569093,23.847208,0.0 120.569624,23.847779,0.0 120.570275,23.848479,0.0 120.57071,23.848944,0.0 120.571024,23.849295,0.0 120.571618,23.849951,0.0 120.57229,23.850709,0.0 120.572737,23.851208,0.0 120.573162,23.851767,0.0 120.57259,23.851529,0.0 120.572125,23.851332,0.0 120.571677,23.851463,0.0 120.571203,23.851803,0.0 120.570702,23.852166,0.0 120.570267,23.85248,0.0 120.569834,23.852779,0.0 120.569312,23.85316,0.0 120.568972,23.853407,0.0 120.56862,23.853658,0.0 120.568246,23.853921,0.0 120.567905,23.854169,0.0 120.567737,23.854287,0.0 120.567494,23.854456,0.0 120.567354,23.854557,0.0 120.567283,23.854616,0.0 120.566818,23.855022,0.0 120.566585,23.855222,0.0 120.566434,23.855354,0.0 120.566115,23.855627,0.0 120.565952,23.855756,0.0 120.565617,23.856007,0.0 120.565428,23.856149,0.0 120.564664,23.856713,0.0 120.56395,23.857246,0.0 120.563329,23.857701,0.0 120.563155,23.857824,0.0 120.563055,23.857897,0.0 120.56286,23.858286,0.0 120.562511,23.859009,0.0 120.562142,23.859765,0.0 120.561964,23.860131,0.0 120.561846,23.860387,0.0 120.561648,23.860558,0.0 120.560928,23.861087,0.0 120.560157,23.86166,0.0 120.55944,23.862177,0.0 120.559005,23.862485,0.0 120.558404,23.862924,0.0 120.558129,23.863122,0.0 120.557874,23.863292,0.0 120.557537,23.863544,0.0 120.557189,23.863794,0.0 120.55694,23.863984,0.0 120.556612,23.864224,0.0 120.556431,23.864369,0.0 120.556152,23.864564,0.0 120.555986,23.864642,0.0 120.555858,23.864676,0.0 120.555659,23.864703,0.0 120.555317,23.864764,0.0 120.554896,23.864867,0.0 120.554735,23.864915,0.0 120.554712,23.865016,0.0 120.554738,23.865361,0.0 120.554772,23.86581,0.0 120.554798,23.866241,0.0 120.554834,23.866782,0.0 120.554851,23.86707,0.0 120.554869,23.867483,0.0 120.554884,23.867696,0.0 120.554893,23.867897,0.0 120.554908,23.868075,0.0 120.554924,23.868397,0.0 120.554938,23.86868,0.0 120.554958,23.868876,0.0 120.554968,23.869613,0.0 120.554972,23.869933,0.0</coordinates></LinearRing></outerBoundaryIs></Polygon><styleUrl>#spolygon-map</styleUrl></Placemark><Placemark><Polygon><outerBoundaryIs><LinearRing><coordinates>120.524764,23.86683,0.0 120.524915,23.867791,0.0 120.52494,23.869077,0.0 120.524975,23.869121,0.0 120.525304,23.869215,0.0 120.525278,23.869937,0.0 120.524635,23.870387,0.0 120.524484,23.870843,0.0 120.524243,23.872169,0.0 120.522358,23.87197,0.0 120.522187,23.871442,0.0 120.522791,23.871125,0.0 120.52317,23.869774,0.0 120.52345,23.868737,0.0 120.523671,23.867928,0.0 120.52437,23.867133,0.0 120.524764,23.86683,0.0</coordinates></LinearRing></outerBoundaryIs></Polygon><styleUrl>#spolygon-map</styleUrl></Placemark><Placemark><Polygon><outerBoundaryIs><LinearRing><coordinates>120.525958,23.872325,0.0 120.524733,23.872222,0.0 120.52453,23.87219,0.0 120.524331,23.871638,0.0 120.524599,23.870403,0.0 120.525186,23.870449,0.0 120.52529,23.869738,0.0 120.525257,23.869127,0.0 120.52494,23.869104,0.0 120.524953,23.868631,0.0 120.524832,23.867027,0.0 120.524479,23.865919,0.0 120.524068,23.864756,0.0 120.523621,23.863539,0.0 120.523697,23.863411,0.0 120.524346,23.863195,0.0 120.524936,23.863146,0.0 120.525838,23.863012,0.0 120.526233,23.86302,0.0 120.52755,23.863216,0.0 120.52815,23.863255,0.0 120.528546,23.8635,0.0 120.528719,23.864127,0.0 120.52881,23.864877,0.0 120.528774,23.865545,0.0 120.528483,23.8667,0.0 120.528271,23.867428,0.0 120.527892,23.868167,0.0 120.527572,23.868857,0.0 120.527298,23.869277,0.0 120.526974,23.869211,0.0 120.526022,23.869171,0.0 120.52592,23.86942,0.0 120.525786,23.870524,0.0 120.526273,23.870663,0.0 120.52631,23.870762,0.0 120.526095,23.871736,0.0 120.525958,23.872325,0.0</coordinates></LinearRing></outerBoundaryIs></Polygon><styleUrl>#spolygon-map</styleUrl></Placemark><Placemark><Polygon><outerBoundaryIs><LinearRing><coordinates>120.528344,23.872411,0.0 120.527757,23.872404,0.0 120.526812,23.872385,0.0 120.525958,23.872325,0.0 120.526261,23.870967,0.0 120.526303,23.870711,0.0 120.525782,23.870541,0.0 120.525855,23.870009,0.0 120.525966,23.869188,0.0 120.526557,23.869206,0.0 120.52728,23.869277,0.0 120.527358,23.869223,0.0 120.527741,23.868485,0.0 120.528169,23.867616,0.0 120.528385,23.867039,0.0 120.528664,23.866144,0.0 120.528812,23.865346,0.0 120.528756,23.864353,0.0 120.528646,23.863788,0.0 120.528457,23.863356,0.0 120.5279,23.863241,0.0 120.526924,23.863159,0.0 120.526035,23.862999,0.0 120.52526,23.863109,0.0 120.524566,23.863165,0.0 120.523804,23.86336,0.0 120.523599,23.863466,0.0 120.523476,23.862947,0.0 120.523186,23.862111,0.0 120.522744,23.861338,0.0 120.521847,23.860009,0.0 120.522141,23.859563,0.0 120.522443,23.859107,0.0 120.522631,23.858866,0.0 120.522655,23.858794,0.0 120.52272,23.858707,0.0 120.52281,23.858609,0.0 120.52304,23.858387,0.0 120.52333,23.858134,0.0 120.523205,23.857834,0.0 120.523103,23.857595,0.0 120.522965,23.857257,0.0 120.522851,23.856974,0.0 120.522708,23.856617,0.0 120.522564,23.85625,0.0 120.522482,23.856048,0.0 120.522221,23.855423,0.0 120.521998,23.854896,0.0 120.521824,23.854484,0.0 120.521841,23.854442,0.0 120.522066,23.854284,0.0 120.522622,23.853948,0.0 120.523024,23.853706,0.0 120.523128,23.853625,0.0 120.523266,23.853477,0.0 120.523605,23.853114,0.0 120.524029,23.852643,0.0 120.524341,23.852314,0.0 120.524629,23.852023,0.0 120.524913,23.851723,0.0 120.525315,23.851315,0.0 120.525542,23.851066,0.0 120.52607,23.850505,0.0 120.526342,23.85026,0.0 120.526538,23.850091,0.0 120.526802,23.849862,0.0 120.527011,23.849629,0.0 120.527165,23.849436,0.0 120.527324,23.849165,0.0 120.527477,23.848884,0.0 120.527582,23.84872,0.0 120.52774,23.848509,0.0 120.527877,23.848319,0.0 120.528109,23.848088,0.0 120.528384,23.847768,0.0 120.528513,23.847581,0.0 120.528648,23.847318,0.0 120.528714,23.847139,0.0 120.528827,23.846868,0.0 120.528868,23.846757,0.0 120.528906,23.846708,0.0 120.529161,23.846571,0.0 120.529419,23.846424,0.0 120.52966,23.846258,0.0 120.529902,23.846081,0.0 120.530182,23.845868,0.0 120.530338,23.845742,0.0 120.530523,23.84558,0.0 120.530654,23.845449,0.0 120.530788,23.845291,0.0 120.530918,23.845127,0.0 120.531031,23.84492,0.0 120.531066,23.8448,0.0 120.531083,23.844702,0.0 120.531118,23.844606,0.0 120.531178,23.844475,0.0 120.531458,23.844175,0.0 120.531623,23.844007,0.0 120.531733,23.843847,0.0 120.531839,23.843647,0.0 120.531936,23.843434,0.0 120.532033,23.843289,0.0 120.532216,23.843112,0.0 120.53256,23.842943,0.0 120.532934,23.84278,0.0 120.53319,23.842661,0.0 120.533988,23.842234,0.0 120.534568,23.841935,0.0 120.535233,23.841582,0.0 120.535429,23.84147,0.0 120.535446,23.841513,0.0 120.535407,23.841639,0.0 120.535297,23.841931,0.0 120.535238,23.842116,0.0 120.535099,23.842442,0.0 120.534776,23.84327,0.0 120.534634,23.843644,0.0 120.534452,23.844113,0.0 120.534337,23.844405,0.0 120.534222,23.844695,0.0 120.534007,23.845257,0.0 120.533824,23.845716,0.0 120.533672,23.846124,0.0 120.533279,23.846966,0.0 120.533035,23.847444,0.0 120.532674,23.848245,0.0 120.532228,23.849392,0.0 120.531823,23.850473,0.0 120.531359,23.851707,0.0 120.531123,23.852364,0.0 120.531095,23.852467,0.0 120.531138,23.852487,0.0 120.531405,23.852519,0.0 120.53169,23.852533,0.0 120.531927,23.852542,0.0 120.532167,23.852532,0.0 120.532374,23.852527,0.0 120.532605,23.852511,0.0 120.532862,23.852504,0.0 120.533127,23.852516,0.0 120.533481,23.852519,0.0 120.533678,23.852498,0.0 120.53385,23.852498,0.0 120.53406,23.852485,0.0 120.534357,23.85247,0.0 120.534595,23.852465,0.0 120.534904,23.852466,0.0 120.535047,23.852455,0.0 120.535402,23.852442,0.0 120.535676,23.852434,0.0 120.535935,23.852433,0.0 120.536121,23.852421,0.0 120.536454,23.852385,0.0 120.536712,23.85235,0.0 120.536991,23.852318,0.0 120.537217,23.852296,0.0 120.53744,23.852272,0.0 120.537714,23.852242,0.0 120.53825,23.852181,0.0 120.538399,23.852154,0.0 120.53849,23.852149,0.0 120.538618,23.852342,0.0 120.538543,23.852574,0.0 120.536533,23.854048,0.0 120.535739,23.854663,0.0 120.535539,23.85489,0.0 120.53544,23.855165,0.0 120.53544,23.85687,0.0 120.535423,23.858424,0.0 120.535052,23.858934,0.0 120.533917,23.860139,0.0 120.533127,23.860906,0.0 120.5324,23.861209,0.0 120.531541,23.861351,0.0 120.530844,23.861404,0.0 120.530522,23.861698,0.0 120.530526,23.86237,0.0 120.530592,23.864107,0.0 120.530633,23.864565,0.0 120.530503,23.865498,0.0 120.530173,23.866161,0.0 120.529839,23.866754,0.0 120.529461,23.867514,0.0 120.529398,23.868061,0.0 120.528901,23.868515,0.0 120.528373,23.869086,0.0 120.528281,23.869277,0.0 120.528254,23.870235,0.0 120.528239,23.871029,0.0 120.528303,23.871651,0.0 120.528343,23.872099,0.0 120.528344,23.872411,0.0</coordinates></LinearRing></outerBoundaryIs></Polygon><styleUrl>#spolygon-map</styleUrl></Placemark><Placemark><Polygon><outerBoundaryIs><LinearRing><coordinates>120.522125,23.87194,0.0 120.521769,23.871949,0.0 120.521424,23.872119,0.0 120.520925,23.872379,0.0 120.520723,23.872763,0.0 120.520377,23.872903,0.0 120.519202,23.872914,0.0 120.517923,23.873024,0.0 120.516576,23.872754,0.0 120.514013,23.869882,0.0 120.513907,23.869765,0.0 120.513561,23.869381,0.0 120.513055,23.868811,0.0 120.512586,23.868286,0.0 120.512183,23.867836,0.0 120.511787,23.867398,0.0 120.511416,23.866978,0.0 120.511104,23.866624,0.0 120.510647,23.866129,0.0 120.510476,23.865952,0.0 120.510486,23.865922,0.0 120.510637,23.865793,0.0 120.510995,23.865504,0.0 120.511098,23.86537,0.0 120.511113,23.86527,0.0 120.511158,23.865118,0.0 120.511252,23.864818,0.0 120.511462,23.864579,0.0 120.511569,23.864463,0.0 120.511687,23.864343,0.0 120.511966,23.864067,0.0 120.512119,23.863929,0.0 120.512331,23.863817,0.0 120.512494,23.863767,0.0 120.512669,23.863756,0.0 120.512919,23.863771,0.0 120.513154,23.863798,0.0 120.513428,23.86383,0.0 120.513743,23.863861,0.0 120.514081,23.863879,0.0 120.514352,23.8639,0.0 120.514554,23.863912,0.0 120.514827,23.863917,0.0 120.515007,23.86393,0.0 120.515092,23.863966,0.0 120.515255,23.864027,0.0 120.515389,23.864103,0.0 120.515574,23.864211,0.0 120.515795,23.86433,0.0 120.515974,23.864419,0.0 120.516186,23.864531,0.0 120.516301,23.864568,0.0 120.516517,23.864568,0.0 120.516654,23.864549,0.0 120.516872,23.864508,0.0 120.51734,23.864427,0.0 120.51777,23.864362,0.0 120.51815,23.864304,0.0 120.518333,23.86427,0.0 120.518457,23.864235,0.0 120.518566,23.864173,0.0 120.518636,23.864085,0.0 120.518703,23.864012,0.0 120.518931,23.863756,0.0 120.519302,23.863333,0.0 120.519654,23.862946,0.0 120.519925,23.862644,0.0 120.520104,23.862447,0.0 120.520405,23.862122,0.0 120.520631,23.861831,0.0 120.520889,23.861447,0.0 120.521224,23.860943,0.0 120.521598,23.860382,0.0 120.521847,23.860009,0.0 120.522744,23.861338,0.0 120.523186,23.862111,0.0 120.523476,23.862947,0.0 120.523599,23.863466,0.0 120.523953,23.864298,0.0 120.524193,23.865145,0.0 120.524764,23.86683,0.0 120.524016,23.867486,0.0 120.523556,23.868283,0.0 120.52342,23.86901,0.0 120.522884,23.870886,0.0 120.522585,23.871328,0.0 120.522125,23.87194,0.0</coordinates></LinearRing></outerBoundaryIs></Polygon><styleUrl>#spolygon-map</styleUrl></Placemark><Placemark><Polygon><outerBoundaryIs><LinearRing><coordinates>120.541965,23.867363,0.0 120.542017,23.867802,0.0 120.542153,23.868564,0.0 120.542121,23.869047,0.0 120.541895,23.86973,0.0 120.54185,23.870246,0.0 120.541941,23.870611,0.0 120.541947,23.870723,0.0 120.540704,23.870725,0.0 120.540511,23.87083,0.0 120.540461,23.87143,0.0 120.540299,23.873638,0.0 120.539372,23.875306,0.0 120.538355,23.874822,0.0 120.537292,23.874545,0.0 120.535975,23.874246,0.0 120.533932,23.874138,0.0 120.532849,23.874089,0.0 120.532888,23.873762,0.0 120.532936,23.872929,0.0 120.53251,23.872819,0.0 120.531831,23.872717,0.0 120.531533,23.87274,0.0 120.53121,23.872731,0.0 120.530814,23.872549,0.0 120.530545,23.872503,0.0 120.53032,23.872554,0.0 120.529114,23.872434,0.0 120.528343,23.872099,0.0 120.528303,23.871651,0.0 120.528239,23.871029,0.0 120.528254,23.870235,0.0 120.528559,23.870205,0.0 120.529108,23.86998,0.0 120.529781,23.869818,0.0 120.529988,23.869764,0.0 120.530375,23.869747,0.0 120.532461,23.869785,0.0 120.533213,23.869799,0.0 120.534529,23.869539,0.0 120.534912,23.869514,0.0 120.536667,23.868829,0.0 120.538496,23.868098,0.0 120.540033,23.867444,0.0 120.540757,23.8673,0.0 120.541204,23.867466,0.0 120.541965,23.867363,0.0</coordinates></LinearRing></outerBoundaryIs></Polygon><styleUrl>#spolygon-map</styleUrl></Placemark><Placemark><Polygon><outerBoundaryIs><LinearRing><coordinates>120.529744,23.872493,0.0 120.529613,23.873361,0.0 120.529716,23.873439,0.0 120.529713,23.87438,0.0 120.528113,23.874391,0.0 120.52745,23.874846,0.0 120.527452,23.876,0.0 120.52695,23.87736,0.0 120.525938,23.877244,0.0 120.525935,23.875509,0.0 120.525969,23.874407,0.0 120.525295,23.874024,0.0 120.525288,23.873103,0.0 120.525399,23.872907,0.0 120.525958,23.872325,0.0 120.526812,23.872385,0.0 120.527757,23.872404,0.0 120.528344,23.872411,0.0 120.529744,23.872493,0.0</coordinates></LinearRing></outerBoundaryIs></Polygon><styleUrl>#spolygon-map</styleUrl></Placemark><Placemark><Polygon><outerBoundaryIs><LinearRing><coordinates>120.52183,23.875433,0.0 120.520354,23.876396,0.0 120.518733,23.877482,0.0 120.517965,23.877285,0.0 120.517171,23.877292,0.0 120.51671,23.877369,0.0 120.516191,23.877343,0.0 120.514286,23.877347,0.0 120.513763,23.877258,0.0 120.513526,23.877153,0.0 120.513402,23.876902,0.0 120.513636,23.876251,0.0 120.51297,23.874921,0.0 120.511989,23.873042,0.0 120.510556,23.870671,0.0 120.510883,23.870659,0.0 120.511715,23.870613,0.0 120.512313,23.870579,0.0 120.512766,23.870545,0.0 120.513115,23.870462,0.0 120.51341,23.87037,0.0 120.513872,23.870167,0.0 120.513967,23.870062,0.0 120.51401,23.869941,0.0 120.51546,23.871517,0.0 120.517209,23.873462,0.0 120.518162,23.872879,0.0 120.520273,23.87295,0.0 120.520593,23.872796,0.0 120.520769,23.872425,0.0 120.521299,23.8722,0.0 120.521554,23.871992,0.0 120.521967,23.871931,0.0 120.522088,23.872232,0.0 120.521991,23.873314,0.0 120.52183,23.875433,0.0</coordinates></LinearRing></outerBoundaryIs></Polygon><styleUrl>#spolygon-map</styleUrl></Placemark><Placemark><Polygon><outerBoundaryIs><LinearRing><coordinates>120.524243,23.872169,0.0 120.524176,23.873644,0.0 120.524098,23.875357,0.0 120.524037,23.876189,0.0 120.523842,23.876942,0.0 120.523652,23.87785,0.0 120.522442,23.878115,0.0 120.522702,23.875515,0.0 120.52266,23.875368,0.0 120.52183,23.875433,0.0 120.521991,23.873314,0.0 120.522088,23.872232,0.0 120.522358,23.87197,0.0 120.524243,23.872169,0.0</coordinates></LinearRing></outerBoundaryIs></Polygon><styleUrl>#spolygon-map</styleUrl></Placemark><Placemark><Polygon><outerBoundaryIs><LinearRing><coordinates>120.548169,23.870687,0.0 120.548115,23.871007,0.0 120.548066,23.871413,0.0 120.548038,23.871613,0.0 120.548,23.871644,0.0 120.547977,23.871661,0.0 120.547844,23.871662,0.0 120.547707,23.871654,0.0 120.54763,23.871688,0.0 120.547567,23.871745,0.0 120.547542,23.871802,0.0 120.547533,23.871905,0.0 120.547546,23.871974,0.0 120.547649,23.872113,0.0 120.547778,23.872251,0.0 120.547866,23.8724,0.0 120.547927,23.872555,0.0 120.54798,23.87271,0.0 120.547976,23.872879,0.0 120.547961,23.873084,0.0 120.547832,23.873438,0.0 120.547754,23.873639,0.0 120.547666,23.873835,0.0 120.547493,23.873983,0.0 120.547333,23.874106,0.0 120.547305,23.874163,0.0 120.547294,23.874231,0.0 120.547305,23.874305,0.0 120.547411,23.874501,0.0 120.547419,23.874559,0.0 120.54743,23.87463,0.0 120.547415,23.874874,0.0 120.547392,23.875099,0.0 120.547373,23.875274,0.0 120.547358,23.875393,0.0 120.547352,23.875571,0.0 120.547324,23.875796,0.0 120.547321,23.875891,0.0 120.547326,23.876089,0.0 120.5473,23.876314,0.0 120.547289,23.876455,0.0 120.547275,23.876561,0.0 120.547244,23.876708,0.0 120.547227,23.876784,0.0 120.547232,23.876925,0.0 120.547213,23.877036,0.0 120.547199,23.877151,0.0 120.547185,23.877247,0.0 120.547176,23.877358,0.0 120.547123,23.877489,0.0 120.54708,23.877594,0.0 120.547021,23.877684,0.0 120.546939,23.877849,0.0 120.5469,23.877952,0.0 120.546882,23.878001,0.0 120.546863,23.878046,0.0 120.546815,23.878232,0.0 120.546817,23.878289,0.0 120.546798,23.878349,0.0 120.546776,23.878399,0.0 120.546765,23.878571,0.0 120.546766,23.878678,0.0 120.54675,23.878743,0.0 120.546726,23.878768,0.0 120.545629,23.878085,0.0 120.544944,23.877461,0.0 120.54417,23.876692,0.0 120.543475,23.87658,0.0 120.542704,23.876441,0.0 120.541995,23.876329,0.0 120.541255,23.876105,0.0 120.540051,23.875585,0.0 120.540424,23.872266,0.0 120.540484,23.870917,0.0 120.540586,23.870753,0.0 120.541086,23.87072,0.0 120.541951,23.870688,0.0 120.541846,23.870407,0.0 120.541877,23.870019,0.0 120.542002,23.869313,0.0 120.542142,23.868825,0.0 120.54207,23.868079,0.0 120.541961,23.867493,0.0 120.542547,23.866991,0.0 120.543078,23.866573,0.0 120.544073,23.865737,0.0 120.545125,23.864897,0.0 120.546235,23.864319,0.0 120.547877,23.863959,0.0 120.548729,23.863917,0.0 120.549539,23.864025,0.0 120.551176,23.863722,0.0 120.551559,23.863734,0.0 120.551934,23.864379,0.0 120.551788,23.864412,0.0 120.55116,23.864696,0.0 120.550282,23.865046,0.0 120.550184,23.865236,0.0 120.55014,23.865476,0.0 120.55014,23.865683,0.0 120.550139,23.866038,0.0 120.549901,23.866066,0.0 120.549688,23.865953,0.0 120.549512,23.865936,0.0 120.549304,23.866243,0.0 120.549175,23.866466,0.0 120.549241,23.866674,0.0 120.549313,23.867071,0.0 120.549022,23.867785,0.0 120.548716,23.868306,0.0 120.548508,23.868495,0.0 120.548325,23.869012,0.0 120.547895,23.869972,0.0 120.547648,23.870531,0.0 120.547976,23.87056,0.0 120.548169,23.870687,0.0</coordinates></LinearRing></outerBoundaryIs></Polygon><styleUrl>#spolygon-map</styleUrl></Placemark><Placemark><Polygon><outerBoundaryIs><LinearRing><coordinates>120.526656,23.883273,0.0 120.526525,23.883189,0.0 120.526192,23.882942,0.0 120.525926,23.88274,0.0 120.525609,23.882835,0.0 120.525347,23.883003,0.0 120.524836,23.883246,0.0 120.524656,23.883296,0.0 120.524223,23.883425,0.0 120.523931,23.883526,0.0 120.523509,23.88366,0.0 120.52321,23.883795,0.0 120.522546,23.882335,0.0 120.522742,23.882044,0.0 120.522981,23.881367,0.0 120.523045,23.88074,0.0 120.52333,23.879532,0.0 120.523609,23.878153,0.0 120.523733,23.877502,0.0 120.523983,23.876326,0.0 120.524053,23.876043,0.0 120.524109,23.874698,0.0 120.524217,23.872743,0.0 120.52453,23.87219,0.0 120.524733,23.872222,0.0 120.525399,23.872907,0.0 120.525288,23.873103,0.0 120.525295,23.874024,0.0 120.525969,23.874407,0.0 120.525935,23.875509,0.0 120.525938,23.877244,0.0 120.52695,23.87736,0.0 120.527457,23.877402,0.0 120.527458,23.877755,0.0 120.527436,23.878884,0.0 120.52797,23.878965,0.0 120.528224,23.879054,0.0 120.528237,23.879547,0.0 120.528304,23.879895,0.0 120.52872,23.880708,0.0 120.528241,23.881599,0.0 120.527019,23.8829,0.0 120.526656,23.883273,0.0</coordinates></LinearRing></outerBoundaryIs></Polygon><styleUrl>#spolygon-map</styleUrl></Placemark><Placemark><Polygon><outerBoundaryIs><LinearRing><coordinates>120.538694,23.885033,0.0 120.538595,23.885014,0.0 120.538466,23.884952,0.0 120.538355,23.884883,0.0 120.538297,23.884865,0.0 120.538181,23.884863,0.0 120.538055,23.884891,0.0 120.537969,23.884952,0.0 120.537824,23.885063,0.0 120.537726,23.885108,0.0 120.537651,23.885139,0.0 120.537564,23.885166,0.0 120.537498,23.885181,0.0 120.537393,23.885197,0.0 120.537245,23.885202,0.0 120.537109,23.88519,0.0 120.536978,23.885166,0.0 120.536907,23.885144,0.0 120.536817,23.885135,0.0 120.53664,23.885121,0.0 120.536425,23.8851,0.0 120.536288,23.885097,0.0 120.536128,23.885086,0.0 120.535993,23.885075,0.0 120.535931,23.885068,0.0 120.535838,23.885056,0.0 120.535755,23.885041,0.0 120.535638,23.885014,0.0 120.535471,23.884938,0.0 120.535355,23.884881,0.0 120.535281,23.884814,0.0 120.535195,23.884738,0.0 120.535114,23.884634,0.0 120.535063,23.884575,0.0 120.534998,23.884497,0.0 120.534938,23.884426,0.0 120.534882,23.884371,0.0 120.53478,23.88427,0.0 120.534673,23.884199,0.0 120.534615,23.884174,0.0 120.53449,23.884147,0.0 120.534281,23.884124,0.0 120.534039,23.884125,0.0 120.533799,23.884126,0.0 120.533661,23.884136,0.0 120.53339,23.884148,0.0 120.533083,23.884184,0.0 120.533002,23.884205,0.0 120.532823,23.884244,0.0 120.532592,23.884283,0.0 120.53227,23.884341,0.0 120.531959,23.884393,0.0 120.53167,23.884431,0.0 120.53152,23.884417,0.0 120.531342,23.884343,0.0 120.531097,23.884206,0.0 120.530758,23.884003,0.0 120.530525,23.883873,0.0 120.530201,23.883743,0.0 120.529792,23.883621,0.0 120.529381,23.883507,0.0 120.528957,23.88339,0.0 120.528531,23.883277,0.0 120.528211,23.883192,0.0 120.528008,23.883159,0.0 120.527844,23.883136,0.0 120.527675,23.883151,0.0 120.527503,23.883177,0.0 120.527348,23.883214,0.0 120.527129,23.883294,0.0 120.527007,23.883322,0.0 120.526822,23.883325,0.0 120.526696,23.883294,0.0 120.527019,23.8829,0.0 120.528241,23.881599,0.0 120.52872,23.880708,0.0 120.528304,23.879895,0.0 120.528237,23.879547,0.0 120.528224,23.879054,0.0 120.52797,23.878965,0.0 120.527436,23.878884,0.0 120.527458,23.877755,0.0 120.527457,23.877402,0.0 120.527452,23.876,0.0 120.52745,23.874846,0.0 120.528113,23.874391,0.0 120.529713,23.87438,0.0 120.529716,23.873439,0.0 120.529613,23.873361,0.0 120.529744,23.872493,0.0 120.530397,23.872537,0.0 120.530609,23.872503,0.0 120.53112,23.872675,0.0 120.531333,23.872746,0.0 120.531707,23.87272,0.0 120.531906,23.872736,0.0 120.532912,23.872887,0.0 120.532912,23.873297,0.0 120.532888,23.873888,0.0 120.533241,23.87409,0.0 120.535292,23.874204,0.0 120.536171,23.8743,0.0 120.538202,23.874795,0.0 120.538585,23.874937,0.0 120.540051,23.875585,0.0 120.541255,23.876105,0.0 120.541995,23.876329,0.0 120.542704,23.876441,0.0 120.543475,23.87658,0.0 120.54417,23.876692,0.0 120.544944,23.877461,0.0 120.545629,23.878085,0.0 120.546726,23.878768,0.0 120.54673,23.878805,0.0 120.546711,23.878869,0.0 120.546698,23.87903,0.0 120.546689,23.87909,0.0 120.546672,23.879159,0.0 120.546628,23.879277,0.0 120.546591,23.879387,0.0 120.546578,23.879439,0.0 120.546573,23.879483,0.0 120.54649,23.87962,0.0 120.546402,23.8798,0.0 120.546255,23.88008,0.0 120.54621,23.880147,0.0 120.546156,23.88029,0.0 120.546092,23.880454,0.0 120.54607,23.880546,0.0 120.545966,23.880739,0.0 120.545943,23.880832,0.0 120.545919,23.880922,0.0 120.545885,23.880989,0.0 120.545859,23.881053,0.0 120.545828,23.881208,0.0 120.545774,23.881348,0.0 120.545743,23.881447,0.0 120.545713,23.881523,0.0 120.545695,23.8816,0.0 120.545669,23.881687,0.0 120.545618,23.88176,0.0 120.545569,23.881818,0.0 120.545503,23.88196,0.0 120.545459,23.88209,0.0 120.545389,23.882173,0.0 120.545281,23.882295,0.0 120.545214,23.882383,0.0 120.54517,23.882463,0.0 120.545006,23.882613,0.0 120.544877,23.882732,0.0 120.544815,23.882766,0.0 120.544671,23.882867,0.0 120.544549,23.882922,0.0 120.544402,23.882997,0.0 120.544267,23.883045,0.0 120.544171,23.883088,0.0 120.544066,23.883136,0.0 120.543978,23.883156,0.0 120.5439,23.883178,0.0 120.543807,23.883221,0.0 120.543718,23.883269,0.0 120.543629,23.883334,0.0 120.543536,23.883392,0.0 120.543441,23.883465,0.0 120.543325,23.883559,0.0 120.543161,23.883699,0.0 120.543103,23.883756,0.0 120.543048,23.883766,0.0 120.542979,23.883777,0.0 120.542797,23.88383,0.0 120.542733,23.883845,0.0 120.54259,23.883902,0.0 120.542492,23.883938,0.0 120.542387,23.883968,0.0 120.542326,23.883993,0.0 120.542235,23.884018,0.0 120.542183,23.884028,0.0 120.542099,23.884064,0.0 120.542028,23.884121,0.0 120.541977,23.884146,0.0 120.541853,23.884184,0.0 120.541711,23.884239,0.0 120.541574,23.884312,0.0 120.541471,23.884381,0.0 120.54142,23.884414,0.0 120.541367,23.884476,0.0 120.541294,23.884544,0.0 120.541165,23.884624,0.0 120.541052,23.884682,0.0 120.540961,23.884697,0.0 120.540747,23.88471,0.0 120.540675,23.884716,0.0 120.540542,23.884737,0.0 120.540429,23.884752,0.0 120.540342,23.88477,0.0 120.540245,23.884788,0.0 120.540138,23.884806,0.0 120.539983,23.884831,0.0 120.539801,23.884864,0.0 120.539554,23.88491,0.0 120.539407,23.884935,0.0 120.539311,23.884955,0.0 120.539118,23.884994,0.0 120.538983,23.885021,0.0 120.538892,23.885027,0.0 120.538694,23.885033,0.0</coordinates></LinearRing></outerBoundaryIs></Polygon><styleUrl>#spolygon-map</styleUrl></Placemark><Placemark><Polygon><outerBoundaryIs><LinearRing><coordinates>120.515779,23.890001,0.0 120.515604,23.890141,0.0 120.515389,23.890282,0.0 120.515254,23.890364,0.0 120.514944,23.890484,0.0 120.514729,23.89056,0.0 120.514428,23.890668,0.0 120.514149,23.890772,0.0 120.513839,23.89089,0.0 120.513646,23.890983,0.0 120.513386,23.891128,0.0 120.513159,23.891252,0.0 120.51288,23.891411,0.0 120.512412,23.891664,0.0 120.511837,23.89196,0.0 120.511575,23.892097,0.0 120.511494,23.892134,0.0 120.511337,23.892193,0.0 120.51104,23.892311,0.0 120.510836,23.892395,0.0 120.510531,23.892513,0.0 120.510264,23.892623,0.0 120.509976,23.892744,0.0 120.509726,23.892851,0.0 120.509756,23.892506,0.0 120.509729,23.89232,0.0 120.509874,23.892228,0.0 120.509772,23.89175,0.0 120.509718,23.891431,0.0 120.509301,23.890696,0.0 120.508901,23.889205,0.0 120.508312,23.886835,0.0 120.50786,23.885244,0.0 120.507487,23.884811,0.0 120.507585,23.884047,0.0 120.508518,23.884088,0.0 120.508697,23.883859,0.0 120.509097,23.883612,0.0 120.509918,23.883637,0.0 120.511385,23.883756,0.0 120.511535,23.883347,0.0 120.511845,23.882466,0.0 120.512352,23.880438,0.0 120.512918,23.878656,0.0 120.512961,23.878372,0.0 120.513176,23.878165,0.0 120.514176,23.877743,0.0 120.514286,23.877347,0.0 120.516191,23.877343,0.0 120.51671,23.877369,0.0 120.517171,23.877292,0.0 120.517965,23.877285,0.0 120.518733,23.877482,0.0 120.520354,23.876396,0.0 120.52183,23.875433,0.0 120.52266,23.875368,0.0 120.522702,23.875515,0.0 120.522442,23.878115,0.0 120.52353,23.878576,0.0 120.523137,23.880481,0.0 120.523007,23.880975,0.0 120.522933,23.881537,0.0 120.522632,23.88224,0.0 120.522819,23.882911,0.0 120.523157,23.883825,0.0 120.522663,23.884122,0.0 120.522456,23.884287,0.0 120.52228,23.884361,0.0 120.522085,23.884611,0.0 120.52193,23.884937,0.0 120.521787,23.885252,0.0 120.521684,23.88546,0.0 120.521396,23.885632,0.0 120.521177,23.885762,0.0 120.521009,23.885867,0.0 120.520859,23.885918,0.0 120.520698,23.886009,0.0 120.520689,23.886403,0.0 120.520669,23.886608,0.0 120.520649,23.886818,0.0 120.520599,23.886976,0.0 120.520553,23.887109,0.0 120.520447,23.88729,0.0 120.520342,23.887443,0.0 120.520207,23.887628,0.0 120.520066,23.88779,0.0 120.519905,23.887962,0.0 120.519826,23.888036,0.0 120.519661,23.888097,0.0 120.519509,23.888147,0.0 120.519413,23.888166,0.0 120.51923,23.888196,0.0 120.519036,23.888217,0.0 120.518791,23.888232,0.0 120.51861,23.888216,0.0 120.51847,23.8882,0.0 120.518323,23.888193,0.0 120.518199,23.88823,0.0 120.518053,23.8883,0.0 120.517869,23.888396,0.0 120.517681,23.888498,0.0 120.517485,23.888605,0.0 120.517365,23.888668,0.0 120.517226,23.888778,0.0 120.517061,23.888903,0.0 120.516882,23.889038,0.0 120.516698,23.889171,0.0 120.516538,23.889297,0.0 120.516318,23.889502,0.0 120.516161,23.889652,0.0 120.516003,23.889798,0.0 120.515779,23.890001,0.0</coordinates></LinearRing></outerBoundaryIs></Polygon><styleUrl>#spolygon-map</styleUrl></Placemark><Placemark><Polygon><outerBoundaryIs><LinearRing><coordinates>120.509726,23.892851,0.0 120.509421,23.89298,0.0 120.509115,23.893069,0.0 120.508917,23.89315,0.0 120.508603,23.893225,0.0 120.508307,23.893267,0.0 120.507974,23.893315,0.0 120.507403,23.893344,0.0 120.506762,23.893445,0.0 120.505877,23.893608,0.0 120.505061,23.893828,0.0 120.504206,23.894035,0.0 120.503771,23.894136,0.0 120.503346,23.894123,0.0 120.502454,23.894021,0.0 120.501836,23.893948,0.0 120.501617,23.893932,0.0 120.501311,23.894049,0.0 120.501066,23.894222,0.0 120.500717,23.894497,0.0 120.500393,23.8948,0.0 120.500079,23.894961,0.0 120.500054,23.894705,0.0 120.500162,23.894458,0.0 120.500387,23.893898,0.0 120.500462,23.893603,0.0 120.500458,23.893284,0.0 120.500365,23.892901,0.0 120.500037,23.89215,0.0 120.499704,23.891396,0.0 120.499517,23.891032,0.0 120.499307,23.890677,0.0 120.499171,23.890303,0.0 120.499104,23.889892,0.0 120.499133,23.88908,0.0 120.499205,23.888291,0.0 120.499313,23.887073,0.0 120.499412,23.885867,0.0 120.499525,23.884458,0.0 120.49957,23.883812,0.0 120.499603,23.883036,0.0 120.49967,23.88248,0.0 120.500032,23.882043,0.0 120.500526,23.881486,0.0 120.500996,23.880927,0.0 120.501498,23.880373,0.0 120.501627,23.880239,0.0 120.50174,23.88005,0.0 120.501944,23.879273,0.0 120.501962,23.879068,0.0 120.501989,23.878835,0.0 120.502025,23.878469,0.0 120.502069,23.878059,0.0 120.502168,23.876857,0.0 120.502263,23.875741,0.0 120.502393,23.875474,0.0 120.502652,23.875127,0.0 120.502968,23.874857,0.0 120.50339,23.874721,0.0 120.50379,23.874576,0.0 120.504164,23.874364,0.0 120.5046,23.873923,0.0 120.505202,23.873247,0.0 120.505618,23.872782,0.0 120.506033,23.87232,0.0 120.506387,23.871891,0.0 120.506691,23.871543,0.0 120.507028,23.871249,0.0 120.507307,23.871086,0.0 120.507591,23.870933,0.0 120.508019,23.87082,0.0 120.508217,23.87078,0.0 120.508306,23.870768,0.0 120.508503,23.870769,0.0 120.508796,23.870758,0.0 120.509119,23.870733,0.0 120.509463,23.870711,0.0 120.509849,23.870689,0.0 120.510391,23.870679,0.0 120.511332,23.871989,0.0 120.512502,23.873955,0.0 120.513583,23.876141,0.0 120.513564,23.876465,0.0 120.513419,23.877011,0.0 120.51365,23.877214,0.0 120.514024,23.877302,0.0 120.514255,23.87768,0.0 120.513426,23.878035,0.0 120.513045,23.878241,0.0 120.512942,23.878531,0.0 120.512629,23.879555,0.0 120.512068,23.881538,0.0 120.51176,23.882815,0.0 120.511427,23.883724,0.0 120.510619,23.883715,0.0 120.509329,23.883613,0.0 120.50883,23.883661,0.0 120.50862,23.884023,0.0 120.50837,23.884109,0.0 120.507567,23.884052,0.0 120.507731,23.88485,0.0 120.508048,23.885763,0.0 120.508619,23.888056,0.0 120.509051,23.88981,0.0 120.509352,23.89086,0.0 120.509736,23.891521,0.0 120.509875,23.892109,0.0 120.509807,23.892258,0.0 120.509725,23.892394,0.0 120.509804,23.892598,0.0 120.509726,23.892851,0.0</coordinates></LinearRing></outerBoundaryIs></Polygon><styleUrl>#spolygon-map</styleUrl></Placemark></Document>
</kml>
