<?xml version="1.0" encoding="UTF-8"?>
<kml xmlns="http://www.opengis.net/kml/2.2">
	<Document>
		<name>彰化縣大村鄉</name>
		<Style id="spolygon">
			<LabelStyle>
				<scale>0.0</scale>
			</LabelStyle>
			<LineStyle>
				<color>330030ff</color>
				<width>0</width>
			</LineStyle>
			<PolyStyle>
				<color>330030ff</color>
			</PolyStyle>
		</Style>
		<StyleMap id="spolygon-map">
			<Pair>
				<key>normal</key>
				<styleUrl>#spolygon</styleUrl>
			</Pair>
		</StyleMap>
	<Placemark><Polygon><outerBoundaryIs><LinearRing><coordinates>120.53707,23.978403,0.0 120.535635,23.977757,0.0 120.53509,23.97719,0.0 120.534423,23.978654,0.0 120.533417,23.979244,0.0 120.532737,23.979467,0.0 120.532531,23.979564,0.0 120.532113,23.979639,0.0 120.531914,23.979995,0.0 120.531777,23.980022,0.0 120.53099,23.980889,0.0 120.529603,23.981603,0.0 120.528099,23.982356,0.0 120.527729,23.982411,0.0 120.52704,23.982247,0.0 120.526773,23.982261,0.0 120.526137,23.982166,0.0 120.523808,23.981617,0.0 120.522163,23.980561,0.0 120.522757,23.979288,0.0 120.523189,23.978035,0.0 120.52341,23.977384,0.0 120.523993,23.977495,0.0 120.524951,23.977674,0.0 120.525935,23.97787,0.0 120.526493,23.977967,0.0 120.526977,23.977921,0.0 120.527247,23.977874,0.0 120.527525,23.977882,0.0 120.527759,23.977876,0.0 120.528053,23.977804,0.0 120.528844,23.977548,0.0 120.529281,23.977437,0.0 120.52962,23.977395,0.0 120.530265,23.977415,0.0 120.530578,23.977481,0.0 120.530633,23.977583,0.0 120.530719,23.977834,0.0 120.530845,23.977976,0.0 120.53105,23.978173,0.0 120.531248,23.97825,0.0 120.531447,23.978264,0.0 120.531677,23.978214,0.0 120.531974,23.978113,0.0 120.532549,23.977901,0.0 120.532862,23.977691,0.0 120.533021,23.977488,0.0 120.533138,23.977292,0.0 120.533206,23.977166,0.0 120.5333,23.976592,0.0 120.533283,23.976009,0.0 120.533352,23.97573,0.0 120.533517,23.97545,0.0 120.533878,23.975008,0.0 120.534122,23.974639,0.0 120.534401,23.973955,0.0 120.534751,23.973622,0.0 120.535161,23.973393,0.0 120.535398,23.973247,0.0 120.535738,23.973006,0.0 120.535949,23.972817,0.0 120.536022,23.972627,0.0 120.536205,23.972334,0.0 120.536445,23.972079,0.0 120.536903,23.971847,0.0 120.537592,23.971494,0.0 120.538115,23.971273,0.0 120.538471,23.97116,0.0 120.539065,23.971067,0.0 120.539385,23.971018,0.0 120.539842,23.970976,0.0 120.540176,23.970991,0.0 120.540585,23.971132,0.0 120.54093,23.971253,0.0 120.541194,23.97131,0.0 120.541434,23.971318,0.0 120.541504,23.971419,0.0 120.541497,23.971536,0.0 120.541412,23.971776,0.0 120.541567,23.972079,0.0 120.541834,23.972483,0.0 120.542063,23.972775,0.0 120.542381,23.973016,0.0 120.542805,23.973247,0.0 120.543021,23.973437,0.0 120.543201,23.973601,0.0 120.543375,23.973828,0.0 120.543533,23.974188,0.0 120.5437,23.974458,0.0 120.543737,23.974784,0.0 120.543786,23.975045,0.0 120.543904,23.975198,0.0 120.544153,23.975476,0.0 120.544442,23.975921,0.0 120.544619,23.976253,0.0 120.544743,23.976317,0.0 120.544961,23.976321,0.0 120.543886,23.976424,0.0 120.542265,23.976339,0.0 120.540052,23.976642,0.0 120.539306,23.976908,0.0 120.538743,23.977125,0.0 120.538277,23.977391,0.0 120.538006,23.977778,0.0 120.537388,23.978262,0.0 120.53707,23.978403,0.0</coordinates></LinearRing></outerBoundaryIs></Polygon><styleUrl>#spolygon-map</styleUrl></Placemark><Placemark><Polygon><outerBoundaryIs><LinearRing><coordinates>120.574072,23.985577,0.0 120.573347,23.986239,0.0 120.572466,23.986536,0.0 120.572306,23.986953,0.0 120.571937,23.987874,0.0 120.571715,23.988472,0.0 120.571563,23.989801,0.0 120.569845,23.988328,0.0 120.568178,23.988147,0.0 120.567812,23.986966,0.0 120.569106,23.985002,0.0 120.569538,23.98258,0.0 120.569323,23.980928,0.0 120.567751,23.979406,0.0 120.568465,23.97849,0.0 120.568977,23.977961,0.0 120.568806,23.977228,0.0 120.568491,23.97642,0.0 120.569071,23.975508,0.0 120.569553,23.975103,0.0 120.5697,23.974024,0.0 120.570003,23.97379,0.0 120.570104,23.973802,0.0 120.570352,23.973741,0.0 120.570469,23.973765,0.0 120.570704,23.973788,0.0 120.570943,23.973804,0.0 120.571213,23.973833,0.0 120.571494,23.973942,0.0 120.571754,23.974085,0.0 120.57198,23.974251,0.0 120.572315,23.97441,0.0 120.572617,23.974507,0.0 120.573436,23.9748,0.0 120.573977,23.974979,0.0 120.574292,23.975053,0.0 120.574585,23.97515,0.0 120.574926,23.975299,0.0 120.575182,23.975369,0.0 120.575316,23.975427,0.0 120.575626,23.975582,0.0 120.575802,23.975629,0.0 120.575991,23.975683,0.0 120.57618,23.97568,0.0 120.57644,23.975596,0.0 120.576671,23.975577,0.0 120.576872,23.975566,0.0 120.577139,23.975544,0.0 120.577508,23.975495,0.0 120.578029,23.975446,0.0 120.5782,23.975555,0.0 120.578141,23.975639,0.0 120.577893,23.975839,0.0 120.57764,23.976181,0.0 120.577533,23.976518,0.0 120.577436,23.97678,0.0 120.577242,23.97693,0.0 120.576839,23.977183,0.0 120.576708,23.977352,0.0 120.576657,23.977444,0.0 120.576526,23.977841,0.0 120.576446,23.978001,0.0 120.576046,23.978243,0.0 120.575781,23.978466,0.0 120.575827,23.978574,0.0 120.575424,23.978693,0.0 120.575288,23.978894,0.0 120.575391,23.979435,0.0 120.575472,23.980626,0.0 120.575382,23.981865,0.0 120.575764,23.983163,0.0 120.57558,23.983699,0.0 120.575428,23.983963,0.0 120.57548,23.984137,0.0 120.575359,23.984283,0.0 120.575091,23.984466,0.0 120.574407,23.98516,0.0 120.574072,23.985577,0.0</coordinates></LinearRing></outerBoundaryIs></Polygon><styleUrl>#spolygon-map</styleUrl></Placemark><Placemark><Polygon><outerBoundaryIs><LinearRing><coordinates>120.560968,23.988906,0.0 120.560514,23.989093,0.0 120.560192,23.989314,0.0 120.559986,23.989588,0.0 120.559412,23.989712,0.0 120.558318,23.98985,0.0 120.557854,23.990265,0.0 120.557478,23.990319,0.0 120.557119,23.990232,0.0 120.557005,23.988559,0.0 120.556902,23.987824,0.0 120.556219,23.987493,0.0 120.555972,23.987131,0.0 120.55434,23.986741,0.0 120.553235,23.985243,0.0 120.553809,23.983032,0.0 120.552616,23.981945,0.0 120.551144,23.981214,0.0 120.55058,23.981118,0.0 120.548974,23.980651,0.0 120.547778,23.980254,0.0 120.54773,23.979042,0.0 120.547742,23.977997,0.0 120.547612,23.976164,0.0 120.547271,23.975506,0.0 120.547544,23.975328,0.0 120.547966,23.974995,0.0 120.548338,23.974822,0.0 120.549414,23.97475,0.0 120.549496,23.97481,0.0 120.5494,23.975075,0.0 120.549265,23.97541,0.0 120.54906,23.975902,0.0 120.548885,23.976389,0.0 120.548962,23.976536,0.0 120.549608,23.976754,0.0 120.550234,23.977001,0.0 120.550389,23.977137,0.0 120.550414,23.977292,0.0 120.550397,23.977452,0.0 120.550419,23.977595,0.0 120.550578,23.977639,0.0 120.551248,23.977737,0.0 120.552528,23.977923,0.0 120.55287,23.97798,0.0 120.553483,23.978065,0.0 120.553833,23.978137,0.0 120.553802,23.978336,0.0 120.553758,23.978558,0.0 120.553818,23.978629,0.0 120.55419,23.978714,0.0 120.554602,23.978803,0.0 120.55506,23.97892,0.0 120.55541,23.979036,0.0 120.555625,23.979175,0.0 120.555886,23.979312,0.0 120.556223,23.979357,0.0 120.556754,23.979429,0.0 120.557312,23.97953,0.0 120.557916,23.979588,0.0 120.558343,23.979592,0.0 120.558971,23.979608,0.0 120.559907,23.979762,0.0 120.560312,23.97982,0.0 120.560892,23.979858,0.0 120.561282,23.97988,0.0 120.561459,23.979895,0.0 120.561559,23.97993,0.0 120.561724,23.980037,0.0 120.561932,23.980119,0.0 120.562179,23.980169,0.0 120.562495,23.980219,0.0 120.562737,23.980192,0.0 120.562846,23.980121,0.0 120.562939,23.979955,0.0 120.562916,23.979736,0.0 120.562913,23.979439,0.0 120.562864,23.979276,0.0 120.562465,23.978749,0.0 120.562339,23.978589,0.0 120.562266,23.978437,0.0 120.562209,23.978143,0.0 120.56221,23.977923,0.0 120.562281,23.977524,0.0 120.562476,23.976896,0.0 120.562632,23.976295,0.0 120.562679,23.97602,0.0 120.562723,23.975765,0.0 120.562712,23.975482,0.0 120.562686,23.975188,0.0 120.562688,23.974478,0.0 120.562691,23.973831,0.0 120.562638,23.973418,0.0 120.562548,23.972899,0.0 120.562551,23.972547,0.0 120.562604,23.97246,0.0 120.563112,23.972482,0.0 120.56347,23.972557,0.0 120.563921,23.972698,0.0 120.564155,23.972714,0.0 120.564693,23.972756,0.0 120.565231,23.972822,0.0 120.565364,23.972893,0.0 120.565522,23.972983,0.0 120.565712,23.972964,0.0 120.565924,23.973019,0.0 120.566125,23.97314,0.0 120.566418,23.973125,0.0 120.566663,23.973141,0.0 120.566929,23.973102,0.0 120.567076,23.973072,0.0 120.56749,23.973019,0.0 120.567821,23.97306,0.0 120.568164,23.97316,0.0 120.568299,23.973305,0.0 120.568348,23.973548,0.0 120.568365,23.973717,0.0 120.568452,23.973856,0.0 120.568645,23.97403,0.0 120.569017,23.974243,0.0 120.569223,23.974309,0.0 120.569393,23.974274,0.0 120.569536,23.974201,0.0 120.5697,23.974024,0.0 120.569553,23.975103,0.0 120.569071,23.975508,0.0 120.568491,23.97642,0.0 120.568806,23.977228,0.0 120.568977,23.977961,0.0 120.568465,23.97849,0.0 120.567751,23.979406,0.0 120.567539,23.979848,0.0 120.567495,23.980225,0.0 120.567254,23.980484,0.0 120.567151,23.980837,0.0 120.566804,23.981701,0.0 120.566342,23.981865,0.0 120.565965,23.982099,0.0 120.565887,23.982445,0.0 120.565411,23.982996,0.0 120.564958,23.982955,0.0 120.564649,23.983158,0.0 120.564442,23.983935,0.0 120.564671,23.984375,0.0 120.564491,23.984563,0.0 120.564335,23.984927,0.0 120.564223,23.98517,0.0 120.563967,23.985193,0.0 120.563634,23.985035,0.0 120.563486,23.985953,0.0 120.563603,23.986515,0.0 120.563192,23.986718,0.0 120.563149,23.986874,0.0 120.563276,23.987189,0.0 120.563053,23.987479,0.0 120.562368,23.987665,0.0 120.562101,23.988363,0.0 120.561558,23.988798,0.0 120.561216,23.988813,0.0 120.560968,23.988906,0.0</coordinates></LinearRing></outerBoundaryIs></Polygon><styleUrl>#spolygon-map</styleUrl></Placemark><Placemark><Polygon><outerBoundaryIs><LinearRing><coordinates>120.549637,23.991343,0.0 120.548042,23.991045,0.0 120.546887,23.990812,0.0 120.546804,23.990736,0.0 120.546764,23.9905,0.0 120.546706,23.989767,0.0 120.545751,23.990137,0.0 120.544993,23.990346,0.0 120.54292,23.990209,0.0 120.541139,23.989831,0.0 120.541379,23.988888,0.0 120.541682,23.987723,0.0 120.541784,23.986344,0.0 120.541807,23.985595,0.0 120.54137,23.983996,0.0 120.54166,23.981648,0.0 120.542172,23.980469,0.0 120.542465,23.980152,0.0 120.542999,23.97653,0.0 120.544642,23.976436,0.0 120.545106,23.976252,0.0 120.545387,23.97618,0.0 120.545964,23.975952,0.0 120.546549,23.975687,0.0 120.547124,23.975534,0.0 120.547271,23.975506,0.0 120.547612,23.976164,0.0 120.547742,23.977997,0.0 120.54773,23.979042,0.0 120.547778,23.980254,0.0 120.548974,23.980651,0.0 120.55058,23.981118,0.0 120.551144,23.981214,0.0 120.552616,23.981945,0.0 120.553809,23.983032,0.0 120.553235,23.985243,0.0 120.552248,23.986976,0.0 120.551859,23.988005,0.0 120.551271,23.989516,0.0 120.550522,23.990766,0.0 120.549973,23.991236,0.0 120.549637,23.991343,0.0</coordinates></LinearRing></outerBoundaryIs></Polygon><styleUrl>#spolygon-map</styleUrl></Placemark><Placemark><Polygon><outerBoundaryIs><LinearRing><coordinates>120.516776,23.993456,0.0 120.516599,23.993473,0.0 120.516387,23.993572,0.0 120.516176,23.993526,0.0 120.515856,23.993448,0.0 120.515557,23.993389,0.0 120.515458,23.993307,0.0 120.515378,23.993212,0.0 120.515171,23.993161,0.0 120.515009,23.993062,0.0 120.514272,23.992829,0.0 120.514086,23.992783,0.0 120.513953,23.992887,0.0 120.513844,23.992968,0.0 120.513289,23.992677,0.0 120.512952,23.992621,0.0 120.51267,23.992832,0.0 120.512384,23.993122,0.0 120.511853,23.993627,0.0 120.511585,23.993681,0.0 120.511309,23.993651,0.0 120.511038,23.993558,0.0 120.51086,23.993317,0.0 120.510648,23.992971,0.0 120.510408,23.992912,0.0 120.510118,23.993028,0.0 120.510054,23.993169,0.0 120.50999,23.993356,0.0 120.509796,23.993376,0.0 120.509524,23.993313,0.0 120.509072,23.993191,0.0 120.50901,23.993016,0.0 120.508942,23.992673,0.0 120.50883,23.992473,0.0 120.508511,23.991936,0.0 120.508214,23.991408,0.0 120.508016,23.991379,0.0 120.507397,23.991207,0.0 120.506832,23.99102,0.0 120.50606,23.990827,0.0 120.505667,23.990796,0.0 120.505807,23.990679,0.0 120.506009,23.990564,0.0 120.506168,23.990512,0.0 120.506305,23.99042,0.0 120.506461,23.99019,0.0 120.506658,23.990073,0.0 120.506859,23.989898,0.0 120.507103,23.989654,0.0 120.507267,23.989416,0.0 120.507331,23.989161,0.0 120.507304,23.988766,0.0 120.5072,23.988512,0.0 120.507003,23.98818,0.0 120.506783,23.987954,0.0 120.506506,23.987726,0.0 120.506224,23.987581,0.0 120.505665,23.987495,0.0 120.50542,23.987466,0.0 120.505257,23.987331,0.0 120.505346,23.987172,0.0 120.505555,23.986847,0.0 120.505668,23.986725,0.0 120.505782,23.986549,0.0 120.505971,23.986252,0.0 120.50619,23.985927,0.0 120.506551,23.985395,0.0 120.50666,23.985395,0.0 120.506783,23.985449,0.0 120.506861,23.985396,0.0 120.50694,23.985224,0.0 120.507101,23.985078,0.0 120.507252,23.984803,0.0 120.507389,23.984472,0.0 120.507536,23.984071,0.0 120.507707,23.983746,0.0 120.507959,23.983411,0.0 120.508137,23.98325,0.0 120.508317,23.983097,0.0 120.508532,23.982872,0.0 120.508785,23.98258,0.0 120.508996,23.982555,0.0 120.509202,23.982505,0.0 120.509663,23.982433,0.0 120.510188,23.982118,0.0 120.51072,23.981633,0.0 120.511572,23.980801,0.0 120.51216,23.980032,0.0 120.512733,23.979596,0.0 120.513323,23.979258,0.0 120.513577,23.979157,0.0 120.513855,23.979139,0.0 120.513975,23.979059,0.0 120.514091,23.978867,0.0 120.514041,23.978433,0.0 120.514038,23.978113,0.0 120.514185,23.977983,0.0 120.514463,23.977896,0.0 120.51462,23.977892,0.0 120.515032,23.978138,0.0 120.515421,23.978146,0.0 120.515628,23.9781,0.0 120.516045,23.977893,0.0 120.516423,23.97776,0.0 120.516712,23.977841,0.0 120.516972,23.978043,0.0 120.517181,23.978288,0.0 120.51728,23.978325,0.0 120.517539,23.9783,0.0 120.518242,23.978171,0.0 120.518718,23.978143,0.0 120.519047,23.978199,0.0 120.519284,23.978211,0.0 120.519712,23.97822,0.0 120.519851,23.978162,0.0 120.520193,23.97809,0.0 120.52032,23.978058,0.0 120.520638,23.977924,0.0 120.521189,23.977511,0.0 120.521611,23.977218,0.0 120.522191,23.977194,0.0 120.522815,23.977243,0.0 120.52341,23.977384,0.0 120.523189,23.978035,0.0 120.522757,23.979288,0.0 120.522163,23.980561,0.0 120.523808,23.981617,0.0 120.526137,23.982166,0.0 120.526773,23.982261,0.0 120.52704,23.982247,0.0 120.527729,23.982411,0.0 120.527527,23.982745,0.0 120.526395,23.984191,0.0 120.525662,23.984936,0.0 120.524243,23.987055,0.0 120.523696,23.987808,0.0 120.523419,23.988472,0.0 120.520426,23.987603,0.0 120.518831,23.987278,0.0 120.518067,23.987187,0.0 120.517811,23.988311,0.0 120.517626,23.989117,0.0 120.517668,23.989456,0.0 120.517473,23.989993,0.0 120.517311,23.990336,0.0 120.517123,23.990487,0.0 120.517035,23.991014,0.0 120.517083,23.991186,0.0 120.517382,23.991364,0.0 120.517311,23.991619,0.0 120.516776,23.993456,0.0</coordinates></LinearRing></outerBoundaryIs></Polygon><styleUrl>#spolygon-map</styleUrl></Placemark><Placemark><Polygon><outerBoundaryIs><LinearRing><coordinates>120.541139,23.989831,0.0 120.540982,23.991214,0.0 120.540677,23.992682,0.0 120.540483,23.993563,0.0 120.539158,23.993559,0.0 120.538663,23.993607,0.0 120.538594,23.994019,0.0 120.536052,23.993773,0.0 120.533801,23.993603,0.0 120.530852,23.993222,0.0 120.531013,23.99256,0.0 120.530953,23.992337,0.0 120.531057,23.990731,0.0 120.531211,23.990271,0.0 120.531902,23.990322,0.0 120.532061,23.990302,0.0 120.532287,23.988848,0.0 120.532475,23.987162,0.0 120.533458,23.987262,0.0 120.535158,23.987476,0.0 120.535521,23.984493,0.0 120.535696,23.984234,0.0 120.536374,23.984313,0.0 120.536506,23.98398,0.0 120.536716,23.982352,0.0 120.536836,23.980675,0.0 120.536797,23.97888,0.0 120.536966,23.978448,0.0 120.537388,23.978262,0.0 120.538006,23.977778,0.0 120.538277,23.977391,0.0 120.538743,23.977125,0.0 120.539306,23.976908,0.0 120.540052,23.976642,0.0 120.542265,23.976339,0.0 120.542842,23.978054,0.0 120.542399,23.980469,0.0 120.541801,23.981599,0.0 120.541549,23.982495,0.0 120.54117,23.985484,0.0 120.54173,23.986195,0.0 120.541738,23.987078,0.0 120.541452,23.988387,0.0 120.541235,23.989403,0.0 120.541139,23.989831,0.0</coordinates></LinearRing></outerBoundaryIs></Polygon><styleUrl>#spolygon-map</styleUrl></Placemark><Placemark><Polygon><outerBoundaryIs><LinearRing><coordinates>120.569582,23.98913,0.0 120.56857,23.99162,0.0 120.568193,23.992175,0.0 120.56855,23.992306,0.0 120.568404,23.99272,0.0 120.568616,23.992886,0.0 120.567938,23.994317,0.0 120.566439,23.993569,0.0 120.565566,23.993335,0.0 120.56459,23.993097,0.0 120.564216,23.992218,0.0 120.563835,23.991219,0.0 120.563546,23.990689,0.0 120.560621,23.990081,0.0 120.560836,23.989156,0.0 120.561216,23.988813,0.0 120.561558,23.988798,0.0 120.562101,23.988363,0.0 120.562368,23.987665,0.0 120.563053,23.987479,0.0 120.563276,23.987189,0.0 120.563149,23.986874,0.0 120.563192,23.986718,0.0 120.563603,23.986515,0.0 120.563486,23.985953,0.0 120.563634,23.985035,0.0 120.563967,23.985193,0.0 120.564223,23.98517,0.0 120.564335,23.984927,0.0 120.564491,23.984563,0.0 120.564671,23.984375,0.0 120.564442,23.983935,0.0 120.564649,23.983158,0.0 120.564958,23.982955,0.0 120.565411,23.982996,0.0 120.565887,23.982445,0.0 120.565965,23.982099,0.0 120.566342,23.981865,0.0 120.566804,23.981701,0.0 120.567151,23.980837,0.0 120.567254,23.980484,0.0 120.567495,23.980225,0.0 120.567539,23.979848,0.0 120.567751,23.979406,0.0 120.569323,23.980928,0.0 120.569538,23.98258,0.0 120.569106,23.985002,0.0 120.567812,23.986966,0.0 120.568178,23.988147,0.0 120.569845,23.988328,0.0 120.569582,23.98913,0.0</coordinates></LinearRing></outerBoundaryIs></Polygon><styleUrl>#spolygon-map</styleUrl></Placemark><Placemark><Polygon><outerBoundaryIs><LinearRing><coordinates>120.608778,23.990149,0.0 120.608931,23.990047,0.0 120.609171,23.990053,0.0 120.609483,23.990135,0.0 120.609794,23.990305,0.0 120.610146,23.990368,0.0 120.610586,23.990451,0.0 120.610811,23.990602,0.0 120.610749,23.99096,0.0 120.610603,23.991277,0.0 120.610271,23.991596,0.0 120.610399,23.991836,0.0 120.610287,23.991944,0.0 120.610081,23.99182,0.0 120.609796,23.991937,0.0 120.609556,23.992141,0.0 120.609361,23.992167,0.0 120.609194,23.991992,0.0 120.609105,23.991782,0.0 120.60886,23.991781,0.0 120.608759,23.992006,0.0 120.608888,23.992371,0.0 120.608865,23.992769,0.0 120.608474,23.993234,0.0 120.608186,23.993396,0.0 120.608075,23.993419,0.0 120.607979,23.993527,0.0 120.608021,23.993758,0.0 120.608197,23.993779,0.0 120.608333,23.993694,0.0 120.608627,23.9935,0.0 120.609018,23.993337,0.0 120.609379,23.993256,0.0 120.609555,23.99319,0.0 120.609747,23.993058,0.0 120.609941,23.993024,0.0 120.610036,23.993122,0.0 120.610147,23.993545,0.0 120.610176,23.993611,0.0 120.610248,23.99371,0.0 120.610417,23.993754,0.0 120.610614,23.993783,0.0 120.610646,23.993834,0.0 120.610662,23.994028,0.0 120.610653,23.994256,0.0 120.610742,23.994381,0.0 120.611,23.994265,0.0 120.611345,23.994168,0.0 120.6114,23.994277,0.0 120.611301,23.994472,0.0 120.611123,23.994779,0.0 120.610946,23.995026,0.0 120.610717,23.995262,0.0 120.610442,23.995664,0.0 120.610239,23.995717,0.0 120.610077,23.995756,0.0 120.610048,23.995721,0.0 120.610118,23.99553,0.0 120.610212,23.995247,0.0 120.610186,23.994998,0.0 120.610091,23.994873,0.0 120.609972,23.994909,0.0 120.609821,23.995066,0.0 120.609685,23.995135,0.0 120.609485,23.995227,0.0 120.609276,23.995393,0.0 120.609188,23.995592,0.0 120.60917,23.995892,0.0 120.60921,23.996033,0.0 120.609303,23.996126,0.0 120.609314,23.996288,0.0 120.609368,23.996498,0.0 120.609539,23.996631,0.0 120.609599,23.996772,0.0 120.609587,23.996921,0.0 120.609491,23.997141,0.0 120.608784,23.996678,0.0 120.607539,23.995574,0.0 120.606577,23.995705,0.0 120.604759,23.995968,0.0 120.603875,23.995798,0.0 120.602891,23.995246,0.0 120.601567,23.994456,0.0 120.600711,23.994238,0.0 120.599251,23.994477,0.0 120.598727,23.994671,0.0 120.598455,23.994517,0.0 120.597983,23.994088,0.0 120.596653,23.992362,0.0 120.595693,23.991454,0.0 120.593051,23.989726,0.0 120.592718,23.989613,0.0 120.591814,23.989072,0.0 120.591142,23.988298,0.0 120.59084,23.988061,0.0 120.590552,23.987781,0.0 120.590164,23.987542,0.0 120.588772,23.986961,0.0 120.587845,23.986414,0.0 120.587573,23.986107,0.0 120.586269,23.986092,0.0 120.585343,23.988604,0.0 120.584994,23.98893,0.0 120.583353,23.988129,0.0 120.582226,23.987709,0.0 120.580056,23.987214,0.0 120.576614,23.986305,0.0 120.574072,23.985577,0.0 120.574772,23.984896,0.0 120.57526,23.984311,0.0 120.575434,23.984283,0.0 120.57545,23.984061,0.0 120.575534,23.983901,0.0 120.575725,23.983407,0.0 120.575517,23.98222,0.0 120.575337,23.981316,0.0 120.57545,23.979859,0.0 120.575283,23.979072,0.0 120.575335,23.978785,0.0 120.575677,23.978589,0.0 120.575902,23.97862,0.0 120.576112,23.978648,0.0 120.576565,23.97868,0.0 120.577163,23.978743,0.0 120.577863,23.978803,0.0 120.579023,23.978973,0.0 120.579879,23.979063,0.0 120.580173,23.97913,0.0 120.581074,23.979344,0.0 120.581749,23.979523,0.0 120.582505,23.979737,0.0 120.583092,23.979858,0.0 120.583233,23.979871,0.0 120.583621,23.979916,0.0 120.583989,23.979961,0.0 120.584398,23.980012,0.0 120.584949,23.980083,0.0 120.585944,23.980236,0.0 120.586739,23.980354,0.0 120.587392,23.980489,0.0 120.587804,23.980573,0.0 120.587981,23.980585,0.0 120.588204,23.980541,0.0 120.588449,23.980406,0.0 120.588933,23.979978,0.0 120.589171,23.979821,0.0 120.589331,23.979766,0.0 120.589418,23.979782,0.0 120.589602,23.979872,0.0 120.589824,23.98006,0.0 120.590366,23.980582,0.0 120.591,23.980996,0.0 120.591308,23.981219,0.0 120.591617,23.981447,0.0 120.591948,23.981774,0.0 120.592456,23.982208,0.0 120.592753,23.982444,0.0 120.593061,23.982664,0.0 120.593367,23.982873,0.0 120.593812,23.983084,0.0 120.594502,23.98336,0.0 120.595225,23.983597,0.0 120.59557,23.983756,0.0 120.595921,23.983951,0.0 120.596395,23.984284,0.0 120.596636,23.984454,0.0 120.597098,23.984525,0.0 120.597507,23.98454,0.0 120.597691,23.984585,0.0 120.598208,23.984818,0.0 120.598572,23.984999,0.0 120.59882,23.985195,0.0 120.599127,23.985472,0.0 120.599418,23.985716,0.0 120.599708,23.985948,0.0 120.600035,23.986261,0.0 120.600137,23.986319,0.0 120.600462,23.986365,0.0 120.601005,23.98651,0.0 120.601433,23.986732,0.0 120.601678,23.98688,0.0 120.602138,23.987255,0.0 120.602672,23.987747,0.0 120.603342,23.988329,0.0 120.603874,23.988769,0.0 120.603956,23.988908,0.0 120.603976,23.989062,0.0 120.604086,23.9895,0.0 120.604261,23.989723,0.0 120.604557,23.989972,0.0 120.604996,23.99017,0.0 120.605745,23.990328,0.0 120.606298,23.990388,0.0 120.606758,23.990374,0.0 120.606959,23.990297,0.0 120.607606,23.990069,0.0 120.607855,23.990072,0.0 120.607973,23.990171,0.0 120.608144,23.990342,0.0 120.608317,23.990301,0.0 120.608629,23.990241,0.0 120.608778,23.990149,0.0</coordinates></LinearRing></outerBoundaryIs></Polygon><styleUrl>#spolygon-map</styleUrl></Placemark><Placemark><Polygon><outerBoundaryIs><LinearRing><coordinates>120.564506,23.993081,0.0 120.562539,23.992836,0.0 120.561624,23.992896,0.0 120.559919,23.992366,0.0 120.559047,23.99228,0.0 120.558584,23.992509,0.0 120.55843,23.993003,0.0 120.557511,23.99323,0.0 120.556017,23.993323,0.0 120.555819,23.993441,0.0 120.555623,23.994432,0.0 120.555211,23.996363,0.0 120.553778,23.996184,0.0 120.553338,23.996274,0.0 120.553087,23.996461,0.0 120.552654,23.996571,0.0 120.552247,23.996751,0.0 120.551806,23.996805,0.0 120.55142,23.996658,0.0 120.550693,23.996259,0.0 120.550123,23.996578,0.0 120.549924,23.997099,0.0 120.549771,23.997294,0.0 120.549437,23.997349,0.0 120.548991,23.997132,0.0 120.547953,23.996543,0.0 120.547656,23.996351,0.0 120.548047,23.995646,0.0 120.548622,23.993993,0.0 120.549033,23.993444,0.0 120.549369,23.993296,0.0 120.54961,23.991618,0.0 120.549695,23.991334,0.0 120.550204,23.991019,0.0 120.550916,23.990251,0.0 120.55153,23.988896,0.0 120.551995,23.987633,0.0 120.55265,23.986262,0.0 120.555844,23.987068,0.0 120.556133,23.98739,0.0 120.556364,23.987564,0.0 120.557089,23.987958,0.0 120.557002,23.989493,0.0 120.557333,23.990311,0.0 120.557658,23.990304,0.0 120.558077,23.990109,0.0 120.558703,23.989773,0.0 120.559815,23.989635,0.0 120.559986,23.98951,0.0 120.560326,23.989203,0.0 120.560814,23.988976,0.0 120.560836,23.989156,0.0 120.560621,23.990081,0.0 120.563546,23.990689,0.0 120.563835,23.991219,0.0 120.564216,23.992218,0.0 120.564506,23.993081,0.0</coordinates></LinearRing></outerBoundaryIs></Polygon><styleUrl>#spolygon-map</styleUrl></Placemark><Placemark><Polygon><outerBoundaryIs><LinearRing><coordinates>120.530852,23.993222,0.0 120.530703,23.993996,0.0 120.530412,23.994136,0.0 120.529763,23.994424,0.0 120.529506,23.99458,0.0 120.529275,23.994744,0.0 120.529305,23.995657,0.0 120.529193,23.995837,0.0 120.529175,23.998506,0.0 120.529222,23.999567,0.0 120.529118,23.999935,0.0 120.529066,24.000272,0.0 120.528807,24.000831,0.0 120.528711,24.001207,0.0 120.52863,24.002371,0.0 120.528519,24.002488,0.0 120.528202,24.002589,0.0 120.527928,24.002807,0.0 120.527755,24.003403,0.0 120.52717,24.003733,0.0 120.526943,24.003768,0.0 120.526835,24.003712,0.0 120.526778,24.00365,0.0 120.526755,24.00356,0.0 120.526857,24.003115,0.0 120.52684,24.002996,0.0 120.526785,24.002899,0.0 120.526748,24.002797,0.0 120.526718,24.002712,0.0 120.526681,24.002591,0.0 120.526631,24.002444,0.0 120.526604,24.002361,0.0 120.526546,24.00225,0.0 120.526539,24.00211,0.0 120.526553,24.001895,0.0 120.526576,24.001745,0.0 120.526594,24.001663,0.0 120.526609,24.001515,0.0 120.52661,24.001391,0.0 120.526603,24.001257,0.0 120.526626,24.001109,0.0 120.526626,24.001051,0.0 120.526573,24.001036,0.0 120.526335,24.001022,0.0 120.526106,24.001012,0.0 120.525988,24.001002,0.0 120.525955,24.000952,0.0 120.525923,24.000866,0.0 120.52583,24.000838,0.0 120.525733,24.000833,0.0 120.525598,24.000819,0.0 120.525409,24.000795,0.0 120.525291,24.000779,0.0 120.525128,24.000764,0.0 120.524912,24.000757,0.0 120.524728,24.000747,0.0 120.524603,24.000758,0.0 120.524508,24.000755,0.0 120.524455,24.000811,0.0 120.524424,24.000974,0.0 120.524384,24.001103,0.0 120.524285,24.001147,0.0 120.524052,24.001139,0.0 120.523856,24.001125,0.0 120.523803,24.001083,0.0 120.523786,24.000995,0.0 120.523797,24.000776,0.0 120.523812,24.000652,0.0 120.52381,24.000495,0.0 120.523818,24.000401,0.0 120.523823,24.00027,0.0 120.523824,24.000143,0.0 120.523809,23.999993,0.0 120.523805,23.99988,0.0 120.523787,23.999797,0.0 120.523763,23.999664,0.0 120.523738,23.999558,0.0 120.523742,23.999105,0.0 120.523669,23.999019,0.0 120.523599,23.998954,0.0 120.523559,23.998993,0.0 120.523521,23.999088,0.0 120.523515,23.999155,0.0 120.523467,23.999182,0.0 120.523349,23.999179,0.0 120.523198,23.999163,0.0 120.523043,23.999153,0.0 120.522874,23.999125,0.0 120.522764,23.999113,0.0 120.522578,23.99908,0.0 120.522405,23.999045,0.0 120.522162,23.999,0.0 120.521911,23.998956,0.0 120.52169,23.998911,0.0 120.521509,23.998885,0.0 120.521354,23.998861,0.0 120.521219,23.998852,0.0 120.521065,23.998819,0.0 120.52103,23.998738,0.0 120.521076,23.998588,0.0 120.521165,23.998346,0.0 120.521359,23.997767,0.0 120.521439,23.997433,0.0 120.521372,23.996775,0.0 120.521359,23.996319,0.0 120.52132,23.996233,0.0 120.520553,23.996118,0.0 120.519899,23.996057,0.0 120.519107,23.996059,0.0 120.518583,23.996031,0.0 120.517895,23.996006,0.0 120.517619,23.995955,0.0 120.517408,23.995905,0.0 120.5173,23.995846,0.0 120.517449,23.995427,0.0 120.51744,23.995336,0.0 120.517209,23.995272,0.0 120.516907,23.995198,0.0 120.516612,23.995156,0.0 120.51639,23.995133,0.0 120.516485,23.994759,0.0 120.516649,23.994222,0.0 120.51679,23.993772,0.0 120.51685,23.993515,0.0 120.516776,23.993456,0.0 120.517311,23.991619,0.0 120.517382,23.991364,0.0 120.517083,23.991186,0.0 120.517035,23.991014,0.0 120.517123,23.990487,0.0 120.517311,23.990336,0.0 120.517473,23.989993,0.0 120.517668,23.989456,0.0 120.517626,23.989117,0.0 120.517811,23.988311,0.0 120.518067,23.987187,0.0 120.518831,23.987278,0.0 120.520426,23.987603,0.0 120.523419,23.988472,0.0 120.523696,23.987808,0.0 120.524243,23.987055,0.0 120.525662,23.984936,0.0 120.526395,23.984191,0.0 120.527527,23.982745,0.0 120.528099,23.982356,0.0 120.529603,23.981603,0.0 120.53099,23.980889,0.0 120.531777,23.980022,0.0 120.531914,23.979995,0.0 120.532113,23.979639,0.0 120.532531,23.979564,0.0 120.532737,23.979467,0.0 120.533417,23.979244,0.0 120.534423,23.978654,0.0 120.53509,23.97719,0.0 120.535635,23.977757,0.0 120.53707,23.978403,0.0 120.536866,23.978622,0.0 120.536809,23.97971,0.0 120.536765,23.981372,0.0 120.536599,23.98314,0.0 120.536456,23.984258,0.0 120.53614,23.984312,0.0 120.535612,23.984283,0.0 120.535494,23.985138,0.0 120.534224,23.987306,0.0 120.532559,23.987169,0.0 120.532327,23.988298,0.0 120.532092,23.99012,0.0 120.532046,23.990323,0.0 120.531507,23.990265,0.0 120.531112,23.990341,0.0 120.530979,23.991925,0.0 120.531001,23.992426,0.0 120.530877,23.993083,0.0 120.530852,23.993222,0.0</coordinates></LinearRing></outerBoundaryIs></Polygon><styleUrl>#spolygon-map</styleUrl></Placemark><Placemark><Polygon><outerBoundaryIs><LinearRing><coordinates>120.545671,24.00264,0.0 120.545382,24.002842,0.0 120.544766,24.00329,0.0 120.544036,24.00364,0.0 120.543037,24.003769,0.0 120.543096,24.003434,0.0 120.543922,24.002492,0.0 120.542627,24.002009,0.0 120.541589,24.001697,0.0 120.540632,24.001356,0.0 120.53963,24.000945,0.0 120.537903,24.00075,0.0 120.537915,24.000027,0.0 120.537962,23.999176,0.0 120.538133,23.997092,0.0 120.53833,23.995426,0.0 120.538607,23.994195,0.0 120.538579,23.993837,0.0 120.538681,23.993596,0.0 120.539493,23.993484,0.0 120.540604,23.993197,0.0 120.540865,23.992098,0.0 120.541091,23.990128,0.0 120.541832,23.98997,0.0 120.543914,23.990306,0.0 120.545351,23.990297,0.0 120.546523,23.989767,0.0 120.546773,23.989935,0.0 120.546777,23.990637,0.0 120.546839,23.990787,0.0 120.546947,23.990831,0.0 120.54937,23.991383,0.0 120.54961,23.991618,0.0 120.549369,23.993296,0.0 120.549033,23.993444,0.0 120.548622,23.993993,0.0 120.548047,23.995646,0.0 120.547656,23.996351,0.0 120.547252,23.996928,0.0 120.547042,23.998066,0.0 120.546728,23.999033,0.0 120.546702,23.999767,0.0 120.546798,24.001273,0.0 120.546359,24.00186,0.0 120.545671,24.00264,0.0</coordinates></LinearRing></outerBoundaryIs></Polygon><styleUrl>#spolygon-map</styleUrl></Placemark><Placemark><Polygon><outerBoundaryIs><LinearRing><coordinates>120.607006,24.002449,0.0 120.605118,24.002701,0.0 120.602698,24.002886,0.0 120.601263,24.002927,0.0 120.600497,24.002824,0.0 120.59951,24.00338,0.0 120.598505,24.003612,0.0 120.597386,24.003709,0.0 120.596345,24.004266,0.0 120.595652,24.00442,0.0 120.595299,24.004308,0.0 120.594704,24.004072,0.0 120.593743,24.004091,0.0 120.593148,24.00409,0.0 120.592443,24.003954,0.0 120.591859,24.003997,0.0 120.591422,24.003761,0.0 120.590901,24.003202,0.0 120.589974,24.002548,0.0 120.589561,24.002312,0.0 120.589051,24.002144,0.0 120.588821,24.001775,0.0 120.588457,24.001483,0.0 120.58808,24.001304,0.0 120.587708,23.999907,0.0 120.587613,23.999237,0.0 120.586513,23.998066,0.0 120.585994,23.997763,0.0 120.583796,23.996816,0.0 120.582704,23.996135,0.0 120.579946,23.994027,0.0 120.573618,23.990603,0.0 120.571715,23.988472,0.0 120.571937,23.987874,0.0 120.572306,23.986953,0.0 120.572466,23.986536,0.0 120.573347,23.986239,0.0 120.574072,23.985577,0.0 120.576614,23.986305,0.0 120.580056,23.987214,0.0 120.582226,23.987709,0.0 120.583353,23.988129,0.0 120.584994,23.98893,0.0 120.585343,23.988604,0.0 120.586269,23.986092,0.0 120.587573,23.986107,0.0 120.587845,23.986414,0.0 120.588772,23.986961,0.0 120.590164,23.987542,0.0 120.590552,23.987781,0.0 120.59084,23.988061,0.0 120.591142,23.988298,0.0 120.591814,23.989072,0.0 120.592718,23.989613,0.0 120.593051,23.989726,0.0 120.595693,23.991454,0.0 120.596653,23.992362,0.0 120.597983,23.994088,0.0 120.598455,23.994517,0.0 120.598727,23.994671,0.0 120.599251,23.994477,0.0 120.600711,23.994238,0.0 120.601567,23.994456,0.0 120.602891,23.995246,0.0 120.603875,23.995798,0.0 120.604759,23.995968,0.0 120.606577,23.995705,0.0 120.607539,23.995574,0.0 120.608784,23.996678,0.0 120.609191,23.997516,0.0 120.608619,23.998083,0.0 120.608369,23.998243,0.0 120.60825,23.998271,0.0 120.607976,23.998412,0.0 120.607677,23.99855,0.0 120.607297,23.998675,0.0 120.606551,23.998924,0.0 120.606297,23.999058,0.0 120.606129,23.999291,0.0 120.606179,23.999505,0.0 120.606321,23.999603,0.0 120.606514,23.999547,0.0 120.606661,23.999417,0.0 120.606925,23.999316,0.0 120.607168,23.999279,0.0 120.607416,23.999326,0.0 120.60768,23.999346,0.0 120.607979,23.999291,0.0 120.608252,23.999145,0.0 120.608525,23.999002,0.0 120.608757,23.998783,0.0 120.609129,23.998569,0.0 120.609288,23.998633,0.0 120.609326,23.998827,0.0 120.609262,23.999294,0.0 120.608974,23.999813,0.0 120.608531,24.00048,0.0 120.608313,24.000843,0.0 120.608144,24.001082,0.0 120.607927,24.001316,0.0 120.607823,24.001495,0.0 120.607792,24.001751,0.0 120.607719,24.001978,0.0 120.607476,24.002105,0.0 120.607105,24.002354,0.0 120.607006,24.002449,0.0</coordinates></LinearRing></outerBoundaryIs></Polygon><styleUrl>#spolygon-map</styleUrl></Placemark><Placemark><Polygon><outerBoundaryIs><LinearRing><coordinates>120.528443,24.006557,0.0 120.528342,24.006591,0.0 120.528264,24.006628,0.0 120.528081,24.006694,0.0 120.527977,24.006735,0.0 120.527829,24.006815,0.0 120.527715,24.006854,0.0 120.52763,24.006872,0.0 120.527499,24.006923,0.0 120.527371,24.006969,0.0 120.527255,24.00701,0.0 120.52717,24.007044,0.0 120.527016,24.007118,0.0 120.526908,24.007191,0.0 120.52683,24.007246,0.0 120.526709,24.007313,0.0 120.526552,24.00739,0.0 120.526393,24.007472,0.0 120.526307,24.007528,0.0 120.526166,24.007599,0.0 120.52604,24.007663,0.0 120.525965,24.00769,0.0 120.525869,24.007738,0.0 120.525705,24.007844,0.0 120.525592,24.007881,0.0 120.525532,24.007883,0.0 120.525504,24.007809,0.0 120.525553,24.007703,0.0 120.525775,24.007482,0.0 120.525964,24.007291,0.0 120.526108,24.007168,0.0 120.526249,24.007026,0.0 120.526345,24.00689,0.0 120.526381,24.006788,0.0 120.526427,24.006656,0.0 120.526437,24.00658,0.0 120.52644,24.00646,0.0 120.526453,24.006381,0.0 120.526456,24.00631,0.0 120.526454,24.006191,0.0 120.526446,24.006103,0.0 120.526427,24.005993,0.0 120.526427,24.005882,0.0 120.52642,24.005764,0.0 120.526398,24.005568,0.0 120.526381,24.005363,0.0 120.526359,24.005264,0.0 120.526362,24.00508,0.0 120.526361,24.004812,0.0 120.526358,24.004702,0.0 120.526379,24.004617,0.0 120.52647,24.004532,0.0 120.526624,24.004407,0.0 120.52678,24.004293,0.0 120.526878,24.004175,0.0 120.526967,24.004058,0.0 120.527022,24.003968,0.0 120.527021,24.003823,0.0 120.52717,24.003733,0.0 120.527755,24.003403,0.0 120.527928,24.002807,0.0 120.528202,24.002589,0.0 120.528519,24.002488,0.0 120.52863,24.002371,0.0 120.528711,24.001207,0.0 120.528807,24.000831,0.0 120.529066,24.000272,0.0 120.529118,23.999935,0.0 120.529222,23.999567,0.0 120.529175,23.998506,0.0 120.529193,23.995837,0.0 120.529305,23.995657,0.0 120.529275,23.994744,0.0 120.529506,23.99458,0.0 120.529763,23.994424,0.0 120.530412,23.994136,0.0 120.530703,23.993996,0.0 120.530852,23.993222,0.0 120.533801,23.993603,0.0 120.536052,23.993773,0.0 120.538594,23.994019,0.0 120.538372,23.995084,0.0 120.538329,23.995914,0.0 120.537952,23.998224,0.0 120.537974,23.999763,0.0 120.537923,24.000556,0.0 120.537586,24.000714,0.0 120.537133,24.001276,0.0 120.537141,24.001832,0.0 120.537045,24.002378,0.0 120.536272,24.003479,0.0 120.535246,24.004589,0.0 120.535072,24.005015,0.0 120.534801,24.005292,0.0 120.534164,24.005339,0.0 120.532227,24.005306,0.0 120.52972,24.00621,0.0 120.528443,24.006557,0.0</coordinates></LinearRing></outerBoundaryIs></Polygon><styleUrl>#spolygon-map</styleUrl></Placemark><Placemark><Polygon><outerBoundaryIs><LinearRing><coordinates>120.548114,24.008316,0.0 120.547912,24.0083,0.0 120.547762,24.008266,0.0 120.547624,24.008256,0.0 120.547471,24.008238,0.0 120.547228,24.008207,0.0 120.546937,24.008127,0.0 120.546755,24.008103,0.0 120.546459,24.008071,0.0 120.546133,24.008061,0.0 120.545956,24.008092,0.0 120.545872,24.008128,0.0 120.54578,24.008205,0.0 120.545663,24.008306,0.0 120.545492,24.008434,0.0 120.545346,24.008581,0.0 120.545228,24.008685,0.0 120.545104,24.008813,0.0 120.545025,24.008892,0.0 120.544938,24.008953,0.0 120.544829,24.009077,0.0 120.544612,24.009299,0.0 120.544496,24.009424,0.0 120.544372,24.009539,0.0 120.544248,24.009658,0.0 120.544152,24.009758,0.0 120.544031,24.009859,0.0 120.543901,24.010042,0.0 120.543771,24.01013,0.0 120.543482,24.01002,0.0 120.543504,24.009696,0.0 120.543831,24.009315,0.0 120.543997,24.0091,0.0 120.544336,24.008505,0.0 120.544369,24.00825,0.0 120.544476,24.00805,0.0 120.544821,24.007595,0.0 120.545287,24.006732,0.0 120.545403,24.006172,0.0 120.545458,24.005573,0.0 120.545309,24.004729,0.0 120.545052,24.003943,0.0 120.545256,24.003203,0.0 120.546359,24.00186,0.0 120.546798,24.001273,0.0 120.546702,23.999767,0.0 120.546728,23.999033,0.0 120.547042,23.998066,0.0 120.547252,23.996928,0.0 120.547953,23.996543,0.0 120.548991,23.997132,0.0 120.549437,23.997349,0.0 120.549771,23.997294,0.0 120.549924,23.997099,0.0 120.550123,23.996578,0.0 120.550693,23.996259,0.0 120.55142,23.996658,0.0 120.551806,23.996805,0.0 120.552247,23.996751,0.0 120.552654,23.996571,0.0 120.553087,23.996461,0.0 120.553338,23.996274,0.0 120.553778,23.996184,0.0 120.555211,23.996363,0.0 120.555623,23.994432,0.0 120.555819,23.993441,0.0 120.556017,23.993323,0.0 120.557511,23.99323,0.0 120.55843,23.993003,0.0 120.558584,23.992509,0.0 120.559047,23.99228,0.0 120.559919,23.992366,0.0 120.561624,23.992896,0.0 120.562539,23.992836,0.0 120.564506,23.993081,0.0 120.564824,23.993244,0.0 120.566078,23.993464,0.0 120.567537,23.994128,0.0 120.567758,23.994804,0.0 120.567408,23.995767,0.0 120.56708,23.996221,0.0 120.566339,23.996367,0.0 120.566133,23.996977,0.0 120.565812,23.997861,0.0 120.565577,23.998095,0.0 120.564756,23.998419,0.0 120.564097,24.000098,0.0 120.563451,24.000497,0.0 120.562863,24.0015,0.0 120.562642,24.001549,0.0 120.562294,24.002024,0.0 120.5621,24.002011,0.0 120.561911,24.002072,0.0 120.561052,24.001897,0.0 120.560052,24.001697,0.0 120.559155,24.001954,0.0 120.55814,24.002278,0.0 120.557609,24.002604,0.0 120.557491,24.002626,0.0 120.557313,24.002617,0.0 120.557205,24.002603,0.0 120.55708,24.002564,0.0 120.556925,24.002516,0.0 120.556635,24.002417,0.0 120.556455,24.002354,0.0 120.556245,24.002305,0.0 120.556147,24.002285,0.0 120.555965,24.00223,0.0 120.555793,24.002168,0.0 120.555502,24.002092,0.0 120.555261,24.002024,0.0 120.555121,24.002005,0.0 120.555017,24.002025,0.0 120.554769,24.002135,0.0 120.554581,24.002216,0.0 120.554505,24.002286,0.0 120.554381,24.002412,0.0 120.554326,24.002511,0.0 120.554227,24.002731,0.0 120.55418,24.00285,0.0 120.554123,24.002988,0.0 120.55407,24.003149,0.0 120.55403,24.003291,0.0 120.554005,24.00342,0.0 120.553972,24.003547,0.0 120.55391,24.00375,0.0 120.553875,24.003914,0.0 120.553829,24.004145,0.0 120.553784,24.004324,0.0 120.553749,24.004464,0.0 120.553734,24.00455,0.0 120.553682,24.004733,0.0 120.553644,24.004909,0.0 120.553589,24.005262,0.0 120.553556,24.005527,0.0 120.553521,24.005735,0.0 120.55348,24.005925,0.0 120.553435,24.006103,0.0 120.553376,24.006269,0.0 120.553346,24.006373,0.0 120.553276,24.006497,0.0 120.553181,24.006649,0.0 120.553095,24.006762,0.0 120.553005,24.006882,0.0 120.552919,24.006977,0.0 120.55276,24.007143,0.0 120.552599,24.007292,0.0 120.552482,24.007414,0.0 120.552327,24.007563,0.0 120.552223,24.007666,0.0 120.552153,24.00773,0.0 120.552047,24.007795,0.0 120.551872,24.007853,0.0 120.551687,24.007884,0.0 120.551488,24.007917,0.0 120.551315,24.007943,0.0 120.551108,24.007965,0.0 120.55091,24.007994,0.0 120.550708,24.008034,0.0 120.55055,24.008086,0.0 120.550338,24.00813,0.0 120.550113,24.008177,0.0 120.549963,24.008197,0.0 120.549791,24.008215,0.0 120.54965,24.008253,0.0 120.549465,24.008284,0.0 120.549361,24.008322,0.0 120.549156,24.008333,0.0 120.548981,24.008339,0.0 120.548804,24.008343,0.0 120.548484,24.008338,0.0 120.548302,24.008335,0.0 120.548114,24.008316,0.0</coordinates></LinearRing></outerBoundaryIs></Polygon><styleUrl>#spolygon-map</styleUrl></Placemark><Placemark><Polygon><outerBoundaryIs><LinearRing><coordinates>120.60509,24.009595,0.0 120.604901,24.009685,0.0 120.604744,24.009798,0.0 120.604604,24.009993,0.0 120.604453,24.010157,0.0 120.604354,24.010225,0.0 120.604218,24.010244,0.0 120.603937,24.010215,0.0 120.603809,24.010205,0.0 120.603627,24.010202,0.0 120.603467,24.010207,0.0 120.603195,24.010331,0.0 120.602905,24.010421,0.0 120.602682,24.010434,0.0 120.602476,24.010405,0.0 120.602294,24.010345,0.0 120.602067,24.010285,0.0 120.601854,24.010245,0.0 120.601549,24.010216,0.0 120.601308,24.010187,0.0 120.601018,24.010144,0.0 120.600747,24.010075,0.0 120.600366,24.009932,0.0 120.600116,24.009812,0.0 120.59987,24.009698,0.0 120.599688,24.009613,0.0 120.599429,24.009481,0.0 120.599287,24.009412,0.0 120.599145,24.009381,0.0 120.598982,24.009366,0.0 120.598793,24.009397,0.0 120.59862,24.009467,0.0 120.598438,24.009614,0.0 120.598276,24.009694,0.0 120.598115,24.00975,0.0 120.597915,24.009758,0.0 120.597798,24.00969,0.0 120.59765,24.009619,0.0 120.597431,24.009533,0.0 120.597283,24.009519,0.0 120.597119,24.009538,0.0 120.596891,24.009642,0.0 120.596622,24.009766,0.0 120.596295,24.009902,0.0 120.596085,24.009978,0.0 120.595915,24.010054,0.0 120.595767,24.010164,0.0 120.595603,24.010268,0.0 120.59543,24.010327,0.0 120.595254,24.010366,0.0 120.595033,24.01044,0.0 120.594857,24.010553,0.0 120.594706,24.01064,0.0 120.594387,24.010874,0.0 120.594075,24.011066,0.0 120.593927,24.01112,0.0 120.593735,24.011133,0.0 120.593588,24.011073,0.0 120.593505,24.010929,0.0 120.593373,24.010676,0.0 120.593187,24.010372,0.0 120.593027,24.010191,0.0 120.592843,24.010097,0.0 120.59254,24.010042,0.0 120.59234,24.010016,0.0 120.592097,24.010006,0.0 120.591816,24.01003,0.0 120.59156,24.010086,0.0 120.591285,24.010171,0.0 120.591032,24.010218,0.0 120.590828,24.010317,0.0 120.590481,24.010481,0.0 120.590237,24.010526,0.0 120.590077,24.01046,0.0 120.589898,24.010295,0.0 120.589714,24.010128,0.0 120.589649,24.010051,0.0 120.589452,24.009926,0.0 120.58935,24.009842,0.0 120.589295,24.009689,0.0 120.589246,24.009556,0.0 120.589135,24.00942,0.0 120.589024,24.009275,0.0 120.588948,24.00911,0.0 120.588837,24.008929,0.0 120.588711,24.008838,0.0 120.588513,24.008765,0.0 120.588331,24.008708,0.0 120.588134,24.008648,0.0 120.587964,24.008633,0.0 120.587834,24.00863,0.0 120.587643,24.008678,0.0 120.587372,24.008734,0.0 120.587122,24.008719,0.0 120.586885,24.008701,0.0 120.586684,24.008732,0.0 120.586421,24.00887,0.0 120.586193,24.009048,0.0 120.585973,24.009206,0.0 120.585791,24.009333,0.0 120.585564,24.009461,0.0 120.585425,24.009478,0.0 120.585277,24.009441,0.0 120.585126,24.009361,0.0 120.584935,24.00925,0.0 120.584787,24.009153,0.0 120.584445,24.00886,0.0 120.58389,24.008395,0.0 120.583684,24.008207,0.0 120.583345,24.007903,0.0 120.583061,24.007672,0.0 120.582904,24.007538,0.0 120.582603,24.007349,0.0 120.582403,24.007236,0.0 120.582245,24.007161,0.0 120.581943,24.006973,0.0 120.581786,24.006878,0.0 120.581655,24.006822,0.0 120.581514,24.006767,0.0 120.581276,24.006686,0.0 120.581031,24.006602,0.0 120.580859,24.006535,0.0 120.580723,24.006476,0.0 120.580612,24.006465,0.0 120.580468,24.006451,0.0 120.580302,24.006434,0.0 120.580214,24.006394,0.0 120.580066,24.006273,0.0 120.579918,24.006166,0.0 120.57974,24.006077,0.0 120.579551,24.00602,0.0 120.579374,24.005945,0.0 120.579132,24.005808,0.0 120.578975,24.005738,0.0 120.578701,24.005633,0.0 120.578408,24.005612,0.0 120.57814,24.005605,0.0 120.577967,24.005589,0.0 120.577756,24.005556,0.0 120.577508,24.005528,0.0 120.577141,24.005505,0.0 120.577017,24.005484,0.0 120.576729,24.00547,0.0 120.576349,24.005481,0.0 120.576127,24.005524,0.0 120.575813,24.005607,0.0 120.575656,24.005627,0.0 120.575569,24.005571,0.0 120.575308,24.005334,0.0 120.57503,24.005121,0.0 120.574804,24.004912,0.0 120.574526,24.004748,0.0 120.574097,24.004682,0.0 120.573818,24.004697,0.0 120.573412,24.00464,0.0 120.573208,24.004623,0.0 120.573003,24.004599,0.0 120.572807,24.00457,0.0 120.572515,24.00453,0.0 120.57233,24.00448,0.0 120.572129,24.004444,0.0 120.571951,24.004427,0.0 120.57165,24.004402,0.0 120.571463,24.004386,0.0 120.571253,24.004401,0.0 120.57107,24.004413,0.0 120.570865,24.004424,0.0 120.570674,24.00442,0.0 120.570451,24.004395,0.0 120.570234,24.004342,0.0 120.569974,24.004257,0.0 120.569709,24.00418,0.0 120.569548,24.00416,0.0 120.56916,24.004151,0.0 120.568824,24.004146,0.0 120.568624,24.004117,0.0 120.568415,24.004093,0.0 120.568153,24.004044,0.0 120.567905,24.003959,0.0 120.567646,24.003901,0.0 120.567389,24.003869,0.0 120.567119,24.003824,0.0 120.566909,24.003799,0.0 120.56684,24.003791,0.0 120.566618,24.003755,0.0 120.566361,24.00371,0.0 120.566134,24.003661,0.0 120.565964,24.003637,0.0 120.56577,24.003612,0.0 120.565474,24.003555,0.0 120.565391,24.003535,0.0 120.565187,24.00351,0.0 120.564991,24.003478,0.0 120.564808,24.003445,0.0 120.564616,24.003412,0.0 120.564429,24.0034,0.0 120.564041,24.003339,0.0 120.563834,24.003321,0.0 120.563533,24.003297,0.0 120.563289,24.00326,0.0 120.563054,24.003235,0.0 120.562758,24.003202,0.0 120.562483,24.003178,0.0 120.562278,24.003145,0.0 120.561969,24.003108,0.0 120.561603,24.003063,0.0 120.561213,24.002998,0.0 120.560961,24.002965,0.0 120.560701,24.002933,0.0 120.560216,24.002863,0.0 120.559847,24.002813,0.0 120.559351,24.002743,0.0 120.558998,24.002689,0.0 120.558629,24.002667,0.0 120.558141,24.002624,0.0 120.557883,24.002616,0.0 120.557661,24.002606,0.0 120.55851,24.002118,0.0 120.559824,24.001733,0.0 120.560261,24.001697,0.0 120.561797,24.002078,0.0 120.562019,24.002017,0.0 120.562193,24.00203,0.0 120.562497,24.001704,0.0 120.562769,24.001512,0.0 120.563127,24.001014,0.0 120.563827,24.000609,0.0 120.564411,23.999152,0.0 120.565474,23.998508,0.0 120.565738,23.998089,0.0 120.565982,23.997223,0.0 120.566295,23.996672,0.0 120.566821,23.996565,0.0 120.567241,23.995974,0.0 120.567605,23.99533,0.0 120.567938,23.994317,0.0 120.568616,23.992886,0.0 120.568404,23.99272,0.0 120.56855,23.992306,0.0 120.568193,23.992175,0.0 120.56857,23.99162,0.0 120.569582,23.98913,0.0 120.571734,23.989868,0.0 120.576911,23.992346,0.0 120.58179,23.995505,0.0 120.583318,23.996526,0.0 120.585147,23.997522,0.0 120.586294,23.99789,0.0 120.586935,23.998469,0.0 120.587661,23.999471,0.0 120.58802,24.001091,0.0 120.588287,24.001416,0.0 120.588651,24.001595,0.0 120.58893,24.001965,0.0 120.589257,24.0022,0.0 120.58984,24.002414,0.0 120.590561,24.002978,0.0 120.591252,24.003471,0.0 120.591567,24.003907,0.0 120.592053,24.003998,0.0 120.592674,24.003943,0.0 120.5935,24.004124,0.0 120.594181,24.004059,0.0 120.595093,24.004162,0.0 120.595518,24.004409,0.0 120.596138,24.004355,0.0 120.596971,24.003976,0.0 120.598201,24.0036,0.0 120.59904,24.003546,0.0 120.60018,24.002968,0.0 120.600935,24.002803,0.0 120.601944,24.002928,0.0 120.60344,24.002821,0.0 120.606115,24.002571,0.0 120.606851,24.002638,0.0 120.606488,24.003037,0.0 120.60624,24.003353,0.0 120.60625,24.003523,0.0 120.606414,24.003779,0.0 120.606352,24.003992,0.0 120.606238,24.004143,0.0 120.605974,24.004393,0.0 120.60572,24.004617,0.0 120.605509,24.004726,0.0 120.605344,24.004796,0.0 120.605205,24.004725,0.0 120.605086,24.004682,0.0 120.604926,24.004748,0.0 120.604797,24.004837,0.0 120.604709,24.004951,0.0 120.604585,24.005059,0.0 120.604322,24.005158,0.0 120.604203,24.005328,0.0 120.604104,24.005602,0.0 120.603996,24.005739,0.0 120.603902,24.005885,0.0 120.603652,24.006153,0.0 120.603487,24.006389,0.0 120.603464,24.007103,0.0 120.603473,24.007377,0.0 120.60354,24.007538,0.0 120.603772,24.007458,0.0 120.603849,24.007354,0.0 120.603922,24.00734,0.0 120.60404,24.007426,0.0 120.604029,24.007577,0.0 120.603895,24.007726,0.0 120.603719,24.007754,0.0 120.603446,24.007862,0.0 120.60324,24.007899,0.0 120.603095,24.007951,0.0 120.602981,24.008159,0.0 120.602955,24.008376,0.0 120.603072,24.008608,0.0 120.603294,24.008774,0.0 120.603551,24.008832,0.0 120.60385,24.008771,0.0 120.604077,24.008658,0.0 120.604309,24.008621,0.0 120.604464,24.00865,0.0 120.604515,24.008759,0.0 120.604483,24.008919,0.0 120.604447,24.009121,0.0 120.604493,24.009239,0.0 120.604648,24.009188,0.0 120.604777,24.009098,0.0 120.60488,24.009146,0.0 120.604962,24.009251,0.0 120.605044,24.009421,0.0 120.60509,24.009595,0.0</coordinates></LinearRing></outerBoundaryIs></Polygon><styleUrl>#spolygon-map</styleUrl></Placemark><Placemark><Polygon><outerBoundaryIs><LinearRing><coordinates>120.539176,24.012524,0.0 120.53897,24.012583,0.0 120.538799,24.012638,0.0 120.538618,24.012688,0.0 120.538387,24.012738,0.0 120.538154,24.012821,0.0 120.537892,24.012963,0.0 120.537756,24.013087,0.0 120.53766,24.013262,0.0 120.53759,24.013382,0.0 120.537393,24.013519,0.0 120.537238,24.013487,0.0 120.537127,24.013486,0.0 120.536927,24.013407,0.0 120.536691,24.013328,0.0 120.536461,24.013176,0.0 120.536268,24.013109,0.0 120.536072,24.013081,0.0 120.535922,24.013048,0.0 120.535776,24.013034,0.0 120.535711,24.013112,0.0 120.53562,24.013116,0.0 120.535404,24.013037,0.0 120.535164,24.012935,0.0 120.534958,24.012861,0.0 120.534677,24.012763,0.0 120.534587,24.012689,0.0 120.534598,24.012537,0.0 120.534679,24.012408,0.0 120.53483,24.012287,0.0 120.534976,24.012034,0.0 120.535128,24.01185,0.0 120.535148,24.011689,0.0 120.534822,24.011614,0.0 120.534576,24.011599,0.0 120.53416,24.011506,0.0 120.533899,24.01145,0.0 120.533633,24.011412,0.0 120.533312,24.01137,0.0 120.533052,24.011326,0.0 120.532898,24.011307,0.0 120.532655,24.011303,0.0 120.53251,24.011288,0.0 120.532279,24.011272,0.0 120.532089,24.011253,0.0 120.531919,24.011226,0.0 120.531697,24.011218,0.0 120.531418,24.011199,0.0 120.531098,24.011176,0.0 120.53092,24.01116,0.0 120.530722,24.011134,0.0 120.530536,24.011114,0.0 120.530286,24.011103,0.0 120.530064,24.01108,0.0 120.529878,24.011042,0.0 120.529639,24.011023,0.0 120.529356,24.011003,0.0 120.529158,24.010999,0.0 120.528976,24.010998,0.0 120.528802,24.010972,0.0 120.528733,24.010916,0.0 120.528738,24.010793,0.0 120.528779,24.010597,0.0 120.528881,24.010445,0.0 120.529019,24.010237,0.0 120.529239,24.010056,0.0 120.529353,24.009953,0.0 120.52944,24.00987,0.0 120.529505,24.009809,0.0 120.529543,24.009712,0.0 120.529555,24.00958,0.0 120.529553,24.009475,0.0 120.52946,24.009432,0.0 120.529364,24.009442,0.0 120.529222,24.009453,0.0 120.529136,24.009418,0.0 120.529097,24.009328,0.0 120.529113,24.009163,0.0 120.529171,24.009004,0.0 120.52932,24.008824,0.0 120.529446,24.008686,0.0 120.529437,24.008612,0.0 120.529304,24.008322,0.0 120.52898,24.007596,0.0 120.52887,24.007326,0.0 120.528773,24.007169,0.0 120.528728,24.007065,0.0 120.528685,24.00694,0.0 120.528641,24.006829,0.0 120.528561,24.006677,0.0 120.528491,24.006577,0.0 120.528443,24.006557,0.0 120.531243,24.005739,0.0 120.53343,24.005337,0.0 120.534639,24.005351,0.0 120.534888,24.005232,0.0 120.535148,24.004867,0.0 120.535344,24.004451,0.0 120.536854,24.002911,0.0 120.5371,24.002093,0.0 120.537132,24.001647,0.0 120.537163,24.001065,0.0 120.537903,24.00075,0.0 120.53963,24.000945,0.0 120.540632,24.001356,0.0 120.541589,24.001697,0.0 120.542627,24.002009,0.0 120.543922,24.002492,0.0 120.543096,24.003434,0.0 120.543037,24.003769,0.0 120.544036,24.00364,0.0 120.544766,24.00329,0.0 120.545382,24.002842,0.0 120.545671,24.00264,0.0 120.545053,24.003661,0.0 120.545355,24.004476,0.0 120.545391,24.005113,0.0 120.545389,24.005886,0.0 120.545349,24.006325,0.0 120.545119,24.006975,0.0 120.544622,24.007917,0.0 120.54438,24.008143,0.0 120.544369,24.008363,0.0 120.544164,24.008843,0.0 120.543928,24.009178,0.0 120.54359,24.009545,0.0 120.543461,24.009892,0.0 120.543691,24.010166,0.0 120.543561,24.010303,0.0 120.543442,24.010408,0.0 120.543291,24.010574,0.0 120.543145,24.01073,0.0 120.543039,24.010836,0.0 120.542963,24.010928,0.0 120.542757,24.011107,0.0 120.5426,24.011258,0.0 120.54254,24.011309,0.0 120.542414,24.01141,0.0 120.542246,24.011527,0.0 120.542115,24.011637,0.0 120.541898,24.011816,0.0 120.541797,24.011857,0.0 120.541591,24.011908,0.0 120.541441,24.011976,0.0 120.541219,24.01204,0.0 120.541074,24.0121,0.0 120.540792,24.012172,0.0 120.540487,24.012233,0.0 120.540291,24.012255,0.0 120.54009,24.012324,0.0 120.539889,24.012365,0.0 120.539714,24.012401,0.0 120.539548,24.012428,0.0 120.539347,24.012464,0.0 120.539176,24.012524,0.0</coordinates></LinearRing></outerBoundaryIs></Polygon><styleUrl>#spolygon-map</styleUrl></Placemark></Document>
</kml>
