<?xml version="1.0" encoding="UTF-8"?>
<kml xmlns="http://www.opengis.net/kml/2.2">
	<Document>
		<name>彰化縣福興鄉</name>
		<Style id="spolygon">
			<LabelStyle>
				<scale>0.0</scale>
			</LabelStyle>
			<LineStyle>
				<color>330030ff</color>
				<width>0</width>
			</LineStyle>
			<PolyStyle>
				<color>330030ff</color>
			</PolyStyle>
		</Style>
		<StyleMap id="spolygon-map">
			<Pair>
				<key>normal</key>
				<styleUrl>#spolygon</styleUrl>
			</Pair>
		</StyleMap>
	<Placemark><Polygon><outerBoundaryIs><LinearRing><coordinates>120.415097,24.013233,0.0 120.410483,24.014455,0.0 120.408297,24.013806,0.0 120.407287,24.012689,0.0 120.406356,24.012025,0.0 120.404392,24.009611,0.0 120.402867,24.008468,0.0 120.402484,24.008705,0.0 120.399704,24.006991,0.0 120.39552,24.00432,0.0 120.395885,24.00428,0.0 120.39628,24.004187,0.0 120.39666,24.004092,0.0 120.397007,24.003953,0.0 120.397362,24.00376,0.0 120.39752,24.003637,0.0 120.397566,24.00353,0.0 120.397877,24.003231,0.0 120.398097,24.003141,0.0 120.398412,24.00306,0.0 120.398787,24.002957,0.0 120.399071,24.002851,0.0 120.399354,24.002848,0.0 120.3997,24.002853,0.0 120.399951,24.002846,0.0 120.400339,24.002903,0.0 120.400636,24.00297,0.0 120.400851,24.003074,0.0 120.40099,24.003111,0.0 120.401223,24.003162,0.0 120.401465,24.00322,0.0 120.401748,24.003283,0.0 120.402031,24.003305,0.0 120.402431,24.003286,0.0 120.402847,24.003225,0.0 120.403194,24.003103,0.0 120.403401,24.003058,0.0 120.403765,24.003019,0.0 120.403963,24.002953,0.0 120.404269,24.00274,0.0 120.404611,24.002572,0.0 120.404798,24.002505,0.0 120.405023,24.002378,0.0 120.405168,24.002119,0.0 120.405179,24.001616,0.0 120.40525,24.000962,0.0 120.405295,24.000781,0.0 120.405409,24.000546,0.0 120.40573,24.00007,0.0 120.405984,23.999792,0.0 120.40616,23.999694,0.0 120.406429,23.999621,0.0 120.406816,23.99954,0.0 120.407189,23.999451,0.0 120.407419,23.99941,0.0 120.407769,23.999362,0.0 120.408134,23.999217,0.0 120.408409,23.999062,0.0 120.408633,23.998968,0.0 120.408751,23.998835,0.0 120.408896,23.998754,0.0 120.40913,23.998761,0.0 120.409402,23.998712,0.0 120.40998,23.99846,0.0 120.410256,23.998299,0.0 120.410565,23.997925,0.0 120.41114,23.997296,0.0 120.411571,23.996976,0.0 120.412081,23.99668,0.0 120.412553,23.996406,0.0 120.412044,23.997342,0.0 120.411781,23.997826,0.0 120.411857,23.997955,0.0 120.412075,23.997961,0.0 120.413312,23.997739,0.0 120.413897,23.999848,0.0 120.413998,24.001642,0.0 120.414539,24.006309,0.0 120.41807,24.005994,0.0 120.418373,24.008578,0.0 120.414454,24.008188,0.0 120.41489,24.01155,0.0 120.415097,24.013233,0.0</coordinates></LinearRing></outerBoundaryIs></Polygon><styleUrl>#spolygon-map</styleUrl></Placemark><Placemark><Polygon><outerBoundaryIs><LinearRing><coordinates>120.484024,24.017415,0.0 120.482439,24.01757,0.0 120.481007,24.017226,0.0 120.479571,24.017137,0.0 120.478381,24.017092,0.0 120.477982,24.016917,0.0 120.47781,24.016557,0.0 120.477781,24.016287,0.0 120.477865,24.015962,0.0 120.478175,24.015811,0.0 120.479836,24.015566,0.0 120.480259,24.015147,0.0 120.47987,24.012923,0.0 120.479895,24.012293,0.0 120.480122,24.012258,0.0 120.48026,24.012157,0.0 120.480526,24.012101,0.0 120.480729,24.012052,0.0 120.48095,24.011979,0.0 120.481076,24.011913,0.0 120.481251,24.01186,0.0 120.481589,24.011576,0.0 120.481868,24.011366,0.0 120.482116,24.011189,0.0 120.482299,24.011025,0.0 120.482456,24.01095,0.0 120.48268,24.010926,0.0 120.482973,24.010919,0.0 120.483365,24.010908,0.0 120.484135,24.010976,0.0 120.484735,24.011011,0.0 120.485441,24.011026,0.0 120.48598,24.011051,0.0 120.48623,24.011029,0.0 120.486505,24.010956,0.0 120.487245,24.010683,0.0 120.487801,24.01046,0.0 120.488616,24.010188,0.0 120.489425,24.009886,0.0 120.490015,24.009659,0.0 120.490263,24.009622,0.0 120.490657,24.009656,0.0 120.491057,24.009753,0.0 120.491282,24.009722,0.0 120.491732,24.009522,0.0 120.492023,24.009298,0.0 120.492284,24.008918,0.0 120.492407,24.008567,0.0 120.492527,24.008425,0.0 120.493079,24.007945,0.0 120.493661,24.007218,0.0 120.49403,24.006712,0.0 120.494407,24.006158,0.0 120.494573,24.005874,0.0 120.494685,24.00585,0.0 120.494769,24.005947,0.0 120.494853,24.006195,0.0 120.494848,24.0063,0.0 120.494913,24.006342,0.0 120.495123,24.0062,0.0 120.495319,24.006031,0.0 120.49558,24.005633,0.0 120.495735,24.005546,0.0 120.495871,24.005432,0.0 120.496,24.00546,0.0 120.496025,24.005657,0.0 120.495959,24.00585,0.0 120.495758,24.006129,0.0 120.495432,24.006456,0.0 120.49524,24.006947,0.0 120.495269,24.007181,0.0 120.495052,24.007606,0.0 120.494724,24.008199,0.0 120.494473,24.008469,0.0 120.494077,24.008803,0.0 120.493556,24.00914,0.0 120.493579,24.009482,0.0 120.493903,24.009653,0.0 120.495021,24.010037,0.0 120.496961,24.010724,0.0 120.49743,24.010858,0.0 120.497294,24.011096,0.0 120.496808,24.011517,0.0 120.4962,24.012004,0.0 120.495879,24.012201,0.0 120.495445,24.012117,0.0 120.494936,24.011936,0.0 120.4942,24.011672,0.0 120.494233,24.012231,0.0 120.494446,24.013073,0.0 120.494121,24.013354,0.0 120.491302,24.014,0.0 120.488501,24.0145,0.0 120.48537,24.01488,0.0 120.485463,24.015811,0.0 120.485623,24.017141,0.0 120.484024,24.017415,0.0</coordinates></LinearRing></outerBoundaryIs></Polygon><styleUrl>#spolygon-map</styleUrl></Placemark><Placemark><Polygon><outerBoundaryIs><LinearRing><coordinates>120.482439,24.01757,0.0 120.480681,24.017768,0.0 120.47756,24.018301,0.0 120.474698,24.018845,0.0 120.470915,24.019562,0.0 120.470186,24.017909,0.0 120.470055,24.017443,0.0 120.469005,24.017074,0.0 120.468778,24.016508,0.0 120.468597,24.01643,0.0 120.466085,24.01713,0.0 120.465396,24.017327,0.0 120.465817,24.018306,0.0 120.463393,24.020874,0.0 120.462968,24.019828,0.0 120.459876,24.01986,0.0 120.459076,24.018409,0.0 120.459045,24.017763,0.0 120.458287,24.016565,0.0 120.458657,24.016548,0.0 120.458977,24.016504,0.0 120.459148,24.016444,0.0 120.459432,24.01621,0.0 120.45967,24.015922,0.0 120.459751,24.015777,0.0 120.459698,24.015492,0.0 120.459449,24.015103,0.0 120.459322,24.014848,0.0 120.459316,24.014724,0.0 120.459382,24.014604,0.0 120.459524,24.014411,0.0 120.459623,24.014334,0.0 120.459812,24.014195,0.0 120.46024,24.013871,0.0 120.460514,24.013615,0.0 120.460643,24.013481,0.0 120.46096,24.013298,0.0 120.461113,24.013162,0.0 120.461311,24.01308,0.0 120.461535,24.012947,0.0 120.461805,24.012811,0.0 120.462165,24.01269,0.0 120.462542,24.012585,0.0 120.462709,24.012539,0.0 120.462924,24.012561,0.0 120.463288,24.012689,0.0 120.4636,24.012891,0.0 120.46382,24.01299,0.0 120.463949,24.013051,0.0 120.464289,24.013113,0.0 120.46459,24.013114,0.0 120.464967,24.013066,0.0 120.465369,24.012937,0.0 120.465683,24.012801,0.0 120.465764,24.012703,0.0 120.465968,24.01266,0.0 120.466359,24.012647,0.0 120.466742,24.012602,0.0 120.467347,24.012612,0.0 120.467935,24.012611,0.0 120.468437,24.012649,0.0 120.46872,24.012675,0.0 120.468994,24.012654,0.0 120.469389,24.012655,0.0 120.469628,24.01268,0.0 120.469714,24.012749,0.0 120.470183,24.012776,0.0 120.470466,24.012807,0.0 120.470808,24.012858,0.0 120.471095,24.012928,0.0 120.471513,24.012951,0.0 120.472014,24.013032,0.0 120.47221,24.013061,0.0 120.472509,24.013051,0.0 120.472778,24.012953,0.0 120.473027,24.012849,0.0 120.473064,24.012742,0.0 120.473032,24.01247,0.0 120.473074,24.01241,0.0 120.473289,24.012348,0.0 120.473585,24.012324,0.0 120.474078,24.012225,0.0 120.474632,24.012099,0.0 120.474982,24.012059,0.0 120.475289,24.012019,0.0 120.475611,24.011968,0.0 120.4758,24.011952,0.0 120.475964,24.011977,0.0 120.476035,24.01206,0.0 120.47643,24.011998,0.0 120.476932,24.011923,0.0 120.477289,24.011892,0.0 120.477513,24.011906,0.0 120.477668,24.011997,0.0 120.477799,24.012074,0.0 120.47802,24.012132,0.0 120.478258,24.012232,0.0 120.478478,24.012256,0.0 120.478666,24.012234,0.0 120.478833,24.01229,0.0 120.478961,24.012367,0.0 120.479221,24.012346,0.0 120.479511,24.01233,0.0 120.479763,24.012306,0.0 120.480189,24.014494,0.0 120.480186,24.015401,0.0 120.47923,24.015704,0.0 120.477956,24.015886,0.0 120.477819,24.0161,0.0 120.477788,24.016398,0.0 120.477884,24.016786,0.0 120.478155,24.017029,0.0 120.47881,24.017176,0.0 120.480238,24.017154,0.0 120.481828,24.01736,0.0 120.482439,24.01757,0.0</coordinates></LinearRing></outerBoundaryIs></Polygon><styleUrl>#spolygon-map</styleUrl></Placemark><Placemark><Polygon><outerBoundaryIs><LinearRing><coordinates>120.426928,24.011312,0.0 120.425019,24.011708,0.0 120.424342,24.011883,0.0 120.425975,24.017865,0.0 120.424228,24.019796,0.0 120.424536,24.020696,0.0 120.419548,24.019965,0.0 120.415857,24.020359,0.0 120.415428,24.016554,0.0 120.415097,24.013233,0.0 120.414538,24.008636,0.0 120.416113,24.008374,0.0 120.4183,24.007765,0.0 120.416673,24.00613,0.0 120.414465,24.005652,0.0 120.414069,24.000736,0.0 120.413416,23.997723,0.0 120.415575,23.997375,0.0 120.417275,23.997073,0.0 120.418581,23.996651,0.0 120.420181,23.995908,0.0 120.421734,23.99518,0.0 120.424666,23.993779,0.0 120.42492,23.993676,0.0 120.425172,23.995952,0.0 120.425447,23.998563,0.0 120.423538,23.998886,0.0 120.423828,24.000536,0.0 120.426017,24.002001,0.0 120.426367,24.005014,0.0 120.429016,24.004795,0.0 120.429309,24.006033,0.0 120.429624,24.007495,0.0 120.429857,24.008555,0.0 120.429916,24.008801,0.0 120.429336,24.009107,0.0 120.429026,24.009303,0.0 120.428465,24.009825,0.0 120.428202,24.010102,0.0 120.428106,24.010244,0.0 120.427819,24.010483,0.0 120.427353,24.01085,0.0 120.427042,24.01104,0.0 120.426911,24.011186,0.0 120.426928,24.011312,0.0</coordinates></LinearRing></outerBoundaryIs></Polygon><styleUrl>#spolygon-map</styleUrl></Placemark><Placemark><Polygon><outerBoundaryIs><LinearRing><coordinates>120.495711,24.015485,0.0 120.495024,24.016128,0.0 120.493791,24.017013,0.0 120.492972,24.017645,0.0 120.491904,24.018454,0.0 120.491396,24.018867,0.0 120.4909,24.019324,0.0 120.490388,24.019864,0.0 120.49006,24.020214,0.0 120.489684,24.020525,0.0 120.489028,24.020931,0.0 120.488244,24.021389,0.0 120.487533,24.02173,0.0 120.487098,24.021867,0.0 120.48667,24.02205,0.0 120.486309,24.022306,0.0 120.485988,24.022484,0.0 120.485492,24.022766,0.0 120.484949,24.022007,0.0 120.484675,24.021342,0.0 120.484299,24.018849,0.0 120.484536,24.01737,0.0 120.485771,24.017063,0.0 120.485297,24.015013,0.0 120.486215,24.014761,0.0 120.489804,24.014305,0.0 120.492685,24.013681,0.0 120.494242,24.013288,0.0 120.494652,24.013837,0.0 120.49477,24.014378,0.0 120.494933,24.014681,0.0 120.495366,24.015442,0.0 120.495711,24.015485,0.0</coordinates></LinearRing></outerBoundaryIs></Polygon><styleUrl>#spolygon-map</styleUrl></Placemark><Placemark><Polygon><outerBoundaryIs><LinearRing><coordinates>120.480475,24.02661,0.0 120.479347,24.02642,0.0 120.477763,24.026636,0.0 120.4767,24.026577,0.0 120.473463,24.026171,0.0 120.470756,24.026363,0.0 120.468456,24.025978,0.0 120.465305,24.025224,0.0 120.464281,24.025077,0.0 120.46363,24.025141,0.0 120.463207,24.025438,0.0 120.463049,24.025506,0.0 120.461723,24.024592,0.0 120.461277,24.024401,0.0 120.461281,24.023461,0.0 120.463393,24.020874,0.0 120.465817,24.018306,0.0 120.465396,24.017327,0.0 120.466085,24.01713,0.0 120.468597,24.01643,0.0 120.468778,24.016508,0.0 120.469005,24.017074,0.0 120.470055,24.017443,0.0 120.470186,24.017909,0.0 120.470915,24.019562,0.0 120.474698,24.018845,0.0 120.47756,24.018301,0.0 120.480681,24.017768,0.0 120.482439,24.01757,0.0 120.484024,24.017415,0.0 120.484509,24.02059,0.0 120.484722,24.021552,0.0 120.485141,24.022412,0.0 120.485257,24.022889,0.0 120.48482,24.023156,0.0 120.484714,24.023308,0.0 120.484506,24.023533,0.0 120.484193,24.023772,0.0 120.484027,24.023954,0.0 120.483875,24.024044,0.0 120.483671,24.024256,0.0 120.483282,24.024507,0.0 120.483058,24.024514,0.0 120.482891,24.024505,0.0 120.482676,24.024521,0.0 120.48258,24.024674,0.0 120.482303,24.024713,0.0 120.482154,24.024817,0.0 120.481948,24.025027,0.0 120.481728,24.025245,0.0 120.481436,24.02545,0.0 120.481129,24.025677,0.0 120.480875,24.025952,0.0 120.480812,24.026103,0.0 120.48062,24.026291,0.0 120.480452,24.026478,0.0 120.480475,24.02661,0.0</coordinates></LinearRing></outerBoundaryIs></Polygon><styleUrl>#spolygon-map</styleUrl></Placemark><Placemark><Polygon><outerBoundaryIs><LinearRing><coordinates>120.461277,24.024401,0.0 120.460557,24.024401,0.0 120.459029,24.026168,0.0 120.456312,24.027976,0.0 120.450495,24.028507,0.0 120.44968,24.028504,0.0 120.448865,24.027713,0.0 120.447448,24.027746,0.0 120.446771,24.026955,0.0 120.446479,24.025839,0.0 120.444411,24.026198,0.0 120.44434,24.025343,0.0 120.444197,24.024863,0.0 120.443807,24.024624,0.0 120.443926,24.024397,0.0 120.444283,24.023904,0.0 120.444691,24.023473,0.0 120.444847,24.023373,0.0 120.445003,24.02352,0.0 120.445185,24.023678,0.0 120.445435,24.023783,0.0 120.445788,24.023888,0.0 120.446136,24.023901,0.0 120.446478,24.023869,0.0 120.446869,24.02381,0.0 120.447291,24.023564,0.0 120.447671,24.023329,0.0 120.447845,24.023097,0.0 120.448107,24.022795,0.0 120.448222,24.022585,0.0 120.44836,24.022447,0.0 120.448532,24.022387,0.0 120.448705,24.022165,0.0 120.448817,24.021834,0.0 120.448952,24.021459,0.0 120.449059,24.021237,0.0 120.449306,24.0211,0.0 120.449669,24.020903,0.0 120.449908,24.020932,0.0 120.450384,24.021124,0.0 120.450688,24.021234,0.0 120.450943,24.021296,0.0 120.451354,24.021285,0.0 120.451729,24.021226,0.0 120.451974,24.021076,0.0 120.452169,24.020846,0.0 120.45221,24.020705,0.0 120.452246,24.020515,0.0 120.452173,24.019968,0.0 120.452016,24.019483,0.0 120.451925,24.019187,0.0 120.451943,24.019054,0.0 120.452032,24.018975,0.0 120.452271,24.018814,0.0 120.45259,24.018597,0.0 120.452917,24.018395,0.0 120.453099,24.018271,0.0 120.453317,24.018156,0.0 120.45356,24.017991,0.0 120.454104,24.017592,0.0 120.454277,24.017507,0.0 120.454379,24.017427,0.0 120.45452,24.017379,0.0 120.455134,24.017081,0.0 120.455393,24.016938,0.0 120.455663,24.016814,0.0 120.455972,24.016633,0.0 120.456127,24.016536,0.0 120.456317,24.01648,0.0 120.456923,24.016523,0.0 120.457479,24.016549,0.0 120.458044,24.016555,0.0 120.45824,24.016563,0.0 120.458789,24.017384,0.0 120.459043,24.018157,0.0 120.459485,24.019119,0.0 120.462556,24.018846,0.0 120.463415,24.020736,0.0 120.462324,24.022203,0.0 120.461078,24.023731,0.0 120.461277,24.024401,0.0</coordinates></LinearRing></outerBoundaryIs></Polygon><styleUrl>#spolygon-map</styleUrl></Placemark><Placemark><Polygon><outerBoundaryIs><LinearRing><coordinates>120.415857,24.020359,0.0 120.409345,24.020892,0.0 120.409591,24.022683,0.0 120.407955,24.022988,0.0 120.404988,24.021321,0.0 120.402933,24.023203,0.0 120.399427,24.028982,0.0 120.398991,24.02898,0.0 120.398353,24.028155,0.0 120.398018,24.027298,0.0 120.397927,24.025437,0.0 120.39795,24.023052,0.0 120.398039,24.022163,0.0 120.397471,24.021928,0.0 120.394541,24.021192,0.0 120.392868,24.020651,0.0 120.391635,24.020313,0.0 120.388544,24.020043,0.0 120.385614,24.019607,0.0 120.385508,24.01915,0.0 120.385523,24.018981,0.0 120.385618,24.018714,0.0 120.385669,24.018471,0.0 120.385665,24.018261,0.0 120.38564,24.017988,0.0 120.385582,24.0178,0.0 120.385547,24.01764,0.0 120.385521,24.017413,0.0 120.385567,24.01712,0.0 120.385721,24.016878,0.0 120.385933,24.016672,0.0 120.386101,24.016589,0.0 120.386384,24.016536,0.0 120.386654,24.016541,0.0 120.38691,24.016505,0.0 120.387144,24.016399,0.0 120.387365,24.01626,0.0 120.387524,24.016114,0.0 120.387615,24.015855,0.0 120.387635,24.015476,0.0 120.387649,24.01522,0.0 120.387665,24.014788,0.0 120.387621,24.014504,0.0 120.387577,24.014322,0.0 120.387529,24.013997,0.0 120.387521,24.013811,0.0 120.387576,24.01363,0.0 120.387685,24.013474,0.0 120.387833,24.013392,0.0 120.388136,24.013328,0.0 120.388275,24.01323,0.0 120.388344,24.01302,0.0 120.388399,24.01276,0.0 120.3884,24.012435,0.0 120.388464,24.012229,0.0 120.388483,24.011994,0.0 120.388389,24.011834,0.0 120.388216,24.011491,0.0 120.38814,24.011244,0.0 120.388168,24.011062,0.0 120.388268,24.010894,0.0 120.388412,24.010783,0.0 120.388628,24.010697,0.0 120.388898,24.010702,0.0 120.38914,24.010815,0.0 120.389303,24.010859,0.0 120.389609,24.010803,0.0 120.389879,24.01068,0.0 120.390239,24.010554,0.0 120.390437,24.010468,0.0 120.390577,24.010328,0.0 120.390578,24.010056,0.0 120.390467,24.009928,0.0 120.390337,24.009796,0.0 120.390123,24.009396,0.0 120.390052,24.00926,0.0 120.390031,24.008967,0.0 120.390032,24.008786,0.0 120.389961,24.008517,0.0 120.389832,24.008176,0.0 120.389725,24.007953,0.0 120.389726,24.007747,0.0 120.390034,24.007311,0.0 120.390187,24.00718,0.0 120.390453,24.007078,0.0 120.390995,24.00688,0.0 120.391219,24.006827,0.0 120.391548,24.006779,0.0 120.391862,24.006718,0.0 120.392128,24.006608,0.0 120.392286,24.006485,0.0 120.392511,24.006251,0.0 120.392696,24.006165,0.0 120.393096,24.006063,0.0 120.393711,24.00575,0.0 120.394283,24.005426,0.0 120.394598,24.005246,0.0 120.394887,24.004971,0.0 120.395095,24.004663,0.0 120.39521,24.004459,0.0 120.39552,24.00432,0.0 120.399704,24.006991,0.0 120.402484,24.008705,0.0 120.402867,24.008468,0.0 120.404392,24.009611,0.0 120.406356,24.012025,0.0 120.407287,24.012689,0.0 120.408297,24.013806,0.0 120.410483,24.014455,0.0 120.415097,24.013233,0.0 120.415428,24.016554,0.0 120.415857,24.020359,0.0</coordinates></LinearRing></outerBoundaryIs></Polygon><styleUrl>#spolygon-map</styleUrl></Placemark><Placemark><Polygon><outerBoundaryIs><LinearRing><coordinates>120.421568,24.034006,0.0 120.421272,24.034089,0.0 120.420485,24.034573,0.0 120.420266,24.034398,0.0 120.419444,24.032925,0.0 120.418945,24.032708,0.0 120.417816,24.032766,0.0 120.417392,24.032639,0.0 120.416394,24.031742,0.0 120.415408,24.031843,0.0 120.413472,24.032348,0.0 120.41319,24.032666,0.0 120.413445,24.033119,0.0 120.414197,24.034522,0.0 120.414221,24.034993,0.0 120.413671,24.035386,0.0 120.412802,24.033498,0.0 120.412446,24.033461,0.0 120.411986,24.031821,0.0 120.412286,24.031642,0.0 120.411943,24.030154,0.0 120.410273,24.029928,0.0 120.406638,24.030931,0.0 120.405323,24.031255,0.0 120.404791,24.031301,0.0 120.403818,24.031509,0.0 120.401722,24.032112,0.0 120.400562,24.032233,0.0 120.399773,24.032261,0.0 120.39957,24.032034,0.0 120.39866,24.031537,0.0 120.395695,24.03071,0.0 120.389448,24.028807,0.0 120.381526,24.028023,0.0 120.379375,24.027699,0.0 120.379556,24.027706,0.0 120.379818,24.027669,0.0 120.380084,24.027569,0.0 120.380447,24.027413,0.0 120.380766,24.027219,0.0 120.38124,24.026849,0.0 120.381502,24.026581,0.0 120.381704,24.026277,0.0 120.381769,24.02609,0.0 120.38184,24.025839,0.0 120.381868,24.025597,0.0 120.38193,24.02541,0.0 120.38203,24.025257,0.0 120.3822,24.025076,0.0 120.382388,24.024843,0.0 120.382515,24.024616,0.0 120.382609,24.024408,0.0 120.382712,24.024191,0.0 120.382871,24.023965,0.0 120.383093,24.02376,0.0 120.383199,24.023701,0.0 120.383345,24.023553,0.0 120.383412,24.023357,0.0 120.383451,24.023199,0.0 120.383542,24.023063,0.0 120.383673,24.022923,0.0 120.383849,24.022697,0.0 120.384003,24.022471,0.0 120.384022,24.022302,0.0 120.38401,24.022038,0.0 120.384015,24.021869,0.0 120.38412,24.021714,0.0 120.384346,24.021418,0.0 120.384433,24.021155,0.0 120.384492,24.02099,0.0 120.384646,24.020826,0.0 120.384921,24.020675,0.0 120.385188,24.020373,0.0 120.385527,24.019953,0.0 120.3856,24.019809,0.0 120.385614,24.019607,0.0 120.388544,24.020043,0.0 120.391635,24.020313,0.0 120.392868,24.020651,0.0 120.394541,24.021192,0.0 120.397471,24.021928,0.0 120.398039,24.022163,0.0 120.39795,24.023052,0.0 120.397927,24.025437,0.0 120.398018,24.027298,0.0 120.398353,24.028155,0.0 120.398991,24.02898,0.0 120.399427,24.028982,0.0 120.402933,24.023203,0.0 120.404988,24.021321,0.0 120.407955,24.022988,0.0 120.409591,24.022683,0.0 120.409345,24.020892,0.0 120.415857,24.020359,0.0 120.419548,24.019965,0.0 120.419743,24.022527,0.0 120.420161,24.026618,0.0 120.42043,24.028664,0.0 120.420596,24.029726,0.0 120.421129,24.032352,0.0 120.421479,24.033436,0.0 120.421568,24.034006,0.0</coordinates></LinearRing></outerBoundaryIs></Polygon><styleUrl>#spolygon-map</styleUrl></Placemark><Placemark><Polygon><outerBoundaryIs><LinearRing><coordinates>120.443725,24.035364,0.0 120.442024,24.035438,0.0 120.440938,24.035513,0.0 120.440151,24.035609,0.0 120.438829,24.035683,0.0 120.437991,24.03569,0.0 120.436422,24.036039,0.0 120.435831,24.035978,0.0 120.435004,24.035995,0.0 120.434281,24.035655,0.0 120.434107,24.033722,0.0 120.43376,24.032695,0.0 120.433696,24.030695,0.0 120.434309,24.029382,0.0 120.434862,24.028177,0.0 120.435617,24.027522,0.0 120.436932,24.025971,0.0 120.437788,24.024481,0.0 120.438107,24.024141,0.0 120.438303,24.024117,0.0 120.438478,24.024217,0.0 120.438762,24.024212,0.0 120.4391,24.023952,0.0 120.439431,24.023649,0.0 120.439556,24.023625,0.0 120.439758,24.023747,0.0 120.439917,24.023846,0.0 120.440119,24.023911,0.0 120.440412,24.023894,0.0 120.440818,24.023856,0.0 120.441083,24.023871,0.0 120.441493,24.023919,0.0 120.441766,24.02401,0.0 120.441851,24.024121,0.0 120.441891,24.024392,0.0 120.441982,24.024829,0.0 120.442022,24.025495,0.0 120.442037,24.025734,0.0 120.442106,24.026007,0.0 120.442202,24.026372,0.0 120.442283,24.026573,0.0 120.442463,24.026527,0.0 120.442807,24.026339,0.0 120.443082,24.025996,0.0 120.443298,24.025791,0.0 120.443428,24.025616,0.0 120.443549,24.025549,0.0 120.443647,24.025395,0.0 120.443637,24.025148,0.0 120.443739,24.02488,0.0 120.444197,24.024863,0.0 120.44434,24.025343,0.0 120.444411,24.026198,0.0 120.44437,24.028383,0.0 120.444001,24.032653,0.0 120.443725,24.035364,0.0</coordinates></LinearRing></outerBoundaryIs></Polygon><styleUrl>#spolygon-map</styleUrl></Placemark><Placemark><Polygon><outerBoundaryIs><LinearRing><coordinates>120.374063,24.038167,0.0 120.372467,24.038367,0.0 120.371812,24.038311,0.0 120.374316,24.037173,0.0 120.374861,24.036078,0.0 120.375139,24.035583,0.0 120.375235,24.035371,0.0 120.37532,24.034899,0.0 120.375443,24.034371,0.0 120.375568,24.034008,0.0 120.375778,24.033491,0.0 120.37609,24.03283,0.0 120.376336,24.032328,0.0 120.376736,24.031517,0.0 120.377052,24.030996,0.0 120.377336,24.030487,0.0 120.377436,24.030219,0.0 120.377466,24.030053,0.0 120.377562,24.029792,0.0 120.377786,24.029619,0.0 120.378242,24.029436,0.0 120.378453,24.029308,0.0 120.37861,24.02912,0.0 120.378686,24.028893,0.0 120.378621,24.028537,0.0 120.37864,24.028193,0.0 120.378736,24.028128,0.0 120.378921,24.027888,0.0 120.379141,24.027784,0.0 120.379375,24.027699,0.0 120.381526,24.028023,0.0 120.389448,24.028807,0.0 120.395695,24.03071,0.0 120.39866,24.031537,0.0 120.39957,24.032034,0.0 120.399773,24.032261,0.0 120.400562,24.032233,0.0 120.401722,24.032112,0.0 120.403818,24.031509,0.0 120.404791,24.031301,0.0 120.405323,24.031255,0.0 120.406638,24.030931,0.0 120.410273,24.029928,0.0 120.411943,24.030154,0.0 120.412286,24.031642,0.0 120.411986,24.031821,0.0 120.412446,24.033461,0.0 120.412802,24.033498,0.0 120.41174,24.036273,0.0 120.409429,24.037345,0.0 120.409079,24.037359,0.0 120.408773,24.037029,0.0 120.408353,24.036277,0.0 120.403449,24.036585,0.0 120.401116,24.037001,0.0 120.398753,24.036842,0.0 120.391861,24.036703,0.0 120.384585,24.037251,0.0 120.376073,24.037881,0.0 120.374063,24.038167,0.0</coordinates></LinearRing></outerBoundaryIs></Polygon><styleUrl>#spolygon-map</styleUrl></Placemark><Placemark><Polygon><outerBoundaryIs><LinearRing><coordinates>120.433604,24.037803,0.0 120.431682,24.038664,0.0 120.430366,24.039641,0.0 120.429122,24.039954,0.0 120.428778,24.039699,0.0 120.428578,24.038463,0.0 120.427424,24.0383,0.0 120.426054,24.03717,0.0 120.425015,24.037211,0.0 120.424133,24.037163,0.0 120.42381,24.036363,0.0 120.423117,24.03498,0.0 120.422717,24.034832,0.0 120.422378,24.034706,0.0 120.422189,24.034504,0.0 120.42204,24.034205,0.0 120.421479,24.033436,0.0 120.421129,24.032352,0.0 120.420596,24.029726,0.0 120.42043,24.028664,0.0 120.420161,24.026618,0.0 120.419743,24.022527,0.0 120.424536,24.020696,0.0 120.424228,24.019796,0.0 120.425975,24.017865,0.0 120.424342,24.011883,0.0 120.425019,24.011708,0.0 120.426928,24.011312,0.0 120.427122,24.011853,0.0 120.427327,24.012698,0.0 120.427421,24.012818,0.0 120.427552,24.012972,0.0 120.427598,24.013234,0.0 120.427769,24.013666,0.0 120.427887,24.013781,0.0 120.428183,24.013995,0.0 120.428404,24.014179,0.0 120.428575,24.014469,0.0 120.428806,24.014753,0.0 120.429168,24.014913,0.0 120.429922,24.015479,0.0 120.431205,24.016405,0.0 120.432064,24.01708,0.0 120.432784,24.017687,0.0 120.433191,24.017991,0.0 120.433454,24.01816,0.0 120.433673,24.018345,0.0 120.433907,24.018535,0.0 120.434372,24.018836,0.0 120.434704,24.019024,0.0 120.435028,24.019242,0.0 120.435103,24.019378,0.0 120.43521,24.02004,0.0 120.435314,24.020768,0.0 120.43534,24.021061,0.0 120.43532,24.021365,0.0 120.435323,24.021632,0.0 120.435334,24.021928,0.0 120.435357,24.02208,0.0 120.435363,24.022442,0.0 120.435379,24.022715,0.0 120.435412,24.022848,0.0 120.435465,24.022887,0.0 120.435568,24.022887,0.0 120.436346,24.022886,0.0 120.436537,24.022902,0.0 120.437041,24.022994,0.0 120.437588,24.023094,0.0 120.437988,24.023254,0.0 120.438129,24.023326,0.0 120.438359,24.023409,0.0 120.438554,24.023492,0.0 120.439052,24.023723,0.0 120.439189,24.02376,0.0 120.439333,24.023749,0.0 120.43889,24.024144,0.0 120.438593,24.02423,0.0 120.438397,24.024173,0.0 120.438181,24.024129,0.0 120.437937,24.024302,0.0 120.437516,24.024883,0.0 120.436044,24.027055,0.0 120.435361,24.027788,0.0 120.434701,24.028845,0.0 120.434123,24.030228,0.0 120.433763,24.031938,0.0 120.433913,24.033643,0.0 120.434174,24.035019,0.0 120.434207,24.035935,0.0 120.433921,24.037359,0.0 120.433604,24.037803,0.0</coordinates></LinearRing></outerBoundaryIs></Polygon><styleUrl>#spolygon-map</styleUrl></Placemark><Placemark><Polygon><outerBoundaryIs><LinearRing><coordinates>120.468203,24.041059,0.0 120.463886,24.04205,0.0 120.461574,24.040984,0.0 120.460423,24.03916,0.0 120.460093,24.037654,0.0 120.460327,24.036451,0.0 120.46085,24.035333,0.0 120.46151,24.034244,0.0 120.462418,24.033539,0.0 120.463353,24.032974,0.0 120.463448,24.032678,0.0 120.46345,24.032234,0.0 120.463367,24.031634,0.0 120.463281,24.030079,0.0 120.463238,24.028182,0.0 120.46326,24.026811,0.0 120.463151,24.026228,0.0 120.463103,24.025532,0.0 120.463497,24.025195,0.0 120.463883,24.025097,0.0 120.464823,24.025101,0.0 120.46702,24.025696,0.0 120.470117,24.026349,0.0 120.472511,24.026267,0.0 120.474222,24.026174,0.0 120.477287,24.026676,0.0 120.478615,24.026542,0.0 120.479943,24.026424,0.0 120.480547,24.026654,0.0 120.480957,24.026782,0.0 120.48131,24.026902,0.0 120.481457,24.02699,0.0 120.482024,24.027171,0.0 120.482402,24.02728,0.0 120.482703,24.02743,0.0 120.483138,24.027586,0.0 120.483503,24.027689,0.0 120.483856,24.027861,0.0 120.484057,24.027916,0.0 120.484567,24.027949,0.0 120.485196,24.027915,0.0 120.485584,24.027881,0.0 120.485889,24.027873,0.0 120.486365,24.02787,0.0 120.486684,24.027898,0.0 120.487158,24.027977,0.0 120.487463,24.02801,0.0 120.487939,24.028047,0.0 120.488233,24.028089,0.0 120.488621,24.028108,0.0 120.489112,24.028132,0.0 120.489493,24.028111,0.0 120.489787,24.028076,0.0 120.490014,24.028027,0.0 120.490058,24.028068,0.0 120.490021,24.028604,0.0 120.489931,24.029054,0.0 120.489994,24.029122,0.0 120.490575,24.029116,0.0 120.491155,24.029145,0.0 120.491524,24.028927,0.0 120.491616,24.028874,0.0 120.491639,24.029294,0.0 120.491576,24.029724,0.0 120.491319,24.029858,0.0 120.491063,24.029971,0.0 120.490782,24.030075,0.0 120.49046,24.03023,0.0 120.490187,24.030571,0.0 120.489931,24.030866,0.0 120.489581,24.031256,0.0 120.489228,24.031531,0.0 120.488985,24.031775,0.0 120.488576,24.032084,0.0 120.48832,24.032255,0.0 120.48829,24.032387,0.0 120.488328,24.032614,0.0 120.488318,24.032883,0.0 120.4881,24.033213,0.0 120.487905,24.033344,0.0 120.487633,24.033347,0.0 120.487506,24.033448,0.0 120.487274,24.033873,0.0 120.487133,24.034028,0.0 120.486593,24.034416,0.0 120.486162,24.034715,0.0 120.485894,24.034933,0.0 120.485546,24.035122,0.0 120.485287,24.03523,0.0 120.485134,24.035249,0.0 120.484999,24.035097,0.0 120.484867,24.035166,0.0 120.484807,24.035326,0.0 120.484188,24.035193,0.0 120.483797,24.034683,0.0 120.483387,24.034115,0.0 120.482822,24.033909,0.0 120.481965,24.033953,0.0 120.480912,24.033794,0.0 120.479008,24.033913,0.0 120.477809,24.033689,0.0 120.476883,24.033859,0.0 120.474289,24.035235,0.0 120.472481,24.037117,0.0 120.470539,24.039957,0.0 120.469834,24.040474,0.0 120.468547,24.040847,0.0 120.468203,24.041059,0.0</coordinates></LinearRing></outerBoundaryIs></Polygon><styleUrl>#spolygon-map</styleUrl></Placemark><Placemark><Polygon><outerBoundaryIs><LinearRing><coordinates>120.449341,24.04272,0.0 120.444803,24.043544,0.0 120.443863,24.043614,0.0 120.443949,24.043415,0.0 120.44407,24.043178,0.0 120.444457,24.042718,0.0 120.444686,24.042435,0.0 120.444814,24.042421,0.0 120.444927,24.042347,0.0 120.444962,24.042209,0.0 120.444933,24.041917,0.0 120.444964,24.041722,0.0 120.445027,24.041482,0.0 120.445137,24.041298,0.0 120.445171,24.041034,0.0 120.445157,24.040644,0.0 120.445066,24.040331,0.0 120.444973,24.040202,0.0 120.44483,24.040181,0.0 120.444574,24.040244,0.0 120.444377,24.04031,0.0 120.444167,24.040317,0.0 120.443668,24.040333,0.0 120.443381,24.040388,0.0 120.443276,24.040516,0.0 120.443237,24.04069,0.0 120.443224,24.040878,0.0 120.443152,24.041285,0.0 120.443027,24.041568,0.0 120.44277,24.041834,0.0 120.442506,24.04211,0.0 120.442229,24.04232,0.0 120.441891,24.042504,0.0 120.441492,24.042591,0.0 120.441186,24.042629,0.0 120.440731,24.04271,0.0 120.440572,24.042827,0.0 120.44047,24.042529,0.0 120.440537,24.041869,0.0 120.441663,24.040103,0.0 120.442778,24.038289,0.0 120.443646,24.036182,0.0 120.443802,24.0342,0.0 120.444192,24.030847,0.0 120.444439,24.027418,0.0 120.445595,24.025961,0.0 120.446581,24.025879,0.0 120.446887,24.027721,0.0 120.448135,24.027757,0.0 120.449004,24.027707,0.0 120.44979,24.028582,0.0 120.454067,24.028186,0.0 120.457828,24.027821,0.0 120.460326,24.024563,0.0 120.460856,24.02439,0.0 120.461385,24.024404,0.0 120.462128,24.02508,0.0 120.463103,24.025532,0.0 120.463151,24.026228,0.0 120.46326,24.026811,0.0 120.463238,24.028182,0.0 120.463281,24.030079,0.0 120.463367,24.031634,0.0 120.46345,24.032234,0.0 120.463448,24.032678,0.0 120.463353,24.032974,0.0 120.462418,24.033539,0.0 120.460756,24.033934,0.0 120.457334,24.034856,0.0 120.455235,24.03525,0.0 120.45263,24.035626,0.0 120.451558,24.035809,0.0 120.451341,24.035846,0.0 120.450273,24.037177,0.0 120.449019,24.038804,0.0 120.449054,24.039924,0.0 120.449341,24.04272,0.0</coordinates></LinearRing></outerBoundaryIs></Polygon><styleUrl>#spolygon-map</styleUrl></Placemark><Placemark><Polygon><outerBoundaryIs><LinearRing><coordinates>120.427424,24.0383,0.0 120.42821,24.042989,0.0 120.427837,24.044849,0.0 120.426561,24.044956,0.0 120.425685,24.045321,0.0 120.424854,24.045241,0.0 120.422541,24.045617,0.0 120.421194,24.042672,0.0 120.421147,24.042293,0.0 120.421299,24.0409,0.0 120.421209,24.0408,0.0 120.420945,24.040771,0.0 120.417955,24.040812,0.0 120.415446,24.0409,0.0 120.414568,24.03984,0.0 120.413807,24.037538,0.0 120.413347,24.035566,0.0 120.414019,24.035186,0.0 120.414267,24.034732,0.0 120.413754,24.033594,0.0 120.413212,24.032806,0.0 120.413228,24.032548,0.0 120.414276,24.032135,0.0 120.416091,24.031699,0.0 120.416733,24.032022,0.0 120.417468,24.032709,0.0 120.418362,24.032712,0.0 120.41918,24.032799,0.0 120.419941,24.033699,0.0 120.420334,24.034538,0.0 120.421135,24.034186,0.0 120.421393,24.034089,0.0 120.42204,24.034205,0.0 120.422189,24.034504,0.0 120.422378,24.034706,0.0 120.422717,24.034832,0.0 120.423117,24.03498,0.0 120.42381,24.036363,0.0 120.424133,24.037163,0.0 120.425015,24.037211,0.0 120.426054,24.03717,0.0 120.427424,24.0383,0.0</coordinates></LinearRing></outerBoundaryIs></Polygon><styleUrl>#spolygon-map</styleUrl></Placemark><Placemark><Polygon><outerBoundaryIs><LinearRing><coordinates>120.434413,24.047661,0.0 120.434197,24.04779,0.0 120.43372,24.048118,0.0 120.433564,24.048255,0.0 120.433422,24.048465,0.0 120.433319,24.048385,0.0 120.433193,24.046586,0.0 120.433409,24.045232,0.0 120.43345,24.044697,0.0 120.433885,24.043834,0.0 120.434002,24.043291,0.0 120.433625,24.042058,0.0 120.43378,24.041655,0.0 120.434029,24.041481,0.0 120.434136,24.041104,0.0 120.433955,24.040866,0.0 120.433755,24.040646,0.0 120.433269,24.040009,0.0 120.433257,24.038369,0.0 120.433604,24.037803,0.0 120.434071,24.036445,0.0 120.435004,24.035995,0.0 120.435831,24.035978,0.0 120.436422,24.036039,0.0 120.437991,24.03569,0.0 120.438829,24.035683,0.0 120.440151,24.035609,0.0 120.440938,24.035513,0.0 120.442024,24.035438,0.0 120.443725,24.035364,0.0 120.443255,24.037137,0.0 120.442365,24.03909,0.0 120.440894,24.041328,0.0 120.440407,24.042213,0.0 120.440536,24.042867,0.0 120.440357,24.043157,0.0 120.440294,24.043377,0.0 120.44013,24.043819,0.0 120.439984,24.044301,0.0 120.439894,24.044514,0.0 120.439696,24.044737,0.0 120.439263,24.045132,0.0 120.438909,24.045329,0.0 120.43856,24.045477,0.0 120.43811,24.045806,0.0 120.437681,24.046112,0.0 120.437459,24.046332,0.0 120.436503,24.04682,0.0 120.435801,24.047137,0.0 120.435111,24.047379,0.0 120.434512,24.047606,0.0 120.434413,24.047661,0.0</coordinates></LinearRing></outerBoundaryIs></Polygon><styleUrl>#spolygon-map</styleUrl></Placemark><Placemark><Polygon><outerBoundaryIs><LinearRing><coordinates>120.468887,24.049823,0.0 120.468551,24.0499,0.0 120.468315,24.049996,0.0 120.468096,24.050179,0.0 120.467856,24.050468,0.0 120.467763,24.050662,0.0 120.46757,24.05113,0.0 120.467376,24.051541,0.0 120.467139,24.051829,0.0 120.466752,24.051779,0.0 120.466525,24.051739,0.0 120.466177,24.051644,0.0 120.465666,24.051484,0.0 120.465176,24.051357,0.0 120.464965,24.051366,0.0 120.464671,24.051394,0.0 120.464454,24.051473,0.0 120.464404,24.051623,0.0 120.464367,24.051811,0.0 120.464161,24.051979,0.0 120.463954,24.052051,0.0 120.463682,24.052084,0.0 120.463455,24.052151,0.0 120.463206,24.052231,0.0 120.463095,24.052274,0.0 120.46295,24.052264,0.0 120.462642,24.052224,0.0 120.462265,24.052184,0.0 120.461482,24.052144,0.0 120.460795,24.052118,0.0 120.460399,24.052104,0.0 120.46023,24.052118,0.0 120.460035,24.052192,0.0 120.459819,24.052189,0.0 120.459634,24.052169,0.0 120.459164,24.052209,0.0 120.45881,24.052254,0.0 120.458302,24.052288,0.0 120.457778,24.052316,0.0 120.457549,24.05227,0.0 120.456773,24.052181,0.0 120.456287,24.052179,0.0 120.455985,24.052226,0.0 120.455339,24.05216,0.0 120.454976,24.052222,0.0 120.455025,24.049303,0.0 120.454854,24.047829,0.0 120.454888,24.046186,0.0 120.453733,24.045954,0.0 120.449702,24.046836,0.0 120.449341,24.04272,0.0 120.449054,24.039924,0.0 120.449019,24.038804,0.0 120.450273,24.037177,0.0 120.451341,24.035846,0.0 120.451558,24.035809,0.0 120.45263,24.035626,0.0 120.455235,24.03525,0.0 120.457334,24.034856,0.0 120.460756,24.033934,0.0 120.46151,24.034244,0.0 120.46085,24.035333,0.0 120.460327,24.036451,0.0 120.460093,24.037654,0.0 120.460423,24.03916,0.0 120.461574,24.040984,0.0 120.463886,24.04205,0.0 120.468203,24.041059,0.0 120.466508,24.043768,0.0 120.465834,24.045024,0.0 120.466518,24.045483,0.0 120.467717,24.045707,0.0 120.468715,24.044719,0.0 120.469266,24.044359,0.0 120.469434,24.04521,0.0 120.469407,24.047449,0.0 120.469013,24.047511,0.0 120.468139,24.047445,0.0 120.468118,24.048216,0.0 120.468713,24.049555,0.0 120.468887,24.049823,0.0</coordinates></LinearRing></outerBoundaryIs></Polygon><styleUrl>#spolygon-map</styleUrl></Placemark><Placemark><Polygon><outerBoundaryIs><LinearRing><coordinates>120.489068,24.046126,0.0 120.489013,24.047022,0.0 120.488513,24.046975,0.0 120.488375,24.046929,0.0 120.487756,24.04695,0.0 120.486472,24.046873,0.0 120.484849,24.046793,0.0 120.484309,24.046764,0.0 120.483676,24.046726,0.0 120.483668,24.047469,0.0 120.483646,24.048253,0.0 120.483555,24.04918,0.0 120.483139,24.049391,0.0 120.482314,24.049282,0.0 120.481992,24.049239,0.0 120.481915,24.050255,0.0 120.481827,24.051355,0.0 120.481717,24.052764,0.0 120.481611,24.05409,0.0 120.480745,24.054049,0.0 120.479718,24.054002,0.0 120.480279,24.053319,0.0 120.480152,24.052934,0.0 120.480012,24.052399,0.0 120.479907,24.051683,0.0 120.479827,24.050969,0.0 120.479716,24.049966,0.0 120.479666,24.049357,0.0 120.479639,24.049141,0.0 120.479697,24.048541,0.0 120.479743,24.048375,0.0 120.479703,24.048153,0.0 120.479605,24.047692,0.0 120.479497,24.047488,0.0 120.479363,24.047247,0.0 120.479192,24.046993,0.0 120.478905,24.046535,0.0 120.478742,24.046542,0.0 120.478449,24.046672,0.0 120.477969,24.046902,0.0 120.477566,24.047054,0.0 120.47721,24.047122,0.0 120.476821,24.047178,0.0 120.476419,24.047227,0.0 120.476035,24.047311,0.0 120.475717,24.047402,0.0 120.475302,24.047512,0.0 120.474707,24.047636,0.0 120.47451,24.04767,0.0 120.474298,24.047674,0.0 120.473909,24.047695,0.0 120.473419,24.04787,0.0 120.472996,24.047969,0.0 120.472648,24.048102,0.0 120.47243,24.048139,0.0 120.472028,24.048215,0.0 120.471804,24.048254,0.0 120.471759,24.04841,0.0 120.471631,24.04855,0.0 120.471461,24.048616,0.0 120.471284,24.048627,0.0 120.47116,24.048687,0.0 120.47103,24.048825,0.0 120.470892,24.048929,0.0 120.470707,24.049003,0.0 120.470428,24.049091,0.0 120.470076,24.049249,0.0 120.469726,24.049425,0.0 120.469568,24.049509,0.0 120.469306,24.04963,0.0 120.469159,24.049737,0.0 120.469011,24.049807,0.0 120.468713,24.049555,0.0 120.468118,24.048216,0.0 120.468139,24.047445,0.0 120.469013,24.047511,0.0 120.469407,24.047449,0.0 120.469434,24.04521,0.0 120.469266,24.044359,0.0 120.468715,24.044719,0.0 120.467717,24.045707,0.0 120.466518,24.045483,0.0 120.465834,24.045024,0.0 120.466508,24.043768,0.0 120.468203,24.041059,0.0 120.46901,24.040723,0.0 120.470315,24.040208,0.0 120.471732,24.038335,0.0 120.473395,24.035877,0.0 120.475509,24.034483,0.0 120.477415,24.033687,0.0 120.478186,24.033737,0.0 120.479557,24.033946,0.0 120.481366,24.033809,0.0 120.482291,24.03397,0.0 120.483079,24.033957,0.0 120.483593,24.034242,0.0 120.483997,24.035061,0.0 120.484498,24.03532,0.0 120.484848,24.03553,0.0 120.484919,24.03576,0.0 120.485025,24.035807,0.0 120.485487,24.035844,0.0 120.485338,24.036085,0.0 120.485015,24.036154,0.0 120.484743,24.036312,0.0 120.484695,24.036458,0.0 120.484425,24.037095,0.0 120.484279,24.037436,0.0 120.484053,24.03784,0.0 120.483797,24.038216,0.0 120.483497,24.039003,0.0 120.483139,24.039703,0.0 120.482957,24.039988,0.0 120.482844,24.040088,0.0 120.48285,24.040169,0.0 120.482977,24.040203,0.0 120.483139,24.040234,0.0 120.483953,24.040219,0.0 120.484908,24.041135,0.0 120.485581,24.041195,0.0 120.485391,24.041857,0.0 120.485247,24.042133,0.0 120.485019,24.042538,0.0 120.484754,24.042506,0.0 120.48474,24.042344,0.0 120.48479,24.042127,0.0 120.484024,24.042102,0.0 120.483879,24.043903,0.0 120.487177,24.044049,0.0 120.488052,24.044457,0.0 120.488154,24.044548,0.0 120.488577,24.044364,0.0 120.488868,24.044271,0.0 120.489135,24.044816,0.0 120.489068,24.046126,0.0</coordinates></LinearRing></outerBoundaryIs></Polygon><styleUrl>#spolygon-map</styleUrl></Placemark><Placemark><Polygon><outerBoundaryIs><LinearRing><coordinates>120.448654,24.053393,0.0 120.448322,24.053391,0.0 120.448195,24.053424,0.0 120.448049,24.053569,0.0 120.447847,24.053664,0.0 120.447395,24.053673,0.0 120.447094,24.053652,0.0 120.446598,24.053687,0.0 120.445887,24.053696,0.0 120.445347,24.053654,0.0 120.444654,24.053585,0.0 120.444029,24.053556,0.0 120.443678,24.05357,0.0 120.443149,24.053647,0.0 120.442476,24.053798,0.0 120.441902,24.053961,0.0 120.441545,24.054,0.0 120.441248,24.053929,0.0 120.441075,24.053772,0.0 120.441003,24.053645,0.0 120.440897,24.053433,0.0 120.440822,24.053173,0.0 120.440759,24.053065,0.0 120.440605,24.05303,0.0 120.440034,24.053229,0.0 120.439215,24.053489,0.0 120.43851,24.053701,0.0 120.438667,24.053062,0.0 120.439213,24.050858,0.0 120.43961,24.049181,0.0 120.440285,24.048943,0.0 120.441216,24.048741,0.0 120.441359,24.048673,0.0 120.441361,24.048255,0.0 120.441335,24.048036,0.0 120.441225,24.047829,0.0 120.440913,24.047398,0.0 120.44067,24.047101,0.0 120.440608,24.046987,0.0 120.440497,24.046791,0.0 120.440312,24.046588,0.0 120.440208,24.046421,0.0 120.440031,24.046215,0.0 120.439946,24.046027,0.0 120.440067,24.045949,0.0 120.440644,24.045742,0.0 120.441069,24.045546,0.0 120.441876,24.045198,0.0 120.442566,24.044895,0.0 120.443041,24.044682,0.0 120.443421,24.044485,0.0 120.443461,24.044364,0.0 120.443558,24.044158,0.0 120.443804,24.043841,0.0 120.443832,24.043727,0.0 120.446215,24.0433,0.0 120.449506,24.044881,0.0 120.450719,24.046666,0.0 120.454822,24.045725,0.0 120.454841,24.047543,0.0 120.455027,24.048564,0.0 120.455018,24.050859,0.0 120.454854,24.05224,0.0 120.454493,24.052288,0.0 120.45377,24.052259,0.0 120.453142,24.052277,0.0 120.452606,24.052345,0.0 120.452129,24.052413,0.0 120.451879,24.052516,0.0 120.451686,24.052695,0.0 120.45143,24.052732,0.0 120.450632,24.052776,0.0 120.450348,24.052804,0.0 120.450174,24.052833,0.0 120.449955,24.052997,0.0 120.449747,24.053043,0.0 120.449413,24.053074,0.0 120.449201,24.053166,0.0 120.448863,24.053341,0.0 120.448654,24.053393,0.0</coordinates></LinearRing></outerBoundaryIs></Polygon><styleUrl>#spolygon-map</styleUrl></Placemark><Placemark><Polygon><outerBoundaryIs><LinearRing><coordinates>120.403083,24.057619,0.0 120.399901,24.057701,0.0 120.396719,24.057751,0.0 120.393536,24.05777,0.0 120.390355,24.057759,0.0 120.387173,24.057716,0.0 120.383991,24.057641,0.0 120.38081,24.057536,0.0 120.377628,24.0574,0.0 120.374447,24.057232,0.0 120.371266,24.057034,0.0 120.368085,24.056804,0.0 120.364904,24.056543,0.0 120.361724,24.056251,0.0 120.358544,24.055927,0.0 120.355363,24.055573,0.0 120.352183,24.055188,0.0 120.349003,24.054771,0.0 120.345824,24.054323,0.0 120.342644,24.053844,0.0 120.342443,24.053241,0.0 120.342231,24.047749,0.0 120.346783,24.046123,0.0 120.351335,24.044561,0.0 120.355886,24.043061,0.0 120.360437,24.041625,0.0 120.364987,24.040252,0.0 120.369537,24.038942,0.0 120.372467,24.038367,0.0 120.374063,24.038167,0.0 120.376073,24.037881,0.0 120.384585,24.037251,0.0 120.391861,24.036703,0.0 120.398753,24.036842,0.0 120.401116,24.037001,0.0 120.403449,24.036585,0.0 120.408353,24.036277,0.0 120.408773,24.037029,0.0 120.409079,24.037359,0.0 120.409429,24.037345,0.0 120.41174,24.036273,0.0 120.413532,24.036154,0.0 120.414059,24.038384,0.0 120.414928,24.040845,0.0 120.413695,24.041325,0.0 120.41301,24.042097,0.0 120.411763,24.042013,0.0 120.404626,24.04254,0.0 120.403452,24.04364,0.0 120.403277,24.045249,0.0 120.402753,24.04767,0.0 120.402694,24.04928,0.0 120.403086,24.053696,0.0 120.403083,24.057619,0.0</coordinates></LinearRing></outerBoundaryIs></Polygon><styleUrl>#spolygon-map</styleUrl></Placemark><Placemark><Polygon><outerBoundaryIs><LinearRing><coordinates>120.422541,24.045617,0.0 120.421962,24.04758,0.0 120.421386,24.049083,0.0 120.420281,24.051465,0.0 120.419273,24.052872,0.0 120.409736,24.056288,0.0 120.407734,24.057044,0.0 120.406795,24.058155,0.0 120.406588,24.058086,0.0 120.40645,24.058062,0.0 120.406049,24.057963,0.0 120.405641,24.057764,0.0 120.405336,24.057667,0.0 120.405168,24.057614,0.0 120.404674,24.057566,0.0 120.403134,24.054186,0.0 120.402991,24.052727,0.0 120.402647,24.04816,0.0 120.40297,24.046912,0.0 120.403461,24.044091,0.0 120.403477,24.042666,0.0 120.409435,24.042181,0.0 120.412876,24.041938,0.0 120.413357,24.041728,0.0 120.414253,24.041018,0.0 120.415446,24.0409,0.0 120.417955,24.040812,0.0 120.420945,24.040771,0.0 120.421209,24.0408,0.0 120.421299,24.0409,0.0 120.421147,24.042293,0.0 120.421194,24.042672,0.0 120.422541,24.045617,0.0</coordinates></LinearRing></outerBoundaryIs></Polygon><styleUrl>#spolygon-map</styleUrl></Placemark><Placemark><Polygon><outerBoundaryIs><LinearRing><coordinates>120.427202,24.055828,0.0 120.426727,24.055499,0.0 120.426581,24.055445,0.0 120.42635,24.055439,0.0 120.425861,24.055462,0.0 120.425089,24.055488,0.0 120.424486,24.05549,0.0 120.42429,24.055439,0.0 120.424017,24.055332,0.0 120.423761,24.055177,0.0 120.423353,24.054834,0.0 120.422493,24.054062,0.0 120.421928,24.053554,0.0 120.421604,24.053317,0.0 120.421061,24.053272,0.0 120.420662,24.053343,0.0 120.420493,24.053405,0.0 120.42002,24.053668,0.0 120.419672,24.053931,0.0 120.419243,24.054337,0.0 120.418895,24.054779,0.0 120.418776,24.055549,0.0 120.418831,24.055971,0.0 120.418928,24.056574,0.0 120.418786,24.056679,0.0 120.418607,24.056746,0.0 120.41824,24.05672,0.0 120.417652,24.05666,0.0 120.417227,24.056615,0.0 120.416693,24.056842,0.0 120.416035,24.057167,0.0 120.415556,24.057464,0.0 120.414598,24.058105,0.0 120.413943,24.058485,0.0 120.41323,24.058797,0.0 120.412525,24.059102,0.0 120.411825,24.059413,0.0 120.411104,24.059704,0.0 120.410676,24.059889,0.0 120.41045,24.059922,0.0 120.410151,24.059854,0.0 120.409768,24.059746,0.0 120.409496,24.059663,0.0 120.409349,24.059586,0.0 120.409124,24.059421,0.0 120.408951,24.05931,0.0 120.408307,24.058922,0.0 120.408005,24.058735,0.0 120.407698,24.058544,0.0 120.40742,24.058401,0.0 120.407312,24.058354,0.0 120.407161,24.05829,0.0 120.407003,24.058239,0.0 120.407203,24.057429,0.0 120.408232,24.056828,0.0 120.414579,24.054617,0.0 120.419742,24.052208,0.0 120.420839,24.050041,0.0 120.421511,24.048164,0.0 120.422378,24.047264,0.0 120.424307,24.045272,0.0 120.425291,24.045287,0.0 120.426281,24.045234,0.0 120.427387,24.044903,0.0 120.42847,24.044618,0.0 120.427749,24.040183,0.0 120.428558,24.038086,0.0 120.428727,24.039088,0.0 120.428915,24.039889,0.0 120.429657,24.039924,0.0 120.430869,24.039168,0.0 120.432667,24.038312,0.0 120.43341,24.038326,0.0 120.433102,24.038974,0.0 120.433507,24.040247,0.0 120.433803,24.04076,0.0 120.434069,24.040989,0.0 120.434144,24.041279,0.0 120.433856,24.041594,0.0 120.433683,24.041804,0.0 120.433842,24.042755,0.0 120.433962,24.043694,0.0 120.433509,24.044364,0.0 120.433448,24.045031,0.0 120.433243,24.046118,0.0 120.433217,24.047718,0.0 120.433348,24.048563,0.0 120.433205,24.048722,0.0 120.433061,24.04884,0.0 120.432427,24.049672,0.0 120.431976,24.050269,0.0 120.431524,24.050849,0.0 120.431074,24.05145,0.0 120.430691,24.051972,0.0 120.430452,24.052373,0.0 120.430098,24.053016,0.0 120.429779,24.053671,0.0 120.429376,24.054505,0.0 120.428917,24.055408,0.0 120.42871,24.055789,0.0 120.428504,24.056062,0.0 120.428311,24.056203,0.0 120.42811,24.056263,0.0 120.427927,24.056254,0.0 120.427725,24.056192,0.0 120.427589,24.056104,0.0 120.427202,24.055828,0.0</coordinates></LinearRing></outerBoundaryIs></Polygon><styleUrl>#spolygon-map</styleUrl></Placemark></Document>
</kml>
