<?xml version="1.0" encoding="UTF-8"?>
<kml xmlns="http://www.opengis.net/kml/2.2">
	<Document>
		<name>新竹縣尖石鄉</name>
		<Style id="spolygon">
			<LabelStyle>
				<scale>0.0</scale>
			</LabelStyle>
			<LineStyle>
				<color>330030ff</color>
				<width>0</width>
			</LineStyle>
			<PolyStyle>
				<color>330030ff</color>
			</PolyStyle>
		</Style>
		<StyleMap id="spolygon-map">
			<Pair>
				<key>normal</key>
				<styleUrl>#spolygon</styleUrl>
			</Pair>
		</StyleMap>
	<Placemark><Polygon><outerBoundaryIs><LinearRing><coordinates>121.262476,24.455404,0.0 121.26454,24.456575,0.0 121.266287,24.457139,0.0 121.270112,24.457849,0.0 121.272656,24.45875,0.0 121.274444,24.460468,0.0 121.276813,24.461404,0.0 121.282104,24.462911,0.0 121.285655,24.463685,0.0 121.290927,24.464261,0.0 121.294271,24.464953,0.0 121.298738,24.467056,0.0 121.303835,24.469515,0.0 121.307221,24.471342,0.0 121.309886,24.474229,0.0 121.310852,24.478784,0.0 121.311733,24.481888,0.0 121.314587,24.488977,0.0 121.316349,24.492747,0.0 121.317736,24.495269,0.0 121.319527,24.497625,0.0 121.320058,24.498251,0.0 121.320214,24.499013,0.0 121.320723,24.499644,0.0 121.321608,24.500199,0.0 121.321178,24.500936,0.0 121.32095,24.501647,0.0 121.321172,24.50212,0.0 121.322332,24.502214,0.0 121.322851,24.502467,0.0 121.322775,24.502932,0.0 121.322011,24.503636,0.0 121.322155,24.503916,0.0 121.323469,24.503992,0.0 121.323423,24.504624,0.0 121.322468,24.506117,0.0 121.322213,24.507156,0.0 121.322628,24.508287,0.0 121.324298,24.508783,0.0 121.32598,24.508721,0.0 121.327152,24.509692,0.0 121.327977,24.50976,0.0 121.329066,24.509708,0.0 121.329729,24.510136,0.0 121.330899,24.510336,0.0 121.331236,24.510642,0.0 121.331115,24.511914,0.0 121.331255,24.513085,0.0 121.33243,24.514007,0.0 121.333641,24.514908,0.0 121.334128,24.5172,0.0 121.334372,24.518866,0.0 121.334921,24.519566,0.0 121.335483,24.521649,0.0 121.335964,24.522113,0.0 121.337248,24.521575,0.0 121.339737,24.521194,0.0 121.340898,24.521288,0.0 121.342004,24.522136,0.0 121.34393,24.522478,0.0 121.346177,24.523376,0.0 121.347241,24.524935,0.0 121.348202,24.525661,0.0 121.349804,24.525727,0.0 121.350371,24.525761,0.0 121.350488,24.52655,0.0 121.350944,24.526905,0.0 121.35174,24.526552,0.0 121.352508,24.526892,0.0 121.35296,24.527479,0.0 121.353079,24.528531,0.0 121.353091,24.529386,0.0 121.352326,24.530502,0.0 121.351994,24.531692,0.0 121.352226,24.53248,0.0 121.352929,24.5334,0.0 121.353835,24.534147,0.0 121.354287,24.534602,0.0 121.354414,24.535575,0.0 121.354098,24.536308,0.0 121.353783,24.536774,0.0 121.353784,24.537107,0.0 121.354198,24.53765,0.0 121.354084,24.538054,0.0 121.35227,24.538746,0.0 121.351348,24.53852,0.0 121.350687,24.538706,0.0 121.350316,24.540057,0.0 121.350828,24.541096,0.0 121.35083,24.542008,0.0 121.350383,24.543064,0.0 121.351067,24.544019,0.0 121.351778,24.544529,0.0 121.351637,24.545371,0.0 121.350814,24.546381,0.0 121.350118,24.548116,0.0 121.349382,24.549188,0.0 121.349546,24.550023,0.0 121.349348,24.550542,0.0 121.34839,24.551191,0.0 121.345828,24.552281,0.0 121.345445,24.552534,0.0 121.344635,24.553757,0.0 121.344068,24.554277,0.0 121.344195,24.555567,0.0 121.343506,24.556298,0.0 121.343138,24.556981,0.0 121.343389,24.558972,0.0 121.34304,24.560369,0.0 121.343089,24.561561,0.0 121.343554,24.562574,0.0 121.344139,24.563414,0.0 121.344805,24.565348,0.0 121.344316,24.566444,0.0 121.343613,24.56756,0.0 121.343355,24.568458,0.0 121.342742,24.568838,0.0 121.342437,24.569751,0.0 121.342057,24.571623,0.0 121.342198,24.572745,0.0 121.342446,24.574141,0.0 121.341897,24.575503,0.0 121.341777,24.576415,0.0 121.342321,24.578791,0.0 121.342174,24.581181,0.0 121.341674,24.583628,0.0 121.341372,24.585579,0.0 121.33996,24.587398,0.0 121.338352,24.588651,0.0 121.333869,24.590698,0.0 121.328938,24.592565,0.0 121.325747,24.593526,0.0 121.324288,24.594235,0.0 121.323691,24.594994,0.0 121.323344,24.597057,0.0 121.323224,24.598292,0.0 121.322858,24.599956,0.0 121.322723,24.601514,0.0 121.322713,24.602938,0.0 121.322947,24.604368,0.0 121.323367,24.606266,0.0 121.324601,24.607853,0.0 121.327311,24.610081,0.0 121.33005,24.61246,0.0 121.33281,24.615715,0.0 121.334459,24.617927,0.0 121.335667,24.619477,0.0 121.335793,24.620487,0.0 121.3348,24.62322,0.0 121.333102,24.625497,0.0 121.331393,24.627285,0.0 121.329353,24.627935,0.0 121.326252,24.628152,0.0 121.322422,24.628202,0.0 121.319658,24.628278,0.0 121.317787,24.629082,0.0 121.316077,24.630534,0.0 121.314066,24.632397,0.0 121.311871,24.633075,0.0 121.309366,24.633912,0.0 121.307235,24.635277,0.0 121.305104,24.637221,0.0 121.303339,24.639645,0.0 121.301802,24.642583,0.0 121.300393,24.644312,0.0 121.298662,24.645373,0.0 121.297527,24.646007,0.0 121.296258,24.648793,0.0 121.296323,24.650294,0.0 121.297064,24.651751,0.0 121.298573,24.653258,0.0 121.300427,24.657091,0.0 121.300739,24.658984,0.0 121.299774,24.660332,0.0 121.298763,24.661703,0.0 121.299229,24.664556,0.0 121.298693,24.665539,0.0 121.295885,24.667921,0.0 121.290355,24.674222,0.0 121.288634,24.677383,0.0 121.287981,24.67898,0.0 121.286953,24.678205,0.0 121.285415,24.675546,0.0 121.284624,24.673554,0.0 121.284267,24.671833,0.0 121.283939,24.671255,0.0 121.283564,24.669582,0.0 121.282497,24.668184,0.0 121.280845,24.667399,0.0 121.277991,24.666408,0.0 121.275074,24.665195,0.0 121.273813,24.664346,0.0 121.273673,24.663606,0.0 121.272993,24.661678,0.0 121.272093,24.660608,0.0 121.271504,24.65927,0.0 121.271279,24.658221,0.0 121.270836,24.657454,0.0 121.27011,24.656733,0.0 121.269084,24.655602,0.0 121.267678,24.654834,0.0 121.266943,24.653693,0.0 121.266292,24.652529,0.0 121.265719,24.651253,0.0 121.263643,24.649677,0.0 121.262224,24.649095,0.0 121.261534,24.648734,0.0 121.258737,24.648484,0.0 121.258081,24.648249,0.0 121.256295,24.645995,0.0 121.254863,24.645446,0.0 121.251116,24.645389,0.0 121.248508,24.644717,0.0 121.247112,24.644657,0.0 121.246569,24.644832,0.0 121.246683,24.643426,0.0 121.246851,24.640687,0.0 121.247096,24.636708,0.0 121.248014,24.634298,0.0 121.250118,24.631484,0.0 121.250377,24.627289,0.0 121.249536,24.624199,0.0 121.247028,24.622356,0.0 121.246101,24.62019,0.0 121.244584,24.617529,0.0 121.243659,24.616286,0.0 121.242954,24.615082,0.0 121.239482,24.614927,0.0 121.231904,24.615057,0.0 121.224566,24.614788,0.0 121.216259,24.613636,0.0 121.212416,24.612966,0.0 121.212364,24.612333,0.0 121.212274,24.611699,0.0 121.212266,24.611098,0.0 121.21229,24.610482,0.0 121.212302,24.609877,0.0 121.212269,24.609244,0.0 121.212236,24.608686,0.0 121.212254,24.608181,0.0 121.212508,24.607547,0.0 121.212876,24.606942,0.0 121.213169,24.606602,0.0 121.213842,24.60602,0.0 121.214427,24.605664,0.0 121.214909,24.605257,0.0 121.215354,24.604815,0.0 121.215836,24.604355,0.0 121.216163,24.60395,0.0 121.216315,24.60356,0.0 121.216384,24.6032,0.0 121.216587,24.602892,0.0 121.21686,24.602682,0.0 121.21746,24.602405,0.0 121.218209,24.60173,0.0 121.218425,24.601428,0.0 121.218666,24.60105,0.0 121.218966,24.600679,0.0 121.21929,24.60051,0.0 121.219869,24.600283,0.0 121.220199,24.600114,0.0 121.220274,24.599317,0.0 121.219885,24.598515,0.0 121.219607,24.597906,0.0 121.219127,24.597104,0.0 121.218772,24.596541,0.0 121.218353,24.595783,0.0 121.217946,24.595119,0.0 121.217588,24.594843,0.0 121.21717,24.594755,0.0 121.2168,24.594689,0.0 121.216373,24.594453,0.0 121.216136,24.594215,0.0 121.21559,24.593962,0.0 121.214721,24.59383,0.0 121.213794,24.593754,0.0 121.21294,24.593733,0.0 121.212091,24.59369,0.0 121.211515,24.592987,0.0 121.211278,24.592584,0.0 121.210841,24.592125,0.0 121.210285,24.591807,0.0 121.210018,24.591625,0.0 121.20995,24.590955,0.0 121.209736,24.590204,0.0 121.209353,24.589441,0.0 121.208976,24.588818,0.0 121.208508,24.588115,0.0 121.208033,24.587563,0.0 121.207645,24.586984,0.0 121.207174,24.586623,0.0 121.206671,24.586428,0.0 121.206135,24.5863,0.0 121.205333,24.586202,0.0 121.204567,24.586135,0.0 121.203776,24.586159,0.0 121.203256,24.586212,0.0 121.202207,24.586258,0.0 121.201473,24.586259,0.0 121.201036,24.586124,0.0 121.200698,24.585853,0.0 121.200549,24.585597,0.0 121.20035,24.5851,0.0 121.200127,24.584634,0.0 121.200019,24.584182,0.0 121.199869,24.583778,0.0 121.199604,24.583311,0.0 121.199274,24.582882,0.0 121.198853,24.582288,0.0 121.198398,24.58155,0.0 121.198134,24.581076,0.0 121.197902,24.580519,0.0 121.197702,24.580046,0.0 121.197512,24.579474,0.0 121.197461,24.578856,0.0 121.197518,24.578209,0.0 121.197558,24.577681,0.0 121.197689,24.577184,0.0 121.197878,24.576642,0.0 121.197885,24.576236,0.0 121.197736,24.575815,0.0 121.197554,24.575341,0.0 121.197429,24.57464,0.0 121.197256,24.574159,0.0 121.197024,24.573571,0.0 121.196693,24.57285,0.0 121.196378,24.572097,0.0 121.196212,24.571216,0.0 121.196104,24.570576,0.0 121.196128,24.570207,0.0 121.196498,24.569755,0.0 121.196959,24.569332,0.0 121.197214,24.569017,0.0 121.197353,24.568452,0.0 121.197278,24.567977,0.0 121.197294,24.567473,0.0 121.197516,24.566795,0.0 121.197546,24.566241,0.0 121.197142,24.56594,0.0 121.196688,24.565413,0.0 121.196292,24.564902,0.0 121.196036,24.564352,0.0 121.195672,24.563705,0.0 121.195242,24.563127,0.0 121.194903,24.562563,0.0 121.194589,24.561825,0.0 121.194448,24.561117,0.0 121.194298,24.560334,0.0 121.194157,24.559854,0.0 121.193941,24.559244,0.0 121.193784,24.558823,0.0 121.193585,24.557995,0.0 121.193294,24.557116,0.0 121.193054,24.556559,0.0 121.192988,24.556167,0.0 121.19307,24.555798,0.0 121.193415,24.555301,0.0 121.193785,24.555036,0.0 121.194353,24.554795,0.0 121.194831,24.554689,0.0 121.195279,24.55454,0.0 121.195855,24.554095,0.0 121.196299,24.553703,0.0 121.19671,24.55316,0.0 121.196981,24.552692,0.0 121.19709,24.551845,0.0 121.197179,24.551152,0.0 121.197327,24.550654,0.0 121.197689,24.550247,0.0 121.19833,24.549553,0.0 121.198916,24.548909,0.0 121.199516,24.548374,0.0 121.200059,24.547889,0.0 121.200364,24.547496,0.0 121.200681,24.546938,0.0 121.20099,24.546354,0.0 121.20111,24.545482,0.0 121.201075,24.544682,0.0 121.200792,24.544013,0.0 121.200473,24.543606,0.0 121.200053,24.543389,0.0 121.199483,24.543329,0.0 121.199082,24.543468,0.0 121.198746,24.543488,0.0 121.19842,24.543429,0.0 121.198113,24.543217,0.0 121.197584,24.542489,0.0 121.197194,24.542041,0.0 121.196794,24.54157,0.0 121.196374,24.541169,0.0 121.196054,24.540787,0.0 121.19588,24.540391,0.0 121.195873,24.539735,0.0 121.195979,24.539244,0.0 121.196342,24.538839,0.0 121.196744,24.538405,0.0 121.197142,24.537984,0.0 121.199096,24.536312,0.0 121.200107,24.535566,0.0 121.200556,24.535521,0.0 121.200975,24.535502,0.0 121.201311,24.535439,0.0 121.201667,24.535192,0.0 121.201981,24.534544,0.0 121.202112,24.534048,0.0 121.202078,24.533656,0.0 121.201841,24.533109,0.0 121.201584,24.532585,0.0 121.201399,24.53214,0.0 121.20127,24.530849,0.0 121.201207,24.529884,0.0 121.201306,24.529501,0.0 121.201558,24.529128,0.0 121.201742,24.528651,0.0 121.201743,24.528144,0.0 121.201634,24.527667,0.0 121.201432,24.527285,0.0 121.201198,24.526994,0.0 121.200841,24.526766,0.0 121.200389,24.526479,0.0 121.200132,24.526057,0.0 121.200133,24.525557,0.0 121.200199,24.525094,0.0 121.200361,24.524756,0.0 121.200694,24.524611,0.0 121.20155,24.524601,0.0 121.202031,24.524634,0.0 121.202337,24.524424,0.0 121.203114,24.523484,0.0 121.203851,24.522479,0.0 121.20408,24.521965,0.0 121.204152,24.521577,0.0 121.204017,24.521077,0.0 121.203067,24.519645,0.0 121.202485,24.518653,0.0 121.202089,24.51785,0.0 121.201942,24.51743,0.0 121.201842,24.516766,0.0 121.201847,24.516045,0.0 121.201908,24.515362,0.0 121.201929,24.514813,0.0 121.202013,24.514224,0.0 121.202362,24.513752,0.0 121.202912,24.513196,0.0 121.203129,24.512771,0.0 121.203185,24.512507,0.0 121.203449,24.512466,0.0 121.203676,24.51233,0.0 121.203865,24.512233,0.0 121.204312,24.512143,0.0 121.204588,24.512165,0.0 121.204887,24.512294,0.0 121.205102,24.512505,0.0 121.20529,24.5127,0.0 121.205605,24.512836,0.0 121.205897,24.51291,0.0 121.206225,24.512941,0.0 121.206666,24.512955,0.0 121.20697,24.512863,0.0 121.207347,24.512529,0.0 121.207626,24.5123,0.0 121.207847,24.512035,0.0 121.208046,24.511713,0.0 121.208166,24.511535,0.0 121.208233,24.511687,0.0 121.208441,24.511631,0.0 121.208721,24.511542,0.0 121.209164,24.511448,0.0 121.20955,24.511486,0.0 121.209885,24.511595,0.0 121.210227,24.511816,0.0 121.210434,24.511977,0.0 121.210734,24.512199,0.0 121.211131,24.512585,0.0 121.211393,24.51279,0.0 121.211788,24.513074,0.0 121.21219,24.513371,0.0 121.2125,24.513631,0.0 121.212877,24.513926,0.0 121.213162,24.514147,0.0 121.213432,24.514357,0.0 121.213846,24.514677,0.0 121.214121,24.51488,0.0 121.214469,24.51508,0.0 121.214781,24.515262,0.0 121.215136,24.515399,0.0 121.215426,24.515487,0.0 121.215816,24.515522,0.0 121.216127,24.515417,0.0 121.216538,24.515214,0.0 121.216877,24.514895,0.0 121.217108,24.514664,0.0 121.217369,24.514363,0.0 121.21758,24.514035,0.0 121.217635,24.513797,0.0 121.217644,24.513471,0.0 121.21756,24.512834,0.0 121.217521,24.512657,0.0 121.217514,24.512368,0.0 121.217612,24.512019,0.0 121.217661,24.511684,0.0 121.217669,24.5113,0.0 121.217588,24.510882,0.0 121.217503,24.510634,0.0 121.217447,24.510305,0.0 121.21737,24.50988,0.0 121.217403,24.509749,0.0 121.217621,24.509529,0.0 121.21797,24.509328,0.0 121.218423,24.509118,0.0 121.218664,24.50899,0.0 121.218839,24.508875,0.0 121.219303,24.508624,0.0 121.219686,24.508395,0.0 121.220005,24.508251,0.0 121.22032,24.508134,0.0 121.220571,24.508078,0.0 121.220796,24.508028,0.0 121.221011,24.507975,0.0 121.22142,24.507804,0.0 121.22172,24.507667,0.0 121.222141,24.507507,0.0 121.22264,24.507207,0.0 121.222933,24.50701,0.0 121.223254,24.5068,0.0 121.223555,24.506571,0.0 121.223641,24.506307,0.0 121.223569,24.506127,0.0 121.223329,24.505923,0.0 121.223089,24.505764,0.0 121.222839,24.505625,0.0 121.222632,24.505501,0.0 121.2223,24.505238,0.0 121.222092,24.505038,0.0 121.221928,24.504817,0.0 121.221778,24.504445,0.0 121.221697,24.504065,0.0 121.221638,24.503707,0.0 121.221481,24.503385,0.0 121.221269,24.503104,0.0 121.221099,24.502888,0.0 121.22094,24.502569,0.0 121.220953,24.50222,0.0 121.221037,24.501659,0.0 121.220718,24.501353,0.0 121.220453,24.501206,0.0 121.22016,24.501017,0.0 121.21984,24.500867,0.0 121.219686,24.500655,0.0 121.219549,24.500237,0.0 121.21946,24.49989,0.0 121.219368,24.499676,0.0 121.219189,24.499322,0.0 121.218917,24.498958,0.0 121.218797,24.498747,0.0 121.218685,24.498508,0.0 121.21865,24.498287,0.0 121.218996,24.498085,0.0 121.219241,24.497953,0.0 121.219544,24.497698,0.0 121.21987,24.497371,0.0 121.2201,24.497189,0.0 121.220302,24.497066,0.0 121.22066,24.496855,0.0 121.221065,24.496662,0.0 121.22142,24.496452,0.0 121.221552,24.496302,0.0 121.221871,24.495961,0.0 121.222066,24.495691,0.0 121.222201,24.495534,0.0 121.222593,24.495106,0.0 121.222785,24.494928,0.0 121.223068,24.494737,0.0 121.223341,24.494513,0.0 121.223651,24.494325,0.0 121.224043,24.49418,0.0 121.224451,24.494015,0.0 121.224924,24.493769,0.0 121.225405,24.493559,0.0 121.225961,24.493351,0.0 121.226487,24.493168,0.0 121.226917,24.493049,0.0 121.227551,24.492846,0.0 121.228109,24.492668,0.0 121.228622,24.492494,0.0 121.228935,24.492277,0.0 121.229006,24.491922,0.0 121.22909,24.49149,0.0 121.229207,24.491243,0.0 121.229366,24.490892,0.0 121.229504,24.49053,0.0 121.229609,24.49022,0.0 121.229687,24.489995,0.0 121.229729,24.489743,0.0 121.229731,24.489447,0.0 121.229728,24.489217,0.0 121.229838,24.48902,0.0 121.23013,24.488794,0.0 121.230551,24.488551,0.0 121.231261,24.488277,0.0 121.231764,24.488073,0.0 121.232187,24.487936,0.0 121.232645,24.487775,0.0 121.233276,24.487503,0.0 121.23358,24.487441,0.0 121.233748,24.487513,0.0 121.234276,24.487974,0.0 121.234433,24.488018,0.0 121.234646,24.487742,0.0 121.234654,24.487142,0.0 121.234657,24.486756,0.0 121.234631,24.486218,0.0 121.234577,24.485786,0.0 121.234568,24.485381,0.0 121.234608,24.484823,0.0 121.234631,24.484402,0.0 121.234632,24.483975,0.0 121.234718,24.483661,0.0 121.235111,24.48338,0.0 121.235485,24.483123,0.0 121.235902,24.482992,0.0 121.236285,24.482749,0.0 121.236823,24.482338,0.0 121.237305,24.482043,0.0 121.237899,24.481708,0.0 121.23825,24.481465,0.0 121.238611,24.481203,0.0 121.238897,24.48085,0.0 121.239114,24.480413,0.0 121.239395,24.480074,0.0 121.239831,24.479799,0.0 121.240647,24.4794,0.0 121.241219,24.479107,0.0 121.241776,24.478765,0.0 121.242086,24.47857,0.0 121.242542,24.47829,0.0 121.242813,24.477997,0.0 121.243107,24.477629,0.0 121.243298,24.477295,0.0 121.243517,24.476806,0.0 121.243676,24.47641,0.0 121.243889,24.475864,0.0 121.244022,24.47527,0.0 121.244079,24.474698,0.0 121.244172,24.474092,0.0 121.244225,24.473662,0.0 121.244363,24.473096,0.0 121.244427,24.472652,0.0 121.244496,24.471892,0.0 121.244524,24.47144,0.0 121.244458,24.470954,0.0 121.244464,24.470603,0.0 121.244395,24.470058,0.0 121.244477,24.469886,0.0 121.245038,24.469623,0.0 121.245525,24.469361,0.0 121.245895,24.469129,0.0 121.246215,24.468922,0.0 121.246554,24.468641,0.0 121.247031,24.468185,0.0 121.24738,24.467835,0.0 121.247864,24.467319,0.0 121.24819,24.466914,0.0 121.248532,24.466507,0.0 121.249055,24.466012,0.0 121.249569,24.465753,0.0 121.250057,24.465574,0.0 121.2507,24.465463,0.0 121.25118,24.465273,0.0 121.251644,24.465023,0.0 121.252223,24.464753,0.0 121.252846,24.464547,0.0 121.25364,24.464442,0.0 121.254578,24.464404,0.0 121.254886,24.464403,0.0 121.255685,24.46424,0.0 121.256432,24.463958,0.0 121.257172,24.463709,0.0 121.257828,24.463414,0.0 121.258091,24.463241,0.0 121.258092,24.462458,0.0 121.258097,24.462037,0.0 121.258064,24.459399,0.0 121.258022,24.458689,0.0 121.257984,24.458164,0.0 121.257985,24.457765,0.0 121.25804,24.457464,0.0 121.258087,24.457265,0.0 121.258435,24.457105,0.0 121.258812,24.456868,0.0 121.259337,24.456652,0.0 121.259885,24.456418,0.0 121.260235,24.456282,0.0 121.260835,24.456161,0.0 121.261276,24.456057,0.0 121.261772,24.455842,0.0 121.262318,24.455507,0.0 121.262476,24.455404,0.0</coordinates></LinearRing></outerBoundaryIs></Polygon><styleUrl>#spolygon-map</styleUrl></Placemark><Placemark><Polygon><outerBoundaryIs><LinearRing><coordinates>121.24693,24.644755,0.0 121.245097,24.64603,0.0 121.242305,24.647916,0.0 121.240877,24.649163,0.0 121.238895,24.649607,0.0 121.236645,24.650258,0.0 121.232594,24.650799,0.0 121.229347,24.651742,0.0 121.227005,24.65308,0.0 121.225738,24.654165,0.0 121.225132,24.654343,0.0 121.224193,24.653815,0.0 121.222882,24.652936,0.0 121.21982,24.652538,0.0 121.215822,24.653274,0.0 121.20757,24.655126,0.0 121.204561,24.656346,0.0 121.204177,24.658085,0.0 121.205176,24.661409,0.0 121.20637,24.665979,0.0 121.206319,24.667511,0.0 121.206171,24.668346,0.0 121.207731,24.670903,0.0 121.20885,24.67181,0.0 121.209728,24.67352,0.0 121.210739,24.674677,0.0 121.211505,24.675576,0.0 121.211507,24.676597,0.0 121.212068,24.677679,0.0 121.212669,24.678587,0.0 121.212373,24.679476,0.0 121.213506,24.680682,0.0 121.214135,24.681764,0.0 121.214939,24.681539,0.0 121.21524,24.68185,0.0 121.215176,24.683363,0.0 121.216243,24.685478,0.0 121.217334,24.685464,0.0 121.217842,24.685433,0.0 121.21821,24.685669,0.0 121.217995,24.687238,0.0 121.216482,24.689014,0.0 121.213004,24.691823,0.0 121.211887,24.692323,0.0 121.209585,24.692331,0.0 121.208044,24.691425,0.0 121.205832,24.69002,0.0 121.202921,24.688451,0.0 121.200699,24.687111,0.0 121.197845,24.68507,0.0 121.196521,24.68338,0.0 121.196572,24.681104,0.0 121.196351,24.67978,0.0 121.195151,24.678998,0.0 121.193122,24.678951,0.0 121.189221,24.679664,0.0 121.188349,24.679404,0.0 121.187067,24.678299,0.0 121.186956,24.677155,0.0 121.186297,24.675669,0.0 121.185983,24.674699,0.0 121.184852,24.674228,0.0 121.183131,24.67339,0.0 121.181736,24.672861,0.0 121.179536,24.671953,0.0 121.175979,24.67017,0.0 121.17396,24.66984,0.0 121.170889,24.669744,0.0 121.169295,24.66913,0.0 121.169084,24.668748,0.0 121.169357,24.668608,0.0 121.169656,24.667881,0.0 121.169664,24.667444,0.0 121.169723,24.666729,0.0 121.169731,24.666042,0.0 121.169765,24.665472,0.0 121.169747,24.664816,0.0 121.169737,24.664145,0.0 121.169822,24.663357,0.0 121.169924,24.662649,0.0 121.170248,24.662133,0.0 121.171009,24.661836,0.0 121.171701,24.661679,0.0 121.172256,24.661483,0.0 121.172854,24.661123,0.0 121.173537,24.660935,0.0 121.17463,24.660609,0.0 121.175297,24.660452,0.0 121.175963,24.660358,0.0 121.176536,24.660404,0.0 121.177126,24.660591,0.0 121.177776,24.66084,0.0 121.178562,24.661034,0.0 121.179235,24.661066,0.0 121.17997,24.660878,0.0 121.180969,24.660439,0.0 121.181584,24.660267,0.0 121.182182,24.660102,0.0 121.182541,24.659782,0.0 121.182729,24.659505,0.0 121.182728,24.658849,0.0 121.182771,24.658349,0.0 121.183265,24.657349,0.0 121.183804,24.656323,0.0 121.18435,24.655729,0.0 121.185187,24.655119,0.0 121.185812,24.654535,0.0 121.186623,24.653613,0.0 121.187237,24.652964,0.0 121.187715,24.652573,0.0 121.187869,24.652141,0.0 121.188048,24.651399,0.0 121.188277,24.650681,0.0 121.188601,24.649853,0.0 121.188969,24.649019,0.0 121.18942,24.648228,0.0 121.18959,24.647838,0.0 121.18967,24.647365,0.0 121.189814,24.646611,0.0 121.189862,24.645924,0.0 121.189845,24.64551,0.0 121.189714,24.644735,0.0 121.189454,24.644099,0.0 121.188919,24.643132,0.0 121.1884,24.64246,0.0 121.18809,24.642114,0.0 121.187822,24.641767,0.0 121.187303,24.641058,0.0 121.186849,24.640297,0.0 121.186581,24.639876,0.0 121.186208,24.639197,0.0 121.185931,24.638653,0.0 121.18559,24.63804,0.0 121.185386,24.637109,0.0 121.185369,24.636458,0.0 121.185376,24.635823,0.0 121.185488,24.63487,0.0 121.185681,24.634079,0.0 121.185883,24.633775,0.0 121.186538,24.63342,0.0 121.187063,24.633301,0.0 121.187568,24.633097,0.0 121.188206,24.632652,0.0 121.188715,24.632193,0.0 121.189467,24.63169,0.0 121.190247,24.631048,0.0 121.190821,24.630634,0.0 121.191305,24.63016,0.0 121.191863,24.629716,0.0 121.19234,24.629279,0.0 121.192881,24.62879,0.0 121.193374,24.628457,0.0 121.194016,24.627941,0.0 121.194574,24.627482,0.0 121.194994,24.627149,0.0 121.19539,24.626727,0.0 121.195948,24.626135,0.0 121.196141,24.625832,0.0 121.196416,24.625418,0.0 121.196771,24.625077,0.0 121.197127,24.624855,0.0 121.197479,24.624693,0.0 121.197988,24.624219,0.0 121.198497,24.623746,0.0 121.198715,24.623354,0.0 121.198941,24.622851,0.0 121.199215,24.622473,0.0 121.199458,24.622251,0.0 121.200033,24.621802,0.0 121.200631,24.621424,0.0 121.201254,24.62101,0.0 121.201658,24.620639,0.0 121.202143,24.620395,0.0 121.202903,24.620231,0.0 121.20334,24.620068,0.0 121.204017,24.619761,0.0 121.204769,24.619516,0.0 121.205375,24.619346,0.0 121.206135,24.619086,0.0 121.206782,24.618678,0.0 121.207356,24.618249,0.0 121.207921,24.61776,0.0 121.208198,24.61756,0.0 121.208353,24.617205,0.0 121.208574,24.61656,0.0 121.208759,24.616009,0.0 121.20907,24.615381,0.0 121.209495,24.61502,0.0 121.210055,24.614688,0.0 121.210531,24.614403,0.0 121.211256,24.614106,0.0 121.211889,24.613845,0.0 121.212321,24.613537,0.0 121.216259,24.613636,0.0 121.224566,24.614788,0.0 121.231904,24.615057,0.0 121.239482,24.614927,0.0 121.242954,24.615082,0.0 121.243659,24.616286,0.0 121.244584,24.617529,0.0 121.246101,24.62019,0.0 121.247028,24.622356,0.0 121.249536,24.624199,0.0 121.250377,24.627289,0.0 121.250118,24.631484,0.0 121.248014,24.634298,0.0 121.247096,24.636708,0.0 121.246851,24.640687,0.0 121.246683,24.643426,0.0 121.246569,24.644832,0.0 121.24693,24.644755,0.0</coordinates></LinearRing></outerBoundaryIs></Polygon><styleUrl>#spolygon-map</styleUrl></Placemark><Placemark><Polygon><outerBoundaryIs><LinearRing><coordinates>121.401483,24.591536,0.0 121.401461,24.591527,0.0 121.401268,24.591407,0.0 121.401162,24.591334,0.0 121.401034,24.591222,0.0 121.400497,24.5908,0.0 121.40013,24.590521,0.0 121.400013,24.590444,0.0 121.399848,24.590351,0.0 121.399436,24.59027,0.0 121.399215,24.590231,0.0 121.398901,24.59015,0.0 121.3979,24.589666,0.0 121.397769,24.589575,0.0 121.397612,24.589496,0.0 121.397224,24.589267,0.0 121.397113,24.589216,0.0 121.396781,24.58912,0.0 121.396563,24.589059,0.0 121.39628,24.588987,0.0 121.395423,24.588641,0.0 121.395326,24.588552,0.0 121.395197,24.588324,0.0 121.395113,24.588106,0.0 121.395014,24.587873,0.0 121.394913,24.587698,0.0 121.394863,24.587629,0.0 121.394561,24.587416,0.0 121.39257,24.586732,0.0 121.391031,24.586447,0.0 121.388982,24.586475,0.0 121.387528,24.586486,0.0 121.38691,24.586648,0.0 121.386326,24.587254,0.0 121.384783,24.588235,0.0 121.382514,24.589674,0.0 121.382112,24.589863,0.0 121.381769,24.590049,0.0 121.381599,24.590135,0.0 121.380292,24.590676,0.0 121.380093,24.59075,0.0 121.37884,24.591338,0.0 121.376118,24.592523,0.0 121.373654,24.593302,0.0 121.372702,24.593785,0.0 121.372369,24.594336,0.0 121.372211,24.594918,0.0 121.372179,24.595109,0.0 121.372166,24.595547,0.0 121.372168,24.595771,0.0 121.372116,24.59647,0.0 121.371767,24.597053,0.0 121.371183,24.597413,0.0 121.370694,24.597566,0.0 121.370293,24.597656,0.0 121.369731,24.597832,0.0 121.36949,24.59791,0.0 121.368494,24.598319,0.0 121.368481,24.598326,0.0 121.367508,24.598698,0.0 121.36734,24.59877,0.0 121.367083,24.598945,0.0 121.366923,24.599067,0.0 121.366739,24.59926,0.0 121.366457,24.599574,0.0 121.366398,24.599644,0.0 121.366117,24.600089,0.0 121.365926,24.600738,0.0 121.365612,24.601052,0.0 121.365553,24.601104,0.0 121.364826,24.601675,0.0 121.364615,24.601867,0.0 121.364158,24.602279,0.0 121.363943,24.602502,0.0 121.363366,24.603076,0.0 121.363331,24.603128,0.0 121.363284,24.603314,0.0 121.363337,24.603784,0.0 121.363459,24.604071,0.0 121.363482,24.604131,0.0 121.363692,24.604489,0.0 121.363859,24.604792,0.0 121.364031,24.605107,0.0 121.364262,24.605642,0.0 121.364321,24.605862,0.0 121.36432,24.606064,0.0 121.364305,24.606167,0.0 121.364231,24.606513,0.0 121.364169,24.606783,0.0 121.364028,24.607209,0.0 121.363949,24.607377,0.0 121.363834,24.607639,0.0 121.363706,24.607844,0.0 121.362793,24.608587,0.0 121.362708,24.608668,0.0 121.362449,24.608933,0.0 121.362322,24.609087,0.0 121.361758,24.609483,0.0 121.361532,24.60963,0.0 121.361335,24.6098,0.0 121.3613,24.609878,0.0 121.361222,24.610266,0.0 121.361222,24.610337,0.0 121.361224,24.610422,0.0 121.36124,24.611061,0.0 121.361267,24.611357,0.0 121.36133,24.611612,0.0 121.361344,24.611897,0.0 121.361313,24.612144,0.0 121.36114,24.612453,0.0 121.360775,24.612719,0.0 121.360494,24.612936,0.0 121.360185,24.613204,0.0 121.359846,24.613473,0.0 121.359517,24.613773,0.0 121.359514,24.613987,0.0 121.359556,24.614147,0.0 121.359561,24.614296,0.0 121.359536,24.614635,0.0 121.359518,24.614674,0.0 121.359308,24.615085,0.0 121.359229,24.61529,0.0 121.359144,24.615607,0.0 121.359113,24.615744,0.0 121.359038,24.615898,0.0 121.358965,24.616174,0.0 121.358849,24.616499,0.0 121.358818,24.616859,0.0 121.358816,24.617083,0.0 121.358817,24.617175,0.0 121.358924,24.617486,0.0 121.359003,24.617617,0.0 121.359127,24.617788,0.0 121.359179,24.617859,0.0 121.35928,24.61797,0.0 121.359496,24.618141,0.0 121.359648,24.618249,0.0 121.359901,24.618425,0.0 121.360221,24.618666,0.0 121.360484,24.61899,0.0 121.360714,24.619261,0.0 121.36108,24.619638,0.0 121.361225,24.619838,0.0 121.361397,24.620072,0.0 121.36151,24.620341,0.0 121.361692,24.620582,0.0 121.36179,24.62067,0.0 121.361895,24.620727,0.0 121.361937,24.620746,0.0 121.363062,24.620672,0.0 121.363176,24.62119,0.0 121.363311,24.622337,0.0 121.363303,24.622504,0.0 121.363286,24.622707,0.0 121.363312,24.623211,0.0 121.363447,24.623723,0.0 121.363614,24.624202,0.0 121.363693,24.62445,0.0 121.363846,24.624703,0.0 121.364168,24.625252,0.0 121.364293,24.625497,0.0 121.364463,24.625812,0.0 121.364673,24.626214,0.0 121.364814,24.626594,0.0 121.364827,24.626824,0.0 121.364858,24.627244,0.0 121.364866,24.627306,0.0 121.364969,24.627574,0.0 121.365165,24.627909,0.0 121.365282,24.628144,0.0 121.365408,24.628433,0.0 121.365428,24.628495,0.0 121.365438,24.628692,0.0 121.365437,24.629036,0.0 121.365409,24.629423,0.0 121.36539,24.629896,0.0 121.365412,24.630279,0.0 121.365497,24.630673,0.0 121.365657,24.630983,0.0 121.365869,24.631234,0.0 121.366035,24.631404,0.0 121.366303,24.631611,0.0 121.366403,24.631709,0.0 121.365824,24.631722,0.0 121.36559,24.631752,0.0 121.365133,24.631895,0.0 121.364705,24.632106,0.0 121.363564,24.632421,0.0 121.363476,24.632456,0.0 121.363097,24.632632,0.0 121.362262,24.633128,0.0 121.36214,24.633199,0.0 121.361691,24.633504,0.0 121.361319,24.633706,0.0 121.361033,24.63378,0.0 121.359794,24.633622,0.0 121.359147,24.633564,0.0 121.358774,24.633545,0.0 121.358592,24.633547,0.0 121.358098,24.633534,0.0 121.357924,24.633636,0.0 121.357766,24.63382,0.0 121.357654,24.634035,0.0 121.357477,24.634558,0.0 121.357392,24.635167,0.0 121.357374,24.635492,0.0 121.357378,24.635795,0.0 121.357402,24.636155,0.0 121.357402,24.636792,0.0 121.357246,24.637564,0.0 121.356982,24.638807,0.0 121.356812,24.639287,0.0 121.356718,24.639463,0.0 121.356511,24.639827,0.0 121.356312,24.640246,0.0 121.356166,24.640527,0.0 121.355928,24.641055,0.0 121.355666,24.64136,0.0 121.355365,24.641512,0.0 121.354839,24.641677,0.0 121.354396,24.641812,0.0 121.353925,24.641979,0.0 121.35348,24.6422,0.0 121.353252,24.642364,0.0 121.353098,24.642502,0.0 121.3529,24.642726,0.0 121.352686,24.643071,0.0 121.352532,24.643283,0.0 121.352395,24.643541,0.0 121.352353,24.643834,0.0 121.352321,24.644039,0.0 121.352273,24.644349,0.0 121.352266,24.644594,0.0 121.352223,24.64482,0.0 121.352234,24.644988,0.0 121.352255,24.645206,0.0 121.35237,24.645863,0.0 121.352391,24.645998,0.0 121.352444,24.646261,0.0 121.352494,24.646488,0.0 121.352527,24.646575,0.0 121.352618,24.646823,0.0 121.352683,24.647206,0.0 121.352694,24.647252,0.0 121.352854,24.647877,0.0 121.352903,24.648077,0.0 121.352995,24.648562,0.0 121.352929,24.648977,0.0 121.35286,24.649157,0.0 121.352767,24.649336,0.0 121.352658,24.649969,0.0 121.352739,24.650365,0.0 121.352751,24.650635,0.0 121.352514,24.651205,0.0 121.352404,24.651643,0.0 121.35227,24.652209,0.0 121.352221,24.65275,0.0 121.352287,24.653153,0.0 121.352326,24.653685,0.0 121.352328,24.654049,0.0 121.352687,24.654432,0.0 121.353195,24.654814,0.0 121.353512,24.655412,0.0 121.353343,24.655854,0.0 121.352952,24.656007,0.0 121.352942,24.656015,0.0 121.3529,24.656085,0.0 121.352877,24.656433,0.0 121.352934,24.656796,0.0 121.352992,24.657053,0.0 121.353281,24.657489,0.0 121.35347,24.657928,0.0 121.353429,24.658478,0.0 121.353654,24.658681,0.0 121.353807,24.658977,0.0 121.353562,24.659476,0.0 121.353188,24.660084,0.0 121.353171,24.660106,0.0 121.353105,24.660207,0.0 121.353095,24.660243,0.0 121.353104,24.660536,0.0 121.3531,24.660879,0.0 121.35311,24.661271,0.0 121.353465,24.661514,0.0 121.353521,24.661793,0.0 121.35341,24.662223,0.0 121.353353,24.662475,0.0 121.353311,24.662745,0.0 121.353318,24.663073,0.0 121.353407,24.663357,0.0 121.353413,24.663716,0.0 121.353439,24.664131,0.0 121.353605,24.664464,0.0 121.353639,24.664539,0.0 121.353719,24.664889,0.0 121.35311,24.665319,0.0 121.353056,24.665435,0.0 121.353095,24.665528,0.0 121.353164,24.665573,0.0 121.353173,24.665919,0.0 121.353172,24.665961,0.0 121.353177,24.666036,0.0 121.353202,24.666199,0.0 121.353222,24.666291,0.0 121.353314,24.666354,0.0 121.353599,24.666378,0.0 121.353693,24.666756,0.0 121.353585,24.667627,0.0 121.353443,24.667749,0.0 121.352529,24.667047,0.0 121.351732,24.666101,0.0 121.351414,24.666041,0.0 121.350584,24.666386,0.0 121.349919,24.667175,0.0 121.349218,24.667804,0.0 121.348622,24.667876,0.0 121.347687,24.667503,0.0 121.345467,24.666413,0.0 121.34513,24.666466,0.0 121.344748,24.666828,0.0 121.344517,24.667589,0.0 121.344311,24.66882,0.0 121.344078,24.669209,0.0 121.343609,24.669354,0.0 121.343057,24.669195,0.0 121.342344,24.668746,0.0 121.341894,24.668246,0.0 121.341503,24.667807,0.0 121.341193,24.667451,0.0 121.340519,24.666604,0.0 121.34032,24.666381,0.0 121.340213,24.666313,0.0 121.339677,24.66619,0.0 121.33906,24.666703,0.0 121.339279,24.667265,0.0 121.339509,24.668122,0.0 121.339525,24.668607,0.0 121.339267,24.669233,0.0 121.339312,24.66934,0.0 121.339335,24.669387,0.0 121.339772,24.670081,0.0 121.339711,24.671146,0.0 121.339587,24.673142,0.0 121.339328,24.673775,0.0 121.33909,24.674687,0.0 121.339122,24.675057,0.0 121.33931,24.675779,0.0 121.339,24.678617,0.0 121.338735,24.679595,0.0 121.338351,24.680185,0.0 121.337959,24.680567,0.0 121.33735,24.68109,0.0 121.3357,24.68373,0.0 121.333745,24.686032,0.0 121.329628,24.691043,0.0 121.328309,24.692125,0.0 121.326797,24.693329,0.0 121.32582,24.693965,0.0 121.323932,24.695039,0.0 121.323188,24.695323,0.0 121.322267,24.695405,0.0 121.321456,24.69548,0.0 121.321028,24.695549,0.0 121.320888,24.695588,0.0 121.320542,24.695692,0.0 121.320344,24.695758,0.0 121.319421,24.696284,0.0 121.319068,24.697178,0.0 121.318567,24.697726,0.0 121.317886,24.698066,0.0 121.316442,24.698089,0.0 121.316236,24.698084,0.0 121.315196,24.6981,0.0 121.315101,24.698093,0.0 121.312943,24.697546,0.0 121.311832,24.696918,0.0 121.311585,24.696748,0.0 121.311186,24.69657,0.0 121.311116,24.69654,0.0 121.310622,24.696357,0.0 121.310073,24.696092,0.0 121.310011,24.696062,0.0 121.309516,24.695773,0.0 121.308921,24.695416,0.0 121.308432,24.695065,0.0 121.30816,24.694919,0.0 121.306882,24.6941,0.0 121.305216,24.693476,0.0 121.304226,24.693023,0.0 121.304063,24.692964,0.0 121.303533,24.692938,0.0 121.302608,24.692945,0.0 121.300423,24.692053,0.0 121.297533,24.69048,0.0 121.296285,24.689067,0.0 121.294839,24.686778,0.0 121.293215,24.684201,0.0 121.292426,24.683007,0.0 121.290672,24.681825,0.0 121.289228,24.680373,0.0 121.288634,24.677383,0.0 121.290355,24.674222,0.0 121.295885,24.667921,0.0 121.298693,24.665539,0.0 121.299229,24.664556,0.0 121.298763,24.661703,0.0 121.299774,24.660332,0.0 121.300739,24.658984,0.0 121.300427,24.657091,0.0 121.298573,24.653258,0.0 121.297064,24.651751,0.0 121.296323,24.650294,0.0 121.296258,24.648793,0.0 121.297527,24.646007,0.0 121.298662,24.645373,0.0 121.300393,24.644312,0.0 121.301802,24.642583,0.0 121.303339,24.639645,0.0 121.305104,24.637221,0.0 121.307235,24.635277,0.0 121.309366,24.633912,0.0 121.311871,24.633075,0.0 121.314066,24.632397,0.0 121.316077,24.630534,0.0 121.317787,24.629082,0.0 121.319658,24.628278,0.0 121.322422,24.628202,0.0 121.326252,24.628152,0.0 121.329353,24.627935,0.0 121.331393,24.627285,0.0 121.333102,24.625497,0.0 121.3348,24.62322,0.0 121.335793,24.620487,0.0 121.335667,24.619477,0.0 121.334459,24.617927,0.0 121.33281,24.615715,0.0 121.33005,24.61246,0.0 121.327311,24.610081,0.0 121.324601,24.607853,0.0 121.323367,24.606266,0.0 121.322947,24.604368,0.0 121.322713,24.602938,0.0 121.322723,24.601514,0.0 121.322858,24.599956,0.0 121.323224,24.598292,0.0 121.323344,24.597057,0.0 121.323691,24.594994,0.0 121.324288,24.594235,0.0 121.325747,24.593526,0.0 121.328938,24.592565,0.0 121.333869,24.590698,0.0 121.338352,24.588651,0.0 121.33996,24.587398,0.0 121.341372,24.585579,0.0 121.341674,24.583628,0.0 121.342174,24.581181,0.0 121.342321,24.578791,0.0 121.341777,24.576415,0.0 121.341897,24.575503,0.0 121.342446,24.574141,0.0 121.342198,24.572745,0.0 121.342057,24.571623,0.0 121.342437,24.569751,0.0 121.342742,24.568838,0.0 121.343355,24.568458,0.0 121.343613,24.56756,0.0 121.344316,24.566444,0.0 121.344805,24.565348,0.0 121.344139,24.563414,0.0 121.343554,24.562574,0.0 121.343089,24.561561,0.0 121.34304,24.560369,0.0 121.343389,24.558972,0.0 121.343138,24.556981,0.0 121.343506,24.556298,0.0 121.344195,24.555567,0.0 121.344068,24.554277,0.0 121.344635,24.553757,0.0 121.345445,24.552534,0.0 121.345828,24.552281,0.0 121.34839,24.551191,0.0 121.349348,24.550542,0.0 121.349546,24.550023,0.0 121.349382,24.549188,0.0 121.350118,24.548116,0.0 121.350814,24.546381,0.0 121.351637,24.545371,0.0 121.351778,24.544529,0.0 121.351067,24.544019,0.0 121.350383,24.543064,0.0 121.35083,24.542008,0.0 121.350828,24.541096,0.0 121.350316,24.540057,0.0 121.350687,24.538706,0.0 121.351348,24.53852,0.0 121.35227,24.538746,0.0 121.354084,24.538054,0.0 121.354198,24.53765,0.0 121.353784,24.537107,0.0 121.353783,24.536774,0.0 121.354098,24.536308,0.0 121.354414,24.535575,0.0 121.354287,24.534602,0.0 121.353835,24.534147,0.0 121.352929,24.5334,0.0 121.352226,24.53248,0.0 121.351994,24.531692,0.0 121.352326,24.530502,0.0 121.353091,24.529386,0.0 121.353079,24.528531,0.0 121.35296,24.527479,0.0 121.352508,24.526892,0.0 121.35174,24.526552,0.0 121.350944,24.526905,0.0 121.350488,24.52655,0.0 121.350371,24.525761,0.0 121.349804,24.525727,0.0 121.348202,24.525661,0.0 121.347241,24.524935,0.0 121.346177,24.523376,0.0 121.34393,24.522478,0.0 121.342004,24.522136,0.0 121.340898,24.521288,0.0 121.339737,24.521194,0.0 121.337248,24.521575,0.0 121.335964,24.522113,0.0 121.335483,24.521649,0.0 121.334921,24.519566,0.0 121.334372,24.518866,0.0 121.334128,24.5172,0.0 121.333641,24.514908,0.0 121.33243,24.514007,0.0 121.331255,24.513085,0.0 121.331115,24.511914,0.0 121.331236,24.510642,0.0 121.330899,24.510336,0.0 121.329729,24.510136,0.0 121.329066,24.509708,0.0 121.327977,24.50976,0.0 121.327152,24.509692,0.0 121.32598,24.508721,0.0 121.324298,24.508783,0.0 121.322628,24.508287,0.0 121.322213,24.507156,0.0 121.322468,24.506117,0.0 121.323423,24.504624,0.0 121.323469,24.503992,0.0 121.322155,24.503916,0.0 121.322011,24.503636,0.0 121.322775,24.502932,0.0 121.322851,24.502467,0.0 121.322332,24.502214,0.0 121.321172,24.50212,0.0 121.32095,24.501647,0.0 121.321178,24.500936,0.0 121.321608,24.500199,0.0 121.320723,24.499644,0.0 121.320214,24.499013,0.0 121.320058,24.498251,0.0 121.319527,24.497625,0.0 121.317736,24.495269,0.0 121.316349,24.492747,0.0 121.314587,24.488977,0.0 121.311733,24.481888,0.0 121.310852,24.478784,0.0 121.309886,24.474229,0.0 121.307221,24.471342,0.0 121.303835,24.469515,0.0 121.298738,24.467056,0.0 121.294271,24.464953,0.0 121.290927,24.464261,0.0 121.285655,24.463685,0.0 121.282104,24.462911,0.0 121.276813,24.461404,0.0 121.274444,24.460468,0.0 121.272656,24.45875,0.0 121.270112,24.457849,0.0 121.266287,24.457139,0.0 121.26454,24.456575,0.0 121.262476,24.455404,0.0 121.262638,24.455246,0.0 121.262505,24.454912,0.0 121.262112,24.454373,0.0 121.261681,24.453709,0.0 121.261353,24.453202,0.0 121.26093,24.452501,0.0 121.260735,24.451963,0.0 121.260611,24.451411,0.0 121.260563,24.450714,0.0 121.260683,24.450065,0.0 121.260847,24.449505,0.0 121.260993,24.449085,0.0 121.261273,24.448425,0.0 121.262174,24.448105,0.0 121.26219,24.447915,0.0 121.2621,24.447664,0.0 121.26205,24.447531,0.0 121.261942,24.447303,0.0 121.26182,24.447114,0.0 121.261699,24.446956,0.0 121.261532,24.446739,0.0 121.261401,24.446551,0.0 121.261243,24.446327,0.0 121.261103,24.446125,0.0 121.260955,24.445918,0.0 121.260903,24.445798,0.0 121.26088,24.445646,0.0 121.260943,24.445481,0.0 121.261024,24.445348,0.0 121.261243,24.444987,0.0 121.261565,24.44453,0.0 121.261633,24.444405,0.0 121.261659,24.444217,0.0 121.261601,24.444035,0.0 121.261463,24.443796,0.0 121.261273,24.443451,0.0 121.261123,24.443175,0.0 121.260968,24.442915,0.0 121.260715,24.442524,0.0 121.260088,24.441895,0.0 121.259464,24.441463,0.0 121.259075,24.441014,0.0 121.258933,24.438036,0.0 121.259719,24.437193,0.0 121.259926,24.436596,0.0 121.259979,24.436189,0.0 121.259949,24.434618,0.0 121.259799,24.432633,0.0 121.259633,24.43155,0.0 121.259245,24.431037,0.0 121.259208,24.43054,0.0 121.259542,24.429861,0.0 121.259805,24.429377,0.0 121.260305,24.428936,0.0 121.261373,24.428555,0.0 121.262327,24.428492,0.0 121.263195,24.428681,0.0 121.264506,24.428708,0.0 121.265357,24.428566,0.0 121.265834,24.428349,0.0 121.266357,24.428214,0.0 121.26707,24.428203,0.0 121.267473,24.428141,0.0 121.268293,24.427758,0.0 121.2699,24.427376,0.0 121.270653,24.427564,0.0 121.270894,24.427753,0.0 121.271062,24.427956,0.0 121.271112,24.428158,0.0 121.271177,24.428448,0.0 121.271224,24.428637,0.0 121.271239,24.428741,0.0 121.271244,24.428924,0.0 121.271244,24.428978,0.0 121.271266,24.429129,0.0 121.271289,24.429205,0.0 121.271316,24.429402,0.0 121.271341,24.42958,0.0 121.271471,24.429734,0.0 121.271647,24.429764,0.0 121.272159,24.429665,0.0 121.27299,24.429464,0.0 121.273334,24.429445,0.0 121.274459,24.42945,0.0 121.275205,24.429387,0.0 121.27637,24.429266,0.0 121.277256,24.429272,0.0 121.27816,24.429322,0.0 121.278484,24.429326,0.0 121.279119,24.429417,0.0 121.280389,24.429738,0.0 121.281418,24.429976,0.0 121.281948,24.4301,0.0 121.282518,24.430176,0.0 121.283202,24.430315,0.0 121.284015,24.430532,0.0 121.284625,24.430573,0.0 121.285114,24.43049,0.0 121.285669,24.430443,0.0 121.286112,24.430422,0.0 121.286983,24.430631,0.0 121.287615,24.430785,0.0 121.288286,24.430851,0.0 121.288958,24.430894,0.0 121.289659,24.430797,0.0 121.290201,24.430778,0.0 121.290891,24.431067,0.0 121.291285,24.431153,0.0 121.291905,24.431015,0.0 121.29247,24.430903,0.0 121.293038,24.431002,0.0 121.293296,24.431167,0.0 121.293366,24.43126,0.0 121.293507,24.431451,0.0 121.293652,24.431678,0.0 121.293755,24.431842,0.0 121.293882,24.431998,0.0 121.294041,24.432148,0.0 121.294249,24.43232,0.0 121.294494,24.432465,0.0 121.295134,24.432677,0.0 121.296753,24.433027,0.0 121.297944,24.433075,0.0 121.29951,24.43306,0.0 121.301744,24.433047,0.0 121.302849,24.433029,0.0 121.30382,24.432935,0.0 121.304672,24.432842,0.0 121.30518,24.432656,0.0 121.305456,24.432575,0.0 121.305504,24.432583,0.0 121.305677,24.43264,0.0 121.305765,24.4327,0.0 121.305918,24.432817,0.0 121.306081,24.432968,0.0 121.306183,24.433056,0.0 121.306314,24.433159,0.0 121.306497,24.433305,0.0 121.306688,24.433429,0.0 121.306836,24.433483,0.0 121.30698,24.433538,0.0 121.307375,24.433622,0.0 121.30748,24.433651,0.0 121.307561,24.433692,0.0 121.307674,24.433775,0.0 121.307752,24.433865,0.0 121.307822,24.433987,0.0 121.307899,24.434117,0.0 121.307957,24.43423,0.0 121.30803,24.434366,0.0 121.3081,24.434517,0.0 121.308142,24.434602,0.0 121.30826,24.434726,0.0 121.308446,24.434899,0.0 121.308609,24.435026,0.0 121.309048,24.435333,0.0 121.309455,24.435704,0.0 121.310032,24.436219,0.0 121.31066,24.436465,0.0 121.311504,24.436483,0.0 121.312754,24.436713,0.0 121.313449,24.437066,0.0 121.314556,24.438115,0.0 121.315779,24.439281,0.0 121.316529,24.44014,0.0 121.317175,24.440887,0.0 121.317664,24.44149,0.0 121.317715,24.44156,0.0 121.317252,24.441622,0.0 121.316946,24.44199,0.0 121.31745,24.443129,0.0 121.317846,24.44432,0.0 121.31875,24.445442,0.0 121.319232,24.447513,0.0 121.320473,24.448811,0.0 121.320911,24.449399,0.0 121.322445,24.452843,0.0 121.323497,24.456068,0.0 121.324385,24.457662,0.0 121.326096,24.459984,0.0 121.328381,24.461891,0.0 121.329293,24.462365,0.0 121.329619,24.4627,0.0 121.329792,24.463838,0.0 121.330017,24.464388,0.0 121.331054,24.465295,0.0 121.331631,24.465454,0.0 121.332678,24.465569,0.0 121.333144,24.465963,0.0 121.333663,24.466269,0.0 121.335193,24.466731,0.0 121.336057,24.467408,0.0 121.336282,24.467983,0.0 121.336052,24.468463,0.0 121.335986,24.47007,0.0 121.335581,24.471651,0.0 121.335635,24.471967,0.0 121.336888,24.472889,0.0 121.33739,24.473407,0.0 121.337985,24.473918,0.0 121.339367,24.474439,0.0 121.340025,24.474794,0.0 121.34052,24.47554,0.0 121.341326,24.477069,0.0 121.34162,24.477885,0.0 121.341717,24.479614,0.0 121.341907,24.48053,0.0 121.342731,24.482111,0.0 121.343381,24.482547,0.0 121.344031,24.482613,0.0 121.344751,24.483284,0.0 121.345491,24.484156,0.0 121.346467,24.484678,0.0 121.347214,24.484809,0.0 121.348706,24.484672,0.0 121.350177,24.484245,0.0 121.350818,24.484324,0.0 121.352149,24.485193,0.0 121.352759,24.48546,0.0 121.354567,24.485848,0.0 121.356595,24.486108,0.0 121.357497,24.486394,0.0 121.357828,24.486653,0.0 121.35839,24.487361,0.0 121.359613,24.488764,0.0 121.360677,24.48977,0.0 121.361565,24.490403,0.0 121.362269,24.491288,0.0 121.362857,24.492564,0.0 121.362942,24.493711,0.0 121.363431,24.494484,0.0 121.36404,24.495116,0.0 121.365131,24.495908,0.0 121.366962,24.496416,0.0 121.368312,24.496971,0.0 121.369609,24.497602,0.0 121.370654,24.497884,0.0 121.371248,24.498309,0.0 121.371857,24.499562,0.0 121.372406,24.50171,0.0 121.372672,24.503738,0.0 121.372841,24.504819,0.0 121.372804,24.506365,0.0 121.372999,24.508182,0.0 121.373341,24.509833,0.0 121.373625,24.51004,0.0 121.374929,24.510028,0.0 121.376499,24.509947,0.0 121.378565,24.509522,0.0 121.379733,24.509592,0.0 121.380593,24.509892,0.0 121.381211,24.509775,0.0 121.382409,24.509745,0.0 121.383484,24.510122,0.0 121.383887,24.51055,0.0 121.384721,24.512265,0.0 121.385223,24.513237,0.0 121.385525,24.514378,0.0 121.385474,24.514927,0.0 121.38515,24.516578,0.0 121.385319,24.51702,0.0 121.386546,24.517028,0.0 121.387175,24.517071,0.0 121.387826,24.517234,0.0 121.388412,24.517601,0.0 121.388992,24.518723,0.0 121.389505,24.519708,0.0 121.389802,24.521098,0.0 121.390176,24.522284,0.0 121.390559,24.522931,0.0 121.391891,24.524081,0.0 121.392803,24.524415,0.0 121.394041,24.524631,0.0 121.396503,24.52462,0.0 121.397572,24.524721,0.0 121.39812,24.525273,0.0 121.398355,24.52573,0.0 121.398657,24.525928,0.0 121.399536,24.526447,0.0 121.400161,24.527376,0.0 121.400418,24.527747,0.0 121.401423,24.528835,0.0 121.401659,24.52927,0.0 121.40166,24.529721,0.0 121.401481,24.53022,0.0 121.400286,24.531154,0.0 121.398911,24.532419,0.0 121.398406,24.533827,0.0 121.398335,24.534522,0.0 121.398529,24.535639,0.0 121.398281,24.536678,0.0 121.397142,24.538401,0.0 121.396745,24.539785,0.0 121.396875,24.541383,0.0 121.397575,24.543293,0.0 121.398666,24.547188,0.0 121.398726,24.547999,0.0 121.398348,24.548961,0.0 121.397371,24.550361,0.0 121.396927,24.550945,0.0 121.396261,24.551901,0.0 121.395446,24.55298,0.0 121.395232,24.554165,0.0 121.394799,24.555155,0.0 121.394742,24.555835,0.0 121.394952,24.556186,0.0 121.396532,24.557726,0.0 121.397722,24.559757,0.0 121.398318,24.560412,0.0 121.399172,24.56106,0.0 121.400393,24.561409,0.0 121.401097,24.561827,0.0 121.401466,24.562399,0.0 121.401327,24.563332,0.0 121.401217,24.56428,0.0 121.401736,24.565601,0.0 121.402541,24.56638,0.0 121.403432,24.567967,0.0 121.403551,24.568693,0.0 121.403845,24.568936,0.0 121.406029,24.569878,0.0 121.407266,24.569859,0.0 121.407696,24.570034,0.0 121.408057,24.570561,0.0 121.408997,24.571547,0.0 121.411081,24.572449,0.0 121.412082,24.57299,0.0 121.412338,24.573439,0.0 121.412138,24.574618,0.0 121.411246,24.576959,0.0 121.410595,24.578507,0.0 121.409341,24.580955,0.0 121.408409,24.582273,0.0 121.407169,24.583949,0.0 121.405879,24.585679,0.0 121.404748,24.587501,0.0 121.403842,24.58921,0.0 121.403047,24.591,0.0 121.403031,24.59171,0.0 121.402249,24.591714,0.0 121.401941,24.591669,0.0 121.401898,24.591662,0.0 121.401483,24.591536,0.0</coordinates></LinearRing></outerBoundaryIs></Polygon><styleUrl>#spolygon-map</styleUrl></Placemark><Placemark><Polygon><outerBoundaryIs><LinearRing><coordinates>121.209902,24.692802,0.0 121.210721,24.694177,0.0 121.210928,24.696017,0.0 121.210222,24.69761,0.0 121.209313,24.699223,0.0 121.207381,24.70088,0.0 121.206468,24.702094,0.0 121.206265,24.702915,0.0 121.205654,24.704301,0.0 121.205549,24.705735,0.0 121.205388,24.70611,0.0 121.20551,24.706399,0.0 121.204716,24.70672,0.0 121.204375,24.706832,0.0 121.203723,24.706403,0.0 121.202074,24.705705,0.0 121.200259,24.704516,0.0 121.198593,24.703145,0.0 121.197199,24.701983,0.0 121.195841,24.700206,0.0 121.195115,24.69864,0.0 121.194615,24.69847,0.0 121.193836,24.698595,0.0 121.192201,24.69886,0.0 121.189764,24.698206,0.0 121.189204,24.698075,0.0 121.188823,24.698176,0.0 121.187696,24.697942,0.0 121.18658,24.697817,0.0 121.185843,24.697568,0.0 121.185269,24.697371,0.0 121.184579,24.697213,0.0 121.184073,24.697142,0.0 121.183157,24.697008,0.0 121.182172,24.696951,0.0 121.181103,24.696928,0.0 121.18024,24.696958,0.0 121.179577,24.696983,0.0 121.178908,24.697036,0.0 121.178308,24.697114,0.0 121.177688,24.697159,0.0 121.176983,24.697145,0.0 121.176356,24.696973,0.0 121.175724,24.696709,0.0 121.175186,24.696426,0.0 121.174555,24.696111,0.0 121.174044,24.695842,0.0 121.173433,24.695632,0.0 121.172769,24.695387,0.0 121.172242,24.695042,0.0 121.171705,24.694696,0.0 121.171162,24.694418,0.0 121.170588,24.694103,0.0 121.17004,24.693829,0.0 121.169329,24.693729,0.0 121.168677,24.693725,0.0 121.168087,24.693798,0.0 121.167634,24.693779,0.0 121.16664,24.693332,0.0 121.166197,24.69288,0.0 121.165849,24.69229,0.0 121.165527,24.691744,0.0 121.165242,24.691153,0.0 121.164967,24.690672,0.0 121.164551,24.690149,0.0 121.164349,24.689569,0.0 121.164196,24.688973,0.0 121.164116,24.68842,0.0 121.164036,24.687781,0.0 121.16394,24.687214,0.0 121.163971,24.686522,0.0 121.164144,24.685714,0.0 121.164117,24.685081,0.0 121.163632,24.684634,0.0 121.163057,24.684202,0.0 121.162458,24.683801,0.0 121.16191,24.683504,0.0 121.16123,24.683139,0.0 121.160598,24.682837,0.0 121.160045,24.682525,0.0 121.159523,24.682117,0.0 121.159012,24.681762,0.0 121.158412,24.681532,0.0 121.15814,24.681513,0.0 121.157806,24.681482,0.0 121.157602,24.68141,0.0 121.15746,24.681129,0.0 121.157287,24.68083,0.0 121.157104,24.680492,0.0 121.15698,24.680201,0.0 121.156874,24.679949,0.0 121.156751,24.679587,0.0 121.156657,24.679184,0.0 121.156582,24.678887,0.0 121.156496,24.678724,0.0 121.156299,24.678451,0.0 121.156155,24.678244,0.0 121.156047,24.678043,0.0 121.155971,24.677871,0.0 121.155949,24.677739,0.0 121.155928,24.677529,0.0 121.155795,24.677307,0.0 121.155624,24.677158,0.0 121.155348,24.676971,0.0 121.15526,24.676808,0.0 121.155161,24.676564,0.0 121.155018,24.676421,0.0 121.154884,24.676266,0.0 121.154767,24.676097,0.0 121.154655,24.675985,0.0 121.154466,24.675855,0.0 121.154349,24.675756,0.0 121.154268,24.67564,0.0 121.154066,24.675351,0.0 121.153835,24.675067,0.0 121.15369,24.674914,0.0 121.153512,24.674765,0.0 121.153316,24.674595,0.0 121.153204,24.674443,0.0 121.153151,24.674242,0.0 121.153065,24.673998,0.0 121.152928,24.673838,0.0 121.152689,24.673547,0.0 121.152504,24.673229,0.0 121.152445,24.673121,0.0 121.152322,24.672962,0.0 121.152214,24.672847,0.0 121.152106,24.672695,0.0 121.15208,24.672616,0.0 121.152056,24.672515,0.0 121.15199,24.672311,0.0 121.151975,24.672163,0.0 121.151934,24.671989,0.0 121.15189,24.671917,0.0 121.151953,24.671707,0.0 121.152061,24.671409,0.0 121.152109,24.671282,0.0 121.152189,24.671084,0.0 121.152311,24.670983,0.0 121.152443,24.670951,0.0 121.152598,24.670924,0.0 121.15272,24.670888,0.0 121.152824,24.670838,0.0 121.153004,24.67074,0.0 121.153188,24.670589,0.0 121.153277,24.670484,0.0 121.153359,24.670365,0.0 121.153409,24.670209,0.0 121.153459,24.67013,0.0 121.153541,24.670051,0.0 121.153659,24.669961,0.0 121.153794,24.669817,0.0 121.153903,24.669757,0.0 121.15406,24.669744,0.0 121.154206,24.669729,0.0 121.154376,24.669711,0.0 121.154559,24.669678,0.0 121.154662,24.669615,0.0 121.154741,24.669521,0.0 121.154791,24.669372,0.0 121.154794,24.669217,0.0 121.154785,24.669111,0.0 121.154757,24.668965,0.0 121.154709,24.668887,0.0 121.1547,24.66877,0.0 121.154662,24.668613,0.0 121.154635,24.668449,0.0 121.154601,24.668184,0.0 121.154615,24.66787,0.0 121.154659,24.667645,0.0 121.154713,24.667552,0.0 121.154837,24.667447,0.0 121.155063,24.667367,0.0 121.155265,24.667326,0.0 121.155479,24.66726,0.0 121.155611,24.667241,0.0 121.155744,24.667187,0.0 121.155852,24.667118,0.0 121.155914,24.666986,0.0 121.155929,24.666895,0.0 121.155973,24.666894,0.0 121.156021,24.66695,0.0 121.156112,24.66708,0.0 121.156201,24.667158,0.0 121.156346,24.667215,0.0 121.156412,24.667206,0.0 121.156638,24.667188,0.0 121.156854,24.667269,0.0 121.157105,24.667399,0.0 121.157334,24.667543,0.0 121.157574,24.667702,0.0 121.15783,24.667903,0.0 121.158153,24.668126,0.0 121.15866,24.6683,0.0 121.159207,24.668198,0.0 121.160093,24.667945,0.0 121.160725,24.667944,0.0 121.161537,24.667959,0.0 121.162794,24.667856,0.0 121.163503,24.667871,0.0 121.164888,24.668072,0.0 121.165929,24.668221,0.0 121.167588,24.668524,0.0 121.168939,24.668733,0.0 121.169908,24.669521,0.0 121.172636,24.669826,0.0 121.175069,24.669995,0.0 121.177275,24.670898,0.0 121.180204,24.672173,0.0 121.182724,24.673196,0.0 121.18412,24.673973,0.0 121.185615,24.674488,0.0 121.186106,24.674923,0.0 121.186694,24.676576,0.0 121.187011,24.677714,0.0 121.187503,24.678783,0.0 121.18888,24.679652,0.0 121.191399,24.679276,0.0 121.194443,24.678912,0.0 121.195805,24.679296,0.0 121.196543,24.680576,0.0 121.19641,24.682161,0.0 121.196781,24.684014,0.0 121.199499,24.686255,0.0 121.202021,24.688067,0.0 121.204141,24.689028,0.0 121.206954,24.690892,0.0 121.20893,24.691971,0.0 121.209902,24.692802,0.0</coordinates></LinearRing></outerBoundaryIs></Polygon><styleUrl>#spolygon-map</styleUrl></Placemark><Placemark><Polygon><outerBoundaryIs><LinearRing><coordinates>121.250455,24.704318,0.0 121.248537,24.704436,0.0 121.246165,24.705096,0.0 121.244464,24.703926,0.0 121.24147,24.701898,0.0 121.240511,24.701542,0.0 121.239315,24.702518,0.0 121.237634,24.704837,0.0 121.236199,24.705793,0.0 121.233913,24.706214,0.0 121.22894,24.707339,0.0 121.226611,24.707919,0.0 121.223759,24.707923,0.0 121.220744,24.708583,0.0 121.217826,24.708786,0.0 121.215735,24.708571,0.0 121.211329,24.707781,0.0 121.208418,24.707637,0.0 121.206216,24.707687,0.0 121.20482,24.707868,0.0 121.204299,24.707068,0.0 121.204375,24.706832,0.0 121.204716,24.70672,0.0 121.20551,24.706399,0.0 121.205388,24.70611,0.0 121.205549,24.705735,0.0 121.205654,24.704301,0.0 121.206265,24.702915,0.0 121.206468,24.702094,0.0 121.207381,24.70088,0.0 121.209313,24.699223,0.0 121.210222,24.69761,0.0 121.210928,24.696017,0.0 121.210721,24.694177,0.0 121.209902,24.692802,0.0 121.212254,24.692161,0.0 121.215039,24.690348,0.0 121.217492,24.687973,0.0 121.218198,24.686528,0.0 121.218074,24.685533,0.0 121.21761,24.685409,0.0 121.216502,24.685528,0.0 121.216038,24.685255,0.0 121.215066,24.683015,0.0 121.215157,24.681638,0.0 121.214299,24.681764,0.0 121.21404,24.681702,0.0 121.212455,24.679663,0.0 121.212493,24.679048,0.0 121.212423,24.678226,0.0 121.211522,24.677045,0.0 121.211615,24.676061,0.0 121.211135,24.675037,0.0 121.210302,24.674204,0.0 121.209137,24.672233,0.0 121.20814,24.671251,0.0 121.207005,24.669776,0.0 121.206157,24.668134,0.0 121.2064,24.667063,0.0 121.205925,24.664166,0.0 121.204566,24.659394,0.0 121.204231,24.656951,0.0 121.205305,24.655917,0.0 121.211843,24.654088,0.0 121.219076,24.652665,0.0 121.221282,24.652687,0.0 121.223627,24.653237,0.0 121.224939,24.654343,0.0 121.225352,24.654317,0.0 121.226289,24.653585,0.0 121.228217,24.652172,0.0 121.230917,24.65116,0.0 121.234956,24.650497,0.0 121.237231,24.650147,0.0 121.240429,24.649337,0.0 121.241221,24.648863,0.0 121.243237,24.647183,0.0 121.246733,24.644862,0.0 121.247112,24.644657,0.0 121.248508,24.644717,0.0 121.251116,24.645389,0.0 121.254863,24.645446,0.0 121.256295,24.645995,0.0 121.258081,24.648249,0.0 121.258737,24.648484,0.0 121.261534,24.648734,0.0 121.262224,24.649095,0.0 121.263643,24.649677,0.0 121.265719,24.651253,0.0 121.266292,24.652529,0.0 121.266943,24.653693,0.0 121.267678,24.654834,0.0 121.269084,24.655602,0.0 121.27011,24.656733,0.0 121.270836,24.657454,0.0 121.271279,24.658221,0.0 121.271504,24.65927,0.0 121.272093,24.660608,0.0 121.272993,24.661678,0.0 121.273673,24.663606,0.0 121.273813,24.664346,0.0 121.275074,24.665195,0.0 121.277991,24.666408,0.0 121.280845,24.667399,0.0 121.282497,24.668184,0.0 121.283564,24.669582,0.0 121.283939,24.671255,0.0 121.284267,24.671833,0.0 121.284624,24.673554,0.0 121.285415,24.675546,0.0 121.286953,24.678205,0.0 121.287981,24.67898,0.0 121.289228,24.680373,0.0 121.290672,24.681825,0.0 121.292426,24.683007,0.0 121.293215,24.684201,0.0 121.294839,24.686778,0.0 121.296285,24.689067,0.0 121.2936,24.690393,0.0 121.290749,24.690995,0.0 121.288229,24.690657,0.0 121.284787,24.689988,0.0 121.281955,24.689079,0.0 121.276042,24.688613,0.0 121.273169,24.689214,0.0 121.269855,24.691317,0.0 121.26718,24.692813,0.0 121.265131,24.694292,0.0 121.263785,24.696163,0.0 121.262917,24.699293,0.0 121.26057,24.701285,0.0 121.25717,24.70289,0.0 121.254994,24.70361,0.0 121.253122,24.704388,0.0 121.250606,24.704333,0.0 121.250455,24.704318,0.0</coordinates></LinearRing></outerBoundaryIs></Polygon><styleUrl>#spolygon-map</styleUrl></Placemark><Placemark><Polygon><outerBoundaryIs><LinearRing><coordinates>121.248477,24.74437,0.0 121.248324,24.744263,0.0 121.248015,24.744356,0.0 121.246799,24.74525,0.0 121.246499,24.745456,0.0 121.246133,24.745552,0.0 121.245776,24.745839,0.0 121.245527,24.746118,0.0 121.245321,24.746429,0.0 121.245064,24.746603,0.0 121.244804,24.746753,0.0 121.244503,24.746913,0.0 121.244155,24.746957,0.0 121.243687,24.746874,0.0 121.242594,24.746006,0.0 121.242182,24.74562,0.0 121.241928,24.745493,0.0 121.241586,24.745452,0.0 121.241061,24.745361,0.0 121.240753,24.745149,0.0 121.240309,24.744724,0.0 121.23987,24.7445,0.0 121.239545,24.744318,0.0 121.238592,24.744009,0.0 121.238019,24.743913,0.0 121.237551,24.743815,0.0 121.237228,24.743656,0.0 121.236951,24.743394,0.0 121.236595,24.743157,0.0 121.235997,24.742742,0.0 121.235625,24.742623,0.0 121.23498,24.742647,0.0 121.234089,24.742625,0.0 121.233285,24.742602,0.0 121.232924,24.742597,0.0 121.232695,24.742506,0.0 121.232343,24.742146,0.0 121.231904,24.741875,0.0 121.231574,24.741654,0.0 121.23128,24.741557,0.0 121.231021,24.741554,0.0 121.230791,24.741652,0.0 121.230503,24.741752,0.0 121.230174,24.741724,0.0 121.229361,24.741416,0.0 121.228597,24.741239,0.0 121.227808,24.741212,0.0 121.227068,24.741211,0.0 121.226343,24.741277,0.0 121.22581,24.741216,0.0 121.225332,24.741122,0.0 121.224484,24.740718,0.0 121.222846,24.739878,0.0 121.221621,24.73913,0.0 121.220306,24.738412,0.0 121.219302,24.738004,0.0 121.218954,24.737742,0.0 121.218485,24.737478,0.0 121.217908,24.737525,0.0 121.217394,24.737544,0.0 121.216997,24.73748,0.0 121.216662,24.737316,0.0 121.216099,24.736828,0.0 121.215583,24.735996,0.0 121.215321,24.735416,0.0 121.215056,24.734871,0.0 121.214802,24.734448,0.0 121.214474,24.734124,0.0 121.214111,24.733894,0.0 121.213853,24.733581,0.0 121.213785,24.733124,0.0 121.213577,24.73279,0.0 121.213243,24.732508,0.0 121.212963,24.732229,0.0 121.212634,24.73185,0.0 121.212313,24.731468,0.0 121.211972,24.731151,0.0 121.211751,24.730824,0.0 121.211568,24.730405,0.0 121.21147,24.73007,0.0 121.211282,24.729755,0.0 121.211058,24.72959,0.0 121.210769,24.729601,0.0 121.210433,24.72964,0.0 121.210074,24.729603,0.0 121.209698,24.729261,0.0 121.209219,24.728669,0.0 121.208736,24.728111,0.0 121.208206,24.727465,0.0 121.207946,24.727289,0.0 121.207768,24.727168,0.0 121.207543,24.727075,0.0 121.207383,24.727043,0.0 121.207255,24.726996,0.0 121.207111,24.726833,0.0 121.206935,24.726544,0.0 121.206746,24.72634,0.0 121.206592,24.726253,0.0 121.206413,24.726221,0.0 121.206192,24.726221,0.0 121.205943,24.726204,0.0 121.205754,24.726178,0.0 121.205479,24.726007,0.0 121.205379,24.725902,0.0 121.205296,24.725757,0.0 121.205207,24.725642,0.0 121.205116,24.725543,0.0 121.204933,24.725403,0.0 121.204832,24.725352,0.0 121.204641,24.725325,0.0 121.204421,24.725328,0.0 121.204035,24.725338,0.0 121.203755,24.725388,0.0 121.203641,24.725243,0.0 121.203492,24.725061,0.0 121.203385,24.724904,0.0 121.203299,24.724708,0.0 121.203248,24.724526,0.0 121.203278,24.724408,0.0 121.203321,24.724159,0.0 121.203333,24.723958,0.0 121.20331,24.723718,0.0 121.203226,24.72345,0.0 121.203134,24.723227,0.0 121.203105,24.723119,0.0 121.203052,24.722929,0.0 121.20304,24.722822,0.0 121.203129,24.722687,0.0 121.203176,24.722625,0.0 121.203205,24.722553,0.0 121.20321,24.722468,0.0 121.203184,24.722324,0.0 121.203136,24.722139,0.0 121.203079,24.72199,0.0 121.20298,24.721868,0.0 121.202846,24.721787,0.0 121.202542,24.721763,0.0 121.202331,24.721755,0.0 121.202178,24.721714,0.0 121.20204,24.721621,0.0 121.201973,24.721549,0.0 121.201963,24.721457,0.0 121.20204,24.721319,0.0 121.202236,24.721107,0.0 121.202111,24.721,0.0 121.201972,24.720959,0.0 121.201737,24.720893,0.0 121.201653,24.720799,0.0 121.201624,24.720641,0.0 121.201593,24.720448,0.0 121.201468,24.720354,0.0 121.201353,24.720363,0.0 121.201176,24.720353,0.0 121.200996,24.720281,0.0 121.200793,24.720089,0.0 121.200697,24.720004,0.0 121.200602,24.719991,0.0 121.200238,24.719991,0.0 121.199852,24.719968,0.0 121.199689,24.719933,0.0 121.199545,24.719835,0.0 121.199456,24.719722,0.0 121.199367,24.719562,0.0 121.199266,24.719346,0.0 121.199141,24.719034,0.0 121.19903,24.718665,0.0 121.198989,24.71849,0.0 121.198883,24.71818,0.0 121.198814,24.718013,0.0 121.198768,24.717696,0.0 121.198777,24.71758,0.0 121.198837,24.717458,0.0 121.198853,24.71732,0.0 121.198827,24.717178,0.0 121.198798,24.717004,0.0 121.198766,24.716728,0.0 121.198732,24.716453,0.0 121.198683,24.716285,0.0 121.198554,24.715964,0.0 121.198433,24.71559,0.0 121.198308,24.71529,0.0 121.198203,24.715152,0.0 121.198037,24.715019,0.0 121.197867,24.71496,0.0 121.197697,24.71493,0.0 121.197303,24.714932,0.0 121.197121,24.714864,0.0 121.196943,24.71474,0.0 121.196771,24.714633,0.0 121.19662,24.714601,0.0 121.196449,24.714582,0.0 121.196329,24.714552,0.0 121.196245,24.714469,0.0 121.196152,24.714308,0.0 121.196027,24.714203,0.0 121.19589,24.714155,0.0 121.195648,24.714068,0.0 121.195483,24.713972,0.0 121.195365,24.71387,0.0 121.195293,24.71375,0.0 121.19512,24.713405,0.0 121.194957,24.713243,0.0 121.194809,24.713202,0.0 121.194388,24.713183,0.0 121.194161,24.713165,0.0 121.194012,24.713118,0.0 121.193863,24.713005,0.0 121.193738,24.712819,0.0 121.19363,24.712664,0.0 121.193508,24.712494,0.0 121.193443,24.712326,0.0 121.193399,24.712101,0.0 121.193342,24.711929,0.0 121.193262,24.711754,0.0 121.193171,24.711603,0.0 121.193068,24.711472,0.0 121.192986,24.711266,0.0 121.192914,24.711156,0.0 121.192839,24.711098,0.0 121.19265,24.71101,0.0 121.192549,24.710925,0.0 121.192469,24.710829,0.0 121.192381,24.710737,0.0 121.192244,24.710656,0.0 121.192028,24.710554,0.0 121.19187,24.710293,0.0 121.191989,24.710077,0.0 121.192087,24.70991,0.0 121.192154,24.709891,0.0 121.192346,24.709901,0.0 121.192682,24.709928,0.0 121.192919,24.709923,0.0 121.19306,24.709842,0.0 121.193168,24.709589,0.0 121.193249,24.70942,0.0 121.193447,24.709156,0.0 121.193695,24.708914,0.0 121.193896,24.708833,0.0 121.194093,24.708863,0.0 121.194394,24.708961,0.0 121.194497,24.708937,0.0 121.194533,24.708861,0.0 121.194562,24.708654,0.0 121.194554,24.708324,0.0 121.194651,24.707963,0.0 121.194833,24.707605,0.0 121.194919,24.707419,0.0 121.194986,24.707143,0.0 121.194854,24.706913,0.0 121.194558,24.706589,0.0 121.194405,24.70638,0.0 121.194268,24.706255,0.0 121.194189,24.706166,0.0 121.194085,24.706023,0.0 121.193905,24.7058,0.0 121.193694,24.705582,0.0 121.193468,24.705315,0.0 121.193211,24.705065,0.0 121.193154,24.704897,0.0 121.19307,24.70475,0.0 121.192904,24.70453,0.0 121.19281,24.704391,0.0 121.192642,24.704129,0.0 121.192424,24.703825,0.0 121.192337,24.703677,0.0 121.19221,24.703348,0.0 121.19203,24.703114,0.0 121.191923,24.703028,0.0 121.191708,24.702812,0.0 121.191626,24.702657,0.0 121.191523,24.702471,0.0 121.191396,24.702397,0.0 121.191293,24.702295,0.0 121.191266,24.702217,0.0 121.191259,24.702125,0.0 121.191292,24.702015,0.0 121.191287,24.701878,0.0 121.191203,24.701582,0.0 121.191143,24.701433,0.0 121.190963,24.701134,0.0 121.190753,24.700851,0.0 121.190523,24.700589,0.0 121.190307,24.700399,0.0 121.190129,24.700217,0.0 121.190089,24.700123,0.0 121.190093,24.699978,0.0 121.190067,24.69981,0.0 121.189923,24.699555,0.0 121.189836,24.699392,0.0 121.189637,24.699149,0.0 121.189541,24.699023,0.0 121.189351,24.698722,0.0 121.189149,24.698471,0.0 121.188945,24.698229,0.0 121.189357,24.698075,0.0 121.191264,24.69873,0.0 121.192692,24.698821,0.0 121.194344,24.698486,0.0 121.194886,24.698501,0.0 121.195523,24.69925,0.0 121.19641,24.701149,0.0 121.197728,24.702496,0.0 121.199298,24.703786,0.0 121.200971,24.705281,0.0 121.203003,24.706117,0.0 121.204249,24.706719,0.0 121.204325,24.706889,0.0 121.204624,24.707728,0.0 121.20539,24.707859,0.0 121.206752,24.707686,0.0 121.209567,24.707636,0.0 121.214057,24.708155,0.0 121.216889,24.708788,0.0 121.219873,24.708743,0.0 121.222964,24.708063,0.0 121.224826,24.707941,0.0 121.227526,24.707798,0.0 121.23265,24.706435,0.0 121.235197,24.706034,0.0 121.23683,24.705554,0.0 121.238373,24.703842,0.0 121.240097,24.701761,0.0 121.240968,24.701561,0.0 121.243105,24.703048,0.0 121.245468,24.704779,0.0 121.246688,24.705095,0.0 121.249408,24.704216,0.0 121.250322,24.705109,0.0 121.249158,24.707206,0.0 121.249275,24.708066,0.0 121.249917,24.709347,0.0 121.250481,24.710995,0.0 121.249903,24.712243,0.0 121.24825,24.713621,0.0 121.246865,24.715324,0.0 121.246047,24.717637,0.0 121.246588,24.720256,0.0 121.247566,24.722941,0.0 121.24798,24.724197,0.0 121.247794,24.728128,0.0 121.248602,24.730858,0.0 121.249266,24.732691,0.0 121.250558,24.734155,0.0 121.250244,24.735421,0.0 121.248582,24.736855,0.0 121.248236,24.738195,0.0 121.249323,24.740377,0.0 121.249614,24.74169,0.0 121.248729,24.743864,0.0 121.248477,24.74437,0.0</coordinates></LinearRing></outerBoundaryIs></Polygon><styleUrl>#spolygon-map</styleUrl></Placemark><Placemark><Polygon><outerBoundaryIs><LinearRing><coordinates>121.302302,24.743512,0.0 121.302494,24.743721,0.0 121.302704,24.743924,0.0 121.302944,24.744139,0.0 121.303326,24.744527,0.0 121.303419,24.744616,0.0 121.303542,24.744736,0.0 121.303722,24.744934,0.0 121.303898,24.745096,0.0 121.304176,24.745327,0.0 121.304602,24.7456,0.0 121.304831,24.745769,0.0 121.305069,24.745976,0.0 121.305224,24.746185,0.0 121.305513,24.747316,0.0 121.305449,24.74841,0.0 121.305188,24.749378,0.0 121.305119,24.749639,0.0 121.305072,24.749904,0.0 121.305105,24.750203,0.0 121.305283,24.750587,0.0 121.305391,24.750736,0.0 121.305574,24.751109,0.0 121.305695,24.75138,0.0 121.305809,24.751772,0.0 121.305967,24.752083,0.0 121.306248,24.752313,0.0 121.306598,24.752623,0.0 121.306701,24.752728,0.0 121.306841,24.753011,0.0 121.307007,24.753602,0.0 121.307181,24.753956,0.0 121.307414,24.754312,0.0 121.307606,24.754632,0.0 121.307685,24.754868,0.0 121.30769,24.755063,0.0 121.307634,24.755173,0.0 121.306446,24.755624,0.0 121.305605,24.75608,0.0 121.305588,24.756092,0.0 121.304657,24.756813,0.0 121.303872,24.75779,0.0 121.303392,24.758637,0.0 121.303147,24.759094,0.0 121.302858,24.759695,0.0 121.30268,24.760038,0.0 121.302569,24.760259,0.0 121.301892,24.761434,0.0 121.301855,24.761498,0.0 121.301738,24.761829,0.0 121.30171,24.761916,0.0 121.301682,24.762342,0.0 121.301687,24.762597,0.0 121.301588,24.762909,0.0 121.301142,24.763262,0.0 121.300797,24.763441,0.0 121.300295,24.763519,0.0 121.298795,24.762955,0.0 121.298226,24.762882,0.0 121.29738,24.763143,0.0 121.296284,24.763321,0.0 121.295198,24.763658,0.0 121.294,24.763922,0.0 121.293166,24.76509,0.0 121.293039,24.765377,0.0 121.292505,24.765325,0.0 121.292186,24.765282,0.0 121.291724,24.765201,0.0 121.291371,24.764923,0.0 121.291108,24.764637,0.0 121.290787,24.764249,0.0 121.290505,24.763828,0.0 121.290213,24.763481,0.0 121.289922,24.763229,0.0 121.289669,24.763038,0.0 121.28937,24.762657,0.0 121.289084,24.76221,0.0 121.28875,24.76202,0.0 121.288364,24.76196,0.0 121.288073,24.761869,0.0 121.287891,24.761708,0.0 121.287681,24.761413,0.0 121.287241,24.760581,0.0 121.286756,24.759884,0.0 121.286565,24.759632,0.0 121.286336,24.759442,0.0 121.286059,24.759342,0.0 121.285711,24.759282,0.0 121.285454,24.759217,0.0 121.28523,24.759126,0.0 121.284906,24.758962,0.0 121.284534,24.758719,0.0 121.284244,24.758602,0.0 121.283924,24.75862,0.0 121.283596,24.758647,0.0 121.283343,24.758665,0.0 121.282929,24.758653,0.0 121.282614,24.758588,0.0 121.282252,24.758606,0.0 121.282067,24.758676,0.0 121.28169,24.758798,0.0 121.281438,24.758873,0.0 121.280934,24.758965,0.0 121.280591,24.758987,0.0 121.280272,24.759031,0.0 121.279963,24.759102,0.0 121.279625,24.759146,0.0 121.279386,24.759164,0.0 121.279039,24.759164,0.0 121.278407,24.759143,0.0 121.278145,24.759113,0.0 121.27784,24.759079,0.0 121.277616,24.758966,0.0 121.277334,24.758845,0.0 121.276924,24.758707,0.0 121.276543,24.758625,0.0 121.276171,24.758612,0.0 121.275776,24.758648,0.0 121.275467,24.758718,0.0 121.275147,24.75874,0.0 121.274724,24.758749,0.0 121.274405,24.758728,0.0 121.274028,24.758659,0.0 121.273595,24.758603,0.0 121.273247,24.758547,0.0 121.272851,24.758431,0.0 121.272441,24.758331,0.0 121.272003,24.75828,0.0 121.271679,24.758146,0.0 121.271246,24.757869,0.0 121.271017,24.757844,0.0 121.270832,24.757905,0.0 121.270322,24.758188,0.0 121.269899,24.758341,0.0 121.269446,24.758433,0.0 121.269008,24.758482,0.0 121.268651,24.758478,0.0 121.26819,24.758422,0.0 121.267699,24.758453,0.0 121.267389,24.758414,0.0 121.26686,24.75815,0.0 121.266421,24.758029,0.0 121.266031,24.758008,0.0 121.265654,24.757996,0.0 121.265316,24.757753,0.0 121.264865,24.757207,0.0 121.264421,24.756743,0.0 121.264025,24.756435,0.0 121.263422,24.756003,0.0 121.262968,24.755626,0.0 121.262558,24.755323,0.0 121.261832,24.754774,0.0 121.261435,24.754379,0.0 121.261172,24.753918,0.0 121.260803,24.753303,0.0 121.260506,24.752908,0.0 121.259991,24.752357,0.0 121.259584,24.751907,0.0 121.259178,24.751517,0.0 121.258801,24.751183,0.0 121.258419,24.750901,0.0 121.254587,24.7483,0.0 121.254289,24.747922,0.0 121.253953,24.747311,0.0 121.253769,24.746798,0.0 121.25355,24.746349,0.0 121.253321,24.745956,0.0 121.253014,24.745572,0.0 121.252702,24.74545,0.0 121.252321,24.745535,0.0 121.251981,24.745642,0.0 121.251531,24.745599,0.0 121.250979,24.745574,0.0 121.250509,24.745614,0.0 121.250057,24.745591,0.0 121.249599,24.745355,0.0 121.249068,24.744867,0.0 121.248705,24.744568,0.0 121.248477,24.74437,0.0 121.2494,24.742799,0.0 121.249564,24.740911,0.0 121.248575,24.739028,0.0 121.248235,24.737657,0.0 121.249273,24.736155,0.0 121.250583,24.734643,0.0 121.250119,24.7336,0.0 121.248997,24.731893,0.0 121.248088,24.729216,0.0 121.247911,24.72604,0.0 121.247906,24.723487,0.0 121.247004,24.721632,0.0 121.246025,24.718436,0.0 121.246167,24.71677,0.0 121.247472,24.714438,0.0 121.249087,24.712964,0.0 121.250358,24.711469,0.0 121.250471,24.710474,0.0 121.24968,24.708733,0.0 121.24912,24.70761,0.0 121.249858,24.705934,0.0 121.250455,24.704318,0.0 121.25176,24.70447,0.0 121.254363,24.704128,0.0 121.255842,24.70333,0.0 121.259504,24.701843,0.0 121.262266,24.700129,0.0 121.263242,24.698497,0.0 121.264349,24.695128,0.0 121.266566,24.693335,0.0 121.268485,24.692294,0.0 121.271681,24.690002,0.0 121.274692,24.688556,0.0 121.279003,24.688607,0.0 121.283218,24.689315,0.0 121.28677,24.690342,0.0 121.289732,24.690992,0.0 121.29249,24.690833,0.0 121.295165,24.689535,0.0 121.296876,24.689784,0.0 121.298827,24.691239,0.0 121.301559,24.692509,0.0 121.303127,24.693082,0.0 121.302858,24.693162,0.0 121.30243,24.693321,0.0 121.302074,24.693421,0.0 121.301618,24.69356,0.0 121.301151,24.693775,0.0 121.301016,24.693845,0.0 121.300732,24.694052,0.0 121.300645,24.694141,0.0 121.300432,24.694311,0.0 121.300117,24.694673,0.0 121.299839,24.69496,0.0 121.299659,24.695273,0.0 121.299484,24.695568,0.0 121.29947,24.696004,0.0 121.299554,24.69659,0.0 121.299738,24.697022,0.0 121.299953,24.697405,0.0 121.30015,24.697772,0.0 121.30022,24.697947,0.0 121.300311,24.698247,0.0 121.300352,24.698338,0.0 121.300395,24.698461,0.0 121.300557,24.698713,0.0 121.300716,24.698958,0.0 121.30083,24.699071,0.0 121.301387,24.699986,0.0 121.301614,24.700402,0.0 121.301797,24.700826,0.0 121.302004,24.701326,0.0 121.302184,24.701765,0.0 121.302377,24.702577,0.0 121.302404,24.70283,0.0 121.3024,24.70322,0.0 121.302334,24.703448,0.0 121.302203,24.703741,0.0 121.302177,24.703878,0.0 121.302188,24.704039,0.0 121.302232,24.7042,0.0 121.302323,24.70442,0.0 121.302382,24.704529,0.0 121.302635,24.704861,0.0 121.302879,24.70523,0.0 121.302937,24.7054,0.0 121.303001,24.705605,0.0 121.303058,24.706057,0.0 121.303065,24.70642,0.0 121.303084,24.706873,0.0 121.30308,24.70726,0.0 121.303122,24.707621,0.0 121.303226,24.708164,0.0 121.303401,24.708622,0.0 121.303561,24.708913,0.0 121.303821,24.709334,0.0 121.304152,24.709777,0.0 121.304445,24.710107,0.0 121.304758,24.710372,0.0 121.305227,24.710781,0.0 121.30543,24.71103,0.0 121.305658,24.711396,0.0 121.30605,24.712283,0.0 121.3063,24.712895,0.0 121.306406,24.713111,0.0 121.306447,24.713473,0.0 121.306538,24.7142,0.0 121.306579,24.714858,0.0 121.30669,24.715443,0.0 121.306822,24.715892,0.0 121.307035,24.716431,0.0 121.307194,24.716854,0.0 121.30724,24.716996,0.0 121.307284,24.717343,0.0 121.307442,24.718589,0.0 121.307472,24.719043,0.0 121.307596,24.719804,0.0 121.307599,24.720144,0.0 121.307235,24.720755,0.0 121.307027,24.721013,0.0 121.306873,24.721244,0.0 121.306705,24.721539,0.0 121.306631,24.721669,0.0 121.306524,24.721889,0.0 121.306514,24.721913,0.0 121.30641,24.722216,0.0 121.306258,24.722761,0.0 121.305846,24.723526,0.0 121.305791,24.723649,0.0 121.305719,24.723829,0.0 121.305692,24.723908,0.0 121.305653,24.724059,0.0 121.305592,24.724344,0.0 121.305553,24.724799,0.0 121.305502,24.725487,0.0 121.305477,24.725705,0.0 121.305328,24.726057,0.0 121.305248,24.72611,0.0 121.304434,24.726258,0.0 121.303849,24.726551,0.0 121.302137,24.728069,0.0 121.301653,24.728472,0.0 121.301467,24.728631,0.0 121.301117,24.729049,0.0 121.300939,24.729306,0.0 121.300796,24.72948,0.0 121.300583,24.729736,0.0 121.300005,24.73012,0.0 121.298869,24.730574,0.0 121.298721,24.730684,0.0 121.298567,24.730891,0.0 121.298336,24.731636,0.0 121.298228,24.732238,0.0 121.298179,24.732562,0.0 121.298115,24.733571,0.0 121.29842,24.734548,0.0 121.299043,24.736007,0.0 121.299194,24.736473,0.0 121.299221,24.736523,0.0 121.299392,24.736789,0.0 121.299675,24.737089,0.0 121.299956,24.737324,0.0 121.300199,24.737723,0.0 121.30022,24.738176,0.0 121.300256,24.738806,0.0 121.300261,24.738896,0.0 121.300273,24.739048,0.0 121.300332,24.739468,0.0 121.300401,24.739751,0.0 121.30044,24.739893,0.0 121.300799,24.741197,0.0 121.300942,24.741615,0.0 121.301089,24.741937,0.0 121.301192,24.74211,0.0 121.30154,24.74264,0.0 121.301844,24.742997,0.0 121.302029,24.743194,0.0 121.302302,24.743512,0.0</coordinates></LinearRing></outerBoundaryIs></Polygon><styleUrl>#spolygon-map</styleUrl></Placemark></Document>
</kml>
