<?xml version="1.0" encoding="UTF-8"?>
<kml xmlns="http://www.opengis.net/kml/2.2">
	<Document>
		<name>臺中市后里區</name>
		<Style id="spolygon">
			<LabelStyle>
				<scale>0.0</scale>
			</LabelStyle>
			<LineStyle>
				<color>330030ff</color>
				<width>0</width>
			</LineStyle>
			<PolyStyle>
				<color>330030ff</color>
			</PolyStyle>
		</Style>
		<StyleMap id="spolygon-map">
			<Pair>
				<key>normal</key>
				<styleUrl>#spolygon</styleUrl>
			</Pair>
		</StyleMap>
	<Placemark><Polygon><outerBoundaryIs><LinearRing><coordinates>120.706262,24.308159,0.0 120.703596,24.309267,0.0 120.700648,24.310552,0.0 120.699125,24.311276,0.0 120.697387,24.310268,0.0 120.69629,24.308762,0.0 120.694918,24.306884,0.0 120.694608,24.305788,0.0 120.69433,24.30344,0.0 120.69687,24.301669,0.0 120.702929,24.298417,0.0 120.704175,24.297518,0.0 120.705665,24.297657,0.0 120.706742,24.29844,0.0 120.707633,24.300505,0.0 120.708016,24.301259,0.0 120.708931,24.301997,0.0 120.709321,24.302108,0.0 120.709288,24.302727,0.0 120.709379,24.303309,0.0 120.709549,24.304563,0.0 120.708737,24.305906,0.0 120.706484,24.306879,0.0 120.706262,24.308159,0.0</coordinates></LinearRing></outerBoundaryIs></Polygon><styleUrl>#spolygon-map</styleUrl></Placemark><Placemark><Polygon><outerBoundaryIs><LinearRing><coordinates>120.758779,24.31919,0.0 120.756429,24.319721,0.0 120.755673,24.320388,0.0 120.754966,24.32104,0.0 120.753658,24.321586,0.0 120.752347,24.321679,0.0 120.751537,24.321352,0.0 120.750019,24.320898,0.0 120.74777,24.320732,0.0 120.744928,24.320479,0.0 120.743351,24.320564,0.0 120.741948,24.319869,0.0 120.740391,24.318889,0.0 120.738925,24.317701,0.0 120.736517,24.315286,0.0 120.735944,24.314362,0.0 120.734956,24.313286,0.0 120.734147,24.311716,0.0 120.73236,24.307322,0.0 120.731722,24.305427,0.0 120.73527,24.305777,0.0 120.738612,24.305913,0.0 120.740448,24.305684,0.0 120.741164,24.304611,0.0 120.741803,24.304221,0.0 120.74254,24.30538,0.0 120.743229,24.305955,0.0 120.743983,24.305681,0.0 120.745712,24.304973,0.0 120.747405,24.3048,0.0 120.748698,24.304994,0.0 120.750915,24.305909,0.0 120.752849,24.305955,0.0 120.755182,24.30602,0.0 120.756202,24.306351,0.0 120.75811,24.307722,0.0 120.75768,24.308699,0.0 120.757296,24.309906,0.0 120.757166,24.311714,0.0 120.757265,24.313479,0.0 120.758536,24.313747,0.0 120.760763,24.312828,0.0 120.764509,24.311263,0.0 120.764308,24.311716,0.0 120.764054,24.31216,0.0 120.763895,24.312363,0.0 120.763691,24.312471,0.0 120.763519,24.312525,0.0 120.76339,24.312868,0.0 120.763433,24.312992,0.0 120.763575,24.313148,0.0 120.763684,24.313302,0.0 120.76372,24.313453,0.0 120.763726,24.313706,0.0 120.763564,24.31415,0.0 120.763488,24.31432,0.0 120.763387,24.314416,0.0 120.763266,24.314489,0.0 120.763107,24.314594,0.0 120.762999,24.314689,0.0 120.762917,24.314824,0.0 120.76271,24.315063,0.0 120.762369,24.315453,0.0 120.762061,24.315629,0.0 120.761859,24.315838,0.0 120.761661,24.316095,0.0 120.761515,24.31624,0.0 120.761398,24.316325,0.0 120.76126,24.316508,0.0 120.761185,24.316799,0.0 120.76108,24.317056,0.0 120.760904,24.317297,0.0 120.760739,24.317392,0.0 120.760454,24.317466,0.0 120.760233,24.31759,0.0 120.759718,24.317889,0.0 120.759431,24.318006,0.0 120.759151,24.318096,0.0 120.758982,24.318141,0.0 120.758733,24.318303,0.0 120.758618,24.318513,0.0 120.758556,24.318725,0.0 120.758636,24.318899,0.0 120.758708,24.319003,0.0 120.758785,24.319174,0.0 120.758779,24.31919,0.0</coordinates></LinearRing></outerBoundaryIs></Polygon><styleUrl>#spolygon-map</styleUrl></Placemark><Placemark><Polygon><outerBoundaryIs><LinearRing><coordinates>120.718254,24.355833,0.0 120.718172,24.354941,0.0 120.71794,24.353338,0.0 120.717836,24.352888,0.0 120.71786,24.352597,0.0 120.717898,24.352281,0.0 120.717865,24.351925,0.0 120.717707,24.351076,0.0 120.717652,24.350717,0.0 120.717629,24.350502,0.0 120.717574,24.350394,0.0 120.717235,24.349935,0.0 120.717135,24.349801,0.0 120.717104,24.349722,0.0 120.717084,24.349625,0.0 120.717115,24.349537,0.0 120.717117,24.349158,0.0 120.717097,24.348998,0.0 120.717095,24.348878,0.0 120.717149,24.34882,0.0 120.717267,24.348732,0.0 120.717546,24.348493,0.0 120.717611,24.348276,0.0 120.717714,24.348087,0.0 120.717888,24.347819,0.0 120.717948,24.347665,0.0 120.718174,24.347564,0.0 120.718267,24.347474,0.0 120.718314,24.347336,0.0 120.718293,24.347151,0.0 120.718216,24.346921,0.0 120.718108,24.346769,0.0 120.718025,24.346654,0.0 120.717966,24.346528,0.0 120.71794,24.346415,0.0 120.717989,24.346162,0.0 120.718073,24.34595,0.0 120.71825,24.345616,0.0 120.718373,24.345346,0.0 120.718395,24.345255,0.0 120.718408,24.345203,0.0 120.718424,24.345138,0.0 120.71842,24.345077,0.0 120.718405,24.345021,0.0 120.718384,24.34496,0.0 120.718354,24.344887,0.0 120.718318,24.344806,0.0 120.71829,24.344743,0.0 120.71827,24.344682,0.0 120.718247,24.344598,0.0 120.718226,24.344549,0.0 120.71819,24.344483,0.0 120.718153,24.344415,0.0 120.718087,24.34432,0.0 120.718031,24.344219,0.0 120.717985,24.344135,0.0 120.717745,24.343753,0.0 120.717503,24.343272,0.0 120.717341,24.342987,0.0 120.717243,24.342942,0.0 120.717202,24.342982,0.0 120.717152,24.342989,0.0 120.717103,24.342914,0.0 120.717065,24.342824,0.0 120.717032,24.342761,0.0 120.717027,24.3427,0.0 120.717031,24.342628,0.0 120.717029,24.342551,0.0 120.716986,24.342445,0.0 120.71696,24.342366,0.0 120.717021,24.342336,0.0 120.717075,24.342316,0.0 120.717157,24.34228,0.0 120.717293,24.342222,0.0 120.717367,24.342188,0.0 120.717409,24.342157,0.0 120.717444,24.342089,0.0 120.717471,24.341985,0.0 120.717496,24.341915,0.0 120.717527,24.341823,0.0 120.717549,24.341773,0.0 120.717594,24.341721,0.0 120.717654,24.341683,0.0 120.718475,24.341563,0.0 120.718973,24.341509,0.0 120.719306,24.34137,0.0 120.719386,24.341305,0.0 120.719408,24.341235,0.0 120.719313,24.341092,0.0 120.719268,24.341038,0.0 120.719203,24.340945,0.0 120.719133,24.340844,0.0 120.718939,24.340494,0.0 120.718701,24.340179,0.0 120.71866,24.340125,0.0 120.718606,24.340048,0.0 120.718541,24.339985,0.0 120.718491,24.339949,0.0 120.718428,24.339908,0.0 120.718351,24.339885,0.0 120.71823,24.339912,0.0 120.717994,24.339993,0.0 120.717026,24.339948,0.0 120.716121,24.339953,0.0 120.715684,24.339921,0.0 120.715584,24.339898,0.0 120.715497,24.339862,0.0 120.71542,24.339769,0.0 120.715354,24.33967,0.0 120.715303,24.339586,0.0 120.715245,24.339521,0.0 120.715173,24.339444,0.0 120.71513,24.339385,0.0 120.715102,24.339317,0.0 120.715108,24.33924,0.0 120.715184,24.338852,0.0 120.715155,24.338087,0.0 120.714997,24.337484,0.0 120.714883,24.337403,0.0 120.714615,24.33756,0.0 120.714379,24.337675,0.0 120.714327,24.337663,0.0 120.714356,24.337607,0.0 120.714409,24.337546,0.0 120.714503,24.337474,0.0 120.714598,24.33737,0.0 120.714638,24.337316,0.0 120.714707,24.337251,0.0 120.714719,24.337197,0.0 120.714672,24.337129,0.0 120.714594,24.337052,0.0 120.714566,24.33698,0.0 120.714586,24.336899,0.0 120.714892,24.336416,0.0 120.714983,24.336364,0.0 120.715054,24.336365,0.0 120.715223,24.336426,0.0 120.715341,24.336446,0.0 120.715381,24.336437,0.0 120.715397,24.336372,0.0 120.715405,24.336329,0.0 120.715459,24.336273,0.0 120.715561,24.336223,0.0 120.715654,24.336214,0.0 120.715691,24.336203,0.0 120.715762,24.336138,0.0 120.715834,24.335937,0.0 120.715922,24.335696,0.0 120.715551,24.335273,0.0 120.715244,24.334843,0.0 120.714632,24.33398,0.0 120.714574,24.333483,0.0 120.714697,24.332639,0.0 120.714717,24.332041,0.0 120.714741,24.331488,0.0 120.716215,24.330638,0.0 120.720997,24.328202,0.0 120.723193,24.327034,0.0 120.7271,24.325376,0.0 120.728108,24.325784,0.0 120.728775,24.326108,0.0 120.729906,24.326279,0.0 120.730443,24.326592,0.0 120.731206,24.326988,0.0 120.73213,24.327157,0.0 120.733394,24.327129,0.0 120.7344,24.327431,0.0 120.735172,24.327835,0.0 120.736498,24.328194,0.0 120.738432,24.328233,0.0 120.740471,24.328395,0.0 120.741853,24.328512,0.0 120.743142,24.328537,0.0 120.745043,24.32845,0.0 120.746208,24.328009,0.0 120.74711,24.327814,0.0 120.747941,24.32726,0.0 120.749186,24.327039,0.0 120.750194,24.327165,0.0 120.750729,24.327843,0.0 120.750943,24.328866,0.0 120.751024,24.330013,0.0 120.751285,24.330765,0.0 120.75181,24.331269,0.0 120.753018,24.331481,0.0 120.75454,24.331874,0.0 120.754177,24.332151,0.0 120.753864,24.332331,0.0 120.753298,24.332853,0.0 120.752836,24.333403,0.0 120.752474,24.333863,0.0 120.752292,24.334087,0.0 120.752229,24.334172,0.0 120.75178,24.334465,0.0 120.751303,24.334741,0.0 120.750404,24.335224,0.0 120.749511,24.335736,0.0 120.748916,24.336005,0.0 120.748344,24.336365,0.0 120.747315,24.337174,0.0 120.746779,24.337593,0.0 120.746252,24.338021,0.0 120.745801,24.338456,0.0 120.745363,24.338931,0.0 120.744673,24.339525,0.0 120.744107,24.339931,0.0 120.743761,24.340145,0.0 120.743454,24.34036,0.0 120.743272,24.340511,0.0 120.742676,24.341199,0.0 120.742521,24.341378,0.0 120.742206,24.341842,0.0 120.741946,24.342144,0.0 120.741551,24.34253,0.0 120.740355,24.343491,0.0 120.739975,24.343761,0.0 120.739686,24.343966,0.0 120.739363,24.34425,0.0 120.738979,24.344604,0.0 120.737899,24.345514,0.0 120.737125,24.34611,0.0 120.736682,24.346432,0.0 120.735444,24.347266,0.0 120.734986,24.347564,0.0 120.734444,24.347943,0.0 120.73365,24.34862,0.0 120.733166,24.349077,0.0 120.732712,24.349488,0.0 120.732049,24.3501,0.0 120.731399,24.3508,0.0 120.730925,24.351404,0.0 120.730394,24.351811,0.0 120.729829,24.352134,0.0 120.729422,24.352297,0.0 120.728949,24.352521,0.0 120.728389,24.352841,0.0 120.72816,24.352894,0.0 120.728115,24.3529,0.0 120.728054,24.352912,0.0 120.727981,24.352918,0.0 120.727902,24.352932,0.0 120.727773,24.352964,0.0 120.727061,24.353219,0.0 120.725932,24.353587,0.0 120.725221,24.353783,0.0 120.724338,24.354101,0.0 120.72432,24.354107,0.0 120.723474,24.35449,0.0 120.723141,24.354675,0.0 120.722838,24.354726,0.0 120.721582,24.354959,0.0 120.720614,24.355126,0.0 120.719843,24.355357,0.0 120.718427,24.355786,0.0 120.718254,24.355833,0.0</coordinates></LinearRing></outerBoundaryIs></Polygon><styleUrl>#spolygon-map</styleUrl></Placemark><Placemark><Polygon><outerBoundaryIs><LinearRing><coordinates>120.68083,24.311153,0.0 120.679964,24.311546,0.0 120.678208,24.312524,0.0 120.674769,24.315207,0.0 120.67421,24.315705,0.0 120.673729,24.316168,0.0 120.673525,24.316337,0.0 120.673264,24.31648,0.0 120.672934,24.316784,0.0 120.672704,24.31676,0.0 120.67241,24.3168,0.0 120.672045,24.316795,0.0 120.671455,24.316697,0.0 120.670717,24.316528,0.0 120.669614,24.316262,0.0 120.668826,24.316204,0.0 120.666935,24.31619,0.0 120.664797,24.316064,0.0 120.664596,24.316095,0.0 120.66443,24.316099,0.0 120.663636,24.316009,0.0 120.662868,24.315911,0.0 120.662107,24.315843,0.0 120.660898,24.315586,0.0 120.660181,24.315381,0.0 120.659296,24.315194,0.0 120.65885,24.315026,0.0 120.658499,24.314948,0.0 120.65815,24.314986,0.0 120.656913,24.315121,0.0 120.655798,24.315089,0.0 120.654864,24.314965,0.0 120.654136,24.314762,0.0 120.653431,24.314754,0.0 120.652396,24.31483,0.0 120.651152,24.31494,0.0 120.65091,24.314936,0.0 120.650863,24.314892,0.0 120.650719,24.314391,0.0 120.650598,24.31372,0.0 120.650332,24.311523,0.0 120.649999,24.308884,0.0 120.650014,24.308832,0.0 120.650085,24.308787,0.0 120.650151,24.308737,0.0 120.650203,24.308679,0.0 120.650187,24.308607,0.0 120.650126,24.308518,0.0 120.65008,24.308399,0.0 120.650115,24.308306,0.0 120.650874,24.307276,0.0 120.650943,24.307164,0.0 120.65081,24.307003,0.0 120.649432,24.305977,0.0 120.648895,24.305717,0.0 120.648485,24.305594,0.0 120.648408,24.305415,0.0 120.648149,24.304313,0.0 120.647793,24.302649,0.0 120.647421,24.3013,0.0 120.646677,24.299479,0.0 120.646424,24.299192,0.0 120.647152,24.298275,0.0 120.649181,24.297047,0.0 120.649994,24.297026,0.0 120.65101,24.296785,0.0 120.652785,24.29641,0.0 120.654314,24.296327,0.0 120.654969,24.296015,0.0 120.655379,24.295535,0.0 120.655864,24.295257,0.0 120.656848,24.295297,0.0 120.658284,24.295993,0.0 120.659702,24.296692,0.0 120.662242,24.297975,0.0 120.663701,24.298951,0.0 120.664849,24.299554,0.0 120.666174,24.300063,0.0 120.667463,24.300826,0.0 120.668621,24.301167,0.0 120.6694,24.30179,0.0 120.669888,24.302154,0.0 120.670527,24.302138,0.0 120.670718,24.302222,0.0 120.670827,24.302398,0.0 120.671034,24.303469,0.0 120.671143,24.30377,0.0 120.671343,24.303996,0.0 120.671629,24.304137,0.0 120.671918,24.304198,0.0 120.672219,24.304182,0.0 120.673323,24.303984,0.0 120.674089,24.304002,0.0 120.675293,24.304172,0.0 120.67554,24.304223,0.0 120.675996,24.304174,0.0 120.676745,24.303941,0.0 120.677237,24.30385,0.0 120.678219,24.303865,0.0 120.678608,24.303939,0.0 120.679489,24.304044,0.0 120.679717,24.304105,0.0 120.680147,24.304358,0.0 120.680884,24.30497,0.0 120.681159,24.307235,0.0 120.681651,24.310186,0.0 120.681532,24.310524,0.0 120.68083,24.311153,0.0</coordinates></LinearRing></outerBoundaryIs></Polygon><styleUrl>#spolygon-map</styleUrl></Placemark><Placemark><Polygon><outerBoundaryIs><LinearRing><coordinates>120.702403,24.332819,0.0 120.701254,24.332607,0.0 120.701142,24.332537,0.0 120.701177,24.331157,0.0 120.700968,24.328952,0.0 120.700743,24.327274,0.0 120.70066,24.327116,0.0 120.70056,24.327028,0.0 120.700362,24.326975,0.0 120.700078,24.327049,0.0 120.699677,24.327118,0.0 120.699329,24.327075,0.0 120.698592,24.326949,0.0 120.697891,24.326819,0.0 120.697382,24.326629,0.0 120.696576,24.326288,0.0 120.695968,24.325994,0.0 120.695648,24.325846,0.0 120.695406,24.325823,0.0 120.695027,24.325766,0.0 120.694736,24.325628,0.0 120.694322,24.325401,0.0 120.693735,24.325147,0.0 120.693426,24.324892,0.0 120.693059,24.324584,0.0 120.69285,24.324362,0.0 120.692632,24.324154,0.0 120.692369,24.324,0.0 120.692,24.323832,0.0 120.691621,24.32364,0.0 120.69126,24.323404,0.0 120.690776,24.323015,0.0 120.689947,24.322216,0.0 120.689162,24.321883,0.0 120.69009,24.320395,0.0 120.691568,24.318152,0.0 120.691945,24.317417,0.0 120.691923,24.317002,0.0 120.69307,24.317171,0.0 120.694337,24.31765,0.0 120.695181,24.316796,0.0 120.696237,24.316794,0.0 120.697838,24.31546,0.0 120.69978,24.313749,0.0 120.699738,24.312665,0.0 120.702244,24.313778,0.0 120.703113,24.315498,0.0 120.703634,24.31581,0.0 120.706542,24.316351,0.0 120.708409,24.316626,0.0 120.711017,24.316631,0.0 120.71382,24.31792,0.0 120.714765,24.319378,0.0 120.715383,24.320508,0.0 120.715676,24.320946,0.0 120.717843,24.32342,0.0 120.718545,24.325247,0.0 120.720047,24.326735,0.0 120.720736,24.327676,0.0 120.718037,24.329797,0.0 120.714763,24.331278,0.0 120.714752,24.331023,0.0 120.714687,24.330985,0.0 120.714543,24.330991,0.0 120.714449,24.331005,0.0 120.714396,24.331025,0.0 120.714338,24.331129,0.0 120.714321,24.331185,0.0 120.714141,24.331431,0.0 120.71364,24.331588,0.0 120.712243,24.331655,0.0 120.711519,24.331683,0.0 120.710555,24.33197,0.0 120.709376,24.332246,0.0 120.709027,24.332245,0.0 120.708183,24.332126,0.0 120.707712,24.332073,0.0 120.706979,24.332112,0.0 120.705539,24.332301,0.0 120.704438,24.332468,0.0 120.703988,24.332646,0.0 120.703389,24.332873,0.0 120.70289,24.332863,0.0 120.702403,24.332819,0.0</coordinates></LinearRing></outerBoundaryIs></Polygon><styleUrl>#spolygon-map</styleUrl></Placemark><Placemark><Polygon><outerBoundaryIs><LinearRing><coordinates>120.7271,24.325376,0.0 120.724518,24.32529,0.0 120.723831,24.323503,0.0 120.723177,24.323585,0.0 120.721974,24.32415,0.0 120.72121,24.323525,0.0 120.720466,24.322896,0.0 120.720324,24.322302,0.0 120.720055,24.320478,0.0 120.719032,24.318111,0.0 120.718223,24.316691,0.0 120.718184,24.315777,0.0 120.718251,24.313407,0.0 120.718028,24.311845,0.0 120.719599,24.311554,0.0 120.720111,24.310779,0.0 120.719713,24.309864,0.0 120.719383,24.309613,0.0 120.719912,24.308571,0.0 120.720331,24.307718,0.0 120.721387,24.307515,0.0 120.722074,24.307399,0.0 120.722461,24.307824,0.0 120.722977,24.308569,0.0 120.7236,24.308627,0.0 120.72405,24.308915,0.0 120.723605,24.309496,0.0 120.723086,24.309369,0.0 120.72339,24.310381,0.0 120.72362,24.310568,0.0 120.724138,24.310407,0.0 120.724665,24.31013,0.0 120.725163,24.31037,0.0 120.725476,24.310188,0.0 120.725518,24.309655,0.0 120.725892,24.309776,0.0 120.725898,24.310259,0.0 120.7259,24.310694,0.0 120.726026,24.310981,0.0 120.726566,24.311459,0.0 120.726872,24.31136,0.0 120.726567,24.310978,0.0 120.727056,24.311028,0.0 120.727936,24.311283,0.0 120.728669,24.312494,0.0 120.728945,24.312959,0.0 120.729693,24.313516,0.0 120.730593,24.313549,0.0 120.730672,24.314452,0.0 120.730734,24.314922,0.0 120.731101,24.31509,0.0 120.731888,24.314759,0.0 120.732819,24.314856,0.0 120.733419,24.315324,0.0 120.734037,24.315291,0.0 120.734365,24.314829,0.0 120.734721,24.314593,0.0 120.735432,24.314619,0.0 120.736517,24.315286,0.0 120.738925,24.317701,0.0 120.740391,24.318889,0.0 120.741948,24.319869,0.0 120.742156,24.320244,0.0 120.740302,24.320002,0.0 120.737851,24.320386,0.0 120.73366,24.322114,0.0 120.729848,24.324004,0.0 120.7271,24.325376,0.0</coordinates></LinearRing></outerBoundaryIs></Polygon><styleUrl>#spolygon-map</styleUrl></Placemark><Placemark><Polygon><outerBoundaryIs><LinearRing><coordinates>120.725207,24.326169,0.0 120.721201,24.328092,0.0 120.720736,24.327676,0.0 120.720047,24.326735,0.0 120.718545,24.325247,0.0 120.717843,24.32342,0.0 120.715676,24.320946,0.0 120.715383,24.320508,0.0 120.714765,24.319378,0.0 120.71382,24.31792,0.0 120.711017,24.316631,0.0 120.710116,24.316376,0.0 120.709513,24.315465,0.0 120.70947,24.314461,0.0 120.709472,24.313431,0.0 120.709544,24.312675,0.0 120.709779,24.312292,0.0 120.714211,24.311361,0.0 120.714318,24.310969,0.0 120.71416,24.310232,0.0 120.714274,24.30924,0.0 120.714603,24.30899,0.0 120.715998,24.308611,0.0 120.717239,24.308581,0.0 120.718022,24.308666,0.0 120.718326,24.307836,0.0 120.718158,24.307001,0.0 120.719727,24.307392,0.0 120.720331,24.307718,0.0 120.719912,24.308571,0.0 120.719383,24.309613,0.0 120.719713,24.309864,0.0 120.720111,24.310779,0.0 120.719599,24.311554,0.0 120.718028,24.311845,0.0 120.718251,24.313407,0.0 120.718184,24.315777,0.0 120.718223,24.316691,0.0 120.719032,24.318111,0.0 120.720055,24.320478,0.0 120.720324,24.322302,0.0 120.720466,24.322896,0.0 120.72121,24.323525,0.0 120.721974,24.32415,0.0 120.723177,24.323585,0.0 120.723831,24.323503,0.0 120.724518,24.32529,0.0 120.725207,24.326169,0.0</coordinates></LinearRing></outerBoundaryIs></Polygon><styleUrl>#spolygon-map</styleUrl></Placemark><Placemark><Polygon><outerBoundaryIs><LinearRing><coordinates>120.689162,24.321883,0.0 120.688035,24.321515,0.0 120.685902,24.320946,0.0 120.68349,24.320147,0.0 120.682572,24.319946,0.0 120.681647,24.319527,0.0 120.680966,24.319175,0.0 120.680533,24.319043,0.0 120.680107,24.318896,0.0 120.679556,24.318775,0.0 120.678732,24.318419,0.0 120.677432,24.318039,0.0 120.676165,24.31782,0.0 120.675339,24.317601,0.0 120.674447,24.317376,0.0 120.673759,24.317128,0.0 120.67324,24.316908,0.0 120.673126,24.316852,0.0 120.672969,24.316658,0.0 120.673418,24.31646,0.0 120.673656,24.316234,0.0 120.67387,24.316032,0.0 120.674748,24.315225,0.0 120.676854,24.313634,0.0 120.678829,24.312175,0.0 120.68055,24.311242,0.0 120.681953,24.31083,0.0 120.684484,24.310005,0.0 120.687634,24.30818,0.0 120.690852,24.305954,0.0 120.693328,24.304165,0.0 120.694413,24.304327,0.0 120.694752,24.30654,0.0 120.695618,24.307853,0.0 120.697038,24.309777,0.0 120.698217,24.310818,0.0 120.69927,24.311229,0.0 120.701516,24.312396,0.0 120.7002,24.313388,0.0 120.698887,24.314535,0.0 120.697008,24.316238,0.0 120.695621,24.316363,0.0 120.694826,24.31717,0.0 120.694154,24.317593,0.0 120.69208,24.316809,0.0 120.691923,24.31716,0.0 120.691911,24.317625,0.0 120.690747,24.319396,0.0 120.68955,24.321292,0.0 120.689162,24.321883,0.0</coordinates></LinearRing></outerBoundaryIs></Polygon><styleUrl>#spolygon-map</styleUrl></Placemark><Placemark><Polygon><outerBoundaryIs><LinearRing><coordinates>120.75454,24.331874,0.0 120.753018,24.331481,0.0 120.75181,24.331269,0.0 120.751285,24.330765,0.0 120.751024,24.330013,0.0 120.750943,24.328866,0.0 120.750729,24.327843,0.0 120.750194,24.327165,0.0 120.749186,24.327039,0.0 120.747941,24.32726,0.0 120.74711,24.327814,0.0 120.746208,24.328009,0.0 120.745043,24.32845,0.0 120.743142,24.328537,0.0 120.741853,24.328512,0.0 120.740471,24.328395,0.0 120.738432,24.328233,0.0 120.736498,24.328194,0.0 120.735172,24.327835,0.0 120.7344,24.327431,0.0 120.733394,24.327129,0.0 120.73213,24.327157,0.0 120.731206,24.326988,0.0 120.730443,24.326592,0.0 120.729906,24.326279,0.0 120.728775,24.326108,0.0 120.728108,24.325784,0.0 120.7271,24.325376,0.0 120.73159,24.323162,0.0 120.735856,24.321134,0.0 120.739153,24.32018,0.0 120.741281,24.32008,0.0 120.74285,24.320396,0.0 120.743838,24.320554,0.0 120.746297,24.320635,0.0 120.748929,24.320777,0.0 120.750932,24.321112,0.0 120.752124,24.321611,0.0 120.752856,24.321713,0.0 120.754385,24.321366,0.0 120.7553,24.320742,0.0 120.756201,24.319893,0.0 120.756811,24.319568,0.0 120.758769,24.319215,0.0 120.758784,24.319353,0.0 120.758801,24.319502,0.0 120.758877,24.319653,0.0 120.758902,24.319741,0.0 120.758936,24.319874,0.0 120.758929,24.320091,0.0 120.759005,24.320224,0.0 120.759148,24.320466,0.0 120.759235,24.320726,0.0 120.759268,24.320979,0.0 120.759252,24.321268,0.0 120.759142,24.321559,0.0 120.759003,24.321748,0.0 120.758798,24.32187,0.0 120.758736,24.321942,0.0 120.758824,24.322014,0.0 120.759005,24.322078,0.0 120.759174,24.322132,0.0 120.759302,24.322243,0.0 120.759397,24.322383,0.0 120.75948,24.322588,0.0 120.759516,24.322803,0.0 120.759526,24.323056,0.0 120.759998,24.32372,0.0 120.761309,24.324424,0.0 120.763495,24.325378,0.0 120.764252,24.325774,0.0 120.763898,24.325821,0.0 120.763252,24.325931,0.0 120.762992,24.326015,0.0 120.762754,24.326141,0.0 120.762465,24.32636,0.0 120.762301,24.326554,0.0 120.761913,24.327012,0.0 120.761714,24.327168,0.0 120.761452,24.327363,0.0 120.761134,24.327564,0.0 120.760084,24.328233,0.0 120.759826,24.328376,0.0 120.759687,24.328449,0.0 120.759468,24.328482,0.0 120.759029,24.328518,0.0 120.7585,24.328652,0.0 120.758154,24.328872,0.0 120.757783,24.329132,0.0 120.757317,24.32956,0.0 120.756543,24.330177,0.0 120.755189,24.331275,0.0 120.754918,24.331522,0.0 120.75454,24.331874,0.0</coordinates></LinearRing></outerBoundaryIs></Polygon><styleUrl>#spolygon-map</styleUrl></Placemark><Placemark><Polygon><outerBoundaryIs><LinearRing><coordinates>120.735797,24.314436,0.0 120.735068,24.31467,0.0 120.734514,24.314619,0.0 120.734221,24.315149,0.0 120.733818,24.315316,0.0 120.733202,24.315324,0.0 120.732499,24.31439,0.0 120.731262,24.315063,0.0 120.730946,24.315017,0.0 120.730654,24.314642,0.0 120.730879,24.313945,0.0 120.730202,24.313485,0.0 120.729203,24.313335,0.0 120.728927,24.312691,0.0 120.728131,24.311775,0.0 120.727716,24.31116,0.0 120.726752,24.310876,0.0 120.726543,24.309048,0.0 120.72667,24.307635,0.0 120.72704,24.306469,0.0 120.727677,24.305269,0.0 120.730613,24.3055,0.0 120.730855,24.304888,0.0 120.731722,24.305427,0.0 120.73236,24.307322,0.0 120.734147,24.311716,0.0 120.734956,24.313286,0.0 120.735944,24.314362,0.0 120.735797,24.314436,0.0</coordinates></LinearRing></outerBoundaryIs></Polygon><styleUrl>#spolygon-map</styleUrl></Placemark><Placemark><Polygon><outerBoundaryIs><LinearRing><coordinates>120.726752,24.310876,0.0 120.726713,24.311179,0.0 120.726762,24.311481,0.0 120.72644,24.311185,0.0 120.72594,24.310814,0.0 120.725879,24.310595,0.0 120.725989,24.309929,0.0 120.725664,24.309642,0.0 120.725483,24.309901,0.0 120.725399,24.310314,0.0 120.724886,24.310282,0.0 120.724324,24.310294,0.0 120.723881,24.310539,0.0 120.723507,24.310521,0.0 120.723314,24.310064,0.0 120.723148,24.309324,0.0 120.723945,24.309567,0.0 120.724134,24.308558,0.0 120.723192,24.308626,0.0 120.722804,24.308334,0.0 120.722315,24.307419,0.0 120.724598,24.307394,0.0 120.724818,24.307432,0.0 120.72527,24.305197,0.0 120.727354,24.305857,0.0 120.726826,24.307057,0.0 120.726598,24.308154,0.0 120.726739,24.310109,0.0 120.726752,24.310876,0.0</coordinates></LinearRing></outerBoundaryIs></Polygon><styleUrl>#spolygon-map</styleUrl></Placemark><Placemark><Polygon><outerBoundaryIs><LinearRing><coordinates>120.710268,24.316602,0.0 120.707732,24.316559,0.0 120.70515,24.316093,0.0 120.703275,24.315728,0.0 120.702887,24.31508,0.0 120.701516,24.312396,0.0 120.702103,24.309898,0.0 120.704834,24.308743,0.0 120.707251,24.307766,0.0 120.713003,24.305185,0.0 120.714131,24.307318,0.0 120.713543,24.307578,0.0 120.714274,24.30924,0.0 120.71416,24.310232,0.0 120.714318,24.310969,0.0 120.714211,24.311361,0.0 120.709779,24.312292,0.0 120.709544,24.312675,0.0 120.709472,24.313431,0.0 120.70947,24.314461,0.0 120.709513,24.315465,0.0 120.710116,24.316376,0.0 120.710268,24.316602,0.0</coordinates></LinearRing></outerBoundaryIs></Polygon><styleUrl>#spolygon-map</styleUrl></Placemark><Placemark><Polygon><outerBoundaryIs><LinearRing><coordinates>120.713003,24.305185,0.0 120.707251,24.307766,0.0 120.706484,24.306879,0.0 120.708737,24.305906,0.0 120.709549,24.304563,0.0 120.709379,24.303309,0.0 120.710334,24.302794,0.0 120.710916,24.302721,0.0 120.712002,24.30305,0.0 120.713159,24.303215,0.0 120.71429,24.302831,0.0 120.715285,24.302838,0.0 120.712447,24.304049,0.0 120.713003,24.305185,0.0</coordinates></LinearRing></outerBoundaryIs></Polygon><styleUrl>#spolygon-map</styleUrl></Placemark><Placemark><Polygon><outerBoundaryIs><LinearRing><coordinates>120.721985,24.307405,0.0 120.720874,24.307649,0.0 120.719934,24.307598,0.0 120.719392,24.306944,0.0 120.718306,24.30738,0.0 120.718181,24.308486,0.0 120.717796,24.308718,0.0 120.716777,24.308558,0.0 120.715237,24.308803,0.0 120.714435,24.309123,0.0 120.714196,24.308854,0.0 120.713761,24.307478,0.0 120.713707,24.306476,0.0 120.712447,24.304049,0.0 120.715285,24.302838,0.0 120.716045,24.304148,0.0 120.716526,24.304102,0.0 120.71813,24.30303,0.0 120.719575,24.303125,0.0 120.721181,24.303966,0.0 120.721887,24.305369,0.0 120.721855,24.30685,0.0 120.721985,24.307405,0.0</coordinates></LinearRing></outerBoundaryIs></Polygon><styleUrl>#spolygon-map</styleUrl></Placemark><Placemark><Polygon><outerBoundaryIs><LinearRing><coordinates>120.721998,24.304778,0.0 120.720373,24.303463,0.0 120.718411,24.302965,0.0 120.71756,24.303408,0.0 120.716195,24.304203,0.0 120.715884,24.303938,0.0 120.714768,24.302764,0.0 120.713796,24.303024,0.0 120.712537,24.303218,0.0 120.711396,24.302812,0.0 120.710645,24.302684,0.0 120.71,24.302972,0.0 120.709298,24.303077,0.0 120.709347,24.302323,0.0 120.70926,24.302061,0.0 120.708644,24.3018,0.0 120.707929,24.301092,0.0 120.707072,24.299025,0.0 120.706446,24.298114,0.0 120.705197,24.297516,0.0 120.704988,24.296461,0.0 120.706406,24.294767,0.0 120.70744,24.294046,0.0 120.707527,24.293107,0.0 120.707977,24.292973,0.0 120.70901,24.292494,0.0 120.709501,24.290272,0.0 120.709356,24.287201,0.0 120.709356,24.284102,0.0 120.712111,24.283719,0.0 120.712962,24.283608,0.0 120.71538,24.283319,0.0 120.718118,24.282979,0.0 120.721794,24.282536,0.0 120.722878,24.285845,0.0 120.723248,24.288762,0.0 120.72388,24.29579,0.0 120.72347,24.298462,0.0 120.722394,24.302988,0.0 120.721998,24.304778,0.0</coordinates></LinearRing></outerBoundaryIs></Polygon><styleUrl>#spolygon-map</styleUrl></Placemark><Placemark><Polygon><outerBoundaryIs><LinearRing><coordinates>120.722315,24.307419,0.0 120.721985,24.307405,0.0 120.721798,24.306084,0.0 120.721998,24.304778,0.0 120.722899,24.300807,0.0 120.723752,24.297056,0.0 120.723616,24.292686,0.0 120.723051,24.287101,0.0 120.722622,24.282467,0.0 120.725021,24.282287,0.0 120.728054,24.28218,0.0 120.731015,24.282119,0.0 120.73231,24.282104,0.0 120.734552,24.281992,0.0 120.736334,24.281865,0.0 120.737913,24.281755,0.0 120.739343,24.28175,0.0 120.740508,24.281633,0.0 120.741778,24.281467,0.0 120.744987,24.281135,0.0 120.746727,24.280941,0.0 120.747838,24.28074,0.0 120.748407,24.281461,0.0 120.74867,24.282759,0.0 120.748675,24.283226,0.0 120.748539,24.283777,0.0 120.748257,24.284372,0.0 120.748058,24.284776,0.0 120.748047,24.285083,0.0 120.74816,24.285566,0.0 120.74812,24.286153,0.0 120.748241,24.286465,0.0 120.7486,24.286958,0.0 120.748812,24.287256,0.0 120.749062,24.28741,0.0 120.749512,24.287582,0.0 120.750152,24.287592,0.0 120.750878,24.287526,0.0 120.75135,24.287332,0.0 120.751615,24.287168,0.0 120.751911,24.287139,0.0 120.752193,24.287201,0.0 120.752523,24.28735,0.0 120.752833,24.287558,0.0 120.753322,24.287889,0.0 120.754,24.288226,0.0 120.754417,24.288531,0.0 120.754645,24.288868,0.0 120.754826,24.289047,0.0 120.755002,24.289131,0.0 120.755313,24.289059,0.0 120.755595,24.288928,0.0 120.756206,24.288986,0.0 120.756813,24.289084,0.0 120.757051,24.289193,0.0 120.757368,24.289663,0.0 120.757772,24.290358,0.0 120.758062,24.29065,0.0 120.758255,24.290738,0.0 120.758394,24.290703,0.0 120.758588,24.290594,0.0 120.758885,24.290444,0.0 120.759317,24.290187,0.0 120.759569,24.290041,0.0 120.759855,24.290068,0.0 120.760158,24.290276,0.0 120.760377,24.290338,0.0 120.760783,24.290277,0.0 120.761148,24.290219,0.0 120.761435,24.290229,0.0 120.761778,24.290311,0.0 120.762063,24.290381,0.0 120.762294,24.290422,0.0 120.762596,24.290452,0.0 120.762933,24.290545,0.0 120.763082,24.290602,0.0 120.763388,24.290677,0.0 120.763537,24.290724,0.0 120.763683,24.290774,0.0 120.76391,24.290908,0.0 120.764155,24.291149,0.0 120.764158,24.291565,0.0 120.764185,24.291745,0.0 120.764242,24.291847,0.0 120.764405,24.291996,0.0 120.764594,24.29213,0.0 120.764894,24.292302,0.0 120.765125,24.292426,0.0 120.765423,24.292571,0.0 120.76565,24.292696,0.0 120.765876,24.292807,0.0 120.76605,24.29297,0.0 120.766003,24.293301,0.0 120.766072,24.29406,0.0 120.766228,24.294737,0.0 120.766669,24.295386,0.0 120.766904,24.296104,0.0 120.767096,24.296847,0.0 120.767232,24.297757,0.0 120.767481,24.298333,0.0 120.767486,24.298482,0.0 120.767382,24.298757,0.0 120.767286,24.298947,0.0 120.767091,24.29905,0.0 120.766846,24.299266,0.0 120.766559,24.299428,0.0 120.76644,24.299435,0.0 120.766331,24.299426,0.0 120.766137,24.299365,0.0 120.766,24.29927,0.0 120.765762,24.299127,0.0 120.765562,24.29907,0.0 120.765284,24.29911,0.0 120.765143,24.299228,0.0 120.765002,24.299422,0.0 120.764696,24.299699,0.0 120.764554,24.299829,0.0 120.764489,24.299922,0.0 120.764499,24.300096,0.0 120.764493,24.300231,0.0 120.76439,24.300333,0.0 120.764212,24.30045,0.0 120.764128,24.300648,0.0 120.764055,24.300788,0.0 120.763932,24.300858,0.0 120.763795,24.300995,0.0 120.763744,24.30114,0.0 120.763724,24.301313,0.0 120.763668,24.301526,0.0 120.763509,24.301801,0.0 120.763409,24.30204,0.0 120.763365,24.302347,0.0 120.763267,24.302604,0.0 120.763117,24.302825,0.0 120.763035,24.303023,0.0 120.762972,24.303263,0.0 120.763032,24.303479,0.0 120.763075,24.303703,0.0 120.763051,24.303892,0.0 120.762927,24.304104,0.0 120.762822,24.304416,0.0 120.762895,24.30461,0.0 120.762979,24.304725,0.0 120.763133,24.305017,0.0 120.763343,24.305227,0.0 120.763693,24.305456,0.0 120.764238,24.305797,0.0 120.764472,24.305998,0.0 120.764581,24.306163,0.0 120.764657,24.306403,0.0 120.764682,24.306543,0.0 120.764664,24.306764,0.0 120.764665,24.307272,0.0 120.764628,24.307784,0.0 120.764611,24.308091,0.0 120.764668,24.308231,0.0 120.764708,24.308453,0.0 120.764693,24.308572,0.0 120.764597,24.308902,0.0 120.764522,24.309222,0.0 120.764558,24.309403,0.0 120.764641,24.3095,0.0 120.764778,24.309629,0.0 120.764861,24.309848,0.0 120.764836,24.310098,0.0 120.7648,24.310471,0.0 120.764686,24.310859,0.0 120.764509,24.311263,0.0 120.760763,24.312828,0.0 120.758536,24.313747,0.0 120.757265,24.313479,0.0 120.757166,24.311714,0.0 120.757296,24.309906,0.0 120.75768,24.308699,0.0 120.75811,24.307722,0.0 120.756202,24.306351,0.0 120.755182,24.30602,0.0 120.752849,24.305955,0.0 120.750915,24.305909,0.0 120.748698,24.304994,0.0 120.747405,24.3048,0.0 120.745712,24.304973,0.0 120.743983,24.305681,0.0 120.743229,24.305955,0.0 120.74254,24.30538,0.0 120.741803,24.304221,0.0 120.741164,24.304611,0.0 120.740448,24.305684,0.0 120.738612,24.305913,0.0 120.73527,24.305777,0.0 120.731722,24.305427,0.0 120.730855,24.304888,0.0 120.730613,24.3055,0.0 120.727677,24.305269,0.0 120.725137,24.307591,0.0 120.724727,24.307407,0.0 120.72339,24.307505,0.0 120.722315,24.307419,0.0</coordinates></LinearRing></outerBoundaryIs></Polygon><styleUrl>#spolygon-map</styleUrl></Placemark><Placemark><Polygon><outerBoundaryIs><LinearRing><coordinates>120.68083,24.311153,0.0 120.681648,24.310346,0.0 120.681274,24.308722,0.0 120.680918,24.305232,0.0 120.680411,24.304551,0.0 120.679828,24.304165,0.0 120.6796,24.304073,0.0 120.67918,24.303996,0.0 120.678465,24.30392,0.0 120.678114,24.303859,0.0 120.676964,24.303883,0.0 120.676352,24.304082,0.0 120.675731,24.304215,0.0 120.675428,24.304209,0.0 120.674774,24.304062,0.0 120.673597,24.303976,0.0 120.67273,24.304075,0.0 120.672073,24.30419,0.0 120.671772,24.304181,0.0 120.67148,24.30408,0.0 120.671252,24.303912,0.0 120.671089,24.303676,0.0 120.670954,24.302959,0.0 120.6708,24.302315,0.0 120.670636,24.302172,0.0 120.670078,24.30218,0.0 120.669824,24.302128,0.0 120.669156,24.301433,0.0 120.667934,24.300965,0.0 120.669086,24.300324,0.0 120.669999,24.299875,0.0 120.670969,24.299554,0.0 120.671395,24.298833,0.0 120.672238,24.298311,0.0 120.673258,24.298234,0.0 120.674192,24.298552,0.0 120.674888,24.299181,0.0 120.675713,24.29928,0.0 120.676454,24.29867,0.0 120.677512,24.297606,0.0 120.677813,24.29733,0.0 120.677889,24.297139,0.0 120.677943,24.296908,0.0 120.678004,24.296871,0.0 120.678173,24.296944,0.0 120.678511,24.297107,0.0 120.678775,24.297163,0.0 120.678971,24.297153,0.0 120.679111,24.297105,0.0 120.679289,24.297179,0.0 120.679497,24.297279,0.0 120.679695,24.297303,0.0 120.679923,24.297192,0.0 120.680188,24.296693,0.0 120.680355,24.296604,0.0 120.680676,24.296694,0.0 120.681084,24.296909,0.0 120.681266,24.296963,0.0 120.681425,24.296892,0.0 120.68155,24.296554,0.0 120.681547,24.296235,0.0 120.681583,24.296142,0.0 120.681665,24.296104,0.0 120.682103,24.29619,0.0 120.682248,24.296197,0.0 120.682312,24.296154,0.0 120.682403,24.295941,0.0 120.682687,24.295705,0.0 120.683408,24.29514,0.0 120.684088,24.295135,0.0 120.68444,24.295092,0.0 120.684769,24.294792,0.0 120.68519,24.294803,0.0 120.685418,24.294862,0.0 120.685646,24.294887,0.0 120.68602,24.294771,0.0 120.686276,24.294671,0.0 120.686541,24.294287,0.0 120.686751,24.294112,0.0 120.687098,24.294037,0.0 120.687345,24.294004,0.0 120.687729,24.293704,0.0 120.687835,24.293541,0.0 120.687999,24.293533,0.0 120.688471,24.293768,0.0 120.688674,24.293775,0.0 120.688877,24.293697,0.0 120.688997,24.293531,0.0 120.689317,24.293356,0.0 120.689435,24.293348,0.0 120.689718,24.293465,0.0 120.689918,24.29352,0.0 120.690183,24.293721,0.0 120.6903,24.29375,0.0 120.690484,24.293686,0.0 120.690754,24.293543,0.0 120.691077,24.293627,0.0 120.69125,24.293778,0.0 120.691431,24.294172,0.0 120.691527,24.29424,0.0 120.691824,24.294427,0.0 120.691869,24.294982,0.0 120.692321,24.296541,0.0 120.69264,24.296564,0.0 120.692748,24.296585,0.0 120.693077,24.2967,0.0 120.693333,24.297297,0.0 120.694005,24.299782,0.0 120.694752,24.302472,0.0 120.694518,24.302704,0.0 120.694167,24.302942,0.0 120.693328,24.304165,0.0 120.690852,24.305954,0.0 120.687634,24.30818,0.0 120.684484,24.310005,0.0 120.681953,24.31083,0.0 120.68083,24.311153,0.0</coordinates></LinearRing></outerBoundaryIs></Polygon><styleUrl>#spolygon-map</styleUrl></Placemark><Placemark><Polygon><outerBoundaryIs><LinearRing><coordinates>120.704175,24.297518,0.0 120.702929,24.298417,0.0 120.69687,24.301669,0.0 120.69433,24.30344,0.0 120.694252,24.302903,0.0 120.694673,24.302566,0.0 120.694413,24.301202,0.0 120.693438,24.297773,0.0 120.693235,24.296765,0.0 120.692821,24.296607,0.0 120.692699,24.296574,0.0 120.692571,24.296556,0.0 120.692243,24.29624,0.0 120.691855,24.29447,0.0 120.691613,24.294261,0.0 120.691477,24.294222,0.0 120.691295,24.293842,0.0 120.691195,24.29372,0.0 120.690934,24.293572,0.0 120.690684,24.293557,0.0 120.690383,24.293735,0.0 120.690238,24.293743,0.0 120.690091,24.293667,0.0 120.689824,24.293491,0.0 120.689636,24.29344,0.0 120.689386,24.29334,0.0 120.68907,24.293481,0.0 120.688937,24.293624,0.0 120.688768,24.293754,0.0 120.688525,24.293779,0.0 120.688377,24.293732,0.0 120.687944,24.293517,0.0 120.687789,24.293583,0.0 120.687655,24.293796,0.0 120.687244,24.294029,0.0 120.686952,24.294062,0.0 120.686633,24.294187,0.0 120.686349,24.294596,0.0 120.686184,24.294729,0.0 120.685746,24.294871,0.0 120.685527,24.294878,0.0 120.685272,24.294819,0.0 120.685108,24.294794,0.0 120.684605,24.294978,0.0 120.68435,24.295119,0.0 120.683854,24.295141,0.0 120.683149,24.29529,0.0 120.682483,24.295834,0.0 120.682374,24.295998,0.0 120.682281,24.296182,0.0 120.682178,24.296199,0.0 120.681724,24.296112,0.0 120.681618,24.296119,0.0 120.68156,24.296183,0.0 120.681538,24.29632,0.0 120.681512,24.296683,0.0 120.681409,24.29694,0.0 120.681179,24.296956,0.0 120.680995,24.296844,0.0 120.680447,24.296608,0.0 120.680273,24.296633,0.0 120.680095,24.296772,0.0 120.679794,24.297283,0.0 120.679578,24.297298,0.0 120.679421,24.297249,0.0 120.67919,24.297117,0.0 120.679046,24.297108,0.0 120.678873,24.297165,0.0 120.678635,24.297142,0.0 120.678374,24.297041,0.0 120.67805,24.296883,0.0 120.677961,24.296874,0.0 120.677937,24.296943,0.0 120.677844,24.297301,0.0 120.677747,24.29734,0.0 120.676979,24.298077,0.0 120.675952,24.29917,0.0 120.675272,24.299281,0.0 120.674592,24.29902,0.0 120.673848,24.298328,0.0 120.672669,24.298253,0.0 120.671857,24.29847,0.0 120.671165,24.299236,0.0 120.670669,24.299799,0.0 120.66964,24.299971,0.0 120.668462,24.300738,0.0 120.667463,24.300826,0.0 120.666174,24.300063,0.0 120.664849,24.299554,0.0 120.663701,24.298951,0.0 120.662242,24.297975,0.0 120.659702,24.296692,0.0 120.658284,24.295993,0.0 120.656848,24.295297,0.0 120.655864,24.295257,0.0 120.655379,24.295535,0.0 120.654969,24.296015,0.0 120.654314,24.296327,0.0 120.652785,24.29641,0.0 120.65101,24.296785,0.0 120.649994,24.297026,0.0 120.650472,24.296192,0.0 120.652077,24.295223,0.0 120.653743,24.294236,0.0 120.655297,24.293391,0.0 120.656227,24.292858,0.0 120.657521,24.292107,0.0 120.658653,24.29162,0.0 120.659945,24.291361,0.0 120.661262,24.291095,0.0 120.662242,24.290872,0.0 120.663443,24.290547,0.0 120.665765,24.28983,0.0 120.666633,24.28954,0.0 120.668695,24.288992,0.0 120.671071,24.288293,0.0 120.672314,24.287904,0.0 120.673555,24.287508,0.0 120.677281,24.286432,0.0 120.680072,24.285626,0.0 120.683133,24.284698,0.0 120.684037,24.284736,0.0 120.684743,24.284821,0.0 120.685324,24.284831,0.0 120.687538,24.284718,0.0 120.691177,24.284635,0.0 120.692027,24.284611,0.0 120.696974,24.284577,0.0 120.700383,24.284586,0.0 120.701556,24.284538,0.0 120.702912,24.284453,0.0 120.706286,24.28434,0.0 120.708164,24.284307,0.0 120.709356,24.284102,0.0 120.709356,24.287201,0.0 120.709501,24.290272,0.0 120.70901,24.292494,0.0 120.707977,24.292973,0.0 120.707527,24.293107,0.0 120.70744,24.294046,0.0 120.706406,24.294767,0.0 120.704988,24.296461,0.0 120.704175,24.297518,0.0</coordinates></LinearRing></outerBoundaryIs></Polygon><styleUrl>#spolygon-map</styleUrl></Placemark></Document>
</kml>
