<?xml version="1.0" encoding="UTF-8"?>
<kml xmlns="http://www.opengis.net/kml/2.2">
	<Document>
		<name>臺南市善化區</name>
		<Style id="spolygon">
			<LabelStyle>
				<scale>0.0</scale>
			</LabelStyle>
			<LineStyle>
				<color>330030ff</color>
				<width>0</width>
			</LineStyle>
			<PolyStyle>
				<color>330030ff</color>
			</PolyStyle>
		</Style>
		<StyleMap id="spolygon-map">
			<Pair>
				<key>normal</key>
				<styleUrl>#spolygon</styleUrl>
			</Pair>
		</StyleMap>
	<Placemark><Polygon><outerBoundaryIs><LinearRing><coordinates>120.293911,23.131389,0.0 120.293825,23.131394,0.0 120.293727,23.13107,0.0 120.292272,23.13081,0.0 120.291856,23.130802,0.0 120.291707,23.130732,0.0 120.291549,23.130921,0.0 120.290831,23.130661,0.0 120.290594,23.131099,0.0 120.290443,23.131628,0.0 120.290351,23.131695,0.0 120.289352,23.131317,0.0 120.289334,23.130926,0.0 120.289222,23.130737,0.0 120.289095,23.130655,0.0 120.288992,23.130609,0.0 120.288881,23.130089,0.0 120.289035,23.129978,0.0 120.289059,23.129923,0.0 120.289029,23.129781,0.0 120.289034,23.129638,0.0 120.289022,23.129551,0.0 120.288798,23.129282,0.0 120.288755,23.129122,0.0 120.288575,23.128999,0.0 120.288775,23.128434,0.0 120.288763,23.127775,0.0 120.288881,23.127209,0.0 120.288879,23.126947,0.0 120.288805,23.126509,0.0 120.28879,23.126236,0.0 120.288808,23.125909,0.0 120.288854,23.125502,0.0 120.288647,23.123404,0.0 120.288458,23.121924,0.0 120.288347,23.120833,0.0 120.288252,23.119891,0.0 120.288054,23.118108,0.0 120.287943,23.117018,0.0 120.287662,23.114455,0.0 120.287573,23.113721,0.0 120.287502,23.112913,0.0 120.287403,23.111948,0.0 120.287415,23.111882,0.0 120.287581,23.11124,0.0 120.287749,23.110855,0.0 120.288063,23.111014,0.0 120.288139,23.110985,0.0 120.288302,23.110426,0.0 120.288436,23.110025,0.0 120.288634,23.109732,0.0 120.288721,23.109387,0.0 120.288743,23.109205,0.0 120.288954,23.108711,0.0 120.288995,23.108556,0.0 120.289053,23.108215,0.0 120.289199,23.107929,0.0 120.2895,23.107425,0.0 120.289635,23.107348,0.0 120.289892,23.107474,0.0 120.29036,23.107706,0.0 120.290876,23.107943,0.0 120.291241,23.108051,0.0 120.291672,23.108252,0.0 120.291983,23.108443,0.0 120.292306,23.108719,0.0 120.292616,23.109053,0.0 120.293153,23.109599,0.0 120.293583,23.110037,0.0 120.29396,23.109752,0.0 120.294475,23.109352,0.0 120.294584,23.109278,0.0 120.295189,23.109324,0.0 120.295531,23.109364,0.0 120.295585,23.109068,0.0 120.295652,23.108418,0.0 120.295711,23.108105,0.0 120.295789,23.107584,0.0 120.295898,23.106844,0.0 120.296156,23.106662,0.0 120.296442,23.106243,0.0 120.296574,23.106235,0.0 120.296974,23.106449,0.0 120.297405,23.106686,0.0 120.297562,23.106544,0.0 120.297911,23.106074,0.0 120.298091,23.105955,0.0 120.298329,23.105723,0.0 120.298405,23.105654,0.0 120.298525,23.105627,0.0 120.298614,23.105779,0.0 120.299031,23.106072,0.0 120.299383,23.106247,0.0 120.299762,23.106502,0.0 120.300053,23.106695,0.0 120.300419,23.106895,0.0 120.300822,23.107039,0.0 120.301173,23.107199,0.0 120.30145,23.10739,0.0 120.301787,23.107522,0.0 120.302485,23.110242,0.0 120.303834,23.117703,0.0 120.304237,23.119869,0.0 120.303514,23.11977,0.0 120.301451,23.11945,0.0 120.298509,23.119003,0.0 120.296629,23.118719,0.0 120.296378,23.119722,0.0 120.295909,23.121602,0.0 120.295448,23.12343,0.0 120.295383,23.12433,0.0 120.294963,23.126069,0.0 120.294789,23.126884,0.0 120.294113,23.12918,0.0 120.293954,23.130155,0.0 120.293911,23.131389,0.0</coordinates></LinearRing></outerBoundaryIs></Polygon><styleUrl>#spolygon-map</styleUrl></Placemark><Placemark><Polygon><outerBoundaryIs><LinearRing><coordinates>120.289352,23.131317,0.0 120.288662,23.131266,0.0 120.288216,23.131896,0.0 120.287414,23.131714,0.0 120.286564,23.131559,0.0 120.285971,23.131473,0.0 120.28584,23.131462,0.0 120.285654,23.131532,0.0 120.285536,23.131582,0.0 120.285305,23.131595,0.0 120.285202,23.131548,0.0 120.285141,23.131517,0.0 120.285057,23.131507,0.0 120.284884,23.131423,0.0 120.284725,23.131992,0.0 120.283052,23.130668,0.0 120.280162,23.12838,0.0 120.276471,23.125457,0.0 120.275911,23.125044,0.0 120.274329,23.124361,0.0 120.274244,23.124394,0.0 120.272589,23.124517,0.0 120.272626,23.124933,0.0 120.271839,23.124924,0.0 120.270845,23.124823,0.0 120.270394,23.124731,0.0 120.270179,23.124614,0.0 120.270015,23.124432,0.0 120.269885,23.124197,0.0 120.269829,23.123815,0.0 120.269775,23.123645,0.0 120.269532,23.123259,0.0 120.269162,23.122655,0.0 120.269198,23.122615,0.0 120.269227,23.122335,0.0 120.26914,23.121798,0.0 120.26904,23.121432,0.0 120.268935,23.121169,0.0 120.268754,23.120857,0.0 120.268603,23.120547,0.0 120.268581,23.120217,0.0 120.268485,23.119998,0.0 120.268377,23.119753,0.0 120.268338,23.11922,0.0 120.268306,23.118875,0.0 120.268333,23.118687,0.0 120.268214,23.118403,0.0 120.268059,23.118219,0.0 120.26767,23.117685,0.0 120.267475,23.11723,0.0 120.267335,23.116678,0.0 120.267071,23.116352,0.0 120.266717,23.116215,0.0 120.26623,23.116247,0.0 120.265773,23.116319,0.0 120.265457,23.116171,0.0 120.265233,23.115709,0.0 120.265034,23.1152,0.0 120.264969,23.114692,0.0 120.264941,23.114441,0.0 120.26492,23.11429,0.0 120.264798,23.11389,0.0 120.264619,23.113494,0.0 120.264475,23.113195,0.0 120.264272,23.113072,0.0 120.263825,23.112964,0.0 120.263551,23.112798,0.0 120.263396,23.112572,0.0 120.263349,23.112237,0.0 120.263315,23.112072,0.0 120.263206,23.111801,0.0 120.263072,23.111631,0.0 120.262776,23.11135,0.0 120.262201,23.110923,0.0 120.262026,23.110692,0.0 120.261851,23.110287,0.0 120.261556,23.109969,0.0 120.260916,23.109449,0.0 120.260319,23.109011,0.0 120.259816,23.108755,0.0 120.259422,23.108564,0.0 120.258859,23.108426,0.0 120.258387,23.108356,0.0 120.258078,23.108314,0.0 120.257315,23.108191,0.0 120.256558,23.108081,0.0 120.255792,23.107438,0.0 120.255791,23.106937,0.0 120.255855,23.106606,0.0 120.256144,23.106433,0.0 120.256373,23.106335,0.0 120.256451,23.106216,0.0 120.256331,23.106053,0.0 120.256322,23.105716,0.0 120.256382,23.105606,0.0 120.256491,23.105389,0.0 120.256745,23.105152,0.0 120.257097,23.105259,0.0 120.257581,23.105381,0.0 120.257867,23.105611,0.0 120.258078,23.105862,0.0 120.25828,23.105958,0.0 120.25857,23.106068,0.0 120.258742,23.106065,0.0 120.25888,23.106006,0.0 120.259015,23.10597,0.0 120.259461,23.10567,0.0 120.259809,23.105636,0.0 120.25998,23.105623,0.0 120.260169,23.105454,0.0 120.260365,23.105336,0.0 120.260631,23.105423,0.0 120.260803,23.105487,0.0 120.261024,23.105406,0.0 120.261478,23.105194,0.0 120.261744,23.105125,0.0 120.261948,23.105183,0.0 120.262177,23.105231,0.0 120.262378,23.105383,0.0 120.262735,23.105559,0.0 120.263026,23.105732,0.0 120.263219,23.10594,0.0 120.263469,23.106172,0.0 120.26371,23.106306,0.0 120.264031,23.106421,0.0 120.26408,23.106538,0.0 120.264197,23.106636,0.0 120.264381,23.106754,0.0 120.264556,23.106856,0.0 120.264664,23.106839,0.0 120.264864,23.107111,0.0 120.265023,23.107256,0.0 120.265172,23.107261,0.0 120.265526,23.107371,0.0 120.265891,23.107524,0.0 120.266282,23.107684,0.0 120.266577,23.107807,0.0 120.26702,23.107949,0.0 120.267165,23.107995,0.0 120.267315,23.108111,0.0 120.267504,23.108177,0.0 120.26771,23.108302,0.0 120.267859,23.108409,0.0 120.268177,23.108533,0.0 120.268271,23.108538,0.0 120.268017,23.107829,0.0 120.267436,23.106304,0.0 120.267777,23.106298,0.0 120.267803,23.106314,0.0 120.268109,23.106577,0.0 120.268452,23.106678,0.0 120.268473,23.106778,0.0 120.268859,23.106938,0.0 120.269146,23.107101,0.0 120.269437,23.107211,0.0 120.269631,23.107231,0.0 120.269737,23.107206,0.0 120.269789,23.107068,0.0 120.269758,23.106955,0.0 120.269767,23.106736,0.0 120.269747,23.106553,0.0 120.269784,23.106438,0.0 120.269901,23.106209,0.0 120.270039,23.106071,0.0 120.270216,23.105869,0.0 120.270356,23.105861,0.0 120.270469,23.105751,0.0 120.270503,23.1056,0.0 120.270439,23.10541,0.0 120.270351,23.105256,0.0 120.270353,23.105116,0.0 120.270425,23.104969,0.0 120.27052,23.104922,0.0 120.270719,23.10512,0.0 120.270898,23.10517,0.0 120.271024,23.105252,0.0 120.271149,23.105411,0.0 120.271302,23.105617,0.0 120.271452,23.105785,0.0 120.27148,23.10594,0.0 120.271489,23.106099,0.0 120.271513,23.10623,0.0 120.271498,23.106354,0.0 120.271466,23.106475,0.0 120.271489,23.106667,0.0 120.271592,23.106918,0.0 120.271611,23.107205,0.0 120.271617,23.107578,0.0 120.271682,23.107867,0.0 120.271823,23.10817,0.0 120.271959,23.108408,0.0 120.272066,23.108657,0.0 120.272222,23.108806,0.0 120.272381,23.108841,0.0 120.272672,23.108919,0.0 120.272852,23.109019,0.0 120.272972,23.109038,0.0 120.273157,23.109003,0.0 120.273172,23.109219,0.0 120.273308,23.109539,0.0 120.273423,23.109715,0.0 120.273672,23.110037,0.0 120.273936,23.11013,0.0 120.274118,23.110301,0.0 120.274296,23.11042,0.0 120.274482,23.110564,0.0 120.27468,23.110818,0.0 120.274867,23.111047,0.0 120.275021,23.111136,0.0 120.2752,23.111132,0.0 120.275336,23.111044,0.0 120.275655,23.110775,0.0 120.275972,23.110599,0.0 120.2767,23.110886,0.0 120.277908,23.111359,0.0 120.278146,23.111127,0.0 120.278375,23.111018,0.0 120.278622,23.110953,0.0 120.279076,23.110764,0.0 120.279277,23.110475,0.0 120.279391,23.110047,0.0 120.279464,23.109968,0.0 120.280661,23.109931,0.0 120.281707,23.109911,0.0 120.281721,23.109794,0.0 120.281664,23.109599,0.0 120.281652,23.109428,0.0 120.281618,23.109224,0.0 120.281447,23.109027,0.0 120.281344,23.108776,0.0 120.281278,23.108521,0.0 120.281069,23.107953,0.0 120.280969,23.107632,0.0 120.280963,23.107352,0.0 120.28096,23.107099,0.0 120.281045,23.106761,0.0 120.281039,23.106513,0.0 120.28105,23.106316,0.0 120.281102,23.106165,0.0 120.281303,23.106182,0.0 120.281675,23.106445,0.0 120.282292,23.106721,0.0 120.282524,23.106763,0.0 120.282903,23.106826,0.0 120.283024,23.106914,0.0 120.283189,23.107035,0.0 120.283477,23.107147,0.0 120.283542,23.107206,0.0 120.283751,23.107432,0.0 120.283911,23.107508,0.0 120.284093,23.107736,0.0 120.284261,23.107922,0.0 120.284475,23.108018,0.0 120.285032,23.108255,0.0 120.285287,23.108365,0.0 120.285587,23.108626,0.0 120.285766,23.108823,0.0 120.285858,23.108986,0.0 120.286006,23.109086,0.0 120.286124,23.10914,0.0 120.286308,23.109218,0.0 120.286754,23.109401,0.0 120.286807,23.10955,0.0 120.286656,23.109854,0.0 120.286551,23.110095,0.0 120.286697,23.110238,0.0 120.28706,23.110482,0.0 120.287384,23.110679,0.0 120.287651,23.110813,0.0 120.287581,23.11124,0.0 120.287415,23.111882,0.0 120.287403,23.111948,0.0 120.287502,23.112913,0.0 120.287573,23.113721,0.0 120.287662,23.114455,0.0 120.287943,23.117018,0.0 120.288054,23.118108,0.0 120.288252,23.119891,0.0 120.288347,23.120833,0.0 120.288458,23.121924,0.0 120.288647,23.123404,0.0 120.288854,23.125502,0.0 120.288808,23.125909,0.0 120.28879,23.126236,0.0 120.288805,23.126509,0.0 120.288879,23.126947,0.0 120.288881,23.127209,0.0 120.288763,23.127775,0.0 120.288775,23.128434,0.0 120.288575,23.128999,0.0 120.288755,23.129122,0.0 120.288798,23.129282,0.0 120.289022,23.129551,0.0 120.289034,23.129638,0.0 120.289029,23.129781,0.0 120.289059,23.129923,0.0 120.289035,23.129978,0.0 120.288881,23.130089,0.0 120.288992,23.130609,0.0 120.289095,23.130655,0.0 120.289222,23.130737,0.0 120.289334,23.130926,0.0 120.289352,23.131317,0.0</coordinates></LinearRing></outerBoundaryIs></Polygon><styleUrl>#spolygon-map</styleUrl></Placemark><Placemark><Polygon><outerBoundaryIs><LinearRing><coordinates>120.306206,23.130606,0.0 120.305661,23.130761,0.0 120.305444,23.130815,0.0 120.305372,23.130822,0.0 120.30524,23.130806,0.0 120.30491,23.13076,0.0 120.303378,23.130533,0.0 120.301584,23.130271,0.0 120.300224,23.130055,0.0 120.298321,23.129784,0.0 120.296929,23.12996,0.0 120.296743,23.13108,0.0 120.296557,23.132114,0.0 120.296025,23.132041,0.0 120.295423,23.132055,0.0 120.294392,23.132122,0.0 120.293848,23.132147,0.0 120.293869,23.13201,0.0 120.293939,23.130985,0.0 120.293989,23.129133,0.0 120.294546,23.126855,0.0 120.294831,23.126668,0.0 120.295052,23.125714,0.0 120.295227,23.124306,0.0 120.295727,23.122355,0.0 120.296164,23.120566,0.0 120.296514,23.119181,0.0 120.296774,23.118741,0.0 120.300953,23.119378,0.0 120.302894,23.119669,0.0 120.304072,23.119846,0.0 120.304508,23.121323,0.0 120.305362,23.125988,0.0 120.306206,23.130606,0.0</coordinates></LinearRing></outerBoundaryIs></Polygon><styleUrl>#spolygon-map</styleUrl></Placemark><Placemark><Polygon><outerBoundaryIs><LinearRing><coordinates>120.289406,23.132517,0.0 120.289015,23.132561,0.0 120.287791,23.132755,0.0 120.287187,23.132903,0.0 120.28682,23.132999,0.0 120.286176,23.133171,0.0 120.285788,23.133241,0.0 120.285598,23.133228,0.0 120.284743,23.133126,0.0 120.283972,23.13301,0.0 120.28084,23.132549,0.0 120.278146,23.132162,0.0 120.277565,23.132076,0.0 120.2737,23.13155,0.0 120.27354,23.130514,0.0 120.272724,23.1255,0.0 120.272549,23.124522,0.0 120.272664,23.124507,0.0 120.274279,23.124381,0.0 120.275648,23.124931,0.0 120.276062,23.125109,0.0 120.279387,23.127723,0.0 120.281785,23.12966,0.0 120.28374,23.131198,0.0 120.284837,23.132028,0.0 120.285017,23.131493,0.0 120.285086,23.131512,0.0 120.28517,23.131526,0.0 120.28523,23.131591,0.0 120.285386,23.131582,0.0 120.285597,23.131564,0.0 120.285774,23.131472,0.0 120.285908,23.131469,0.0 120.286235,23.131496,0.0 120.287114,23.131683,0.0 120.288028,23.131881,0.0 120.288118,23.131344,0.0 120.288722,23.131401,0.0 120.289373,23.131793,0.0 120.289405,23.132508,0.0 120.289406,23.132517,0.0</coordinates></LinearRing></outerBoundaryIs></Polygon><styleUrl>#spolygon-map</styleUrl></Placemark><Placemark><Polygon><outerBoundaryIs><LinearRing><coordinates>120.320644,23.132053,0.0 120.313092,23.134671,0.0 120.31299,23.134361,0.0 120.312354,23.132378,0.0 120.312063,23.131452,0.0 120.309259,23.132149,0.0 120.30921,23.131243,0.0 120.309229,23.130634,0.0 120.309317,23.130366,0.0 120.309362,23.130136,0.0 120.309356,23.129763,0.0 120.307254,23.130331,0.0 120.306228,23.1306,0.0 120.305844,23.128663,0.0 120.304934,23.123611,0.0 120.304237,23.119869,0.0 120.303834,23.117703,0.0 120.302485,23.110242,0.0 120.302042,23.107571,0.0 120.302269,23.107592,0.0 120.302587,23.107636,0.0 120.30279,23.107664,0.0 120.30324,23.107705,0.0 120.303677,23.107813,0.0 120.303986,23.107828,0.0 120.304484,23.10788,0.0 120.304764,23.108037,0.0 120.305204,23.10828,0.0 120.305709,23.108544,0.0 120.305814,23.108628,0.0 120.305996,23.10878,0.0 120.306134,23.109002,0.0 120.306181,23.109201,0.0 120.306352,23.109396,0.0 120.306934,23.109554,0.0 120.307288,23.109678,0.0 120.307581,23.109884,0.0 120.307777,23.110059,0.0 120.30808,23.11016,0.0 120.308583,23.110374,0.0 120.309333,23.110623,0.0 120.310095,23.110594,0.0 120.310555,23.110491,0.0 120.311366,23.110255,0.0 120.311872,23.110104,0.0 120.312561,23.110048,0.0 120.313,23.110012,0.0 120.313233,23.109968,0.0 120.313541,23.109956,0.0 120.313748,23.109886,0.0 120.314141,23.109518,0.0 120.314483,23.109273,0.0 120.314759,23.109173,0.0 120.315037,23.109188,0.0 120.315582,23.109091,0.0 120.316067,23.109014,0.0 120.316458,23.108964,0.0 120.316946,23.108821,0.0 120.317491,23.108618,0.0 120.318011,23.108453,0.0 120.318218,23.108418,0.0 120.31856,23.108332,0.0 120.318917,23.108265,0.0 120.319184,23.108181,0.0 120.319393,23.108064,0.0 120.319538,23.107916,0.0 120.31956,23.10774,0.0 120.319677,23.107571,0.0 120.319803,23.107524,0.0 120.320072,23.107523,0.0 120.320233,23.107492,0.0 120.320441,23.107369,0.0 120.320692,23.107212,0.0 120.320912,23.107163,0.0 120.321032,23.107279,0.0 120.3212,23.10763,0.0 120.321353,23.107951,0.0 120.321568,23.107934,0.0 120.321802,23.107698,0.0 120.322,23.107534,0.0 120.322209,23.107435,0.0 120.32258,23.107362,0.0 120.322794,23.10732,0.0 120.323112,23.107236,0.0 120.323495,23.107244,0.0 120.32385,23.107257,0.0 120.324006,23.10731,0.0 120.324234,23.1075,0.0 120.324529,23.107712,0.0 120.324745,23.107803,0.0 120.324962,23.107813,0.0 120.325003,23.107815,0.0 120.325098,23.107799,0.0 120.324966,23.109546,0.0 120.324807,23.111782,0.0 120.325177,23.115864,0.0 120.325234,23.116758,0.0 120.324971,23.120004,0.0 120.324975,23.120917,0.0 120.325176,23.124281,0.0 120.325261,23.12571,0.0 120.325249,23.126269,0.0 120.325105,23.126702,0.0 120.323933,23.128639,0.0 120.322956,23.130391,0.0 120.322951,23.131168,0.0 120.322906,23.131485,0.0 120.322173,23.131523,0.0 120.320644,23.132053,0.0</coordinates></LinearRing></outerBoundaryIs></Polygon><styleUrl>#spolygon-map</styleUrl></Placemark><Placemark><Polygon><outerBoundaryIs><LinearRing><coordinates>120.289406,23.132517,0.0 120.289928,23.13246,0.0 120.290223,23.133175,0.0 120.289904,23.133624,0.0 120.290217,23.134057,0.0 120.290076,23.134265,0.0 120.29019,23.135098,0.0 120.290122,23.13539,0.0 120.28994,23.13532,0.0 120.289845,23.135282,0.0 120.289443,23.134937,0.0 120.289036,23.134398,0.0 120.288913,23.134218,0.0 120.288799,23.134083,0.0 120.288559,23.13385,0.0 120.288412,23.133805,0.0 120.287703,23.13368,0.0 120.28709,23.133475,0.0 120.28678,23.133418,0.0 120.2859,23.133299,0.0 120.285788,23.133241,0.0 120.286176,23.133171,0.0 120.28682,23.132999,0.0 120.287187,23.132903,0.0 120.287791,23.132755,0.0 120.289015,23.132561,0.0 120.289406,23.132517,0.0</coordinates></LinearRing></outerBoundaryIs></Polygon><styleUrl>#spolygon-map</styleUrl></Placemark><Placemark><Polygon><outerBoundaryIs><LinearRing><coordinates>120.33718,23.13606,0.0 120.336208,23.136166,0.0 120.335729,23.136196,0.0 120.334467,23.136241,0.0 120.334235,23.136248,0.0 120.334071,23.13625,0.0 120.333904,23.136252,0.0 120.333052,23.136284,0.0 120.329609,23.136391,0.0 120.329629,23.137012,0.0 120.328441,23.137039,0.0 120.328004,23.13703,0.0 120.3278,23.137093,0.0 120.32731,23.137124,0.0 120.327023,23.137469,0.0 120.325798,23.137658,0.0 120.325768,23.137474,0.0 120.325682,23.137195,0.0 120.324952,23.137176,0.0 120.323372,23.137157,0.0 120.322673,23.137254,0.0 120.321214,23.137543,0.0 120.321286,23.136399,0.0 120.321252,23.135419,0.0 120.320169,23.135338,0.0 120.320327,23.133521,0.0 120.320644,23.132053,0.0 120.322474,23.131475,0.0 120.322991,23.131488,0.0 120.322913,23.130723,0.0 120.323112,23.13005,0.0 120.324657,23.127484,0.0 120.325193,23.126494,0.0 120.325272,23.125978,0.0 120.325246,23.125457,0.0 120.325048,23.122136,0.0 120.32495,23.120494,0.0 120.325041,23.11866,0.0 120.325258,23.116526,0.0 120.32503,23.114011,0.0 120.324809,23.111242,0.0 120.325097,23.108129,0.0 120.325098,23.107707,0.0 120.324876,23.106287,0.0 120.325462,23.106266,0.0 120.326464,23.106219,0.0 120.327372,23.106195,0.0 120.327829,23.106181,0.0 120.32891,23.106145,0.0 120.329558,23.106132,0.0 120.329679,23.106164,0.0 120.32973,23.106372,0.0 120.330148,23.106385,0.0 120.3302,23.106642,0.0 120.33113,23.106617,0.0 120.332861,23.106574,0.0 120.332832,23.106835,0.0 120.332593,23.107306,0.0 120.332411,23.107589,0.0 120.332365,23.107855,0.0 120.332369,23.10809,0.0 120.332338,23.108449,0.0 120.332324,23.108801,0.0 120.33233,23.109045,0.0 120.332399,23.109357,0.0 120.332459,23.109655,0.0 120.332462,23.110032,0.0 120.332393,23.110339,0.0 120.332347,23.110745,0.0 120.332365,23.111068,0.0 120.332336,23.111425,0.0 120.332194,23.111735,0.0 120.332071,23.112171,0.0 120.332248,23.112609,0.0 120.332406,23.112858,0.0 120.332661,23.113343,0.0 120.332802,23.113743,0.0 120.332649,23.114178,0.0 120.332402,23.114696,0.0 120.332266,23.115032,0.0 120.332318,23.115497,0.0 120.332323,23.115739,0.0 120.332272,23.116111,0.0 120.331904,23.116597,0.0 120.33155,23.117137,0.0 120.331392,23.117484,0.0 120.331235,23.118059,0.0 120.331106,23.118535,0.0 120.331137,23.119088,0.0 120.33127,23.119569,0.0 120.331315,23.119839,0.0 120.331364,23.120473,0.0 120.331398,23.12099,0.0 120.33151,23.121393,0.0 120.331905,23.121934,0.0 120.332055,23.122203,0.0 120.332052,23.12237,0.0 120.332045,23.122512,0.0 120.332178,23.122992,0.0 120.332344,23.123195,0.0 120.332417,23.123478,0.0 120.332618,23.12414,0.0 120.332878,23.125065,0.0 120.332965,23.125408,0.0 120.333081,23.125533,0.0 120.333193,23.125651,0.0 120.333331,23.125929,0.0 120.333385,23.12615,0.0 120.333518,23.12644,0.0 120.333677,23.12666,0.0 120.333834,23.126848,0.0 120.334068,23.127061,0.0 120.334174,23.127273,0.0 120.334212,23.127545,0.0 120.33437,23.12787,0.0 120.334566,23.128212,0.0 120.334581,23.128469,0.0 120.334588,23.128727,0.0 120.334753,23.129012,0.0 120.334833,23.129313,0.0 120.33484,23.129642,0.0 120.334841,23.130015,0.0 120.334785,23.130434,0.0 120.334835,23.130654,0.0 120.334955,23.131027,0.0 120.335135,23.131307,0.0 120.335363,23.131658,0.0 120.335501,23.131934,0.0 120.335551,23.132063,0.0 120.335758,23.13247,0.0 120.335963,23.132893,0.0 120.336184,23.133395,0.0 120.336181,23.133709,0.0 120.336047,23.134092,0.0 120.336053,23.13437,0.0 120.336159,23.134684,0.0 120.336354,23.13492,0.0 120.336642,23.135276,0.0 120.336959,23.135776,0.0 120.337177,23.136056,0.0 120.33718,23.13606,0.0</coordinates></LinearRing></outerBoundaryIs></Polygon><styleUrl>#spolygon-map</styleUrl></Placemark><Placemark><Polygon><outerBoundaryIs><LinearRing><coordinates>120.274877,23.138779,0.0 120.274601,23.137856,0.0 120.274311,23.136698,0.0 120.274074,23.1354,0.0 120.273712,23.133633,0.0 120.273597,23.133436,0.0 120.273346,23.133238,0.0 120.272874,23.132944,0.0 120.272792,23.132798,0.0 120.272817,23.132518,0.0 120.272923,23.131903,0.0 120.272809,23.131634,0.0 120.272694,23.131438,0.0 120.272964,23.131452,0.0 120.2737,23.13155,0.0 120.277565,23.132076,0.0 120.278146,23.132162,0.0 120.28084,23.132549,0.0 120.283972,23.13301,0.0 120.284743,23.133126,0.0 120.285598,23.133228,0.0 120.2859,23.133299,0.0 120.28678,23.133418,0.0 120.28709,23.133475,0.0 120.287703,23.13368,0.0 120.288412,23.133805,0.0 120.288559,23.13385,0.0 120.288799,23.134083,0.0 120.288913,23.134218,0.0 120.289036,23.134398,0.0 120.289443,23.134937,0.0 120.289845,23.135282,0.0 120.28994,23.13532,0.0 120.290122,23.13539,0.0 120.28998,23.135951,0.0 120.289675,23.136911,0.0 120.289639,23.138381,0.0 120.289353,23.138467,0.0 120.288945,23.138521,0.0 120.288321,23.138522,0.0 120.287629,23.138522,0.0 120.285367,23.138536,0.0 120.285307,23.138536,0.0 120.283212,23.13854,0.0 120.282982,23.13854,0.0 120.279565,23.138556,0.0 120.278445,23.138562,0.0 120.277364,23.138562,0.0 120.277224,23.138561,0.0 120.276505,23.13857,0.0 120.276162,23.138583,0.0 120.274926,23.138771,0.0 120.274877,23.138779,0.0</coordinates></LinearRing></outerBoundaryIs></Polygon><styleUrl>#spolygon-map</styleUrl></Placemark><Placemark><Polygon><outerBoundaryIs><LinearRing><coordinates>120.295089,23.140449,0.0 120.295029,23.140511,0.0 120.294555,23.140989,0.0 120.294092,23.141301,0.0 120.293631,23.141779,0.0 120.293384,23.142047,0.0 120.292918,23.142233,0.0 120.292747,23.142267,0.0 120.292594,23.142241,0.0 120.292462,23.142177,0.0 120.292214,23.142116,0.0 120.292159,23.14211,0.0 120.291719,23.142018,0.0 120.291528,23.142041,0.0 120.291225,23.142056,0.0 120.291102,23.141866,0.0 120.290945,23.141797,0.0 120.290793,23.14181,0.0 120.290709,23.141522,0.0 120.290492,23.141123,0.0 120.290222,23.140827,0.0 120.290025,23.140722,0.0 120.289868,23.140642,0.0 120.289641,23.140551,0.0 120.289557,23.14048,0.0 120.289489,23.140275,0.0 120.289428,23.139902,0.0 120.289484,23.139709,0.0 120.289536,23.139645,0.0 120.28958,23.139579,0.0 120.289709,23.139355,0.0 120.289785,23.139183,0.0 120.289849,23.138554,0.0 120.289688,23.138352,0.0 120.289687,23.136748,0.0 120.29011,23.135436,0.0 120.29019,23.135118,0.0 120.290182,23.13485,0.0 120.290089,23.134246,0.0 120.289824,23.13372,0.0 120.290081,23.133412,0.0 120.290272,23.133136,0.0 120.289418,23.132516,0.0 120.289405,23.132508,0.0 120.289373,23.131793,0.0 120.290441,23.13169,0.0 120.290458,23.131541,0.0 120.290776,23.130647,0.0 120.291016,23.130729,0.0 120.291592,23.13085,0.0 120.29178,23.130762,0.0 120.292227,23.130926,0.0 120.29342,23.131081,0.0 120.293724,23.1314,0.0 120.293894,23.13139,0.0 120.293869,23.13201,0.0 120.293848,23.132147,0.0 120.293773,23.132827,0.0 120.293728,23.133464,0.0 120.293625,23.134472,0.0 120.293504,23.135631,0.0 120.293422,23.136573,0.0 120.293432,23.136737,0.0 120.293479,23.136932,0.0 120.293638,23.137304,0.0 120.29396,23.138017,0.0 120.29409,23.138308,0.0 120.294409,23.13898,0.0 120.294962,23.140173,0.0 120.295089,23.140449,0.0</coordinates></LinearRing></outerBoundaryIs></Polygon><styleUrl>#spolygon-map</styleUrl></Placemark><Placemark><Polygon><outerBoundaryIs><LinearRing><coordinates>120.316003,23.148859,0.0 120.315226,23.148898,0.0 120.314989,23.148966,0.0 120.314772,23.149039,0.0 120.314242,23.148014,0.0 120.313681,23.146975,0.0 120.313453,23.146543,0.0 120.312883,23.145462,0.0 120.311791,23.143408,0.0 120.311405,23.142674,0.0 120.31103,23.141974,0.0 120.31027,23.140521,0.0 120.30952,23.13904,0.0 120.309064,23.138107,0.0 120.310126,23.138318,0.0 120.312023,23.138595,0.0 120.312601,23.138548,0.0 120.312899,23.13849,0.0 120.313974,23.13806,0.0 120.313601,23.136807,0.0 120.313496,23.136388,0.0 120.313323,23.135742,0.0 120.313092,23.134671,0.0 120.320644,23.132053,0.0 120.320327,23.133521,0.0 120.320169,23.135338,0.0 120.321252,23.135419,0.0 120.321286,23.136399,0.0 120.321214,23.137543,0.0 120.321068,23.138381,0.0 120.321963,23.138567,0.0 120.323116,23.13882,0.0 120.323297,23.138844,0.0 120.324035,23.140693,0.0 120.324433,23.141591,0.0 120.324663,23.141904,0.0 120.325181,23.142433,0.0 120.327286,23.144418,0.0 120.327049,23.144728,0.0 120.326664,23.145202,0.0 120.325678,23.146386,0.0 120.324878,23.147414,0.0 120.32411,23.148389,0.0 120.320577,23.148593,0.0 120.316322,23.148842,0.0 120.316003,23.148859,0.0</coordinates></LinearRing></outerBoundaryIs></Polygon><styleUrl>#spolygon-map</styleUrl></Placemark><Placemark><Polygon><outerBoundaryIs><LinearRing><coordinates>120.314782,23.149059,0.0 120.31222,23.150223,0.0 120.311854,23.15041,0.0 120.311637,23.150347,0.0 120.310056,23.149613,0.0 120.309947,23.149567,0.0 120.308048,23.148675,0.0 120.306143,23.147782,0.0 120.30396,23.146764,0.0 120.303564,23.147532,0.0 120.303522,23.147439,0.0 120.303515,23.147318,0.0 120.303481,23.14725,0.0 120.303407,23.147199,0.0 120.303162,23.147112,0.0 120.302865,23.147019,0.0 120.302671,23.146874,0.0 120.302368,23.146784,0.0 120.30173,23.146643,0.0 120.301341,23.146572,0.0 120.300887,23.146366,0.0 120.300806,23.146381,0.0 120.300668,23.146543,0.0 120.300484,23.146453,0.0 120.299931,23.146214,0.0 120.299466,23.145991,0.0 120.297189,23.144921,0.0 120.296883,23.144471,0.0 120.296855,23.144413,0.0 120.295855,23.142201,0.0 120.295521,23.141438,0.0 120.295291,23.140889,0.0 120.295107,23.140489,0.0 120.294962,23.140173,0.0 120.294409,23.13898,0.0 120.29409,23.138308,0.0 120.29396,23.138017,0.0 120.293638,23.137304,0.0 120.293479,23.136932,0.0 120.293432,23.136737,0.0 120.293422,23.136573,0.0 120.293504,23.135631,0.0 120.293625,23.134472,0.0 120.293728,23.133464,0.0 120.293773,23.132827,0.0 120.293848,23.132147,0.0 120.294392,23.132122,0.0 120.295423,23.132055,0.0 120.296025,23.132041,0.0 120.296557,23.132114,0.0 120.296743,23.13108,0.0 120.296929,23.12996,0.0 120.298321,23.129784,0.0 120.300224,23.130055,0.0 120.301584,23.130271,0.0 120.303378,23.130533,0.0 120.30491,23.13076,0.0 120.30524,23.130806,0.0 120.305372,23.130822,0.0 120.305444,23.130815,0.0 120.305661,23.130761,0.0 120.306206,23.130606,0.0 120.306879,23.130428,0.0 120.308698,23.129937,0.0 120.309371,23.129845,0.0 120.309348,23.130242,0.0 120.309271,23.130489,0.0 120.309216,23.130709,0.0 120.309213,23.131552,0.0 120.309269,23.132219,0.0 120.312188,23.131844,0.0 120.312873,23.133989,0.0 120.313067,23.13468,0.0 120.31343,23.136142,0.0 120.31357,23.136684,0.0 120.313808,23.137538,0.0 120.313264,23.138402,0.0 120.312694,23.138539,0.0 120.312339,23.138574,0.0 120.311466,23.138558,0.0 120.309102,23.138115,0.0 120.309351,23.138723,0.0 120.309986,23.139961,0.0 120.310454,23.140879,0.0 120.311385,23.142635,0.0 120.311728,23.143287,0.0 120.312051,23.143902,0.0 120.31312,23.145913,0.0 120.313675,23.146965,0.0 120.314124,23.147795,0.0 120.314575,23.148629,0.0 120.314782,23.149059,0.0</coordinates></LinearRing></outerBoundaryIs></Polygon><styleUrl>#spolygon-map</styleUrl></Placemark><Placemark><Polygon><outerBoundaryIs><LinearRing><coordinates>120.288321,23.138522,0.0 120.2883,23.138751,0.0 120.288334,23.139074,0.0 120.288335,23.139386,0.0 120.28828,23.1398,0.0 120.288077,23.139771,0.0 120.287196,23.141446,0.0 120.28542,23.145088,0.0 120.285069,23.145997,0.0 120.284047,23.14862,0.0 120.283545,23.149977,0.0 120.283022,23.150633,0.0 120.281923,23.150161,0.0 120.280708,23.151283,0.0 120.277105,23.149315,0.0 120.276896,23.149081,0.0 120.276742,23.148741,0.0 120.276662,23.148323,0.0 120.276532,23.147597,0.0 120.276233,23.146045,0.0 120.275714,23.143248,0.0 120.275499,23.142073,0.0 120.278267,23.138777,0.0 120.278814,23.138561,0.0 120.281055,23.13855,0.0 120.283043,23.13854,0.0 120.284537,23.13854,0.0 120.285336,23.138536,0.0 120.286415,23.138531,0.0 120.288209,23.138522,0.0 120.288321,23.138522,0.0</coordinates></LinearRing></outerBoundaryIs></Polygon><styleUrl>#spolygon-map</styleUrl></Placemark><Placemark><Polygon><outerBoundaryIs><LinearRing><coordinates>120.274877,23.138779,0.0 120.275201,23.141076,0.0 120.272857,23.140774,0.0 120.271669,23.14195,0.0 120.271471,23.142756,0.0 120.271402,23.143049,0.0 120.27139,23.14311,0.0 120.271254,23.143977,0.0 120.270272,23.145232,0.0 120.270132,23.145447,0.0 120.269721,23.145601,0.0 120.269372,23.145831,0.0 120.268812,23.146167,0.0 120.26879,23.146201,0.0 120.268427,23.146427,0.0 120.268249,23.146599,0.0 120.268007,23.146895,0.0 120.268499,23.147222,0.0 120.268468,23.147842,0.0 120.266176,23.149786,0.0 120.263828,23.150024,0.0 120.26254,23.150601,0.0 120.261952,23.150746,0.0 120.26193,23.150773,0.0 120.261917,23.150849,0.0 120.260686,23.151204,0.0 120.260705,23.150894,0.0 120.260957,23.148784,0.0 120.26106,23.148158,0.0 120.261102,23.147805,0.0 120.261205,23.146809,0.0 120.261397,23.145814,0.0 120.261395,23.145643,0.0 120.261172,23.144885,0.0 120.261201,23.144811,0.0 120.261963,23.143456,0.0 120.262789,23.142014,0.0 120.262786,23.141983,0.0 120.262419,23.14146,0.0 120.261929,23.140796,0.0 120.261269,23.139863,0.0 120.261015,23.139486,0.0 120.260846,23.139277,0.0 120.260203,23.138387,0.0 120.259459,23.137583,0.0 120.258949,23.137194,0.0 120.257354,23.136259,0.0 120.25656,23.13579,0.0 120.255881,23.135437,0.0 120.255408,23.13522,0.0 120.254878,23.135041,0.0 120.255107,23.132414,0.0 120.25568,23.132415,0.0 120.256036,23.132531,0.0 120.255834,23.131168,0.0 120.257271,23.131364,0.0 120.258322,23.13153,0.0 120.259629,23.130932,0.0 120.259692,23.130598,0.0 120.260036,23.130909,0.0 120.260817,23.130624,0.0 120.261014,23.130041,0.0 120.261015,23.130037,0.0 120.261613,23.12826,0.0 120.26226,23.126341,0.0 120.262565,23.125426,0.0 120.262863,23.12451,0.0 120.262888,23.124491,0.0 120.264765,23.125035,0.0 120.264856,23.125062,0.0 120.265461,23.123264,0.0 120.265855,23.122096,0.0 120.266034,23.121568,0.0 120.266095,23.121398,0.0 120.266318,23.121451,0.0 120.266657,23.121583,0.0 120.267207,23.121825,0.0 120.267806,23.122092,0.0 120.268429,23.122372,0.0 120.269043,23.122648,0.0 120.269162,23.122655,0.0 120.269532,23.123259,0.0 120.269775,23.123645,0.0 120.269829,23.123815,0.0 120.269885,23.124197,0.0 120.270015,23.124432,0.0 120.270179,23.124614,0.0 120.270394,23.124731,0.0 120.270845,23.124823,0.0 120.271839,23.124924,0.0 120.272626,23.124933,0.0 120.273493,23.129964,0.0 120.273626,23.13154,0.0 120.272681,23.131397,0.0 120.272731,23.131502,0.0 120.272887,23.131732,0.0 120.272915,23.131986,0.0 120.272776,23.132743,0.0 120.272839,23.132902,0.0 120.272969,23.132998,0.0 120.273497,23.133343,0.0 120.273672,23.133539,0.0 120.273774,23.133905,0.0 120.274224,23.136244,0.0 120.274391,23.136959,0.0 120.274784,23.138794,0.0 120.274877,23.138779,0.0</coordinates></LinearRing></outerBoundaryIs></Polygon><styleUrl>#spolygon-map</styleUrl></Placemark><Placemark><Polygon><outerBoundaryIs><LinearRing><coordinates>120.316003,23.148859,0.0 120.316005,23.148964,0.0 120.316377,23.15091,0.0 120.316612,23.152152,0.0 120.31663,23.152445,0.0 120.316599,23.152549,0.0 120.316753,23.15283,0.0 120.316651,23.152866,0.0 120.315756,23.152824,0.0 120.315417,23.152803,0.0 120.315391,23.152963,0.0 120.315331,23.153042,0.0 120.315121,23.153106,0.0 120.314827,23.153174,0.0 120.314729,23.153234,0.0 120.314702,23.153371,0.0 120.314662,23.1535,0.0 120.31458,23.153571,0.0 120.313713,23.153826,0.0 120.313183,23.153932,0.0 120.313045,23.153976,0.0 120.312596,23.15425,0.0 120.312304,23.154492,0.0 120.311896,23.154888,0.0 120.311782,23.155478,0.0 120.311779,23.15569,0.0 120.311175,23.155926,0.0 120.311076,23.15592,0.0 120.309932,23.155848,0.0 120.308723,23.15577,0.0 120.306942,23.155677,0.0 120.306347,23.155644,0.0 120.306017,23.155606,0.0 120.305824,23.155544,0.0 120.305308,23.155285,0.0 120.30459,23.154921,0.0 120.303911,23.154552,0.0 120.303165,23.154161,0.0 120.302157,23.153661,0.0 120.301463,23.153295,0.0 120.301064,23.153088,0.0 120.300757,23.152932,0.0 120.300171,23.152629,0.0 120.300058,23.15258,0.0 120.300031,23.152395,0.0 120.300062,23.152194,0.0 120.300172,23.151712,0.0 120.300126,23.151589,0.0 120.299615,23.150478,0.0 120.299171,23.149526,0.0 120.298528,23.148029,0.0 120.298176,23.147261,0.0 120.29751,23.14581,0.0 120.297082,23.14488,0.0 120.299412,23.145959,0.0 120.299553,23.14604,0.0 120.30032,23.14637,0.0 120.300636,23.146535,0.0 120.300704,23.146529,0.0 120.300838,23.146361,0.0 120.301274,23.146548,0.0 120.301489,23.146596,0.0 120.302099,23.146705,0.0 120.302617,23.146846,0.0 120.302789,23.146973,0.0 120.30298,23.147068,0.0 120.303361,23.147176,0.0 120.303435,23.14722,0.0 120.303501,23.14728,0.0 120.303521,23.147361,0.0 120.303528,23.147478,0.0 120.303692,23.147271,0.0 120.305102,23.147294,0.0 120.307329,23.148343,0.0 120.30914,23.149177,0.0 120.309981,23.149581,0.0 120.310843,23.149993,0.0 120.311824,23.150431,0.0 120.312041,23.150305,0.0 120.312467,23.150103,0.0 120.314989,23.148966,0.0 120.315226,23.148898,0.0 120.316003,23.148859,0.0</coordinates></LinearRing></outerBoundaryIs></Polygon><styleUrl>#spolygon-map</styleUrl></Placemark><Placemark><Polygon><outerBoundaryIs><LinearRing><coordinates>120.345464,23.151443,0.0 120.344425,23.152346,0.0 120.343505,23.153066,0.0 120.342042,23.154028,0.0 120.340324,23.154863,0.0 120.339166,23.155484,0.0 120.33886,23.155704,0.0 120.33846,23.156023,0.0 120.337114,23.154316,0.0 120.336393,23.153209,0.0 120.335733,23.152331,0.0 120.333908,23.150497,0.0 120.332496,23.149202,0.0 120.33166,23.148427,0.0 120.330525,23.147382,0.0 120.328805,23.145789,0.0 120.327295,23.144405,0.0 120.324874,23.142138,0.0 120.324491,23.141682,0.0 120.324324,23.141379,0.0 120.323687,23.139806,0.0 120.323269,23.13884,0.0 120.322641,23.138716,0.0 120.321395,23.138449,0.0 120.321212,23.137556,0.0 120.323265,23.137155,0.0 120.324772,23.137181,0.0 120.325669,23.137159,0.0 120.325757,23.137401,0.0 120.325792,23.137629,0.0 120.327016,23.13747,0.0 120.327313,23.13746,0.0 120.327686,23.137117,0.0 120.32788,23.137072,0.0 120.328091,23.137022,0.0 120.328504,23.137042,0.0 120.32961,23.136437,0.0 120.329868,23.136383,0.0 120.333704,23.136261,0.0 120.333993,23.136251,0.0 120.334154,23.13625,0.0 120.334436,23.136242,0.0 120.335322,23.136207,0.0 120.336064,23.136182,0.0 120.336282,23.136158,0.0 120.337195,23.136079,0.0 120.337344,23.136227,0.0 120.337613,23.136386,0.0 120.338042,23.136604,0.0 120.338404,23.136712,0.0 120.338902,23.136855,0.0 120.339176,23.137263,0.0 120.340251,23.138058,0.0 120.342532,23.139649,0.0 120.345034,23.140831,0.0 120.346316,23.141623,0.0 120.347347,23.142473,0.0 120.347653,23.142932,0.0 120.347656,23.143355,0.0 120.347452,23.143896,0.0 120.347471,23.144381,0.0 120.34759,23.145131,0.0 120.347596,23.146076,0.0 120.347612,23.147544,0.0 120.347469,23.148443,0.0 120.346807,23.149603,0.0 120.345904,23.150885,0.0 120.345464,23.151443,0.0</coordinates></LinearRing></outerBoundaryIs></Polygon><styleUrl>#spolygon-map</styleUrl></Placemark><Placemark><Polygon><outerBoundaryIs><LinearRing><coordinates>120.277105,23.149315,0.0 120.27636,23.150014,0.0 120.274866,23.151368,0.0 120.274731,23.151475,0.0 120.274337,23.151423,0.0 120.272344,23.153056,0.0 120.272267,23.153851,0.0 120.272069,23.154578,0.0 120.271894,23.155002,0.0 120.270585,23.157053,0.0 120.270394,23.158101,0.0 120.270336,23.158141,0.0 120.268484,23.158087,0.0 120.266286,23.158036,0.0 120.264143,23.157957,0.0 120.264024,23.157574,0.0 120.263827,23.157008,0.0 120.26367,23.156355,0.0 120.263458,23.155435,0.0 120.263428,23.154952,0.0 120.263445,23.154575,0.0 120.263551,23.154178,0.0 120.263159,23.154113,0.0 120.262469,23.154031,0.0 120.262385,23.15401,0.0 120.262152,23.153946,0.0 120.260547,23.153577,0.0 120.260686,23.151204,0.0 120.261917,23.150849,0.0 120.26193,23.150773,0.0 120.261952,23.150746,0.0 120.26254,23.150601,0.0 120.263828,23.150024,0.0 120.266176,23.149786,0.0 120.268468,23.147842,0.0 120.268499,23.147222,0.0 120.268007,23.146895,0.0 120.268249,23.146599,0.0 120.268427,23.146427,0.0 120.26879,23.146201,0.0 120.268812,23.146167,0.0 120.269372,23.145831,0.0 120.269721,23.145601,0.0 120.270132,23.145447,0.0 120.270272,23.145232,0.0 120.271254,23.143977,0.0 120.27139,23.14311,0.0 120.271402,23.143049,0.0 120.271471,23.142756,0.0 120.271669,23.14195,0.0 120.272857,23.140774,0.0 120.275201,23.141076,0.0 120.274877,23.138779,0.0 120.27522,23.138722,0.0 120.276272,23.138574,0.0 120.276975,23.13856,0.0 120.277313,23.138562,0.0 120.277907,23.138564,0.0 120.278267,23.138777,0.0 120.275499,23.142073,0.0 120.275714,23.143248,0.0 120.276233,23.146045,0.0 120.276532,23.147597,0.0 120.276662,23.148323,0.0 120.276742,23.148741,0.0 120.276896,23.149081,0.0 120.277105,23.149315,0.0</coordinates></LinearRing></outerBoundaryIs></Polygon><styleUrl>#spolygon-map</styleUrl></Placemark><Placemark><Polygon><outerBoundaryIs><LinearRing><coordinates>120.338285,23.156136,0.0 120.338181,23.156203,0.0 120.337499,23.156597,0.0 120.336876,23.156922,0.0 120.336043,23.1573,0.0 120.335704,23.157481,0.0 120.335104,23.157831,0.0 120.33449,23.158255,0.0 120.333926,23.158666,0.0 120.333084,23.159143,0.0 120.332802,23.159178,0.0 120.332028,23.159389,0.0 120.331442,23.159585,0.0 120.331142,23.159819,0.0 120.330733,23.160271,0.0 120.330504,23.160559,0.0 120.329931,23.161046,0.0 120.329332,23.161493,0.0 120.32896,23.161776,0.0 120.328458,23.162198,0.0 120.327979,23.162542,0.0 120.327311,23.163076,0.0 120.326677,23.163559,0.0 120.326062,23.164032,0.0 120.325059,23.164782,0.0 120.324713,23.165054,0.0 120.323753,23.165752,0.0 120.323224,23.166187,0.0 120.322504,23.166738,0.0 120.322356,23.166865,0.0 120.322112,23.166454,0.0 120.322184,23.166206,0.0 120.322271,23.165828,0.0 120.321601,23.164298,0.0 120.321958,23.16414,0.0 120.321658,23.162593,0.0 120.321533,23.161951,0.0 120.32132,23.16094,0.0 120.321217,23.160477,0.0 120.321112,23.159973,0.0 120.321018,23.159405,0.0 120.320971,23.159409,0.0 120.31981,23.159619,0.0 120.319808,23.158057,0.0 120.319586,23.157387,0.0 120.31935,23.157413,0.0 120.319033,23.157389,0.0 120.318694,23.157351,0.0 120.318327,23.157334,0.0 120.317717,23.15723,0.0 120.317428,23.157205,0.0 120.317099,23.156836,0.0 120.317107,23.156529,0.0 120.317078,23.156364,0.0 120.317036,23.156221,0.0 120.316981,23.155349,0.0 120.316888,23.154012,0.0 120.316848,23.153368,0.0 120.316822,23.153038,0.0 120.317032,23.153017,0.0 120.317255,23.153049,0.0 120.317342,23.153052,0.0 120.317558,23.153018,0.0 120.318026,23.153019,0.0 120.318206,23.152963,0.0 120.318337,23.152921,0.0 120.31837,23.152917,0.0 120.318507,23.152925,0.0 120.318543,23.152929,0.0 120.318661,23.152962,0.0 120.318994,23.153115,0.0 120.319191,23.153223,0.0 120.319224,23.153235,0.0 120.319299,23.153242,0.0 120.319426,23.153214,0.0 120.319566,23.153174,0.0 120.319785,23.15302,0.0 120.319949,23.152934,0.0 120.319979,23.15293,0.0 120.320095,23.152954,0.0 120.320185,23.152984,0.0 120.320418,23.152985,0.0 120.320535,23.152896,0.0 120.320829,23.152506,0.0 120.321325,23.151897,0.0 120.321702,23.151435,0.0 120.322593,23.150296,0.0 120.323452,23.149201,0.0 120.324466,23.147949,0.0 120.325241,23.146912,0.0 120.326506,23.14539,0.0 120.326853,23.144968,0.0 120.327227,23.14451,0.0 120.327295,23.144405,0.0 120.328805,23.145789,0.0 120.330525,23.147382,0.0 120.33166,23.148427,0.0 120.332496,23.149202,0.0 120.333908,23.150497,0.0 120.335733,23.152331,0.0 120.336393,23.153209,0.0 120.337114,23.154316,0.0 120.338285,23.156136,0.0</coordinates></LinearRing></outerBoundaryIs></Polygon><styleUrl>#spolygon-map</styleUrl></Placemark><Placemark><Polygon><outerBoundaryIs><LinearRing><coordinates>120.290793,23.14181,0.0 120.290352,23.142061,0.0 120.290005,23.142283,0.0 120.289616,23.142375,0.0 120.289405,23.142522,0.0 120.289255,23.142686,0.0 120.289019,23.142869,0.0 120.28895,23.143345,0.0 120.289092,23.144698,0.0 120.289059,23.145164,0.0 120.288886,23.14555,0.0 120.288948,23.146121,0.0 120.289182,23.14752,0.0 120.289459,23.148181,0.0 120.289572,23.148485,0.0 120.290328,23.149536,0.0 120.290495,23.150488,0.0 120.290837,23.151743,0.0 120.291423,23.151786,0.0 120.292272,23.151762,0.0 120.292289,23.152434,0.0 120.292329,23.152569,0.0 120.292557,23.152981,0.0 120.29273,23.153208,0.0 120.292851,23.153306,0.0 120.293224,23.153837,0.0 120.293349,23.153947,0.0 120.293596,23.154086,0.0 120.293742,23.154135,0.0 120.295054,23.154208,0.0 120.29518,23.154194,0.0 120.295322,23.154149,0.0 120.295391,23.154152,0.0 120.295467,23.154207,0.0 120.29549,23.154288,0.0 120.295477,23.154383,0.0 120.295142,23.154747,0.0 120.291855,23.156199,0.0 120.292052,23.156606,0.0 120.291824,23.156779,0.0 120.291763,23.156896,0.0 120.291662,23.157095,0.0 120.291386,23.157663,0.0 120.291126,23.158181,0.0 120.291058,23.158385,0.0 120.290796,23.158917,0.0 120.290096,23.160366,0.0 120.289337,23.160055,0.0 120.288936,23.159866,0.0 120.2887,23.159586,0.0 120.288326,23.158857,0.0 120.287658,23.157963,0.0 120.287347,23.157748,0.0 120.286565,23.15738,0.0 120.285647,23.157293,0.0 120.28481,23.15705,0.0 120.283902,23.156964,0.0 120.283586,23.156992,0.0 120.283062,23.157166,0.0 120.282804,23.157185,0.0 120.281954,23.157176,0.0 120.279257,23.158802,0.0 120.275822,23.160989,0.0 120.275095,23.161464,0.0 120.270498,23.164436,0.0 120.26826,23.165848,0.0 120.267543,23.166333,0.0 120.266641,23.166971,0.0 120.2653,23.167936,0.0 120.265179,23.167489,0.0 120.265049,23.16676,0.0 120.265025,23.165784,0.0 120.265016,23.165315,0.0 120.264946,23.164983,0.0 120.264765,23.164435,0.0 120.264596,23.164012,0.0 120.264176,23.163214,0.0 120.263906,23.162271,0.0 120.26357,23.160926,0.0 120.263545,23.160775,0.0 120.263787,23.160022,0.0 120.263985,23.159443,0.0 120.264218,23.158796,0.0 120.264248,23.158518,0.0 120.264143,23.157957,0.0 120.266286,23.158036,0.0 120.268484,23.158087,0.0 120.270336,23.158141,0.0 120.270394,23.158101,0.0 120.270585,23.157053,0.0 120.271894,23.155002,0.0 120.272069,23.154578,0.0 120.272267,23.153851,0.0 120.272344,23.153056,0.0 120.274337,23.151423,0.0 120.274731,23.151475,0.0 120.274866,23.151368,0.0 120.27636,23.150014,0.0 120.277105,23.149315,0.0 120.280708,23.151283,0.0 120.281923,23.150161,0.0 120.283022,23.150633,0.0 120.283545,23.149977,0.0 120.284047,23.14862,0.0 120.285069,23.145997,0.0 120.28542,23.145088,0.0 120.287196,23.141446,0.0 120.288077,23.139771,0.0 120.28828,23.1398,0.0 120.288335,23.139386,0.0 120.288334,23.139074,0.0 120.2883,23.138751,0.0 120.288321,23.138522,0.0 120.288945,23.138521,0.0 120.289353,23.138467,0.0 120.289639,23.138381,0.0 120.289831,23.138272,0.0 120.289799,23.138996,0.0 120.289762,23.139256,0.0 120.289619,23.139521,0.0 120.289539,23.139641,0.0 120.289535,23.139647,0.0 120.289417,23.1398,0.0 120.289454,23.140142,0.0 120.28952,23.140398,0.0 120.289587,23.140511,0.0 120.289756,23.140598,0.0 120.28995,23.140684,0.0 120.290169,23.140791,0.0 120.290386,23.140977,0.0 120.290648,23.14139,0.0 120.290729,23.141589,0.0 120.290793,23.14181,0.0</coordinates></LinearRing></outerBoundaryIs></Polygon><styleUrl>#spolygon-map</styleUrl></Placemark><Placemark><Polygon><outerBoundaryIs><LinearRing><coordinates>120.308762,23.172556,0.0 120.30863,23.17277,0.0 120.308546,23.172958,0.0 120.308106,23.172098,0.0 120.307791,23.170641,0.0 120.307734,23.17031,0.0 120.307696,23.170153,0.0 120.307702,23.170127,0.0 120.307661,23.169909,0.0 120.307602,23.16952,0.0 120.307302,23.16715,0.0 120.306922,23.166161,0.0 120.306892,23.166018,0.0 120.307118,23.165153,0.0 120.307564,23.163334,0.0 120.30784,23.162282,0.0 120.308206,23.161522,0.0 120.308427,23.161138,0.0 120.308971,23.160212,0.0 120.309078,23.160054,0.0 120.309441,23.15944,0.0 120.310283,23.159673,0.0 120.310528,23.159682,0.0 120.310632,23.15964,0.0 120.310819,23.159457,0.0 120.311044,23.156788,0.0 120.311123,23.155923,0.0 120.311767,23.155967,0.0 120.311775,23.15554,0.0 120.31183,23.15526,0.0 120.311989,23.154804,0.0 120.312382,23.154421,0.0 120.312844,23.154106,0.0 120.313132,23.153927,0.0 120.31328,23.153926,0.0 120.314253,23.153641,0.0 120.314623,23.15355,0.0 120.314682,23.153445,0.0 120.314706,23.153268,0.0 120.314774,23.153202,0.0 120.314931,23.153148,0.0 120.315201,23.153092,0.0 120.31537,23.153003,0.0 120.31541,23.152903,0.0 120.315519,23.152811,0.0 120.316591,23.152872,0.0 120.316741,23.152835,0.0 120.316723,23.152775,0.0 120.316629,23.152453,0.0 120.31664,23.152385,0.0 120.316535,23.151745,0.0 120.316166,23.149842,0.0 120.316002,23.148909,0.0 120.316322,23.148842,0.0 120.320577,23.148593,0.0 120.32411,23.148389,0.0 120.32327,23.14943,0.0 120.322475,23.150447,0.0 120.321383,23.151826,0.0 120.320937,23.152373,0.0 120.320729,23.152638,0.0 120.320463,23.152985,0.0 120.320308,23.152985,0.0 120.320101,23.152956,0.0 120.320012,23.152935,0.0 120.319974,23.152931,0.0 120.319876,23.152962,0.0 120.319592,23.153161,0.0 120.319487,23.1532,0.0 120.319367,23.153227,0.0 120.319264,23.153242,0.0 120.31922,23.153234,0.0 120.319084,23.153159,0.0 120.318884,23.153061,0.0 120.318575,23.152938,0.0 120.318515,23.152926,0.0 120.318406,23.152913,0.0 120.318353,23.152919,0.0 120.318255,23.152944,0.0 120.318087,23.153012,0.0 120.317635,23.153014,0.0 120.317521,23.15302,0.0 120.317303,23.153054,0.0 120.317118,23.153024,0.0 120.31682,23.153027,0.0 120.316831,23.153098,0.0 120.316861,23.153573,0.0 120.31691,23.15433,0.0 120.317017,23.156068,0.0 120.317063,23.156314,0.0 120.317098,23.15643,0.0 120.317101,23.156757,0.0 120.31709,23.157184,0.0 120.317627,23.157209,0.0 120.318074,23.157303,0.0 120.31844,23.157338,0.0 120.318898,23.157369,0.0 120.319062,23.157391,0.0 120.319456,23.157395,0.0 120.319473,23.158032,0.0 120.319944,23.15807,0.0 120.320179,23.159553,0.0 120.320991,23.159406,0.0 120.321033,23.159427,0.0 120.321152,23.160144,0.0 120.321274,23.160744,0.0 120.321414,23.16134,0.0 120.321633,23.162465,0.0 120.321882,23.16375,0.0 120.321954,23.164141,0.0 120.321544,23.16439,0.0 120.32234,23.165998,0.0 120.322113,23.166323,0.0 120.322308,23.166794,0.0 120.322283,23.166928,0.0 120.321586,23.167476,0.0 120.321165,23.167761,0.0 120.320847,23.168024,0.0 120.32018,23.168527,0.0 120.319718,23.168739,0.0 120.318928,23.168993,0.0 120.31806,23.169335,0.0 120.317578,23.169488,0.0 120.316738,23.169783,0.0 120.315715,23.170149,0.0 120.315086,23.170374,0.0 120.313795,23.170822,0.0 120.312757,23.171183,0.0 120.3118,23.171502,0.0 120.311129,23.171709,0.0 120.310568,23.171937,0.0 120.309843,23.17217,0.0 120.309028,23.172474,0.0 120.308762,23.172556,0.0</coordinates></LinearRing></outerBoundaryIs></Polygon><styleUrl>#spolygon-map</styleUrl></Placemark><Placemark><Polygon><outerBoundaryIs><LinearRing><coordinates>120.300058,23.15258,0.0 120.299606,23.152366,0.0 120.299256,23.152193,0.0 120.2986,23.151938,0.0 120.298596,23.151982,0.0 120.298637,23.152797,0.0 120.29865,23.152878,0.0 120.298641,23.15299,0.0 120.298375,23.153777,0.0 120.298321,23.153901,0.0 120.298031,23.154388,0.0 120.297789,23.154738,0.0 120.297984,23.154936,0.0 120.298218,23.15509,0.0 120.298731,23.155421,0.0 120.299021,23.155564,0.0 120.299389,23.155667,0.0 120.300362,23.155939,0.0 120.299964,23.157216,0.0 120.299882,23.157397,0.0 120.299625,23.158162,0.0 120.299409,23.15861,0.0 120.299283,23.158869,0.0 120.299066,23.159375,0.0 120.299054,23.159584,0.0 120.299081,23.159683,0.0 120.299078,23.159772,0.0 120.298874,23.160503,0.0 120.298531,23.161769,0.0 120.298149,23.163142,0.0 120.297882,23.164144,0.0 120.297771,23.164576,0.0 120.297587,23.165001,0.0 120.29702,23.166278,0.0 120.296384,23.16765,0.0 120.295721,23.169106,0.0 120.295439,23.169692,0.0 120.295331,23.1699,0.0 120.295034,23.170488,0.0 120.294972,23.170627,0.0 120.294867,23.170846,0.0 120.294753,23.171211,0.0 120.29468,23.171392,0.0 120.294644,23.171522,0.0 120.29464,23.171666,0.0 120.294668,23.172307,0.0 120.294714,23.173286,0.0 120.294716,23.173539,0.0 120.294698,23.173776,0.0 120.294713,23.173892,0.0 120.294793,23.1741,0.0 120.294809,23.174168,0.0 120.294853,23.174807,0.0 120.294907,23.17544,0.0 120.294717,23.175556,0.0 120.294798,23.176405,0.0 120.290091,23.17621,0.0 120.289656,23.176127,0.0 120.288719,23.176123,0.0 120.287958,23.175837,0.0 120.285691,23.17629,0.0 120.283175,23.175444,0.0 120.280186,23.174891,0.0 120.278949,23.174568,0.0 120.277905,23.174201,0.0 120.275354,23.173575,0.0 120.274073,23.173272,0.0 120.273239,23.172837,0.0 120.273133,23.172805,0.0 120.272782,23.172644,0.0 120.272707,23.172635,0.0 120.272626,23.172659,0.0 120.272584,23.172706,0.0 120.272558,23.172813,0.0 120.272519,23.173027,0.0 120.272464,23.173208,0.0 120.272416,23.173305,0.0 120.272396,23.173358,0.0 120.271827,23.173212,0.0 120.270066,23.172611,0.0 120.269372,23.172558,0.0 120.268731,23.172457,0.0 120.267735,23.171794,0.0 120.267396,23.17138,0.0 120.267203,23.171202,0.0 120.267028,23.171018,0.0 120.266695,23.170641,0.0 120.266324,23.170041,0.0 120.265901,23.169256,0.0 120.265674,23.16881,0.0 120.265384,23.16817,0.0 120.266641,23.166971,0.0 120.267543,23.166333,0.0 120.26826,23.165848,0.0 120.270498,23.164436,0.0 120.275095,23.161464,0.0 120.275822,23.160989,0.0 120.279257,23.158802,0.0 120.281954,23.157176,0.0 120.282804,23.157185,0.0 120.283062,23.157166,0.0 120.283586,23.156992,0.0 120.283902,23.156964,0.0 120.28481,23.15705,0.0 120.285647,23.157293,0.0 120.286565,23.15738,0.0 120.287347,23.157748,0.0 120.287658,23.157963,0.0 120.288326,23.158857,0.0 120.2887,23.159586,0.0 120.288936,23.159866,0.0 120.289337,23.160055,0.0 120.290096,23.160366,0.0 120.290796,23.158917,0.0 120.291058,23.158385,0.0 120.291126,23.158181,0.0 120.291386,23.157663,0.0 120.291662,23.157095,0.0 120.291763,23.156896,0.0 120.291824,23.156779,0.0 120.292052,23.156606,0.0 120.291855,23.156199,0.0 120.295142,23.154747,0.0 120.295477,23.154383,0.0 120.29549,23.154288,0.0 120.295467,23.154207,0.0 120.295391,23.154152,0.0 120.295322,23.154149,0.0 120.29518,23.154194,0.0 120.295054,23.154208,0.0 120.293742,23.154135,0.0 120.293596,23.154086,0.0 120.293349,23.153947,0.0 120.293224,23.153837,0.0 120.292851,23.153306,0.0 120.29273,23.153208,0.0 120.292557,23.152981,0.0 120.292329,23.152569,0.0 120.292289,23.152434,0.0 120.292272,23.151762,0.0 120.291423,23.151786,0.0 120.290837,23.151743,0.0 120.290495,23.150488,0.0 120.290328,23.149536,0.0 120.289572,23.148485,0.0 120.289459,23.148181,0.0 120.289182,23.14752,0.0 120.288948,23.146121,0.0 120.288886,23.14555,0.0 120.289059,23.145164,0.0 120.289092,23.144698,0.0 120.28895,23.143345,0.0 120.289019,23.142869,0.0 120.289255,23.142686,0.0 120.289405,23.142522,0.0 120.289616,23.142375,0.0 120.290005,23.142283,0.0 120.290352,23.142061,0.0 120.290793,23.14181,0.0 120.290945,23.141797,0.0 120.291102,23.141866,0.0 120.291225,23.142056,0.0 120.291528,23.142041,0.0 120.291719,23.142018,0.0 120.292159,23.14211,0.0 120.292214,23.142116,0.0 120.292462,23.142177,0.0 120.292594,23.142241,0.0 120.292747,23.142267,0.0 120.292918,23.142233,0.0 120.293384,23.142047,0.0 120.293631,23.141779,0.0 120.294092,23.141301,0.0 120.294555,23.140989,0.0 120.295029,23.140511,0.0 120.295089,23.140449,0.0 120.295141,23.140562,0.0 120.295471,23.141319,0.0 120.295762,23.141979,0.0 120.296319,23.143227,0.0 120.296877,23.144459,0.0 120.297082,23.14488,0.0 120.29751,23.14581,0.0 120.298176,23.147261,0.0 120.298528,23.148029,0.0 120.299171,23.149526,0.0 120.299615,23.150478,0.0 120.300126,23.151589,0.0 120.300172,23.151712,0.0 120.300062,23.152194,0.0 120.300031,23.152395,0.0 120.300058,23.15258,0.0</coordinates></LinearRing></outerBoundaryIs></Polygon><styleUrl>#spolygon-map</styleUrl></Placemark><Placemark><Polygon><outerBoundaryIs><LinearRing><coordinates>120.308546,23.172958,0.0 120.308372,23.173379,0.0 120.308189,23.173531,0.0 120.308038,23.173594,0.0 120.307871,23.173715,0.0 120.307578,23.174064,0.0 120.30731,23.174336,0.0 120.307108,23.174612,0.0 120.306575,23.174931,0.0 120.306062,23.175113,0.0 120.304948,23.175393,0.0 120.304591,23.175454,0.0 120.303119,23.175701,0.0 120.302076,23.175881,0.0 120.301202,23.176036,0.0 120.299927,23.176258,0.0 120.299098,23.176365,0.0 120.298466,23.176389,0.0 120.297292,23.176447,0.0 120.295616,23.176435,0.0 120.294988,23.176415,0.0 120.294798,23.176405,0.0 120.294717,23.175556,0.0 120.294907,23.17544,0.0 120.294853,23.174807,0.0 120.294809,23.174168,0.0 120.294793,23.1741,0.0 120.294713,23.173892,0.0 120.294698,23.173776,0.0 120.294716,23.173539,0.0 120.294714,23.173286,0.0 120.294668,23.172307,0.0 120.29464,23.171666,0.0 120.294644,23.171522,0.0 120.29468,23.171392,0.0 120.294753,23.171211,0.0 120.294867,23.170846,0.0 120.294972,23.170627,0.0 120.295034,23.170488,0.0 120.295331,23.1699,0.0 120.295439,23.169692,0.0 120.295721,23.169106,0.0 120.296384,23.16765,0.0 120.29702,23.166278,0.0 120.297587,23.165001,0.0 120.297771,23.164576,0.0 120.297882,23.164144,0.0 120.298149,23.163142,0.0 120.298531,23.161769,0.0 120.298874,23.160503,0.0 120.299078,23.159772,0.0 120.299081,23.159683,0.0 120.299054,23.159584,0.0 120.299066,23.159375,0.0 120.299283,23.158869,0.0 120.299409,23.15861,0.0 120.299625,23.158162,0.0 120.299882,23.157397,0.0 120.299964,23.157216,0.0 120.300362,23.155939,0.0 120.299389,23.155667,0.0 120.299021,23.155564,0.0 120.298731,23.155421,0.0 120.298218,23.15509,0.0 120.297984,23.154936,0.0 120.297789,23.154738,0.0 120.298031,23.154388,0.0 120.298321,23.153901,0.0 120.298375,23.153777,0.0 120.298641,23.15299,0.0 120.29865,23.152878,0.0 120.298637,23.152797,0.0 120.298596,23.151982,0.0 120.2986,23.151938,0.0 120.299256,23.152193,0.0 120.299606,23.152366,0.0 120.300058,23.15258,0.0 120.300171,23.152629,0.0 120.300757,23.152932,0.0 120.301064,23.153088,0.0 120.301463,23.153295,0.0 120.302157,23.153661,0.0 120.303165,23.154161,0.0 120.303911,23.154552,0.0 120.30459,23.154921,0.0 120.305308,23.155285,0.0 120.305824,23.155544,0.0 120.306017,23.155606,0.0 120.306347,23.155644,0.0 120.306942,23.155677,0.0 120.308723,23.15577,0.0 120.309932,23.155848,0.0 120.311076,23.15592,0.0 120.310895,23.158758,0.0 120.310706,23.159589,0.0 120.310584,23.159673,0.0 120.310454,23.159693,0.0 120.310044,23.159623,0.0 120.309385,23.159535,0.0 120.309012,23.160152,0.0 120.308701,23.160667,0.0 120.308325,23.161317,0.0 120.307935,23.161982,0.0 120.307703,23.162786,0.0 120.307339,23.164252,0.0 120.306903,23.165974,0.0 120.306888,23.166074,0.0 120.307225,23.166949,0.0 120.307364,23.167304,0.0 120.30762,23.169638,0.0 120.30774,23.170053,0.0 120.3077,23.170139,0.0 120.307699,23.170214,0.0 120.30776,23.170393,0.0 120.307794,23.170652,0.0 120.308209,23.172051,0.0 120.308546,23.172958,0.0</coordinates></LinearRing></outerBoundaryIs></Polygon><styleUrl>#spolygon-map</styleUrl></Placemark></Document>
</kml>
