<?xml version="1.0" encoding="UTF-8"?>
<kml xmlns="http://www.opengis.net/kml/2.2">
	<Document>
		<name>臺北市南港區</name>
		<Style id="spolygon">
			<LabelStyle>
				<scale>0.0</scale>
			</LabelStyle>
			<LineStyle>
				<color>330030ff</color>
				<width>0</width>
			</LineStyle>
			<PolyStyle>
				<color>330030ff</color>
			</PolyStyle>
		</Style>
		<StyleMap id="spolygon-map">
			<Pair>
				<key>normal</key>
				<styleUrl>#spolygon</styleUrl>
			</Pair>
		</StyleMap>
	<Placemark><Polygon><outerBoundaryIs><LinearRing><coordinates>121.617987,25.038159,0.0 121.616998,25.03838,0.0 121.616959,25.038389,0.0 121.616234,25.038692,0.0 121.615913,25.038682,0.0 121.615609,25.03866,0.0 121.61544,25.038645,0.0 121.61507,25.038574,0.0 121.614742,25.038517,0.0 121.613808,25.038469,0.0 121.613416,25.038433,0.0 121.613045,25.038396,0.0 121.612428,25.038398,0.0 121.612235,25.038421,0.0 121.611945,25.03851,0.0 121.61163,25.038368,0.0 121.611194,25.03827,0.0 121.61019,25.038286,0.0 121.608594,25.038337,0.0 121.608237,25.038416,0.0 121.608074,25.038395,0.0 121.606886,25.038002,0.0 121.605881,25.03763,0.0 121.605396,25.037411,0.0 121.605029,25.037323,0.0 121.604244,25.037281,0.0 121.603726,25.037197,0.0 121.602805,25.036902,0.0 121.602126,25.036477,0.0 121.601256,25.03594,0.0 121.600253,25.035412,0.0 121.599619,25.035153,0.0 121.598954,25.034951,0.0 121.598341,25.034814,0.0 121.597942,25.034629,0.0 121.597482,25.034298,0.0 121.596987,25.034063,0.0 121.596503,25.033815,0.0 121.596018,25.033377,0.0 121.595387,25.033036,0.0 121.595178,25.032875,0.0 121.594825,25.032782,0.0 121.594524,25.032775,0.0 121.5943,25.03269,0.0 121.594179,25.032588,0.0 121.593903,25.032417,0.0 121.593517,25.032418,0.0 121.592187,25.031321,0.0 121.590948,25.029922,0.0 121.589749,25.029365,0.0 121.588827,25.028792,0.0 121.588001,25.028174,0.0 121.587951,25.028124,0.0 121.587328,25.027499,0.0 121.586654,25.026823,0.0 121.586204,25.025994,0.0 121.585577,25.024838,0.0 121.585299,25.024197,0.0 121.585057,25.023236,0.0 121.584986,25.022257,0.0 121.584388,25.021322,0.0 121.584215,25.02008,0.0 121.583949,25.01937,0.0 121.583236,25.018641,0.0 121.58214,25.018367,0.0 121.581001,25.017631,0.0 121.580446,25.017224,0.0 121.580157,25.017013,0.0 121.579132,25.015874,0.0 121.578726,25.015423,0.0 121.578462,25.015102,0.0 121.578195,25.013233,0.0 121.579691,25.012523,0.0 121.580522,25.012287,0.0 121.580715,25.01226,0.0 121.581489,25.012675,0.0 121.581702,25.012689,0.0 121.582766,25.012756,0.0 121.583235,25.01304,0.0 121.585752,25.013451,0.0 121.588239,25.013522,0.0 121.589675,25.013876,0.0 121.591198,25.014227,0.0 121.592966,25.014541,0.0 121.59389,25.01493,0.0 121.595406,25.015744,0.0 121.595907,25.014905,0.0 121.597537,25.014585,0.0 121.598095,25.014576,0.0 121.60146,25.015309,0.0 121.603099,25.01567,0.0 121.603516,25.0173,0.0 121.603691,25.017692,0.0 121.608002,25.019562,0.0 121.608236,25.019485,0.0 121.610398,25.019769,0.0 121.612455,25.019321,0.0 121.614273,25.019238,0.0 121.615546,25.019584,0.0 121.615925,25.01973,0.0 121.617278,25.021411,0.0 121.618302,25.022998,0.0 121.618509,25.023339,0.0 121.620603,25.026059,0.0 121.620728,25.026865,0.0 121.62036,25.028269,0.0 121.620061,25.029088,0.0 121.619584,25.030161,0.0 121.619381,25.030715,0.0 121.619265,25.031809,0.0 121.619167,25.03383,0.0 121.618944,25.034084,0.0 121.618782,25.034269,0.0 121.618678,25.034402,0.0 121.618499,25.034692,0.0 121.618149,25.03548,0.0 121.618029,25.036111,0.0 121.617971,25.036608,0.0 121.617969,25.036806,0.0 121.617964,25.037346,0.0 121.617964,25.037396,0.0 121.617987,25.038159,0.0</coordinates></LinearRing></outerBoundaryIs></Polygon><styleUrl>#spolygon-map</styleUrl></Placemark><Placemark><Polygon><outerBoundaryIs><LinearRing><coordinates>121.593938,25.040196,0.0 121.593012,25.040435,0.0 121.592976,25.040444,0.0 121.592925,25.040412,0.0 121.592787,25.04019,0.0 121.592746,25.040139,0.0 121.592697,25.040095,0.0 121.592639,25.040059,0.0 121.592576,25.040034,0.0 121.592509,25.040018,0.0 121.592464,25.040014,0.0 121.592406,25.040015,0.0 121.592338,25.040027,0.0 121.592274,25.04005,0.0 121.592214,25.040082,0.0 121.592162,25.040123,0.0 121.592118,25.040172,0.0 121.5921,25.040199,0.0 121.592076,25.040244,0.0 121.591864,25.040678,0.0 121.591594,25.041226,0.0 121.591539,25.041282,0.0 121.591507,25.041302,0.0 121.591442,25.041326,0.0 121.591383,25.041332,0.0 121.591224,25.041332,0.0 121.591081,25.041331,0.0 121.591014,25.041325,0.0 121.590975,25.041316,0.0 121.590923,25.041304,0.0 121.590874,25.041284,0.0 121.59084,25.041262,0.0 121.590802,25.041229,0.0 121.590771,25.04119,0.0 121.590749,25.041147,0.0 121.590734,25.0411,0.0 121.590729,25.041053,0.0 121.590738,25.040904,0.0 121.590677,25.040643,0.0 121.590656,25.040403,0.0 121.590717,25.04035,0.0 121.590858,25.040227,0.0 121.591116,25.040029,0.0 121.591178,25.039744,0.0 121.591272,25.039541,0.0 121.591358,25.039267,0.0 121.591394,25.039005,0.0 121.591455,25.03892,0.0 121.591569,25.03881,0.0 121.591608,25.038781,0.0 121.591628,25.038756,0.0 121.591636,25.038727,0.0 121.591637,25.03871,0.0 121.591628,25.03868,0.0 121.591402,25.037922,0.0 121.591319,25.037542,0.0 121.591303,25.037288,0.0 121.591505,25.036049,0.0 121.593493,25.034803,0.0 121.594055,25.034039,0.0 121.595387,25.033036,0.0 121.596018,25.033377,0.0 121.596503,25.033815,0.0 121.596987,25.034063,0.0 121.597482,25.034298,0.0 121.59718,25.034984,0.0 121.596497,25.03706,0.0 121.596331,25.03754,0.0 121.595957,25.038194,0.0 121.595544,25.038673,0.0 121.595418,25.038638,0.0 121.595225,25.038693,0.0 121.594849,25.039381,0.0 121.594716,25.039469,0.0 121.594244,25.039477,0.0 121.594143,25.039628,0.0 121.593938,25.040196,0.0</coordinates></LinearRing></outerBoundaryIs></Polygon><styleUrl>#spolygon-map</styleUrl></Placemark><Placemark><Polygon><outerBoundaryIs><LinearRing><coordinates>121.590376,25.038134,0.0 121.590382,25.038236,0.0 121.590374,25.038306,0.0 121.590361,25.038411,0.0 121.59031,25.038603,0.0 121.590268,25.0387,0.0 121.590252,25.038731,0.0 121.590182,25.038826,0.0 121.590045,25.038976,0.0 121.59003,25.038995,0.0 121.589783,25.039256,0.0 121.589687,25.039356,0.0 121.589635,25.039425,0.0 121.589486,25.039622,0.0 121.58931,25.039764,0.0 121.589116,25.039984,0.0 121.588973,25.040156,0.0 121.588962,25.040169,0.0 121.588943,25.040191,0.0 121.588878,25.040274,0.0 121.588713,25.040544,0.0 121.588687,25.040577,0.0 121.588453,25.040861,0.0 121.588252,25.041054,0.0 121.587864,25.041426,0.0 121.587486,25.041756,0.0 121.586763,25.041604,0.0 121.586816,25.040904,0.0 121.587115,25.040093,0.0 121.587065,25.040057,0.0 121.587175,25.039694,0.0 121.587471,25.039738,0.0 121.5876,25.039291,0.0 121.587698,25.039075,0.0 121.587821,25.038866,0.0 121.58806,25.038478,0.0 121.58821,25.038233,0.0 121.588383,25.037954,0.0 121.589358,25.036783,0.0 121.589566,25.035153,0.0 121.590033,25.033629,0.0 121.591641,25.031952,0.0 121.593172,25.03231,0.0 121.593689,25.032425,0.0 121.594015,25.032479,0.0 121.594293,25.032684,0.0 121.594429,25.032705,0.0 121.594602,25.032783,0.0 121.594997,25.032805,0.0 121.595307,25.032976,0.0 121.594543,25.033561,0.0 121.59364,25.034394,0.0 121.592378,25.035066,0.0 121.591405,25.03711,0.0 121.591258,25.037519,0.0 121.590686,25.037662,0.0 121.590501,25.037793,0.0 121.590401,25.037951,0.0 121.590376,25.038134,0.0</coordinates></LinearRing></outerBoundaryIs></Polygon><styleUrl>#spolygon-map</styleUrl></Placemark><Placemark><Polygon><outerBoundaryIs><LinearRing><coordinates>121.630144,25.035137,0.0 121.629891,25.036468,0.0 121.627353,25.037547,0.0 121.625083,25.037786,0.0 121.625039,25.037848,0.0 121.623978,25.038862,0.0 121.62355,25.039147,0.0 121.623505,25.039177,0.0 121.622844,25.039616,0.0 121.622191,25.04005,0.0 121.621609,25.040471,0.0 121.62097,25.041273,0.0 121.620385,25.042006,0.0 121.620127,25.042329,0.0 121.620011,25.042475,0.0 121.619891,25.042626,0.0 121.619772,25.042774,0.0 121.619606,25.042984,0.0 121.619278,25.043246,0.0 121.619216,25.043164,0.0 121.6183,25.042504,0.0 121.618233,25.042457,0.0 121.618061,25.04233,0.0 121.617791,25.042122,0.0 121.617529,25.04192,0.0 121.617808,25.041415,0.0 121.61779,25.041378,0.0 121.61782,25.041308,0.0 121.617807,25.04113,0.0 121.617918,25.041011,0.0 121.618089,25.040843,0.0 121.61829,25.040099,0.0 121.618222,25.039437,0.0 121.618226,25.039125,0.0 121.617987,25.038501,0.0 121.617964,25.037396,0.0 121.617964,25.037346,0.0 121.617969,25.036806,0.0 121.617971,25.036608,0.0 121.618029,25.036111,0.0 121.618149,25.03548,0.0 121.618499,25.034692,0.0 121.618678,25.034402,0.0 121.618782,25.034269,0.0 121.618944,25.034084,0.0 121.619167,25.03383,0.0 121.619265,25.031809,0.0 121.619381,25.030715,0.0 121.619584,25.030161,0.0 121.620061,25.029088,0.0 121.62036,25.028269,0.0 121.620728,25.026865,0.0 121.620603,25.026059,0.0 121.618509,25.023339,0.0 121.618302,25.022998,0.0 121.617278,25.021411,0.0 121.615925,25.01973,0.0 121.617452,25.01838,0.0 121.620212,25.018491,0.0 121.623113,25.017315,0.0 121.626333,25.01873,0.0 121.627177,25.019965,0.0 121.628951,25.020072,0.0 121.629944,25.021547,0.0 121.630537,25.023721,0.0 121.631778,25.025711,0.0 121.633236,25.025222,0.0 121.635006,25.024147,0.0 121.63614,25.023464,0.0 121.637707,25.024137,0.0 121.640188,25.02353,0.0 121.640983,25.023568,0.0 121.644339,25.024022,0.0 121.645556,25.022828,0.0 121.646039,25.021762,0.0 121.646964,25.021615,0.0 121.648362,25.022528,0.0 121.649217,25.023207,0.0 121.650068,25.023974,0.0 121.652137,25.024022,0.0 121.653895,25.024399,0.0 121.65509,25.024047,0.0 121.657123,25.023446,0.0 121.657948,25.023398,0.0 121.658387,25.023404,0.0 121.660923,25.023442,0.0 121.662617,25.022939,0.0 121.664027,25.023273,0.0 121.664913,25.02511,0.0 121.665048,25.026043,0.0 121.66485,25.027812,0.0 121.664859,25.028177,0.0 121.665896,25.029842,0.0 121.66469,25.029481,0.0 121.663582,25.030001,0.0 121.6616,25.030412,0.0 121.659511,25.029834,0.0 121.657994,25.029042,0.0 121.657195,25.028122,0.0 121.65411,25.027627,0.0 121.652211,25.027595,0.0 121.651757,25.027587,0.0 121.650407,25.027563,0.0 121.648036,25.028466,0.0 121.64635,25.028231,0.0 121.646454,25.028884,0.0 121.646217,25.028972,0.0 121.645434,25.029264,0.0 121.643865,25.030039,0.0 121.642504,25.03089,0.0 121.641694,25.031215,0.0 121.640603,25.031653,0.0 121.639831,25.031963,0.0 121.638971,25.032711,0.0 121.637852,25.03368,0.0 121.636026,25.034195,0.0 121.635127,25.03445,0.0 121.634333,25.034675,0.0 121.633341,25.035883,0.0 121.632656,25.035724,0.0 121.630144,25.035137,0.0</coordinates></LinearRing></outerBoundaryIs></Polygon><styleUrl>#spolygon-map</styleUrl></Placemark><Placemark><Polygon><outerBoundaryIs><LinearRing><coordinates>121.58679,25.043096,0.0 121.586776,25.04313,0.0 121.586706,25.04333,0.0 121.586671,25.043519,0.0 121.586655,25.043649,0.0 121.586657,25.043678,0.0 121.58666,25.043821,0.0 121.586691,25.044022,0.0 121.586737,25.044175,0.0 121.586781,25.04428,0.0 121.586848,25.04444,0.0 121.58671,25.044653,0.0 121.58646,25.045041,0.0 121.586215,25.045428,0.0 121.585431,25.04505,0.0 121.58538,25.045025,0.0 121.585177,25.044927,0.0 121.585026,25.044873,0.0 121.584987,25.044854,0.0 121.584326,25.044542,0.0 121.584099,25.044753,0.0 121.583923,25.044634,0.0 121.583482,25.044241,0.0 121.58339,25.044172,0.0 121.58313,25.043845,0.0 121.582861,25.043452,0.0 121.582877,25.043428,0.0 121.583238,25.04311,0.0 121.583409,25.042959,0.0 121.583585,25.042809,0.0 121.584269,25.042319,0.0 121.584621,25.042074,0.0 121.585395,25.041638,0.0 121.585521,25.041567,0.0 121.585559,25.041568,0.0 121.585701,25.041601,0.0 121.585978,25.041658,0.0 121.586249,25.041617,0.0 121.586337,25.041599,0.0 121.586561,25.041574,0.0 121.586763,25.041604,0.0 121.587486,25.041756,0.0 121.587472,25.041902,0.0 121.587344,25.042079,0.0 121.587224,25.042255,0.0 121.587213,25.042271,0.0 121.587147,25.042378,0.0 121.587029,25.0426,0.0 121.586898,25.042842,0.0 121.58679,25.043096,0.0</coordinates></LinearRing></outerBoundaryIs></Polygon><styleUrl>#spolygon-map</styleUrl></Placemark><Placemark><Polygon><outerBoundaryIs><LinearRing><coordinates>121.590178,25.046483,0.0 121.589829,25.046562,0.0 121.589668,25.046575,0.0 121.589086,25.046584,0.0 121.589019,25.046585,0.0 121.5888,25.046589,0.0 121.588367,25.04658,0.0 121.587839,25.046538,0.0 121.587039,25.046394,0.0 121.585986,25.046091,0.0 121.585853,25.04605,0.0 121.586206,25.045441,0.0 121.586452,25.045052,0.0 121.586662,25.044728,0.0 121.586718,25.044642,0.0 121.586812,25.044368,0.0 121.586776,25.044264,0.0 121.586727,25.044151,0.0 121.586669,25.043914,0.0 121.586659,25.043712,0.0 121.586656,25.043667,0.0 121.586654,25.043632,0.0 121.58668,25.043422,0.0 121.586736,25.043233,0.0 121.58678,25.043117,0.0 121.58685,25.042967,0.0 121.58695,25.042725,0.0 121.587094,25.042466,0.0 121.587195,25.042297,0.0 121.58722,25.042261,0.0 121.587269,25.042192,0.0 121.587396,25.042002,0.0 121.587571,25.041774,0.0 121.587889,25.041397,0.0 121.588268,25.041039,0.0 121.588638,25.040638,0.0 121.588697,25.040564,0.0 121.588796,25.040425,0.0 121.588889,25.040254,0.0 121.58895,25.040183,0.0 121.588963,25.040168,0.0 121.589075,25.040033,0.0 121.589297,25.039766,0.0 121.589369,25.039753,0.0 121.589545,25.039544,0.0 121.58967,25.039379,0.0 121.589766,25.039274,0.0 121.590003,25.03903,0.0 121.590041,25.038981,0.0 121.590096,25.038911,0.0 121.590217,25.038791,0.0 121.590263,25.038714,0.0 121.590272,25.038691,0.0 121.590327,25.03856,0.0 121.590364,25.038398,0.0 121.590376,25.038292,0.0 121.590381,25.038182,0.0 121.590371,25.038077,0.0 121.59046,25.037868,0.0 121.590583,25.037734,0.0 121.590931,25.037601,0.0 121.591319,25.037542,0.0 121.591402,25.037922,0.0 121.591628,25.03868,0.0 121.591637,25.03871,0.0 121.591636,25.038727,0.0 121.591628,25.038756,0.0 121.591608,25.038781,0.0 121.591569,25.03881,0.0 121.591455,25.03892,0.0 121.591394,25.039005,0.0 121.591358,25.039267,0.0 121.591272,25.039541,0.0 121.591178,25.039744,0.0 121.591116,25.040029,0.0 121.590858,25.040227,0.0 121.590717,25.04035,0.0 121.590656,25.040403,0.0 121.590677,25.040643,0.0 121.590738,25.040904,0.0 121.590729,25.041053,0.0 121.590734,25.0411,0.0 121.590749,25.041147,0.0 121.590771,25.04119,0.0 121.590802,25.041229,0.0 121.59084,25.041262,0.0 121.590874,25.041284,0.0 121.590923,25.041304,0.0 121.590975,25.041316,0.0 121.591014,25.041325,0.0 121.591081,25.041331,0.0 121.591224,25.041332,0.0 121.591383,25.041332,0.0 121.591442,25.041326,0.0 121.591507,25.041302,0.0 121.591539,25.041282,0.0 121.591594,25.041226,0.0 121.591864,25.040678,0.0 121.592076,25.040244,0.0 121.5921,25.040199,0.0 121.592118,25.040172,0.0 121.592162,25.040123,0.0 121.592214,25.040082,0.0 121.592274,25.04005,0.0 121.592338,25.040027,0.0 121.592406,25.040015,0.0 121.592464,25.040014,0.0 121.592509,25.040018,0.0 121.592576,25.040034,0.0 121.592639,25.040059,0.0 121.592697,25.040095,0.0 121.592746,25.040139,0.0 121.592787,25.04019,0.0 121.592925,25.040412,0.0 121.592976,25.040444,0.0 121.593012,25.040435,0.0 121.593938,25.040196,0.0 121.593715,25.040824,0.0 121.593776,25.040965,0.0 121.593942,25.041027,0.0 121.594516,25.041044,0.0 121.594679,25.041145,0.0 121.594714,25.041228,0.0 121.594608,25.041556,0.0 121.594569,25.042305,0.0 121.594527,25.042696,0.0 121.594114,25.042698,0.0 121.594082,25.042867,0.0 121.594115,25.042947,0.0 121.594059,25.04316,0.0 121.593966,25.043353,0.0 121.593763,25.043471,0.0 121.593724,25.043637,0.0 121.593786,25.043816,0.0 121.593652,25.044106,0.0 121.593615,25.044232,0.0 121.593661,25.044436,0.0 121.59365,25.044562,0.0 121.593554,25.044658,0.0 121.593792,25.044864,0.0 121.593865,25.044942,0.0 121.593956,25.045106,0.0 121.593934,25.045262,0.0 121.593852,25.045354,0.0 121.593385,25.04534,0.0 121.593304,25.045368,0.0 121.593522,25.045796,0.0 121.593662,25.046022,0.0 121.593611,25.04619,0.0 121.593197,25.046318,0.0 121.593069,25.046256,0.0 121.592609,25.04604,0.0 121.592502,25.04599,0.0 121.592091,25.046014,0.0 121.591304,25.046212,0.0 121.590178,25.046483,0.0</coordinates></LinearRing></outerBoundaryIs></Polygon><styleUrl>#spolygon-map</styleUrl></Placemark><Placemark><Polygon><outerBoundaryIs><LinearRing><coordinates>121.587027,25.046392,0.0 121.586674,25.046818,0.0 121.586359,25.047002,0.0 121.585932,25.047292,0.0 121.585474,25.047676,0.0 121.585377,25.047757,0.0 121.5852,25.047918,0.0 121.585105,25.048021,0.0 121.584797,25.047767,0.0 121.584049,25.047064,0.0 121.583705,25.04661,0.0 121.583474,25.046301,0.0 121.58337,25.046166,0.0 121.58272,25.045269,0.0 121.582304,25.043926,0.0 121.582548,25.043718,0.0 121.582861,25.043452,0.0 121.58313,25.043845,0.0 121.58339,25.044172,0.0 121.583482,25.044241,0.0 121.583923,25.044634,0.0 121.584099,25.044753,0.0 121.584326,25.044542,0.0 121.584987,25.044854,0.0 121.585026,25.044873,0.0 121.585177,25.044927,0.0 121.58538,25.045025,0.0 121.585431,25.04505,0.0 121.586215,25.045428,0.0 121.585836,25.046042,0.0 121.585865,25.046056,0.0 121.587027,25.046392,0.0</coordinates></LinearRing></outerBoundaryIs></Polygon><styleUrl>#spolygon-map</styleUrl></Placemark><Placemark><Polygon><outerBoundaryIs><LinearRing><coordinates>121.618016,25.045611,0.0 121.61761,25.046342,0.0 121.617457,25.046617,0.0 121.617381,25.046754,0.0 121.617083,25.047291,0.0 121.616955,25.047868,0.0 121.616699,25.049021,0.0 121.616476,25.049116,0.0 121.615835,25.048951,0.0 121.615326,25.04887,0.0 121.615263,25.048865,0.0 121.614821,25.048843,0.0 121.614201,25.048898,0.0 121.614101,25.048908,0.0 121.61365,25.048952,0.0 121.613071,25.049046,0.0 121.612997,25.049039,0.0 121.612719,25.048939,0.0 121.612557,25.048797,0.0 121.612351,25.048387,0.0 121.61234,25.048359,0.0 121.612293,25.04821,0.0 121.612254,25.048049,0.0 121.612212,25.0475,0.0 121.611777,25.047542,0.0 121.611047,25.046872,0.0 121.611015,25.046245,0.0 121.611216,25.045943,0.0 121.611288,25.045306,0.0 121.61123,25.044752,0.0 121.610872,25.044419,0.0 121.610687,25.044366,0.0 121.610589,25.044338,0.0 121.61027,25.044299,0.0 121.609953,25.044275,0.0 121.609265,25.044234,0.0 121.609038,25.043892,0.0 121.608972,25.043765,0.0 121.608999,25.043614,0.0 121.60898,25.043429,0.0 121.608924,25.043294,0.0 121.608776,25.043211,0.0 121.608693,25.043026,0.0 121.608608,25.042673,0.0 121.608635,25.042471,0.0 121.608643,25.042303,0.0 121.608624,25.042177,0.0 121.608568,25.042034,0.0 121.608539,25.041782,0.0 121.608547,25.04147,0.0 121.608526,25.040932,0.0 121.608505,25.04052,0.0 121.608478,25.040011,0.0 121.608473,25.039511,0.0 121.608516,25.039006,0.0 121.608586,25.038475,0.0 121.609271,25.038301,0.0 121.610696,25.038279,0.0 121.611436,25.038347,0.0 121.611836,25.038456,0.0 121.612066,25.03851,0.0 121.612286,25.038415,0.0 121.612621,25.038375,0.0 121.613263,25.038418,0.0 121.613674,25.038459,0.0 121.614412,25.038511,0.0 121.614908,25.03852,0.0 121.615138,25.038597,0.0 121.615477,25.038651,0.0 121.615751,25.03867,0.0 121.616198,25.038707,0.0 121.616731,25.038484,0.0 121.616983,25.038383,0.0 121.617011,25.038377,0.0 121.617987,25.038501,0.0 121.618226,25.039125,0.0 121.618222,25.039437,0.0 121.61829,25.040099,0.0 121.618089,25.040843,0.0 121.617918,25.041011,0.0 121.617807,25.04113,0.0 121.61782,25.041308,0.0 121.61779,25.041378,0.0 121.617808,25.041415,0.0 121.617529,25.04192,0.0 121.617791,25.042122,0.0 121.618061,25.04233,0.0 121.618233,25.042457,0.0 121.6183,25.042504,0.0 121.619216,25.043164,0.0 121.619278,25.043246,0.0 121.619184,25.043511,0.0 121.619007,25.04383,0.0 121.618028,25.04559,0.0 121.618016,25.045611,0.0</coordinates></LinearRing></outerBoundaryIs></Polygon><styleUrl>#spolygon-map</styleUrl></Placemark><Placemark><Polygon><outerBoundaryIs><LinearRing><coordinates>121.589636,25.047724,0.0 121.589687,25.047785,0.0 121.589716,25.04787,0.0 121.589712,25.04795,0.0 121.589721,25.047983,0.0 121.590533,25.048314,0.0 121.590753,25.048427,0.0 121.590789,25.048467,0.0 121.590992,25.048697,0.0 121.591024,25.048833,0.0 121.590961,25.048969,0.0 121.590913,25.049699,0.0 121.590559,25.049616,0.0 121.590544,25.049612,0.0 121.589753,25.049425,0.0 121.588595,25.049151,0.0 121.588212,25.04906,0.0 121.587744,25.048949,0.0 121.587318,25.048849,0.0 121.587215,25.048824,0.0 121.586839,25.048736,0.0 121.586281,25.048561,0.0 121.585463,25.048186,0.0 121.585132,25.047992,0.0 121.585245,25.047868,0.0 121.585421,25.047721,0.0 121.58557,25.047596,0.0 121.586191,25.047129,0.0 121.586517,25.046901,0.0 121.586941,25.046744,0.0 121.587039,25.046394,0.0 121.587839,25.046538,0.0 121.588367,25.04658,0.0 121.5888,25.046589,0.0 121.589019,25.046585,0.0 121.589086,25.046584,0.0 121.589668,25.046575,0.0 121.589829,25.046562,0.0 121.590178,25.046483,0.0 121.589782,25.047396,0.0 121.589636,25.047724,0.0</coordinates></LinearRing></outerBoundaryIs></Polygon><styleUrl>#spolygon-map</styleUrl></Placemark><Placemark><Polygon><outerBoundaryIs><LinearRing><coordinates>121.590913,25.049699,0.0 121.591291,25.049789,0.0 121.591559,25.049852,0.0 121.592482,25.050071,0.0 121.592712,25.050128,0.0 121.593304,25.050266,0.0 121.594031,25.050437,0.0 121.59394,25.050703,0.0 121.593784,25.051151,0.0 121.592683,25.050977,0.0 121.59092,25.050699,0.0 121.590694,25.050663,0.0 121.5902,25.050592,0.0 121.589551,25.050493,0.0 121.589456,25.050477,0.0 121.588757,25.05036,0.0 121.588222,25.050273,0.0 121.588119,25.050256,0.0 121.587493,25.050154,0.0 121.587058,25.050084,0.0 121.58674,25.050032,0.0 121.586167,25.049938,0.0 121.584203,25.049624,0.0 121.5839,25.049564,0.0 121.583523,25.049502,0.0 121.583505,25.049499,0.0 121.582946,25.049418,0.0 121.582102,25.049227,0.0 121.581479,25.048957,0.0 121.581422,25.048931,0.0 121.580554,25.048918,0.0 121.580426,25.048906,0.0 121.580231,25.048886,0.0 121.580139,25.048881,0.0 121.58018,25.048107,0.0 121.58041,25.047725,0.0 121.580616,25.047488,0.0 121.580661,25.047263,0.0 121.58067,25.046889,0.0 121.58068,25.046502,0.0 121.580689,25.046143,0.0 121.580699,25.045751,0.0 121.580734,25.045316,0.0 121.581447,25.044688,0.0 121.58124,25.044696,0.0 121.581951,25.044204,0.0 121.58272,25.045269,0.0 121.58337,25.046166,0.0 121.583474,25.046301,0.0 121.583705,25.04661,0.0 121.584049,25.047064,0.0 121.584797,25.047767,0.0 121.585105,25.048021,0.0 121.586115,25.048485,0.0 121.586599,25.04868,0.0 121.587212,25.048824,0.0 121.587249,25.048832,0.0 121.587348,25.048856,0.0 121.588169,25.04905,0.0 121.588593,25.04915,0.0 121.589089,25.049267,0.0 121.589891,25.049457,0.0 121.590553,25.049614,0.0 121.590584,25.049621,0.0 121.590913,25.049699,0.0</coordinates></LinearRing></outerBoundaryIs></Polygon><styleUrl>#spolygon-map</styleUrl></Placemark><Placemark><Polygon><outerBoundaryIs><LinearRing><coordinates>121.600902,25.047908,0.0 121.600978,25.048072,0.0 121.601144,25.048509,0.0 121.601422,25.049105,0.0 121.601721,25.049308,0.0 121.602642,25.04979,0.0 121.603265,25.050123,0.0 121.603808,25.050233,0.0 121.604318,25.050147,0.0 121.604827,25.05007,0.0 121.605378,25.049928,0.0 121.606326,25.049775,0.0 121.606857,25.04982,0.0 121.607257,25.049995,0.0 121.607328,25.050098,0.0 121.607392,25.050368,0.0 121.606609,25.050968,0.0 121.605795,25.051588,0.0 121.605217,25.051927,0.0 121.603419,25.052292,0.0 121.601469,25.052046,0.0 121.598034,25.051608,0.0 121.595519,25.051412,0.0 121.594097,25.051198,0.0 121.593784,25.051151,0.0 121.59394,25.050703,0.0 121.594031,25.050437,0.0 121.593304,25.050266,0.0 121.592712,25.050128,0.0 121.592482,25.050071,0.0 121.591559,25.049852,0.0 121.591291,25.049789,0.0 121.590913,25.049699,0.0 121.590961,25.048969,0.0 121.591024,25.048833,0.0 121.590992,25.048697,0.0 121.590789,25.048467,0.0 121.590753,25.048427,0.0 121.590533,25.048314,0.0 121.589721,25.047983,0.0 121.589712,25.04795,0.0 121.589716,25.04787,0.0 121.589687,25.047785,0.0 121.589636,25.047724,0.0 121.589782,25.047396,0.0 121.590178,25.046483,0.0 121.591366,25.046197,0.0 121.592328,25.045955,0.0 121.592545,25.04601,0.0 121.592691,25.046079,0.0 121.593091,25.046266,0.0 121.59341,25.046432,0.0 121.593661,25.046102,0.0 121.593629,25.045954,0.0 121.593508,25.045775,0.0 121.593312,25.045365,0.0 121.593481,25.045329,0.0 121.593907,25.045299,0.0 121.593958,25.045199,0.0 121.59391,25.045006,0.0 121.593827,25.044901,0.0 121.593571,25.044673,0.0 121.593625,25.04461,0.0 121.593664,25.044535,0.0 121.593632,25.044317,0.0 121.593621,25.044158,0.0 121.593768,25.044001,0.0 121.593771,25.043703,0.0 121.593726,25.043543,0.0 121.59387,25.043396,0.0 121.594018,25.043321,0.0 121.594135,25.042979,0.0 121.594078,25.042917,0.0 121.594101,25.042776,0.0 121.594237,25.04267,0.0 121.594571,25.042612,0.0 121.594596,25.041789,0.0 121.594691,25.041345,0.0 121.594711,25.041218,0.0 121.594586,25.041078,0.0 121.594334,25.041025,0.0 121.593857,25.041018,0.0 121.593732,25.040897,0.0 121.593746,25.040731,0.0 121.594108,25.039724,0.0 121.59418,25.039535,0.0 121.594372,25.039455,0.0 121.59479,25.03944,0.0 121.595162,25.038767,0.0 121.595338,25.038654,0.0 121.595504,25.038657,0.0 121.595769,25.038405,0.0 121.596082,25.037944,0.0 121.596469,25.037141,0.0 121.596849,25.036098,0.0 121.597305,25.034696,0.0 121.597686,25.034462,0.0 121.598146,25.034721,0.0 121.598596,25.034868,0.0 121.599271,25.035052,0.0 121.599946,25.035273,0.0 121.600632,25.035606,0.0 121.601737,25.036227,0.0 121.602477,25.036694,0.0 121.601641,25.038589,0.0 121.601376,25.039417,0.0 121.601215,25.039987,0.0 121.601094,25.040369,0.0 121.600804,25.040839,0.0 121.600558,25.041425,0.0 121.60039,25.041745,0.0 121.600452,25.04261,0.0 121.600486,25.043439,0.0 121.600419,25.044298,0.0 121.600321,25.045119,0.0 121.600335,25.046399,0.0 121.600339,25.046788,0.0 121.600484,25.047225,0.0 121.600762,25.0477,0.0 121.600902,25.047908,0.0</coordinates></LinearRing></outerBoundaryIs></Polygon><styleUrl>#spolygon-map</styleUrl></Placemark><Placemark><Polygon><outerBoundaryIs><LinearRing><coordinates>121.588985,25.050397,0.0 121.588639,25.051966,0.0 121.588418,25.053044,0.0 121.588406,25.053062,0.0 121.588178,25.053675,0.0 121.588038,25.054142,0.0 121.588025,25.054185,0.0 121.587905,25.054582,0.0 121.587779,25.054955,0.0 121.587049,25.055016,0.0 121.586192,25.054457,0.0 121.584466,25.053929,0.0 121.583239,25.053554,0.0 121.58307,25.053502,0.0 121.582911,25.053476,0.0 121.580973,25.053161,0.0 121.580943,25.053156,0.0 121.579885,25.052981,0.0 121.579917,25.052323,0.0 121.579948,25.052126,0.0 121.580047,25.051501,0.0 121.579916,25.051038,0.0 121.579706,25.05039,0.0 121.580094,25.049552,0.0 121.580139,25.048881,0.0 121.580231,25.048886,0.0 121.580426,25.048906,0.0 121.580554,25.048918,0.0 121.581422,25.048931,0.0 121.581479,25.048957,0.0 121.582102,25.049227,0.0 121.582946,25.049418,0.0 121.583505,25.049499,0.0 121.583523,25.049502,0.0 121.5839,25.049564,0.0 121.584203,25.049624,0.0 121.586167,25.049938,0.0 121.58674,25.050032,0.0 121.587058,25.050084,0.0 121.587493,25.050154,0.0 121.588119,25.050256,0.0 121.588222,25.050273,0.0 121.588757,25.05036,0.0 121.588985,25.050397,0.0</coordinates></LinearRing></outerBoundaryIs></Polygon><styleUrl>#spolygon-map</styleUrl></Placemark><Placemark><Polygon><outerBoundaryIs><LinearRing><coordinates>121.620984,25.054922,0.0 121.620563,25.054851,0.0 121.620244,25.054797,0.0 121.620043,25.054766,0.0 121.619512,25.054734,0.0 121.61892,25.054804,0.0 121.618728,25.054841,0.0 121.618472,25.054885,0.0 121.616656,25.055145,0.0 121.616551,25.055155,0.0 121.616149,25.055194,0.0 121.615567,25.05503,0.0 121.615682,25.054932,0.0 121.615763,25.054857,0.0 121.615725,25.054547,0.0 121.615769,25.054192,0.0 121.615738,25.053946,0.0 121.615685,25.053499,0.0 121.615675,25.053107,0.0 121.615745,25.052783,0.0 121.615923,25.052374,0.0 121.615837,25.051999,0.0 121.615788,25.051926,0.0 121.615668,25.051754,0.0 121.615663,25.05167,0.0 121.615702,25.051148,0.0 121.615628,25.050795,0.0 121.615581,25.050398,0.0 121.615585,25.050252,0.0 121.615671,25.049939,0.0 121.615763,25.049686,0.0 121.615783,25.049349,0.0 121.615794,25.049214,0.0 121.616123,25.049025,0.0 121.616667,25.049166,0.0 121.61633,25.050687,0.0 121.616593,25.051279,0.0 121.61706,25.051566,0.0 121.617763,25.051997,0.0 121.619012,25.052764,0.0 121.620115,25.053441,0.0 121.620864,25.054186,0.0 121.62103,25.054461,0.0 121.620984,25.054922,0.0</coordinates></LinearRing></outerBoundaryIs></Polygon><styleUrl>#spolygon-map</styleUrl></Placemark><Placemark><Polygon><outerBoundaryIs><LinearRing><coordinates>121.615574,25.055249,0.0 121.615254,25.055275,0.0 121.615151,25.054996,0.0 121.614828,25.054908,0.0 121.614878,25.054704,0.0 121.61478,25.054398,0.0 121.614622,25.054128,0.0 121.614023,25.054032,0.0 121.613885,25.054008,0.0 121.613318,25.053912,0.0 121.612826,25.053797,0.0 121.612413,25.053756,0.0 121.612304,25.053735,0.0 121.611472,25.053567,0.0 121.611345,25.053541,0.0 121.608992,25.053088,0.0 121.608239,25.052965,0.0 121.606602,25.052697,0.0 121.605348,25.052529,0.0 121.605217,25.051927,0.0 121.605795,25.051588,0.0 121.606609,25.050968,0.0 121.607392,25.050368,0.0 121.607328,25.050098,0.0 121.607257,25.049995,0.0 121.606857,25.04982,0.0 121.606326,25.049775,0.0 121.605378,25.049928,0.0 121.604827,25.05007,0.0 121.604318,25.050147,0.0 121.603808,25.050233,0.0 121.603265,25.050123,0.0 121.602642,25.04979,0.0 121.601721,25.049308,0.0 121.601422,25.049105,0.0 121.601144,25.048509,0.0 121.600978,25.048072,0.0 121.600902,25.047908,0.0 121.600762,25.0477,0.0 121.600484,25.047225,0.0 121.600339,25.046788,0.0 121.600335,25.046399,0.0 121.600321,25.045119,0.0 121.600419,25.044298,0.0 121.600486,25.043439,0.0 121.600452,25.04261,0.0 121.60039,25.041745,0.0 121.600558,25.041425,0.0 121.600804,25.040839,0.0 121.601094,25.040369,0.0 121.601215,25.039987,0.0 121.601376,25.039417,0.0 121.601641,25.038589,0.0 121.602477,25.036694,0.0 121.603193,25.037044,0.0 121.604162,25.037273,0.0 121.604597,25.037315,0.0 121.605045,25.037324,0.0 121.605687,25.037487,0.0 121.606184,25.037762,0.0 121.607529,25.038209,0.0 121.608219,25.038416,0.0 121.608364,25.038415,0.0 121.608586,25.038475,0.0 121.608516,25.039006,0.0 121.608473,25.039511,0.0 121.608478,25.040011,0.0 121.608505,25.04052,0.0 121.608526,25.040932,0.0 121.608547,25.04147,0.0 121.608539,25.041782,0.0 121.608568,25.042034,0.0 121.608624,25.042177,0.0 121.608643,25.042303,0.0 121.608635,25.042471,0.0 121.608608,25.042673,0.0 121.608693,25.043026,0.0 121.608776,25.043211,0.0 121.608924,25.043294,0.0 121.60898,25.043429,0.0 121.608999,25.043614,0.0 121.608972,25.043765,0.0 121.609038,25.043892,0.0 121.609265,25.044234,0.0 121.609953,25.044275,0.0 121.61027,25.044299,0.0 121.610589,25.044338,0.0 121.610687,25.044366,0.0 121.610872,25.044419,0.0 121.61123,25.044752,0.0 121.611288,25.045306,0.0 121.611216,25.045943,0.0 121.611015,25.046245,0.0 121.611047,25.046872,0.0 121.611777,25.047542,0.0 121.612212,25.0475,0.0 121.612254,25.048049,0.0 121.612293,25.04821,0.0 121.61234,25.048359,0.0 121.612351,25.048387,0.0 121.612557,25.048797,0.0 121.612719,25.048939,0.0 121.612997,25.049039,0.0 121.613071,25.049046,0.0 121.61365,25.048952,0.0 121.614101,25.048908,0.0 121.614201,25.048898,0.0 121.614821,25.048843,0.0 121.615263,25.048865,0.0 121.615326,25.04887,0.0 121.615835,25.048951,0.0 121.615787,25.049266,0.0 121.615767,25.049616,0.0 121.615698,25.049868,0.0 121.615598,25.050128,0.0 121.615582,25.050353,0.0 121.615624,25.05076,0.0 121.615668,25.050987,0.0 121.615712,25.051597,0.0 121.615698,25.051696,0.0 121.615717,25.051775,0.0 121.615809,25.051957,0.0 121.615883,25.052174,0.0 121.615907,25.052472,0.0 121.615713,25.052964,0.0 121.615642,25.053232,0.0 121.615704,25.053619,0.0 121.615772,25.054165,0.0 121.615753,25.05432,0.0 121.615752,25.054737,0.0 121.615712,25.054855,0.0 121.61561,25.054932,0.0 121.615574,25.055249,0.0</coordinates></LinearRing></outerBoundaryIs></Polygon><styleUrl>#spolygon-map</styleUrl></Placemark><Placemark><Polygon><outerBoundaryIs><LinearRing><coordinates>121.606524,25.052686,0.0 121.606385,25.053478,0.0 121.606279,25.054036,0.0 121.606104,25.05481,0.0 121.605988,25.055328,0.0 121.605905,25.055691,0.0 121.605866,25.05586,0.0 121.605782,25.05608,0.0 121.605526,25.056025,0.0 121.605194,25.05602,0.0 121.604654,25.056047,0.0 121.60448,25.056019,0.0 121.604208,25.055939,0.0 121.604133,25.055908,0.0 121.603852,25.055729,0.0 121.603466,25.055416,0.0 121.603073,25.055138,0.0 121.603037,25.055113,0.0 121.602529,25.054881,0.0 121.602162,25.05474,0.0 121.601814,25.054661,0.0 121.601692,25.054644,0.0 121.601129,25.054567,0.0 121.600507,25.054578,0.0 121.599895,25.054746,0.0 121.599651,25.054505,0.0 121.599262,25.054287,0.0 121.599105,25.054238,0.0 121.598275,25.054089,0.0 121.598048,25.054088,0.0 121.597616,25.054061,0.0 121.596377,25.054344,0.0 121.596278,25.054365,0.0 121.595598,25.054457,0.0 121.595303,25.054475,0.0 121.594772,25.054409,0.0 121.594839,25.054134,0.0 121.595446,25.051639,0.0 121.595519,25.051412,0.0 121.598034,25.051608,0.0 121.601469,25.052046,0.0 121.603419,25.052292,0.0 121.605348,25.052529,0.0 121.606524,25.052686,0.0</coordinates></LinearRing></outerBoundaryIs></Polygon><styleUrl>#spolygon-map</styleUrl></Placemark><Placemark><Polygon><outerBoundaryIs><LinearRing><coordinates>121.605782,25.05608,0.0 121.605639,25.05669,0.0 121.605617,25.056784,0.0 121.605554,25.05705,0.0 121.60555,25.05707,0.0 121.605493,25.057309,0.0 121.60536,25.057879,0.0 121.605196,25.057848,0.0 121.604037,25.057688,0.0 121.602667,25.057657,0.0 121.602354,25.057617,0.0 121.601764,25.057509,0.0 121.600895,25.057286,0.0 121.600155,25.057071,0.0 121.599969,25.056997,0.0 121.599025,25.056578,0.0 121.598271,25.05625,0.0 121.597409,25.055885,0.0 121.596485,25.055498,0.0 121.596277,25.055411,0.0 121.59458,25.054832,0.0 121.594772,25.054409,0.0 121.595303,25.054475,0.0 121.595598,25.054457,0.0 121.596278,25.054365,0.0 121.596377,25.054344,0.0 121.597616,25.054061,0.0 121.598048,25.054088,0.0 121.598275,25.054089,0.0 121.599105,25.054238,0.0 121.599262,25.054287,0.0 121.599651,25.054505,0.0 121.599895,25.054746,0.0 121.600507,25.054578,0.0 121.601129,25.054567,0.0 121.601692,25.054644,0.0 121.601814,25.054661,0.0 121.602162,25.05474,0.0 121.602529,25.054881,0.0 121.603037,25.055113,0.0 121.603073,25.055138,0.0 121.603466,25.055416,0.0 121.603852,25.055729,0.0 121.604133,25.055908,0.0 121.604208,25.055939,0.0 121.60448,25.056019,0.0 121.604654,25.056047,0.0 121.605194,25.05602,0.0 121.605526,25.056025,0.0 121.605782,25.05608,0.0</coordinates></LinearRing></outerBoundaryIs></Polygon><styleUrl>#spolygon-map</styleUrl></Placemark><Placemark><Polygon><outerBoundaryIs><LinearRing><coordinates>121.59458,25.054832,0.0 121.59415,25.055582,0.0 121.593662,25.056439,0.0 121.592815,25.05793,0.0 121.592566,25.058364,0.0 121.592096,25.05918,0.0 121.590984,25.058053,0.0 121.590432,25.057532,0.0 121.589639,25.056781,0.0 121.589391,25.056546,0.0 121.588496,25.055964,0.0 121.587356,25.055216,0.0 121.587796,25.054945,0.0 121.587993,25.054292,0.0 121.588033,25.054159,0.0 121.588091,25.053966,0.0 121.588333,25.053159,0.0 121.58841,25.053058,0.0 121.588636,25.051983,0.0 121.588949,25.050557,0.0 121.589456,25.050477,0.0 121.589551,25.050493,0.0 121.5902,25.050592,0.0 121.590694,25.050663,0.0 121.59092,25.050699,0.0 121.592683,25.050977,0.0 121.593784,25.051151,0.0 121.594097,25.051198,0.0 121.595446,25.051639,0.0 121.594839,25.054134,0.0 121.594772,25.054409,0.0 121.59458,25.054832,0.0</coordinates></LinearRing></outerBoundaryIs></Polygon><styleUrl>#spolygon-map</styleUrl></Placemark><Placemark><Polygon><outerBoundaryIs><LinearRing><coordinates>121.59639,25.059677,0.0 121.59471,25.060188,0.0 121.593765,25.060115,0.0 121.592762,25.059712,0.0 121.592096,25.05918,0.0 121.592566,25.058364,0.0 121.592815,25.05793,0.0 121.593662,25.056439,0.0 121.59415,25.055582,0.0 121.59458,25.054832,0.0 121.596277,25.055411,0.0 121.596485,25.055498,0.0 121.597409,25.055885,0.0 121.598271,25.05625,0.0 121.599025,25.056578,0.0 121.599969,25.056997,0.0 121.600155,25.057071,0.0 121.600895,25.057286,0.0 121.601764,25.057509,0.0 121.602354,25.057617,0.0 121.602667,25.057657,0.0 121.604037,25.057688,0.0 121.605196,25.057848,0.0 121.605359,25.057884,0.0 121.605132,25.058793,0.0 121.605107,25.058896,0.0 121.605084,25.058982,0.0 121.604122,25.05927,0.0 121.603075,25.059135,0.0 121.599458,25.059035,0.0 121.598889,25.059093,0.0 121.597728,25.059265,0.0 121.59639,25.059677,0.0</coordinates></LinearRing></outerBoundaryIs></Polygon><styleUrl>#spolygon-map</styleUrl></Placemark><Placemark><Polygon><outerBoundaryIs><LinearRing><coordinates>121.611475,25.056267,0.0 121.611375,25.056324,0.0 121.611039,25.056521,0.0 121.610122,25.056948,0.0 121.609999,25.057693,0.0 121.609817,25.059111,0.0 121.609175,25.05884,0.0 121.608835,25.059684,0.0 121.6088,25.05977,0.0 121.608381,25.060198,0.0 121.607727,25.059953,0.0 121.604964,25.059385,0.0 121.60509,25.058962,0.0 121.605118,25.05885,0.0 121.605356,25.057893,0.0 121.60536,25.057881,0.0 121.605374,25.057822,0.0 121.605496,25.057298,0.0 121.605553,25.057055,0.0 121.605565,25.057002,0.0 121.605619,25.056773,0.0 121.605741,25.056251,0.0 121.605808,25.056086,0.0 121.605869,25.055848,0.0 121.605983,25.055353,0.0 121.606097,25.054838,0.0 121.606231,25.054277,0.0 121.606335,25.053762,0.0 121.606424,25.053258,0.0 121.606602,25.052697,0.0 121.608239,25.052965,0.0 121.608992,25.053088,0.0 121.611345,25.053541,0.0 121.611472,25.053567,0.0 121.612304,25.053735,0.0 121.612413,25.053756,0.0 121.612826,25.053797,0.0 121.613318,25.053912,0.0 121.613885,25.054008,0.0 121.614023,25.054032,0.0 121.614622,25.054128,0.0 121.61478,25.054398,0.0 121.614878,25.054704,0.0 121.614828,25.054908,0.0 121.615151,25.054996,0.0 121.615254,25.055275,0.0 121.613937,25.055279,0.0 121.613231,25.055356,0.0 121.613179,25.055361,0.0 121.61257,25.055682,0.0 121.612053,25.05594,0.0 121.611475,25.056267,0.0</coordinates></LinearRing></outerBoundaryIs></Polygon><styleUrl>#spolygon-map</styleUrl></Placemark><Placemark><Polygon><outerBoundaryIs><LinearRing><coordinates>121.616312,25.063952,0.0 121.615488,25.064162,0.0 121.614853,25.064324,0.0 121.614266,25.064473,0.0 121.613234,25.064348,0.0 121.612483,25.063908,0.0 121.612137,25.063343,0.0 121.611944,25.063028,0.0 121.61166,25.062565,0.0 121.61071,25.061583,0.0 121.610194,25.06105,0.0 121.608594,25.060277,0.0 121.608814,25.059734,0.0 121.608987,25.059307,0.0 121.609202,25.058851,0.0 121.609902,25.058449,0.0 121.610094,25.056957,0.0 121.610178,25.056446,0.0 121.611178,25.056444,0.0 121.611388,25.056317,0.0 121.612002,25.055964,0.0 121.612449,25.055747,0.0 121.612584,25.055674,0.0 121.613227,25.055356,0.0 121.613257,25.055353,0.0 121.613971,25.055276,0.0 121.615306,25.055275,0.0 121.616149,25.055194,0.0 121.616551,25.055155,0.0 121.616656,25.055145,0.0 121.618472,25.054885,0.0 121.618728,25.054841,0.0 121.61892,25.054804,0.0 121.619512,25.054734,0.0 121.620043,25.054766,0.0 121.620244,25.054797,0.0 121.620563,25.054851,0.0 121.620984,25.054922,0.0 121.62116,25.055969,0.0 121.621723,25.056451,0.0 121.62239,25.057022,0.0 121.623357,25.05718,0.0 121.622688,25.05824,0.0 121.621867,25.059878,0.0 121.62135,25.060703,0.0 121.620381,25.061915,0.0 121.619482,25.062674,0.0 121.61816,25.06329,0.0 121.617341,25.063584,0.0 121.616312,25.063952,0.0</coordinates></LinearRing></outerBoundaryIs></Polygon><styleUrl>#spolygon-map</styleUrl></Placemark></Document>
</kml>
