<?xml version="1.0" encoding="UTF-8"?>
<kml xmlns="http://www.opengis.net/kml/2.2">
	<Document>
		<name>臺南市將軍區</name>
		<Style id="spolygon">
			<LabelStyle>
				<scale>0.0</scale>
			</LabelStyle>
			<LineStyle>
				<color>330030ff</color>
				<width>0</width>
			</LineStyle>
			<PolyStyle>
				<color>330030ff</color>
			</PolyStyle>
		</Style>
		<StyleMap id="spolygon-map">
			<Pair>
				<key>normal</key>
				<styleUrl>#spolygon</styleUrl>
			</Pair>
		</StyleMap>
	<Placemark><Polygon><outerBoundaryIs><LinearRing><coordinates>120.090067,23.188194,0.0 120.08997,23.18884,0.0 120.089938,23.189093,0.0 120.089187,23.189398,0.0 120.087963,23.189417,0.0 120.087465,23.189435,0.0 120.087156,23.189477,0.0 120.086911,23.189476,0.0 120.086601,23.189289,0.0 120.086205,23.189192,0.0 120.086278,23.188303,0.0 120.086202,23.187969,0.0 120.086391,23.187521,0.0 120.088279,23.187406,0.0 120.088263,23.188096,0.0 120.090067,23.188194,0.0</coordinates></LinearRing></outerBoundaryIs></Polygon><styleUrl>#spolygon-map</styleUrl></Placemark><Placemark><Polygon><outerBoundaryIs><LinearRing><coordinates>120.174921,23.198679,0.0 120.174642,23.198682,0.0 120.172168,23.198681,0.0 120.17009,23.198672,0.0 120.168476,23.198686,0.0 120.166852,23.19868,0.0 120.165028,23.19869,0.0 120.16503,23.198925,0.0 120.164967,23.198979,0.0 120.163541,23.199061,0.0 120.163438,23.19905,0.0 120.163332,23.199004,0.0 120.163214,23.1989,0.0 120.16321,23.198897,0.0 120.162751,23.198903,0.0 120.162412,23.198904,0.0 120.161533,23.198982,0.0 120.161301,23.199036,0.0 120.161132,23.199179,0.0 120.160926,23.199198,0.0 120.160641,23.199124,0.0 120.160577,23.199099,0.0 120.159639,23.198744,0.0 120.159151,23.198714,0.0 120.158707,23.198602,0.0 120.15861,23.198505,0.0 120.158522,23.198272,0.0 120.158315,23.197681,0.0 120.158217,23.197111,0.0 120.15819,23.196916,0.0 120.158134,23.19593,0.0 120.158146,23.195044,0.0 120.156988,23.194966,0.0 120.155622,23.194881,0.0 120.155354,23.194388,0.0 120.155416,23.19388,0.0 120.155454,23.193669,0.0 120.155463,23.193559,0.0 120.155431,23.193443,0.0 120.155359,23.193353,0.0 120.155195,23.193243,0.0 120.154545,23.193119,0.0 120.153747,23.192988,0.0 120.153686,23.192598,0.0 120.153828,23.192291,0.0 120.153997,23.191998,0.0 120.15426,23.191582,0.0 120.154479,23.191327,0.0 120.154723,23.191108,0.0 120.154747,23.191031,0.0 120.154853,23.190584,0.0 120.154936,23.190365,0.0 120.155007,23.190212,0.0 120.155054,23.189947,0.0 120.154511,23.189849,0.0 120.154379,23.189852,0.0 120.154262,23.19031,0.0 120.154184,23.190348,0.0 120.153193,23.190293,0.0 120.152542,23.190351,0.0 120.152256,23.1901,0.0 120.151842,23.188177,0.0 120.152974,23.187959,0.0 120.156401,23.18728,0.0 120.156548,23.187242,0.0 120.156775,23.187139,0.0 120.157207,23.186913,0.0 120.158048,23.186597,0.0 120.160365,23.185749,0.0 120.161147,23.184349,0.0 120.161544,23.183718,0.0 120.161778,23.183745,0.0 120.162091,23.183897,0.0 120.162394,23.183952,0.0 120.166667,23.184033,0.0 120.167148,23.184046,0.0 120.167248,23.184073,0.0 120.167557,23.184147,0.0 120.168036,23.184195,0.0 120.168398,23.184269,0.0 120.168612,23.184381,0.0 120.168797,23.184578,0.0 120.168987,23.184755,0.0 120.16921,23.184919,0.0 120.169565,23.185043,0.0 120.169763,23.185116,0.0 120.169928,23.185295,0.0 120.170141,23.18563,0.0 120.170391,23.186126,0.0 120.17059,23.186624,0.0 120.170632,23.186818,0.0 120.170662,23.187159,0.0 120.170766,23.18744,0.0 120.170788,23.188004,0.0 120.170794,23.188611,0.0 120.170824,23.189178,0.0 120.170838,23.190273,0.0 120.170903,23.190964,0.0 120.171014,23.191674,0.0 120.171172,23.192228,0.0 120.171413,23.192845,0.0 120.17164,23.193255,0.0 120.171874,23.193579,0.0 120.171969,23.193691,0.0 120.172171,23.193987,0.0 120.172637,23.19459,0.0 120.173169,23.195256,0.0 120.173539,23.195703,0.0 120.174019,23.196301,0.0 120.174344,23.196779,0.0 120.174519,23.197196,0.0 120.174574,23.19738,0.0 120.174709,23.197824,0.0 120.174829,23.198197,0.0 120.17489,23.198367,0.0 120.1749,23.198575,0.0 120.174921,23.198679,0.0</coordinates></LinearRing></outerBoundaryIs></Polygon><styleUrl>#spolygon-map</styleUrl></Placemark><Placemark><Polygon><outerBoundaryIs><LinearRing><coordinates>120.158404,23.198297,0.0 120.158318,23.198399,0.0 120.157609,23.199143,0.0 120.156678,23.200109,0.0 120.156474,23.20033,0.0 120.155988,23.200867,0.0 120.155168,23.201751,0.0 120.154741,23.201527,0.0 120.154455,23.201444,0.0 120.154315,23.201446,0.0 120.154238,23.201472,0.0 120.153941,23.201628,0.0 120.15286,23.201649,0.0 120.152441,23.199859,0.0 120.152783,23.198177,0.0 120.152909,23.197899,0.0 120.153068,23.197641,0.0 120.153127,23.197246,0.0 120.15314,23.19722,0.0 120.153371,23.196827,0.0 120.152946,23.196799,0.0 120.153014,23.195723,0.0 120.153032,23.194997,0.0 120.153045,23.194825,0.0 120.153118,23.194604,0.0 120.153149,23.194232,0.0 120.153194,23.193792,0.0 120.153211,23.193725,0.0 120.153376,23.19333,0.0 120.153533,23.192933,0.0 120.154058,23.19305,0.0 120.154841,23.193169,0.0 120.155254,23.19327,0.0 120.155405,23.193402,0.0 120.155453,23.193504,0.0 120.155462,23.193624,0.0 120.155421,23.193819,0.0 120.155407,23.194303,0.0 120.155183,23.194684,0.0 120.155996,23.194946,0.0 120.158154,23.19499,0.0 120.158144,23.19522,0.0 120.158182,23.196852,0.0 120.158198,23.19697,0.0 120.158311,23.197661,0.0 120.158404,23.198297,0.0</coordinates></LinearRing></outerBoundaryIs></Polygon><styleUrl>#spolygon-map</styleUrl></Placemark><Placemark><Polygon><outerBoundaryIs><LinearRing><coordinates>120.15068,23.203317,0.0 120.150588,23.203545,0.0 120.150555,23.203956,0.0 120.15052,23.204018,0.0 120.150424,23.204062,0.0 120.150297,23.204066,0.0 120.149892,23.204052,0.0 120.149812,23.204058,0.0 120.149761,23.204072,0.0 120.149665,23.204153,0.0 120.149589,23.204303,0.0 120.149529,23.204354,0.0 120.149478,23.204364,0.0 120.149228,23.204351,0.0 120.148994,23.204327,0.0 120.148811,23.204288,0.0 120.148066,23.204122,0.0 120.147771,23.200914,0.0 120.14772,23.200788,0.0 120.140245,23.200761,0.0 120.134057,23.201206,0.0 120.13384,23.199158,0.0 120.13367,23.197206,0.0 120.133521,23.195295,0.0 120.133474,23.194409,0.0 120.135627,23.195104,0.0 120.135864,23.195237,0.0 120.136058,23.195394,0.0 120.136455,23.195521,0.0 120.137288,23.19574,0.0 120.139594,23.195895,0.0 120.140023,23.195877,0.0 120.140125,23.195787,0.0 120.140315,23.195289,0.0 120.140338,23.195113,0.0 120.140401,23.194637,0.0 120.140396,23.194427,0.0 120.140452,23.194126,0.0 120.140539,23.193783,0.0 120.14062,23.193387,0.0 120.140665,23.193132,0.0 120.140722,23.192805,0.0 120.140792,23.192311,0.0 120.140738,23.192116,0.0 120.140578,23.191853,0.0 120.140521,23.191573,0.0 120.141252,23.191488,0.0 120.141359,23.190973,0.0 120.14141,23.190596,0.0 120.141488,23.190265,0.0 120.141651,23.189807,0.0 120.141733,23.189641,0.0 120.141798,23.189522,0.0 120.142014,23.189039,0.0 120.142292,23.188468,0.0 120.142726,23.187833,0.0 120.142952,23.187473,0.0 120.143303,23.186929,0.0 120.143596,23.186899,0.0 120.144038,23.187059,0.0 120.144551,23.187277,0.0 120.144985,23.187474,0.0 120.146427,23.188345,0.0 120.146718,23.188507,0.0 120.146925,23.188548,0.0 120.147085,23.188539,0.0 120.147482,23.188427,0.0 120.147655,23.188403,0.0 120.14804,23.188423,0.0 120.148335,23.18847,0.0 120.148771,23.188446,0.0 120.148829,23.188462,0.0 120.148861,23.188522,0.0 120.148911,23.188749,0.0 120.149383,23.188991,0.0 120.149658,23.188979,0.0 120.149995,23.188995,0.0 120.150544,23.18909,0.0 120.150863,23.189169,0.0 120.150988,23.189117,0.0 120.151048,23.188951,0.0 120.151043,23.188326,0.0 120.151842,23.188177,0.0 120.152256,23.1901,0.0 120.152542,23.190351,0.0 120.153193,23.190293,0.0 120.154184,23.190348,0.0 120.154262,23.19031,0.0 120.154379,23.189852,0.0 120.154511,23.189849,0.0 120.155054,23.189947,0.0 120.155007,23.190212,0.0 120.154936,23.190365,0.0 120.154853,23.190584,0.0 120.154747,23.191031,0.0 120.154723,23.191108,0.0 120.154479,23.191327,0.0 120.15426,23.191582,0.0 120.153997,23.191998,0.0 120.153828,23.192291,0.0 120.153686,23.192598,0.0 120.153446,23.193159,0.0 120.153239,23.193646,0.0 120.153204,23.193744,0.0 120.153189,23.193818,0.0 120.153133,23.194416,0.0 120.153082,23.194725,0.0 120.153016,23.194903,0.0 120.153061,23.195171,0.0 120.152921,23.196798,0.0 120.153093,23.196809,0.0 120.153262,23.197052,0.0 120.153127,23.197237,0.0 120.153137,23.197434,0.0 120.152984,23.197777,0.0 120.152836,23.198053,0.0 120.152618,23.198726,0.0 120.152172,23.201576,0.0 120.150905,23.201475,0.0 120.15068,23.203317,0.0</coordinates></LinearRing></outerBoundaryIs></Polygon><styleUrl>#spolygon-map</styleUrl></Placemark><Placemark><Polygon><outerBoundaryIs><LinearRing><coordinates>120.117459,23.198913,0.0 120.10497,23.198907,0.0 120.09707,23.198902,0.0 120.090952,23.199066,0.0 120.09033,23.200042,0.0 120.090136,23.201571,0.0 120.090066,23.202118,0.0 120.09003,23.20253,0.0 120.090075,23.202859,0.0 120.090207,23.203682,0.0 120.090364,23.20468,0.0 120.090654,23.206558,0.0 120.090642,23.206619,0.0 120.088677,23.206989,0.0 120.086586,23.207231,0.0 120.086202,23.207287,0.0 120.08548,23.207352,0.0 120.084987,23.207423,0.0 120.084109,23.207511,0.0 120.083032,23.207672,0.0 120.082381,23.207772,0.0 120.080426,23.208013,0.0 120.080623,23.206612,0.0 120.080424,23.204458,0.0 120.079188,23.201753,0.0 120.079093,23.201718,0.0 120.078929,23.201799,0.0 120.078303,23.202091,0.0 120.078246,23.202079,0.0 120.078226,23.202002,0.0 120.078831,23.20171,0.0 120.078909,23.201704,0.0 120.079077,23.201583,0.0 120.078822,23.201083,0.0 120.078151,23.199823,0.0 120.077254,23.198071,0.0 120.077174,23.198059,0.0 120.076912,23.198177,0.0 120.076869,23.19826,0.0 120.076461,23.198454,0.0 120.076354,23.198454,0.0 120.076288,23.198399,0.0 120.076299,23.198311,0.0 120.076718,23.198113,0.0 120.076805,23.198109,0.0 120.076892,23.198109,0.0 120.077154,23.197957,0.0 120.076964,23.197568,0.0 120.075343,23.19443,0.0 120.075258,23.194413,0.0 120.074948,23.194572,0.0 120.074882,23.194635,0.0 120.074489,23.194793,0.0 120.074415,23.194704,0.0 120.074437,23.194637,0.0 120.074831,23.194479,0.0 120.075217,23.194298,0.0 120.075233,23.194248,0.0 120.073826,23.191457,0.0 120.073423,23.19075,0.0 120.07334,23.19075,0.0 120.072585,23.19107,0.0 120.072544,23.191023,0.0 120.072561,23.190982,0.0 120.073289,23.190609,0.0 120.073293,23.190505,0.0 120.071786,23.187842,0.0 120.069143,23.184614,0.0 120.066653,23.18445,0.0 120.065672,23.18444,0.0 120.065668,23.184347,0.0 120.065686,23.184334,0.0 120.066711,23.184342,0.0 120.067331,23.184725,0.0 120.067566,23.184706,0.0 120.068142,23.184617,0.0 120.068612,23.184496,0.0 120.069052,23.183905,0.0 120.069229,23.183605,0.0 120.069247,23.183432,0.0 120.069095,23.18299,0.0 120.070478,23.18293,0.0 120.08304,23.18877,0.0 120.083905,23.189111,0.0 120.086084,23.187607,0.0 120.086265,23.188174,0.0 120.086264,23.188442,0.0 120.086572,23.189282,0.0 120.086578,23.189412,0.0 120.086955,23.189476,0.0 120.08744,23.189438,0.0 120.087912,23.189419,0.0 120.088547,23.189415,0.0 120.08918,23.189196,0.0 120.089961,23.188909,0.0 120.090032,23.188426,0.0 120.092871,23.18834,0.0 120.092925,23.188076,0.0 120.092977,23.187825,0.0 120.093032,23.187749,0.0 120.09336,23.187415,0.0 120.093631,23.187213,0.0 120.094043,23.186931,0.0 120.094498,23.186687,0.0 120.095153,23.186359,0.0 120.09559,23.186181,0.0 120.096125,23.185925,0.0 120.096428,23.185768,0.0 120.096664,23.185648,0.0 120.096889,23.185557,0.0 120.097317,23.185333,0.0 120.097567,23.185211,0.0 120.097851,23.185072,0.0 120.097989,23.185023,0.0 120.098045,23.185168,0.0 120.098178,23.185176,0.0 120.098371,23.185091,0.0 120.098558,23.185083,0.0 120.098721,23.185195,0.0 120.098872,23.185331,0.0 120.099081,23.185368,0.0 120.099322,23.185318,0.0 120.099622,23.185247,0.0 120.099897,23.185177,0.0 120.100579,23.184957,0.0 120.101053,23.18482,0.0 120.101297,23.184738,0.0 120.101661,23.184514,0.0 120.102082,23.184194,0.0 120.102408,23.183888,0.0 120.102886,23.183399,0.0 120.103041,23.183244,0.0 120.103272,23.183207,0.0 120.103448,23.18324,0.0 120.103629,23.183211,0.0 120.103778,23.183226,0.0 120.103846,23.183337,0.0 120.103802,23.183452,0.0 120.103766,23.183634,0.0 120.103854,23.183791,0.0 120.104115,23.184004,0.0 120.104691,23.184231,0.0 120.105023,23.184309,0.0 120.105383,23.184402,0.0 120.105992,23.184518,0.0 120.106251,23.184405,0.0 120.106718,23.184096,0.0 120.107175,23.183706,0.0 120.107452,23.183454,0.0 120.107545,23.183446,0.0 120.10775,23.183691,0.0 120.107981,23.184008,0.0 120.10814,23.184036,0.0 120.108285,23.183734,0.0 120.108354,23.183556,0.0 120.10847,23.183516,0.0 120.108583,23.183693,0.0 120.108812,23.184053,0.0 120.109145,23.184486,0.0 120.109393,23.184808,0.0 120.109754,23.185219,0.0 120.110056,23.185437,0.0 120.11032,23.185536,0.0 120.110726,23.18555,0.0 120.111094,23.185561,0.0 120.111309,23.185664,0.0 120.111436,23.185885,0.0 120.111552,23.186155,0.0 120.111692,23.186241,0.0 120.112053,23.186266,0.0 120.112509,23.186273,0.0 120.112866,23.186266,0.0 120.113092,23.186222,0.0 120.113396,23.186016,0.0 120.11367,23.185787,0.0 120.114007,23.1855,0.0 120.114399,23.185047,0.0 120.114595,23.184817,0.0 120.115091,23.184224,0.0 120.115474,23.183741,0.0 120.115613,23.183649,0.0 120.115761,23.183666,0.0 120.116287,23.183924,0.0 120.116678,23.184175,0.0 120.116936,23.184352,0.0 120.117152,23.184407,0.0 120.117364,23.184384,0.0 120.117509,23.184409,0.0 120.117642,23.184539,0.0 120.117824,23.18449,0.0 120.117972,23.184353,0.0 120.118126,23.184291,0.0 120.118272,23.184127,0.0 120.11846,23.183859,0.0 120.118791,23.183554,0.0 120.119235,23.183236,0.0 120.11969,23.182981,0.0 120.120052,23.182862,0.0 120.12027,23.18268,0.0 120.120312,23.182495,0.0 120.120379,23.182347,0.0 120.120389,23.185079,0.0 120.120214,23.188336,0.0 120.120188,23.188598,0.0 120.120162,23.190231,0.0 120.120191,23.190689,0.0 120.120275,23.192465,0.0 120.120257,23.195905,0.0 120.120238,23.19819,0.0 120.120192,23.198322,0.0 120.120005,23.198571,0.0 120.120015,23.198683,0.0 120.119845,23.198841,0.0 120.118821,23.198912,0.0 120.117459,23.198913,0.0</coordinates></LinearRing></outerBoundaryIs></Polygon><styleUrl>#spolygon-map</styleUrl></Placemark><Placemark><Polygon><outerBoundaryIs><LinearRing><coordinates>120.176909,23.205331,0.0 120.176688,23.205331,0.0 120.174627,23.205332,0.0 120.167565,23.205336,0.0 120.167301,23.205191,0.0 120.166444,23.205379,0.0 120.165283,23.205682,0.0 120.164506,23.205692,0.0 120.164561,23.206853,0.0 120.164592,23.207195,0.0 120.164717,23.208113,0.0 120.160993,23.209328,0.0 120.160636,23.208492,0.0 120.159961,23.206912,0.0 120.15975,23.206899,0.0 120.156783,23.206138,0.0 120.15685,23.20566,0.0 120.15622,23.205568,0.0 120.155542,23.205407,0.0 120.154585,23.204323,0.0 120.154427,23.20429,0.0 120.154448,23.204184,0.0 120.154407,23.204132,0.0 120.153662,23.204056,0.0 120.153426,23.204003,0.0 120.153187,23.203934,0.0 120.153049,23.203919,0.0 120.152902,23.203912,0.0 120.152253,23.203863,0.0 120.152153,23.203847,0.0 120.152169,23.20327,0.0 120.150773,23.203312,0.0 120.150905,23.201475,0.0 120.152172,23.201576,0.0 120.153163,23.201619,0.0 120.153977,23.201621,0.0 120.154268,23.201456,0.0 120.154378,23.201441,0.0 120.154582,23.201471,0.0 120.155019,23.201653,0.0 120.155785,23.201084,0.0 120.156389,23.200437,0.0 120.156529,23.200261,0.0 120.156918,23.199865,0.0 120.158238,23.198494,0.0 120.158395,23.198307,0.0 120.158522,23.198272,0.0 120.15861,23.198505,0.0 120.158707,23.198602,0.0 120.159151,23.198714,0.0 120.159639,23.198744,0.0 120.160577,23.199099,0.0 120.160641,23.199124,0.0 120.160926,23.199198,0.0 120.161132,23.199179,0.0 120.161301,23.199036,0.0 120.161533,23.198982,0.0 120.162412,23.198904,0.0 120.162751,23.198903,0.0 120.16321,23.198897,0.0 120.163214,23.1989,0.0 120.163332,23.199004,0.0 120.163438,23.19905,0.0 120.163541,23.199061,0.0 120.164967,23.198979,0.0 120.16503,23.198925,0.0 120.165028,23.19869,0.0 120.166852,23.19868,0.0 120.168476,23.198686,0.0 120.17009,23.198672,0.0 120.172168,23.198681,0.0 120.174642,23.198682,0.0 120.174921,23.198679,0.0 120.175031,23.199124,0.0 120.175208,23.199899,0.0 120.175307,23.200457,0.0 120.175389,23.20095,0.0 120.175452,23.20132,0.0 120.17549,23.201607,0.0 120.175556,23.202007,0.0 120.175639,23.202464,0.0 120.175659,23.202658,0.0 120.175826,23.203167,0.0 120.175934,23.203483,0.0 120.176256,23.204126,0.0 120.176593,23.204792,0.0 120.176909,23.205331,0.0</coordinates></LinearRing></outerBoundaryIs></Polygon><styleUrl>#spolygon-map</styleUrl></Placemark><Placemark><Polygon><outerBoundaryIs><LinearRing><coordinates>120.134024,23.201209,0.0 120.134309,23.204761,0.0 120.134422,23.206011,0.0 120.134525,23.207377,0.0 120.134641,23.208689,0.0 120.134722,23.209766,0.0 120.13495,23.212545,0.0 120.135118,23.214508,0.0 120.13513,23.214668,0.0 120.134954,23.214535,0.0 120.134792,23.214338,0.0 120.134707,23.214272,0.0 120.134639,23.21422,0.0 120.134253,23.213399,0.0 120.13395,23.212681,0.0 120.132322,23.212892,0.0 120.13142,23.211053,0.0 120.130763,23.208793,0.0 120.129107,23.209068,0.0 120.128939,23.206255,0.0 120.126784,23.206165,0.0 120.126773,23.205945,0.0 120.126741,23.205907,0.0 120.126518,23.205797,0.0 120.126438,23.205752,0.0 120.126411,23.205686,0.0 120.126432,23.205555,0.0 120.12647,23.205314,0.0 120.126463,23.205266,0.0 120.126426,23.205219,0.0 120.125849,23.204876,0.0 120.125455,23.204644,0.0 120.125094,23.20453,0.0 120.12446,23.204353,0.0 120.123328,23.204041,0.0 120.122875,23.203941,0.0 120.122827,23.203932,0.0 120.122108,23.203854,0.0 120.121081,23.203871,0.0 120.120639,23.20393,0.0 120.120234,23.204029,0.0 120.118989,23.204081,0.0 120.118511,23.204116,0.0 120.118503,23.204056,0.0 120.118423,23.203296,0.0 120.118311,23.20271,0.0 120.118375,23.202589,0.0 120.119579,23.202472,0.0 120.119621,23.202436,0.0 120.119024,23.200503,0.0 120.118905,23.200284,0.0 120.118497,23.200043,0.0 120.117947,23.199791,0.0 120.117655,23.199678,0.0 120.11751,23.199132,0.0 120.118821,23.198912,0.0 120.119845,23.198841,0.0 120.120015,23.198683,0.0 120.120005,23.198571,0.0 120.120192,23.198322,0.0 120.120238,23.19819,0.0 120.120257,23.195905,0.0 120.120275,23.192465,0.0 120.120191,23.190689,0.0 120.120162,23.190231,0.0 120.120188,23.188598,0.0 120.120214,23.188336,0.0 120.120389,23.185079,0.0 120.120615,23.182209,0.0 120.124236,23.18167,0.0 120.124855,23.183223,0.0 120.124908,23.183401,0.0 120.125031,23.183634,0.0 120.125138,23.183682,0.0 120.125325,23.183672,0.0 120.125648,23.183538,0.0 120.12605,23.183394,0.0 120.126363,23.183289,0.0 120.126735,23.18317,0.0 120.127097,23.183029,0.0 120.127475,23.182846,0.0 120.127681,23.182635,0.0 120.127825,23.182514,0.0 120.127919,23.182429,0.0 120.128061,23.182362,0.0 120.12824,23.182352,0.0 120.128481,23.182391,0.0 120.128928,23.182514,0.0 120.12926,23.182595,0.0 120.129564,23.182718,0.0 120.12958,23.183066,0.0 120.129568,23.183549,0.0 120.129508,23.183819,0.0 120.129358,23.184214,0.0 120.129242,23.184427,0.0 120.129034,23.184686,0.0 120.128868,23.184814,0.0 120.128682,23.184851,0.0 120.128367,23.18493,0.0 120.128214,23.184965,0.0 120.12779,23.18504,0.0 120.127465,23.185111,0.0 120.127409,23.185167,0.0 120.127379,23.185523,0.0 120.127395,23.185652,0.0 120.127429,23.18597,0.0 120.127462,23.186201,0.0 120.127418,23.186846,0.0 120.127417,23.187214,0.0 120.127508,23.18733,0.0 120.127547,23.187429,0.0 120.127502,23.187718,0.0 120.127381,23.188187,0.0 120.127324,23.188373,0.0 120.127288,23.188493,0.0 120.127192,23.18878,0.0 120.127158,23.189028,0.0 120.12718,23.189242,0.0 120.127235,23.189543,0.0 120.127261,23.189721,0.0 120.127306,23.189898,0.0 120.127356,23.190316,0.0 120.127361,23.190765,0.0 120.127348,23.190968,0.0 120.127256,23.191308,0.0 120.127068,23.191827,0.0 120.126975,23.192126,0.0 120.126844,23.192618,0.0 120.126926,23.192817,0.0 120.126906,23.193033,0.0 120.126619,23.193099,0.0 120.12651,23.193282,0.0 120.126489,23.193706,0.0 120.126656,23.193883,0.0 120.127015,23.194174,0.0 120.127181,23.194279,0.0 120.127536,23.194475,0.0 120.127762,23.194639,0.0 120.128091,23.19481,0.0 120.128396,23.194932,0.0 120.12868,23.194971,0.0 120.128823,23.194985,0.0 120.129193,23.194854,0.0 120.129631,23.194642,0.0 120.130168,23.194269,0.0 120.130816,23.193784,0.0 120.130999,23.193729,0.0 120.131217,23.193629,0.0 120.131331,23.193544,0.0 120.131979,23.193955,0.0 120.132257,23.194109,0.0 120.13252,23.19416,0.0 120.132907,23.194248,0.0 120.133434,23.194396,0.0 120.133659,23.197079,0.0 120.133827,23.199013,0.0 120.134024,23.201209,0.0</coordinates></LinearRing></outerBoundaryIs></Polygon><styleUrl>#spolygon-map</styleUrl></Placemark><Placemark><Polygon><outerBoundaryIs><LinearRing><coordinates>120.130778,23.215078,0.0 120.128715,23.215333,0.0 120.126348,23.215646,0.0 120.120839,23.216336,0.0 120.120322,23.216321,0.0 120.120456,23.215759,0.0 120.119172,23.215893,0.0 120.119088,23.215889,0.0 120.118653,23.215767,0.0 120.117355,23.215924,0.0 120.117579,23.214979,0.0 120.117404,23.213419,0.0 120.116947,23.213587,0.0 120.116808,23.213439,0.0 120.116333,23.212677,0.0 120.115599,23.211581,0.0 120.115625,23.211032,0.0 120.113999,23.211553,0.0 120.112534,23.211545,0.0 120.112369,23.211221,0.0 120.111844,23.21143,0.0 120.111642,23.211538,0.0 120.111313,23.211623,0.0 120.110794,23.211729,0.0 120.110369,23.211763,0.0 120.110118,23.21177,0.0 120.109625,23.211854,0.0 120.10878,23.212011,0.0 120.108741,23.212024,0.0 120.108724,23.21204,0.0 120.108655,23.212067,0.0 120.108635,23.212022,0.0 120.10804,23.210144,0.0 120.108306,23.210124,0.0 120.108595,23.209995,0.0 120.108891,23.209724,0.0 120.108969,23.209545,0.0 120.109001,23.209472,0.0 120.109026,23.20807,0.0 120.109043,23.207376,0.0 120.109228,23.207004,0.0 120.109327,23.20681,0.0 120.109753,23.206443,0.0 120.111264,23.20508,0.0 120.111652,23.204739,0.0 120.11194,23.20463,0.0 120.112659,23.204586,0.0 120.112973,23.204569,0.0 120.114356,23.20449,0.0 120.114394,23.204487,0.0 120.116576,23.204334,0.0 120.117233,23.204337,0.0 120.117571,23.204357,0.0 120.11785,23.20428,0.0 120.118431,23.204124,0.0 120.118742,23.204093,0.0 120.119577,23.204069,0.0 120.120528,23.203983,0.0 120.120775,23.203887,0.0 120.121732,23.203831,0.0 120.122749,23.203917,0.0 120.122858,23.203938,0.0 120.123023,23.20397,0.0 120.124065,23.204241,0.0 120.124672,23.204413,0.0 120.125297,23.204594,0.0 120.125685,23.204774,0.0 120.126162,23.205065,0.0 120.126453,23.205242,0.0 120.126467,23.205294,0.0 120.126455,23.205414,0.0 120.126412,23.205642,0.0 120.126418,23.205726,0.0 120.126468,23.205774,0.0 120.126643,23.205859,0.0 120.126764,23.205927,0.0 120.126778,23.205963,0.0 120.12685,23.206167,0.0 120.129004,23.207343,0.0 120.129186,23.209057,0.0 120.131075,23.208741,0.0 120.131706,23.212973,0.0 120.133039,23.212804,0.0 120.13414,23.212656,0.0 120.134342,23.213465,0.0 120.134666,23.214252,0.0 120.134752,23.2143,0.0 120.134812,23.214362,0.0 120.134959,23.214541,0.0 120.133044,23.214797,0.0 120.130778,23.215078,0.0</coordinates></LinearRing></outerBoundaryIs></Polygon><styleUrl>#spolygon-map</styleUrl></Placemark><Placemark><Polygon><outerBoundaryIs><LinearRing><coordinates>120.148066,23.204122,0.0 120.148119,23.204403,0.0 120.148245,23.205672,0.0 120.148239,23.205762,0.0 120.14828,23.206306,0.0 120.148329,23.206966,0.0 120.14838,23.207492,0.0 120.148448,23.208422,0.0 120.147698,23.208366,0.0 120.145499,23.208227,0.0 120.141594,23.207971,0.0 120.141576,23.208903,0.0 120.14148,23.21197,0.0 120.141459,23.212686,0.0 120.141411,23.214599,0.0 120.14136,23.216292,0.0 120.143513,23.216566,0.0 120.143628,23.216545,0.0 120.143742,23.216237,0.0 120.143841,23.216015,0.0 120.143918,23.215931,0.0 120.143971,23.215916,0.0 120.144248,23.215955,0.0 120.144312,23.215947,0.0 120.144498,23.215779,0.0 120.14468,23.21575,0.0 120.144744,23.215765,0.0 120.144769,23.21578,0.0 120.144968,23.215968,0.0 120.143891,23.217549,0.0 120.143598,23.217899,0.0 120.141335,23.217293,0.0 120.140833,23.217153,0.0 120.139853,23.216888,0.0 120.139439,23.216777,0.0 120.139168,23.216699,0.0 120.138833,23.216595,0.0 120.138548,23.216408,0.0 120.137773,23.215758,0.0 120.137421,23.215505,0.0 120.137182,23.215379,0.0 120.136902,23.215292,0.0 120.136841,23.215291,0.0 120.136765,23.215304,0.0 120.136087,23.215525,0.0 120.13523,23.214742,0.0 120.135118,23.214515,0.0 120.135086,23.214098,0.0 120.134787,23.210603,0.0 120.134646,23.208743,0.0 120.134544,23.207628,0.0 120.13444,23.206253,0.0 120.1344,23.205712,0.0 120.13412,23.20247,0.0 120.134057,23.201206,0.0 120.140245,23.200761,0.0 120.14772,23.200788,0.0 120.147771,23.200914,0.0 120.148066,23.204122,0.0</coordinates></LinearRing></outerBoundaryIs></Polygon><styleUrl>#spolygon-map</styleUrl></Placemark><Placemark><Polygon><outerBoundaryIs><LinearRing><coordinates>120.15873,23.214683,0.0 120.157772,23.218499,0.0 120.157731,23.218616,0.0 120.15767,23.218677,0.0 120.15622,23.21863,0.0 120.155244,23.218603,0.0 120.15323,23.218517,0.0 120.14974,23.218396,0.0 120.146775,23.218285,0.0 120.144775,23.218202,0.0 120.14363,23.217907,0.0 120.144461,23.216711,0.0 120.144946,23.215947,0.0 120.144761,23.215773,0.0 120.144726,23.215757,0.0 120.144626,23.215749,0.0 120.144363,23.21591,0.0 120.144283,23.215956,0.0 120.144014,23.215916,0.0 120.143943,23.21592,0.0 120.14389,23.215955,0.0 120.143823,23.216046,0.0 120.143648,23.216526,0.0 120.143586,23.216559,0.0 120.141354,23.216516,0.0 120.141411,23.214802,0.0 120.141412,23.21455,0.0 120.141463,23.212559,0.0 120.141515,23.210775,0.0 120.141578,23.208853,0.0 120.141619,23.207973,0.0 120.146917,23.208332,0.0 120.148416,23.20843,0.0 120.148468,23.208386,0.0 120.148349,23.207179,0.0 120.148304,23.20664,0.0 120.148265,23.206107,0.0 120.148245,23.205673,0.0 120.148235,23.205574,0.0 120.148074,23.204165,0.0 120.148442,23.204208,0.0 120.148879,23.204302,0.0 120.149075,23.204335,0.0 120.149341,23.204357,0.0 120.149482,23.204364,0.0 120.149565,23.204333,0.0 120.14962,23.204232,0.0 120.149698,23.204115,0.0 120.14981,23.204059,0.0 120.149871,23.204053,0.0 120.15001,23.204045,0.0 120.150356,23.204066,0.0 120.150478,23.20404,0.0 120.150543,23.203994,0.0 120.150569,23.203879,0.0 120.15067,23.203365,0.0 120.150773,23.203312,0.0 120.152169,23.20327,0.0 120.152153,23.203847,0.0 120.152253,23.203863,0.0 120.152902,23.203912,0.0 120.153049,23.203919,0.0 120.153187,23.203934,0.0 120.153426,23.204003,0.0 120.153662,23.204056,0.0 120.154407,23.204132,0.0 120.154448,23.204184,0.0 120.154427,23.20429,0.0 120.154585,23.204323,0.0 120.155542,23.205407,0.0 120.15622,23.205568,0.0 120.15685,23.20566,0.0 120.156783,23.206138,0.0 120.15975,23.206899,0.0 120.159961,23.206912,0.0 120.160636,23.208492,0.0 120.160993,23.209328,0.0 120.160152,23.209959,0.0 120.159905,23.209937,0.0 120.15941,23.211936,0.0 120.159057,23.21333,0.0 120.15873,23.214683,0.0</coordinates></LinearRing></outerBoundaryIs></Polygon><styleUrl>#spolygon-map</styleUrl></Placemark><Placemark><Polygon><outerBoundaryIs><LinearRing><coordinates>120.10804,23.210144,0.0 120.107582,23.210214,0.0 120.104756,23.210701,0.0 120.102666,23.211055,0.0 120.102598,23.211066,0.0 120.102133,23.211197,0.0 120.101787,23.211373,0.0 120.101462,23.211775,0.0 120.101305,23.212147,0.0 120.10131,23.212527,0.0 120.101315,23.212875,0.0 120.101285,23.214791,0.0 120.101095,23.21515,0.0 120.101,23.215289,0.0 120.100878,23.215447,0.0 120.100682,23.21559,0.0 120.100429,23.215689,0.0 120.100024,23.215685,0.0 120.099532,23.215716,0.0 120.098357,23.215717,0.0 120.09801,23.215712,0.0 120.097827,23.215751,0.0 120.097655,23.215824,0.0 120.09758,23.215872,0.0 120.097326,23.21608,0.0 120.097181,23.216125,0.0 120.097153,23.215395,0.0 120.096631,23.215553,0.0 120.096316,23.215527,0.0 120.095726,23.215567,0.0 120.095938,23.216069,0.0 120.096171,23.216576,0.0 120.096235,23.21726,0.0 120.096237,23.217359,0.0 120.095263,23.217248,0.0 120.094835,23.217172,0.0 120.094725,23.217153,0.0 120.094671,23.217139,0.0 120.094606,23.217078,0.0 120.094573,23.216926,0.0 120.094564,23.216888,0.0 120.094477,23.216726,0.0 120.094428,23.216668,0.0 120.09429,23.216641,0.0 120.094235,23.216663,0.0 120.094038,23.216688,0.0 120.093622,23.216652,0.0 120.092838,23.216647,0.0 120.091544,23.216641,0.0 120.091451,23.219161,0.0 120.09143,23.219215,0.0 120.091414,23.219238,0.0 120.091349,23.21927,0.0 120.090383,23.219398,0.0 120.084749,23.220135,0.0 120.084582,23.220146,0.0 120.082426,23.22038,0.0 120.082237,23.219875,0.0 120.079815,23.215384,0.0 120.079159,23.214739,0.0 120.076317,23.214646,0.0 120.076135,23.214575,0.0 120.074515,23.213071,0.0 120.07459,23.212986,0.0 120.074655,23.212988,0.0 120.076336,23.214375,0.0 120.081645,23.214415,0.0 120.08186,23.214272,0.0 120.082169,23.213274,0.0 120.082161,23.212784,0.0 120.08211,23.212653,0.0 120.081414,23.212592,0.0 120.081354,23.212565,0.0 120.081354,23.212452,0.0 120.081392,23.212416,0.0 120.081955,23.211476,0.0 120.081391,23.211633,0.0 120.081346,23.211538,0.0 120.081365,23.211504,0.0 120.082499,23.211127,0.0 120.082539,23.210949,0.0 120.082461,23.210416,0.0 120.082096,23.209398,0.0 120.081309,23.208262,0.0 120.081158,23.208141,0.0 120.080819,23.208216,0.0 120.075975,23.209405,0.0 120.074632,23.211144,0.0 120.074223,23.211656,0.0 120.074068,23.211592,0.0 120.074055,23.211533,0.0 120.075669,23.209312,0.0 120.075924,23.20912,0.0 120.080149,23.208136,0.0 120.082381,23.207772,0.0 120.083032,23.207672,0.0 120.084109,23.207511,0.0 120.084987,23.207423,0.0 120.08548,23.207352,0.0 120.086202,23.207287,0.0 120.086586,23.207231,0.0 120.088677,23.206989,0.0 120.090642,23.206619,0.0 120.090654,23.206558,0.0 120.090364,23.20468,0.0 120.090207,23.203682,0.0 120.090075,23.202859,0.0 120.09003,23.20253,0.0 120.090066,23.202118,0.0 120.090136,23.201571,0.0 120.09033,23.200042,0.0 120.090952,23.199066,0.0 120.09707,23.198902,0.0 120.10497,23.198907,0.0 120.117459,23.198913,0.0 120.117631,23.19965,0.0 120.11781,23.199729,0.0 120.118096,23.199878,0.0 120.118827,23.200224,0.0 120.118973,23.200369,0.0 120.119593,23.202405,0.0 120.119635,23.202442,0.0 120.118508,23.202565,0.0 120.118343,23.202632,0.0 120.118305,23.202803,0.0 120.118448,23.203648,0.0 120.118503,23.204059,0.0 120.118431,23.204124,0.0 120.11785,23.20428,0.0 120.117571,23.204357,0.0 120.117233,23.204337,0.0 120.116576,23.204334,0.0 120.114394,23.204487,0.0 120.114356,23.20449,0.0 120.112973,23.204569,0.0 120.112659,23.204586,0.0 120.11194,23.20463,0.0 120.111652,23.204739,0.0 120.111264,23.20508,0.0 120.109753,23.206443,0.0 120.109327,23.20681,0.0 120.109228,23.207004,0.0 120.109043,23.207376,0.0 120.109026,23.20807,0.0 120.109001,23.209472,0.0 120.108969,23.209545,0.0 120.108891,23.209724,0.0 120.108595,23.209995,0.0 120.108306,23.210124,0.0 120.10804,23.210144,0.0</coordinates></LinearRing></outerBoundaryIs></Polygon><styleUrl>#spolygon-map</styleUrl></Placemark><Placemark><Polygon><outerBoundaryIs><LinearRing><coordinates>120.175775,23.21865,0.0 120.175705,23.219117,0.0 120.175578,23.219688,0.0 120.17554,23.220022,0.0 120.175426,23.220547,0.0 120.175307,23.220984,0.0 120.174957,23.222251,0.0 120.174888,23.222608,0.0 120.174869,23.223064,0.0 120.174852,23.223251,0.0 120.174556,23.223694,0.0 120.174345,23.223957,0.0 120.174027,23.224488,0.0 120.173813,23.224979,0.0 120.173673,23.2252,0.0 120.173439,23.225242,0.0 120.173371,23.225191,0.0 120.173165,23.224973,0.0 120.171973,23.223993,0.0 120.170137,23.222465,0.0 120.168476,23.221113,0.0 120.167384,23.220191,0.0 120.167213,23.220053,0.0 120.166978,23.219999,0.0 120.166369,23.219966,0.0 120.165332,23.219962,0.0 120.165045,23.219906,0.0 120.165039,23.219338,0.0 120.16499,23.219085,0.0 120.164948,23.219034,0.0 120.164751,23.21889,0.0 120.163719,23.21888,0.0 120.162204,23.218842,0.0 120.160447,23.218779,0.0 120.159866,23.218753,0.0 120.159776,23.218156,0.0 120.159684,23.217336,0.0 120.159702,23.217288,0.0 120.159599,23.216628,0.0 120.159447,23.21577,0.0 120.159431,23.215631,0.0 120.159512,23.214793,0.0 120.158985,23.214701,0.0 120.15873,23.214683,0.0 120.159057,23.21333,0.0 120.15941,23.211936,0.0 120.159905,23.209937,0.0 120.160152,23.209959,0.0 120.160993,23.209328,0.0 120.164717,23.208113,0.0 120.164592,23.207195,0.0 120.164561,23.206853,0.0 120.164506,23.205692,0.0 120.165283,23.205682,0.0 120.166444,23.205379,0.0 120.167301,23.205191,0.0 120.167565,23.205336,0.0 120.174627,23.205332,0.0 120.176688,23.205331,0.0 120.176909,23.205331,0.0 120.177146,23.205822,0.0 120.177395,23.206275,0.0 120.177653,23.206775,0.0 120.177888,23.207331,0.0 120.178054,23.20789,0.0 120.178198,23.208243,0.0 120.178279,23.208593,0.0 120.178235,23.208807,0.0 120.178109,23.20918,0.0 120.177957,23.209691,0.0 120.177905,23.210214,0.0 120.177863,23.211022,0.0 120.177742,23.211694,0.0 120.177601,23.212161,0.0 120.177474,23.212413,0.0 120.177249,23.21301,0.0 120.177066,23.213449,0.0 120.176854,23.213988,0.0 120.176568,23.214867,0.0 120.176416,23.215358,0.0 120.176282,23.215723,0.0 120.176167,23.216126,0.0 120.176053,23.216451,0.0 120.175886,23.217269,0.0 120.175817,23.217633,0.0 120.175789,23.218034,0.0 120.175778,23.218603,0.0 120.175775,23.21865,0.0</coordinates></LinearRing></outerBoundaryIs></Polygon><styleUrl>#spolygon-map</styleUrl></Placemark><Placemark><Polygon><outerBoundaryIs><LinearRing><coordinates>120.122215,23.226666,0.0 120.121998,23.226696,0.0 120.121532,23.226768,0.0 120.120991,23.226837,0.0 120.119825,23.227027,0.0 120.11927,23.227107,0.0 120.11857,23.227176,0.0 120.118221,23.227205,0.0 120.117381,23.227232,0.0 120.116881,23.227236,0.0 120.116082,23.227218,0.0 120.115425,23.227174,0.0 120.114874,23.227094,0.0 120.114341,23.226994,0.0 120.113841,23.226885,0.0 120.113031,23.226709,0.0 120.112648,23.226619,0.0 120.112198,23.226587,0.0 120.111722,23.226562,0.0 120.111302,23.226548,0.0 120.110791,23.226534,0.0 120.109791,23.226582,0.0 120.109191,23.22662,0.0 120.108318,23.226669,0.0 120.108085,23.226665,0.0 120.107909,23.226669,0.0 120.107409,23.226506,0.0 120.107036,23.226234,0.0 120.108384,23.22438,0.0 120.10857,23.224337,0.0 120.108994,23.224111,0.0 120.109739,23.223667,0.0 120.109836,23.223634,0.0 120.110018,23.223587,0.0 120.110293,23.223554,0.0 120.110405,23.223556,0.0 120.11046,23.222893,0.0 120.110677,23.220373,0.0 120.111915,23.220455,0.0 120.11264,23.218692,0.0 120.112167,23.217784,0.0 120.111756,23.217009,0.0 120.11145,23.216203,0.0 120.110887,23.215367,0.0 120.110271,23.214785,0.0 120.110077,23.214729,0.0 120.109912,23.214406,0.0 120.109724,23.214171,0.0 120.109581,23.213943,0.0 120.10935,23.213516,0.0 120.109043,23.21307,0.0 120.108942,23.212899,0.0 120.108836,23.212606,0.0 120.108655,23.212067,0.0 120.108724,23.21204,0.0 120.108741,23.212024,0.0 120.10878,23.212011,0.0 120.109625,23.211854,0.0 120.110118,23.21177,0.0 120.110369,23.211763,0.0 120.110794,23.211729,0.0 120.111313,23.211623,0.0 120.111642,23.211538,0.0 120.111844,23.21143,0.0 120.112369,23.211221,0.0 120.112534,23.211545,0.0 120.113999,23.211553,0.0 120.115625,23.211032,0.0 120.115599,23.211581,0.0 120.116333,23.212677,0.0 120.116808,23.213439,0.0 120.116947,23.213587,0.0 120.117404,23.213419,0.0 120.117579,23.214979,0.0 120.117355,23.215924,0.0 120.118653,23.215767,0.0 120.119088,23.215889,0.0 120.119172,23.215893,0.0 120.120456,23.215759,0.0 120.120322,23.216321,0.0 120.120839,23.216336,0.0 120.126348,23.215646,0.0 120.128715,23.215333,0.0 120.130778,23.215078,0.0 120.130796,23.218028,0.0 120.130803,23.219038,0.0 120.130802,23.220045,0.0 120.13079,23.220909,0.0 120.130791,23.222016,0.0 120.130794,23.224558,0.0 120.130589,23.224992,0.0 120.129562,23.226612,0.0 120.129306,23.226836,0.0 120.128917,23.226762,0.0 120.128224,23.226683,0.0 120.127173,23.226646,0.0 120.125891,23.226621,0.0 120.125009,23.226607,0.0 120.124005,23.22659,0.0 120.123264,23.226588,0.0 120.12267,23.226616,0.0 120.122266,23.226666,0.0 120.122215,23.226666,0.0</coordinates></LinearRing></outerBoundaryIs></Polygon><styleUrl>#spolygon-map</styleUrl></Placemark><Placemark><Polygon><outerBoundaryIs><LinearRing><coordinates>120.14363,23.217907,0.0 120.143549,23.218017,0.0 120.1428,23.219125,0.0 120.141546,23.220996,0.0 120.140256,23.222909,0.0 120.138938,23.224823,0.0 120.137564,23.226831,0.0 120.137255,23.227319,0.0 120.136893,23.227823,0.0 120.136203,23.22934,0.0 120.135913,23.229173,0.0 120.135019,23.228662,0.0 120.134129,23.228161,0.0 120.133401,23.227782,0.0 120.133087,23.22769,0.0 120.132959,23.227669,0.0 120.132518,23.227527,0.0 120.131888,23.227351,0.0 120.131048,23.227117,0.0 120.130408,23.226982,0.0 120.12939,23.226848,0.0 120.130159,23.225669,0.0 120.130784,23.2247,0.0 120.130786,23.223951,0.0 120.130793,23.220948,0.0 120.130805,23.220538,0.0 120.130807,23.219945,0.0 120.130797,23.218798,0.0 120.13079,23.217057,0.0 120.133044,23.214797,0.0 120.134959,23.214541,0.0 120.13523,23.214742,0.0 120.136087,23.215525,0.0 120.136765,23.215304,0.0 120.136841,23.215291,0.0 120.136902,23.215292,0.0 120.137182,23.215379,0.0 120.137421,23.215505,0.0 120.137773,23.215758,0.0 120.138548,23.216408,0.0 120.138833,23.216595,0.0 120.139168,23.216699,0.0 120.139439,23.216777,0.0 120.139853,23.216888,0.0 120.140833,23.217153,0.0 120.141335,23.217293,0.0 120.143598,23.217899,0.0 120.14363,23.217907,0.0</coordinates></LinearRing></outerBoundaryIs></Polygon><styleUrl>#spolygon-map</styleUrl></Placemark><Placemark><Polygon><outerBoundaryIs><LinearRing><coordinates>120.164633,23.235279,0.0 120.164385,23.23544,0.0 120.16425,23.235579,0.0 120.164027,23.235858,0.0 120.163858,23.236108,0.0 120.163742,23.236316,0.0 120.163722,23.23485,0.0 120.163644,23.233386,0.0 120.163624,23.233298,0.0 120.163573,23.231463,0.0 120.163502,23.229554,0.0 120.163366,23.225713,0.0 120.163421,23.224801,0.0 120.163459,23.223927,0.0 120.163424,23.223609,0.0 120.162679,23.22362,0.0 120.16184,23.223682,0.0 120.161451,23.223611,0.0 120.161418,23.223389,0.0 120.161324,23.223266,0.0 120.161159,23.223215,0.0 120.160971,23.223208,0.0 120.160937,23.223154,0.0 120.160926,23.222732,0.0 120.160935,23.222622,0.0 120.160903,23.221855,0.0 120.160695,23.221759,0.0 120.16055,23.221654,0.0 120.160443,23.221502,0.0 120.160352,23.221301,0.0 120.160122,23.220745,0.0 120.159841,23.220295,0.0 120.159792,23.220163,0.0 120.159798,23.219985,0.0 120.159814,23.219864,0.0 120.159853,23.219234,0.0 120.159831,23.218752,0.0 120.16009,23.218763,0.0 120.160852,23.218796,0.0 120.16335,23.21887,0.0 120.164112,23.218874,0.0 120.164832,23.218925,0.0 120.164986,23.21908,0.0 120.165014,23.219158,0.0 120.16504,23.219756,0.0 120.165141,23.219942,0.0 120.16621,23.219966,0.0 120.166613,23.219969,0.0 120.167029,23.22001,0.0 120.167266,23.220096,0.0 120.167592,23.220358,0.0 120.168593,23.221212,0.0 120.170348,23.22264,0.0 120.172404,23.224338,0.0 120.173311,23.225131,0.0 120.173401,23.225213,0.0 120.173531,23.225311,0.0 120.173521,23.225319,0.0 120.173328,23.22546,0.0 120.173176,23.225694,0.0 120.172988,23.225839,0.0 120.172665,23.225973,0.0 120.172403,23.226123,0.0 120.17193,23.226437,0.0 120.171784,23.226528,0.0 120.171457,23.226714,0.0 120.171136,23.226841,0.0 120.170815,23.226986,0.0 120.170594,23.227066,0.0 120.170389,23.227191,0.0 120.17024,23.227301,0.0 120.170047,23.227519,0.0 120.169955,23.227647,0.0 120.169868,23.227861,0.0 120.169707,23.22831,0.0 120.169439,23.228828,0.0 120.169213,23.2293,0.0 120.169141,23.229524,0.0 120.169108,23.229993,0.0 120.169064,23.230722,0.0 120.168953,23.230979,0.0 120.168843,23.231224,0.0 120.168838,23.231572,0.0 120.168733,23.231885,0.0 120.168574,23.232482,0.0 120.168509,23.232721,0.0 120.168324,23.232991,0.0 120.168157,23.233148,0.0 120.167885,23.233312,0.0 120.167714,23.233446,0.0 120.167534,23.233637,0.0 120.167335,23.233875,0.0 120.167079,23.234098,0.0 120.166913,23.23425,0.0 120.166681,23.234421,0.0 120.166493,23.234489,0.0 120.166435,23.234595,0.0 120.16634,23.234755,0.0 120.166214,23.234836,0.0 120.165829,23.234915,0.0 120.165496,23.234972,0.0 120.164965,23.235147,0.0 120.164671,23.235261,0.0 120.164633,23.235279,0.0</coordinates></LinearRing></outerBoundaryIs></Polygon><styleUrl>#spolygon-map</styleUrl></Placemark><Placemark><Polygon><outerBoundaryIs><LinearRing><coordinates>120.155244,23.218603,0.0 120.155036,23.21899,0.0 120.155018,23.219076,0.0 120.153705,23.221269,0.0 120.153797,23.223931,0.0 120.153817,23.224818,0.0 120.153987,23.225944,0.0 120.154093,23.226867,0.0 120.154564,23.230328,0.0 120.155105,23.234099,0.0 120.155076,23.236758,0.0 120.154716,23.236625,0.0 120.154167,23.236394,0.0 120.153819,23.236237,0.0 120.153132,23.23594,0.0 120.152263,23.23572,0.0 120.151536,23.235579,0.0 120.150753,23.235426,0.0 120.150101,23.235255,0.0 120.148368,23.23486,0.0 120.147354,23.234642,0.0 120.146049,23.234321,0.0 120.145547,23.234192,0.0 120.144409,23.233854,0.0 120.143297,23.233428,0.0 120.142385,23.23301,0.0 120.141704,23.232649,0.0 120.14094,23.23218,0.0 120.139967,23.231583,0.0 120.1389,23.230921,0.0 120.137931,23.230326,0.0 120.136571,23.229553,0.0 120.136893,23.227823,0.0 120.137255,23.227319,0.0 120.137564,23.226831,0.0 120.138938,23.224823,0.0 120.140256,23.222909,0.0 120.141546,23.220996,0.0 120.1428,23.219125,0.0 120.143549,23.218017,0.0 120.14363,23.217907,0.0 120.144775,23.218202,0.0 120.146775,23.218285,0.0 120.14974,23.218396,0.0 120.15323,23.218517,0.0 120.155244,23.218603,0.0</coordinates></LinearRing></outerBoundaryIs></Polygon><styleUrl>#spolygon-map</styleUrl></Placemark><Placemark><Polygon><outerBoundaryIs><LinearRing><coordinates>120.163701,23.236379,0.0 120.163581,23.236569,0.0 120.163351,23.236854,0.0 120.162908,23.237159,0.0 120.162426,23.23743,0.0 120.161825,23.237727,0.0 120.161425,23.237887,0.0 120.160947,23.238023,0.0 120.160568,23.238077,0.0 120.160166,23.238085,0.0 120.159793,23.23807,0.0 120.159209,23.238024,0.0 120.158781,23.237956,0.0 120.158577,23.237917,0.0 120.15836,23.237848,0.0 120.15809,23.237725,0.0 120.157553,23.237571,0.0 120.15649,23.237211,0.0 120.155847,23.237006,0.0 120.155282,23.236838,0.0 120.155105,23.234099,0.0 120.154564,23.230328,0.0 120.154093,23.226867,0.0 120.153987,23.225944,0.0 120.153817,23.224818,0.0 120.153797,23.223931,0.0 120.153705,23.221269,0.0 120.155018,23.219076,0.0 120.155036,23.21899,0.0 120.155244,23.218603,0.0 120.15622,23.21863,0.0 120.15767,23.218677,0.0 120.157731,23.218616,0.0 120.157772,23.218499,0.0 120.15873,23.214683,0.0 120.158985,23.214701,0.0 120.159512,23.214793,0.0 120.159431,23.215631,0.0 120.159447,23.21577,0.0 120.159599,23.216628,0.0 120.159702,23.217288,0.0 120.159684,23.217336,0.0 120.159776,23.218156,0.0 120.15984,23.218844,0.0 120.159849,23.219613,0.0 120.159808,23.219906,0.0 120.15979,23.220086,0.0 120.159805,23.220209,0.0 120.159932,23.220457,0.0 120.16023,23.220932,0.0 120.160404,23.221427,0.0 120.160494,23.221585,0.0 120.160611,23.221705,0.0 120.160838,23.221832,0.0 120.16091,23.222209,0.0 120.160926,23.222731,0.0 120.160924,23.222876,0.0 120.160951,23.223185,0.0 120.161001,23.223216,0.0 120.161238,23.223227,0.0 120.161391,23.223354,0.0 120.161429,23.223438,0.0 120.161456,23.223737,0.0 120.162244,23.223647,0.0 120.163076,23.223608,0.0 120.163455,23.223888,0.0 120.163457,23.223972,0.0 120.163365,23.225679,0.0 120.163423,23.227635,0.0 120.163539,23.230544,0.0 120.16358,23.231727,0.0 120.163637,23.233355,0.0 120.16372,23.234327,0.0 120.163701,23.236379,0.0</coordinates></LinearRing></outerBoundaryIs></Polygon><styleUrl>#spolygon-map</styleUrl></Placemark><Placemark><Polygon><outerBoundaryIs><LinearRing><coordinates>120.08754,23.23014,0.0 120.08736,23.230517,0.0 120.087283,23.230943,0.0 120.087282,23.23149,0.0 120.087367,23.231928,0.0 120.087546,23.232399,0.0 120.087908,23.233094,0.0 120.088079,23.233411,0.0 120.088294,23.233809,0.0 120.088462,23.234142,0.0 120.088624,23.234506,0.0 120.088814,23.235113,0.0 120.088954,23.235696,0.0 120.089028,23.236071,0.0 120.089067,23.236435,0.0 120.089093,23.237015,0.0 120.089059,23.237647,0.0 120.088918,23.237948,0.0 120.088723,23.23811,0.0 120.088553,23.23817,0.0 120.088217,23.238236,0.0 120.087843,23.238249,0.0 120.087384,23.238197,0.0 120.086725,23.237791,0.0 120.084351,23.235741,0.0 120.082725,23.235407,0.0 120.081239,23.235348,0.0 120.081135,23.235355,0.0 120.081088,23.235316,0.0 120.081103,23.235246,0.0 120.081109,23.235131,0.0 120.081179,23.235088,0.0 120.081576,23.235111,0.0 120.081673,23.235075,0.0 120.081695,23.234974,0.0 120.081632,23.234775,0.0 120.081422,23.234376,0.0 120.081339,23.234134,0.0 120.081333,23.234042,0.0 120.081295,23.233999,0.0 120.081274,23.233895,0.0 120.081236,23.233592,0.0 120.081177,23.233479,0.0 120.081159,23.233402,0.0 120.08119,23.233181,0.0 120.081196,23.232989,0.0 120.081153,23.232709,0.0 120.081112,23.232481,0.0 120.081062,23.23221,0.0 120.080993,23.232035,0.0 120.081009,23.23176,0.0 120.080992,23.231591,0.0 120.080904,23.231387,0.0 120.080885,23.231256,0.0 120.080927,23.2311,0.0 120.081024,23.230993,0.0 120.081068,23.230862,0.0 120.081017,23.230591,0.0 120.080974,23.230247,0.0 120.080931,23.230186,0.0 120.08088,23.230224,0.0 120.080863,23.230301,0.0 120.080855,23.230502,0.0 120.080804,23.230519,0.0 120.080748,23.230379,0.0 120.080665,23.230234,0.0 120.080654,23.230119,0.0 120.080659,23.229695,0.0 120.080689,23.229589,0.0 120.080689,23.229498,0.0 120.08068,23.229392,0.0 120.080674,23.229279,0.0 120.080644,23.229123,0.0 120.080737,23.228724,0.0 120.0808,23.228621,0.0 120.081059,23.228297,0.0 120.081086,23.22814,0.0 120.081155,23.227869,0.0 120.081318,23.227166,0.0 120.08135,23.227071,0.0 120.08142,23.226941,0.0 120.08155,23.226172,0.0 120.081826,23.225505,0.0 120.081899,23.225368,0.0 120.082041,23.225152,0.0 120.082112,23.224911,0.0 120.082201,23.224645,0.0 120.082253,23.224322,0.0 120.082289,23.224171,0.0 120.08249,23.223872,0.0 120.082624,23.223767,0.0 120.082682,23.223679,0.0 120.082677,23.223661,0.0 120.082655,23.22367,0.0 120.082533,23.223789,0.0 120.082484,23.223802,0.0 120.082452,23.223779,0.0 120.082453,23.223727,0.0 120.082794,23.223012,0.0 120.082919,23.222193,0.0 120.082604,23.220931,0.0 120.082426,23.22038,0.0 120.084582,23.220146,0.0 120.084749,23.220135,0.0 120.090383,23.219398,0.0 120.091349,23.21927,0.0 120.091414,23.219238,0.0 120.09143,23.219215,0.0 120.091451,23.219161,0.0 120.091544,23.216641,0.0 120.092838,23.216647,0.0 120.093622,23.216652,0.0 120.094038,23.216688,0.0 120.094235,23.216663,0.0 120.09429,23.216641,0.0 120.094428,23.216668,0.0 120.094477,23.216726,0.0 120.094564,23.216888,0.0 120.094573,23.216926,0.0 120.094606,23.217078,0.0 120.094671,23.217139,0.0 120.094725,23.217153,0.0 120.094835,23.217172,0.0 120.095263,23.217248,0.0 120.096237,23.217359,0.0 120.096235,23.21726,0.0 120.096171,23.216576,0.0 120.095938,23.216069,0.0 120.095726,23.215567,0.0 120.096316,23.215527,0.0 120.096631,23.215553,0.0 120.097153,23.215395,0.0 120.097181,23.216125,0.0 120.097326,23.21608,0.0 120.09758,23.215872,0.0 120.097655,23.215824,0.0 120.097827,23.215751,0.0 120.09801,23.215712,0.0 120.098357,23.215717,0.0 120.099532,23.215716,0.0 120.100024,23.215685,0.0 120.100429,23.215689,0.0 120.100682,23.21559,0.0 120.100878,23.215447,0.0 120.101,23.215289,0.0 120.101095,23.21515,0.0 120.101285,23.214791,0.0 120.101315,23.212875,0.0 120.10131,23.212527,0.0 120.101305,23.212147,0.0 120.101462,23.211775,0.0 120.101787,23.211373,0.0 120.102133,23.211197,0.0 120.102598,23.211066,0.0 120.102666,23.211055,0.0 120.104756,23.210701,0.0 120.107582,23.210214,0.0 120.10804,23.210144,0.0 120.108635,23.212022,0.0 120.108655,23.212067,0.0 120.108836,23.212606,0.0 120.108942,23.212899,0.0 120.109043,23.21307,0.0 120.10935,23.213516,0.0 120.109581,23.213943,0.0 120.109724,23.214171,0.0 120.109912,23.214406,0.0 120.110077,23.214729,0.0 120.110271,23.214785,0.0 120.110887,23.215367,0.0 120.11145,23.216203,0.0 120.111756,23.217009,0.0 120.112167,23.217784,0.0 120.11264,23.218692,0.0 120.111915,23.220455,0.0 120.110677,23.220373,0.0 120.11046,23.222893,0.0 120.110405,23.223556,0.0 120.110293,23.223554,0.0 120.110018,23.223587,0.0 120.109836,23.223634,0.0 120.109739,23.223667,0.0 120.108994,23.224111,0.0 120.10857,23.224337,0.0 120.108384,23.22438,0.0 120.107036,23.226234,0.0 120.1066,23.225889,0.0 120.106298,23.225646,0.0 120.106008,23.225434,0.0 120.105731,23.225324,0.0 120.105202,23.225247,0.0 120.104714,23.225181,0.0 120.103945,23.225117,0.0 120.103438,23.225074,0.0 120.102915,23.225051,0.0 120.102454,23.225044,0.0 120.101864,23.22507,0.0 120.101614,23.22508,0.0 120.100959,23.225076,0.0 120.10041,23.225104,0.0 120.099945,23.225156,0.0 120.099476,23.225248,0.0 120.099258,23.225292,0.0 120.098895,23.225324,0.0 120.098471,23.22536,0.0 120.097832,23.225363,0.0 120.096694,23.225379,0.0 120.096219,23.225437,0.0 120.095901,23.225498,0.0 120.095599,23.225639,0.0 120.095417,23.225776,0.0 120.094811,23.226291,0.0 120.094227,23.226812,0.0 120.093869,23.227071,0.0 120.093565,23.227207,0.0 120.093136,23.227399,0.0 120.092658,23.227654,0.0 120.092248,23.227832,0.0 120.091739,23.228007,0.0 120.091326,23.228125,0.0 120.091019,23.228213,0.0 120.090432,23.228393,0.0 120.089876,23.228561,0.0 120.089456,23.228705,0.0 120.088905,23.228948,0.0 120.088469,23.22918,0.0 120.088188,23.22938,0.0 120.087943,23.229604,0.0 120.087679,23.229939,0.0 120.08754,23.23014,0.0</coordinates></LinearRing></outerBoundaryIs></Polygon><styleUrl>#spolygon-map</styleUrl></Placemark></Document>
</kml>
