<?xml version="1.0" encoding="UTF-8"?>
<kml xmlns="http://www.opengis.net/kml/2.2">
	<Document>
		<name>臺南市安南區</name>
		<Style id="spolygon">
			<LabelStyle>
				<scale>0.0</scale>
			</LabelStyle>
			<LineStyle>
				<color>330030ff</color>
				<width>0</width>
			</LineStyle>
			<PolyStyle>
				<color>330030ff</color>
			</PolyStyle>
		</Style>
		<StyleMap id="spolygon-map">
			<Pair>
				<key>normal</key>
				<styleUrl>#spolygon</styleUrl>
			</Pair>
		</StyleMap>
	<Placemark><Polygon><outerBoundaryIs><LinearRing><coordinates>120.22999,23.070826,0.0 120.229609,23.070864,0.0 120.228825,23.071157,0.0 120.228671,23.071211,0.0 120.226627,23.067268,0.0 120.226318,23.066648,0.0 120.224333,23.062658,0.0 120.224367,23.061502,0.0 120.224688,23.060107,0.0 120.225733,23.056026,0.0 120.226814,23.051417,0.0 120.226853,23.05101,0.0 120.227427,23.050632,0.0 120.228986,23.04989,0.0 120.229282,23.049729,0.0 120.229353,23.049535,0.0 120.227046,23.045923,0.0 120.227102,23.045826,0.0 120.227843,23.044608,0.0 120.228104,23.044881,0.0 120.228838,23.045586,0.0 120.229239,23.04583,0.0 120.230038,23.046161,0.0 120.230372,23.046418,0.0 120.231171,23.04688,0.0 120.231805,23.047264,0.0 120.232422,23.047629,0.0 120.233053,23.048203,0.0 120.233222,23.048357,0.0 120.233756,23.048705,0.0 120.234604,23.049179,0.0 120.235036,23.049246,0.0 120.23543,23.049185,0.0 120.235883,23.049047,0.0 120.236377,23.049086,0.0 120.237126,23.049281,0.0 120.238252,23.049894,0.0 120.239445,23.050584,0.0 120.239933,23.050943,0.0 120.240938,23.051815,0.0 120.24138,23.052327,0.0 120.241847,23.053205,0.0 120.242124,23.053778,0.0 120.242447,23.054637,0.0 120.242965,23.055615,0.0 120.243294,23.056115,0.0 120.243677,23.056573,0.0 120.24417,23.056998,0.0 120.244909,23.057649,0.0 120.245038,23.058045,0.0 120.245179,23.058657,0.0 120.245318,23.059236,0.0 120.245452,23.059812,0.0 120.245489,23.060106,0.0 120.245735,23.060818,0.0 120.245768,23.061168,0.0 120.245749,23.061497,0.0 120.245783,23.061606,0.0 120.245925,23.062052,0.0 120.246213,23.063073,0.0 120.246405,23.063826,0.0 120.246689,23.064728,0.0 120.246926,23.065592,0.0 120.246409,23.065727,0.0 120.245523,23.065929,0.0 120.24505,23.06603,0.0 120.243619,23.06637,0.0 120.241074,23.066552,0.0 120.240446,23.066985,0.0 120.239714,23.066968,0.0 120.237874,23.06695,0.0 120.237319,23.067403,0.0 120.236254,23.068412,0.0 120.23526,23.069294,0.0 120.234852,23.069739,0.0 120.233004,23.070451,0.0 120.232771,23.070398,0.0 120.232274,23.070601,0.0 120.231755,23.070783,0.0 120.231153,23.070873,0.0 120.230526,23.070822,0.0 120.22999,23.070826,0.0</coordinates></LinearRing></outerBoundaryIs></Polygon><styleUrl>#spolygon-map</styleUrl></Placemark><Placemark><Polygon><outerBoundaryIs><LinearRing><coordinates>120.229333,23.049449,0.0 120.229346,23.049632,0.0 120.229216,23.049765,0.0 120.227904,23.050405,0.0 120.226863,23.050902,0.0 120.226818,23.050923,0.0 120.22098,23.053698,0.0 120.21939,23.054455,0.0 120.218929,23.054577,0.0 120.216877,23.055131,0.0 120.215859,23.055397,0.0 120.215044,23.055616,0.0 120.21351,23.055305,0.0 120.213341,23.052021,0.0 120.213227,23.050387,0.0 120.213066,23.050029,0.0 120.212843,23.049659,0.0 120.213605,23.048789,0.0 120.214306,23.047959,0.0 120.215081,23.047858,0.0 120.216187,23.047824,0.0 120.216466,23.047807,0.0 120.217604,23.047698,0.0 120.218221,23.047634,0.0 120.218569,23.047428,0.0 120.220298,23.047366,0.0 120.220203,23.046795,0.0 120.220392,23.046721,0.0 120.220442,23.046647,0.0 120.220432,23.046412,0.0 120.220524,23.046385,0.0 120.221887,23.046346,0.0 120.221933,23.047115,0.0 120.221964,23.047224,0.0 120.222315,23.047223,0.0 120.222657,23.04711,0.0 120.223189,23.047287,0.0 120.22406,23.047257,0.0 120.224578,23.046617,0.0 120.225563,23.046133,0.0 120.226055,23.046151,0.0 120.226409,23.046099,0.0 120.227049,23.045914,0.0 120.229333,23.049449,0.0</coordinates></LinearRing></outerBoundaryIs></Polygon><styleUrl>#spolygon-map</styleUrl></Placemark><Placemark><Polygon><outerBoundaryIs><LinearRing><coordinates>120.222906,23.075831,0.0 120.22272,23.075839,0.0 120.222588,23.075844,0.0 120.222528,23.07582,0.0 120.222432,23.075736,0.0 120.22232,23.075692,0.0 120.222189,23.075671,0.0 120.22182,23.075597,0.0 120.221248,23.075457,0.0 120.221026,23.075343,0.0 120.22098,23.075218,0.0 120.220937,23.075144,0.0 120.220864,23.075037,0.0 120.220842,23.074969,0.0 120.22081,23.074899,0.0 120.220763,23.074791,0.0 120.220718,23.074731,0.0 120.220667,23.07464,0.0 120.220662,23.07463,0.0 120.220624,23.074499,0.0 120.220592,23.07446,0.0 120.220587,23.074413,0.0 120.220575,23.074336,0.0 120.220549,23.074223,0.0 120.220552,23.074081,0.0 120.220566,23.073968,0.0 120.220571,23.07393,0.0 120.220503,23.073895,0.0 120.220309,23.073883,0.0 120.220114,23.073887,0.0 120.219932,23.07387,0.0 120.219729,23.073885,0.0 120.219539,23.073893,0.0 120.219322,23.073901,0.0 120.219224,23.0739,0.0 120.219004,23.07391,0.0 120.218812,23.073929,0.0 120.218696,23.07394,0.0 120.218537,23.073726,0.0 120.218505,23.073226,0.0 120.21848,23.072313,0.0 120.218438,23.071896,0.0 120.218458,23.070886,0.0 120.218478,23.07034,0.0 120.218508,23.069105,0.0 120.218172,23.0681,0.0 120.218454,23.06788,0.0 120.219581,23.067825,0.0 120.220225,23.067821,0.0 120.220962,23.067856,0.0 120.222826,23.067983,0.0 120.22298,23.067968,0.0 120.224661,23.067735,0.0 120.226014,23.067545,0.0 120.226332,23.06744,0.0 120.227156,23.06829,0.0 120.228512,23.071266,0.0 120.228314,23.071344,0.0 120.228157,23.07149,0.0 120.227911,23.071871,0.0 120.22772,23.072125,0.0 120.227255,23.07222,0.0 120.22682,23.072195,0.0 120.226402,23.072218,0.0 120.225714,23.072359,0.0 120.225252,23.072467,0.0 120.224606,23.072527,0.0 120.224303,23.072553,0.0 120.224137,23.072619,0.0 120.224034,23.072741,0.0 120.223946,23.07293,0.0 120.22391,23.073174,0.0 120.223897,23.073332,0.0 120.224159,23.073405,0.0 120.224121,23.073595,0.0 120.224035,23.073877,0.0 120.223981,23.074057,0.0 120.223949,23.074183,0.0 120.223915,23.074321,0.0 120.223841,23.074402,0.0 120.223777,23.074401,0.0 120.223678,23.074715,0.0 120.223607,23.074908,0.0 120.223552,23.0751,0.0 120.223498,23.075298,0.0 120.223448,23.075427,0.0 120.223402,23.075591,0.0 120.223339,23.07579,0.0 120.223055,23.075834,0.0 120.222906,23.075831,0.0</coordinates></LinearRing></outerBoundaryIs></Polygon><styleUrl>#spolygon-map</styleUrl></Placemark><Placemark><Polygon><outerBoundaryIs><LinearRing><coordinates>120.226318,23.066648,0.0 120.226627,23.067268,0.0 120.226234,23.06749,0.0 120.225692,23.067611,0.0 120.223117,23.067949,0.0 120.222937,23.067972,0.0 120.221513,23.065817,0.0 120.220423,23.065403,0.0 120.219516,23.065071,0.0 120.219072,23.064991,0.0 120.218516,23.064864,0.0 120.2181,23.0648,0.0 120.21789,23.064714,0.0 120.217581,23.064594,0.0 120.217081,23.064454,0.0 120.216825,23.064328,0.0 120.216182,23.063928,0.0 120.216067,23.063877,0.0 120.215817,23.063733,0.0 120.215534,23.063586,0.0 120.215346,23.063498,0.0 120.214687,23.06329,0.0 120.214185,23.063208,0.0 120.213726,23.063172,0.0 120.212112,23.063603,0.0 120.211997,23.063611,0.0 120.211888,23.062382,0.0 120.21182,23.061749,0.0 120.211599,23.060401,0.0 120.211512,23.059865,0.0 120.211476,23.059725,0.0 120.210461,23.058919,0.0 120.209606,23.058341,0.0 120.208969,23.058151,0.0 120.208632,23.057898,0.0 120.208447,23.057502,0.0 120.212492,23.056282,0.0 120.213584,23.055997,0.0 120.21532,23.055545,0.0 120.216687,23.055168,0.0 120.218564,23.054658,0.0 120.219268,23.054496,0.0 120.219689,23.054312,0.0 120.225553,23.051524,0.0 120.226848,23.050909,0.0 120.226853,23.05101,0.0 120.226814,23.051417,0.0 120.225733,23.056026,0.0 120.224688,23.060107,0.0 120.224367,23.061502,0.0 120.224333,23.062658,0.0 120.226318,23.066648,0.0</coordinates></LinearRing></outerBoundaryIs></Polygon><styleUrl>#spolygon-map</styleUrl></Placemark><Placemark><Polygon><outerBoundaryIs><LinearRing><coordinates>120.217609,23.074037,0.0 120.217444,23.074068,0.0 120.217277,23.07413,0.0 120.21711,23.07421,0.0 120.216927,23.074273,0.0 120.216706,23.074294,0.0 120.216505,23.074246,0.0 120.216276,23.074172,0.0 120.216092,23.074104,0.0 120.215855,23.074044,0.0 120.215678,23.073987,0.0 120.215498,23.073938,0.0 120.215338,23.073895,0.0 120.215233,23.073869,0.0 120.215077,23.07381,0.0 120.214876,23.073764,0.0 120.214726,23.073718,0.0 120.214572,23.073688,0.0 120.214311,23.073603,0.0 120.21414,23.073534,0.0 120.214088,23.073491,0.0 120.214076,23.073444,0.0 120.214003,23.073353,0.0 120.213938,23.073283,0.0 120.213682,23.073166,0.0 120.213705,23.072218,0.0 120.213742,23.07162,0.0 120.213781,23.071038,0.0 120.21386,23.070555,0.0 120.213823,23.070261,0.0 120.213711,23.070004,0.0 120.213425,23.06981,0.0 120.212987,23.069661,0.0 120.212536,23.069684,0.0 120.212133,23.069847,0.0 120.211814,23.069902,0.0 120.211768,23.06989,0.0 120.211682,23.069456,0.0 120.211751,23.069095,0.0 120.212038,23.067492,0.0 120.212242,23.066138,0.0 120.212027,23.063919,0.0 120.211998,23.063633,0.0 120.213407,23.063251,0.0 120.214016,23.063183,0.0 120.214483,23.063252,0.0 120.214958,23.06334,0.0 120.215466,23.063552,0.0 120.215551,23.063595,0.0 120.215905,23.063791,0.0 120.216141,23.063915,0.0 120.216353,23.064072,0.0 120.216969,23.064398,0.0 120.217492,23.064568,0.0 120.21784,23.064694,0.0 120.217904,23.06472,0.0 120.21824,23.064826,0.0 120.218666,23.064885,0.0 120.219284,23.065036,0.0 120.2197,23.065136,0.0 120.220878,23.065576,0.0 120.22164,23.065813,0.0 120.222826,23.067983,0.0 120.220962,23.067856,0.0 120.220225,23.067821,0.0 120.219581,23.067825,0.0 120.218454,23.06788,0.0 120.218172,23.0681,0.0 120.218508,23.069105,0.0 120.218478,23.07034,0.0 120.218458,23.070886,0.0 120.218438,23.071896,0.0 120.21848,23.072313,0.0 120.218505,23.073226,0.0 120.218537,23.073726,0.0 120.218696,23.07394,0.0 120.218511,23.073955,0.0 120.218171,23.073992,0.0 120.218009,23.074007,0.0 120.217751,23.074035,0.0 120.217609,23.074037,0.0</coordinates></LinearRing></outerBoundaryIs></Polygon><styleUrl>#spolygon-map</styleUrl></Placemark><Placemark><Polygon><outerBoundaryIs><LinearRing><coordinates>120.216339,23.040448,0.0 120.215409,23.040418,0.0 120.215283,23.040114,0.0 120.214737,23.038818,0.0 120.214378,23.037957,0.0 120.214206,23.037542,0.0 120.213788,23.036544,0.0 120.213416,23.035707,0.0 120.212322,23.033236,0.0 120.212351,23.033161,0.0 120.212384,23.032997,0.0 120.212509,23.032317,0.0 120.212568,23.031952,0.0 120.212586,23.031846,0.0 120.21261,23.031733,0.0 120.212717,23.031328,0.0 120.212825,23.031014,0.0 120.212908,23.030867,0.0 120.212966,23.030772,0.0 120.213096,23.030553,0.0 120.213381,23.030069,0.0 120.21402,23.029016,0.0 120.214361,23.029189,0.0 120.21575,23.02985,0.0 120.216467,23.030273,0.0 120.217224,23.03089,0.0 120.217526,23.031235,0.0 120.217914,23.031785,0.0 120.218245,23.032322,0.0 120.219656,23.034451,0.0 120.222268,23.038476,0.0 120.221508,23.038716,0.0 120.220282,23.038998,0.0 120.217031,23.039745,0.0 120.216381,23.040218,0.0 120.216339,23.040448,0.0</coordinates></LinearRing></outerBoundaryIs></Polygon><styleUrl>#spolygon-map</styleUrl></Placemark><Placemark><Polygon><outerBoundaryIs><LinearRing><coordinates>120.212719,23.036989,0.0 120.212392,23.036953,0.0 120.212037,23.0369,0.0 120.212135,23.036296,0.0 120.211115,23.035167,0.0 120.211514,23.03472,0.0 120.211743,23.034455,0.0 120.210833,23.034142,0.0 120.210209,23.034011,0.0 120.20978,23.033951,0.0 120.209156,23.033902,0.0 120.209038,23.033906,0.0 120.209014,23.033873,0.0 120.209134,23.033154,0.0 120.207625,23.032886,0.0 120.206015,23.032721,0.0 120.20671,23.033372,0.0 120.205693,23.033346,0.0 120.203893,23.033271,0.0 120.203686,23.033262,0.0 120.204109,23.030402,0.0 120.20153,23.030917,0.0 120.199079,23.031044,0.0 120.197992,23.031397,0.0 120.197425,23.031422,0.0 120.197419,23.029095,0.0 120.198453,23.029026,0.0 120.198935,23.028986,0.0 120.20112,23.028818,0.0 120.201881,23.028769,0.0 120.202513,23.028714,0.0 120.203853,23.028602,0.0 120.204591,23.028554,0.0 120.205521,23.028474,0.0 120.205873,23.028441,0.0 120.207085,23.028361,0.0 120.208426,23.028259,0.0 120.2098,23.028168,0.0 120.209974,23.028154,0.0 120.210733,23.028122,0.0 120.211314,23.028125,0.0 120.211699,23.028167,0.0 120.211927,23.028218,0.0 120.212683,23.028418,0.0 120.213522,23.028742,0.0 120.21402,23.029016,0.0 120.213381,23.030069,0.0 120.213096,23.030553,0.0 120.212966,23.030772,0.0 120.212908,23.030867,0.0 120.212825,23.031014,0.0 120.212717,23.031328,0.0 120.21261,23.031733,0.0 120.212586,23.031846,0.0 120.212568,23.031952,0.0 120.212509,23.032317,0.0 120.212384,23.032997,0.0 120.212351,23.033161,0.0 120.212322,23.033236,0.0 120.213416,23.035707,0.0 120.213788,23.036544,0.0 120.213729,23.036611,0.0 120.213051,23.036636,0.0 120.212719,23.036989,0.0</coordinates></LinearRing></outerBoundaryIs></Polygon><styleUrl>#spolygon-map</styleUrl></Placemark><Placemark><Polygon><outerBoundaryIs><LinearRing><coordinates>120.211826,23.0457,0.0 120.212002,23.046375,0.0 120.212027,23.046918,0.0 120.211942,23.047343,0.0 120.211813,23.047508,0.0 120.211479,23.047919,0.0 120.211317,23.048046,0.0 120.210921,23.048198,0.0 120.208959,23.046861,0.0 120.208124,23.046267,0.0 120.206918,23.045418,0.0 120.205423,23.044346,0.0 120.204031,23.044787,0.0 120.204089,23.044989,0.0 120.204099,23.045469,0.0 120.204151,23.045832,0.0 120.20422,23.046278,0.0 120.204263,23.046503,0.0 120.202507,23.046902,0.0 120.203084,23.044268,0.0 120.203384,23.042895,0.0 120.203402,23.042851,0.0 120.203018,23.041294,0.0 120.202907,23.040871,0.0 120.202485,23.039171,0.0 120.202461,23.038998,0.0 120.202437,23.038401,0.0 120.202498,23.038046,0.0 120.202536,23.037924,0.0 120.20292,23.036894,0.0 120.203093,23.036448,0.0 120.203839,23.034472,0.0 120.204124,23.033638,0.0 120.204179,23.033283,0.0 120.205653,23.034195,0.0 120.205652,23.034822,0.0 120.205738,23.0359,0.0 120.206005,23.036955,0.0 120.206712,23.036543,0.0 120.206752,23.036618,0.0 120.206626,23.036988,0.0 120.206598,23.037148,0.0 120.206658,23.037552,0.0 120.206746,23.03846,0.0 120.206742,23.038716,0.0 120.206698,23.038904,0.0 120.206744,23.03905,0.0 120.206807,23.039211,0.0 120.206269,23.039626,0.0 120.206575,23.040523,0.0 120.206792,23.040453,0.0 120.207431,23.041173,0.0 120.20799,23.041247,0.0 120.207914,23.04187,0.0 120.207362,23.041992,0.0 120.207623,23.042858,0.0 120.207551,23.043519,0.0 120.207983,23.043685,0.0 120.208621,23.043861,0.0 120.20931,23.044018,0.0 120.209735,23.044069,0.0 120.210808,23.044132,0.0 120.211268,23.044138,0.0 120.211826,23.0457,0.0</coordinates></LinearRing></outerBoundaryIs></Polygon><styleUrl>#spolygon-map</styleUrl></Placemark><Placemark><Polygon><outerBoundaryIs><LinearRing><coordinates>120.211268,23.044138,0.0 120.210808,23.044132,0.0 120.209735,23.044069,0.0 120.20931,23.044018,0.0 120.208621,23.043861,0.0 120.207983,23.043685,0.0 120.207551,23.043519,0.0 120.207623,23.042858,0.0 120.207362,23.041992,0.0 120.207914,23.04187,0.0 120.20799,23.041247,0.0 120.207431,23.041173,0.0 120.206792,23.040453,0.0 120.206575,23.040523,0.0 120.206269,23.039626,0.0 120.206807,23.039211,0.0 120.206744,23.03905,0.0 120.206698,23.038904,0.0 120.206742,23.038716,0.0 120.206746,23.03846,0.0 120.206658,23.037552,0.0 120.206598,23.037148,0.0 120.206626,23.036988,0.0 120.206752,23.036618,0.0 120.206712,23.036543,0.0 120.206005,23.036955,0.0 120.205738,23.0359,0.0 120.205652,23.034822,0.0 120.205653,23.034195,0.0 120.205897,23.033354,0.0 120.206432,23.033111,0.0 120.206256,23.032704,0.0 120.209152,23.033088,0.0 120.209095,23.033471,0.0 120.209013,23.033881,0.0 120.209045,23.033905,0.0 120.209507,23.03393,0.0 120.210011,23.033992,0.0 120.210594,23.034092,0.0 120.211522,23.034339,0.0 120.211713,23.034497,0.0 120.211305,23.034955,0.0 120.212354,23.035542,0.0 120.211957,23.036905,0.0 120.21217,23.03692,0.0 120.212492,23.036967,0.0 120.212795,23.036612,0.0 120.21307,23.036559,0.0 120.213774,23.03656,0.0 120.214044,23.037149,0.0 120.214232,23.037603,0.0 120.214609,23.03852,0.0 120.215121,23.03972,0.0 120.215305,23.040167,0.0 120.21289,23.04073,0.0 120.212447,23.040831,0.0 120.212303,23.040926,0.0 120.212161,23.041478,0.0 120.211994,23.041837,0.0 120.211805,23.042118,0.0 120.211753,23.042208,0.0 120.211597,23.042623,0.0 120.211344,23.04347,0.0 120.211246,23.043962,0.0 120.211268,23.044138,0.0</coordinates></LinearRing></outerBoundaryIs></Polygon><styleUrl>#spolygon-map</styleUrl></Placemark><Placemark><Polygon><outerBoundaryIs><LinearRing><coordinates>120.214306,23.047959,0.0 120.213605,23.048789,0.0 120.212843,23.049659,0.0 120.213066,23.050029,0.0 120.213227,23.050387,0.0 120.213341,23.052021,0.0 120.21351,23.055305,0.0 120.213207,23.056095,0.0 120.208418,23.057349,0.0 120.208511,23.056864,0.0 120.208673,23.056429,0.0 120.209132,23.054733,0.0 120.209812,23.052147,0.0 120.209853,23.050464,0.0 120.209914,23.049766,0.0 120.210102,23.049159,0.0 120.210257,23.048811,0.0 120.210528,23.048469,0.0 120.210766,23.048251,0.0 120.210921,23.048198,0.0 120.211317,23.048046,0.0 120.211479,23.047919,0.0 120.211813,23.047508,0.0 120.211942,23.047343,0.0 120.212027,23.046918,0.0 120.212002,23.046375,0.0 120.211826,23.0457,0.0 120.211268,23.044138,0.0 120.211246,23.043962,0.0 120.211344,23.04347,0.0 120.211597,23.042623,0.0 120.211753,23.042208,0.0 120.211805,23.042118,0.0 120.211994,23.041837,0.0 120.212161,23.041478,0.0 120.212303,23.040926,0.0 120.212447,23.040831,0.0 120.21289,23.04073,0.0 120.215305,23.040167,0.0 120.215482,23.040382,0.0 120.216381,23.040218,0.0 120.217031,23.039745,0.0 120.220282,23.038998,0.0 120.221508,23.038716,0.0 120.222368,23.038518,0.0 120.2235,23.038284,0.0 120.224102,23.039384,0.0 120.224582,23.040204,0.0 120.22503,23.041387,0.0 120.225564,23.042412,0.0 120.225828,23.042616,0.0 120.226153,23.042884,0.0 120.226753,23.043382,0.0 120.227586,23.044167,0.0 120.227783,23.044538,0.0 120.227271,23.04555,0.0 120.227049,23.045914,0.0 120.226409,23.046099,0.0 120.226055,23.046151,0.0 120.225563,23.046133,0.0 120.224578,23.046617,0.0 120.22406,23.047257,0.0 120.223189,23.047287,0.0 120.222657,23.04711,0.0 120.222315,23.047223,0.0 120.221964,23.047224,0.0 120.221933,23.047115,0.0 120.221887,23.046346,0.0 120.220524,23.046385,0.0 120.220432,23.046412,0.0 120.220442,23.046647,0.0 120.220392,23.046721,0.0 120.220203,23.046795,0.0 120.220298,23.047366,0.0 120.218569,23.047428,0.0 120.218221,23.047634,0.0 120.217604,23.047698,0.0 120.216466,23.047807,0.0 120.216187,23.047824,0.0 120.215081,23.047858,0.0 120.214306,23.047959,0.0</coordinates></LinearRing></outerBoundaryIs></Polygon><styleUrl>#spolygon-map</styleUrl></Placemark><Placemark><Polygon><outerBoundaryIs><LinearRing><coordinates>120.203164,23.0439,0.0 120.202699,23.046026,0.0 120.201655,23.050795,0.0 120.201233,23.052728,0.0 120.200974,23.052839,0.0 120.20026,23.053103,0.0 120.200272,23.05382,0.0 120.200275,23.054049,0.0 120.200337,23.054949,0.0 120.200027,23.055023,0.0 120.200455,23.056282,0.0 120.199997,23.058375,0.0 120.199108,23.05974,0.0 120.196465,23.060004,0.0 120.194271,23.060216,0.0 120.19042,23.055591,0.0 120.190396,23.05525,0.0 120.190554,23.050018,0.0 120.189182,23.049674,0.0 120.188472,23.046209,0.0 120.189201,23.046042,0.0 120.190643,23.045743,0.0 120.190866,23.045696,0.0 120.191271,23.045611,0.0 120.193804,23.045072,0.0 120.195434,23.044698,0.0 120.19684,23.044371,0.0 120.197656,23.044192,0.0 120.198711,23.043972,0.0 120.199765,23.043737,0.0 120.200819,23.043488,0.0 120.20272,23.043059,0.0 120.203164,23.0439,0.0</coordinates></LinearRing></outerBoundaryIs></Polygon><styleUrl>#spolygon-map</styleUrl></Placemark><Placemark><Polygon><outerBoundaryIs><LinearRing><coordinates>120.206034,23.044764,0.0 120.20749,23.04583,0.0 120.208858,23.046787,0.0 120.210845,23.048224,0.0 120.210664,23.048303,0.0 120.210393,23.048604,0.0 120.210194,23.048953,0.0 120.210063,23.049248,0.0 120.209855,23.050245,0.0 120.209845,23.051836,0.0 120.209524,23.053241,0.0 120.208855,23.055865,0.0 120.208602,23.056647,0.0 120.208434,23.057141,0.0 120.20762,23.05756,0.0 120.204514,23.058383,0.0 120.203534,23.058644,0.0 120.200727,23.059391,0.0 120.200516,23.059445,0.0 120.199721,23.059635,0.0 120.200285,23.057057,0.0 120.20027,23.055748,0.0 120.20015,23.054996,0.0 120.200598,23.054903,0.0 120.200251,23.053894,0.0 120.20044,23.053774,0.0 120.200764,23.052884,0.0 120.201004,23.052777,0.0 120.201588,23.051102,0.0 120.202507,23.046902,0.0 120.204263,23.046503,0.0 120.20422,23.046278,0.0 120.204151,23.045832,0.0 120.204099,23.045469,0.0 120.204089,23.044989,0.0 120.204031,23.044787,0.0 120.205423,23.044346,0.0 120.206034,23.044764,0.0</coordinates></LinearRing></outerBoundaryIs></Polygon><styleUrl>#spolygon-map</styleUrl></Placemark><Placemark><Polygon><outerBoundaryIs><LinearRing><coordinates>120.202082,23.067735,0.0 120.202103,23.067818,0.0 120.202054,23.067959,0.0 120.201167,23.069169,0.0 120.200235,23.070473,0.0 120.199994,23.07082,0.0 120.199716,23.071304,0.0 120.199611,23.07189,0.0 120.200542,23.072608,0.0 120.201059,23.073111,0.0 120.200602,23.073117,0.0 120.197931,23.073221,0.0 120.192612,23.07348,0.0 120.191979,23.073511,0.0 120.189667,23.073623,0.0 120.189475,23.072347,0.0 120.188802,23.06786,0.0 120.188303,23.064537,0.0 120.187744,23.060811,0.0 120.188496,23.060807,0.0 120.188907,23.060794,0.0 120.190154,23.06071,0.0 120.191189,23.060612,0.0 120.19142,23.060572,0.0 120.192154,23.060447,0.0 120.192682,23.060366,0.0 120.193435,23.060298,0.0 120.194271,23.060216,0.0 120.196465,23.060004,0.0 120.199108,23.05974,0.0 120.199876,23.059608,0.0 120.20061,23.059421,0.0 120.20082,23.059823,0.0 120.201714,23.063994,0.0 120.20232,23.06682,0.0 120.202623,23.067934,0.0 120.20226,23.067754,0.0 120.202082,23.067735,0.0</coordinates></LinearRing></outerBoundaryIs></Polygon><styleUrl>#spolygon-map</styleUrl></Placemark><Placemark><Polygon><outerBoundaryIs><LinearRing><coordinates>120.201903,23.078033,0.0 120.201369,23.078229,0.0 120.20016,23.078645,0.0 120.199447,23.07875,0.0 120.199269,23.07883,0.0 120.197962,23.079409,0.0 120.196628,23.07997,0.0 120.19644,23.080042,0.0 120.195386,23.080444,0.0 120.194343,23.08078,0.0 120.193172,23.081273,0.0 120.192479,23.081604,0.0 120.192173,23.081643,0.0 120.190237,23.076876,0.0 120.19018,23.076736,0.0 120.190131,23.076587,0.0 120.189667,23.073623,0.0 120.191979,23.073511,0.0 120.192612,23.07348,0.0 120.197931,23.073221,0.0 120.200602,23.073117,0.0 120.201059,23.073111,0.0 120.201301,23.07321,0.0 120.202432,23.074124,0.0 120.202879,23.074485,0.0 120.20446,23.075769,0.0 120.20639,23.077366,0.0 120.207331,23.078182,0.0 120.207313,23.078331,0.0 120.207148,23.078549,0.0 120.205034,23.078398,0.0 120.203844,23.078377,0.0 120.202666,23.078348,0.0 120.201903,23.078033,0.0</coordinates></LinearRing></outerBoundaryIs></Polygon><styleUrl>#spolygon-map</styleUrl></Placemark><Placemark><Polygon><outerBoundaryIs><LinearRing><coordinates>120.192087,23.045095,0.0 120.191271,23.045611,0.0 120.190866,23.045696,0.0 120.190735,23.045689,0.0 120.190388,23.045322,0.0 120.189605,23.044683,0.0 120.189441,23.044615,0.0 120.189281,23.044621,0.0 120.188964,23.044795,0.0 120.188761,23.044918,0.0 120.188356,23.045185,0.0 120.188271,23.04523,0.0 120.188037,23.044079,0.0 120.187803,23.043451,0.0 120.187617,23.043316,0.0 120.187265,23.043274,0.0 120.186776,23.043445,0.0 120.186444,23.043692,0.0 120.186011,23.043339,0.0 120.185822,23.043221,0.0 120.185685,23.043331,0.0 120.18513,23.043221,0.0 120.184888,23.043148,0.0 120.184235,23.042993,0.0 120.18359,23.042887,0.0 120.183194,23.042829,0.0 120.183186,23.042732,0.0 120.183227,23.042481,0.0 120.183231,23.042467,0.0 120.183385,23.042205,0.0 120.183789,23.041876,0.0 120.183912,23.041765,0.0 120.183994,23.041499,0.0 120.184148,23.040954,0.0 120.184258,23.040436,0.0 120.184325,23.040039,0.0 120.184358,23.039922,0.0 120.184393,23.039873,0.0 120.184781,23.039695,0.0 120.184943,23.039523,0.0 120.185084,23.03932,0.0 120.185484,23.038871,0.0 120.185999,23.038444,0.0 120.186181,23.038121,0.0 120.186225,23.037984,0.0 120.185995,23.037276,0.0 120.186134,23.036304,0.0 120.186412,23.0357,0.0 120.187249,23.033386,0.0 120.186379,23.033173,0.0 120.185325,23.027336,0.0 120.187444,23.027957,0.0 120.189036,23.028399,0.0 120.1906,23.028836,0.0 120.190604,23.028915,0.0 120.190404,23.029873,0.0 120.190302,23.030728,0.0 120.190252,23.03109,0.0 120.190151,23.031638,0.0 120.190071,23.032183,0.0 120.189929,23.032843,0.0 120.189806,23.033221,0.0 120.189498,23.034203,0.0 120.189351,23.034672,0.0 120.189095,23.035458,0.0 120.188678,23.036756,0.0 120.188328,23.037791,0.0 120.188054,23.038637,0.0 120.187998,23.038831,0.0 120.188605,23.039306,0.0 120.189151,23.039723,0.0 120.189517,23.040013,0.0 120.190249,23.040601,0.0 120.190656,23.040981,0.0 120.19106,23.041357,0.0 120.191437,23.041647,0.0 120.19164,23.041803,0.0 120.191988,23.042214,0.0 120.192337,23.042653,0.0 120.192642,23.043114,0.0 120.193427,23.044303,0.0 120.192087,23.045095,0.0</coordinates></LinearRing></outerBoundaryIs></Polygon><styleUrl>#spolygon-map</styleUrl></Placemark><Placemark><Polygon><outerBoundaryIs><LinearRing><coordinates>120.182692,23.042892,0.0 120.182446,23.043016,0.0 120.1818,23.042554,0.0 120.181041,23.041499,0.0 120.179849,23.040989,0.0 120.178525,23.041163,0.0 120.174647,23.039886,0.0 120.170724,23.03859,0.0 120.166674,23.037244,0.0 120.166351,23.037137,0.0 120.165609,23.036892,0.0 120.162645,23.035228,0.0 120.164578,23.033419,0.0 120.165754,23.032137,0.0 120.167545,23.03017,0.0 120.173403,23.023835,0.0 120.174101,23.023098,0.0 120.174111,23.023093,0.0 120.174618,23.023406,0.0 120.176471,23.024676,0.0 120.177184,23.02501,0.0 120.184194,23.027009,0.0 120.184934,23.027223,0.0 120.185529,23.02847,0.0 120.186969,23.033196,0.0 120.18676,23.034589,0.0 120.186209,23.036346,0.0 120.185871,23.037196,0.0 120.186108,23.037727,0.0 120.186214,23.038043,0.0 120.186063,23.038366,0.0 120.185811,23.038627,0.0 120.185316,23.039039,0.0 120.184979,23.03948,0.0 120.184856,23.039628,0.0 120.184457,23.039836,0.0 120.184366,23.039901,0.0 120.184347,23.039949,0.0 120.184309,23.040134,0.0 120.184244,23.040531,0.0 120.184087,23.041171,0.0 120.183956,23.041646,0.0 120.183873,23.0418,0.0 120.183516,23.042073,0.0 120.183291,23.042357,0.0 120.183229,23.042475,0.0 120.183195,23.042624,0.0 120.183192,23.042807,0.0 120.183194,23.042841,0.0 120.183174,23.04297,0.0 120.182965,23.042915,0.0 120.182752,23.042882,0.0 120.182692,23.042892,0.0</coordinates></LinearRing></outerBoundaryIs></Polygon><styleUrl>#spolygon-map</styleUrl></Placemark><Placemark><Polygon><outerBoundaryIs><LinearRing><coordinates>120.177647,23.019267,0.0 120.174107,23.023091,0.0 120.173971,23.023023,0.0 120.17258,23.022085,0.0 120.172223,23.021831,0.0 120.171433,23.021162,0.0 120.1708,23.020517,0.0 120.170296,23.019982,0.0 120.170062,23.019742,0.0 120.169452,23.019138,0.0 120.169183,23.018803,0.0 120.168449,23.017734,0.0 120.168382,23.017653,0.0 120.168278,23.017578,0.0 120.168003,23.017371,0.0 120.167661,23.017013,0.0 120.167141,23.016548,0.0 120.166727,23.016265,0.0 120.166456,23.016115,0.0 120.165622,23.015877,0.0 120.164267,23.015585,0.0 120.164059,23.015567,0.0 120.163775,23.015654,0.0 120.163476,23.015641,0.0 120.163008,23.015625,0.0 120.162766,23.015674,0.0 120.161843,23.015619,0.0 120.161189,23.015588,0.0 120.160784,23.015542,0.0 120.160644,23.015504,0.0 120.160405,23.015472,0.0 120.160036,23.01546,0.0 120.15977,23.015432,0.0 120.159224,23.01533,0.0 120.158421,23.015182,0.0 120.157729,23.015038,0.0 120.157517,23.014967,0.0 120.15713,23.014811,0.0 120.15664,23.014657,0.0 120.155815,23.014422,0.0 120.154648,23.014098,0.0 120.153723,23.013843,0.0 120.153616,23.013792,0.0 120.153398,23.01367,0.0 120.152894,23.013389,0.0 120.15178,23.012909,0.0 120.151606,23.012883,0.0 120.151505,23.012891,0.0 120.151332,23.012899,0.0 120.151147,23.012906,0.0 120.150912,23.012892,0.0 120.150785,23.012878,0.0 120.150085,23.012824,0.0 120.149644,23.012763,0.0 120.148844,23.012612,0.0 120.148402,23.01251,0.0 120.147773,23.012232,0.0 120.147339,23.011974,0.0 120.146646,23.011455,0.0 120.145709,23.010658,0.0 120.144842,23.010001,0.0 120.144402,23.009675,0.0 120.144204,23.009491,0.0 120.142199,23.007363,0.0 120.141274,23.006272,0.0 120.141153,23.00608,0.0 120.140494,23.001371,0.0 120.140099,22.998082,0.0 120.140284,22.998253,0.0 120.140478,22.998552,0.0 120.140741,22.998838,0.0 120.140937,22.999006,0.0 120.141212,22.999215,0.0 120.14141,22.99932,0.0 120.141805,22.99953,0.0 120.142241,22.999715,0.0 120.142973,23.00001,0.0 120.143398,23.000195,0.0 120.143801,23.000367,0.0 120.144164,23.000515,0.0 120.144679,23.000733,0.0 120.145214,23.000948,0.0 120.145571,23.001092,0.0 120.145951,23.001254,0.0 120.14647,23.001474,0.0 120.147121,23.001744,0.0 120.147493,23.00189,0.0 120.148142,23.002164,0.0 120.148513,23.002322,0.0 120.148954,23.002507,0.0 120.149544,23.002754,0.0 120.149834,23.002871,0.0 120.150245,23.003031,0.0 120.150713,23.003226,0.0 120.151064,23.003377,0.0 120.151666,23.003624,0.0 120.152102,23.003804,0.0 120.152497,23.003969,0.0 120.15293,23.004156,0.0 120.153277,23.004287,0.0 120.153723,23.004472,0.0 120.153828,23.004529,0.0 120.154021,23.004609,0.0 120.154402,23.004772,0.0 120.154797,23.004927,0.0 120.155115,23.005071,0.0 120.155399,23.005179,0.0 120.155848,23.005357,0.0 120.156272,23.005522,0.0 120.156875,23.005681,0.0 120.157152,23.00575,0.0 120.157323,23.005792,0.0 120.157601,23.00582,0.0 120.157932,23.005797,0.0 120.158153,23.005746,0.0 120.15826,23.005727,0.0 120.15856,23.005688,0.0 120.158898,23.005656,0.0 120.159298,23.005653,0.0 120.159558,23.005657,0.0 120.160129,23.005669,0.0 120.160801,23.005697,0.0 120.161242,23.005704,0.0 120.161544,23.00571,0.0 120.161751,23.005678,0.0 120.162006,23.005548,0.0 120.162362,23.005277,0.0 120.162783,23.004967,0.0 120.16301,23.004813,0.0 120.163213,23.004742,0.0 120.163472,23.004736,0.0 120.163993,23.004737,0.0 120.164182,23.004731,0.0 120.164448,23.004723,0.0 120.165089,23.004733,0.0 120.165466,23.004735,0.0 120.165803,23.00473,0.0 120.166185,23.004739,0.0 120.166388,23.004776,0.0 120.166784,23.004848,0.0 120.167038,23.004918,0.0 120.167443,23.00508,0.0 120.167836,23.005247,0.0 120.168204,23.005418,0.0 120.168565,23.005564,0.0 120.169054,23.005784,0.0 120.169508,23.005971,0.0 120.169902,23.006127,0.0 120.170557,23.006379,0.0 120.170969,23.006534,0.0 120.171378,23.006701,0.0 120.172052,23.007019,0.0 120.172349,23.007167,0.0 120.172662,23.007304,0.0 120.173064,23.007502,0.0 120.173252,23.007582,0.0 120.173532,23.007694,0.0 120.173916,23.007848,0.0 120.174312,23.007999,0.0 120.174759,23.008186,0.0 120.175149,23.00836,0.0 120.175628,23.008547,0.0 120.176161,23.008774,0.0 120.176459,23.008904,0.0 120.176726,23.009025,0.0 120.177093,23.009217,0.0 120.177392,23.009385,0.0 120.177689,23.009597,0.0 120.177824,23.00971,0.0 120.177949,23.009761,0.0 120.178241,23.00997,0.0 120.178525,23.010163,0.0 120.178706,23.010297,0.0 120.179003,23.010495,0.0 120.179359,23.010736,0.0 120.179793,23.011034,0.0 120.180193,23.011285,0.0 120.180528,23.011494,0.0 120.180916,23.011735,0.0 120.181293,23.011961,0.0 120.181688,23.012195,0.0 120.182081,23.012423,0.0 120.182387,23.012617,0.0 120.182551,23.012721,0.0 120.182789,23.012928,0.0 120.182955,23.013073,0.0 120.183118,23.01321,0.0 120.183157,23.01332,0.0 120.183182,23.013418,0.0 120.183253,23.013693,0.0 120.183455,23.013886,0.0 120.183692,23.01408,0.0 120.184167,23.014461,0.0 120.184543,23.01477,0.0 120.184706,23.014897,0.0 120.185018,23.015152,0.0 120.185295,23.015368,0.0 120.185968,23.015825,0.0 120.186217,23.016,0.0 120.186742,23.016371,0.0 120.187254,23.01673,0.0 120.187629,23.016969,0.0 120.187984,23.017188,0.0 120.18776,23.017533,0.0 120.187675,23.017651,0.0 120.187574,23.017809,0.0 120.187468,23.018348,0.0 120.187398,23.018662,0.0 120.187274,23.019204,0.0 120.187175,23.019805,0.0 120.187131,23.020102,0.0 120.187061,23.020449,0.0 120.186866,23.021381,0.0 120.186771,23.02184,0.0 120.186749,23.021964,0.0 120.186443,23.021907,0.0 120.185815,23.021803,0.0 120.185393,23.021619,0.0 120.185174,23.021508,0.0 120.181465,23.019858,0.0 120.180288,23.019376,0.0 120.177785,23.019225,0.0 120.177647,23.019267,0.0</coordinates></LinearRing></outerBoundaryIs></Polygon><styleUrl>#spolygon-map</styleUrl></Placemark><Placemark><Polygon><outerBoundaryIs><LinearRing><coordinates>120.190396,23.05525,0.0 120.19042,23.055591,0.0 120.194271,23.060216,0.0 120.193435,23.060298,0.0 120.192682,23.060366,0.0 120.192154,23.060447,0.0 120.19142,23.060572,0.0 120.191189,23.060612,0.0 120.190154,23.06071,0.0 120.188907,23.060794,0.0 120.188781,23.06048,0.0 120.188722,23.060333,0.0 120.188608,23.06005,0.0 120.188174,23.059388,0.0 120.187123,23.058712,0.0 120.185517,23.057941,0.0 120.185112,23.057738,0.0 120.179788,23.05461,0.0 120.179432,23.05501,0.0 120.179028,23.054931,0.0 120.177859,23.054968,0.0 120.178049,23.054343,0.0 120.178335,23.053623,0.0 120.178978,23.052876,0.0 120.179449,23.052335,0.0 120.179893,23.051819,0.0 120.179061,23.051349,0.0 120.179472,23.050144,0.0 120.179442,23.050072,0.0 120.179527,23.050014,0.0 120.179796,23.049897,0.0 120.179625,23.048991,0.0 120.179294,23.04878,0.0 120.178672,23.04829,0.0 120.178733,23.047626,0.0 120.178752,23.046772,0.0 120.178767,23.046687,0.0 120.178814,23.046577,0.0 120.178866,23.046539,0.0 120.179673,23.04607,0.0 120.179896,23.0459,0.0 120.180022,23.045743,0.0 120.180098,23.045514,0.0 120.180147,23.045239,0.0 120.180222,23.045171,0.0 120.181331,23.044816,0.0 120.181497,23.044712,0.0 120.182274,23.04415,0.0 120.182776,23.043685,0.0 120.182937,23.043428,0.0 120.183199,23.042908,0.0 120.18359,23.042887,0.0 120.184235,23.042993,0.0 120.184888,23.043148,0.0 120.18513,23.043221,0.0 120.185685,23.043331,0.0 120.185822,23.043221,0.0 120.186011,23.043339,0.0 120.186444,23.043692,0.0 120.186776,23.043445,0.0 120.187265,23.043274,0.0 120.187617,23.043316,0.0 120.187803,23.043451,0.0 120.188037,23.044079,0.0 120.188271,23.04523,0.0 120.188356,23.045185,0.0 120.188761,23.044918,0.0 120.188964,23.044795,0.0 120.189281,23.044621,0.0 120.189441,23.044615,0.0 120.189605,23.044683,0.0 120.190388,23.045322,0.0 120.190735,23.045689,0.0 120.190643,23.045743,0.0 120.189201,23.046042,0.0 120.188472,23.046209,0.0 120.189182,23.049674,0.0 120.190554,23.050018,0.0 120.190396,23.05525,0.0</coordinates></LinearRing></outerBoundaryIs></Polygon><styleUrl>#spolygon-map</styleUrl></Placemark><Placemark><Polygon><outerBoundaryIs><LinearRing><coordinates>120.153949,23.043807,0.0 120.152174,23.045113,0.0 120.149087,23.047377,0.0 120.143359,23.046777,0.0 120.140222,23.04313,0.0 120.137257,23.039673,0.0 120.13588,23.038036,0.0 120.135734,23.037697,0.0 120.13565,23.037253,0.0 120.13309,23.036967,0.0 120.132878,23.031229,0.0 120.132807,23.029039,0.0 120.132687,23.025396,0.0 120.134149,23.024557,0.0 120.137313,23.025718,0.0 120.136921,23.023184,0.0 120.136675,23.021628,0.0 120.136525,23.020614,0.0 120.136678,23.020608,0.0 120.136844,23.020502,0.0 120.13786,23.019799,0.0 120.138489,23.019334,0.0 120.13864,23.019243,0.0 120.139736,23.019014,0.0 120.140421,23.01888,0.0 120.142694,23.018427,0.0 120.142801,23.018485,0.0 120.142813,23.018319,0.0 120.142832,23.018092,0.0 120.142816,23.017911,0.0 120.142897,23.017763,0.0 120.142853,23.017601,0.0 120.142862,23.017404,0.0 120.142961,23.017319,0.0 120.142918,23.017196,0.0 120.142836,23.017117,0.0 120.142816,23.017006,0.0 120.142743,23.016834,0.0 120.142694,23.0167,0.0 120.142705,23.016541,0.0 120.142626,23.016316,0.0 120.142563,23.01598,0.0 120.142543,23.015778,0.0 120.142499,23.015564,0.0 120.142444,23.015292,0.0 120.142388,23.015065,0.0 120.142388,23.014908,0.0 120.142347,23.014754,0.0 120.142283,23.014692,0.0 120.1423,23.014637,0.0 120.14229,23.01454,0.0 120.142204,23.014424,0.0 120.141943,23.013632,0.0 120.141848,23.013466,0.0 120.141866,23.01336,0.0 120.141825,23.013219,0.0 120.141812,23.013084,0.0 120.14174,23.012899,0.0 120.141664,23.012825,0.0 120.141538,23.012796,0.0 120.141397,23.012851,0.0 120.141304,23.012676,0.0 120.141248,23.012534,0.0 120.141156,23.012309,0.0 120.14106,23.012074,0.0 120.141021,23.011976,0.0 120.141001,23.01189,0.0 120.140924,23.01172,0.0 120.140871,23.011522,0.0 120.140841,23.011324,0.0 120.140796,23.011014,0.0 120.140807,23.010842,0.0 120.140781,23.010601,0.0 120.140772,23.010406,0.0 120.140747,23.010106,0.0 120.140746,23.009826,0.0 120.140773,23.009635,0.0 120.14077,23.009405,0.0 120.140715,23.009039,0.0 120.140682,23.00874,0.0 120.140657,23.008537,0.0 120.140611,23.008351,0.0 120.140481,23.008254,0.0 120.141193,23.006143,0.0 120.141535,23.006583,0.0 120.144087,23.009382,0.0 120.144377,23.009652,0.0 120.144419,23.009691,0.0 120.144981,23.010106,0.0 120.146557,23.011379,0.0 120.14668,23.011481,0.0 120.147714,23.012204,0.0 120.148257,23.012465,0.0 120.148508,23.012542,0.0 120.148998,23.012641,0.0 120.150045,23.012818,0.0 120.150377,23.012862,0.0 120.150901,23.012891,0.0 120.151007,23.012902,0.0 120.151317,23.0129,0.0 120.151444,23.012896,0.0 120.151584,23.012884,0.0 120.151685,23.012886,0.0 120.151904,23.012958,0.0 120.153163,23.013522,0.0 120.153417,23.013681,0.0 120.15367,23.013818,0.0 120.153882,23.013899,0.0 120.155369,23.014302,0.0 120.156326,23.01456,0.0 120.156949,23.014753,0.0 120.157313,23.014879,0.0 120.157618,23.015002,0.0 120.157972,23.015097,0.0 120.15886,23.015254,0.0 120.15951,23.015381,0.0 120.159872,23.015445,0.0 120.160228,23.015468,0.0 120.160522,23.015484,0.0 120.160648,23.015505,0.0 120.161036,23.015586,0.0 120.161467,23.015592,0.0 120.162694,23.015677,0.0 120.162934,23.015638,0.0 120.163109,23.01562,0.0 120.163713,23.01566,0.0 120.163992,23.015581,0.0 120.164128,23.015564,0.0 120.165082,23.015756,0.0 120.166127,23.016016,0.0 120.166584,23.016176,0.0 120.16688,23.01636,0.0 120.167521,23.016878,0.0 120.167875,23.017243,0.0 120.168117,23.017468,0.0 120.168361,23.017634,0.0 120.168397,23.017668,0.0 120.168907,23.018422,0.0 120.169345,23.019022,0.0 120.16972,23.01941,0.0 120.170111,23.019789,0.0 120.170408,23.020098,0.0 120.17124,23.020975,0.0 120.171611,23.021334,0.0 120.172425,23.021982,0.0 120.173529,23.022742,0.0 120.174045,23.02306,0.0 120.174101,23.023098,0.0 120.173403,23.023835,0.0 120.167545,23.03017,0.0 120.165754,23.032137,0.0 120.164578,23.033419,0.0 120.162645,23.035228,0.0 120.162019,23.035806,0.0 120.161385,23.036581,0.0 120.161261,23.036829,0.0 120.161274,23.039418,0.0 120.161249,23.039865,0.0 120.160689,23.041507,0.0 120.160269,23.042736,0.0 120.158986,23.04428,0.0 120.157335,23.041722,0.0 120.153949,23.043807,0.0</coordinates></LinearRing></outerBoundaryIs></Polygon><styleUrl>#spolygon-map</styleUrl></Placemark><Placemark><Polygon><outerBoundaryIs><LinearRing><coordinates>120.18538,23.06146,0.0 120.184711,23.061633,0.0 120.182916,23.061838,0.0 120.178752,23.061128,0.0 120.176371,23.061281,0.0 120.174091,23.061352,0.0 120.173654,23.059968,0.0 120.173575,23.05943,0.0 120.173584,23.059231,0.0 120.173685,23.059097,0.0 120.173724,23.058568,0.0 120.173799,23.057674,0.0 120.174086,23.056216,0.0 120.1735,23.055873,0.0 120.172834,23.054716,0.0 120.173085,23.054298,0.0 120.173126,23.05418,0.0 120.173342,23.053658,0.0 120.173547,23.053239,0.0 120.173738,23.052839,0.0 120.173767,23.05269,0.0 120.173795,23.052342,0.0 120.173829,23.051939,0.0 120.173858,23.051722,0.0 120.173805,23.051502,0.0 120.173593,23.050634,0.0 120.173586,23.050517,0.0 120.173655,23.05032,0.0 120.17379,23.050148,0.0 120.1742,23.04976,0.0 120.174748,23.049304,0.0 120.174898,23.049179,0.0 120.175783,23.048919,0.0 120.176456,23.048775,0.0 120.177584,23.048535,0.0 120.178731,23.048397,0.0 120.179614,23.048985,0.0 120.17968,23.049285,0.0 120.179805,23.049941,0.0 120.179507,23.050027,0.0 120.17947,23.050137,0.0 120.179184,23.051041,0.0 120.179006,23.051485,0.0 120.1799,23.051822,0.0 120.179166,23.052657,0.0 120.178354,23.053601,0.0 120.178615,23.053786,0.0 120.17791,23.054333,0.0 120.178753,23.054939,0.0 120.179161,23.055314,0.0 120.17978,23.054618,0.0 120.181262,23.055732,0.0 120.185437,23.057907,0.0 120.186407,23.058316,0.0 120.187847,23.059084,0.0 120.188371,23.05969,0.0 120.188648,23.060151,0.0 120.188749,23.060401,0.0 120.188803,23.060535,0.0 120.188719,23.060807,0.0 120.187743,23.060808,0.0 120.187677,23.060811,0.0 120.187058,23.060884,0.0 120.186443,23.061083,0.0 120.18538,23.06146,0.0</coordinates></LinearRing></outerBoundaryIs></Polygon><styleUrl>#spolygon-map</styleUrl></Placemark><Placemark><Polygon><outerBoundaryIs><LinearRing><coordinates>120.169332,23.051128,0.0 120.169568,23.051289,0.0 120.17016,23.05169,0.0 120.170381,23.051757,0.0 120.170753,23.051798,0.0 120.171442,23.051908,0.0 120.171514,23.051957,0.0 120.171551,23.052014,0.0 120.171974,23.052378,0.0 120.172318,23.052659,0.0 120.172375,23.052707,0.0 120.172475,23.052759,0.0 120.173265,23.053095,0.0 120.173492,23.053204,0.0 120.173531,23.053229,0.0 120.173516,23.053293,0.0 120.173234,23.053918,0.0 120.173117,23.054207,0.0 120.173003,23.054415,0.0 120.172406,23.055416,0.0 120.174113,23.056078,0.0 120.173868,23.05728,0.0 120.173773,23.05788,0.0 120.173699,23.058981,0.0 120.173681,23.059115,0.0 120.173583,23.059262,0.0 120.173585,23.059503,0.0 120.173707,23.060271,0.0 120.174118,23.061426,0.0 120.174109,23.061492,0.0 120.173744,23.061632,0.0 120.173682,23.061724,0.0 120.173967,23.062775,0.0 120.173953,23.062876,0.0 120.171924,23.063024,0.0 120.167407,23.0627,0.0 120.165921,23.061998,0.0 120.16557,23.061831,0.0 120.161832,23.060018,0.0 120.16075,23.059213,0.0 120.155977,23.055541,0.0 120.155895,23.055476,0.0 120.15486,23.054626,0.0 120.154256,23.053856,0.0 120.15407,23.053308,0.0 120.154094,23.052776,0.0 120.154382,23.052048,0.0 120.155555,23.051005,0.0 120.156548,23.050125,0.0 120.158096,23.04872,0.0 120.158377,23.048673,0.0 120.161121,23.050017,0.0 120.162945,23.050223,0.0 120.162727,23.049834,0.0 120.164086,23.0499,0.0 120.164906,23.049993,0.0 120.165249,23.050104,0.0 120.165424,23.050122,0.0 120.165552,23.050116,0.0 120.166347,23.049761,0.0 120.166478,23.049742,0.0 120.166693,23.049759,0.0 120.167061,23.049865,0.0 120.167443,23.050024,0.0 120.167828,23.050227,0.0 120.168234,23.050378,0.0 120.168671,23.050537,0.0 120.168849,23.050659,0.0 120.169273,23.051083,0.0 120.169332,23.051128,0.0</coordinates></LinearRing></outerBoundaryIs></Polygon><styleUrl>#spolygon-map</styleUrl></Placemark><Placemark><Polygon><outerBoundaryIs><LinearRing><coordinates>120.192173,23.081643,0.0 120.192097,23.081708,0.0 120.190912,23.081781,0.0 120.190117,23.082007,0.0 120.188662,23.08253,0.0 120.187853,23.082862,0.0 120.186774,23.082563,0.0 120.185993,23.081819,0.0 120.18519,23.081073,0.0 120.184176,23.080076,0.0 120.183738,23.079654,0.0 120.183337,23.079182,0.0 120.183181,23.079021,0.0 120.182047,23.077953,0.0 120.18159,23.077699,0.0 120.181188,23.078372,0.0 120.179644,23.077867,0.0 120.178795,23.0781,0.0 120.178436,23.078195,0.0 120.178023,23.078159,0.0 120.177932,23.078158,0.0 120.177797,23.078255,0.0 120.17708,23.07835,0.0 120.176488,23.078304,0.0 120.17639,23.078329,0.0 120.17632,23.07855,0.0 120.176275,23.079017,0.0 120.176312,23.079063,0.0 120.176409,23.079128,0.0 120.176422,23.079683,0.0 120.176423,23.080424,0.0 120.176329,23.080983,0.0 120.17575,23.081166,0.0 120.175687,23.079127,0.0 120.175348,23.076138,0.0 120.175067,23.075044,0.0 120.175041,23.074094,0.0 120.174986,23.072088,0.0 120.174806,23.070024,0.0 120.17484,23.069557,0.0 120.17477,23.069334,0.0 120.174648,23.069351,0.0 120.172699,23.069508,0.0 120.174273,23.068727,0.0 120.173646,23.067918,0.0 120.174002,23.067631,0.0 120.174278,23.067367,0.0 120.174723,23.067347,0.0 120.174987,23.066684,0.0 120.175425,23.066425,0.0 120.176317,23.066028,0.0 120.17632,23.065807,0.0 120.176329,23.064839,0.0 120.176331,23.064453,0.0 120.176314,23.063953,0.0 120.176295,23.06341,0.0 120.176281,23.062717,0.0 120.176309,23.062147,0.0 120.176368,23.061345,0.0 120.17873,23.061129,0.0 120.182563,23.06189,0.0 120.18407,23.061708,0.0 120.184985,23.061568,0.0 120.18633,23.061123,0.0 120.186515,23.061057,0.0 120.187382,23.060827,0.0 120.187727,23.060808,0.0 120.187744,23.060811,0.0 120.188303,23.064537,0.0 120.188802,23.06786,0.0 120.189475,23.072347,0.0 120.189667,23.073623,0.0 120.190131,23.076587,0.0 120.19018,23.076736,0.0 120.190237,23.076876,0.0 120.192173,23.081643,0.0</coordinates></LinearRing></outerBoundaryIs></Polygon><styleUrl>#spolygon-map</styleUrl></Placemark><Placemark><Polygon><outerBoundaryIs><LinearRing><coordinates>120.170377,23.082469,0.0 120.168204,23.083169,0.0 120.166052,23.083871,0.0 120.166019,23.08264,0.0 120.166162,23.08114,0.0 120.166301,23.079684,0.0 120.166725,23.075235,0.0 120.167243,23.06979,0.0 120.166689,23.069516,0.0 120.164758,23.068635,0.0 120.162579,23.066627,0.0 120.161709,23.064797,0.0 120.164595,23.064528,0.0 120.164083,23.062256,0.0 120.163974,23.062107,0.0 120.163766,23.062046,0.0 120.158223,23.060437,0.0 120.1557,23.058131,0.0 120.155832,23.055517,0.0 120.155977,23.055541,0.0 120.16075,23.059213,0.0 120.161832,23.060018,0.0 120.16557,23.061831,0.0 120.165921,23.061998,0.0 120.167407,23.0627,0.0 120.171924,23.063024,0.0 120.173953,23.062876,0.0 120.173967,23.062775,0.0 120.173682,23.061724,0.0 120.173744,23.061632,0.0 120.174109,23.061492,0.0 120.174118,23.061426,0.0 120.176368,23.061345,0.0 120.176309,23.062147,0.0 120.176281,23.062717,0.0 120.176295,23.06341,0.0 120.176314,23.063953,0.0 120.176331,23.064453,0.0 120.176329,23.064839,0.0 120.17632,23.065807,0.0 120.176317,23.066028,0.0 120.175425,23.066425,0.0 120.174987,23.066684,0.0 120.174723,23.067347,0.0 120.174278,23.067367,0.0 120.174002,23.067631,0.0 120.173646,23.067918,0.0 120.174273,23.068727,0.0 120.172699,23.069508,0.0 120.174648,23.069351,0.0 120.17477,23.069334,0.0 120.17484,23.069557,0.0 120.174806,23.070024,0.0 120.174986,23.072088,0.0 120.175041,23.074094,0.0 120.175067,23.075044,0.0 120.175348,23.076138,0.0 120.175687,23.079127,0.0 120.17575,23.081166,0.0 120.174988,23.0811,0.0 120.173908,23.082747,0.0 120.173811,23.082749,0.0 120.173624,23.082956,0.0 120.173055,23.083228,0.0 120.172611,23.083571,0.0 120.171695,23.082765,0.0 120.170978,23.082251,0.0 120.170377,23.082469,0.0</coordinates></LinearRing></outerBoundaryIs></Polygon><styleUrl>#spolygon-map</styleUrl></Placemark><Placemark><Polygon><outerBoundaryIs><LinearRing><coordinates>120.166301,23.079684,0.0 120.166201,23.080205,0.0 120.165798,23.08011,0.0 120.165362,23.080009,0.0 120.165119,23.079951,0.0 120.165013,23.079913,0.0 120.164913,23.079862,0.0 120.164751,23.079771,0.0 120.164699,23.079735,0.0 120.164584,23.07962,0.0 120.164124,23.079122,0.0 120.163564,23.078528,0.0 120.163082,23.07801,0.0 120.162634,23.077541,0.0 120.162084,23.076945,0.0 120.161793,23.076647,0.0 120.161615,23.076447,0.0 120.161529,23.076332,0.0 120.16148,23.07618,0.0 120.161109,23.076159,0.0 120.161612,23.073208,0.0 120.161032,23.072448,0.0 120.160569,23.071867,0.0 120.16053,23.071818,0.0 120.158763,23.07006,0.0 120.158206,23.069507,0.0 120.157234,23.068539,0.0 120.15641,23.067592,0.0 120.152701,23.062754,0.0 120.151224,23.060828,0.0 120.149302,23.058241,0.0 120.153442,23.056509,0.0 120.1557,23.058131,0.0 120.158223,23.060437,0.0 120.163766,23.062046,0.0 120.163974,23.062107,0.0 120.164083,23.062256,0.0 120.164595,23.064528,0.0 120.161709,23.064797,0.0 120.162579,23.066627,0.0 120.164758,23.068635,0.0 120.166689,23.069516,0.0 120.167243,23.06979,0.0 120.166725,23.075235,0.0 120.166301,23.079684,0.0</coordinates></LinearRing></outerBoundaryIs></Polygon><styleUrl>#spolygon-map</styleUrl></Placemark><Placemark><Polygon><outerBoundaryIs><LinearRing><coordinates>120.157666,23.089206,0.0 120.157049,23.089316,0.0 120.155763,23.089704,0.0 120.154729,23.090053,0.0 120.154218,23.09028,0.0 120.153708,23.090605,0.0 120.153293,23.090891,0.0 120.152712,23.091292,0.0 120.152356,23.091412,0.0 120.151314,23.091425,0.0 120.150655,23.089978,0.0 120.148494,23.083363,0.0 120.14772,23.080998,0.0 120.14891,23.080702,0.0 120.149945,23.080432,0.0 120.149098,23.078355,0.0 120.148528,23.078096,0.0 120.148573,23.077803,0.0 120.148555,23.077362,0.0 120.14853,23.07726,0.0 120.14843,23.077216,0.0 120.148391,23.076966,0.0 120.148321,23.076662,0.0 120.148275,23.076489,0.0 120.148065,23.076368,0.0 120.147915,23.0763,0.0 120.147704,23.076225,0.0 120.14739,23.076097,0.0 120.147021,23.075923,0.0 120.146149,23.075543,0.0 120.146051,23.075481,0.0 120.145048,23.075018,0.0 120.144904,23.07487,0.0 120.144274,23.073903,0.0 120.144002,23.073348,0.0 120.143994,23.072371,0.0 120.144047,23.071899,0.0 120.144189,23.071205,0.0 120.144429,23.070238,0.0 120.144459,23.069804,0.0 120.144369,23.06798,0.0 120.144249,23.067268,0.0 120.14422,23.067175,0.0 120.144039,23.066826,0.0 120.143461,23.065932,0.0 120.142831,23.064935,0.0 120.142733,23.06478,0.0 120.142132,23.063626,0.0 120.140497,23.060678,0.0 120.142834,23.060569,0.0 120.143444,23.060548,0.0 120.145514,23.059805,0.0 120.14786,23.058833,0.0 120.149087,23.05833,0.0 120.150479,23.059856,0.0 120.152636,23.062669,0.0 120.152753,23.062822,0.0 120.156823,23.06813,0.0 120.157748,23.069051,0.0 120.158234,23.069534,0.0 120.158917,23.070213,0.0 120.160552,23.071845,0.0 120.161027,23.072442,0.0 120.161434,23.072974,0.0 120.161606,23.073242,0.0 120.161466,23.07611,0.0 120.161497,23.076249,0.0 120.161562,23.076385,0.0 120.161687,23.076529,0.0 120.161915,23.076775,0.0 120.162332,23.077223,0.0 120.162882,23.0778,0.0 120.163383,23.078338,0.0 120.163912,23.078891,0.0 120.164284,23.079285,0.0 120.164669,23.079712,0.0 120.164728,23.079755,0.0 120.164815,23.079807,0.0 120.164963,23.079889,0.0 120.165054,23.07993,0.0 120.165224,23.079978,0.0 120.165571,23.080058,0.0 120.166021,23.080161,0.0 120.16625,23.080213,0.0 120.166088,23.08192,0.0 120.165897,23.083927,0.0 120.165122,23.084187,0.0 120.164542,23.084335,0.0 120.164392,23.084361,0.0 120.164026,23.084574,0.0 120.163957,23.084792,0.0 120.1638,23.085441,0.0 120.163507,23.086614,0.0 120.163367,23.087313,0.0 120.163051,23.088352,0.0 120.162906,23.089146,0.0 120.162785,23.089834,0.0 120.162677,23.090427,0.0 120.161118,23.090014,0.0 120.159791,23.08966,0.0 120.158849,23.089402,0.0 120.158027,23.089176,0.0 120.157666,23.089206,0.0</coordinates></LinearRing></outerBoundaryIs></Polygon><styleUrl>#spolygon-map</styleUrl></Placemark><Placemark><Polygon><outerBoundaryIs><LinearRing><coordinates>120.149945,23.080432,0.0 120.14891,23.080702,0.0 120.14772,23.080998,0.0 120.148494,23.083363,0.0 120.150655,23.089978,0.0 120.150691,23.09139,0.0 120.149307,23.091364,0.0 120.148307,23.091294,0.0 120.146243,23.091068,0.0 120.144147,23.09082,0.0 120.141892,23.090534,0.0 120.139615,23.090226,0.0 120.13808,23.090033,0.0 120.136612,23.089887,0.0 120.134515,23.089704,0.0 120.133181,23.089613,0.0 120.132966,23.08958,0.0 120.131722,23.089429,0.0 120.130932,23.089314,0.0 120.1308,23.083792,0.0 120.130738,23.081228,0.0 120.130764,23.080852,0.0 120.130615,23.079053,0.0 120.130607,23.078924,0.0 120.130511,23.077583,0.0 120.130393,23.075947,0.0 120.13039,23.074541,0.0 120.130447,23.073071,0.0 120.13038,23.071693,0.0 120.13149,23.071731,0.0 120.13293,23.070549,0.0 120.133283,23.070378,0.0 120.133991,23.069897,0.0 120.134557,23.069509,0.0 120.138125,23.066984,0.0 120.138669,23.066614,0.0 120.139185,23.066559,0.0 120.139253,23.066514,0.0 120.139742,23.065763,0.0 120.139891,23.065531,0.0 120.140126,23.064995,0.0 120.140427,23.064026,0.0 120.140969,23.061947,0.0 120.141105,23.061898,0.0 120.142597,23.064566,0.0 120.142784,23.064861,0.0 120.143342,23.065739,0.0 120.143675,23.066326,0.0 120.144191,23.067107,0.0 120.144224,23.067189,0.0 120.144285,23.067458,0.0 120.144396,23.068323,0.0 120.144437,23.070206,0.0 120.144258,23.070959,0.0 120.144186,23.071222,0.0 120.144,23.072122,0.0 120.143984,23.073179,0.0 120.144192,23.073765,0.0 120.144345,23.074007,0.0 120.144971,23.074956,0.0 120.146023,23.075468,0.0 120.146088,23.075517,0.0 120.146526,23.075707,0.0 120.147254,23.076035,0.0 120.147523,23.076157,0.0 120.147809,23.076261,0.0 120.148021,23.076343,0.0 120.148135,23.076407,0.0 120.148299,23.076502,0.0 120.148396,23.076879,0.0 120.148387,23.077041,0.0 120.148471,23.077246,0.0 120.148553,23.077297,0.0 120.14853,23.077556,0.0 120.14857,23.077941,0.0 120.148516,23.078341,0.0 120.149471,23.078347,0.0 120.149945,23.080432,0.0</coordinates></LinearRing></outerBoundaryIs></Polygon><styleUrl>#spolygon-map</styleUrl></Placemark><Placemark><Polygon><outerBoundaryIs><LinearRing><coordinates>120.139253,23.066514,0.0 120.139185,23.066559,0.0 120.138669,23.066614,0.0 120.138125,23.066984,0.0 120.134557,23.069509,0.0 120.133991,23.069897,0.0 120.133283,23.070378,0.0 120.13293,23.070549,0.0 120.13149,23.071731,0.0 120.13038,23.071693,0.0 120.123759,23.070484,0.0 120.124585,23.069045,0.0 120.126144,23.066388,0.0 120.126658,23.065565,0.0 120.127535,23.065996,0.0 120.128178,23.065142,0.0 120.128964,23.065527,0.0 120.129181,23.065121,0.0 120.130613,23.065121,0.0 120.130674,23.065095,0.0 120.13079,23.064532,0.0 120.130715,23.06401,0.0 120.131196,23.063863,0.0 120.131334,23.063709,0.0 120.131535,23.063629,0.0 120.131624,23.063552,0.0 120.131697,23.063516,0.0 120.13186,23.063481,0.0 120.132057,23.063467,0.0 120.132206,23.063479,0.0 120.132339,23.063437,0.0 120.132375,23.063369,0.0 120.132384,23.062934,0.0 120.132365,23.062717,0.0 120.132785,23.062732,0.0 120.133462,23.062953,0.0 120.134579,23.062994,0.0 120.134861,23.063893,0.0 120.135051,23.064499,0.0 120.135859,23.064681,0.0 120.137612,23.06443,0.0 120.139948,23.064094,0.0 120.140427,23.064026,0.0 120.140126,23.064995,0.0 120.139891,23.065531,0.0 120.139742,23.065763,0.0 120.139253,23.066514,0.0</coordinates></LinearRing></outerBoundaryIs></Polygon><styleUrl>#spolygon-map</styleUrl></Placemark><Placemark><Polygon><outerBoundaryIs><LinearRing><coordinates>120.129181,23.065121,0.0 120.128964,23.065527,0.0 120.128178,23.065142,0.0 120.129391,23.063025,0.0 120.129834,23.062361,0.0 120.130286,23.061959,0.0 120.13085,23.061428,0.0 120.131104,23.061249,0.0 120.13117,23.061209,0.0 120.131089,23.061081,0.0 120.130966,23.060969,0.0 120.130814,23.060868,0.0 120.130695,23.060361,0.0 120.130634,23.060291,0.0 120.13044,23.060221,0.0 120.130186,23.060153,0.0 120.129987,23.060134,0.0 120.129182,23.060318,0.0 120.129192,23.060028,0.0 120.12874,23.057528,0.0 120.128765,23.055658,0.0 120.12878,23.054532,0.0 120.128876,23.052244,0.0 120.128952,23.050431,0.0 120.129443,23.050854,0.0 120.130176,23.051154,0.0 120.132696,23.051881,0.0 120.133343,23.052327,0.0 120.133502,23.05242,0.0 120.133769,23.052761,0.0 120.134576,23.053095,0.0 120.137486,23.054142,0.0 120.138722,23.054955,0.0 120.139804,23.055891,0.0 120.140388,23.056472,0.0 120.140511,23.056656,0.0 120.143207,23.06051,0.0 120.142834,23.060569,0.0 120.140497,23.060678,0.0 120.141028,23.061889,0.0 120.140574,23.063439,0.0 120.140335,23.064039,0.0 120.139079,23.064219,0.0 120.137272,23.064479,0.0 120.135141,23.064785,0.0 120.134981,23.064233,0.0 120.134724,23.063468,0.0 120.134011,23.062973,0.0 120.133097,23.062884,0.0 120.132547,23.062723,0.0 120.132383,23.06284,0.0 120.13239,23.06315,0.0 120.132364,23.063412,0.0 120.132255,23.063475,0.0 120.132195,23.063478,0.0 120.131984,23.063471,0.0 120.131728,23.063505,0.0 120.131676,23.063523,0.0 120.131586,23.063578,0.0 120.131471,23.063654,0.0 120.131267,23.063783,0.0 120.130669,23.063802,0.0 120.130794,23.064455,0.0 120.130692,23.06507,0.0 120.130649,23.065113,0.0 120.129193,23.065068,0.0 120.129181,23.065121,0.0</coordinates></LinearRing></outerBoundaryIs></Polygon><styleUrl>#spolygon-map</styleUrl></Placemark><Placemark><Polygon><outerBoundaryIs><LinearRing><coordinates>120.130077,23.060137,0.0 120.130372,23.060196,0.0 120.130587,23.060266,0.0 120.130686,23.060334,0.0 120.13074,23.060828,0.0 120.130869,23.0609,0.0 120.131038,23.061031,0.0 120.131115,23.06112,0.0 120.13118,23.061224,0.0 120.131013,23.061301,0.0 120.130522,23.061762,0.0 120.129938,23.062248,0.0 120.12968,23.062526,0.0 120.128726,23.0642,0.0 120.127669,23.066032,0.0 120.127099,23.065806,0.0 120.126634,23.065552,0.0 120.127167,23.064644,0.0 120.128234,23.062826,0.0 120.128404,23.062569,0.0 120.128679,23.062103,0.0 120.128682,23.061866,0.0 120.128759,23.061762,0.0 120.128922,23.061555,0.0 120.129022,23.061376,0.0 120.129019,23.060903,0.0 120.129091,23.060717,0.0 120.12918,23.060576,0.0 120.129209,23.060454,0.0 120.129847,23.060157,0.0 120.130077,23.060137,0.0</coordinates></LinearRing></outerBoundaryIs></Polygon><styleUrl>#spolygon-map</styleUrl></Placemark><Placemark><Polygon><outerBoundaryIs><LinearRing><coordinates>120.120528,23.036032,0.0 120.121164,23.036964,0.0 120.121526,23.037566,0.0 120.1248,23.04336,0.0 120.125245,23.044277,0.0 120.126307,23.046902,0.0 120.127179,23.048516,0.0 120.127749,23.049393,0.0 120.128952,23.050431,0.0 120.128876,23.052244,0.0 120.12878,23.054532,0.0 120.128765,23.055658,0.0 120.12874,23.057528,0.0 120.129192,23.060028,0.0 120.129182,23.060318,0.0 120.129201,23.060514,0.0 120.129142,23.060635,0.0 120.129033,23.060837,0.0 120.129034,23.061327,0.0 120.128981,23.061459,0.0 120.128829,23.061674,0.0 120.128746,23.06178,0.0 120.12868,23.062086,0.0 120.128542,23.062335,0.0 120.12838,23.062605,0.0 120.127709,23.063719,0.0 120.126707,23.065427,0.0 120.126144,23.066388,0.0 120.124585,23.069045,0.0 120.121395,23.070057,0.0 120.118519,23.069537,0.0 120.117287,23.069313,0.0 120.115386,23.068867,0.0 120.11518,23.068715,0.0 120.114629,23.067543,0.0 120.113438,23.064335,0.0 120.113204,23.063938,0.0 120.112143,23.063754,0.0 120.108004,23.063287,0.0 120.104971,23.062924,0.0 120.104726,23.062647,0.0 120.103034,23.058725,0.0 120.105864,23.056122,0.0 120.108745,23.053134,0.0 120.109915,23.051921,0.0 120.111016,23.050675,0.0 120.110881,23.049247,0.0 120.11066,23.046831,0.0 120.111009,23.041688,0.0 120.112449,23.038319,0.0 120.116058,23.033677,0.0 120.11688,23.032856,0.0 120.117759,23.03212,0.0 120.120528,23.036032,0.0</coordinates></LinearRing></outerBoundaryIs></Polygon><styleUrl>#spolygon-map</styleUrl></Placemark><Placemark><Polygon><outerBoundaryIs><LinearRing><coordinates>120.110212,23.021352,0.0 120.111681,23.02348,0.0 120.112408,23.024512,0.0 120.11423,23.027107,0.0 120.115583,23.029033,0.0 120.117759,23.03212,0.0 120.11688,23.032856,0.0 120.116058,23.033677,0.0 120.112449,23.038319,0.0 120.111009,23.041688,0.0 120.11066,23.046831,0.0 120.110881,23.049247,0.0 120.111016,23.050675,0.0 120.109915,23.051921,0.0 120.108745,23.053134,0.0 120.105864,23.056122,0.0 120.103014,23.058721,0.0 120.100914,23.060589,0.0 120.100013,23.061309,0.0 120.09971,23.061546,0.0 120.098544,23.06221,0.0 120.098478,23.062367,0.0 120.097664,23.065039,0.0 120.09755,23.065432,0.0 120.096949,23.067376,0.0 120.09602,23.070575,0.0 120.095783,23.071362,0.0 120.095547,23.072131,0.0 120.093647,23.078314,0.0 120.093622,23.078374,0.0 120.0929,23.077634,0.0 120.092089,23.076797,0.0 120.091517,23.075658,0.0 120.091029,23.074325,0.0 120.090683,23.073312,0.0 120.090403,23.07304,0.0 120.08917,23.072005,0.0 120.087626,23.070644,0.0 120.086243,23.069429,0.0 120.08515,23.068474,0.0 120.08411,23.067583,0.0 120.083111,23.066738,0.0 120.081564,23.065516,0.0 120.080272,23.064597,0.0 120.079411,23.063878,0.0 120.078568,23.062968,0.0 120.078012,23.062396,0.0 120.077429,23.06186,0.0 120.076543,23.061266,0.0 120.075505,23.060352,0.0 120.074407,23.05912,0.0 120.073521,23.058058,0.0 120.072654,23.057062,0.0 120.071807,23.05601,0.0 120.071085,23.055044,0.0 120.07067,23.054289,0.0 120.070233,23.05328,0.0 120.069862,23.052479,0.0 120.069076,23.051664,0.0 120.067836,23.050494,0.0 120.066807,23.049433,0.0 120.065684,23.048307,0.0 120.065002,23.047538,0.0 120.064143,23.046546,0.0 120.063428,23.045562,0.0 120.062962,23.044803,0.0 120.062668,23.044111,0.0 120.067041,23.041981,0.0 120.068985,23.040979,0.0 120.070783,23.040321,0.0 120.075735,23.03884,0.0 120.077097,23.038306,0.0 120.078087,23.037709,0.0 120.078863,23.037077,0.0 120.080087,23.036283,0.0 120.081936,23.035286,0.0 120.086223,23.032815,0.0 120.091844,23.029695,0.0 120.092422,23.02938,0.0 120.100483,23.024544,0.0 120.10687,23.020665,0.0 120.106639,23.020352,0.0 120.10668,23.020307,0.0 120.106767,23.020328,0.0 120.109166,23.020073,0.0 120.108574,23.019174,0.0 120.108595,23.019133,0.0 120.108652,23.019136,0.0 120.108869,23.019433,0.0 120.108961,23.019469,0.0 120.109167,23.019403,0.0 120.109246,23.019466,0.0 120.109792,23.020528,0.0 120.109989,23.021024,0.0 120.110212,23.021352,0.0</coordinates></LinearRing></outerBoundaryIs></Polygon><styleUrl>#spolygon-map</styleUrl></Placemark><Placemark><Polygon><outerBoundaryIs><LinearRing><coordinates>120.103034,23.058725,0.0 120.104726,23.062647,0.0 120.104971,23.062924,0.0 120.108004,23.063287,0.0 120.112143,23.063754,0.0 120.113204,23.063938,0.0 120.113438,23.064335,0.0 120.114629,23.067543,0.0 120.11518,23.068715,0.0 120.115386,23.068867,0.0 120.117287,23.069313,0.0 120.118519,23.069537,0.0 120.11824,23.07284,0.0 120.118109,23.074507,0.0 120.11787,23.078824,0.0 120.117731,23.081325,0.0 120.117631,23.08312,0.0 120.117226,23.08827,0.0 120.115572,23.088215,0.0 120.113923,23.088093,0.0 120.112316,23.087982,0.0 120.111427,23.087962,0.0 120.110689,23.087872,0.0 120.109721,23.087683,0.0 120.108999,23.08744,0.0 120.108449,23.087229,0.0 120.108129,23.086995,0.0 120.106588,23.086717,0.0 120.105507,23.086481,0.0 120.104727,23.08624,0.0 120.104108,23.08597,0.0 120.103495,23.085713,0.0 120.102871,23.085568,0.0 120.102231,23.085404,0.0 120.100991,23.084954,0.0 120.099585,23.084007,0.0 120.098392,23.083115,0.0 120.097813,23.082552,0.0 120.097342,23.081967,0.0 120.096373,23.081027,0.0 120.095138,23.079887,0.0 120.094204,23.078956,0.0 120.093622,23.078374,0.0 120.093647,23.078314,0.0 120.095547,23.072131,0.0 120.095783,23.071362,0.0 120.09602,23.070575,0.0 120.096949,23.067376,0.0 120.09755,23.065432,0.0 120.097664,23.065039,0.0 120.098478,23.062367,0.0 120.098544,23.06221,0.0 120.09971,23.061546,0.0 120.100013,23.061309,0.0 120.100914,23.060589,0.0 120.103014,23.058721,0.0 120.103034,23.058725,0.0</coordinates></LinearRing></outerBoundaryIs></Polygon><styleUrl>#spolygon-map</styleUrl></Placemark><Placemark><Polygon><outerBoundaryIs><LinearRing><coordinates>120.130932,23.089314,0.0 120.130714,23.089283,0.0 120.12864,23.088956,0.0 120.127003,23.088735,0.0 120.126184,23.088621,0.0 120.124411,23.088481,0.0 120.122561,23.088392,0.0 120.120096,23.088292,0.0 120.118799,23.088278,0.0 120.117378,23.08827,0.0 120.117572,23.08387,0.0 120.117647,23.082823,0.0 120.117858,23.079031,0.0 120.117936,23.077636,0.0 120.118129,23.074152,0.0 120.11835,23.071541,0.0 120.119267,23.069672,0.0 120.123742,23.070481,0.0 120.128389,23.071329,0.0 120.130404,23.072188,0.0 120.130443,23.073187,0.0 120.130389,23.075705,0.0 120.13042,23.076357,0.0 120.130532,23.077894,0.0 120.130611,23.078986,0.0 120.130744,23.080774,0.0 120.130737,23.081177,0.0 120.130744,23.081472,0.0 120.130901,23.088005,0.0 120.130932,23.089314,0.0</coordinates></LinearRing></outerBoundaryIs></Polygon><styleUrl>#spolygon-map</styleUrl></Placemark><Placemark><Polygon><outerBoundaryIs><LinearRing><coordinates>120.156548,23.050125,0.0 120.155555,23.051005,0.0 120.154382,23.052048,0.0 120.154094,23.052776,0.0 120.15407,23.053308,0.0 120.154256,23.053856,0.0 120.15486,23.054626,0.0 120.155895,23.055476,0.0 120.155832,23.055517,0.0 120.153442,23.056509,0.0 120.149302,23.058241,0.0 120.148871,23.05842,0.0 120.146654,23.05934,0.0 120.144128,23.060386,0.0 120.143238,23.060555,0.0 120.141141,23.057598,0.0 120.14041,23.056504,0.0 120.140108,23.056163,0.0 120.138914,23.055069,0.0 120.138389,23.054759,0.0 120.136497,23.053604,0.0 120.133892,23.052851,0.0 120.13364,23.052595,0.0 120.133365,23.05234,0.0 120.133026,23.052145,0.0 120.132477,23.051688,0.0 120.129626,23.050948,0.0 120.129297,23.050729,0.0 120.127944,23.049611,0.0 120.127433,23.048938,0.0 120.126912,23.048052,0.0 120.12627,23.046811,0.0 120.124822,23.043401,0.0 120.12395,23.041762,0.0 120.121203,23.037031,0.0 120.123044,23.03672,0.0 120.123691,23.036611,0.0 120.124955,23.036689,0.0 120.12705,23.036854,0.0 120.128155,23.037446,0.0 120.129141,23.038143,0.0 120.129266,23.038189,0.0 120.129403,23.038162,0.0 120.129597,23.038098,0.0 120.131485,23.037457,0.0 120.13309,23.036967,0.0 120.13565,23.037253,0.0 120.135734,23.037697,0.0 120.13588,23.038036,0.0 120.137257,23.039673,0.0 120.140222,23.04313,0.0 120.143359,23.046777,0.0 120.149087,23.047377,0.0 120.152174,23.045113,0.0 120.153949,23.043807,0.0 120.157335,23.041722,0.0 120.158986,23.04428,0.0 120.159438,23.045102,0.0 120.158255,23.048502,0.0 120.158096,23.04872,0.0 120.156548,23.050125,0.0</coordinates></LinearRing></outerBoundaryIs></Polygon><styleUrl>#spolygon-map</styleUrl></Placemark><Placemark><Polygon><outerBoundaryIs><LinearRing><coordinates>120.133088,23.036913,0.0 120.132641,23.037065,0.0 120.130219,23.037887,0.0 120.129557,23.038111,0.0 120.129308,23.038181,0.0 120.129163,23.038151,0.0 120.128517,23.037702,0.0 120.127107,23.036874,0.0 120.126989,23.036833,0.0 120.123878,23.036612,0.0 120.123571,23.036632,0.0 120.121215,23.037029,0.0 120.121164,23.036964,0.0 120.120528,23.036032,0.0 120.116537,23.030393,0.0 120.117403,23.028747,0.0 120.120098,23.028295,0.0 120.121482,23.028079,0.0 120.122986,23.027821,0.0 120.124189,23.027706,0.0 120.125523,23.029583,0.0 120.125655,23.029629,0.0 120.127266,23.028702,0.0 120.130784,23.026557,0.0 120.132776,23.027955,0.0 120.132845,23.030336,0.0 120.133088,23.036913,0.0</coordinates></LinearRing></outerBoundaryIs></Polygon><styleUrl>#spolygon-map</styleUrl></Placemark><Placemark><Polygon><outerBoundaryIs><LinearRing><coordinates>120.128415,23.028001,0.0 120.125753,23.029625,0.0 120.125597,23.029624,0.0 120.124285,23.027777,0.0 120.124105,23.027719,0.0 120.122478,23.027908,0.0 120.12075,23.028193,0.0 120.118714,23.02852,0.0 120.115583,23.029033,0.0 120.11423,23.027107,0.0 120.112408,23.024512,0.0 120.111681,23.02348,0.0 120.110212,23.021352,0.0 120.10991,23.020883,0.0 120.109715,23.020297,0.0 120.109199,23.019385,0.0 120.109807,23.019002,0.0 120.111213,23.017834,0.0 120.111679,23.017414,0.0 120.111946,23.017317,0.0 120.112094,23.017225,0.0 120.11244,23.016904,0.0 120.11343,23.016083,0.0 120.113796,23.015688,0.0 120.113967,23.01559,0.0 120.114544,23.015293,0.0 120.115406,23.014638,0.0 120.116295,23.013968,0.0 120.11675,23.013571,0.0 120.117564,23.012957,0.0 120.11828,23.012349,0.0 120.118768,23.012165,0.0 120.118997,23.011963,0.0 120.119502,23.011433,0.0 120.119712,23.011269,0.0 120.120379,23.010919,0.0 120.121693,23.009695,0.0 120.124026,23.007896,0.0 120.125501,23.006757,0.0 120.126079,23.006426,0.0 120.126432,23.006132,0.0 120.126743,23.005881,0.0 120.127743,23.005361,0.0 120.128151,23.005033,0.0 120.128326,23.00479,0.0 120.128443,23.004687,0.0 120.128784,23.0045,0.0 120.129327,23.004071,0.0 120.133908,23.000572,0.0 120.133939,23.000498,0.0 120.133807,23.000339,0.0 120.13381,23.00029,0.0 120.133866,23.000295,0.0 120.134038,23.000442,0.0 120.134106,23.000422,0.0 120.135113,22.999584,0.0 120.135021,22.999436,0.0 120.135022,22.999387,0.0 120.135424,22.999104,0.0 120.135461,22.999118,0.0 120.135575,22.99925,0.0 120.135618,22.999243,0.0 120.136333,22.998852,0.0 120.136235,22.998711,0.0 120.136246,22.998664,0.0 120.136287,22.998658,0.0 120.136336,22.998701,0.0 120.136452,22.998832,0.0 120.137506,22.998332,0.0 120.137893,22.998086,0.0 120.137799,22.997704,0.0 120.13807,22.99811,0.0 120.138556,22.998225,0.0 120.139549,22.997551,0.0 120.139652,22.997644,0.0 120.139957,22.997933,0.0 120.140099,22.998082,0.0 120.140494,23.001371,0.0 120.141153,23.00608,0.0 120.140008,23.008013,0.0 120.14056,23.008294,0.0 120.140632,23.008418,0.0 120.140671,23.008641,0.0 120.140698,23.008861,0.0 120.140738,23.009229,0.0 120.140784,23.009541,0.0 120.140761,23.009731,0.0 120.140745,23.009937,0.0 120.140755,23.010224,0.0 120.14077,23.010496,0.0 120.140803,23.010753,0.0 120.140786,23.010925,0.0 120.140816,23.011146,0.0 120.140851,23.011429,0.0 120.140887,23.011625,0.0 120.140974,23.011823,0.0 120.141016,23.011925,0.0 120.141024,23.012003,0.0 120.141105,23.012186,0.0 120.141205,23.012436,0.0 120.141291,23.012639,0.0 120.141352,23.012818,0.0 120.141457,23.012831,0.0 120.141613,23.012791,0.0 120.141696,23.012873,0.0 120.141786,23.012968,0.0 120.141822,23.013163,0.0 120.141841,23.013276,0.0 120.14185,23.013418,0.0 120.141888,23.013501,0.0 120.142087,23.013977,0.0 120.142256,23.014473,0.0 120.142305,23.014617,0.0 120.142298,23.014641,0.0 120.142286,23.014731,0.0 120.142367,23.014782,0.0 120.142391,23.015002,0.0 120.142417,23.015148,0.0 120.142476,23.015422,0.0 120.142525,23.015676,0.0 120.142547,23.015865,0.0 120.142594,23.016151,0.0 120.142667,23.016437,0.0 120.142719,23.016654,0.0 120.142702,23.016755,0.0 120.142791,23.016926,0.0 120.142837,23.017068,0.0 120.142868,23.017164,0.0 120.14296,23.017246,0.0 120.142915,23.017376,0.0 120.142835,23.017507,0.0 120.142895,23.017695,0.0 120.142855,23.017838,0.0 120.142827,23.017982,0.0 120.142826,23.018213,0.0 120.142801,23.018394,0.0 120.142775,23.018462,0.0 120.141463,23.018675,0.0 120.139889,23.018984,0.0 120.138869,23.019195,0.0 120.1385,23.019324,0.0 120.138453,23.019367,0.0 120.137546,23.020017,0.0 120.136726,23.020581,0.0 120.136604,23.020615,0.0 120.136556,23.020845,0.0 120.136824,23.022507,0.0 120.136945,23.023356,0.0 120.13427,23.024558,0.0 120.133957,23.024622,0.0 120.130784,23.026557,0.0 120.128415,23.028001,0.0</coordinates></LinearRing></outerBoundaryIs></Polygon><styleUrl>#spolygon-map</styleUrl></Placemark><Placemark><Polygon><outerBoundaryIs><LinearRing><coordinates>120.215475,23.025115,0.0 120.216395,23.025948,0.0 120.217324,23.026844,0.0 120.21827,23.02777,0.0 120.219255,23.028488,0.0 120.219905,23.029193,0.0 120.220225,23.029782,0.0 120.220383,23.030426,0.0 120.22054,23.031375,0.0 120.220704,23.031915,0.0 120.221047,23.032691,0.0 120.221461,23.033276,0.0 120.221675,23.033656,0.0 120.222003,23.034364,0.0 120.222244,23.034946,0.0 120.222678,23.035427,0.0 120.223173,23.036242,0.0 120.2233,23.036818,0.0 120.223282,23.037604,0.0 120.223465,23.038207,0.0 120.223065,23.038374,0.0 120.222304,23.038533,0.0 120.221367,23.037066,0.0 120.21884,23.033222,0.0 120.218016,23.031969,0.0 120.217782,23.031583,0.0 120.217453,23.031135,0.0 120.21683,23.030544,0.0 120.216127,23.030062,0.0 120.214935,23.029468,0.0 120.214129,23.029079,0.0 120.214026,23.029005,0.0 120.21414,23.028812,0.0 120.214302,23.028539,0.0 120.2146,23.028034,0.0 120.214795,23.027677,0.0 120.21494,23.027357,0.0 120.215064,23.026943,0.0 120.215155,23.026533,0.0 120.215192,23.026258,0.0 120.215224,23.025832,0.0 120.21524,23.025621,0.0 120.215264,23.025486,0.0 120.215392,23.025065,0.0 120.215475,23.025115,0.0</coordinates></LinearRing></outerBoundaryIs></Polygon><styleUrl>#spolygon-map</styleUrl></Placemark><Placemark><Polygon><outerBoundaryIs><LinearRing><coordinates>120.214485,23.028228,0.0 120.214252,23.028624,0.0 120.214053,23.028959,0.0 120.21402,23.029016,0.0 120.213522,23.028742,0.0 120.212683,23.028418,0.0 120.211927,23.028218,0.0 120.211699,23.028167,0.0 120.211314,23.028125,0.0 120.210733,23.028122,0.0 120.210401,23.027512,0.0 120.210626,23.027164,0.0 120.210654,23.026461,0.0 120.210697,23.025692,0.0 120.210803,23.025355,0.0 120.2113,23.023487,0.0 120.212107,23.023795,0.0 120.213586,23.024275,0.0 120.214927,23.02476,0.0 120.215376,23.025047,0.0 120.215392,23.025065,0.0 120.215264,23.025486,0.0 120.21524,23.025621,0.0 120.215224,23.025832,0.0 120.215192,23.026258,0.0 120.215155,23.026533,0.0 120.215064,23.026943,0.0 120.21494,23.027357,0.0 120.214795,23.027677,0.0 120.2146,23.028034,0.0 120.214485,23.028228,0.0</coordinates></LinearRing></outerBoundaryIs></Polygon><styleUrl>#spolygon-map</styleUrl></Placemark><Placemark><Polygon><outerBoundaryIs><LinearRing><coordinates>120.210321,23.02814,0.0 120.209812,23.028167,0.0 120.20925,23.028214,0.0 120.20755,23.028329,0.0 120.206665,23.028389,0.0 120.205556,23.028471,0.0 120.20484,23.028538,0.0 120.204915,23.028036,0.0 120.205021,23.027176,0.0 120.205166,23.026155,0.0 120.205268,23.025388,0.0 120.205404,23.024378,0.0 120.205756,23.022926,0.0 120.206072,23.022925,0.0 120.206345,23.022931,0.0 120.206792,23.022929,0.0 120.207147,23.022929,0.0 120.207791,23.022921,0.0 120.208067,23.022929,0.0 120.209435,23.022949,0.0 120.209614,23.022975,0.0 120.210174,23.023005,0.0 120.210567,23.023079,0.0 120.210764,23.02315,0.0 120.211039,23.023334,0.0 120.2113,23.023487,0.0 120.210803,23.025355,0.0 120.210697,23.025692,0.0 120.210654,23.026461,0.0 120.210626,23.027164,0.0 120.210401,23.027512,0.0 120.210321,23.02814,0.0</coordinates></LinearRing></outerBoundaryIs></Polygon><styleUrl>#spolygon-map</styleUrl></Placemark><Placemark><Polygon><outerBoundaryIs><LinearRing><coordinates>120.192626,23.019704,0.0 120.192787,23.019774,0.0 120.19311,23.019905,0.0 120.193597,23.020097,0.0 120.193868,23.020189,0.0 120.194252,23.020315,0.0 120.194542,23.020418,0.0 120.194464,23.021077,0.0 120.194365,23.021526,0.0 120.194221,23.022178,0.0 120.194141,23.022513,0.0 120.194011,23.023054,0.0 120.193895,23.023539,0.0 120.193667,23.024486,0.0 120.193645,23.024586,0.0 120.193576,23.024872,0.0 120.193533,23.025145,0.0 120.193393,23.025774,0.0 120.193236,23.026489,0.0 120.193156,23.026849,0.0 120.193017,23.027406,0.0 120.19295,23.027717,0.0 120.192857,23.028219,0.0 120.192852,23.028315,0.0 120.192782,23.028615,0.0 120.192617,23.02932,0.0 120.192335,23.029313,0.0 120.190621,23.028841,0.0 120.190709,23.028444,0.0 120.190846,23.02783,0.0 120.191038,23.026889,0.0 120.191143,23.026421,0.0 120.191246,23.025962,0.0 120.191379,23.025366,0.0 120.191505,23.024726,0.0 120.19167,23.023982,0.0 120.191767,23.023542,0.0 120.191996,23.022453,0.0 120.192417,23.020333,0.0 120.192473,23.020132,0.0 120.192508,23.020005,0.0 120.192626,23.019704,0.0</coordinates></LinearRing></outerBoundaryIs></Polygon><styleUrl>#spolygon-map</styleUrl></Placemark><Placemark><Polygon><outerBoundaryIs><LinearRing><coordinates>120.188134,23.022224,0.0 120.188695,23.022319,0.0 120.189352,23.022432,0.0 120.190231,23.022596,0.0 120.190487,23.022655,0.0 120.191363,23.022806,0.0 120.191909,23.022885,0.0 120.191675,23.023959,0.0 120.191629,23.02417,0.0 120.19147,23.024884,0.0 120.191287,23.025774,0.0 120.191223,23.026064,0.0 120.191075,23.026729,0.0 120.190979,23.027157,0.0 120.19077,23.02817,0.0 120.190629,23.028805,0.0 120.1906,23.028836,0.0 120.189036,23.028399,0.0 120.187444,23.027957,0.0 120.186555,23.02766,0.0 120.186642,23.027317,0.0 120.186815,23.026486,0.0 120.186834,23.026326,0.0 120.186897,23.026042,0.0 120.18699,23.025655,0.0 120.18712,23.025082,0.0 120.187161,23.024726,0.0 120.187239,23.024355,0.0 120.187401,23.023667,0.0 120.187626,23.022656,0.0 120.187718,23.022147,0.0 120.188134,23.022224,0.0</coordinates></LinearRing></outerBoundaryIs></Polygon><styleUrl>#spolygon-map</styleUrl></Placemark><Placemark><Polygon><outerBoundaryIs><LinearRing><coordinates>120.188159,23.017306,0.0 120.188714,23.017647,0.0 120.188964,23.017807,0.0 120.18921,23.017968,0.0 120.189725,23.018255,0.0 120.19019,23.018522,0.0 120.190459,23.018672,0.0 120.190837,23.018882,0.0 120.191165,23.019048,0.0 120.191403,23.019147,0.0 120.191975,23.019409,0.0 120.19228,23.019553,0.0 120.192624,23.019703,0.0 120.192496,23.02005,0.0 120.192449,23.02022,0.0 120.192053,23.022097,0.0 120.191909,23.022885,0.0 120.191363,23.022806,0.0 120.190487,23.022655,0.0 120.190231,23.022596,0.0 120.189352,23.022432,0.0 120.188695,23.022319,0.0 120.188134,23.022224,0.0 120.187358,23.022079,0.0 120.18676,23.021899,0.0 120.186825,23.021581,0.0 120.186954,23.02096,0.0 120.187127,23.02013,0.0 120.18716,23.01991,0.0 120.187219,23.019503,0.0 120.187321,23.019005,0.0 120.18746,23.018385,0.0 120.187538,23.017992,0.0 120.187584,23.017793,0.0 120.187681,23.017643,0.0 120.188001,23.017199,0.0 120.188159,23.017306,0.0</coordinates></LinearRing></outerBoundaryIs></Polygon><styleUrl>#spolygon-map</styleUrl></Placemark><Placemark><Polygon><outerBoundaryIs><LinearRing><coordinates>120.202485,23.039171,0.0 120.202907,23.040871,0.0 120.203018,23.041294,0.0 120.203402,23.042851,0.0 120.203384,23.042895,0.0 120.202226,23.04317,0.0 120.200052,23.043659,0.0 120.198742,23.043965,0.0 120.198141,23.044088,0.0 120.197081,23.044316,0.0 120.195764,23.044621,0.0 120.194421,23.044944,0.0 120.193467,23.045142,0.0 120.191374,23.045546,0.0 120.193311,23.044371,0.0 120.193449,23.04429,0.0 120.193967,23.043996,0.0 120.194481,23.043703,0.0 120.195476,23.043128,0.0 120.195727,23.042986,0.0 120.19636,23.042628,0.0 120.197662,23.041854,0.0 120.199006,23.04106,0.0 120.200372,23.04026,0.0 120.202468,23.039026,0.0 120.202485,23.039171,0.0</coordinates></LinearRing></outerBoundaryIs></Polygon><styleUrl>#spolygon-map</styleUrl></Placemark><Placemark><Polygon><outerBoundaryIs><LinearRing><coordinates>120.204109,23.030402,0.0 120.203686,23.033262,0.0 120.203893,23.033271,0.0 120.204149,23.033538,0.0 120.204101,23.033729,0.0 120.203768,23.034671,0.0 120.203076,23.036492,0.0 120.202601,23.037717,0.0 120.202503,23.038031,0.0 120.202441,23.038377,0.0 120.202435,23.038884,0.0 120.202468,23.039026,0.0 120.200372,23.04026,0.0 120.199006,23.04106,0.0 120.197662,23.041854,0.0 120.19636,23.042628,0.0 120.195727,23.042986,0.0 120.195476,23.043128,0.0 120.194481,23.043703,0.0 120.193967,23.043996,0.0 120.193449,23.04429,0.0 120.193113,23.043826,0.0 120.19255,23.042975,0.0 120.192244,23.042517,0.0 120.191744,23.041915,0.0 120.191566,23.041743,0.0 120.191299,23.041544,0.0 120.191096,23.041318,0.0 120.19151,23.040877,0.0 120.19222,23.040143,0.0 120.192239,23.040116,0.0 120.192258,23.040051,0.0 120.192124,23.039866,0.0 120.1919,23.039558,0.0 120.191901,23.039513,0.0 120.192505,23.03896,0.0 120.192583,23.038822,0.0 120.193392,23.038254,0.0 120.193575,23.038103,0.0 120.193682,23.037991,0.0 120.194376,23.037293,0.0 120.194737,23.036983,0.0 120.194926,23.036873,0.0 120.195159,23.036706,0.0 120.195433,23.036421,0.0 120.19586,23.036031,0.0 120.196271,23.035685,0.0 120.196632,23.035283,0.0 120.197165,23.034921,0.0 120.19751,23.034681,0.0 120.198605,23.034077,0.0 120.198639,23.033309,0.0 120.198161,23.032571,0.0 120.198338,23.032176,0.0 120.200535,23.030969,0.0 120.201698,23.030247,0.0 120.204109,23.030402,0.0</coordinates></LinearRing></outerBoundaryIs></Polygon><styleUrl>#spolygon-map</styleUrl></Placemark><Placemark><Polygon><outerBoundaryIs><LinearRing><coordinates>120.191137,23.031229,0.0 120.191418,23.031275,0.0 120.191968,23.031379,0.0 120.192127,23.031603,0.0 120.192477,23.032133,0.0 120.192818,23.032652,0.0 120.193243,23.033281,0.0 120.193621,23.033802,0.0 120.194052,23.034421,0.0 120.194408,23.034928,0.0 120.194617,23.035236,0.0 120.194902,23.035638,0.0 120.195202,23.036059,0.0 120.195425,23.036399,0.0 120.195283,23.036588,0.0 120.195059,23.036789,0.0 120.194837,23.036925,0.0 120.194577,23.037106,0.0 120.194126,23.03752,0.0 120.193605,23.038072,0.0 120.193499,23.038167,0.0 120.193248,23.038353,0.0 120.192516,23.038869,0.0 120.192484,23.03913,0.0 120.191878,23.039528,0.0 120.192095,23.039826,0.0 120.192246,23.040034,0.0 120.192257,23.040089,0.0 120.192226,23.040136,0.0 120.191842,23.040488,0.0 120.191494,23.040896,0.0 120.19106,23.041357,0.0 120.190656,23.040981,0.0 120.190249,23.040601,0.0 120.189517,23.040013,0.0 120.189151,23.039723,0.0 120.188605,23.039306,0.0 120.187998,23.038831,0.0 120.188054,23.038637,0.0 120.188328,23.037791,0.0 120.188678,23.036756,0.0 120.189095,23.035458,0.0 120.189351,23.034672,0.0 120.189498,23.034203,0.0 120.189806,23.033221,0.0 120.189929,23.032843,0.0 120.190071,23.032183,0.0 120.190151,23.031638,0.0 120.190252,23.03109,0.0 120.191137,23.031229,0.0</coordinates></LinearRing></outerBoundaryIs></Polygon><styleUrl>#spolygon-map</styleUrl></Placemark><Placemark><Polygon><outerBoundaryIs><LinearRing><coordinates>120.205404,23.024378,0.0 120.205268,23.025388,0.0 120.205166,23.026155,0.0 120.205021,23.027176,0.0 120.204915,23.028036,0.0 120.20484,23.028538,0.0 120.204029,23.028591,0.0 120.202739,23.028695,0.0 120.202338,23.02873,0.0 120.201139,23.028817,0.0 120.199544,23.028935,0.0 120.198716,23.029004,0.0 120.19877,23.028662,0.0 120.19898,23.027216,0.0 120.198877,23.027197,0.0 120.19797,23.026661,0.0 120.198024,23.026463,0.0 120.198279,23.025324,0.0 120.198572,23.02436,0.0 120.198784,23.023565,0.0 120.199228,23.021854,0.0 120.199341,23.021885,0.0 120.19963,23.021952,0.0 120.199973,23.02205,0.0 120.200103,23.02208,0.0 120.200263,23.022126,0.0 120.200567,23.022225,0.0 120.20089,23.022299,0.0 120.201173,23.022384,0.0 120.201607,23.022501,0.0 120.201923,23.022577,0.0 120.202254,23.022669,0.0 120.20255,23.022747,0.0 120.202858,23.022812,0.0 120.203262,23.02288,0.0 120.203584,23.022911,0.0 120.204119,23.022922,0.0 120.204559,23.022922,0.0 120.204982,23.022931,0.0 120.205568,23.022927,0.0 120.205611,23.022927,0.0 120.205404,23.024378,0.0</coordinates></LinearRing></outerBoundaryIs></Polygon><styleUrl>#spolygon-map</styleUrl></Placemark><Placemark><Polygon><outerBoundaryIs><LinearRing><coordinates>120.173967,23.049954,0.0 120.173711,23.050248,0.0 120.173589,23.050469,0.0 120.173582,23.050589,0.0 120.173625,23.050764,0.0 120.173843,23.05166,0.0 120.173852,23.05177,0.0 120.17381,23.052151,0.0 120.173785,23.052476,0.0 120.173751,23.052741,0.0 120.173637,23.05308,0.0 120.173531,23.053229,0.0 120.173492,23.053204,0.0 120.173265,23.053095,0.0 120.172475,23.052759,0.0 120.172375,23.052707,0.0 120.172318,23.052659,0.0 120.171974,23.052378,0.0 120.171551,23.052014,0.0 120.171514,23.051957,0.0 120.171442,23.051908,0.0 120.170753,23.051798,0.0 120.170381,23.051757,0.0 120.17016,23.05169,0.0 120.169568,23.051289,0.0 120.169332,23.051128,0.0 120.168865,23.050675,0.0 120.168757,23.05058,0.0 120.168482,23.050462,0.0 120.167925,23.050276,0.0 120.167688,23.050156,0.0 120.167203,23.049927,0.0 120.166865,23.049806,0.0 120.166557,23.049749,0.0 120.166409,23.049745,0.0 120.165633,23.050092,0.0 120.165495,23.050124,0.0 120.165343,23.050118,0.0 120.165046,23.050031,0.0 120.164344,23.049921,0.0 120.162891,23.049873,0.0 120.162836,23.050047,0.0 120.163095,23.051073,0.0 120.159803,23.049312,0.0 120.158191,23.04859,0.0 120.159347,23.045356,0.0 120.159465,23.045023,0.0 120.160584,23.041814,0.0 120.161214,23.039971,0.0 120.161283,23.039691,0.0 120.161265,23.037577,0.0 120.161286,23.036702,0.0 120.161467,23.036481,0.0 120.162101,23.035731,0.0 120.165846,23.03697,0.0 120.16643,23.037163,0.0 120.169533,23.038191,0.0 120.172484,23.039181,0.0 120.177238,23.04073,0.0 120.178977,23.041177,0.0 120.180953,23.041629,0.0 120.181169,23.041317,0.0 120.182259,23.042698,0.0 120.182485,23.043,0.0 120.182752,23.042882,0.0 120.182965,23.042915,0.0 120.183174,23.04297,0.0 120.182874,23.043548,0.0 120.182503,23.043962,0.0 120.181752,23.044531,0.0 120.181427,23.044761,0.0 120.180781,23.044989,0.0 120.180176,23.0452,0.0 120.180129,23.045329,0.0 120.180069,23.045634,0.0 120.179964,23.045819,0.0 120.179822,23.045973,0.0 120.179653,23.046081,0.0 120.178822,23.046572,0.0 120.178792,23.04661,0.0 120.178766,23.046691,0.0 120.178734,23.047095,0.0 120.178672,23.048286,0.0 120.177584,23.048535,0.0 120.176456,23.048775,0.0 120.175783,23.048919,0.0 120.174898,23.049179,0.0 120.174748,23.049304,0.0 120.1742,23.04976,0.0 120.173967,23.049954,0.0</coordinates></LinearRing></outerBoundaryIs></Polygon><styleUrl>#spolygon-map</styleUrl></Placemark><Placemark><Polygon><outerBoundaryIs><LinearRing><coordinates>120.206574,23.06871,0.0 120.206018,23.069484,0.0 120.205645,23.070024,0.0 120.205499,23.070042,0.0 120.205168,23.069794,0.0 120.204942,23.069558,0.0 120.204633,23.069432,0.0 120.204341,23.069241,0.0 120.204082,23.069005,0.0 120.203723,23.068701,0.0 120.203063,23.068203,0.0 120.202623,23.067934,0.0 120.20232,23.06682,0.0 120.201714,23.063994,0.0 120.20082,23.059823,0.0 120.200827,23.059365,0.0 120.20447,23.058394,0.0 120.206639,23.05782,0.0 120.208418,23.057349,0.0 120.208521,23.057704,0.0 120.208782,23.058053,0.0 120.209334,23.05826,0.0 120.209808,23.058419,0.0 120.211423,23.059657,0.0 120.21149,23.059789,0.0 120.211541,23.059983,0.0 120.211795,23.061583,0.0 120.21186,23.062007,0.0 120.211966,23.063168,0.0 120.211998,23.063633,0.0 120.212027,23.063919,0.0 120.212242,23.066138,0.0 120.212038,23.067492,0.0 120.211751,23.069095,0.0 120.211682,23.069456,0.0 120.211768,23.06989,0.0 120.211687,23.069894,0.0 120.211346,23.069768,0.0 120.210972,23.069432,0.0 120.210665,23.069196,0.0 120.210285,23.069011,0.0 120.209801,23.068794,0.0 120.209345,23.068593,0.0 120.208978,23.068519,0.0 120.208558,23.068621,0.0 120.208092,23.068775,0.0 120.207757,23.068904,0.0 120.207334,23.068845,0.0 120.207003,23.068724,0.0 120.206793,23.068624,0.0 120.206574,23.06871,0.0</coordinates></LinearRing></outerBoundaryIs></Polygon><styleUrl>#spolygon-map</styleUrl></Placemark><Placemark><Polygon><outerBoundaryIs><LinearRing><coordinates>120.177785,23.019225,0.0 120.180288,23.019376,0.0 120.181465,23.019858,0.0 120.185174,23.021508,0.0 120.185393,23.021619,0.0 120.185815,23.021803,0.0 120.186443,23.021907,0.0 120.186749,23.021964,0.0 120.187718,23.022147,0.0 120.187626,23.022656,0.0 120.187401,23.023667,0.0 120.187239,23.024355,0.0 120.187161,23.024726,0.0 120.18712,23.025082,0.0 120.18699,23.025655,0.0 120.186897,23.026042,0.0 120.186834,23.026326,0.0 120.186815,23.026486,0.0 120.186642,23.027317,0.0 120.186555,23.02766,0.0 120.185325,23.027336,0.0 120.184654,23.027141,0.0 120.181342,23.026195,0.0 120.176758,23.024831,0.0 120.175498,23.024004,0.0 120.174287,23.023182,0.0 120.174107,23.023091,0.0 120.177647,23.019267,0.0 120.177785,23.019225,0.0</coordinates></LinearRing></outerBoundaryIs></Polygon><styleUrl>#spolygon-map</styleUrl></Placemark><Placemark><Polygon><outerBoundaryIs><LinearRing><coordinates>120.194762,23.020489,0.0 120.195255,23.020656,0.0 120.195517,23.020741,0.0 120.196027,23.020906,0.0 120.196186,23.020954,0.0 120.196656,23.021099,0.0 120.196992,23.021191,0.0 120.197361,23.021294,0.0 120.197736,23.021405,0.0 120.198053,23.021499,0.0 120.198431,23.02162,0.0 120.198573,23.021662,0.0 120.198929,23.021776,0.0 120.199074,23.021795,0.0 120.199228,23.021854,0.0 120.198784,23.023565,0.0 120.198572,23.02436,0.0 120.198279,23.025324,0.0 120.198024,23.026463,0.0 120.19797,23.026661,0.0 120.198877,23.027197,0.0 120.19898,23.027216,0.0 120.19877,23.028662,0.0 120.198716,23.029004,0.0 120.197447,23.029093,0.0 120.196441,23.029173,0.0 120.194765,23.029297,0.0 120.193603,23.029397,0.0 120.192861,23.02938,0.0 120.192617,23.02932,0.0 120.192782,23.028615,0.0 120.192852,23.028315,0.0 120.192857,23.028219,0.0 120.19295,23.027717,0.0 120.193017,23.027406,0.0 120.193156,23.026849,0.0 120.193236,23.026489,0.0 120.193393,23.025774,0.0 120.193533,23.025145,0.0 120.193576,23.024872,0.0 120.193645,23.024586,0.0 120.193667,23.024486,0.0 120.193895,23.023539,0.0 120.194011,23.023054,0.0 120.194141,23.022513,0.0 120.194221,23.022178,0.0 120.194365,23.021526,0.0 120.194464,23.021077,0.0 120.194762,23.020489,0.0</coordinates></LinearRing></outerBoundaryIs></Polygon><styleUrl>#spolygon-map</styleUrl></Placemark><Placemark><Polygon><outerBoundaryIs><LinearRing><coordinates>120.198338,23.032176,0.0 120.198161,23.032571,0.0 120.198639,23.033309,0.0 120.198605,23.034077,0.0 120.19751,23.034681,0.0 120.197165,23.034921,0.0 120.196632,23.035283,0.0 120.196271,23.035685,0.0 120.19586,23.036031,0.0 120.195433,23.036421,0.0 120.195402,23.036341,0.0 120.195021,23.035806,0.0 120.194834,23.035542,0.0 120.194445,23.034981,0.0 120.194229,23.034674,0.0 120.193838,23.034117,0.0 120.19344,23.033542,0.0 120.193026,23.032967,0.0 120.192649,23.032395,0.0 120.192311,23.031882,0.0 120.19206,23.031458,0.0 120.191945,23.031359,0.0 120.191239,23.031246,0.0 120.190252,23.03109,0.0 120.190302,23.030728,0.0 120.190404,23.029873,0.0 120.190604,23.028915,0.0 120.191603,23.029142,0.0 120.192608,23.029358,0.0 120.193187,23.029402,0.0 120.194511,23.029316,0.0 120.195249,23.029262,0.0 120.197419,23.029095,0.0 120.197425,23.031422,0.0 120.197992,23.031397,0.0 120.198338,23.032176,0.0</coordinates></LinearRing></outerBoundaryIs></Polygon><styleUrl>#spolygon-map</styleUrl></Placemark></Document>
</kml>
