<?xml version="1.0" encoding="UTF-8"?>
<kml xmlns="http://www.opengis.net/kml/2.2">
	<Document>
		<name>臺南市中西區</name>
		<Style id="spolygon">
			<LabelStyle>
				<scale>0.0</scale>
			</LabelStyle>
			<LineStyle>
				<color>330030ff</color>
				<width>0</width>
			</LineStyle>
			<PolyStyle>
				<color>330030ff</color>
			</PolyStyle>
		</Style>
		<StyleMap id="spolygon-map">
			<Pair>
				<key>normal</key>
				<styleUrl>#spolygon</styleUrl>
			</Pair>
		</StyleMap>
	<Placemark><Polygon><outerBoundaryIs><LinearRing><coordinates>120.212103,22.996858,0.0 120.212126,22.996975,0.0 120.211999,22.997017,0.0 120.211651,22.996809,0.0 120.210884,22.99636,0.0 120.209633,22.995578,0.0 120.208472,22.994799,0.0 120.208129,22.994552,0.0 120.207402,22.99409,0.0 120.206679,22.993626,0.0 120.206916,22.993553,0.0 120.208198,22.993279,0.0 120.208256,22.993267,0.0 120.208757,22.99316,0.0 120.209783,22.992982,0.0 120.210664,22.992884,0.0 120.211624,22.992798,0.0 120.211731,22.99279,0.0 120.211819,22.994505,0.0 120.21187,22.995345,0.0 120.211892,22.995608,0.0 120.212103,22.996858,0.0</coordinates></LinearRing></outerBoundaryIs></Polygon><styleUrl>#spolygon-map</styleUrl></Placemark><Placemark><Polygon><outerBoundaryIs><LinearRing><coordinates>120.208071,22.989324,0.0 120.208072,22.989347,0.0 120.208098,22.989762,0.0 120.208065,22.990059,0.0 120.208004,22.990177,0.0 120.207942,22.99028,0.0 120.207963,22.990476,0.0 120.207995,22.990874,0.0 120.207891,22.991038,0.0 120.207772,22.991268,0.0 120.207601,22.991366,0.0 120.207523,22.991449,0.0 120.207449,22.991645,0.0 120.207432,22.991733,0.0 120.207441,22.991745,0.0 120.207763,22.991993,0.0 120.20768,22.992107,0.0 120.206667,22.992296,0.0 120.205981,22.992395,0.0 120.205474,22.992481,0.0 120.205354,22.992358,0.0 120.205517,22.992093,0.0 120.20596,22.99135,0.0 120.206137,22.991074,0.0 120.206229,22.990933,0.0 120.206685,22.99024,0.0 120.207013,22.989808,0.0 120.207339,22.989381,0.0 120.207639,22.98904,0.0 120.208071,22.989324,0.0</coordinates></LinearRing></outerBoundaryIs></Polygon><styleUrl>#spolygon-map</styleUrl></Placemark><Placemark><Polygon><outerBoundaryIs><LinearRing><coordinates>120.20013,22.985969,0.0 120.200175,22.987004,0.0 120.200233,22.988337,0.0 120.200268,22.988752,0.0 120.200304,22.989237,0.0 120.200337,22.989975,0.0 120.199276,22.990197,0.0 120.198991,22.990245,0.0 120.198602,22.990311,0.0 120.198162,22.990381,0.0 120.197789,22.990567,0.0 120.197672,22.99023,0.0 120.19758,22.989869,0.0 120.197549,22.989735,0.0 120.197533,22.989662,0.0 120.197519,22.989545,0.0 120.197485,22.989257,0.0 120.197485,22.989204,0.0 120.197492,22.989024,0.0 120.197527,22.987471,0.0 120.197527,22.987143,0.0 120.197557,22.985156,0.0 120.198029,22.98515,0.0 120.198907,22.985138,0.0 120.200113,22.985121,0.0 120.20013,22.985969,0.0</coordinates></LinearRing></outerBoundaryIs></Polygon><styleUrl>#spolygon-map</styleUrl></Placemark><Placemark><Polygon><outerBoundaryIs><LinearRing><coordinates>120.200121,22.981488,0.0 120.200068,22.982665,0.0 120.200079,22.98391,0.0 120.200113,22.985121,0.0 120.198907,22.985138,0.0 120.198029,22.98515,0.0 120.197557,22.985156,0.0 120.197573,22.984591,0.0 120.197592,22.983909,0.0 120.197592,22.982696,0.0 120.19761,22.982281,0.0 120.197624,22.981962,0.0 120.197642,22.981517,0.0 120.198291,22.981499,0.0 120.199294,22.981472,0.0 120.199485,22.981466,0.0 120.200073,22.981447,0.0 120.200121,22.981488,0.0</coordinates></LinearRing></outerBoundaryIs></Polygon><styleUrl>#spolygon-map</styleUrl></Placemark><Placemark><Polygon><outerBoundaryIs><LinearRing><coordinates>120.21113,22.997381,0.0 120.209554,22.997623,0.0 120.208647,22.997775,0.0 120.207593,22.997987,0.0 120.206987,22.998094,0.0 120.2067,22.99815,0.0 120.205843,22.99831,0.0 120.205452,22.998378,0.0 120.204968,22.998483,0.0 120.20422,22.998725,0.0 120.20345,22.998974,0.0 120.202849,22.999168,0.0 120.202566,22.998494,0.0 120.202344,22.997967,0.0 120.202007,22.997056,0.0 120.202953,22.99672,0.0 120.203476,22.99653,0.0 120.204055,22.996322,0.0 120.205261,22.995891,0.0 120.205612,22.995749,0.0 120.20635,22.995495,0.0 120.208472,22.994799,0.0 120.209633,22.995578,0.0 120.210884,22.99636,0.0 120.211651,22.996809,0.0 120.211999,22.997017,0.0 120.212237,22.997448,0.0 120.212273,22.997634,0.0 120.211762,22.99771,0.0 120.211345,22.997617,0.0 120.211184,22.997373,0.0 120.21113,22.997381,0.0</coordinates></LinearRing></outerBoundaryIs></Polygon><styleUrl>#spolygon-map</styleUrl></Placemark><Placemark><Polygon><outerBoundaryIs><LinearRing><coordinates>120.207635,22.985032,0.0 120.205824,22.98566,0.0 120.204777,22.985845,0.0 120.204215,22.985907,0.0 120.204167,22.985545,0.0 120.204124,22.98522,0.0 120.20407,22.984799,0.0 120.203993,22.984015,0.0 120.203907,22.983286,0.0 120.203801,22.982303,0.0 120.203772,22.982072,0.0 120.203681,22.9814,0.0 120.203682,22.981375,0.0 120.205161,22.981378,0.0 120.205482,22.98151,0.0 120.205488,22.982622,0.0 120.205897,22.982616,0.0 120.20711,22.982598,0.0 120.207635,22.985032,0.0</coordinates></LinearRing></outerBoundaryIs></Polygon><styleUrl>#spolygon-map</styleUrl></Placemark><Placemark><MultiGeometry><Polygon><outerBoundaryIs><LinearRing><coordinates>120.20673,22.981995,0.0 120.206771,22.982054,0.0 120.205897,22.982616,0.0 120.205832,22.98225,0.0 120.205856,22.982031,0.0 120.20596,22.982011,0.0 120.206691,22.981986,0.0 120.20673,22.981995,0.0</coordinates></LinearRing></outerBoundaryIs></Polygon><Polygon><outerBoundaryIs><LinearRing><coordinates>120.211183,22.984818,0.0 120.210652,22.985449,0.0 120.209309,22.986962,0.0 120.209164,22.987136,0.0 120.208474,22.98799,0.0 120.20824,22.98828,0.0 120.207675,22.988992,0.0 120.207577,22.989041,0.0 120.205882,22.989074,0.0 120.205403,22.989083,0.0 120.204594,22.989094,0.0 120.20454,22.988594,0.0 120.204466,22.987905,0.0 120.204367,22.987193,0.0 120.204337,22.986913,0.0 120.204303,22.986628,0.0 120.20422,22.985944,0.0 120.205018,22.985803,0.0 120.207691,22.985341,0.0 120.207196,22.982597,0.0 120.208371,22.982571,0.0 120.208525,22.982972,0.0 120.208689,22.983693,0.0 120.209349,22.983497,0.0 120.209399,22.983634,0.0 120.209572,22.983818,0.0 120.20979,22.983995,0.0 120.210006,22.984026,0.0 120.210134,22.984055,0.0 120.210305,22.984295,0.0 120.210526,22.984466,0.0 120.210968,22.984637,0.0 120.211099,22.984676,0.0 120.21118,22.984694,0.0 120.211183,22.984818,0.0</coordinates></LinearRing></outerBoundaryIs></Polygon></MultiGeometry><styleUrl>#spolygon-map</styleUrl></Placemark><Placemark><Polygon><outerBoundaryIs><LinearRing><coordinates>120.200516,22.991002,0.0 120.200566,22.991285,0.0 120.200714,22.991834,0.0 120.20074,22.991929,0.0 120.200806,22.992186,0.0 120.200828,22.992335,0.0 120.199438,22.992654,0.0 120.198619,22.992814,0.0 120.198442,22.992323,0.0 120.198168,22.991578,0.0 120.198026,22.99122,0.0 120.19797,22.991061,0.0 120.197789,22.990567,0.0 120.198162,22.990381,0.0 120.198602,22.990311,0.0 120.198991,22.990245,0.0 120.199276,22.990197,0.0 120.200516,22.991002,0.0</coordinates></LinearRing></outerBoundaryIs></Polygon><styleUrl>#spolygon-map</styleUrl></Placemark><Placemark><Polygon><outerBoundaryIs><LinearRing><coordinates>120.211167,22.9842,0.0 120.21118,22.984694,0.0 120.211099,22.984676,0.0 120.210968,22.984637,0.0 120.210526,22.984466,0.0 120.210305,22.984295,0.0 120.210134,22.984055,0.0 120.210006,22.984026,0.0 120.20979,22.983995,0.0 120.209572,22.983818,0.0 120.209399,22.983634,0.0 120.209349,22.983497,0.0 120.208689,22.983693,0.0 120.208525,22.982972,0.0 120.208371,22.982571,0.0 120.207196,22.982597,0.0 120.20696,22.982601,0.0 120.206747,22.982027,0.0 120.206691,22.981986,0.0 120.20596,22.982011,0.0 120.205856,22.982031,0.0 120.205832,22.98225,0.0 120.205488,22.982622,0.0 120.205482,22.98151,0.0 120.205484,22.981377,0.0 120.207101,22.981342,0.0 120.207893,22.981332,0.0 120.20829,22.98132,0.0 120.208956,22.981304,0.0 120.209583,22.981289,0.0 120.210279,22.981276,0.0 120.210442,22.981265,0.0 120.21132,22.981258,0.0 120.21199,22.981166,0.0 120.212111,22.98116,0.0 120.211845,22.981699,0.0 120.211599,22.982199,0.0 120.211426,22.98255,0.0 120.211174,22.983104,0.0 120.211123,22.9833,0.0 120.211136,22.983534,0.0 120.211161,22.983983,0.0 120.211167,22.9842,0.0</coordinates></LinearRing></outerBoundaryIs></Polygon><styleUrl>#spolygon-map</styleUrl></Placemark><Placemark><Polygon><outerBoundaryIs><LinearRing><coordinates>120.203455,22.986727,0.0 120.203218,22.98685,0.0 120.202932,22.987004,0.0 120.202185,22.98628,0.0 120.201799,22.986322,0.0 120.201779,22.985614,0.0 120.201773,22.985316,0.0 120.201769,22.985075,0.0 120.201711,22.982732,0.0 120.201748,22.982615,0.0 120.201717,22.981428,0.0 120.202359,22.981413,0.0 120.203256,22.981384,0.0 120.203681,22.9814,0.0 120.203772,22.982072,0.0 120.203801,22.982303,0.0 120.203907,22.983286,0.0 120.203993,22.984015,0.0 120.20407,22.984799,0.0 120.204124,22.98522,0.0 120.204167,22.985545,0.0 120.204215,22.985907,0.0 120.204261,22.986285,0.0 120.204328,22.986832,0.0 120.204341,22.986946,0.0 120.203561,22.986719,0.0 120.203455,22.986727,0.0</coordinates></LinearRing></outerBoundaryIs></Polygon><styleUrl>#spolygon-map</styleUrl></Placemark><Placemark><Polygon><outerBoundaryIs><LinearRing><coordinates>120.211221,22.985194,0.0 120.211262,22.985597,0.0 120.211338,22.986479,0.0 120.211383,22.987353,0.0 120.21139,22.987812,0.0 120.211394,22.988144,0.0 120.211399,22.988476,0.0 120.211463,22.988956,0.0 120.210855,22.988964,0.0 120.21041,22.988969,0.0 120.210074,22.988973,0.0 120.209365,22.988984,0.0 120.208792,22.988995,0.0 120.208113,22.989022,0.0 120.207639,22.98904,0.0 120.2079,22.9887,0.0 120.208454,22.988015,0.0 120.208756,22.987642,0.0 120.209215,22.987076,0.0 120.209921,22.986253,0.0 120.210947,22.985139,0.0 120.211221,22.985194,0.0</coordinates></LinearRing></outerBoundaryIs></Polygon><styleUrl>#spolygon-map</styleUrl></Placemark><Placemark><Polygon><outerBoundaryIs><LinearRing><coordinates>120.204367,22.987193,0.0 120.204466,22.987905,0.0 120.20454,22.988594,0.0 120.204594,22.989094,0.0 120.202239,22.989604,0.0 120.201277,22.989806,0.0 120.200342,22.990001,0.0 120.200337,22.989975,0.0 120.200304,22.989237,0.0 120.200268,22.988752,0.0 120.200233,22.988337,0.0 120.200175,22.987004,0.0 120.20013,22.985969,0.0 120.200091,22.98436,0.0 120.200072,22.983161,0.0 120.200079,22.982407,0.0 120.200121,22.981446,0.0 120.200916,22.98144,0.0 120.201717,22.981428,0.0 120.201748,22.982615,0.0 120.201711,22.982732,0.0 120.201769,22.985075,0.0 120.201773,22.985316,0.0 120.201779,22.985614,0.0 120.201799,22.986322,0.0 120.202185,22.98628,0.0 120.202932,22.987004,0.0 120.203218,22.98685,0.0 120.203455,22.986727,0.0 120.203711,22.986739,0.0 120.204367,22.987193,0.0</coordinates></LinearRing></outerBoundaryIs></Polygon><styleUrl>#spolygon-map</styleUrl></Placemark><Placemark><Polygon><outerBoundaryIs><LinearRing><coordinates>120.200989,22.992935,0.0 120.201019,22.993056,0.0 120.201494,22.994667,0.0 120.201737,22.995412,0.0 120.201366,22.995561,0.0 120.199605,22.99619,0.0 120.199558,22.996081,0.0 120.199458,22.995653,0.0 120.199188,22.99452,0.0 120.198953,22.993836,0.0 120.198766,22.993265,0.0 120.199414,22.99266,0.0 120.200316,22.992453,0.0 120.200842,22.992332,0.0 120.200989,22.992935,0.0</coordinates></LinearRing></outerBoundaryIs></Polygon><styleUrl>#spolygon-map</styleUrl></Placemark><Placemark><Polygon><outerBoundaryIs><LinearRing><coordinates>120.211731,22.99279,0.0 120.211624,22.992798,0.0 120.210664,22.992884,0.0 120.209783,22.992982,0.0 120.208757,22.99316,0.0 120.208256,22.993267,0.0 120.208198,22.993279,0.0 120.206916,22.993553,0.0 120.206679,22.993626,0.0 120.205796,22.99307,0.0 120.205052,22.992618,0.0 120.205496,22.992478,0.0 120.206653,22.992298,0.0 120.207645,22.992155,0.0 120.208225,22.992066,0.0 120.209169,22.991926,0.0 120.209362,22.991897,0.0 120.209613,22.991856,0.0 120.210226,22.991764,0.0 120.210528,22.991724,0.0 120.211552,22.991575,0.0 120.211731,22.99279,0.0</coordinates></LinearRing></outerBoundaryIs></Polygon><styleUrl>#spolygon-map</styleUrl></Placemark><Placemark><Polygon><outerBoundaryIs><LinearRing><coordinates>120.20254,22.990894,0.0 120.202907,22.992787,0.0 120.203016,22.993369,0.0 120.203492,22.994878,0.0 120.203714,22.995448,0.0 120.203959,22.996076,0.0 120.204055,22.996322,0.0 120.203476,22.99653,0.0 120.202953,22.99672,0.0 120.202425,22.996877,0.0 120.202158,22.996184,0.0 120.201945,22.995968,0.0 120.201876,22.995785,0.0 120.201737,22.995412,0.0 120.201494,22.994667,0.0 120.201019,22.993056,0.0 120.200989,22.992935,0.0 120.200806,22.992186,0.0 120.20074,22.991929,0.0 120.200714,22.991834,0.0 120.200566,22.991285,0.0 120.200516,22.991002,0.0 120.200342,22.990001,0.0 120.201277,22.989806,0.0 120.202239,22.989604,0.0 120.20254,22.990894,0.0</coordinates></LinearRing></outerBoundaryIs></Polygon><styleUrl>#spolygon-map</styleUrl></Placemark><Placemark><Polygon><outerBoundaryIs><LinearRing><coordinates>120.207346,22.989373,0.0 120.207197,22.989566,0.0 120.206973,22.989861,0.0 120.206553,22.99044,0.0 120.206228,22.990936,0.0 120.206123,22.991095,0.0 120.205559,22.992026,0.0 120.205388,22.992304,0.0 120.205052,22.992618,0.0 120.204268,22.992991,0.0 120.204126,22.993072,0.0 120.203046,22.993361,0.0 120.20294,22.992964,0.0 120.202752,22.99195,0.0 120.202239,22.989604,0.0 120.204594,22.989094,0.0 120.205403,22.989083,0.0 120.205882,22.989074,0.0 120.207577,22.989041,0.0 120.207346,22.989373,0.0</coordinates></LinearRing></outerBoundaryIs></Polygon><styleUrl>#spolygon-map</styleUrl></Placemark><Placemark><Polygon><outerBoundaryIs><LinearRing><coordinates>120.201876,22.995785,0.0 120.201945,22.995968,0.0 120.202158,22.996184,0.0 120.202425,22.996877,0.0 120.202007,22.997056,0.0 120.202344,22.997967,0.0 120.202566,22.998494,0.0 120.202849,22.999168,0.0 120.201261,22.999706,0.0 120.201189,22.999591,0.0 120.200926,22.999164,0.0 120.200368,22.998214,0.0 120.200249,22.998019,0.0 120.200124,22.997704,0.0 120.200069,22.997564,0.0 120.19994,22.997218,0.0 120.199834,22.996901,0.0 120.199677,22.996436,0.0 120.199605,22.99619,0.0 120.201366,22.995561,0.0 120.201876,22.995785,0.0</coordinates></LinearRing></outerBoundaryIs></Polygon><styleUrl>#spolygon-map</styleUrl></Placemark><Placemark><Polygon><outerBoundaryIs><LinearRing><coordinates>120.205437,22.992855,0.0 120.20582,22.993084,0.0 120.207268,22.994004,0.0 120.20752,22.994166,0.0 120.208457,22.994788,0.0 120.206794,22.995352,0.0 120.205715,22.995707,0.0 120.205392,22.995838,0.0 120.204889,22.996005,0.0 120.204045,22.996297,0.0 120.203926,22.995991,0.0 120.203645,22.995271,0.0 120.203266,22.994156,0.0 120.203046,22.993361,0.0 120.204126,22.993072,0.0 120.204268,22.992991,0.0 120.205052,22.992618,0.0 120.205437,22.992855,0.0</coordinates></LinearRing></outerBoundaryIs></Polygon><styleUrl>#spolygon-map</styleUrl></Placemark><Placemark><Polygon><outerBoundaryIs><LinearRing><coordinates>120.211479,22.989478,0.0 120.211627,22.991525,0.0 120.211552,22.991575,0.0 120.210528,22.991724,0.0 120.210226,22.991764,0.0 120.209613,22.991856,0.0 120.209362,22.991897,0.0 120.209169,22.991926,0.0 120.208225,22.992066,0.0 120.207645,22.992155,0.0 120.207684,22.992101,0.0 120.207806,22.991934,0.0 120.207433,22.99174,0.0 120.207429,22.991695,0.0 120.207499,22.991514,0.0 120.207554,22.991402,0.0 120.207711,22.991316,0.0 120.2078,22.991215,0.0 120.207906,22.991008,0.0 120.208,22.990801,0.0 120.207954,22.990391,0.0 120.207983,22.990213,0.0 120.208042,22.990104,0.0 120.20809,22.989851,0.0 120.208096,22.989733,0.0 120.208071,22.989337,0.0 120.208048,22.989024,0.0 120.208735,22.988997,0.0 120.209326,22.988985,0.0 120.209677,22.988978,0.0 120.210309,22.988971,0.0 120.210448,22.988969,0.0 120.21097,22.988962,0.0 120.211479,22.989478,0.0</coordinates></LinearRing></outerBoundaryIs></Polygon><styleUrl>#spolygon-map</styleUrl></Placemark><Placemark><Polygon><outerBoundaryIs><LinearRing><coordinates>120.200116,22.997684,0.0 120.200235,22.997986,0.0 120.200298,22.998098,0.0 120.200583,22.998567,0.0 120.200978,22.999254,0.0 120.201236,22.999666,0.0 120.20124,22.999714,0.0 120.200573,22.99994,0.0 120.200014,23.00013,0.0 120.199046,23.000466,0.0 120.19873,23.000554,0.0 120.198624,23.00031,0.0 120.198284,22.999525,0.0 120.198184,22.999291,0.0 120.197925,22.998655,0.0 120.197834,22.998411,0.0 120.198131,22.998099,0.0 120.198753,22.997897,0.0 120.199041,22.997804,0.0 120.19956,22.997673,0.0 120.200069,22.997564,0.0 120.200116,22.997684,0.0</coordinates></LinearRing></outerBoundaryIs></Polygon><styleUrl>#spolygon-map</styleUrl></Placemark><Placemark><Polygon><outerBoundaryIs><LinearRing><coordinates>120.19925,22.994783,0.0 120.199554,22.996064,0.0 120.199559,22.996086,0.0 120.199643,22.996337,0.0 120.19982,22.996861,0.0 120.19993,22.997188,0.0 120.200021,22.997435,0.0 120.200063,22.997565,0.0 120.19943,22.997682,0.0 120.198771,22.997891,0.0 120.198275,22.998052,0.0 120.197762,22.998218,0.0 120.197705,22.998093,0.0 120.197537,22.997719,0.0 120.197191,22.996897,0.0 120.196935,22.996279,0.0 120.196585,22.995361,0.0 120.197854,22.994959,0.0 120.199188,22.99452,0.0 120.19925,22.994783,0.0</coordinates></LinearRing></outerBoundaryIs></Polygon><styleUrl>#spolygon-map</styleUrl></Placemark><Placemark><Polygon><outerBoundaryIs><LinearRing><coordinates>120.191831,23.000137,0.0 120.191223,23.000777,0.0 120.190881,23.00113,0.0 120.190459,23.001564,0.0 120.189946,23.001247,0.0 120.189245,23.000788,0.0 120.188844,23.000501,0.0 120.188475,23.000173,0.0 120.188186,22.999908,0.0 120.188078,22.999763,0.0 120.187569,22.999084,0.0 120.187866,22.999031,0.0 120.188448,22.999019,0.0 120.188553,22.999006,0.0 120.188897,22.998909,0.0 120.189809,22.998473,0.0 120.190149,22.99836,0.0 120.190498,22.99828,0.0 120.191513,22.998047,0.0 120.191856,22.997962,0.0 120.192434,22.998298,0.0 120.192642,22.998345,0.0 120.192706,22.998346,0.0 120.193008,22.998315,0.0 120.194545,22.9978,0.0 120.194677,22.998106,0.0 120.194883,22.99861,0.0 120.195092,22.999123,0.0 120.195019,22.999196,0.0 120.193172,22.999856,0.0 120.192396,23.000133,0.0 120.191889,23.000185,0.0 120.191831,23.000137,0.0</coordinates></LinearRing></outerBoundaryIs></Polygon><styleUrl>#spolygon-map</styleUrl></Placemark><Placemark><Polygon><outerBoundaryIs><LinearRing><coordinates>120.194221,23.00029,0.0 120.194262,23.000526,0.0 120.194345,23.000821,0.0 120.194423,23.001136,0.0 120.194558,23.001574,0.0 120.19466,23.001975,0.0 120.194675,23.002003,0.0 120.195129,23.002162,0.0 120.194423,23.002899,0.0 120.193831,23.003471,0.0 120.193733,23.003472,0.0 120.193335,23.003358,0.0 120.193009,23.00323,0.0 120.192623,23.003005,0.0 120.192257,23.002742,0.0 120.19192,23.002469,0.0 120.191708,23.002321,0.0 120.190604,23.001653,0.0 120.190678,23.001339,0.0 120.191174,23.000828,0.0 120.191461,23.000533,0.0 120.191832,23.000136,0.0 120.191995,23.000273,0.0 120.192984,22.999922,0.0 120.193866,22.999613,0.0 120.195109,22.999164,0.0 120.194819,22.999534,0.0 120.194355,23.000061,0.0 120.194229,23.000227,0.0 120.194221,23.00029,0.0</coordinates></LinearRing></outerBoundaryIs></Polygon><styleUrl>#spolygon-map</styleUrl></Placemark><Placemark><Polygon><outerBoundaryIs><LinearRing><coordinates>120.192257,23.002742,0.0 120.192623,23.003005,0.0 120.193009,23.00323,0.0 120.193335,23.003358,0.0 120.193733,23.003472,0.0 120.193744,23.003779,0.0 120.193707,23.004334,0.0 120.193629,23.005411,0.0 120.193484,23.005208,0.0 120.193098,23.004752,0.0 120.192795,23.004442,0.0 120.192489,23.004141,0.0 120.192158,23.003812,0.0 120.1917,23.003384,0.0 120.191423,23.003175,0.0 120.19116,23.002949,0.0 120.190917,23.002824,0.0 120.190651,23.002693,0.0 120.190538,23.002673,0.0 120.190373,23.00265,0.0 120.189881,23.002367,0.0 120.189457,23.002119,0.0 120.188775,23.001733,0.0 120.188655,23.001658,0.0 120.188581,23.001575,0.0 120.188305,23.00123,0.0 120.188112,23.000973,0.0 120.187971,23.000765,0.0 120.187922,23.000621,0.0 120.187917,23.000545,0.0 120.187928,23.000426,0.0 120.188085,22.999773,0.0 120.188385,23.000089,0.0 120.188708,23.000394,0.0 120.189127,23.00071,0.0 120.189762,23.001133,0.0 120.190406,23.001531,0.0 120.190604,23.001653,0.0 120.191708,23.002321,0.0 120.19192,23.002469,0.0 120.192257,23.002742,0.0</coordinates></LinearRing></outerBoundaryIs></Polygon><styleUrl>#spolygon-map</styleUrl></Placemark><Placemark><Polygon><outerBoundaryIs><LinearRing><coordinates>120.192808,23.005356,0.0 120.191886,23.005694,0.0 120.190799,23.006227,0.0 120.188754,23.007218,0.0 120.187832,23.007561,0.0 120.186325,23.006895,0.0 120.186402,23.006183,0.0 120.186505,23.005668,0.0 120.18663,23.005084,0.0 120.186814,23.004247,0.0 120.186924,23.003426,0.0 120.186976,23.002749,0.0 120.187003,23.002168,0.0 120.187013,23.001635,0.0 120.186985,23.001043,0.0 120.186937,23.000462,0.0 120.18686,22.999885,0.0 120.186732,22.998936,0.0 120.186958,22.998932,0.0 120.188078,22.999763,0.0 120.187985,23.000218,0.0 120.187919,23.00046,0.0 120.187921,23.000608,0.0 120.187937,23.000684,0.0 120.188019,23.000851,0.0 120.1882,23.00109,0.0 120.188474,23.001455,0.0 120.188616,23.001615,0.0 120.188673,23.001677,0.0 120.189043,23.001879,0.0 120.189592,23.002198,0.0 120.190305,23.002614,0.0 120.190439,23.002674,0.0 120.190595,23.002683,0.0 120.190674,23.002704,0.0 120.191097,23.002917,0.0 120.191357,23.003125,0.0 120.19146,23.003203,0.0 120.191983,23.003637,0.0 120.192269,23.003923,0.0 120.19252,23.004171,0.0 120.192943,23.004583,0.0 120.193375,23.005055,0.0 120.193599,23.005369,0.0 120.193599,23.005402,0.0 120.1932,23.005335,0.0 120.193012,23.005334,0.0 120.192808,23.005356,0.0</coordinates></LinearRing></outerBoundaryIs></Polygon><styleUrl>#spolygon-map</styleUrl></Placemark><Placemark><Polygon><outerBoundaryIs><LinearRing><coordinates>120.197527,22.987471,0.0 120.197492,22.989024,0.0 120.197485,22.989204,0.0 120.197485,22.989257,0.0 120.197519,22.989545,0.0 120.197533,22.989662,0.0 120.197549,22.989735,0.0 120.196648,22.989931,0.0 120.196503,22.989994,0.0 120.196144,22.990124,0.0 120.195869,22.990247,0.0 120.195287,22.990331,0.0 120.195256,22.990182,0.0 120.195024,22.989161,0.0 120.1949,22.988589,0.0 120.194832,22.987639,0.0 120.195085,22.987518,0.0 120.195441,22.987504,0.0 120.195763,22.987491,0.0 120.196347,22.987487,0.0 120.196725,22.987479,0.0 120.19743,22.98745,0.0 120.197527,22.987449,0.0 120.197527,22.987471,0.0</coordinates></LinearRing></outerBoundaryIs></Polygon><styleUrl>#spolygon-map</styleUrl></Placemark><Placemark><Polygon><outerBoundaryIs><LinearRing><coordinates>120.188667,22.998992,0.0 120.188479,22.999015,0.0 120.18835,22.999021,0.0 120.187775,22.999047,0.0 120.187568,22.999084,0.0 120.186738,22.998936,0.0 120.18673,22.998925,0.0 120.186623,22.997901,0.0 120.187308,22.997815,0.0 120.188212,22.997666,0.0 120.188545,22.99761,0.0 120.190106,22.997349,0.0 120.190913,22.9971,0.0 120.192856,22.996495,0.0 120.193924,22.996227,0.0 120.194329,22.997283,0.0 120.194551,22.997798,0.0 120.193263,22.998229,0.0 120.192877,22.998329,0.0 120.192666,22.998351,0.0 120.192539,22.998322,0.0 120.192189,22.998169,0.0 120.191775,22.99796,0.0 120.191171,22.998125,0.0 120.190332,22.998318,0.0 120.190038,22.998397,0.0 120.189189,22.998771,0.0 120.188667,22.998992,0.0</coordinates></LinearRing></outerBoundaryIs></Polygon><styleUrl>#spolygon-map</styleUrl></Placemark><Placemark><Polygon><outerBoundaryIs><LinearRing><coordinates>120.194737,22.993948,0.0 120.194838,22.994354,0.0 120.195292,22.995732,0.0 120.194901,22.995888,0.0 120.194169,22.996144,0.0 120.193924,22.996227,0.0 120.192856,22.996495,0.0 120.190913,22.9971,0.0 120.190106,22.997349,0.0 120.188545,22.99761,0.0 120.188212,22.997666,0.0 120.187308,22.997815,0.0 120.186623,22.997901,0.0 120.186524,22.997362,0.0 120.188303,22.996808,0.0 120.191727,22.994756,0.0 120.191748,22.994501,0.0 120.192126,22.99438,0.0 120.192923,22.994209,0.0 120.194246,22.993929,0.0 120.194651,22.993579,0.0 120.194737,22.993948,0.0</coordinates></LinearRing></outerBoundaryIs></Polygon><styleUrl>#spolygon-map</styleUrl></Placemark><Placemark><Polygon><outerBoundaryIs><LinearRing><coordinates>120.192676,22.988145,0.0 120.192911,22.989083,0.0 120.192992,22.98947,0.0 120.193095,22.989961,0.0 120.193241,22.990546,0.0 120.193327,22.990992,0.0 120.192174,22.991213,0.0 120.191189,22.991395,0.0 120.190993,22.991395,0.0 120.190699,22.990493,0.0 120.190476,22.990002,0.0 120.19006,22.989444,0.0 120.189491,22.988933,0.0 120.189437,22.988661,0.0 120.190042,22.988566,0.0 120.190405,22.98851,0.0 120.191019,22.988391,0.0 120.191594,22.98829,0.0 120.192662,22.988087,0.0 120.192676,22.988145,0.0</coordinates></LinearRing></outerBoundaryIs></Polygon><styleUrl>#spolygon-map</styleUrl></Placemark><Placemark><Polygon><outerBoundaryIs><LinearRing><coordinates>120.198766,22.993265,0.0 120.198953,22.993836,0.0 120.199188,22.99452,0.0 120.197854,22.994959,0.0 120.196585,22.995361,0.0 120.195299,22.995749,0.0 120.194974,22.994901,0.0 120.194754,22.994015,0.0 120.194651,22.993579,0.0 120.195301,22.993458,0.0 120.196016,22.993314,0.0 120.198569,22.992823,0.0 120.198619,22.992814,0.0 120.198766,22.993265,0.0</coordinates></LinearRing></outerBoundaryIs></Polygon><styleUrl>#spolygon-map</styleUrl></Placemark><Placemark><Polygon><outerBoundaryIs><LinearRing><coordinates>120.192959,22.992276,0.0 120.19321,22.993293,0.0 120.193283,22.99362,0.0 120.193403,22.994127,0.0 120.192336,22.99433,0.0 120.191843,22.994447,0.0 120.191702,22.994616,0.0 120.19196,22.995897,0.0 120.186535,22.997359,0.0 120.186472,22.996953,0.0 120.186426,22.996527,0.0 120.186359,22.994755,0.0 120.186362,22.994606,0.0 120.186766,22.99359,0.0 120.186789,22.993287,0.0 120.186881,22.992187,0.0 120.186993,22.991007,0.0 120.187021,22.989764,0.0 120.186897,22.988787,0.0 120.186728,22.987534,0.0 120.186622,22.986703,0.0 120.186597,22.98655,0.0 120.187267,22.986896,0.0 120.188031,22.987496,0.0 120.189246,22.988697,0.0 120.190044,22.98943,0.0 120.190311,22.989737,0.0 120.190602,22.990239,0.0 120.190805,22.990766,0.0 120.191002,22.991433,0.0 120.191114,22.99191,0.0 120.191744,22.991763,0.0 120.192777,22.991556,0.0 120.192959,22.992276,0.0</coordinates></LinearRing></outerBoundaryIs></Polygon><styleUrl>#spolygon-map</styleUrl></Placemark><Placemark><Polygon><outerBoundaryIs><LinearRing><coordinates>120.195612,22.991752,0.0 120.195739,22.992246,0.0 120.194443,22.992571,0.0 120.194647,22.993562,0.0 120.194218,22.993701,0.0 120.193403,22.994127,0.0 120.193283,22.99362,0.0 120.19321,22.993293,0.0 120.192959,22.992276,0.0 120.192416,22.991628,0.0 120.191309,22.991874,0.0 120.191075,22.991743,0.0 120.191189,22.991395,0.0 120.192174,22.991213,0.0 120.193327,22.990992,0.0 120.194637,22.990729,0.0 120.195453,22.991027,0.0 120.195612,22.991752,0.0</coordinates></LinearRing></outerBoundaryIs></Polygon><styleUrl>#spolygon-map</styleUrl></Placemark><Placemark><Polygon><outerBoundaryIs><LinearRing><coordinates>120.18663,23.005084,0.0 120.186505,23.005668,0.0 120.186402,23.006183,0.0 120.186227,23.006852,0.0 120.185062,23.006352,0.0 120.184177,23.005963,0.0 120.182999,23.005462,0.0 120.182012,23.005014,0.0 120.181207,23.005055,0.0 120.180012,23.005095,0.0 120.179996,23.004978,0.0 120.179952,23.004548,0.0 120.179921,23.00394,0.0 120.17993,23.003391,0.0 120.179948,23.002968,0.0 120.179974,23.002142,0.0 120.180007,23.001485,0.0 120.180039,23.001206,0.0 120.180065,23.000459,0.0 120.180088,22.999566,0.0 120.180091,22.999503,0.0 120.180107,22.999132,0.0 120.180258,22.999128,0.0 120.181697,22.999153,0.0 120.182828,22.999179,0.0 120.183597,22.999176,0.0 120.185051,22.999135,0.0 120.186169,22.99899,0.0 120.186753,22.99909,0.0 120.186904,23.000078,0.0 120.18695,23.000625,0.0 120.186998,23.001191,0.0 120.187009,23.00183,0.0 120.186999,23.00243,0.0 120.186978,23.002982,0.0 120.186898,23.003641,0.0 120.186697,23.004781,0.0 120.18663,23.005084,0.0</coordinates></LinearRing></outerBoundaryIs></Polygon><styleUrl>#spolygon-map</styleUrl></Placemark><Placemark><Polygon><outerBoundaryIs><LinearRing><coordinates>120.174748,23.005949,0.0 120.174505,23.006017,0.0 120.174293,23.006048,0.0 120.174104,23.006058,0.0 120.174055,23.006081,0.0 120.173928,23.0062,0.0 120.173801,23.006332,0.0 120.173582,23.006652,0.0 120.173397,23.007007,0.0 120.173205,23.007368,0.0 120.173064,23.007502,0.0 120.172662,23.007304,0.0 120.172349,23.007167,0.0 120.172052,23.007019,0.0 120.171378,23.006701,0.0 120.170969,23.006534,0.0 120.170557,23.006379,0.0 120.169902,23.006127,0.0 120.169508,23.005971,0.0 120.169054,23.005784,0.0 120.168565,23.005564,0.0 120.168204,23.005418,0.0 120.167836,23.005247,0.0 120.167443,23.00508,0.0 120.167038,23.004918,0.0 120.166784,23.004848,0.0 120.166388,23.004776,0.0 120.166185,23.004739,0.0 120.165803,23.00473,0.0 120.165466,23.004735,0.0 120.165089,23.004733,0.0 120.164448,23.004723,0.0 120.164182,23.004731,0.0 120.163993,23.004737,0.0 120.163472,23.004736,0.0 120.163213,23.004742,0.0 120.16301,23.004813,0.0 120.162783,23.004967,0.0 120.162362,23.005277,0.0 120.162006,23.005548,0.0 120.161751,23.005678,0.0 120.161544,23.00571,0.0 120.161242,23.005704,0.0 120.160801,23.005697,0.0 120.160129,23.005669,0.0 120.159558,23.005657,0.0 120.159565,23.005553,0.0 120.160086,23.005168,0.0 120.160464,23.004923,0.0 120.160945,23.004639,0.0 120.161303,23.004422,0.0 120.161622,23.004252,0.0 120.161748,23.00419,0.0 120.162057,23.004015,0.0 120.162367,23.003827,0.0 120.162504,23.003769,0.0 120.162736,23.003622,0.0 120.162911,23.003512,0.0 120.163037,23.003458,0.0 120.163276,23.00336,0.0 120.163631,23.003328,0.0 120.163852,23.003296,0.0 120.164149,23.003245,0.0 120.164355,23.003176,0.0 120.164511,23.003103,0.0 120.164739,23.002975,0.0 120.164865,23.002926,0.0 120.165018,23.002839,0.0 120.165267,23.002627,0.0 120.166117,23.002285,0.0 120.167635,23.001843,0.0 120.167868,23.00177,0.0 120.168647,23.001483,0.0 120.169887,23.001046,0.0 120.171368,23.000544,0.0 120.173212,22.999895,0.0 120.174224,22.999549,0.0 120.174805,22.99935,0.0 120.175903,22.999281,0.0 120.17731,22.999229,0.0 120.178081,22.999186,0.0 120.180107,22.999132,0.0 120.180091,22.999503,0.0 120.180088,22.999566,0.0 120.180065,23.000459,0.0 120.180039,23.001206,0.0 120.180007,23.001485,0.0 120.179974,23.002142,0.0 120.179948,23.002968,0.0 120.17993,23.003391,0.0 120.179921,23.00394,0.0 120.179952,23.004548,0.0 120.179996,23.004978,0.0 120.179659,23.005094,0.0 120.178862,23.005537,0.0 120.178418,23.005575,0.0 120.177489,23.005655,0.0 120.176454,23.005742,0.0 120.175765,23.005796,0.0 120.175188,23.005965,0.0 120.17501,23.00593,0.0 120.174843,23.005922,0.0 120.174748,23.005949,0.0</coordinates></LinearRing></outerBoundaryIs></Polygon><styleUrl>#spolygon-map</styleUrl></Placemark><Placemark><Polygon><outerBoundaryIs><LinearRing><coordinates>120.197834,22.998411,0.0 120.197925,22.998655,0.0 120.198184,22.999291,0.0 120.198284,22.999525,0.0 120.198624,23.00031,0.0 120.19873,23.000554,0.0 120.1986,23.000619,0.0 120.197742,23.000906,0.0 120.197378,23.001035,0.0 120.196076,23.001498,0.0 120.195636,23.001651,0.0 120.195028,23.002127,0.0 120.194666,23.002,0.0 120.194621,23.001823,0.0 120.194544,23.001529,0.0 120.194347,23.000831,0.0 120.194328,23.000764,0.0 120.194226,23.000366,0.0 120.194229,23.000227,0.0 120.194355,23.000061,0.0 120.194819,22.999534,0.0 120.195109,22.999164,0.0 120.195742,22.998952,0.0 120.196482,22.998703,0.0 120.197762,22.998218,0.0 120.197834,22.998411,0.0</coordinates></LinearRing></outerBoundaryIs></Polygon><styleUrl>#spolygon-map</styleUrl></Placemark><Placemark><Polygon><outerBoundaryIs><LinearRing><coordinates>120.196884,22.99615,0.0 120.197042,22.996553,0.0 120.197321,22.99724,0.0 120.197632,22.997929,0.0 120.197757,22.998209,0.0 120.197748,22.998224,0.0 120.196386,22.998735,0.0 120.195298,22.999101,0.0 120.195092,22.999123,0.0 120.194883,22.99861,0.0 120.194677,22.998106,0.0 120.194473,22.997617,0.0 120.194253,22.997107,0.0 120.193929,22.996225,0.0 120.194413,22.996059,0.0 120.195299,22.995749,0.0 120.196585,22.995361,0.0 120.196884,22.99615,0.0</coordinates></LinearRing></outerBoundaryIs></Polygon><styleUrl>#spolygon-map</styleUrl></Placemark><Placemark><Polygon><outerBoundaryIs><LinearRing><coordinates>120.19758,22.989869,0.0 120.197672,22.99023,0.0 120.197789,22.990567,0.0 120.19797,22.991061,0.0 120.198026,22.99122,0.0 120.198168,22.991578,0.0 120.198442,22.992323,0.0 120.198619,22.992814,0.0 120.198569,22.992823,0.0 120.196016,22.993314,0.0 120.195301,22.993458,0.0 120.194651,22.993579,0.0 120.194428,22.992574,0.0 120.195756,22.992312,0.0 120.195617,22.991778,0.0 120.195453,22.991027,0.0 120.195329,22.990534,0.0 120.195593,22.990287,0.0 120.196051,22.990165,0.0 120.196302,22.990052,0.0 120.196604,22.989938,0.0 120.197557,22.989766,0.0 120.19758,22.989869,0.0</coordinates></LinearRing></outerBoundaryIs></Polygon><styleUrl>#spolygon-map</styleUrl></Placemark><Placemark><Polygon><outerBoundaryIs><LinearRing><coordinates>120.194832,22.987639,0.0 120.1949,22.988589,0.0 120.195024,22.989161,0.0 120.195256,22.990182,0.0 120.195287,22.990331,0.0 120.195341,22.990593,0.0 120.194041,22.990855,0.0 120.193315,22.990932,0.0 120.193229,22.990502,0.0 120.193009,22.989552,0.0 120.192943,22.989238,0.0 120.192775,22.98854,0.0 120.192662,22.988087,0.0 120.193072,22.988001,0.0 120.193856,22.987836,0.0 120.19464,22.987666,0.0 120.194832,22.987639,0.0</coordinates></LinearRing></outerBoundaryIs></Polygon><styleUrl>#spolygon-map</styleUrl></Placemark></Document>
</kml>
