<?xml version="1.0" encoding="UTF-8"?>
<kml xmlns="http://www.opengis.net/kml/2.2">
	<Document>
		<name>臺南市柳營區</name>
		<Style id="spolygon">
			<LabelStyle>
				<scale>0.0</scale>
			</LabelStyle>
			<LineStyle>
				<color>330030ff</color>
				<width>0</width>
			</LineStyle>
			<PolyStyle>
				<color>330030ff</color>
			</PolyStyle>
		</Style>
		<StyleMap id="spolygon-map">
			<Pair>
				<key>normal</key>
				<styleUrl>#spolygon</styleUrl>
			</Pair>
		</StyleMap>
	<Placemark><Polygon><outerBoundaryIs><LinearRing><coordinates>120.37127,23.269527,0.0 120.370682,23.269539,0.0 120.370605,23.269539,0.0 120.370113,23.269525,0.0 120.36994,23.269564,0.0 120.369719,23.269624,0.0 120.369438,23.269693,0.0 120.369304,23.26972,0.0 120.369052,23.269777,0.0 120.368947,23.269806,0.0 120.368888,23.269826,0.0 120.368845,23.269855,0.0 120.368768,23.26995,0.0 120.368653,23.27008,0.0 120.368491,23.27023,0.0 120.36839,23.270293,0.0 120.368266,23.270305,0.0 120.368144,23.270296,0.0 120.367687,23.270154,0.0 120.367532,23.270118,0.0 120.3674,23.270082,0.0 120.367282,23.270044,0.0 120.367181,23.270019,0.0 120.366793,23.269909,0.0 120.366729,23.269901,0.0 120.366647,23.269908,0.0 120.366458,23.269999,0.0 120.366204,23.270142,0.0 120.365989,23.27022,0.0 120.365845,23.27022,0.0 120.365698,23.270176,0.0 120.365496,23.270064,0.0 120.365133,23.269586,0.0 120.365004,23.269466,0.0 120.364436,23.269284,0.0 120.364074,23.269228,0.0 120.362903,23.268862,0.0 120.362719,23.268777,0.0 120.362477,23.268571,0.0 120.362381,23.268356,0.0 120.362187,23.267957,0.0 120.362102,23.267938,0.0 120.361773,23.267905,0.0 120.36114,23.267878,0.0 120.358568,23.267388,0.0 120.358105,23.267254,0.0 120.357845,23.266914,0.0 120.357374,23.266977,0.0 120.356619,23.267076,0.0 120.355975,23.267155,0.0 120.354989,23.267336,0.0 120.354524,23.267404,0.0 120.354319,23.267313,0.0 120.354139,23.267278,0.0 120.353939,23.267374,0.0 120.353467,23.2678,0.0 120.353128,23.268011,0.0 120.352538,23.268167,0.0 120.351649,23.268533,0.0 120.351338,23.268662,0.0 120.350677,23.268949,0.0 120.350132,23.268686,0.0 120.349911,23.268596,0.0 120.349675,23.268567,0.0 120.349216,23.268587,0.0 120.348436,23.268621,0.0 120.348272,23.268644,0.0 120.347724,23.269019,0.0 120.347431,23.268971,0.0 120.347065,23.269051,0.0 120.34674,23.269111,0.0 120.34652,23.269061,0.0 120.345844,23.268677,0.0 120.34546,23.2686,0.0 120.34515,23.268591,0.0 120.344356,23.268558,0.0 120.344109,23.268477,0.0 120.343455,23.268318,0.0 120.342725,23.26827,0.0 120.341955,23.268247,0.0 120.341273,23.268214,0.0 120.339702,23.267726,0.0 120.339129,23.267405,0.0 120.338654,23.266966,0.0 120.33826,23.266017,0.0 120.33765,23.265699,0.0 120.336143,23.264856,0.0 120.335649,23.264694,0.0 120.335046,23.263444,0.0 120.335115,23.263447,0.0 120.335344,23.263427,0.0 120.335501,23.263304,0.0 120.335635,23.263088,0.0 120.335789,23.262761,0.0 120.335921,23.262522,0.0 120.336065,23.262293,0.0 120.336263,23.261955,0.0 120.336529,23.26162,0.0 120.336636,23.261462,0.0 120.336826,23.261196,0.0 120.336972,23.26098,0.0 120.337119,23.260769,0.0 120.337286,23.26053,0.0 120.337452,23.260287,0.0 120.337624,23.259981,0.0 120.337918,23.259379,0.0 120.338037,23.259107,0.0 120.338154,23.258936,0.0 120.338263,23.258728,0.0 120.338394,23.258456,0.0 120.338439,23.258273,0.0 120.33843,23.258119,0.0 120.338405,23.257898,0.0 120.338432,23.257715,0.0 120.338522,23.257522,0.0 120.338747,23.257202,0.0 120.339,23.256957,0.0 120.339358,23.256674,0.0 120.339654,23.256495,0.0 120.34006,23.256309,0.0 120.340323,23.256175,0.0 120.340562,23.256058,0.0 120.340717,23.255878,0.0 120.340924,23.25557,0.0 120.341091,23.25537,0.0 120.341437,23.255182,0.0 120.341683,23.255074,0.0 120.341924,23.255019,0.0 120.342264,23.254932,0.0 120.342531,23.254933,0.0 120.342644,23.255024,0.0 120.342722,23.25516,0.0 120.342846,23.255248,0.0 120.342979,23.255281,0.0 120.343204,23.2553,0.0 120.343341,23.255332,0.0 120.343449,23.255391,0.0 120.343521,23.255509,0.0 120.343599,23.255685,0.0 120.343701,23.255749,0.0 120.343961,23.255829,0.0 120.344141,23.255897,0.0 120.34442,23.255968,0.0 120.344514,23.256041,0.0 120.344523,23.256197,0.0 120.344564,23.256366,0.0 120.344651,23.256461,0.0 120.344848,23.256521,0.0 120.345073,23.256517,0.0 120.345304,23.256514,0.0 120.345546,23.25649,0.0 120.345799,23.256487,0.0 120.345925,23.256541,0.0 120.346232,23.256637,0.0 120.346474,23.256652,0.0 120.346626,23.256598,0.0 120.34684,23.25648,0.0 120.347123,23.256257,0.0 120.347246,23.256165,0.0 120.347517,23.255963,0.0 120.347871,23.255719,0.0 120.348104,23.255532,0.0 120.348405,23.255281,0.0 120.348714,23.25504,0.0 120.348931,23.25487,0.0 120.349096,23.254721,0.0 120.349293,23.254533,0.0 120.349471,23.254332,0.0 120.349622,23.25408,0.0 120.349707,23.253889,0.0 120.349741,23.253756,0.0 120.349852,23.253566,0.0 120.350035,23.253328,0.0 120.350265,23.253099,0.0 120.350518,23.252908,0.0 120.35071,23.252732,0.0 120.350997,23.252494,0.0 120.35111,23.252371,0.0 120.351288,23.252197,0.0 120.351441,23.252139,0.0 120.351596,23.252138,0.0 120.351694,23.252041,0.0 120.351639,23.251905,0.0 120.351653,23.251761,0.0 120.351625,23.251646,0.0 120.351494,23.251532,0.0 120.351478,23.251327,0.0 120.351513,23.251047,0.0 120.351571,23.250659,0.0 120.351633,23.250411,0.0 120.351672,23.250203,0.0 120.351662,23.250018,0.0 120.351688,23.2497,0.0 120.351754,23.249355,0.0 120.351806,23.249138,0.0 120.351829,23.248915,0.0 120.351853,23.24871,0.0 120.351897,23.248405,0.0 120.351866,23.248242,0.0 120.351907,23.248161,0.0 120.351834,23.248062,0.0 120.351666,23.247948,0.0 120.351595,23.247889,0.0 120.351548,23.247751,0.0 120.351535,23.247494,0.0 120.351526,23.247196,0.0 120.351521,23.246873,0.0 120.351551,23.24669,0.0 120.351548,23.246413,0.0 120.351479,23.246166,0.0 120.351382,23.245938,0.0 120.351362,23.245719,0.0 120.351372,23.24547,0.0 120.351321,23.245357,0.0 120.35119,23.245314,0.0 120.351024,23.245252,0.0 120.350869,23.245087,0.0 120.350824,23.245029,0.0 120.350693,23.244842,0.0 120.350554,23.244672,0.0 120.350464,23.244584,0.0 120.350315,23.244529,0.0 120.350272,23.244416,0.0 120.350285,23.24422,0.0 120.350341,23.244073,0.0 120.35042,23.243972,0.0 120.350587,23.243835,0.0 120.35071,23.243723,0.0 120.35085,23.243692,0.0 120.35114,23.243582,0.0 120.351384,23.243574,0.0 120.351554,23.243442,0.0 120.351766,23.243271,0.0 120.352049,23.243053,0.0 120.352352,23.242799,0.0 120.352457,23.242816,0.0 120.352565,23.242841,0.0 120.353463,23.242789,0.0 120.353831,23.242788,0.0 120.354496,23.243565,0.0 120.355046,23.244314,0.0 120.355473,23.244876,0.0 120.355754,23.245301,0.0 120.356071,23.246486,0.0 120.356264,23.247239,0.0 120.356345,23.247385,0.0 120.356723,23.247485,0.0 120.357562,23.246993,0.0 120.357775,23.246847,0.0 120.35792,23.246806,0.0 120.3582,23.246733,0.0 120.358289,23.246712,0.0 120.358463,23.246721,0.0 120.358604,23.246718,0.0 120.358763,23.246635,0.0 120.359609,23.246507,0.0 120.359757,23.246475,0.0 120.359933,23.246448,0.0 120.360118,23.246486,0.0 120.360612,23.246668,0.0 120.361466,23.247037,0.0 120.36172,23.247224,0.0 120.361892,23.24739,0.0 120.36199,23.247445,0.0 120.362309,23.247443,0.0 120.362436,23.247463,0.0 120.362551,23.247492,0.0 120.362743,23.247584,0.0 120.362884,23.247713,0.0 120.362999,23.247931,0.0 120.36302,23.248015,0.0 120.363015,23.248028,0.0 120.36298,23.248108,0.0 120.36296,23.248189,0.0 120.362967,23.24823,0.0 120.362979,23.248255,0.0 120.363067,23.248334,0.0 120.363609,23.248451,0.0 120.363726,23.248461,0.0 120.364375,23.248415,0.0 120.364457,23.248421,0.0 120.364527,23.248451,0.0 120.364593,23.248501,0.0 120.364662,23.248573,0.0 120.364756,23.248712,0.0 120.364821,23.248808,0.0 120.364851,23.24884,0.0 120.364879,23.248861,0.0 120.364917,23.248876,0.0 120.365045,23.248944,0.0 120.365086,23.248978,0.0 120.365109,23.249,0.0 120.36514,23.249034,0.0 120.365161,23.249091,0.0 120.365156,23.249133,0.0 120.365145,23.249157,0.0 120.365032,23.249313,0.0 120.365,23.249381,0.0 120.364982,23.24945,0.0 120.364971,23.249512,0.0 120.364971,23.249544,0.0 120.364985,23.249624,0.0 120.365022,23.249719,0.0 120.365105,23.249848,0.0 120.364898,23.249954,0.0 120.364416,23.250063,0.0 120.364403,23.250166,0.0 120.364655,23.250985,0.0 120.365032,23.252243,0.0 120.365285,23.253054,0.0 120.365435,23.253549,0.0 120.365745,23.254523,0.0 120.365772,23.254546,0.0 120.366276,23.254421,0.0 120.367068,23.25421,0.0 120.369032,23.255301,0.0 120.369314,23.255762,0.0 120.369407,23.256051,0.0 120.369484,23.256383,0.0 120.369545,23.256519,0.0 120.369236,23.256967,0.0 120.369286,23.257088,0.0 120.369432,23.257346,0.0 120.369568,23.25761,0.0 120.369917,23.258223,0.0 120.369933,23.258379,0.0 120.3699,23.258388,0.0 120.370084,23.258826,0.0 120.370374,23.259309,0.0 120.370619,23.259205,0.0 120.370767,23.259361,0.0 120.370961,23.259671,0.0 120.371206,23.259979,0.0 120.371213,23.260058,0.0 120.370857,23.260186,0.0 120.370406,23.260338,0.0 120.371128,23.262185,0.0 120.369716,23.262695,0.0 120.369748,23.262747,0.0 120.370568,23.263384,0.0 120.371562,23.264129,0.0 120.372084,23.264526,0.0 120.372173,23.264592,0.0 120.372378,23.264685,0.0 120.372578,23.264732,0.0 120.372801,23.264763,0.0 120.373064,23.265324,0.0 120.373169,23.265598,0.0 120.373195,23.265668,0.0 120.373552,23.266551,0.0 120.373262,23.266652,0.0 120.373091,23.266723,0.0 120.373142,23.267344,0.0 120.373074,23.267594,0.0 120.372743,23.267861,0.0 120.372373,23.268003,0.0 120.372211,23.268108,0.0 120.372144,23.268152,0.0 120.37208,23.268195,0.0 120.372035,23.268265,0.0 120.371984,23.268345,0.0 120.371949,23.268378,0.0 120.371901,23.268407,0.0 120.37181,23.268448,0.0 120.371706,23.268492,0.0 120.371661,23.26851,0.0 120.371622,23.268538,0.0 120.371556,23.268599,0.0 120.371487,23.268665,0.0 120.371449,23.268717,0.0 120.371424,23.268764,0.0 120.371398,23.268835,0.0 120.371364,23.268966,0.0 120.371339,23.269071,0.0 120.371296,23.269186,0.0 120.371241,23.269321,0.0 120.371236,23.269357,0.0 120.37127,23.269527,0.0</coordinates></LinearRing></outerBoundaryIs></Polygon><styleUrl>#spolygon-map</styleUrl></Placemark><Placemark><Polygon><outerBoundaryIs><LinearRing><coordinates>120.378601,23.270798,0.0 120.378372,23.27081,0.0 120.378265,23.270825,0.0 120.37821,23.270825,0.0 120.378145,23.270813,0.0 120.378098,23.270801,0.0 120.378048,23.270775,0.0 120.378012,23.270748,0.0 120.377942,23.270664,0.0 120.377846,23.270525,0.0 120.377767,23.270402,0.0 120.37772,23.270327,0.0 120.37767,23.270255,0.0 120.377609,23.270185,0.0 120.377546,23.270141,0.0 120.377457,23.270124,0.0 120.377333,23.270116,0.0 120.376301,23.270255,0.0 120.375943,23.270303,0.0 120.37561,23.270322,0.0 120.374589,23.270488,0.0 120.374312,23.270502,0.0 120.373856,23.270401,0.0 120.373697,23.270364,0.0 120.373594,23.270284,0.0 120.373317,23.269801,0.0 120.373262,23.269743,0.0 120.372248,23.269521,0.0 120.372155,23.269509,0.0 120.37127,23.269527,0.0 120.371236,23.269342,0.0 120.371267,23.26926,0.0 120.371331,23.269095,0.0 120.371348,23.269045,0.0 120.37138,23.268888,0.0 120.371415,23.268786,0.0 120.371435,23.268741,0.0 120.371466,23.268689,0.0 120.371505,23.268646,0.0 120.371606,23.268553,0.0 120.371642,23.26852,0.0 120.371673,23.268503,0.0 120.371739,23.268481,0.0 120.37188,23.268416,0.0 120.371925,23.268397,0.0 120.371967,23.268364,0.0 120.372006,23.26832,0.0 120.372065,23.268209,0.0 120.372089,23.268186,0.0 120.372196,23.268118,0.0 120.372282,23.268062,0.0 120.372389,23.267991,0.0 120.372908,23.267766,0.0 120.373164,23.26746,0.0 120.373035,23.266725,0.0 120.373161,23.266694,0.0 120.373525,23.266556,0.0 120.373394,23.266161,0.0 120.373181,23.26563,0.0 120.373103,23.265419,0.0 120.372841,23.264809,0.0 120.372733,23.264745,0.0 120.372447,23.264709,0.0 120.372267,23.26464,0.0 120.372164,23.264587,0.0 120.371683,23.26422,0.0 120.3709,23.263634,0.0 120.370155,23.263066,0.0 120.36973,23.262727,0.0 120.370077,23.262558,0.0 120.370621,23.260884,0.0 120.370559,23.260287,0.0 120.370966,23.260148,0.0 120.371223,23.260017,0.0 120.371027,23.259769,0.0 120.370903,23.259586,0.0 120.370648,23.259178,0.0 120.370565,23.259241,0.0 120.370372,23.259309,0.0 120.37003,23.258673,0.0 120.369903,23.258387,0.0 120.369999,23.258362,0.0 120.369627,23.257732,0.0 120.369517,23.257508,0.0 120.3693,23.257113,0.0 120.369248,23.256992,0.0 120.369099,23.256704,0.0 120.369541,23.256494,0.0 120.369435,23.256255,0.0 120.369338,23.255837,0.0 120.369232,23.255608,0.0 120.368141,23.253934,0.0 120.366839,23.254269,0.0 120.365779,23.254546,0.0 120.365737,23.254548,0.0 120.365547,23.2539,0.0 120.365416,23.253494,0.0 120.365163,23.252679,0.0 120.364864,23.251676,0.0 120.364596,23.250799,0.0 120.364376,23.250072,0.0 120.364819,23.249972,0.0 120.364969,23.249927,0.0 120.365069,23.249791,0.0 120.365001,23.249665,0.0 120.364977,23.249578,0.0 120.364971,23.249535,0.0 120.364977,23.249477,0.0 120.36499,23.24942,0.0 120.365013,23.249353,0.0 120.365088,23.249235,0.0 120.365146,23.249154,0.0 120.365161,23.249113,0.0 120.365145,23.249048,0.0 120.365119,23.249011,0.0 120.365099,23.248991,0.0 120.36507,23.248964,0.0 120.364975,23.248907,0.0 120.3649,23.248869,0.0 120.364869,23.248855,0.0 120.364843,23.248833,0.0 120.364807,23.248791,0.0 120.364707,23.248635,0.0 120.36464,23.248543,0.0 120.364547,23.248462,0.0 120.364496,23.248435,0.0 120.364421,23.248414,0.0 120.363805,23.24846,0.0 120.363661,23.248457,0.0 120.363114,23.248354,0.0 120.362985,23.24826,0.0 120.362978,23.248254,0.0 120.36296,23.2482,0.0 120.362971,23.24813,0.0 120.362996,23.248066,0.0 120.363019,23.248016,0.0 120.363015,23.247977,0.0 120.362941,23.247817,0.0 120.362834,23.247648,0.0 120.36266,23.247532,0.0 120.362538,23.247487,0.0 120.362352,23.247449,0.0 120.362261,23.247441,0.0 120.361964,23.247441,0.0 120.36177,23.247271,0.0 120.361616,23.247137,0.0 120.361116,23.246878,0.0 120.360352,23.246557,0.0 120.359951,23.24645,0.0 120.359886,23.246451,0.0 120.359753,23.246475,0.0 120.35922,23.246576,0.0 120.358661,23.246697,0.0 120.35854,23.246728,0.0 120.358381,23.24671,0.0 120.358226,23.246723,0.0 120.358044,23.246797,0.0 120.357845,23.246817,0.0 120.357681,23.246908,0.0 120.357073,23.247272,0.0 120.356514,23.247631,0.0 120.356302,23.247304,0.0 120.356215,23.247082,0.0 120.3558,23.245397,0.0 120.355594,23.245047,0.0 120.355127,23.244424,0.0 120.354707,23.243852,0.0 120.353922,23.242729,0.0 120.353996,23.242676,0.0 120.354477,23.242344,0.0 120.354644,23.242193,0.0 120.35474,23.242075,0.0 120.35493,23.241989,0.0 120.355015,23.241982,0.0 120.355178,23.242034,0.0 120.355382,23.242096,0.0 120.356493,23.242235,0.0 120.356909,23.242233,0.0 120.357083,23.24226,0.0 120.357363,23.242309,0.0 120.357519,23.242303,0.0 120.358049,23.242236,0.0 120.358173,23.242223,0.0 120.3584,23.242046,0.0 120.359084,23.24156,0.0 120.359886,23.240951,0.0 120.359988,23.240824,0.0 120.360066,23.240736,0.0 120.360432,23.240401,0.0 120.360685,23.240129,0.0 120.361177,23.2396,0.0 120.361342,23.239249,0.0 120.361271,23.23893,0.0 120.361454,23.238612,0.0 120.361945,23.238279,0.0 120.362135,23.237767,0.0 120.362196,23.236706,0.0 120.362702,23.236848,0.0 120.362897,23.236903,0.0 120.364344,23.23735,0.0 120.364942,23.237319,0.0 120.365323,23.237008,0.0 120.365395,23.237118,0.0 120.365538,23.237288,0.0 120.365621,23.237406,0.0 120.365686,23.237682,0.0 120.365707,23.237885,0.0 120.365821,23.238098,0.0 120.366069,23.238252,0.0 120.366393,23.238384,0.0 120.366589,23.238437,0.0 120.366943,23.23847,0.0 120.367353,23.238677,0.0 120.367513,23.238834,0.0 120.367477,23.238976,0.0 120.367428,23.239125,0.0 120.367445,23.239296,0.0 120.367643,23.239423,0.0 120.36783,23.239566,0.0 120.368061,23.239804,0.0 120.368282,23.239897,0.0 120.368665,23.240004,0.0 120.368918,23.240167,0.0 120.369115,23.240256,0.0 120.369246,23.240227,0.0 120.369725,23.239894,0.0 120.370109,23.239799,0.0 120.370398,23.23976,0.0 120.370481,23.240011,0.0 120.370563,23.240283,0.0 120.370919,23.240229,0.0 120.371197,23.240257,0.0 120.371415,23.240427,0.0 120.371662,23.240593,0.0 120.371847,23.24065,0.0 120.372404,23.240646,0.0 120.372715,23.24071,0.0 120.373015,23.240912,0.0 120.373099,23.241001,0.0 120.373218,23.241015,0.0 120.373236,23.240796,0.0 120.373255,23.240432,0.0 120.373328,23.240304,0.0 120.373564,23.240206,0.0 120.373994,23.240158,0.0 120.374255,23.240147,0.0 120.374567,23.24016,0.0 120.374884,23.240193,0.0 120.375249,23.240142,0.0 120.375672,23.240088,0.0 120.375969,23.239965,0.0 120.376365,23.239727,0.0 120.376767,23.239464,0.0 120.37723,23.239166,0.0 120.377367,23.239047,0.0 120.377481,23.238941,0.0 120.377685,23.238628,0.0 120.377925,23.238406,0.0 120.378132,23.238228,0.0 120.378465,23.238112,0.0 120.378748,23.23791,0.0 120.379022,23.237733,0.0 120.379212,23.237569,0.0 120.379735,23.237359,0.0 120.380193,23.237229,0.0 120.380499,23.237064,0.0 120.38081,23.236819,0.0 120.381067,23.236754,0.0 120.381365,23.236762,0.0 120.381635,23.23686,0.0 120.381793,23.236987,0.0 120.382152,23.237264,0.0 120.382509,23.237346,0.0 120.383052,23.237399,0.0 120.383272,23.237367,0.0 120.383419,23.237248,0.0 120.383549,23.237089,0.0 120.383738,23.236853,0.0 120.384067,23.236622,0.0 120.384718,23.236289,0.0 120.384949,23.23622,0.0 120.385177,23.236248,0.0 120.385588,23.236333,0.0 120.385795,23.236298,0.0 120.386162,23.23607,0.0 120.386435,23.235772,0.0 120.386897,23.235489,0.0 120.387403,23.235222,0.0 120.387583,23.23515,0.0 120.387708,23.235157,0.0 120.38783,23.235233,0.0 120.387872,23.235302,0.0 120.387352,23.235944,0.0 120.387372,23.236061,0.0 120.387135,23.23629,0.0 120.387072,23.23645,0.0 120.387126,23.236862,0.0 120.387305,23.237016,0.0 120.387325,23.2373,0.0 120.387129,23.237722,0.0 120.387133,23.238275,0.0 120.386964,23.23871,0.0 120.386992,23.238863,0.0 120.387067,23.239017,0.0 120.386947,23.239453,0.0 120.386849,23.239549,0.0 120.386488,23.239715,0.0 120.386252,23.239676,0.0 120.386044,23.239494,0.0 120.385892,23.239482,0.0 120.385753,23.239385,0.0 120.385608,23.239352,0.0 120.385446,23.239659,0.0 120.385356,23.239794,0.0 120.385133,23.239818,0.0 120.385022,23.239811,0.0 120.384966,23.239869,0.0 120.384792,23.240011,0.0 120.384674,23.240015,0.0 120.384486,23.240091,0.0 120.384347,23.240264,0.0 120.384367,23.240424,0.0 120.384386,23.240707,0.0 120.384483,23.240836,0.0 120.384753,23.240959,0.0 120.385009,23.241287,0.0 120.385048,23.241736,0.0 120.38504,23.241973,0.0 120.384657,23.242236,0.0 120.384559,23.242448,0.0 120.384267,23.24258,0.0 120.384231,23.242767,0.0 120.384438,23.243033,0.0 120.384436,23.24345,0.0 120.384245,23.244339,0.0 120.384404,23.244538,0.0 120.384832,23.245059,0.0 120.384983,23.245373,0.0 120.385021,23.245392,0.0 120.384998,23.245496,0.0 120.384975,23.245623,0.0 120.38497,23.245658,0.0 120.385028,23.245682,0.0 120.385112,23.245773,0.0 120.385153,23.245841,0.0 120.385137,23.245903,0.0 120.385088,23.245953,0.0 120.384962,23.245985,0.0 120.384903,23.246027,0.0 120.384854,23.246088,0.0 120.384812,23.246164,0.0 120.384814,23.24624,0.0 120.38488,23.246355,0.0 120.38496,23.24655,0.0 120.38501,23.246644,0.0 120.385045,23.246713,0.0 120.385043,23.246761,0.0 120.385064,23.246777,0.0 120.385127,23.246776,0.0 120.385172,23.246834,0.0 120.385203,23.246933,0.0 120.385182,23.247078,0.0 120.385128,23.247218,0.0 120.385048,23.247317,0.0 120.384964,23.247423,0.0 120.384884,23.24754,0.0 120.384833,23.247636,0.0 120.384798,23.247718,0.0 120.384773,23.247724,0.0 120.384661,23.247739,0.0 120.384595,23.247766,0.0 120.384545,23.247807,0.0 120.384519,23.247855,0.0 120.384522,23.247913,0.0 120.384541,23.24798,0.0 120.384594,23.248045,0.0 120.384644,23.248111,0.0 120.384673,23.24817,0.0 120.384566,23.24826,0.0 120.384691,23.248549,0.0 120.385168,23.249206,0.0 120.385306,23.249472,0.0 120.384803,23.249768,0.0 120.384559,23.249793,0.0 120.384237,23.249751,0.0 120.383312,23.249836,0.0 120.383201,23.249884,0.0 120.383145,23.249947,0.0 120.383117,23.25011,0.0 120.383124,23.250369,0.0 120.383268,23.25068,0.0 120.383349,23.250924,0.0 120.383269,23.25113,0.0 120.383051,23.251156,0.0 120.382907,23.251182,0.0 120.382778,23.251353,0.0 120.382684,23.251571,0.0 120.382646,23.25192,0.0 120.382621,23.252018,0.0 120.382463,23.252164,0.0 120.38226,23.252239,0.0 120.382081,23.252315,0.0 120.381856,23.252524,0.0 120.381615,23.252748,0.0 120.381542,23.25289,0.0 120.381503,23.253122,0.0 120.381376,23.253367,0.0 120.38132,23.253479,0.0 120.38124,23.253577,0.0 120.38111,23.253617,0.0 120.380984,23.253633,0.0 120.381201,23.254276,0.0 120.381431,23.25435,0.0 120.381788,23.255022,0.0 120.382338,23.255616,0.0 120.38282,23.256354,0.0 120.382821,23.256518,0.0 120.383061,23.256962,0.0 120.38316,23.257081,0.0 120.38208,23.257531,0.0 120.38141,23.25782,0.0 120.380987,23.258224,0.0 120.380869,23.258267,0.0 120.381144,23.26077,0.0 120.382248,23.264513,0.0 120.382173,23.264544,0.0 120.382074,23.264586,0.0 120.38142,23.264701,0.0 120.380744,23.264795,0.0 120.37948,23.265221,0.0 120.37826,23.265628,0.0 120.379376,23.26679,0.0 120.3799,23.267331,0.0 120.379737,23.267478,0.0 120.379256,23.267659,0.0 120.378739,23.267846,0.0 120.377453,23.268307,0.0 120.377211,23.268373,0.0 120.37768,23.269312,0.0 120.378518,23.270697,0.0 120.378601,23.270798,0.0</coordinates></LinearRing></outerBoundaryIs></Polygon><styleUrl>#spolygon-map</styleUrl></Placemark><Placemark><Polygon><outerBoundaryIs><LinearRing><coordinates>120.322375,23.261085,0.0 120.322447,23.266239,0.0 120.322473,23.268146,0.0 120.322486,23.269091,0.0 120.322499,23.270046,0.0 120.322536,23.272713,0.0 120.322564,23.274765,0.0 120.317555,23.275051,0.0 120.317562,23.275825,0.0 120.317502,23.276375,0.0 120.317363,23.276414,0.0 120.317278,23.276608,0.0 120.317157,23.276887,0.0 120.316907,23.277469,0.0 120.316785,23.277489,0.0 120.316291,23.277279,0.0 120.316213,23.27768,0.0 120.316043,23.277868,0.0 120.315659,23.278494,0.0 120.315377,23.279026,0.0 120.314968,23.278942,0.0 120.314649,23.278861,0.0 120.314359,23.278782,0.0 120.314165,23.278729,0.0 120.313886,23.278653,0.0 120.314017,23.278185,0.0 120.314137,23.277847,0.0 120.314156,23.277459,0.0 120.314167,23.277239,0.0 120.314198,23.277103,0.0 120.313945,23.276783,0.0 120.313982,23.276477,0.0 120.314037,23.275881,0.0 120.314018,23.275808,0.0 120.313958,23.275726,0.0 120.313855,23.275691,0.0 120.313734,23.275683,0.0 120.313801,23.275534,0.0 120.313984,23.275291,0.0 120.314064,23.275213,0.0 120.31384,23.275046,0.0 120.313676,23.274703,0.0 120.313893,23.27388,0.0 120.314618,23.27286,0.0 120.315316,23.272037,0.0 120.315592,23.27203,0.0 120.317499,23.27201,0.0 120.317492,23.271368,0.0 120.317476,23.270103,0.0 120.317468,23.269547,0.0 120.317449,23.268949,0.0 120.317439,23.268234,0.0 120.317405,23.268192,0.0 120.317388,23.266305,0.0 120.317386,23.265584,0.0 120.317382,23.264218,0.0 120.317308,23.264154,0.0 120.316865,23.264164,0.0 120.3168,23.264183,0.0 120.316516,23.264338,0.0 120.316315,23.26436,0.0 120.316097,23.26275,0.0 120.316259,23.262207,0.0 120.316674,23.262122,0.0 120.317559,23.261935,0.0 120.317923,23.262025,0.0 120.318102,23.262633,0.0 120.318346,23.263061,0.0 120.318694,23.263363,0.0 120.31927,23.263537,0.0 120.319845,23.26349,0.0 120.320202,23.263401,0.0 120.320502,23.263255,0.0 120.320879,23.263022,0.0 120.321155,23.262744,0.0 120.321279,23.262518,0.0 120.321323,23.262067,0.0 120.321392,23.261695,0.0 120.321575,23.26131,0.0 120.321858,23.261137,0.0 120.322138,23.261077,0.0 120.322327,23.26108,0.0 120.322375,23.261085,0.0</coordinates></LinearRing></outerBoundaryIs></Polygon><styleUrl>#spolygon-map</styleUrl></Placemark><Placemark><Polygon><outerBoundaryIs><LinearRing><coordinates>120.308981,23.263294,0.0 120.308985,23.265392,0.0 120.308947,23.266374,0.0 120.308898,23.268043,0.0 120.308873,23.268677,0.0 120.308851,23.269604,0.0 120.308836,23.2699,0.0 120.308728,23.272025,0.0 120.308697,23.272637,0.0 120.308313,23.27259,0.0 120.308208,23.272595,0.0 120.307658,23.272772,0.0 120.307479,23.275086,0.0 120.307395,23.276127,0.0 120.308047,23.276193,0.0 120.308086,23.276288,0.0 120.30783,23.276521,0.0 120.307003,23.277159,0.0 120.306319,23.277685,0.0 120.305675,23.27819,0.0 120.305237,23.278531,0.0 120.304164,23.279338,0.0 120.302853,23.280374,0.0 120.302051,23.281021,0.0 120.300956,23.281861,0.0 120.30067,23.282079,0.0 120.300612,23.282112,0.0 120.300593,23.282093,0.0 120.296963,23.279,0.0 120.296511,23.278919,0.0 120.296209,23.279017,0.0 120.295992,23.279354,0.0 120.295389,23.279212,0.0 120.293524,23.279147,0.0 120.291203,23.279153,0.0 120.291163,23.277826,0.0 120.29117,23.277431,0.0 120.289149,23.276092,0.0 120.283043,23.274436,0.0 120.282084,23.274132,0.0 120.28096,23.272214,0.0 120.281321,23.265977,0.0 120.279752,23.262088,0.0 120.280489,23.261833,0.0 120.280715,23.261724,0.0 120.281165,23.261484,0.0 120.281429,23.261321,0.0 120.281765,23.261112,0.0 120.282043,23.260981,0.0 120.282409,23.26079,0.0 120.282707,23.260618,0.0 120.282967,23.260544,0.0 120.283266,23.26041,0.0 120.283567,23.260274,0.0 120.283822,23.260171,0.0 120.284181,23.260128,0.0 120.284717,23.260103,0.0 120.285043,23.260087,0.0 120.285618,23.260087,0.0 120.286192,23.260096,0.0 120.286772,23.26007,0.0 120.287093,23.260062,0.0 120.287344,23.260102,0.0 120.28773,23.260198,0.0 120.287993,23.26029,0.0 120.288094,23.260324,0.0 120.288283,23.26042,0.0 120.288324,23.260528,0.0 120.288251,23.260731,0.0 120.288272,23.260991,0.0 120.288356,23.261348,0.0 120.288415,23.261585,0.0 120.288564,23.261807,0.0 120.288719,23.261902,0.0 120.288924,23.262032,0.0 120.289092,23.262177,0.0 120.28924,23.262241,0.0 120.289492,23.262215,0.0 120.289764,23.262131,0.0 120.290097,23.261927,0.0 120.290386,23.261915,0.0 120.290713,23.26195,0.0 120.291063,23.261945,0.0 120.291458,23.261913,0.0 120.291936,23.261827,0.0 120.29228,23.26174,0.0 120.292618,23.261676,0.0 120.292996,23.261633,0.0 120.293354,23.261625,0.0 120.293711,23.261677,0.0 120.294162,23.261769,0.0 120.294425,23.261867,0.0 120.294624,23.262037,0.0 120.294775,23.262266,0.0 120.294894,23.262585,0.0 120.294956,23.262922,0.0 120.295001,23.263249,0.0 120.295066,23.263588,0.0 120.295112,23.263717,0.0 120.295195,23.263952,0.0 120.295339,23.264179,0.0 120.295578,23.264419,0.0 120.29588,23.264619,0.0 120.296205,23.264742,0.0 120.296566,23.264812,0.0 120.296892,23.264863,0.0 120.297238,23.264864,0.0 120.297522,23.264827,0.0 120.29774,23.264745,0.0 120.297964,23.264588,0.0 120.298214,23.264284,0.0 120.298484,23.263881,0.0 120.298714,23.263419,0.0 120.298935,23.262955,0.0 120.299123,23.262683,0.0 120.299262,23.262573,0.0 120.299462,23.26249,0.0 120.299808,23.262447,0.0 120.300142,23.262489,0.0 120.300463,23.262601,0.0 120.300865,23.262749,0.0 120.30121,23.26285,0.0 120.301595,23.262895,0.0 120.302006,23.26289,0.0 120.302278,23.26285,0.0 120.302549,23.262825,0.0 120.302898,23.262837,0.0 120.303317,23.262943,0.0 120.30372,23.263123,0.0 120.304024,23.263321,0.0 120.304424,23.263515,0.0 120.304741,23.26367,0.0 120.30511,23.263847,0.0 120.305423,23.263889,0.0 120.305671,23.263861,0.0 120.306102,23.263768,0.0 120.306841,23.263634,0.0 120.307494,23.263553,0.0 120.308089,23.263474,0.0 120.308268,23.263473,0.0 120.308437,23.263431,0.0 120.308684,23.263398,0.0 120.308876,23.263358,0.0 120.308981,23.263294,0.0</coordinates></LinearRing></outerBoundaryIs></Polygon><styleUrl>#spolygon-map</styleUrl></Placemark><Placemark><Polygon><outerBoundaryIs><LinearRing><coordinates>120.312611,23.259955,0.0 120.312675,23.260731,0.0 120.312876,23.263062,0.0 120.313013,23.264689,0.0 120.313118,23.266071,0.0 120.313272,23.267767,0.0 120.313305,23.269003,0.0 120.313413,23.269497,0.0 120.313535,23.271084,0.0 120.313595,23.271862,0.0 120.313595,23.272398,0.0 120.313521,23.27312,0.0 120.313411,23.273693,0.0 120.313304,23.274079,0.0 120.313019,23.275081,0.0 120.312833,23.275743,0.0 120.31244,23.277017,0.0 120.312376,23.277221,0.0 120.312105,23.278212,0.0 120.312058,23.278381,0.0 120.311713,23.279689,0.0 120.311701,23.27985,0.0 120.31168,23.280139,0.0 120.311711,23.280531,0.0 120.311797,23.281299,0.0 120.311873,23.282172,0.0 120.312096,23.284682,0.0 120.312216,23.286126,0.0 120.312302,23.286983,0.0 120.312241,23.287019,0.0 120.311953,23.286891,0.0 120.311465,23.286569,0.0 120.311297,23.286395,0.0 120.310934,23.286118,0.0 120.310737,23.286032,0.0 120.310364,23.286094,0.0 120.309791,23.286492,0.0 120.309383,23.286752,0.0 120.309089,23.28679,0.0 120.308847,23.286719,0.0 120.308539,23.286537,0.0 120.308342,23.286501,0.0 120.308043,23.286531,0.0 120.307494,23.286702,0.0 120.306988,23.28678,0.0 120.306358,23.286736,0.0 120.306342,23.286662,0.0 120.306313,23.28551,0.0 120.306305,23.28475,0.0 120.305485,23.28477,0.0 120.304457,23.284772,0.0 120.303998,23.284781,0.0 120.30345,23.285169,0.0 120.303138,23.28476,0.0 120.302588,23.284169,0.0 120.300674,23.282182,0.0 120.300612,23.282112,0.0 120.30067,23.282079,0.0 120.300956,23.281861,0.0 120.302051,23.281021,0.0 120.302853,23.280374,0.0 120.304164,23.279338,0.0 120.305237,23.278531,0.0 120.305675,23.27819,0.0 120.306319,23.277685,0.0 120.307003,23.277159,0.0 120.30783,23.276521,0.0 120.308086,23.276288,0.0 120.308047,23.276193,0.0 120.307395,23.276127,0.0 120.307479,23.275086,0.0 120.307658,23.272772,0.0 120.308208,23.272595,0.0 120.308313,23.27259,0.0 120.308697,23.272637,0.0 120.308728,23.272025,0.0 120.308836,23.2699,0.0 120.308851,23.269604,0.0 120.308873,23.268677,0.0 120.308898,23.268043,0.0 120.308947,23.266374,0.0 120.308985,23.265392,0.0 120.308981,23.263294,0.0 120.309342,23.263017,0.0 120.3096,23.262829,0.0 120.309702,23.262732,0.0 120.309845,23.262561,0.0 120.309905,23.262363,0.0 120.309889,23.26215,0.0 120.309837,23.261918,0.0 120.309718,23.26163,0.0 120.309654,23.261456,0.0 120.309566,23.261088,0.0 120.309523,23.260756,0.0 120.309507,23.260501,0.0 120.309621,23.260289,0.0 120.309785,23.260125,0.0 120.310055,23.260009,0.0 120.310424,23.259977,0.0 120.310783,23.260017,0.0 120.311066,23.260047,0.0 120.311421,23.260037,0.0 120.31178,23.260003,0.0 120.312463,23.259967,0.0 120.312611,23.259955,0.0</coordinates></LinearRing></outerBoundaryIs></Polygon><styleUrl>#spolygon-map</styleUrl></Placemark><Placemark><Polygon><outerBoundaryIs><LinearRing><coordinates>120.317595,23.288568,0.0 120.317336,23.288555,0.0 120.316795,23.288419,0.0 120.316383,23.288394,0.0 120.315609,23.288305,0.0 120.315416,23.288238,0.0 120.315284,23.288075,0.0 120.315137,23.288006,0.0 120.31456,23.287861,0.0 120.314326,23.287766,0.0 120.314126,23.287662,0.0 120.313907,23.287652,0.0 120.313547,23.287734,0.0 120.313398,23.28771,0.0 120.312829,23.287341,0.0 120.312694,23.287181,0.0 120.312481,23.287065,0.0 120.312302,23.286983,0.0 120.312216,23.286126,0.0 120.312096,23.284682,0.0 120.311873,23.282172,0.0 120.311797,23.281299,0.0 120.311711,23.280531,0.0 120.31168,23.280139,0.0 120.311701,23.27985,0.0 120.311713,23.279689,0.0 120.312058,23.278381,0.0 120.312105,23.278212,0.0 120.312376,23.277221,0.0 120.31244,23.277017,0.0 120.312833,23.275743,0.0 120.313019,23.275081,0.0 120.313304,23.274079,0.0 120.313411,23.273693,0.0 120.313521,23.27312,0.0 120.313595,23.272398,0.0 120.313595,23.271862,0.0 120.313535,23.271084,0.0 120.313413,23.269497,0.0 120.313305,23.269003,0.0 120.313272,23.267767,0.0 120.313118,23.266071,0.0 120.313013,23.264689,0.0 120.312876,23.263062,0.0 120.312675,23.260731,0.0 120.312611,23.259955,0.0 120.312765,23.259942,0.0 120.313236,23.259901,0.0 120.313592,23.259821,0.0 120.313889,23.259723,0.0 120.314154,23.259553,0.0 120.314337,23.259436,0.0 120.314676,23.259214,0.0 120.314992,23.259094,0.0 120.315256,23.259104,0.0 120.315413,23.259162,0.0 120.315561,23.259241,0.0 120.315817,23.259479,0.0 120.315971,23.259746,0.0 120.316034,23.259981,0.0 120.316102,23.260256,0.0 120.316192,23.260557,0.0 120.316396,23.260766,0.0 120.316607,23.260866,0.0 120.31687,23.260899,0.0 120.317208,23.261015,0.0 120.317453,23.261159,0.0 120.317624,23.261338,0.0 120.317771,23.261582,0.0 120.317886,23.261907,0.0 120.317559,23.261935,0.0 120.316674,23.262122,0.0 120.316259,23.262207,0.0 120.316097,23.26275,0.0 120.316315,23.26436,0.0 120.316516,23.264338,0.0 120.3168,23.264183,0.0 120.316865,23.264164,0.0 120.317308,23.264154,0.0 120.317382,23.264218,0.0 120.317386,23.265584,0.0 120.317388,23.266305,0.0 120.317405,23.268192,0.0 120.317439,23.268234,0.0 120.317449,23.268949,0.0 120.317468,23.269547,0.0 120.317476,23.270103,0.0 120.317492,23.271368,0.0 120.317499,23.27201,0.0 120.315592,23.27203,0.0 120.315316,23.272037,0.0 120.314618,23.27286,0.0 120.313893,23.27388,0.0 120.313676,23.274703,0.0 120.31384,23.275046,0.0 120.314064,23.275213,0.0 120.313984,23.275291,0.0 120.313801,23.275534,0.0 120.313734,23.275683,0.0 120.313855,23.275691,0.0 120.313958,23.275726,0.0 120.314018,23.275808,0.0 120.314037,23.275881,0.0 120.313982,23.276477,0.0 120.313945,23.276783,0.0 120.314198,23.277103,0.0 120.314167,23.277239,0.0 120.314156,23.277459,0.0 120.314137,23.277847,0.0 120.314017,23.278185,0.0 120.313886,23.278653,0.0 120.314165,23.278729,0.0 120.313878,23.279658,0.0 120.313845,23.279802,0.0 120.31359,23.280436,0.0 120.31388,23.280615,0.0 120.31443,23.280847,0.0 120.315048,23.280845,0.0 120.315645,23.280842,0.0 120.317063,23.280822,0.0 120.317482,23.280818,0.0 120.317501,23.282713,0.0 120.317534,23.284615,0.0 120.317566,23.286504,0.0 120.317586,23.28787,0.0 120.317595,23.288568,0.0</coordinates></LinearRing></outerBoundaryIs></Polygon><styleUrl>#spolygon-map</styleUrl></Placemark><Placemark><Polygon><outerBoundaryIs><LinearRing><coordinates>120.334952,23.26452,0.0 120.334924,23.264855,0.0 120.334921,23.265461,0.0 120.334812,23.265872,0.0 120.33455,23.266953,0.0 120.334465,23.26734,0.0 120.334064,23.267841,0.0 120.333845,23.268151,0.0 120.333786,23.268904,0.0 120.334017,23.269448,0.0 120.334438,23.270433,0.0 120.334335,23.27082,0.0 120.333637,23.271722,0.0 120.333591,23.271902,0.0 120.333561,23.273173,0.0 120.333545,23.273333,0.0 120.333451,23.275111,0.0 120.335191,23.275619,0.0 120.335488,23.275741,0.0 120.335751,23.276037,0.0 120.336027,23.276615,0.0 120.33632,23.277537,0.0 120.336779,23.27906,0.0 120.336785,23.279336,0.0 120.336587,23.279369,0.0 120.336318,23.279367,0.0 120.33598,23.279372,0.0 120.333046,23.279394,0.0 120.332991,23.279391,0.0 120.33284,23.279448,0.0 120.333283,23.279845,0.0 120.333723,23.280288,0.0 120.334061,23.280623,0.0 120.334368,23.280948,0.0 120.335207,23.281843,0.0 120.330706,23.281831,0.0 120.325291,23.28262,0.0 120.324086,23.282642,0.0 120.322698,23.282654,0.0 120.322783,23.289171,0.0 120.322526,23.289035,0.0 120.321919,23.288646,0.0 120.32159,23.288385,0.0 120.319936,23.288017,0.0 120.319604,23.287997,0.0 120.319399,23.288153,0.0 120.319183,23.288416,0.0 120.319033,23.288359,0.0 120.318689,23.288185,0.0 120.318577,23.288182,0.0 120.318052,23.288463,0.0 120.317818,23.288549,0.0 120.317594,23.288516,0.0 120.317585,23.287568,0.0 120.317536,23.284744,0.0 120.317522,23.283466,0.0 120.317494,23.281983,0.0 120.317447,23.280819,0.0 120.315978,23.28084,0.0 120.315431,23.280843,0.0 120.314659,23.280846,0.0 120.314209,23.280754,0.0 120.313571,23.280482,0.0 120.313693,23.280184,0.0 120.313872,23.279703,0.0 120.314198,23.278738,0.0 120.314513,23.278824,0.0 120.314823,23.278905,0.0 120.315272,23.279017,0.0 120.315382,23.279024,0.0 120.315853,23.278198,0.0 120.316153,23.277761,0.0 120.316248,23.277604,0.0 120.316297,23.277281,0.0 120.316848,23.277516,0.0 120.317085,23.277055,0.0 120.317265,23.27664,0.0 120.317294,23.276567,0.0 120.317381,23.276376,0.0 120.317566,23.276374,0.0 120.317561,23.275629,0.0 120.317548,23.274785,0.0 120.322565,23.274765,0.0 120.322526,23.271952,0.0 120.322499,23.270039,0.0 120.322473,23.268149,0.0 120.322447,23.266244,0.0 120.322417,23.264094,0.0 120.322491,23.261126,0.0 120.322658,23.261369,0.0 120.322939,23.261871,0.0 120.323148,23.262274,0.0 120.323489,23.262912,0.0 120.323751,23.263339,0.0 120.323889,23.263464,0.0 120.324233,23.263588,0.0 120.324592,23.263594,0.0 120.324929,23.263435,0.0 120.325197,23.263183,0.0 120.325573,23.262747,0.0 120.32576,23.262486,0.0 120.325904,23.262222,0.0 120.325916,23.261983,0.0 120.32584,23.261649,0.0 120.325736,23.261251,0.0 120.325729,23.260993,0.0 120.325781,23.260702,0.0 120.326032,23.260536,0.0 120.326457,23.260441,0.0 120.326905,23.260375,0.0 120.327126,23.26034,0.0 120.327361,23.260292,0.0 120.327725,23.260268,0.0 120.328105,23.260331,0.0 120.328363,23.260425,0.0 120.32864,23.260613,0.0 120.328864,23.260856,0.0 120.329098,23.261085,0.0 120.329372,23.261181,0.0 120.329537,23.261161,0.0 120.329665,23.261049,0.0 120.329738,23.260835,0.0 120.329759,23.260494,0.0 120.329751,23.260081,0.0 120.329786,23.259808,0.0 120.329829,23.259541,0.0 120.329825,23.259248,0.0 120.329774,23.258916,0.0 120.32974,23.258561,0.0 120.32979,23.258245,0.0 120.329964,23.25798,0.0 120.33015,23.257856,0.0 120.330316,23.257846,0.0 120.330501,23.257932,0.0 120.331005,23.258305,0.0 120.331292,23.258568,0.0 120.331443,23.258787,0.0 120.3316,23.259129,0.0 120.331727,23.259403,0.0 120.331953,23.259812,0.0 120.332029,23.260007,0.0 120.332114,23.260273,0.0 120.332247,23.260741,0.0 120.332374,23.261354,0.0 120.332492,23.261835,0.0 120.332508,23.262151,0.0 120.332609,23.262513,0.0 120.332748,23.262834,0.0 120.332995,23.263262,0.0 120.333209,23.263423,0.0 120.333372,23.263489,0.0 120.33362,23.263553,0.0 120.333828,23.263647,0.0 120.333996,23.263717,0.0 120.334074,23.263722,0.0 120.334323,23.263671,0.0 120.334524,23.263559,0.0 120.334721,23.263472,0.0 120.334883,23.263443,0.0 120.335046,23.263444,0.0 120.334952,23.26452,0.0</coordinates></LinearRing></outerBoundaryIs></Polygon><styleUrl>#spolygon-map</styleUrl></Placemark><Placemark><Polygon><outerBoundaryIs><LinearRing><coordinates>120.387442,23.289746,0.0 120.387352,23.289782,0.0 120.386926,23.289874,0.0 120.385769,23.289972,0.0 120.385563,23.289955,0.0 120.385346,23.289844,0.0 120.385205,23.289806,0.0 120.38507,23.28982,0.0 120.384396,23.289936,0.0 120.384277,23.289939,0.0 120.384108,23.289928,0.0 120.383891,23.290035,0.0 120.383748,23.290097,0.0 120.383664,23.290091,0.0 120.383487,23.289986,0.0 120.383222,23.289825,0.0 120.383156,23.28844,0.0 120.383156,23.287939,0.0 120.383203,23.287093,0.0 120.383238,23.286654,0.0 120.383252,23.286567,0.0 120.38333,23.284933,0.0 120.383334,23.284595,0.0 120.383382,23.283891,0.0 120.383402,23.283528,0.0 120.383409,23.283433,0.0 120.383421,23.283059,0.0 120.383472,23.282167,0.0 120.383486,23.281895,0.0 120.383262,23.281699,0.0 120.382974,23.281549,0.0 120.382807,23.281273,0.0 120.382757,23.280974,0.0 120.382649,23.280359,0.0 120.382599,23.28006,0.0 120.382513,23.279551,0.0 120.382332,23.27849,0.0 120.38227,23.278118,0.0 120.382226,23.277848,0.0 120.382181,23.277577,0.0 120.382075,23.276932,0.0 120.382019,23.276594,0.0 120.381912,23.275949,0.0 120.381883,23.27577,0.0 120.38187,23.275651,0.0 120.381822,23.275226,0.0 120.381802,23.275043,0.0 120.381792,23.274757,0.0 120.381814,23.274566,0.0 120.381857,23.274255,0.0 120.38189,23.274053,0.0 120.381931,23.273805,0.0 120.38199,23.273483,0.0 120.382029,23.273294,0.0 120.382051,23.273173,0.0 120.382122,23.272817,0.0 120.382186,23.272469,0.0 120.382257,23.272072,0.0 120.382314,23.271798,0.0 120.382372,23.271497,0.0 120.382388,23.271414,0.0 120.382293,23.271327,0.0 120.382013,23.271275,0.0 120.381588,23.2712,0.0 120.381245,23.271142,0.0 120.380956,23.271092,0.0 120.380801,23.271072,0.0 120.380674,23.271046,0.0 120.38049,23.271014,0.0 120.380209,23.270971,0.0 120.379932,23.270929,0.0 120.379715,23.270898,0.0 120.379426,23.270869,0.0 120.379122,23.270834,0.0 120.378933,23.270807,0.0 120.37865,23.270798,0.0 120.378599,23.270795,0.0 120.377941,23.269794,0.0 120.377392,23.268758,0.0 120.377281,23.268354,0.0 120.378065,23.268079,0.0 120.379244,23.267663,0.0 120.379608,23.267539,0.0 120.379874,23.267354,0.0 120.379896,23.267327,0.0 120.378769,23.266164,0.0 120.379396,23.265249,0.0 120.380605,23.264841,0.0 120.380878,23.264776,0.0 120.381961,23.264615,0.0 120.382082,23.264583,0.0 120.382235,23.264519,0.0 120.381317,23.262052,0.0 120.380924,23.258773,0.0 120.380921,23.258261,0.0 120.381055,23.258185,0.0 120.381456,23.257787,0.0 120.383022,23.257145,0.0 120.383147,23.257066,0.0 120.382936,23.256769,0.0 120.382807,23.256437,0.0 120.382511,23.255881,0.0 120.382073,23.255286,0.0 120.381439,23.254375,0.0 120.381382,23.254308,0.0 120.38116,23.254227,0.0 120.38105,23.253624,0.0 120.381206,23.253591,0.0 120.381279,23.253532,0.0 120.381353,23.253393,0.0 120.381456,23.253276,0.0 120.381523,23.25296,0.0 120.381587,23.252785,0.0 120.381668,23.25268,0.0 120.381925,23.252466,0.0 120.382184,23.252268,0.0 120.382352,23.252217,0.0 120.38258,23.252078,0.0 120.382646,23.251932,0.0 120.382656,23.251685,0.0 120.382737,23.251448,0.0 120.382844,23.251251,0.0 120.382983,23.25116,0.0 120.383189,23.251163,0.0 120.38334,23.250986,0.0 120.383332,23.250806,0.0 120.383158,23.250525,0.0 120.383111,23.250184,0.0 120.383123,23.250031,0.0 120.383195,23.249892,0.0 120.383212,23.24988,0.0 120.383921,23.249763,0.0 120.384374,23.249757,0.0 120.384708,23.249796,0.0 120.385061,23.249616,0.0 120.385455,23.249417,0.0 120.384933,23.248926,0.0 120.384617,23.248411,0.0 120.384564,23.248259,0.0 120.384657,23.248136,0.0 120.384619,23.248077,0.0 120.384568,23.248013,0.0 120.384531,23.247945,0.0 120.384521,23.247886,0.0 120.384534,23.247829,0.0 120.384572,23.247785,0.0 120.38463,23.247752,0.0 120.384718,23.247732,0.0 120.384782,23.247722,0.0 120.384817,23.247674,0.0 120.384858,23.247588,0.0 120.384924,23.247481,0.0 120.385006,23.24737,0.0 120.385088,23.247268,0.0 120.385155,23.247146,0.0 120.385192,23.247007,0.0 120.385187,23.246881,0.0 120.385152,23.246809,0.0 120.385094,23.246776,0.0 120.385058,23.246772,0.0 120.385044,23.246735,0.0 120.385027,23.246677,0.0 120.384985,23.246597,0.0 120.38492,23.246453,0.0 120.384847,23.246298,0.0 120.384813,23.246205,0.0 120.384834,23.246124,0.0 120.384877,23.246059,0.0 120.38493,23.246007,0.0 120.385024,23.245969,0.0 120.385115,23.245925,0.0 120.385144,23.245876,0.0 120.385131,23.245804,0.0 120.385072,23.245729,0.0 120.385002,23.245671,0.0 120.384973,23.245635,0.0 120.384986,23.245559,0.0 120.38501,23.245441,0.0 120.385019,23.245391,0.0 120.384907,23.24524,0.0 120.384465,23.244743,0.0 120.384265,23.244415,0.0 120.38435,23.243723,0.0 120.384437,23.243241,0.0 120.384293,23.242869,0.0 120.384218,23.24267,0.0 120.384427,23.242517,0.0 120.384608,23.242313,0.0 120.384942,23.242102,0.0 120.38509,23.241789,0.0 120.385077,23.24157,0.0 120.384892,23.241063,0.0 120.384525,23.240863,0.0 120.384442,23.240759,0.0 120.384366,23.240668,0.0 120.384346,23.240323,0.0 120.384361,23.240187,0.0 120.384577,23.24008,0.0 120.384743,23.240035,0.0 120.384855,23.239945,0.0 120.385008,23.239856,0.0 120.385078,23.239811,0.0 120.385258,23.239818,0.0 120.385404,23.239735,0.0 120.385531,23.239409,0.0 120.385677,23.239353,0.0 120.385836,23.239444,0.0 120.385961,23.239494,0.0 120.386141,23.239571,0.0 120.386391,23.239701,0.0 120.38664,23.239785,0.0 120.386878,23.239479,0.0 120.387115,23.239185,0.0 120.387081,23.238927,0.0 120.386964,23.238825,0.0 120.386999,23.23864,0.0 120.387162,23.238018,0.0 120.387157,23.237631,0.0 120.387353,23.237133,0.0 120.387139,23.236938,0.0 120.387231,23.236684,0.0 120.387072,23.236367,0.0 120.387344,23.236145,0.0 120.387338,23.235991,0.0 120.387866,23.235309,0.0 120.387884,23.235287,0.0 120.388077,23.235508,0.0 120.388234,23.23561,0.0 120.388561,23.235667,0.0 120.388785,23.235681,0.0 120.389248,23.235749,0.0 120.389712,23.235788,0.0 120.390217,23.235896,0.0 120.390426,23.23592,0.0 120.390696,23.235891,0.0 120.390876,23.235842,0.0 120.391278,23.2356,0.0 120.391828,23.235223,0.0 120.392113,23.235129,0.0 120.39243,23.234985,0.0 120.392632,23.234813,0.0 120.392944,23.234499,0.0 120.393149,23.234378,0.0 120.393514,23.234272,0.0 120.394054,23.234233,0.0 120.394402,23.234125,0.0 120.394594,23.234002,0.0 120.394708,23.233881,0.0 120.394807,23.233593,0.0 120.394858,23.233134,0.0 120.394939,23.232839,0.0 120.39501,23.23271,0.0 120.39548,23.232029,0.0 120.3956,23.231843,0.0 120.395722,23.23174,0.0 120.395859,23.231689,0.0 120.396137,23.231639,0.0 120.396289,23.231597,0.0 120.396403,23.231497,0.0 120.396701,23.231105,0.0 120.396849,23.231013,0.0 120.397014,23.230981,0.0 120.397293,23.230963,0.0 120.397478,23.230935,0.0 120.397676,23.230846,0.0 120.397938,23.230638,0.0 120.398101,23.230522,0.0 120.398245,23.23049,0.0 120.398407,23.230523,0.0 120.398703,23.230676,0.0 120.398994,23.230821,0.0 120.399272,23.230857,0.0 120.399739,23.230848,0.0 120.399964,23.230821,0.0 120.400241,23.230693,0.0 120.400626,23.230632,0.0 120.400872,23.23058,0.0 120.401006,23.230509,0.0 120.401227,23.230447,0.0 120.401382,23.230466,0.0 120.401489,23.230522,0.0 120.401608,23.230657,0.0 120.401805,23.23087,0.0 120.402023,23.231197,0.0 120.402086,23.231467,0.0 120.402108,23.231603,0.0 120.402092,23.23175,0.0 120.402017,23.231974,0.0 120.40195,23.232248,0.0 120.401967,23.232442,0.0 120.402072,23.232813,0.0 120.40218,23.233028,0.0 120.402265,23.233101,0.0 120.402679,23.233215,0.0 120.402995,23.233338,0.0 120.403209,23.233379,0.0 120.403481,23.233417,0.0 120.403607,23.233498,0.0 120.403782,23.233752,0.0 120.403959,23.233892,0.0 120.404166,23.23397,0.0 120.404997,23.234152,0.0 120.405408,23.234128,0.0 120.406587,23.2339,0.0 120.406865,23.233887,0.0 120.407968,23.233958,0.0 120.40826,23.233967,0.0 120.40915,23.234124,0.0 120.409941,23.23428,0.0 120.410305,23.234397,0.0 120.411015,23.234735,0.0 120.411228,23.234779,0.0 120.411402,23.234775,0.0 120.411504,23.234756,0.0 120.411734,23.234949,0.0 120.411812,23.234957,0.0 120.411864,23.23495,0.0 120.411946,23.234954,0.0 120.411996,23.234989,0.0 120.412091,23.235158,0.0 120.412249,23.235241,0.0 120.412396,23.235311,0.0 120.412455,23.235303,0.0 120.412505,23.235308,0.0 120.412551,23.235373,0.0 120.412636,23.235472,0.0 120.412735,23.235497,0.0 120.412947,23.235623,0.0 120.413102,23.235579,0.0 120.413381,23.235562,0.0 120.41486,23.235451,0.0 120.415078,23.235689,0.0 120.415128,23.235753,0.0 120.41516,23.23584,0.0 120.415172,23.235908,0.0 120.415167,23.236029,0.0 120.415119,23.236212,0.0 120.415094,23.236353,0.0 120.415101,23.236419,0.0 120.415137,23.236472,0.0 120.415242,23.236561,0.0 120.415465,23.236635,0.0 120.416113,23.236713,0.0 120.416351,23.236816,0.0 120.416578,23.236993,0.0 120.416742,23.237212,0.0 120.417209,23.237618,0.0 120.417431,23.237802,0.0 120.417654,23.237998,0.0 120.417822,23.238025,0.0 120.418003,23.237978,0.0 120.418207,23.237933,0.0 120.418343,23.237965,0.0 120.41849,23.238055,0.0 120.419164,23.238655,0.0 120.419427,23.238795,0.0 120.419835,23.238941,0.0 120.420051,23.238976,0.0 120.420321,23.238942,0.0 120.420501,23.238953,0.0 120.420814,23.239087,0.0 120.421089,23.239166,0.0 120.42129,23.239162,0.0 120.421449,23.239094,0.0 120.421715,23.238844,0.0 120.421895,23.238745,0.0 120.422005,23.238718,0.0 120.422123,23.238738,0.0 120.422239,23.238796,0.0 120.422585,23.239198,0.0 120.422935,23.239682,0.0 120.423001,23.240078,0.0 120.423143,23.240814,0.0 120.423261,23.241134,0.0 120.423522,23.241683,0.0 120.423552,23.241817,0.0 120.423473,23.241853,0.0 120.423465,23.241912,0.0 120.423399,23.242111,0.0 120.42335,23.242241,0.0 120.423342,23.242279,0.0 120.423302,23.242512,0.0 120.423214,23.242777,0.0 120.423178,23.243354,0.0 120.423182,23.243554,0.0 120.423198,23.243687,0.0 120.423114,23.243754,0.0 120.422746,23.243862,0.0 120.42247,23.243939,0.0 120.422277,23.244049,0.0 120.42209,23.244266,0.0 120.42191,23.244409,0.0 120.421728,23.244611,0.0 120.421685,23.244642,0.0 120.422418,23.24446,0.0 120.422778,23.244339,0.0 120.423347,23.24464,0.0 120.423923,23.244991,0.0 120.42432,23.24516,0.0 120.424448,23.245352,0.0 120.424504,23.245461,0.0 120.424938,23.24581,0.0 120.425192,23.246197,0.0 120.424843,23.24627,0.0 120.42464,23.246552,0.0 120.424587,23.246706,0.0 120.424616,23.247175,0.0 120.424675,23.247338,0.0 120.424505,23.247732,0.0 120.424133,23.248193,0.0 120.424115,23.248299,0.0 120.424388,23.248418,0.0 120.424606,23.24857,0.0 120.424635,23.248859,0.0 120.424547,23.249133,0.0 120.424489,23.24943,0.0 120.424587,23.249906,0.0 120.424566,23.250032,0.0 120.424557,23.250051,0.0 120.424503,23.250099,0.0 120.424318,23.250264,0.0 120.424245,23.250539,0.0 120.42418,23.251081,0.0 120.424118,23.251237,0.0 120.424016,23.251413,0.0 120.423881,23.251659,0.0 120.423853,23.251761,0.0 120.423815,23.251901,0.0 120.423585,23.252262,0.0 120.423578,23.252279,0.0 120.423563,23.252397,0.0 120.423476,23.252861,0.0 120.423473,23.252872,0.0 120.423309,23.2532,0.0 120.423172,23.253303,0.0 120.422938,23.253424,0.0 120.422821,23.253659,0.0 120.422501,23.253892,0.0 120.422101,23.254184,0.0 120.421908,23.254326,0.0 120.421106,23.254648,0.0 120.420847,23.254745,0.0 120.420513,23.25486,0.0 120.420208,23.255049,0.0 120.41974,23.25493,0.0 120.419542,23.254962,0.0 120.4192,23.255052,0.0 120.418456,23.254992,0.0 120.418183,23.25505,0.0 120.41801,23.255183,0.0 120.417997,23.255311,0.0 120.418024,23.255695,0.0 120.418077,23.255966,0.0 120.417906,23.256259,0.0 120.417701,23.256344,0.0 120.417199,23.256223,0.0 120.417122,23.256267,0.0 120.417015,23.256392,0.0 120.416953,23.256485,0.0 120.416919,23.256556,0.0 120.41686,23.256734,0.0 120.416785,23.256871,0.0 120.416734,23.256924,0.0 120.416447,23.257034,0.0 120.416195,23.257121,0.0 120.416078,23.257123,0.0 120.415997,23.257095,0.0 120.415777,23.257015,0.0 120.415613,23.257021,0.0 120.415165,23.257216,0.0 120.414986,23.257291,0.0 120.414873,23.257386,0.0 120.414769,23.257615,0.0 120.414619,23.257765,0.0 120.414455,23.257913,0.0 120.41429,23.258116,0.0 120.414064,23.258376,0.0 120.413757,23.258561,0.0 120.413623,23.258634,0.0 120.413569,23.258748,0.0 120.413558,23.259021,0.0 120.413575,23.25923,0.0 120.413582,23.259413,0.0 120.413564,23.259864,0.0 120.413522,23.259977,0.0 120.413339,23.260314,0.0 120.413206,23.260483,0.0 120.412869,23.260737,0.0 120.412672,23.260922,0.0 120.412517,23.261115,0.0 120.41249,23.261236,0.0 120.412475,23.261497,0.0 120.41251,23.261692,0.0 120.412585,23.26187,0.0 120.412677,23.262359,0.0 120.412729,23.262561,0.0 120.412681,23.262956,0.0 120.412588,23.263073,0.0 120.412374,23.263176,0.0 120.412047,23.263212,0.0 120.41174,23.263238,0.0 120.411407,23.263227,0.0 120.411309,23.263251,0.0 120.411089,23.263459,0.0 120.410801,23.263503,0.0 120.410531,23.263514,0.0 120.410346,23.263592,0.0 120.410209,23.263697,0.0 120.410019,23.263759,0.0 120.40972,23.263665,0.0 120.409489,23.26342,0.0 120.409296,23.263249,0.0 120.409147,23.263292,0.0 120.408816,23.263676,0.0 120.408667,23.263742,0.0 120.408574,23.263738,0.0 120.408336,23.263606,0.0 120.408048,23.263517,0.0 120.407575,23.263399,0.0 120.40747,23.263373,0.0 120.407334,23.263298,0.0 120.407119,23.263096,0.0 120.406932,23.263065,0.0 120.406728,23.263083,0.0 120.406572,23.263034,0.0 120.406414,23.262905,0.0 120.406232,23.262669,0.0 120.406059,23.262533,0.0 120.405778,23.26248,0.0 120.405474,23.262587,0.0 120.405184,23.262756,0.0 120.404723,23.262917,0.0 120.404563,23.26297,0.0 120.404418,23.263065,0.0 120.404222,23.263154,0.0 120.404135,23.263172,0.0 120.404063,23.263182,0.0 120.403763,23.263247,0.0 120.403293,23.263326,0.0 120.402792,23.263421,0.0 120.402453,23.263583,0.0 120.401925,23.263911,0.0 120.40148,23.264063,0.0 120.401275,23.264181,0.0 120.400914,23.264915,0.0 120.400888,23.265005,0.0 120.40085,23.265167,0.0 120.400774,23.265285,0.0 120.40063,23.265381,0.0 120.400453,23.265383,0.0 120.400319,23.26533,0.0 120.400142,23.26521,0.0 120.399937,23.264913,0.0 120.39985,23.26473,0.0 120.399757,23.264546,0.0 120.399605,23.264343,0.0 120.399407,23.264198,0.0 120.399094,23.264108,0.0 120.398737,23.264128,0.0 120.398442,23.264165,0.0 120.397845,23.263991,0.0 120.397603,23.263897,0.0 120.397282,23.263676,0.0 120.397021,23.263413,0.0 120.396911,23.263261,0.0 120.396773,23.26316,0.0 120.396697,23.26314,0.0 120.396596,23.263141,0.0 120.395817,23.262988,0.0 120.395238,23.263466,0.0 120.394758,23.264061,0.0 120.394334,23.264527,0.0 120.393981,23.264993,0.0 120.393628,23.265264,0.0 120.393538,23.265547,0.0 120.393499,23.265979,0.0 120.393261,23.26637,0.0 120.393159,23.266371,0.0 120.392956,23.265982,0.0 120.392691,23.265461,0.0 120.392564,23.265419,0.0 120.392076,23.265438,0.0 120.391833,23.265447,0.0 120.391161,23.265355,0.0 120.390694,23.265274,0.0 120.390482,23.265195,0.0 120.39046,23.265115,0.0 120.390554,23.265018,0.0 120.390526,23.264979,0.0 120.390222,23.264964,0.0 120.389988,23.264989,0.0 120.390061,23.265121,0.0 120.390557,23.265419,0.0 120.390953,23.265658,0.0 120.391484,23.266262,0.0 120.391747,23.266501,0.0 120.391985,23.266644,0.0 120.392383,23.266783,0.0 120.392687,23.266932,0.0 120.392966,23.267181,0.0 120.39323,23.267345,0.0 120.393438,23.267539,0.0 120.393578,23.267926,0.0 120.3934,23.267997,0.0 120.393258,23.268039,0.0 120.39308,23.268072,0.0 120.392915,23.268075,0.0 120.392727,23.268083,0.0 120.392622,23.268116,0.0 120.392538,23.26817,0.0 120.392452,23.268271,0.0 120.392375,23.268342,0.0 120.392197,23.268299,0.0 120.392028,23.268289,0.0 120.391841,23.268301,0.0 120.39182,23.268306,0.0 120.391684,23.268362,0.0 120.391556,23.268434,0.0 120.391418,23.268525,0.0 120.391266,23.268641,0.0 120.391143,23.268762,0.0 120.391045,23.268905,0.0 120.390966,23.269124,0.0 120.390838,23.269357,0.0 120.390675,23.269857,0.0 120.390607,23.26997,0.0 120.390449,23.270147,0.0 120.390299,23.270305,0.0 120.390163,23.270518,0.0 120.390029,23.270726,0.0 120.389871,23.271038,0.0 120.389782,23.271289,0.0 120.38967,23.271787,0.0 120.389563,23.272429,0.0 120.389535,23.272592,0.0 120.389482,23.272897,0.0 120.389293,23.273864,0.0 120.389298,23.27455,0.0 120.389448,23.27592,0.0 120.389633,23.276289,0.0 120.389783,23.276344,0.0 120.390151,23.27635,0.0 120.39052,23.276299,0.0 120.391534,23.275908,0.0 120.391681,23.275887,0.0 120.391924,23.275954,0.0 120.392402,23.276413,0.0 120.393266,23.276979,0.0 120.393736,23.277425,0.0 120.394016,23.277816,0.0 120.394268,23.278755,0.0 120.394315,23.279356,0.0 120.39431,23.280258,0.0 120.394063,23.280908,0.0 120.393601,23.282205,0.0 120.393502,23.282593,0.0 120.393173,23.284187,0.0 120.392965,23.285042,0.0 120.392778,23.285311,0.0 120.39214,23.286257,0.0 120.391922,23.28667,0.0 120.391388,23.287425,0.0 120.390071,23.288192,0.0 120.389702,23.28835,0.0 120.388848,23.288998,0.0 120.387933,23.289478,0.0 120.387442,23.289746,0.0</coordinates></LinearRing></outerBoundaryIs></Polygon><styleUrl>#spolygon-map</styleUrl></Placemark><Placemark><Polygon><outerBoundaryIs><LinearRing><coordinates>120.365464,23.285344,0.0 120.365374,23.285344,0.0 120.365299,23.285353,0.0 120.363657,23.28557,0.0 120.360726,23.28595,0.0 120.360068,23.286014,0.0 120.359265,23.28608,0.0 120.358938,23.286097,0.0 120.358029,23.286075,0.0 120.357018,23.286058,0.0 120.356889,23.286076,0.0 120.356676,23.286118,0.0 120.356162,23.286271,0.0 120.354217,23.286817,0.0 120.352964,23.28715,0.0 120.352008,23.287418,0.0 120.350755,23.287755,0.0 120.349345,23.288379,0.0 120.348659,23.288692,0.0 120.346737,23.289523,0.0 120.344763,23.290285,0.0 120.34416,23.290564,0.0 120.344365,23.289445,0.0 120.344414,23.289181,0.0 120.344498,23.288786,0.0 120.344806,23.287254,0.0 120.345458,23.283656,0.0 120.346112,23.279966,0.0 120.346371,23.277762,0.0 120.346456,23.276924,0.0 120.346593,23.274676,0.0 120.346608,23.273444,0.0 120.346572,23.271299,0.0 120.34652,23.269061,0.0 120.34674,23.269111,0.0 120.347065,23.269051,0.0 120.347431,23.268971,0.0 120.347724,23.269019,0.0 120.348272,23.268644,0.0 120.348436,23.268621,0.0 120.349216,23.268587,0.0 120.349675,23.268567,0.0 120.349911,23.268596,0.0 120.350132,23.268686,0.0 120.350677,23.268949,0.0 120.351338,23.268662,0.0 120.351649,23.268533,0.0 120.352538,23.268167,0.0 120.353128,23.268011,0.0 120.353467,23.2678,0.0 120.353939,23.267374,0.0 120.354139,23.267278,0.0 120.354319,23.267313,0.0 120.354524,23.267404,0.0 120.354989,23.267336,0.0 120.355975,23.267155,0.0 120.356619,23.267076,0.0 120.357374,23.266977,0.0 120.357845,23.266914,0.0 120.358105,23.267254,0.0 120.358568,23.267388,0.0 120.36114,23.267878,0.0 120.361773,23.267905,0.0 120.362102,23.267938,0.0 120.362187,23.267957,0.0 120.362381,23.268356,0.0 120.362477,23.268571,0.0 120.362719,23.268777,0.0 120.362903,23.268862,0.0 120.364074,23.269228,0.0 120.364436,23.269284,0.0 120.365004,23.269466,0.0 120.365133,23.269586,0.0 120.365496,23.270064,0.0 120.365698,23.270176,0.0 120.365845,23.27022,0.0 120.365989,23.27022,0.0 120.366204,23.270142,0.0 120.366458,23.269999,0.0 120.366647,23.269908,0.0 120.366729,23.269901,0.0 120.366793,23.269909,0.0 120.367181,23.270019,0.0 120.367282,23.270044,0.0 120.3674,23.270082,0.0 120.367532,23.270118,0.0 120.367687,23.270154,0.0 120.368144,23.270296,0.0 120.368266,23.270305,0.0 120.36839,23.270293,0.0 120.368491,23.27023,0.0 120.368653,23.27008,0.0 120.368768,23.26995,0.0 120.368845,23.269855,0.0 120.368888,23.269826,0.0 120.368947,23.269806,0.0 120.369052,23.269777,0.0 120.369304,23.26972,0.0 120.369438,23.269693,0.0 120.369719,23.269624,0.0 120.36994,23.269564,0.0 120.370113,23.269525,0.0 120.370605,23.269539,0.0 120.370682,23.269539,0.0 120.37127,23.269527,0.0 120.372155,23.269509,0.0 120.372248,23.269521,0.0 120.373262,23.269743,0.0 120.373317,23.269801,0.0 120.373594,23.270284,0.0 120.373697,23.270364,0.0 120.373856,23.270401,0.0 120.374312,23.270502,0.0 120.374589,23.270488,0.0 120.37561,23.270322,0.0 120.375943,23.270303,0.0 120.376301,23.270255,0.0 120.377333,23.270116,0.0 120.377457,23.270124,0.0 120.377546,23.270141,0.0 120.377609,23.270185,0.0 120.37767,23.270255,0.0 120.37772,23.270327,0.0 120.377767,23.270402,0.0 120.377846,23.270525,0.0 120.377942,23.270664,0.0 120.378012,23.270748,0.0 120.378048,23.270775,0.0 120.378098,23.270801,0.0 120.378145,23.270813,0.0 120.37821,23.270825,0.0 120.378265,23.270825,0.0 120.378372,23.27081,0.0 120.378601,23.270798,0.0 120.378856,23.270798,0.0 120.379008,23.270815,0.0 120.379238,23.270853,0.0 120.379614,23.270885,0.0 120.379815,23.270911,0.0 120.380049,23.270948,0.0 120.380369,23.270994,0.0 120.380612,23.271033,0.0 120.380738,23.271059,0.0 120.380866,23.271078,0.0 120.381046,23.271107,0.0 120.381444,23.271177,0.0 120.381733,23.271224,0.0 120.382176,23.271305,0.0 120.382401,23.271347,0.0 120.382387,23.271419,0.0 120.382334,23.271685,0.0 120.382283,23.271935,0.0 120.382226,23.272234,0.0 120.382164,23.272594,0.0 120.382083,23.273019,0.0 120.382029,23.273292,0.0 120.382022,23.273333,0.0 120.381962,23.273614,0.0 120.381895,23.274023,0.0 120.381869,23.27418,0.0 120.381836,23.274384,0.0 120.381806,23.274634,0.0 120.381797,23.274906,0.0 120.381819,23.275199,0.0 120.38186,23.27556,0.0 120.38188,23.275741,0.0 120.381884,23.27578,0.0 120.381991,23.276425,0.0 120.382047,23.276763,0.0 120.382153,23.277408,0.0 120.382209,23.277746,0.0 120.382254,23.278017,0.0 120.382304,23.278321,0.0 120.382379,23.278766,0.0 120.382556,23.279806,0.0 120.382624,23.28021,0.0 120.382747,23.280919,0.0 120.382782,23.281124,0.0 120.382871,23.281399,0.0 120.383045,23.281598,0.0 120.383494,23.281726,0.0 120.383481,23.281991,0.0 120.383439,23.282758,0.0 120.383415,23.283257,0.0 120.383406,23.283479,0.0 120.38339,23.283671,0.0 120.38338,23.283916,0.0 120.383332,23.284669,0.0 120.383277,23.285938,0.0 120.383239,23.286647,0.0 120.383053,23.286673,0.0 120.381511,23.286852,0.0 120.378156,23.287251,0.0 120.378129,23.287259,0.0 120.378024,23.286524,0.0 120.377815,23.285114,0.0 120.377772,23.284799,0.0 120.37714,23.284931,0.0 120.374247,23.28549,0.0 120.373603,23.285614,0.0 120.373544,23.285337,0.0 120.373389,23.284595,0.0 120.373362,23.284601,0.0 120.372311,23.284794,0.0 120.371429,23.284971,0.0 120.370431,23.285156,0.0 120.370286,23.284181,0.0 120.370255,23.284124,0.0 120.370148,23.283789,0.0 120.370036,23.283349,0.0 120.369949,23.282963,0.0 120.369849,23.282509,0.0 120.36983,23.282422,0.0 120.369803,23.282291,0.0 120.369585,23.281288,0.0 120.369571,23.281237,0.0 120.369441,23.280673,0.0 120.369349,23.28034,0.0 120.369259,23.27994,0.0 120.368973,23.278667,0.0 120.368836,23.278067,0.0 120.368323,23.277133,0.0 120.366067,23.277574,0.0 120.364134,23.277952,0.0 120.363406,23.279255,0.0 120.363449,23.279465,0.0 120.363736,23.280933,0.0 120.363881,23.28139,0.0 120.364145,23.282081,0.0 120.364547,23.283099,0.0 120.365022,23.284281,0.0 120.365464,23.285344,0.0</coordinates></LinearRing></outerBoundaryIs></Polygon><styleUrl>#spolygon-map</styleUrl></Placemark><Placemark><Polygon><outerBoundaryIs><LinearRing><coordinates>120.322783,23.289171,0.0 120.32281,23.29282,0.0 120.322562,23.294114,0.0 120.3223,23.294951,0.0 120.321936,23.296117,0.0 120.308043,23.295789,0.0 120.305137,23.29572,0.0 120.299386,23.295258,0.0 120.294062,23.293918,0.0 120.29054,23.29084,0.0 120.289238,23.287697,0.0 120.291131,23.279572,0.0 120.291203,23.279153,0.0 120.293524,23.279147,0.0 120.295389,23.279212,0.0 120.295992,23.279354,0.0 120.296209,23.279017,0.0 120.296511,23.278919,0.0 120.296963,23.279,0.0 120.300593,23.282093,0.0 120.300674,23.282182,0.0 120.302588,23.284169,0.0 120.303138,23.28476,0.0 120.30345,23.285169,0.0 120.303998,23.284781,0.0 120.304457,23.284772,0.0 120.305485,23.28477,0.0 120.306305,23.28475,0.0 120.306313,23.28551,0.0 120.306342,23.286662,0.0 120.306358,23.286736,0.0 120.306988,23.28678,0.0 120.307494,23.286702,0.0 120.308043,23.286531,0.0 120.308342,23.286501,0.0 120.308539,23.286537,0.0 120.308847,23.286719,0.0 120.309089,23.28679,0.0 120.309383,23.286752,0.0 120.309791,23.286492,0.0 120.310364,23.286094,0.0 120.310737,23.286032,0.0 120.310934,23.286118,0.0 120.311297,23.286395,0.0 120.311465,23.286569,0.0 120.311953,23.286891,0.0 120.312241,23.287019,0.0 120.312481,23.287065,0.0 120.312694,23.287181,0.0 120.312829,23.287341,0.0 120.313398,23.28771,0.0 120.313547,23.287734,0.0 120.313907,23.287652,0.0 120.314126,23.287662,0.0 120.314326,23.287766,0.0 120.31456,23.287861,0.0 120.315137,23.288006,0.0 120.315284,23.288075,0.0 120.315416,23.288238,0.0 120.315609,23.288305,0.0 120.316383,23.288394,0.0 120.316795,23.288419,0.0 120.317336,23.288555,0.0 120.317595,23.288568,0.0 120.317937,23.288517,0.0 120.318516,23.288204,0.0 120.318634,23.288174,0.0 120.31874,23.28821,0.0 120.31913,23.28841,0.0 120.319223,23.288391,0.0 120.319497,23.288041,0.0 120.319758,23.287997,0.0 120.321121,23.288276,0.0 120.321635,23.288417,0.0 120.322094,23.288794,0.0 120.322627,23.289088,0.0 120.322783,23.289171,0.0</coordinates></LinearRing></outerBoundaryIs></Polygon><styleUrl>#spolygon-map</styleUrl></Placemark><Placemark><Polygon><outerBoundaryIs><LinearRing><coordinates>120.367422,23.297662,0.0 120.367207,23.297943,0.0 120.366925,23.298247,0.0 120.366845,23.298334,0.0 120.366797,23.298435,0.0 120.366701,23.298532,0.0 120.366474,23.298632,0.0 120.366377,23.298652,0.0 120.366136,23.298667,0.0 120.365912,23.298651,0.0 120.36594,23.298357,0.0 120.366194,23.297241,0.0 120.366291,23.296058,0.0 120.366323,23.295194,0.0 120.366343,23.294553,0.0 120.366344,23.2938,0.0 120.366646,23.293756,0.0 120.367364,23.29363,0.0 120.367408,23.293581,0.0 120.367416,23.293274,0.0 120.367405,23.2925,0.0 120.367403,23.292428,0.0 120.36738,23.291535,0.0 120.367376,23.291089,0.0 120.367354,23.29063,0.0 120.367205,23.290518,0.0 120.367018,23.290394,0.0 120.36695,23.290188,0.0 120.366793,23.289447,0.0 120.366829,23.289424,0.0 120.367548,23.289428,0.0 120.368347,23.289434,0.0 120.368634,23.289436,0.0 120.36865,23.28941,0.0 120.368654,23.288429,0.0 120.368149,23.288496,0.0 120.368021,23.288348,0.0 120.367986,23.288121,0.0 120.367901,23.287601,0.0 120.367821,23.287229,0.0 120.367793,23.287205,0.0 120.36773,23.287016,0.0 120.367658,23.286732,0.0 120.367632,23.285843,0.0 120.367622,23.284907,0.0 120.366555,23.28518,0.0 120.365572,23.285346,0.0 120.365375,23.285192,0.0 120.364965,23.284134,0.0 120.364477,23.282926,0.0 120.36412,23.282012,0.0 120.363816,23.281222,0.0 120.363696,23.280637,0.0 120.363412,23.279281,0.0 120.363172,23.278138,0.0 120.36587,23.277611,0.0 120.366965,23.277406,0.0 120.368607,23.27708,0.0 120.368911,23.2784,0.0 120.369197,23.279663,0.0 120.369339,23.280298,0.0 120.36943,23.280632,0.0 120.369511,23.280968,0.0 120.369578,23.281264,0.0 120.369696,23.281782,0.0 120.369814,23.282341,0.0 120.36984,23.282468,0.0 120.369922,23.282831,0.0 120.370026,23.283335,0.0 120.370045,23.28336,0.0 120.3702,23.284022,0.0 120.370261,23.284135,0.0 120.370426,23.285131,0.0 120.370462,23.28515,0.0 120.371952,23.284873,0.0 120.372732,23.284715,0.0 120.373381,23.284597,0.0 120.37346,23.284935,0.0 120.373599,23.285593,0.0 120.373755,23.285585,0.0 120.375786,23.28519,0.0 120.377738,23.284816,0.0 120.377772,23.284825,0.0 120.377913,23.285818,0.0 120.378103,23.287078,0.0 120.378142,23.287256,0.0 120.37961,23.287087,0.0 120.382602,23.286725,0.0 120.383238,23.286654,0.0 120.383203,23.287093,0.0 120.383156,23.287939,0.0 120.383156,23.28844,0.0 120.383222,23.289825,0.0 120.381454,23.289376,0.0 120.380574,23.289152,0.0 120.379513,23.28878,0.0 120.379106,23.288758,0.0 120.378203,23.289074,0.0 120.376381,23.289638,0.0 120.373157,23.291036,0.0 120.372195,23.291594,0.0 120.371693,23.291766,0.0 120.371532,23.291842,0.0 120.371279,23.292061,0.0 120.371106,23.29224,0.0 120.370887,23.292497,0.0 120.370737,23.292727,0.0 120.370593,23.292964,0.0 120.370479,23.29313,0.0 120.370295,23.293382,0.0 120.369488,23.294511,0.0 120.369374,23.294778,0.0 120.369317,23.295034,0.0 120.369286,23.295278,0.0 120.369201,23.295502,0.0 120.369036,23.295734,0.0 120.36891,23.295873,0.0 120.368508,23.296232,0.0 120.367422,23.297662,0.0</coordinates></LinearRing></outerBoundaryIs></Polygon><styleUrl>#spolygon-map</styleUrl></Placemark><Placemark><Polygon><outerBoundaryIs><LinearRing><coordinates>120.365872,23.298645,0.0 120.365742,23.298619,0.0 120.365568,23.298566,0.0 120.365404,23.298468,0.0 120.364099,23.297832,0.0 120.363345,23.297486,0.0 120.362374,23.297091,0.0 120.361522,23.296968,0.0 120.361048,23.296967,0.0 120.358044,23.29753,0.0 120.357696,23.297673,0.0 120.356682,23.298333,0.0 120.356413,23.298552,0.0 120.356259,23.298802,0.0 120.356199,23.299048,0.0 120.355737,23.30176,0.0 120.354081,23.302853,0.0 120.352144,23.304197,0.0 120.351439,23.304448,0.0 120.35069,23.304495,0.0 120.350116,23.304357,0.0 120.349921,23.304221,0.0 120.343984,23.298462,0.0 120.342895,23.297692,0.0 120.343039,23.29651,0.0 120.343173,23.295792,0.0 120.343496,23.294051,0.0 120.343716,23.292803,0.0 120.343732,23.29277,0.0 120.344011,23.291346,0.0 120.344763,23.290285,0.0 120.346737,23.289523,0.0 120.348659,23.288692,0.0 120.349345,23.288379,0.0 120.350755,23.287755,0.0 120.352008,23.287418,0.0 120.352964,23.28715,0.0 120.354217,23.286817,0.0 120.356162,23.286271,0.0 120.356676,23.286118,0.0 120.356889,23.286076,0.0 120.357018,23.286058,0.0 120.358029,23.286075,0.0 120.358938,23.286097,0.0 120.359265,23.28608,0.0 120.360068,23.286014,0.0 120.360726,23.28595,0.0 120.363657,23.28557,0.0 120.365299,23.285353,0.0 120.365374,23.285344,0.0 120.365464,23.285344,0.0 120.365826,23.285315,0.0 120.367073,23.285045,0.0 120.367664,23.284896,0.0 120.367627,23.285988,0.0 120.367666,23.286761,0.0 120.367776,23.287205,0.0 120.367804,23.287206,0.0 120.367866,23.287437,0.0 120.367925,23.287713,0.0 120.367987,23.288132,0.0 120.368047,23.288509,0.0 120.368345,23.28847,0.0 120.368653,23.288792,0.0 120.368651,23.289436,0.0 120.368617,23.289437,0.0 120.368071,23.289432,0.0 120.367261,23.289427,0.0 120.366786,23.28941,0.0 120.366881,23.289907,0.0 120.366974,23.290288,0.0 120.367072,23.290443,0.0 120.367232,23.290538,0.0 120.367373,23.290725,0.0 120.367378,23.291363,0.0 120.3674,23.292128,0.0 120.367404,23.292463,0.0 120.367412,23.292958,0.0 120.36742,23.293554,0.0 120.367392,23.293606,0.0 120.367362,23.293632,0.0 120.366591,23.293764,0.0 120.366336,23.294206,0.0 120.366339,23.29497,0.0 120.366303,23.295482,0.0 120.366269,23.296737,0.0 120.366111,23.29765,0.0 120.365872,23.298645,0.0</coordinates></LinearRing></outerBoundaryIs></Polygon><styleUrl>#spolygon-map</styleUrl></Placemark><Placemark><Polygon><outerBoundaryIs><LinearRing><coordinates>120.342815,23.297647,0.0 120.340429,23.296354,0.0 120.338611,23.296064,0.0 120.33587,23.296871,0.0 120.334074,23.298333,0.0 120.333044,23.299526,0.0 120.331468,23.303568,0.0 120.32668,23.304765,0.0 120.32517,23.301627,0.0 120.32463,23.297684,0.0 120.323763,23.29647,0.0 120.321936,23.296117,0.0 120.3223,23.294951,0.0 120.322562,23.294114,0.0 120.32281,23.29282,0.0 120.322783,23.289171,0.0 120.322698,23.282654,0.0 120.324086,23.282642,0.0 120.325291,23.28262,0.0 120.330706,23.281831,0.0 120.335207,23.281843,0.0 120.334368,23.280948,0.0 120.334061,23.280623,0.0 120.333723,23.280288,0.0 120.333283,23.279845,0.0 120.33284,23.279448,0.0 120.332991,23.279391,0.0 120.333046,23.279394,0.0 120.33598,23.279372,0.0 120.336318,23.279367,0.0 120.336587,23.279369,0.0 120.336785,23.279336,0.0 120.336779,23.27906,0.0 120.33632,23.277537,0.0 120.336027,23.276615,0.0 120.335751,23.276037,0.0 120.335488,23.275741,0.0 120.335191,23.275619,0.0 120.333451,23.275111,0.0 120.333545,23.273333,0.0 120.333561,23.273173,0.0 120.333591,23.271902,0.0 120.333637,23.271722,0.0 120.334335,23.27082,0.0 120.334438,23.270433,0.0 120.334017,23.269448,0.0 120.333786,23.268904,0.0 120.333845,23.268151,0.0 120.334064,23.267841,0.0 120.334465,23.26734,0.0 120.33455,23.266953,0.0 120.334812,23.265872,0.0 120.334921,23.265461,0.0 120.334924,23.264855,0.0 120.334952,23.26452,0.0 120.33597,23.264779,0.0 120.337092,23.265402,0.0 120.338217,23.266001,0.0 120.338431,23.266663,0.0 120.338819,23.267137,0.0 120.339438,23.267608,0.0 120.340753,23.268066,0.0 120.341321,23.268227,0.0 120.342543,23.268264,0.0 120.343225,23.268277,0.0 120.343535,23.268332,0.0 120.344261,23.268527,0.0 120.344694,23.268586,0.0 120.345412,23.268594,0.0 120.345627,23.268621,0.0 120.346423,23.269006,0.0 120.346588,23.271757,0.0 120.346602,23.273952,0.0 120.346521,23.27585,0.0 120.346375,23.277725,0.0 120.346348,23.277987,0.0 120.345658,23.28256,0.0 120.345249,23.284798,0.0 120.344698,23.287792,0.0 120.344488,23.288834,0.0 120.344395,23.289284,0.0 120.344179,23.290457,0.0 120.344158,23.290573,0.0 120.344007,23.291367,0.0 120.343715,23.292776,0.0 120.34372,23.292905,0.0 120.343279,23.295262,0.0 120.343148,23.295959,0.0 120.342815,23.297647,0.0</coordinates></LinearRing></outerBoundaryIs></Polygon><styleUrl>#spolygon-map</styleUrl></Placemark></Document>
</kml>
