<?xml version="1.0" encoding="UTF-8"?>
<kml xmlns="http://www.opengis.net/kml/2.2">
	<Document>
		<name>臺東縣長濱鄉</name>
		<Style id="spolygon">
			<LabelStyle>
				<scale>0.0</scale>
			</LabelStyle>
			<LineStyle>
				<color>330030ff</color>
				<width>0</width>
			</LineStyle>
			<PolyStyle>
				<color>330030ff</color>
			</PolyStyle>
		</Style>
		<StyleMap id="spolygon-map">
			<Pair>
				<key>normal</key>
				<styleUrl>#spolygon</styleUrl>
			</Pair>
		</StyleMap>
	<Placemark><Polygon><outerBoundaryIs><LinearRing><coordinates>121.418128,23.36054,0.0 121.418381,23.3605,0.0 121.418546,23.360473,0.0 121.418753,23.360443,0.0 121.418913,23.360415,0.0 121.419165,23.360433,0.0 121.419359,23.360441,0.0 121.419651,23.360393,0.0 121.419841,23.360339,0.0 121.419982,23.360293,0.0 121.420165,23.360283,0.0 121.420258,23.360282,0.0 121.420392,23.360281,0.0 121.420572,23.360294,0.0 121.420759,23.360271,0.0 121.421006,23.360226,0.0 121.421163,23.360184,0.0 121.421323,23.360173,0.0 121.421544,23.360165,0.0 121.421685,23.360152,0.0 121.421788,23.360141,0.0 121.422067,23.360132,0.0 121.42218,23.360125,0.0 121.422395,23.360114,0.0 121.42244,23.360112,0.0 121.4225,23.360103,0.0 121.422609,23.360078,0.0 121.422788,23.360028,0.0 121.422844,23.360007,0.0 121.422916,23.359947,0.0 121.42297,23.359876,0.0 121.422994,23.359806,0.0 121.423034,23.359702,0.0 121.423234,23.359696,0.0 121.427701,23.359958,0.0 121.428786,23.359716,0.0 121.429776,23.359474,0.0 121.43109,23.359274,0.0 121.4319,23.358793,0.0 121.435096,23.358274,0.0 121.436781,23.357536,0.0 121.437331,23.356979,0.0 121.437605,23.356484,0.0 121.43827,23.356123,0.0 121.438738,23.355462,0.0 121.438476,23.354788,0.0 121.438669,23.354309,0.0 121.439945,23.352432,0.0 121.440282,23.352182,0.0 121.441047,23.351873,0.0 121.442035,23.351091,0.0 121.442633,23.350476,0.0 121.442975,23.350258,0.0 121.443492,23.35016,0.0 121.444253,23.349408,0.0 121.445207,23.348611,0.0 121.445837,23.347604,0.0 121.446694,23.346839,0.0 121.447245,23.346343,0.0 121.447909,23.346185,0.0 121.448883,23.346038,0.0 121.449694,23.345825,0.0 121.450471,23.345448,0.0 121.450924,23.344998,0.0 121.451203,23.344498,0.0 121.451953,23.343717,0.0 121.452509,23.343165,0.0 121.453351,23.342668,0.0 121.45362,23.342317,0.0 121.454046,23.342068,0.0 121.454518,23.342335,0.0 121.455426,23.342423,0.0 121.456058,23.341701,0.0 121.45695,23.341714,0.0 121.459107,23.341362,0.0 121.459625,23.340778,0.0 121.460319,23.340593,0.0 121.461474,23.340502,0.0 121.462171,23.340319,0.0 121.462546,23.340977,0.0 121.463051,23.341247,0.0 121.463884,23.34112,0.0 121.464578,23.34107,0.0 121.465289,23.341046,0.0 121.465728,23.341254,0.0 121.46638,23.342031,0.0 121.467659,23.343134,0.0 121.467796,23.343411,0.0 121.46805,23.344814,0.0 121.468001,23.345542,0.0 121.468038,23.347375,0.0 121.468432,23.34822,0.0 121.468902,23.348997,0.0 121.469525,23.349887,0.0 121.469755,23.350758,0.0 121.469913,23.351417,0.0 121.470453,23.352083,0.0 121.47121,23.352397,0.0 121.47146,23.352674,0.0 121.471332,23.353284,0.0 121.470968,23.354174,0.0 121.470762,23.354568,0.0 121.470537,23.355257,0.0 121.470478,23.356097,0.0 121.470563,23.356603,0.0 121.47071,23.3573,0.0 121.471563,23.359453,0.0 121.472001,23.360398,0.0 121.47262,23.361809,0.0 121.472779,23.362865,0.0 121.472801,23.363325,0.0 121.472702,23.364348,0.0 121.472685,23.365466,0.0 121.472583,23.366001,0.0 121.472566,23.36687,0.0 121.472217,23.367714,0.0 121.471868,23.368631,0.0 121.471778,23.369474,0.0 121.471741,23.370896,0.0 121.471922,23.37213,0.0 121.472215,23.373226,0.0 121.472658,23.375471,0.0 121.472847,23.37634,0.0 121.47312,23.377314,0.0 121.473436,23.378853,0.0 121.473724,23.381259,0.0 121.473996,23.382041,0.0 121.474112,23.382596,0.0 121.474342,23.383293,0.0 121.474409,23.384584,0.0 121.474371,23.385472,0.0 121.474302,23.386562,0.0 121.474543,23.387422,0.0 121.475717,23.388411,0.0 121.476351,23.389166,0.0 121.476458,23.39015,0.0 121.476504,23.391314,0.0 121.476788,23.392528,0.0 121.476968,23.39374,0.0 121.4775,23.394885,0.0 121.477636,23.395182,0.0 121.478904,23.396601,0.0 121.479693,23.397,0.0 121.480863,23.397112,0.0 121.48116,23.39745,0.0 121.480533,23.399334,0.0 121.479895,23.399912,0.0 121.478934,23.401615,0.0 121.478417,23.402406,0.0 121.47812,23.402741,0.0 121.477737,23.402892,0.0 121.476897,23.40282,0.0 121.476534,23.402954,0.0 121.476379,23.40313,0.0 121.475626,23.40327,0.0 121.475038,23.403173,0.0 121.474353,23.402674,0.0 121.473978,23.402695,0.0 121.473592,23.402715,0.0 121.473159,23.402551,0.0 121.472762,23.402085,0.0 121.47262,23.401754,0.0 121.472412,23.401578,0.0 121.471858,23.401451,0.0 121.47146,23.401502,0.0 121.470958,23.401765,0.0 121.470788,23.401978,0.0 121.470583,23.402308,0.0 121.470202,23.402777,0.0 121.469153,23.403076,0.0 121.468672,23.40317,0.0 121.467794,23.403452,0.0 121.467107,23.40361,0.0 121.466403,23.403608,0.0 121.466043,23.40369,0.0 121.46566,23.403942,0.0 121.465366,23.404353,0.0 121.465121,23.405083,0.0 121.4649,23.405391,0.0 121.464133,23.405836,0.0 121.463464,23.406443,0.0 121.463212,23.406662,0.0 121.462971,23.406742,0.0 121.461915,23.406678,0.0 121.4611,23.406594,0.0 121.460868,23.406687,0.0 121.460755,23.406999,0.0 121.460886,23.407322,0.0 121.460942,23.407536,0.0 121.460769,23.407649,0.0 121.459769,23.407858,0.0 121.459237,23.407609,0.0 121.458012,23.406746,0.0 121.457034,23.406396,0.0 121.455428,23.406168,0.0 121.455158,23.406119,0.0 121.454884,23.406152,0.0 121.454751,23.406371,0.0 121.454664,23.406913,0.0 121.454373,23.407183,0.0 121.453841,23.407268,0.0 121.453342,23.407314,0.0 121.452835,23.407463,0.0 121.452722,23.407689,0.0 121.452802,23.408086,0.0 121.452719,23.408655,0.0 121.452448,23.409031,0.0 121.452131,23.409221,0.0 121.451682,23.409191,0.0 121.451313,23.409061,0.0 121.450925,23.409069,0.0 121.449763,23.409126,0.0 121.449277,23.409116,0.0 121.448607,23.409145,0.0 121.447657,23.409444,0.0 121.447295,23.409933,0.0 121.446982,23.410672,0.0 121.446447,23.411041,0.0 121.445735,23.411113,0.0 121.445018,23.410887,0.0 121.444204,23.410874,0.0 121.443339,23.41103,0.0 121.441883,23.411603,0.0 121.441372,23.411776,0.0 121.441101,23.411485,0.0 121.44054,23.411392,0.0 121.440165,23.41154,0.0 121.439564,23.411503,0.0 121.439023,23.411469,0.0 121.438542,23.411111,0.0 121.438039,23.410966,0.0 121.437242,23.410365,0.0 121.436812,23.409707,0.0 121.436491,23.409647,0.0 121.435409,23.409445,0.0 121.434808,23.408934,0.0 121.434472,23.408124,0.0 121.434009,23.407137,0.0 121.433977,23.406575,0.0 121.433451,23.405734,0.0 121.432978,23.405505,0.0 121.432376,23.40569,0.0 121.431828,23.405644,0.0 121.431569,23.405448,0.0 121.431435,23.404941,0.0 121.431839,23.403662,0.0 121.431934,23.402659,0.0 121.43093,23.401409,0.0 121.43059,23.399676,0.0 121.430209,23.398366,0.0 121.430245,23.397517,0.0 121.429866,23.397032,0.0 121.429803,23.396658,0.0 121.430197,23.396383,0.0 121.430114,23.395885,0.0 121.429416,23.395519,0.0 121.428674,23.39544,0.0 121.428178,23.395344,0.0 121.427821,23.395056,0.0 121.427325,23.394509,0.0 121.427322,23.393518,0.0 121.427494,23.393174,0.0 121.427245,23.392549,0.0 121.427144,23.392048,0.0 121.427365,23.391533,0.0 121.426692,23.389745,0.0 121.425825,23.389011,0.0 121.42497,23.387973,0.0 121.424154,23.387654,0.0 121.423636,23.387773,0.0 121.423043,23.387829,0.0 121.422361,23.387124,0.0 121.421978,23.386886,0.0 121.421575,23.386607,0.0 121.421555,23.386135,0.0 121.421949,23.385723,0.0 121.422461,23.385356,0.0 121.422156,23.384673,0.0 121.421782,23.383717,0.0 121.421461,23.383661,0.0 121.420634,23.383892,0.0 121.42009,23.383631,0.0 121.419644,23.383278,0.0 121.418743,23.383325,0.0 121.418138,23.383442,0.0 121.417891,23.38335,0.0 121.417852,23.383048,0.0 121.417876,23.382497,0.0 121.41728,23.381587,0.0 121.417033,23.381206,0.0 121.416648,23.380915,0.0 121.416116,23.380472,0.0 121.415126,23.38003,0.0 121.414692,23.380191,0.0 121.414226,23.380283,0.0 121.414064,23.380055,0.0 121.414288,23.37977,0.0 121.414482,23.379461,0.0 121.414085,23.3788,0.0 121.413614,23.378289,0.0 121.413399,23.377797,0.0 121.412894,23.37762,0.0 121.412784,23.377368,0.0 121.412757,23.376673,0.0 121.412373,23.376446,0.0 121.412064,23.376185,0.0 121.411957,23.37583,0.0 121.411924,23.374907,0.0 121.411017,23.37318,0.0 121.409335,23.370785,0.0 121.407836,23.36819,0.0 121.406739,23.366877,0.0 121.405249,23.366974,0.0 121.404795,23.366964,0.0 121.404864,23.366895,0.0 121.404995,23.366753,0.0 121.405153,23.366597,0.0 121.405298,23.36647,0.0 121.405412,23.366348,0.0 121.405549,23.366268,0.0 121.405729,23.366087,0.0 121.405839,23.3659,0.0 121.405909,23.365773,0.0 121.405986,23.365674,0.0 121.40608,23.365567,0.0 121.406216,23.365445,0.0 121.406409,23.365309,0.0 121.406536,23.365223,0.0 121.40674,23.365112,0.0 121.406849,23.365037,0.0 121.407096,23.364899,0.0 121.407224,23.364828,0.0 121.40743,23.364704,0.0 121.407581,23.364631,0.0 121.407822,23.364576,0.0 121.40802,23.364562,0.0 121.408156,23.364541,0.0 121.408264,23.364523,0.0 121.408324,23.364532,0.0 121.40847,23.364565,0.0 121.408632,23.364588,0.0 121.408706,23.364599,0.0 121.408829,23.364616,0.0 121.408991,23.364629,0.0 121.409135,23.36462,0.0 121.409247,23.364632,0.0 121.409332,23.364644,0.0 121.409424,23.364678,0.0 121.409475,23.364705,0.0 121.409634,23.364802,0.0 121.409786,23.364871,0.0 121.409891,23.364905,0.0 121.410035,23.364907,0.0 121.410107,23.364891,0.0 121.410269,23.364814,0.0 121.410366,23.364755,0.0 121.410423,23.364715,0.0 121.4106,23.364573,0.0 121.410742,23.364474,0.0 121.410842,23.364397,0.0 121.41088,23.364374,0.0 121.411051,23.364281,0.0 121.411195,23.36424,0.0 121.411421,23.36419,0.0 121.4116,23.364158,0.0 121.411772,23.364132,0.0 121.411943,23.3641,0.0 121.41205,23.364091,0.0 121.412377,23.364074,0.0 121.412564,23.364049,0.0 121.412663,23.364032,0.0 121.412828,23.363996,0.0 121.412965,23.36391,0.0 121.413068,23.363867,0.0 121.413198,23.36384,0.0 121.413401,23.363695,0.0 121.413555,23.363565,0.0 121.413713,23.363479,0.0 121.413857,23.363395,0.0 121.413981,23.363307,0.0 121.414069,23.363248,0.0 121.414153,23.363153,0.0 121.414229,23.363049,0.0 121.414382,23.36287,0.0 121.414486,23.362737,0.0 121.414598,23.362615,0.0 121.414759,23.362472,0.0 121.414868,23.362395,0.0 121.414967,23.362331,0.0 121.41516,23.362218,0.0 121.415357,23.362188,0.0 121.415489,23.362181,0.0 121.415655,23.362156,0.0 121.415751,23.361986,0.0 121.415859,23.361821,0.0 121.415968,23.361737,0.0 121.416088,23.361714,0.0 121.416251,23.361698,0.0 121.416343,23.361714,0.0 121.416425,23.361711,0.0 121.416575,23.361722,0.0 121.416694,23.361726,0.0 121.416776,23.361735,0.0 121.416924,23.361748,0.0 121.417013,23.361743,0.0 121.417091,23.361737,0.0 121.417141,23.36172,0.0 121.417243,23.361671,0.0 121.417324,23.361596,0.0 121.417419,23.361475,0.0 121.417493,23.361349,0.0 121.417558,23.361207,0.0 121.417623,23.361065,0.0 121.417695,23.36085,0.0 121.417816,23.360678,0.0 121.417915,23.360581,0.0 121.418095,23.360544,0.0 121.418128,23.36054,0.0</coordinates></LinearRing></outerBoundaryIs></Polygon><styleUrl>#spolygon-map</styleUrl></Placemark><Placemark><Polygon><outerBoundaryIs><LinearRing><coordinates>121.399756,23.323143,0.0 121.399746,23.323148,0.0 121.399553,23.32314,0.0 121.399447,23.323127,0.0 121.399343,23.32307,0.0 121.399072,23.322839,0.0 121.398945,23.322726,0.0 121.398803,23.322571,0.0 121.398552,23.322246,0.0 121.398374,23.322127,0.0 121.398131,23.321927,0.0 121.398006,23.321828,0.0 121.397879,23.321749,0.0 121.397744,23.321679,0.0 121.397677,23.321661,0.0 121.397505,23.321653,0.0 121.397275,23.321683,0.0 121.397073,23.321699,0.0 121.396847,23.321706,0.0 121.396671,23.321727,0.0 121.396501,23.321733,0.0 121.396262,23.32176,0.0 121.396221,23.321758,0.0 121.396139,23.321765,0.0 121.396029,23.321767,0.0 121.395875,23.321768,0.0 121.395737,23.321775,0.0 121.395622,23.321761,0.0 121.395526,23.321759,0.0 121.395368,23.321762,0.0 121.395138,23.321767,0.0 121.394937,23.321768,0.0 121.394723,23.321759,0.0 121.394508,23.32176,0.0 121.394396,23.321746,0.0 121.394196,23.321738,0.0 121.393985,23.321727,0.0 121.393784,23.321734,0.0 121.393549,23.321733,0.0 121.393416,23.321722,0.0 121.393334,23.321729,0.0 121.393185,23.321735,0.0 121.392995,23.321743,0.0 121.392905,23.321732,0.0 121.392764,23.321723,0.0 121.392537,23.321729,0.0 121.392514,23.321728,0.0 121.39231,23.321718,0.0 121.392145,23.321698,0.0 121.392049,23.321667,0.0 121.391958,23.321608,0.0 121.391897,23.321576,0.0 121.39185,23.321554,0.0 121.391773,23.321509,0.0 121.391519,23.321379,0.0 121.391307,23.321277,0.0 121.391154,23.321201,0.0 121.390955,23.321082,0.0 121.390794,23.320992,0.0 121.390533,23.320821,0.0 121.390485,23.320783,0.0 121.390399,23.320724,0.0 121.390322,23.320671,0.0 121.390292,23.320644,0.0 121.390216,23.320563,0.0 121.390125,23.320378,0.0 121.390078,23.320211,0.0 121.390082,23.320039,0.0 121.390136,23.319858,0.0 121.390192,23.319662,0.0 121.390217,23.319605,0.0 121.390243,23.319481,0.0 121.390273,23.319273,0.0 121.390289,23.319063,0.0 121.390293,23.318858,0.0 121.390297,23.318729,0.0 121.390312,23.318519,0.0 121.390311,23.318314,0.0 121.39032,23.318154,0.0 121.390331,23.317892,0.0 121.390334,23.317749,0.0 121.390344,23.317643,0.0 121.39032,23.317443,0.0 121.390308,23.317345,0.0 121.390291,23.31719,0.0 121.390251,23.317052,0.0 121.390202,23.316869,0.0 121.390186,23.316747,0.0 121.390161,23.31654,0.0 121.390153,23.316343,0.0 121.390152,23.316199,0.0 121.390134,23.315991,0.0 121.39012,23.31589,0.0 121.390089,23.315775,0.0 121.39002,23.315666,0.0 121.389937,23.315572,0.0 121.389838,23.315437,0.0 121.389688,23.315333,0.0 121.389576,23.315282,0.0 121.38949,23.315248,0.0 121.389379,23.315196,0.0 121.389255,23.315077,0.0 121.389209,23.315024,0.0 121.389095,23.314858,0.0 121.388984,23.314676,0.0 121.388961,23.314529,0.0 121.388978,23.31436,0.0 121.389027,23.314235,0.0 121.38906,23.314116,0.0 121.389081,23.313982,0.0 121.3891,23.313727,0.0 121.389083,23.313605,0.0 121.389048,23.313506,0.0 121.388948,23.313349,0.0 121.388922,23.31332,0.0 121.388841,23.313249,0.0 121.388755,23.313159,0.0 121.388577,23.312972,0.0 121.388457,23.312833,0.0 121.388368,23.312673,0.0 121.388327,23.312594,0.0 121.388271,23.312499,0.0 121.388223,23.312437,0.0 121.388114,23.312285,0.0 121.388029,23.312109,0.0 121.387948,23.311976,0.0 121.387882,23.311762,0.0 121.387857,23.311651,0.0 121.387828,23.311493,0.0 121.387803,23.311319,0.0 121.387804,23.311193,0.0 121.387813,23.311039,0.0 121.387837,23.310938,0.0 121.387868,23.310795,0.0 121.387869,23.310696,0.0 121.387815,23.310588,0.0 121.387784,23.310556,0.0 121.387692,23.3105,0.0 121.387536,23.310441,0.0 121.38745,23.310411,0.0 121.38733,23.310369,0.0 121.387199,23.310307,0.0 121.387061,23.310208,0.0 121.386996,23.310145,0.0 121.386915,23.309992,0.0 121.386839,23.309859,0.0 121.386798,23.309803,0.0 121.38673,23.30973,0.0 121.386593,23.309631,0.0 121.386438,23.309536,0.0 121.386337,23.309479,0.0 121.386239,23.30944,0.0 121.38612,23.309362,0.0 121.385974,23.309283,0.0 121.38591,23.309195,0.0 121.385827,23.309099,0.0 121.385797,23.309074,0.0 121.385637,23.308945,0.0 121.385576,23.308891,0.0 121.385506,23.308871,0.0 121.385393,23.30882,0.0 121.385209,23.308755,0.0 121.385024,23.308703,0.0 121.38479,23.308621,0.0 121.384744,23.308607,0.0 121.38461,23.308552,0.0 121.384526,23.30851,0.0 121.384383,23.308459,0.0 121.384215,23.308402,0.0 121.384097,23.308344,0.0 121.383949,23.308227,0.0 121.383756,23.308056,0.0 121.383675,23.307984,0.0 121.383578,23.307894,0.0 121.383491,23.307788,0.0 121.38336,23.307632,0.0 121.383251,23.30749,0.0 121.383146,23.307353,0.0 121.383123,23.307265,0.0 121.383024,23.307173,0.0 121.382913,23.307035,0.0 121.382845,23.306943,0.0 121.382755,23.306792,0.0 121.382674,23.30663,0.0 121.382598,23.306474,0.0 121.382449,23.306188,0.0 121.382396,23.30607,0.0 121.382347,23.305928,0.0 121.382297,23.305791,0.0 121.382258,23.3057,0.0 121.382216,23.305606,0.0 121.382148,23.305507,0.0 121.38199,23.305315,0.0 121.38176,23.305083,0.0 121.381526,23.304871,0.0 121.38141,23.304748,0.0 121.381312,23.304673,0.0 121.381121,23.304568,0.0 121.380964,23.304484,0.0 121.380673,23.304359,0.0 121.380623,23.304337,0.0 121.380495,23.304282,0.0 121.38036,23.304181,0.0 121.380201,23.303981,0.0 121.380026,23.30374,0.0 121.379899,23.303525,0.0 121.379764,23.30328,0.0 121.379674,23.303092,0.0 121.379612,23.302957,0.0 121.379456,23.302702,0.0 121.379387,23.302587,0.0 121.379314,23.302509,0.0 121.379231,23.302419,0.0 121.379131,23.302326,0.0 121.378957,23.30216,0.0 121.378875,23.302108,0.0 121.378621,23.301849,0.0 121.378549,23.301763,0.0 121.378445,23.301664,0.0 121.37831,23.3015,0.0 121.378229,23.301389,0.0 121.378115,23.301261,0.0 121.377971,23.301072,0.0 121.377878,23.300953,0.0 121.377841,23.300854,0.0 121.377831,23.300802,0.0 121.37784,23.300647,0.0 121.377878,23.300492,0.0 121.377944,23.300243,0.0 121.377988,23.300112,0.0 121.378062,23.299911,0.0 121.378124,23.299699,0.0 121.378151,23.299543,0.0 121.37818,23.299367,0.0 121.378155,23.299189,0.0 121.378121,23.298967,0.0 121.37807,23.298724,0.0 121.378004,23.298491,0.0 121.377955,23.298289,0.0 121.377942,23.298243,0.0 121.377891,23.298243,0.0 121.377896,23.298168,0.0 121.379311,23.29733,0.0 121.381328,23.297072,0.0 121.383537,23.296308,0.0 121.384399,23.295972,0.0 121.385303,23.296182,0.0 121.385754,23.296007,0.0 121.386534,23.294894,0.0 121.386994,23.294715,0.0 121.387365,23.294183,0.0 121.387669,23.293925,0.0 121.387716,23.292966,0.0 121.388103,23.29289,0.0 121.388374,23.292729,0.0 121.388587,23.292485,0.0 121.388828,23.292195,0.0 121.388836,23.291981,0.0 121.388736,23.291721,0.0 121.38871,23.29148,0.0 121.388726,23.291008,0.0 121.388987,23.29087,0.0 121.389147,23.290705,0.0 121.389432,23.290135,0.0 121.389542,23.289753,0.0 121.389811,23.289615,0.0 121.389929,23.289506,0.0 121.390137,23.289253,0.0 121.390508,23.289286,0.0 121.390803,23.289217,0.0 121.391345,23.288995,0.0 121.391402,23.28883,0.0 121.391389,23.288473,0.0 121.39145,23.288313,0.0 121.391729,23.288152,0.0 121.391956,23.288144,0.0 121.392134,23.28832,0.0 121.39228,23.288338,0.0 121.392385,23.288105,0.0 121.392333,23.287746,0.0 121.392484,23.287129,0.0 121.392819,23.286442,0.0 121.393042,23.286146,0.0 121.393267,23.286001,0.0 121.393612,23.285977,0.0 121.393825,23.286063,0.0 121.394219,23.286561,0.0 121.39441,23.286632,0.0 121.39465,23.286471,0.0 121.394956,23.285732,0.0 121.395138,23.285538,0.0 121.395329,23.285542,0.0 121.395479,23.285648,0.0 121.395641,23.285737,0.0 121.396001,23.285644,0.0 121.396273,23.285183,0.0 121.396501,23.285166,0.0 121.396883,23.285572,0.0 121.397297,23.285749,0.0 121.397533,23.285633,0.0 121.397655,23.285443,0.0 121.397701,23.285179,0.0 121.397633,23.28489,0.0 121.397446,23.284469,0.0 121.397566,23.284168,0.0 121.397888,23.284075,0.0 121.398487,23.283814,0.0 121.399253,23.283911,0.0 121.399504,23.283816,0.0 121.399576,23.283459,0.0 121.399452,23.28317,0.0 121.39941,23.282859,0.0 121.3995,23.282768,0.0 121.399875,23.282668,0.0 121.400128,23.282683,0.0 121.400388,23.282849,0.0 121.400602,23.282813,0.0 121.400757,23.282575,0.0 121.40082,23.282157,0.0 121.400971,23.282019,0.0 121.401239,23.281926,0.0 121.401533,23.281912,0.0 121.402002,23.282037,0.0 121.403322,23.282693,0.0 121.403634,23.282617,0.0 121.403783,23.282227,0.0 121.403674,23.28173,0.0 121.403878,23.281696,0.0 121.404305,23.28178,0.0 121.404936,23.282034,0.0 121.405261,23.281918,0.0 121.405632,23.281303,0.0 121.405961,23.280548,0.0 121.406399,23.279813,0.0 121.406535,23.279607,0.0 121.406826,23.279455,0.0 121.407007,23.279462,0.0 121.407309,23.279551,0.0 121.407714,23.279627,0.0 121.407868,23.279505,0.0 121.407844,23.27927,0.0 121.407567,23.278578,0.0 121.407553,23.278058,0.0 121.407815,23.277875,0.0 121.408124,23.277736,0.0 121.408255,23.277619,0.0 121.408259,23.277429,0.0 121.408072,23.277043,0.0 121.408058,23.276775,0.0 121.408093,23.276691,0.0 121.408304,23.276508,0.0 121.408384,23.276372,0.0 121.408501,23.276071,0.0 121.408591,23.275983,0.0 121.408741,23.275883,0.0 121.409113,23.275765,0.0 121.40951,23.275536,0.0 121.409743,23.275321,0.0 121.409778,23.274948,0.0 121.409686,23.274707,0.0 121.409049,23.274309,0.0 121.408683,23.273899,0.0 121.408546,23.273299,0.0 121.408551,23.272992,0.0 121.408621,23.272818,0.0 121.408894,23.27251,0.0 121.409219,23.272385,0.0 121.40963,23.272395,0.0 121.409934,23.272413,0.0 121.410188,23.272333,0.0 121.410261,23.272173,0.0 121.410242,23.271933,0.0 121.410315,23.271786,0.0 121.410604,23.271684,0.0 121.410903,23.271713,0.0 121.411106,23.271631,0.0 121.411302,23.271271,0.0 121.411828,23.270979,0.0 121.412005,23.270671,0.0 121.412394,23.270097,0.0 121.412934,23.269773,0.0 121.413245,23.269749,0.0 121.413484,23.269726,0.0 121.413601,23.269658,0.0 121.413674,23.269516,0.0 121.413801,23.269402,0.0 121.41405,23.269147,0.0 121.414196,23.268805,0.0 121.414305,23.26804,0.0 121.414387,23.267868,0.0 121.414489,23.267705,0.0 121.41464,23.267542,0.0 121.415087,23.267121,0.0 121.41524,23.267098,0.0 121.415351,23.267233,0.0 121.41529,23.267538,0.0 121.415181,23.267733,0.0 121.415213,23.268078,0.0 121.4153,23.268615,0.0 121.415371,23.268809,0.0 121.415544,23.268817,0.0 121.41567,23.26867,0.0 121.415929,23.268602,0.0 121.41611,23.268358,0.0 121.41625,23.268211,0.0 121.416418,23.268104,0.0 121.416777,23.268056,0.0 121.417379,23.268185,0.0 121.417471,23.268286,0.0 121.417564,23.268485,0.0 121.417828,23.268656,0.0 121.418565,23.268891,0.0 121.418811,23.269161,0.0 121.418981,23.269249,0.0 121.41934,23.269331,0.0 121.419781,23.269041,0.0 121.419909,23.268977,0.0 121.420063,23.26904,0.0 121.420292,23.269225,0.0 121.420905,23.269492,0.0 121.42101,23.269735,0.0 121.42078,23.270756,0.0 121.420666,23.271538,0.0 121.420752,23.271646,0.0 121.421182,23.271622,0.0 121.421482,23.271423,0.0 121.421802,23.270945,0.0 121.421994,23.270889,0.0 121.422438,23.270944,0.0 121.423113,23.271152,0.0 121.423309,23.271099,0.0 121.423472,23.270819,0.0 121.423854,23.270782,0.0 121.424228,23.27077,0.0 121.424425,23.270855,0.0 121.42486,23.271088,0.0 121.425132,23.271067,0.0 121.42577,23.271179,0.0 121.426109,23.271534,0.0 121.427005,23.272254,0.0 121.427253,23.272665,0.0 121.427498,23.273066,0.0 121.427477,23.273508,0.0 121.427346,23.273827,0.0 121.42729,23.274367,0.0 121.427766,23.278415,0.0 121.428358,23.281579,0.0 121.429036,23.283498,0.0 121.429486,23.284253,0.0 121.429944,23.285692,0.0 121.430318,23.286276,0.0 121.43147,23.287323,0.0 121.432154,23.287714,0.0 121.432703,23.288017,0.0 121.433025,23.288296,0.0 121.4331,23.289185,0.0 121.4332,23.289853,0.0 121.433708,23.291441,0.0 121.434466,23.292432,0.0 121.435983,23.294101,0.0 121.43663,23.295858,0.0 121.436895,23.296832,0.0 121.43585,23.29709,0.0 121.435281,23.296923,0.0 121.434804,23.29687,0.0 121.434693,23.297118,0.0 121.434642,23.297775,0.0 121.434339,23.297876,0.0 121.434061,23.29817,0.0 121.433933,23.298656,0.0 121.433223,23.299572,0.0 121.432565,23.299987,0.0 121.432147,23.300029,0.0 121.431996,23.299684,0.0 121.431811,23.29961,0.0 121.431508,23.299807,0.0 121.431075,23.30032,0.0 121.430508,23.300494,0.0 121.42969,23.300399,0.0 121.429239,23.300554,0.0 121.429388,23.301129,0.0 121.429403,23.301447,0.0 121.429311,23.301655,0.0 121.428994,23.301692,0.0 121.428514,23.301273,0.0 121.428335,23.30084,0.0 121.428044,23.300895,0.0 121.427736,23.30105,0.0 121.427264,23.301135,0.0 121.426604,23.300917,0.0 121.426396,23.300992,0.0 121.426403,23.301306,0.0 121.426149,23.30184,0.0 121.425922,23.302066,0.0 121.425737,23.302037,0.0 121.425635,23.301861,0.0 121.425623,23.301356,0.0 121.425067,23.301292,0.0 121.424632,23.301167,0.0 121.424398,23.301059,0.0 121.424125,23.301251,0.0 121.423922,23.301746,0.0 121.423719,23.301914,0.0 121.423449,23.301915,0.0 121.423198,23.301893,0.0 121.423047,23.301972,0.0 121.422931,23.302027,0.0 121.422728,23.301867,0.0 121.422649,23.30128,0.0 121.422345,23.301114,0.0 121.421959,23.30079,0.0 121.42166,23.300673,0.0 121.421497,23.300735,0.0 121.421366,23.300968,0.0 121.420652,23.301049,0.0 121.420498,23.301065,0.0 121.41968,23.301327,0.0 121.419174,23.30138,0.0 121.418563,23.301305,0.0 121.417565,23.300906,0.0 121.41736,23.300762,0.0 121.417217,23.300333,0.0 121.417054,23.300171,0.0 121.416704,23.300294,0.0 121.416107,23.300569,0.0 121.415865,23.300946,0.0 121.415925,23.301136,0.0 121.416085,23.3017,0.0 121.415933,23.302413,0.0 121.415476,23.302706,0.0 121.414549,23.302864,0.0 121.414194,23.302809,0.0 121.413885,23.3025,0.0 121.41345,23.302603,0.0 121.412793,23.30325,0.0 121.412648,23.303463,0.0 121.412819,23.303675,0.0 121.41363,23.303738,0.0 121.413812,23.303956,0.0 121.412702,23.304395,0.0 121.41219,23.304351,0.0 121.411821,23.304061,0.0 121.411116,23.304101,0.0 121.410565,23.304611,0.0 121.410337,23.305444,0.0 121.410293,23.305995,0.0 121.41074,23.306186,0.0 121.411012,23.30596,0.0 121.411168,23.305941,0.0 121.411856,23.306176,0.0 121.412055,23.306379,0.0 121.411857,23.306671,0.0 121.411694,23.306696,0.0 121.411297,23.306641,0.0 121.41104,23.30689,0.0 121.410824,23.307245,0.0 121.410496,23.307503,0.0 121.410111,23.307991,0.0 121.410349,23.308298,0.0 121.410389,23.308596,0.0 121.410018,23.308888,0.0 121.409122,23.308978,0.0 121.408722,23.309104,0.0 121.408897,23.309464,0.0 121.408901,23.309676,0.0 121.40882,23.309841,0.0 121.408781,23.310013,0.0 121.408832,23.310223,0.0 121.408942,23.311302,0.0 121.408825,23.311433,0.0 121.408911,23.31165,0.0 121.409053,23.311956,0.0 121.40899,23.312056,0.0 121.408716,23.312059,0.0 121.40837,23.311877,0.0 121.408252,23.311868,0.0 121.408065,23.311957,0.0 121.40791,23.312302,0.0 121.407955,23.312982,0.0 121.40752,23.313362,0.0 121.406397,23.314595,0.0 121.405758,23.315405,0.0 121.405498,23.315918,0.0 121.405494,23.316063,0.0 121.405495,23.316302,0.0 121.405287,23.31663,0.0 121.405103,23.316721,0.0 121.405054,23.316816,0.0 121.404892,23.317157,0.0 121.404429,23.317443,0.0 121.404294,23.317493,0.0 121.404093,23.317748,0.0 121.404071,23.317888,0.0 121.404109,23.31852,0.0 121.404046,23.318726,0.0 121.403446,23.319547,0.0 121.403301,23.319755,0.0 121.403308,23.319997,0.0 121.403284,23.320076,0.0 121.403119,23.320169,0.0 121.402829,23.320375,0.0 121.401561,23.321324,0.0 121.40008,23.322822,0.0 121.399756,23.323143,0.0</coordinates></LinearRing></outerBoundaryIs></Polygon><styleUrl>#spolygon-map</styleUrl></Placemark><Placemark><Polygon><outerBoundaryIs><LinearRing><coordinates>121.420174,23.353515,0.0 121.419869,23.353439,0.0 121.419694,23.353361,0.0 121.419515,23.353248,0.0 121.41947,23.353192,0.0 121.41939,23.353116,0.0 121.419272,23.352999,0.0 121.419123,23.352861,0.0 121.419035,23.352735,0.0 121.418955,23.352605,0.0 121.418892,23.352532,0.0 121.418777,23.352443,0.0 121.418605,23.352336,0.0 121.418536,23.352301,0.0 121.418403,23.352211,0.0 121.418356,23.352179,0.0 121.41831,23.35209,0.0 121.418252,23.351958,0.0 121.418173,23.351829,0.0 121.418139,23.351776,0.0 121.418121,23.351708,0.0 121.41808,23.351584,0.0 121.41804,23.351513,0.0 121.417956,23.351419,0.0 121.417849,23.35132,0.0 121.417727,23.35121,0.0 121.417631,23.351079,0.0 121.417475,23.350904,0.0 121.417363,23.350766,0.0 121.417285,23.350685,0.0 121.417195,23.350528,0.0 121.417108,23.35039,0.0 121.417084,23.350336,0.0 121.416957,23.350167,0.0 121.41688,23.350063,0.0 121.416852,23.350019,0.0 121.416796,23.349921,0.0 121.416804,23.349784,0.0 121.416803,23.349598,0.0 121.416811,23.349452,0.0 121.416729,23.349337,0.0 121.416633,23.349267,0.0 121.416481,23.34916,0.0 121.416316,23.349074,0.0 121.416276,23.349054,0.0 121.416226,23.349006,0.0 121.416115,23.34895,0.0 121.41607,23.348914,0.0 121.415914,23.348824,0.0 121.41581,23.348759,0.0 121.415609,23.348647,0.0 121.415459,23.348577,0.0 121.415319,23.348553,0.0 121.415128,23.34851,0.0 121.414926,23.348405,0.0 121.414848,23.348358,0.0 121.414698,23.348234,0.0 121.414616,23.348135,0.0 121.414517,23.348042,0.0 121.414474,23.347957,0.0 121.41446,23.347853,0.0 121.414438,23.347789,0.0 121.414404,23.347737,0.0 121.414324,23.34765,0.0 121.414232,23.34758,0.0 121.414145,23.347531,0.0 121.414061,23.347477,0.0 121.413973,23.347427,0.0 121.413792,23.347371,0.0 121.413577,23.347316,0.0 121.413462,23.347293,0.0 121.413415,23.347273,0.0 121.41327,23.347233,0.0 121.413064,23.347168,0.0 121.412849,23.347144,0.0 121.412684,23.347119,0.0 121.412436,23.347059,0.0 121.412317,23.347041,0.0 121.412127,23.346994,0.0 121.411853,23.346927,0.0 121.411709,23.346898,0.0 121.411545,23.346845,0.0 121.41142,23.346802,0.0 121.411301,23.346751,0.0 121.411123,23.346672,0.0 121.410948,23.346587,0.0 121.410653,23.346456,0.0 121.410419,23.346364,0.0 121.410175,23.346266,0.0 121.410142,23.346242,0.0 121.409996,23.34612,0.0 121.409842,23.346,0.0 121.40977,23.34594,0.0 121.409721,23.345892,0.0 121.409629,23.345703,0.0 121.409564,23.3455,0.0 121.409531,23.345301,0.0 121.409496,23.345107,0.0 121.409475,23.344981,0.0 121.409469,23.344969,0.0 121.409438,23.344886,0.0 121.409394,23.344769,0.0 121.40931,23.344638,0.0 121.40924,23.34448,0.0 121.409181,23.344327,0.0 121.409152,23.344255,0.0 121.409076,23.34407,0.0 121.40901,23.343917,0.0 121.408947,23.343772,0.0 121.408916,23.343743,0.0 121.408848,23.343604,0.0 121.408821,23.34354,0.0 121.408776,23.343468,0.0 121.408673,23.343251,0.0 121.408625,23.343157,0.0 121.40857,23.34308,0.0 121.408501,23.342937,0.0 121.408437,23.342825,0.0 121.408379,23.342715,0.0 121.408329,23.34264,0.0 121.408265,23.342538,0.0 121.408239,23.342522,0.0 121.408203,23.34251,0.0 121.408177,23.342504,0.0 121.408116,23.342491,0.0 121.408101,23.342485,0.0 121.408035,23.34246,0.0 121.407824,23.342382,0.0 121.407609,23.342265,0.0 121.407473,23.342137,0.0 121.407239,23.341921,0.0 121.407113,23.341765,0.0 121.406978,23.341529,0.0 121.40689,23.341333,0.0 121.406857,23.341127,0.0 121.406843,23.340969,0.0 121.406807,23.340865,0.0 121.406784,23.340674,0.0 121.406767,23.340509,0.0 121.4067,23.340236,0.0 121.406664,23.340033,0.0 121.406559,23.339762,0.0 121.406438,23.339553,0.0 121.406282,23.33935,0.0 121.406088,23.33914,0.0 121.406029,23.339061,0.0 121.405961,23.339016,0.0 121.405741,23.338834,0.0 121.405369,23.338567,0.0 121.405166,23.338411,0.0 121.404864,23.338204,0.0 121.40466,23.337995,0.0 121.40443,23.337777,0.0 121.404309,23.33765,0.0 121.404141,23.337477,0.0 121.403965,23.33731,0.0 121.403854,23.3372,0.0 121.403723,23.337027,0.0 121.403596,23.336858,0.0 121.40349,23.336693,0.0 121.403318,23.336463,0.0 121.403215,23.336299,0.0 121.403117,23.33608,0.0 121.403003,23.335787,0.0 121.402953,23.335606,0.0 121.402822,23.335264,0.0 121.402717,23.334975,0.0 121.402617,23.33474,0.0 121.402539,23.334589,0.0 121.402379,23.334337,0.0 121.402246,23.334111,0.0 121.402087,23.333895,0.0 121.402078,23.33385,0.0 121.402046,23.333665,0.0 121.401997,23.333399,0.0 121.401981,23.333189,0.0 121.401927,23.332892,0.0 121.401887,23.332724,0.0 121.401867,23.332629,0.0 121.40174,23.332411,0.0 121.401658,23.332262,0.0 121.401569,23.332161,0.0 121.401541,23.332124,0.0 121.401331,23.331838,0.0 121.401302,23.331813,0.0 121.401215,23.33169,0.0 121.401179,23.331626,0.0 121.401136,23.331486,0.0 121.40109,23.331338,0.0 121.401055,23.331141,0.0 121.40102,23.330979,0.0 121.40101,23.330787,0.0 121.400988,23.330597,0.0 121.400984,23.330525,0.0 121.400957,23.330367,0.0 121.40092,23.330105,0.0 121.400918,23.329983,0.0 121.400884,23.329821,0.0 121.400849,23.329589,0.0 121.400835,23.329496,0.0 121.400803,23.329417,0.0 121.400752,23.32914,0.0 121.400725,23.328957,0.0 121.400685,23.328691,0.0 121.400644,23.328494,0.0 121.400582,23.32833,0.0 121.400441,23.328016,0.0 121.40035,23.327813,0.0 121.400308,23.327585,0.0 121.400253,23.327378,0.0 121.4002,23.327206,0.0 121.40006,23.327069,0.0 121.39987,23.326963,0.0 121.399683,23.326828,0.0 121.399635,23.326652,0.0 121.39961,23.326472,0.0 121.399613,23.326296,0.0 121.39962,23.326011,0.0 121.399644,23.325803,0.0 121.399662,23.325614,0.0 121.399703,23.325365,0.0 121.39972,23.325128,0.0 121.399708,23.324821,0.0 121.399686,23.324636,0.0 121.399666,23.324411,0.0 121.399684,23.32425,0.0 121.399743,23.323993,0.0 121.3998,23.323758,0.0 121.399844,23.323561,0.0 121.399911,23.323324,0.0 121.399907,23.323155,0.0 121.399842,23.323137,0.0 121.399766,23.323144,0.0 121.399756,23.323143,0.0 121.40095,23.321838,0.0 121.40209,23.320883,0.0 121.403037,23.320212,0.0 121.403225,23.320112,0.0 121.403302,23.32004,0.0 121.403308,23.319897,0.0 121.403318,23.319721,0.0 121.403707,23.319054,0.0 121.404085,23.318638,0.0 121.404105,23.318417,0.0 121.404076,23.317823,0.0 121.404227,23.317552,0.0 121.404368,23.317459,0.0 121.404743,23.317279,0.0 121.404941,23.317092,0.0 121.405075,23.316759,0.0 121.405161,23.316682,0.0 121.405382,23.31647,0.0 121.405513,23.31621,0.0 121.40549,23.315964,0.0 121.405702,23.315516,0.0 121.405987,23.314942,0.0 121.406945,23.314095,0.0 121.407651,23.313211,0.0 121.407983,23.312925,0.0 121.407973,23.312067,0.0 121.408178,23.311886,0.0 121.408313,23.311868,0.0 121.40844,23.311881,0.0 121.408759,23.31207,0.0 121.409036,23.311992,0.0 121.409046,23.311816,0.0 121.408822,23.311532,0.0 121.40891,23.311365,0.0 121.408946,23.3106,0.0 121.408796,23.310119,0.0 121.408792,23.309912,0.0 121.40888,23.30974,0.0 121.408912,23.309582,0.0 121.408613,23.309205,0.0 121.408851,23.309058,0.0 121.409395,23.30891,0.0 121.410199,23.30879,0.0 121.410421,23.308465,0.0 121.410207,23.308145,0.0 121.410132,23.307883,0.0 121.410637,23.307351,0.0 121.410941,23.307116,0.0 121.411142,23.306729,0.0 121.411435,23.30662,0.0 121.41179,23.306696,0.0 121.411977,23.306625,0.0 121.411987,23.306253,0.0 121.411597,23.30603,0.0 121.411076,23.305944,0.0 121.410796,23.306161,0.0 121.410368,23.306128,0.0 121.410285,23.305808,0.0 121.410492,23.305006,0.0 121.410671,23.304432,0.0 121.411505,23.303992,0.0 121.41202,23.304144,0.0 121.412343,23.304405,0.0 121.413667,23.304063,0.0 121.413801,23.303846,0.0 121.413272,23.303703,0.0 121.412726,23.303578,0.0 121.412658,23.303409,0.0 121.413277,23.302865,0.0 121.413559,23.302553,0.0 121.413962,23.302545,0.0 121.414295,23.302867,0.0 121.415039,23.302834,0.0 121.415813,23.302542,0.0 121.41603,23.302104,0.0 121.416073,23.301449,0.0 121.415873,23.300982,0.0 121.415922,23.300734,0.0 121.416247,23.300399,0.0 121.416916,23.300167,0.0 121.417153,23.300229,0.0 121.417234,23.300487,0.0 121.417384,23.300802,0.0 121.418331,23.301107,0.0 121.418719,23.301377,0.0 121.419395,23.301339,0.0 121.420375,23.301137,0.0 121.420557,23.301053,0.0 121.421269,23.301018,0.0 121.421426,23.30083,0.0 121.421582,23.300687,0.0 121.421784,23.300689,0.0 121.422143,23.30095,0.0 121.422549,23.301206,0.0 121.422669,23.301684,0.0 121.422829,23.302009,0.0 121.42228,23.301877,0.0 121.421738,23.30173,0.0 121.42052,23.302401,0.0 121.420207,23.302666,0.0 121.420094,23.303091,0.0 121.420096,23.303278,0.0 121.420564,23.30406,0.0 121.421658,23.304848,0.0 121.42337,23.305764,0.0 121.424033,23.306315,0.0 121.424312,23.309213,0.0 121.424768,23.310185,0.0 121.426667,23.311078,0.0 121.428864,23.311395,0.0 121.429868,23.311467,0.0 121.431313,23.312391,0.0 121.432567,23.314381,0.0 121.433734,23.316935,0.0 121.434791,23.319847,0.0 121.435914,23.320128,0.0 121.437856,23.319511,0.0 121.439311,23.319424,0.0 121.440678,23.32009,0.0 121.442189,23.323028,0.0 121.443785,23.323949,0.0 121.44429,23.325374,0.0 121.444183,23.327914,0.0 121.446014,23.330421,0.0 121.44639,23.331134,0.0 121.447215,23.331384,0.0 121.447742,23.332284,0.0 121.448546,23.33232,0.0 121.448916,23.332504,0.0 121.449378,23.332459,0.0 121.449796,23.332856,0.0 121.45026,23.333482,0.0 121.450816,23.333934,0.0 121.451249,23.334359,0.0 121.452036,23.334542,0.0 121.45253,23.335067,0.0 121.452717,23.335466,0.0 121.453287,23.335577,0.0 121.453948,23.335149,0.0 121.455087,23.33489,0.0 121.456537,23.335197,0.0 121.457093,23.335665,0.0 121.457202,23.33615,0.0 121.457004,23.336747,0.0 121.456436,23.337175,0.0 121.455573,23.337392,0.0 121.454196,23.336918,0.0 121.453785,23.336914,0.0 121.453138,23.337142,0.0 121.452338,23.337515,0.0 121.451107,23.337775,0.0 121.451046,23.338087,0.0 121.451881,23.338898,0.0 121.451483,23.339766,0.0 121.451471,23.340718,0.0 121.45135,23.341488,0.0 121.451029,23.342158,0.0 121.450597,23.34299,0.0 121.451687,23.343903,0.0 121.451037,23.344758,0.0 121.45073,23.345224,0.0 121.450099,23.345659,0.0 121.449288,23.345962,0.0 121.448289,23.346114,0.0 121.447593,23.346274,0.0 121.446953,23.346492,0.0 121.446098,23.347308,0.0 121.445547,23.34816,0.0 121.444706,23.349016,0.0 121.443703,23.350023,0.0 121.443265,23.350205,0.0 121.442779,23.350356,0.0 121.44252,23.350776,0.0 121.441549,23.351364,0.0 121.440532,23.352094,0.0 121.440043,23.352341,0.0 121.43938,23.353153,0.0 121.438537,23.354546,0.0 121.438461,23.354998,0.0 121.438626,23.355822,0.0 121.43801,23.356169,0.0 121.437427,23.356635,0.0 121.43717,23.357205,0.0 121.436101,23.357971,0.0 121.432662,23.358597,0.0 121.431446,23.359124,0.0 121.430782,23.359381,0.0 121.429386,23.359534,0.0 121.428365,23.35985,0.0 121.424906,23.359894,0.0 121.423036,23.359691,0.0 121.423048,23.359526,0.0 121.423048,23.359375,0.0 121.423026,23.359185,0.0 121.42296,23.358978,0.0 121.422874,23.35877,0.0 121.422787,23.358632,0.0 121.42274,23.358527,0.0 121.42268,23.358349,0.0 121.42263,23.358145,0.0 121.422626,23.358046,0.0 121.422644,23.357922,0.0 121.422689,23.357789,0.0 121.422736,23.357577,0.0 121.422747,23.35743,0.0 121.422754,23.357285,0.0 121.422717,23.357116,0.0 121.422666,23.356975,0.0 121.422642,23.356886,0.0 121.422618,23.356807,0.0 121.422572,23.356645,0.0 121.422541,23.356423,0.0 121.422567,23.356227,0.0 121.422581,23.356155,0.0 121.422586,23.356028,0.0 121.422577,23.355859,0.0 121.422564,23.35578,0.0 121.422512,23.355629,0.0 121.42249,23.355576,0.0 121.422447,23.355471,0.0 121.422376,23.355318,0.0 121.422273,23.355092,0.0 121.422213,23.354975,0.0 121.422106,23.354862,0.0 121.422,23.35477,0.0 121.421829,23.354651,0.0 121.421645,23.354566,0.0 121.42147,23.354501,0.0 121.421437,23.354489,0.0 121.421318,23.354431,0.0 121.421209,23.354314,0.0 121.421064,23.354157,0.0 121.421003,23.354075,0.0 121.420917,23.353963,0.0 121.420873,23.35392,0.0 121.420785,23.35384,0.0 121.420655,23.353756,0.0 121.420542,23.353679,0.0 121.420328,23.35358,0.0 121.420174,23.353515,0.0</coordinates></LinearRing></outerBoundaryIs></Polygon><styleUrl>#spolygon-map</styleUrl></Placemark><Placemark><Polygon><outerBoundaryIs><LinearRing><coordinates>121.467776,23.34329,0.0 121.467144,23.342388,0.0 121.465941,23.341881,0.0 121.46561,23.341165,0.0 121.464948,23.341015,0.0 121.464186,23.341182,0.0 121.463553,23.34111,0.0 121.462742,23.341187,0.0 121.46235,23.340499,0.0 121.461895,23.340336,0.0 121.461044,23.340591,0.0 121.4599,23.340655,0.0 121.459269,23.341258,0.0 121.458183,23.341575,0.0 121.456398,23.341625,0.0 121.455697,23.342198,0.0 121.454973,23.342478,0.0 121.45429,23.342171,0.0 121.453913,23.342091,0.0 121.453496,23.342458,0.0 121.45316,23.34296,0.0 121.452331,23.343556,0.0 121.451687,23.343903,0.0 121.450597,23.34299,0.0 121.451029,23.342158,0.0 121.45135,23.341488,0.0 121.451471,23.340718,0.0 121.451483,23.339766,0.0 121.451881,23.338898,0.0 121.451046,23.338087,0.0 121.451107,23.337775,0.0 121.452338,23.337515,0.0 121.453138,23.337142,0.0 121.453785,23.336914,0.0 121.454196,23.336918,0.0 121.455573,23.337392,0.0 121.456436,23.337175,0.0 121.457004,23.336747,0.0 121.457202,23.33615,0.0 121.457093,23.335665,0.0 121.456537,23.335197,0.0 121.455087,23.33489,0.0 121.453948,23.335149,0.0 121.453287,23.335577,0.0 121.452717,23.335466,0.0 121.45253,23.335067,0.0 121.452036,23.334542,0.0 121.451249,23.334359,0.0 121.450816,23.333934,0.0 121.45026,23.333482,0.0 121.449796,23.332856,0.0 121.449378,23.332459,0.0 121.448916,23.332504,0.0 121.448546,23.33232,0.0 121.447742,23.332284,0.0 121.447215,23.331384,0.0 121.44639,23.331134,0.0 121.446014,23.330421,0.0 121.444183,23.327914,0.0 121.44429,23.325374,0.0 121.443785,23.323949,0.0 121.442189,23.323028,0.0 121.440678,23.32009,0.0 121.439311,23.319424,0.0 121.437856,23.319511,0.0 121.435914,23.320128,0.0 121.434791,23.319847,0.0 121.433734,23.316935,0.0 121.432567,23.314381,0.0 121.431313,23.312391,0.0 121.429868,23.311467,0.0 121.428864,23.311395,0.0 121.426667,23.311078,0.0 121.424768,23.310185,0.0 121.424312,23.309213,0.0 121.424033,23.306315,0.0 121.42337,23.305764,0.0 121.421658,23.304848,0.0 121.420564,23.30406,0.0 121.420096,23.303278,0.0 121.420094,23.303091,0.0 121.420207,23.302666,0.0 121.42052,23.302401,0.0 121.421738,23.30173,0.0 121.42228,23.301877,0.0 121.422829,23.302009,0.0 121.422994,23.302013,0.0 121.423111,23.301904,0.0 121.423342,23.301883,0.0 121.423562,23.301923,0.0 121.423852,23.30183,0.0 121.423993,23.3016,0.0 121.424278,23.301055,0.0 121.424481,23.301102,0.0 121.424824,23.30125,0.0 121.425554,23.301297,0.0 121.425608,23.301685,0.0 121.42569,23.301992,0.0 121.425824,23.302066,0.0 121.426062,23.301964,0.0 121.426368,23.301552,0.0 121.42638,23.301085,0.0 121.426445,23.300931,0.0 121.426947,23.301075,0.0 121.42752,23.301136,0.0 121.427919,23.300973,0.0 121.428202,23.300834,0.0 121.428446,23.301025,0.0 121.42877,23.301555,0.0 121.429182,23.301701,0.0 121.429402,23.301555,0.0 121.429417,23.301255,0.0 121.429202,23.300655,0.0 121.429281,23.300483,0.0 121.430031,23.300407,0.0 121.430744,23.30047,0.0 121.431233,23.300198,0.0 121.431666,23.299662,0.0 121.431911,23.299612,0.0 121.432076,23.299966,0.0 121.432235,23.300073,0.0 121.432789,23.299986,0.0 121.433565,23.299291,0.0 121.434011,23.298351,0.0 121.434194,23.297984,0.0 121.434456,23.297812,0.0 121.434708,23.297678,0.0 121.434704,23.29694,0.0 121.434962,23.296838,0.0 121.435657,23.297052,0.0 121.43615,23.297067,0.0 121.43721,23.296761,0.0 121.437962,23.298224,0.0 121.438219,23.298933,0.0 121.439705,23.300764,0.0 121.44012,23.301221,0.0 121.440672,23.302251,0.0 121.441659,23.303443,0.0 121.442252,23.304493,0.0 121.442875,23.30518,0.0 121.443301,23.305578,0.0 121.443747,23.305845,0.0 121.444037,23.306055,0.0 121.444586,23.306407,0.0 121.44492,23.306998,0.0 121.445814,23.308027,0.0 121.446707,23.309269,0.0 121.447424,23.310127,0.0 121.447973,23.310459,0.0 121.448368,23.310907,0.0 121.449384,23.311516,0.0 121.451696,23.312781,0.0 121.45265,23.313207,0.0 121.453292,23.313559,0.0 121.453971,23.313512,0.0 121.454069,23.313433,0.0 121.454222,23.313017,0.0 121.454302,23.312972,0.0 121.454358,23.313037,0.0 121.454326,23.313154,0.0 121.454155,23.313634,0.0 121.454197,23.313715,0.0 121.454706,23.313835,0.0 121.455486,23.313795,0.0 121.456427,23.31334,0.0 121.456587,23.313299,0.0 121.456635,23.313326,0.0 121.456853,23.313642,0.0 121.457093,23.313779,0.0 121.457514,23.313793,0.0 121.457562,23.313761,0.0 121.457515,23.313549,0.0 121.457179,23.31267,0.0 121.456692,23.312445,0.0 121.45648,23.312442,0.0 121.456361,23.312469,0.0 121.455993,23.312448,0.0 121.455923,23.312457,0.0 121.455825,23.312534,0.0 121.455742,23.312525,0.0 121.455668,23.312419,0.0 121.455667,23.31211,0.0 121.455743,23.312042,0.0 121.456005,23.312055,0.0 121.456816,23.312183,0.0 121.457386,23.312247,0.0 121.458182,23.312121,0.0 121.458492,23.312102,0.0 121.459528,23.312442,0.0 121.460026,23.312603,0.0 121.461083,23.313087,0.0 121.461393,23.313154,0.0 121.461902,23.313629,0.0 121.462618,23.314315,0.0 121.462631,23.314859,0.0 121.462418,23.316169,0.0 121.462733,23.317401,0.0 121.463118,23.318186,0.0 121.463173,23.319046,0.0 121.46359,23.319961,0.0 121.464287,23.320905,0.0 121.465043,23.321313,0.0 121.465552,23.32156,0.0 121.465843,23.322018,0.0 121.465585,23.323682,0.0 121.465922,23.325277,0.0 121.465977,23.326126,0.0 121.465939,23.327169,0.0 121.46587,23.328115,0.0 121.466268,23.329701,0.0 121.466613,23.330416,0.0 121.467454,23.33137,0.0 121.467765,23.331579,0.0 121.467809,23.332132,0.0 121.467616,23.333253,0.0 121.467755,23.33458,0.0 121.467863,23.335803,0.0 121.46798,23.336681,0.0 121.467859,23.337751,0.0 121.467906,23.339081,0.0 121.467768,23.341242,0.0 121.467722,23.342971,0.0 121.467776,23.34329,0.0</coordinates></LinearRing></outerBoundaryIs></Polygon><styleUrl>#spolygon-map</styleUrl></Placemark><Placemark><Polygon><outerBoundaryIs><LinearRing><coordinates>121.373515,23.268701,0.0 121.373445,23.268641,0.0 121.373384,23.2686,0.0 121.373281,23.268529,0.0 121.373104,23.268396,0.0 121.373029,23.268328,0.0 121.372938,23.268269,0.0 121.372859,23.26822,0.0 121.372694,23.26811,0.0 121.372579,23.26801,0.0 121.3725,23.267946,0.0 121.372342,23.26782,0.0 121.372281,23.267723,0.0 121.372171,23.267621,0.0 121.37211,23.267531,0.0 121.372011,23.267449,0.0 121.371953,23.267394,0.0 121.371915,23.267345,0.0 121.371857,23.267277,0.0 121.371782,23.267166,0.0 121.371742,23.267092,0.0 121.371682,23.266966,0.0 121.371642,23.266839,0.0 121.371612,23.266704,0.0 121.371606,23.266589,0.0 121.371611,23.266447,0.0 121.37162,23.266289,0.0 121.371637,23.266155,0.0 121.37164,23.266029,0.0 121.371632,23.265864,0.0 121.37163,23.26576,0.0 121.371631,23.265722,0.0 121.371638,23.265629,0.0 121.371635,23.265558,0.0 121.371632,23.265505,0.0 121.371621,23.265433,0.0 121.371601,23.265345,0.0 121.371571,23.26525,0.0 121.371551,23.265194,0.0 121.3715,23.265088,0.0 121.371481,23.265045,0.0 121.371415,23.264928,0.0 121.371381,23.264808,0.0 121.371362,23.264693,0.0 121.371326,23.264592,0.0 121.371294,23.264517,0.0 121.37126,23.264431,0.0 121.371225,23.264312,0.0 121.371217,23.264179,0.0 121.371204,23.264041,0.0 121.371207,23.263883,0.0 121.371215,23.263734,0.0 121.371216,23.263659,0.0 121.371194,23.26349,0.0 121.37118,23.263359,0.0 121.371149,23.26321,0.0 121.371114,23.263095,0.0 121.371095,23.263056,0.0 121.371035,23.262949,0.0 121.370978,23.262836,0.0 121.370894,23.262687,0.0 121.370828,23.262541,0.0 121.370788,23.262487,0.0 121.370727,23.262412,0.0 121.370658,23.262336,0.0 121.370579,23.262226,0.0 121.370565,23.262208,0.0 121.370441,23.26209,0.0 121.370325,23.262,0.0 121.370168,23.261919,0.0 121.370055,23.261869,0.0 121.369929,23.261832,0.0 121.369849,23.261819,0.0 121.369727,23.261798,0.0 121.369588,23.261741,0.0 121.369452,23.261695,0.0 121.369367,23.26167,0.0 121.369145,23.261576,0.0 121.368945,23.261479,0.0 121.368681,23.26136,0.0 121.368544,23.261282,0.0 121.368439,23.261219,0.0 121.368312,23.261147,0.0 121.368213,23.261052,0.0 121.36809,23.260942,0.0 121.368006,23.260859,0.0 121.367893,23.260753,0.0 121.367782,23.260669,0.0 121.367621,23.260582,0.0 121.367581,23.260551,0.0 121.367441,23.260485,0.0 121.367284,23.260431,0.0 121.367213,23.260407,0.0 121.36708,23.260339,0.0 121.366935,23.260236,0.0 121.366785,23.260076,0.0 121.366635,23.25992,0.0 121.366519,23.259763,0.0 121.366376,23.259546,0.0 121.366288,23.259373,0.0 121.366197,23.259197,0.0 121.366086,23.258985,0.0 121.366038,23.258829,0.0 121.365988,23.258662,0.0 121.365958,23.258509,0.0 121.365955,23.258375,0.0 121.36596,23.258267,0.0 121.365949,23.258159,0.0 121.365926,23.258098,0.0 121.365874,23.258036,0.0 121.365809,23.258001,0.0 121.365716,23.257972,0.0 121.365581,23.257968,0.0 121.365417,23.257961,0.0 121.365275,23.257968,0.0 121.365077,23.257976,0.0 121.364914,23.257992,0.0 121.364794,23.258012,0.0 121.364643,23.258029,0.0 121.364465,23.258034,0.0 121.364323,23.257962,0.0 121.364222,23.257905,0.0 121.364053,23.257856,0.0 121.363836,23.257775,0.0 121.363742,23.257719,0.0 121.363622,23.25764,0.0 121.363501,23.257523,0.0 121.363382,23.25737,0.0 121.363298,23.257246,0.0 121.363196,23.257131,0.0 121.363099,23.257025,0.0 121.363023,23.256949,0.0 121.362927,23.256841,0.0 121.362859,23.256723,0.0 121.362789,23.256574,0.0 121.362721,23.256414,0.0 121.36266,23.256261,0.0 121.362605,23.256083,0.0 121.362548,23.255837,0.0 121.362492,23.255663,0.0 121.36241,23.255453,0.0 121.362343,23.255268,0.0 121.36224,23.255074,0.0 121.362143,23.254842,0.0 121.362075,23.254693,0.0 121.362012,23.25456,0.0 121.361932,23.254384,0.0 121.361863,23.25424,0.0 121.361744,23.254069,0.0 121.361649,23.253895,0.0 121.361578,23.253764,0.0 121.361499,23.253649,0.0 121.361411,23.253548,0.0 121.361232,23.25346,0.0 121.361039,23.253382,0.0 121.360887,23.253305,0.0 121.360704,23.253243,0.0 121.360493,23.253166,0.0 121.36024,23.25309,0.0 121.360077,23.253043,0.0 121.359834,23.252956,0.0 121.359609,23.252864,0.0 121.359504,23.252807,0.0 121.35941,23.252683,0.0 121.359373,23.252593,0.0 121.359336,23.252496,0.0 121.359287,23.252336,0.0 121.359238,23.252162,0.0 121.359182,23.252,0.0 121.359149,23.251828,0.0 121.359113,23.25163,0.0 121.359083,23.251465,0.0 121.359044,23.251257,0.0 121.358999,23.251063,0.0 121.358978,23.250914,0.0 121.358969,23.250732,0.0 121.358959,23.25054,0.0 121.358936,23.250339,0.0 121.358938,23.250201,0.0 121.358947,23.250066,0.0 121.358945,23.249946,0.0 121.358945,23.249795,0.0 121.358952,23.249653,0.0 121.359003,23.249521,0.0 121.359065,23.249408,0.0 121.359161,23.249243,0.0 121.359272,23.249099,0.0 121.359374,23.248999,0.0 121.359462,23.248942,0.0 121.359571,23.248875,0.0 121.359686,23.248809,0.0 121.359777,23.248781,0.0 121.359881,23.248731,0.0 121.359985,23.248697,0.0 121.360085,23.248648,0.0 121.360203,23.248593,0.0 121.360259,23.248557,0.0 121.360352,23.248516,0.0 121.360394,23.248489,0.0 121.360564,23.248367,0.0 121.360726,23.248265,0.0 121.360765,23.248253,0.0 121.360832,23.248197,0.0 121.360845,23.248197,0.0 121.360859,23.248115,0.0 121.360904,23.247977,0.0 121.360938,23.24786,0.0 121.361018,23.247702,0.0 121.361139,23.247543,0.0 121.361218,23.247408,0.0 121.361304,23.24729,0.0 121.36137,23.247204,0.0 121.361437,23.247116,0.0 121.361501,23.247008,0.0 121.361544,23.246897,0.0 121.361556,23.246802,0.0 121.361566,23.2466,0.0 121.361557,23.246497,0.0 121.361529,23.24636,0.0 121.361512,23.246283,0.0 121.361467,23.246181,0.0 121.361365,23.245949,0.0 121.361324,23.245879,0.0 121.361306,23.245807,0.0 121.361246,23.245617,0.0 121.36119,23.245482,0.0 121.361156,23.245349,0.0 121.36113,23.245216,0.0 121.361086,23.245022,0.0 121.361073,23.24495,0.0 121.361026,23.244767,0.0 121.36098,23.244604,0.0 121.360916,23.244404,0.0 121.360907,23.244345,0.0 121.360844,23.244189,0.0 121.360733,23.243989,0.0 121.360651,23.24386,0.0 121.360414,23.243518,0.0 121.360285,23.243387,0.0 121.360158,23.243256,0.0 121.360028,23.243099,0.0 121.359985,23.243049,0.0 121.359945,23.242976,0.0 121.359921,23.242929,0.0 121.359855,23.242742,0.0 121.359819,23.242537,0.0 121.359774,23.242381,0.0 121.359621,23.242194,0.0 121.359412,23.241973,0.0 121.359192,23.241766,0.0 121.35899,23.241593,0.0 121.358688,23.241311,0.0 121.358393,23.241016,0.0 121.358261,23.240881,0.0 121.358138,23.24071,0.0 121.358139,23.240938,0.0 121.357984,23.240679,0.0 121.35789,23.240604,0.0 121.357798,23.24048,0.0 121.357757,23.240239,0.0 121.357759,23.239991,0.0 121.357804,23.239778,0.0 121.357861,23.239446,0.0 121.357888,23.239114,0.0 121.35789,23.238737,0.0 121.357863,23.238561,0.0 121.357834,23.238415,0.0 121.357777,23.238187,0.0 121.357701,23.237993,0.0 121.357566,23.237803,0.0 121.357447,23.237641,0.0 121.35733,23.237486,0.0 121.357205,23.237423,0.0 121.357048,23.23736,0.0 121.356921,23.237295,0.0 121.35686,23.237182,0.0 121.356932,23.236915,0.0 121.357119,23.236348,0.0 121.357228,23.235714,0.0 121.357278,23.23535,0.0 121.357455,23.235108,0.0 121.357622,23.234783,0.0 121.357762,23.234295,0.0 121.357962,23.234077,0.0 121.358259,23.233824,0.0 121.358765,23.233209,0.0 121.359127,23.232429,0.0 121.359359,23.231857,0.0 121.359495,23.231304,0.0 121.359596,23.230857,0.0 121.359909,23.230271,0.0 121.360123,23.229957,0.0 121.360573,23.229595,0.0 121.361079,23.229113,0.0 121.361499,23.22899,0.0 121.362664,23.228987,0.0 121.363133,23.228982,0.0 121.363494,23.22894,0.0 121.363885,23.229163,0.0 121.364036,23.229221,0.0 121.364319,23.229078,0.0 121.364573,23.229057,0.0 121.364852,23.229113,0.0 121.365011,23.229192,0.0 121.365239,23.229279,0.0 121.365442,23.229289,0.0 121.3656,23.229095,0.0 121.365947,23.22888,0.0 121.366167,23.228625,0.0 121.366226,23.228335,0.0 121.366474,23.228048,0.0 121.36667,23.22765,0.0 121.366945,23.227571,0.0 121.367281,23.227583,0.0 121.3675,23.227396,0.0 121.368005,23.227101,0.0 121.368276,23.226798,0.0 121.368452,23.226705,0.0 121.368809,23.226817,0.0 121.369068,23.226888,0.0 121.369386,23.227132,0.0 121.369584,23.227172,0.0 121.370301,23.22705,0.0 121.370722,23.226866,0.0 121.37128,23.226664,0.0 121.371658,23.22646,0.0 121.372161,23.226637,0.0 121.372592,23.226914,0.0 121.373022,23.227103,0.0 121.373647,23.227165,0.0 121.37389,23.227134,0.0 121.374384,23.226989,0.0 121.374806,23.227065,0.0 121.375029,23.227039,0.0 121.375283,23.226871,0.0 121.375541,23.226934,0.0 121.375919,23.227121,0.0 121.376449,23.226973,0.0 121.376791,23.226766,0.0 121.377169,23.226677,0.0 121.37759,23.226692,0.0 121.378097,23.226508,0.0 121.378493,23.226365,0.0 121.378772,23.22638,0.0 121.379022,23.226549,0.0 121.379366,23.226807,0.0 121.379762,23.226917,0.0 121.380488,23.226617,0.0 121.380741,23.226621,0.0 121.380953,23.226731,0.0 121.381117,23.226986,0.0 121.381238,23.227295,0.0 121.381586,23.227516,0.0 121.382086,23.227659,0.0 121.382563,23.227633,0.0 121.382769,23.227547,0.0 121.382915,23.227332,0.0 121.383012,23.226756,0.0 121.38308,23.226607,0.0 121.383258,23.226645,0.0 121.383535,23.226865,0.0 121.383708,23.22698,0.0 121.383917,23.227015,0.0 121.384184,23.227003,0.0 121.384491,23.226949,0.0 121.38477,23.226801,0.0 121.38501,23.226591,0.0 121.385112,23.226426,0.0 121.385147,23.22622,0.0 121.385155,23.226028,0.0 121.385306,23.225888,0.0 121.385462,23.225872,0.0 121.385569,23.225923,0.0 121.385649,23.226083,0.0 121.385761,23.226212,0.0 121.385916,23.226252,0.0 121.386031,23.226227,0.0 121.386342,23.226057,0.0 121.386502,23.225892,0.0 121.386639,23.225668,0.0 121.386701,23.225525,0.0 121.386799,23.225428,0.0 121.387096,23.225328,0.0 121.387269,23.22521,0.0 121.3873,23.225081,0.0 121.387272,23.224876,0.0 121.387147,23.224721,0.0 121.386845,23.224491,0.0 121.386653,23.224261,0.0 121.386603,23.22406,0.0 121.38655,23.223916,0.0 121.386429,23.223774,0.0 121.386371,23.223621,0.0 121.386411,23.223499,0.0 121.386664,23.223207,0.0 121.386903,23.223023,0.0 121.387178,23.222928,0.0 121.387475,23.222936,0.0 121.387892,23.222987,0.0 121.388149,23.222987,0.0 121.38846,23.22295,0.0 121.388691,23.222963,0.0 121.388968,23.222878,0.0 121.389239,23.222808,0.0 121.389721,23.222737,0.0 121.390083,23.222727,0.0 121.390435,23.222762,0.0 121.390918,23.222878,0.0 121.391315,23.222997,0.0 121.391496,23.222965,0.0 121.391536,23.222834,0.0 121.391475,23.22257,0.0 121.391479,23.222434,0.0 121.39158,23.22235,0.0 121.391856,23.222257,0.0 121.392042,23.222133,0.0 121.392232,23.22201,0.0 121.392559,23.221948,0.0 121.392791,23.221961,0.0 121.393077,23.222031,0.0 121.393474,23.222212,0.0 121.393817,23.222349,0.0 121.394023,23.222392,0.0 121.394249,23.222353,0.0 121.394566,23.222302,0.0 121.394837,23.222272,0.0 121.39542,23.222271,0.0 121.395767,23.222186,0.0 121.395997,23.222019,0.0 121.396364,23.221706,0.0 121.396584,23.221674,0.0 121.39678,23.221744,0.0 121.397048,23.222052,0.0 121.397331,23.222442,0.0 121.397371,23.222675,0.0 121.397332,23.222921,0.0 121.39727,23.223025,0.0 121.397202,23.223199,0.0 121.397188,23.223427,0.0 121.397277,23.223582,0.0 121.397406,23.223661,0.0 121.397544,23.223681,0.0 121.397699,23.22366,0.0 121.397943,23.223511,0.0 121.398298,23.223329,0.0 121.398436,23.223229,0.0 121.398591,23.223024,0.0 121.398799,23.222551,0.0 121.398955,23.222345,0.0 121.39911,23.222182,0.0 121.39938,23.221812,0.0 121.399586,23.22163,0.0 121.399947,23.221447,0.0 121.400309,23.221317,0.0 121.40051,23.221321,0.0 121.400621,23.221409,0.0 121.400878,23.221826,0.0 121.40094,23.222212,0.0 121.400991,23.222568,0.0 121.401113,23.2228,0.0 121.401264,23.22292,0.0 121.401494,23.222917,0.0 121.401766,23.222846,0.0 121.401871,23.22276,0.0 121.402046,23.222408,0.0 121.402191,23.221924,0.0 121.40226,23.221678,0.0 121.402365,23.221553,0.0 121.402526,23.221474,0.0 121.402651,23.221483,0.0 121.402903,23.221649,0.0 121.403262,23.221982,0.0 121.403735,23.222399,0.0 121.403881,23.222376,0.0 121.403986,23.222199,0.0 121.40396,23.22194,0.0 121.403798,23.221527,0.0 121.403722,23.221322,0.0 121.403722,23.221094,0.0 121.403816,23.22082,0.0 121.404047,23.220551,0.0 121.404162,23.220393,0.0 121.404261,23.220113,0.0 121.404337,23.219973,0.0 121.404617,23.219751,0.0 121.405074,23.219587,0.0 121.40526,23.219482,0.0 121.405575,23.219046,0.0 121.40578,23.218488,0.0 121.405814,23.218242,0.0 121.405728,23.218061,0.0 121.405547,23.217913,0.0 121.405381,23.217789,0.0 121.40537,23.217672,0.0 121.40544,23.217561,0.0 121.405857,23.217551,0.0 121.406299,23.217493,0.0 121.406515,23.21735,0.0 121.406704,23.217097,0.0 121.406728,23.216905,0.0 121.406713,23.216562,0.0 121.406671,23.216185,0.0 121.406559,23.215903,0.0 121.406403,23.215662,0.0 121.406226,23.215443,0.0 121.406191,23.215263,0.0 121.40627,23.215082,0.0 121.406497,23.214942,0.0 121.406788,23.214862,0.0 121.407059,23.214893,0.0 121.407334,23.214962,0.0 121.407637,23.214952,0.0 121.407763,23.214873,0.0 121.407979,23.214604,0.0 121.408088,23.214538,0.0 121.408397,23.214449,0.0 121.408648,23.214405,0.0 121.408787,23.214414,0.0 121.408946,23.214396,0.0 121.40915,23.214307,0.0 121.409229,23.21439,0.0 121.409321,23.214541,0.0 121.40943,23.214873,0.0 121.40958,23.214992,0.0 121.409862,23.215073,0.0 121.409829,23.215215,0.0 121.409866,23.21524,0.0 121.409965,23.215172,0.0 121.410038,23.215174,0.0 121.410155,23.215198,0.0 121.410481,23.215572,0.0 121.41098,23.21584,0.0 121.411207,23.216056,0.0 121.411478,23.216164,0.0 121.411723,23.216264,0.0 121.411841,23.216406,0.0 121.412004,23.21644,0.0 121.411949,23.216323,0.0 121.411868,23.216205,0.0 121.411813,23.216106,0.0 121.411967,23.216189,0.0 121.412103,23.216397,0.0 121.412121,23.216254,0.0 121.412248,23.216464,0.0 121.412412,23.216723,0.0 121.412377,23.216965,0.0 121.412159,23.216882,0.0 121.412033,23.216932,0.0 121.412115,23.217142,0.0 121.412478,23.217459,0.0 121.412571,23.217461,0.0 121.41273,23.217122,0.0 121.412836,23.21735,0.0 121.412922,23.217641,0.0 121.412974,23.217805,0.0 121.413039,23.217936,0.0 121.413082,23.217986,0.0 121.413095,23.218042,0.0 121.413146,23.218182,0.0 121.413232,23.218385,0.0 121.413241,23.218561,0.0 121.413413,23.218728,0.0 121.413559,23.21886,0.0 121.413695,23.219043,0.0 121.413822,23.219243,0.0 121.41405,23.219703,0.0 121.414169,23.220105,0.0 121.414192,23.220003,0.0 121.41426,23.220032,0.0 121.414366,23.220174,0.0 121.41454,23.220237,0.0 121.41454,23.220054,0.0 121.414557,23.219889,0.0 121.414776,23.220279,0.0 121.414632,23.22053,0.0 121.414759,23.220638,0.0 121.41494,23.220904,0.0 121.415113,23.221098,0.0 121.415267,23.221129,0.0 121.415485,23.221515,0.0 121.41604,23.221999,0.0 121.416203,23.222091,0.0 121.416056,23.222213,0.0 121.416075,23.222288,0.0 121.416173,23.222269,0.0 121.416101,23.222357,0.0 121.416103,23.222464,0.0 121.416337,23.222585,0.0 121.416453,23.222578,0.0 121.416507,23.222469,0.0 121.416662,23.222491,0.0 121.416863,23.222448,0.0 121.416995,23.222296,0.0 121.417072,23.222138,0.0 121.417155,23.222264,0.0 121.417121,23.222334,0.0 121.416956,23.222398,0.0 121.416688,23.222654,0.0 121.416663,23.222807,0.0 121.416694,23.222986,0.0 121.416633,23.223164,0.0 121.416796,23.223157,0.0 121.416719,23.223388,0.0 121.416766,23.223523,0.0 121.416944,23.223437,0.0 121.417056,23.22338,0.0 121.417213,23.223567,0.0 121.417178,23.223752,0.0 121.417287,23.223684,0.0 121.417456,23.223643,0.0 121.417651,23.223679,0.0 121.417612,23.223807,0.0 121.417426,23.223787,0.0 121.417535,23.223893,0.0 121.417489,23.223986,0.0 121.417691,23.223963,0.0 121.417881,23.223971,0.0 121.418001,23.223964,0.0 121.417943,23.224091,0.0 121.41786,23.224118,0.0 121.418071,23.224194,0.0 121.41822,23.224129,0.0 121.418427,23.224221,0.0 121.418273,23.224264,0.0 121.418141,23.224228,0.0 121.417978,23.224337,0.0 121.417987,23.224466,0.0 121.418079,23.224373,0.0 121.418193,23.224289,0.0 121.418304,23.224336,0.0 121.418503,23.224387,0.0 121.418358,23.224471,0.0 121.418175,23.224386,0.0 121.418175,23.224449,0.0 121.418343,23.224503,0.0 121.418539,23.224563,0.0 121.418558,23.224706,0.0 121.418502,23.224794,0.0 121.418649,23.224805,0.0 121.418884,23.224779,0.0 121.418776,23.224922,0.0 121.418993,23.224838,0.0 121.419065,23.224903,0.0 121.418885,23.224996,0.0 121.419057,23.224971,0.0 121.419247,23.225013,0.0 121.419048,23.225088,0.0 121.418812,23.225064,0.0 121.418677,23.224996,0.0 121.418831,23.225122,0.0 121.418822,23.22533,0.0 121.418913,23.225438,0.0 121.418832,23.225531,0.0 121.418506,23.225498,0.0 121.418524,23.225575,0.0 121.418612,23.225715,0.0 121.41867,23.22585,0.0 121.418619,23.225893,0.0 121.41868,23.226067,0.0 121.41859,23.226344,0.0 121.418446,23.226487,0.0 121.418419,23.226636,0.0 121.418546,23.226636,0.0 121.418699,23.226511,0.0 121.418816,23.226394,0.0 121.419052,23.226375,0.0 121.419369,23.226559,0.0 121.419542,23.226843,0.0 121.419559,23.22697,0.0 121.419407,23.227178,0.0 121.419235,23.227169,0.0 121.418873,23.227145,0.0 121.418918,23.227179,0.0 121.419082,23.227438,0.0 121.419231,23.227641,0.0 121.419156,23.227831,0.0 121.419047,23.227822,0.0 121.418839,23.227881,0.0 121.41865,23.227974,0.0 121.418813,23.228024,0.0 121.418794,23.22824,0.0 121.418705,23.228333,0.0 121.418425,23.228435,0.0 121.418275,23.228402,0.0 121.418017,23.22836,0.0 121.417917,23.228211,0.0 121.417845,23.22811,0.0 121.417704,23.228063,0.0 121.417622,23.227986,0.0 121.417663,23.227826,0.0 121.417545,23.227835,0.0 121.417528,23.227959,0.0 121.417319,23.227851,0.0 121.417228,23.227768,0.0 121.417319,23.227693,0.0 121.417065,23.227586,0.0 121.416988,23.227697,0.0 121.416725,23.227521,0.0 121.416449,23.227386,0.0 121.416159,23.227295,0.0 121.415942,23.227221,0.0 121.415702,23.227206,0.0 121.415589,23.227296,0.0 121.415608,23.227571,0.0 121.415401,23.227832,0.0 121.41513,23.228008,0.0 121.415018,23.228411,0.0 121.414914,23.228594,0.0 121.414947,23.228989,0.0 121.414972,23.229212,0.0 121.414681,23.229188,0.0 121.414589,23.229249,0.0 121.414817,23.229305,0.0 121.414998,23.229354,0.0 121.414964,23.23,0.0 121.414811,23.230276,0.0 121.414581,23.23052,0.0 121.414464,23.230722,0.0 121.414362,23.231072,0.0 121.414173,23.231641,0.0 121.414047,23.231958,0.0 121.413986,23.232737,0.0 121.414124,23.233454,0.0 121.414262,23.234106,0.0 121.414595,23.234936,0.0 121.414718,23.235243,0.0 121.414919,23.235978,0.0 121.415084,23.236253,0.0 121.415418,23.236521,0.0 121.415767,23.23668,0.0 121.416044,23.236987,0.0 121.416355,23.237823,0.0 121.416464,23.238157,0.0 121.416511,23.23876,0.0 121.416778,23.240037,0.0 121.417043,23.240865,0.0 121.417218,23.241228,0.0 121.417326,23.241693,0.0 121.417499,23.242126,0.0 121.417572,23.242351,0.0 121.417783,23.243195,0.0 121.417983,23.243531,0.0 121.418165,23.243797,0.0 121.418177,23.244758,0.0 121.418271,23.245788,0.0 121.418358,23.246239,0.0 121.418449,23.246575,0.0 121.418555,23.247058,0.0 121.418742,23.247658,0.0 121.418889,23.248111,0.0 121.41904,23.24872,0.0 121.419363,23.250726,0.0 121.419456,23.251555,0.0 121.419494,23.252115,0.0 121.419762,23.253818,0.0 121.420066,23.255416,0.0 121.420267,23.256185,0.0 121.420633,23.257347,0.0 121.420888,23.25798,0.0 121.421035,23.25845,0.0 121.421129,23.258951,0.0 121.421507,23.26037,0.0 121.421604,23.261089,0.0 121.42166,23.261448,0.0 121.421834,23.262184,0.0 121.422153,23.262802,0.0 121.422653,23.263629,0.0 121.423171,23.264296,0.0 121.423652,23.26468,0.0 121.424214,23.265056,0.0 121.424622,23.265287,0.0 121.424967,23.26553,0.0 121.425375,23.265795,0.0 121.425802,23.266255,0.0 121.426166,23.266915,0.0 121.426412,23.267323,0.0 121.426532,23.268251,0.0 121.426419,23.269673,0.0 121.42645,23.270709,0.0 121.42655,23.271027,0.0 121.427114,23.271645,0.0 121.427232,23.271861,0.0 121.427233,23.272238,0.0 121.42718,23.272383,0.0 121.426392,23.271755,0.0 121.425881,23.271298,0.0 121.425567,23.271105,0.0 121.425001,23.271097,0.0 121.424579,23.270961,0.0 121.424339,23.270796,0.0 121.424102,23.270774,0.0 121.423567,23.270778,0.0 121.423358,23.270998,0.0 121.423236,23.271145,0.0 121.422794,23.271029,0.0 121.4221,23.270945,0.0 121.421902,23.270877,0.0 121.421561,23.271235,0.0 121.421396,23.271536,0.0 121.420973,23.271672,0.0 121.420684,23.271594,0.0 121.420684,23.271373,0.0 121.420986,23.269968,0.0 121.420959,23.269589,0.0 121.420641,23.269316,0.0 121.420205,23.269193,0.0 121.419983,23.268986,0.0 121.419842,23.269,0.0 121.41953,23.269285,0.0 121.419076,23.269269,0.0 121.418871,23.269213,0.0 121.418725,23.269026,0.0 121.418203,23.268761,0.0 121.417687,23.268575,0.0 121.417508,23.268417,0.0 121.41744,23.268219,0.0 121.416867,23.268069,0.0 121.41667,23.26806,0.0 121.416317,23.268149,0.0 121.416151,23.268279,0.0 121.416033,23.268518,0.0 121.415751,23.268634,0.0 121.415607,23.268774,0.0 121.415442,23.268825,0.0 121.415331,23.268753,0.0 121.415318,23.268457,0.0 121.415173,23.267879,0.0 121.41522,23.267662,0.0 121.415327,23.267459,0.0 121.415315,23.267154,0.0 121.415161,23.267089,0.0 121.414964,23.267216,0.0 121.414518,23.267671,0.0 121.414438,23.267768,0.0 121.414341,23.267936,0.0 121.414274,23.268205,0.0 121.414147,23.268936,0.0 121.413941,23.269291,0.0 121.41372,23.269466,0.0 121.413633,23.269608,0.0 121.413542,23.269703,0.0 121.413401,23.269749,0.0 121.413082,23.269738,0.0 121.4128,23.269829,0.0 121.412274,23.270212,0.0 121.411963,23.270841,0.0 121.411417,23.271172,0.0 121.411222,23.271371,0.0 121.411,23.271703,0.0 121.41072,23.271672,0.0 121.410468,23.271712,0.0 121.410255,23.27187,0.0 121.410248,23.272071,0.0 121.410243,23.27227,0.0 121.41007,23.272379,0.0 121.409789,23.272409,0.0 121.409452,23.272378,0.0 121.409059,23.27242,0.0 121.408728,23.272651,0.0 121.408584,23.272913,0.0 121.408537,23.273121,0.0 121.408578,23.273475,0.0 121.408794,23.274086,0.0 121.409525,23.274572,0.0 121.409751,23.274869,0.0 121.409775,23.275172,0.0 121.40964,23.27545,0.0 121.40932,23.275677,0.0 121.408836,23.275856,0.0 121.40866,23.275938,0.0 121.408528,23.276022,0.0 121.408451,23.276187,0.0 121.408352,23.276438,0.0 121.408185,23.276594,0.0 121.408066,23.276736,0.0 121.408059,23.276894,0.0 121.408127,23.277253,0.0 121.408282,23.27753,0.0 121.408215,23.277677,0.0 121.408033,23.277791,0.0 121.407643,23.27795,0.0 121.407521,23.278232,0.0 121.407681,23.278916,0.0 121.407879,23.279398,0.0 121.407837,23.27959,0.0 121.407607,23.279636,0.0 121.407151,23.279513,0.0 121.406916,23.279451,0.0 121.406685,23.279503,0.0 121.406472,23.279682,0.0 121.406294,23.280141,0.0 121.405771,23.280862,0.0 121.405432,23.281739,0.0 121.405061,23.282009,0.0 121.404799,23.282012,0.0 121.404092,23.281738,0.0 121.403736,23.281687,0.0 121.403651,23.2818,0.0 121.403754,23.28245,0.0 121.403476,23.28269,0.0 121.402325,23.282271,0.0 121.401817,23.281967,0.0 121.401385,23.281912,0.0 121.401149,23.281951,0.0 121.400867,23.282087,0.0 121.400788,23.282264,0.0 121.4007,23.282727,0.0 121.400497,23.282847,0.0 121.400281,23.282782,0.0 121.399996,23.282663,0.0 121.399656,23.282707,0.0 121.399443,23.282807,0.0 121.399407,23.283001,0.0 121.399543,23.283283,0.0 121.399565,23.283698,0.0 121.399422,23.28387,0.0 121.398957,23.283896,0.0 121.398247,23.283889,0.0 121.397713,23.2841,0.0 121.397496,23.284265,0.0 121.39748,23.28464,0.0 121.397695,23.285046,0.0 121.397687,23.285335,0.0 121.397611,23.285556,0.0 121.397416,23.285704,0.0 121.397145,23.285734,0.0 121.396706,23.285351,0.0 121.396374,23.285128,0.0 121.396116,23.285425,0.0 121.39581,23.285737,0.0 121.395575,23.285713,0.0 121.395379,23.285591,0.0 121.39522,23.285517,0.0 121.395043,23.285615,0.0 121.39488,23.285888,0.0 121.394542,23.286569,0.0 121.394315,23.286614,0.0 121.394096,23.286434,0.0 121.393713,23.286,0.0 121.393447,23.285955,0.0 121.393145,23.286064,0.0 121.392896,23.286286,0.0 121.39276,23.286612,0.0 121.392359,23.287513,0.0 121.392349,23.287857,0.0 121.392352,23.288254,0.0 121.392193,23.288345,0.0 121.392009,23.28821,0.0 121.39186,23.288138,0.0 121.391565,23.288215,0.0 121.391421,23.288358,0.0 121.391399,23.28873,0.0 121.391395,23.288911,0.0 121.390943,23.289131,0.0 121.390694,23.289254,0.0 121.390241,23.289234,0.0 121.39008,23.289309,0.0 121.389866,23.289576,0.0 121.389698,23.289665,0.0 121.389474,23.289916,0.0 121.389239,23.29047,0.0 121.389088,23.29079,0.0 121.388843,23.290918,0.0 121.388683,23.291205,0.0 121.388704,23.291606,0.0 121.388761,23.291807,0.0 121.388846,23.292094,0.0 121.388737,23.292354,0.0 121.388497,23.292607,0.0 121.388226,23.292865,0.0 121.38784,23.292866,0.0 121.387645,23.293474,0.0 121.387532,23.294113,0.0 121.387205,23.294536,0.0 121.386786,23.294774,0.0 121.385877,23.295878,0.0 121.385475,23.296181,0.0 121.384744,23.296009,0.0 121.38375,23.29617,0.0 121.382296,23.296713,0.0 121.380289,23.297063,0.0 121.378141,23.298017,0.0 121.377856,23.298193,0.0 121.377752,23.298094,0.0 121.377613,23.298007,0.0 121.37752,23.297955,0.0 121.377434,23.297872,0.0 121.377366,23.297779,0.0 121.377285,23.297587,0.0 121.377221,23.297432,0.0 121.377153,23.297276,0.0 121.377094,23.297145,0.0 121.376992,23.296954,0.0 121.376891,23.296767,0.0 121.376811,23.296607,0.0 121.376738,23.29646,0.0 121.376622,23.296275,0.0 121.376544,23.296122,0.0 121.376431,23.29598,0.0 121.376304,23.295761,0.0 121.376291,23.295653,0.0 121.376321,23.295526,0.0 121.376405,23.295357,0.0 121.376506,23.295129,0.0 121.376539,23.294986,0.0 121.376585,23.294848,0.0 121.376599,23.294666,0.0 121.376627,23.294498,0.0 121.376645,23.294358,0.0 121.376694,23.29425,0.0 121.376757,23.294094,0.0 121.376789,23.293945,0.0 121.376849,23.293787,0.0 121.376886,23.293669,0.0 121.376926,23.293457,0.0 121.376971,23.293301,0.0 121.377005,23.293195,0.0 121.377024,23.293098,0.0 121.377042,23.292965,0.0 121.377021,23.292786,0.0 121.376997,23.292628,0.0 121.376953,23.292425,0.0 121.37693,23.292267,0.0 121.37695,23.292096,0.0 121.37701,23.291987,0.0 121.377057,23.29184,0.0 121.377104,23.291655,0.0 121.377149,23.291474,0.0 121.377171,23.291341,0.0 121.377157,23.291163,0.0 121.377122,23.291021,0.0 121.377069,23.290901,0.0 121.377021,23.290788,0.0 121.376954,23.290626,0.0 121.376878,23.290446,0.0 121.376841,23.290342,0.0 121.376795,23.290254,0.0 121.376741,23.290076,0.0 121.376723,23.289802,0.0 121.376699,23.289647,0.0 121.376655,23.289539,0.0 121.376575,23.289349,0.0 121.376527,23.28923,0.0 121.376501,23.289069,0.0 121.376572,23.288952,0.0 121.376673,23.288843,0.0 121.376785,23.288746,0.0 121.376933,23.28861,0.0 121.376998,23.288574,0.0 121.377078,23.28847,0.0 121.377134,23.288377,0.0 121.377181,23.288219,0.0 121.377216,23.288067,0.0 121.377253,23.287826,0.0 121.377288,23.287665,0.0 121.377324,23.287469,0.0 121.377332,23.287268,0.0 121.377328,23.28704,0.0 121.37731,23.286832,0.0 121.377294,23.286643,0.0 121.377276,23.286455,0.0 121.377287,23.28627,0.0 121.377288,23.286126,0.0 121.37728,23.285966,0.0 121.377276,23.28583,0.0 121.377266,23.285697,0.0 121.377263,23.285534,0.0 121.377266,23.28534,0.0 121.377271,23.285171,0.0 121.377262,23.285033,0.0 121.37724,23.284887,0.0 121.37722,23.284681,0.0 121.377187,23.284464,0.0 121.377179,23.28432,0.0 121.377168,23.284144,0.0 121.377163,23.283981,0.0 121.377163,23.283832,0.0 121.37716,23.28369,0.0 121.377147,23.283537,0.0 121.377146,23.283516,0.0 121.377145,23.283489,0.0 121.377138,23.283417,0.0 121.377124,23.283318,0.0 121.377101,23.283205,0.0 121.377074,23.283115,0.0 121.377056,23.282997,0.0 121.377043,23.282866,0.0 121.377026,23.282772,0.0 121.376997,23.282684,0.0 121.37697,23.282533,0.0 121.37692,23.282399,0.0 121.376886,23.282217,0.0 121.376863,23.28209,0.0 121.376858,23.281905,0.0 121.376891,23.281718,0.0 121.376922,23.281571,0.0 121.376972,23.281451,0.0 121.377047,23.281304,0.0 121.377111,23.281182,0.0 121.377154,23.28108,0.0 121.377195,23.280945,0.0 121.377218,23.280789,0.0 121.377254,23.280554,0.0 121.377261,23.280407,0.0 121.377278,23.280295,0.0 121.377315,23.280161,0.0 121.377369,23.280026,0.0 121.377435,23.279906,0.0 121.377508,23.279813,0.0 121.377587,23.279732,0.0 121.377652,23.279648,0.0 121.377691,23.279535,0.0 121.377735,23.279377,0.0 121.37776,23.279205,0.0 121.377793,23.279011,0.0 121.377834,23.278844,0.0 121.37786,23.278686,0.0 121.377904,23.278507,0.0 121.377955,23.278342,0.0 121.378013,23.278168,0.0 121.378074,23.278049,0.0 121.378113,23.277936,0.0 121.378161,23.277809,0.0 121.378203,23.277696,0.0 121.378232,23.277594,0.0 121.378259,23.277504,0.0 121.378277,23.277405,0.0 121.378294,23.277276,0.0 121.378311,23.277107,0.0 121.37831,23.276967,0.0 121.378311,23.276831,0.0 121.378316,23.276675,0.0 121.378334,23.276522,0.0 121.378351,23.276411,0.0 121.378362,23.276282,0.0 121.378359,23.276127,0.0 121.378351,23.275964,0.0 121.378356,23.275847,0.0 121.37837,23.275736,0.0 121.378397,23.27558,0.0 121.378419,23.275418,0.0 121.378454,23.275271,0.0 121.378491,23.275108,0.0 121.378551,23.274959,0.0 121.378584,23.274772,0.0 121.378603,23.274589,0.0 121.378608,23.274431,0.0 121.378604,23.274284,0.0 121.378582,23.274169,0.0 121.378577,23.273991,0.0 121.378568,23.273817,0.0 121.378555,23.273654,0.0 121.378535,23.273489,0.0 121.37852,23.273365,0.0 121.378487,23.273149,0.0 121.378431,23.272979,0.0 121.378372,23.272842,0.0 121.378305,23.27272,0.0 121.378277,23.272637,0.0 121.378237,23.272544,0.0 121.378201,23.27245,0.0 121.378149,23.272332,0.0 121.378114,23.272264,0.0 121.378058,23.272154,0.0 121.378009,23.272032,0.0 121.377937,23.271861,0.0 121.377879,23.271757,0.0 121.377834,23.271658,0.0 121.377808,23.271565,0.0 121.37778,23.271426,0.0 121.377752,23.27132,0.0 121.377731,23.271243,0.0 121.377692,23.271139,0.0 121.377687,23.270983,0.0 121.377695,23.270868,0.0 121.377713,23.270764,0.0 121.377724,23.27066,0.0 121.377748,23.270593,0.0 121.377776,23.270459,0.0 121.377792,23.270346,0.0 121.37782,23.270252,0.0 121.377834,23.270141,0.0 121.377848,23.270019,0.0 121.377857,23.269911,0.0 121.377872,23.269813,0.0 121.37788,23.269732,0.0 121.377889,23.269667,0.0 121.377926,23.269612,0.0 121.377756,23.269597,0.0 121.377543,23.269582,0.0 121.377417,23.269562,0.0 121.377303,23.269555,0.0 121.377237,23.269551,0.0 121.37714,23.269544,0.0 121.377045,23.269529,0.0 121.376909,23.269527,0.0 121.376798,23.269518,0.0 121.376706,23.269493,0.0 121.376588,23.269482,0.0 121.376518,23.269487,0.0 121.376437,23.269492,0.0 121.376366,23.269492,0.0 121.376263,23.269485,0.0 121.376181,23.269472,0.0 121.376047,23.269449,0.0 121.375901,23.269421,0.0 121.375839,23.269416,0.0 121.375671,23.269392,0.0 121.375529,23.269374,0.0 121.375403,23.269341,0.0 121.375232,23.269301,0.0 121.375117,23.269285,0.0 121.374931,23.269234,0.0 121.374836,23.2692,0.0 121.374684,23.269142,0.0 121.374622,23.26913,0.0 121.374539,23.269106,0.0 121.374444,23.269083,0.0 121.3743,23.269082,0.0 121.374146,23.26908,0.0 121.374027,23.269037,0.0 121.373903,23.268981,0.0 121.373815,23.268931,0.0 121.373688,23.268848,0.0 121.373546,23.268731,0.0 121.373515,23.268701,0.0</coordinates></LinearRing></outerBoundaryIs></Polygon><styleUrl>#spolygon-map</styleUrl></Placemark><Placemark><Polygon><outerBoundaryIs><LinearRing><coordinates>121.403648,23.375182,0.0 121.403616,23.375057,0.0 121.403578,23.374908,0.0 121.403535,23.374703,0.0 121.403519,23.374566,0.0 121.403565,23.374369,0.0 121.403606,23.374222,0.0 121.403672,23.374069,0.0 121.403734,23.373892,0.0 121.40377,23.373736,0.0 121.4038,23.373572,0.0 121.403769,23.37331,0.0 121.403764,23.373195,0.0 121.403769,23.373043,0.0 121.403792,23.372951,0.0 121.40379,23.372878,0.0 121.403797,23.372827,0.0 121.403816,23.37272,0.0 121.403845,23.372553,0.0 121.40385,23.372506,0.0 121.403866,23.372418,0.0 121.403891,23.372348,0.0 121.403903,23.372192,0.0 121.403991,23.371943,0.0 121.404043,23.371769,0.0 121.404103,23.371562,0.0 121.404126,23.37144,0.0 121.404139,23.371345,0.0 121.404145,23.371189,0.0 121.404169,23.37099,0.0 121.404239,23.370771,0.0 121.404337,23.370647,0.0 121.404485,23.370411,0.0 121.4046,23.370156,0.0 121.404663,23.369959,0.0 121.404753,23.369695,0.0 121.404815,23.369399,0.0 121.404856,23.369135,0.0 121.404864,23.3689,0.0 121.404826,23.368582,0.0 121.404818,23.368469,0.0 121.404787,23.368401,0.0 121.40475,23.368311,0.0 121.404658,23.368163,0.0 121.404528,23.367984,0.0 121.404426,23.367826,0.0 121.404418,23.367813,0.0 121.404361,23.367742,0.0 121.404322,23.367688,0.0 121.404259,23.367565,0.0 121.404323,23.36743,0.0 121.404375,23.367344,0.0 121.404501,23.367242,0.0 121.404626,23.367133,0.0 121.404757,23.366997,0.0 121.404848,23.366965,0.0 121.406375,23.366788,0.0 121.407105,23.367244,0.0 121.408402,23.369076,0.0 121.410393,23.372466,0.0 121.411758,23.374253,0.0 121.411999,23.375216,0.0 121.411965,23.376025,0.0 121.412174,23.376299,0.0 121.412621,23.376535,0.0 121.412807,23.376946,0.0 121.412797,23.377483,0.0 121.413131,23.377744,0.0 121.413514,23.37796,0.0 121.41385,23.378573,0.0 121.41437,23.379109,0.0 121.414433,23.379655,0.0 121.414088,23.379929,0.0 121.414126,23.380179,0.0 121.414411,23.380294,0.0 121.414916,23.380019,0.0 121.415572,23.380381,0.0 121.416364,23.380756,0.0 121.416895,23.381039,0.0 121.417172,23.38135,0.0 121.417492,23.382259,0.0 121.417909,23.382806,0.0 121.417881,23.383235,0.0 121.417998,23.383431,0.0 121.418373,23.383442,0.0 121.419175,23.383336,0.0 121.419854,23.383311,0.0 121.420387,23.383858,0.0 121.420955,23.383821,0.0 121.421609,23.383661,0.0 121.421931,23.383911,0.0 121.422422,23.385142,0.0 121.422375,23.385535,0.0 121.421752,23.385859,0.0 121.421517,23.386368,0.0 121.421745,23.386756,0.0 121.4222,23.386953,0.0 121.422709,23.387647,0.0 121.423364,23.387851,0.0 121.423882,23.3877,0.0 121.424623,23.387712,0.0 121.425429,23.388622,0.0 121.426308,23.389371,0.0 121.427141,23.390942,0.0 121.427267,23.391865,0.0 121.427133,23.392333,0.0 121.427493,23.392822,0.0 121.427389,23.393366,0.0 121.427336,23.39403,0.0 121.427536,23.394806,0.0 121.428017,23.395249,0.0 121.428356,23.3954,0.0 121.429059,23.39545,0.0 121.429823,23.395689,0.0 121.430221,23.396133,0.0 121.429932,23.396529,0.0 121.429743,23.396832,0.0 121.430061,23.397285,0.0 121.430251,23.397842,0.0 121.43039,23.399081,0.0 121.43073,23.400872,0.0 121.431451,23.402159,0.0 121.432034,23.403047,0.0 121.431556,23.404132,0.0 121.431486,23.405272,0.0 121.431664,23.405581,0.0 121.432006,23.405702,0.0 121.432813,23.405524,0.0 121.433253,23.405563,0.0 121.433948,23.406333,0.0 121.433989,23.406877,0.0 121.434248,23.407771,0.0 121.434745,23.408442,0.0 121.43492,23.409125,0.0 121.435821,23.409554,0.0 121.436703,23.409665,0.0 121.436921,23.409835,0.0 121.43771,23.410827,0.0 121.438257,23.411015,0.0 121.438819,23.411349,0.0 121.439262,23.41152,0.0 121.439883,23.411538,0.0 121.440386,23.411456,0.0 121.4409,23.411407,0.0 121.441287,23.411726,0.0 121.441504,23.411762,0.0 121.442359,23.411441,0.0 121.443782,23.41092,0.0 121.444629,23.410863,0.0 121.445328,23.410988,0.0 121.446044,23.411146,0.0 121.446735,23.410882,0.0 121.447153,23.410321,0.0 121.447445,23.40965,0.0 121.44794,23.409305,0.0 121.448931,23.409086,0.0 121.449467,23.409132,0.0 121.450129,23.409125,0.0 121.451143,23.409055,0.0 121.451456,23.409112,0.0 121.45187,23.409231,0.0 121.452285,23.409128,0.0 121.452645,23.408858,0.0 121.45278,23.408427,0.0 121.452745,23.40786,0.0 121.452745,23.40758,0.0 121.453059,23.407349,0.0 121.453595,23.407284,0.0 121.454134,23.407247,0.0 121.454598,23.407042,0.0 121.454701,23.406733,0.0 121.45482,23.406224,0.0 121.45498,23.406113,0.0 121.455305,23.406148,0.0 121.45583,23.40626,0.0 121.457665,23.406577,0.0 121.458544,23.407121,0.0 121.459513,23.407795,0.0 121.460202,23.407811,0.0 121.460887,23.407599,0.0 121.460933,23.407414,0.0 121.460795,23.407178,0.0 121.460789,23.406801,0.0 121.46099,23.406631,0.0 121.461257,23.406591,0.0 121.462692,23.406748,0.0 121.463093,23.406701,0.0 121.46337,23.406565,0.0 121.463586,23.406237,0.0 121.46458,23.405579,0.0 121.46505,23.405255,0.0 121.465261,23.404584,0.0 121.465502,23.404127,0.0 121.46583,23.40381,0.0 121.466206,23.403647,0.0 121.466808,23.403586,0.0 121.467475,23.403573,0.0 121.468388,23.403306,0.0 121.468867,23.403106,0.0 121.470029,23.402834,0.0 121.470399,23.402627,0.0 121.470706,23.402148,0.0 121.470847,23.401881,0.0 121.471167,23.401613,0.0 121.471649,23.401452,0.0 121.47217,23.4015,0.0 121.472523,23.401634,0.0 121.47269,23.401896,0.0 121.47293,23.402346,0.0 121.473391,23.402672,0.0 121.47387,23.40272,0.0 121.474214,23.402643,0.0 121.474627,23.402851,0.0 121.475379,23.403278,0.0 121.476151,23.403219,0.0 121.476437,23.403063,0.0 121.47662,23.402875,0.0 121.477156,23.402801,0.0 121.477954,23.402837,0.0 121.478219,23.402558,0.0 121.478796,23.401879,0.0 121.479654,23.400215,0.0 121.480188,23.399638,0.0 121.481205,23.398549,0.0 121.481145,23.397355,0.0 121.481514,23.398485,0.0 121.481805,23.398628,0.0 121.481515,23.398895,0.0 121.481589,23.399193,0.0 121.481662,23.399344,0.0 121.48158,23.399613,0.0 121.481551,23.400004,0.0 121.481511,23.40055,0.0 121.481859,23.402269,0.0 121.482349,23.403252,0.0 121.482963,23.403966,0.0 121.483171,23.405225,0.0 121.483097,23.40667,0.0 121.48318,23.406871,0.0 121.483079,23.407417,0.0 121.483426,23.408762,0.0 121.484045,23.411189,0.0 121.484691,23.412237,0.0 121.485689,23.413342,0.0 121.486033,23.41379,0.0 121.486442,23.415204,0.0 121.486715,23.416217,0.0 121.48683,23.41656,0.0 121.48763,23.418156,0.0 121.488042,23.419606,0.0 121.488327,23.421048,0.0 121.488559,23.422108,0.0 121.488488,23.42249,0.0 121.488895,23.423186,0.0 121.489218,23.424029,0.0 121.489449,23.4245,0.0 121.489806,23.425082,0.0 121.490449,23.42556,0.0 121.490828,23.426031,0.0 121.491152,23.426403,0.0 121.491375,23.427043,0.0 121.491476,23.427485,0.0 121.492033,23.428506,0.0 121.492369,23.428984,0.0 121.49273,23.429416,0.0 121.493367,23.430389,0.0 121.493845,23.431151,0.0 121.494363,23.431718,0.0 121.483365,23.430226,0.0 121.48311,23.430188,0.0 121.482688,23.430118,0.0 121.482453,23.430168,0.0 121.482379,23.430197,0.0 121.482222,23.430284,0.0 121.482096,23.430377,0.0 121.481949,23.430481,0.0 121.481853,23.430525,0.0 121.481676,23.430597,0.0 121.481491,23.430695,0.0 121.481304,23.430719,0.0 121.481249,23.430724,0.0 121.481164,23.43074,0.0 121.481096,23.43075,0.0 121.480923,23.430837,0.0 121.480855,23.430864,0.0 121.480789,23.430878,0.0 121.480608,23.430815,0.0 121.480429,23.430773,0.0 121.480365,23.430791,0.0 121.480206,23.430893,0.0 121.480091,23.430999,0.0 121.479882,23.431097,0.0 121.479754,23.431242,0.0 121.479721,23.43138,0.0 121.479725,23.431508,0.0 121.479714,23.431628,0.0 121.47965,23.431809,0.0 121.479568,23.431972,0.0 121.479454,23.432069,0.0 121.479349,23.432155,0.0 121.479265,23.432203,0.0 121.479154,23.432256,0.0 121.478996,23.432355,0.0 121.478885,23.432545,0.0 121.478833,23.43276,0.0 121.478778,23.43299,0.0 121.478719,23.433184,0.0 121.478675,23.433277,0.0 121.478583,23.433346,0.0 121.478451,23.433406,0.0 121.47835,23.433486,0.0 121.478241,23.433707,0.0 121.478196,23.433828,0.0 121.478099,23.434046,0.0 121.477944,23.434325,0.0 121.477879,23.434427,0.0 121.477832,23.434487,0.0 121.477719,23.434659,0.0 121.477704,23.434695,0.0 121.477596,23.434852,0.0 121.477482,23.434981,0.0 121.477335,23.435155,0.0 121.477268,23.435245,0.0 121.477188,23.435293,0.0 121.477045,23.435451,0.0 121.476911,23.435585,0.0 121.476833,23.435665,0.0 121.476756,23.435717,0.0 121.476613,23.435848,0.0 121.476469,23.435959,0.0 121.476365,23.436031,0.0 121.476314,23.436045,0.0 121.476208,23.436108,0.0 121.476172,23.436144,0.0 121.476102,23.436231,0.0 121.476042,23.436299,0.0 121.475961,23.436498,0.0 121.475886,23.436629,0.0 121.475806,23.436724,0.0 121.475678,23.436862,0.0 121.475554,23.436969,0.0 121.475435,23.437077,0.0 121.475306,23.437184,0.0 121.475204,23.43732,0.0 121.475073,23.437498,0.0 121.474937,23.437702,0.0 121.474879,23.43786,0.0 121.474816,23.438054,0.0 121.474764,23.438228,0.0 121.474733,23.438409,0.0 121.474639,23.438617,0.0 121.474533,23.438778,0.0 121.474468,23.438936,0.0 121.474439,23.439121,0.0 121.474412,23.439295,0.0 121.474357,23.439467,0.0 121.474261,23.4396,0.0 121.474132,23.439754,0.0 121.473973,23.439897,0.0 121.473836,23.439979,0.0 121.473703,23.440056,0.0 121.473632,23.44011,0.0 121.473568,23.44019,0.0 121.473503,23.440286,0.0 121.473475,23.440334,0.0 121.473401,23.440501,0.0 121.473319,23.440614,0.0 121.473094,23.440617,0.0 121.472987,23.440607,0.0 121.472937,23.440598,0.0 121.472651,23.440587,0.0 121.472555,23.440595,0.0 121.472466,23.44061,0.0 121.472122,23.440656,0.0 121.471923,23.440698,0.0 121.471622,23.440737,0.0 121.471437,23.440751,0.0 121.4712,23.440736,0.0 121.471005,23.440762,0.0 121.470781,23.440755,0.0 121.470584,23.440767,0.0 121.470307,23.44066,0.0 121.470225,23.440617,0.0 121.469972,23.440446,0.0 121.469892,23.440401,0.0 121.469811,23.440357,0.0 121.469717,23.440305,0.0 121.469696,23.440295,0.0 121.469574,23.440249,0.0 121.469424,23.440236,0.0 121.469202,23.440232,0.0 121.469035,23.440235,0.0 121.468792,23.440192,0.0 121.468598,23.440141,0.0 121.468353,23.440076,0.0 121.468214,23.44005,0.0 121.467978,23.440001,0.0 121.467695,23.439934,0.0 121.467491,23.439892,0.0 121.467218,23.439822,0.0 121.467015,23.43978,0.0 121.466671,23.439722,0.0 121.466478,23.4397,0.0 121.466227,23.43971,0.0 121.466033,23.439738,0.0 121.46589,23.439779,0.0 121.465625,23.439766,0.0 121.465362,23.439747,0.0 121.465178,23.439727,0.0 121.464926,23.439705,0.0 121.464715,23.439694,0.0 121.46444,23.439655,0.0 121.464233,23.439615,0.0 121.46398,23.43955,0.0 121.463866,23.439507,0.0 121.463756,23.439395,0.0 121.463562,23.438976,0.0 121.463506,23.438915,0.0 121.46339,23.438874,0.0 121.463223,23.43894,0.0 121.46299,23.439002,0.0 121.462812,23.4391,0.0 121.462591,23.439202,0.0 121.46241,23.439322,0.0 121.462239,23.439415,0.0 121.462047,23.439549,0.0 121.461976,23.439721,0.0 121.461924,23.43991,0.0 121.461861,23.440082,0.0 121.461792,23.440358,0.0 121.461785,23.440536,0.0 121.461786,23.440705,0.0 121.461768,23.440859,0.0 121.461728,23.441049,0.0 121.461713,23.441252,0.0 121.461712,23.441408,0.0 121.461675,23.441498,0.0 121.461471,23.441544,0.0 121.461258,23.441538,0.0 121.460942,23.441534,0.0 121.460722,23.441544,0.0 121.460493,23.441554,0.0 121.46021,23.441568,0.0 121.459932,23.441652,0.0 121.459674,23.441737,0.0 121.459455,23.441791,0.0 121.459245,23.441828,0.0 121.459068,23.441865,0.0 121.458854,23.441931,0.0 121.458621,23.441983,0.0 121.458431,23.442018,0.0 121.458221,23.442046,0.0 121.458073,23.442069,0.0 121.457939,23.442134,0.0 121.457779,23.442162,0.0 121.457589,23.442192,0.0 121.457326,23.442209,0.0 121.457109,23.442207,0.0 121.456919,23.442176,0.0 121.456757,23.442156,0.0 121.456661,23.442129,0.0 121.456386,23.44202,0.0 121.455914,23.441673,0.0 121.455723,23.441516,0.0 121.455553,23.441379,0.0 121.455119,23.441132,0.0 121.455066,23.441113,0.0 121.454839,23.441119,0.0 121.454662,23.441115,0.0 121.454435,23.441136,0.0 121.454229,23.44119,0.0 121.454086,23.441222,0.0 121.453935,23.441277,0.0 121.453781,23.441332,0.0 121.453563,23.441414,0.0 121.45337,23.441466,0.0 121.453154,23.441521,0.0 121.452899,23.441567,0.0 121.452658,23.441622,0.0 121.452466,23.441708,0.0 121.452286,23.441794,0.0 121.452119,23.441923,0.0 121.451958,23.442044,0.0 121.451818,23.442148,0.0 121.451647,23.442279,0.0 121.451505,23.442431,0.0 121.451366,23.442637,0.0 121.451247,23.442849,0.0 121.451136,23.443075,0.0 121.451023,23.443157,0.0 121.45083,23.443198,0.0 121.450651,23.443174,0.0 121.450552,23.443168,0.0 121.450353,23.443116,0.0 121.450112,23.443088,0.0 121.449636,23.443021,0.0 121.449436,23.442983,0.0 121.449039,23.442928,0.0 121.44872,23.442906,0.0 121.448592,23.442907,0.0 121.448413,23.442907,0.0 121.448277,23.442926,0.0 121.448125,23.443016,0.0 121.448005,23.4432,0.0 121.447834,23.443399,0.0 121.447564,23.443682,0.0 121.447316,23.443723,0.0 121.446991,23.443711,0.0 121.446878,23.443679,0.0 121.446655,23.443623,0.0 121.446381,23.443597,0.0 121.446236,23.443577,0.0 121.44605,23.443538,0.0 121.44595,23.443442,0.0 121.445874,23.443341,0.0 121.445822,23.443244,0.0 121.445753,23.443135,0.0 121.445234,23.442214,0.0 121.445147,23.442079,0.0 121.444882,23.441675,0.0 121.444824,23.441593,0.0 121.444677,23.44139,0.0 121.444434,23.441047,0.0 121.444301,23.440711,0.0 121.444287,23.440271,0.0 121.444256,23.440079,0.0 121.444241,23.440028,0.0 121.444194,23.439863,0.0 121.444306,23.439483,0.0 121.444387,23.439149,0.0 121.444354,23.439011,0.0 121.444209,23.438702,0.0 121.44412,23.438533,0.0 121.4441,23.438516,0.0 121.443936,23.438374,0.0 121.443852,23.438301,0.0 121.443764,23.438245,0.0 121.443675,23.438169,0.0 121.443466,23.438004,0.0 121.44323,23.437768,0.0 121.443073,23.437628,0.0 121.442973,23.437552,0.0 121.442754,23.437424,0.0 121.442594,23.43732,0.0 121.442313,23.4371,0.0 121.442241,23.437023,0.0 121.442173,23.436939,0.0 121.44215,23.436902,0.0 121.442018,23.436683,0.0 121.441892,23.436397,0.0 121.441815,23.436228,0.0 121.441668,23.435896,0.0 121.441553,23.435699,0.0 121.441315,23.435272,0.0 121.441168,23.434704,0.0 121.441138,23.434207,0.0 121.441071,23.434054,0.0 121.440865,23.433856,0.0 121.439878,23.43299,0.0 121.439522,23.432716,0.0 121.439498,23.432702,0.0 121.439288,23.432598,0.0 121.439162,23.432596,0.0 121.439027,23.432649,0.0 121.438917,23.432787,0.0 121.438718,23.433002,0.0 121.438606,23.433138,0.0 121.438575,23.433159,0.0 121.438383,23.43324,0.0 121.438255,23.433264,0.0 121.437953,23.433243,0.0 121.43776,23.43321,0.0 121.437398,23.433094,0.0 121.43697,23.432914,0.0 121.4369,23.432898,0.0 121.436723,23.432885,0.0 121.436588,23.432881,0.0 121.436547,23.432881,0.0 121.436343,23.432895,0.0 121.436053,23.432964,0.0 121.435683,23.433096,0.0 121.435322,23.43319,0.0 121.434852,23.433244,0.0 121.434608,23.433253,0.0 121.434255,23.433215,0.0 121.433914,23.433085,0.0 121.433514,23.432907,0.0 121.43333,23.432795,0.0 121.433268,23.432685,0.0 121.433313,23.432434,0.0 121.433369,23.432222,0.0 121.433298,23.432051,0.0 121.433145,23.431735,0.0 121.433109,23.431706,0.0 121.432899,23.431474,0.0 121.432662,23.431355,0.0 121.432034,23.431176,0.0 121.43112,23.430779,0.0 121.430596,23.430469,0.0 121.429887,23.429967,0.0 121.429306,23.429648,0.0 121.428588,23.429095,0.0 121.428281,23.428732,0.0 121.427664,23.428086,0.0 121.427266,23.427676,0.0 121.426919,23.427411,0.0 121.42611,23.42665,0.0 121.425549,23.426047,0.0 121.425355,23.4257,0.0 121.425349,23.425667,0.0 121.425364,23.425352,0.0 121.425436,23.425214,0.0 121.42549,23.425157,0.0 121.425603,23.425059,0.0 121.425697,23.424983,0.0 121.425731,23.424949,0.0 121.425731,23.424809,0.0 121.425401,23.42462,0.0 121.424896,23.424148,0.0 121.424084,23.423624,0.0 121.423885,23.42352,0.0 121.423831,23.423495,0.0 121.423532,23.423339,0.0 121.423246,23.423194,0.0 121.4232,23.423166,0.0 121.423143,23.42313,0.0 121.423061,23.423077,0.0 121.422542,23.422626,0.0 121.422455,23.42254,0.0 121.422086,23.422178,0.0 121.422062,23.42215,0.0 121.421882,23.421955,0.0 121.421811,23.421884,0.0 121.421346,23.421353,0.0 121.42131,23.421313,0.0 121.421145,23.42115,0.0 121.421022,23.421025,0.0 121.420891,23.420937,0.0 121.42075,23.42086,0.0 121.420521,23.420755,0.0 121.420359,23.420685,0.0 121.420304,23.420643,0.0 121.419905,23.419944,0.0 121.419622,23.419423,0.0 121.41969,23.419091,0.0 121.419852,23.418531,0.0 121.419846,23.417892,0.0 121.41988,23.417705,0.0 121.420051,23.417275,0.0 121.42005,23.416975,0.0 121.419886,23.416801,0.0 121.419768,23.416766,0.0 121.419582,23.416698,0.0 121.419476,23.416683,0.0 121.419273,23.416521,0.0 121.418827,23.416147,0.0 121.418463,23.41581,0.0 121.418363,23.41553,0.0 121.418379,23.415074,0.0 121.418399,23.414571,0.0 121.41854,23.41422,0.0 121.4185,23.413879,0.0 121.418495,23.413861,0.0 121.418389,23.413693,0.0 121.418292,23.413535,0.0 121.418174,23.413404,0.0 121.418025,23.413246,0.0 121.417873,23.413102,0.0 121.417696,23.413003,0.0 121.417521,23.412887,0.0 121.417456,23.412851,0.0 121.417283,23.412666,0.0 121.417257,23.412494,0.0 121.417373,23.412311,0.0 121.417627,23.412087,0.0 121.417613,23.411967,0.0 121.417387,23.411516,0.0 121.416963,23.410987,0.0 121.416421,23.410235,0.0 121.416265,23.409969,0.0 121.416168,23.40947,0.0 121.415946,23.408642,0.0 121.415538,23.407936,0.0 121.415122,23.407379,0.0 121.415101,23.407353,0.0 121.415045,23.407299,0.0 121.414971,23.407231,0.0 121.414855,23.407135,0.0 121.414788,23.407112,0.0 121.414707,23.407044,0.0 121.414465,23.406847,0.0 121.413606,23.405686,0.0 121.413224,23.405184,0.0 121.413094,23.404778,0.0 121.412828,23.40414,0.0 121.41265,23.403759,0.0 121.412636,23.403219,0.0 121.412634,23.402591,0.0 121.412482,23.402298,0.0 121.412163,23.402073,0.0 121.412114,23.402039,0.0 121.411937,23.401914,0.0 121.411702,23.401479,0.0 121.411571,23.401034,0.0 121.411371,23.400547,0.0 121.411038,23.400191,0.0 121.410938,23.399948,0.0 121.410868,23.399627,0.0 121.410655,23.399199,0.0 121.410416,23.398791,0.0 121.410083,23.398354,0.0 121.409934,23.398174,0.0 121.409807,23.397847,0.0 121.409346,23.397094,0.0 121.408652,23.396493,0.0 121.408159,23.396161,0.0 121.408151,23.396155,0.0 121.408105,23.396122,0.0 121.407803,23.395811,0.0 121.407674,23.395439,0.0 121.407529,23.3948,0.0 121.407133,23.394117,0.0 121.406761,23.393592,0.0 121.406432,23.393282,0.0 121.406013,23.392757,0.0 121.405746,23.392407,0.0 121.405451,23.392011,0.0 121.404865,23.391581,0.0 121.40439,23.391153,0.0 121.404056,23.390703,0.0 121.403727,23.390352,0.0 121.403673,23.389801,0.0 121.403634,23.38941,0.0 121.403373,23.389183,0.0 121.402995,23.389017,0.0 121.402917,23.389024,0.0 121.402729,23.388989,0.0 121.402533,23.38896,0.0 121.402358,23.388938,0.0 121.402112,23.388873,0.0 121.401892,23.388815,0.0 121.401677,23.388795,0.0 121.401545,23.388746,0.0 121.401417,23.388696,0.0 121.401303,23.388606,0.0 121.401167,23.388462,0.0 121.401099,23.388295,0.0 121.401058,23.388144,0.0 121.401024,23.38795,0.0 121.400937,23.387808,0.0 121.400838,23.387677,0.0 121.400686,23.387488,0.0 121.400592,23.387342,0.0 121.400485,23.387175,0.0 121.400282,23.386972,0.0 121.400173,23.386808,0.0 121.400048,23.386562,0.0 121.400014,23.386402,0.0 121.399967,23.386144,0.0 121.399954,23.386045,0.0 121.399931,23.385869,0.0 121.399931,23.385598,0.0 121.399945,23.385415,0.0 121.399985,23.385289,0.0 121.40012,23.38502,0.0 121.400174,23.384893,0.0 121.400274,23.384717,0.0 121.400417,23.384459,0.0 121.400465,23.384319,0.0 121.40051,23.384184,0.0 121.400579,23.383978,0.0 121.400662,23.383725,0.0 121.400744,23.383535,0.0 121.400838,23.38332,0.0 121.400911,23.383133,0.0 121.40103,23.382857,0.0 121.401086,23.382697,0.0 121.401141,23.382457,0.0 121.401192,23.382247,0.0 121.401247,23.382073,0.0 121.401298,23.381827,0.0 121.401344,23.381635,0.0 121.401391,23.381368,0.0 121.401433,23.381188,0.0 121.401485,23.380978,0.0 121.40155,23.38079,0.0 121.401645,23.380505,0.0 121.401728,23.380349,0.0 121.401811,23.380203,0.0 121.401918,23.380051,0.0 121.40206,23.379859,0.0 121.402156,23.379714,0.0 121.402296,23.379567,0.0 121.402433,23.379404,0.0 121.402517,23.379266,0.0 121.402652,23.379051,0.0 121.402672,23.378866,0.0 121.402645,23.378557,0.0 121.402637,23.37839,0.0 121.402692,23.378168,0.0 121.402827,23.378008,0.0 121.402914,23.377859,0.0 121.403019,23.377703,0.0 121.403123,23.37751,0.0 121.403204,23.377307,0.0 121.403283,23.377016,0.0 121.403375,23.376724,0.0 121.403439,23.376469,0.0 121.403508,23.376153,0.0 121.403635,23.375807,0.0 121.403661,23.375624,0.0 121.40368,23.375439,0.0 121.403648,23.375182,0.0</coordinates></LinearRing></outerBoundaryIs></Polygon><styleUrl>#spolygon-map</styleUrl></Placemark></Document>
</kml>
