<?xml version="1.0" encoding="UTF-8"?>
<kml xmlns="http://www.opengis.net/kml/2.2">
	<Document>
		<name>臺東縣綠島鄉</name>
		<Style id="spolygon">
			<LabelStyle>
				<scale>0.0</scale>
			</LabelStyle>
			<LineStyle>
				<color>330030ff</color>
				<width>0</width>
			</LineStyle>
			<PolyStyle>
				<color>330030ff</color>
			</PolyStyle>
		</Style>
		<StyleMap id="spolygon-map">
			<Pair>
				<key>normal</key>
				<styleUrl>#spolygon</styleUrl>
			</Pair>
		</StyleMap>
	<Placemark><Polygon><outerBoundaryIs><LinearRing><coordinates>121.463859,22.677558,0.0 121.466802,22.674567,0.0 121.469698,22.671147,0.0 121.471623,22.669597,0.0 121.473387,22.66825,0.0 121.47595,22.666787,0.0 121.477503,22.665565,0.0 121.47838,22.664239,0.0 121.479866,22.662657,0.0 121.481558,22.661577,0.0 121.482637,22.661192,0.0 121.483142,22.66143,0.0 121.483688,22.662036,0.0 121.484252,22.663163,0.0 121.48462,22.663178,0.0 121.485436,22.663071,0.0 121.486404,22.662806,0.0 121.486909,22.662588,0.0 121.487402,22.662659,0.0 121.486549,22.663504,0.0 121.486061,22.664925,0.0 121.485214,22.666163,0.0 121.48472,22.666918,0.0 121.483634,22.666418,0.0 121.482776,22.666748,0.0 121.481343,22.668818,0.0 121.480303,22.669573,0.0 121.479573,22.670783,0.0 121.479485,22.673102,0.0 121.47895,22.673652,0.0 121.477153,22.675234,0.0 121.477172,22.676615,0.0 121.477025,22.67658,0.0 121.476781,22.67661,0.0 121.476693,22.676572,0.0 121.476601,22.676592,0.0 121.476433,22.676586,0.0 121.476322,22.676634,0.0 121.476209,22.67665,0.0 121.476076,22.676652,0.0 121.475848,22.676723,0.0 121.475636,22.676807,0.0 121.475424,22.676819,0.0 121.475288,22.676824,0.0 121.475105,22.676863,0.0 121.474728,22.676907,0.0 121.474481,22.676865,0.0 121.474386,22.676856,0.0 121.473981,22.676889,0.0 121.473691,22.676822,0.0 121.473489,22.67671,0.0 121.473395,22.676595,0.0 121.473226,22.676054,0.0 121.47283,22.675793,0.0 121.472558,22.675679,0.0 121.472275,22.676034,0.0 121.473206,22.676855,0.0 121.473213,22.67695,0.0 121.473119,22.677068,0.0 121.473099,22.677151,0.0 121.473164,22.677293,0.0 121.473154,22.677354,0.0 121.473061,22.677406,0.0 121.472937,22.677432,0.0 121.472845,22.677511,0.0 121.472637,22.677658,0.0 121.47254,22.677808,0.0 121.472388,22.677894,0.0 121.47227,22.678043,0.0 121.472167,22.678077,0.0 121.472118,22.678039,0.0 121.472045,22.677969,0.0 121.471981,22.677924,0.0 121.471946,22.67792,0.0 121.471944,22.677945,0.0 121.471952,22.67799,0.0 121.471925,22.678037,0.0 121.471865,22.678065,0.0 121.47182,22.678049,0.0 121.471737,22.678058,0.0 121.471622,22.678072,0.0 121.471534,22.678054,0.0 121.471388,22.678104,0.0 121.47123,22.678146,0.0 121.471066,22.678203,0.0 121.470968,22.67818,0.0 121.470772,22.678185,0.0 121.470713,22.678215,0.0 121.470678,22.678357,0.0 121.470616,22.678387,0.0 121.470381,22.678322,0.0 121.470258,22.678293,0.0 121.470127,22.678341,0.0 121.469939,22.67835,0.0 121.469597,22.678476,0.0 121.46946,22.678476,0.0 121.469329,22.678535,0.0 121.469174,22.678569,0.0 121.469046,22.678633,0.0 121.468928,22.678633,0.0 121.468861,22.678663,0.0 121.468725,22.678713,0.0 121.468625,22.678812,0.0 121.468509,22.678858,0.0 121.468444,22.678876,0.0 121.468339,22.67896,0.0 121.468264,22.678951,0.0 121.468159,22.678924,0.0 121.467922,22.678959,0.0 121.467796,22.67891,0.0 121.467749,22.678862,0.0 121.467664,22.678885,0.0 121.4676,22.678874,0.0 121.46754,22.678761,0.0 121.467396,22.678665,0.0 121.46704,22.678627,0.0 121.466685,22.678642,0.0 121.466497,22.678699,0.0 121.466291,22.678783,0.0 121.465825,22.678816,0.0 121.465576,22.678803,0.0 121.465437,22.67877,0.0 121.465022,22.678771,0.0 121.464945,22.678717,0.0 121.464906,22.678665,0.0 121.464841,22.678663,0.0 121.464723,22.678729,0.0 121.464625,22.678716,0.0 121.46453,22.678675,0.0 121.464332,22.678674,0.0 121.464257,22.678647,0.0 121.464164,22.678586,0.0 121.464092,22.678548,0.0 121.464104,22.67848,0.0 121.464101,22.678413,0.0 121.464034,22.67832,0.0 121.464018,22.678085,0.0 121.463982,22.678018,0.0 121.463886,22.677878,0.0 121.46387,22.677828,0.0 121.463937,22.677758,0.0 121.463952,22.677675,0.0 121.463906,22.677598,0.0 121.463859,22.677558,0.0</coordinates></LinearRing></outerBoundaryIs></Polygon><styleUrl>#spolygon-map</styleUrl></Placemark><Placemark><MultiGeometry><Polygon><outerBoundaryIs><LinearRing><coordinates>121.507662,22.649634,0.0 121.507873,22.64976,0.0 121.507614,22.650068,0.0 121.507116,22.649907,0.0 121.507286,22.649672,0.0 121.507662,22.649634,0.0</coordinates></LinearRing></outerBoundaryIs></Polygon><Polygon><outerBoundaryIs><LinearRing><coordinates>121.509947,22.653994,0.0 121.510014,22.65403,0.0 121.510039,22.654117,0.0 121.51003,22.654188,0.0 121.510003,22.654242,0.0 121.510044,22.654257,0.0 121.510193,22.654196,0.0 121.510341,22.654117,0.0 121.510522,22.654109,0.0 121.510695,22.65421,0.0 121.510692,22.654357,0.0 121.510696,22.654418,0.0 121.510767,22.654519,0.0 121.510778,22.654623,0.0 121.510804,22.654693,0.0 121.510876,22.65481,0.0 121.510867,22.65488,0.0 121.510829,22.654946,0.0 121.510832,22.654986,0.0 121.510886,22.655097,0.0 121.510907,22.655187,0.0 121.510851,22.655248,0.0 121.510668,22.655265,0.0 121.510566,22.655245,0.0 121.510451,22.655236,0.0 121.510368,22.655279,0.0 121.510353,22.655338,0.0 121.510388,22.655394,0.0 121.510482,22.655527,0.0 121.510548,22.655592,0.0 121.51068,22.655694,0.0 121.510745,22.655788,0.0 121.510792,22.655887,0.0 121.510845,22.655993,0.0 121.510897,22.656104,0.0 121.510877,22.65628,0.0 121.5109,22.656325,0.0 121.510951,22.656388,0.0 121.510943,22.656458,0.0 121.510829,22.656571,0.0 121.510774,22.656657,0.0 121.510701,22.656682,0.0 121.510596,22.656626,0.0 121.510529,22.656534,0.0 121.510521,22.656412,0.0 121.510442,22.656313,0.0 121.510317,22.656239,0.0 121.510163,22.656219,0.0 121.510072,22.656262,0.0 121.510011,22.656265,0.0 121.509906,22.656238,0.0 121.50982,22.656263,0.0 121.509675,22.65627,0.0 121.509623,22.656255,0.0 121.509548,22.656189,0.0 121.50946,22.656178,0.0 121.509378,22.65614,0.0 121.50934,22.65605,0.0 121.509309,22.65598,0.0 121.509195,22.65582,0.0 121.509161,22.655739,0.0 121.509042,22.655631,0.0 121.508969,22.655543,0.0 121.508885,22.655498,0.0 121.508649,22.655517,0.0 121.508332,22.655557,0.0 121.508229,22.655582,0.0 121.508143,22.655555,0.0 121.508092,22.655444,0.0 121.508087,22.655314,0.0 121.5081,22.655212,0.0 121.508156,22.655146,0.0 121.508264,22.655126,0.0 121.508315,22.655094,0.0 121.50831,22.655037,0.0 121.508294,22.654972,0.0 121.508325,22.65492,0.0 121.50834,22.654854,0.0 121.508544,22.654736,0.0 121.508583,22.654689,0.0 121.508648,22.654666,0.0 121.508775,22.654261,0.0 121.508883,22.654157,0.0 121.50901,22.654139,0.0 121.50905,22.654197,0.0 121.509035,22.65431,0.0 121.509029,22.654407,0.0 121.509087,22.654412,0.0 121.509261,22.654231,0.0 121.509373,22.654077,0.0 121.509467,22.654029,0.0 121.509717,22.654017,0.0 121.509947,22.653994,0.0</coordinates></LinearRing></outerBoundaryIs></Polygon><Polygon><outerBoundaryIs><LinearRing><coordinates>121.513622,22.680239,0.0 121.51389,22.680618,0.0 121.513768,22.68088,0.0 121.513603,22.680889,0.0 121.513458,22.680781,0.0 121.513243,22.681035,0.0 121.513091,22.680765,0.0 121.512938,22.68035,0.0 121.513269,22.680367,0.0 121.513622,22.680239,0.0</coordinates></LinearRing></outerBoundaryIs></Polygon><Polygon><outerBoundaryIs><LinearRing><coordinates>121.491143,22.679775,0.0 121.491259,22.679831,0.0 121.49128,22.67993,0.0 121.491202,22.680034,0.0 121.490628,22.680456,0.0 121.490537,22.680479,0.0 121.490475,22.680402,0.0 121.490379,22.680298,0.0 121.490325,22.680233,0.0 121.490382,22.680161,0.0 121.490299,22.680057,0.0 121.490253,22.679987,0.0 121.490303,22.679856,0.0 121.491143,22.679775,0.0</coordinates></LinearRing></outerBoundaryIs></Polygon><Polygon><outerBoundaryIs><LinearRing><coordinates>121.507253,22.658615,0.0 121.507308,22.658633,0.0 121.507337,22.658693,0.0 121.507398,22.658752,0.0 121.507453,22.658747,0.0 121.507585,22.658679,0.0 121.507657,22.658679,0.0 121.507745,22.658708,0.0 121.507945,22.65866,0.0 121.508047,22.658671,0.0 121.508117,22.658698,0.0 121.508193,22.658707,0.0 121.508324,22.65883,0.0 121.508362,22.658846,0.0 121.508472,22.658873,0.0 121.508516,22.658927,0.0 121.508527,22.659001,0.0 121.508501,22.659078,0.0 121.508372,22.659209,0.0 121.508291,22.65921,0.0 121.508078,22.659075,0.0 121.508036,22.659059,0.0 121.50794,22.659091,0.0 121.507608,22.659099,0.0 121.50751,22.659181,0.0 121.507432,22.659208,0.0 121.507349,22.659177,0.0 121.507232,22.658971,0.0 121.507167,22.658805,0.0 121.507167,22.65871,0.0 121.507217,22.658631,0.0 121.507253,22.658615,0.0</coordinates></LinearRing></outerBoundaryIs></Polygon><Polygon><outerBoundaryIs><LinearRing><coordinates>121.512631,22.662953,0.0 121.512772,22.662977,0.0 121.512817,22.663054,0.0 121.512759,22.663153,0.0 121.512794,22.663255,0.0 121.512891,22.663473,0.0 121.512846,22.663577,0.0 121.512726,22.663682,0.0 121.512699,22.663813,0.0 121.512683,22.664016,0.0 121.512566,22.664104,0.0 121.512439,22.664161,0.0 121.51228,22.664094,0.0 121.512156,22.66414,0.0 121.512009,22.664133,0.0 121.511928,22.664039,0.0 121.511924,22.663732,0.0 121.511865,22.663578,0.0 121.511764,22.6634,0.0 121.511774,22.663274,0.0 121.511959,22.663172,0.0 121.512045,22.663104,0.0 121.512156,22.663124,0.0 121.512277,22.663162,0.0 121.512411,22.663102,0.0 121.512489,22.662998,0.0 121.512631,22.662953,0.0</coordinates></LinearRing></outerBoundaryIs></Polygon><Polygon><outerBoundaryIs><LinearRing><coordinates>121.504622,22.641652,0.0 121.504783,22.641836,0.0 121.504802,22.64189,0.0 121.504797,22.642003,0.0 121.504746,22.642015,0.0 121.504593,22.641979,0.0 121.50445,22.641788,0.0 121.504448,22.641731,0.0 121.504487,22.64169,0.0 121.504622,22.641652,0.0</coordinates></LinearRing></outerBoundaryIs></Polygon><Polygon><outerBoundaryIs><LinearRing><coordinates>121.512195,22.679584,0.0 121.512406,22.679782,0.0 121.512296,22.679963,0.0 121.512218,22.680027,0.0 121.512289,22.680162,0.0 121.512152,22.680298,0.0 121.511939,22.680317,0.0 121.511779,22.680236,0.0 121.51152,22.680309,0.0 121.511431,22.680165,0.0 121.511388,22.680011,0.0 121.511819,22.679658,0.0 121.512195,22.679584,0.0</coordinates></LinearRing></outerBoundaryIs></Polygon><Polygon><outerBoundaryIs><LinearRing><coordinates>121.511746,22.664721,0.0 121.511806,22.664734,0.0 121.511888,22.664806,0.0 121.5119,22.66494,0.0 121.511988,22.665176,0.0 121.51193,22.665244,0.0 121.511761,22.665261,0.0 121.511645,22.665308,0.0 121.51155,22.665334,0.0 121.511485,22.665302,0.0 121.511415,22.665081,0.0 121.511461,22.665006,0.0 121.51155,22.664927,0.0 121.511643,22.66478,0.0 121.511746,22.664721,0.0</coordinates></LinearRing></outerBoundaryIs></Polygon><Polygon><outerBoundaryIs><LinearRing><coordinates>121.508201,22.632424,0.0 121.508245,22.632436,0.0 121.508342,22.632559,0.0 121.508262,22.632632,0.0 121.50824,22.632677,0.0 121.508201,22.632725,0.0 121.508122,22.632732,0.0 121.508099,22.632772,0.0 121.50812,22.632813,0.0 121.508193,22.632842,0.0 121.508316,22.632806,0.0 121.508378,22.632819,0.0 121.508399,22.632862,0.0 121.508339,22.63293,0.0 121.508265,22.632941,0.0 121.508216,22.63298,0.0 121.508139,22.63298,0.0 121.508063,22.632928,0.0 121.507984,22.632741,0.0 121.507998,22.632572,0.0 121.508152,22.632436,0.0 121.508201,22.632424,0.0</coordinates></LinearRing></outerBoundaryIs></Polygon><Polygon><outerBoundaryIs><LinearRing><coordinates>121.511083,22.679335,0.0 121.511423,22.679713,0.0 121.511317,22.680048,0.0 121.511174,22.68013,0.0 121.51085,22.680275,0.0 121.510692,22.68023,0.0 121.510697,22.679941,0.0 121.510523,22.679788,0.0 121.51048,22.679608,0.0 121.510818,22.679489,0.0 121.511083,22.679335,0.0</coordinates></LinearRing></outerBoundaryIs></Polygon><Polygon><outerBoundaryIs><LinearRing><coordinates>121.511534,22.669361,0.0 121.511633,22.669429,0.0 121.511677,22.66953,0.0 121.511669,22.669636,0.0 121.511608,22.669691,0.0 121.511501,22.669687,0.0 121.511418,22.669721,0.0 121.511346,22.669777,0.0 121.511311,22.669757,0.0 121.51126,22.669665,0.0 121.51126,22.669588,0.0 121.51122,22.669477,0.0 121.511248,22.669385,0.0 121.511305,22.669362,0.0 121.511394,22.669369,0.0 121.511489,22.669364,0.0 121.511534,22.669361,0.0</coordinates></LinearRing></outerBoundaryIs></Polygon><Polygon><outerBoundaryIs><LinearRing><coordinates>121.511887,22.680507,0.0 121.512291,22.680596,0.0 121.512171,22.680903,0.0 121.512244,22.68121,0.0 121.511769,22.681238,0.0 121.511698,22.681419,0.0 121.511937,22.68168,0.0 121.511702,22.68225,0.0 121.511536,22.682675,0.0 121.511323,22.682432,0.0 121.510846,22.682235,0.0 121.510275,22.682282,0.0 121.510108,22.682084,0.0 121.510178,22.681749,0.0 121.510535,22.68173,0.0 121.510581,22.681567,0.0 121.51013,22.681379,0.0 121.510175,22.68118,0.0 121.510341,22.681062,0.0 121.510103,22.680955,0.0 121.510053,22.680828,0.0 121.510437,22.6808,0.0 121.510792,22.681088,0.0 121.511078,22.680888,0.0 121.511887,22.680507,0.0</coordinates></LinearRing></outerBoundaryIs></Polygon><Polygon><outerBoundaryIs><LinearRing><coordinates>121.477172,22.676615,0.0 121.477153,22.675234,0.0 121.47895,22.673652,0.0 121.479485,22.673102,0.0 121.479573,22.670783,0.0 121.480303,22.669573,0.0 121.481343,22.668818,0.0 121.482776,22.666748,0.0 121.483634,22.666418,0.0 121.48472,22.666918,0.0 121.485214,22.666163,0.0 121.486061,22.664925,0.0 121.486549,22.663504,0.0 121.487402,22.662659,0.0 121.487671,22.661209,0.0 121.489477,22.660429,0.0 121.491185,22.659116,0.0 121.492206,22.658266,0.0 121.492379,22.657374,0.0 121.491586,22.654927,0.0 121.490733,22.653681,0.0 121.488518,22.651771,0.0 121.48725,22.650736,0.0 121.48899,22.649379,0.0 121.489928,22.648351,0.0 121.490537,22.647231,0.0 121.49045,22.646527,0.0 121.489896,22.645411,0.0 121.489881,22.643537,0.0 121.489148,22.641126,0.0 121.489224,22.641056,0.0 121.489297,22.64104,0.0 121.489362,22.641071,0.0 121.489435,22.641177,0.0 121.489488,22.641179,0.0 121.489508,22.641114,0.0 121.48953,22.640967,0.0 121.489616,22.64094,0.0 121.489796,22.640946,0.0 121.489952,22.640889,0.0 121.490126,22.640649,0.0 121.490404,22.640486,0.0 121.490602,22.640289,0.0 121.490678,22.640101,0.0 121.490757,22.640035,0.0 121.490855,22.639985,0.0 121.491179,22.639939,0.0 121.4915,22.639823,0.0 121.491898,22.639788,0.0 121.491999,22.639715,0.0 121.492029,22.639553,0.0 121.492223,22.639125,0.0 121.492598,22.638578,0.0 121.493034,22.637543,0.0 121.493347,22.636654,0.0 121.493833,22.635657,0.0 121.493915,22.6354,0.0 121.494084,22.634959,0.0 121.494191,22.63473,0.0 121.494239,22.634536,0.0 121.494617,22.634013,0.0 121.494714,22.63388,0.0 121.494705,22.633805,0.0 121.494646,22.63372,0.0 121.494624,22.63362,0.0 121.494737,22.633485,0.0 121.49515,22.633334,0.0 121.495404,22.633304,0.0 121.495495,22.633257,0.0 121.495733,22.632989,0.0 121.495989,22.63281,0.0 121.496295,22.632753,0.0 121.496427,22.632789,0.0 121.496655,22.632878,0.0 121.496936,22.632913,0.0 121.497207,22.632924,0.0 121.497517,22.632767,0.0 121.498132,22.632393,0.0 121.4982,22.632399,0.0 121.498269,22.632446,0.0 121.498408,22.632457,0.0 121.498507,22.632525,0.0 121.498705,22.63268,0.0 121.498764,22.632806,0.0 121.498856,22.632889,0.0 121.498955,22.632907,0.0 121.499017,22.632948,0.0 121.49903,22.63304,0.0 121.499133,22.633114,0.0 121.49929,22.633218,0.0 121.49985,22.633363,0.0 121.500088,22.633497,0.0 121.500412,22.6337,0.0 121.500479,22.633715,0.0 121.500569,22.633665,0.0 121.500626,22.633661,0.0 121.50086,22.633734,0.0 121.500954,22.633736,0.0 121.501193,22.633652,0.0 121.50155,22.633646,0.0 121.501738,22.633596,0.0 121.501897,22.633589,0.0 121.501976,22.633573,0.0 121.50208,22.633521,0.0 121.502218,22.633507,0.0 121.502479,22.633257,0.0 121.502656,22.63313,0.0 121.502736,22.633114,0.0 121.502815,22.633175,0.0 121.503055,22.633283,0.0 121.503238,22.633411,0.0 121.503369,22.633424,0.0 121.503592,22.633401,0.0 121.503876,22.633474,0.0 121.503999,22.633501,0.0 121.504362,22.633439,0.0 121.504468,22.633432,0.0 121.504597,22.63347,0.0 121.504859,22.6336,0.0 121.505011,22.633593,0.0 121.505126,22.633554,0.0 121.505302,22.633522,0.0 121.505506,22.633519,0.0 121.505612,22.633482,0.0 121.505866,22.633452,0.0 121.505941,22.633411,0.0 121.50613,22.633047,0.0 121.506214,22.632948,0.0 121.506292,22.632898,0.0 121.506359,22.632839,0.0 121.506454,22.632811,0.0 121.506624,22.632793,0.0 121.506692,22.632797,0.0 121.506766,22.63284,0.0 121.506867,22.632842,0.0 121.506913,22.632891,0.0 121.507081,22.632898,0.0 121.507137,22.632922,0.0 121.507277,22.632922,0.0 121.50732,22.632831,0.0 121.507374,22.632793,0.0 121.507475,22.632797,0.0 121.507521,22.632835,0.0 121.507636,22.632844,0.0 121.507697,22.632871,0.0 121.507753,22.632959,0.0 121.507752,22.633022,0.0 121.507671,22.633074,0.0 121.507639,22.633119,0.0 121.507642,22.633178,0.0 121.507759,22.633263,0.0 121.507826,22.633313,0.0 121.507814,22.633363,0.0 121.507766,22.633381,0.0 121.50767,22.63339,0.0 121.507679,22.633431,0.0 121.507777,22.633516,0.0 121.508009,22.633676,0.0 121.50811,22.633773,0.0 121.508264,22.633919,0.0 121.50836,22.634034,0.0 121.508526,22.634141,0.0 121.508614,22.63413,0.0 121.508752,22.634048,0.0 121.50881,22.634032,0.0 121.508872,22.634061,0.0 121.508939,22.634129,0.0 121.508991,22.634122,0.0 121.509004,22.633977,0.0 121.509034,22.633867,0.0 121.509147,22.633717,0.0 121.509289,22.633678,0.0 121.509407,22.633698,0.0 121.509486,22.633813,0.0 121.509505,22.633931,0.0 121.509464,22.634075,0.0 121.509366,22.634247,0.0 121.509357,22.634342,0.0 121.509378,22.634403,0.0 121.509494,22.634502,0.0 121.509526,22.634576,0.0 121.509504,22.634696,0.0 121.50941,22.634951,0.0 121.50935,22.634985,0.0 121.509294,22.634977,0.0 121.509213,22.634862,0.0 121.509145,22.634794,0.0 121.509071,22.634781,0.0 121.509024,22.634817,0.0 121.509043,22.634869,0.0 121.509092,22.634937,0.0 121.509146,22.634993,0.0 121.509243,22.635004,0.0 121.509324,22.635062,0.0 121.509364,22.635216,0.0 121.509284,22.635394,0.0 121.509094,22.635567,0.0 121.50902,22.6357,0.0 121.509015,22.635883,0.0 121.508967,22.635964,0.0 121.508814,22.636033,0.0 121.508715,22.636033,0.0 121.508643,22.635968,0.0 121.508563,22.635878,0.0 121.508549,22.635796,0.0 121.508571,22.635722,0.0 121.508726,22.635536,0.0 121.508726,22.635468,0.0 121.508677,22.635408,0.0 121.508606,22.635396,0.0 121.508548,22.635446,0.0 121.508444,22.635591,0.0 121.508302,22.635693,0.0 121.508243,22.635736,0.0 121.508181,22.63575,0.0 121.508069,22.635753,0.0 121.507976,22.635809,0.0 121.507931,22.635828,0.0 121.507805,22.63586,0.0 121.507609,22.635862,0.0 121.507432,22.635958,0.0 121.507239,22.636171,0.0 121.50714,22.636214,0.0 121.506867,22.636409,0.0 121.506542,22.636787,0.0 121.506456,22.636916,0.0 121.506453,22.637027,0.0 121.506463,22.637223,0.0 121.506384,22.637435,0.0 121.50616,22.637725,0.0 121.506127,22.637868,0.0 121.506134,22.638236,0.0 121.50609,22.638303,0.0 121.505963,22.638396,0.0 121.505851,22.638537,0.0 121.505787,22.638738,0.0 121.50575,22.638932,0.0 121.505674,22.639133,0.0 121.505648,22.639285,0.0 121.505593,22.639418,0.0 121.505623,22.63951,0.0 121.505636,22.639601,0.0 121.505601,22.639691,0.0 121.505497,22.639829,0.0 121.505308,22.640295,0.0 121.505273,22.640426,0.0 121.505309,22.640552,0.0 121.505405,22.64071,0.0 121.505503,22.640784,0.0 121.505525,22.640845,0.0 121.505503,22.640915,0.0 121.505413,22.640954,0.0 121.505301,22.640882,0.0 121.50513,22.640682,0.0 121.505089,22.640673,0.0 121.505061,22.640711,0.0 121.50482,22.641066,0.0 121.504528,22.641469,0.0 121.504348,22.641625,0.0 121.504228,22.641806,0.0 121.504141,22.642003,0.0 121.503902,22.642209,0.0 121.5038,22.642325,0.0 121.5038,22.642397,0.0 121.503849,22.64253,0.0 121.503832,22.642596,0.0 121.503745,22.642648,0.0 121.503581,22.642849,0.0 121.503494,22.643008,0.0 121.503344,22.643015,0.0 121.503296,22.643047,0.0 121.503058,22.643433,0.0 121.502814,22.643633,0.0 121.50265,22.643857,0.0 121.502425,22.644115,0.0 121.502321,22.644267,0.0 121.502301,22.644375,0.0 121.502086,22.644518,0.0 121.501933,22.644532,0.0 121.501836,22.644602,0.0 121.501836,22.644645,0.0 121.501913,22.644706,0.0 121.501953,22.64478,0.0 121.501932,22.644841,0.0 121.501858,22.644855,0.0 121.501756,22.644761,0.0 121.501684,22.644761,0.0 121.501542,22.644876,0.0 121.501494,22.644967,0.0 121.501479,22.645066,0.0 121.501367,22.645125,0.0 121.501153,22.645205,0.0 121.500793,22.645468,0.0 121.500451,22.645713,0.0 121.500306,22.645713,0.0 121.500188,22.645666,0.0 121.500139,22.645594,0.0 121.500072,22.645574,0.0 121.499963,22.645606,0.0 121.49979,22.645631,0.0 121.499661,22.645602,0.0 121.499485,22.645549,0.0 121.49946,22.645576,0.0 121.499509,22.645628,0.0 121.499743,22.645699,0.0 121.499852,22.645719,0.0 121.499969,22.645746,0.0 121.500156,22.64577,0.0 121.500316,22.645878,0.0 121.500331,22.645953,0.0 121.500275,22.646075,0.0 121.500252,22.64617,0.0 121.500291,22.646395,0.0 121.500387,22.646485,0.0 121.500573,22.64669,0.0 121.500855,22.647028,0.0 121.500937,22.647197,0.0 121.500912,22.647244,0.0 121.500836,22.647279,0.0 121.500797,22.647315,0.0 121.500806,22.64741,0.0 121.500856,22.647488,0.0 121.500913,22.647511,0.0 121.501026,22.647515,0.0 121.501075,22.647555,0.0 121.501109,22.647698,0.0 121.501154,22.647799,0.0 121.501164,22.647874,0.0 121.50121,22.647907,0.0 121.501329,22.647907,0.0 121.501641,22.647865,0.0 121.501711,22.647897,0.0 121.501726,22.647955,0.0 121.501715,22.648037,0.0 121.5016,22.648181,0.0 121.501584,22.648258,0.0 121.501596,22.648326,0.0 121.501783,22.648594,0.0 121.501821,22.648725,0.0 121.501873,22.648804,0.0 121.50189,22.648953,0.0 121.501803,22.649131,0.0 121.501775,22.649242,0.0 121.501669,22.649326,0.0 121.501625,22.649351,0.0 121.501621,22.649383,0.0 121.501665,22.649387,0.0 121.50185,22.649348,0.0 121.501907,22.649373,0.0 121.50194,22.649501,0.0 121.501999,22.649722,0.0 121.50198,22.649795,0.0 121.501949,22.649862,0.0 121.501981,22.649916,0.0 121.502109,22.649954,0.0 121.502238,22.649963,0.0 121.502295,22.650004,0.0 121.502307,22.650087,0.0 121.502377,22.650141,0.0 121.502488,22.650238,0.0 121.50253,22.650323,0.0 121.502563,22.650477,0.0 121.502655,22.65065,0.0 121.502747,22.650774,0.0 121.502729,22.65091,0.0 121.502751,22.651034,0.0 121.502901,22.651196,0.0 121.502938,22.65127,0.0 121.50299,22.651259,0.0 121.503259,22.651005,0.0 121.503331,22.650996,0.0 121.50347,22.651081,0.0 121.503487,22.651129,0.0 121.503421,22.651386,0.0 121.503432,22.651452,0.0 121.503484,22.65147,0.0 121.50365,22.651483,0.0 121.503708,22.651523,0.0 121.503783,22.651649,0.0 121.503918,22.651662,0.0 121.504109,22.651754,0.0 121.504175,22.651756,0.0 121.504136,22.651596,0.0 121.504043,22.651432,0.0 121.504067,22.651386,0.0 121.504115,22.651395,0.0 121.504207,22.651551,0.0 121.504463,22.651744,0.0 121.504583,22.651755,0.0 121.504687,22.651592,0.0 121.504744,22.651563,0.0 121.50483,22.651614,0.0 121.504856,22.651698,0.0 121.504903,22.651734,0.0 121.504986,22.651709,0.0 121.505115,22.651704,0.0 121.50522,22.651679,0.0 121.505307,22.65171,0.0 121.505494,22.651852,0.0 121.505622,22.651869,0.0 121.50573,22.651853,0.0 121.505818,22.651871,0.0 121.505961,22.651983,0.0 121.506089,22.652026,0.0 121.50627,22.65203,0.0 121.506323,22.652045,0.0 121.506412,22.652163,0.0 121.506388,22.652219,0.0 121.506323,22.652301,0.0 121.506338,22.65237,0.0 121.506377,22.65244,0.0 121.506349,22.652533,0.0 121.50626,22.652578,0.0 121.506211,22.652624,0.0 121.506206,22.652714,0.0 121.506179,22.652782,0.0 121.506162,22.652836,0.0 121.506095,22.652895,0.0 121.506097,22.652954,0.0 121.506138,22.652974,0.0 121.506187,22.652951,0.0 121.506242,22.652852,0.0 121.506309,22.652788,0.0 121.506378,22.652779,0.0 121.506482,22.652837,0.0 121.506521,22.652842,0.0 121.506551,22.652801,0.0 121.506579,22.652715,0.0 121.506629,22.652715,0.0 121.506735,22.652818,0.0 121.506741,22.652861,0.0 121.506699,22.652927,0.0 121.506535,22.653072,0.0 121.506514,22.653142,0.0 121.506678,22.653647,0.0 121.506772,22.653674,0.0 121.507144,22.653648,0.0 121.507312,22.65369,0.0 121.507407,22.653835,0.0 121.507427,22.654013,0.0 121.507445,22.654076,0.0 121.507487,22.654123,0.0 121.507495,22.6542,0.0 121.507507,22.654241,0.0 121.507554,22.654234,0.0 121.507693,22.654143,0.0 121.507827,22.654113,0.0 121.507902,22.654147,0.0 121.507924,22.654219,0.0 121.507897,22.654309,0.0 121.507859,22.654395,0.0 121.507873,22.654452,0.0 121.507882,22.654544,0.0 121.507861,22.654632,0.0 121.507902,22.654707,0.0 121.507931,22.654779,0.0 121.508,22.65488,0.0 121.508017,22.655038,0.0 121.508011,22.655201,0.0 121.508057,22.655521,0.0 121.508151,22.655824,0.0 121.508164,22.655934,0.0 121.50807,22.65605,0.0 121.50792,22.656165,0.0 121.507773,22.656604,0.0 121.507547,22.657078,0.0 121.507512,22.657293,0.0 121.507478,22.657499,0.0 121.507492,22.657621,0.0 121.507527,22.65776,0.0 121.507512,22.657882,0.0 121.507427,22.658029,0.0 121.507289,22.658109,0.0 121.50715,22.658148,0.0 121.507089,22.658211,0.0 121.507072,22.658306,0.0 121.507017,22.658405,0.0 121.507001,22.65846,0.0 121.507045,22.658523,0.0 121.507073,22.658624,0.0 121.507114,22.658983,0.0 121.507296,22.659391,0.0 121.50748,22.659752,0.0 121.507676,22.659954,0.0 121.50773,22.659977,0.0 121.507873,22.659981,0.0 121.507947,22.659969,0.0 121.508061,22.659919,0.0 121.508167,22.659953,0.0 121.508394,22.65993,0.0 121.508494,22.659956,0.0 121.508575,22.660003,0.0 121.508655,22.660028,0.0 121.508706,22.660132,0.0 121.508783,22.660229,0.0 121.508786,22.660303,0.0 121.50869,22.660367,0.0 121.508634,22.660405,0.0 121.508634,22.660457,0.0 121.508686,22.660493,0.0 121.50879,22.660556,0.0 121.508912,22.660682,0.0 121.508916,22.660799,0.0 121.50886,22.661102,0.0 121.509021,22.661327,0.0 121.509071,22.661427,0.0 121.509106,22.661582,0.0 121.509184,22.661645,0.0 121.509271,22.661746,0.0 121.509327,22.66178,0.0 121.50949,22.661721,0.0 121.509638,22.661691,0.0 121.509726,22.661673,0.0 121.50986,22.661598,0.0 121.50998,22.66162,0.0 121.510064,22.661739,0.0 121.510056,22.661857,0.0 121.510027,22.661963,0.0 121.510017,22.662069,0.0 121.509723,22.662328,0.0 121.509605,22.662493,0.0 121.509612,22.662542,0.0 121.509796,22.66274,0.0 121.509804,22.662799,0.0 121.50975,22.662817,0.0 121.509625,22.662813,0.0 121.509564,22.662838,0.0 121.509538,22.66292,0.0 121.509571,22.662996,0.0 121.509734,22.663041,0.0 121.509757,22.663084,0.0 121.509707,22.663152,0.0 121.509705,22.663215,0.0 121.509966,22.663677,0.0 121.510175,22.664385,0.0 121.510188,22.664523,0.0 121.510225,22.664642,0.0 121.510219,22.664724,0.0 121.51034,22.664719,0.0 121.510437,22.664732,0.0 121.5105,22.664788,0.0 121.510521,22.664892,0.0 121.51065,22.665025,0.0 121.510682,22.665124,0.0 121.510777,22.665223,0.0 121.510993,22.665351,0.0 121.511084,22.665367,0.0 121.511283,22.66537,0.0 121.511442,22.665476,0.0 121.511485,22.665618,0.0 121.51173,22.6658,0.0 121.512002,22.665991,0.0 121.51223,22.666083,0.0 121.512336,22.666248,0.0 121.512429,22.666324,0.0 121.512516,22.666498,0.0 121.512643,22.666597,0.0 121.512745,22.666716,0.0 121.512909,22.666851,0.0 121.512919,22.666975,0.0 121.512861,22.667147,0.0 121.512806,22.667201,0.0 121.512707,22.66724,0.0 121.512683,22.667326,0.0 121.512674,22.667452,0.0 121.512603,22.667619,0.0 121.512535,22.667604,0.0 121.512384,22.667541,0.0 121.512306,22.66748,0.0 121.512145,22.667427,0.0 121.512046,22.667348,0.0 121.511842,22.667308,0.0 121.511743,22.667299,0.0 121.511688,22.667365,0.0 121.511586,22.667467,0.0 121.51141,22.667553,0.0 121.511368,22.667734,0.0 121.511313,22.667876,0.0 121.511122,22.668112,0.0 121.511095,22.668268,0.0 121.510921,22.668503,0.0 121.51084,22.66863,0.0 121.510739,22.668678,0.0 121.510654,22.668775,0.0 121.510639,22.668904,0.0 121.510693,22.668982,0.0 121.510921,22.669119,0.0 121.511002,22.669198,0.0 121.511011,22.669279,0.0 121.511001,22.669383,0.0 121.511016,22.669478,0.0 121.51094,22.669566,0.0 121.510912,22.669652,0.0 121.510871,22.66974,0.0 121.510746,22.669833,0.0 121.510692,22.669947,0.0 121.510692,22.670044,0.0 121.510724,22.67012,0.0 121.51068,22.670231,0.0 121.510673,22.670263,0.0 121.510693,22.670294,0.0 121.510687,22.670326,0.0 121.510603,22.670439,0.0 121.510614,22.670482,0.0 121.510654,22.670581,0.0 121.51062,22.67069,0.0 121.510641,22.6708,0.0 121.510636,22.670863,0.0 121.510575,22.670976,0.0 121.510568,22.671055,0.0 121.510602,22.671189,0.0 121.510612,22.67127,0.0 121.510617,22.671703,0.0 121.510604,22.671778,0.0 121.510552,22.671891,0.0 121.510534,22.672011,0.0 121.510416,22.67228,0.0 121.510393,22.672386,0.0 121.510398,22.672517,0.0 121.510362,22.672609,0.0 121.510344,22.67267,0.0 121.510347,22.672837,0.0 121.510333,22.672889,0.0 121.510328,22.672939,0.0 121.510336,22.673093,0.0 121.510305,22.673151,0.0 121.510204,22.673265,0.0 121.510206,22.673305,0.0 121.510251,22.673438,0.0 121.510231,22.673549,0.0 121.510219,22.67359,0.0 121.510165,22.673667,0.0 121.510158,22.674008,0.0 121.510181,22.674193,0.0 121.510157,22.674577,0.0 121.510162,22.675182,0.0 121.510147,22.675683,0.0 121.510148,22.675997,0.0 121.510155,22.676338,0.0 121.510153,22.676525,0.0 121.510237,22.676651,0.0 121.510249,22.676771,0.0 121.510171,22.67685,0.0 121.510047,22.676882,0.0 121.510004,22.67695,0.0 121.510056,22.677038,0.0 121.510054,22.677139,0.0 121.51001,22.677219,0.0 121.51002,22.677266,0.0 121.510068,22.677315,0.0 121.510102,22.677338,0.0 121.510098,22.677379,0.0 121.509993,22.677424,0.0 121.509984,22.677469,0.0 121.510038,22.677591,0.0 121.510046,22.677686,0.0 121.509916,22.677878,0.0 121.509856,22.678021,0.0 121.509801,22.678039,0.0 121.509744,22.678131,0.0 121.509678,22.678177,0.0 121.509626,22.678233,0.0 121.509602,22.678304,0.0 121.509571,22.678396,0.0 121.509488,22.678611,0.0 121.50942,22.678674,0.0 121.509392,22.678753,0.0 121.509375,22.678905,0.0 121.509286,22.678962,0.0 121.508973,22.67896,0.0 121.508892,22.678945,0.0 121.508739,22.678837,0.0 121.508655,22.678833,0.0 121.508377,22.678926,0.0 121.508281,22.678958,0.0 121.508199,22.678951,0.0 121.508132,22.678922,0.0 121.508009,22.678929,0.0 121.507754,22.679,0.0 121.507464,22.679091,0.0 121.507262,22.679085,0.0 121.507074,22.679007,0.0 121.506767,22.678466,0.0 121.506723,22.678419,0.0 121.506685,22.678432,0.0 121.506684,22.678493,0.0 121.506664,22.678615,0.0 121.506628,22.678613,0.0 121.506596,22.678575,0.0 121.506569,22.678487,0.0 121.506534,22.678465,0.0 121.506482,22.678483,0.0 121.506374,22.678474,0.0 121.506323,22.678467,0.0 121.506288,22.678443,0.0 121.506213,22.678359,0.0 121.506109,22.67836,0.0 121.506048,22.678337,0.0 121.505944,22.678265,0.0 121.505649,22.678332,0.0 121.505499,22.678335,0.0 121.505195,22.678268,0.0 121.505027,22.678262,0.0 121.504606,22.678193,0.0 121.504216,22.678144,0.0 121.504141,22.678145,0.0 121.504029,22.678235,0.0 121.503942,22.678276,0.0 121.503882,22.678252,0.0 121.50377,22.678189,0.0 121.503723,22.678157,0.0 121.503725,22.678103,0.0 121.503783,22.678037,0.0 121.503773,22.677983,0.0 121.50361,22.677844,0.0 121.503396,22.677784,0.0 121.503183,22.677658,0.0 121.50305,22.677525,0.0 121.502911,22.677514,0.0 121.502764,22.67756,0.0 121.502634,22.677526,0.0 121.502297,22.677457,0.0 121.502148,22.677383,0.0 121.50189,22.677289,0.0 121.501569,22.677141,0.0 121.501202,22.677106,0.0 121.501027,22.677069,0.0 121.500894,22.677026,0.0 121.500801,22.677058,0.0 121.500744,22.677081,0.0 121.500678,22.67704,0.0 121.500613,22.677047,0.0 121.500534,22.677088,0.0 121.500448,22.677084,0.0 121.500377,22.677041,0.0 121.500319,22.677071,0.0 121.500266,22.677084,0.0 121.500143,22.677094,0.0 121.500069,22.677132,0.0 121.500021,22.677133,0.0 121.499995,22.677108,0.0 121.499948,22.677104,0.0 121.49986,22.677149,0.0 121.499567,22.677087,0.0 121.499344,22.676977,0.0 121.499196,22.676957,0.0 121.498968,22.676953,0.0 121.498861,22.676886,0.0 121.498835,22.676811,0.0 121.498839,22.676703,0.0 121.498763,22.676644,0.0 121.498653,22.676647,0.0 121.498507,22.676672,0.0 121.498429,22.676675,0.0 121.498323,22.67665,0.0 121.498255,22.67668,0.0 121.498178,22.676743,0.0 121.498122,22.67671,0.0 121.498113,22.676606,0.0 121.49809,22.676516,0.0 121.498015,22.676457,0.0 121.497971,22.67648,0.0 121.49798,22.676597,0.0 121.497954,22.676638,0.0 121.49792,22.676613,0.0 121.497849,22.676462,0.0 121.497783,22.676426,0.0 121.49769,22.676476,0.0 121.497649,22.676555,0.0 121.497619,22.67661,0.0 121.497569,22.676594,0.0 121.497473,22.67654,0.0 121.497359,22.67652,0.0 121.497194,22.676469,0.0 121.497112,22.676467,0.0 121.497039,22.676489,0.0 121.496919,22.676533,0.0 121.496855,22.676515,0.0 121.496754,22.67647,0.0 121.49661,22.676479,0.0 121.496528,22.676516,0.0 121.496474,22.676572,0.0 121.496461,22.676642,0.0 121.496435,22.676699,0.0 121.496306,22.676706,0.0 121.496241,22.676711,0.0 121.496192,22.676763,0.0 121.496222,22.676844,0.0 121.496315,22.677036,0.0 121.496329,22.677122,0.0 121.496311,22.677214,0.0 121.496285,22.677235,0.0 121.496242,22.677203,0.0 121.496199,22.677212,0.0 121.496055,22.677305,0.0 121.495974,22.677317,0.0 121.495865,22.677301,0.0 121.495625,22.676993,0.0 121.49548,22.676763,0.0 121.49543,22.676761,0.0 121.495427,22.676813,0.0 121.495487,22.676905,0.0 121.495479,22.676986,0.0 121.495435,22.677032,0.0 121.49531,22.676994,0.0 121.495242,22.676949,0.0 121.495211,22.676879,0.0 121.495182,22.6768,0.0 121.495116,22.676762,0.0 121.495081,22.676672,0.0 121.495048,22.676563,0.0 121.495052,22.676498,0.0 121.495135,22.67643,0.0 121.495111,22.676401,0.0 121.494887,22.676394,0.0 121.494545,22.676341,0.0 121.49435,22.676365,0.0 121.494187,22.676365,0.0 121.493947,22.676364,0.0 121.493829,22.676301,0.0 121.493702,22.6761,0.0 121.493924,22.675686,0.0 121.493337,22.675261,0.0 121.493044,22.675289,0.0 121.492873,22.675452,0.0 121.492671,22.675733,0.0 121.492565,22.675817,0.0 121.491874,22.675769,0.0 121.492648,22.675993,0.0 121.492704,22.67583,0.0 121.493462,22.676232,0.0 121.493634,22.676579,0.0 121.493431,22.676697,0.0 121.492951,22.676762,0.0 121.492497,22.676937,0.0 121.492101,22.677372,0.0 121.49204,22.677478,0.0 121.491983,22.677559,0.0 121.491956,22.677645,0.0 121.491877,22.67795,0.0 121.491849,22.678129,0.0 121.491875,22.678382,0.0 121.491962,22.678447,0.0 121.492028,22.678555,0.0 121.49214,22.678658,0.0 121.492232,22.678701,0.0 121.492308,22.678719,0.0 121.492365,22.678786,0.0 121.492441,22.678831,0.0 121.492469,22.678885,0.0 121.492391,22.67899,0.0 121.49233,22.678992,0.0 121.492212,22.678902,0.0 121.491933,22.678747,0.0 121.491838,22.67875,0.0 121.491762,22.678736,0.0 121.491682,22.678608,0.0 121.491652,22.678624,0.0 121.491698,22.678827,0.0 121.491737,22.678883,0.0 121.49178,22.678924,0.0 121.491775,22.679007,0.0 121.491844,22.679118,0.0 121.491858,22.679244,0.0 121.491899,22.67935,0.0 121.491856,22.679404,0.0 121.491749,22.679423,0.0 121.491734,22.679506,0.0 121.491775,22.679585,0.0 121.491869,22.679603,0.0 121.491989,22.679585,0.0 121.492034,22.67965,0.0 121.492078,22.679699,0.0 121.49206,22.679774,0.0 121.491987,22.679799,0.0 121.491946,22.679885,0.0 121.491898,22.679876,0.0 121.491842,22.679851,0.0 121.491718,22.679924,0.0 121.491656,22.679911,0.0 121.491565,22.679812,0.0 121.491473,22.679798,0.0 121.491389,22.679742,0.0 121.491297,22.679731,0.0 121.491269,22.67967,0.0 121.491297,22.679584,0.0 121.491367,22.679428,0.0 121.491316,22.679368,0.0 121.49125,22.679379,0.0 121.491172,22.679513,0.0 121.491121,22.679513,0.0 121.491087,22.679386,0.0 121.491092,22.679287,0.0 121.491041,22.679265,0.0 121.490973,22.67929,0.0 121.490904,22.679261,0.0 121.490851,22.679261,0.0 121.490858,22.679342,0.0 121.490887,22.679443,0.0 121.490825,22.679505,0.0 121.49076,22.679505,0.0 121.490734,22.679426,0.0 121.490703,22.679245,0.0 121.490634,22.679225,0.0 121.490569,22.679311,0.0 121.490426,22.679386,0.0 121.490335,22.679355,0.0 121.490311,22.679242,0.0 121.490216,22.679118,0.0 121.489885,22.679006,0.0 121.489605,22.679016,0.0 121.489494,22.679073,0.0 121.489211,22.67906,0.0 121.488987,22.679009,0.0 121.488838,22.67907,0.0 121.488317,22.679271,0.0 121.488134,22.679303,0.0 121.48806,22.679335,0.0 121.488028,22.679391,0.0 121.488022,22.679493,0.0 121.487964,22.679527,0.0 121.487902,22.679507,0.0 121.48783,22.679396,0.0 121.487715,22.679311,0.0 121.487715,22.679259,0.0 121.487828,22.679159,0.0 121.487773,22.679114,0.0 121.487691,22.679121,0.0 121.487606,22.679207,0.0 121.487472,22.679321,0.0 121.487418,22.679341,0.0 121.487349,22.679317,0.0 121.487236,22.679285,0.0 121.487113,22.679324,0.0 121.486995,22.679347,0.0 121.486855,22.679343,0.0 121.486758,22.679382,0.0 121.48673,22.679431,0.0 121.486717,22.679495,0.0 121.486683,22.679513,0.0 121.48664,22.679481,0.0 121.486612,22.679414,0.0 121.486533,22.679344,0.0 121.486525,22.679231,0.0 121.4865,22.679152,0.0 121.486435,22.679127,0.0 121.48636,22.67915,0.0 121.486317,22.679214,0.0 121.486272,22.679209,0.0 121.486227,22.679225,0.0 121.486188,22.679268,0.0 121.486142,22.679266,0.0 121.486065,22.679259,0.0 121.48603,22.679289,0.0 121.486074,22.679372,0.0 121.486134,22.679401,0.0 121.486138,22.679438,0.0 121.48608,22.679456,0.0 121.485946,22.679513,0.0 121.48587,22.679524,0.0 121.485811,22.679488,0.0 121.485734,22.679385,0.0 121.485697,22.679382,0.0 121.485653,22.679407,0.0 121.485617,22.679362,0.0 121.485527,22.679322,0.0 121.485477,22.679329,0.0 121.485438,22.679356,0.0 121.485392,22.679331,0.0 121.485244,22.679339,0.0 121.485088,22.679294,0.0 121.485037,22.679211,0.0 121.484968,22.679163,0.0 121.484857,22.679101,0.0 121.484777,22.679049,0.0 121.484654,22.679015,0.0 121.484581,22.678934,0.0 121.484429,22.678883,0.0 121.484169,22.678857,0.0 121.483928,22.678735,0.0 121.483687,22.678709,0.0 121.483627,22.678605,0.0 121.483544,22.678518,0.0 121.483449,22.678488,0.0 121.483126,22.67825,0.0 121.481724,22.677335,0.0 121.480978,22.676825,0.0 121.480436,22.67659,0.0 121.480205,22.676487,0.0 121.479954,22.67635,0.0 121.479844,22.676332,0.0 121.479733,22.676267,0.0 121.479657,22.676321,0.0 121.479578,22.676355,0.0 121.479511,22.676304,0.0 121.479416,22.676157,0.0 121.479346,22.676162,0.0 121.479277,22.676304,0.0 121.47917,22.67635,0.0 121.479037,22.676309,0.0 121.478948,22.676344,0.0 121.478799,22.676387,0.0 121.478676,22.676362,0.0 121.47853,22.676363,0.0 121.478382,22.676413,0.0 121.478176,22.676418,0.0 121.478078,22.676455,0.0 121.477926,22.676462,0.0 121.477768,22.676478,0.0 121.477597,22.676537,0.0 121.477319,22.676608,0.0 121.477183,22.676618,0.0 121.477172,22.676615,0.0</coordinates></LinearRing></outerBoundaryIs></Polygon><Polygon><outerBoundaryIs><LinearRing><coordinates>121.520544,22.684804,0.0 121.520809,22.684966,0.0 121.521948,22.684962,0.0 121.522146,22.685188,0.0 121.522039,22.685513,0.0 121.521032,22.685941,0.0 121.520394,22.685907,0.0 121.520042,22.68542,0.0 121.520259,22.684887,0.0 121.520544,22.684804,0.0</coordinates></LinearRing></outerBoundaryIs></Polygon><Polygon><outerBoundaryIs><LinearRing><coordinates>121.513023,22.666627,0.0 121.513178,22.666696,0.0 121.513311,22.666741,0.0 121.513466,22.666836,0.0 121.513478,22.666946,0.0 121.513377,22.667048,0.0 121.513238,22.667209,0.0 121.513164,22.667182,0.0 121.512984,22.667049,0.0 121.51295,22.666948,0.0 121.512952,22.666688,0.0 121.513023,22.666627,0.0</coordinates></LinearRing></outerBoundaryIs></Polygon></MultiGeometry><styleUrl>#spolygon-map</styleUrl></Placemark><Placemark><Polygon><outerBoundaryIs><LinearRing><coordinates>121.487425,22.661984,0.0 121.486728,22.662708,0.0 121.485924,22.662855,0.0 121.485004,22.663102,0.0 121.484421,22.663232,0.0 121.48403,22.662908,0.0 121.483501,22.661768,0.0 121.482773,22.661253,0.0 121.482437,22.661238,0.0 121.480396,22.662199,0.0 121.478988,22.663574,0.0 121.478084,22.664732,0.0 121.477087,22.665975,0.0 121.475372,22.667251,0.0 121.472429,22.668856,0.0 121.470939,22.670287,0.0 121.468578,22.672568,0.0 121.465794,22.675958,0.0 121.463851,22.677542,0.0 121.463848,22.67742,0.0 121.463789,22.677323,0.0 121.463801,22.677237,0.0 121.463788,22.67714,0.0 121.463806,22.677052,0.0 121.463798,22.676939,0.0 121.463756,22.676849,0.0 121.463733,22.676718,0.0 121.463743,22.676637,0.0 121.463802,22.67658,0.0 121.46382,22.676517,0.0 121.463789,22.67644,0.0 121.463814,22.676361,0.0 121.463806,22.67628,0.0 121.463746,22.676183,0.0 121.463676,22.676018,0.0 121.463649,22.675752,0.0 121.463669,22.675549,0.0 121.463568,22.675312,0.0 121.463374,22.675163,0.0 121.463171,22.674907,0.0 121.46283,22.674623,0.0 121.462712,22.674468,0.0 121.462673,22.674229,0.0 121.462723,22.674082,0.0 121.462752,22.673944,0.0 121.462819,22.673835,0.0 121.462877,22.673711,0.0 121.462898,22.673551,0.0 121.463057,22.673288,0.0 121.463157,22.673046,0.0 121.463212,22.672854,0.0 121.463265,22.672707,0.0 121.463279,22.672572,0.0 121.46339,22.672368,0.0 121.463486,22.672149,0.0 121.46353,22.672011,0.0 121.463597,22.6719,0.0 121.463707,22.671776,0.0 121.463767,22.671609,0.0 121.464,22.671096,0.0 121.464134,22.670905,0.0 121.464168,22.670752,0.0 121.464208,22.670637,0.0 121.464372,22.670322,0.0 121.464666,22.669992,0.0 121.465297,22.669559,0.0 121.465561,22.669364,0.0 121.465703,22.669181,0.0 121.466231,22.668755,0.0 121.4667,22.668272,0.0 121.4669,22.667962,0.0 121.467242,22.667645,0.0 121.467414,22.667527,0.0 121.467556,22.667333,0.0 121.467709,22.667138,0.0 121.468215,22.666667,0.0 121.46854,22.666445,0.0 121.468737,22.666214,0.0 121.469209,22.665585,0.0 121.46942,22.665338,0.0 121.47037,22.664324,0.0 121.470781,22.66386,0.0 121.47099,22.663695,0.0 121.471123,22.663502,0.0 121.471423,22.663115,0.0 121.471849,22.662306,0.0 121.472318,22.661686,0.0 121.472593,22.661301,0.0 121.472951,22.660837,0.0 121.473496,22.660425,0.0 121.473624,22.66042,0.0 121.473815,22.660593,0.0 121.47403,22.660606,0.0 121.474066,22.660577,0.0 121.474074,22.660452,0.0 121.474059,22.660355,0.0 121.473984,22.660259,0.0 121.473953,22.660177,0.0 121.474156,22.660046,0.0 121.474489,22.659661,0.0 121.47469,22.659827,0.0 121.474774,22.659836,0.0 121.474927,22.659739,0.0 121.475143,22.659397,0.0 121.475254,22.659191,0.0 121.475358,22.659306,0.0 121.475369,22.659383,0.0 121.475264,22.659625,0.0 121.475222,22.659679,0.0 121.475144,22.659682,0.0 121.475105,22.659743,0.0 121.475131,22.659792,0.0 121.475128,22.659874,0.0 121.475056,22.660093,0.0 121.475099,22.660138,0.0 121.475308,22.6602,0.0 121.4754,22.660184,0.0 121.475596,22.659782,0.0 121.475624,22.659678,0.0 121.475495,22.659615,0.0 121.47547,22.659577,0.0 121.475495,22.659511,0.0 121.475562,22.659509,0.0 121.475646,22.659556,0.0 121.475715,22.659529,0.0 121.475948,22.659083,0.0 121.475945,22.658903,0.0 121.475912,22.658262,0.0 121.475853,22.658228,0.0 121.47551,22.658229,0.0 121.475427,22.658279,0.0 121.475424,22.658401,0.0 121.475468,22.658927,0.0 121.475412,22.658988,0.0 121.47458,22.659388,0.0 121.47421,22.659511,0.0 121.473917,22.659505,0.0 121.473875,22.659437,0.0 121.47393,22.659374,0.0 121.474195,22.659253,0.0 121.47434,22.659176,0.0 121.47452,22.659049,0.0 121.474621,22.659008,0.0 121.474651,22.658925,0.0 121.474634,22.658796,0.0 121.474703,22.658513,0.0 121.474755,22.658344,0.0 121.47469,22.658193,0.0 121.474645,22.658019,0.0 121.474669,22.657699,0.0 121.47461,22.657505,0.0 121.474506,22.65659,0.0 121.474442,22.656455,0.0 121.474321,22.656338,0.0 121.474307,22.65614,0.0 121.474259,22.655945,0.0 121.474219,22.655803,0.0 121.47413,22.655698,0.0 121.474074,22.655562,0.0 121.473967,22.655513,0.0 121.473933,22.655398,0.0 121.473888,22.65529,0.0 121.47386,22.655105,0.0 121.473759,22.654902,0.0 121.473739,22.654678,0.0 121.473713,22.654477,0.0 121.473662,22.654324,0.0 121.473709,22.654118,0.0 121.473725,22.653967,0.0 121.473743,22.653644,0.0 121.47375,22.653292,0.0 121.473689,22.653114,0.0 121.47368,22.652904,0.0 121.473704,22.652671,0.0 121.473622,22.652391,0.0 121.473557,22.652085,0.0 121.473559,22.651902,0.0 121.473611,22.651662,0.0 121.473574,22.651434,0.0 121.473456,22.65106,0.0 121.47345,22.65087,0.0 121.47341,22.650737,0.0 121.473309,22.650516,0.0 121.473271,22.65013,0.0 121.473179,22.649878,0.0 121.473097,22.649731,0.0 121.47294,22.64935,0.0 121.472777,22.649093,0.0 121.472566,22.648599,0.0 121.472513,22.648317,0.0 121.472447,22.647972,0.0 121.472405,22.647735,0.0 121.472332,22.647557,0.0 121.472368,22.647342,0.0 121.472352,22.647166,0.0 121.472369,22.647044,0.0 121.472604,22.646723,0.0 121.472796,22.646447,0.0 121.472874,22.646268,0.0 121.473079,22.646153,0.0 121.47333,22.646075,0.0 121.473464,22.645955,0.0 121.473591,22.645779,0.0 121.473708,22.645731,0.0 121.47388,22.645568,0.0 121.474156,22.645493,0.0 121.474379,22.645386,0.0 121.474521,22.645336,0.0 121.474693,22.645324,0.0 121.47486,22.645258,0.0 121.475093,22.645282,0.0 121.475307,22.645284,0.0 121.475414,22.645356,0.0 121.475409,22.645511,0.0 121.475427,22.645608,0.0 121.475431,22.645687,0.0 121.475342,22.645778,0.0 121.475309,22.645875,0.0 121.475371,22.646047,0.0 121.47538,22.646162,0.0 121.475372,22.646372,0.0 121.475452,22.646523,0.0 121.475638,22.646581,0.0 121.475899,22.646578,0.0 121.476043,22.64658,0.0 121.476186,22.646489,0.0 121.476269,22.646378,0.0 121.476286,22.646191,0.0 121.476338,22.646017,0.0 121.476257,22.645762,0.0 121.476266,22.645638,0.0 121.476382,22.645434,0.0 121.476455,22.645301,0.0 121.476653,22.645192,0.0 121.476928,22.645155,0.0 121.477167,22.645073,0.0 121.47739,22.645063,0.0 121.477626,22.644999,0.0 121.477733,22.644994,0.0 121.477957,22.645034,0.0 121.478134,22.645022,0.0 121.47837,22.645004,0.0 121.478538,22.644951,0.0 121.478749,22.644896,0.0 121.479058,22.644898,0.0 121.479303,22.644938,0.0 121.479511,22.644935,0.0 121.479841,22.644864,0.0 121.480001,22.644877,0.0 121.480117,22.644928,0.0 121.480215,22.644921,0.0 121.480343,22.64486,0.0 121.480521,22.644817,0.0 121.480662,22.644823,0.0 121.480885,22.644813,0.0 121.481203,22.644722,0.0 121.481399,22.644649,0.0 121.48146,22.644644,0.0 121.481717,22.644632,0.0 121.481882,22.644517,0.0 121.482031,22.6445,0.0 121.482175,22.644428,0.0 121.482261,22.644403,0.0 121.482426,22.644391,0.0 121.482869,22.644243,0.0 121.483343,22.644144,0.0 121.484169,22.64397,0.0 121.484628,22.643933,0.0 121.484922,22.643826,0.0 121.485866,22.643331,0.0 121.486825,22.642815,0.0 121.486912,22.642777,0.0 121.48703,22.642769,0.0 121.487396,22.642583,0.0 121.487458,22.642529,0.0 121.487516,22.642414,0.0 121.487573,22.642413,0.0 121.487682,22.642413,0.0 121.487839,22.642304,0.0 121.488062,22.642154,0.0 121.488093,22.642078,0.0 121.488142,22.642071,0.0 121.488153,22.642091,0.0 121.488154,22.642118,0.0 121.488214,22.642109,0.0 121.48852,22.641936,0.0 121.488737,22.641739,0.0 121.488794,22.641547,0.0 121.488852,22.641452,0.0 121.488942,22.641416,0.0 121.489069,22.6414,0.0 121.489112,22.641336,0.0 121.489117,22.641221,0.0 121.489139,22.641135,0.0 121.489168,22.641162,0.0 121.4899,22.644325,0.0 121.490226,22.645959,0.0 121.490514,22.646841,0.0 121.490376,22.647591,0.0 121.489508,22.648901,0.0 121.487313,22.650438,0.0 121.487427,22.651077,0.0 121.490171,22.653238,0.0 121.491329,22.654481,0.0 121.492168,22.65635,0.0 121.492349,22.657866,0.0 121.491811,22.658685,0.0 121.490723,22.659714,0.0 121.488054,22.660909,0.0 121.487425,22.661984,0.0</coordinates></LinearRing></outerBoundaryIs></Polygon><styleUrl>#spolygon-map</styleUrl></Placemark></Document>
</kml>
