<?xml version="1.0" encoding="UTF-8"?>
<kml xmlns="http://www.opengis.net/kml/2.2">
	<Document>
		<name>臺東縣大武鄉</name>
		<Style id="spolygon">
			<LabelStyle>
				<scale>0.0</scale>
			</LabelStyle>
			<LineStyle>
				<color>330030ff</color>
				<width>0</width>
			</LineStyle>
			<PolyStyle>
				<color>330030ff</color>
			</PolyStyle>
		</Style>
		<StyleMap id="spolygon-map">
			<Pair>
				<key>normal</key>
				<styleUrl>#spolygon</styleUrl>
			</Pair>
		</StyleMap>
	<Placemark><Polygon><outerBoundaryIs><LinearRing><coordinates>120.925171,22.462905,0.0 120.922876,22.463092,0.0 120.920262,22.462968,0.0 120.918285,22.462774,0.0 120.918058,22.462681,0.0 120.917927,22.462523,0.0 120.917209,22.461677,0.0 120.916827,22.461364,0.0 120.916748,22.461188,0.0 120.91665,22.460847,0.0 120.916657,22.46067,0.0 120.916756,22.460147,0.0 120.916774,22.4597,0.0 120.916355,22.458446,0.0 120.915943,22.457852,0.0 120.91522,22.456741,0.0 120.914792,22.456319,0.0 120.914649,22.45577,0.0 120.914989,22.454637,0.0 120.915186,22.454239,0.0 120.91527,22.453694,0.0 120.915276,22.453501,0.0 120.914651,22.453176,0.0 120.913392,22.452712,0.0 120.913295,22.452573,0.0 120.913281,22.452491,0.0 120.913232,22.452297,0.0 120.913018,22.45184,0.0 120.912524,22.451113,0.0 120.912453,22.450641,0.0 120.912449,22.450462,0.0 120.912424,22.450363,0.0 120.912311,22.450226,0.0 120.911579,22.449993,0.0 120.910887,22.449759,0.0 120.910759,22.449684,0.0 120.910668,22.449595,0.0 120.910534,22.449378,0.0 120.910472,22.449245,0.0 120.910107,22.44819,0.0 120.91007,22.448104,0.0 120.910042,22.448066,0.0 120.91,22.448012,0.0 120.909682,22.447423,0.0 120.909438,22.446934,0.0 120.908888,22.446207,0.0 120.908762,22.446026,0.0 120.908568,22.445794,0.0 120.908516,22.445663,0.0 120.908759,22.445216,0.0 120.909135,22.444631,0.0 120.909287,22.44441,0.0 120.909341,22.444209,0.0 120.909343,22.444157,0.0 120.909339,22.444083,0.0 120.909319,22.444015,0.0 120.909281,22.443922,0.0 120.909498,22.443765,0.0 120.910465,22.443325,0.0 120.910925,22.443085,0.0 120.911638,22.442674,0.0 120.912247,22.442362,0.0 120.912444,22.442195,0.0 120.91263,22.441958,0.0 120.912827,22.441459,0.0 120.912779,22.441246,0.0 120.912103,22.440485,0.0 120.912012,22.440393,0.0 120.912007,22.440338,0.0 120.912108,22.440047,0.0 120.912128,22.439887,0.0 120.912114,22.439736,0.0 120.911896,22.439641,0.0 120.910641,22.439365,0.0 120.909679,22.439364,0.0 120.909599,22.439347,0.0 120.909482,22.439215,0.0 120.90936,22.438969,0.0 120.908954,22.43839,0.0 120.908853,22.438174,0.0 120.908476,22.437379,0.0 120.908322,22.437017,0.0 120.908174,22.436789,0.0 120.908053,22.436724,0.0 120.907937,22.436624,0.0 120.907808,22.436505,0.0 120.907701,22.436373,0.0 120.907637,22.43627,0.0 120.907563,22.436082,0.0 120.907338,22.43526,0.0 120.907168,22.434787,0.0 120.906745,22.434009,0.0 120.906604,22.433842,0.0 120.906329,22.433635,0.0 120.906121,22.433502,0.0 120.906075,22.433479,0.0 120.905533,22.433288,0.0 120.905346,22.433212,0.0 120.905178,22.433053,0.0 120.905,22.432805,0.0 120.904801,22.432459,0.0 120.904577,22.432021,0.0 120.904431,22.431876,0.0 120.904013,22.431524,0.0 120.903934,22.431483,0.0 120.903755,22.431423,0.0 120.903539,22.431405,0.0 120.903402,22.431402,0.0 120.903164,22.431333,0.0 120.902878,22.431206,0.0 120.902543,22.431004,0.0 120.902195,22.430811,0.0 120.902017,22.430757,0.0 120.901419,22.430565,0.0 120.901182,22.430443,0.0 120.900974,22.430357,0.0 120.900257,22.430142,0.0 120.900162,22.430131,0.0 120.899465,22.429913,0.0 120.898964,22.429857,0.0 120.898116,22.4301,0.0 120.89787,22.430077,0.0 120.897555,22.429969,0.0 120.897098,22.429743,0.0 120.896411,22.429501,0.0 120.895626,22.429286,0.0 120.895231,22.429486,0.0 120.894924,22.429723,0.0 120.894486,22.430021,0.0 120.894163,22.430237,0.0 120.894051,22.430263,0.0 120.893987,22.430202,0.0 120.893853,22.430041,0.0 120.893741,22.429894,0.0 120.89358,22.429612,0.0 120.893344,22.429201,0.0 120.892895,22.428444,0.0 120.892714,22.428078,0.0 120.892662,22.427935,0.0 120.892643,22.427624,0.0 120.892653,22.427297,0.0 120.892612,22.427127,0.0 120.892565,22.427048,0.0 120.892417,22.426919,0.0 120.892183,22.426615,0.0 120.89213,22.426463,0.0 120.892086,22.426145,0.0 120.891912,22.425802,0.0 120.891361,22.425144,0.0 120.890948,22.424848,0.0 120.890654,22.424435,0.0 120.890288,22.424206,0.0 120.88988,22.424054,0.0 120.889477,22.423884,0.0 120.889218,22.423782,0.0 120.889039,22.423718,0.0 120.88864,22.423442,0.0 120.888287,22.42323,0.0 120.888155,22.423165,0.0 120.887991,22.423105,0.0 120.887778,22.423137,0.0 120.887615,22.423191,0.0 120.887253,22.423344,0.0 120.887044,22.423479,0.0 120.886867,22.423621,0.0 120.886691,22.423708,0.0 120.886568,22.42374,0.0 120.886377,22.423763,0.0 120.885919,22.423761,0.0 120.885482,22.423828,0.0 120.885265,22.423974,0.0 120.884981,22.424178,0.0 120.884732,22.42438,0.0 120.88446,22.424649,0.0 120.884344,22.424773,0.0 120.884175,22.425019,0.0 120.884125,22.425123,0.0 120.883981,22.425365,0.0 120.883804,22.425543,0.0 120.883676,22.425575,0.0 120.883581,22.425498,0.0 120.883052,22.42484,0.0 120.882906,22.42447,0.0 120.882784,22.424109,0.0 120.882629,22.423736,0.0 120.882572,22.423659,0.0 120.882502,22.423602,0.0 120.882192,22.423383,0.0 120.881936,22.423191,0.0 120.881765,22.423062,0.0 120.881394,22.422708,0.0 120.880832,22.422317,0.0 120.880063,22.421684,0.0 120.879754,22.421506,0.0 120.879068,22.421154,0.0 120.879117,22.420979,0.0 120.879484,22.420573,0.0 120.879778,22.420228,0.0 120.879957,22.420045,0.0 120.880543,22.419548,0.0 120.88098,22.419198,0.0 120.881178,22.418959,0.0 120.881505,22.418648,0.0 120.882592,22.417926,0.0 120.88352,22.41748,0.0 120.883968,22.417325,0.0 120.884187,22.41725,0.0 120.88478,22.416959,0.0 120.885085,22.416707,0.0 120.885775,22.416186,0.0 120.886136,22.416035,0.0 120.886648,22.415818,0.0 120.88713,22.41551,0.0 120.887791,22.414986,0.0 120.888013,22.414805,0.0 120.888279,22.414532,0.0 120.888481,22.414256,0.0 120.88878,22.41349,0.0 120.888831,22.413,0.0 120.889063,22.413149,0.0 120.889282,22.413156,0.0 120.889476,22.413043,0.0 120.889729,22.412551,0.0 120.88991,22.412404,0.0 120.890477,22.412062,0.0 120.890663,22.41198,0.0 120.891603,22.41185,0.0 120.891942,22.411767,0.0 120.892845,22.411474,0.0 120.893081,22.411756,0.0 120.893284,22.411966,0.0 120.89351,22.411955,0.0 120.893928,22.411768,0.0 120.89456,22.411757,0.0 120.894763,22.411328,0.0 120.895079,22.411076,0.0 120.89544,22.410949,0.0 120.895396,22.410584,0.0 120.895083,22.410279,0.0 120.894572,22.410143,0.0 120.8942,22.410005,0.0 120.893963,22.4097,0.0 120.893839,22.40949,0.0 120.893636,22.409375,0.0 120.892971,22.409029,0.0 120.892919,22.408566,0.0 120.892982,22.408367,0.0 120.8934,22.408273,0.0 120.893773,22.408158,0.0 120.894111,22.408348,0.0 120.894461,22.408368,0.0 120.895375,22.408515,0.0 120.895884,22.408642,0.0 120.896142,22.408956,0.0 120.896469,22.408988,0.0 120.896932,22.408758,0.0 120.897225,22.40858,0.0 120.897507,22.408738,0.0 120.8978,22.409167,0.0 120.897988,22.409436,0.0 120.898193,22.409511,0.0 120.898511,22.409515,0.0 120.898646,22.409725,0.0 120.89846,22.409983,0.0 120.898397,22.410439,0.0 120.898916,22.410816,0.0 120.899401,22.410658,0.0 120.899729,22.410155,0.0 120.900192,22.409726,0.0 120.900405,22.409747,0.0 120.900564,22.409937,0.0 120.900871,22.410287,0.0 120.901057,22.41058,0.0 120.901423,22.411019,0.0 120.901976,22.410834,0.0 120.902204,22.410839,0.0 120.90238,22.411166,0.0 120.902608,22.41139,0.0 120.902956,22.411528,0.0 120.90322,22.411498,0.0 120.903601,22.411476,0.0 120.903981,22.411564,0.0 120.904448,22.411477,0.0 120.904849,22.411301,0.0 120.905046,22.411233,0.0 120.905366,22.411301,0.0 120.905883,22.411403,0.0 120.90647,22.411308,0.0 120.906859,22.411302,0.0 120.907668,22.411384,0.0 120.908556,22.411648,0.0 120.909343,22.411954,0.0 120.90959,22.412137,0.0 120.909853,22.412137,0.0 120.910057,22.412022,0.0 120.910428,22.412191,0.0 120.910851,22.412198,0.0 120.911171,22.412314,0.0 120.911776,22.412456,0.0 120.912235,22.412348,0.0 120.912511,22.412348,0.0 120.91313,22.412511,0.0 120.913567,22.412491,0.0 120.913902,22.412667,0.0 120.914412,22.412742,0.0 120.915636,22.413434,0.0 120.91707,22.413902,0.0 120.917799,22.414295,0.0 120.918447,22.414363,0.0 120.918891,22.414167,0.0 120.919306,22.414404,0.0 120.919787,22.414689,0.0 120.920406,22.414635,0.0 120.921106,22.414723,0.0 120.921302,22.414913,0.0 120.921491,22.415103,0.0 120.921762,22.415096,0.0 120.922111,22.415137,0.0 120.922555,22.415144,0.0 120.92289,22.41507,0.0 120.923189,22.414907,0.0 120.923779,22.414698,0.0 120.92474,22.414739,0.0 120.925586,22.414834,0.0 120.926846,22.414706,0.0 120.92723,22.414245,0.0 120.927278,22.414318,0.0 120.92752,22.414878,0.0 120.927871,22.415765,0.0 120.928266,22.416592,0.0 120.928823,22.417412,0.0 120.929426,22.418207,0.0 120.929974,22.418767,0.0 120.931078,22.419883,0.0 120.931799,22.420833,0.0 120.932051,22.421319,0.0 120.93268,22.422566,0.0 120.933084,22.423487,0.0 120.933354,22.424137,0.0 120.933542,22.425343,0.0 120.93356,22.425752,0.0 120.93382,22.426422,0.0 120.934432,22.428037,0.0 120.93506,22.430002,0.0 120.935779,22.432102,0.0 120.936336,22.433865,0.0 120.937729,22.437187,0.0 120.939041,22.440583,0.0 120.939985,22.443485,0.0 120.940668,22.445233,0.0 120.941863,22.447986,0.0 120.942762,22.449968,0.0 120.943176,22.450705,0.0 120.943823,22.451667,0.0 120.94403,22.452495,0.0 120.944533,22.454293,0.0 120.94491,22.455406,0.0 120.945126,22.455966,0.0 120.94544,22.456786,0.0 120.94589,22.457395,0.0 120.945947,22.457752,0.0 120.94389,22.45842,0.0 120.943067,22.458512,0.0 120.940827,22.458794,0.0 120.94027,22.45878,0.0 120.939288,22.458676,0.0 120.93854,22.458709,0.0 120.93729,22.458722,0.0 120.936846,22.458724,0.0 120.936439,22.45883,0.0 120.934922,22.459437,0.0 120.933924,22.459671,0.0 120.932565,22.460057,0.0 120.931556,22.460318,0.0 120.930795,22.460298,0.0 120.929957,22.460573,0.0 120.928385,22.46162,0.0 120.926983,22.462459,0.0 120.925171,22.462905,0.0</coordinates></LinearRing></outerBoundaryIs></Polygon><styleUrl>#spolygon-map</styleUrl></Placemark><Placemark><Polygon><outerBoundaryIs><LinearRing><coordinates>120.9096,22.364676,0.0 120.908024,22.365091,0.0 120.907306,22.365436,0.0 120.906427,22.365749,0.0 120.906086,22.366153,0.0 120.90591,22.366255,0.0 120.905619,22.366365,0.0 120.905467,22.36655,0.0 120.905303,22.366677,0.0 120.904853,22.366634,0.0 120.904083,22.366854,0.0 120.903867,22.366872,0.0 120.903409,22.366831,0.0 120.902241,22.367093,0.0 120.898016,22.363243,0.0 120.897524,22.363367,0.0 120.897031,22.363574,0.0 120.896527,22.363854,0.0 120.896156,22.364165,0.0 120.896018,22.364244,0.0 120.895324,22.364173,0.0 120.894624,22.364236,0.0 120.894137,22.36401,0.0 120.893927,22.363899,0.0 120.893629,22.363818,0.0 120.893253,22.363477,0.0 120.892772,22.362989,0.0 120.891912,22.362715,0.0 120.890712,22.362188,0.0 120.890041,22.361822,0.0 120.888957,22.361787,0.0 120.887398,22.361768,0.0 120.886457,22.362332,0.0 120.884891,22.363085,0.0 120.882323,22.363821,0.0 120.881458,22.364223,0.0 120.880425,22.36536,0.0 120.878696,22.36663,0.0 120.878508,22.366627,0.0 120.878798,22.366266,0.0 120.878877,22.365729,0.0 120.878806,22.364925,0.0 120.877951,22.363362,0.0 120.878003,22.363258,0.0 120.878401,22.36296,0.0 120.87807,22.36298,0.0 120.877245,22.363115,0.0 120.876492,22.36334,0.0 120.875764,22.36343,0.0 120.874963,22.363452,0.0 120.874429,22.363519,0.0 120.873919,22.363993,0.0 120.873214,22.36424,0.0 120.872413,22.364353,0.0 120.871805,22.36453,0.0 120.871463,22.364438,0.0 120.87103,22.363697,0.0 120.87041,22.362985,0.0 120.869818,22.362703,0.0 120.869478,22.362612,0.0 120.868946,22.362704,0.0 120.868507,22.362679,0.0 120.867463,22.362272,0.0 120.866619,22.362053,0.0 120.86608,22.362,0.0 120.864794,22.36184,0.0 120.863977,22.361732,0.0 120.863265,22.361591,0.0 120.862512,22.361272,0.0 120.861784,22.361115,0.0 120.861032,22.360618,0.0 120.859917,22.359691,0.0 120.85931,22.359262,0.0 120.858461,22.359058,0.0 120.857855,22.358741,0.0 120.857248,22.358109,0.0 120.856587,22.357995,0.0 120.855574,22.358007,0.0 120.85478,22.358019,0.0 120.854481,22.357858,0.0 120.854603,22.357361,0.0 120.854968,22.357113,0.0 120.855599,22.357069,0.0 120.856133,22.356934,0.0 120.856789,22.35646,0.0 120.857177,22.35619,0.0 120.85778,22.356188,0.0 120.85826,22.356162,0.0 120.858588,22.355883,0.0 120.858781,22.35545,0.0 120.859274,22.354839,0.0 120.859425,22.354317,0.0 120.859617,22.353948,0.0 120.860506,22.35319,0.0 120.861162,22.352174,0.0 120.861742,22.351365,0.0 120.862863,22.350347,0.0 120.863482,22.349787,0.0 120.86454,22.348542,0.0 120.865566,22.347423,0.0 120.865985,22.348044,0.0 120.866415,22.348605,0.0 120.866823,22.349178,0.0 120.867165,22.349511,0.0 120.867232,22.349752,0.0 120.867179,22.350673,0.0 120.867201,22.350895,0.0 120.867305,22.35099,0.0 120.868095,22.351272,0.0 120.868578,22.351377,0.0 120.869009,22.351542,0.0 120.869128,22.351646,0.0 120.869273,22.351816,0.0 120.871079,22.351686,0.0 120.872515,22.351872,0.0 120.874074,22.352887,0.0 120.876277,22.353602,0.0 120.878613,22.354934,0.0 120.879965,22.354458,0.0 120.882615,22.354253,0.0 120.883454,22.353662,0.0 120.885177,22.353557,0.0 120.888252,22.354898,0.0 120.889372,22.354991,0.0 120.889968,22.354648,0.0 120.890558,22.353809,0.0 120.890669,22.351684,0.0 120.890693,22.351226,0.0 120.890526,22.350781,0.0 120.890522,22.350029,0.0 120.8905,22.349901,0.0 120.890562,22.349822,0.0 120.890886,22.34972,0.0 120.891013,22.349641,0.0 120.891828,22.348687,0.0 120.892046,22.348529,0.0 120.892397,22.348348,0.0 120.892706,22.348073,0.0 120.893377,22.346574,0.0 120.893919,22.346455,0.0 120.895264,22.346517,0.0 120.89557,22.346443,0.0 120.895851,22.346271,0.0 120.89614,22.346061,0.0 120.896592,22.345635,0.0 120.897019,22.344775,0.0 120.897132,22.344303,0.0 120.897228,22.343931,0.0 120.89743,22.343251,0.0 120.89844,22.34252,0.0 120.898882,22.342615,0.0 120.898998,22.343627,0.0 120.899285,22.344873,0.0 120.90073,22.348119,0.0 120.901355,22.349698,0.0 120.902462,22.352286,0.0 120.903136,22.353808,0.0 120.903773,22.35473,0.0 120.90504,22.355983,0.0 120.905804,22.356453,0.0 120.906892,22.357147,0.0 120.907729,22.357708,0.0 120.908015,22.35799,0.0 120.908446,22.358722,0.0 120.908554,22.359097,0.0 120.90871,22.359372,0.0 120.908832,22.35965,0.0 120.908898,22.360059,0.0 120.908958,22.36047,0.0 120.90911,22.361608,0.0 120.909166,22.362116,0.0 120.909187,22.362326,0.0 120.909226,22.362644,0.0 120.90928,22.362969,0.0 120.909316,22.363164,0.0 120.909387,22.363288,0.0 120.909432,22.363581,0.0 120.909495,22.363866,0.0 120.909474,22.364123,0.0 120.909534,22.364232,0.0 120.909585,22.364534,0.0 120.9096,22.364676,0.0</coordinates></LinearRing></outerBoundaryIs></Polygon><styleUrl>#spolygon-map</styleUrl></Placemark><Placemark><Polygon><outerBoundaryIs><LinearRing><coordinates>120.92725,22.414236,0.0 120.927066,22.414349,0.0 120.926736,22.41478,0.0 120.925229,22.414752,0.0 120.924187,22.414718,0.0 120.923509,22.414758,0.0 120.922999,22.415009,0.0 120.922715,22.415124,0.0 120.922256,22.415151,0.0 120.921943,22.415083,0.0 120.921608,22.41511,0.0 120.921382,22.415042,0.0 120.921259,22.414805,0.0 120.920945,22.414669,0.0 120.919999,22.41468,0.0 120.919539,22.414587,0.0 120.919124,22.414214,0.0 120.918717,22.414201,0.0 120.918214,22.41439,0.0 120.917376,22.414105,0.0 120.916182,22.413651,0.0 120.914703,22.412918,0.0 120.914055,22.412722,0.0 120.913712,22.412541,0.0 120.913292,22.412504,0.0 120.912961,22.412491,0.0 120.912395,22.412328,0.0 120.912035,22.412407,0.0 120.911499,22.412409,0.0 120.91104,22.412239,0.0 120.910661,22.412225,0.0 120.910195,22.412049,0.0 120.909955,22.412069,0.0 120.90969,22.412164,0.0 120.909474,22.412089,0.0 120.909125,22.411804,0.0 120.90793,22.411424,0.0 120.907275,22.411411,0.0 120.906655,22.411302,0.0 120.906269,22.411356,0.0 120.905599,22.411382,0.0 120.905193,22.41124,0.0 120.904936,22.41126,0.0 120.904728,22.411359,0.0 120.90422,22.411533,0.0 120.903736,22.411533,0.0 120.903417,22.411453,0.0 120.903087,22.411539,0.0 120.902779,22.411496,0.0 120.902483,22.411295,0.0 120.902278,22.410918,0.0 120.902096,22.410818,0.0 120.901554,22.411003,0.0 120.901297,22.410953,0.0 120.900974,22.41044,0.0 120.900763,22.410079,0.0 120.900473,22.409821,0.0 120.900327,22.409715,0.0 120.900023,22.409873,0.0 120.899571,22.410512,0.0 120.899153,22.410816,0.0 120.898657,22.410681,0.0 120.898398,22.410154,0.0 120.898563,22.409868,0.0 120.898612,22.409579,0.0 120.898398,22.409524,0.0 120.898093,22.409493,0.0 120.89789,22.409305,0.0 120.897586,22.408842,0.0 120.897383,22.408623,0.0 120.897101,22.408643,0.0 120.896627,22.408916,0.0 120.896263,22.408974,0.0 120.896006,22.408864,0.0 120.895736,22.408538,0.0 120.89481,22.40842,0.0 120.894235,22.408382,0.0 120.893908,22.408212,0.0 120.893547,22.4082,0.0 120.893152,22.408315,0.0 120.892926,22.408451,0.0 120.892926,22.408807,0.0 120.893207,22.409374,0.0 120.893804,22.409451,0.0 120.893929,22.409564,0.0 120.894053,22.409858,0.0 120.894324,22.410088,0.0 120.894911,22.410204,0.0 120.895227,22.410374,0.0 120.895486,22.410782,0.0 120.895282,22.411035,0.0 120.894853,22.411202,0.0 120.89474,22.411559,0.0 120.894368,22.41182,0.0 120.89377,22.411809,0.0 120.8934,22.411987,0.0 120.893205,22.411903,0.0 120.893003,22.411589,0.0 120.89263,22.411442,0.0 120.891772,22.411819,0.0 120.891366,22.411818,0.0 120.890576,22.412016,0.0 120.890091,22.412341,0.0 120.889808,22.412447,0.0 120.889673,22.412734,0.0 120.889402,22.413117,0.0 120.889176,22.413181,0.0 120.888919,22.41302,0.0 120.888838,22.412941,0.0 120.888843,22.412857,0.0 120.888866,22.412532,0.0 120.888697,22.411324,0.0 120.888386,22.410965,0.0 120.888185,22.410588,0.0 120.887628,22.410086,0.0 120.886894,22.409693,0.0 120.886473,22.409566,0.0 120.885565,22.409405,0.0 120.884546,22.409124,0.0 120.882185,22.408743,0.0 120.881375,22.408454,0.0 120.88067,22.408239,0.0 120.879923,22.408137,0.0 120.879323,22.408064,0.0 120.87898,22.407919,0.0 120.878629,22.407601,0.0 120.878222,22.407244,0.0 120.877277,22.406683,0.0 120.876621,22.406461,0.0 120.87574,22.40656,0.0 120.875488,22.406413,0.0 120.874444,22.405543,0.0 120.873701,22.405036,0.0 120.874603,22.404281,0.0 120.875273,22.403859,0.0 120.875788,22.403771,0.0 120.876438,22.403826,0.0 120.87662,22.40381,0.0 120.877217,22.403474,0.0 120.878034,22.402917,0.0 120.878616,22.402408,0.0 120.879492,22.401661,0.0 120.880398,22.401084,0.0 120.881133,22.400608,0.0 120.881554,22.400509,0.0 120.88258,22.400028,0.0 120.883033,22.399704,0.0 120.88338,22.399413,0.0 120.8841,22.398634,0.0 120.884466,22.398192,0.0 120.884859,22.39765,0.0 120.885685,22.396531,0.0 120.88597,22.395915,0.0 120.886196,22.395274,0.0 120.886302,22.394741,0.0 120.886206,22.394048,0.0 120.886092,22.393449,0.0 120.885986,22.393314,0.0 120.885954,22.393167,0.0 120.885954,22.392923,0.0 120.886304,22.392339,0.0 120.886424,22.392126,0.0 120.886429,22.391634,0.0 120.886447,22.391257,0.0 120.886757,22.390722,0.0 120.886946,22.390097,0.0 120.886996,22.389932,0.0 120.887107,22.389828,0.0 120.887337,22.389797,0.0 120.887571,22.389775,0.0 120.887572,22.389395,0.0 120.887623,22.389136,0.0 120.887692,22.388937,0.0 120.887641,22.388788,0.0 120.887012,22.388404,0.0 120.886754,22.388259,0.0 120.886465,22.388087,0.0 120.886005,22.38806,0.0 120.885771,22.388044,0.0 120.88567,22.38801,0.0 120.885583,22.387881,0.0 120.8856,22.387597,0.0 120.885917,22.387288,0.0 120.886088,22.387023,0.0 120.886116,22.386784,0.0 120.886107,22.386181,0.0 120.886162,22.385879,0.0 120.886544,22.385716,0.0 120.887833,22.384902,0.0 120.887995,22.384661,0.0 120.888054,22.384383,0.0 120.888,22.383891,0.0 120.888081,22.383656,0.0 120.888502,22.382837,0.0 120.888687,22.381342,0.0 120.888637,22.381209,0.0 120.887915,22.380947,0.0 120.887104,22.380684,0.0 120.8863,22.380555,0.0 120.88556,22.380405,0.0 120.884935,22.380114,0.0 120.884434,22.379874,0.0 120.88375,22.379465,0.0 120.882892,22.379211,0.0 120.882272,22.378969,0.0 120.881835,22.378556,0.0 120.881681,22.378203,0.0 120.881727,22.377781,0.0 120.881717,22.37737,0.0 120.881628,22.377253,0.0 120.881295,22.377151,0.0 120.880816,22.377074,0.0 120.880444,22.376927,0.0 120.879981,22.376335,0.0 120.879779,22.376125,0.0 120.879374,22.376039,0.0 120.878626,22.375871,0.0 120.878236,22.375756,0.0 120.87806,22.37548,0.0 120.877957,22.374949,0.0 120.878179,22.374789,0.0 120.878473,22.374631,0.0 120.878719,22.374363,0.0 120.879097,22.373945,0.0 120.879323,22.373469,0.0 120.879459,22.373194,0.0 120.879399,22.372884,0.0 120.879392,22.372408,0.0 120.879381,22.371735,0.0 120.879333,22.371611,0.0 120.879031,22.371403,0.0 120.878442,22.37098,0.0 120.877467,22.370469,0.0 120.876927,22.370297,0.0 120.876734,22.369968,0.0 120.876701,22.369834,0.0 120.876655,22.36969,0.0 120.876543,22.369561,0.0 120.876332,22.369498,0.0 120.876034,22.369369,0.0 120.875976,22.369233,0.0 120.87644,22.368721,0.0 120.877057,22.368261,0.0 120.877603,22.36767,0.0 120.878413,22.366731,0.0 120.879585,22.366073,0.0 120.881102,22.364568,0.0 120.881923,22.363907,0.0 120.883563,22.363806,0.0 120.885921,22.3626,0.0 120.887084,22.361851,0.0 120.887999,22.361667,0.0 120.889853,22.361828,0.0 120.890247,22.361872,0.0 120.891223,22.362396,0.0 120.892578,22.362939,0.0 120.892924,22.363097,0.0 120.893438,22.363664,0.0 120.893761,22.363868,0.0 120.894026,22.363949,0.0 120.894312,22.364148,0.0 120.894979,22.364236,0.0 120.895547,22.364144,0.0 120.896071,22.364233,0.0 120.896285,22.364052,0.0 120.896638,22.363775,0.0 120.897266,22.363477,0.0 120.897799,22.363283,0.0 120.901048,22.366168,0.0 120.902946,22.366917,0.0 120.903581,22.36682,0.0 120.903978,22.366868,0.0 120.904731,22.366658,0.0 120.905209,22.366681,0.0 120.905378,22.366643,0.0 120.905537,22.366429,0.0 120.905758,22.366298,0.0 120.906016,22.366194,0.0 120.906265,22.365923,0.0 120.906546,22.365684,0.0 120.907785,22.365249,0.0 120.909539,22.364685,0.0 120.909587,22.364708,0.0 120.909611,22.364952,0.0 120.909692,22.365313,0.0 120.909764,22.365605,0.0 120.909844,22.365973,0.0 120.910015,22.366659,0.0 120.910095,22.367018,0.0 120.910218,22.367258,0.0 120.910275,22.367562,0.0 120.910356,22.367921,0.0 120.910391,22.368181,0.0 120.910391,22.368608,0.0 120.910436,22.368926,0.0 120.910499,22.369294,0.0 120.910768,22.370222,0.0 120.910848,22.370489,0.0 120.910959,22.370848,0.0 120.911028,22.371142,0.0 120.911342,22.37228,0.0 120.911494,22.373108,0.0 120.911638,22.373777,0.0 120.911727,22.374488,0.0 120.911898,22.375357,0.0 120.912014,22.375768,0.0 120.91222,22.376672,0.0 120.912283,22.376938,0.0 120.912472,22.377473,0.0 120.912831,22.378645,0.0 120.913001,22.379682,0.0 120.913234,22.380578,0.0 120.913288,22.380804,0.0 120.913405,22.381389,0.0 120.91353,22.381782,0.0 120.913638,22.382141,0.0 120.9138,22.382735,0.0 120.913852,22.3829,0.0 120.913934,22.383205,0.0 120.914065,22.383582,0.0 120.914185,22.384083,0.0 120.914311,22.384359,0.0 120.914715,22.385336,0.0 120.914832,22.385605,0.0 120.915272,22.387127,0.0 120.91546,22.387312,0.0 120.915766,22.387956,0.0 120.91591,22.388207,0.0 120.916449,22.389018,0.0 120.916655,22.389435,0.0 120.916746,22.389569,0.0 120.917257,22.390666,0.0 120.917509,22.391186,0.0 120.917626,22.391294,0.0 120.917715,22.391502,0.0 120.917787,22.391721,0.0 120.917859,22.391947,0.0 120.918182,22.392699,0.0 120.918335,22.392875,0.0 120.91847,22.393017,0.0 120.919269,22.393609,0.0 120.919676,22.394036,0.0 120.920609,22.394947,0.0 120.920784,22.395376,0.0 120.920996,22.396155,0.0 120.921238,22.396814,0.0 120.92157,22.397544,0.0 120.922033,22.398375,0.0 120.92224,22.399027,0.0 120.922313,22.399323,0.0 120.922383,22.399921,0.0 120.922512,22.400423,0.0 120.922617,22.400983,0.0 120.922895,22.402213,0.0 120.923146,22.403058,0.0 120.923505,22.404004,0.0 120.923604,22.404546,0.0 120.923875,22.405215,0.0 120.924035,22.405793,0.0 120.924242,22.406396,0.0 120.924547,22.407432,0.0 120.924762,22.408085,0.0 120.925005,22.409072,0.0 120.925191,22.40955,0.0 120.925382,22.410076,0.0 120.925643,22.410603,0.0 120.926083,22.411314,0.0 120.926254,22.411824,0.0 120.926567,22.412226,0.0 120.926667,22.412518,0.0 120.927098,22.413782,0.0 120.92725,22.414236,0.0</coordinates></LinearRing></outerBoundaryIs></Polygon><styleUrl>#spolygon-map</styleUrl></Placemark><Placemark><Polygon><outerBoundaryIs><LinearRing><coordinates>120.865566,22.347423,0.0 120.865384,22.347166,0.0 120.865227,22.346967,0.0 120.865103,22.346748,0.0 120.865012,22.346587,0.0 120.864781,22.346367,0.0 120.864568,22.346211,0.0 120.864403,22.346049,0.0 120.864318,22.345936,0.0 120.864089,22.345539,0.0 120.863997,22.345297,0.0 120.863638,22.3448,0.0 120.863487,22.344685,0.0 120.863336,22.344527,0.0 120.863231,22.344377,0.0 120.863128,22.344156,0.0 120.863033,22.344062,0.0 120.862878,22.344007,0.0 120.862518,22.344007,0.0 120.862374,22.343986,0.0 120.862073,22.343805,0.0 120.86175,22.343717,0.0 120.861431,22.343644,0.0 120.861228,22.34359,0.0 120.861071,22.343531,0.0 120.860861,22.343366,0.0 120.860625,22.343133,0.0 120.860444,22.342772,0.0 120.860436,22.342402,0.0 120.860491,22.34211,0.0 120.860641,22.341738,0.0 120.860671,22.341569,0.0 120.860657,22.341498,0.0 120.860434,22.340908,0.0 120.860321,22.340582,0.0 120.860329,22.340503,0.0 120.860493,22.340394,0.0 120.861455,22.33974,0.0 120.862337,22.339235,0.0 120.862594,22.33907,0.0 120.86277,22.338904,0.0 120.863115,22.338557,0.0 120.863271,22.338324,0.0 120.863311,22.338252,0.0 120.863744,22.337609,0.0 120.863875,22.337388,0.0 120.863937,22.337175,0.0 120.864016,22.3369,0.0 120.864094,22.336521,0.0 120.864156,22.336324,0.0 120.864275,22.336056,0.0 120.864407,22.335868,0.0 120.864603,22.335577,0.0 120.864945,22.335203,0.0 120.865144,22.335101,0.0 120.865363,22.335032,0.0 120.865605,22.334887,0.0 120.865938,22.334701,0.0 120.866138,22.33459,0.0 120.866192,22.334495,0.0 120.8662,22.334443,0.0 120.866185,22.334358,0.0 120.866052,22.334102,0.0 120.865903,22.333817,0.0 120.86574,22.333201,0.0 120.86554,22.332671,0.0 120.865534,22.3323,0.0 120.86566,22.33158,0.0 120.865731,22.331026,0.0 120.865746,22.330618,0.0 120.865654,22.330175,0.0 120.865607,22.329798,0.0 120.865492,22.329165,0.0 120.865381,22.328816,0.0 120.865217,22.32859,0.0 120.86517,22.328511,0.0 120.865147,22.328452,0.0 120.865792,22.327938,0.0 120.866183,22.326737,0.0 120.866892,22.325584,0.0 120.867606,22.325072,0.0 120.870539,22.324995,0.0 120.873389,22.323828,0.0 120.876275,22.3236,0.0 120.878398,22.323865,0.0 120.879088,22.3249,0.0 120.880501,22.328098,0.0 120.881446,22.330011,0.0 120.882203,22.330764,0.0 120.882802,22.331121,0.0 120.883748,22.33114,0.0 120.885951,22.330227,0.0 120.887881,22.329438,0.0 120.888837,22.329454,0.0 120.890075,22.330015,0.0 120.890864,22.329772,0.0 120.891934,22.329441,0.0 120.893156,22.329037,0.0 120.893326,22.329749,0.0 120.893559,22.330577,0.0 120.893738,22.33184,0.0 120.893998,22.332542,0.0 120.894222,22.333748,0.0 120.894546,22.334283,0.0 120.894878,22.334383,0.0 120.895139,22.334575,0.0 120.89606,22.335084,0.0 120.89645,22.335413,0.0 120.896558,22.335673,0.0 120.896504,22.335782,0.0 120.896369,22.335757,0.0 120.896163,22.335422,0.0 120.896058,22.335664,0.0 120.895506,22.336072,0.0 120.895398,22.336424,0.0 120.895515,22.336616,0.0 120.895851,22.336885,0.0 120.896054,22.336777,0.0 120.895865,22.337145,0.0 120.896054,22.337328,0.0 120.895923,22.337642,0.0 120.895875,22.33784,0.0 120.89608,22.337764,0.0 120.89626,22.337421,0.0 120.897303,22.337028,0.0 120.897116,22.335138,0.0 120.897071,22.334904,0.0 120.897386,22.334829,0.0 120.897611,22.334913,0.0 120.897754,22.335798,0.0 120.897924,22.33692,0.0 120.899083,22.337422,0.0 120.899155,22.337599,0.0 120.898795,22.337741,0.0 120.898364,22.337673,0.0 120.898112,22.337864,0.0 120.898129,22.338483,0.0 120.898201,22.339546,0.0 120.898515,22.33963,0.0 120.89821,22.339772,0.0 120.898091,22.340165,0.0 120.898254,22.340289,0.0 120.898587,22.340323,0.0 120.89864,22.341161,0.0 120.898819,22.341796,0.0 120.89844,22.34252,0.0 120.89743,22.343251,0.0 120.897228,22.343931,0.0 120.897132,22.344303,0.0 120.897019,22.344775,0.0 120.896592,22.345635,0.0 120.89614,22.346061,0.0 120.895851,22.346271,0.0 120.89557,22.346443,0.0 120.895264,22.346517,0.0 120.893919,22.346455,0.0 120.893377,22.346574,0.0 120.892706,22.348073,0.0 120.892397,22.348348,0.0 120.892046,22.348529,0.0 120.891828,22.348687,0.0 120.891013,22.349641,0.0 120.890886,22.34972,0.0 120.890562,22.349822,0.0 120.8905,22.349901,0.0 120.890522,22.350029,0.0 120.890526,22.350781,0.0 120.890693,22.351226,0.0 120.890669,22.351684,0.0 120.890558,22.353809,0.0 120.889968,22.354648,0.0 120.889372,22.354991,0.0 120.888252,22.354898,0.0 120.885177,22.353557,0.0 120.883454,22.353662,0.0 120.882615,22.354253,0.0 120.879965,22.354458,0.0 120.878613,22.354934,0.0 120.876277,22.353602,0.0 120.874074,22.352887,0.0 120.872515,22.351872,0.0 120.871079,22.351686,0.0 120.869273,22.351816,0.0 120.869128,22.351646,0.0 120.869009,22.351542,0.0 120.868578,22.351377,0.0 120.868095,22.351272,0.0 120.867305,22.35099,0.0 120.867201,22.350895,0.0 120.867179,22.350673,0.0 120.867232,22.349752,0.0 120.867165,22.349511,0.0 120.866823,22.349178,0.0 120.866415,22.348605,0.0 120.865985,22.348044,0.0 120.865566,22.347423,0.0</coordinates></LinearRing></outerBoundaryIs></Polygon><styleUrl>#spolygon-map</styleUrl></Placemark><Placemark><Polygon><outerBoundaryIs><LinearRing><coordinates>120.893189,22.329025,0.0 120.892928,22.329109,0.0 120.891368,22.329571,0.0 120.890429,22.329982,0.0 120.889527,22.32985,0.0 120.888359,22.329404,0.0 120.887226,22.329568,0.0 120.884198,22.331016,0.0 120.883217,22.331157,0.0 120.882518,22.330992,0.0 120.881827,22.330375,0.0 120.881023,22.329304,0.0 120.879252,22.325483,0.0 120.878793,22.324288,0.0 120.877868,22.3237,0.0 120.874186,22.323664,0.0 120.871301,22.324553,0.0 120.868107,22.324892,0.0 120.867211,22.325304,0.0 120.86652,22.325947,0.0 120.866139,22.327579,0.0 120.865121,22.328386,0.0 120.865086,22.328298,0.0 120.864876,22.328036,0.0 120.864477,22.327623,0.0 120.864345,22.327469,0.0 120.864196,22.327273,0.0 120.864025,22.32685,0.0 120.863939,22.326283,0.0 120.863993,22.325095,0.0 120.864124,22.324051,0.0 120.86411,22.323757,0.0 120.864036,22.323536,0.0 120.863786,22.323043,0.0 120.863514,22.322204,0.0 120.863341,22.321763,0.0 120.863144,22.321504,0.0 120.862915,22.321297,0.0 120.862496,22.321198,0.0 120.862291,22.32115,0.0 120.861965,22.320964,0.0 120.861843,22.320813,0.0 120.861652,22.320322,0.0 120.861605,22.320226,0.0 120.861384,22.320032,0.0 120.861311,22.319965,0.0 120.860918,22.319501,0.0 120.860914,22.319444,0.0 120.860872,22.319279,0.0 120.860798,22.318902,0.0 120.860706,22.318798,0.0 120.860441,22.318633,0.0 120.860168,22.318513,0.0 120.859946,22.318422,0.0 120.859753,22.318295,0.0 120.859405,22.318043,0.0 120.859044,22.317675,0.0 120.858891,22.317473,0.0 120.858716,22.317147,0.0 120.858655,22.316913,0.0 120.858609,22.316739,0.0 120.858596,22.316559,0.0 120.858587,22.316511,0.0 120.858578,22.316462,0.0 120.858558,22.316367,0.0 120.858548,22.316317,0.0 120.858553,22.316148,0.0 120.858563,22.316078,0.0 120.858586,22.316006,0.0 120.858678,22.315902,0.0 120.858782,22.315807,0.0 120.859136,22.315652,0.0 120.859356,22.315517,0.0 120.859529,22.315336,0.0 120.859648,22.315153,0.0 120.859762,22.314991,0.0 120.859927,22.314872,0.0 120.859999,22.314825,0.0 120.860157,22.314708,0.0 120.860293,22.314596,0.0 120.860436,22.314458,0.0 120.860647,22.314184,0.0 120.860729,22.314092,0.0 120.860861,22.31399,0.0 120.861237,22.313795,0.0 120.861428,22.313707,0.0 120.861653,22.313565,0.0 120.861988,22.313308,0.0 120.862136,22.313177,0.0 120.862285,22.313044,0.0 120.862676,22.312724,0.0 120.863027,22.312537,0.0 120.863505,22.31228,0.0 120.863765,22.312129,0.0 120.864023,22.311935,0.0 120.864305,22.311683,0.0 120.864636,22.311429,0.0 120.864835,22.311326,0.0 120.865056,22.31127,0.0 120.86517,22.311221,0.0 120.865352,22.311103,0.0 120.865492,22.31099,0.0 120.86565,22.3109,0.0 120.865745,22.310865,0.0 120.866005,22.310805,0.0 120.86613,22.310751,0.0 120.866415,22.310602,0.0 120.866494,22.310537,0.0 120.866593,22.310431,0.0 120.866801,22.310214,0.0 120.867082,22.310068,0.0 120.867328,22.309957,0.0 120.867731,22.309712,0.0 120.868077,22.30945,0.0 120.868316,22.309182,0.0 120.86854,22.308913,0.0 120.86858,22.308834,0.0 120.868578,22.308602,0.0 120.868555,22.308301,0.0 120.86857,22.307967,0.0 120.868549,22.307258,0.0 120.868425,22.307176,0.0 120.868096,22.307032,0.0 120.867833,22.306939,0.0 120.867438,22.306663,0.0 120.867296,22.306543,0.0 120.867271,22.30641,0.0 120.867709,22.30607,0.0 120.868167,22.305758,0.0 120.86868,22.305327,0.0 120.86881,22.305148,0.0 120.868937,22.304948,0.0 120.869028,22.304858,0.0 120.869296,22.304655,0.0 120.869521,22.304434,0.0 120.8698,22.304213,0.0 120.870036,22.30402,0.0 120.870302,22.303841,0.0 120.870391,22.303789,0.0 120.8706,22.303713,0.0 120.870743,22.303663,0.0 120.870905,22.303585,0.0 120.870933,22.303567,0.0 120.871115,22.303418,0.0 120.871404,22.30315,0.0 120.871875,22.302695,0.0 120.872147,22.302549,0.0 120.87237,22.30256,0.0 120.872446,22.302589,0.0 120.872485,22.302617,0.0 120.872708,22.302852,0.0 120.872918,22.302984,0.0 120.872987,22.303012,0.0 120.873156,22.303045,0.0 120.873324,22.303055,0.0 120.873733,22.303063,0.0 120.873831,22.303087,0.0 120.87405,22.30318,0.0 120.874167,22.303275,0.0 120.874807,22.304181,0.0 120.875126,22.304567,0.0 120.875195,22.30457,0.0 120.875385,22.304548,0.0 120.875478,22.304525,0.0 120.875533,22.304506,0.0 120.875625,22.304456,0.0 120.875741,22.30434,0.0 120.875902,22.304001,0.0 120.87614,22.303462,0.0 120.87633,22.303191,0.0 120.876667,22.302904,0.0 120.877333,22.302537,0.0 120.877613,22.302397,0.0 120.878121,22.302266,0.0 120.878437,22.302199,0.0 120.878715,22.30217,0.0 120.879523,22.302252,0.0 120.87972,22.302292,0.0 120.879851,22.302307,0.0 120.879932,22.302311,0.0 120.88003,22.302306,0.0 120.880122,22.302277,0.0 120.88031,22.302152,0.0 120.880567,22.302072,0.0 120.880902,22.302075,0.0 120.881348,22.302081,0.0 120.881578,22.302048,0.0 120.881724,22.302014,0.0 120.881862,22.301964,0.0 120.8825,22.301707,0.0 120.883035,22.301426,0.0 120.883452,22.301259,0.0 120.884637,22.30059,0.0 120.885161,22.300295,0.0 120.885392,22.300162,0.0 120.885615,22.300014,0.0 120.885777,22.299867,0.0 120.885952,22.2997,0.0 120.886206,22.299367,0.0 120.886373,22.299078,0.0 120.886481,22.298827,0.0 120.886575,22.298527,0.0 120.886642,22.298236,0.0 120.886648,22.29819,0.0 120.886667,22.298039,0.0 120.886617,22.297819,0.0 120.886604,22.297743,0.0 120.886659,22.297636,0.0 120.886766,22.297582,0.0 120.886884,22.297531,0.0 120.886985,22.297475,0.0 120.887148,22.297437,0.0 120.887412,22.297349,0.0 120.887498,22.297295,0.0 120.88793,22.296748,0.0 120.888071,22.296471,0.0 120.88812,22.296099,0.0 120.888163,22.295575,0.0 120.888293,22.295315,0.0 120.888388,22.295227,0.0 120.888294,22.295039,0.0 120.888316,22.294979,0.0 120.888527,22.294964,0.0 120.888645,22.294898,0.0 120.888622,22.294739,0.0 120.888529,22.294608,0.0 120.888511,22.294498,0.0 120.888491,22.294313,0.0 120.888443,22.294107,0.0 120.888205,22.293299,0.0 120.888089,22.292876,0.0 120.888058,22.292637,0.0 120.888154,22.292416,0.0 120.888322,22.292326,0.0 120.888574,22.292259,0.0 120.888722,22.291974,0.0 120.888942,22.291813,0.0 120.889591,22.291627,0.0 120.890419,22.291528,0.0 120.891147,22.291499,0.0 120.891144,22.291844,0.0 120.891242,22.293073,0.0 120.891206,22.29342,0.0 120.89117,22.293761,0.0 120.891222,22.296218,0.0 120.891239,22.29748,0.0 120.891283,22.298451,0.0 120.891246,22.299697,0.0 120.891245,22.301061,0.0 120.891261,22.303109,0.0 120.89126,22.304197,0.0 120.891349,22.306313,0.0 120.8915,22.307819,0.0 120.891508,22.309032,0.0 120.891552,22.310219,0.0 120.89165,22.311357,0.0 120.891649,22.312527,0.0 120.891738,22.313807,0.0 120.891819,22.314175,0.0 120.891828,22.314701,0.0 120.891917,22.315347,0.0 120.891836,22.315839,0.0 120.891907,22.31635,0.0 120.891907,22.316733,0.0 120.89196,22.317386,0.0 120.892044,22.318319,0.0 120.892049,22.318436,0.0 120.892031,22.318741,0.0 120.892112,22.319102,0.0 120.892228,22.319737,0.0 120.892192,22.320565,0.0 120.892317,22.320942,0.0 120.892361,22.322498,0.0 120.892459,22.323609,0.0 120.892718,22.325802,0.0 120.892843,22.327089,0.0 120.892932,22.327673,0.0 120.893189,22.329025,0.0</coordinates></LinearRing></outerBoundaryIs></Polygon><styleUrl>#spolygon-map</styleUrl></Placemark></Document>
</kml>
