<?xml version="1.0" encoding="UTF-8"?>
<kml xmlns="http://www.opengis.net/kml/2.2">
	<Document>
		<name>花蓮縣瑞穗鄉</name>
		<Style id="spolygon">
			<LabelStyle>
				<scale>0.0</scale>
			</LabelStyle>
			<LineStyle>
				<color>330030ff</color>
				<width>0</width>
			</LineStyle>
			<PolyStyle>
				<color>330030ff</color>
			</PolyStyle>
		</Style>
		<StyleMap id="spolygon-map">
			<Pair>
				<key>normal</key>
				<styleUrl>#spolygon</styleUrl>
			</Pair>
		</StyleMap>
	<Placemark><Polygon><outerBoundaryIs><LinearRing><coordinates>121.439766,23.547336,0.0 121.439162,23.543094,0.0 121.43854,23.540237,0.0 121.438641,23.538142,0.0 121.437591,23.536914,0.0 121.437838,23.535184,0.0 121.437509,23.533822,0.0 121.435593,23.53263,0.0 121.433116,23.533343,0.0 121.432063,23.533704,0.0 121.431087,23.533208,0.0 121.430002,23.532147,0.0 121.428846,23.531519,0.0 121.429708,23.530519,0.0 121.430787,23.529618,0.0 121.429665,23.528457,0.0 121.428688,23.528006,0.0 121.430426,23.527693,0.0 121.430489,23.526737,0.0 121.430621,23.526089,0.0 121.431789,23.525593,0.0 121.433116,23.526122,0.0 121.434432,23.526295,0.0 121.434727,23.524414,0.0 121.435492,23.523055,0.0 121.436755,23.521079,0.0 121.435546,23.519418,0.0 121.433174,23.519795,0.0 121.431605,23.520415,0.0 121.428732,23.520762,0.0 121.426489,23.519844,0.0 121.423672,23.516893,0.0 121.42076,23.515606,0.0 121.41795,23.514935,0.0 121.415642,23.514263,0.0 121.412664,23.513316,0.0 121.411822,23.511284,0.0 121.411913,23.508355,0.0 121.412411,23.507306,0.0 121.412175,23.506505,0.0 121.412005,23.505704,0.0 121.412103,23.505026,0.0 121.412068,23.504441,0.0 121.411765,23.503794,0.0 121.410826,23.502656,0.0 121.409753,23.501703,0.0 121.408779,23.500165,0.0 121.408077,23.499889,0.0 121.407205,23.498874,0.0 121.407002,23.498074,0.0 121.406996,23.496101,0.0 121.408113,23.494763,0.0 121.409659,23.494082,0.0 121.410058,23.494813,0.0 121.410445,23.495326,0.0 121.410775,23.495576,0.0 121.41119,23.49581,0.0 121.411519,23.49584,0.0 121.411822,23.49572,0.0 121.412513,23.49565,0.0 121.41386,23.495489,0.0 121.414696,23.495487,0.0 121.415492,23.495462,0.0 121.416134,23.495331,0.0 121.416892,23.495185,0.0 121.417267,23.494985,0.0 121.417614,23.494677,0.0 121.417946,23.494279,0.0 121.418171,23.493838,0.0 121.418329,23.493468,0.0 121.418391,23.493005,0.0 121.418318,23.491553,0.0 121.418102,23.490357,0.0 121.417771,23.489658,0.0 121.416743,23.488153,0.0 121.416136,23.486954,0.0 121.415605,23.485858,0.0 121.415352,23.485152,0.0 121.415083,23.484338,0.0 121.414762,23.483262,0.0 121.414642,23.482242,0.0 121.414607,23.481614,0.0 121.414611,23.480932,0.0 121.414681,23.480413,0.0 121.414906,23.479846,0.0 121.415387,23.479208,0.0 121.415969,23.478775,0.0 121.416346,23.478555,0.0 121.416785,23.478369,0.0 121.417397,23.47813,0.0 121.418178,23.47783,0.0 121.418559,23.477691,0.0 121.418839,23.477654,0.0 121.419558,23.477639,0.0 121.419809,23.477679,0.0 121.42034,23.477754,0.0 121.420713,23.4779,0.0 121.421022,23.478068,0.0 121.421215,23.478124,0.0 121.421346,23.478092,0.0 121.421837,23.477673,0.0 121.422146,23.477508,0.0 121.422387,23.477557,0.0 121.422571,23.477827,0.0 121.422721,23.477974,0.0 121.422939,23.478032,0.0 121.423181,23.478087,0.0 121.423543,23.478296,0.0 121.423693,23.478359,0.0 121.424109,23.478512,0.0 121.424303,23.478613,0.0 121.424463,23.47875,0.0 121.424571,23.478779,0.0 121.424722,23.47874,0.0 121.425006,23.478584,0.0 121.425214,23.47852,0.0 121.425589,23.478489,0.0 121.425719,23.478473,0.0 121.42576,23.478421,0.0 121.425762,23.47827,0.0 121.42579,23.47794,0.0 121.42584,23.477751,0.0 121.425953,23.477342,0.0 121.42608,23.477104,0.0 121.426145,23.476903,0.0 121.426221,23.476785,0.0 121.426385,23.476675,0.0 121.426544,23.476606,0.0 121.426732,23.476579,0.0 121.426919,23.476617,0.0 121.427255,23.476762,0.0 121.427551,23.476938,0.0 121.427829,23.477172,0.0 121.428247,23.477676,0.0 121.428665,23.478296,0.0 121.429379,23.479323,0.0 121.429724,23.479754,0.0 121.429965,23.480119,0.0 121.430324,23.481127,0.0 121.430616,23.482004,0.0 121.430857,23.482559,0.0 121.430943,23.482626,0.0 121.431054,23.482628,0.0 121.431286,23.482564,0.0 121.431935,23.482558,0.0 121.432379,23.482564,0.0 121.43249,23.482491,0.0 121.432563,23.48238,0.0 121.432686,23.482066,0.0 121.432991,23.481431,0.0 121.433125,23.481221,0.0 121.433787,23.480551,0.0 121.434117,23.480164,0.0 121.434505,23.47965,0.0 121.43488,23.479272,0.0 121.435203,23.478932,0.0 121.43558,23.47862,0.0 121.435923,23.47828,0.0 121.436536,23.477599,0.0 121.437254,23.476768,0.0 121.437625,23.476411,0.0 121.437933,23.476148,0.0 121.438189,23.47596,0.0 121.438483,23.475794,0.0 121.438725,23.475712,0.0 121.439073,23.47561,0.0 121.439421,23.475462,0.0 121.439918,23.475147,0.0 121.440202,23.475002,0.0 121.440591,23.474874,0.0 121.44078,23.474813,0.0 121.4409,23.474749,0.0 121.440988,23.4745,0.0 121.441067,23.474173,0.0 121.441052,23.474026,0.0 121.440863,23.473814,0.0 121.440082,23.473194,0.0 121.439905,23.473018,0.0 121.439642,23.472655,0.0 121.439481,23.472414,0.0 121.439375,23.472317,0.0 121.438755,23.472093,0.0 121.438453,23.472004,0.0 121.438081,23.471919,0.0 121.437853,23.471913,0.0 121.437261,23.472007,0.0 121.436921,23.472013,0.0 121.436593,23.471973,0.0 121.436008,23.471776,0.0 121.435703,23.471718,0.0 121.435326,23.471683,0.0 121.43509,23.471663,0.0 121.434904,23.471644,0.0 121.434833,23.471615,0.0 121.434749,23.471531,0.0 121.434643,23.470744,0.0 121.434607,23.469712,0.0 121.43452,23.469003,0.0 121.43462,23.468935,0.0 121.435114,23.468722,0.0 121.435628,23.468574,0.0 121.436023,23.468496,0.0 121.436293,23.468421,0.0 121.436638,23.468291,0.0 121.436936,23.468173,0.0 121.437024,23.468123,0.0 121.437275,23.46795,0.0 121.437848,23.467479,0.0 121.438121,23.467237,0.0 121.438551,23.466908,0.0 121.438918,23.466546,0.0 121.439423,23.465852,0.0 121.43961,23.465447,0.0 121.439667,23.46528,0.0 121.439884,23.464941,0.0 121.440358,23.464009,0.0 121.440584,23.463385,0.0 121.440709,23.462931,0.0 121.440963,23.462222,0.0 121.441357,23.461534,0.0 121.441726,23.461145,0.0 121.442175,23.460692,0.0 121.44248,23.460508,0.0 121.442913,23.460403,0.0 121.443656,23.460343,0.0 121.444133,23.460307,0.0 121.444447,23.460214,0.0 121.444902,23.459967,0.0 121.445657,23.459459,0.0 121.445908,23.459275,0.0 121.445857,23.459133,0.0 121.445489,23.458396,0.0 121.445099,23.457993,0.0 121.444875,23.457777,0.0 121.444764,23.457538,0.0 121.444553,23.456798,0.0 121.444405,23.456302,0.0 121.44406,23.455345,0.0 121.443625,23.454288,0.0 121.443533,23.453649,0.0 121.443498,23.45313,0.0 121.443608,23.452854,0.0 121.443855,23.452542,0.0 121.444168,23.452078,0.0 121.444482,23.451895,0.0 121.444825,23.451801,0.0 121.445154,23.4518,0.0 121.445606,23.451821,0.0 121.445715,23.451792,0.0 121.445958,23.451918,0.0 121.446265,23.452025,0.0 121.446606,23.452141,0.0 121.4469,23.452285,0.0 121.447424,23.452579,0.0 121.448699,23.453176,0.0 121.449181,23.453389,0.0 121.449772,23.45351,0.0 121.450338,23.453567,0.0 121.451493,23.453726,0.0 121.452145,23.453719,0.0 121.452701,23.453686,0.0 121.453091,23.453629,0.0 121.453469,23.453485,0.0 121.454018,23.453429,0.0 121.454679,23.453448,0.0 121.455056,23.453404,0.0 121.455765,23.453242,0.0 121.456452,23.453115,0.0 121.45727,23.453023,0.0 121.45811,23.452949,0.0 121.458384,23.452963,0.0 121.45872,23.453064,0.0 121.459171,23.45327,0.0 121.45966,23.453591,0.0 121.460118,23.454037,0.0 121.460348,23.454111,0.0 121.460638,23.45402,0.0 121.461334,23.453959,0.0 121.461517,23.45404,0.0 121.461829,23.454267,0.0 121.462161,23.454329,0.0 121.462417,23.454403,0.0 121.46251,23.454524,0.0 121.462541,23.454723,0.0 121.462725,23.454939,0.0 121.462946,23.45513,0.0 121.463041,23.45524,0.0 121.463088,23.455421,0.0 121.463155,23.456141,0.0 121.463219,23.456443,0.0 121.463355,23.456617,0.0 121.463484,23.456788,0.0 121.463614,23.457083,0.0 121.463732,23.457972,0.0 121.463754,23.458153,0.0 121.463648,23.458395,0.0 121.463569,23.45884,0.0 121.463614,23.459228,0.0 121.463704,23.459483,0.0 121.463871,23.459658,0.0 121.46448,23.459914,0.0 121.464679,23.459981,0.0 121.464735,23.460051,0.0 121.464748,23.460173,0.0 121.464677,23.460408,0.0 121.464649,23.461076,0.0 121.464689,23.461545,0.0 121.464823,23.461933,0.0 121.464917,23.462172,0.0 121.465174,23.462553,0.0 121.465393,23.463054,0.0 121.465629,23.464292,0.0 121.465703,23.464561,0.0 121.465971,23.464822,0.0 121.466603,23.465423,0.0 121.466779,23.465725,0.0 121.46678,23.465932,0.0 121.466661,23.466371,0.0 121.466489,23.466852,0.0 121.466485,23.467166,0.0 121.466467,23.467687,0.0 121.466437,23.468046,0.0 121.466505,23.468267,0.0 121.466677,23.468901,0.0 121.466745,23.469628,0.0 121.466669,23.470199,0.0 121.466497,23.470737,0.0 121.466311,23.471009,0.0 121.46587,23.47152,0.0 121.465364,23.47254,0.0 121.465272,23.472969,0.0 121.465182,23.473192,0.0 121.465072,23.473877,0.0 121.464985,23.474218,0.0 121.464805,23.474768,0.0 121.464662,23.475262,0.0 121.464529,23.475689,0.0 121.464572,23.475881,0.0 121.464852,23.476284,0.0 121.465039,23.476392,0.0 121.465175,23.476462,0.0 121.46524,23.47655,0.0 121.465453,23.47719,0.0 121.466179,23.478529,0.0 121.466329,23.478662,0.0 121.466405,23.479023,0.0 121.466611,23.479304,0.0 121.467247,23.479853,0.0 121.467476,23.480087,0.0 121.467603,23.480152,0.0 121.467752,23.480299,0.0 121.46787,23.480574,0.0 121.467996,23.480698,0.0 121.468257,23.480787,0.0 121.468374,23.480882,0.0 121.468431,23.481105,0.0 121.468586,23.481391,0.0 121.468787,23.481562,0.0 121.469095,23.481717,0.0 121.469338,23.481888,0.0 121.469526,23.482133,0.0 121.469704,23.482266,0.0 121.469923,23.482495,0.0 121.470929,23.483479,0.0 121.471559,23.483992,0.0 121.471764,23.484088,0.0 121.471923,23.484205,0.0 121.472012,23.484347,0.0 121.472046,23.484674,0.0 121.471992,23.485327,0.0 121.471932,23.485542,0.0 121.471946,23.485636,0.0 121.472027,23.485794,0.0 121.472107,23.485999,0.0 121.472154,23.486085,0.0 121.472265,23.486179,0.0 121.472377,23.486197,0.0 121.472583,23.486197,0.0 121.472653,23.486302,0.0 121.472709,23.486397,0.0 121.472849,23.48641,0.0 121.473115,23.486479,0.0 121.473297,23.486556,0.0 121.473507,23.486688,0.0 121.473652,23.486843,0.0 121.473727,23.487096,0.0 121.473714,23.487405,0.0 121.473701,23.487525,0.0 121.47379,23.48764,0.0 121.473939,23.487676,0.0 121.474168,23.487661,0.0 121.474456,23.48755,0.0 121.474708,23.487493,0.0 121.475056,23.487492,0.0 121.47529,23.487435,0.0 121.475602,23.487257,0.0 121.475751,23.487196,0.0 121.475908,23.487182,0.0 121.476166,23.48717,0.0 121.476403,23.487131,0.0 121.476594,23.487117,0.0 121.476795,23.487154,0.0 121.477061,23.487287,0.0 121.477177,23.487458,0.0 121.477318,23.487595,0.0 121.477509,23.487721,0.0 121.477734,23.487917,0.0 121.477925,23.487968,0.0 121.478111,23.487895,0.0 121.47846,23.48763,0.0 121.478688,23.487505,0.0 121.478902,23.487446,0.0 121.479143,23.487179,0.0 121.479352,23.486876,0.0 121.479403,23.486765,0.0 121.479412,23.486596,0.0 121.479443,23.48648,0.0 121.479625,23.486308,0.0 121.480159,23.486027,0.0 121.480291,23.48594,0.0 121.480489,23.485746,0.0 121.480757,23.485381,0.0 121.480943,23.485083,0.0 121.48111,23.484683,0.0 121.481303,23.484149,0.0 121.481432,23.483896,0.0 121.481604,23.483711,0.0 121.48193,23.48343,0.0 121.482287,23.483205,0.0 121.482619,23.483118,0.0 121.482912,23.483126,0.0 121.483113,23.483227,0.0 121.483356,23.483296,0.0 121.483548,23.48337,0.0 121.483749,23.483489,0.0 121.48389,23.483543,0.0 121.484079,23.48357,0.0 121.484248,23.483626,0.0 121.484433,23.483736,0.0 121.484776,23.484073,0.0 121.485341,23.484624,0.0 121.485672,23.48477,0.0 121.486148,23.484983,0.0 121.486519,23.485007,0.0 121.486671,23.485006,0.0 121.486712,23.485101,0.0 121.486587,23.485433,0.0 121.486285,23.485829,0.0 121.486101,23.486293,0.0 121.485685,23.487174,0.0 121.485535,23.487473,0.0 121.485426,23.488202,0.0 121.485304,23.489011,0.0 121.485281,23.489824,0.0 121.485212,23.490639,0.0 121.485263,23.490785,0.0 121.485343,23.49093,0.0 121.485356,23.491079,0.0 121.485277,23.491291,0.0 121.484895,23.491633,0.0 121.484721,23.491828,0.0 121.484682,23.491988,0.0 121.484697,23.492255,0.0 121.484814,23.49264,0.0 121.485038,23.49292,0.0 121.485494,23.493144,0.0 121.485717,23.49334,0.0 121.485843,23.493764,0.0 121.485819,23.494224,0.0 121.485827,23.494321,0.0 121.486028,23.49442,0.0 121.486626,23.4948,0.0 121.487024,23.495184,0.0 121.487119,23.495525,0.0 121.48708,23.495864,0.0 121.4869,23.496481,0.0 121.486901,23.496808,0.0 121.486907,23.497158,0.0 121.486916,23.497424,0.0 121.486993,23.497614,0.0 121.487134,23.49804,0.0 121.487161,23.498191,0.0 121.487175,23.498424,0.0 121.487077,23.498936,0.0 121.486918,23.499454,0.0 121.486953,23.499731,0.0 121.487188,23.500169,0.0 121.487338,23.500525,0.0 121.487542,23.501578,0.0 121.487625,23.502194,0.0 121.487819,23.502453,0.0 121.488175,23.502741,0.0 121.488571,23.503054,0.0 121.488925,23.503195,0.0 121.489093,23.503461,0.0 121.48916,23.503711,0.0 121.489101,23.504021,0.0 121.489062,23.504199,0.0 121.489251,23.504551,0.0 121.489379,23.505018,0.0 121.48932,23.505221,0.0 121.489053,23.505617,0.0 121.488662,23.506203,0.0 121.488045,23.507568,0.0 121.487795,23.50814,0.0 121.487388,23.508875,0.0 121.487348,23.509173,0.0 121.487463,23.509672,0.0 121.487526,23.510227,0.0 121.487615,23.510638,0.0 121.487737,23.511046,0.0 121.487832,23.511562,0.0 121.488041,23.512135,0.0 121.488238,23.512672,0.0 121.488474,23.513217,0.0 121.488521,23.513448,0.0 121.488549,23.513761,0.0 121.488523,23.513879,0.0 121.487934,23.513948,0.0 121.487139,23.514001,0.0 121.486719,23.514131,0.0 121.486518,23.514235,0.0 121.486292,23.514669,0.0 121.485839,23.515206,0.0 121.485366,23.515528,0.0 121.484886,23.515746,0.0 121.484612,23.515907,0.0 121.484619,23.516004,0.0 121.484888,23.516355,0.0 121.485029,23.516793,0.0 121.485004,23.517224,0.0 121.485033,23.517524,0.0 121.485141,23.517797,0.0 121.485156,23.518282,0.0 121.485339,23.518986,0.0 121.485515,23.519663,0.0 121.485927,23.520809,0.0 121.48619,23.521577,0.0 121.48632,23.522085,0.0 121.486361,23.522421,0.0 121.486343,23.522713,0.0 121.48633,23.522959,0.0 121.486427,23.523186,0.0 121.486636,23.523461,0.0 121.486918,23.523995,0.0 121.487092,23.524566,0.0 121.487189,23.525184,0.0 121.487317,23.525748,0.0 121.487681,23.526356,0.0 121.488099,23.52675,0.0 121.488522,23.527176,0.0 121.488897,23.527312,0.0 121.489207,23.527408,0.0 121.489261,23.527541,0.0 121.489341,23.528345,0.0 121.489415,23.529085,0.0 121.489567,23.529929,0.0 121.489665,23.530646,0.0 121.489773,23.531276,0.0 121.489841,23.531698,0.0 121.489836,23.532059,0.0 121.489875,23.532881,0.0 121.489872,23.533614,0.0 121.489987,23.533964,0.0 121.490142,23.534381,0.0 121.490196,23.534611,0.0 121.490127,23.534835,0.0 121.490092,23.535006,0.0 121.490169,23.53518,0.0 121.490265,23.535455,0.0 121.490434,23.535816,0.0 121.490695,23.536149,0.0 121.490768,23.536363,0.0 121.491014,23.536965,0.0 121.491134,23.537365,0.0 121.491332,23.537721,0.0 121.491726,23.538381,0.0 121.49215,23.538966,0.0 121.49217,23.539174,0.0 121.492099,23.53952,0.0 121.491917,23.539949,0.0 121.491935,23.540161,0.0 121.492146,23.540829,0.0 121.492255,23.541366,0.0 121.492405,23.541611,0.0 121.492501,23.541837,0.0 121.492478,23.542133,0.0 121.492337,23.542702,0.0 121.492224,23.542817,0.0 121.49166,23.542846,0.0 121.491297,23.542805,0.0 121.490994,23.542783,0.0 121.490656,23.54312,0.0 121.490289,23.543395,0.0 121.490046,23.543538,0.0 121.489559,23.544268,0.0 121.489228,23.544588,0.0 121.488605,23.544935,0.0 121.487959,23.545461,0.0 121.487769,23.545502,0.0 121.487543,23.545404,0.0 121.487113,23.545152,0.0 121.486899,23.544918,0.0 121.486528,23.54449,0.0 121.486075,23.544099,0.0 121.485896,23.544043,0.0 121.485742,23.544093,0.0 121.485433,23.544331,0.0 121.485048,23.54456,0.0 121.484586,23.544918,0.0 121.484176,23.545184,0.0 121.483962,23.545223,0.0 121.483405,23.545195,0.0 121.483119,23.545164,0.0 121.48155,23.543989,0.0 121.479169,23.542181,0.0 121.477907,23.541435,0.0 121.47711,23.541176,0.0 121.476624,23.541259,0.0 121.475703,23.541474,0.0 121.474928,23.541436,0.0 121.474344,23.54155,0.0 121.473777,23.541909,0.0 121.472888,23.542697,0.0 121.472269,23.542931,0.0 121.471323,23.543277,0.0 121.471057,23.543312,0.0 121.470556,23.543031,0.0 121.470141,23.542908,0.0 121.469435,23.543053,0.0 121.468816,23.543134,0.0 121.466212,23.543178,0.0 121.465613,23.54341,0.0 121.46522,23.543594,0.0 121.465015,23.543542,0.0 121.464345,23.542901,0.0 121.464006,23.542649,0.0 121.46354,23.542569,0.0 121.46288,23.542641,0.0 121.462182,23.542944,0.0 121.461037,23.543636,0.0 121.460439,23.543868,0.0 121.460285,23.544046,0.0 121.459812,23.545102,0.0 121.459608,23.545331,0.0 121.459445,23.545336,0.0 121.45813,23.544865,0.0 121.457417,23.544533,0.0 121.456815,23.544194,0.0 121.45636,23.54404,0.0 121.455443,23.543722,0.0 121.454002,23.543038,0.0 121.453252,23.542692,0.0 121.452957,23.542616,0.0 121.452632,23.542685,0.0 121.452118,23.542978,0.0 121.451661,23.543106,0.0 121.451396,23.543215,0.0 121.451154,23.543482,0.0 121.450585,23.544176,0.0 121.450375,23.544493,0.0 121.4501,23.544663,0.0 121.449671,23.544723,0.0 121.448945,23.544895,0.0 121.448369,23.544905,0.0 121.447409,23.54477,0.0 121.446936,23.544745,0.0 121.446472,23.54452,0.0 121.446305,23.544534,0.0 121.445305,23.545124,0.0 121.444327,23.545725,0.0 121.444018,23.546184,0.0 121.44381,23.547031,0.0 121.443656,23.547486,0.0 121.443412,23.547762,0.0 121.443151,23.54783,0.0 121.442854,23.547788,0.0 121.44206,23.547452,0.0 121.441567,23.547261,0.0 121.440523,23.547285,0.0 121.439943,23.547304,0.0 121.439766,23.547336,0.0</coordinates></LinearRing></outerBoundaryIs></Polygon><styleUrl>#spolygon-map</styleUrl></Placemark><Placemark><Polygon><outerBoundaryIs><LinearRing><coordinates>121.364022,23.577428,0.0 121.363932,23.575367,0.0 121.364552,23.573639,0.0 121.365061,23.572906,0.0 121.365285,23.572016,0.0 121.365119,23.570909,0.0 121.364712,23.569872,0.0 121.364869,23.569049,0.0 121.365313,23.568468,0.0 121.365517,23.568212,0.0 121.366071,23.56771,0.0 121.366421,23.567276,0.0 121.366703,23.56697,0.0 121.366845,23.566778,0.0 121.36713,23.56654,0.0 121.367309,23.566242,0.0 121.367304,23.566,0.0 121.367278,23.565668,0.0 121.367396,23.565375,0.0 121.367767,23.564893,0.0 121.368354,23.564415,0.0 121.369043,23.564111,0.0 121.369901,23.563689,0.0 121.37068,23.56329,0.0 121.371157,23.562842,0.0 121.371687,23.562278,0.0 121.372126,23.561526,0.0 121.372402,23.560979,0.0 121.372532,23.560646,0.0 121.372729,23.559788,0.0 121.37292,23.559275,0.0 121.373388,23.558536,0.0 121.374117,23.557561,0.0 121.374674,23.556668,0.0 121.37471,23.55646,0.0 121.37462,23.556307,0.0 121.374562,23.556156,0.0 121.374574,23.55612,0.0 121.374826,23.555826,0.0 121.375066,23.555179,0.0 121.376887,23.555386,0.0 121.377873,23.555311,0.0 121.379645,23.554361,0.0 121.380948,23.556786,0.0 121.382035,23.558933,0.0 121.380844,23.562071,0.0 121.378906,23.567898,0.0 121.377629,23.573197,0.0 121.37645,23.576496,0.0 121.371253,23.578427,0.0 121.366531,23.578106,0.0 121.364022,23.577428,0.0</coordinates></LinearRing></outerBoundaryIs></Polygon><styleUrl>#spolygon-map</styleUrl></Placemark><Placemark><Polygon><outerBoundaryIs><LinearRing><coordinates>121.382732,23.587641,0.0 121.38246,23.587918,0.0 121.382226,23.588176,0.0 121.382073,23.588531,0.0 121.382041,23.58884,0.0 121.381902,23.588999,0.0 121.381634,23.589132,0.0 121.381269,23.589235,0.0 121.380972,23.589461,0.0 121.380627,23.589679,0.0 121.380383,23.58979,0.0 121.380182,23.589897,0.0 121.37998,23.589857,0.0 121.379672,23.589598,0.0 121.379456,23.589382,0.0 121.379176,23.589098,0.0 121.378845,23.588873,0.0 121.378393,23.588531,0.0 121.37796,23.588173,0.0 121.377711,23.587997,0.0 121.377375,23.588086,0.0 121.37691,23.588268,0.0 121.37633,23.588407,0.0 121.375807,23.588569,0.0 121.375269,23.588687,0.0 121.374897,23.588887,0.0 121.374556,23.58908,0.0 121.37423,23.589367,0.0 121.37378,23.589725,0.0 121.373445,23.590058,0.0 121.373201,23.590126,0.0 121.37297,23.590081,0.0 121.37273,23.590114,0.0 121.372482,23.590358,0.0 121.372286,23.59053,0.0 121.37219,23.590742,0.0 121.372037,23.590905,0.0 121.37175,23.59108,0.0 121.37106,23.591558,0.0 121.370653,23.591909,0.0 121.370404,23.592006,0.0 121.370178,23.592036,0.0 121.370007,23.592224,0.0 121.369781,23.592466,0.0 121.369513,23.592697,0.0 121.369169,23.592863,0.0 121.368887,23.593003,0.0 121.368532,23.593239,0.0 121.367919,23.593631,0.0 121.367243,23.593831,0.0 121.366691,23.593778,0.0 121.366413,23.593871,0.0 121.366198,23.594263,0.0 121.365939,23.594489,0.0 121.365594,23.59467,0.0 121.365259,23.594906,0.0 121.365059,23.595211,0.0 121.364762,23.595733,0.0 121.364442,23.596086,0.0 121.364064,23.596396,0.0 121.36369,23.596673,0.0 121.363274,23.597048,0.0 121.363011,23.597315,0.0 121.362786,23.597643,0.0 121.36259,23.597847,0.0 121.362307,23.598076,0.0 121.3621,23.598197,0.0 121.361872,23.598357,0.0 121.361802,23.598479,0.0 121.361676,23.598921,0.0 121.361454,23.599398,0.0 121.361355,23.599976,0.0 121.361276,23.600661,0.0 121.361176,23.601277,0.0 121.361069,23.601711,0.0 121.360802,23.60228,0.0 121.36055,23.602669,0.0 121.360328,23.602977,0.0 121.360065,23.603244,0.0 121.359867,23.603682,0.0 121.359649,23.603897,0.0 121.359523,23.603958,0.0 121.359305,23.603991,0.0 121.359158,23.604029,0.0 121.358865,23.604319,0.0 121.358577,23.604679,0.0 121.358371,23.605164,0.0 121.358229,23.605341,0.0 121.358121,23.605388,0.0 121.357884,23.605452,0.0 121.356242,23.60514,0.0 121.354323,23.604503,0.0 121.35351,23.604056,0.0 121.35321,23.603655,0.0 121.352808,23.602818,0.0 121.352537,23.601855,0.0 121.352598,23.601408,0.0 121.352758,23.600545,0.0 121.352806,23.599856,0.0 121.35273,23.599477,0.0 121.352379,23.598913,0.0 121.352266,23.598616,0.0 121.35245,23.598197,0.0 121.352638,23.597929,0.0 121.352882,23.597097,0.0 121.353152,23.596259,0.0 121.353525,23.595615,0.0 121.354077,23.594972,0.0 121.354216,23.594505,0.0 121.354186,23.593771,0.0 121.35428,23.593376,0.0 121.354461,23.592703,0.0 121.354451,23.592319,0.0 121.35431,23.591746,0.0 121.354412,23.591053,0.0 121.35455,23.59031,0.0 121.354882,23.589704,0.0 121.355085,23.589376,0.0 121.355418,23.589089,0.0 121.355482,23.588711,0.0 121.355449,23.588574,0.0 121.355286,23.588089,0.0 121.355176,23.587288,0.0 121.355271,23.586554,0.0 121.355421,23.586167,0.0 121.35599,23.585809,0.0 121.35658,23.584975,0.0 121.35709,23.584132,0.0 121.357283,23.583449,0.0 121.357798,23.583103,0.0 121.357984,23.582635,0.0 121.358119,23.582348,0.0 121.358278,23.582264,0.0 121.358544,23.582176,0.0 121.358798,23.582134,0.0 121.359127,23.5821,0.0 121.359291,23.582093,0.0 121.359977,23.582073,0.0 121.362019,23.581336,0.0 121.363636,23.580526,0.0 121.363829,23.579082,0.0 121.364022,23.577428,0.0 121.366531,23.578106,0.0 121.371253,23.578427,0.0 121.37645,23.576496,0.0 121.377629,23.573197,0.0 121.378906,23.567898,0.0 121.380844,23.562071,0.0 121.381253,23.565648,0.0 121.382166,23.572884,0.0 121.382006,23.576327,0.0 121.381905,23.58556,0.0 121.382732,23.587641,0.0</coordinates></LinearRing></outerBoundaryIs></Polygon><styleUrl>#spolygon-map</styleUrl></Placemark><Placemark><Polygon><outerBoundaryIs><LinearRing><coordinates>121.382732,23.587641,0.0 121.381731,23.58423,0.0 121.382151,23.573196,0.0 121.381771,23.568425,0.0 121.381205,23.563653,0.0 121.381838,23.559809,0.0 121.381682,23.557827,0.0 121.380644,23.555508,0.0 121.380392,23.553523,0.0 121.381569,23.551411,0.0 121.382505,23.549646,0.0 121.383117,23.548504,0.0 121.383166,23.547895,0.0 121.385004,23.548451,0.0 121.389809,23.55043,0.0 121.392761,23.551339,0.0 121.395467,23.5507,0.0 121.399582,23.550943,0.0 121.403021,23.554347,0.0 121.405735,23.555858,0.0 121.407147,23.557908,0.0 121.408726,23.558568,0.0 121.411134,23.558389,0.0 121.414214,23.560348,0.0 121.41946,23.561034,0.0 121.421496,23.561824,0.0 121.421394,23.562183,0.0 121.421319,23.562693,0.0 121.421275,23.563238,0.0 121.421184,23.563667,0.0 121.421214,23.563841,0.0 121.421457,23.564034,0.0 121.421735,23.564239,0.0 121.421986,23.564484,0.0 121.422148,23.56489,0.0 121.422441,23.565727,0.0 121.422733,23.566243,0.0 121.422953,23.566759,0.0 121.423118,23.56717,0.0 121.423269,23.567474,0.0 121.423699,23.567834,0.0 121.424273,23.568144,0.0 121.424795,23.568524,0.0 121.425264,23.568828,0.0 121.42552,23.568881,0.0 121.426208,23.568931,0.0 121.426695,23.569113,0.0 121.427009,23.569489,0.0 121.427084,23.56966,0.0 121.427223,23.569725,0.0 121.427589,23.569776,0.0 121.427966,23.569983,0.0 121.428366,23.57056,0.0 121.428647,23.57115,0.0 121.428862,23.571726,0.0 121.429154,23.572269,0.0 121.429264,23.572573,0.0 121.429278,23.572876,0.0 121.429238,23.57319,0.0 121.429136,23.573332,0.0 121.428883,23.573649,0.0 121.428491,23.573932,0.0 121.428023,23.574225,0.0 121.427641,23.574557,0.0 121.427462,23.57489,0.0 121.427319,23.575132,0.0 121.427031,23.575385,0.0 121.426775,23.575648,0.0 121.42628,23.576002,0.0 121.425885,23.576357,0.0 121.425584,23.576681,0.0 121.425219,23.576944,0.0 121.424751,23.577171,0.0 121.424246,23.577199,0.0 121.423809,23.577175,0.0 121.423466,23.577201,0.0 121.423287,23.577339,0.0 121.423165,23.57764,0.0 121.423221,23.577904,0.0 121.423456,23.57824,0.0 121.423832,23.578688,0.0 121.423995,23.578886,0.0 121.424167,23.579371,0.0 121.424246,23.58012,0.0 121.424321,23.580818,0.0 121.424305,23.581432,0.0 121.424365,23.581876,0.0 121.424447,23.582192,0.0 121.424508,23.582644,0.0 121.424689,23.582889,0.0 121.424928,23.583022,0.0 121.425209,23.583348,0.0 121.425399,23.5837,0.0 121.425612,23.583911,0.0 121.426041,23.584163,0.0 121.42638,23.58439,0.0 121.42639,23.584756,0.0 121.426127,23.585538,0.0 121.425849,23.586241,0.0 121.425832,23.586473,0.0 121.425942,23.58669,0.0 121.426113,23.586818,0.0 121.426105,23.586958,0.0 121.425875,23.58706,0.0 121.42565,23.587243,0.0 121.425498,23.587571,0.0 121.42531,23.58787,0.0 121.424998,23.588053,0.0 121.424646,23.588113,0.0 121.424267,23.588101,0.0 121.423888,23.588027,0.0 121.423465,23.588071,0.0 121.422866,23.588089,0.0 121.422297,23.587948,0.0 121.421985,23.587775,0.0 121.421684,23.587922,0.0 121.421424,23.588429,0.0 121.42132,23.588499,0.0 121.421167,23.588439,0.0 121.420901,23.58843,0.0 121.42059,23.588585,0.0 121.420365,23.588585,0.0 121.419936,23.588367,0.0 121.419597,23.588201,0.0 121.419177,23.587995,0.0 121.418879,23.587878,0.0 121.418613,23.587947,0.0 121.418227,23.588264,0.0 121.417831,23.588572,0.0 121.417538,23.588631,0.0 121.417092,23.588628,0.0 121.416844,23.58857,0.0 121.41664,23.588379,0.0 121.416446,23.588027,0.0 121.416228,23.587682,0.0 121.415975,23.587313,0.0 121.415631,23.58704,0.0 121.415162,23.586992,0.0 121.414612,23.587027,0.0 121.414107,23.586979,0.0 121.413718,23.586813,0.0 121.413299,23.586631,0.0 121.41278,23.586517,0.0 121.412225,23.586243,0.0 121.411809,23.585793,0.0 121.411668,23.585468,0.0 121.411483,23.585227,0.0 121.411216,23.585088,0.0 121.410806,23.5851,0.0 121.410297,23.585318,0.0 121.409969,23.58557,0.0 121.409536,23.585727,0.0 121.409161,23.585757,0.0 121.408778,23.585679,0.0 121.408286,23.585437,0.0 121.40812,23.585308,0.0 121.407859,23.585366,0.0 121.4076,23.585495,0.0 121.407372,23.585545,0.0 121.407097,23.58539,0.0 121.406659,23.585059,0.0 121.406117,23.584715,0.0 121.405888,23.584736,0.0 121.405685,23.584805,0.0 121.405515,23.58481,0.0 121.405274,23.584876,0.0 121.405097,23.584892,0.0 121.404886,23.584999,0.0 121.404698,23.585035,0.0 121.404401,23.584952,0.0 121.404131,23.584913,0.0 121.403806,23.584947,0.0 121.403636,23.585081,0.0 121.403378,23.585242,0.0 121.402967,23.585363,0.0 121.40262,23.585537,0.0 121.402302,23.585746,0.0 121.402139,23.585866,0.0 121.402181,23.586022,0.0 121.402226,23.586256,0.0 121.402094,23.586615,0.0 121.401811,23.587077,0.0 121.401637,23.58742,0.0 121.401479,23.587479,0.0 121.400982,23.587393,0.0 121.400293,23.58727,0.0 121.399397,23.587106,0.0 121.398793,23.587017,0.0 121.397942,23.586888,0.0 121.396935,23.586676,0.0 121.396039,23.586532,0.0 121.395576,23.586454,0.0 121.395028,23.586327,0.0 121.393853,23.586131,0.0 121.393195,23.586049,0.0 121.392424,23.585891,0.0 121.391888,23.585806,0.0 121.391144,23.585903,0.0 121.390504,23.58597,0.0 121.389483,23.586095,0.0 121.388477,23.586214,0.0 121.388048,23.586337,0.0 121.388015,23.586511,0.0 121.387686,23.586607,0.0 121.387249,23.586671,0.0 121.386787,23.586742,0.0 121.386158,23.586898,0.0 121.385626,23.587009,0.0 121.384938,23.587185,0.0 121.38418,23.587381,0.0 121.38388,23.587422,0.0 121.383647,23.587297,0.0 121.383377,23.587218,0.0 121.383257,23.587216,0.0 121.38313,23.587246,0.0 121.38302,23.587316,0.0 121.382809,23.58756,0.0 121.382732,23.587641,0.0</coordinates></LinearRing></outerBoundaryIs></Polygon><styleUrl>#spolygon-map</styleUrl></Placemark><Placemark><Polygon><outerBoundaryIs><LinearRing><coordinates>121.375066,23.555179,0.0 121.375287,23.554619,0.0 121.375527,23.554,0.0 121.375628,23.55323,0.0 121.375663,23.552837,0.0 121.375565,23.552774,0.0 121.375462,23.552693,0.0 121.375409,23.552485,0.0 121.375344,23.552413,0.0 121.375149,23.552371,0.0 121.374891,23.552353,0.0 121.374857,23.552306,0.0 121.374918,23.552107,0.0 121.375078,23.551789,0.0 121.375131,23.551454,0.0 121.375299,23.550928,0.0 121.375599,23.550196,0.0 121.375984,23.549459,0.0 121.376199,23.549023,0.0 121.376329,23.548634,0.0 121.376367,23.548322,0.0 121.376374,23.548197,0.0 121.376294,23.548016,0.0 121.37613,23.547682,0.0 121.375839,23.547364,0.0 121.375547,23.547024,0.0 121.375401,23.546769,0.0 121.375371,23.546623,0.0 121.3754,23.546489,0.0 121.375557,23.546344,0.0 121.375569,23.546182,0.0 121.375411,23.545887,0.0 121.375229,23.545731,0.0 121.375076,23.545481,0.0 121.374719,23.545326,0.0 121.374484,23.545266,0.0 121.37441,23.545153,0.0 121.374391,23.544729,0.0 121.374299,23.544246,0.0 121.374136,23.544045,0.0 121.373771,23.543694,0.0 121.37374,23.543577,0.0 121.373993,23.543154,0.0 121.374156,23.542862,0.0 121.374162,23.542623,0.0 121.373985,23.542127,0.0 121.373955,23.541982,0.0 121.374045,23.54177,0.0 121.374225,23.541569,0.0 121.374165,23.54137,0.0 121.374109,23.54114,0.0 121.374217,23.540776,0.0 121.374343,23.540236,0.0 121.374409,23.539974,0.0 121.374559,23.53955,0.0 121.374792,23.538795,0.0 121.375032,23.538259,0.0 121.375069,23.538076,0.0 121.374963,23.537876,0.0 121.374776,23.537747,0.0 121.374613,23.53777,0.0 121.374516,23.537703,0.0 121.374528,23.537468,0.0 121.374515,23.537324,0.0 121.374423,23.537206,0.0 121.374278,23.537196,0.0 121.374151,23.53718,0.0 121.374169,23.536934,0.0 121.374113,23.53665,0.0 121.373914,23.536478,0.0 121.373327,23.53643,0.0 121.372728,23.536508,0.0 121.372328,23.536575,0.0 121.372122,23.536598,0.0 121.371635,23.536852,0.0 121.371477,23.536868,0.0 121.371331,23.536767,0.0 121.371192,23.536451,0.0 121.371015,23.535987,0.0 121.370668,23.53566,0.0 121.370311,23.535415,0.0 121.370251,23.535286,0.0 121.37028,23.534729,0.0 121.370284,23.534148,0.0 121.370223,23.534038,0.0 121.369878,23.533982,0.0 121.369733,23.533987,0.0 121.369692,23.534238,0.0 121.369583,23.534534,0.0 121.369456,23.534557,0.0 121.36942,23.534462,0.0 121.369394,23.534166,0.0 121.369334,23.533957,0.0 121.369363,23.533798,0.0 121.369556,23.533565,0.0 121.369585,23.533225,0.0 121.369513,23.532951,0.0 121.369348,23.532618,0.0 121.369407,23.532482,0.0 121.369498,23.532349,0.0 121.369317,23.532155,0.0 121.369273,23.53197,0.0 121.369466,23.531685,0.0 121.36958,23.531188,0.0 121.369833,23.530675,0.0 121.369898,23.530391,0.0 121.369917,23.530135,0.0 121.369904,23.529916,0.0 121.369837,23.529722,0.0 121.369867,23.529587,0.0 121.370156,23.529437,0.0 121.370404,23.529213,0.0 121.370627,23.528887,0.0 121.37059,23.528838,0.0 121.370324,23.528834,0.0 121.37007,23.52888,0.0 121.369888,23.528851,0.0 121.369738,23.528953,0.0 121.369507,23.528976,0.0 121.369314,23.528891,0.0 121.3691,23.528485,0.0 121.368798,23.528111,0.0 121.368641,23.527906,0.0 121.368651,23.5277,0.0 121.368602,23.527454,0.0 121.368432,23.527087,0.0 121.368208,23.526886,0.0 121.368026,23.526704,0.0 121.367832,23.526621,0.0 121.367674,23.526504,0.0 121.367734,23.526368,0.0 121.368236,23.526191,0.0 121.368611,23.525748,0.0 121.368718,23.525397,0.0 121.368676,23.525018,0.0 121.368644,23.524571,0.0 121.36865,23.52423,0.0 121.368758,23.523831,0.0 121.368793,23.523467,0.0 121.368835,23.523194,0.0 121.368831,23.523047,0.0 121.36887,23.522826,0.0 121.369153,23.522421,0.0 121.369474,23.522138,0.0 121.369562,23.521998,0.0 121.369586,23.521783,0.0 121.369565,23.52172,0.0 121.369486,23.521725,0.0 121.369016,23.521929,0.0 121.368451,23.522116,0.0 121.36802,23.522254,0.0 121.367794,23.522271,0.0 121.367685,23.522196,0.0 121.367687,23.522047,0.0 121.367816,23.521675,0.0 121.367844,23.521415,0.0 121.367822,23.521203,0.0 121.367903,23.520916,0.0 121.367902,23.520546,0.0 121.367854,23.520338,0.0 121.367797,23.520248,0.0 121.367648,23.520169,0.0 121.369527,23.517661,0.0 121.369192,23.51595,0.0 121.367662,23.514622,0.0 121.365929,23.51436,0.0 121.366132,23.513066,0.0 121.368683,23.510816,0.0 121.371732,23.509554,0.0 121.374496,23.509699,0.0 121.375988,23.512016,0.0 121.378173,23.511744,0.0 121.381422,23.509867,0.0 121.382839,23.513652,0.0 121.383992,23.515878,0.0 121.384084,23.519051,0.0 121.383704,23.523196,0.0 121.383899,23.525851,0.0 121.383664,23.529592,0.0 121.383268,23.534579,0.0 121.383116,23.538303,0.0 121.382596,23.542816,0.0 121.382973,23.545838,0.0 121.383181,23.546781,0.0 121.383142,23.548196,0.0 121.383102,23.548693,0.0 121.38204,23.550574,0.0 121.381099,23.552358,0.0 121.379645,23.554361,0.0 121.377873,23.555311,0.0 121.376887,23.555386,0.0 121.375066,23.555179,0.0</coordinates></LinearRing></outerBoundaryIs></Polygon><styleUrl>#spolygon-map</styleUrl></Placemark><Placemark><Polygon><outerBoundaryIs><LinearRing><coordinates>121.407008,23.494536,0.0 121.403571,23.493994,0.0 121.399289,23.493638,0.0 121.396753,23.494746,0.0 121.394567,23.496404,0.0 121.392841,23.4932,0.0 121.389614,23.48714,0.0 121.386396,23.483952,0.0 121.387905,23.482347,0.0 121.389645,23.480733,0.0 121.391762,23.480192,0.0 121.394835,23.479801,0.0 121.396159,23.479181,0.0 121.397096,23.479398,0.0 121.397717,23.479412,0.0 121.398082,23.479479,0.0 121.398694,23.479662,0.0 121.398987,23.479874,0.0 121.39975,23.480517,0.0 121.400992,23.48146,0.0 121.402234,23.482383,0.0 121.4027,23.482666,0.0 121.40384,23.483406,0.0 121.404425,23.484009,0.0 121.404758,23.484536,0.0 121.405034,23.485461,0.0 121.405618,23.487284,0.0 121.405979,23.487985,0.0 121.40648,23.488857,0.0 121.407065,23.489885,0.0 121.407313,23.490366,0.0 121.407466,23.490747,0.0 121.407649,23.491094,0.0 121.408112,23.491634,0.0 121.408312,23.491837,0.0 121.408557,23.492157,0.0 121.408834,23.492545,0.0 121.40904,23.492959,0.0 121.40922,23.493248,0.0 121.40949,23.493561,0.0 121.409542,23.493696,0.0 121.408552,23.494853,0.0 121.407008,23.494536,0.0</coordinates></LinearRing></outerBoundaryIs></Polygon><styleUrl>#spolygon-map</styleUrl></Placemark><Placemark><Polygon><outerBoundaryIs><LinearRing><coordinates>121.3857,23.50408,0.0 121.383113,23.501208,0.0 121.382057,23.499486,0.0 121.381393,23.497966,0.0 121.380272,23.495496,0.0 121.37973,23.49371,0.0 121.377829,23.492383,0.0 121.37634,23.491447,0.0 121.374953,23.488352,0.0 121.372572,23.484379,0.0 121.37207,23.481869,0.0 121.372968,23.480842,0.0 121.374684,23.481365,0.0 121.376733,23.482387,0.0 121.379385,23.48399,0.0 121.383112,23.484579,0.0 121.38429,23.484616,0.0 121.386396,23.483952,0.0 121.389614,23.48714,0.0 121.392841,23.4932,0.0 121.394567,23.496404,0.0 121.392438,23.498196,0.0 121.39134,23.499167,0.0 121.389453,23.501055,0.0 121.386772,23.503587,0.0 121.3857,23.50408,0.0</coordinates></LinearRing></outerBoundaryIs></Polygon><styleUrl>#spolygon-map</styleUrl></Placemark><Placemark><Polygon><outerBoundaryIs><LinearRing><coordinates>121.367648,23.520169,0.0 121.367455,23.520154,0.0 121.367099,23.520286,0.0 121.366341,23.520721,0.0 121.365857,23.521031,0.0 121.36568,23.521497,0.0 121.36535,23.522046,0.0 121.365215,23.522311,0.0 121.365202,23.522834,0.0 121.36517,23.523114,0.0 121.365143,23.523193,0.0 121.365108,23.52353,0.0 121.364961,23.523993,0.0 121.364759,23.524438,0.0 121.364615,23.524843,0.0 121.363841,23.525535,0.0 121.363075,23.526169,0.0 121.362501,23.52643,0.0 121.362127,23.526496,0.0 121.361486,23.526489,0.0 121.360796,23.526387,0.0 121.360407,23.526338,0.0 121.359653,23.52631,0.0 121.35856,23.52634,0.0 121.358115,23.526356,0.0 121.35655,23.526367,0.0 121.354688,23.526624,0.0 121.353281,23.526722,0.0 121.352292,23.526636,0.0 121.350596,23.52634,0.0 121.349523,23.526148,0.0 121.348943,23.525829,0.0 121.348456,23.524744,0.0 121.347828,23.523198,0.0 121.347456,23.522306,0.0 121.34735,23.521832,0.0 121.347305,23.520785,0.0 121.347292,23.519882,0.0 121.347154,23.519593,0.0 121.346753,23.518991,0.0 121.346625,23.518393,0.0 121.346666,23.517919,0.0 121.347053,23.51688,0.0 121.347167,23.516288,0.0 121.347247,23.514631,0.0 121.3472,23.512918,0.0 121.347104,23.512268,0.0 121.346924,23.511997,0.0 121.346208,23.511619,0.0 121.345944,23.511358,0.0 121.345827,23.510893,0.0 121.346086,23.509877,0.0 121.346564,23.507733,0.0 121.346719,23.506117,0.0 121.346832,23.504942,0.0 121.347059,23.50345,0.0 121.347086,23.501589,0.0 121.34702,23.500416,0.0 121.346679,23.498798,0.0 121.346505,23.498193,0.0 121.346189,23.497241,0.0 121.345899,23.496257,0.0 121.345796,23.495693,0.0 121.346007,23.495341,0.0 121.34611,23.494708,0.0 121.345912,23.493885,0.0 121.345551,23.492384,0.0 121.345628,23.491711,0.0 121.345739,23.49114,0.0 121.345535,23.490926,0.0 121.344894,23.490523,0.0 121.343705,23.489943,0.0 121.34303,23.489631,0.0 121.342682,23.489153,0.0 121.342202,23.488723,0.0 121.344707,23.487086,0.0 121.345691,23.485783,0.0 121.346909,23.484089,0.0 121.348312,23.481398,0.0 121.348918,23.479662,0.0 121.350229,23.477535,0.0 121.352528,23.475882,0.0 121.354875,23.474879,0.0 121.356991,23.474875,0.0 121.358119,23.474829,0.0 121.360987,23.475342,0.0 121.363481,23.476247,0.0 121.366349,23.4765,0.0 121.368893,23.478489,0.0 121.371247,23.479697,0.0 121.37207,23.481869,0.0 121.372572,23.484379,0.0 121.374953,23.488352,0.0 121.37634,23.491447,0.0 121.374904,23.493341,0.0 121.373422,23.494562,0.0 121.372686,23.496732,0.0 121.373038,23.498197,0.0 121.374178,23.499391,0.0 121.376202,23.500413,0.0 121.376456,23.502467,0.0 121.376386,23.506956,0.0 121.374496,23.509699,0.0 121.371732,23.509554,0.0 121.368683,23.510816,0.0 121.366132,23.513066,0.0 121.365929,23.51436,0.0 121.367662,23.514622,0.0 121.369192,23.51595,0.0 121.369527,23.517661,0.0 121.367648,23.520169,0.0</coordinates></LinearRing></outerBoundaryIs></Polygon><styleUrl>#spolygon-map</styleUrl></Placemark><Placemark><Polygon><outerBoundaryIs><LinearRing><coordinates>121.375941,23.510076,0.0 121.376463,23.505015,0.0 121.376493,23.501211,0.0 121.375211,23.499845,0.0 121.373434,23.49886,0.0 121.37273,23.497683,0.0 121.372889,23.495666,0.0 121.37408,23.493837,0.0 121.376881,23.492499,0.0 121.379068,23.49295,0.0 121.380063,23.494508,0.0 121.380605,23.496484,0.0 121.381493,23.498196,0.0 121.382845,23.500891,0.0 121.384003,23.502258,0.0 121.385248,23.504652,0.0 121.383932,23.5061,0.0 121.383028,23.507358,0.0 121.381797,23.509529,0.0 121.380233,23.510826,0.0 121.376731,23.512394,0.0 121.375941,23.510076,0.0</coordinates></LinearRing></outerBoundaryIs></Polygon><styleUrl>#spolygon-map</styleUrl></Placemark><Placemark><Polygon><outerBoundaryIs><LinearRing><coordinates>121.386396,23.483952,0.0 121.38429,23.484616,0.0 121.383112,23.484579,0.0 121.379385,23.48399,0.0 121.376733,23.482387,0.0 121.374684,23.481365,0.0 121.372968,23.480842,0.0 121.371247,23.479697,0.0 121.368893,23.478489,0.0 121.366349,23.4765,0.0 121.363481,23.476247,0.0 121.360987,23.475342,0.0 121.358119,23.474829,0.0 121.356991,23.474875,0.0 121.354875,23.474879,0.0 121.352528,23.475882,0.0 121.350229,23.477535,0.0 121.348918,23.479662,0.0 121.348312,23.481398,0.0 121.346909,23.484089,0.0 121.345691,23.485783,0.0 121.344707,23.487086,0.0 121.342202,23.488723,0.0 121.340791,23.488038,0.0 121.338341,23.486862,0.0 121.337243,23.484994,0.0 121.336787,23.481941,0.0 121.337001,23.47862,0.0 121.336448,23.474846,0.0 121.335419,23.473197,0.0 121.333111,23.471595,0.0 121.329203,23.469893,0.0 121.325146,23.468015,0.0 121.325604,23.465616,0.0 121.325749,23.465181,0.0 121.326009,23.464451,0.0 121.326102,23.464381,0.0 121.326223,23.464335,0.0 121.326333,23.464249,0.0 121.326499,23.464059,0.0 121.32698,23.463523,0.0 121.327152,23.46343,0.0 121.327566,23.463407,0.0 121.328261,23.463367,0.0 121.328445,23.463346,0.0 121.328722,23.463147,0.0 121.32905,23.462853,0.0 121.329712,23.462571,0.0 121.330297,23.462372,0.0 121.330713,23.462366,0.0 121.331207,23.462311,0.0 121.331448,23.462105,0.0 121.331784,23.461343,0.0 121.331971,23.460431,0.0 121.332036,23.4603,0.0 121.332867,23.460045,0.0 121.333121,23.460024,0.0 121.333777,23.459971,0.0 121.334598,23.459924,0.0 121.335156,23.459711,0.0 121.336122,23.45949,0.0 121.336765,23.459319,0.0 121.337129,23.45914,0.0 121.337439,23.458821,0.0 121.337662,23.458667,0.0 121.337979,23.458605,0.0 121.338367,23.458582,0.0 121.33872,23.458581,0.0 121.339267,23.458429,0.0 121.33977,23.458166,0.0 121.339947,23.458109,0.0 121.340172,23.458108,0.0 121.340335,23.458119,0.0 121.340614,23.458001,0.0 121.341118,23.457759,0.0 121.341331,23.45755,0.0 121.341543,23.45741,0.0 121.341919,23.457337,0.0 121.342138,23.457341,0.0 121.342478,23.457363,0.0 121.343109,23.457255,0.0 121.343359,23.457221,0.0 121.343547,23.457198,0.0 121.34373,23.457094,0.0 121.343905,23.456845,0.0 121.343952,23.456615,0.0 121.34389,23.456032,0.0 121.343927,23.455899,0.0 121.344084,23.455853,0.0 121.344394,23.455812,0.0 121.344625,23.455751,0.0 121.3448,23.455515,0.0 121.344855,23.455303,0.0 121.344713,23.454692,0.0 121.344504,23.45401,0.0 121.344552,23.453784,0.0 121.34468,23.453545,0.0 121.344733,23.453107,0.0 121.344811,23.452827,0.0 121.345139,23.452485,0.0 121.345484,23.452371,0.0 121.346128,23.45228,0.0 121.346389,23.452162,0.0 121.346529,23.451999,0.0 121.346564,23.451787,0.0 121.346479,23.451432,0.0 121.34629,23.45099,0.0 121.346233,23.450654,0.0 121.346379,23.450362,0.0 121.346929,23.449756,0.0 121.347002,23.449639,0.0 121.346989,23.449521,0.0 121.347019,23.449336,0.0 121.34741,23.448197,0.0 121.347428,23.448084,0.0 121.347425,23.447917,0.0 121.347608,23.447836,0.0 121.347931,23.447668,0.0 121.348071,23.44751,0.0 121.348201,23.447313,0.0 121.348258,23.447134,0.0 121.34849,23.446949,0.0 121.348713,23.446644,0.0 121.348659,23.44645,0.0 121.34857,23.446201,0.0 121.348735,23.445792,0.0 121.34895,23.445349,0.0 121.349248,23.444945,0.0 121.349636,23.444174,0.0 121.349898,23.443772,0.0 121.350052,23.443387,0.0 121.350185,23.443076,0.0 121.350421,23.443073,0.0 121.350964,23.443214,0.0 121.351223,23.443274,0.0 121.351445,23.443249,0.0 121.351565,23.443097,0.0 121.351729,23.44288,0.0 121.351797,23.442699,0.0 121.351666,23.44232,0.0 121.351661,23.442169,0.0 121.351887,23.442035,0.0 121.352265,23.441901,0.0 121.352485,23.441734,0.0 121.352695,23.441765,0.0 121.35302,23.441929,0.0 121.353175,23.44194,0.0 121.353327,23.441863,0.0 121.35342,23.441675,0.0 121.353547,23.44151,0.0 121.353933,23.441272,0.0 121.354203,23.441003,0.0 121.354496,23.440804,0.0 121.354593,23.440709,0.0 121.354793,23.440776,0.0 121.355603,23.440896,0.0 121.355895,23.44087,0.0 121.356046,23.440714,0.0 121.356107,23.440245,0.0 121.355876,23.439819,0.0 121.355679,23.43969,0.0 121.355186,23.439732,0.0 121.355112,23.439658,0.0 121.355031,23.439308,0.0 121.355073,23.439102,0.0 121.355683,23.438817,0.0 121.356206,23.43854,0.0 121.356932,23.438085,0.0 121.357709,23.437534,0.0 121.35812,23.437235,0.0 121.359088,23.436684,0.0 121.35955,23.436406,0.0 121.360012,23.435973,0.0 121.360936,23.435393,0.0 121.361935,23.434802,0.0 121.362527,23.4349,0.0 121.362755,23.435525,0.0 121.363148,23.436528,0.0 121.363494,23.437401,0.0 121.363853,23.438276,0.0 121.36454,23.439552,0.0 121.364907,23.440509,0.0 121.365191,23.441118,0.0 121.365413,23.441634,0.0 121.365724,23.442399,0.0 121.365869,23.442735,0.0 121.366317,23.443576,0.0 121.366949,23.444502,0.0 121.367366,23.444953,0.0 121.367503,23.445237,0.0 121.367706,23.445609,0.0 121.368059,23.446163,0.0 121.368433,23.447126,0.0 121.368689,23.448191,0.0 121.368918,23.448649,0.0 121.369734,23.449907,0.0 121.370038,23.450498,0.0 121.370341,23.451292,0.0 121.37083,23.452659,0.0 121.371061,23.453344,0.0 121.371668,23.454494,0.0 121.372108,23.45506,0.0 121.372995,23.4559,0.0 121.373433,23.456276,0.0 121.374973,23.457613,0.0 121.376244,23.45873,0.0 121.376887,23.459423,0.0 121.377293,23.460023,0.0 121.377572,23.460481,0.0 121.377855,23.460735,0.0 121.37824,23.461125,0.0 121.378835,23.461882,0.0 121.379537,23.462654,0.0 121.379807,23.463085,0.0 121.380203,23.463827,0.0 121.38081,23.465162,0.0 121.381527,23.466571,0.0 121.382635,23.468677,0.0 121.383111,23.469722,0.0 121.383836,23.469961,0.0 121.384357,23.470223,0.0 121.384897,23.470658,0.0 121.38556,23.471379,0.0 121.385797,23.471816,0.0 121.385869,23.472114,0.0 121.386105,23.472445,0.0 121.386475,23.472846,0.0 121.386955,23.47319,0.0 121.387202,23.473433,0.0 121.387591,23.47399,0.0 121.388119,23.474341,0.0 121.388753,23.474777,0.0 121.389271,23.475273,0.0 121.389782,23.475721,0.0 121.390607,23.476344,0.0 121.391545,23.476983,0.0 121.392634,23.477754,0.0 121.393331,23.478121,0.0 121.393982,23.478403,0.0 121.395362,23.478969,0.0 121.394835,23.479801,0.0 121.391762,23.480192,0.0 121.389645,23.480733,0.0 121.387905,23.482347,0.0 121.386396,23.483952,0.0</coordinates></LinearRing></outerBoundaryIs></Polygon><styleUrl>#spolygon-map</styleUrl></Placemark><Placemark><Polygon><outerBoundaryIs><LinearRing><coordinates>121.383166,23.547895,0.0 121.383117,23.546491,0.0 121.382642,23.544554,0.0 121.382956,23.54002,0.0 121.383234,23.537035,0.0 121.383259,23.531331,0.0 121.383864,23.528194,0.0 121.383687,23.523585,0.0 121.383802,23.520978,0.0 121.384405,23.516935,0.0 121.383114,23.514183,0.0 121.382098,23.512369,0.0 121.381797,23.509529,0.0 121.383028,23.507358,0.0 121.383932,23.5061,0.0 121.385248,23.504652,0.0 121.386772,23.503587,0.0 121.389453,23.501055,0.0 121.39134,23.499167,0.0 121.392438,23.498196,0.0 121.394567,23.496404,0.0 121.396753,23.494746,0.0 121.399289,23.493638,0.0 121.403571,23.493994,0.0 121.407008,23.494536,0.0 121.406932,23.497149,0.0 121.407033,23.498196,0.0 121.407575,23.499737,0.0 121.408113,23.499904,0.0 121.409249,23.500626,0.0 121.410523,23.502071,0.0 121.411595,23.502932,0.0 121.411966,23.503979,0.0 121.411936,23.504842,0.0 121.412004,23.505304,0.0 121.412274,23.506074,0.0 121.41251,23.506936,0.0 121.41171,23.507585,0.0 121.411983,23.509434,0.0 121.411993,23.512547,0.0 121.413868,23.513683,0.0 121.417047,23.514876,0.0 121.419154,23.515179,0.0 121.422499,23.51594,0.0 121.425315,23.518337,0.0 121.427528,23.520488,0.0 121.430202,23.520727,0.0 121.433115,23.519818,0.0 121.434544,23.519421,0.0 121.436385,23.520217,0.0 121.436424,23.521912,0.0 121.435413,23.523194,0.0 121.434664,23.525585,0.0 121.433965,23.526542,0.0 121.432726,23.525929,0.0 121.430987,23.525688,0.0 121.430187,23.526368,0.0 121.430959,23.527291,0.0 121.429256,23.527665,0.0 121.429023,23.52819,0.0 121.430353,23.529087,0.0 121.430536,23.530151,0.0 121.429024,23.530886,0.0 121.429208,23.53185,0.0 121.430257,23.533078,0.0 121.431449,23.533573,0.0 121.432927,23.533369,0.0 121.434153,23.5332,0.0 121.436171,23.532862,0.0 121.437943,23.534486,0.0 121.43748,23.536017,0.0 121.438206,23.537511,0.0 121.438752,23.538972,0.0 121.438364,23.541634,0.0 121.439744,23.544655,0.0 121.439606,23.547402,0.0 121.439377,23.547565,0.0 121.439058,23.547688,0.0 121.438347,23.547851,0.0 121.437691,23.547918,0.0 121.436783,23.548047,0.0 121.436362,23.548048,0.0 121.435852,23.547781,0.0 121.435406,23.547708,0.0 121.434892,23.547885,0.0 121.43437,23.547941,0.0 121.433731,23.547873,0.0 121.433118,23.54786,0.0 121.432864,23.547841,0.0 121.43236,23.547856,0.0 121.431629,23.547975,0.0 121.430993,23.548142,0.0 121.430891,23.548195,0.0 121.430749,23.548664,0.0 121.430548,23.549049,0.0 121.430243,23.549194,0.0 121.429589,23.549473,0.0 121.429068,23.549827,0.0 121.428717,23.550031,0.0 121.428682,23.550169,0.0 121.428707,23.550304,0.0 121.428898,23.550597,0.0 121.428968,23.550927,0.0 121.428999,23.551274,0.0 121.428844,23.551444,0.0 121.428717,23.551609,0.0 121.428805,23.552191,0.0 121.429017,23.553012,0.0 121.429094,23.553364,0.0 121.429007,23.553439,0.0 121.428366,23.553667,0.0 121.427769,23.553853,0.0 121.427672,23.554111,0.0 121.427702,23.554484,0.0 121.427715,23.554969,0.0 121.427548,23.555267,0.0 121.427382,23.555412,0.0 121.427351,23.5556,0.0 121.427458,23.556085,0.0 121.427568,23.556308,0.0 121.427806,23.556635,0.0 121.427819,23.556826,0.0 121.427778,23.55705,0.0 121.427825,23.557124,0.0 121.427936,23.557316,0.0 121.428082,23.557736,0.0 121.428176,23.558205,0.0 121.428172,23.558803,0.0 121.42807,23.559343,0.0 121.427932,23.559594,0.0 121.427626,23.559787,0.0 121.427139,23.559824,0.0 121.426474,23.55997,0.0 121.426087,23.560154,0.0 121.42581,23.560336,0.0 121.425324,23.560353,0.0 121.424646,23.56021,0.0 121.424055,23.560058,0.0 121.423609,23.560048,0.0 121.423349,23.560218,0.0 121.423137,23.560539,0.0 121.422911,23.560646,0.0 121.42261,23.560595,0.0 121.422198,23.560436,0.0 121.421897,23.560543,0.0 121.421586,23.560896,0.0 121.421488,23.56112,0.0 121.421535,23.561307,0.0 121.421547,23.561487,0.0 121.421496,23.561824,0.0 121.41946,23.561034,0.0 121.414214,23.560348,0.0 121.411134,23.558389,0.0 121.408726,23.558568,0.0 121.407147,23.557908,0.0 121.405735,23.555858,0.0 121.403021,23.554347,0.0 121.399582,23.550943,0.0 121.395467,23.5507,0.0 121.392761,23.551339,0.0 121.389809,23.55043,0.0 121.385004,23.548451,0.0 121.383166,23.547895,0.0</coordinates></LinearRing></outerBoundaryIs></Polygon><styleUrl>#spolygon-map</styleUrl></Placemark></Document>
</kml>
