<?xml version="1.0" encoding="UTF-8"?>
<kml xmlns="http://www.opengis.net/kml/2.2">
	<Document>
		<name>花蓮縣花蓮市</name>
		<Style id="spolygon">
			<LabelStyle>
				<scale>0.0</scale>
			</LabelStyle>
			<LineStyle>
				<color>330030ff</color>
				<width>0</width>
			</LineStyle>
			<PolyStyle>
				<color>330030ff</color>
			</PolyStyle>
		</Style>
		<StyleMap id="spolygon-map">
			<Pair>
				<key>normal</key>
				<styleUrl>#spolygon</styleUrl>
			</Pair>
		</StyleMap>
	<Placemark><Polygon><outerBoundaryIs><LinearRing><coordinates>121.595005,23.975998,0.0 121.596441,23.974707,0.0 121.598554,23.972749,0.0 121.599099,23.973419,0.0 121.600142,23.974548,0.0 121.602006,23.974468,0.0 121.602309,23.975437,0.0 121.598863,23.976913,0.0 121.596081,23.976402,0.0 121.595005,23.975998,0.0</coordinates></LinearRing></outerBoundaryIs></Polygon><styleUrl>#spolygon-map</styleUrl></Placemark><Placemark><Polygon><outerBoundaryIs><LinearRing><coordinates>121.604549,23.978099,0.0 121.601669,23.978943,0.0 121.600865,23.977295,0.0 121.603286,23.975549,0.0 121.605957,23.976308,0.0 121.604549,23.978099,0.0</coordinates></LinearRing></outerBoundaryIs></Polygon><styleUrl>#spolygon-map</styleUrl></Placemark><Placemark><Polygon><outerBoundaryIs><LinearRing><coordinates>121.598554,23.972749,0.0 121.596441,23.974707,0.0 121.595904,23.973191,0.0 121.597403,23.971275,0.0 121.60463,23.963514,0.0 121.60261,23.968287,0.0 121.601607,23.969491,0.0 121.598996,23.971715,0.0 121.598554,23.972749,0.0</coordinates></LinearRing></outerBoundaryIs></Polygon><styleUrl>#spolygon-map</styleUrl></Placemark><Placemark><Polygon><outerBoundaryIs><LinearRing><coordinates>121.604116,23.973112,0.0 121.601607,23.969491,0.0 121.60261,23.968287,0.0 121.607128,23.963167,0.0 121.607754,23.963086,0.0 121.608161,23.963077,0.0 121.608537,23.963058,0.0 121.608843,23.963314,0.0 121.609174,23.963742,0.0 121.609349,23.96405,0.0 121.609475,23.964257,0.0 121.609901,23.964858,0.0 121.610277,23.965351,0.0 121.610623,23.965774,0.0 121.608158,23.96791,0.0 121.604116,23.973112,0.0</coordinates></LinearRing></outerBoundaryIs></Polygon><styleUrl>#spolygon-map</styleUrl></Placemark><Placemark><Polygon><outerBoundaryIs><LinearRing><coordinates>121.603286,23.975549,0.0 121.604989,23.974658,0.0 121.606988,23.974996,0.0 121.605097,23.975756,0.0 121.603286,23.975549,0.0</coordinates></LinearRing></outerBoundaryIs></Polygon><styleUrl>#spolygon-map</styleUrl></Placemark><Placemark><Polygon><outerBoundaryIs><LinearRing><coordinates>121.606008,23.973352,0.0 121.604626,23.972456,0.0 121.608808,23.967074,0.0 121.61076,23.965972,0.0 121.610871,23.966128,0.0 121.611091,23.966411,0.0 121.611596,23.967037,0.0 121.611871,23.967458,0.0 121.612099,23.967762,0.0 121.61224,23.968066,0.0 121.612305,23.96819,0.0 121.612412,23.968361,0.0 121.612773,23.968831,0.0 121.61302,23.969196,0.0 121.613237,23.969543,0.0 121.613549,23.969945,0.0 121.613732,23.970288,0.0 121.612507,23.970312,0.0 121.611458,23.970219,0.0 121.608974,23.972469,0.0 121.608159,23.973507,0.0 121.607213,23.973189,0.0 121.606132,23.973189,0.0 121.606008,23.973352,0.0</coordinates></LinearRing></outerBoundaryIs></Polygon><styleUrl>#spolygon-map</styleUrl></Placemark><Placemark><Polygon><outerBoundaryIs><LinearRing><coordinates>121.605985,23.977929,0.0 121.609292,23.973645,0.0 121.609952,23.975008,0.0 121.608839,23.976481,0.0 121.608159,23.977109,0.0 121.607318,23.977539,0.0 121.606418,23.977813,0.0 121.605985,23.977929,0.0</coordinates></LinearRing></outerBoundaryIs></Polygon><styleUrl>#spolygon-map</styleUrl></Placemark><Placemark><Polygon><outerBoundaryIs><LinearRing><coordinates>121.604622,23.978007,0.0 121.606988,23.974996,0.0 121.608159,23.973507,0.0 121.608974,23.972469,0.0 121.609635,23.973189,0.0 121.608159,23.975114,0.0 121.605784,23.977966,0.0 121.60489,23.978032,0.0 121.604622,23.978007,0.0</coordinates></LinearRing></outerBoundaryIs></Polygon><styleUrl>#spolygon-map</styleUrl></Placemark><Placemark><Polygon><outerBoundaryIs><LinearRing><coordinates>121.603286,23.975549,0.0 121.602713,23.974918,0.0 121.604116,23.973112,0.0 121.605756,23.973189,0.0 121.605481,23.974027,0.0 121.604322,23.974222,0.0 121.603286,23.975549,0.0</coordinates></LinearRing></outerBoundaryIs></Polygon><styleUrl>#spolygon-map</styleUrl></Placemark><Placemark><Polygon><outerBoundaryIs><LinearRing><coordinates>121.605481,23.974027,0.0 121.606132,23.973189,0.0 121.607213,23.973189,0.0 121.606988,23.974996,0.0 121.605481,23.974027,0.0</coordinates></LinearRing></outerBoundaryIs></Polygon><styleUrl>#spolygon-map</styleUrl></Placemark><Placemark><Polygon><outerBoundaryIs><LinearRing><coordinates>121.594066,23.969144,0.0 121.595064,23.968341,0.0 121.595618,23.967896,0.0 121.595949,23.967604,0.0 121.596528,23.967114,0.0 121.597056,23.966672,0.0 121.597611,23.966239,0.0 121.598499,23.965626,0.0 121.60092,23.964488,0.0 121.60325,23.963887,0.0 121.597403,23.971275,0.0 121.594066,23.969144,0.0</coordinates></LinearRing></outerBoundaryIs></Polygon><styleUrl>#spolygon-map</styleUrl></Placemark><Placemark><Polygon><outerBoundaryIs><LinearRing><coordinates>121.602713,23.974918,0.0 121.600931,23.974666,0.0 121.598872,23.973733,0.0 121.598913,23.97319,0.0 121.599373,23.971989,0.0 121.600298,23.970606,0.0 121.604056,23.97319,0.0 121.602713,23.974918,0.0</coordinates></LinearRing></outerBoundaryIs></Polygon><styleUrl>#spolygon-map</styleUrl></Placemark><Placemark><Polygon><outerBoundaryIs><LinearRing><coordinates>121.595005,23.975998,0.0 121.593026,23.976975,0.0 121.589685,23.974836,0.0 121.588203,23.974112,0.0 121.589846,23.972694,0.0 121.597403,23.971275,0.0 121.595904,23.973191,0.0 121.596441,23.974707,0.0 121.595005,23.975998,0.0</coordinates></LinearRing></outerBoundaryIs></Polygon><styleUrl>#spolygon-map</styleUrl></Placemark><Placemark><Polygon><outerBoundaryIs><LinearRing><coordinates>121.629686,24.024801,0.0 121.629051,24.024185,0.0 121.628018,24.023196,0.0 121.62798,24.023147,0.0 121.627824,24.022962,0.0 121.627599,24.022704,0.0 121.627365,24.022445,0.0 121.627136,24.022186,0.0 121.626906,24.021921,0.0 121.626689,24.021669,0.0 121.626507,24.02143,0.0 121.626331,24.021187,0.0 121.626146,24.020906,0.0 121.626041,24.020708,0.0 121.62592,24.020489,0.0 121.625816,24.020284,0.0 121.62572,24.020095,0.0 121.625637,24.019974,0.0 121.625484,24.019771,0.0 121.625344,24.019591,0.0 121.625215,24.0194,0.0 121.625092,24.019172,0.0 121.624951,24.019006,0.0 121.6248,24.018844,0.0 121.624608,24.018657,0.0 121.624396,24.01845,0.0 121.624163,24.018239,0.0 121.623984,24.018075,0.0 121.623796,24.01787,0.0 121.623666,24.017711,0.0 121.623525,24.017508,0.0 121.623382,24.017285,0.0 121.623259,24.017085,0.0 121.623099,24.0169,0.0 121.622903,24.016666,0.0 121.622734,24.01645,0.0 121.622548,24.016243,0.0 121.622333,24.015989,0.0 121.622151,24.015769,0.0 121.62196,24.01553,0.0 121.621853,24.015379,0.0 121.621748,24.015206,0.0 121.621599,24.014947,0.0 121.621475,24.014717,0.0 121.621347,24.014481,0.0 121.621179,24.014231,0.0 121.620999,24.013961,0.0 121.62088,24.013835,0.0 121.620665,24.013646,0.0 121.620391,24.013401,0.0 121.620143,24.013154,0.0 121.619988,24.012987,0.0 121.619802,24.012783,0.0 121.619666,24.01263,0.0 121.619508,24.012427,0.0 121.61938,24.012272,0.0 121.6192,24.012054,0.0 121.619049,24.01186,0.0 121.618924,24.011692,0.0 121.618693,24.01139,0.0 121.618504,24.011172,0.0 121.618304,24.010965,0.0 121.618111,24.01076,0.0 121.617905,24.010533,0.0 121.617758,24.010362,0.0 121.617681,24.010211,0.0 121.617674,24.010008,0.0 121.61768,24.009636,0.0 121.617706,24.00929,0.0 121.617688,24.008985,0.0 121.617661,24.008697,0.0 121.617615,24.008485,0.0 121.61756,24.008336,0.0 121.617495,24.008178,0.0 121.617434,24.008081,0.0 121.617334,24.007861,0.0 121.61722,24.007646,0.0 121.617144,24.007464,0.0 121.617493,24.007004,0.0 121.62744,24.00882,0.0 121.629175,24.008733,0.0 121.631251,24.007589,0.0 121.633958,24.010754,0.0 121.637553,24.015751,0.0 121.641104,24.020291,0.0 121.640604,24.020575,0.0 121.640261,24.020825,0.0 121.639826,24.021093,0.0 121.639419,24.02135,0.0 121.638795,24.021754,0.0 121.638238,24.022127,0.0 121.637716,24.022493,0.0 121.637334,24.022765,0.0 121.636842,24.023187,0.0 121.636593,24.023457,0.0 121.636292,24.023767,0.0 121.635765,24.024255,0.0 121.635338,24.024627,0.0 121.634684,24.025277,0.0 121.633993,24.025941,0.0 121.633886,24.026104,0.0 121.633568,24.026559,0.0 121.633166,24.026954,0.0 121.632968,24.026858,0.0 121.631811,24.026296,0.0 121.630625,24.02559,0.0 121.629925,24.025037,0.0 121.629686,24.024801,0.0</coordinates></LinearRing></outerBoundaryIs></Polygon><styleUrl>#spolygon-map</styleUrl></Placemark><Placemark><Polygon><outerBoundaryIs><LinearRing><coordinates>121.613267,23.974195,0.0 121.613524,23.973189,0.0 121.614185,23.970878,0.0 121.614642,23.971555,0.0 121.614916,23.972053,0.0 121.615274,23.972613,0.0 121.615343,23.972859,0.0 121.615641,23.973189,0.0 121.615788,23.973414,0.0 121.615184,23.975258,0.0 121.613267,23.974195,0.0</coordinates></LinearRing></outerBoundaryIs></Polygon><styleUrl>#spolygon-map</styleUrl></Placemark><Placemark><Polygon><outerBoundaryIs><LinearRing><coordinates>121.610712,23.979429,0.0 121.607686,23.977444,0.0 121.608545,23.976835,0.0 121.609014,23.976208,0.0 121.61202,23.977753,0.0 121.613502,23.979572,0.0 121.612498,23.980051,0.0 121.610712,23.979429,0.0</coordinates></LinearRing></outerBoundaryIs></Polygon><styleUrl>#spolygon-map</styleUrl></Placemark><Placemark><Polygon><outerBoundaryIs><LinearRing><coordinates>121.628207,23.994116,0.0 121.621939,23.986735,0.0 121.629333,23.983911,0.0 121.632523,23.986266,0.0 121.633163,23.986936,0.0 121.63316,23.987712,0.0 121.63102,23.990362,0.0 121.631739,23.992356,0.0 121.628207,23.994116,0.0</coordinates></LinearRing></outerBoundaryIs></Polygon><styleUrl>#spolygon-map</styleUrl></Placemark><Placemark><Polygon><outerBoundaryIs><LinearRing><coordinates>121.614455,23.975724,0.0 121.61445,23.97432,0.0 121.616396,23.974344,0.0 121.616479,23.974462,0.0 121.616928,23.975036,0.0 121.61509,23.976598,0.0 121.614738,23.975921,0.0 121.614455,23.975724,0.0</coordinates></LinearRing></outerBoundaryIs></Polygon><styleUrl>#spolygon-map</styleUrl></Placemark><Placemark><Polygon><outerBoundaryIs><LinearRing><coordinates>121.631251,24.007589,0.0 121.630347,24.006274,0.0 121.62974,24.004858,0.0 121.629326,24.003005,0.0 121.629285,24.001713,0.0 121.629003,23.99999,0.0 121.62878,23.999375,0.0 121.628401,23.999219,0.0 121.626555,23.997285,0.0 121.630721,23.997076,0.0 121.635999,23.997677,0.0 121.635946,23.998191,0.0 121.635631,24.000221,0.0 121.635418,24.001649,0.0 121.636236,24.002438,0.0 121.636972,24.000538,0.0 121.637056,24.000479,0.0 121.637642,24.000807,0.0 121.637759,24.000914,0.0 121.637795,24.00107,0.0 121.637189,24.004219,0.0 121.638089,24.005281,0.0 121.638416,24.004607,0.0 121.638912,24.003095,0.0 121.639358,24.001748,0.0 121.639701,24.001026,0.0 121.638812,24.000032,0.0 121.639311,24.00003,0.0 121.640065,24.000119,0.0 121.641066,24.00032,0.0 121.640942,24.000109,0.0 121.639468,23.9996,0.0 121.639415,23.999284,0.0 121.638435,23.998501,0.0 121.638935,23.998618,0.0 121.638186,23.998191,0.0 121.638155,23.998141,0.0 121.638454,23.998187,0.0 121.63908,23.998462,0.0 121.640107,23.998663,0.0 121.639841,23.998191,0.0 121.639526,23.997573,0.0 121.63896,23.997767,0.0 121.639123,23.996848,0.0 121.638059,23.997344,0.0 121.638042,23.997683,0.0 121.638467,23.997582,0.0 121.637971,23.997984,0.0 121.637702,23.997617,0.0 121.637801,23.997404,0.0 121.637927,23.99651,0.0 121.638122,23.995141,0.0 121.638206,23.995143,0.0 121.638173,23.994825,0.0 121.638225,23.994337,0.0 121.637883,23.993623,0.0 121.637097,23.99198,0.0 121.636999,23.991839,0.0 121.636976,23.991676,0.0 121.635843,23.989268,0.0 121.635429,23.988389,0.0 121.635459,23.988346,0.0 121.635529,23.988195,0.0 121.635342,23.988182,0.0 121.635499,23.98812,0.0 121.634738,23.986017,0.0 121.634102,23.984331,0.0 121.634157,23.982625,0.0 121.634207,23.980627,0.0 121.634131,23.979528,0.0 121.6335,23.978539,0.0 121.633163,23.977997,0.0 121.630083,23.973188,0.0 121.629141,23.972138,0.0 121.629233,23.971858,0.0 121.62802,23.969436,0.0 121.63316,23.977425,0.0 121.633209,23.977502,0.0 121.634019,23.978757,0.0 121.634622,23.979645,0.0 121.634641,23.979758,0.0 121.634606,23.981027,0.0 121.634547,23.981086,0.0 121.634556,23.981598,0.0 121.634481,23.983016,0.0 121.634464,23.983921,0.0 121.634496,23.984467,0.0 121.634761,23.985204,0.0 121.635155,23.986284,0.0 121.635219,23.986365,0.0 121.635271,23.986426,0.0 121.635771,23.987927,0.0 121.636532,23.989581,0.0 121.637116,23.990831,0.0 121.637274,23.991088,0.0 121.637342,23.991313,0.0 121.637765,23.992212,0.0 121.637938,23.992537,0.0 121.638142,23.993005,0.0 121.638864,23.994425,0.0 121.63903,23.994839,0.0 121.639433,23.995646,0.0 121.63977,23.996457,0.0 121.640093,23.997139,0.0 121.640236,23.997459,0.0 121.640574,23.998018,0.0 121.640675,23.998191,0.0 121.640879,23.998506,0.0 121.641133,23.998792,0.0 121.641562,23.999278,0.0 121.641782,23.999546,0.0 121.642009,23.999682,0.0 121.642098,23.999686,0.0 121.642154,23.999641,0.0 121.642153,23.999454,0.0 121.642188,23.999341,0.0 121.642307,23.999268,0.0 121.642443,23.999247,0.0 121.642554,23.99928,0.0 121.642655,23.999352,0.0 121.643085,24.000019,0.0 121.643418,24.000566,0.0 121.643564,24.000899,0.0 121.64368,24.00126,0.0 121.643734,24.001483,0.0 121.643722,24.001745,0.0 121.643483,24.001967,0.0 121.643497,24.002103,0.0 121.643625,24.002463,0.0 121.643852,24.002844,0.0 121.644051,24.003112,0.0 121.644368,24.003508,0.0 121.64453,24.003744,0.0 121.644876,24.004126,0.0 121.645063,24.004335,0.0 121.645284,24.004533,0.0 121.64547,24.004749,0.0 121.645605,24.00494,0.0 121.645891,24.005345,0.0 121.646028,24.005559,0.0 121.646208,24.005809,0.0 121.646392,24.005996,0.0 121.646597,24.006157,0.0 121.646645,24.006184,0.0 121.646646,24.006308,0.0 121.646675,24.006523,0.0 121.646788,24.006784,0.0 121.647063,24.00767,0.0 121.64715,24.008035,0.0 121.647214,24.00852,0.0 121.647182,24.008974,0.0 121.647082,24.009349,0.0 121.646924,24.009885,0.0 121.646836,24.01024,0.0 121.646741,24.010495,0.0 121.646432,24.010957,0.0 121.646326,24.011219,0.0 121.64628,24.011527,0.0 121.646229,24.011915,0.0 121.645935,24.013126,0.0 121.645781,24.013716,0.0 121.645613,24.014137,0.0 121.645218,24.01503,0.0 121.644941,24.015717,0.0 121.644633,24.016328,0.0 121.644315,24.017031,0.0 121.644067,24.017649,0.0 121.643894,24.018108,0.0 121.64368,24.01863,0.0 121.643366,24.019038,0.0 121.643093,24.019283,0.0 121.64273,24.019483,0.0 121.642208,24.019722,0.0 121.641702,24.019979,0.0 121.641235,24.020214,0.0 121.637564,24.015945,0.0 121.637599,24.015257,0.0 121.63316,24.00982,0.0 121.631251,24.007589,0.0</coordinates></LinearRing></outerBoundaryIs></Polygon><styleUrl>#spolygon-map</styleUrl></Placemark><Placemark><Polygon><outerBoundaryIs><LinearRing><coordinates>121.618323,24.006235,0.0 121.623189,23.999713,0.0 121.626555,23.997285,0.0 121.628401,23.999219,0.0 121.62878,23.999375,0.0 121.629003,23.99999,0.0 121.629285,24.001713,0.0 121.629326,24.003005,0.0 121.62974,24.004858,0.0 121.630347,24.006274,0.0 121.631251,24.007589,0.0 121.629175,24.008733,0.0 121.62744,24.00882,0.0 121.618323,24.006235,0.0</coordinates></LinearRing></outerBoundaryIs></Polygon><styleUrl>#spolygon-map</styleUrl></Placemark><Placemark><Polygon><outerBoundaryIs><LinearRing><coordinates>121.612464,23.974728,0.0 121.611567,23.974222,0.0 121.609952,23.975008,0.0 121.609292,23.973645,0.0 121.609792,23.972981,0.0 121.610795,23.970151,0.0 121.612066,23.970251,0.0 121.612965,23.970356,0.0 121.614082,23.97074,0.0 121.614185,23.970878,0.0 121.613524,23.973189,0.0 121.613267,23.974195,0.0 121.612464,23.974728,0.0</coordinates></LinearRing></outerBoundaryIs></Polygon><styleUrl>#spolygon-map</styleUrl></Placemark><Placemark><Polygon><outerBoundaryIs><LinearRing><coordinates>121.626555,23.997285,0.0 121.623189,23.999713,0.0 121.621649,23.99856,0.0 121.622043,23.997371,0.0 121.621424,23.996943,0.0 121.626164,23.99171,0.0 121.629248,23.995342,0.0 121.626555,23.997285,0.0</coordinates></LinearRing></outerBoundaryIs></Polygon><styleUrl>#spolygon-map</styleUrl></Placemark><Placemark><Polygon><outerBoundaryIs><LinearRing><coordinates>121.609014,23.976208,0.0 121.610922,23.973768,0.0 121.61241,23.974764,0.0 121.613682,23.976181,0.0 121.613194,23.978483,0.0 121.609916,23.976345,0.0 121.609014,23.976208,0.0</coordinates></LinearRing></outerBoundaryIs></Polygon><styleUrl>#spolygon-map</styleUrl></Placemark><Placemark><Polygon><outerBoundaryIs><LinearRing><coordinates>121.621424,23.996943,0.0 121.616897,23.993097,0.0 121.616167,23.989294,0.0 121.6144,23.98637,0.0 121.612616,23.985093,0.0 121.613552,23.984123,0.0 121.613716,23.983352,0.0 121.615181,23.984605,0.0 121.616054,23.98231,0.0 121.617901,23.98206,0.0 121.621939,23.986735,0.0 121.622258,23.994511,0.0 121.621424,23.996943,0.0</coordinates></LinearRing></outerBoundaryIs></Polygon><styleUrl>#spolygon-map</styleUrl></Placemark><Placemark><Polygon><outerBoundaryIs><LinearRing><coordinates>121.618323,24.006235,0.0 121.617094,24.007369,0.0 121.617014,24.007252,0.0 121.616947,24.007164,0.0 121.616857,24.007113,0.0 121.616628,24.007024,0.0 121.616506,24.006936,0.0 121.616443,24.006851,0.0 121.616387,24.006713,0.0 121.616367,24.006526,0.0 121.616389,24.006205,0.0 121.616401,24.005851,0.0 121.616385,24.005634,0.0 121.616336,24.005422,0.0 121.616271,24.005199,0.0 121.616215,24.004973,0.0 121.616154,24.004653,0.0 121.616088,24.004362,0.0 121.616035,24.004125,0.0 121.615979,24.003895,0.0 121.615909,24.003611,0.0 121.615843,24.003331,0.0 121.615765,24.003032,0.0 121.615717,24.002847,0.0 121.615729,24.002752,0.0 121.615726,24.002693,0.0 121.615699,24.002657,0.0 121.615516,24.002635,0.0 121.615367,24.00262,0.0 121.615208,24.002569,0.0 121.614951,24.0025,0.0 121.6148,24.002489,0.0 121.614527,24.002486,0.0 121.614316,24.002478,0.0 121.614045,24.00247,0.0 121.613874,24.002452,0.0 121.61382,24.002473,0.0 121.613687,24.002283,0.0 121.612523,23.998192,0.0 121.610985,23.993645,0.0 121.609815,23.98753,0.0 121.610273,23.985927,0.0 121.611162,23.984195,0.0 121.612616,23.985093,0.0 121.6144,23.98637,0.0 121.616167,23.989294,0.0 121.616897,23.993097,0.0 121.621424,23.996943,0.0 121.622043,23.997371,0.0 121.621649,23.99856,0.0 121.623189,23.999713,0.0 121.618323,24.006235,0.0</coordinates></LinearRing></outerBoundaryIs></Polygon><styleUrl>#spolygon-map</styleUrl></Placemark><Placemark><Polygon><outerBoundaryIs><LinearRing><coordinates>121.629248,23.995342,0.0 121.630809,23.992237,0.0 121.63316,23.992532,0.0 121.636549,23.993098,0.0 121.636491,23.99415,0.0 121.636115,23.996657,0.0 121.63602,23.99747,0.0 121.63316,23.997353,0.0 121.629248,23.995342,0.0</coordinates></LinearRing></outerBoundaryIs></Polygon><styleUrl>#spolygon-map</styleUrl></Placemark><Placemark><Polygon><outerBoundaryIs><LinearRing><coordinates>121.621939,23.986735,0.0 121.617901,23.98206,0.0 121.616054,23.98231,0.0 121.614611,23.981627,0.0 121.615696,23.981661,0.0 121.616597,23.981463,0.0 121.617525,23.980929,0.0 121.618028,23.980137,0.0 121.618503,23.979203,0.0 121.619233,23.978656,0.0 121.620286,23.977849,0.0 121.620949,23.977448,0.0 121.623448,23.97656,0.0 121.625806,23.974101,0.0 121.626303,23.973528,0.0 121.626627,23.973258,0.0 121.626747,23.973298,0.0 121.626634,23.973473,0.0 121.626654,23.974361,0.0 121.627539,23.976877,0.0 121.624704,23.979338,0.0 121.624054,23.980379,0.0 121.626116,23.981678,0.0 121.621939,23.986735,0.0</coordinates></LinearRing></outerBoundaryIs></Polygon><styleUrl>#spolygon-map</styleUrl></Placemark><Placemark><Polygon><outerBoundaryIs><LinearRing><coordinates>121.631739,23.992356,0.0 121.63102,23.990362,0.0 121.63316,23.987712,0.0 121.633965,23.988982,0.0 121.634887,23.989618,0.0 121.636473,23.992941,0.0 121.631739,23.992356,0.0</coordinates></LinearRing></outerBoundaryIs></Polygon><styleUrl>#spolygon-map</styleUrl></Placemark><Placemark><Polygon><outerBoundaryIs><LinearRing><coordinates>121.613502,23.979572,0.0 121.613585,23.977757,0.0 121.612464,23.974728,0.0 121.614455,23.975724,0.0 121.614738,23.975921,0.0 121.61509,23.976598,0.0 121.618009,23.975499,0.0 121.620146,23.976908,0.0 121.620276,23.977004,0.0 121.620835,23.977373,0.0 121.619767,23.978278,0.0 121.618812,23.978955,0.0 121.618335,23.979501,0.0 121.617861,23.9805,0.0 121.617188,23.981241,0.0 121.616175,23.981633,0.0 121.615105,23.981689,0.0 121.614328,23.98133,0.0 121.614225,23.980463,0.0 121.61408,23.979661,0.0 121.613502,23.979572,0.0</coordinates></LinearRing></outerBoundaryIs></Polygon><styleUrl>#spolygon-map</styleUrl></Placemark><Placemark><Polygon><outerBoundaryIs><LinearRing><coordinates>121.608061,23.987633,0.0 121.608385,23.98715,0.0 121.608159,23.986131,0.0 121.606897,23.98465,0.0 121.607073,23.983926,0.0 121.607425,23.982721,0.0 121.607823,23.981648,0.0 121.608581,23.982159,0.0 121.610712,23.979429,0.0 121.612498,23.980051,0.0 121.613502,23.979572,0.0 121.61408,23.979661,0.0 121.614225,23.980463,0.0 121.614328,23.98133,0.0 121.615203,23.981907,0.0 121.615034,23.984481,0.0 121.613717,23.983583,0.0 121.613343,23.984362,0.0 121.611404,23.984242,0.0 121.610613,23.984879,0.0 121.60988,23.986753,0.0 121.610525,23.991239,0.0 121.608175,23.991058,0.0 121.607851,23.990459,0.0 121.607667,23.989087,0.0 121.608061,23.987633,0.0</coordinates></LinearRing></outerBoundaryIs></Polygon><styleUrl>#spolygon-map</styleUrl></Placemark><Placemark><Polygon><outerBoundaryIs><LinearRing><coordinates>121.601465,23.987184,0.0 121.605793,23.981627,0.0 121.607425,23.982721,0.0 121.607073,23.983926,0.0 121.606897,23.98465,0.0 121.606398,23.984962,0.0 121.605489,23.985827,0.0 121.604799,23.985508,0.0 121.604501,23.98678,0.0 121.604263,23.987723,0.0 121.603106,23.987554,0.0 121.601465,23.987184,0.0</coordinates></LinearRing></outerBoundaryIs></Polygon><styleUrl>#spolygon-map</styleUrl></Placemark><Placemark><Polygon><outerBoundaryIs><LinearRing><coordinates>121.606216,23.9881,0.0 121.604271,23.987842,0.0 121.604556,23.986879,0.0 121.604054,23.986391,0.0 121.605205,23.985779,0.0 121.605884,23.985864,0.0 121.606839,23.985255,0.0 121.608764,23.986533,0.0 121.608159,23.987487,0.0 121.607444,23.987962,0.0 121.606216,23.9881,0.0</coordinates></LinearRing></outerBoundaryIs></Polygon><styleUrl>#spolygon-map</styleUrl></Placemark><Placemark><Polygon><outerBoundaryIs><LinearRing><coordinates>121.609302,23.981262,0.0 121.604549,23.978099,0.0 121.60489,23.978032,0.0 121.605784,23.977966,0.0 121.606064,23.977915,0.0 121.6068,23.97773,0.0 121.607686,23.977444,0.0 121.610712,23.979429,0.0 121.609302,23.981262,0.0</coordinates></LinearRing></outerBoundaryIs></Polygon><styleUrl>#spolygon-map</styleUrl></Placemark><Placemark><Polygon><outerBoundaryIs><LinearRing><coordinates>121.605793,23.981627,0.0 121.604549,23.978099,0.0 121.609302,23.981262,0.0 121.608159,23.981875,0.0 121.607143,23.982536,0.0 121.605793,23.981627,0.0</coordinates></LinearRing></outerBoundaryIs></Polygon><styleUrl>#spolygon-map</styleUrl></Placemark><Placemark><Polygon><outerBoundaryIs><LinearRing><coordinates>121.598137,23.98451,0.0 121.594797,23.980708,0.0 121.59429,23.976639,0.0 121.596081,23.976402,0.0 121.598863,23.976913,0.0 121.600296,23.978027,0.0 121.603061,23.977138,0.0 121.60318,23.979928,0.0 121.600917,23.980763,0.0 121.600412,23.980964,0.0 121.600821,23.98174,0.0 121.601332,23.98387,0.0 121.598137,23.98451,0.0</coordinates></LinearRing></outerBoundaryIs></Polygon><styleUrl>#spolygon-map</styleUrl></Placemark><Placemark><Polygon><outerBoundaryIs><LinearRing><coordinates>121.591416,24.013979,0.0 121.591085,24.012837,0.0 121.591176,24.011756,0.0 121.589901,24.011148,0.0 121.58926,24.009953,0.0 121.590892,24.009427,0.0 121.593761,24.008845,0.0 121.59561,24.005629,0.0 121.597069,24.002344,0.0 121.598307,24.0005,0.0 121.602512,23.998192,0.0 121.60336,23.997795,0.0 121.606763,23.996091,0.0 121.611027,23.993768,0.0 121.613045,23.999736,0.0 121.613786,24.002406,0.0 121.613802,24.002495,0.0 121.613753,24.002636,0.0 121.613716,24.002803,0.0 121.613696,24.002871,0.0 121.613659,24.002911,0.0 121.613585,24.00293,0.0 121.61331,24.002886,0.0 121.612975,24.002824,0.0 121.612572,24.00274,0.0 121.612218,24.002691,0.0 121.612005,24.002699,0.0 121.61187,24.002686,0.0 121.611805,24.002657,0.0 121.611663,24.002531,0.0 121.611574,24.00241,0.0 121.611467,24.002211,0.0 121.611303,24.001959,0.0 121.611175,24.001829,0.0 121.611059,24.001737,0.0 121.611017,24.001726,0.0 121.610953,24.001744,0.0 121.610893,24.001857,0.0 121.610853,24.002067,0.0 121.610866,24.00236,0.0 121.610906,24.002679,0.0 121.610945,24.002956,0.0 121.611005,24.003179,0.0 121.611066,24.003384,0.0 121.611132,24.00359,0.0 121.611201,24.003765,0.0 121.611235,24.003975,0.0 121.611279,24.004194,0.0 121.611302,24.004458,0.0 121.611326,24.00469,0.0 121.611354,24.005128,0.0 121.611342,24.005435,0.0 121.611299,24.005537,0.0 121.611188,24.005727,0.0 121.611091,24.005829,0.0 121.610954,24.005929,0.0 121.610752,24.006038,0.0 121.61056,24.006129,0.0 121.610405,24.0062,0.0 121.610163,24.006282,0.0 121.609946,24.006341,0.0 121.609662,24.006422,0.0 121.609367,24.006506,0.0 121.609199,24.006575,0.0 121.609004,24.006652,0.0 121.608884,24.006714,0.0 121.608718,24.006825,0.0 121.608652,24.006879,0.0 121.608548,24.007056,0.0 121.608483,24.007216,0.0 121.608435,24.007404,0.0 121.608395,24.007641,0.0 121.608389,24.007804,0.0 121.608384,24.008059,0.0 121.608383,24.008307,0.0 121.60839,24.00849,0.0 121.608372,24.008718,0.0 121.608354,24.009003,0.0 121.608337,24.009305,0.0 121.608342,24.009526,0.0 121.608361,24.009885,0.0 121.608389,24.010138,0.0 121.608431,24.010384,0.0 121.608477,24.010641,0.0 121.608525,24.010889,0.0 121.608566,24.011175,0.0 121.608606,24.011496,0.0 121.608617,24.011676,0.0 121.608638,24.011922,0.0 121.60865,24.012225,0.0 121.608644,24.012464,0.0 121.60864,24.012593,0.0 121.608612,24.012746,0.0 121.608578,24.012844,0.0 121.608489,24.012975,0.0 121.608394,24.013084,0.0 121.608216,24.013245,0.0 121.608118,24.013324,0.0 121.607134,24.013708,0.0 121.604438,24.013461,0.0 121.603472,24.013522,0.0 121.602564,24.013746,0.0 121.601334,24.013732,0.0 121.598132,24.013338,0.0 121.596879,24.013241,0.0 121.595708,24.013093,0.0 121.594882,24.013451,0.0 121.593949,24.013863,0.0 121.593179,24.013773,0.0 121.592843,24.013527,0.0 121.592654,24.013199,0.0 121.591697,24.013662,0.0 121.591416,24.013979,0.0</coordinates></LinearRing></outerBoundaryIs></Polygon><styleUrl>#spolygon-map</styleUrl></Placemark><Placemark><Polygon><outerBoundaryIs><LinearRing><coordinates>121.611027,23.993768,0.0 121.606763,23.996091,0.0 121.604259,23.996052,0.0 121.606216,23.9881,0.0 121.607444,23.987962,0.0 121.607655,23.988701,0.0 121.607626,23.989707,0.0 121.608159,23.991028,0.0 121.608839,23.992176,0.0 121.610985,23.993645,0.0 121.611027,23.993768,0.0</coordinates></LinearRing></outerBoundaryIs></Polygon><styleUrl>#spolygon-map</styleUrl></Placemark><Placemark><Polygon><outerBoundaryIs><LinearRing><coordinates>121.589911,23.990354,0.0 121.592225,23.991582,0.0 121.593131,23.99026,0.0 121.594325,23.988971,0.0 121.595567,23.988506,0.0 121.598065,23.987201,0.0 121.594558,23.996072,0.0 121.591064,23.992134,0.0 121.589911,23.990354,0.0</coordinates></LinearRing></outerBoundaryIs></Polygon><styleUrl>#spolygon-map</styleUrl></Placemark><Placemark><Polygon><outerBoundaryIs><LinearRing><coordinates>121.601332,23.98387,0.0 121.600821,23.98174,0.0 121.600412,23.980964,0.0 121.600917,23.980763,0.0 121.60318,23.979928,0.0 121.604518,23.983261,0.0 121.601332,23.98387,0.0</coordinates></LinearRing></outerBoundaryIs></Polygon><styleUrl>#spolygon-map</styleUrl></Placemark><Placemark><Polygon><outerBoundaryIs><LinearRing><coordinates>121.598307,24.0005,0.0 121.595529,23.997246,0.0 121.599476,23.989694,0.0 121.602594,23.998148,0.0 121.602285,23.998316,0.0 121.598307,24.0005,0.0</coordinates></LinearRing></outerBoundaryIs></Polygon><styleUrl>#spolygon-map</styleUrl></Placemark><Placemark><Polygon><outerBoundaryIs><LinearRing><coordinates>121.577149,24.018415,0.0 121.577064,24.018241,0.0 121.576981,24.018056,0.0 121.576963,24.018007,0.0 121.576956,24.017968,0.0 121.577033,24.017844,0.0 121.57713,24.017751,0.0 121.57735,24.017637,0.0 121.577512,24.017537,0.0 121.577558,24.017494,0.0 121.577597,24.017422,0.0 121.577642,24.017264,0.0 121.5777,24.017155,0.0 121.577778,24.017083,0.0 121.577884,24.01703,0.0 121.578023,24.017,0.0 121.578233,24.016909,0.0 121.578347,24.016868,0.0 121.57851,24.016737,0.0 121.578584,24.016619,0.0 121.57855,24.0165,0.0 121.578529,24.0164,0.0 121.57858,24.016256,0.0 121.578675,24.016142,0.0 121.578703,24.016059,0.0 121.578666,24.015885,0.0 121.578567,24.015752,0.0 121.578403,24.015611,0.0 121.578273,24.015494,0.0 121.578161,24.015418,0.0 121.578002,24.015355,0.0 121.577662,24.015167,0.0 121.577571,24.015108,0.0 121.577482,24.01503,0.0 121.577338,24.014859,0.0 121.57727,24.014773,0.0 121.577222,24.014708,0.0 121.577177,24.014631,0.0 121.577161,24.014541,0.0 121.577172,24.014426,0.0 121.577217,24.014315,0.0 121.577252,24.014184,0.0 121.577248,24.014073,0.0 121.577219,24.01397,0.0 121.577172,24.013902,0.0 121.57703,24.01379,0.0 121.576808,24.013655,0.0 121.576706,24.013576,0.0 121.576617,24.013466,0.0 121.576586,24.013401,0.0 121.576568,24.013295,0.0 121.576546,24.013189,0.0 121.576519,24.013096,0.0 121.576445,24.013,0.0 121.576351,24.012871,0.0 121.57624,24.012675,0.0 121.576198,24.012576,0.0 121.57613,24.01236,0.0 121.576106,24.012254,0.0 121.57609,24.01217,0.0 121.576004,24.012049,0.0 121.575916,24.011932,0.0 121.57579,24.011724,0.0 121.575718,24.011596,0.0 121.575664,24.011495,0.0 121.575644,24.011427,0.0 121.575634,24.011343,0.0 121.575615,24.011253,0.0 121.575577,24.011183,0.0 121.575543,24.011129,0.0 121.575513,24.011014,0.0 121.575495,24.010893,0.0 121.575475,24.010807,0.0 121.575443,24.010748,0.0 121.575354,24.010588,0.0 121.575268,24.010453,0.0 121.575181,24.010345,0.0 121.575088,24.010255,0.0 121.575006,24.010181,0.0 121.574935,24.010102,0.0 121.574901,24.010057,0.0 121.574863,24.009981,0.0 121.574802,24.009859,0.0 121.57474,24.009708,0.0 121.574706,24.009638,0.0 121.574633,24.009532,0.0 121.574519,24.009413,0.0 121.574395,24.009276,0.0 121.574312,24.009193,0.0 121.574195,24.009073,0.0 121.574135,24.009001,0.0 121.574092,24.008938,0.0 121.574039,24.008835,0.0 121.574003,24.008742,0.0 121.573972,24.008645,0.0 121.573925,24.008535,0.0 121.573826,24.008346,0.0 121.573715,24.008184,0.0 121.573588,24.007981,0.0 121.573526,24.007904,0.0 121.573407,24.007812,0.0 121.573239,24.0077,0.0 121.573049,24.007577,0.0 121.572939,24.007493,0.0 121.572759,24.007325,0.0 121.572677,24.007239,0.0 121.572615,24.00721,0.0 121.5725,24.007204,0.0 121.572409,24.00724,0.0 121.572269,24.007363,0.0 121.572139,24.007526,0.0 121.571993,24.007723,0.0 121.571865,24.007895,0.0 121.571827,24.007963,0.0 121.571782,24.008083,0.0 121.571747,24.008202,0.0 121.571704,24.00832,0.0 121.571716,24.00848,0.0 121.571735,24.008658,0.0 121.571762,24.008855,0.0 121.571775,24.008985,0.0 121.571778,24.009128,0.0 121.571759,24.009288,0.0 121.571723,24.009435,0.0 121.571673,24.009557,0.0 121.57161,24.009713,0.0 121.571571,24.009781,0.0 121.571491,24.009867,0.0 121.571441,24.009944,0.0 121.571436,24.010059,0.0 121.571444,24.010201,0.0 121.57149,24.0104,0.0 121.571507,24.010641,0.0 121.571511,24.010786,0.0 121.571491,24.01088,0.0 121.571428,24.011027,0.0 121.571373,24.011129,0.0 121.571328,24.011177,0.0 121.571218,24.011249,0.0 121.571173,24.011268,0.0 121.571101,24.011261,0.0 121.570931,24.011208,0.0 121.570818,24.011176,0.0 121.570717,24.011165,0.0 121.570566,24.011162,0.0 121.570464,24.011148,0.0 121.570344,24.011158,0.0 121.57025,24.011203,0.0 121.570111,24.011321,0.0 121.570038,24.011389,0.0 121.569982,24.011421,0.0 121.569918,24.011439,0.0 121.569856,24.011442,0.0 121.569752,24.011413,0.0 121.569693,24.01135,0.0 121.569659,24.011282,0.0 121.569618,24.01119,0.0 121.56961,24.011109,0.0 121.569615,24.011034,0.0 121.569643,24.010973,0.0 121.56971,24.010883,0.0 121.569811,24.010832,0.0 121.569885,24.010792,0.0 121.569966,24.010721,0.0 121.570097,24.010576,0.0 121.570139,24.010468,0.0 121.570167,24.010337,0.0 121.570184,24.01028,0.0 121.570185,24.010136,0.0 121.570166,24.009996,0.0 121.570175,24.009921,0.0 121.570173,24.009858,0.0 121.570133,24.009773,0.0 121.570071,24.009628,0.0 121.56996,24.009446,0.0 121.569881,24.009365,0.0 121.569763,24.00925,0.0 121.569707,24.009178,0.0 121.56963,24.009063,0.0 121.569572,24.008953,0.0 121.569486,24.008782,0.0 121.569414,24.008629,0.0 121.569375,24.008538,0.0 121.569366,24.008464,0.0 121.56937,24.00834,0.0 121.569387,24.008254,0.0 121.56936,24.008152,0.0 121.569322,24.008008,0.0 121.5693,24.007875,0.0 121.569264,24.00767,0.0 121.569232,24.007462,0.0 121.56921,24.007379,0.0 121.56916,24.007291,0.0 121.569117,24.007174,0.0 121.569052,24.006989,0.0 121.568973,24.006809,0.0 121.568899,24.006646,0.0 121.56882,24.006489,0.0 121.568744,24.006333,0.0 121.568679,24.006211,0.0 121.56863,24.006164,0.0 121.568586,24.006092,0.0 121.568536,24.005955,0.0 121.568489,24.005754,0.0 121.568481,24.005616,0.0 121.568484,24.005501,0.0 121.568495,24.005433,0.0 121.56854,24.005293,0.0 121.568551,24.005149,0.0 121.568587,24.004979,0.0 121.568597,24.004842,0.0 121.568573,24.004778,0.0 121.568521,24.004718,0.0 121.568395,24.004626,0.0 121.568311,24.004594,0.0 121.568226,24.004576,0.0 121.568146,24.00459,0.0 121.568029,24.004652,0.0 121.567975,24.004706,0.0 121.567891,24.004833,0.0 121.567725,24.004971,0.0 121.567618,24.005066,0.0 121.567546,24.005173,0.0 121.567483,24.005344,0.0 121.567419,24.005548,0.0 121.567341,24.005742,0.0 121.567272,24.005855,0.0 121.567198,24.00593,0.0 121.566997,24.006127,0.0 121.566824,24.006309,0.0 121.566725,24.006433,0.0 121.566619,24.006589,0.0 121.566547,24.006718,0.0 121.566451,24.006906,0.0 121.56638,24.007094,0.0 121.566318,24.007315,0.0 121.566263,24.0075,0.0 121.566218,24.007609,0.0 121.566167,24.007679,0.0 121.56603,24.007853,0.0 121.565959,24.007969,0.0 121.56595,24.008009,0.0 121.565947,24.008242,0.0 121.565962,24.008481,0.0 121.565997,24.008704,0.0 121.565999,24.008844,0.0 121.565998,24.009027,0.0 121.565974,24.009158,0.0 121.565934,24.009267,0.0 121.565902,24.009414,0.0 121.565863,24.009515,0.0 121.56579,24.009764,0.0 121.565706,24.009952,0.0 121.565646,24.01001,0.0 121.565598,24.010022,0.0 121.565491,24.009982,0.0 121.565306,24.009851,0.0 121.565271,24.009797,0.0 121.56521,24.009728,0.0 121.565082,24.009626,0.0 121.564923,24.009514,0.0 121.564802,24.009429,0.0 121.564721,24.009352,0.0 121.564581,24.00917,0.0 121.564443,24.008961,0.0 121.56438,24.008857,0.0 121.564334,24.008794,0.0 121.564311,24.008729,0.0 121.5643,24.008661,0.0 121.564313,24.008555,0.0 121.564339,24.008478,0.0 121.564349,24.008352,0.0 121.564364,24.00823,0.0 121.564369,24.008124,0.0 121.564354,24.007995,0.0 121.564318,24.007916,0.0 121.564267,24.007869,0.0 121.564091,24.007795,0.0 121.563797,24.007681,0.0 121.563436,24.007572,0.0 121.56315,24.007496,0.0 121.562828,24.007402,0.0 121.562663,24.007351,0.0 121.562459,24.007291,0.0 121.562399,24.007257,0.0 121.562354,24.007212,0.0 121.562237,24.007039,0.0 121.562077,24.006762,0.0 121.561894,24.006415,0.0 121.561803,24.006253,0.0 121.561703,24.006102,0.0 121.561593,24.005906,0.0 121.561518,24.005766,0.0 121.561455,24.005665,0.0 121.561375,24.005563,0.0 121.561331,24.005514,0.0 121.561279,24.005473,0.0 121.561165,24.005429,0.0 121.560945,24.005341,0.0 121.560618,24.005191,0.0 121.560121,24.004992,0.0 121.559951,24.004916,0.0 121.559879,24.004889,0.0 121.559758,24.004876,0.0 121.559708,24.004856,0.0 121.559475,24.004771,0.0 121.559223,24.004659,0.0 121.558966,24.004554,0.0 121.558774,24.004483,0.0 121.558651,24.004447,0.0 121.558465,24.004398,0.0 121.558289,24.004376,0.0 121.558163,24.004374,0.0 121.558084,24.004413,0.0 121.557914,24.00456,0.0 121.557719,24.00448,0.0 121.557684,24.004371,0.0 121.557709,24.004207,0.0 121.557841,24.003793,0.0 121.557964,24.003413,0.0 121.558095,24.003036,0.0 121.558163,24.00286,0.0 121.558355,24.001817,0.0 121.558137,23.999214,0.0 121.55942,23.998966,0.0 121.561103,23.99858,0.0 121.562663,23.998954,0.0 121.565879,24.000257,0.0 121.568361,24.000686,0.0 121.571038,24.002136,0.0 121.574065,24.003702,0.0 121.575754,24.004542,0.0 121.579034,24.005611,0.0 121.581424,24.006916,0.0 121.583157,24.007429,0.0 121.584386,24.007956,0.0 121.585185,24.0088,0.0 121.585983,24.009615,0.0 121.586905,24.009611,0.0 121.588176,24.009344,0.0 121.58926,24.009953,0.0 121.589901,24.011148,0.0 121.591176,24.011756,0.0 121.591085,24.012837,0.0 121.591416,24.013979,0.0 121.591158,24.01432,0.0 121.589766,24.014493,0.0 121.587734,24.014165,0.0 121.585556,24.014151,0.0 121.584648,24.014458,0.0 121.58428,24.014697,0.0 121.58321,24.016101,0.0 121.582472,24.01687,0.0 121.581092,24.017737,0.0 121.58031,24.018519,0.0 121.579771,24.018954,0.0 121.579187,24.019015,0.0 121.578228,24.01914,0.0 121.577281,24.019111,0.0 121.577365,24.018911,0.0 121.577149,24.018415,0.0</coordinates></LinearRing></outerBoundaryIs></Polygon><styleUrl>#spolygon-map</styleUrl></Placemark><Placemark><Polygon><outerBoundaryIs><LinearRing><coordinates>121.597575,23.98621,0.0 121.597768,23.985587,0.0 121.598211,23.985694,0.0 121.599037,23.985202,0.0 121.601332,23.98387,0.0 121.601465,23.987184,0.0 121.598739,23.986542,0.0 121.597575,23.98621,0.0</coordinates></LinearRing></outerBoundaryIs></Polygon><styleUrl>#spolygon-map</styleUrl></Placemark><Placemark><Polygon><outerBoundaryIs><LinearRing><coordinates>121.588908,24.009633,0.0 121.587381,24.009376,0.0 121.586524,24.00973,0.0 121.585632,24.009295,0.0 121.584928,24.008392,0.0 121.583398,24.007522,0.0 121.582347,24.007117,0.0 121.580658,24.006306,0.0 121.577633,24.005236,0.0 121.575512,24.004422,0.0 121.582479,23.998078,0.0 121.58134,23.997198,0.0 121.580599,23.996956,0.0 121.579649,23.995484,0.0 121.579174,23.995325,0.0 121.578325,23.993796,0.0 121.57819,23.991689,0.0 121.582125,23.990226,0.0 121.583202,23.990478,0.0 121.584354,23.991397,0.0 121.585341,23.992094,0.0 121.586549,23.992347,0.0 121.58765,23.991582,0.0 121.589204,23.990327,0.0 121.589911,23.990354,0.0 121.591064,23.992134,0.0 121.594558,23.996072,0.0 121.596338,23.998193,0.0 121.597916,24.000914,0.0 121.596223,24.004058,0.0 121.594533,24.007773,0.0 121.592365,24.008993,0.0 121.588908,24.009633,0.0</coordinates></LinearRing></outerBoundaryIs></Polygon><styleUrl>#spolygon-map</styleUrl></Placemark><Placemark><Polygon><outerBoundaryIs><LinearRing><coordinates>121.558137,23.999214,0.0 121.558111,23.998252,0.0 121.558162,23.998264,0.0 121.558405,23.998195,0.0 121.57819,23.991689,0.0 121.578325,23.993796,0.0 121.579174,23.995325,0.0 121.579649,23.995484,0.0 121.580599,23.996956,0.0 121.58134,23.997198,0.0 121.582479,23.998078,0.0 121.575512,24.004422,0.0 121.572568,24.002977,0.0 121.5697,24.001382,0.0 121.567279,24.000427,0.0 121.564319,23.999591,0.0 121.561644,23.998666,0.0 121.560278,23.998788,0.0 121.558155,23.999211,0.0 121.558137,23.999214,0.0</coordinates></LinearRing></outerBoundaryIs></Polygon><styleUrl>#spolygon-map</styleUrl></Placemark><Placemark><Polygon><outerBoundaryIs><LinearRing><coordinates>121.60336,23.997795,0.0 121.598065,23.987201,0.0 121.59775,23.986529,0.0 121.598409,23.986422,0.0 121.600675,23.987012,0.0 121.602123,23.987314,0.0 121.604271,23.987842,0.0 121.606216,23.9881,0.0 121.604259,23.996052,0.0 121.60336,23.997795,0.0</coordinates></LinearRing></outerBoundaryIs></Polygon><styleUrl>#spolygon-map</styleUrl></Placemark></Document>
</kml>
