<?xml version="1.0" encoding="UTF-8"?>
<kml xmlns="http://www.opengis.net/kml/2.2">
	<Document>
		<name>苗栗縣南庄鄉</name>
		<Style id="spolygon">
			<LabelStyle>
				<scale>0.0</scale>
			</LabelStyle>
			<LineStyle>
				<color>330030ff</color>
				<width>0</width>
			</LineStyle>
			<PolyStyle>
				<color>330030ff</color>
			</PolyStyle>
		</Style>
		<StyleMap id="spolygon-map">
			<Pair>
				<key>normal</key>
				<styleUrl>#spolygon</styleUrl>
			</Pair>
		</StyleMap>
	<Placemark><Polygon><outerBoundaryIs><LinearRing><coordinates>120.972658,24.567402,0.0 120.971383,24.567858,0.0 120.970564,24.56847,0.0 120.970089,24.569087,0.0 120.970032,24.568961,0.0 120.969935,24.568827,0.0 120.969803,24.568717,0.0 120.969687,24.568598,0.0 120.969599,24.568483,0.0 120.96949,24.568364,0.0 120.969403,24.568275,0.0 120.969311,24.56823,0.0 120.969186,24.568159,0.0 120.969108,24.568081,0.0 120.96902,24.56797,0.0 120.968939,24.56779,0.0 120.968894,24.567663,0.0 120.968876,24.567503,0.0 120.968828,24.567363,0.0 120.968755,24.567239,0.0 120.968672,24.567135,0.0 120.968606,24.567042,0.0 120.968445,24.566891,0.0 120.968336,24.566794,0.0 120.968261,24.566716,0.0 120.968166,24.566621,0.0 120.968064,24.56655,0.0 120.96791,24.566476,0.0 120.967799,24.566412,0.0 120.967723,24.566349,0.0 120.967563,24.566161,0.0 120.967457,24.566047,0.0 120.967343,24.565889,0.0 120.967139,24.5657,0.0 120.967052,24.565635,0.0 120.96691,24.565514,0.0 120.966692,24.565211,0.0 120.966612,24.565072,0.0 120.966494,24.564915,0.0 120.966362,24.564716,0.0 120.966241,24.564535,0.0 120.966165,24.564373,0.0 120.966139,24.564261,0.0 120.966042,24.56408,0.0 120.965957,24.563984,0.0 120.965837,24.563851,0.0 120.965747,24.563721,0.0 120.965652,24.563585,0.0 120.965579,24.563488,0.0 120.965515,24.56338,0.0 120.965411,24.563194,0.0 120.965359,24.563095,0.0 120.965293,24.562948,0.0 120.96524,24.562843,0.0 120.965195,24.56269,0.0 120.96512,24.562517,0.0 120.965049,24.562398,0.0 120.964935,24.562226,0.0 120.96487,24.562147,0.0 120.964774,24.562021,0.0 120.9647,24.561944,0.0 120.964592,24.561872,0.0 120.964507,24.561801,0.0 120.964403,24.561721,0.0 120.964266,24.561635,0.0 120.964133,24.561546,0.0 120.964062,24.561505,0.0 120.96398,24.56144,0.0 120.963878,24.561373,0.0 120.963769,24.561334,0.0 120.963635,24.561287,0.0 120.96348,24.561195,0.0 120.963223,24.561078,0.0 120.963069,24.561015,0.0 120.962921,24.560949,0.0 120.962804,24.560796,0.0 120.96275,24.560662,0.0 120.962748,24.560591,0.0 120.962729,24.560429,0.0 120.962644,24.560226,0.0 120.962601,24.560119,0.0 120.962554,24.559974,0.0 120.962552,24.559842,0.0 120.962568,24.559728,0.0 120.962575,24.559631,0.0 120.962561,24.559511,0.0 120.962535,24.559332,0.0 120.962497,24.55915,0.0 120.962447,24.558973,0.0 120.962355,24.558847,0.0 120.962248,24.558693,0.0 120.962166,24.558598,0.0 120.962064,24.558518,0.0 120.961937,24.558397,0.0 120.961846,24.558315,0.0 120.961768,24.558228,0.0 120.96165,24.558079,0.0 120.961582,24.557999,0.0 120.961459,24.557857,0.0 120.96138,24.557773,0.0 120.961279,24.557646,0.0 120.961184,24.557529,0.0 120.961094,24.557425,0.0 120.961002,24.557309,0.0 120.960903,24.557203,0.0 120.960787,24.557108,0.0 120.960674,24.557019,0.0 120.960565,24.556946,0.0 120.960343,24.556698,0.0 120.960329,24.556616,0.0 120.960269,24.556481,0.0 120.960222,24.55633,0.0 120.96017,24.556151,0.0 120.960061,24.555897,0.0 120.959962,24.555668,0.0 120.959889,24.555519,0.0 120.959792,24.555331,0.0 120.959733,24.555224,0.0 120.9597,24.555183,0.0 120.959575,24.554919,0.0 120.959497,24.554753,0.0 120.959445,24.554601,0.0 120.959445,24.554348,0.0 120.959459,24.554216,0.0 120.959447,24.553926,0.0 120.959445,24.553798,0.0 120.959428,24.553641,0.0 120.959405,24.553531,0.0 120.959372,24.553399,0.0 120.959307,24.553246,0.0 120.959274,24.553169,0.0 120.95917,24.553,0.0 120.95909,24.552927,0.0 120.958936,24.552793,0.0 120.958818,24.5527,0.0 120.958712,24.552646,0.0 120.958542,24.552596,0.0 120.958407,24.552574,0.0 120.958227,24.552553,0.0 120.958141,24.552535,0.0 120.958001,24.552476,0.0 120.957851,24.552413,0.0 120.957668,24.55232,0.0 120.957535,24.552252,0.0 120.957298,24.552094,0.0 120.957059,24.551926,0.0 120.956911,24.551826,0.0 120.956662,24.551671,0.0 120.956554,24.551602,0.0 120.956326,24.551373,0.0 120.956294,24.551076,0.0 120.956264,24.550817,0.0 120.956253,24.550657,0.0 120.956208,24.550393,0.0 120.956146,24.550126,0.0 120.956092,24.549949,0.0 120.956027,24.549671,0.0 120.955972,24.54939,0.0 120.955935,24.549224,0.0 120.955914,24.549031,0.0 120.955909,24.548856,0.0 120.955935,24.548587,0.0 120.955953,24.548375,0.0 120.955983,24.548238,0.0 120.955931,24.547836,0.0 120.955889,24.547519,0.0 120.955856,24.547158,0.0 120.955823,24.546802,0.0 120.955818,24.546564,0.0 120.955775,24.546321,0.0 120.955771,24.546105,0.0 120.955776,24.545845,0.0 120.955794,24.545582,0.0 120.955851,24.54524,0.0 120.95588,24.545001,0.0 120.95588,24.54472,0.0 120.955842,24.544559,0.0 120.955776,24.544395,0.0 120.955596,24.544278,0.0 120.955315,24.544084,0.0 120.954997,24.543867,0.0 120.954774,24.543681,0.0 120.954537,24.543456,0.0 120.954319,24.543252,0.0 120.954054,24.54294,0.0 120.953803,24.542663,0.0 120.953684,24.542466,0.0 120.953665,24.542232,0.0 120.95368,24.542011,0.0 120.953818,24.541819,0.0 120.953947,24.541611,0.0 120.954098,24.541364,0.0 120.954169,24.541208,0.0 120.954274,24.541013,0.0 120.954388,24.540865,0.0 120.954606,24.540606,0.0 120.954781,24.540454,0.0 120.954985,24.540281,0.0 120.955194,24.540134,0.0 120.955393,24.539974,0.0 120.955502,24.539857,0.0 120.955493,24.539628,0.0 120.955436,24.539316,0.0 120.955341,24.53896,0.0 120.955294,24.538718,0.0 120.955209,24.538458,0.0 120.955118,24.538233,0.0 120.955037,24.538038,0.0 120.954867,24.537692,0.0 120.954729,24.537449,0.0 120.95453,24.53718,0.0 120.954402,24.53699,0.0 120.954255,24.53679,0.0 120.954127,24.536695,0.0 120.953933,24.536556,0.0 120.953819,24.536283,0.0 120.95371,24.53608,0.0 120.953615,24.53582,0.0 120.953549,24.535543,0.0 120.953492,24.535175,0.0 120.953469,24.534975,0.0 120.953403,24.534724,0.0 120.953327,24.534559,0.0 120.953254,24.534283,0.0 120.95323,24.533993,0.0 120.953282,24.533789,0.0 120.953311,24.533625,0.0 120.953273,24.533421,0.0 120.953083,24.533222,0.0 120.952846,24.53317,0.0 120.9527,24.533174,0.0 120.952444,24.533083,0.0 120.952197,24.532931,0.0 120.951937,24.532706,0.0 120.951757,24.532506,0.0 120.951686,24.532277,0.0 120.951672,24.532091,0.0 120.951691,24.531749,0.0 120.951786,24.531437,0.0 120.951843,24.53119,0.0 120.951772,24.530904,0.0 120.951587,24.530605,0.0 120.951374,24.530375,0.0 120.951072,24.530073,0.0 120.950745,24.529899,0.0 120.950523,24.52983,0.0 120.95011,24.529765,0.0 120.949755,24.529726,0.0 120.949432,24.529726,0.0 120.949248,24.529626,0.0 120.949044,24.529353,0.0 120.948959,24.528924,0.0 120.949039,24.528668,0.0 120.949055,24.528518,0.0 120.949136,24.528267,0.0 120.94933,24.527938,0.0 120.949529,24.527556,0.0 120.949728,24.527457,0.0 120.950055,24.52747,0.0 120.950278,24.527466,0.0 120.950472,24.52744,0.0 120.950814,24.527232,0.0 120.9511,24.527052,0.0 120.951474,24.526718,0.0 120.95165,24.526432,0.0 120.951607,24.526099,0.0 120.951342,24.525839,0.0 120.951142,24.52568,0.0 120.950957,24.525437,0.0 120.950953,24.525255,0.0 120.951062,24.524935,0.0 120.951209,24.524558,0.0 120.951785,24.524279,0.0 120.952032,24.524171,0.0 120.952292,24.524115,0.0 120.952553,24.524006,0.0 120.952871,24.523812,0.0 120.95306,24.523669,0.0 120.953274,24.523469,0.0 120.953544,24.523378,0.0 120.953899,24.523314,0.0 120.954283,24.523275,0.0 120.954436,24.523238,0.0 120.954346,24.523057,0.0 120.954315,24.52287,0.0 120.954378,24.522577,0.0 120.954432,24.522343,0.0 120.954498,24.522074,0.0 120.954552,24.521929,0.0 120.954607,24.521727,0.0 120.95463,24.521413,0.0 120.954576,24.521069,0.0 120.954541,24.520726,0.0 120.954487,24.520467,0.0 120.954421,24.520188,0.0 120.954309,24.519869,0.0 120.954231,24.519579,0.0 120.954235,24.519282,0.0 120.954293,24.519055,0.0 120.954235,24.518828,0.0 120.954084,24.518609,0.0 120.953864,24.518343,0.0 120.953654,24.518096,0.0 120.953449,24.51777,0.0 120.953321,24.517537,0.0 120.953302,24.517352,0.0 120.953263,24.517147,0.0 120.953174,24.516977,0.0 120.953081,24.516839,0.0 120.95319,24.516765,0.0 120.953333,24.516772,0.0 120.953538,24.516754,0.0 120.953763,24.516793,0.0 120.953914,24.516878,0.0 120.954162,24.51702,0.0 120.954301,24.517048,0.0 120.954491,24.516953,0.0 120.954638,24.516829,0.0 120.954868,24.516553,0.0 120.955089,24.516384,0.0 120.955399,24.516086,0.0 120.955581,24.515845,0.0 120.955655,24.515612,0.0 120.95574,24.51535,0.0 120.955873,24.515096,0.0 120.95609,24.514738,0.0 120.956272,24.514448,0.0 120.956458,24.51421,0.0 120.956524,24.513994,0.0 120.956683,24.513793,0.0 120.956891,24.513567,0.0 120.957154,24.513174,0.0 120.957294,24.51304,0.0 120.957569,24.512778,0.0 120.957739,24.512703,0.0 120.957886,24.512707,0.0 120.958076,24.512736,0.0 120.958383,24.512714,0.0 120.958976,24.512607,0.0 120.959313,24.512333,0.0 120.959562,24.511951,0.0 120.960148,24.511255,0.0 120.960613,24.510795,0.0 120.961097,24.510373,0.0 120.962049,24.50959,0.0 120.962533,24.509195,0.0 120.963082,24.50882,0.0 120.963495,24.508488,0.0 120.964023,24.508039,0.0 120.964462,24.507591,0.0 120.964938,24.507156,0.0 120.965254,24.506794,0.0 120.965629,24.506557,0.0 120.966057,24.506437,0.0 120.966386,24.506403,0.0 120.966701,24.506336,0.0 120.967075,24.506249,0.0 120.967573,24.506116,0.0 120.968218,24.505788,0.0 120.968928,24.505466,0.0 120.969313,24.505377,0.0 120.970097,24.505196,0.0 120.970478,24.505156,0.0 120.971071,24.504962,0.0 120.971686,24.504687,0.0 120.97236,24.504292,0.0 120.972946,24.503917,0.0 120.973521,24.503727,0.0 120.974187,24.503519,0.0 120.974817,24.503318,0.0 120.975447,24.503077,0.0 120.976312,24.502763,0.0 120.976839,24.502515,0.0 120.977518,24.502387,0.0 120.978097,24.502186,0.0 120.978976,24.501878,0.0 120.979283,24.50185,0.0 120.980968,24.501838,0.0 120.981642,24.501932,0.0 120.982228,24.502066,0.0 120.982636,24.502161,0.0 120.98301,24.502281,0.0 120.983508,24.502395,0.0 120.983859,24.502429,0.0 120.984409,24.502435,0.0 120.984826,24.502395,0.0 120.985595,24.502389,0.0 120.986166,24.502375,0.0 120.986591,24.502382,0.0 120.987284,24.502368,0.0 120.987768,24.502394,0.0 120.988207,24.502374,0.0 120.9888,24.502281,0.0 120.989379,24.502106,0.0 120.98984,24.501865,0.0 120.990261,24.501535,0.0 120.990744,24.50116,0.0 120.991213,24.500952,0.0 120.991711,24.500979,0.0 120.992451,24.501066,0.0 120.993103,24.50114,0.0 120.993703,24.501247,0.0 120.994309,24.501389,0.0 120.995063,24.501556,0.0 120.995459,24.50171,0.0 120.995927,24.501945,0.0 120.99633,24.501992,0.0 120.996799,24.501945,0.0 120.997436,24.501744,0.0 120.998213,24.501637,0.0 120.998561,24.501722,0.0 120.998986,24.501997,0.0 120.999447,24.502351,0.0 120.999953,24.502974,0.0 121.000385,24.503456,0.0 121.000795,24.503952,0.0 121.001274,24.50464,0.0 121.001508,24.504935,0.0 121.002036,24.505544,0.0 121.002446,24.505825,0.0 121.002827,24.505959,0.0 121.00331,24.5061,0.0 121.003742,24.506308,0.0 121.004138,24.506656,0.0 121.004521,24.506941,0.0 121.0051,24.50733,0.0 121.005656,24.507711,0.0 121.005993,24.50812,0.0 121.006235,24.508548,0.0 121.00649,24.508809,0.0 121.00629,24.510159,0.0 121.00594,24.511352,0.0 121.005223,24.512371,0.0 121.00492,24.513513,0.0 121.005015,24.514066,0.0 121.005445,24.515099,0.0 121.006018,24.516413,0.0 121.006147,24.517321,0.0 121.006036,24.519242,0.0 121.006179,24.520164,0.0 121.006944,24.523796,0.0 121.007135,24.525761,0.0 121.006915,24.527542,0.0 121.006686,24.529343,0.0 121.006826,24.530321,0.0 121.007184,24.531312,0.0 121.007912,24.532745,0.0 121.008579,24.533846,0.0 121.009164,24.53549,0.0 121.009644,24.536898,0.0 121.010104,24.537887,0.0 121.010129,24.53866,0.0 121.010049,24.53957,0.0 121.010209,24.540492,0.0 121.010189,24.541329,0.0 121.010628,24.542478,0.0 121.011165,24.543578,0.0 121.011794,24.544618,0.0 121.012192,24.545,0.0 121.01295,24.54595,0.0 121.01356,24.546517,0.0 121.012736,24.546611,0.0 121.011389,24.547021,0.0 121.009597,24.54793,0.0 121.006428,24.549993,0.0 121.005057,24.551188,0.0 121.003889,24.552517,0.0 121.00292,24.553338,0.0 121.0016,24.553962,0.0 121.000694,24.554581,0.0 120.999386,24.555359,0.0 120.997855,24.556154,0.0 120.997272,24.556802,0.0 120.996246,24.559053,0.0 120.995765,24.560039,0.0 120.995204,24.560655,0.0 120.994597,24.56077,0.0 120.992388,24.560402,0.0 120.989378,24.559689,0.0 120.988365,24.559775,0.0 120.98682,24.560178,0.0 120.986001,24.559983,0.0 120.985347,24.559818,0.0 120.984441,24.560026,0.0 120.982694,24.560897,0.0 120.982253,24.561279,0.0 120.981937,24.561974,0.0 120.981787,24.562903,0.0 120.981093,24.563796,0.0 120.979485,24.56493,0.0 120.978158,24.565956,0.0 120.977102,24.56682,0.0 120.976406,24.566949,0.0 120.974594,24.567079,0.0 120.972912,24.567332,0.0 120.972658,24.567402,0.0</coordinates></LinearRing></outerBoundaryIs></Polygon><styleUrl>#spolygon-map</styleUrl></Placemark><Placemark><Polygon><outerBoundaryIs><LinearRing><coordinates>121.012536,24.600178,0.0 121.012258,24.600363,0.0 121.011674,24.600186,0.0 121.011162,24.600177,0.0 121.010022,24.600008,0.0 121.008931,24.599819,0.0 121.008153,24.599682,0.0 121.007216,24.598875,0.0 121.006242,24.597984,0.0 121.005252,24.597467,0.0 121.003772,24.596875,0.0 121.002862,24.596682,0.0 121.002305,24.59656,0.0 121.001713,24.596464,0.0 121.001333,24.596334,0.0 121.000741,24.596116,0.0 120.999929,24.595985,0.0 120.999585,24.595757,0.0 120.999493,24.595271,0.0 120.9994,24.595016,0.0 120.999015,24.593623,0.0 120.998872,24.592914,0.0 120.998605,24.592474,0.0 120.99835,24.591861,0.0 120.997835,24.591147,0.0 120.997204,24.590652,0.0 120.996515,24.590289,0.0 120.995814,24.590448,0.0 120.995199,24.590622,0.0 120.994575,24.590361,0.0 120.992536,24.589038,0.0 120.99145,24.588369,0.0 120.989404,24.587749,0.0 120.988001,24.587209,0.0 120.986871,24.586297,0.0 120.98551,24.584602,0.0 120.984138,24.582994,0.0 120.982438,24.581905,0.0 120.981655,24.581587,0.0 120.980493,24.581582,0.0 120.979666,24.581774,0.0 120.978768,24.582168,0.0 120.977648,24.582632,0.0 120.977246,24.582581,0.0 120.976826,24.582486,0.0 120.975965,24.582551,0.0 120.975083,24.582571,0.0 120.974299,24.582851,0.0 120.9742,24.58269,0.0 120.974075,24.582442,0.0 120.973994,24.582262,0.0 120.973915,24.58208,0.0 120.973827,24.581862,0.0 120.973733,24.581676,0.0 120.973614,24.581489,0.0 120.973485,24.58134,0.0 120.973392,24.581234,0.0 120.973278,24.580972,0.0 120.973217,24.580771,0.0 120.973204,24.580573,0.0 120.973174,24.580368,0.0 120.973127,24.58018,0.0 120.973043,24.579958,0.0 120.972972,24.579772,0.0 120.972884,24.579492,0.0 120.972829,24.57932,0.0 120.972761,24.579114,0.0 120.972699,24.578954,0.0 120.97261,24.578725,0.0 120.972527,24.57851,0.0 120.97244,24.578312,0.0 120.972357,24.578167,0.0 120.972278,24.57804,0.0 120.97218,24.577886,0.0 120.972082,24.577734,0.0 120.971965,24.577602,0.0 120.971844,24.577511,0.0 120.971683,24.577431,0.0 120.971504,24.577352,0.0 120.971377,24.577244,0.0 120.971253,24.577087,0.0 120.971084,24.576914,0.0 120.970951,24.576777,0.0 120.970841,24.576682,0.0 120.970638,24.576455,0.0 120.970597,24.576328,0.0 120.970589,24.576154,0.0 120.970592,24.575987,0.0 120.970576,24.575698,0.0 120.970569,24.575482,0.0 120.970578,24.57537,0.0 120.970606,24.575186,0.0 120.970642,24.574904,0.0 120.97065,24.57468,0.0 120.970598,24.574491,0.0 120.970497,24.574187,0.0 120.970434,24.574015,0.0 120.970282,24.573736,0.0 120.970187,24.573579,0.0 120.969953,24.573236,0.0 120.969906,24.573188,0.0 120.969835,24.573098,0.0 120.969771,24.572944,0.0 120.969745,24.572735,0.0 120.969738,24.572605,0.0 120.96975,24.572452,0.0 120.969759,24.572301,0.0 120.969747,24.572217,0.0 120.969686,24.572057,0.0 120.969627,24.571906,0.0 120.96958,24.571755,0.0 120.969537,24.571641,0.0 120.969478,24.571566,0.0 120.969414,24.571399,0.0 120.969372,24.571274,0.0 120.969355,24.57114,0.0 120.969381,24.571002,0.0 120.969407,24.570918,0.0 120.969469,24.570736,0.0 120.969483,24.570635,0.0 120.969535,24.570428,0.0 120.969573,24.570316,0.0 120.969642,24.570165,0.0 120.969706,24.570063,0.0 120.969813,24.569945,0.0 120.969933,24.569751,0.0 120.970004,24.569615,0.0 120.970061,24.569485,0.0 120.970099,24.569373,0.0 120.97011,24.569264,0.0 120.970564,24.56847,0.0 120.971383,24.567858,0.0 120.972658,24.567402,0.0 120.973829,24.567172,0.0 120.975437,24.567,0.0 120.976819,24.566921,0.0 120.977457,24.56659,0.0 120.978592,24.56556,0.0 120.980462,24.564268,0.0 120.981519,24.563371,0.0 120.981897,24.562478,0.0 120.982039,24.561622,0.0 120.982633,24.56095,0.0 120.983435,24.560494,0.0 120.98489,24.559846,0.0 120.985599,24.559846,0.0 120.986403,24.560156,0.0 120.987467,24.560055,0.0 120.988779,24.559675,0.0 120.990804,24.560042,0.0 120.993872,24.560676,0.0 120.994904,24.560748,0.0 120.995456,24.560467,0.0 120.995982,24.559594,0.0 120.996775,24.557795,0.0 120.997547,24.556384,0.0 120.998248,24.555923,0.0 121.000158,24.554963,0.0 121.001198,24.554235,0.0 121.00236,24.553583,0.0 121.003195,24.553165,0.0 121.004346,24.55202,0.0 121.005758,24.550519,0.0 121.007919,24.549002,0.0 121.010735,24.547331,0.0 121.012027,24.546798,0.0 121.013146,24.546553,0.0 121.014084,24.546932,0.0 121.015679,24.547736,0.0 121.016953,24.548499,0.0 121.01805,24.549804,0.0 121.019374,24.551232,0.0 121.020589,24.551944,0.0 121.021575,24.552707,0.0 121.022293,24.553775,0.0 121.02334,24.555761,0.0 121.024405,24.557398,0.0 121.024823,24.558207,0.0 121.024943,24.559484,0.0 121.025282,24.561006,0.0 121.025821,24.562592,0.0 121.026129,24.563583,0.0 121.026518,24.565824,0.0 121.027026,24.567111,0.0 121.028381,24.568887,0.0 121.029586,24.571018,0.0 121.029756,24.571918,0.0 121.029407,24.572467,0.0 121.029357,24.572767,0.0 121.029477,24.573231,0.0 121.029457,24.57481,0.0 121.0289,24.578398,0.0 121.027726,24.58239,0.0 121.02691,24.584236,0.0 121.026102,24.58577,0.0 121.02429,24.58843,0.0 121.022668,24.590194,0.0 121.021791,24.591372,0.0 121.021462,24.592009,0.0 121.021334,24.593012,0.0 121.02262,24.595235,0.0 121.022739,24.595508,0.0 121.021678,24.595653,0.0 121.020379,24.596106,0.0 121.017918,24.597068,0.0 121.017213,24.59737,0.0 121.016451,24.59756,0.0 121.015432,24.597347,0.0 121.014675,24.597023,0.0 121.014185,24.596822,0.0 121.013717,24.596919,0.0 121.013483,24.597593,0.0 121.012993,24.599341,0.0 121.012536,24.600178,0.0</coordinates></LinearRing></outerBoundaryIs></Polygon><styleUrl>#spolygon-map</styleUrl></Placemark><Placemark><Polygon><outerBoundaryIs><LinearRing><coordinates>120.992371,24.604904,0.0 120.991934,24.605013,0.0 120.990257,24.606263,0.0 120.988602,24.607557,0.0 120.987622,24.60753,0.0 120.986004,24.606913,0.0 120.985251,24.606559,0.0 120.983752,24.605821,0.0 120.983709,24.605537,0.0 120.983667,24.605339,0.0 120.98363,24.605168,0.0 120.983612,24.60504,0.0 120.983567,24.604876,0.0 120.983516,24.604704,0.0 120.983482,24.604557,0.0 120.983433,24.604421,0.0 120.983395,24.60428,0.0 120.983358,24.604114,0.0 120.983304,24.603972,0.0 120.983261,24.603876,0.0 120.983189,24.603752,0.0 120.983121,24.603636,0.0 120.983081,24.603579,0.0 120.982985,24.603497,0.0 120.982879,24.603356,0.0 120.982792,24.603248,0.0 120.982707,24.603102,0.0 120.98263,24.602977,0.0 120.982585,24.602884,0.0 120.982538,24.602794,0.0 120.982456,24.602679,0.0 120.982378,24.602625,0.0 120.982294,24.602583,0.0 120.982159,24.602518,0.0 120.982081,24.602473,0.0 120.982018,24.602423,0.0 120.981936,24.60231,0.0 120.981854,24.602211,0.0 120.981785,24.60211,0.0 120.981727,24.602011,0.0 120.981659,24.601895,0.0 120.981601,24.601778,0.0 120.981503,24.60159,0.0 120.981461,24.601472,0.0 120.981411,24.601319,0.0 120.981391,24.601205,0.0 120.981378,24.601071,0.0 120.981333,24.60095,0.0 120.981282,24.600774,0.0 120.981265,24.600633,0.0 120.981243,24.600346,0.0 120.981221,24.600212,0.0 120.981171,24.600029,0.0 120.981142,24.599904,0.0 120.981103,24.599756,0.0 120.981051,24.599563,0.0 120.981006,24.599427,0.0 120.980996,24.59931,0.0 120.980977,24.599166,0.0 120.980951,24.599046,0.0 120.980912,24.598898,0.0 120.980852,24.598788,0.0 120.980815,24.598666,0.0 120.98075,24.598477,0.0 120.980711,24.598358,0.0 120.980633,24.598236,0.0 120.980414,24.597988,0.0 120.980276,24.597809,0.0 120.980137,24.597627,0.0 120.980035,24.597443,0.0 120.979982,24.597264,0.0 120.979959,24.596972,0.0 120.979923,24.596655,0.0 120.979904,24.596463,0.0 120.979866,24.596251,0.0 120.979797,24.596017,0.0 120.979695,24.595815,0.0 120.979595,24.595664,0.0 120.979418,24.595486,0.0 120.979278,24.595332,0.0 120.979129,24.595104,0.0 120.979035,24.594941,0.0 120.978908,24.594723,0.0 120.978776,24.594542,0.0 120.978638,24.594439,0.0 120.978406,24.594328,0.0 120.978306,24.594266,0.0 120.978217,24.594154,0.0 120.978168,24.593978,0.0 120.978147,24.593782,0.0 120.978168,24.593451,0.0 120.978204,24.593185,0.0 120.9782,24.592934,0.0 120.978172,24.592756,0.0 120.978058,24.592435,0.0 120.977975,24.592214,0.0 120.977962,24.592,0.0 120.977986,24.591695,0.0 120.977996,24.591505,0.0 120.977973,24.591187,0.0 120.977962,24.590859,0.0 120.97793,24.590682,0.0 120.977931,24.590378,0.0 120.977937,24.590071,0.0 120.977946,24.589895,0.0 120.977952,24.589527,0.0 120.977952,24.589297,0.0 120.977844,24.58901,0.0 120.977707,24.588743,0.0 120.977567,24.58848,0.0 120.977461,24.588291,0.0 120.97727,24.587995,0.0 120.9772,24.587872,0.0 120.97718,24.587794,0.0 120.977188,24.587623,0.0 120.977195,24.587466,0.0 120.97714,24.587268,0.0 120.977048,24.58709,0.0 120.976848,24.58671,0.0 120.976738,24.586525,0.0 120.976651,24.58638,0.0 120.976521,24.586183,0.0 120.976419,24.586028,0.0 120.976282,24.585842,0.0 120.976166,24.585683,0.0 120.976049,24.585527,0.0 120.975921,24.585354,0.0 120.975759,24.585159,0.0 120.975535,24.584894,0.0 120.975382,24.584702,0.0 120.975255,24.584556,0.0 120.975087,24.584356,0.0 120.97496,24.584211,0.0 120.974784,24.584009,0.0 120.974675,24.583847,0.0 120.974626,24.583704,0.0 120.974609,24.583491,0.0 120.974588,24.583321,0.0 120.9745,24.583155,0.0 120.974399,24.582989,0.0 120.974299,24.582851,0.0 120.975083,24.582571,0.0 120.975965,24.582551,0.0 120.976826,24.582486,0.0 120.977246,24.582581,0.0 120.977648,24.582632,0.0 120.978768,24.582168,0.0 120.979666,24.581774,0.0 120.980493,24.581582,0.0 120.981655,24.581587,0.0 120.982438,24.581905,0.0 120.984138,24.582994,0.0 120.98551,24.584602,0.0 120.986871,24.586297,0.0 120.988001,24.587209,0.0 120.989404,24.587749,0.0 120.99145,24.588369,0.0 120.992536,24.589038,0.0 120.994575,24.590361,0.0 120.995199,24.590622,0.0 120.995814,24.590448,0.0 120.996515,24.590289,0.0 120.997204,24.590652,0.0 120.997835,24.591147,0.0 120.99835,24.591861,0.0 120.998605,24.592474,0.0 120.998872,24.592914,0.0 120.999015,24.593623,0.0 120.9994,24.595016,0.0 120.999493,24.595271,0.0 120.999585,24.595757,0.0 120.999599,24.596118,0.0 120.999524,24.596685,0.0 120.999352,24.597135,0.0 120.999183,24.597491,0.0 120.998857,24.597988,0.0 120.99874,24.599169,0.0 120.998611,24.600487,0.0 120.998122,24.600689,0.0 120.997956,24.600958,0.0 120.997275,24.602388,0.0 120.996709,24.60339,0.0 120.996523,24.603775,0.0 120.996057,24.604342,0.0 120.995864,24.604781,0.0 120.995534,24.605057,0.0 120.993711,24.60492,0.0 120.992984,24.604886,0.0 120.992371,24.604904,0.0</coordinates></LinearRing></outerBoundaryIs></Polygon><styleUrl>#spolygon-map</styleUrl></Placemark><Placemark><Polygon><outerBoundaryIs><LinearRing><coordinates>121.002979,24.614492,0.0 121.002624,24.614531,0.0 121.002614,24.614375,0.0 121.002335,24.614096,0.0 121.002047,24.613358,0.0 121.001957,24.612517,0.0 121.001749,24.612001,0.0 121.001521,24.610508,0.0 121.000945,24.609133,0.0 121.000202,24.608346,0.0 120.998845,24.606527,0.0 120.99795,24.605428,0.0 120.997148,24.605193,0.0 120.996593,24.605139,0.0 120.995864,24.604781,0.0 120.996057,24.604342,0.0 120.996523,24.603775,0.0 120.996709,24.60339,0.0 120.997275,24.602388,0.0 120.997956,24.600958,0.0 120.998122,24.600689,0.0 120.998611,24.600487,0.0 120.99874,24.599169,0.0 120.998857,24.597988,0.0 120.999183,24.597491,0.0 120.999352,24.597135,0.0 120.999524,24.596685,0.0 120.999599,24.596118,0.0 120.999929,24.595985,0.0 121.000741,24.596116,0.0 121.001333,24.596334,0.0 121.001713,24.596464,0.0 121.002305,24.59656,0.0 121.002862,24.596682,0.0 121.003772,24.596875,0.0 121.005252,24.597467,0.0 121.006242,24.597984,0.0 121.007216,24.598875,0.0 121.008153,24.599682,0.0 121.008931,24.599819,0.0 121.010022,24.600008,0.0 121.011162,24.600177,0.0 121.011674,24.600186,0.0 121.012258,24.600363,0.0 121.012536,24.600178,0.0 121.012993,24.599341,0.0 121.013483,24.597593,0.0 121.013717,24.596919,0.0 121.014185,24.596822,0.0 121.014675,24.597023,0.0 121.015432,24.597347,0.0 121.016451,24.59756,0.0 121.017213,24.59737,0.0 121.017918,24.597068,0.0 121.020379,24.596106,0.0 121.021678,24.595653,0.0 121.022739,24.595508,0.0 121.023661,24.596632,0.0 121.024872,24.598047,0.0 121.026017,24.598964,0.0 121.026523,24.599072,0.0 121.027453,24.599118,0.0 121.028028,24.599256,0.0 121.02856,24.599374,0.0 121.028663,24.599862,0.0 121.028561,24.600552,0.0 121.02834,24.600746,0.0 121.028013,24.601331,0.0 121.027632,24.603265,0.0 121.026834,24.605381,0.0 121.026558,24.606289,0.0 121.025966,24.606876,0.0 121.025032,24.608906,0.0 121.024409,24.610709,0.0 121.023926,24.611061,0.0 121.022861,24.611162,0.0 121.02236,24.610563,0.0 121.021665,24.60931,0.0 121.020865,24.608583,0.0 121.018489,24.607314,0.0 121.017058,24.60663,0.0 121.014708,24.606148,0.0 121.013253,24.606064,0.0 121.011249,24.606166,0.0 121.00922,24.606608,0.0 121.007474,24.607016,0.0 121.006848,24.607464,0.0 121.00661,24.60854,0.0 121.006146,24.60988,0.0 121.006095,24.610961,0.0 121.005511,24.61259,0.0 121.004986,24.613518,0.0 121.004457,24.614055,0.0 121.003392,24.614395,0.0 121.003011,24.614487,0.0 121.002979,24.614492,0.0</coordinates></LinearRing></outerBoundaryIs></Polygon><styleUrl>#spolygon-map</styleUrl></Placemark><Placemark><Polygon><outerBoundaryIs><LinearRing><coordinates>121.044166,24.626137,0.0 121.044115,24.626341,0.0 121.044069,24.626418,0.0 121.043976,24.626529,0.0 121.043846,24.626688,0.0 121.043647,24.626895,0.0 121.0435,24.627046,0.0 121.04323,24.62723,0.0 121.04309,24.627255,0.0 121.042847,24.6272,0.0 121.042596,24.627173,0.0 121.042363,24.627156,0.0 121.042133,24.6271,0.0 121.041923,24.62705,0.0 121.041734,24.626998,0.0 121.041511,24.626951,0.0 121.041325,24.626907,0.0 121.041122,24.626869,0.0 121.040887,24.626866,0.0 121.04033,24.626168,0.0 121.039542,24.625602,0.0 121.038788,24.625134,0.0 121.037686,24.624193,0.0 121.036047,24.623586,0.0 121.034848,24.623135,0.0 121.034163,24.622667,0.0 121.033543,24.621738,0.0 121.032769,24.621248,0.0 121.031526,24.620526,0.0 121.030822,24.619673,0.0 121.030139,24.618967,0.0 121.028889,24.617817,0.0 121.028014,24.61648,0.0 121.027459,24.615593,0.0 121.026379,24.61438,0.0 121.025017,24.613707,0.0 121.023986,24.613354,0.0 121.023768,24.612738,0.0 121.023302,24.61234,0.0 121.023196,24.611875,0.0 121.022861,24.611162,0.0 121.023926,24.611061,0.0 121.024409,24.610709,0.0 121.025032,24.608906,0.0 121.025966,24.606876,0.0 121.026558,24.606289,0.0 121.026834,24.605381,0.0 121.027632,24.603265,0.0 121.028013,24.601331,0.0 121.02834,24.600746,0.0 121.028561,24.600552,0.0 121.028663,24.599862,0.0 121.02856,24.599374,0.0 121.028028,24.599256,0.0 121.027453,24.599118,0.0 121.026523,24.599072,0.0 121.026017,24.598964,0.0 121.024872,24.598047,0.0 121.023661,24.596632,0.0 121.02262,24.595235,0.0 121.021334,24.593012,0.0 121.021462,24.592009,0.0 121.021791,24.591372,0.0 121.022668,24.590194,0.0 121.02429,24.58843,0.0 121.026102,24.58577,0.0 121.02691,24.584236,0.0 121.027726,24.58239,0.0 121.0289,24.578398,0.0 121.029457,24.57481,0.0 121.029477,24.573231,0.0 121.029357,24.572767,0.0 121.029407,24.572467,0.0 121.029756,24.571918,0.0 121.029586,24.571018,0.0 121.028381,24.568887,0.0 121.027026,24.567111,0.0 121.026518,24.565824,0.0 121.026129,24.563583,0.0 121.025821,24.562592,0.0 121.025282,24.561006,0.0 121.024943,24.559484,0.0 121.024823,24.558207,0.0 121.024405,24.557398,0.0 121.02334,24.555761,0.0 121.022293,24.553775,0.0 121.021575,24.552707,0.0 121.020589,24.551944,0.0 121.019374,24.551232,0.0 121.01805,24.549804,0.0 121.016953,24.548499,0.0 121.015679,24.547736,0.0 121.014084,24.546932,0.0 121.013418,24.546405,0.0 121.012441,24.545309,0.0 121.011937,24.544755,0.0 121.011545,24.544263,0.0 121.010925,24.543086,0.0 121.010279,24.541647,0.0 121.010169,24.541001,0.0 121.010168,24.540106,0.0 121.010069,24.539051,0.0 121.01016,24.538177,0.0 121.009924,24.537438,0.0 121.009326,24.536155,0.0 121.008934,24.5347,0.0 121.00834,24.533436,0.0 121.007693,24.532263,0.0 121.007015,24.530867,0.0 121.006716,24.529771,0.0 121.006746,24.528634,0.0 121.007055,24.526562,0.0 121.007071,24.524684,0.0 121.006498,24.52143,0.0 121.006036,24.519577,0.0 121.006052,24.518325,0.0 121.006114,24.516821,0.0 121.005779,24.515758,0.0 121.005206,24.514648,0.0 121.004978,24.513848,0.0 121.004967,24.512974,0.0 121.005653,24.511818,0.0 121.006146,24.510726,0.0 121.006449,24.508965,0.0 121.006572,24.50885,0.0 121.007305,24.509051,0.0 121.008052,24.509312,0.0 121.008294,24.509519,0.0 121.008742,24.50983,0.0 121.009216,24.510084,0.0 121.009512,24.510248,0.0 121.00987,24.510313,0.0 121.010264,24.510158,0.0 121.01064,24.510166,0.0 121.011052,24.510297,0.0 121.011482,24.510485,0.0 121.011975,24.510698,0.0 121.012262,24.510788,0.0 121.012691,24.510551,0.0 121.013094,24.510174,0.0 121.013663,24.509835,0.0 121.014057,24.509712,0.0 121.014729,24.509614,0.0 121.01532,24.509605,0.0 121.015741,24.509556,0.0 121.016099,24.509319,0.0 121.016278,24.509089,0.0 121.016645,24.508696,0.0 121.017084,24.50832,0.0 121.017326,24.508254,0.0 121.017756,24.508254,0.0 121.018132,24.508131,0.0 121.018683,24.507955,0.0 121.019265,24.50766,0.0 121.019821,24.507357,0.0 121.020188,24.507177,0.0 121.020716,24.506841,0.0 121.020931,24.506391,0.0 121.02111,24.505858,0.0 121.021325,24.505244,0.0 121.021388,24.504625,0.0 121.021388,24.504166,0.0 121.021387,24.503495,0.0 121.021396,24.502856,0.0 121.02145,24.50252,0.0 121.02196,24.502381,0.0 121.022328,24.502348,0.0 121.022659,24.502332,0.0 121.022937,24.502291,0.0 121.02337,24.502114,0.0 121.023889,24.501647,0.0 121.024292,24.50118,0.0 121.024802,24.500509,0.0 121.025062,24.50005,0.0 121.02533,24.499395,0.0 121.02559,24.499174,0.0 121.025787,24.499018,0.0 121.025957,24.498691,0.0 121.025885,24.498413,0.0 121.025774,24.497941,0.0 121.025569,24.497371,0.0 121.025474,24.496914,0.0 121.025632,24.496207,0.0 121.025632,24.49584,0.0 121.025624,24.495313,0.0 121.025837,24.494466,0.0 121.026144,24.49376,0.0 121.0265,24.493101,0.0 121.026674,24.492755,0.0 121.026989,24.492625,0.0 121.027399,24.492596,0.0 121.028014,24.492495,0.0 121.028471,24.492401,0.0 121.028763,24.492437,0.0 121.029445,24.49279,0.0 121.030005,24.492812,0.0 121.030462,24.49266,0.0 121.031061,24.492502,0.0 121.031361,24.492394,0.0 121.031881,24.491903,0.0 121.03222,24.49181,0.0 121.03252,24.491853,0.0 121.032945,24.492213,0.0 121.033557,24.492581,0.0 121.034149,24.492776,0.0 121.034968,24.492725,0.0 121.035284,24.492898,0.0 121.03582,24.493251,0.0 121.036206,24.493323,0.0 121.036884,24.493301,0.0 121.037633,24.493323,0.0 121.038406,24.493337,0.0 121.038993,24.493465,0.0 121.039269,24.49366,0.0 121.039474,24.493919,0.0 121.039932,24.494618,0.0 121.040239,24.494892,0.0 121.04139,24.495122,0.0 121.042191,24.495107,0.0 121.04354,24.494936,0.0 121.045232,24.49498,0.0 121.045823,24.495124,0.0 121.046433,24.495529,0.0 121.047008,24.496129,0.0 121.047438,24.496495,0.0 121.048073,24.496745,0.0 121.048718,24.496762,0.0 121.049382,24.496664,0.0 121.049841,24.496646,0.0 121.050173,24.496806,0.0 121.050672,24.497101,0.0 121.050935,24.497333,0.0 121.051268,24.497396,0.0 121.051815,24.497217,0.0 121.052807,24.497127,0.0 121.053217,24.496904,0.0 121.05351,24.496627,0.0 121.054097,24.496537,0.0 121.055181,24.496742,0.0 121.055992,24.497179,0.0 121.056881,24.497769,0.0 121.057282,24.498045,0.0 121.057274,24.498444,0.0 121.057338,24.498939,0.0 121.057559,24.499472,0.0 121.057775,24.499862,0.0 121.058019,24.500282,0.0 121.058187,24.500442,0.0 121.058337,24.500338,0.0 121.05865,24.500264,0.0 121.058925,24.500069,0.0 121.059207,24.499733,0.0 121.059462,24.499338,0.0 121.059659,24.498916,0.0 121.060008,24.498425,0.0 121.060499,24.497926,0.0 121.060817,24.497579,0.0 121.061248,24.497139,0.0 121.061501,24.49698,0.0 121.061867,24.496854,0.0 121.062212,24.496794,0.0 121.062731,24.496672,0.0 121.063259,24.496578,0.0 121.063762,24.496456,0.0 121.064208,24.496378,0.0 121.064676,24.496424,0.0 121.064949,24.496399,0.0 121.065232,24.496208,0.0 121.06549,24.496006,0.0 121.065781,24.495715,0.0 121.066104,24.495386,0.0 121.066503,24.495134,0.0 121.066973,24.495108,0.0 121.067351,24.495276,0.0 121.067656,24.495574,0.0 121.067764,24.495682,0.0 121.068079,24.4959,0.0 121.068232,24.495971,0.0 121.06824,24.495976,0.0 121.068735,24.496244,0.0 121.06894,24.496297,0.0 121.06937,24.496533,0.0 121.070003,24.496808,0.0 121.070406,24.497109,0.0 121.070676,24.497349,0.0 121.070904,24.497526,0.0 121.071579,24.498171,0.0 121.071899,24.498398,0.0 121.071953,24.498699,0.0 121.07193,24.499135,0.0 121.071861,24.499491,0.0 121.07176,24.499771,0.0 121.071646,24.500178,0.0 121.07169,24.500504,0.0 121.07184,24.500806,0.0 121.072113,24.501312,0.0 121.072172,24.501668,0.0 121.072143,24.502074,0.0 121.07212,24.502467,0.0 121.072144,24.502855,0.0 121.072109,24.503371,0.0 121.071885,24.503586,0.0 121.071721,24.503738,0.0 121.071554,24.503888,0.0 121.071264,24.504136,0.0 121.070999,24.504404,0.0 121.070919,24.504572,0.0 121.070816,24.504817,0.0 121.070726,24.50514,0.0 121.070694,24.505294,0.0 121.070501,24.505765,0.0 121.070384,24.50597,0.0 121.070319,24.50608,0.0 121.069989,24.50626,0.0 121.069356,24.506474,0.0 121.069063,24.506551,0.0 121.068783,24.506621,0.0 121.068423,24.506742,0.0 121.068338,24.50679,0.0 121.068118,24.506936,0.0 121.068123,24.507076,0.0 121.068433,24.507511,0.0 121.068516,24.507643,0.0 121.068713,24.507907,0.0 121.069067,24.508504,0.0 121.069246,24.508772,0.0 121.069307,24.508995,0.0 121.069316,24.50919,0.0 121.069259,24.509536,0.0 121.069208,24.509769,0.0 121.069091,24.510072,0.0 121.068988,24.510375,0.0 121.068946,24.510617,0.0 121.068841,24.511154,0.0 121.068755,24.511533,0.0 121.068691,24.511827,0.0 121.06861,24.512236,0.0 121.068551,24.51245,0.0 121.068549,24.512601,0.0 121.068543,24.513467,0.0 121.068532,24.514465,0.0 121.068515,24.515168,0.0 121.068519,24.51548,0.0 121.068538,24.515845,0.0 121.068518,24.516281,0.0 121.068484,24.516586,0.0 121.068398,24.516927,0.0 121.068296,24.517269,0.0 121.068195,24.517545,0.0 121.067981,24.518044,0.0 121.067893,24.518368,0.0 121.067757,24.518779,0.0 121.067655,24.519066,0.0 121.067514,24.519391,0.0 121.06705,24.519955,0.0 121.066858,24.520242,0.0 121.066717,24.520624,0.0 121.066685,24.520778,0.0 121.066734,24.521065,0.0 121.066806,24.521365,0.0 121.066867,24.521659,0.0 121.066904,24.521973,0.0 121.066926,24.522549,0.0 121.067008,24.522845,0.0 121.067385,24.523206,0.0 121.068021,24.523615,0.0 121.068496,24.523868,0.0 121.068793,24.524045,0.0 121.069064,24.524272,0.0 121.069442,24.524578,0.0 121.069754,24.52482,0.0 121.070174,24.525144,0.0 121.070463,24.525322,0.0 121.070757,24.525452,0.0 121.071201,24.525652,0.0 121.071442,24.525782,0.0 121.071692,24.526015,0.0 121.072026,24.526262,0.0 121.072174,24.526353,0.0 121.072538,24.526405,0.0 121.072952,24.526522,0.0 121.073206,24.526682,0.0 121.07346,24.526913,0.0 121.073764,24.527043,0.0 121.074186,24.527133,0.0 121.07457,24.527219,0.0 121.074924,24.527343,0.0 121.075288,24.527528,0.0 121.075534,24.527711,0.0 121.075806,24.527838,0.0 121.076255,24.527974,0.0 121.076561,24.528016,0.0 121.077093,24.528131,0.0 121.077432,24.528208,0.0 121.077806,24.528425,0.0 121.078113,24.528662,0.0 121.0783,24.528903,0.0 121.078401,24.529214,0.0 121.078492,24.529811,0.0 121.078531,24.530128,0.0 121.078546,24.530665,0.0 121.078517,24.53094,0.0 121.07847,24.531172,0.0 121.078459,24.531404,0.0 121.078508,24.531656,0.0 121.078629,24.53189,0.0 121.078667,24.532092,0.0 121.078669,24.532383,0.0 121.078647,24.532592,0.0 121.078583,24.532795,0.0 121.078498,24.532972,0.0 121.078264,24.533294,0.0 121.07813,24.533451,0.0 121.077988,24.533637,0.0 121.077893,24.533835,0.0 121.077824,24.534131,0.0 121.077866,24.534377,0.0 121.077921,24.53451,0.0 121.078355,24.535045,0.0 121.078569,24.535297,0.0 121.078801,24.535525,0.0 121.079156,24.535875,0.0 121.079298,24.536162,0.0 121.079372,24.536522,0.0 121.079484,24.536918,0.0 121.079598,24.537111,0.0 121.07983,24.537404,0.0 121.080041,24.537692,0.0 121.080118,24.537928,0.0 121.080049,24.538229,0.0 121.080003,24.538551,0.0 121.080047,24.538854,0.0 121.080232,24.539252,0.0 121.080298,24.539543,0.0 121.080309,24.539833,0.0 121.080419,24.540229,0.0 121.080519,24.540617,0.0 121.080555,24.540858,0.0 121.080458,24.54114,0.0 121.080239,24.541444,0.0 121.079977,24.541631,0.0 121.079624,24.54191,0.0 121.079314,24.542091,0.0 121.07904,24.542307,0.0 121.07867,24.542545,0.0 121.078315,24.542776,0.0 121.077874,24.542991,0.0 121.077562,24.543135,0.0 121.077276,24.543235,0.0 121.076633,24.54349,0.0 121.076351,24.543686,0.0 121.076144,24.543916,0.0 121.075952,24.544218,0.0 121.075763,24.544542,0.0 121.075547,24.544908,0.0 121.075375,24.545214,0.0 121.075186,24.545463,0.0 121.074944,24.545891,0.0 121.074728,24.546259,0.0 121.074512,24.546659,0.0 121.074248,24.547142,0.0 121.074221,24.547385,0.0 121.074268,24.547603,0.0 121.0745,24.547997,0.0 121.074502,24.548209,0.0 121.074381,24.548466,0.0 121.074098,24.548693,0.0 121.073773,24.549097,0.0 121.073462,24.54942,0.0 121.073171,24.549579,0.0 121.072948,24.549712,0.0 121.072625,24.549779,0.0 121.072281,24.549818,0.0 121.072056,24.549878,0.0 121.071738,24.549947,0.0 121.071289,24.550089,0.0 121.070975,24.55016,0.0 121.070655,24.550273,0.0 121.070341,24.550415,0.0 121.070136,24.550525,0.0 121.069617,24.550854,0.0 121.069384,24.550982,0.0 121.069098,24.551177,0.0 121.068642,24.55151,0.0 121.068229,24.551845,0.0 121.06763,24.552329,0.0 121.067282,24.552582,0.0 121.066733,24.553027,0.0 121.066405,24.553265,0.0 121.066064,24.553394,0.0 121.065715,24.553552,0.0 121.065334,24.553743,0.0 121.065099,24.553908,0.0 121.064688,24.554202,0.0 121.064422,24.554372,0.0 121.064061,24.55456,0.0 121.063603,24.554732,0.0 121.063349,24.554817,0.0 121.063111,24.554847,0.0 121.062906,24.55498,0.0 121.06276,24.555141,0.0 121.062683,24.555356,0.0 121.062528,24.555792,0.0 121.06231,24.556058,0.0 121.062107,24.556198,0.0 121.061844,24.556325,0.0 121.061402,24.556467,0.0 121.061024,24.556557,0.0 121.060688,24.556607,0.0 121.060299,24.556692,0.0 121.059946,24.556777,0.0 121.059617,24.556856,0.0 121.059209,24.556975,0.0 121.059023,24.557076,0.0 121.058861,24.557214,0.0 121.058622,24.557399,0.0 121.058437,24.557576,0.0 121.058322,24.557707,0.0 121.058201,24.557911,0.0 121.058597,24.560642,0.0 121.0589,24.560614,0.0 121.059276,24.560573,0.0 121.059911,24.560423,0.0 121.060272,24.560327,0.0 121.060705,24.560198,0.0 121.061071,24.560116,0.0 121.0614,24.560003,0.0 121.061588,24.559817,0.0 121.061768,24.559521,0.0 121.061883,24.559212,0.0 121.062003,24.558868,0.0 121.062148,24.558464,0.0 121.062261,24.558154,0.0 121.062401,24.557705,0.0 121.062494,24.557482,0.0 121.062624,24.557434,0.0 121.062812,24.557489,0.0 121.063093,24.557792,0.0 121.063336,24.558014,0.0 121.063673,24.558344,0.0 121.063981,24.55861,0.0 121.06421,24.558821,0.0 121.064578,24.559144,0.0 121.064809,24.559336,0.0 121.065068,24.559536,0.0 121.065369,24.559833,0.0 121.065599,24.560054,0.0 121.065893,24.560317,0.0 121.0664,24.560789,0.0 121.066889,24.561204,0.0 121.067132,24.561433,0.0 121.067443,24.561706,0.0 121.067867,24.562045,0.0 121.068121,24.562219,0.0 121.068362,24.5624,0.0 121.068735,24.562602,0.0 121.069079,24.562735,0.0 121.06955,24.562872,0.0 121.069957,24.562977,0.0 121.070303,24.563147,0.0 121.070501,24.563273,0.0 121.070634,24.563497,0.0 121.070682,24.563827,0.0 121.07071,24.564504,0.0 121.070808,24.564823,0.0 121.071016,24.565267,0.0 121.071162,24.565579,0.0 121.07133,24.565891,0.0 121.071498,24.566134,0.0 121.071579,24.566322,0.0 121.071682,24.566645,0.0 121.071777,24.567058,0.0 121.071858,24.567388,0.0 121.071906,24.567567,0.0 121.072079,24.568355,0.0 121.072218,24.569094,0.0 121.072288,24.569403,0.0 121.072404,24.569935,0.0 121.072492,24.570552,0.0 121.072533,24.571001,0.0 121.07255,24.571361,0.0 121.072566,24.571694,0.0 121.072619,24.572263,0.0 121.072674,24.572584,0.0 121.07286,24.573022,0.0 121.073031,24.573317,0.0 121.073227,24.573725,0.0 121.073422,24.574062,0.0 121.073656,24.574397,0.0 121.07397,24.574782,0.0 121.074133,24.575075,0.0 121.074341,24.575461,0.0 121.074459,24.575862,0.0 121.074555,24.576192,0.0 121.074726,24.576726,0.0 121.074784,24.577036,0.0 121.074895,24.577588,0.0 121.074952,24.577856,0.0 121.074988,24.578187,0.0 121.075121,24.5787,0.0 121.075166,24.579046,0.0 121.075179,24.579322,0.0 121.075192,24.579693,0.0 121.075212,24.580065,0.0 121.07523,24.580448,0.0 121.075459,24.581032,0.0 121.076018,24.581406,0.0 121.076299,24.581573,0.0 121.076636,24.581806,0.0 121.076972,24.582054,0.0 121.077288,24.582269,0.0 121.077684,24.582597,0.0 121.077968,24.582863,0.0 121.078206,24.583103,0.0 121.078535,24.583475,0.0 121.078738,24.583754,0.0 121.078902,24.584089,0.0 121.07896,24.584426,0.0 121.07902,24.584809,0.0 121.079068,24.585387,0.0 121.079079,24.585699,0.0 121.079147,24.586116,0.0 121.079197,24.586568,0.0 121.079237,24.586843,0.0 121.079298,24.587345,0.0 121.079343,24.58762,0.0 121.079451,24.587994,0.0 121.079559,24.588168,0.0 121.079883,24.588271,0.0 121.080154,24.588291,0.0 121.080475,24.588362,0.0 121.080851,24.58844,0.0 121.081185,24.588516,0.0 121.081533,24.588635,0.0 121.081927,24.588838,0.0 121.082188,24.589017,0.0 121.082502,24.589265,0.0 121.082745,24.589489,0.0 121.082961,24.589698,0.0 121.083059,24.58986,0.0 121.083097,24.589989,0.0 121.08307,24.590179,0.0 121.082984,24.590475,0.0 121.08298,24.590771,0.0 121.082917,24.591239,0.0 121.082842,24.591544,0.0 121.08274,24.591966,0.0 121.082617,24.59233,0.0 121.082575,24.592702,0.0 121.082528,24.593053,0.0 121.08256,24.59339,0.0 121.082638,24.593688,0.0 121.082752,24.594071,0.0 121.082807,24.594467,0.0 121.0828,24.59483,0.0 121.082472,24.595346,0.0 121.082377,24.595536,0.0 121.082302,24.595834,0.0 121.082287,24.596332,0.0 121.082262,24.596568,0.0 121.082217,24.596814,0.0 121.082039,24.597348,0.0 121.081907,24.59769,0.0 121.081834,24.597981,0.0 121.081926,24.598288,0.0 121.081878,24.598388,0.0 121.081755,24.598665,0.0 121.081648,24.598825,0.0 121.08151,24.599053,0.0 121.081435,24.599292,0.0 121.081392,24.599507,0.0 121.081384,24.599799,0.0 121.081386,24.599992,0.0 121.081362,24.60028,0.0 121.081273,24.600571,0.0 121.081142,24.600747,0.0 121.080928,24.600944,0.0 121.080769,24.601067,0.0 121.080534,24.601207,0.0 121.080315,24.601339,0.0 121.080027,24.601497,0.0 121.079418,24.601744,0.0 121.079178,24.601826,0.0 121.079009,24.601884,0.0 121.078703,24.601995,0.0 121.078626,24.602024,0.0 121.078348,24.602126,0.0 121.077992,24.602264,0.0 121.077825,24.602328,0.0 121.077553,24.602452,0.0 121.077381,24.602544,0.0 121.076973,24.602734,0.0 121.076752,24.60286,0.0 121.076485,24.602989,0.0 121.076293,24.603106,0.0 121.0761,24.603237,0.0 121.075937,24.603388,0.0 121.075799,24.603547,0.0 121.075679,24.603704,0.0 121.075531,24.603971,0.0 121.075464,24.604171,0.0 121.075365,24.60445,0.0 121.075343,24.604623,0.0 121.075322,24.604802,0.0 121.075285,24.605114,0.0 121.075275,24.605277,0.0 121.075249,24.605536,0.0 121.075261,24.605851,0.0 121.075283,24.606064,0.0 121.075327,24.606351,0.0 121.075381,24.606609,0.0 121.075436,24.606841,0.0 121.075536,24.607124,0.0 121.075643,24.607393,0.0 121.07575,24.607641,0.0 121.075874,24.607907,0.0 121.075953,24.608115,0.0 121.076036,24.608378,0.0 121.076079,24.608559,0.0 121.07609,24.608726,0.0 121.076078,24.609068,0.0 121.076017,24.609243,0.0 121.075928,24.609506,0.0 121.075841,24.609711,0.0 121.07575,24.609873,0.0 121.07564,24.61008,0.0 121.075577,24.610592,0.0 121.075557,24.610811,0.0 121.075549,24.610871,0.0 121.075484,24.61116,0.0 121.075419,24.611359,0.0 121.07532,24.611624,0.0 121.075194,24.611883,0.0 121.075081,24.612055,0.0 121.074924,24.612304,0.0 121.07478,24.612451,0.0 121.074597,24.612638,0.0 121.074396,24.612812,0.0 121.074248,24.612914,0.0 121.073967,24.613089,0.0 121.07379,24.613198,0.0 121.073585,24.61329,0.0 121.073408,24.613375,0.0 121.073219,24.61345,0.0 121.072866,24.613588,0.0 121.072672,24.613652,0.0 121.072347,24.613765,0.0 121.072153,24.613837,0.0 121.071821,24.613929,0.0 121.071616,24.613956,0.0 121.071505,24.613967,0.0 121.071259,24.613986,0.0 121.071093,24.614006,0.0 121.070794,24.614041,0.0 121.070521,24.614063,0.0 121.070186,24.614133,0.0 121.06995,24.614209,0.0 121.069784,24.614248,0.0 121.069609,24.614302,0.0 121.069272,24.614412,0.0 121.068974,24.614553,0.0 121.068678,24.614654,0.0 121.068297,24.614783,0.0 121.068081,24.614866,0.0 121.067929,24.614986,0.0 121.067782,24.615113,0.0 121.067548,24.615337,0.0 121.06739,24.61552,0.0 121.067185,24.615761,0.0 121.06705,24.61596,0.0 121.066922,24.61615,0.0 121.066805,24.616408,0.0 121.066744,24.616582,0.0 121.066658,24.616841,0.0 121.066594,24.617017,0.0 121.066528,24.617197,0.0 121.066387,24.617466,0.0 121.066278,24.617646,0.0 121.066069,24.618001,0.0 121.065952,24.618172,0.0 121.065729,24.6184,0.0 121.065585,24.61855,0.0 121.065448,24.618694,0.0 121.06526,24.618906,0.0 121.065066,24.619158,0.0 121.064847,24.619375,0.0 121.064641,24.619496,0.0 121.06441,24.619509,0.0 121.06417,24.619479,0.0 121.064008,24.619495,0.0 121.063881,24.619561,0.0 121.06375,24.619706,0.0 121.063523,24.619986,0.0 121.063418,24.620162,0.0 121.063245,24.62036,0.0 121.063064,24.620573,0.0 121.062992,24.620695,0.0 121.062913,24.620811,0.0 121.062747,24.621109,0.0 121.06269,24.621265,0.0 121.062658,24.621437,0.0 121.062636,24.621613,0.0 121.062564,24.621752,0.0 121.062333,24.621829,0.0 121.062147,24.621829,0.0 121.061965,24.621826,0.0 121.061608,24.621785,0.0 121.061417,24.621731,0.0 121.061209,24.62161,0.0 121.061009,24.621452,0.0 121.060862,24.621312,0.0 121.060648,24.621093,0.0 121.060458,24.620928,0.0 121.060215,24.620757,0.0 121.060008,24.620688,0.0 121.059862,24.620668,0.0 121.059601,24.620618,0.0 121.059415,24.620539,0.0 121.059191,24.620401,0.0 121.059025,24.620296,0.0 121.058881,24.620215,0.0 121.058693,24.6201,0.0 121.058527,24.620006,0.0 121.058398,24.619912,0.0 121.058267,24.619784,0.0 121.058209,24.619669,0.0 121.057803,24.61931,0.0 121.057692,24.619206,0.0 121.05749,24.61898,0.0 121.057257,24.618772,0.0 121.057031,24.618499,0.0 121.056917,24.618343,0.0 121.056731,24.618237,0.0 121.056495,24.618171,0.0 121.056238,24.618129,0.0 121.055943,24.618056,0.0 121.05571,24.618001,0.0 121.055439,24.617938,0.0 121.055283,24.617831,0.0 121.055157,24.617666,0.0 121.05503,24.617396,0.0 121.054949,24.617079,0.0 121.054893,24.61685,0.0 121.054746,24.616652,0.0 121.054478,24.616441,0.0 121.054277,24.616264,0.0 121.054086,24.616093,0.0 121.053877,24.615952,0.0 121.053729,24.615866,0.0 121.053473,24.615618,0.0 121.053391,24.61552,0.0 121.053196,24.615404,0.0 121.052958,24.615392,0.0 121.052847,24.615391,0.0 121.052618,24.615341,0.0 121.051957,24.615181,0.0 121.051643,24.615131,0.0 121.051534,24.61516,0.0 121.051551,24.615308,0.0 121.051638,24.615439,0.0 121.051746,24.615628,0.0 121.05182,24.61584,0.0 121.051853,24.616041,0.0 121.051876,24.616336,0.0 121.051804,24.616725,0.0 121.051771,24.617029,0.0 121.051683,24.617357,0.0 121.051555,24.617533,0.0 121.051341,24.617753,0.0 121.051053,24.617901,0.0 121.050892,24.617987,0.0 121.050673,24.618146,0.0 121.050374,24.618396,0.0 121.050204,24.618481,0.0 121.05,24.618513,0.0 121.049769,24.618541,0.0 121.049458,24.618562,0.0 121.049366,24.61862,0.0 121.049218,24.618821,0.0 121.049078,24.619063,0.0 121.048975,24.619216,0.0 121.048774,24.619357,0.0 121.048587,24.619494,0.0 121.048488,24.619617,0.0 121.048251,24.619835,0.0 121.048175,24.619934,0.0 121.04809,24.620049,0.0 121.048009,24.620177,0.0 121.047853,24.6204,0.0 121.047783,24.620499,0.0 121.047691,24.620606,0.0 121.047517,24.62082,0.0 121.04737,24.62103,0.0 121.047282,24.621217,0.0 121.047167,24.621447,0.0 121.047032,24.621666,0.0 121.046923,24.621842,0.0 121.046755,24.621975,0.0 121.046646,24.622075,0.0 121.046535,24.622209,0.0 121.046436,24.622349,0.0 121.046398,24.622462,0.0 121.046436,24.622657,0.0 121.046449,24.622898,0.0 121.04643,24.623074,0.0 121.046363,24.623237,0.0 121.046243,24.62338,0.0 121.046185,24.62351,0.0 121.046112,24.623696,0.0 121.046003,24.623927,0.0 121.04592,24.624094,0.0 121.045766,24.624295,0.0 121.045639,24.62444,0.0 121.045467,24.62457,0.0 121.045263,24.624639,0.0 121.045034,24.624706,0.0 121.044767,24.62484,0.0 121.04465,24.624941,0.0 121.044566,24.625068,0.0 121.0445,24.625218,0.0 121.044408,24.62538,0.0 121.044303,24.625549,0.0 121.044233,24.625751,0.0 121.044191,24.625923,0.0 121.044172,24.626103,0.0 121.044166,24.626137,0.0</coordinates></LinearRing></outerBoundaryIs></Polygon><styleUrl>#spolygon-map</styleUrl></Placemark><Placemark><Polygon><outerBoundaryIs><LinearRing><coordinates>121.010748,24.635792,0.0 121.0099,24.636222,0.0 121.009297,24.636325,0.0 121.008777,24.636263,0.0 121.0081,24.636285,0.0 121.006327,24.636383,0.0 121.004515,24.636393,0.0 121.004321,24.636172,0.0 121.004339,24.635823,0.0 121.00457,24.635211,0.0 121.004348,24.634587,0.0 121.00377,24.634181,0.0 121.003584,24.633881,0.0 121.003511,24.633369,0.0 121.003141,24.632954,0.0 121.002941,24.633009,0.0 121.0029,24.633011,0.0 121.002657,24.632616,0.0 121.002534,24.632426,0.0 121.002329,24.632101,0.0 121.002275,24.632019,0.0 121.002237,24.631979,0.0 121.002191,24.631918,0.0 121.00211,24.631794,0.0 121.002062,24.631718,0.0 121.001996,24.631617,0.0 121.001984,24.631607,0.0 121.001966,24.631604,0.0 121.001475,24.630326,0.0 121.000643,24.62914,0.0 120.998888,24.626978,0.0 120.997449,24.625109,0.0 120.996051,24.623017,0.0 120.995127,24.62124,0.0 120.994859,24.619967,0.0 120.994344,24.617139,0.0 120.993812,24.614769,0.0 120.993303,24.613628,0.0 120.993001,24.613538,0.0 120.992246,24.61362,0.0 120.99158,24.613254,0.0 120.990717,24.612115,0.0 120.990104,24.611206,0.0 120.987978,24.60884,0.0 120.987232,24.608224,0.0 120.986004,24.606913,0.0 120.987622,24.60753,0.0 120.988602,24.607557,0.0 120.990257,24.606263,0.0 120.991934,24.605013,0.0 120.992371,24.604904,0.0 120.992984,24.604886,0.0 120.993711,24.60492,0.0 120.995534,24.605057,0.0 120.996593,24.605139,0.0 120.997148,24.605193,0.0 120.99795,24.605428,0.0 120.998845,24.606527,0.0 121.000202,24.608346,0.0 121.000945,24.609133,0.0 121.001521,24.610508,0.0 121.001749,24.612001,0.0 121.001957,24.612517,0.0 121.002047,24.613358,0.0 121.002335,24.614096,0.0 121.002614,24.614375,0.0 121.002624,24.614531,0.0 121.002979,24.614492,0.0 121.003367,24.614401,0.0 121.003902,24.614272,0.0 121.004644,24.613881,0.0 121.005246,24.613138,0.0 121.005995,24.611545,0.0 121.006083,24.610377,0.0 121.006334,24.609376,0.0 121.006685,24.607911,0.0 121.007059,24.607225,0.0 121.008149,24.606852,0.0 121.010357,24.606325,0.0 121.012425,24.606076,0.0 121.013686,24.606058,0.0 121.01616,24.606341,0.0 121.017808,24.606946,0.0 121.020128,24.608159,0.0 121.021404,24.608976,0.0 121.022049,24.609892,0.0 121.022471,24.610738,0.0 121.02314,24.611581,0.0 121.023203,24.612204,0.0 121.023649,24.612602,0.0 121.023877,24.613128,0.0 121.024115,24.613453,0.0 121.025962,24.614099,0.0 121.026963,24.614941,0.0 121.027481,24.615628,0.0 121.02261,24.616838,0.0 121.021789,24.616996,0.0 121.021078,24.617047,0.0 121.019799,24.617681,0.0 121.01806,24.618518,0.0 121.01613,24.61921,0.0 121.015449,24.619367,0.0 121.014924,24.619376,0.0 121.014155,24.61982,0.0 121.013574,24.620628,0.0 121.013471,24.620825,0.0 121.013471,24.622629,0.0 121.013378,24.623676,0.0 121.013044,24.62411,0.0 121.01277,24.625046,0.0 121.01273,24.625647,0.0 121.012706,24.625744,0.0 121.012446,24.626169,0.0 121.011895,24.626826,0.0 121.011801,24.626866,0.0 121.011751,24.626894,0.0 121.011639,24.62696,0.0 121.0116,24.626976,0.0 121.011519,24.627001,0.0 121.011293,24.627068,0.0 121.01121,24.6271,0.0 121.011148,24.627135,0.0 121.010898,24.627298,0.0 121.010876,24.627323,0.0 121.010849,24.627366,0.0 121.010837,24.627387,0.0 121.010816,24.627485,0.0 121.010801,24.627555,0.0 121.01079,24.627585,0.0 121.010778,24.627603,0.0 121.010757,24.62762,0.0 121.010727,24.627636,0.0 121.010556,24.627677,0.0 121.010532,24.627685,0.0 121.010494,24.627705,0.0 121.010449,24.627736,0.0 121.010383,24.627806,0.0 121.010267,24.627976,0.0 121.010135,24.628192,0.0 121.009266,24.629036,0.0 121.009217,24.62918,0.0 121.00927,24.629628,0.0 121.009418,24.630409,0.0 121.009785,24.631461,0.0 121.010146,24.632024,0.0 121.010899,24.632809,0.0 121.011111,24.633394,0.0 121.01117,24.633877,0.0 121.010959,24.634948,0.0 121.010748,24.635792,0.0</coordinates></LinearRing></outerBoundaryIs></Polygon><styleUrl>#spolygon-map</styleUrl></Placemark><Placemark><Polygon><outerBoundaryIs><LinearRing><coordinates>120.977019,24.638827,0.0 120.976805,24.638847,0.0 120.976593,24.638868,0.0 120.976395,24.638893,0.0 120.97601,24.638873,0.0 120.975702,24.63884,0.0 120.975394,24.638877,0.0 120.975081,24.638945,0.0 120.974694,24.639075,0.0 120.974446,24.639134,0.0 120.974275,24.638001,0.0 120.974094,24.637312,0.0 120.973983,24.636706,0.0 120.973785,24.635799,0.0 120.973247,24.635689,0.0 120.972405,24.635513,0.0 120.97208,24.635105,0.0 120.971943,24.634783,0.0 120.971953,24.634339,0.0 120.971979,24.633945,0.0 120.971993,24.633743,0.0 120.972108,24.633404,0.0 120.973103,24.632982,0.0 120.974192,24.63262,0.0 120.97449,24.632302,0.0 120.974875,24.631172,0.0 120.975134,24.630638,0.0 120.975393,24.63018,0.0 120.976792,24.629099,0.0 120.977463,24.628461,0.0 120.977568,24.627784,0.0 120.977376,24.626619,0.0 120.977128,24.626054,0.0 120.976897,24.625818,0.0 120.975853,24.624808,0.0 120.974944,24.624353,0.0 120.974834,24.624001,0.0 120.97479,24.62359,0.0 120.974046,24.622944,0.0 120.973282,24.622537,0.0 120.973048,24.621962,0.0 120.972952,24.621258,0.0 120.973013,24.62101,0.0 120.97308,24.620852,0.0 120.973264,24.620603,0.0 120.973323,24.620546,0.0 120.973466,24.62049,0.0 120.973578,24.620444,0.0 120.973646,24.620405,0.0 120.973783,24.6203,0.0 120.973861,24.620203,0.0 120.97392,24.62003,0.0 120.973936,24.619871,0.0 120.973972,24.619776,0.0 120.974017,24.619648,0.0 120.974062,24.61948,0.0 120.974139,24.619381,0.0 120.974232,24.619335,0.0 120.974338,24.619327,0.0 120.974439,24.619338,0.0 120.974586,24.619362,0.0 120.974685,24.619377,0.0 120.974809,24.619371,0.0 120.975008,24.619244,0.0 120.975109,24.619139,0.0 120.975183,24.619032,0.0 120.97524,24.618937,0.0 120.975296,24.618849,0.0 120.975379,24.618744,0.0 120.975433,24.618705,0.0 120.975528,24.618699,0.0 120.975609,24.618686,0.0 120.975756,24.618689,0.0 120.975878,24.618757,0.0 120.975959,24.618812,0.0 120.976087,24.618887,0.0 120.976189,24.618963,0.0 120.976272,24.619086,0.0 120.976322,24.61921,0.0 120.976387,24.619288,0.0 120.976516,24.619354,0.0 120.976658,24.619383,0.0 120.976795,24.619393,0.0 120.976933,24.619381,0.0 120.977052,24.619375,0.0 120.97726,24.619387,0.0 120.977393,24.619396,0.0 120.977481,24.619408,0.0 120.977571,24.619443,0.0 120.977729,24.61948,0.0 120.977835,24.619538,0.0 120.977943,24.619635,0.0 120.978026,24.619696,0.0 120.978119,24.619752,0.0 120.978212,24.619802,0.0 120.978322,24.619868,0.0 120.978388,24.619922,0.0 120.978464,24.620023,0.0 120.978662,24.620169,0.0 120.978743,24.620247,0.0 120.978813,24.620337,0.0 120.978935,24.620458,0.0 120.979086,24.620604,0.0 120.979188,24.620686,0.0 120.97939,24.620783,0.0 120.979665,24.62081,0.0 120.979907,24.620789,0.0 120.97999,24.620765,0.0 120.980059,24.620719,0.0 120.980162,24.620653,0.0 120.980316,24.620546,0.0 120.980394,24.620447,0.0 120.980426,24.620287,0.0 120.980446,24.62018,0.0 120.980498,24.620012,0.0 120.980532,24.619892,0.0 120.980577,24.619726,0.0 120.980588,24.619639,0.0 120.980636,24.619418,0.0 120.980661,24.61927,0.0 120.980692,24.619186,0.0 120.980744,24.619111,0.0 120.980789,24.619068,0.0 120.980879,24.618971,0.0 120.980933,24.618899,0.0 120.980969,24.618856,0.0 120.98105,24.618757,0.0 120.981125,24.618664,0.0 120.981206,24.618568,0.0 120.981298,24.618458,0.0 120.98137,24.618359,0.0 120.981429,24.618276,0.0 120.981469,24.618229,0.0 120.981485,24.618157,0.0 120.981449,24.618104,0.0 120.981386,24.618054,0.0 120.981249,24.617988,0.0 120.981091,24.617941,0.0 120.980944,24.617881,0.0 120.980852,24.61785,0.0 120.980723,24.61779,0.0 120.980597,24.617758,0.0 120.980514,24.617735,0.0 120.980396,24.617681,0.0 120.98029,24.617637,0.0 120.980205,24.617588,0.0 120.980119,24.617508,0.0 120.980047,24.617341,0.0 120.980063,24.61723,0.0 120.980126,24.617154,0.0 120.980192,24.617056,0.0 120.980241,24.617005,0.0 120.980302,24.616962,0.0 120.980381,24.616881,0.0 120.980453,24.616772,0.0 120.980505,24.616688,0.0 120.980552,24.616632,0.0 120.980647,24.616461,0.0 120.980726,24.616374,0.0 120.980837,24.616222,0.0 120.980866,24.616148,0.0 120.980893,24.616072,0.0 120.980925,24.615966,0.0 120.980959,24.615888,0.0 120.980997,24.615787,0.0 120.981015,24.615703,0.0 120.981053,24.615582,0.0 120.981067,24.615477,0.0 120.981105,24.615301,0.0 120.981152,24.615113,0.0 120.981189,24.614987,0.0 120.981223,24.614847,0.0 120.981277,24.614649,0.0 120.981335,24.614468,0.0 120.981385,24.614323,0.0 120.981444,24.614142,0.0 120.981489,24.614062,0.0 120.981563,24.613961,0.0 120.981642,24.613883,0.0 120.981723,24.613825,0.0 120.981942,24.613593,0.0 120.982059,24.613443,0.0 120.982233,24.613279,0.0 120.982312,24.613191,0.0 120.982422,24.613099,0.0 120.982515,24.613021,0.0 120.982601,24.612945,0.0 120.982641,24.612905,0.0 120.982717,24.612831,0.0 120.982812,24.612673,0.0 120.982843,24.612623,0.0 120.982912,24.612511,0.0 120.983002,24.612369,0.0 120.98309,24.612246,0.0 120.98314,24.612127,0.0 120.983168,24.611839,0.0 120.983122,24.611428,0.0 120.983119,24.611137,0.0 120.98319,24.610864,0.0 120.983293,24.610734,0.0 120.983356,24.610641,0.0 120.983415,24.610502,0.0 120.983476,24.610373,0.0 120.983531,24.6102,0.0 120.983557,24.610052,0.0 120.983542,24.609815,0.0 120.983534,24.609655,0.0 120.983537,24.609524,0.0 120.983549,24.609374,0.0 120.983567,24.60923,0.0 120.983598,24.609096,0.0 120.983608,24.608855,0.0 120.983615,24.608707,0.0 120.983626,24.608527,0.0 120.983666,24.608408,0.0 120.983694,24.608306,0.0 120.983717,24.60817,0.0 120.983742,24.608036,0.0 120.983765,24.607874,0.0 120.983783,24.607735,0.0 120.983824,24.607561,0.0 120.983869,24.60739,0.0 120.983882,24.607263,0.0 120.983875,24.607106,0.0 120.983872,24.606939,0.0 120.983849,24.606736,0.0 120.983857,24.606593,0.0 120.98389,24.606377,0.0 120.983882,24.606224,0.0 120.983828,24.606054,0.0 120.983762,24.605878,0.0 120.984304,24.60605,0.0 120.985926,24.606876,0.0 120.986699,24.607664,0.0 120.987887,24.608765,0.0 120.988698,24.609554,0.0 120.990533,24.611843,0.0 120.991225,24.612873,0.0 120.992086,24.613555,0.0 120.992486,24.61362,0.0 120.993161,24.613538,0.0 120.99349,24.613928,0.0 120.994087,24.615905,0.0 120.994585,24.618444,0.0 120.994896,24.620173,0.0 120.995385,24.621849,0.0 120.996994,24.624467,0.0 120.997926,24.625781,0.0 121.000025,24.628325,0.0 121.001217,24.629896,0.0 121.001741,24.631105,0.0 121.001977,24.631605,0.0 121.001988,24.631609,0.0 121.00202,24.631651,0.0 121.002067,24.631726,0.0 121.002162,24.631875,0.0 121.002217,24.631954,0.0 121.002261,24.632003,0.0 121.002278,24.632023,0.0 121.002392,24.632197,0.0 121.002641,24.632591,0.0 121.002694,24.632674,0.0 121.002915,24.633011,0.0 121.002976,24.633003,0.0 121.003484,24.633252,0.0 121.003546,24.63352,0.0 121.003624,24.633947,0.0 121.003983,24.634376,0.0 121.004499,24.634887,0.0 121.004472,24.63558,0.0 121.004366,24.636026,0.0 121.004068,24.636395,0.0 121.002468,24.636348,0.0 120.999946,24.636141,0.0 120.999132,24.636186,0.0 120.998311,24.63636,0.0 120.997512,24.636266,0.0 120.996539,24.63615,0.0 120.995063,24.636203,0.0 120.994183,24.636293,0.0 120.992352,24.636554,0.0 120.990546,24.636967,0.0 120.988573,24.637648,0.0 120.987327,24.638127,0.0 120.9872,24.638023,0.0 120.987039,24.637911,0.0 120.986696,24.637857,0.0 120.98639,24.637847,0.0 120.986074,24.637901,0.0 120.985721,24.638,0.0 120.985372,24.638142,0.0 120.984976,24.638255,0.0 120.9846,24.638358,0.0 120.984231,24.638446,0.0 120.983871,24.638544,0.0 120.983528,24.638636,0.0 120.983192,24.638737,0.0 120.983056,24.638747,0.0 120.982734,24.638759,0.0 120.982425,24.638747,0.0 120.982099,24.638683,0.0 120.981855,24.638616,0.0 120.981653,24.638532,0.0 120.98141,24.638465,0.0 120.981304,24.638444,0.0 120.981083,24.638427,0.0 120.980811,24.63846,0.0 120.980595,24.638473,0.0 120.980314,24.638494,0.0 120.980048,24.638544,0.0 120.979739,24.638599,0.0 120.979528,24.638645,0.0 120.979284,24.638679,0.0 120.979109,24.638679,0.0 120.97892,24.638691,0.0 120.978599,24.638751,0.0 120.978411,24.638776,0.0 120.978213,24.638805,0.0 120.977969,24.638805,0.0 120.977803,24.638797,0.0 120.977573,24.638792,0.0 120.977334,24.638822,0.0 120.977081,24.638822,0.0 120.977019,24.638827,0.0</coordinates></LinearRing></outerBoundaryIs></Polygon><styleUrl>#spolygon-map</styleUrl></Placemark><Placemark><Polygon><outerBoundaryIs><LinearRing><coordinates>121.008203,24.644385,0.0 121.007981,24.644404,0.0 121.007642,24.644476,0.0 121.00733,24.644425,0.0 121.006911,24.644364,0.0 121.006619,24.644291,0.0 121.006262,24.643971,0.0 121.006063,24.643667,0.0 121.005887,24.643303,0.0 121.00575,24.642964,0.0 121.005634,24.642564,0.0 121.005557,24.64226,0.0 121.005427,24.642,0.0 121.005273,24.641834,0.0 121.005178,24.641736,0.0 121.005079,24.641651,0.0 121.005049,24.641634,0.0 121.004949,24.641603,0.0 121.004872,24.641575,0.0 121.004709,24.641621,0.0 121.004484,24.641733,0.0 121.004272,24.64182,0.0 121.004049,24.641832,0.0 121.00382,24.641841,0.0 121.003644,24.641856,0.0 121.003355,24.641956,0.0 121.003139,24.642041,0.0 121.002968,24.642087,0.0 121.002667,24.642202,0.0 121.002401,24.642333,0.0 121.002053,24.642503,0.0 121.001913,24.642551,0.0 121.00188,24.642563,0.0 121.001481,24.642703,0.0 121.001142,24.6428,0.0 121.000893,24.642852,0.0 121.000591,24.642882,0.0 121.000258,24.642909,0.0 121.000013,24.642919,0.0 120.99976,24.642915,0.0 120.999199,24.642669,0.0 120.998717,24.642484,0.0 120.998325,24.642347,0.0 120.998109,24.64218,0.0 120.997986,24.641947,0.0 120.997808,24.641442,0.0 120.997601,24.641175,0.0 120.997332,24.640947,0.0 120.997101,24.640704,0.0 120.996829,24.640456,0.0 120.996299,24.640339,0.0 120.995869,24.640342,0.0 120.995385,24.64036,0.0 120.995161,24.640371,0.0 120.994879,24.640403,0.0 120.994667,24.640437,0.0 120.994493,24.640553,0.0 120.994416,24.640673,0.0 120.99434,24.640913,0.0 120.99427,24.641112,0.0 120.994106,24.641251,0.0 120.993932,24.641352,0.0 120.993799,24.641412,0.0 120.993661,24.641435,0.0 120.993484,24.641403,0.0 120.993282,24.641276,0.0 120.993079,24.641138,0.0 120.992909,24.641091,0.0 120.992744,24.64112,0.0 120.992563,24.641231,0.0 120.992272,24.641399,0.0 120.991949,24.641595,0.0 120.991636,24.641792,0.0 120.991307,24.641945,0.0 120.991001,24.642093,0.0 120.990802,24.64213,0.0 120.990587,24.642124,0.0 120.990438,24.642023,0.0 120.990268,24.64176,0.0 120.990053,24.641653,0.0 120.989686,24.641679,0.0 120.989297,24.641607,0.0 120.988999,24.641434,0.0 120.988813,24.641272,0.0 120.988685,24.641067,0.0 120.988546,24.6407,0.0 120.988397,24.640362,0.0 120.988151,24.640073,0.0 120.987925,24.639806,0.0 120.987805,24.639372,0.0 120.987703,24.638995,0.0 120.987636,24.638675,0.0 120.987569,24.638504,0.0 120.987462,24.638267,0.0 120.987344,24.63816,0.0 120.987327,24.638127,0.0 120.988573,24.637648,0.0 120.990546,24.636967,0.0 120.992352,24.636554,0.0 120.994183,24.636293,0.0 120.995063,24.636203,0.0 120.996539,24.63615,0.0 120.997512,24.636266,0.0 120.998311,24.63636,0.0 120.999132,24.636186,0.0 120.999946,24.636141,0.0 121.002468,24.636348,0.0 121.004068,24.636395,0.0 121.005586,24.636383,0.0 121.007131,24.636348,0.0 121.00839,24.636249,0.0 121.009056,24.636325,0.0 121.009689,24.636263,0.0 121.010581,24.635873,0.0 121.010802,24.635645,0.0 121.011111,24.634294,0.0 121.011115,24.633418,0.0 121.011037,24.632961,0.0 121.010541,24.632509,0.0 121.01008,24.631944,0.0 121.009638,24.631228,0.0 121.009416,24.6304,0.0 121.009249,24.629447,0.0 121.009232,24.629134,0.0 121.009649,24.628618,0.0 121.010202,24.628137,0.0 121.010366,24.627871,0.0 121.010433,24.627751,0.0 121.01048,24.627714,0.0 121.01052,24.62769,0.0 121.010546,24.62768,0.0 121.010702,24.627645,0.0 121.010738,24.627631,0.0 121.010772,24.627609,0.0 121.010784,24.627595,0.0 121.010796,24.627572,0.0 121.01081,24.627515,0.0 121.01083,24.62741,0.0 121.010842,24.627378,0.0 121.010865,24.62734,0.0 121.010889,24.627307,0.0 121.010908,24.627292,0.0 121.011193,24.627109,0.0 121.011243,24.627086,0.0 121.011464,24.627018,0.0 121.011582,24.626982,0.0 121.011619,24.626969,0.0 121.01166,24.62695,0.0 121.011768,24.626883,0.0 121.011869,24.626836,0.0 121.012009,24.626713,0.0 121.012544,24.626008,0.0 121.012708,24.625734,0.0 121.01274,24.625609,0.0 121.012878,24.624517,0.0 121.013275,24.623801,0.0 121.013427,24.6234,0.0 121.013471,24.621815,0.0 121.013515,24.620713,0.0 121.013777,24.620339,0.0 121.014395,24.619636,0.0 121.01513,24.619354,0.0 121.015713,24.619327,0.0 121.016671,24.619007,0.0 121.018814,24.618228,0.0 121.02086,24.617111,0.0 121.021554,24.617002,0.0 121.021931,24.616993,0.0 121.025011,24.616266,0.0 121.028014,24.61648,0.0 121.028889,24.617817,0.0 121.030139,24.618967,0.0 121.030822,24.619673,0.0 121.031526,24.620526,0.0 121.032769,24.621248,0.0 121.033543,24.621738,0.0 121.034163,24.622667,0.0 121.034848,24.623135,0.0 121.036047,24.623586,0.0 121.037686,24.624193,0.0 121.038788,24.625134,0.0 121.039542,24.625602,0.0 121.04033,24.626168,0.0 121.040535,24.626968,0.0 121.040484,24.627076,0.0 121.040377,24.627293,0.0 121.040307,24.62741,0.0 121.040183,24.627603,0.0 121.040077,24.62776,0.0 121.039949,24.627956,0.0 121.039831,24.628216,0.0 121.039807,24.628297,0.0 121.039696,24.628517,0.0 121.039601,24.628715,0.0 121.039522,24.628882,0.0 121.039441,24.629031,0.0 121.039342,24.629236,0.0 121.039192,24.62945,0.0 121.039053,24.629627,0.0 121.038955,24.629668,0.0 121.038845,24.629669,0.0 121.038692,24.629631,0.0 121.03847,24.629577,0.0 121.038263,24.629527,0.0 121.037972,24.629501,0.0 121.037791,24.629525,0.0 121.037584,24.629568,0.0 121.037363,24.629609,0.0 121.037193,24.629684,0.0 121.036972,24.629789,0.0 121.036773,24.629915,0.0 121.036474,24.630129,0.0 121.036319,24.630256,0.0 121.036137,24.630397,0.0 121.035972,24.630514,0.0 121.035799,24.630618,0.0 121.035549,24.630753,0.0 121.035415,24.630825,0.0 121.0353,24.630922,0.0 121.035088,24.631069,0.0 121.034908,24.631198,0.0 121.034724,24.631327,0.0 121.034551,24.631424,0.0 121.034342,24.63154,0.0 121.034153,24.631683,0.0 121.033968,24.631799,0.0 121.033718,24.631934,0.0 121.03356,24.632012,0.0 121.033308,24.632111,0.0 121.033146,24.632117,0.0 121.032992,24.632137,0.0 121.03277,24.632161,0.0 121.032537,24.632206,0.0 121.032385,24.632233,0.0 121.032292,24.632274,0.0 121.032173,24.632325,0.0 121.032002,24.632402,0.0 121.031844,24.632462,0.0 121.031678,24.632524,0.0 121.031494,24.632568,0.0 121.031291,24.63258,0.0 121.031098,24.632529,0.0 121.030855,24.632466,0.0 121.030558,24.632406,0.0 121.030354,24.632428,0.0 121.030181,24.632464,0.0 121.030051,24.63253,0.0 121.029911,24.632594,0.0 121.029702,24.632711,0.0 121.02955,24.632767,0.0 121.029433,24.632829,0.0 121.029325,24.63293,0.0 121.02914,24.633099,0.0 121.029088,24.633156,0.0 121.029019,24.633223,0.0 121.028766,24.633464,0.0 121.028679,24.633582,0.0 121.028527,24.633742,0.0 121.028406,24.633899,0.0 121.028321,24.634002,0.0 121.028268,24.634061,0.0 121.028147,24.634201,0.0 121.027997,24.634346,0.0 121.027851,24.634398,0.0 121.027753,24.634447,0.0 121.027676,24.634567,0.0 121.02756,24.634666,0.0 121.027383,24.634805,0.0 121.027217,24.634933,0.0 121.027117,24.635052,0.0 121.027077,24.635121,0.0 121.027028,24.635213,0.0 121.026975,24.635329,0.0 121.026902,24.635408,0.0 121.026747,24.635477,0.0 121.026553,24.635511,0.0 121.026375,24.635535,0.0 121.026226,24.635602,0.0 121.026042,24.635777,0.0 121.025897,24.635914,0.0 121.02578,24.636083,0.0 121.025757,24.636124,0.0 121.025723,24.63621,0.0 121.025704,24.636355,0.0 121.025672,24.636569,0.0 121.025646,24.636744,0.0 121.025567,24.636914,0.0 121.025445,24.637152,0.0 121.025389,24.637265,0.0 121.025332,24.637412,0.0 121.025205,24.637676,0.0 121.025154,24.637817,0.0 121.02518,24.637984,0.0 121.025256,24.63824,0.0 121.02535,24.638425,0.0 121.025454,24.638631,0.0 121.025477,24.63873,0.0 121.025571,24.639025,0.0 121.025673,24.639209,0.0 121.02576,24.639365,0.0 121.025878,24.639656,0.0 121.025943,24.63981,0.0 121.025976,24.640003,0.0 121.025958,24.64017,0.0 121.025912,24.640318,0.0 121.025816,24.640543,0.0 121.025722,24.640732,0.0 121.025633,24.640833,0.0 121.025495,24.64104,0.0 121.025438,24.641165,0.0 121.025332,24.641256,0.0 121.025096,24.641306,0.0 121.024914,24.641335,0.0 121.024785,24.641369,0.0 121.024541,24.641401,0.0 121.024417,24.641425,0.0 121.024292,24.641487,0.0 121.024023,24.641581,0.0 121.023871,24.641667,0.0 121.023789,24.641728,0.0 121.023619,24.641809,0.0 121.023502,24.64182,0.0 121.02331,24.641799,0.0 121.023032,24.641794,0.0 121.022822,24.64178,0.0 121.022716,24.641772,0.0 121.022531,24.641672,0.0 121.022369,24.641605,0.0 121.022193,24.641546,0.0 121.022076,24.641509,0.0 121.02186,24.64145,0.0 121.021706,24.641434,0.0 121.02155,24.641414,0.0 121.021136,24.641333,0.0 121.020985,24.641268,0.0 121.020744,24.641204,0.0 121.020585,24.641162,0.0 121.020466,24.641161,0.0 121.020275,24.641138,0.0 121.020061,24.641121,0.0 121.019846,24.641085,0.0 121.01954,24.641017,0.0 121.01938,24.64098,0.0 121.019238,24.640949,0.0 121.019006,24.640882,0.0 121.018897,24.640835,0.0 121.018748,24.640806,0.0 121.018473,24.64076,0.0 121.018312,24.640751,0.0 121.018073,24.640729,0.0 121.017875,24.640721,0.0 121.017602,24.640719,0.0 121.017392,24.640713,0.0 121.017205,24.640688,0.0 121.017077,24.640677,0.0 121.016865,24.640639,0.0 121.0167,24.640625,0.0 121.016524,24.640639,0.0 121.016324,24.640672,0.0 121.016231,24.640729,0.0 121.016079,24.640784,0.0 121.015842,24.640827,0.0 121.015648,24.640836,0.0 121.015409,24.640862,0.0 121.015168,24.640845,0.0 121.014998,24.640837,0.0 121.014814,24.640837,0.0 121.014599,24.64084,0.0 121.014479,24.640844,0.0 121.014276,24.640872,0.0 121.014133,24.64093,0.0 121.014026,24.641,0.0 121.013869,24.641141,0.0 121.01367,24.641346,0.0 121.013494,24.641493,0.0 121.013373,24.641581,0.0 121.013312,24.641624,0.0 121.013168,24.641718,0.0 121.013035,24.641797,0.0 121.012878,24.641892,0.0 121.012765,24.641968,0.0 121.012711,24.642009,0.0 121.012565,24.642125,0.0 121.012466,24.642168,0.0 121.012356,24.642202,0.0 121.012271,24.642232,0.0 121.012261,24.642235,0.0 121.012249,24.642238,0.0 121.012072,24.64231,0.0 121.011953,24.642413,0.0 121.011813,24.642517,0.0 121.011659,24.642673,0.0 121.011595,24.642764,0.0 121.011529,24.642842,0.0 121.011466,24.642932,0.0 121.01138,24.643058,0.0 121.011258,24.643205,0.0 121.011114,24.643353,0.0 121.010942,24.643504,0.0 121.010861,24.643565,0.0 121.010681,24.643682,0.0 121.010497,24.643794,0.0 121.010361,24.643849,0.0 121.010243,24.643898,0.0 121.010144,24.643951,0.0 121.010012,24.643981,0.0 121.00985,24.644014,0.0 121.00975,24.64404,0.0 121.009564,24.644053,0.0 121.009292,24.644096,0.0 121.009094,24.644133,0.0 121.008873,24.644179,0.0 121.008686,24.644199,0.0 121.008502,24.644231,0.0 121.00836,24.644248,0.0 121.008203,24.644324,0.0 121.008203,24.644385,0.0</coordinates></LinearRing></outerBoundaryIs></Polygon><styleUrl>#spolygon-map</styleUrl></Placemark><Placemark><Polygon><outerBoundaryIs><LinearRing><coordinates>120.949965,24.646391,0.0 120.949454,24.646434,0.0 120.949119,24.6465,0.0 120.948816,24.64658,0.0 120.948615,24.646605,0.0 120.948356,24.646564,0.0 120.948255,24.646491,0.0 120.948243,24.646349,0.0 120.948302,24.646226,0.0 120.948367,24.646138,0.0 120.948568,24.645977,0.0 120.948765,24.645736,0.0 120.948951,24.645482,0.0 120.949272,24.645148,0.0 120.949549,24.644788,0.0 120.949688,24.644604,0.0 120.949794,24.644405,0.0 120.949822,24.64416,0.0 120.949808,24.643933,0.0 120.949825,24.643733,0.0 120.949882,24.643629,0.0 120.950002,24.643481,0.0 120.950127,24.643392,0.0 120.950303,24.643211,0.0 120.95029,24.643144,0.0 120.950216,24.642921,0.0 120.950193,24.642777,0.0 120.95029,24.642625,0.0 120.950424,24.642393,0.0 120.95054,24.642203,0.0 120.950646,24.641941,0.0 120.950739,24.641764,0.0 120.950795,24.641584,0.0 120.950795,24.641474,0.0 120.950675,24.641394,0.0 120.950559,24.641352,0.0 120.950527,24.641208,0.0 120.95055,24.641061,0.0 120.950675,24.640887,0.0 120.950767,24.640769,0.0 120.950939,24.640668,0.0 120.9511,24.640613,0.0 120.951244,24.640525,0.0 120.951364,24.640491,0.0 120.951512,24.640499,0.0 120.951669,24.640423,0.0 120.951715,24.64031,0.0 120.951684,24.640016,0.0 120.951703,24.639868,0.0 120.951786,24.639674,0.0 120.951897,24.639522,0.0 120.952031,24.639336,0.0 120.95216,24.639235,0.0 120.95223,24.639201,0.0 120.952382,24.639138,0.0 120.952616,24.639094,0.0 120.952828,24.639052,0.0 120.953032,24.639081,0.0 120.953184,24.63909,0.0 120.953327,24.639035,0.0 120.95348,24.639005,0.0 120.953591,24.639043,0.0 120.953706,24.63901,0.0 120.953822,24.638913,0.0 120.954012,24.638845,0.0 120.954192,24.638811,0.0 120.954341,24.638843,0.0 120.954447,24.638906,0.0 120.954586,24.638986,0.0 120.954743,24.639046,0.0 120.954859,24.638978,0.0 120.954877,24.638864,0.0 120.95484,24.63875,0.0 120.954734,24.638518,0.0 120.954745,24.638355,0.0 120.954833,24.638097,0.0 120.954962,24.637945,0.0 120.955165,24.637907,0.0 120.955459,24.637916,0.0 120.955614,24.637874,0.0 120.955863,24.637813,0.0 120.956007,24.637756,0.0 120.956266,24.637566,0.0 120.956381,24.637283,0.0 120.956418,24.636996,0.0 120.956313,24.636744,0.0 120.956275,24.636512,0.0 120.956294,24.636413,0.0 120.956346,24.63607,0.0 120.956402,24.635606,0.0 120.956445,24.635355,0.0 120.956529,24.634858,0.0 120.956534,24.634758,0.0 120.956527,24.634668,0.0 120.956515,24.634616,0.0 120.956465,24.63451,0.0 120.956405,24.634427,0.0 120.956368,24.634352,0.0 120.956363,24.634217,0.0 120.956479,24.634078,0.0 120.956493,24.633897,0.0 120.95641,24.633741,0.0 120.95628,24.633631,0.0 120.956091,24.633395,0.0 120.955878,24.633218,0.0 120.955744,24.633201,0.0 120.955583,24.633099,0.0 120.955439,24.632825,0.0 120.955412,24.632534,0.0 120.955379,24.63223,0.0 120.955286,24.63204,0.0 120.955181,24.631817,0.0 120.955047,24.631378,0.0 120.955098,24.631234,0.0 120.955454,24.631078,0.0 120.955838,24.63096,0.0 120.956208,24.630795,0.0 120.956374,24.630618,0.0 120.956403,24.630316,0.0 120.956242,24.630008,0.0 120.956168,24.629788,0.0 120.956228,24.629636,0.0 120.956533,24.629535,0.0 120.956944,24.629442,0.0 120.957342,24.629282,0.0 120.957702,24.629261,0.0 120.958007,24.629308,0.0 120.958188,24.629343,0.0 120.95836,24.629443,0.0 120.95854,24.629465,0.0 120.95863,24.629215,0.0 120.958716,24.628883,0.0 120.958753,24.62862,0.0 120.958721,24.62852,0.0 120.958785,24.628342,0.0 120.95886,24.628112,0.0 120.958938,24.6279,0.0 120.959013,24.627805,0.0 120.959101,24.627724,0.0 120.959187,24.627712,0.0 120.959277,24.627668,0.0 120.959359,24.627477,0.0 120.9594,24.6272,0.0 120.959354,24.626828,0.0 120.959309,24.6266,0.0 120.959278,24.626265,0.0 120.959253,24.625979,0.0 120.959293,24.62577,0.0 120.959258,24.625607,0.0 120.959024,24.62543,0.0 120.95884,24.625277,0.0 120.958647,24.625179,0.0 120.958398,24.625067,0.0 120.95828,24.624905,0.0 120.958306,24.624635,0.0 120.958296,24.624393,0.0 120.958188,24.62413,0.0 120.957899,24.623905,0.0 120.957783,24.623717,0.0 120.957764,24.623601,0.0 120.957817,24.623375,0.0 120.957914,24.623303,0.0 120.958083,24.623272,0.0 120.958187,24.623237,0.0 120.95826,24.623118,0.0 120.958281,24.623014,0.0 120.95832,24.622806,0.0 120.958348,24.622724,0.0 120.95844,24.622452,0.0 120.958542,24.622215,0.0 120.958573,24.622105,0.0 120.95864,24.621862,0.0 120.958687,24.621547,0.0 120.958703,24.621437,0.0 120.95873,24.621257,0.0 120.958746,24.62112,0.0 120.958735,24.620866,0.0 120.958709,24.620703,0.0 120.958707,24.62056,0.0 120.958715,24.620462,0.0 120.958773,24.620365,0.0 120.95888,24.620284,0.0 120.95895,24.620208,0.0 120.95903,24.620094,0.0 120.95911,24.619929,0.0 120.959121,24.619771,0.0 120.95911,24.619656,0.0 120.959038,24.619458,0.0 120.958985,24.619356,0.0 120.958891,24.619292,0.0 120.9588,24.619246,0.0 120.958728,24.619187,0.0 120.958637,24.61909,0.0 120.958512,24.618975,0.0 120.958346,24.618845,0.0 120.958285,24.618762,0.0 120.958187,24.618647,0.0 120.958084,24.618574,0.0 120.958007,24.618464,0.0 120.957884,24.618347,0.0 120.957776,24.618261,0.0 120.957669,24.618198,0.0 120.957558,24.618189,0.0 120.957482,24.618195,0.0 120.957346,24.618125,0.0 120.957187,24.617868,0.0 120.957115,24.61775,0.0 120.957093,24.61768,0.0 120.957048,24.617586,0.0 120.957025,24.617494,0.0 120.957131,24.617341,0.0 120.957346,24.61713,0.0 120.957403,24.617027,0.0 120.957438,24.616921,0.0 120.957495,24.616846,0.0 120.957587,24.61691,0.0 120.957783,24.617001,0.0 120.957941,24.617074,0.0 120.958135,24.617176,0.0 120.958227,24.617223,0.0 120.958305,24.617224,0.0 120.958455,24.617179,0.0 120.958569,24.617116,0.0 120.958708,24.617032,0.0 120.958869,24.616934,0.0 120.958996,24.616873,0.0 120.959108,24.616806,0.0 120.959199,24.616757,0.0 120.959278,24.616731,0.0 120.959395,24.616702,0.0 120.959547,24.61664,0.0 120.959637,24.616622,0.0 120.959756,24.616655,0.0 120.959907,24.616714,0.0 120.960017,24.616761,0.0 120.960139,24.616785,0.0 120.960264,24.616818,0.0 120.960549,24.61683,0.0 120.960745,24.616828,0.0 120.960935,24.616863,0.0 120.961047,24.616942,0.0 120.961162,24.617061,0.0 120.961322,24.617286,0.0 120.961515,24.617487,0.0 120.961619,24.617547,0.0 120.961773,24.617636,0.0 120.961879,24.617718,0.0 120.961984,24.617783,0.0 120.962093,24.617857,0.0 120.962207,24.617919,0.0 120.962337,24.617989,0.0 120.96247,24.618072,0.0 120.96257,24.618131,0.0 120.962645,24.618212,0.0 120.962752,24.618335,0.0 120.962843,24.618436,0.0 120.962915,24.618499,0.0 120.963042,24.618615,0.0 120.963118,24.61867,0.0 120.963186,24.618726,0.0 120.963272,24.618806,0.0 120.963371,24.618916,0.0 120.96343,24.618952,0.0 120.963518,24.618992,0.0 120.963659,24.619047,0.0 120.963842,24.619118,0.0 120.963923,24.619178,0.0 120.964005,24.619297,0.0 120.964007,24.61935,0.0 120.963954,24.619392,0.0 120.963879,24.619467,0.0 120.963769,24.619583,0.0 120.963761,24.619679,0.0 120.963806,24.619773,0.0 120.963897,24.619958,0.0 120.963947,24.620049,0.0 120.963996,24.62017,0.0 120.964027,24.620284,0.0 120.964069,24.620438,0.0 120.964107,24.620568,0.0 120.964132,24.620647,0.0 120.964199,24.620746,0.0 120.964271,24.62086,0.0 120.964329,24.620949,0.0 120.964389,24.621101,0.0 120.964427,24.621223,0.0 120.964492,24.621326,0.0 120.964563,24.621385,0.0 120.964693,24.621451,0.0 120.964809,24.621484,0.0 120.964957,24.621507,0.0 120.965071,24.621529,0.0 120.965136,24.621549,0.0 120.965244,24.621587,0.0 120.965365,24.621635,0.0 120.965437,24.621672,0.0 120.965517,24.621738,0.0 120.965636,24.621829,0.0 120.965726,24.621882,0.0 120.96582,24.621903,0.0 120.965987,24.621932,0.0 120.966143,24.621942,0.0 120.966259,24.621988,0.0 120.96636,24.622069,0.0 120.966438,24.622178,0.0 120.96652,24.622266,0.0 120.966536,24.622359,0.0 120.966556,24.622481,0.0 120.966661,24.622626,0.0 120.966739,24.622691,0.0 120.966815,24.622727,0.0 120.966887,24.622745,0.0 120.967019,24.622756,0.0 120.96707,24.622776,0.0 120.96717,24.622827,0.0 120.967309,24.622882,0.0 120.967416,24.622915,0.0 120.967501,24.622976,0.0 120.967679,24.623044,0.0 120.967993,24.623103,0.0 120.968235,24.623166,0.0 120.96844,24.623178,0.0 120.968734,24.623186,0.0 120.968941,24.623109,0.0 120.969126,24.622989,0.0 120.969213,24.622922,0.0 120.969324,24.622833,0.0 120.9695,24.622733,0.0 120.969738,24.622613,0.0 120.969965,24.622579,0.0 120.970258,24.622598,0.0 120.970477,24.622613,0.0 120.970736,24.622624,0.0 120.970923,24.622569,0.0 120.971057,24.622491,0.0 120.97122,24.622339,0.0 120.971445,24.622125,0.0 120.971549,24.621962,0.0 120.971653,24.621745,0.0 120.971736,24.621591,0.0 120.971919,24.62154,0.0 120.97227,24.621549,0.0 120.972882,24.621499,0.0 120.973048,24.621962,0.0 120.973282,24.622537,0.0 120.974046,24.622944,0.0 120.97479,24.62359,0.0 120.974834,24.624001,0.0 120.974944,24.624353,0.0 120.975853,24.624808,0.0 120.976897,24.625818,0.0 120.977128,24.626054,0.0 120.977376,24.626619,0.0 120.977568,24.627784,0.0 120.977463,24.628461,0.0 120.976792,24.629099,0.0 120.975393,24.63018,0.0 120.975134,24.630638,0.0 120.974875,24.631172,0.0 120.97449,24.632302,0.0 120.974192,24.63262,0.0 120.973103,24.632982,0.0 120.972108,24.633404,0.0 120.971993,24.633743,0.0 120.971979,24.633945,0.0 120.971953,24.634339,0.0 120.971943,24.634783,0.0 120.97208,24.635105,0.0 120.972405,24.635513,0.0 120.973247,24.635689,0.0 120.973785,24.635799,0.0 120.973983,24.636706,0.0 120.974094,24.637312,0.0 120.974275,24.638001,0.0 120.974446,24.639134,0.0 120.974363,24.639155,0.0 120.973889,24.639247,0.0 120.973512,24.639306,0.0 120.973134,24.639331,0.0 120.972772,24.639361,0.0 120.972409,24.639399,0.0 120.972234,24.639408,0.0 120.972114,24.639504,0.0 120.971875,24.639748,0.0 120.971668,24.639987,0.0 120.971406,24.640176,0.0 120.971106,24.640332,0.0 120.970738,24.640445,0.0 120.970279,24.640519,0.0 120.969957,24.64059,0.0 120.969621,24.64064,0.0 120.969239,24.64067,0.0 120.968747,24.64075,0.0 120.968535,24.640793,0.0 120.968259,24.640875,0.0 120.967845,24.640955,0.0 120.967312,24.641082,0.0 120.966723,24.641225,0.0 120.966198,24.641477,0.0 120.965885,24.641628,0.0 120.965706,24.641729,0.0 120.965436,24.641835,0.0 120.96531,24.641885,0.0 120.964943,24.641978,0.0 120.964726,24.642,0.0 120.964347,24.642,0.0 120.963999,24.641983,0.0 120.963782,24.641934,0.0 120.963349,24.641895,0.0 120.963018,24.641901,0.0 120.962801,24.641948,0.0 120.962378,24.642001,0.0 120.961887,24.642141,0.0 120.961444,24.64237,0.0 120.961097,24.642528,0.0 120.960799,24.642686,0.0 120.960424,24.64287,0.0 120.960068,24.643046,0.0 120.959687,24.643269,0.0 120.95938,24.64346,0.0 120.959105,24.643628,0.0 120.95897,24.643729,0.0 120.958774,24.643883,0.0 120.958483,24.644096,0.0 120.958286,24.644219,0.0 120.95807,24.644323,0.0 120.957766,24.64445,0.0 120.957433,24.644581,0.0 120.957181,24.644766,0.0 120.956963,24.644972,0.0 120.95672,24.645131,0.0 120.956392,24.645263,0.0 120.95606,24.645471,0.0 120.955736,24.645716,0.0 120.955495,24.645929,0.0 120.955241,24.646222,0.0 120.955051,24.646365,0.0 120.954834,24.646451,0.0 120.954738,24.646477,0.0 120.95452,24.646494,0.0 120.954174,24.646496,0.0 120.953865,24.646485,0.0 120.953572,24.64647,0.0 120.953404,24.646465,0.0 120.953039,24.64645,0.0 120.952716,24.646407,0.0 120.952365,24.646368,0.0 120.952016,24.646387,0.0 120.951693,24.6464,0.0 120.951469,24.646412,0.0 120.951151,24.646359,0.0 120.950852,24.646356,0.0 120.950319,24.646382,0.0 120.949965,24.646391,0.0</coordinates></LinearRing></outerBoundaryIs></Polygon><styleUrl>#spolygon-map</styleUrl></Placemark></Document>
</kml>
