<?xml version="1.0" encoding="UTF-8"?>
<kml xmlns="http://www.opengis.net/kml/2.2">
	<Document>
		<name>苗栗縣獅潭鄉</name>
		<Style id="spolygon">
			<LabelStyle>
				<scale>0.0</scale>
			</LabelStyle>
			<LineStyle>
				<color>330030ff</color>
				<width>0</width>
			</LineStyle>
			<PolyStyle>
				<color>330030ff</color>
			</PolyStyle>
		</Style>
		<StyleMap id="spolygon-map">
			<Pair>
				<key>normal</key>
				<styleUrl>#spolygon</styleUrl>
			</Pair>
		</StyleMap>
	<Placemark><Polygon><outerBoundaryIs><LinearRing><coordinates>120.8731,24.487401,0.0 120.873071,24.487387,0.0 120.873042,24.487352,0.0 120.872903,24.487246,0.0 120.872594,24.487043,0.0 120.872064,24.486725,0.0 120.871774,24.486566,0.0 120.871591,24.486342,0.0 120.871538,24.486109,0.0 120.871477,24.485771,0.0 120.871375,24.485464,0.0 120.871265,24.485168,0.0 120.871067,24.48469,0.0 120.871009,24.484483,0.0 120.871018,24.48423,0.0 120.871208,24.483846,0.0 120.871214,24.483707,0.0 120.871088,24.483358,0.0 120.87094,24.482904,0.0 120.870929,24.482662,0.0 120.870919,24.482416,0.0 120.87073,24.482196,0.0 120.870645,24.482115,0.0 120.870587,24.482029,0.0 120.870538,24.481789,0.0 120.870512,24.481632,0.0 120.870444,24.481395,0.0 120.870348,24.481208,0.0 120.870194,24.481029,0.0 120.869966,24.480818,0.0 120.869794,24.480674,0.0 120.86974,24.480624,0.0 120.869553,24.480431,0.0 120.869508,24.480369,0.0 120.869377,24.480074,0.0 120.869258,24.479754,0.0 120.869153,24.479423,0.0 120.869093,24.479221,0.0 120.869016,24.478941,0.0 120.868929,24.478546,0.0 120.868897,24.478199,0.0 120.868804,24.477836,0.0 120.86858,24.477449,0.0 120.868372,24.477224,0.0 120.868197,24.476896,0.0 120.868072,24.476615,0.0 120.867964,24.476191,0.0 120.867848,24.475722,0.0 120.867764,24.475417,0.0 120.867644,24.475073,0.0 120.867461,24.474553,0.0 120.867283,24.474001,0.0 120.867202,24.473681,0.0 120.867053,24.473315,0.0 120.866843,24.472857,0.0 120.866754,24.472635,0.0 120.866649,24.472327,0.0 120.866598,24.472019,0.0 120.866581,24.471754,0.0 120.866573,24.471552,0.0 120.866528,24.471348,0.0 120.866427,24.471052,0.0 120.866304,24.470743,0.0 120.866224,24.470478,0.0 120.866143,24.470254,0.0 120.866071,24.469996,0.0 120.865942,24.469705,0.0 120.865938,24.469516,0.0 120.866032,24.469232,0.0 120.866139,24.469003,0.0 120.866236,24.468809,0.0 120.866281,24.46862,0.0 120.866289,24.468395,0.0 120.866294,24.468208,0.0 120.866294,24.46791,0.0 120.866363,24.467635,0.0 120.866387,24.46749,0.0 120.866461,24.467189,0.0 120.866514,24.467006,0.0 120.866504,24.46694,0.0 120.866027,24.466411,0.0 120.865569,24.465885,0.0 120.865362,24.465644,0.0 120.865093,24.465147,0.0 120.864939,24.464856,0.0 120.864884,24.464728,0.0 120.864778,24.46447,0.0 120.86469,24.464295,0.0 120.864733,24.464259,0.0 120.865088,24.464243,0.0 120.865412,24.46421,0.0 120.865541,24.464179,0.0 120.865675,24.464162,0.0 120.86599,24.464135,0.0 120.866363,24.464133,0.0 120.866725,24.464175,0.0 120.86708,24.464211,0.0 120.867448,24.464287,0.0 120.867888,24.464393,0.0 120.86808,24.464405,0.0 120.868345,24.464426,0.0 120.868708,24.464522,0.0 120.869272,24.46472,0.0 120.869745,24.464914,0.0 120.870322,24.465155,0.0 120.87098,24.465382,0.0 120.871327,24.465502,0.0 120.872034,24.465733,0.0 120.872528,24.465871,0.0 120.873207,24.466108,0.0 120.874219,24.466474,0.0 120.874783,24.466639,0.0 120.87514,24.46669,0.0 120.875595,24.466748,0.0 120.876378,24.466909,0.0 120.876755,24.466929,0.0 120.876839,24.466915,0.0 120.876939,24.466802,0.0 120.8772,24.466407,0.0 120.877372,24.466108,0.0 120.877502,24.465788,0.0 120.877679,24.465359,0.0 120.877735,24.465121,0.0 120.87774,24.464802,0.0 120.877696,24.464458,0.0 120.877476,24.463803,0.0 120.877245,24.46316,0.0 120.877089,24.462641,0.0 120.877003,24.462299,0.0 120.876904,24.461976,0.0 120.87676,24.461687,0.0 120.876588,24.4614,0.0 120.876429,24.46108,0.0 120.876291,24.460752,0.0 120.876063,24.46045,0.0 120.875987,24.46035,0.0 120.875925,24.46027,0.0 120.875544,24.459763,0.0 120.87526,24.459313,0.0 120.875064,24.458933,0.0 120.874798,24.458491,0.0 120.87466,24.45819,0.0 120.874499,24.457922,0.0 120.874341,24.45765,0.0 120.874159,24.457306,0.0 120.874345,24.457155,0.0 120.874612,24.456917,0.0 120.874881,24.4567,0.0 120.87519,24.456465,0.0 120.87536,24.456343,0.0 120.875558,24.456121,0.0 120.875723,24.455806,0.0 120.876057,24.455217,0.0 120.876376,24.45477,0.0 120.876579,24.454491,0.0 120.876705,24.454366,0.0 120.877009,24.454168,0.0 120.877327,24.454033,0.0 120.877632,24.453932,0.0 120.877826,24.453858,0.0 120.878132,24.453679,0.0 120.878408,24.453485,0.0 120.878706,24.45324,0.0 120.878995,24.453028,0.0 120.879372,24.452692,0.0 120.879878,24.452211,0.0 120.880419,24.451747,0.0 120.880844,24.451349,0.0 120.881224,24.450996,0.0 120.881511,24.450765,0.0 120.881806,24.450558,0.0 120.882257,24.450235,0.0 120.882557,24.450057,0.0 120.882872,24.449853,0.0 120.883103,24.449687,0.0 120.883356,24.449503,0.0 120.883496,24.449299,0.0 120.883483,24.448934,0.0 120.883423,24.448791,0.0 120.883327,24.448618,0.0 120.883223,24.448312,0.0 120.883461,24.448017,0.0 120.884958,24.44683,0.0 120.885965,24.446138,0.0 120.886654,24.445791,0.0 120.887363,24.445517,0.0 120.888341,24.44519,0.0 120.889107,24.444978,0.0 120.889668,24.444861,0.0 120.890311,24.444774,0.0 120.891102,24.444663,0.0 120.89169,24.444588,0.0 120.892341,24.444551,0.0 120.892747,24.444534,0.0 120.893134,24.444561,0.0 120.893924,24.444677,0.0 120.894466,24.444758,0.0 120.894888,24.444833,0.0 120.895294,24.444915,0.0 120.895689,24.444978,0.0 120.896127,24.445023,0.0 120.896536,24.445016,0.0 120.896955,24.444986,0.0 120.897356,24.444964,0.0 120.89777,24.444967,0.0 120.898157,24.444989,0.0 120.898569,24.445039,0.0 120.898936,24.445125,0.0 120.899328,24.44524,0.0 120.899693,24.445363,0.0 120.900283,24.445603,0.0 120.900684,24.445783,0.0 120.901399,24.446099,0.0 120.90177,24.446246,0.0 120.902156,24.446362,0.0 120.902548,24.446459,0.0 120.902717,24.446532,0.0 120.903071,24.446677,0.0 120.90345,24.446836,0.0 120.904013,24.44707,0.0 120.904164,24.447135,0.0 120.904517,24.447295,0.0 120.904877,24.447457,0.0 120.90524,24.447611,0.0 120.905616,24.447769,0.0 120.905951,24.447947,0.0 120.906265,24.448178,0.0 120.906401,24.448286,0.0 120.906753,24.448609,0.0 120.90699,24.44888,0.0 120.907355,24.449236,0.0 120.907577,24.449469,0.0 120.907932,24.449829,0.0 120.90838,24.450172,0.0 120.908705,24.450354,0.0 120.909049,24.450579,0.0 120.909362,24.450824,0.0 120.909644,24.451085,0.0 120.909931,24.45136,0.0 120.910208,24.451642,0.0 120.910481,24.451972,0.0 120.910706,24.452284,0.0 120.911029,24.45274,0.0 120.911183,24.453294,0.0 120.911216,24.453503,0.0 120.91122,24.454157,0.0 120.911182,24.454935,0.0 120.911168,24.455333,0.0 120.911176,24.455712,0.0 120.911205,24.455981,0.0 120.911222,24.456267,0.0 120.911257,24.456646,0.0 120.911289,24.456864,0.0 120.911457,24.457625,0.0 120.911589,24.458014,0.0 120.911847,24.458733,0.0 120.91199,24.459095,0.0 120.912153,24.459444,0.0 120.91235,24.459779,0.0 120.912529,24.460109,0.0 120.912646,24.460386,0.0 120.912754,24.460621,0.0 120.912949,24.461018,0.0 120.913145,24.461392,0.0 120.913339,24.461742,0.0 120.913494,24.462114,0.0 120.913711,24.462435,0.0 120.913952,24.462733,0.0 120.914277,24.46305,0.0 120.914581,24.46334,0.0 120.914852,24.463632,0.0 120.915117,24.46392,0.0 120.915392,24.464237,0.0 120.915687,24.464502,0.0 120.915953,24.46475,0.0 120.916228,24.465,0.0 120.916428,24.465208,0.0 120.916498,24.465375,0.0 120.916509,24.465475,0.0 120.916479,24.465773,0.0 120.916381,24.465996,0.0 120.916159,24.466338,0.0 120.91589,24.466631,0.0 120.915751,24.466761,0.0 120.915572,24.466835,0.0 120.915375,24.466931,0.0 120.915248,24.467001,0.0 120.915002,24.467186,0.0 120.914899,24.467411,0.0 120.914881,24.467539,0.0 120.914879,24.46764,0.0 120.914905,24.46768,0.0 120.915004,24.467688,0.0 120.91517,24.467633,0.0 120.915251,24.467615,0.0 120.915313,24.46762,0.0 120.915494,24.467687,0.0 120.915594,24.467776,0.0 120.915757,24.467925,0.0 120.915936,24.468006,0.0 120.916078,24.468195,0.0 120.916093,24.468309,0.0 120.916122,24.468416,0.0 120.916256,24.468774,0.0 120.916363,24.469126,0.0 120.916462,24.469546,0.0 120.916481,24.469749,0.0 120.916448,24.470108,0.0 120.916424,24.47032,0.0 120.916475,24.470574,0.0 120.916603,24.470838,0.0 120.916629,24.470931,0.0 120.916659,24.471307,0.0 120.916642,24.471591,0.0 120.916645,24.471897,0.0 120.916677,24.472424,0.0 120.916618,24.472726,0.0 120.916487,24.473073,0.0 120.916396,24.47318,0.0 120.916343,24.473381,0.0 120.916419,24.473607,0.0 120.916473,24.473829,0.0 120.91652,24.473952,0.0 120.916582,24.474021,0.0 120.916683,24.474126,0.0 120.916861,24.474437,0.0 120.916969,24.47476,0.0 120.917076,24.475085,0.0 120.917274,24.475411,0.0 120.91738,24.475556,0.0 120.917593,24.475737,0.0 120.917866,24.475853,0.0 120.918211,24.475969,0.0 120.917655,24.47627,0.0 120.916835,24.476372,0.0 120.915551,24.476508,0.0 120.913961,24.476507,0.0 120.912383,24.476302,0.0 120.910305,24.476244,0.0 120.909473,24.476163,0.0 120.907944,24.47584,0.0 120.907427,24.47524,0.0 120.907431,24.474911,0.0 120.907163,24.474397,0.0 120.906914,24.473861,0.0 120.906883,24.473191,0.0 120.906896,24.47244,0.0 120.906946,24.471906,0.0 120.906977,24.471591,0.0 120.906862,24.471269,0.0 120.906621,24.47109,0.0 120.906285,24.471057,0.0 120.905921,24.471087,0.0 120.904899,24.471239,0.0 120.903907,24.47155,0.0 120.903016,24.471711,0.0 120.902281,24.471644,0.0 120.901552,24.471434,0.0 120.900863,24.471566,0.0 120.899689,24.47191,0.0 120.898623,24.472119,0.0 120.897735,24.472178,0.0 120.896821,24.472462,0.0 120.896009,24.472682,0.0 120.895438,24.472731,0.0 120.89495,24.472973,0.0 120.894471,24.473158,0.0 120.894111,24.473154,0.0 120.893705,24.473021,0.0 120.89293,24.472711,0.0 120.892045,24.472574,0.0 120.890948,24.472469,0.0 120.890094,24.472535,0.0 120.889093,24.472836,0.0 120.88874,24.47298,0.0 120.888058,24.473291,0.0 120.88769,24.473476,0.0 120.88726,24.473802,0.0 120.887187,24.473891,0.0 120.886957,24.47422,0.0 120.886992,24.47444,0.0 120.887068,24.474824,0.0 120.887033,24.475547,0.0 120.887012,24.476532,0.0 120.887035,24.477188,0.0 120.886919,24.477475,0.0 120.886486,24.477725,0.0 120.885942,24.477872,0.0 120.885373,24.477917,0.0 120.884895,24.477864,0.0 120.884205,24.477814,0.0 120.883503,24.477909,0.0 120.882396,24.478115,0.0 120.881901,24.478367,0.0 120.881188,24.478857,0.0 120.880554,24.479149,0.0 120.880014,24.479352,0.0 120.879784,24.479505,0.0 120.879305,24.479964,0.0 120.879132,24.480249,0.0 120.879059,24.480616,0.0 120.879031,24.481185,0.0 120.878935,24.481528,0.0 120.878778,24.481833,0.0 120.878647,24.482089,0.0 120.878593,24.482301,0.0 120.878406,24.483147,0.0 120.878211,24.484105,0.0 120.878009,24.484495,0.0 120.877249,24.485125,0.0 120.876758,24.485619,0.0 120.876275,24.485924,0.0 120.87568,24.486126,0.0 120.874809,24.486445,0.0 120.874331,24.486753,0.0 120.873936,24.486972,0.0 120.873483,24.487116,0.0 120.873172,24.487339,0.0 120.8731,24.487401,0.0</coordinates></LinearRing></outerBoundaryIs></Polygon><styleUrl>#spolygon-map</styleUrl></Placemark><Placemark><Polygon><outerBoundaryIs><LinearRing><coordinates>120.893433,24.48984,0.0 120.893257,24.490242,0.0 120.892962,24.490732,0.0 120.892659,24.490872,0.0 120.892081,24.490915,0.0 120.891389,24.490969,0.0 120.891002,24.491019,0.0 120.890456,24.491198,0.0 120.889768,24.491537,0.0 120.889199,24.491767,0.0 120.888095,24.492307,0.0 120.887358,24.49264,0.0 120.886956,24.492818,0.0 120.886676,24.493038,0.0 120.886534,24.493263,0.0 120.886476,24.493716,0.0 120.886436,24.494183,0.0 120.886225,24.494456,0.0 120.885792,24.49467,0.0 120.884451,24.494947,0.0 120.883043,24.495224,0.0 120.882444,24.495484,0.0 120.881953,24.49587,0.0 120.881767,24.495968,0.0 120.881433,24.495833,0.0 120.881158,24.495887,0.0 120.880608,24.496667,0.0 120.880007,24.498062,0.0 120.879545,24.498546,0.0 120.878805,24.498871,0.0 120.878697,24.498725,0.0 120.878424,24.49862,0.0 120.878322,24.498567,0.0 120.878093,24.498404,0.0 120.877903,24.498242,0.0 120.877644,24.497997,0.0 120.877358,24.497708,0.0 120.877199,24.49749,0.0 120.876951,24.497373,0.0 120.876589,24.497231,0.0 120.87649,24.497167,0.0 120.876324,24.497015,0.0 120.876158,24.496738,0.0 120.876082,24.49662,0.0 120.875989,24.496433,0.0 120.875933,24.496239,0.0 120.875928,24.495677,0.0 120.875946,24.495386,0.0 120.876031,24.495231,0.0 120.87606,24.495149,0.0 120.87606,24.494994,0.0 120.875969,24.494878,0.0 120.875858,24.494797,0.0 120.875771,24.494642,0.0 120.875728,24.494356,0.0 120.875664,24.494042,0.0 120.875532,24.493711,0.0 120.875375,24.493407,0.0 120.87525,24.492953,0.0 120.875251,24.492618,0.0 120.875266,24.492546,0.0 120.875359,24.492322,0.0 120.875499,24.492146,0.0 120.875529,24.492007,0.0 120.875491,24.491863,0.0 120.875248,24.491674,0.0 120.874976,24.491562,0.0 120.874425,24.491359,0.0 120.874122,24.491263,0.0 120.874037,24.491233,0.0 120.873755,24.491145,0.0 120.873569,24.491116,0.0 120.873377,24.491091,0.0 120.873322,24.491074,0.0 120.873272,24.491053,0.0 120.873196,24.490993,0.0 120.872932,24.490726,0.0 120.872856,24.490669,0.0 120.872823,24.490469,0.0 120.872717,24.490169,0.0 120.872669,24.490037,0.0 120.872617,24.489865,0.0 120.872571,24.48973,0.0 120.872512,24.48955,0.0 120.872451,24.489427,0.0 120.87232,24.489289,0.0 120.872222,24.489157,0.0 120.872486,24.488957,0.0 120.872602,24.48877,0.0 120.872721,24.488527,0.0 120.872852,24.488114,0.0 120.872914,24.48792,0.0 120.872989,24.487757,0.0 120.873065,24.487456,0.0 120.8731,24.487401,0.0 120.873337,24.487214,0.0 120.873663,24.487048,0.0 120.874039,24.486917,0.0 120.874619,24.486551,0.0 120.875171,24.486283,0.0 120.876023,24.486014,0.0 120.876592,24.48576,0.0 120.877067,24.485306,0.0 120.877676,24.484771,0.0 120.87811,24.484374,0.0 120.87832,24.483458,0.0 120.878507,24.482693,0.0 120.878638,24.482125,0.0 120.878748,24.48189,0.0 120.878834,24.481724,0.0 120.879,24.481328,0.0 120.879047,24.480978,0.0 120.879082,24.480417,0.0 120.879186,24.480118,0.0 120.879412,24.479862,0.0 120.87998,24.479374,0.0 120.880194,24.479254,0.0 120.88083,24.479048,0.0 120.881506,24.478665,0.0 120.882147,24.478209,0.0 120.882901,24.478007,0.0 120.883964,24.477825,0.0 120.884512,24.477818,0.0 120.885109,24.477903,0.0 120.885682,24.477906,0.0 120.886283,24.477805,0.0 120.886659,24.477622,0.0 120.886992,24.477373,0.0 120.887047,24.476847,0.0 120.887017,24.475869,0.0 120.88706,24.475055,0.0 120.887049,24.474641,0.0 120.886957,24.474325,0.0 120.886999,24.474129,0.0 120.887199,24.473876,0.0 120.887502,24.473616,0.0 120.887961,24.47334,0.0 120.888656,24.473014,0.0 120.888877,24.472924,0.0 120.889622,24.472647,0.0 120.890431,24.472486,0.0 120.891396,24.47249,0.0 120.892593,24.472659,0.0 120.893343,24.472866,0.0 120.893973,24.473116,0.0 120.89426,24.473162,0.0 120.894674,24.473092,0.0 120.89525,24.472787,0.0 120.895717,24.472717,0.0 120.896335,24.472601,0.0 120.897388,24.472259,0.0 120.898049,24.472144,0.0 120.899191,24.472021,0.0 120.900272,24.471735,0.0 120.901341,24.471447,0.0 120.901874,24.47149,0.0 120.90253,24.471694,0.0 120.903434,24.471673,0.0 120.90439,24.471386,0.0 120.905452,24.471137,0.0 120.906072,24.471071,0.0 120.906411,24.471048,0.0 120.906751,24.471174,0.0 120.906962,24.47143,0.0 120.906963,24.471732,0.0 120.906938,24.47199,0.0 120.906884,24.472997,0.0 120.90688,24.473619,0.0 120.907064,24.474222,0.0 120.907366,24.474718,0.0 120.907454,24.475086,0.0 120.907312,24.475716,0.0 120.907269,24.476041,0.0 120.907288,24.476776,0.0 120.907498,24.477213,0.0 120.907839,24.477612,0.0 120.90811,24.478089,0.0 120.908259,24.478549,0.0 120.908244,24.478966,0.0 120.908021,24.479606,0.0 120.907488,24.480363,0.0 120.906997,24.481174,0.0 120.906702,24.481675,0.0 120.906475,24.482008,0.0 120.906328,24.48217,0.0 120.906252,24.482253,0.0 120.906022,24.482551,0.0 120.905816,24.4826,0.0 120.905538,24.482536,0.0 120.905041,24.482242,0.0 120.904399,24.481804,0.0 120.90402,24.481627,0.0 120.903452,24.481365,0.0 120.903152,24.481296,0.0 120.902864,24.481305,0.0 120.90257,24.481384,0.0 120.902163,24.48163,0.0 120.901191,24.482264,0.0 120.900838,24.482567,0.0 120.900411,24.483138,0.0 120.899892,24.483798,0.0 120.89924,24.484342,0.0 120.898783,24.484649,0.0 120.898717,24.484754,0.0 120.898628,24.48492,0.0 120.898467,24.485182,0.0 120.898122,24.485458,0.0 120.898001,24.485659,0.0 120.898044,24.486484,0.0 120.898043,24.487197,0.0 120.897943,24.487628,0.0 120.897628,24.48799,0.0 120.897193,24.48812,0.0 120.896446,24.488152,0.0 120.895437,24.48825,0.0 120.89508,24.488388,0.0 120.894959,24.48862,0.0 120.894682,24.488956,0.0 120.894271,24.489221,0.0 120.893802,24.48946,0.0 120.893554,24.489662,0.0 120.893433,24.48984,0.0</coordinates></LinearRing></outerBoundaryIs></Polygon><styleUrl>#spolygon-map</styleUrl></Placemark><Placemark><Polygon><outerBoundaryIs><LinearRing><coordinates>120.891633,24.510382,0.0 120.891305,24.510392,0.0 120.891147,24.510388,0.0 120.891022,24.510418,0.0 120.890871,24.510469,0.0 120.890716,24.51064,0.0 120.890583,24.510819,0.0 120.890399,24.510923,0.0 120.890229,24.510946,0.0 120.890078,24.510939,0.0 120.889943,24.510896,0.0 120.889796,24.510836,0.0 120.889697,24.510809,0.0 120.889501,24.510812,0.0 120.889303,24.510815,0.0 120.889107,24.510906,0.0 120.888879,24.511064,0.0 120.888662,24.511219,0.0 120.888514,24.511346,0.0 120.888291,24.511456,0.0 120.88803,24.511479,0.0 120.887838,24.511536,0.0 120.887651,24.511657,0.0 120.887444,24.511822,0.0 120.887319,24.511906,0.0 120.887157,24.511946,0.0 120.887028,24.511892,0.0 120.886903,24.511859,0.0 120.886682,24.511808,0.0 120.886564,24.51171,0.0 120.886498,24.511623,0.0 120.886344,24.511488,0.0 120.886116,24.511225,0.0 120.885917,24.510999,0.0 120.885753,24.510822,0.0 120.88565,24.510687,0.0 120.885525,24.510593,0.0 120.885389,24.510509,0.0 120.885286,24.510398,0.0 120.885117,24.510202,0.0 120.884973,24.510061,0.0 120.884881,24.509916,0.0 120.884701,24.50965,0.0 120.884612,24.509506,0.0 120.884571,24.509364,0.0 120.884535,24.509226,0.0 120.884502,24.509051,0.0 120.88445,24.508842,0.0 120.884377,24.508691,0.0 120.88427,24.508647,0.0 120.884009,24.508778,0.0 120.883762,24.508906,0.0 120.883486,24.509044,0.0 120.883349,24.509121,0.0 120.883108,24.508942,0.0 120.882982,24.508802,0.0 120.882835,24.508692,0.0 120.882673,24.508624,0.0 120.882572,24.50852,0.0 120.882491,24.508407,0.0 120.882365,24.508267,0.0 120.882258,24.508172,0.0 120.882199,24.508112,0.0 120.882105,24.507946,0.0 120.882017,24.507668,0.0 120.881945,24.507463,0.0 120.88193,24.507403,0.0 120.881819,24.507198,0.0 120.881628,24.507014,0.0 120.881413,24.506895,0.0 120.881272,24.506777,0.0 120.881133,24.506646,0.0 120.880902,24.506414,0.0 120.880708,24.506245,0.0 120.880458,24.505953,0.0 120.880214,24.505724,0.0 120.880093,24.505594,0.0 120.879895,24.505348,0.0 120.879769,24.505145,0.0 120.879658,24.505041,0.0 120.879463,24.504866,0.0 120.87922,24.504676,0.0 120.879084,24.50453,0.0 120.878967,24.504372,0.0 120.878954,24.504236,0.0 120.878954,24.504028,0.0 120.87901,24.503788,0.0 120.879136,24.50366,0.0 120.879283,24.503485,0.0 120.879432,24.503328,0.0 120.879605,24.50312,0.0 120.879716,24.502913,0.0 120.879902,24.502607,0.0 120.8801,24.502325,0.0 120.880257,24.502185,0.0 120.880214,24.502108,0.0 120.880094,24.50202,0.0 120.879905,24.501803,0.0 120.879727,24.501601,0.0 120.8796,24.501402,0.0 120.879441,24.501205,0.0 120.879351,24.501078,0.0 120.879266,24.500912,0.0 120.879129,24.500692,0.0 120.879039,24.500532,0.0 120.87886,24.50022,0.0 120.878805,24.500053,0.0 120.878763,24.499863,0.0 120.878753,24.499664,0.0 120.878754,24.499348,0.0 120.878799,24.49897,0.0 120.879261,24.498698,0.0 120.87982,24.49834,0.0 120.880184,24.497739,0.0 120.880913,24.496156,0.0 120.881286,24.495833,0.0 120.88159,24.495941,0.0 120.881835,24.495968,0.0 120.88216,24.495654,0.0 120.882749,24.495341,0.0 120.883517,24.49511,0.0 120.884947,24.494875,0.0 120.886007,24.494575,0.0 120.886356,24.49433,0.0 120.886476,24.493971,0.0 120.886488,24.493495,0.0 120.886603,24.493129,0.0 120.886772,24.49294,0.0 120.887178,24.492695,0.0 120.887681,24.49251,0.0 120.888709,24.491986,0.0 120.889577,24.491612,0.0 120.890035,24.491403,0.0 120.890734,24.491099,0.0 120.89122,24.490974,0.0 120.891656,24.49095,0.0 120.892424,24.490903,0.0 120.892836,24.490819,0.0 120.893102,24.490539,0.0 120.893347,24.490008,0.0 120.893443,24.489819,0.0 120.893664,24.489567,0.0 120.893954,24.489379,0.0 120.894617,24.489035,0.0 120.894789,24.488815,0.0 120.895037,24.488502,0.0 120.895196,24.488317,0.0 120.895903,24.488207,0.0 120.896887,24.488132,0.0 120.897464,24.488065,0.0 120.897831,24.487813,0.0 120.898025,24.487376,0.0 120.898065,24.486787,0.0 120.897979,24.485915,0.0 120.898044,24.485537,0.0 120.898299,24.485324,0.0 120.898579,24.485029,0.0 120.898644,24.48489,0.0 120.898727,24.484735,0.0 120.898942,24.484535,0.0 120.899534,24.484124,0.0 120.900125,24.483522,0.0 120.900609,24.482831,0.0 120.900988,24.482414,0.0 120.901726,24.481908,0.0 120.902371,24.481504,0.0 120.902681,24.481349,0.0 120.903012,24.481293,0.0 120.903309,24.481318,0.0 120.903718,24.481473,0.0 120.904184,24.481713,0.0 120.9046,24.481922,0.0 120.905301,24.482424,0.0 120.905697,24.482589,0.0 120.90593,24.482582,0.0 120.906095,24.482488,0.0 120.906305,24.482195,0.0 120.906329,24.482168,0.0 120.906492,24.481982,0.0 120.906813,24.481513,0.0 120.907258,24.480707,0.0 120.907803,24.47991,0.0 120.908194,24.479225,0.0 120.908263,24.478781,0.0 120.908206,24.478392,0.0 120.908007,24.477865,0.0 120.907667,24.477409,0.0 120.907353,24.476952,0.0 120.907254,24.476468,0.0 120.907296,24.475779,0.0 120.907944,24.47584,0.0 120.909473,24.476163,0.0 120.910305,24.476244,0.0 120.912383,24.476302,0.0 120.913961,24.476507,0.0 120.915551,24.476508,0.0 120.916835,24.476372,0.0 120.917655,24.47627,0.0 120.918416,24.476097,0.0 120.918712,24.476318,0.0 120.919027,24.476563,0.0 120.919212,24.476781,0.0 120.919336,24.476927,0.0 120.919565,24.477328,0.0 120.919628,24.477578,0.0 120.919693,24.477799,0.0 120.919783,24.477996,0.0 120.919932,24.478262,0.0 120.920013,24.478364,0.0 120.920158,24.478533,0.0 120.920356,24.478811,0.0 120.920553,24.478976,0.0 120.92091,24.479172,0.0 120.92111,24.479317,0.0 120.921255,24.479562,0.0 120.921403,24.479881,0.0 120.9215,24.480185,0.0 120.921565,24.480354,0.0 120.921721,24.480641,0.0 120.921838,24.480803,0.0 120.921916,24.480967,0.0 120.921877,24.481138,0.0 120.921755,24.481319,0.0 120.92164,24.48138,0.0 120.921424,24.481656,0.0 120.921292,24.481839,0.0 120.921056,24.482078,0.0 120.920851,24.482226,0.0 120.920692,24.482311,0.0 120.920554,24.482463,0.0 120.920513,24.482601,0.0 120.92051,24.482725,0.0 120.920538,24.48286,0.0 120.920507,24.483316,0.0 120.920519,24.483592,0.0 120.920584,24.483843,0.0 120.920662,24.484048,0.0 120.920745,24.484193,0.0 120.920789,24.484352,0.0 120.920784,24.484511,0.0 120.920737,24.484694,0.0 120.920643,24.484924,0.0 120.92061,24.485038,0.0 120.920573,24.485119,0.0 120.920544,24.485378,0.0 120.920521,24.48571,0.0 120.920502,24.486027,0.0 120.920471,24.486262,0.0 120.920431,24.486606,0.0 120.920421,24.486734,0.0 120.920379,24.486941,0.0 120.920319,24.487072,0.0 120.920212,24.48729,0.0 120.920195,24.487329,0.0 120.920111,24.487499,0.0 120.919939,24.487689,0.0 120.919869,24.48777,0.0 120.919825,24.487898,0.0 120.919778,24.488046,0.0 120.919655,24.488357,0.0 120.919558,24.488587,0.0 120.919517,24.488744,0.0 120.919509,24.488925,0.0 120.919568,24.489174,0.0 120.919597,24.489259,0.0 120.919618,24.489476,0.0 120.919565,24.489597,0.0 120.919456,24.489794,0.0 120.919315,24.490045,0.0 120.919224,24.490181,0.0 120.919208,24.490285,0.0 120.919268,24.490423,0.0 120.919421,24.49064,0.0 120.91949,24.490729,0.0 120.91956,24.490936,0.0 120.919578,24.491012,0.0 120.919672,24.491207,0.0 120.919791,24.491381,0.0 120.919864,24.491563,0.0 120.919921,24.491722,0.0 120.919952,24.49191,0.0 120.919957,24.492122,0.0 120.919897,24.492366,0.0 120.919905,24.492473,0.0 120.919975,24.492668,0.0 120.920133,24.49277,0.0 120.920294,24.492987,0.0 120.920341,24.493187,0.0 120.920429,24.493339,0.0 120.920526,24.49344,0.0 120.920651,24.493623,0.0 120.920812,24.493939,0.0 120.920908,24.494188,0.0 120.921001,24.494621,0.0 120.921048,24.49498,0.0 120.921124,24.495343,0.0 120.921176,24.495512,0.0 120.921254,24.495555,0.0 120.921503,24.495524,0.0 120.921797,24.495498,0.0 120.921931,24.49553,0.0 120.922069,24.495608,0.0 120.922225,24.49563,0.0 120.922503,24.495577,0.0 120.922612,24.495591,0.0 120.92286,24.495688,0.0 120.922973,24.495723,0.0 120.923036,24.495718,0.0 120.923119,24.49572,0.0 120.923195,24.49577,0.0 120.923234,24.495827,0.0 120.923265,24.4959,0.0 120.923625,24.496054,0.0 120.923935,24.4961,0.0 120.924392,24.496093,0.0 120.92473,24.496024,0.0 120.924784,24.496024,0.0 120.92494,24.496067,0.0 120.925039,24.496155,0.0 120.92519,24.496174,0.0 120.92533,24.496157,0.0 120.925702,24.496219,0.0 120.925884,24.496231,0.0 120.926154,24.496305,0.0 120.926531,24.496313,0.0 120.926676,24.496304,0.0 120.926822,24.496244,0.0 120.926913,24.496239,0.0 120.926875,24.496278,0.0 120.925846,24.496918,0.0 120.925106,24.497885,0.0 120.92474,24.49839,0.0 120.923924,24.499156,0.0 120.923029,24.499768,0.0 120.921662,24.500507,0.0 120.920091,24.500988,0.0 120.918886,24.501112,0.0 120.916286,24.501091,0.0 120.914798,24.50111,0.0 120.91373,24.501482,0.0 120.911836,24.502377,0.0 120.909788,24.503191,0.0 120.908716,24.503455,0.0 120.907468,24.5034,0.0 120.906795,24.503229,0.0 120.906378,24.502919,0.0 120.905968,24.502964,0.0 120.905332,24.503241,0.0 120.904431,24.503508,0.0 120.903495,24.503563,0.0 120.902816,24.503923,0.0 120.902439,24.504608,0.0 120.902296,24.505197,0.0 120.902486,24.506176,0.0 120.902486,24.506721,0.0 120.902108,24.507081,0.0 120.901666,24.507682,0.0 120.900916,24.50863,0.0 120.900434,24.508957,0.0 120.899033,24.509084,0.0 120.897688,24.509175,0.0 120.895479,24.509488,0.0 120.893689,24.509758,0.0 120.892682,24.50998,0.0 120.89182,24.510296,0.0 120.891633,24.510382,0.0</coordinates></LinearRing></outerBoundaryIs></Polygon><styleUrl>#spolygon-map</styleUrl></Placemark><Placemark><Polygon><outerBoundaryIs><LinearRing><coordinates>120.916449,24.535467,0.0 120.916126,24.535614,0.0 120.915271,24.536864,0.0 120.914687,24.537512,0.0 120.913905,24.537842,0.0 120.912791,24.538062,0.0 120.911248,24.538623,0.0 120.910314,24.538666,0.0 120.909045,24.538342,0.0 120.908063,24.5379,0.0 120.90783,24.537755,0.0 120.907785,24.537484,0.0 120.907752,24.537156,0.0 120.907677,24.53692,0.0 120.907468,24.536684,0.0 120.907262,24.536518,0.0 120.90709,24.536248,0.0 120.906918,24.535964,0.0 120.906798,24.535808,0.0 120.906791,24.535517,0.0 120.90684,24.535196,0.0 120.906915,24.534852,0.0 120.906967,24.534514,0.0 120.906994,24.534259,0.0 120.906957,24.534051,0.0 120.906934,24.5339,0.0 120.906912,24.53365,0.0 120.906777,24.533401,0.0 120.90662,24.53313,0.0 120.906531,24.532943,0.0 120.906381,24.532611,0.0 120.906251,24.53242,0.0 120.906045,24.532084,0.0 120.905937,24.531845,0.0 120.905854,24.531634,0.0 120.905787,24.531446,0.0 120.905723,24.531237,0.0 120.905634,24.530991,0.0 120.905507,24.5307,0.0 120.905264,24.530361,0.0 120.905053,24.530109,0.0 120.904926,24.529853,0.0 120.904754,24.529548,0.0 120.904556,24.529213,0.0 120.904402,24.528981,0.0 120.904227,24.528707,0.0 120.904002,24.528457,0.0 120.9038,24.528214,0.0 120.903647,24.527989,0.0 120.903494,24.527752,0.0 120.903408,24.527537,0.0 120.903347,24.527356,0.0 120.903269,24.527025,0.0 120.903202,24.526782,0.0 120.903127,24.526532,0.0 120.902963,24.526268,0.0 120.902768,24.526022,0.0 120.902633,24.525818,0.0 120.902442,24.525595,0.0 120.902285,24.52553,0.0 120.902001,24.525523,0.0 120.901889,24.525513,0.0 120.901769,24.525472,0.0 120.901477,24.52529,0.0 120.901279,24.525201,0.0 120.901128,24.525124,0.0 120.901042,24.525039,0.0 120.900967,24.524967,0.0 120.900739,24.524898,0.0 120.900627,24.524898,0.0 120.900398,24.524994,0.0 120.900196,24.525041,0.0 120.899931,24.525,0.0 120.899732,24.524935,0.0 120.899631,24.524853,0.0 120.899523,24.524661,0.0 120.899376,24.52451,0.0 120.89923,24.52438,0.0 120.899077,24.524257,0.0 120.899066,24.52411,0.0 120.899091,24.523936,0.0 120.899155,24.523719,0.0 120.899272,24.523461,0.0 120.899374,24.523302,0.0 120.899471,24.523023,0.0 120.899588,24.522643,0.0 120.899712,24.522257,0.0 120.899706,24.521957,0.0 120.899566,24.521711,0.0 120.899349,24.521464,0.0 120.89905,24.521207,0.0 120.898904,24.521142,0.0 120.898752,24.520928,0.0 120.898617,24.520703,0.0 120.898466,24.520509,0.0 120.898253,24.520284,0.0 120.897962,24.519933,0.0 120.897752,24.519664,0.0 120.897613,24.51931,0.0 120.897547,24.519027,0.0 120.897516,24.51888,0.0 120.897468,24.518644,0.0 120.897432,24.518493,0.0 120.897369,24.518271,0.0 120.897322,24.518045,0.0 120.897296,24.517873,0.0 120.8972,24.517611,0.0 120.897122,24.517475,0.0 120.897023,24.517336,0.0 120.896857,24.517235,0.0 120.896736,24.517168,0.0 120.896655,24.51708,0.0 120.896563,24.516925,0.0 120.896493,24.516792,0.0 120.896397,24.516667,0.0 120.896261,24.516539,0.0 120.896154,24.516438,0.0 120.896004,24.51631,0.0 120.895867,24.516239,0.0 120.89575,24.516128,0.0 120.895643,24.516003,0.0 120.895555,24.515875,0.0 120.895496,24.515737,0.0 120.895419,24.515562,0.0 120.89536,24.515357,0.0 120.895352,24.515243,0.0 120.895348,24.515146,0.0 120.895322,24.515048,0.0 120.895271,24.515001,0.0 120.895017,24.515071,0.0 120.894836,24.515102,0.0 120.89463,24.515088,0.0 120.894428,24.515081,0.0 120.894233,24.51502,0.0 120.893975,24.514869,0.0 120.893855,24.514777,0.0 120.893686,24.514615,0.0 120.893535,24.51444,0.0 120.893351,24.514238,0.0 120.893219,24.514086,0.0 120.893064,24.513975,0.0 120.892873,24.513854,0.0 120.892601,24.513732,0.0 120.892464,24.513688,0.0 120.892229,24.513702,0.0 120.891969,24.5137,0.0 120.891778,24.513673,0.0 120.89159,24.513626,0.0 120.891454,24.513552,0.0 120.89138,24.513454,0.0 120.891336,24.513286,0.0 120.891332,24.513097,0.0 120.891399,24.51277,0.0 120.891477,24.512505,0.0 120.891491,24.512256,0.0 120.891506,24.512047,0.0 120.891488,24.511939,0.0 120.891484,24.511707,0.0 120.891496,24.511502,0.0 120.891555,24.511293,0.0 120.891566,24.511017,0.0 120.891592,24.510796,0.0 120.891607,24.510624,0.0 120.891633,24.510382,0.0 120.892291,24.510113,0.0 120.893232,24.509838,0.0 120.894623,24.509616,0.0 120.896724,24.509316,0.0 120.89838,24.509112,0.0 120.89992,24.509027,0.0 120.900651,24.508872,0.0 120.901196,24.508275,0.0 120.901907,24.507326,0.0 120.902359,24.506882,0.0 120.902529,24.506526,0.0 120.902339,24.505524,0.0 120.902302,24.505027,0.0 120.902603,24.504198,0.0 120.90303,24.503753,0.0 120.903834,24.503534,0.0 120.904863,24.503403,0.0 120.90547,24.503193,0.0 120.906203,24.502899,0.0 120.906599,24.503074,0.0 120.907036,24.50333,0.0 120.908197,24.503465,0.0 120.909301,24.503371,0.0 120.91101,24.502676,0.0 120.912833,24.501926,0.0 120.914306,24.501225,0.0 120.915269,24.501095,0.0 120.917475,24.501116,0.0 120.919593,24.501083,0.0 120.920977,24.500763,0.0 120.922275,24.500193,0.0 120.923254,24.499614,0.0 120.924307,24.498856,0.0 120.925046,24.497969,0.0 120.925517,24.497221,0.0 120.92665,24.496414,0.0 120.926925,24.496248,0.0 120.927072,24.496374,0.0 120.92715,24.496482,0.0 120.927264,24.496515,0.0 120.927441,24.496561,0.0 120.927576,24.49664,0.0 120.927834,24.496776,0.0 120.928146,24.496935,0.0 120.928495,24.497057,0.0 120.928687,24.497081,0.0 120.928998,24.497227,0.0 120.929198,24.497346,0.0 120.929424,24.497503,0.0 120.929629,24.497731,0.0 120.929705,24.497902,0.0 120.929711,24.49807,0.0 120.929817,24.498087,0.0 120.930095,24.497968,0.0 120.930194,24.497906,0.0 120.930384,24.497838,0.0 120.930748,24.497747,0.0 120.930959,24.497674,0.0 120.93126,24.49749,0.0 120.931548,24.497379,0.0 120.931907,24.497293,0.0 120.932313,24.497029,0.0 120.932601,24.496878,0.0 120.932967,24.496769,0.0 120.933095,24.496767,0.0 120.933308,24.496984,0.0 120.933532,24.497201,0.0 120.933767,24.497399,0.0 120.933957,24.497509,0.0 120.934088,24.497538,0.0 120.935202,24.497819,0.0 120.935923,24.498011,0.0 120.936242,24.498132,0.0 120.936471,24.498238,0.0 120.936662,24.498413,0.0 120.93694,24.498551,0.0 120.937266,24.498678,0.0 120.937653,24.498756,0.0 120.938076,24.498856,0.0 120.938462,24.498939,0.0 120.938783,24.498999,0.0 120.939036,24.499116,0.0 120.939381,24.499331,0.0 120.939767,24.499574,0.0 120.94003,24.499754,0.0 120.940181,24.499992,0.0 120.94026,24.500174,0.0 120.940433,24.500596,0.0 120.94054,24.500833,0.0 120.940737,24.500969,0.0 120.941033,24.501142,0.0 120.941252,24.501318,0.0 120.941474,24.501555,0.0 120.941705,24.501807,0.0 120.94184,24.501958,0.0 120.942042,24.502217,0.0 120.942276,24.502515,0.0 120.942527,24.502786,0.0 120.942746,24.503018,0.0 120.942914,24.503195,0.0 120.943066,24.503327,0.0 120.943299,24.503451,0.0 120.942993,24.503734,0.0 120.942878,24.504265,0.0 120.942848,24.505086,0.0 120.942774,24.505326,0.0 120.942528,24.505467,0.0 120.94181,24.505581,0.0 120.941305,24.505778,0.0 120.940634,24.506341,0.0 120.940311,24.506684,0.0 120.940216,24.506983,0.0 120.940243,24.507408,0.0 120.940411,24.508105,0.0 120.940447,24.508347,0.0 120.939911,24.508826,0.0 120.939021,24.509504,0.0 120.93854,24.510003,0.0 120.938271,24.510413,0.0 120.937924,24.510848,0.0 120.937356,24.511229,0.0 120.936633,24.511515,0.0 120.936347,24.511548,0.0 120.935427,24.511559,0.0 120.934733,24.511851,0.0 120.934109,24.51206,0.0 120.933811,24.512415,0.0 120.933736,24.512829,0.0 120.933719,24.512937,0.0 120.933616,24.513257,0.0 120.933401,24.513754,0.0 120.933429,24.514071,0.0 120.93356,24.515036,0.0 120.933532,24.51565,0.0 120.933268,24.516544,0.0 120.932914,24.517295,0.0 120.932857,24.517517,0.0 120.932504,24.517493,0.0 120.9313,24.517186,0.0 120.930057,24.51719,0.0 120.928937,24.517411,0.0 120.928368,24.517606,0.0 120.927983,24.517967,0.0 120.927932,24.519026,0.0 120.927811,24.519817,0.0 120.927602,24.520014,0.0 120.926775,24.520249,0.0 120.925628,24.520645,0.0 120.924669,24.521265,0.0 120.924252,24.521793,0.0 120.923238,24.522343,0.0 120.922251,24.522821,0.0 120.921922,24.523112,0.0 120.921949,24.523868,0.0 120.922097,24.524218,0.0 120.922321,24.524667,0.0 120.922453,24.525308,0.0 120.922419,24.525895,0.0 120.922479,24.526391,0.0 120.922945,24.52758,0.0 120.923519,24.528599,0.0 120.923651,24.528939,0.0 120.92342,24.529502,0.0 120.9228,24.530107,0.0 120.92206,24.530584,0.0 120.920453,24.531332,0.0 120.919924,24.531482,0.0 120.919998,24.531841,0.0 120.919883,24.531948,0.0 120.919799,24.531944,0.0 120.919208,24.532368,0.0 120.918855,24.53249,0.0 120.918321,24.533508,0.0 120.918254,24.534096,0.0 120.918505,24.534675,0.0 120.918838,24.535334,0.0 120.918786,24.535888,0.0 120.918508,24.536138,0.0 120.91832,24.536165,0.0 120.918123,24.536149,0.0 120.917508,24.53581,0.0 120.91743,24.535763,0.0 120.91671,24.535514,0.0 120.916453,24.535465,0.0 120.916449,24.535467,0.0</coordinates></LinearRing></outerBoundaryIs></Polygon><styleUrl>#spolygon-map</styleUrl></Placemark><Placemark><Polygon><outerBoundaryIs><LinearRing><coordinates>120.92462,24.550234,0.0 120.924018,24.550436,0.0 120.923599,24.550361,0.0 120.923008,24.549954,0.0 120.922317,24.549268,0.0 120.921877,24.548954,0.0 120.921374,24.54913,0.0 120.920824,24.5496,0.0 120.920618,24.549594,0.0 120.919794,24.548991,0.0 120.919167,24.548786,0.0 120.918501,24.549006,0.0 120.918048,24.548927,0.0 120.917408,24.548574,0.0 120.916851,24.548404,0.0 120.915871,24.548457,0.0 120.915249,24.548363,0.0 120.914916,24.54819,0.0 120.914525,24.547598,0.0 120.91415,24.547034,0.0 120.913783,24.546152,0.0 120.913559,24.545738,0.0 120.913302,24.545593,0.0 120.912431,24.5456,0.0 120.91195,24.5457,0.0 120.911066,24.546275,0.0 120.909928,24.546827,0.0 120.909239,24.546981,0.0 120.908182,24.546949,0.0 120.906721,24.546888,0.0 120.9062,24.546858,0.0 120.906071,24.546612,0.0 120.906008,24.5464,0.0 120.905969,24.546176,0.0 120.90587,24.545939,0.0 120.905771,24.545819,0.0 120.905664,24.545732,0.0 120.90561,24.545694,0.0 120.905511,24.545613,0.0 120.905428,24.545497,0.0 120.905315,24.545425,0.0 120.905162,24.545338,0.0 120.905027,24.545178,0.0 120.904946,24.545112,0.0 120.904882,24.545053,0.0 120.904856,24.545009,0.0 120.904877,24.544993,0.0 120.904872,24.544961,0.0 120.904822,24.544873,0.0 120.90482,24.544845,0.0 120.904735,24.544672,0.0 120.904658,24.54446,0.0 120.904658,24.544236,0.0 120.904599,24.54411,0.0 120.904554,24.543927,0.0 120.9045,24.54369,0.0 120.904229,24.543475,0.0 120.903983,24.543306,0.0 120.903823,24.543174,0.0 120.903671,24.542979,0.0 120.903614,24.542803,0.0 120.903553,24.54251,0.0 120.903528,24.54224,0.0 120.903532,24.542032,0.0 120.903837,24.541896,0.0 120.90423,24.541666,0.0 120.904507,24.541434,0.0 120.904885,24.541215,0.0 120.905088,24.541027,0.0 120.905175,24.540872,0.0 120.905259,24.540599,0.0 120.905355,24.540332,0.0 120.905439,24.540144,0.0 120.905608,24.539792,0.0 120.90578,24.539409,0.0 120.90587,24.539143,0.0 120.906073,24.538849,0.0 120.906503,24.538613,0.0 120.906844,24.538443,0.0 120.907148,24.538309,0.0 120.907327,24.538128,0.0 120.907451,24.538009,0.0 120.907796,24.537809,0.0 120.908063,24.5379,0.0 120.909045,24.538342,0.0 120.910314,24.538666,0.0 120.911248,24.538623,0.0 120.912791,24.538062,0.0 120.913905,24.537842,0.0 120.914687,24.537512,0.0 120.915271,24.536864,0.0 120.916126,24.535614,0.0 120.916449,24.535467,0.0 120.916667,24.535498,0.0 120.916983,24.535617,0.0 120.917475,24.53579,0.0 120.917889,24.536042,0.0 120.918244,24.536159,0.0 120.918326,24.536165,0.0 120.918651,24.536066,0.0 120.918872,24.535548,0.0 120.918644,24.534885,0.0 120.918483,24.534624,0.0 120.918254,24.533873,0.0 120.918787,24.532674,0.0 120.919109,24.532402,0.0 120.919572,24.532077,0.0 120.919879,24.531949,0.0 120.919971,24.531905,0.0 120.919858,24.531639,0.0 120.920074,24.531417,0.0 120.921408,24.530884,0.0 120.922559,24.530308,0.0 120.92308,24.529862,0.0 120.923612,24.52919,0.0 120.923623,24.528779,0.0 120.923202,24.528143,0.0 120.922775,24.52718,0.0 120.922419,24.526116,0.0 120.922463,24.525538,0.0 120.922409,24.524977,0.0 120.922223,24.524416,0.0 120.921993,24.524053,0.0 120.921911,24.523367,0.0 120.921982,24.522991,0.0 120.922696,24.522598,0.0 120.92395,24.522008,0.0 120.924455,24.521491,0.0 120.925064,24.52098,0.0 120.926145,24.520419,0.0 120.927322,24.520114,0.0 120.92774,24.519937,0.0 120.927888,24.519427,0.0 120.927944,24.518207,0.0 120.928143,24.517761,0.0 120.928668,24.517503,0.0 120.929584,24.517231,0.0 120.930834,24.51717,0.0 120.931831,24.517276,0.0 120.932831,24.517529,0.0 120.932883,24.517458,0.0 120.933048,24.517042,0.0 120.933421,24.516088,0.0 120.933553,24.515365,0.0 120.933477,24.514343,0.0 120.933394,24.513893,0.0 120.933491,24.513507,0.0 120.9337,24.51308,0.0 120.933727,24.512877,0.0 120.933792,24.512522,0.0 120.933908,24.512225,0.0 120.9344,24.511959,0.0 120.935149,24.511624,0.0 120.935718,24.511553,0.0 120.936439,24.511547,0.0 120.937021,24.511408,0.0 120.937542,24.511098,0.0 120.938076,24.510694,0.0 120.938405,24.510179,0.0 120.938727,24.509797,0.0 120.939351,24.509247,0.0 120.940368,24.508464,0.0 120.940441,24.508253,0.0 120.94028,24.507639,0.0 120.940216,24.507142,0.0 120.940256,24.506816,0.0 120.940442,24.506517,0.0 120.940974,24.506077,0.0 120.941525,24.505654,0.0 120.942138,24.505546,0.0 120.942643,24.505417,0.0 120.942832,24.505224,0.0 120.942852,24.504752,0.0 120.942949,24.503909,0.0 120.943097,24.503624,0.0 120.9434,24.503488,0.0 120.943642,24.503323,0.0 120.943807,24.503161,0.0 120.944017,24.503097,0.0 120.944362,24.503056,0.0 120.944745,24.503004,0.0 120.945105,24.50295,0.0 120.945542,24.502902,0.0 120.945862,24.502887,0.0 120.94613,24.503018,0.0 120.946381,24.503158,0.0 120.946669,24.503319,0.0 120.946905,24.503565,0.0 120.94716,24.503869,0.0 120.947358,24.50414,0.0 120.947501,24.504362,0.0 120.947621,24.504587,0.0 120.947818,24.504869,0.0 120.948044,24.505147,0.0 120.948373,24.505501,0.0 120.948653,24.505817,0.0 120.948905,24.506072,0.0 120.949115,24.506268,0.0 120.949337,24.506441,0.0 120.949547,24.506527,0.0 120.949736,24.506467,0.0 120.949909,24.506373,0.0 120.950135,24.506433,0.0 120.950296,24.50649,0.0 120.950563,24.506505,0.0 120.950888,24.506494,0.0 120.951242,24.506445,0.0 120.951632,24.506396,0.0 120.951977,24.506321,0.0 120.952422,24.506344,0.0 120.952784,24.506577,0.0 120.953051,24.506652,0.0 120.95331,24.506656,0.0 120.953685,24.506615,0.0 120.953985,24.506491,0.0 120.954113,24.506276,0.0 120.954133,24.506175,0.0 120.954158,24.506081,0.0 120.954216,24.505893,0.0 120.954325,24.505655,0.0 120.954453,24.50541,0.0 120.954613,24.505121,0.0 120.95479,24.504888,0.0 120.954896,24.504828,0.0 120.955222,24.504794,0.0 120.955617,24.504779,0.0 120.955905,24.504858,0.0 120.956173,24.504922,0.0 120.956411,24.504956,0.0 120.956778,24.504986,0.0 120.957056,24.505004,0.0 120.957381,24.505019,0.0 120.957689,24.505004,0.0 120.957948,24.504955,0.0 120.958181,24.504877,0.0 120.958773,24.504733,0.0 120.959532,24.504659,0.0 120.960116,24.504577,0.0 120.961103,24.504471,0.0 120.961741,24.504414,0.0 120.962414,24.504405,0.0 120.963024,24.504422,0.0 120.963249,24.504537,0.0 120.963689,24.504767,0.0 120.964263,24.505104,0.0 120.964834,24.505606,0.0 120.965188,24.506104,0.0 120.965575,24.506471,0.0 120.965419,24.506691,0.0 120.965048,24.507022,0.0 120.964565,24.507484,0.0 120.96422,24.507819,0.0 120.9637,24.508327,0.0 120.963319,24.508635,0.0 120.962767,24.509041,0.0 120.962166,24.509476,0.0 120.961536,24.509972,0.0 120.960943,24.510527,0.0 120.960288,24.511101,0.0 120.959811,24.511623,0.0 120.959445,24.512186,0.0 120.959144,24.51252,0.0 120.958793,24.512681,0.0 120.958188,24.51274,0.0 120.957959,24.512722,0.0 120.957814,24.512693,0.0 120.957638,24.512728,0.0 120.957495,24.512838,0.0 120.957278,24.513055,0.0 120.956964,24.513443,0.0 120.956759,24.513719,0.0 120.956598,24.513881,0.0 120.956489,24.514097,0.0 120.956381,24.514324,0.0 120.956137,24.514625,0.0 120.955989,24.514901,0.0 120.955818,24.515215,0.0 120.955678,24.51547,0.0 120.955624,24.51569,0.0 120.955519,24.515934,0.0 120.955287,24.516221,0.0 120.954988,24.516444,0.0 120.954729,24.516723,0.0 120.954546,24.516921,0.0 120.954402,24.517013,0.0 120.954243,24.517045,0.0 120.954038,24.516956,0.0 120.953856,24.516818,0.0 120.95367,24.516775,0.0 120.953453,24.516761,0.0 120.953252,24.516779,0.0 120.953093,24.516789,0.0 120.953112,24.516906,0.0 120.953228,24.517059,0.0 120.953294,24.51725,0.0 120.953321,24.517452,0.0 120.953379,24.51765,0.0 120.953577,24.51799,0.0 120.953782,24.518234,0.0 120.954022,24.518513,0.0 120.954185,24.518754,0.0 120.954262,24.518903,0.0 120.954278,24.519122,0.0 120.954235,24.519469,0.0 120.954278,24.519721,0.0 120.954371,24.520067,0.0 120.954463,24.520365,0.0 120.954506,24.520542,0.0 120.954564,24.520875,0.0 120.954618,24.521232,0.0 120.954626,24.521536,0.0 120.954564,24.521855,0.0 120.954535,24.521975,0.0 120.954471,24.522184,0.0 120.954397,24.522478,0.0 120.954331,24.522743,0.0 120.954327,24.522944,0.0 120.954427,24.523192,0.0 120.954359,24.52327,0.0 120.953985,24.523305,0.0 120.953757,24.523331,0.0 120.953463,24.523396,0.0 120.953184,24.523552,0.0 120.952951,24.523764,0.0 120.952752,24.523902,0.0 120.952453,24.524058,0.0 120.952164,24.524136,0.0 120.951937,24.52421,0.0 120.951714,24.524292,0.0 120.951095,24.524796,0.0 120.950995,24.525121,0.0 120.950955,24.525352,0.0 120.951043,24.525606,0.0 120.951233,24.525769,0.0 120.951493,24.525986,0.0 120.951692,24.526333,0.0 120.951564,24.526623,0.0 120.951261,24.526905,0.0 120.950905,24.527177,0.0 120.950638,24.52734,0.0 120.950354,24.527461,0.0 120.950136,24.527474,0.0 120.949885,24.527461,0.0 120.949657,24.52747,0.0 120.949463,24.527704,0.0 120.949259,24.528076,0.0 120.949083,24.528393,0.0 120.949064,24.528592,0.0 120.94902,24.528755,0.0 120.948978,24.529197,0.0 120.94911,24.52947,0.0 120.949333,24.5297,0.0 120.949632,24.529721,0.0 120.94994,24.52973,0.0 120.950385,24.529821,0.0 120.950707,24.529865,0.0 120.950869,24.529964,0.0 120.951213,24.530197,0.0 120.951436,24.530444,0.0 120.951663,24.53073,0.0 120.951829,24.531034,0.0 120.951814,24.531346,0.0 120.95172,24.531636,0.0 120.951677,24.531892,0.0 120.951667,24.532164,0.0 120.951719,24.532407,0.0 120.951847,24.532623,0.0 120.95205,24.532784,0.0 120.952316,24.532996,0.0 120.952543,24.533118,0.0 120.952842,24.53317,0.0 120.95297,24.53317,0.0 120.953216,24.5333,0.0 120.953301,24.53356,0.0 120.953311,24.533694,0.0 120.953249,24.533898,0.0 120.953225,24.534123,0.0 120.953273,24.534366,0.0 120.953355,24.534633,0.0 120.953455,24.534858,0.0 120.953473,24.53501,0.0 120.95353,24.535309,0.0 120.953582,24.53566,0.0 120.953658,24.535959,0.0 120.953772,24.536205,0.0 120.953857,24.536444,0.0 120.953999,24.536595,0.0 120.95418,24.536743,0.0 120.95436,24.536916,0.0 120.954478,24.537072,0.0 120.95463,24.537289,0.0 120.954786,24.537549,0.0 120.954952,24.537852,0.0 120.95507,24.538129,0.0 120.955161,24.538358,0.0 120.955261,24.538601,0.0 120.955304,24.538791,0.0 120.955398,24.539177,0.0 120.955464,24.539459,0.0 120.955498,24.539784,0.0 120.955479,24.539914,0.0 120.955289,24.540074,0.0 120.955066,24.540207,0.0 120.954871,24.540385,0.0 120.954734,24.540506,0.0 120.954483,24.540727,0.0 120.95434,24.540935,0.0 120.954231,24.541095,0.0 120.954141,24.541277,0.0 120.954022,24.541489,0.0 120.953894,24.541702,0.0 120.953732,24.541929,0.0 120.95368,24.542137,0.0 120.953656,24.542366,0.0 120.953712,24.542513,0.0 120.952683,24.542665,0.0 120.950632,24.542927,0.0 120.949343,24.542922,0.0 120.948189,24.542906,0.0 120.947727,24.54308,0.0 120.947308,24.543342,0.0 120.946749,24.543702,0.0 120.94661,24.54378,0.0 120.946022,24.544036,0.0 120.945761,24.544123,0.0 120.945667,24.544154,0.0 120.944723,24.544409,0.0 120.944228,24.544459,0.0 120.943184,24.544489,0.0 120.94195,24.544745,0.0 120.940845,24.54478,0.0 120.940173,24.544513,0.0 120.939382,24.543779,0.0 120.938689,24.542771,0.0 120.938036,24.542183,0.0 120.937198,24.541856,0.0 120.936258,24.54183,0.0 120.934751,24.542092,0.0 120.933904,24.542463,0.0 120.932594,24.54288,0.0 120.931402,24.543216,0.0 120.93062,24.543624,0.0 120.929867,24.544262,0.0 120.928986,24.545228,0.0 120.927665,24.546802,0.0 120.926667,24.54806,0.0 120.92573,24.549269,0.0 120.925263,24.549758,0.0 120.92463,24.550229,0.0 120.92462,24.550234,0.0</coordinates></LinearRing></outerBoundaryIs></Polygon><styleUrl>#spolygon-map</styleUrl></Placemark><Placemark><Polygon><outerBoundaryIs><LinearRing><coordinates>120.935692,24.581283,0.0 120.935563,24.581478,0.0 120.935198,24.581561,0.0 120.934186,24.581357,0.0 120.934187,24.581259,0.0 120.934193,24.581056,0.0 120.934191,24.58087,0.0 120.934194,24.58069,0.0 120.934148,24.580545,0.0 120.934028,24.580449,0.0 120.933905,24.580366,0.0 120.933727,24.580266,0.0 120.93363,24.5802,0.0 120.933484,24.580098,0.0 120.933348,24.580018,0.0 120.933232,24.579936,0.0 120.933161,24.579903,0.0 120.933001,24.579973,0.0 120.932767,24.580028,0.0 120.932485,24.580059,0.0 120.932264,24.580028,0.0 120.932128,24.579984,0.0 120.93197,24.579927,0.0 120.931819,24.579846,0.0 120.931703,24.579792,0.0 120.931537,24.579713,0.0 120.931426,24.57965,0.0 120.931318,24.579569,0.0 120.931265,24.579372,0.0 120.931203,24.579162,0.0 120.931082,24.578791,0.0 120.931024,24.578584,0.0 120.930891,24.578354,0.0 120.930773,24.578232,0.0 120.930649,24.578166,0.0 120.930574,24.578096,0.0 120.930529,24.577986,0.0 120.930492,24.577807,0.0 120.930454,24.577667,0.0 120.930399,24.577582,0.0 120.930313,24.577461,0.0 120.930118,24.577268,0.0 120.929954,24.577096,0.0 120.92983,24.576955,0.0 120.929713,24.576807,0.0 120.929618,24.576639,0.0 120.929589,24.576467,0.0 120.92958,24.576346,0.0 120.929606,24.57614,0.0 120.929576,24.575944,0.0 120.929534,24.575839,0.0 120.929465,24.575719,0.0 120.929341,24.5756,0.0 120.929196,24.575508,0.0 120.929037,24.575435,0.0 120.928895,24.575372,0.0 120.928774,24.575309,0.0 120.928663,24.575214,0.0 120.928583,24.575121,0.0 120.928479,24.574983,0.0 120.928415,24.57487,0.0 120.928326,24.574727,0.0 120.927997,24.57428,0.0 120.927924,24.574118,0.0 120.927844,24.573884,0.0 120.9278,24.573584,0.0 120.927791,24.573449,0.0 120.927761,24.57324,0.0 120.927741,24.573095,0.0 120.927643,24.572941,0.0 120.927487,24.572699,0.0 120.927276,24.572335,0.0 120.926901,24.571831,0.0 120.926634,24.571516,0.0 120.926371,24.571228,0.0 120.92602,24.570863,0.0 120.925825,24.570536,0.0 120.925681,24.570182,0.0 120.925416,24.56978,0.0 120.925266,24.569541,0.0 120.925132,24.569191,0.0 120.925,24.568941,0.0 120.924797,24.568585,0.0 120.924559,24.56817,0.0 120.924354,24.567761,0.0 120.924082,24.567385,0.0 120.923915,24.567151,0.0 120.923698,24.566847,0.0 120.923473,24.566514,0.0 120.923234,24.566132,0.0 120.923034,24.56582,0.0 120.923009,24.565571,0.0 120.922543,24.565089,0.0 120.922333,24.5647,0.0 120.922203,24.564216,0.0 120.922093,24.563946,0.0 120.921822,24.563402,0.0 120.921235,24.562457,0.0 120.920754,24.561512,0.0 120.920495,24.561162,0.0 120.92021,24.560625,0.0 120.919945,24.560027,0.0 120.919393,24.558506,0.0 120.919308,24.558163,0.0 120.919111,24.557928,0.0 120.918915,24.557926,0.0 120.918447,24.558096,0.0 120.917541,24.55826,0.0 120.916998,24.558375,0.0 120.916739,24.55859,0.0 120.916183,24.558923,0.0 120.915679,24.558998,0.0 120.914837,24.558979,0.0 120.914512,24.559173,0.0 120.914315,24.559223,0.0 120.913804,24.559067,0.0 120.912884,24.558613,0.0 120.912267,24.558321,0.0 120.911663,24.558099,0.0 120.910949,24.557801,0.0 120.910515,24.557503,0.0 120.910114,24.55699,0.0 120.91,24.556606,0.0 120.909897,24.55597,0.0 120.909476,24.555577,0.0 120.909138,24.555382,0.0 120.908972,24.555348,0.0 120.908672,24.555208,0.0 120.908546,24.554999,0.0 120.908184,24.5543,0.0 120.90813,24.554189,0.0 120.908116,24.553997,0.0 120.908119,24.553775,0.0 120.908114,24.553648,0.0 120.908094,24.55353,0.0 120.908033,24.553339,0.0 120.90795,24.553167,0.0 120.90784,24.553043,0.0 120.907417,24.552653,0.0 120.907361,24.552586,0.0 120.907267,24.552427,0.0 120.907155,24.552104,0.0 120.907107,24.551947,0.0 120.907043,24.551701,0.0 120.906985,24.551495,0.0 120.906911,24.551342,0.0 120.906796,24.55119,0.0 120.906631,24.551041,0.0 120.906448,24.550906,0.0 120.906262,24.550812,0.0 120.906137,24.550706,0.0 120.906037,24.550583,0.0 120.905995,24.550418,0.0 120.905983,24.550309,0.0 120.90597,24.550086,0.0 120.905973,24.549687,0.0 120.90596,24.549438,0.0 120.90595,24.549282,0.0 120.905934,24.549175,0.0 120.905903,24.548977,0.0 120.905856,24.548738,0.0 120.905869,24.548448,0.0 120.905896,24.548338,0.0 120.905938,24.548241,0.0 120.906045,24.547822,0.0 120.906158,24.547545,0.0 120.906255,24.547185,0.0 120.906236,24.546972,0.0 120.906721,24.546888,0.0 120.908182,24.546949,0.0 120.909239,24.546981,0.0 120.909928,24.546827,0.0 120.911066,24.546275,0.0 120.91195,24.5457,0.0 120.912431,24.5456,0.0 120.913302,24.545593,0.0 120.913559,24.545738,0.0 120.913783,24.546152,0.0 120.91415,24.547034,0.0 120.914525,24.547598,0.0 120.914916,24.54819,0.0 120.915249,24.548363,0.0 120.915871,24.548457,0.0 120.916851,24.548404,0.0 120.917408,24.548574,0.0 120.918048,24.548927,0.0 120.918501,24.549006,0.0 120.919167,24.548786,0.0 120.919794,24.548991,0.0 120.920618,24.549594,0.0 120.920824,24.5496,0.0 120.921374,24.54913,0.0 120.921877,24.548954,0.0 120.922317,24.549268,0.0 120.923008,24.549954,0.0 120.923599,24.550361,0.0 120.924018,24.550436,0.0 120.92462,24.550234,0.0 120.924988,24.54999,0.0 120.925584,24.549453,0.0 120.926078,24.548835,0.0 120.927083,24.547486,0.0 120.928253,24.54614,0.0 120.929437,24.544741,0.0 120.930152,24.544006,0.0 120.930951,24.543422,0.0 120.931885,24.543051,0.0 120.933443,24.542644,0.0 120.934295,24.542263,0.0 120.935654,24.541895,0.0 120.936819,24.541805,0.0 120.937517,24.541941,0.0 120.938426,24.54247,0.0 120.939019,24.543268,0.0 120.939783,24.544216,0.0 120.940538,24.544699,0.0 120.941285,24.5448,0.0 120.942554,24.544625,0.0 120.943602,24.544469,0.0 120.944708,24.54441,0.0 120.94525,24.544294,0.0 120.945741,24.54413,0.0 120.945792,24.544113,0.0 120.946085,24.544008,0.0 120.94669,24.543735,0.0 120.947039,24.543539,0.0 120.947539,24.543173,0.0 120.947947,24.542971,0.0 120.948568,24.542891,0.0 120.950049,24.542967,0.0 120.951588,24.542821,0.0 120.953474,24.54254,0.0 120.953803,24.542663,0.0 120.954054,24.54294,0.0 120.954319,24.543252,0.0 120.954537,24.543456,0.0 120.954774,24.543681,0.0 120.954997,24.543867,0.0 120.955315,24.544084,0.0 120.955596,24.544278,0.0 120.955776,24.544395,0.0 120.955842,24.544559,0.0 120.95588,24.54472,0.0 120.95588,24.545001,0.0 120.955851,24.54524,0.0 120.955794,24.545582,0.0 120.955776,24.545845,0.0 120.955771,24.546105,0.0 120.955775,24.546321,0.0 120.955818,24.546564,0.0 120.955823,24.546802,0.0 120.955856,24.547158,0.0 120.955889,24.547519,0.0 120.955931,24.547836,0.0 120.955983,24.548238,0.0 120.955953,24.548375,0.0 120.955935,24.548587,0.0 120.955909,24.548856,0.0 120.955914,24.549031,0.0 120.955935,24.549224,0.0 120.955972,24.54939,0.0 120.956027,24.549671,0.0 120.956092,24.549949,0.0 120.956146,24.550126,0.0 120.956208,24.550393,0.0 120.956253,24.550657,0.0 120.956264,24.550817,0.0 120.956294,24.551076,0.0 120.956326,24.551373,0.0 120.956554,24.551602,0.0 120.956662,24.551671,0.0 120.956911,24.551826,0.0 120.957059,24.551926,0.0 120.957298,24.552094,0.0 120.957535,24.552252,0.0 120.957668,24.55232,0.0 120.957851,24.552413,0.0 120.958001,24.552476,0.0 120.958141,24.552535,0.0 120.958227,24.552553,0.0 120.958407,24.552574,0.0 120.958542,24.552596,0.0 120.958712,24.552646,0.0 120.958818,24.5527,0.0 120.958936,24.552793,0.0 120.95909,24.552927,0.0 120.95917,24.553,0.0 120.959274,24.553169,0.0 120.959307,24.553246,0.0 120.959372,24.553399,0.0 120.959405,24.553531,0.0 120.959428,24.553641,0.0 120.959445,24.553798,0.0 120.959447,24.553926,0.0 120.959459,24.554216,0.0 120.959445,24.554348,0.0 120.959445,24.554601,0.0 120.959497,24.554753,0.0 120.959575,24.554919,0.0 120.9597,24.555183,0.0 120.959733,24.555224,0.0 120.959792,24.555331,0.0 120.959889,24.555519,0.0 120.959962,24.555668,0.0 120.960061,24.555897,0.0 120.96017,24.556151,0.0 120.960222,24.55633,0.0 120.960269,24.556481,0.0 120.960329,24.556616,0.0 120.960343,24.556698,0.0 120.960565,24.556946,0.0 120.960674,24.557019,0.0 120.960787,24.557108,0.0 120.960903,24.557203,0.0 120.961002,24.557309,0.0 120.961094,24.557425,0.0 120.961184,24.557529,0.0 120.961279,24.557646,0.0 120.96138,24.557773,0.0 120.961459,24.557857,0.0 120.961582,24.557999,0.0 120.96165,24.558079,0.0 120.961768,24.558228,0.0 120.961846,24.558315,0.0 120.961937,24.558397,0.0 120.962064,24.558518,0.0 120.962166,24.558598,0.0 120.962248,24.558693,0.0 120.962355,24.558847,0.0 120.962447,24.558973,0.0 120.962497,24.55915,0.0 120.962535,24.559332,0.0 120.962561,24.559511,0.0 120.962575,24.559631,0.0 120.962568,24.559728,0.0 120.962552,24.559842,0.0 120.962554,24.559974,0.0 120.962601,24.560119,0.0 120.962644,24.560226,0.0 120.962729,24.560429,0.0 120.962748,24.560591,0.0 120.96275,24.560662,0.0 120.962804,24.560796,0.0 120.962921,24.560949,0.0 120.962337,24.561608,0.0 120.961483,24.562716,0.0 120.96097,24.563331,0.0 120.960599,24.563612,0.0 120.960244,24.563837,0.0 120.959219,24.564447,0.0 120.958364,24.564755,0.0 120.957621,24.56481,0.0 120.956708,24.564654,0.0 120.956342,24.564643,0.0 120.956115,24.564681,0.0 120.955688,24.564906,0.0 120.954931,24.56561,0.0 120.954765,24.565794,0.0 120.954515,24.566132,0.0 120.954329,24.566543,0.0 120.954268,24.566901,0.0 120.954454,24.567843,0.0 120.954609,24.568541,0.0 120.954543,24.568816,0.0 120.95414,24.569227,0.0 120.953585,24.569804,0.0 120.953,24.57003,0.0 120.951843,24.570465,0.0 120.951127,24.570849,0.0 120.950542,24.571248,0.0 120.949774,24.572029,0.0 120.94894,24.572904,0.0 120.948309,24.573344,0.0 120.947879,24.573438,0.0 120.947569,24.573287,0.0 120.94721,24.572956,0.0 120.946877,24.572569,0.0 120.946444,24.571939,0.0 120.946162,24.571587,0.0 120.94576,24.571019,0.0 120.945056,24.570413,0.0 120.944926,24.570315,0.0 120.94441,24.570145,0.0 120.944128,24.570346,0.0 120.943624,24.570938,0.0 120.942461,24.571529,0.0 120.94162,24.572048,0.0 120.941094,24.572124,0.0 120.940668,24.571938,0.0 120.940164,24.571715,0.0 120.939655,24.571818,0.0 120.938905,24.57228,0.0 120.938605,24.572484,0.0 120.93842,24.572273,0.0 120.938243,24.571726,0.0 120.937797,24.571268,0.0 120.937227,24.571096,0.0 120.936921,24.57128,0.0 120.936948,24.572081,0.0 120.937233,24.572737,0.0 120.937714,24.573364,0.0 120.937879,24.573747,0.0 120.937739,24.574061,0.0 120.936982,24.574464,0.0 120.93676,24.574631,0.0 120.936725,24.575017,0.0 120.937016,24.575391,0.0 120.937843,24.575933,0.0 120.938534,24.576335,0.0 120.938774,24.576633,0.0 120.938743,24.576872,0.0 120.938525,24.577035,0.0 120.938042,24.576996,0.0 120.937476,24.577039,0.0 120.936841,24.577285,0.0 120.936454,24.577233,0.0 120.935417,24.577024,0.0 120.934638,24.576845,0.0 120.934199,24.576976,0.0 120.934116,24.577226,0.0 120.934546,24.577967,0.0 120.934912,24.578716,0.0 120.934977,24.579265,0.0 120.935055,24.579751,0.0 120.935577,24.580564,0.0 120.935746,24.581144,0.0 120.935692,24.581283,0.0</coordinates></LinearRing></outerBoundaryIs></Polygon><styleUrl>#spolygon-map</styleUrl></Placemark><Placemark><Polygon><outerBoundaryIs><LinearRing><coordinates>120.953936,24.599623,0.0 120.953735,24.599659,0.0 120.953514,24.599708,0.0 120.953351,24.59979,0.0 120.953115,24.599991,0.0 120.952991,24.600087,0.0 120.95285,24.600191,0.0 120.952683,24.600312,0.0 120.952431,24.600453,0.0 120.952181,24.600571,0.0 120.951976,24.600658,0.0 120.951844,24.6007,0.0 120.951612,24.6008,0.0 120.95146,24.600839,0.0 120.951293,24.600847,0.0 120.951141,24.600828,0.0 120.950946,24.600826,0.0 120.95079,24.600848,0.0 120.950549,24.600919,0.0 120.950415,24.60095,0.0 120.95021,24.600999,0.0 120.949926,24.601068,0.0 120.949794,24.601096,0.0 120.94961,24.601122,0.0 120.949432,24.601141,0.0 120.949263,24.601159,0.0 120.949145,24.60119,0.0 120.949061,24.601212,0.0 120.949018,24.601131,0.0 120.948925,24.600959,0.0 120.94888,24.600858,0.0 120.948852,24.60073,0.0 120.948861,24.600606,0.0 120.948869,24.600494,0.0 120.948824,24.600354,0.0 120.948768,24.600261,0.0 120.948644,24.600121,0.0 120.948491,24.600046,0.0 120.948345,24.599999,0.0 120.948251,24.599938,0.0 120.94817,24.599857,0.0 120.948108,24.599722,0.0 120.948041,24.599567,0.0 120.948009,24.599447,0.0 120.947947,24.599272,0.0 120.947804,24.599156,0.0 120.947668,24.599086,0.0 120.94749,24.599025,0.0 120.947382,24.598996,0.0 120.947219,24.598964,0.0 120.947123,24.598915,0.0 120.947002,24.598831,0.0 120.946896,24.598743,0.0 120.946806,24.598679,0.0 120.946597,24.598557,0.0 120.946483,24.598508,0.0 120.946355,24.598458,0.0 120.946254,24.598363,0.0 120.946194,24.598278,0.0 120.946086,24.598203,0.0 120.94594,24.598034,0.0 120.945802,24.59781,0.0 120.945697,24.597678,0.0 120.945607,24.597516,0.0 120.945475,24.597286,0.0 120.945427,24.597141,0.0 120.945246,24.596849,0.0 120.945134,24.596641,0.0 120.945059,24.596502,0.0 120.945009,24.596348,0.0 120.944935,24.596232,0.0 120.944866,24.596201,0.0 120.944649,24.596132,0.0 120.944521,24.596097,0.0 120.944408,24.596047,0.0 120.944144,24.59595,0.0 120.944028,24.595906,0.0 120.943819,24.595865,0.0 120.943698,24.595822,0.0 120.943402,24.595779,0.0 120.943101,24.595766,0.0 120.942941,24.595759,0.0 120.942791,24.595773,0.0 120.942635,24.595797,0.0 120.942454,24.595834,0.0 120.942318,24.595875,0.0 120.942205,24.595971,0.0 120.942097,24.596029,0.0 120.941941,24.595993,0.0 120.941742,24.595836,0.0 120.941645,24.595721,0.0 120.941513,24.595573,0.0 120.941393,24.595455,0.0 120.941277,24.595325,0.0 120.941229,24.595214,0.0 120.94119,24.595062,0.0 120.941153,24.59491,0.0 120.941109,24.594755,0.0 120.94105,24.594645,0.0 120.940932,24.594532,0.0 120.940804,24.594459,0.0 120.940611,24.594322,0.0 120.940498,24.594221,0.0 120.940356,24.59406,0.0 120.940232,24.593903,0.0 120.940057,24.593701,0.0 120.939937,24.593551,0.0 120.93982,24.593463,0.0 120.93973,24.593399,0.0 120.939564,24.593308,0.0 120.939377,24.593169,0.0 120.939241,24.592984,0.0 120.939006,24.592717,0.0 120.938811,24.592471,0.0 120.938711,24.592223,0.0 120.938663,24.592074,0.0 120.938573,24.591804,0.0 120.938559,24.591733,0.0 120.938474,24.591554,0.0 120.938371,24.591396,0.0 120.938251,24.591202,0.0 120.938162,24.591082,0.0 120.937892,24.590759,0.0 120.937839,24.590652,0.0 120.937646,24.590444,0.0 120.937376,24.590042,0.0 120.937257,24.589912,0.0 120.937146,24.589796,0.0 120.936979,24.58967,0.0 120.936849,24.589561,0.0 120.93673,24.589408,0.0 120.936666,24.589271,0.0 120.936584,24.589088,0.0 120.93653,24.58895,0.0 120.936433,24.588759,0.0 120.936363,24.588617,0.0 120.936268,24.588453,0.0 120.9362,24.588344,0.0 120.936067,24.588064,0.0 120.935968,24.587907,0.0 120.935875,24.587772,0.0 120.935797,24.587599,0.0 120.935719,24.587459,0.0 120.935579,24.587222,0.0 120.935487,24.58706,0.0 120.935416,24.586895,0.0 120.935354,24.586734,0.0 120.935237,24.58641,0.0 120.935134,24.586131,0.0 120.935099,24.586002,0.0 120.935015,24.5858,0.0 120.934964,24.585661,0.0 120.934902,24.585546,0.0 120.934807,24.585423,0.0 120.934723,24.585309,0.0 120.934632,24.58519,0.0 120.934545,24.585078,0.0 120.934447,24.584913,0.0 120.934385,24.584761,0.0 120.934334,24.584507,0.0 120.934337,24.584397,0.0 120.934341,24.584102,0.0 120.934314,24.583908,0.0 120.934291,24.583762,0.0 120.934251,24.583543,0.0 120.934241,24.583423,0.0 120.934192,24.583072,0.0 120.934167,24.582889,0.0 120.934174,24.582746,0.0 120.934167,24.582469,0.0 120.934143,24.582112,0.0 120.934152,24.581751,0.0 120.934173,24.581504,0.0 120.934186,24.581357,0.0 120.935198,24.581561,0.0 120.935563,24.581478,0.0 120.935692,24.581283,0.0 120.93572,24.580945,0.0 120.935207,24.580029,0.0 120.934977,24.579503,0.0 120.934969,24.578939,0.0 120.934729,24.578257,0.0 120.934181,24.577397,0.0 120.934116,24.577139,0.0 120.934369,24.576872,0.0 120.935038,24.576936,0.0 120.935895,24.577124,0.0 120.936732,24.577285,0.0 120.937041,24.577226,0.0 120.937716,24.576984,0.0 120.938347,24.577047,0.0 120.938639,24.576979,0.0 120.938791,24.576757,0.0 120.938691,24.576518,0.0 120.938256,24.576156,0.0 120.93736,24.575638,0.0 120.936816,24.575176,0.0 120.936695,24.574842,0.0 120.936975,24.57447,0.0 120.93747,24.574208,0.0 120.937835,24.57393,0.0 120.937848,24.57358,0.0 120.937448,24.573018,0.0 120.937094,24.572488,0.0 120.936879,24.571528,0.0 120.937025,24.571179,0.0 120.937519,24.571153,0.0 120.938034,24.571497,0.0 120.938312,24.571942,0.0 120.938523,24.572446,0.0 120.938688,24.572465,0.0 120.939321,24.572003,0.0 120.939971,24.571724,0.0 120.940365,24.571762,0.0 120.940967,24.572092,0.0 120.941373,24.572114,0.0 120.942096,24.571784,0.0 120.943194,24.571171,0.0 120.943928,24.570654,0.0 120.944259,24.570189,0.0 120.944675,24.570192,0.0 120.944999,24.57037,0.0 120.945381,24.570661,0.0 120.946001,24.571338,0.0 120.94619,24.571622,0.0 120.946664,24.57222,0.0 120.947077,24.572814,0.0 120.947328,24.573083,0.0 120.947738,24.573391,0.0 120.948078,24.573422,0.0 120.948675,24.573143,0.0 120.949291,24.572539,0.0 120.950252,24.571507,0.0 120.950852,24.571031,0.0 120.951499,24.570634,0.0 120.952476,24.57021,0.0 120.953427,24.569886,0.0 120.953764,24.569669,0.0 120.954405,24.568982,0.0 120.954577,24.568704,0.0 120.95454,24.568248,0.0 120.95433,24.567274,0.0 120.954286,24.566672,0.0 120.954382,24.566386,0.0 120.954605,24.56601,0.0 120.954801,24.565745,0.0 120.955077,24.565459,0.0 120.956062,24.56469,0.0 120.956124,24.564679,0.0 120.956425,24.564629,0.0 120.957318,24.564759,0.0 120.957918,24.56482,0.0 120.958909,24.564584,0.0 120.959852,24.564085,0.0 120.96048,24.563688,0.0 120.960804,24.563482,0.0 120.96123,24.563067,0.0 120.961957,24.562101,0.0 120.962673,24.561199,0.0 120.962968,24.560979,0.0 120.963147,24.561048,0.0 120.963419,24.561173,0.0 120.963564,24.561246,0.0 120.963717,24.561326,0.0 120.963826,24.561349,0.0 120.963932,24.561406,0.0 120.964029,24.561481,0.0 120.964093,24.561522,0.0 120.964199,24.561596,0.0 120.964325,24.561669,0.0 120.964445,24.561749,0.0 120.964544,24.561831,0.0 120.964651,24.561905,0.0 120.964729,24.561976,0.0 120.964833,24.562099,0.0 120.964908,24.562194,0.0 120.96498,24.562297,0.0 120.965084,24.562455,0.0 120.965158,24.562582,0.0 120.965235,24.562804,0.0 120.965262,24.562886,0.0 120.965331,24.56303,0.0 120.965383,24.563136,0.0 120.965463,24.563289,0.0 120.96555,24.563434,0.0 120.965609,24.563536,0.0 120.965719,24.563689,0.0 120.965775,24.563768,0.0 120.965929,24.563956,0.0 120.966011,24.564036,0.0 120.966106,24.564192,0.0 120.966153,24.564311,0.0 120.966181,24.564419,0.0 120.966302,24.56463,0.0 120.966425,24.564818,0.0 120.966543,24.564986,0.0 120.966664,24.565137,0.0 120.96673,24.565315,0.0 120.966986,24.565585,0.0 120.967094,24.565665,0.0 120.9673,24.565847,0.0 120.967381,24.565952,0.0 120.96752,24.566124,0.0 120.967594,24.566215,0.0 120.967754,24.566381,0.0 120.967858,24.566446,0.0 120.967974,24.566509,0.0 120.968117,24.566586,0.0 120.968211,24.566666,0.0 120.968306,24.566765,0.0 120.968386,24.566839,0.0 120.968544,24.566977,0.0 120.968644,24.567089,0.0 120.968712,24.567182,0.0 120.968802,24.567314,0.0 120.968864,24.567436,0.0 120.96888,24.56757,0.0 120.968913,24.567715,0.0 120.968972,24.567872,0.0 120.969065,24.568038,0.0 120.969148,24.568124,0.0 120.969249,24.568204,0.0 120.969353,24.568247,0.0 120.969455,24.568321,0.0 120.969566,24.568446,0.0 120.969642,24.568538,0.0 120.969739,24.568657,0.0 120.969855,24.56875,0.0 120.969976,24.568877,0.0 120.970079,24.569035,0.0 120.970094,24.569131,0.0 120.970108,24.569315,0.0 120.970082,24.56942,0.0 120.970037,24.569541,0.0 120.969969,24.56969,0.0 120.969891,24.569835,0.0 120.969756,24.570012,0.0 120.96967,24.570111,0.0 120.969611,24.570227,0.0 120.969554,24.570366,0.0 120.969505,24.570527,0.0 120.969481,24.570681,0.0 120.969433,24.570831,0.0 120.9694,24.570957,0.0 120.969367,24.571065,0.0 120.969355,24.571227,0.0 120.969393,24.571324,0.0 120.969428,24.571464,0.0 120.969504,24.5716,0.0 120.969558,24.571703,0.0 120.969601,24.571815,0.0 120.969653,24.571962,0.0 120.969721,24.572139,0.0 120.969745,24.572254,0.0 120.969755,24.572398,0.0 120.969743,24.572512,0.0 120.969747,24.572666,0.0 120.969762,24.572854,0.0 120.969795,24.573003,0.0 120.969875,24.573147,0.0 120.969939,24.573223,0.0 120.970103,24.573441,0.0 120.970238,24.57365,0.0 120.970332,24.573824,0.0 120.970469,24.574102,0.0 120.970572,24.574403,0.0 120.970632,24.574588,0.0 120.97066,24.574805,0.0 120.970634,24.574987,0.0 120.970586,24.575267,0.0 120.970569,24.575421,0.0 120.970568,24.575592,0.0 120.970582,24.575783,0.0 120.970591,24.576073,0.0 120.970593,24.576266,0.0 120.970605,24.576363,0.0 120.970743,24.576586,0.0 120.970875,24.57671,0.0 120.971036,24.576862,0.0 120.971183,24.577007,0.0 120.971315,24.577177,0.0 120.971442,24.577303,0.0 120.971592,24.577388,0.0 120.971759,24.577468,0.0 120.971893,24.57754,0.0 120.972042,24.577678,0.0 120.972135,24.577818,0.0 120.972227,24.577965,0.0 120.972316,24.578099,0.0 120.972393,24.578237,0.0 120.972482,24.578404,0.0 120.972576,24.578637,0.0 120.972648,24.578816,0.0 120.972725,24.579022,0.0 120.972789,24.579199,0.0 120.972855,24.579401,0.0 120.97291,24.579585,0.0 120.973003,24.579867,0.0 120.97307,24.580025,0.0 120.973147,24.580262,0.0 120.973188,24.580453,0.0 120.97321,24.58067,0.0 120.973235,24.580857,0.0 120.973347,24.581154,0.0 120.973439,24.581294,0.0 120.973557,24.581415,0.0 120.973659,24.581555,0.0 120.97379,24.58177,0.0 120.973878,24.581996,0.0 120.973945,24.582156,0.0 120.974036,24.582362,0.0 120.974145,24.582604,0.0 120.974243,24.582762,0.0 120.974331,24.582903,0.0 120.97446,24.583087,0.0 120.974555,24.583259,0.0 120.974204,24.583554,0.0 120.974011,24.583694,0.0 120.97387,24.583801,0.0 120.973721,24.583882,0.0 120.973472,24.583992,0.0 120.973299,24.584063,0.0 120.973091,24.584127,0.0 120.972886,24.5842,0.0 120.972707,24.584276,0.0 120.972538,24.584379,0.0 120.972382,24.584529,0.0 120.972267,24.584655,0.0 120.972112,24.584833,0.0 120.97201,24.584948,0.0 120.971893,24.585025,0.0 120.971656,24.585122,0.0 120.971414,24.585183,0.0 120.971232,24.585195,0.0 120.971094,24.585189,0.0 120.970808,24.585149,0.0 120.970592,24.585177,0.0 120.970292,24.58537,0.0 120.970125,24.585485,0.0 120.970043,24.585538,0.0 120.969879,24.585641,0.0 120.969712,24.585724,0.0 120.969517,24.58583,0.0 120.969334,24.585942,0.0 120.969187,24.586031,0.0 120.969025,24.586122,0.0 120.968951,24.586155,0.0 120.968739,24.586222,0.0 120.968538,24.586262,0.0 120.968331,24.586295,0.0 120.96811,24.586329,0.0 120.967939,24.586349,0.0 120.967758,24.586341,0.0 120.967613,24.586337,0.0 120.967438,24.586357,0.0 120.967193,24.58645,0.0 120.967098,24.586513,0.0 120.966973,24.586594,0.0 120.966814,24.586686,0.0 120.966615,24.58682,0.0 120.966553,24.587085,0.0 120.966488,24.587427,0.0 120.96642,24.587691,0.0 120.966364,24.587887,0.0 120.966279,24.588261,0.0 120.966245,24.588547,0.0 120.966208,24.588689,0.0 120.966143,24.588859,0.0 120.965998,24.589126,0.0 120.965919,24.58924,0.0 120.96585,24.589342,0.0 120.965787,24.589409,0.0 120.965614,24.589582,0.0 120.965484,24.589684,0.0 120.965263,24.589865,0.0 120.965185,24.58992,0.0 120.96502,24.590051,0.0 120.964748,24.590242,0.0 120.964633,24.590323,0.0 120.964467,24.590457,0.0 120.96432,24.590558,0.0 120.964091,24.590706,0.0 120.963991,24.590773,0.0 120.963872,24.590908,0.0 120.963797,24.591022,0.0 120.963751,24.591129,0.0 120.963651,24.591393,0.0 120.963593,24.591575,0.0 120.963448,24.591707,0.0 120.963357,24.591757,0.0 120.963264,24.59178,0.0 120.963185,24.591731,0.0 120.96303,24.591727,0.0 120.962978,24.591771,0.0 120.962922,24.59181,0.0 120.962801,24.591762,0.0 120.962563,24.591758,0.0 120.962427,24.591811,0.0 120.962382,24.591868,0.0 120.962358,24.591931,0.0 120.962321,24.592004,0.0 120.962185,24.592072,0.0 120.96204,24.592097,0.0 120.961901,24.592157,0.0 120.961828,24.592279,0.0 120.961782,24.592411,0.0 120.961815,24.592517,0.0 120.961834,24.592665,0.0 120.96181,24.592746,0.0 120.961745,24.592873,0.0 120.96171,24.592967,0.0 120.96166,24.593093,0.0 120.961628,24.593234,0.0 120.961563,24.593354,0.0 120.961474,24.593441,0.0 120.961333,24.59351,0.0 120.961231,24.593571,0.0 120.961094,24.593626,0.0 120.960932,24.593681,0.0 120.960794,24.593754,0.0 120.960644,24.593839,0.0 120.960515,24.593922,0.0 120.960402,24.594025,0.0 120.960293,24.594182,0.0 120.960243,24.594247,0.0 120.960191,24.594308,0.0 120.960053,24.594395,0.0 120.959953,24.594413,0.0 120.95986,24.594371,0.0 120.959782,24.594269,0.0 120.959698,24.594207,0.0 120.959566,24.59419,0.0 120.959352,24.59429,0.0 120.959246,24.594407,0.0 120.959192,24.594543,0.0 120.959202,24.594666,0.0 120.959253,24.594754,0.0 120.959294,24.594805,0.0 120.959362,24.594946,0.0 120.959305,24.595045,0.0 120.959193,24.595117,0.0 120.959019,24.595101,0.0 120.958897,24.59511,0.0 120.95879,24.595163,0.0 120.958631,24.595261,0.0 120.958592,24.595341,0.0 120.95858,24.595413,0.0 120.958589,24.595488,0.0 120.958667,24.595609,0.0 120.958715,24.595646,0.0 120.958788,24.595682,0.0 120.958842,24.595731,0.0 120.958853,24.595832,0.0 120.958791,24.59589,0.0 120.958744,24.595932,0.0 120.958603,24.596067,0.0 120.958451,24.596094,0.0 120.958274,24.596058,0.0 120.958172,24.595985,0.0 120.957974,24.595896,0.0 120.957693,24.595907,0.0 120.957618,24.596017,0.0 120.957564,24.596133,0.0 120.957528,24.596256,0.0 120.957502,24.5964,0.0 120.957433,24.596566,0.0 120.957343,24.596671,0.0 120.957249,24.596768,0.0 120.95714,24.596833,0.0 120.957011,24.596895,0.0 120.956956,24.597046,0.0 120.956956,24.59716,0.0 120.956911,24.597283,0.0 120.956857,24.597352,0.0 120.956735,24.597429,0.0 120.956644,24.597495,0.0 120.956549,24.597543,0.0 120.956495,24.597597,0.0 120.956445,24.597676,0.0 120.956382,24.597771,0.0 120.956309,24.597844,0.0 120.956167,24.597881,0.0 120.956047,24.597918,0.0 120.955988,24.597974,0.0 120.955955,24.598129,0.0 120.956023,24.598311,0.0 120.956022,24.598419,0.0 120.95606,24.598552,0.0 120.956157,24.5987,0.0 120.956205,24.598856,0.0 120.956197,24.599022,0.0 120.956131,24.599207,0.0 120.956081,24.599295,0.0 120.956028,24.599421,0.0 120.956004,24.599589,0.0 120.95599,24.599799,0.0 120.955955,24.599948,0.0 120.955921,24.600003,0.0 120.955846,24.599979,0.0 120.955757,24.599909,0.0 120.955657,24.599812,0.0 120.955565,24.599717,0.0 120.955359,24.599691,0.0 120.955176,24.599646,0.0 120.954861,24.599617,0.0 120.954582,24.599599,0.0 120.954273,24.599596,0.0 120.953997,24.599614,0.0 120.953936,24.599623,0.0</coordinates></LinearRing></outerBoundaryIs></Polygon><styleUrl>#spolygon-map</styleUrl></Placemark></Document>
</kml>
