<?xml version="1.0" encoding="UTF-8"?>
<kml xmlns="http://www.opengis.net/kml/2.2">
	<Document>
		<name>高雄市前金區</name>
		<Style id="spolygon">
			<LabelStyle>
				<scale>0.0</scale>
			</LabelStyle>
			<LineStyle>
				<color>330030ff</color>
				<width>0</width>
			</LineStyle>
			<PolyStyle>
				<color>330030ff</color>
			</PolyStyle>
		</Style>
		<StyleMap id="spolygon-map">
			<Pair>
				<key>normal</key>
				<styleUrl>#spolygon</styleUrl>
			</Pair>
		</StyleMap>
	<Placemark><Polygon><outerBoundaryIs><LinearRing><coordinates>120.296638,22.633499,0.0 120.297727,22.634267,0.0 120.297578,22.634659,0.0 120.297293,22.635389,0.0 120.297154,22.635727,0.0 120.29701,22.63608,0.0 120.295758,22.635674,0.0 120.296057,22.634956,0.0 120.296199,22.634566,0.0 120.296455,22.633892,0.0 120.296618,22.633485,0.0 120.296638,22.633499,0.0</coordinates></LinearRing></outerBoundaryIs></Polygon><styleUrl>#spolygon-map</styleUrl></Placemark><Placemark><Polygon><outerBoundaryIs><LinearRing><coordinates>120.295745,22.630973,0.0 120.296202,22.631127,0.0 120.29737,22.631516,0.0 120.298653,22.631918,0.0 120.298357,22.632621,0.0 120.298032,22.633448,0.0 120.297865,22.633902,0.0 120.296618,22.633485,0.0 120.295455,22.633087,0.0 120.294794,22.632126,0.0 120.295284,22.630823,0.0 120.295745,22.630973,0.0</coordinates></LinearRing></outerBoundaryIs></Polygon><styleUrl>#spolygon-map</styleUrl></Placemark><Placemark><Polygon><outerBoundaryIs><LinearRing><coordinates>120.295455,22.633087,0.0 120.296618,22.633485,0.0 120.296455,22.633892,0.0 120.296199,22.634566,0.0 120.296057,22.634956,0.0 120.295758,22.635674,0.0 120.294249,22.635159,0.0 120.293744,22.634784,0.0 120.294375,22.633218,0.0 120.295455,22.633087,0.0</coordinates></LinearRing></outerBoundaryIs></Polygon><styleUrl>#spolygon-map</styleUrl></Placemark><Placemark><Polygon><outerBoundaryIs><LinearRing><coordinates>120.293766,22.632529,0.0 120.294543,22.632794,0.0 120.293855,22.634507,0.0 120.293668,22.634961,0.0 120.292791,22.634664,0.0 120.29185,22.634341,0.0 120.291861,22.634155,0.0 120.292256,22.633176,0.0 120.292376,22.632858,0.0 120.292496,22.632555,0.0 120.293766,22.632529,0.0</coordinates></LinearRing></outerBoundaryIs></Polygon><styleUrl>#spolygon-map</styleUrl></Placemark><Placemark><Polygon><outerBoundaryIs><LinearRing><coordinates>120.295077,22.629112,0.0 120.295515,22.629249,0.0 120.295717,22.629711,0.0 120.295027,22.631499,0.0 120.294543,22.632794,0.0 120.293766,22.632529,0.0 120.292796,22.631771,0.0 120.293043,22.631079,0.0 120.293238,22.630557,0.0 120.293379,22.630197,0.0 120.293668,22.629483,0.0 120.29397,22.628736,0.0 120.295077,22.629112,0.0</coordinates></LinearRing></outerBoundaryIs></Polygon><styleUrl>#spolygon-map</styleUrl></Placemark><Placemark><Polygon><outerBoundaryIs><LinearRing><coordinates>120.289487,22.630315,0.0 120.291158,22.630891,0.0 120.292906,22.631477,0.0 120.292651,22.632166,0.0 120.292485,22.632581,0.0 120.292367,22.632882,0.0 120.291969,22.633894,0.0 120.291798,22.634324,0.0 120.290097,22.63376,0.0 120.290052,22.633744,0.0 120.288356,22.633179,0.0 120.288278,22.633154,0.0 120.288098,22.633058,0.0 120.286816,22.632272,0.0 120.286014,22.63146,0.0 120.28622,22.630914,0.0 120.286506,22.630213,0.0 120.286558,22.63009,0.0 120.286772,22.629587,0.0 120.286834,22.629463,0.0 120.289487,22.630315,0.0</coordinates></LinearRing></outerBoundaryIs></Polygon><styleUrl>#spolygon-map</styleUrl></Placemark><Placemark><Polygon><outerBoundaryIs><LinearRing><coordinates>120.288901,22.627035,0.0 120.290545,22.627594,0.0 120.292244,22.62817,0.0 120.293129,22.628459,0.0 120.29397,22.628736,0.0 120.293668,22.629483,0.0 120.293379,22.630197,0.0 120.293238,22.630557,0.0 120.293043,22.631079,0.0 120.291179,22.630902,0.0 120.289509,22.630326,0.0 120.286839,22.629452,0.0 120.286975,22.629177,0.0 120.287086,22.628965,0.0 120.287666,22.627832,0.0 120.288208,22.626805,0.0 120.288901,22.627035,0.0</coordinates></LinearRing></outerBoundaryIs></Polygon><styleUrl>#spolygon-map</styleUrl></Placemark><Placemark><Polygon><outerBoundaryIs><LinearRing><coordinates>120.296243,22.629496,0.0 120.296809,22.629662,0.0 120.297955,22.630056,0.0 120.299048,22.630842,0.0 120.298894,22.631263,0.0 120.298779,22.631577,0.0 120.297392,22.631526,0.0 120.296223,22.631136,0.0 120.295768,22.630981,0.0 120.295284,22.630823,0.0 120.295829,22.629373,0.0 120.296243,22.629496,0.0</coordinates></LinearRing></outerBoundaryIs></Polygon><styleUrl>#spolygon-map</styleUrl></Placemark><Placemark><Polygon><outerBoundaryIs><LinearRing><coordinates>120.296583,22.627522,0.0 120.297136,22.627686,0.0 120.297509,22.627811,0.0 120.298674,22.628208,0.0 120.299214,22.628412,0.0 120.299574,22.628522,0.0 120.299837,22.628818,0.0 120.299568,22.629522,0.0 120.299186,22.630466,0.0 120.297933,22.630045,0.0 120.296787,22.629652,0.0 120.295829,22.629373,0.0 120.296454,22.627603,0.0 120.296583,22.627522,0.0</coordinates></LinearRing></outerBoundaryIs></Polygon><styleUrl>#spolygon-map</styleUrl></Placemark><Placemark><Polygon><outerBoundaryIs><LinearRing><coordinates>120.2958,22.627237,0.0 120.296065,22.627333,0.0 120.296497,22.627489,0.0 120.295948,22.629032,0.0 120.295515,22.629249,0.0 120.295077,22.629112,0.0 120.294201,22.628212,0.0 120.294539,22.627284,0.0 120.2958,22.627237,0.0</coordinates></LinearRing></outerBoundaryIs></Polygon><styleUrl>#spolygon-map</styleUrl></Placemark><Placemark><Polygon><outerBoundaryIs><LinearRing><coordinates>120.2964,22.625578,0.0 120.296676,22.625655,0.0 120.297166,22.625792,0.0 120.298114,22.626126,0.0 120.297526,22.627817,0.0 120.297486,22.627804,0.0 120.297051,22.627657,0.0 120.296497,22.627489,0.0 120.296065,22.627333,0.0 120.2958,22.627237,0.0 120.294848,22.626483,0.0 120.295131,22.625745,0.0 120.2964,22.625578,0.0</coordinates></LinearRing></outerBoundaryIs></Polygon><styleUrl>#spolygon-map</styleUrl></Placemark><Placemark><Polygon><outerBoundaryIs><LinearRing><coordinates>120.290787,22.625583,0.0 120.291274,22.625746,0.0 120.292974,22.626304,0.0 120.2947,22.62687,0.0 120.294345,22.627781,0.0 120.29397,22.628736,0.0 120.293129,22.628459,0.0 120.292244,22.62817,0.0 120.290545,22.627594,0.0 120.288901,22.627035,0.0 120.28823,22.626767,0.0 120.288921,22.625501,0.0 120.289119,22.625034,0.0 120.290787,22.625583,0.0</coordinates></LinearRing></outerBoundaryIs></Polygon><styleUrl>#spolygon-map</styleUrl></Placemark><Placemark><Polygon><outerBoundaryIs><LinearRing><coordinates>120.291919,22.624073,0.0 120.29218,22.624161,0.0 120.293569,22.624633,0.0 120.295329,22.625216,0.0 120.294976,22.626149,0.0 120.2947,22.62687,0.0 120.292974,22.626304,0.0 120.291274,22.625746,0.0 120.290787,22.625583,0.0 120.289136,22.624994,0.0 120.28927,22.624674,0.0 120.289355,22.624464,0.0 120.289392,22.624363,0.0 120.289529,22.623935,0.0 120.28969,22.62338,0.0 120.291919,22.624073,0.0</coordinates></LinearRing></outerBoundaryIs></Polygon><styleUrl>#spolygon-map</styleUrl></Placemark><Placemark><Polygon><outerBoundaryIs><LinearRing><coordinates>120.296736,22.621634,0.0 120.296301,22.622742,0.0 120.29617,22.623097,0.0 120.295792,22.624072,0.0 120.295527,22.624728,0.0 120.295329,22.625216,0.0 120.293569,22.624633,0.0 120.29376,22.624149,0.0 120.29397,22.623605,0.0 120.294299,22.62282,0.0 120.294558,22.622205,0.0 120.294706,22.621895,0.0 120.294858,22.62154,0.0 120.296736,22.621634,0.0</coordinates></LinearRing></outerBoundaryIs></Polygon><styleUrl>#spolygon-map</styleUrl></Placemark><Placemark><Polygon><outerBoundaryIs><LinearRing><coordinates>120.291495,22.622274,0.0 120.292487,22.622609,0.0 120.294164,22.623147,0.0 120.293869,22.623842,0.0 120.293745,22.624192,0.0 120.292233,22.624179,0.0 120.291952,22.624084,0.0 120.289695,22.62336,0.0 120.289766,22.623055,0.0 120.289838,22.622748,0.0 120.28989,22.622528,0.0 120.289976,22.622146,0.0 120.29002,22.621905,0.0 120.291495,22.622274,0.0</coordinates></LinearRing></outerBoundaryIs></Polygon><styleUrl>#spolygon-map</styleUrl></Placemark><Placemark><Polygon><outerBoundaryIs><LinearRing><coordinates>120.291029,22.620626,0.0 120.291512,22.620629,0.0 120.293678,22.620664,0.0 120.293929,22.62072,0.0 120.294488,22.620911,0.0 120.294858,22.62154,0.0 120.294706,22.621895,0.0 120.294558,22.622205,0.0 120.294299,22.62282,0.0 120.29276,22.622694,0.0 120.292465,22.622599,0.0 120.290038,22.621785,0.0 120.290048,22.621718,0.0 120.290126,22.621124,0.0 120.290148,22.620898,0.0 120.290163,22.620646,0.0 120.290872,22.620626,0.0 120.291029,22.620626,0.0</coordinates></LinearRing></outerBoundaryIs></Polygon><styleUrl>#spolygon-map</styleUrl></Placemark><Placemark><Polygon><outerBoundaryIs><LinearRing><coordinates>120.29722,22.621823,0.0 120.297831,22.622018,0.0 120.298535,22.622242,0.0 120.29911,22.622447,0.0 120.300173,22.622822,0.0 120.301027,22.624026,0.0 120.301058,22.624336,0.0 120.301169,22.625418,0.0 120.301354,22.626471,0.0 120.300609,22.626977,0.0 120.300253,22.626846,0.0 120.299842,22.626695,0.0 120.298114,22.626126,0.0 120.297166,22.625792,0.0 120.296676,22.625655,0.0 120.2964,22.625578,0.0 120.295524,22.624738,0.0 120.295646,22.624428,0.0 120.295932,22.623733,0.0 120.296288,22.622778,0.0 120.296405,22.622453,0.0 120.29722,22.621823,0.0</coordinates></LinearRing></outerBoundaryIs></Polygon><styleUrl>#spolygon-map</styleUrl></Placemark><Placemark><Polygon><outerBoundaryIs><LinearRing><coordinates>120.296765,22.618193,0.0 120.297882,22.618603,0.0 120.297579,22.619406,0.0 120.297288,22.620178,0.0 120.296736,22.621634,0.0 120.295208,22.620661,0.0 120.295465,22.619977,0.0 120.295612,22.619578,0.0 120.296031,22.618464,0.0 120.296195,22.618034,0.0 120.296765,22.618193,0.0</coordinates></LinearRing></outerBoundaryIs></Polygon><styleUrl>#spolygon-map</styleUrl></Placemark><Placemark><Polygon><outerBoundaryIs><LinearRing><coordinates>120.297917,22.618579,0.0 120.299027,22.618951,0.0 120.299583,22.619523,0.0 120.299389,22.62002,0.0 120.298834,22.621476,0.0 120.298778,22.621637,0.0 120.298535,22.622242,0.0 120.297831,22.622018,0.0 120.29722,22.621823,0.0 120.297005,22.620897,0.0 120.297438,22.619779,0.0 120.29773,22.619012,0.0 120.297897,22.618565,0.0 120.297917,22.618579,0.0</coordinates></LinearRing></outerBoundaryIs></Polygon><styleUrl>#spolygon-map</styleUrl></Placemark><Placemark><Polygon><outerBoundaryIs><LinearRing><coordinates>120.300652,22.61951,0.0 120.301322,22.619738,0.0 120.302142,22.620018,0.0 120.301426,22.621717,0.0 120.300962,22.62309,0.0 120.299474,22.62258,0.0 120.298612,22.62227,0.0 120.298721,22.621765,0.0 120.298826,22.621505,0.0 120.299095,22.620773,0.0 120.29958,22.619531,0.0 120.299723,22.619186,0.0 120.300652,22.61951,0.0</coordinates></LinearRing></outerBoundaryIs></Polygon><styleUrl>#spolygon-map</styleUrl></Placemark></Document>
</kml>
