<?xml version="1.0" encoding="UTF-8"?>
<kml xmlns="http://www.opengis.net/kml/2.2">
	<Document>
		<name>高雄市大樹區</name>
		<Style id="spolygon">
			<LabelStyle>
				<scale>0.0</scale>
			</LabelStyle>
			<LineStyle>
				<color>330030ff</color>
				<width>0</width>
			</LineStyle>
			<PolyStyle>
				<color>330030ff</color>
			</PolyStyle>
		</Style>
		<StyleMap id="spolygon-map">
			<Pair>
				<key>normal</key>
				<styleUrl>#spolygon</styleUrl>
			</Pair>
		</StyleMap>
	<Placemark><Polygon><outerBoundaryIs><LinearRing><coordinates>120.425419,22.67691,0.0 120.424979,22.677303,0.0 120.424449,22.678019,0.0 120.424398,22.678222,0.0 120.423792,22.678582,0.0 120.422915,22.678851,0.0 120.422189,22.679165,0.0 120.420235,22.680253,0.0 120.419395,22.680796,0.0 120.418369,22.68119,0.0 120.417937,22.681448,0.0 120.417677,22.680142,0.0 120.417547,22.679669,0.0 120.417349,22.679382,0.0 120.417069,22.679094,0.0 120.416777,22.678908,0.0 120.41618,22.678222,0.0 120.415745,22.677728,0.0 120.415611,22.677506,0.0 120.415446,22.677138,0.0 120.415366,22.676537,0.0 120.41526,22.675724,0.0 120.41513,22.674619,0.0 120.415107,22.674102,0.0 120.415223,22.673662,0.0 120.415416,22.673308,0.0 120.415754,22.672917,0.0 120.416295,22.672339,0.0 120.416585,22.67201,0.0 120.416863,22.671483,0.0 120.416964,22.670925,0.0 120.416955,22.670207,0.0 120.41692,22.66895,0.0 120.416904,22.668117,0.0 120.416875,22.667286,0.0 120.416941,22.666688,0.0 120.41716,22.665867,0.0 120.417301,22.665702,0.0 120.418463,22.664966,0.0 120.41919,22.66351,0.0 120.419551,22.66325,0.0 120.420078,22.66266,0.0 120.420288,22.662564,0.0 120.420594,22.662488,0.0 120.42086,22.662272,0.0 120.421489,22.662349,0.0 120.422431,22.662262,0.0 120.423046,22.66189,0.0 120.423571,22.661472,0.0 120.423764,22.661619,0.0 120.424173,22.661824,0.0 120.424318,22.661756,0.0 120.42448,22.661588,0.0 120.424569,22.661362,0.0 120.42459,22.661182,0.0 120.424632,22.660832,0.0 120.424764,22.660279,0.0 120.424791,22.660074,0.0 120.424873,22.659959,0.0 120.425111,22.659806,0.0 120.425196,22.659545,0.0 120.425316,22.65934,0.0 120.425374,22.658873,0.0 120.42778,22.65987,0.0 120.429061,22.659665,0.0 120.430859,22.659542,0.0 120.431847,22.659517,0.0 120.435951,22.659554,0.0 120.435971,22.660218,0.0 120.436045,22.661139,0.0 120.436112,22.661755,0.0 120.436228,22.662411,0.0 120.436325,22.663025,0.0 120.436495,22.664087,0.0 120.436624,22.66502,0.0 120.436829,22.665481,0.0 120.437146,22.665913,0.0 120.437452,22.666357,0.0 120.437748,22.666825,0.0 120.438038,22.667592,0.0 120.438346,22.668408,0.0 120.438621,22.669142,0.0 120.43874,22.669579,0.0 120.438889,22.670062,0.0 120.439058,22.670639,0.0 120.439315,22.671163,0.0 120.439631,22.671903,0.0 120.439714,22.672154,0.0 120.430845,22.673852,0.0 120.428048,22.674975,0.0 120.428063,22.675214,0.0 120.427994,22.675519,0.0 120.427766,22.675577,0.0 120.427569,22.675402,0.0 120.427416,22.675465,0.0 120.427272,22.675966,0.0 120.427102,22.676092,0.0 120.426642,22.676388,0.0 120.425976,22.676878,0.0 120.425774,22.6769,0.0 120.425607,22.676829,0.0 120.425419,22.67691,0.0</coordinates></LinearRing></outerBoundaryIs></Polygon><styleUrl>#spolygon-map</styleUrl></Placemark><Placemark><Polygon><outerBoundaryIs><LinearRing><coordinates>120.42545,22.659182,0.0 120.425251,22.659428,0.0 120.425146,22.6597,0.0 120.42499,22.659878,0.0 120.424808,22.660036,0.0 120.424779,22.660187,0.0 120.424695,22.660624,0.0 120.424604,22.660942,0.0 120.424587,22.661263,0.0 120.424524,22.661502,0.0 120.424385,22.661693,0.0 120.424246,22.661801,0.0 120.424101,22.66183,0.0 120.423647,22.661531,0.0 120.423394,22.661333,0.0 120.423033,22.660993,0.0 120.422505,22.66035,0.0 120.422146,22.65966,0.0 120.422001,22.659244,0.0 120.421703,22.658103,0.0 120.421377,22.656634,0.0 120.421126,22.655505,0.0 120.420916,22.654569,0.0 120.420638,22.653324,0.0 120.42053,22.652847,0.0 120.420046,22.650742,0.0 120.419614,22.648945,0.0 120.418542,22.6496,0.0 120.417369,22.65012,0.0 120.416648,22.650056,0.0 120.41653,22.649952,0.0 120.416984,22.6495,0.0 120.417236,22.649034,0.0 120.41728,22.648842,0.0 120.416647,22.648374,0.0 120.416371,22.648096,0.0 120.416084,22.647995,0.0 120.41571,22.647915,0.0 120.415477,22.648047,0.0 120.415094,22.648251,0.0 120.41475,22.648435,0.0 120.414437,22.648432,0.0 120.414333,22.648504,0.0 120.414086,22.648785,0.0 120.413943,22.648751,0.0 120.413517,22.648733,0.0 120.413067,22.648716,0.0 120.412658,22.648647,0.0 120.412325,22.648697,0.0 120.412305,22.649013,0.0 120.412301,22.649273,0.0 120.412383,22.649578,0.0 120.412412,22.649856,0.0 120.412387,22.650174,0.0 120.412173,22.650489,0.0 120.412072,22.650566,0.0 120.411898,22.650518,0.0 120.411666,22.650402,0.0 120.411321,22.650328,0.0 120.4113,22.650143,0.0 120.411307,22.649865,0.0 120.411285,22.649676,0.0 120.411262,22.649526,0.0 120.41129,22.649407,0.0 120.411293,22.649233,0.0 120.411252,22.649149,0.0 120.411083,22.649092,0.0 120.410845,22.64904,0.0 120.410748,22.648944,0.0 120.410655,22.648736,0.0 120.410518,22.648625,0.0 120.410385,22.64846,0.0 120.410278,22.648358,0.0 120.410189,22.648324,0.0 120.410068,22.648267,0.0 120.40997,22.648113,0.0 120.409893,22.647815,0.0 120.409929,22.647639,0.0 120.410016,22.647309,0.0 120.410086,22.647023,0.0 120.410056,22.646783,0.0 120.40999,22.646544,0.0 120.409003,22.646563,0.0 120.406618,22.646428,0.0 120.404705,22.646603,0.0 120.402434,22.646676,0.0 120.401282,22.646496,0.0 120.400906,22.646221,0.0 120.400567,22.645938,0.0 120.400161,22.645469,0.0 120.400275,22.644393,0.0 120.400544,22.643475,0.0 120.400725,22.643473,0.0 120.400871,22.643451,0.0 120.400985,22.643345,0.0 120.401093,22.643224,0.0 120.40122,22.643134,0.0 120.401333,22.643062,0.0 120.401476,22.64299,0.0 120.401864,22.642978,0.0 120.402331,22.642982,0.0 120.402682,22.642984,0.0 120.402932,22.643,0.0 120.403148,22.643062,0.0 120.403462,22.643199,0.0 120.403641,22.643208,0.0 120.403971,22.643196,0.0 120.404292,22.643236,0.0 120.404608,22.643221,0.0 120.404882,22.643281,0.0 120.405214,22.643386,0.0 120.405376,22.643447,0.0 120.405509,22.643561,0.0 120.405698,22.643738,0.0 120.406292,22.64395,0.0 120.406478,22.643977,0.0 120.406843,22.643995,0.0 120.407112,22.643973,0.0 120.407624,22.643909,0.0 120.408041,22.643859,0.0 120.40846,22.643811,0.0 120.408727,22.643758,0.0 120.408956,22.643691,0.0 120.409235,22.643581,0.0 120.409607,22.643404,0.0 120.410075,22.643246,0.0 120.410561,22.643196,0.0 120.410954,22.643224,0.0 120.411302,22.643187,0.0 120.41157,22.643222,0.0 120.411721,22.643204,0.0 120.411958,22.643083,0.0 120.412193,22.642962,0.0 120.412472,22.643004,0.0 120.412849,22.643046,0.0 120.413205,22.642984,0.0 120.413647,22.642889,0.0 120.413976,22.642985,0.0 120.414426,22.643025,0.0 120.415186,22.643043,0.0 120.415513,22.643202,0.0 120.415821,22.643603,0.0 120.415819,22.643786,0.0 120.416343,22.644156,0.0 120.41666,22.644369,0.0 120.417124,22.644581,0.0 120.417585,22.644815,0.0 120.417772,22.644872,0.0 120.418018,22.644846,0.0 120.418406,22.64529,0.0 120.418791,22.645768,0.0 120.419383,22.6457,0.0 120.419431,22.645359,0.0 120.419468,22.645109,0.0 120.419588,22.644725,0.0 120.419934,22.645336,0.0 120.420132,22.645294,0.0 120.420344,22.645263,0.0 120.420482,22.6453,0.0 120.420557,22.645363,0.0 120.42071,22.645513,0.0 120.420882,22.645692,0.0 120.421003,22.645814,0.0 120.421099,22.645887,0.0 120.421195,22.64593,0.0 120.421439,22.645942,0.0 120.421633,22.645952,0.0 120.421742,22.646002,0.0 120.421952,22.646138,0.0 120.422176,22.646286,0.0 120.422256,22.646349,0.0 120.422404,22.646517,0.0 120.422556,22.646716,0.0 120.422729,22.646933,0.0 120.422929,22.647196,0.0 120.42303,22.647332,0.0 120.423138,22.647443,0.0 120.42331,22.647511,0.0 120.424032,22.647631,0.0 120.424302,22.647668,0.0 120.424438,22.647734,0.0 120.42465,22.647918,0.0 120.424798,22.648083,0.0 120.424936,22.648221,0.0 120.425045,22.648335,0.0 120.425294,22.648532,0.0 120.426233,22.649283,0.0 120.426859,22.649364,0.0 120.427725,22.649372,0.0 120.428467,22.649392,0.0 120.42995,22.649443,0.0 120.43006,22.649441,0.0 120.430767,22.649732,0.0 120.431099,22.649849,0.0 120.431233,22.649903,0.0 120.431795,22.650122,0.0 120.433125,22.65063,0.0 120.433958,22.65094,0.0 120.434337,22.651084,0.0 120.4351,22.651324,0.0 120.43556,22.651501,0.0 120.436057,22.651681,0.0 120.436,22.652541,0.0 120.435959,22.653126,0.0 120.435951,22.653618,0.0 120.435929,22.654194,0.0 120.435926,22.654842,0.0 120.435898,22.655627,0.0 120.435884,22.656262,0.0 120.435879,22.656795,0.0 120.435887,22.657686,0.0 120.435907,22.658294,0.0 120.435946,22.659452,0.0 120.431072,22.65953,0.0 120.429433,22.659639,0.0 120.428298,22.659786,0.0 120.426779,22.659453,0.0 120.42545,22.659182,0.0</coordinates></LinearRing></outerBoundaryIs></Polygon><styleUrl>#spolygon-map</styleUrl></Placemark><Placemark><Polygon><outerBoundaryIs><LinearRing><coordinates>120.41692,22.66895,0.0 120.416474,22.668937,0.0 120.416237,22.668943,0.0 120.416098,22.668805,0.0 120.416063,22.668466,0.0 120.41591,22.667876,0.0 120.415785,22.667433,0.0 120.415548,22.667037,0.0 120.415466,22.666671,0.0 120.415331,22.666239,0.0 120.415314,22.665842,0.0 120.415405,22.665449,0.0 120.41544,22.665102,0.0 120.415611,22.664723,0.0 120.415769,22.664349,0.0 120.415878,22.663999,0.0 120.415962,22.66369,0.0 120.416363,22.663195,0.0 120.416334,22.663046,0.0 120.416117,22.662937,0.0 120.415946,22.662805,0.0 120.415838,22.662746,0.0 120.415739,22.662852,0.0 120.415653,22.662919,0.0 120.415313,22.662957,0.0 120.415193,22.663144,0.0 120.415021,22.663181,0.0 120.414094,22.663058,0.0 120.413573,22.662984,0.0 120.413532,22.662562,0.0 120.413506,22.662189,0.0 120.413504,22.661979,0.0 120.413543,22.661562,0.0 120.413435,22.661299,0.0 120.41319,22.66107,0.0 120.412943,22.660758,0.0 120.412647,22.660612,0.0 120.412419,22.660535,0.0 120.412249,22.660588,0.0 120.411737,22.660074,0.0 120.410692,22.659255,0.0 120.409711,22.658459,0.0 120.409641,22.655752,0.0 120.409659,22.654162,0.0 120.409662,22.653914,0.0 120.409688,22.653673,0.0 120.409694,22.653487,0.0 120.409597,22.653255,0.0 120.409535,22.653038,0.0 120.409554,22.652731,0.0 120.40961,22.652507,0.0 120.409653,22.652266,0.0 120.409666,22.652115,0.0 120.409653,22.651902,0.0 120.409698,22.651747,0.0 120.409702,22.651634,0.0 120.409488,22.651563,0.0 120.409209,22.651395,0.0 120.409179,22.65128,0.0 120.409297,22.650957,0.0 120.409401,22.650615,0.0 120.409631,22.650536,0.0 120.410003,22.650504,0.0 120.410479,22.650447,0.0 120.41088,22.650394,0.0 120.411189,22.650355,0.0 120.411385,22.65034,0.0 120.411741,22.650438,0.0 120.411987,22.650552,0.0 120.412143,22.650523,0.0 120.412303,22.65032,0.0 120.412397,22.650016,0.0 120.412405,22.649723,0.0 120.412352,22.649449,0.0 120.412294,22.649169,0.0 120.412324,22.648864,0.0 120.412489,22.648675,0.0 120.412911,22.648688,0.0 120.41321,22.648728,0.0 120.413838,22.648737,0.0 120.414036,22.648789,0.0 120.41415,22.648747,0.0 120.414377,22.648452,0.0 120.414676,22.648439,0.0 120.414826,22.648406,0.0 120.415281,22.648135,0.0 120.415619,22.647967,0.0 120.415838,22.647904,0.0 120.416246,22.648052,0.0 120.416548,22.648286,0.0 120.417038,22.648633,0.0 120.417293,22.648882,0.0 120.417053,22.649387,0.0 120.416921,22.649595,0.0 120.41655,22.650054,0.0 120.416954,22.65008,0.0 120.417622,22.650159,0.0 120.418892,22.649387,0.0 120.419806,22.649743,0.0 120.42024,22.65156,0.0 120.420533,22.652859,0.0 120.420835,22.654205,0.0 120.421011,22.654992,0.0 120.421367,22.656591,0.0 120.421665,22.657931,0.0 120.421879,22.658896,0.0 120.422122,22.65959,0.0 120.422272,22.659909,0.0 120.422599,22.66052,0.0 120.423194,22.661156,0.0 120.423571,22.661472,0.0 120.423046,22.66189,0.0 120.422431,22.662262,0.0 120.421489,22.662349,0.0 120.42086,22.662272,0.0 120.420594,22.662488,0.0 120.420288,22.662564,0.0 120.420078,22.66266,0.0 120.419551,22.66325,0.0 120.41919,22.66351,0.0 120.418463,22.664966,0.0 120.417301,22.665702,0.0 120.41716,22.665867,0.0 120.416941,22.666688,0.0 120.416875,22.667286,0.0 120.416904,22.668117,0.0 120.41692,22.66895,0.0</coordinates></LinearRing></outerBoundaryIs></Polygon><styleUrl>#spolygon-map</styleUrl></Placemark><Placemark><Polygon><outerBoundaryIs><LinearRing><coordinates>120.409751,22.66507,0.0 120.409592,22.665272,0.0 120.409373,22.665856,0.0 120.409127,22.665797,0.0 120.408793,22.66573,0.0 120.408481,22.665675,0.0 120.408346,22.665563,0.0 120.408197,22.665184,0.0 120.408139,22.665041,0.0 120.407796,22.664965,0.0 120.407202,22.664934,0.0 120.40705,22.665024,0.0 120.406777,22.665205,0.0 120.406423,22.665425,0.0 120.406188,22.665526,0.0 120.405971,22.66509,0.0 120.405451,22.664487,0.0 120.404895,22.663916,0.0 120.404391,22.663302,0.0 120.403569,22.662426,0.0 120.403276,22.662187,0.0 120.40277,22.661881,0.0 120.402541,22.661679,0.0 120.402437,22.661604,0.0 120.402232,22.661111,0.0 120.401941,22.660376,0.0 120.40211,22.660063,0.0 120.402329,22.659793,0.0 120.402305,22.659574,0.0 120.402139,22.659329,0.0 120.401955,22.659148,0.0 120.401955,22.659026,0.0 120.402092,22.658713,0.0 120.402136,22.658444,0.0 120.402028,22.658261,0.0 120.40185,22.658211,0.0 120.401531,22.658092,0.0 120.401501,22.657912,0.0 120.401561,22.657749,0.0 120.401653,22.657594,0.0 120.401785,22.657375,0.0 120.401844,22.657195,0.0 120.401847,22.65701,0.0 120.401678,22.656824,0.0 120.401614,22.656657,0.0 120.401674,22.656458,0.0 120.401711,22.656289,0.0 120.401648,22.655961,0.0 120.401601,22.655713,0.0 120.401577,22.655471,0.0 120.401546,22.655338,0.0 120.401434,22.655216,0.0 120.401327,22.654987,0.0 120.401266,22.654793,0.0 120.401186,22.654648,0.0 120.401094,22.654514,0.0 120.401026,22.6543,0.0 120.401031,22.654187,0.0 120.401054,22.654018,0.0 120.401043,22.653871,0.0 120.401024,22.653708,0.0 120.401057,22.653534,0.0 120.401094,22.653392,0.0 120.401143,22.653086,0.0 120.401173,22.6529,0.0 120.401146,22.652853,0.0 120.400875,22.652637,0.0 120.4007,22.652463,0.0 120.400542,22.652239,0.0 120.400514,22.65211,0.0 120.400526,22.651936,0.0 120.400445,22.651794,0.0 120.40039,22.651645,0.0 120.400288,22.65152,0.0 120.400116,22.65149,0.0 120.40004,22.651438,0.0 120.399875,22.651236,0.0 120.399676,22.65103,0.0 120.39947,22.650722,0.0 120.399558,22.650641,0.0 120.399642,22.650497,0.0 120.399746,22.650357,0.0 120.399881,22.650281,0.0 120.400307,22.650177,0.0 120.400394,22.650044,0.0 120.400547,22.649871,0.0 120.400747,22.649747,0.0 120.400922,22.649669,0.0 120.401074,22.649536,0.0 120.401102,22.649283,0.0 120.401165,22.649035,0.0 120.401325,22.648596,0.0 120.4014,22.648156,0.0 120.401519,22.647826,0.0 120.401634,22.647355,0.0 120.401586,22.646991,0.0 120.401383,22.646605,0.0 120.402434,22.646676,0.0 120.404705,22.646603,0.0 120.406618,22.646428,0.0 120.409003,22.646563,0.0 120.40999,22.646544,0.0 120.410056,22.646783,0.0 120.410086,22.647023,0.0 120.410016,22.647309,0.0 120.409929,22.647639,0.0 120.409893,22.647815,0.0 120.40997,22.648113,0.0 120.410068,22.648267,0.0 120.410189,22.648324,0.0 120.410278,22.648358,0.0 120.410385,22.64846,0.0 120.410518,22.648625,0.0 120.410655,22.648736,0.0 120.410748,22.648944,0.0 120.410845,22.64904,0.0 120.411083,22.649092,0.0 120.411252,22.649149,0.0 120.411293,22.649233,0.0 120.41129,22.649407,0.0 120.411262,22.649526,0.0 120.411285,22.649676,0.0 120.411307,22.649865,0.0 120.4113,22.650143,0.0 120.411321,22.650328,0.0 120.411017,22.650381,0.0 120.410721,22.650405,0.0 120.410268,22.650473,0.0 120.409744,22.650523,0.0 120.409482,22.650588,0.0 120.409353,22.650766,0.0 120.409229,22.651145,0.0 120.409171,22.651354,0.0 120.409346,22.651484,0.0 120.409545,22.651588,0.0 120.409703,22.651661,0.0 120.409685,22.651792,0.0 120.409653,22.651995,0.0 120.409669,22.652182,0.0 120.40963,22.652383,0.0 120.4096,22.652593,0.0 120.409533,22.6529,0.0 120.409557,22.653162,0.0 120.409655,22.653372,0.0 120.4097,22.653576,0.0 120.40966,22.653785,0.0 120.409664,22.654025,0.0 120.409657,22.654219,0.0 120.409623,22.657592,0.0 120.409964,22.658778,0.0 120.41102,22.659466,0.0 120.411993,22.660332,0.0 120.411803,22.66116,0.0 120.411057,22.662178,0.0 120.410852,22.662802,0.0 120.410508,22.663774,0.0 120.410223,22.66462,0.0 120.409927,22.664926,0.0 120.409751,22.66507,0.0</coordinates></LinearRing></outerBoundaryIs></Polygon><styleUrl>#spolygon-map</styleUrl></Placemark><Placemark><Polygon><outerBoundaryIs><LinearRing><coordinates>120.402706,22.671625,0.0 120.402358,22.671831,0.0 120.401961,22.671746,0.0 120.401816,22.671649,0.0 120.401616,22.671591,0.0 120.401413,22.671595,0.0 120.401253,22.671649,0.0 120.401022,22.671677,0.0 120.400781,22.671636,0.0 120.400541,22.671562,0.0 120.400341,22.671523,0.0 120.40016,22.671441,0.0 120.399896,22.671361,0.0 120.399576,22.67129,0.0 120.399227,22.671181,0.0 120.399083,22.671196,0.0 120.399065,22.67085,0.0 120.399178,22.670365,0.0 120.399542,22.669933,0.0 120.399879,22.6696,0.0 120.39991,22.668975,0.0 120.400593,22.668156,0.0 120.401338,22.667669,0.0 120.401887,22.667242,0.0 120.402257,22.666895,0.0 120.402583,22.666445,0.0 120.40257,22.665971,0.0 120.402479,22.665122,0.0 120.402572,22.66475,0.0 120.402779,22.664389,0.0 120.402776,22.664202,0.0 120.402771,22.663947,0.0 120.402692,22.663854,0.0 120.402688,22.66372,0.0 120.402685,22.663499,0.0 120.402678,22.663328,0.0 120.402613,22.663113,0.0 120.402528,22.662916,0.0 120.402586,22.662535,0.0 120.402623,22.662397,0.0 120.402671,22.66219,0.0 120.402693,22.662068,0.0 120.402548,22.661927,0.0 120.40247,22.661789,0.0 120.402437,22.661604,0.0 120.402541,22.661679,0.0 120.40277,22.661881,0.0 120.403276,22.662187,0.0 120.403569,22.662426,0.0 120.404391,22.663302,0.0 120.404895,22.663916,0.0 120.405451,22.664487,0.0 120.405971,22.66509,0.0 120.406188,22.665526,0.0 120.406423,22.665425,0.0 120.406777,22.665205,0.0 120.40705,22.665024,0.0 120.407202,22.664934,0.0 120.407796,22.664965,0.0 120.408139,22.665041,0.0 120.408197,22.665184,0.0 120.408346,22.665563,0.0 120.408481,22.665675,0.0 120.408793,22.66573,0.0 120.409127,22.665797,0.0 120.409373,22.665856,0.0 120.409592,22.665272,0.0 120.409751,22.66507,0.0 120.410126,22.664796,0.0 120.410456,22.663937,0.0 120.410611,22.663492,0.0 120.410929,22.662527,0.0 120.411474,22.661565,0.0 120.412249,22.660588,0.0 120.412419,22.660535,0.0 120.412647,22.660612,0.0 120.412943,22.660758,0.0 120.41319,22.66107,0.0 120.413435,22.661299,0.0 120.413543,22.661562,0.0 120.413504,22.661979,0.0 120.413506,22.662189,0.0 120.413532,22.662562,0.0 120.413573,22.662984,0.0 120.414094,22.663058,0.0 120.415021,22.663181,0.0 120.415193,22.663144,0.0 120.415313,22.662957,0.0 120.415653,22.662919,0.0 120.415739,22.662852,0.0 120.415838,22.662746,0.0 120.415946,22.662805,0.0 120.416117,22.662937,0.0 120.416334,22.663046,0.0 120.416363,22.663195,0.0 120.415962,22.66369,0.0 120.415878,22.663999,0.0 120.415769,22.664349,0.0 120.415611,22.664723,0.0 120.41544,22.665102,0.0 120.415405,22.665449,0.0 120.415314,22.665842,0.0 120.415331,22.666239,0.0 120.415466,22.666671,0.0 120.415548,22.667037,0.0 120.415785,22.667433,0.0 120.41591,22.667876,0.0 120.416063,22.668466,0.0 120.416098,22.668805,0.0 120.415921,22.668817,0.0 120.415042,22.66832,0.0 120.414425,22.668033,0.0 120.413853,22.667649,0.0 120.413303,22.667643,0.0 120.412888,22.667849,0.0 120.412608,22.667896,0.0 120.411875,22.66762,0.0 120.411654,22.667461,0.0 120.411359,22.667178,0.0 120.411194,22.667114,0.0 120.411028,22.667167,0.0 120.410868,22.66748,0.0 120.410858,22.667722,0.0 120.410828,22.667903,0.0 120.410633,22.668028,0.0 120.410439,22.668122,0.0 120.409084,22.668321,0.0 120.40912,22.66861,0.0 120.409107,22.668792,0.0 120.408937,22.66893,0.0 120.40881,22.66894,0.0 120.408481,22.66893,0.0 120.408421,22.668846,0.0 120.408323,22.668986,0.0 120.408307,22.669336,0.0 120.404704,22.670343,0.0 120.404504,22.670564,0.0 120.40425,22.670761,0.0 120.403915,22.670864,0.0 120.403548,22.671045,0.0 120.403125,22.67134,0.0 120.402706,22.671625,0.0</coordinates></LinearRing></outerBoundaryIs></Polygon><styleUrl>#spolygon-map</styleUrl></Placemark><Placemark><Polygon><outerBoundaryIs><LinearRing><coordinates>120.451219,22.699579,0.0 120.451266,22.700076,0.0 120.451421,22.700526,0.0 120.451675,22.701245,0.0 120.452,22.70212,0.0 120.449877,22.702559,0.0 120.447062,22.703085,0.0 120.444742,22.703634,0.0 120.443673,22.704452,0.0 120.442933,22.70515,0.0 120.442323,22.705954,0.0 120.442238,22.706637,0.0 120.441399,22.707199,0.0 120.440741,22.707775,0.0 120.439904,22.707939,0.0 120.439018,22.707084,0.0 120.43825,22.70542,0.0 120.437392,22.703557,0.0 120.436871,22.702437,0.0 120.436097,22.700784,0.0 120.435786,22.700083,0.0 120.435469,22.699439,0.0 120.434787,22.69945,0.0 120.434326,22.699516,0.0 120.433965,22.699585,0.0 120.433457,22.699777,0.0 120.432349,22.69889,0.0 120.431702,22.698917,0.0 120.431177,22.699116,0.0 120.429493,22.700497,0.0 120.429065,22.699694,0.0 120.428562,22.698321,0.0 120.428026,22.697575,0.0 120.427845,22.696788,0.0 120.42856,22.695077,0.0 120.428012,22.693488,0.0 120.426986,22.692432,0.0 120.425982,22.691435,0.0 120.425712,22.69005,0.0 120.426045,22.689783,0.0 120.426344,22.68963,0.0 120.426598,22.689509,0.0 120.426648,22.689214,0.0 120.426744,22.689025,0.0 120.427794,22.68894,0.0 120.428259,22.688989,0.0 120.428542,22.689033,0.0 120.428795,22.689034,0.0 120.429009,22.689055,0.0 120.429251,22.689119,0.0 120.429611,22.68924,0.0 120.429998,22.689316,0.0 120.430159,22.689299,0.0 120.430269,22.689222,0.0 120.430405,22.688889,0.0 120.430637,22.688564,0.0 120.431001,22.688561,0.0 120.431482,22.688005,0.0 120.432092,22.687782,0.0 120.432356,22.688153,0.0 120.432528,22.688262,0.0 120.432873,22.688466,0.0 120.432982,22.6886,0.0 120.433158,22.689104,0.0 120.433333,22.689016,0.0 120.433768,22.689187,0.0 120.434134,22.689299,0.0 120.434419,22.689492,0.0 120.43471,22.689565,0.0 120.434996,22.689566,0.0 120.43548,22.6896,0.0 120.43568,22.689027,0.0 120.436397,22.688616,0.0 120.443004,22.684982,0.0 120.443619,22.685564,0.0 120.444315,22.686115,0.0 120.445039,22.686581,0.0 120.445792,22.68696,0.0 120.446541,22.687385,0.0 120.447162,22.687893,0.0 120.447642,22.688536,0.0 120.447998,22.689305,0.0 120.448324,22.690049,0.0 120.448825,22.691188,0.0 120.449139,22.692079,0.0 120.449551,22.693288,0.0 120.449833,22.694161,0.0 120.449997,22.694671,0.0 120.450269,22.695383,0.0 120.450606,22.696218,0.0 120.450956,22.697366,0.0 120.451103,22.698193,0.0 120.45114,22.698491,0.0 120.451198,22.698934,0.0 120.451219,22.699579,0.0</coordinates></LinearRing></outerBoundaryIs></Polygon><styleUrl>#spolygon-map</styleUrl></Placemark><Placemark><Polygon><outerBoundaryIs><LinearRing><coordinates>120.427939,22.697197,0.0 120.428255,22.69802,0.0 120.428913,22.699136,0.0 120.429292,22.700566,0.0 120.426974,22.701684,0.0 120.423213,22.704012,0.0 120.42214,22.702931,0.0 120.421294,22.700196,0.0 120.420896,22.699262,0.0 120.420245,22.697477,0.0 120.419774,22.696978,0.0 120.419295,22.696873,0.0 120.418769,22.696421,0.0 120.418096,22.696013,0.0 120.417387,22.695949,0.0 120.415899,22.69607,0.0 120.415212,22.696002,0.0 120.414366,22.69578,0.0 120.413472,22.696194,0.0 120.412913,22.696201,0.0 120.412108,22.696104,0.0 120.410722,22.696331,0.0 120.41,22.696369,0.0 120.409526,22.696442,0.0 120.409485,22.696175,0.0 120.409364,22.69596,0.0 120.408983,22.695686,0.0 120.408839,22.695559,0.0 120.408837,22.69541,0.0 120.409048,22.694984,0.0 120.409254,22.69451,0.0 120.4092,22.694246,0.0 120.409249,22.693844,0.0 120.413744,22.692405,0.0 120.414422,22.692202,0.0 120.414634,22.692164,0.0 120.41489,22.691987,0.0 120.415217,22.691597,0.0 120.415531,22.691626,0.0 120.415851,22.691554,0.0 120.41625,22.691362,0.0 120.416384,22.69127,0.0 120.416725,22.691208,0.0 120.41693,22.691044,0.0 120.417281,22.690718,0.0 120.41756,22.690509,0.0 120.417808,22.690333,0.0 120.418278,22.689798,0.0 120.418539,22.689291,0.0 120.418725,22.689328,0.0 120.418942,22.689202,0.0 120.41929,22.68886,0.0 120.419591,22.688633,0.0 120.419769,22.688688,0.0 120.420034,22.688824,0.0 120.421933,22.688894,0.0 120.422712,22.689168,0.0 120.424054,22.689816,0.0 120.425095,22.690658,0.0 120.42628,22.691696,0.0 120.42735,22.692813,0.0 120.428547,22.694447,0.0 120.428216,22.6959,0.0 120.427939,22.697197,0.0</coordinates></LinearRing></outerBoundaryIs></Polygon><styleUrl>#spolygon-map</styleUrl></Placemark><Placemark><Polygon><outerBoundaryIs><LinearRing><coordinates>120.405437,22.722236,0.0 120.404992,22.722492,0.0 120.404676,22.723051,0.0 120.403948,22.723389,0.0 120.403379,22.723349,0.0 120.402791,22.723188,0.0 120.402423,22.722455,0.0 120.402319,22.72199,0.0 120.402231,22.721549,0.0 120.402119,22.720989,0.0 120.402016,22.720693,0.0 120.401792,22.720381,0.0 120.401606,22.719922,0.0 120.401533,22.71942,0.0 120.401408,22.719081,0.0 120.401255,22.71883,0.0 120.400952,22.718244,0.0 120.400611,22.717586,0.0 120.400305,22.71716,0.0 120.400065,22.716613,0.0 120.399944,22.716199,0.0 120.399741,22.715801,0.0 120.399538,22.715387,0.0 120.399403,22.71505,0.0 120.399372,22.714937,0.0 120.399354,22.714429,0.0 120.399153,22.713794,0.0 120.399206,22.713392,0.0 120.399332,22.713307,0.0 120.399891,22.712916,0.0 120.400073,22.712563,0.0 120.399946,22.712235,0.0 120.399884,22.712018,0.0 120.399626,22.711646,0.0 120.398896,22.711064,0.0 120.398624,22.710941,0.0 120.398202,22.71067,0.0 120.398291,22.710531,0.0 120.398304,22.709815,0.0 120.398433,22.709256,0.0 120.39825,22.70881,0.0 120.398043,22.708403,0.0 120.397859,22.708043,0.0 120.397619,22.707878,0.0 120.397363,22.707764,0.0 120.396978,22.707162,0.0 120.396494,22.706731,0.0 120.395916,22.706374,0.0 120.395564,22.705982,0.0 120.395245,22.705681,0.0 120.394858,22.70516,0.0 120.394637,22.704956,0.0 120.39451,22.704624,0.0 120.39436,22.704316,0.0 120.394056,22.703985,0.0 120.393839,22.70359,0.0 120.393468,22.70324,0.0 120.393506,22.703135,0.0 120.394002,22.703087,0.0 120.394933,22.703083,0.0 120.395464,22.702681,0.0 120.395527,22.702463,0.0 120.395676,22.702565,0.0 120.395929,22.702516,0.0 120.396202,22.701892,0.0 120.396619,22.701914,0.0 120.397386,22.702422,0.0 120.398037,22.70254,0.0 120.399346,22.702231,0.0 120.400657,22.701872,0.0 120.401829,22.702028,0.0 120.402758,22.702171,0.0 120.403452,22.701991,0.0 120.404068,22.701662,0.0 120.404567,22.701045,0.0 120.405103,22.699983,0.0 120.405448,22.699249,0.0 120.406019,22.698795,0.0 120.406748,22.698472,0.0 120.407438,22.697931,0.0 120.40791,22.697535,0.0 120.40882,22.696868,0.0 120.409526,22.696442,0.0 120.41,22.696369,0.0 120.410722,22.696331,0.0 120.412108,22.696104,0.0 120.412913,22.696201,0.0 120.413472,22.696194,0.0 120.414366,22.69578,0.0 120.415212,22.696002,0.0 120.415899,22.69607,0.0 120.417387,22.695949,0.0 120.418096,22.696013,0.0 120.418769,22.696421,0.0 120.419295,22.696873,0.0 120.419774,22.696978,0.0 120.420245,22.697477,0.0 120.420896,22.699262,0.0 120.421294,22.700196,0.0 120.42214,22.702931,0.0 120.422166,22.704787,0.0 120.42033,22.70595,0.0 120.419551,22.706433,0.0 120.417532,22.707983,0.0 120.417032,22.708078,0.0 120.416747,22.708244,0.0 120.416557,22.708169,0.0 120.415694,22.709006,0.0 120.413739,22.709543,0.0 120.412822,22.709957,0.0 120.41278,22.710377,0.0 120.412791,22.710562,0.0 120.412949,22.711077,0.0 120.413145,22.711579,0.0 120.413168,22.711941,0.0 120.413055,22.712342,0.0 120.412943,22.712789,0.0 120.412942,22.713062,0.0 120.413194,22.713298,0.0 120.41331,22.713519,0.0 120.413305,22.713824,0.0 120.413277,22.714068,0.0 120.413158,22.714379,0.0 120.412922,22.714617,0.0 120.412778,22.714865,0.0 120.412771,22.7151,0.0 120.412822,22.715312,0.0 120.41286,22.715606,0.0 120.412884,22.716157,0.0 120.413007,22.716546,0.0 120.413131,22.716794,0.0 120.413252,22.716924,0.0 120.413301,22.717082,0.0 120.413359,22.717409,0.0 120.41341,22.717696,0.0 120.41345,22.717965,0.0 120.413413,22.718125,0.0 120.413415,22.718299,0.0 120.413425,22.718541,0.0 120.413406,22.718796,0.0 120.41254,22.719303,0.0 120.411803,22.719867,0.0 120.410924,22.720816,0.0 120.410477,22.721625,0.0 120.410004,22.721971,0.0 120.409532,22.722033,0.0 120.408405,22.72257,0.0 120.407864,22.722722,0.0 120.4076,22.722682,0.0 120.406949,22.722475,0.0 120.406283,22.722343,0.0 120.405729,22.722199,0.0 120.405437,22.722236,0.0</coordinates></LinearRing></outerBoundaryIs></Polygon><styleUrl>#spolygon-map</styleUrl></Placemark><Placemark><Polygon><outerBoundaryIs><LinearRing><coordinates>120.414205,22.718024,0.0 120.41383,22.718515,0.0 120.413406,22.718796,0.0 120.413425,22.718541,0.0 120.413415,22.718299,0.0 120.413413,22.718125,0.0 120.41345,22.717965,0.0 120.41341,22.717696,0.0 120.413359,22.717409,0.0 120.413301,22.717082,0.0 120.413252,22.716924,0.0 120.413131,22.716794,0.0 120.413007,22.716546,0.0 120.412884,22.716157,0.0 120.41286,22.715606,0.0 120.412822,22.715312,0.0 120.412771,22.7151,0.0 120.412778,22.714865,0.0 120.412922,22.714617,0.0 120.413158,22.714379,0.0 120.413277,22.714068,0.0 120.413305,22.713824,0.0 120.41331,22.713519,0.0 120.413194,22.713298,0.0 120.412942,22.713062,0.0 120.412943,22.712789,0.0 120.413055,22.712342,0.0 120.413168,22.711941,0.0 120.413145,22.711579,0.0 120.412949,22.711077,0.0 120.412791,22.710562,0.0 120.41278,22.710377,0.0 120.412822,22.709957,0.0 120.413739,22.709543,0.0 120.415694,22.709006,0.0 120.416557,22.708169,0.0 120.416747,22.708244,0.0 120.417032,22.708078,0.0 120.417532,22.707983,0.0 120.419551,22.706433,0.0 120.42033,22.70595,0.0 120.422166,22.704787,0.0 120.423213,22.704012,0.0 120.426974,22.701684,0.0 120.429292,22.700566,0.0 120.430343,22.69977,0.0 120.431362,22.699031,0.0 120.431964,22.698862,0.0 120.432518,22.698934,0.0 120.43361,22.699728,0.0 120.434172,22.699547,0.0 120.434544,22.699478,0.0 120.435114,22.699442,0.0 120.435583,22.69966,0.0 120.435803,22.700117,0.0 120.436457,22.701553,0.0 120.437037,22.702808,0.0 120.437837,22.704504,0.0 120.438425,22.705798,0.0 120.439435,22.707969,0.0 120.438657,22.708223,0.0 120.438807,22.709276,0.0 120.437773,22.7099,0.0 120.436849,22.709969,0.0 120.434641,22.709559,0.0 120.433366,22.709099,0.0 120.433229,22.70908,0.0 120.432836,22.709162,0.0 120.432373,22.709416,0.0 120.432066,22.709907,0.0 120.431623,22.710287,0.0 120.430994,22.710348,0.0 120.430356,22.710255,0.0 120.428303,22.710377,0.0 120.427574,22.710774,0.0 120.427169,22.711328,0.0 120.426362,22.711873,0.0 120.425162,22.712251,0.0 120.42435,22.71267,0.0 120.424019,22.712985,0.0 120.422689,22.714583,0.0 120.422144,22.715073,0.0 120.420875,22.71557,0.0 120.419745,22.715649,0.0 120.419302,22.716029,0.0 120.418785,22.716452,0.0 120.418619,22.716684,0.0 120.418493,22.716947,0.0 120.418148,22.716919,0.0 120.417021,22.717125,0.0 120.416893,22.716935,0.0 120.416468,22.717177,0.0 120.415582,22.717792,0.0 120.414668,22.717909,0.0 120.414205,22.718024,0.0</coordinates></LinearRing></outerBoundaryIs></Polygon><styleUrl>#spolygon-map</styleUrl></Placemark><Placemark><Polygon><outerBoundaryIs><LinearRing><coordinates>120.439997,22.719729,0.0 120.439696,22.719759,0.0 120.438641,22.719708,0.0 120.437922,22.719708,0.0 120.437458,22.719609,0.0 120.437336,22.71967,0.0 120.437358,22.719444,0.0 120.437562,22.719061,0.0 120.437608,22.718899,0.0 120.437732,22.718788,0.0 120.438078,22.718555,0.0 120.438403,22.718531,0.0 120.438547,22.718462,0.0 120.438636,22.718295,0.0 120.43863,22.718173,0.0 120.438658,22.71783,0.0 120.438894,22.717616,0.0 120.438934,22.717429,0.0 120.439056,22.717242,0.0 120.439081,22.716851,0.0 120.43937,22.716679,0.0 120.439146,22.716231,0.0 120.438895,22.715905,0.0 120.438668,22.71559,0.0 120.43796,22.715545,0.0 120.436825,22.716119,0.0 120.436734,22.715769,0.0 120.436661,22.715608,0.0 120.436476,22.7153,0.0 120.436415,22.715115,0.0 120.436377,22.714982,0.0 120.436053,22.714597,0.0 120.435935,22.714479,0.0 120.435656,22.71425,0.0 120.435681,22.714031,0.0 120.435741,22.7139,0.0 120.435666,22.713539,0.0 120.435586,22.713128,0.0 120.435372,22.712641,0.0 120.435202,22.712065,0.0 120.435078,22.711739,0.0 120.434997,22.711565,0.0 120.434733,22.711278,0.0 120.434525,22.711225,0.0 120.434198,22.71128,0.0 120.433958,22.711239,0.0 120.433695,22.711111,0.0 120.43356,22.710759,0.0 120.433732,22.710552,0.0 120.433745,22.710233,0.0 120.43365,22.709624,0.0 120.433551,22.709305,0.0 120.433338,22.709096,0.0 120.433817,22.709319,0.0 120.435475,22.709754,0.0 120.437399,22.70998,0.0 120.438019,22.709826,0.0 120.438245,22.70847,0.0 120.439002,22.708103,0.0 120.439904,22.707939,0.0 120.440741,22.707775,0.0 120.441399,22.707199,0.0 120.442238,22.706637,0.0 120.442323,22.705954,0.0 120.442933,22.70515,0.0 120.443673,22.704452,0.0 120.444742,22.703634,0.0 120.447062,22.703085,0.0 120.449877,22.702559,0.0 120.452,22.70212,0.0 120.452034,22.70221,0.0 120.452221,22.70273,0.0 120.452372,22.70318,0.0 120.452607,22.703664,0.0 120.452786,22.704172,0.0 120.45282,22.704561,0.0 120.452802,22.705037,0.0 120.452882,22.705525,0.0 120.452925,22.705997,0.0 120.452987,22.706433,0.0 120.45309,22.706901,0.0 120.453195,22.707323,0.0 120.453469,22.708315,0.0 120.453738,22.709371,0.0 120.454,22.710396,0.0 120.454288,22.711635,0.0 120.454537,22.712667,0.0 120.45474,22.713575,0.0 120.454916,22.714371,0.0 120.455019,22.714949,0.0 120.455215,22.715844,0.0 120.455392,22.716664,0.0 120.455536,22.717489,0.0 120.455611,22.717877,0.0 120.455737,22.718496,0.0 120.455788,22.718973,0.0 120.45584,22.719677,0.0 120.45115,22.719594,0.0 120.449125,22.719433,0.0 120.447837,22.719178,0.0 120.447176,22.718986,0.0 120.446443,22.718627,0.0 120.445385,22.718226,0.0 120.44421,22.718134,0.0 120.443878,22.718182,0.0 120.443426,22.718262,0.0 120.443517,22.718594,0.0 120.443001,22.718592,0.0 120.442335,22.718608,0.0 120.441892,22.718771,0.0 120.441115,22.719128,0.0 120.440574,22.719442,0.0 120.440165,22.719637,0.0 120.439997,22.719729,0.0</coordinates></LinearRing></outerBoundaryIs></Polygon><styleUrl>#spolygon-map</styleUrl></Placemark><Placemark><Polygon><outerBoundaryIs><LinearRing><coordinates>120.402726,22.680617,0.0 120.402636,22.680782,0.0 120.402712,22.681552,0.0 120.402774,22.682053,0.0 120.401108,22.682849,0.0 120.397554,22.6843,0.0 120.39745,22.684512,0.0 120.397355,22.684647,0.0 120.397244,22.684685,0.0 120.397148,22.684642,0.0 120.396961,22.684402,0.0 120.396842,22.684203,0.0 120.396771,22.684036,0.0 120.396681,22.683857,0.0 120.396442,22.683628,0.0 120.396162,22.683491,0.0 120.396273,22.683201,0.0 120.396441,22.682598,0.0 120.396537,22.68229,0.0 120.396638,22.681983,0.0 120.396881,22.681756,0.0 120.397339,22.681505,0.0 120.397724,22.68131,0.0 120.397894,22.681107,0.0 120.397764,22.681034,0.0 120.397656,22.680833,0.0 120.397666,22.68077,0.0 120.397566,22.680634,0.0 120.397306,22.68057,0.0 120.396993,22.680643,0.0 120.396713,22.68061,0.0 120.396504,22.680515,0.0 120.396591,22.680326,0.0 120.396663,22.680084,0.0 120.396395,22.679939,0.0 120.396078,22.679965,0.0 120.395875,22.68,0.0 120.395932,22.679774,0.0 120.395904,22.679494,0.0 120.395603,22.679033,0.0 120.395526,22.67877,0.0 120.395824,22.678372,0.0 120.395825,22.678038,0.0 120.395856,22.677749,0.0 120.395985,22.67753,0.0 120.396098,22.677368,0.0 120.396394,22.677207,0.0 120.39655,22.677178,0.0 120.396892,22.6772,0.0 120.397088,22.67716,0.0 120.397164,22.676788,0.0 120.397056,22.675844,0.0 120.397016,22.675602,0.0 120.397441,22.675041,0.0 120.398329,22.67346,0.0 120.398467,22.673131,0.0 120.398468,22.673022,0.0 120.398617,22.672145,0.0 120.39854,22.671961,0.0 120.398205,22.671696,0.0 120.398278,22.671561,0.0 120.39854,22.671417,0.0 120.398982,22.671225,0.0 120.399133,22.671182,0.0 120.399365,22.671215,0.0 120.399701,22.671327,0.0 120.400041,22.671387,0.0 120.400296,22.671501,0.0 120.40042,22.671535,0.0 120.400658,22.671595,0.0 120.400948,22.671672,0.0 120.401132,22.67168,0.0 120.401327,22.671626,0.0 120.401526,22.671589,0.0 120.401729,22.671612,0.0 120.401883,22.67171,0.0 120.402126,22.671814,0.0 120.402482,22.671784,0.0 120.402901,22.671488,0.0 120.403349,22.671203,0.0 120.403669,22.670944,0.0 120.40408,22.670822,0.0 120.404395,22.670696,0.0 120.404614,22.670444,0.0 120.408301,22.669424,0.0 120.408311,22.669209,0.0 120.408352,22.668896,0.0 120.408459,22.668885,0.0 120.40866,22.668947,0.0 120.408926,22.66893,0.0 120.409101,22.668917,0.0 120.409126,22.668655,0.0 120.409076,22.668429,0.0 120.409337,22.668333,0.0 120.410583,22.66806,0.0 120.41071,22.667986,0.0 120.410863,22.667862,0.0 120.410848,22.667566,0.0 120.410932,22.667329,0.0 120.411091,22.667082,0.0 120.411313,22.667132,0.0 120.411472,22.667298,0.0 120.411777,22.667565,0.0 120.412229,22.667747,0.0 120.412753,22.667928,0.0 120.413055,22.667721,0.0 120.413607,22.667603,0.0 120.414145,22.667845,0.0 120.414614,22.668122,0.0 120.415448,22.66852,0.0 120.416085,22.668922,0.0 120.416407,22.668916,0.0 120.416928,22.669343,0.0 120.416956,22.670824,0.0 120.416218,22.671266,0.0 120.415193,22.672587,0.0 120.414832,22.67304,0.0 120.414321,22.673519,0.0 120.413533,22.674248,0.0 120.412834,22.674882,0.0 120.412405,22.675284,0.0 120.412001,22.67566,0.0 120.411967,22.675601,0.0 120.41188,22.675411,0.0 120.41178,22.675248,0.0 120.411667,22.675099,0.0 120.411517,22.67496,0.0 120.411448,22.674924,0.0 120.411223,22.674677,0.0 120.411047,22.674638,0.0 120.41014,22.674294,0.0 120.409969,22.674302,0.0 120.409923,22.674521,0.0 120.409868,22.674868,0.0 120.409782,22.674977,0.0 120.409643,22.675001,0.0 120.409589,22.674942,0.0 120.409545,22.674815,0.0 120.409446,22.674754,0.0 120.409163,22.674807,0.0 120.408712,22.674934,0.0 120.408639,22.675011,0.0 120.408518,22.675193,0.0 120.408351,22.675238,0.0 120.408073,22.675228,0.0 120.40804,22.675322,0.0 120.408084,22.675681,0.0 120.408274,22.675994,0.0 120.408323,22.676378,0.0 120.40832,22.676793,0.0 120.408142,22.677,0.0 120.407764,22.677173,0.0 120.407572,22.677362,0.0 120.407066,22.677141,0.0 120.4069,22.677054,0.0 120.406776,22.677067,0.0 120.406455,22.676845,0.0 120.406187,22.676797,0.0 120.405951,22.676703,0.0 120.40555,22.676661,0.0 120.405242,22.676628,0.0 120.405057,22.676709,0.0 120.404943,22.676941,0.0 120.404927,22.677149,0.0 120.405012,22.677302,0.0 120.40523,22.677452,0.0 120.405116,22.678691,0.0 120.40456,22.678877,0.0 120.404355,22.67907,0.0 120.403903,22.6797,0.0 120.403463,22.680293,0.0 120.403328,22.680394,0.0 120.402726,22.680617,0.0</coordinates></LinearRing></outerBoundaryIs></Polygon><styleUrl>#spolygon-map</styleUrl></Placemark><Placemark><Polygon><outerBoundaryIs><LinearRing><coordinates>120.395482,22.692897,0.0 120.395124,22.693071,0.0 120.394884,22.693118,0.0 120.394568,22.693126,0.0 120.394219,22.693199,0.0 120.394058,22.69332,0.0 120.393682,22.693585,0.0 120.393336,22.694164,0.0 120.392981,22.694562,0.0 120.392687,22.694814,0.0 120.392653,22.694805,0.0 120.392427,22.694587,0.0 120.392295,22.694196,0.0 120.39241,22.694,0.0 120.392851,22.69348,0.0 120.392972,22.693178,0.0 120.393089,22.692441,0.0 120.393129,22.692328,0.0 120.393289,22.692132,0.0 120.393307,22.691963,0.0 120.393143,22.691698,0.0 120.393098,22.691449,0.0 120.392946,22.691149,0.0 120.392783,22.690915,0.0 120.392641,22.690734,0.0 120.392574,22.690605,0.0 120.392523,22.690544,0.0 120.392241,22.690132,0.0 120.391956,22.68958,0.0 120.391535,22.689249,0.0 120.390831,22.688781,0.0 120.390754,22.68863,0.0 120.390661,22.688327,0.0 120.390599,22.688076,0.0 120.390559,22.687825,0.0 120.390216,22.68754,0.0 120.389975,22.687417,0.0 120.389897,22.68724,0.0 120.38994,22.686909,0.0 120.390112,22.6869,0.0 120.390227,22.686941,0.0 120.390441,22.687008,0.0 120.390649,22.686995,0.0 120.391059,22.686741,0.0 120.391422,22.686492,0.0 120.391641,22.686466,0.0 120.391958,22.686499,0.0 120.392444,22.686566,0.0 120.392872,22.686549,0.0 120.393402,22.686416,0.0 120.393688,22.68613,0.0 120.394013,22.685687,0.0 120.394246,22.685473,0.0 120.394561,22.685262,0.0 120.394949,22.68504,0.0 120.395304,22.684712,0.0 120.395729,22.684242,0.0 120.395903,22.683834,0.0 120.396051,22.683595,0.0 120.396382,22.683565,0.0 120.396589,22.683768,0.0 120.396737,22.683932,0.0 120.39679,22.684076,0.0 120.396899,22.684298,0.0 120.397069,22.684545,0.0 120.397194,22.684678,0.0 120.397296,22.684683,0.0 120.3974,22.684589,0.0 120.397516,22.684391,0.0 120.397595,22.684289,0.0 120.402861,22.682128,0.0 120.402752,22.681967,0.0 120.402657,22.681087,0.0 120.402679,22.680676,0.0 120.402927,22.680539,0.0 120.40341,22.680349,0.0 120.403553,22.680182,0.0 120.404082,22.679444,0.0 120.404438,22.678933,0.0 120.404734,22.678821,0.0 120.405479,22.678568,0.0 120.405148,22.677398,0.0 120.404933,22.677216,0.0 120.40492,22.677072,0.0 120.404993,22.676839,0.0 120.405126,22.676558,0.0 120.4054,22.676678,0.0 120.405782,22.676653,0.0 120.406084,22.676765,0.0 120.406373,22.676808,0.0 120.406646,22.676981,0.0 120.406864,22.67707,0.0 120.406951,22.677066,0.0 120.407308,22.677304,0.0 120.40767,22.677235,0.0 120.407954,22.677121,0.0 120.408263,22.676899,0.0 120.408322,22.676698,0.0 120.40834,22.676159,0.0 120.408152,22.675849,0.0 120.408061,22.675544,0.0 120.407996,22.675223,0.0 120.408201,22.675244,0.0 120.408464,22.675216,0.0 120.40859,22.675108,0.0 120.408663,22.674959,0.0 120.408924,22.674872,0.0 120.409364,22.674745,0.0 120.409509,22.674784,0.0 120.409572,22.674863,0.0 120.409607,22.674983,0.0 120.409701,22.675001,0.0 120.409841,22.674934,0.0 120.409904,22.67476,0.0 120.409933,22.674368,0.0 120.410059,22.674273,0.0 120.410234,22.674348,0.0 120.411126,22.674656,0.0 120.411379,22.674818,0.0 120.411461,22.674949,0.0 120.411566,22.674985,0.0 120.411741,22.675182,0.0 120.411824,22.675329,0.0 120.411938,22.67545,0.0 120.411989,22.675648,0.0 120.412196,22.675473,0.0 120.412642,22.675059,0.0 120.413171,22.674587,0.0 120.413889,22.673912,0.0 120.41477,22.673105,0.0 120.414902,22.672961,0.0 120.415756,22.671847,0.0 120.41652,22.670861,0.0 120.416964,22.670925,0.0 120.416863,22.671483,0.0 120.416585,22.67201,0.0 120.416295,22.672339,0.0 120.415754,22.672917,0.0 120.415416,22.673308,0.0 120.415223,22.673662,0.0 120.415107,22.674102,0.0 120.41513,22.674619,0.0 120.41526,22.675724,0.0 120.415366,22.676537,0.0 120.415446,22.677138,0.0 120.415611,22.677506,0.0 120.415745,22.677728,0.0 120.41618,22.678222,0.0 120.416777,22.678908,0.0 120.417069,22.679094,0.0 120.417349,22.679382,0.0 120.417547,22.679669,0.0 120.417677,22.680142,0.0 120.417937,22.681448,0.0 120.417655,22.681611,0.0 120.417328,22.6817,0.0 120.416829,22.681803,0.0 120.416584,22.681921,0.0 120.4164,22.681828,0.0 120.416087,22.68173,0.0 120.415657,22.681871,0.0 120.414729,22.68193,0.0 120.414757,22.682138,0.0 120.413961,22.682731,0.0 120.413605,22.682877,0.0 120.413358,22.683038,0.0 120.413229,22.6832,0.0 120.412882,22.683292,0.0 120.412165,22.682759,0.0 120.411973,22.682692,0.0 120.411661,22.683048,0.0 120.411384,22.683318,0.0 120.411525,22.6834,0.0 120.411756,22.683536,0.0 120.4119,22.683814,0.0 120.411821,22.683967,0.0 120.411572,22.684235,0.0 120.411059,22.684531,0.0 120.410629,22.684552,0.0 120.409867,22.684421,0.0 120.409604,22.684634,0.0 120.409097,22.684908,0.0 120.408739,22.685121,0.0 120.408477,22.685373,0.0 120.408331,22.685467,0.0 120.407907,22.685583,0.0 120.40777,22.685488,0.0 120.407485,22.685414,0.0 120.407348,22.68545,0.0 120.407297,22.685617,0.0 120.407251,22.685822,0.0 120.40716,22.68607,0.0 120.407235,22.686161,0.0 120.407403,22.686182,0.0 120.407606,22.686252,0.0 120.40768,22.686445,0.0 120.407759,22.686689,0.0 120.407729,22.686849,0.0 120.407685,22.687018,0.0 120.407716,22.687314,0.0 120.407715,22.687542,0.0 120.407694,22.687777,0.0 120.407669,22.68805,0.0 120.407674,22.688305,0.0 120.407906,22.688394,0.0 120.408057,22.688496,0.0 120.40813,22.688783,0.0 120.407657,22.688729,0.0 120.40709,22.688759,0.0 120.406815,22.688986,0.0 120.406401,22.689099,0.0 120.405877,22.689362,0.0 120.405431,22.689665,0.0 120.40499,22.689909,0.0 120.404407,22.689982,0.0 120.404224,22.689954,0.0 120.403991,22.689953,0.0 120.403529,22.690437,0.0 120.403147,22.69065,0.0 120.402451,22.691038,0.0 120.402182,22.691116,0.0 120.401982,22.691325,0.0 120.401716,22.691455,0.0 120.40137,22.691463,0.0 120.401019,22.691418,0.0 120.400846,22.691409,0.0 120.400177,22.691535,0.0 120.399871,22.691656,0.0 120.39964,22.691883,0.0 120.39935,22.692028,0.0 120.39898,22.69202,0.0 120.398658,22.69206,0.0 120.398271,22.692223,0.0 120.397887,22.692429,0.0 120.397607,22.692616,0.0 120.397255,22.69277,0.0 120.397081,22.692869,0.0 120.396547,22.693309,0.0 120.396377,22.693383,0.0 120.396205,22.693371,0.0 120.395956,22.693169,0.0 120.39563,22.69289,0.0 120.395482,22.692897,0.0</coordinates></LinearRing></outerBoundaryIs></Polygon><styleUrl>#spolygon-map</styleUrl></Placemark><Placemark><Polygon><outerBoundaryIs><LinearRing><coordinates>120.400657,22.701872,0.0 120.399346,22.702231,0.0 120.398037,22.70254,0.0 120.397386,22.702422,0.0 120.396619,22.701914,0.0 120.396195,22.701368,0.0 120.396435,22.701175,0.0 120.396852,22.701169,0.0 120.396905,22.700585,0.0 120.396637,22.700098,0.0 120.396519,22.699735,0.0 120.39636,22.699375,0.0 120.396252,22.698968,0.0 120.396086,22.698764,0.0 120.395643,22.69814,0.0 120.395159,22.697488,0.0 120.394426,22.697304,0.0 120.394278,22.69715,0.0 120.394264,22.696662,0.0 120.394182,22.696177,0.0 120.393614,22.695962,0.0 120.393265,22.695776,0.0 120.393349,22.695498,0.0 120.393243,22.69525,0.0 120.392679,22.694823,0.0 120.392836,22.694677,0.0 120.39326,22.694297,0.0 120.393368,22.694008,0.0 120.393888,22.693441,0.0 120.394102,22.693287,0.0 120.394403,22.693136,0.0 120.39479,22.693122,0.0 120.395016,22.6931,0.0 120.395252,22.693018,0.0 120.395569,22.692881,0.0 120.395752,22.692965,0.0 120.396137,22.693324,0.0 120.396307,22.693387,0.0 120.396496,22.693347,0.0 120.396791,22.693093,0.0 120.397145,22.692819,0.0 120.397458,22.692687,0.0 120.397718,22.692544,0.0 120.398048,22.692322,0.0 120.398314,22.692203,0.0 120.398833,22.691997,0.0 120.399162,22.692039,0.0 120.399502,22.691984,0.0 120.399718,22.691777,0.0 120.400025,22.691582,0.0 120.400405,22.691504,0.0 120.400995,22.691416,0.0 120.40114,22.691419,0.0 120.40156,22.691481,0.0 120.401868,22.691403,0.0 120.402062,22.691212,0.0 120.402264,22.691082,0.0 120.402692,22.690912,0.0 120.403337,22.690544,0.0 120.403899,22.690041,0.0 120.404082,22.689931,0.0 120.404365,22.689981,0.0 120.404691,22.68994,0.0 120.405093,22.689885,0.0 120.405754,22.689461,0.0 120.406134,22.689216,0.0 120.406582,22.68905,0.0 120.406978,22.688844,0.0 120.407242,22.688741,0.0 120.407902,22.688739,0.0 120.408116,22.688614,0.0 120.40799,22.688426,0.0 120.407712,22.688364,0.0 120.407678,22.688183,0.0 120.407662,22.687883,0.0 120.407712,22.687711,0.0 120.407714,22.687456,0.0 120.407694,22.687185,0.0 120.407695,22.686946,0.0 120.407759,22.686754,0.0 120.407698,22.686528,0.0 120.40767,22.686336,0.0 120.407561,22.686227,0.0 120.407328,22.68617,0.0 120.407173,22.686124,0.0 120.407195,22.685933,0.0 120.407277,22.685761,0.0 120.407327,22.685522,0.0 120.407421,22.685421,0.0 120.407673,22.685458,0.0 120.407858,22.685529,0.0 120.408126,22.685523,0.0 120.408403,22.685436,0.0 120.408612,22.685238,0.0 120.408931,22.685013,0.0 120.40935,22.684748,0.0 120.409665,22.684585,0.0 120.409985,22.684295,0.0 120.410867,22.684621,0.0 120.41138,22.684368,0.0 120.411686,22.684087,0.0 120.411884,22.683891,0.0 120.411866,22.683627,0.0 120.411653,22.68347,0.0 120.411433,22.683356,0.0 120.411478,22.683248,0.0 120.411835,22.682821,0.0 120.412005,22.682634,0.0 120.412653,22.683131,0.0 120.413202,22.6833,0.0 120.413284,22.683108,0.0 120.413529,22.682933,0.0 120.413714,22.682843,0.0 120.414837,22.682274,0.0 120.414733,22.682059,0.0 120.415239,22.681959,0.0 120.416001,22.681763,0.0 120.416293,22.681773,0.0 120.416537,22.681901,0.0 120.4167,22.681845,0.0 120.417129,22.681745,0.0 120.417532,22.681649,0.0 120.417788,22.681542,0.0 120.41821,22.68127,0.0 120.418864,22.681137,0.0 120.41886,22.683682,0.0 120.419284,22.685241,0.0 120.420109,22.687199,0.0 120.42162,22.688259,0.0 120.420104,22.688834,0.0 120.419925,22.688774,0.0 120.419633,22.688584,0.0 120.419411,22.688768,0.0 120.419138,22.689029,0.0 120.418822,22.68931,0.0 120.418611,22.689311,0.0 120.418362,22.689617,0.0 120.417941,22.690187,0.0 120.417645,22.690459,0.0 120.417435,22.690583,0.0 120.417013,22.690967,0.0 120.416836,22.691134,0.0 120.416673,22.69123,0.0 120.416314,22.691285,0.0 120.416161,22.691468,0.0 120.415743,22.691626,0.0 120.415291,22.691602,0.0 120.415033,22.691741,0.0 120.414771,22.692097,0.0 120.414521,22.692193,0.0 120.414325,22.692231,0.0 120.409315,22.693732,0.0 120.409146,22.69416,0.0 120.409242,22.694357,0.0 120.409208,22.694648,0.0 120.408885,22.695301,0.0 120.408824,22.695486,0.0 120.408878,22.695599,0.0 120.409299,22.695901,0.0 120.409434,22.696058,0.0 120.409515,22.696311,0.0 120.409208,22.696608,0.0 120.40838,22.69718,0.0 120.407903,22.69754,0.0 120.407072,22.698239,0.0 120.406315,22.698685,0.0 120.405641,22.699015,0.0 120.405377,22.699364,0.0 120.404838,22.700567,0.0 120.404298,22.701434,0.0 120.403754,22.701882,0.0 120.40319,22.702078,0.0 120.402311,22.702147,0.0 120.401005,22.701871,0.0 120.400657,22.701872,0.0</coordinates></LinearRing></outerBoundaryIs></Polygon><styleUrl>#spolygon-map</styleUrl></Placemark><Placemark><Polygon><outerBoundaryIs><LinearRing><coordinates>120.426874,22.688939,0.0 120.426688,22.689101,0.0 120.426626,22.689431,0.0 120.426539,22.689543,0.0 120.426158,22.689702,0.0 120.425861,22.689931,0.0 120.425095,22.690658,0.0 120.424054,22.689816,0.0 120.422712,22.689168,0.0 120.421933,22.688894,0.0 120.42046,22.687532,0.0 120.42011,22.686558,0.0 120.418981,22.683908,0.0 120.418861,22.682946,0.0 120.419395,22.680796,0.0 120.420235,22.680253,0.0 120.422189,22.679165,0.0 120.422915,22.678851,0.0 120.423792,22.678582,0.0 120.424398,22.678222,0.0 120.424449,22.678019,0.0 120.424979,22.677303,0.0 120.425419,22.67691,0.0 120.425623,22.67684,0.0 120.425863,22.676911,0.0 120.426348,22.676642,0.0 120.42684,22.67624,0.0 120.42722,22.676069,0.0 120.427381,22.67553,0.0 120.427491,22.675404,0.0 120.427653,22.675464,0.0 120.427914,22.675679,0.0 120.428057,22.675357,0.0 120.428069,22.67509,0.0 120.429541,22.674337,0.0 120.434439,22.672512,0.0 120.439756,22.672282,0.0 120.439996,22.673042,0.0 120.44002,22.673247,0.0 120.440117,22.67383,0.0 120.440161,22.674336,0.0 120.44014,22.674946,0.0 120.440104,22.675411,0.0 120.440061,22.675887,0.0 120.439953,22.676584,0.0 120.43978,22.677261,0.0 120.439596,22.677885,0.0 120.439584,22.67833,0.0 120.439752,22.678748,0.0 120.440178,22.679633,0.0 120.440512,22.680307,0.0 120.44071,22.68079,0.0 120.440871,22.68113,0.0 120.441107,22.681609,0.0 120.441524,22.682462,0.0 120.442186,22.683726,0.0 120.442623,22.684561,0.0 120.442903,22.68488,0.0 120.436119,22.688776,0.0 120.435423,22.689116,0.0 120.435289,22.689595,0.0 120.434887,22.689584,0.0 120.434545,22.689526,0.0 120.434277,22.689334,0.0 120.433941,22.68924,0.0 120.43357,22.68911,0.0 120.433191,22.689163,0.0 120.433055,22.688894,0.0 120.432918,22.688507,0.0 120.432733,22.688387,0.0 120.432503,22.688246,0.0 120.43228,22.688049,0.0 120.431828,22.687869,0.0 120.431216,22.688108,0.0 120.430924,22.688721,0.0 120.430539,22.688501,0.0 120.430307,22.689173,0.0 120.430219,22.689274,0.0 120.430093,22.689312,0.0 120.429778,22.689284,0.0 120.429463,22.68919,0.0 120.429129,22.689076,0.0 120.428917,22.689046,0.0 120.428668,22.689034,0.0 120.428428,22.689022,0.0 120.428075,22.688962,0.0 120.426874,22.688939,0.0</coordinates></LinearRing></outerBoundaryIs></Polygon><styleUrl>#spolygon-map</styleUrl></Placemark><Placemark><Polygon><outerBoundaryIs><LinearRing><coordinates>120.413929,22.747281,0.0 120.413434,22.747324,0.0 120.412595,22.747276,0.0 120.411726,22.747324,0.0 120.411708,22.747164,0.0 120.41128,22.746801,0.0 120.410878,22.746373,0.0 120.410534,22.74608,0.0 120.410366,22.745714,0.0 120.41049,22.744782,0.0 120.410598,22.744351,0.0 120.410576,22.744105,0.0 120.410359,22.743831,0.0 120.410125,22.743684,0.0 120.409853,22.743631,0.0 120.409748,22.743488,0.0 120.409542,22.742916,0.0 120.409374,22.742687,0.0 120.409132,22.742449,0.0 120.408932,22.742275,0.0 120.408545,22.742165,0.0 120.408047,22.742175,0.0 120.407139,22.741453,0.0 120.406592,22.740932,0.0 120.406381,22.740626,0.0 120.406066,22.740226,0.0 120.405812,22.739581,0.0 120.405455,22.73897,0.0 120.405058,22.738619,0.0 120.404527,22.738506,0.0 120.404231,22.738758,0.0 120.403879,22.738946,0.0 120.402825,22.738349,0.0 120.402503,22.738271,0.0 120.402017,22.738395,0.0 120.401824,22.738112,0.0 120.401188,22.737997,0.0 120.400963,22.738044,0.0 120.400575,22.738295,0.0 120.400228,22.738581,0.0 120.400198,22.738815,0.0 120.400143,22.738926,0.0 120.399997,22.738977,0.0 120.399836,22.738839,0.0 120.399642,22.738409,0.0 120.399478,22.738022,0.0 120.399103,22.737407,0.0 120.398562,22.736768,0.0 120.398362,22.736334,0.0 120.397711,22.735893,0.0 120.397338,22.735594,0.0 120.397461,22.735159,0.0 120.398184,22.734832,0.0 120.398578,22.73482,0.0 120.399148,22.735086,0.0 120.39968,22.735592,0.0 120.399826,22.735667,0.0 120.400122,22.735564,0.0 120.40083,22.734745,0.0 120.400874,22.734463,0.0 120.400798,22.734027,0.0 120.400814,22.733826,0.0 120.401406,22.733535,0.0 120.401573,22.733278,0.0 120.40144,22.732898,0.0 120.400938,22.731625,0.0 120.40094,22.730988,0.0 120.400761,22.730566,0.0 120.400665,22.730163,0.0 120.400405,22.729302,0.0 120.400266,22.728703,0.0 120.400367,22.728105,0.0 120.400701,22.727727,0.0 120.400785,22.727459,0.0 120.400554,22.726819,0.0 120.400239,22.726701,0.0 120.400067,22.726393,0.0 120.400009,22.726043,0.0 120.400184,22.725515,0.0 120.400233,22.725382,0.0 120.40056,22.725311,0.0 120.40104,22.725672,0.0 120.401402,22.725867,0.0 120.401678,22.725805,0.0 120.402297,22.725546,0.0 120.402838,22.72522,0.0 120.403246,22.724811,0.0 120.403089,22.724081,0.0 120.402826,22.723276,0.0 120.403671,22.72337,0.0 120.404309,22.723302,0.0 120.404723,22.722967,0.0 120.405173,22.722326,0.0 120.405729,22.722199,0.0 120.406283,22.722343,0.0 120.406949,22.722475,0.0 120.4076,22.722682,0.0 120.407864,22.722722,0.0 120.408405,22.72257,0.0 120.409532,22.722033,0.0 120.410004,22.721971,0.0 120.410477,22.721625,0.0 120.410924,22.720816,0.0 120.411803,22.719867,0.0 120.41254,22.719303,0.0 120.41383,22.718515,0.0 120.414205,22.718024,0.0 120.414668,22.717909,0.0 120.415582,22.717792,0.0 120.416468,22.717177,0.0 120.416893,22.716935,0.0 120.417021,22.717125,0.0 120.418148,22.716919,0.0 120.418493,22.716947,0.0 120.418619,22.716684,0.0 120.418785,22.716452,0.0 120.419302,22.716029,0.0 120.419745,22.715649,0.0 120.420875,22.71557,0.0 120.422144,22.715073,0.0 120.422689,22.714583,0.0 120.424019,22.712985,0.0 120.42435,22.71267,0.0 120.425162,22.712251,0.0 120.426362,22.711873,0.0 120.427169,22.711328,0.0 120.427574,22.710774,0.0 120.428303,22.710377,0.0 120.430356,22.710255,0.0 120.430994,22.710348,0.0 120.431623,22.710287,0.0 120.432066,22.709907,0.0 120.432373,22.709416,0.0 120.432836,22.709162,0.0 120.433229,22.70908,0.0 120.433508,22.709262,0.0 120.433625,22.709463,0.0 120.433719,22.710064,0.0 120.433741,22.710342,0.0 120.433704,22.710628,0.0 120.433548,22.710869,0.0 120.433855,22.711175,0.0 120.434027,22.711381,0.0 120.434321,22.711233,0.0 120.434646,22.71123,0.0 120.434794,22.711323,0.0 120.435033,22.711599,0.0 120.435131,22.71188,0.0 120.435296,22.712393,0.0 120.435445,22.712791,0.0 120.435599,22.713281,0.0 120.435729,22.713785,0.0 120.435706,22.713963,0.0 120.435658,22.714148,0.0 120.435664,22.71429,0.0 120.435978,22.71452,0.0 120.436139,22.714699,0.0 120.436421,22.715056,0.0 120.436454,22.715237,0.0 120.436568,22.715452,0.0 120.436697,22.715696,0.0 120.436797,22.716037,0.0 120.437565,22.715762,0.0 120.438485,22.715285,0.0 120.438703,22.715647,0.0 120.439051,22.716113,0.0 120.439385,22.716631,0.0 120.439102,22.716797,0.0 120.439073,22.717084,0.0 120.438939,22.717379,0.0 120.438932,22.717517,0.0 120.438692,22.717771,0.0 120.438622,22.717997,0.0 120.438632,22.718214,0.0 120.438619,22.718356,0.0 120.438475,22.718513,0.0 120.438106,22.718532,0.0 120.43804,22.718609,0.0 120.437705,22.718804,0.0 120.437601,22.718923,0.0 120.43746,22.719241,0.0 120.437323,22.719588,0.0 120.437085,22.719836,0.0 120.4367,22.720126,0.0 120.436437,22.720391,0.0 120.436118,22.720774,0.0 120.435902,22.721116,0.0 120.435703,22.72142,0.0 120.43558,22.721628,0.0 120.435402,22.721918,0.0 120.434974,22.722269,0.0 120.434674,22.722509,0.0 120.434268,22.722793,0.0 120.433903,22.723067,0.0 120.433439,22.723388,0.0 120.43324,22.723669,0.0 120.433117,22.723911,0.0 120.432798,22.724081,0.0 120.431995,22.724031,0.0 120.430988,22.724201,0.0 120.430943,22.724594,0.0 120.430962,22.724926,0.0 120.431066,22.725265,0.0 120.431149,22.725425,0.0 120.43116,22.725721,0.0 120.431012,22.726007,0.0 120.430567,22.726281,0.0 120.428637,22.726721,0.0 120.42836,22.727221,0.0 120.428074,22.729808,0.0 120.428006,22.731148,0.0 120.427535,22.731395,0.0 120.427277,22.731629,0.0 120.427112,22.731838,0.0 120.4269,22.731896,0.0 120.426592,22.731864,0.0 120.426129,22.731821,0.0 120.425708,22.73193,0.0 120.42522,22.731924,0.0 120.42502,22.731951,0.0 120.424978,22.732009,0.0 120.42498,22.732314,0.0 120.425007,22.732948,0.0 120.425047,22.733294,0.0 120.425192,22.733611,0.0 120.424101,22.734241,0.0 120.423911,22.734383,0.0 120.423992,22.734627,0.0 120.424037,22.734697,0.0 120.424156,22.735009,0.0 120.423991,22.735277,0.0 120.423932,22.735478,0.0 120.423839,22.735739,0.0 120.423644,22.736023,0.0 120.423266,22.736313,0.0 120.423146,22.736516,0.0 120.422775,22.736833,0.0 120.422536,22.73706,0.0 120.422523,22.737116,0.0 120.422479,22.737353,0.0 120.422451,22.737615,0.0 120.422308,22.737797,0.0 120.422067,22.737959,0.0 120.421951,22.738135,0.0 120.42193,22.738265,0.0 120.422029,22.738512,0.0 120.422255,22.739016,0.0 120.422362,22.739477,0.0 120.422316,22.739569,0.0 120.422041,22.739927,0.0 120.421906,22.740171,0.0 120.421899,22.740388,0.0 120.421971,22.740781,0.0 120.421934,22.741313,0.0 120.421875,22.741487,0.0 120.421763,22.741726,0.0 120.421745,22.741929,0.0 120.421697,22.742229,0.0 120.421632,22.742475,0.0 120.421528,22.742793,0.0 120.421414,22.742982,0.0 120.421231,22.743121,0.0 120.420831,22.743371,0.0 120.420629,22.743607,0.0 120.420546,22.744117,0.0 120.420467,22.744225,0.0 120.420285,22.744213,0.0 120.419962,22.744036,0.0 120.419711,22.743951,0.0 120.41934,22.743738,0.0 120.418909,22.743982,0.0 120.41868,22.744017,0.0 120.418431,22.74405,0.0 120.418202,22.743982,0.0 120.417903,22.743997,0.0 120.417737,22.744046,0.0 120.417391,22.744207,0.0 120.417454,22.745079,0.0 120.417266,22.74541,0.0 120.416771,22.745875,0.0 120.416133,22.74599,0.0 120.414998,22.746368,0.0 120.414795,22.746478,0.0 120.414407,22.74693,0.0 120.413929,22.747281,0.0</coordinates></LinearRing></outerBoundaryIs></Polygon><styleUrl>#spolygon-map</styleUrl></Placemark><Placemark><Polygon><outerBoundaryIs><LinearRing><coordinates>120.445966,22.734262,0.0 120.445529,22.734425,0.0 120.445101,22.734631,0.0 120.4447,22.73472,0.0 120.444319,22.73473,0.0 120.443699,22.734527,0.0 120.443474,22.734219,0.0 120.443443,22.733474,0.0 120.443419,22.731731,0.0 120.443239,22.731209,0.0 120.443134,22.73099,0.0 120.442524,22.729394,0.0 120.442109,22.728435,0.0 120.441858,22.727924,0.0 120.441389,22.727127,0.0 120.441184,22.726955,0.0 120.440568,22.726804,0.0 120.440126,22.726653,0.0 120.440184,22.726548,0.0 120.440371,22.726334,0.0 120.440397,22.726149,0.0 120.440016,22.725116,0.0 120.439654,22.724245,0.0 120.439483,22.723583,0.0 120.439347,22.723145,0.0 120.439121,22.722184,0.0 120.439077,22.721954,0.0 120.439005,22.721595,0.0 120.438903,22.721407,0.0 120.438663,22.721329,0.0 120.438266,22.721414,0.0 120.437913,22.721512,0.0 120.437363,22.721652,0.0 120.437024,22.721813,0.0 120.43673,22.721909,0.0 120.436279,22.721883,0.0 120.43552,22.721754,0.0 120.435635,22.721506,0.0 120.435828,22.721236,0.0 120.436018,22.720916,0.0 120.436287,22.720594,0.0 120.436605,22.720236,0.0 120.436755,22.720081,0.0 120.437336,22.71967,0.0 120.437458,22.719609,0.0 120.437922,22.719708,0.0 120.438641,22.719708,0.0 120.439696,22.719759,0.0 120.439997,22.719729,0.0 120.440553,22.719453,0.0 120.440797,22.719321,0.0 120.441514,22.71893,0.0 120.442294,22.718621,0.0 120.44251,22.718606,0.0 120.443162,22.718595,0.0 120.443493,22.718474,0.0 120.443855,22.718184,0.0 120.444067,22.718153,0.0 120.44476,22.718113,0.0 120.445958,22.718415,0.0 120.446934,22.71889,0.0 120.447351,22.719034,0.0 120.44855,22.719327,0.0 120.449212,22.719449,0.0 120.453063,22.719693,0.0 120.455853,22.719946,0.0 120.455952,22.720978,0.0 120.456045,22.722385,0.0 120.456033,22.722836,0.0 120.456018,22.723213,0.0 120.455999,22.723615,0.0 120.455989,22.724247,0.0 120.455985,22.724627,0.0 120.455976,22.724922,0.0 120.455996,22.725345,0.0 120.456001,22.725853,0.0 120.45598,22.726629,0.0 120.455986,22.727611,0.0 120.456002,22.728275,0.0 120.45599,22.728923,0.0 120.455992,22.729666,0.0 120.456002,22.730296,0.0 120.45597,22.730937,0.0 120.455938,22.731269,0.0 120.455863,22.731855,0.0 120.455826,22.732431,0.0 120.45577,22.732885,0.0 120.452463,22.733998,0.0 120.451402,22.734321,0.0 120.450674,22.734359,0.0 120.449762,22.734325,0.0 120.449163,22.734291,0.0 120.44859,22.734242,0.0 120.448238,22.734164,0.0 120.447833,22.734081,0.0 120.447639,22.734139,0.0 120.447313,22.734251,0.0 120.44687,22.734283,0.0 120.446436,22.734264,0.0 120.445966,22.734262,0.0</coordinates></LinearRing></outerBoundaryIs></Polygon><styleUrl>#spolygon-map</styleUrl></Placemark><Placemark><Polygon><outerBoundaryIs><LinearRing><coordinates>120.415282,22.759585,0.0 120.415109,22.759707,0.0 120.415129,22.760147,0.0 120.415252,22.760375,0.0 120.415286,22.760757,0.0 120.415156,22.760838,0.0 120.415086,22.76091,0.0 120.415305,22.761039,0.0 120.415318,22.761164,0.0 120.415213,22.761558,0.0 120.415309,22.761798,0.0 120.415797,22.76226,0.0 120.416289,22.76296,0.0 120.416831,22.764172,0.0 120.416376,22.763737,0.0 120.416057,22.76355,0.0 120.415552,22.762998,0.0 120.415106,22.762565,0.0 120.414699,22.761965,0.0 120.41431,22.761336,0.0 120.414139,22.761204,0.0 120.413742,22.761142,0.0 120.41367,22.760548,0.0 120.413519,22.760123,0.0 120.413045,22.759496,0.0 120.412959,22.759335,0.0 120.412376,22.758672,0.0 120.411982,22.758302,0.0 120.411812,22.757911,0.0 120.411725,22.757608,0.0 120.411411,22.757002,0.0 120.411588,22.756869,0.0 120.411784,22.756579,0.0 120.411902,22.756227,0.0 120.411894,22.755757,0.0 120.411645,22.75486,0.0 120.41147,22.75455,0.0 120.411298,22.754001,0.0 120.411393,22.753656,0.0 120.411551,22.753483,0.0 120.411775,22.753136,0.0 120.411812,22.752766,0.0 120.411726,22.752503,0.0 120.411439,22.752164,0.0 120.41128,22.751946,0.0 120.41152,22.751304,0.0 120.411549,22.751038,0.0 120.411367,22.750716,0.0 120.411232,22.750526,0.0 120.411271,22.749951,0.0 120.411175,22.749749,0.0 120.410841,22.749437,0.0 120.410564,22.749036,0.0 120.410483,22.748753,0.0 120.410976,22.74836,0.0 120.411203,22.748171,0.0 120.411339,22.748043,0.0 120.411549,22.747954,0.0 120.411701,22.747496,0.0 120.412241,22.747329,0.0 120.413023,22.747261,0.0 120.413709,22.747359,0.0 120.414148,22.74715,0.0 120.414618,22.746664,0.0 120.414835,22.746455,0.0 120.415415,22.746193,0.0 120.416498,22.745958,0.0 120.416988,22.74572,0.0 120.41735,22.745318,0.0 120.417508,22.744672,0.0 120.417563,22.744115,0.0 120.417803,22.744026,0.0 120.418048,22.743981,0.0 120.418361,22.744034,0.0 120.418538,22.74404,0.0 120.418819,22.744013,0.0 120.419072,22.743904,0.0 120.419433,22.743774,0.0 120.419834,22.743995,0.0 120.420104,22.744102,0.0 120.420398,22.744234,0.0 120.420523,22.744173,0.0 120.420613,22.743783,0.0 120.420658,22.743546,0.0 120.420957,22.743254,0.0 120.421327,22.743063,0.0 120.421487,22.742881,0.0 120.421566,22.742667,0.0 120.421679,22.742326,0.0 120.42174,22.742051,0.0 120.42176,22.74176,0.0 120.421807,22.741609,0.0 120.421915,22.741365,0.0 120.421965,22.740934,0.0 120.421964,22.740575,0.0 120.421881,22.740272,0.0 120.422005,22.739995,0.0 120.422194,22.739736,0.0 120.422352,22.739497,0.0 120.422377,22.739312,0.0 120.422135,22.738743,0.0 120.421939,22.738315,0.0 120.421928,22.738232,0.0 120.422,22.738024,0.0 120.422181,22.73788,0.0 120.42239,22.737732,0.0 120.422474,22.73754,0.0 120.4225,22.737227,0.0 120.42253,22.737087,0.0 120.422579,22.73701,0.0 120.423131,22.736531,0.0 120.423219,22.736376,0.0 120.423436,22.736189,0.0 120.423761,22.735879,0.0 120.423905,22.73557,0.0 120.423965,22.73536,0.0 120.424052,22.735151,0.0 120.424171,22.734907,0.0 120.42403,22.734686,0.0 120.423933,22.734473,0.0 120.423901,22.734313,0.0 120.424226,22.734266,0.0 120.425101,22.733436,0.0 120.425019,22.73312,0.0 120.424983,22.732664,0.0 120.424973,22.732068,0.0 120.424993,22.731989,0.0 120.425086,22.731924,0.0 120.425591,22.731946,0.0 120.425925,22.731845,0.0 120.426362,22.731829,0.0 120.426804,22.731901,0.0 120.427042,22.731838,0.0 120.42714,22.731778,0.0 120.427437,22.731454,0.0 120.427663,22.731314,0.0 120.428023,22.730446,0.0 120.428195,22.729171,0.0 120.42844,22.726994,0.0 120.429051,22.726531,0.0 120.43086,22.726144,0.0 120.431098,22.725886,0.0 120.431181,22.725556,0.0 120.431096,22.725323,0.0 120.431029,22.725163,0.0 120.43094,22.724792,0.0 120.430944,22.724582,0.0 120.431303,22.724139,0.0 120.432432,22.724028,0.0 120.433025,22.724034,0.0 120.433233,22.723683,0.0 120.433302,22.723514,0.0 120.433645,22.723249,0.0 120.434113,22.722914,0.0 120.434466,22.722671,0.0 120.434846,22.722363,0.0 120.435259,22.722049,0.0 120.436279,22.721883,0.0 120.43673,22.721909,0.0 120.437024,22.721813,0.0 120.437363,22.721652,0.0 120.437913,22.721512,0.0 120.438266,22.721414,0.0 120.438663,22.721329,0.0 120.438903,22.721407,0.0 120.439005,22.721595,0.0 120.439077,22.721954,0.0 120.439121,22.722184,0.0 120.439347,22.723145,0.0 120.439483,22.723583,0.0 120.439654,22.724245,0.0 120.440016,22.725116,0.0 120.440397,22.726149,0.0 120.440371,22.726334,0.0 120.440184,22.726548,0.0 120.440126,22.726653,0.0 120.440568,22.726804,0.0 120.441184,22.726955,0.0 120.441389,22.727127,0.0 120.441858,22.727924,0.0 120.442109,22.728435,0.0 120.442524,22.729394,0.0 120.443134,22.73099,0.0 120.443239,22.731209,0.0 120.443419,22.731731,0.0 120.443443,22.733474,0.0 120.443474,22.734219,0.0 120.443699,22.734527,0.0 120.444319,22.73473,0.0 120.4447,22.73472,0.0 120.445101,22.734631,0.0 120.445529,22.734425,0.0 120.445966,22.734262,0.0 120.446436,22.734264,0.0 120.44687,22.734283,0.0 120.447313,22.734251,0.0 120.447639,22.734139,0.0 120.447833,22.734081,0.0 120.448238,22.734164,0.0 120.44859,22.734242,0.0 120.449163,22.734291,0.0 120.449762,22.734325,0.0 120.450674,22.734359,0.0 120.451402,22.734321,0.0 120.452463,22.733998,0.0 120.455732,22.73344,0.0 120.455704,22.733735,0.0 120.455633,22.734354,0.0 120.455565,22.73474,0.0 120.455514,22.735069,0.0 120.455474,22.735344,0.0 120.455451,22.735624,0.0 120.455411,22.735983,0.0 120.455373,22.736218,0.0 120.455292,22.736694,0.0 120.455249,22.736985,0.0 120.455219,22.737342,0.0 120.455171,22.737655,0.0 120.455123,22.738025,0.0 120.455082,22.738323,0.0 120.45502,22.738754,0.0 120.454972,22.73921,0.0 120.454904,22.739634,0.0 120.45486,22.740068,0.0 120.454826,22.740521,0.0 120.454826,22.740928,0.0 120.454798,22.741332,0.0 120.454761,22.741743,0.0 120.454765,22.741989,0.0 120.454741,22.742571,0.0 120.454724,22.743138,0.0 120.454696,22.743618,0.0 120.454658,22.744029,0.0 120.454653,22.744284,0.0 120.454664,22.74465,0.0 120.454666,22.74484,0.0 120.454646,22.745278,0.0 120.45466,22.745781,0.0 120.454633,22.746011,0.0 120.454636,22.746558,0.0 120.454617,22.747097,0.0 120.454594,22.747671,0.0 120.454414,22.748201,0.0 120.454391,22.748334,0.0 120.454321,22.748519,0.0 120.454266,22.748744,0.0 120.454279,22.749008,0.0 120.454252,22.749604,0.0 120.454221,22.750227,0.0 120.454193,22.750803,0.0 120.454197,22.751175,0.0 120.454197,22.751512,0.0 120.454164,22.751742,0.0 120.454099,22.75236,0.0 120.454097,22.752595,0.0 120.45414,22.752981,0.0 120.45419,22.753318,0.0 120.45418,22.753562,0.0 120.454048,22.753877,0.0 120.453936,22.754268,0.0 120.453892,22.754663,0.0 120.45381,22.755186,0.0 120.453754,22.755536,0.0 120.449544,22.755557,0.0 120.448678,22.755543,0.0 120.447887,22.75543,0.0 120.448051,22.75476,0.0 120.447931,22.754227,0.0 120.447761,22.753149,0.0 120.447648,22.753158,0.0 120.447605,22.753327,0.0 120.447519,22.753342,0.0 120.446774,22.752733,0.0 120.446344,22.752573,0.0 120.44566,22.752548,0.0 120.445337,22.752585,0.0 120.445069,22.752562,0.0 120.444851,22.752383,0.0 120.444695,22.752272,0.0 120.444556,22.752323,0.0 120.444155,22.752599,0.0 120.443847,22.752614,0.0 120.443686,22.752451,0.0 120.443232,22.752474,0.0 120.443059,22.752546,0.0 120.443011,22.752622,0.0 120.442889,22.753173,0.0 120.442845,22.753545,0.0 120.442772,22.754161,0.0 120.442643,22.754172,0.0 120.442235,22.754157,0.0 120.442024,22.754238,0.0 120.441867,22.754248,0.0 120.44133,22.754125,0.0 120.441113,22.754108,0.0 120.441031,22.754069,0.0 120.440689,22.754091,0.0 120.440269,22.754096,0.0 120.440074,22.753964,0.0 120.43984,22.753957,0.0 120.439583,22.754462,0.0 120.439527,22.754703,0.0 120.439462,22.755466,0.0 120.439515,22.755974,0.0 120.439292,22.756242,0.0 120.439039,22.756318,0.0 120.438968,22.756245,0.0 120.438997,22.755713,0.0 120.437567,22.755884,0.0 120.435585,22.756019,0.0 120.434856,22.75638,0.0 120.434018,22.756977,0.0 120.433087,22.757502,0.0 120.432421,22.757818,0.0 120.432359,22.75764,0.0 120.43195,22.757586,0.0 120.431415,22.757621,0.0 120.431149,22.757586,0.0 120.431012,22.757597,0.0 120.430951,22.757723,0.0 120.430753,22.758004,0.0 120.430481,22.758141,0.0 120.430195,22.758199,0.0 120.429917,22.758209,0.0 120.429735,22.758154,0.0 120.429581,22.758014,0.0 120.429342,22.757613,0.0 120.4292,22.757355,0.0 120.429087,22.757251,0.0 120.428982,22.757212,0.0 120.428839,22.757192,0.0 120.428708,22.757193,0.0 120.428566,22.757213,0.0 120.428502,22.757154,0.0 120.428398,22.756987,0.0 120.428321,22.75693,0.0 120.428227,22.756936,0.0 120.428159,22.756968,0.0 120.42767,22.757354,0.0 120.4274,22.757561,0.0 120.427166,22.757619,0.0 120.42696,22.757639,0.0 120.426781,22.7576,0.0 120.42649,22.757501,0.0 120.426288,22.757494,0.0 120.426108,22.757534,0.0 120.425828,22.757456,0.0 120.42558,22.757449,0.0 120.425429,22.757493,0.0 120.425064,22.757821,0.0 120.424476,22.758086,0.0 120.424048,22.758231,0.0 120.423304,22.758246,0.0 120.422952,22.758344,0.0 120.422628,22.758501,0.0 120.422124,22.758788,0.0 120.421909,22.759036,0.0 120.421815,22.759081,0.0 120.421585,22.759276,0.0 120.421254,22.759399,0.0 120.420758,22.759657,0.0 120.420438,22.759421,0.0 120.420228,22.759369,0.0 120.420114,22.759404,0.0 120.419654,22.759599,0.0 120.419298,22.759381,0.0 120.418483,22.759317,0.0 120.418313,22.758969,0.0 120.418444,22.758682,0.0 120.418319,22.758544,0.0 120.418087,22.758663,0.0 120.417778,22.758567,0.0 120.417341,22.758599,0.0 120.416887,22.758568,0.0 120.416871,22.758738,0.0 120.416845,22.75895,0.0 120.416469,22.759118,0.0 120.416068,22.759168,0.0 120.415791,22.759508,0.0 120.415631,22.759575,0.0 120.415282,22.759585,0.0</coordinates></LinearRing></outerBoundaryIs></Polygon><styleUrl>#spolygon-map</styleUrl></Placemark><Placemark><Polygon><outerBoundaryIs><LinearRing><coordinates>120.430147,22.775314,0.0 120.429483,22.776048,0.0 120.429185,22.7765,0.0 120.428767,22.777289,0.0 120.428817,22.777366,0.0 120.428519,22.777796,0.0 120.428331,22.777701,0.0 120.427874,22.777634,0.0 120.427174,22.777482,0.0 120.426606,22.777275,0.0 120.426329,22.777118,0.0 120.426082,22.776911,0.0 120.425963,22.776577,0.0 120.425992,22.776234,0.0 120.426117,22.775853,0.0 120.426028,22.775762,0.0 120.425715,22.775605,0.0 120.425485,22.77541,0.0 120.425161,22.775289,0.0 120.425033,22.775266,0.0 120.424861,22.775083,0.0 120.424684,22.774951,0.0 120.424485,22.774862,0.0 120.424227,22.774862,0.0 120.42384,22.774914,0.0 120.423592,22.774904,0.0 120.423291,22.774802,0.0 120.42294,22.77487,0.0 120.422431,22.774936,0.0 120.422229,22.774895,0.0 120.422069,22.774734,0.0 120.42197,22.774646,0.0 120.421589,22.774335,0.0 120.421181,22.774072,0.0 120.420916,22.774021,0.0 120.420724,22.774047,0.0 120.420448,22.774195,0.0 120.420308,22.774238,0.0 120.420087,22.774316,0.0 120.420022,22.774332,0.0 120.419893,22.77434,0.0 120.419753,22.774351,0.0 120.419713,22.774378,0.0 120.419636,22.774459,0.0 120.419396,22.774607,0.0 120.419216,22.774688,0.0 120.419135,22.774699,0.0 120.418979,22.774615,0.0 120.418898,22.774517,0.0 120.418809,22.77435,0.0 120.418683,22.774013,0.0 120.418614,22.77383,0.0 120.418471,22.773547,0.0 120.418449,22.773466,0.0 120.418483,22.773068,0.0 120.418563,22.772597,0.0 120.418551,22.772387,0.0 120.418482,22.772102,0.0 120.418358,22.771847,0.0 120.418145,22.771552,0.0 120.418008,22.771403,0.0 120.417823,22.770919,0.0 120.417681,22.770616,0.0 120.417567,22.770458,0.0 120.417543,22.770428,0.0 120.417335,22.770222,0.0 120.417155,22.770084,0.0 120.416983,22.769981,0.0 120.416654,22.769833,0.0 120.416532,22.769736,0.0 120.416465,22.7696,0.0 120.41639,22.769327,0.0 120.416292,22.768909,0.0 120.416229,22.76868,0.0 120.41615,22.768423,0.0 120.416125,22.768317,0.0 120.416126,22.768172,0.0 120.416183,22.76782,0.0 120.416188,22.767696,0.0 120.416158,22.767441,0.0 120.416093,22.767052,0.0 120.416112,22.766869,0.0 120.416191,22.766657,0.0 120.416277,22.766529,0.0 120.416508,22.766356,0.0 120.416865,22.76612,0.0 120.417138,22.765999,0.0 120.417283,22.765919,0.0 120.417348,22.765862,0.0 120.417376,22.765734,0.0 120.417386,22.765605,0.0 120.417355,22.765269,0.0 120.417319,22.764973,0.0 120.417303,22.764571,0.0 120.417286,22.764386,0.0 120.417271,22.764327,0.0 120.417118,22.764301,0.0 120.416932,22.764233,0.0 120.416387,22.763178,0.0 120.416031,22.762584,0.0 120.415412,22.761877,0.0 120.415251,22.761674,0.0 120.415233,22.761335,0.0 120.415331,22.761078,0.0 120.41511,22.760948,0.0 120.415102,22.76086,0.0 120.415239,22.760829,0.0 120.415301,22.760581,0.0 120.415181,22.760271,0.0 120.415098,22.759905,0.0 120.415156,22.759648,0.0 120.415395,22.759561,0.0 120.415714,22.759551,0.0 120.415868,22.759398,0.0 120.416135,22.75913,0.0 120.416563,22.759093,0.0 120.416877,22.758898,0.0 120.41683,22.758602,0.0 120.417,22.758546,0.0 120.41757,22.758598,0.0 120.417944,22.758656,0.0 120.418174,22.758609,0.0 120.418383,22.75856,0.0 120.418344,22.758849,0.0 120.418417,22.759263,0.0 120.418666,22.759327,0.0 120.419509,22.759537,0.0 120.419782,22.759561,0.0 120.420148,22.759393,0.0 120.420381,22.759385,0.0 120.420652,22.759643,0.0 120.42094,22.759527,0.0 120.421471,22.75933,0.0 120.421721,22.759126,0.0 120.421843,22.759067,0.0 120.422008,22.75893,0.0 120.422308,22.758654,0.0 120.422885,22.758369,0.0 120.423013,22.75832,0.0 120.423869,22.758239,0.0 120.424182,22.758193,0.0 120.424773,22.757976,0.0 120.425197,22.757641,0.0 120.425492,22.757473,0.0 120.425727,22.757442,0.0 120.426011,22.757513,0.0 120.426184,22.757523,0.0 120.426367,22.757483,0.0 120.426626,22.75754,0.0 120.426881,22.757632,0.0 120.427065,22.757632,0.0 120.427284,22.757597,0.0 120.427493,22.757507,0.0 120.427876,22.757213,0.0 120.428181,22.756959,0.0 120.428276,22.756925,0.0 120.428354,22.756944,0.0 120.428448,22.757059,0.0 120.428536,22.757199,0.0 120.428611,22.757211,0.0 120.428764,22.757187,0.0 120.428935,22.757201,0.0 120.429044,22.757233,0.0 120.429141,22.757287,0.0 120.429254,22.757444,0.0 120.42947,22.757839,0.0 120.429666,22.758098,0.0 120.429812,22.758188,0.0 120.430034,22.758209,0.0 120.430352,22.758172,0.0 120.430621,22.758081,0.0 120.430871,22.757876,0.0 120.430977,22.757646,0.0 120.431046,22.757574,0.0 120.431269,22.757604,0.0 120.431919,22.757622,0.0 120.43228,22.757588,0.0 120.432416,22.757719,0.0 120.432756,22.757677,0.0 120.433853,22.757094,0.0 120.434421,22.756688,0.0 120.435081,22.756227,0.0 120.43619,22.755897,0.0 120.438754,22.755818,0.0 120.438982,22.755805,0.0 120.438987,22.756318,0.0 120.439144,22.756296,0.0 120.439352,22.756181,0.0 120.439464,22.755712,0.0 120.439475,22.755213,0.0 120.439537,22.75457,0.0 120.439665,22.754324,0.0 120.439928,22.753944,0.0 120.440226,22.754049,0.0 120.440322,22.754083,0.0 120.440846,22.754085,0.0 120.441073,22.75409,0.0 120.441197,22.754084,0.0 120.441421,22.754152,0.0 120.441956,22.75426,0.0 120.442154,22.754177,0.0 120.442481,22.754158,0.0 120.442751,22.75417,0.0 120.442787,22.754091,0.0 120.442867,22.753358,0.0 120.442905,22.752875,0.0 120.44302,22.7526,0.0 120.443133,22.752501,0.0 120.443602,22.752428,0.0 120.443782,22.752542,0.0 120.443936,22.752621,0.0 120.444285,22.752546,0.0 120.444631,22.752276,0.0 120.444761,22.752288,0.0 120.444957,22.75248,0.0 120.445218,22.752596,0.0 120.445537,22.752548,0.0 120.445869,22.752553,0.0 120.446609,22.752655,0.0 120.447169,22.753,0.0 120.447568,22.753343,0.0 120.447617,22.753257,0.0 120.447701,22.753147,0.0 120.447803,22.753648,0.0 120.448075,22.754667,0.0 120.448036,22.754814,0.0 120.448097,22.755512,0.0 120.449053,22.755556,0.0 120.449908,22.755545,0.0 120.453733,22.755723,0.0 120.453706,22.756156,0.0 120.453702,22.756574,0.0 120.453717,22.756719,0.0 120.453762,22.756902,0.0 120.453836,22.757101,0.0 120.453904,22.757268,0.0 120.453956,22.757516,0.0 120.454018,22.7579,0.0 120.454014,22.758156,0.0 120.453989,22.758528,0.0 120.453973,22.758839,0.0 120.453951,22.75916,0.0 120.453902,22.759429,0.0 120.453779,22.760013,0.0 120.453713,22.760554,0.0 120.453738,22.761126,0.0 120.453829,22.761702,0.0 120.453927,22.762248,0.0 120.454065,22.762662,0.0 120.454257,22.763272,0.0 120.454383,22.76381,0.0 120.4544,22.764025,0.0 120.454413,22.764178,0.0 120.454303,22.764726,0.0 120.454171,22.765354,0.0 120.454075,22.766022,0.0 120.453953,22.766567,0.0 120.453857,22.767046,0.0 120.453798,22.767542,0.0 120.453788,22.76812,0.0 120.453768,22.768748,0.0 120.453776,22.769339,0.0 120.453887,22.769974,0.0 120.453988,22.770575,0.0 120.454005,22.770796,0.0 120.454193,22.771458,0.0 120.453807,22.77176,0.0 120.453286,22.771789,0.0 120.452307,22.772089,0.0 120.451097,22.772644,0.0 120.450843,22.772734,0.0 120.449831,22.772843,0.0 120.448865,22.772838,0.0 120.448174,22.772957,0.0 120.447708,22.772985,0.0 120.447347,22.772948,0.0 120.446986,22.7728,0.0 120.446625,22.772536,0.0 120.446449,22.772461,0.0 120.446288,22.772465,0.0 120.446014,22.77253,0.0 120.445822,22.772576,0.0 120.44561,22.772598,0.0 120.445386,22.772609,0.0 120.445227,22.772613,0.0 120.445095,22.77263,0.0 120.445065,22.772761,0.0 120.444984,22.772903,0.0 120.444775,22.772968,0.0 120.44472,22.773336,0.0 120.442845,22.773489,0.0 120.442213,22.773541,0.0 120.441783,22.773565,0.0 120.441602,22.773519,0.0 120.441277,22.773317,0.0 120.44101,22.773185,0.0 120.440521,22.773145,0.0 120.439847,22.773235,0.0 120.439633,22.773221,0.0 120.439302,22.773023,0.0 120.43877,22.773051,0.0 120.438463,22.773147,0.0 120.436771,22.773615,0.0 120.435773,22.773706,0.0 120.435158,22.773797,0.0 120.434862,22.773899,0.0 120.434192,22.774087,0.0 120.432796,22.774215,0.0 120.432204,22.774285,0.0 120.431861,22.774223,0.0 120.431285,22.774119,0.0 120.430975,22.774215,0.0 120.4303,22.775114,0.0 120.430147,22.775314,0.0</coordinates></LinearRing></outerBoundaryIs></Polygon><styleUrl>#spolygon-map</styleUrl></Placemark></Document>
</kml>
