<?xml version="1.0" encoding="UTF-8"?>
<kml xmlns="http://www.opengis.net/kml/2.2">
	<Document>
		<name>高雄市左營區</name>
		<Style id="spolygon">
			<LabelStyle>
				<scale>0.0</scale>
			</LabelStyle>
			<LineStyle>
				<color>330030ff</color>
				<width>0</width>
			</LineStyle>
			<PolyStyle>
				<color>330030ff</color>
			</PolyStyle>
		</Style>
		<StyleMap id="spolygon-map">
			<Pair>
				<key>normal</key>
				<styleUrl>#spolygon</styleUrl>
			</Pair>
		</StyleMap>
	<Placemark><Polygon><outerBoundaryIs><LinearRing><coordinates>120.297326,22.690987,0.0 120.297544,22.691219,0.0 120.297602,22.691303,0.0 120.297815,22.691594,0.0 120.298651,22.692814,0.0 120.298001,22.693552,0.0 120.295258,22.693621,0.0 120.294447,22.693651,0.0 120.292782,22.693664,0.0 120.292385,22.693667,0.0 120.292361,22.692221,0.0 120.292348,22.691409,0.0 120.291678,22.690929,0.0 120.29149,22.690891,0.0 120.291451,22.690974,0.0 120.29131,22.6907,0.0 120.291277,22.690554,0.0 120.291538,22.690313,0.0 120.29233,22.690327,0.0 120.292604,22.690358,0.0 120.293662,22.690345,0.0 120.294072,22.69034,0.0 120.294381,22.690225,0.0 120.295285,22.689498,0.0 120.295379,22.689593,0.0 120.295587,22.689861,0.0 120.295798,22.69011,0.0 120.296037,22.690249,0.0 120.296806,22.690689,0.0 120.297326,22.690987,0.0</coordinates></LinearRing></outerBoundaryIs></Polygon><styleUrl>#spolygon-map</styleUrl></Placemark><Placemark><Polygon><outerBoundaryIs><LinearRing><coordinates>120.294072,22.69034,0.0 120.293662,22.690345,0.0 120.292604,22.690358,0.0 120.29233,22.690327,0.0 120.291538,22.690313,0.0 120.291544,22.689941,0.0 120.291712,22.689359,0.0 120.291889,22.688939,0.0 120.291901,22.688653,0.0 120.292077,22.688539,0.0 120.292278,22.68858,0.0 120.29232,22.688806,0.0 120.292681,22.68863,0.0 120.292627,22.68849,0.0 120.292811,22.688512,0.0 120.292881,22.688306,0.0 120.293116,22.688157,0.0 120.293494,22.687851,0.0 120.293622,22.687715,0.0 120.293829,22.687972,0.0 120.294129,22.688323,0.0 120.294466,22.688612,0.0 120.294744,22.688857,0.0 120.294847,22.688969,0.0 120.295225,22.689436,0.0 120.294743,22.689934,0.0 120.294223,22.690311,0.0 120.294072,22.69034,0.0</coordinates></LinearRing></outerBoundaryIs></Polygon><styleUrl>#spolygon-map</styleUrl></Placemark><Placemark><Polygon><outerBoundaryIs><LinearRing><coordinates>120.292576,22.688536,0.0 120.292496,22.688797,0.0 120.29232,22.688752,0.0 120.292273,22.688549,0.0 120.29182,22.688528,0.0 120.291152,22.687866,0.0 120.291544,22.687479,0.0 120.291988,22.687062,0.0 120.29234,22.686714,0.0 120.292768,22.686825,0.0 120.292808,22.686963,0.0 120.292913,22.687011,0.0 120.293212,22.687219,0.0 120.293372,22.687399,0.0 120.293595,22.68768,0.0 120.293483,22.687839,0.0 120.293206,22.688076,0.0 120.293104,22.688145,0.0 120.292741,22.688452,0.0 120.292731,22.688584,0.0 120.292576,22.688536,0.0</coordinates></LinearRing></outerBoundaryIs></Polygon><styleUrl>#spolygon-map</styleUrl></Placemark><Placemark><Polygon><outerBoundaryIs><LinearRing><coordinates>120.29428,22.686134,0.0 120.293535,22.686886,0.0 120.293212,22.687219,0.0 120.292913,22.687011,0.0 120.292808,22.686963,0.0 120.292768,22.686825,0.0 120.29243,22.68649,0.0 120.292195,22.68627,0.0 120.292077,22.686111,0.0 120.292175,22.685985,0.0 120.292418,22.686006,0.0 120.292523,22.685926,0.0 120.292486,22.685822,0.0 120.292517,22.685626,0.0 120.292634,22.685541,0.0 120.292972,22.685234,0.0 120.293557,22.685269,0.0 120.29428,22.686134,0.0</coordinates></LinearRing></outerBoundaryIs></Polygon><styleUrl>#spolygon-map</styleUrl></Placemark><Placemark><Polygon><outerBoundaryIs><LinearRing><coordinates>120.294503,22.686225,0.0 120.294314,22.6862,0.0 120.29428,22.686134,0.0 120.293557,22.685269,0.0 120.293009,22.684757,0.0 120.292666,22.684408,0.0 120.293406,22.683309,0.0 120.295058,22.685073,0.0 120.295318,22.685357,0.0 120.295026,22.685588,0.0 120.294765,22.685861,0.0 120.294662,22.686009,0.0 120.294503,22.686225,0.0</coordinates></LinearRing></outerBoundaryIs></Polygon><styleUrl>#spolygon-map</styleUrl></Placemark><Placemark><Polygon><outerBoundaryIs><LinearRing><coordinates>120.295753,22.686331,0.0 120.295414,22.686586,0.0 120.295279,22.686662,0.0 120.295178,22.686761,0.0 120.294418,22.687389,0.0 120.294052,22.687758,0.0 120.293764,22.687894,0.0 120.293595,22.68768,0.0 120.293372,22.687399,0.0 120.293212,22.687219,0.0 120.293535,22.686886,0.0 120.29428,22.686134,0.0 120.294314,22.6862,0.0 120.294503,22.686225,0.0 120.294685,22.685977,0.0 120.294949,22.685656,0.0 120.295106,22.68554,0.0 120.296014,22.68612,0.0 120.295753,22.686331,0.0</coordinates></LinearRing></outerBoundaryIs></Polygon><styleUrl>#spolygon-map</styleUrl></Placemark><Placemark><Polygon><outerBoundaryIs><LinearRing><coordinates>120.296419,22.686564,0.0 120.296747,22.686924,0.0 120.29664,22.687376,0.0 120.296207,22.687706,0.0 120.296076,22.687815,0.0 120.29589,22.687913,0.0 120.295681,22.688123,0.0 120.295476,22.688276,0.0 120.295419,22.688406,0.0 120.294847,22.688969,0.0 120.294744,22.688857,0.0 120.294466,22.688612,0.0 120.294129,22.688323,0.0 120.293829,22.687972,0.0 120.294266,22.687558,0.0 120.295172,22.68678,0.0 120.295189,22.686725,0.0 120.29534,22.686627,0.0 120.295576,22.686475,0.0 120.296014,22.68612,0.0 120.296419,22.686564,0.0</coordinates></LinearRing></outerBoundaryIs></Polygon><styleUrl>#spolygon-map</styleUrl></Placemark><Placemark><Polygon><outerBoundaryIs><LinearRing><coordinates>120.297453,22.689683,0.0 120.296712,22.689994,0.0 120.296037,22.690249,0.0 120.295798,22.69011,0.0 120.295587,22.689861,0.0 120.295379,22.689593,0.0 120.295285,22.689498,0.0 120.295008,22.689125,0.0 120.295372,22.688467,0.0 120.295459,22.688317,0.0 120.295606,22.688192,0.0 120.295726,22.688039,0.0 120.296062,22.687822,0.0 120.296189,22.687718,0.0 120.296297,22.687646,0.0 120.296934,22.687129,0.0 120.297663,22.687928,0.0 120.298406,22.689299,0.0 120.297603,22.689623,0.0 120.297453,22.689683,0.0</coordinates></LinearRing></outerBoundaryIs></Polygon><styleUrl>#spolygon-map</styleUrl></Placemark><Placemark><Polygon><outerBoundaryIs><LinearRing><coordinates>120.310636,22.688957,0.0 120.311763,22.690135,0.0 120.31267,22.69104,0.0 120.313315,22.691684,0.0 120.314541,22.692817,0.0 120.315249,22.693443,0.0 120.316046,22.693731,0.0 120.31641,22.693774,0.0 120.316579,22.693974,0.0 120.316789,22.694217,0.0 120.316535,22.694448,0.0 120.316311,22.694646,0.0 120.315951,22.694927,0.0 120.315471,22.695354,0.0 120.315142,22.695632,0.0 120.314919,22.69586,0.0 120.314885,22.695895,0.0 120.314744,22.69605,0.0 120.314178,22.696709,0.0 120.313881,22.697058,0.0 120.313356,22.69769,0.0 120.31274,22.698397,0.0 120.311877,22.699393,0.0 120.308244,22.696025,0.0 120.305682,22.693395,0.0 120.304799,22.691503,0.0 120.303379,22.689641,0.0 120.303016,22.68882,0.0 120.302801,22.688947,0.0 120.302765,22.689718,0.0 120.302023,22.689819,0.0 120.301931,22.689801,0.0 120.30172,22.689792,0.0 120.301486,22.689874,0.0 120.301371,22.689912,0.0 120.300341,22.690546,0.0 120.300293,22.690846,0.0 120.299931,22.690818,0.0 120.29875,22.691178,0.0 120.298617,22.69121,0.0 120.297815,22.691594,0.0 120.297602,22.691303,0.0 120.297544,22.691219,0.0 120.297326,22.690987,0.0 120.29674,22.690651,0.0 120.2967,22.689999,0.0 120.297099,22.689857,0.0 120.297603,22.689623,0.0 120.298406,22.689299,0.0 120.297663,22.687928,0.0 120.296934,22.687129,0.0 120.296434,22.686581,0.0 120.296014,22.68612,0.0 120.295074,22.68509,0.0 120.294421,22.684393,0.0 120.293134,22.683091,0.0 120.292723,22.682828,0.0 120.292501,22.682491,0.0 120.292448,22.682329,0.0 120.292426,22.682045,0.0 120.292246,22.681575,0.0 120.292053,22.681145,0.0 120.291793,22.680821,0.0 120.293127,22.68003,0.0 120.293188,22.679956,0.0 120.293232,22.679866,0.0 120.293257,22.67974,0.0 120.293223,22.679577,0.0 120.293171,22.679441,0.0 120.29315,22.679371,0.0 120.292975,22.679034,0.0 120.292939,22.678962,0.0 120.292946,22.678899,0.0 120.293003,22.678818,0.0 120.296056,22.678386,0.0 120.297623,22.678608,0.0 120.298106,22.678552,0.0 120.298951,22.679466,0.0 120.301689,22.682367,0.0 120.302587,22.683315,0.0 120.303406,22.68418,0.0 120.305036,22.685878,0.0 120.305288,22.685723,0.0 120.3056,22.685508,0.0 120.305887,22.685238,0.0 120.306535,22.685484,0.0 120.306688,22.685592,0.0 120.30795,22.686487,0.0 120.309219,22.687431,0.0 120.310154,22.688439,0.0 120.310636,22.688957,0.0</coordinates></LinearRing></outerBoundaryIs></Polygon><styleUrl>#spolygon-map</styleUrl></Placemark><Placemark><Polygon><outerBoundaryIs><LinearRing><coordinates>120.301735,22.69464,0.0 120.300809,22.695097,0.0 120.301027,22.695516,0.0 120.301269,22.69594,0.0 120.301568,22.696449,0.0 120.301534,22.696699,0.0 120.300932,22.696151,0.0 120.300903,22.696112,0.0 120.300871,22.696073,0.0 120.300608,22.695694,0.0 120.300135,22.69503,0.0 120.300023,22.694872,0.0 120.299866,22.694629,0.0 120.29956,22.694165,0.0 120.299015,22.693358,0.0 120.29897,22.693286,0.0 120.298668,22.69284,0.0 120.297991,22.691851,0.0 120.29813,22.691455,0.0 120.298699,22.691193,0.0 120.299522,22.69094,0.0 120.300085,22.690837,0.0 120.300416,22.690863,0.0 120.300989,22.690154,0.0 120.301417,22.689897,0.0 120.301618,22.689842,0.0 120.301785,22.689784,0.0 120.301941,22.689803,0.0 120.302283,22.6898,0.0 120.302761,22.689902,0.0 120.302691,22.693562,0.0 120.302699,22.693635,0.0 120.302788,22.694696,0.0 120.302617,22.694685,0.0 120.301937,22.694876,0.0 120.301735,22.69464,0.0</coordinates></LinearRing></outerBoundaryIs></Polygon><styleUrl>#spolygon-map</styleUrl></Placemark><Placemark><Polygon><outerBoundaryIs><LinearRing><coordinates>120.311877,22.699393,0.0 120.311677,22.699392,0.0 120.31133,22.699364,0.0 120.30803,22.699339,0.0 120.302938,22.699334,0.0 120.302599,22.699302,0.0 120.302655,22.698838,0.0 120.302499,22.698522,0.0 120.302331,22.69818,0.0 120.302153,22.697913,0.0 120.302015,22.697709,0.0 120.301978,22.697656,0.0 120.301651,22.697177,0.0 120.301462,22.696899,0.0 120.301425,22.696846,0.0 120.301534,22.696699,0.0 120.301568,22.696449,0.0 120.301269,22.69594,0.0 120.301027,22.695516,0.0 120.300809,22.695097,0.0 120.301735,22.69464,0.0 120.301937,22.694876,0.0 120.302617,22.694685,0.0 120.302788,22.694696,0.0 120.302699,22.693635,0.0 120.302691,22.693562,0.0 120.302761,22.689902,0.0 120.302766,22.689685,0.0 120.302806,22.688844,0.0 120.303055,22.688908,0.0 120.304372,22.690589,0.0 120.305065,22.692072,0.0 120.30803,22.695805,0.0 120.310601,22.69821,0.0 120.311877,22.699393,0.0</coordinates></LinearRing></outerBoundaryIs></Polygon><styleUrl>#spolygon-map</styleUrl></Placemark><Placemark><Polygon><outerBoundaryIs><LinearRing><coordinates>120.29808,22.697314,0.0 120.294654,22.697366,0.0 120.295258,22.693621,0.0 120.298001,22.693552,0.0 120.298651,22.692814,0.0 120.298676,22.692859,0.0 120.298978,22.693304,0.0 120.29915,22.693552,0.0 120.299594,22.694217,0.0 120.299051,22.694527,0.0 120.299307,22.695048,0.0 120.298937,22.69519,0.0 120.298791,22.695767,0.0 120.298849,22.695982,0.0 120.298965,22.696337,0.0 120.299007,22.696509,0.0 120.2993,22.696498,0.0 120.299257,22.696668,0.0 120.299244,22.696806,0.0 120.299116,22.697026,0.0 120.298772,22.697304,0.0 120.29808,22.697314,0.0</coordinates></LinearRing></outerBoundaryIs></Polygon><styleUrl>#spolygon-map</styleUrl></Placemark><Placemark><Polygon><outerBoundaryIs><LinearRing><coordinates>120.294923,22.705244,0.0 120.294845,22.705316,0.0 120.294746,22.705349,0.0 120.294591,22.705295,0.0 120.294418,22.705242,0.0 120.293923,22.705095,0.0 120.293584,22.70511,0.0 120.292469,22.704914,0.0 120.292447,22.703265,0.0 120.29247,22.70066,0.0 120.292462,22.699666,0.0 120.292454,22.698573,0.0 120.29244,22.697986,0.0 120.292418,22.696719,0.0 120.292404,22.695508,0.0 120.292392,22.694284,0.0 120.292442,22.693666,0.0 120.294032,22.693654,0.0 120.295255,22.693636,0.0 120.296965,22.697331,0.0 120.298772,22.697304,0.0 120.299116,22.697026,0.0 120.299244,22.696806,0.0 120.299257,22.696668,0.0 120.2993,22.696498,0.0 120.299007,22.696509,0.0 120.298965,22.696337,0.0 120.298849,22.695982,0.0 120.298791,22.695767,0.0 120.298937,22.69519,0.0 120.299307,22.695048,0.0 120.299051,22.694527,0.0 120.299594,22.694217,0.0 120.299884,22.694657,0.0 120.300041,22.694897,0.0 120.300143,22.695049,0.0 120.300619,22.69571,0.0 120.30088,22.696084,0.0 120.300918,22.696131,0.0 120.301383,22.696786,0.0 120.301437,22.696863,0.0 120.301479,22.696923,0.0 120.301658,22.697194,0.0 120.301989,22.697671,0.0 120.302142,22.697897,0.0 120.302322,22.698163,0.0 120.30241,22.69834,0.0 120.30258,22.698686,0.0 120.302712,22.698953,0.0 120.302587,22.699339,0.0 120.302517,22.699936,0.0 120.301287,22.700844,0.0 120.297664,22.70079,0.0 120.297572,22.701009,0.0 120.297406,22.701397,0.0 120.297207,22.701897,0.0 120.296341,22.704081,0.0 120.295928,22.704079,0.0 120.294923,22.705244,0.0</coordinates></LinearRing></outerBoundaryIs></Polygon><styleUrl>#spolygon-map</styleUrl></Placemark><Placemark><Polygon><outerBoundaryIs><LinearRing><coordinates>120.296211,22.706761,0.0 120.295896,22.706976,0.0 120.295543,22.7072,0.0 120.295113,22.707489,0.0 120.29486,22.707607,0.0 120.294811,22.707569,0.0 120.294484,22.707403,0.0 120.294324,22.7073,0.0 120.294252,22.707251,0.0 120.294083,22.707134,0.0 120.294046,22.707105,0.0 120.293885,22.706881,0.0 120.293862,22.706846,0.0 120.293673,22.706543,0.0 120.2932,22.706553,0.0 120.293078,22.706588,0.0 120.292812,22.706268,0.0 120.29282,22.706092,0.0 120.292825,22.705965,0.0 120.292825,22.705826,0.0 120.292804,22.705603,0.0 120.292731,22.705401,0.0 120.292598,22.705182,0.0 120.292469,22.704914,0.0 120.293584,22.70511,0.0 120.293923,22.705095,0.0 120.294418,22.705242,0.0 120.294591,22.705295,0.0 120.294746,22.705349,0.0 120.295141,22.705469,0.0 120.296058,22.705769,0.0 120.296629,22.705956,0.0 120.296716,22.705987,0.0 120.296858,22.706061,0.0 120.296211,22.706761,0.0</coordinates></LinearRing></outerBoundaryIs></Polygon><styleUrl>#spolygon-map</styleUrl></Placemark><Placemark><Polygon><outerBoundaryIs><LinearRing><coordinates>120.29797,22.708542,0.0 120.297742,22.708696,0.0 120.297336,22.709054,0.0 120.296758,22.709442,0.0 120.296646,22.709354,0.0 120.296444,22.709202,0.0 120.296379,22.709144,0.0 120.296293,22.709076,0.0 120.296239,22.709039,0.0 120.296131,22.708939,0.0 120.296082,22.708897,0.0 120.296034,22.708845,0.0 120.296,22.708804,0.0 120.295852,22.708643,0.0 120.295795,22.708579,0.0 120.295754,22.708525,0.0 120.295727,22.708488,0.0 120.295598,22.708342,0.0 120.295559,22.708298,0.0 120.295418,22.708163,0.0 120.295387,22.708126,0.0 120.295315,22.708058,0.0 120.295268,22.708016,0.0 120.295185,22.707927,0.0 120.294959,22.707683,0.0 120.295113,22.707489,0.0 120.295543,22.7072,0.0 120.295896,22.706976,0.0 120.296211,22.706761,0.0 120.296858,22.706061,0.0 120.297211,22.70611,0.0 120.297771,22.706289,0.0 120.298504,22.706515,0.0 120.299693,22.70688,0.0 120.299798,22.706984,0.0 120.299876,22.707841,0.0 120.299742,22.707845,0.0 120.299577,22.707884,0.0 120.299382,22.707936,0.0 120.299338,22.70794,0.0 120.299012,22.708069,0.0 120.298958,22.708082,0.0 120.298705,22.708193,0.0 120.298426,22.70832,0.0 120.29797,22.708542,0.0</coordinates></LinearRing></outerBoundaryIs></Polygon><styleUrl>#spolygon-map</styleUrl></Placemark><Placemark><Polygon><outerBoundaryIs><LinearRing><coordinates>120.292447,22.703222,0.0 120.287739,22.70323,0.0 120.286599,22.700686,0.0 120.285973,22.700487,0.0 120.285963,22.699214,0.0 120.285958,22.698473,0.0 120.285945,22.697433,0.0 120.28595,22.697048,0.0 120.285943,22.696183,0.0 120.285933,22.694923,0.0 120.286452,22.694927,0.0 120.287629,22.694914,0.0 120.288476,22.694905,0.0 120.288873,22.694896,0.0 120.288849,22.695505,0.0 120.288752,22.695693,0.0 120.28895,22.696143,0.0 120.289029,22.697356,0.0 120.289195,22.697363,0.0 120.289891,22.697359,0.0 120.29065,22.69735,0.0 120.291221,22.697346,0.0 120.292064,22.697345,0.0 120.29244,22.697986,0.0 120.292454,22.698573,0.0 120.292462,22.699666,0.0 120.29247,22.70066,0.0 120.292447,22.703222,0.0</coordinates></LinearRing></outerBoundaryIs></Polygon><styleUrl>#spolygon-map</styleUrl></Placemark><Placemark><Polygon><outerBoundaryIs><LinearRing><coordinates>120.283677,22.707473,0.0 120.27993,22.707406,0.0 120.275559,22.707271,0.0 120.273233,22.706988,0.0 120.274164,22.707128,0.0 120.274698,22.706597,0.0 120.274841,22.705857,0.0 120.274909,22.704367,0.0 120.274733,22.704069,0.0 120.274533,22.703228,0.0 120.271213,22.700883,0.0 120.27133,22.698176,0.0 120.271278,22.697588,0.0 120.272598,22.698208,0.0 120.274768,22.697393,0.0 120.272052,22.695848,0.0 120.271297,22.696487,0.0 120.271521,22.695836,0.0 120.27344,22.694679,0.0 120.273524,22.690453,0.0 120.273467,22.689559,0.0 120.271174,22.687905,0.0 120.271408,22.687364,0.0 120.272216,22.687674,0.0 120.272227,22.687726,0.0 120.27239,22.687881,0.0 120.275302,22.687951,0.0 120.276698,22.687872,0.0 120.27732,22.687938,0.0 120.277495,22.687974,0.0 120.280395,22.68795,0.0 120.282594,22.687936,0.0 120.284693,22.687943,0.0 120.285148,22.687944,0.0 120.285883,22.687957,0.0 120.285931,22.687903,0.0 120.285905,22.687556,0.0 120.285948,22.687175,0.0 120.286137,22.685,0.0 120.287107,22.685508,0.0 120.287976,22.686163,0.0 120.288198,22.686326,0.0 120.288742,22.686607,0.0 120.28946,22.686932,0.0 120.289616,22.687016,0.0 120.290095,22.68728,0.0 120.290867,22.687648,0.0 120.291152,22.687866,0.0 120.29182,22.688528,0.0 120.291908,22.688787,0.0 120.291816,22.68912,0.0 120.291597,22.689702,0.0 120.291479,22.69032,0.0 120.291522,22.690555,0.0 120.291273,22.690697,0.0 120.291305,22.690971,0.0 120.291483,22.690975,0.0 120.291655,22.690895,0.0 120.292339,22.690928,0.0 120.292348,22.691419,0.0 120.292385,22.693651,0.0 120.292392,22.694284,0.0 120.292404,22.695508,0.0 120.292418,22.696719,0.0 120.292064,22.697345,0.0 120.291221,22.697346,0.0 120.29065,22.69735,0.0 120.289891,22.697359,0.0 120.289195,22.697363,0.0 120.289029,22.697356,0.0 120.28895,22.696143,0.0 120.288752,22.695693,0.0 120.288849,22.695505,0.0 120.288873,22.694896,0.0 120.288476,22.694905,0.0 120.287629,22.694914,0.0 120.286452,22.694927,0.0 120.285933,22.694923,0.0 120.285943,22.696183,0.0 120.28595,22.697048,0.0 120.285945,22.697433,0.0 120.285958,22.698473,0.0 120.285963,22.699214,0.0 120.285973,22.700487,0.0 120.286599,22.700686,0.0 120.284201,22.706464,0.0 120.284052,22.706754,0.0 120.283677,22.707473,0.0</coordinates></LinearRing></outerBoundaryIs></Polygon><styleUrl>#spolygon-map</styleUrl></Placemark><Placemark><Polygon><outerBoundaryIs><LinearRing><coordinates>120.291048,22.685347,0.0 120.291226,22.68551,0.0 120.291857,22.685944,0.0 120.291945,22.686004,0.0 120.292151,22.686185,0.0 120.292336,22.686402,0.0 120.292495,22.686554,0.0 120.29231,22.686751,0.0 120.291563,22.687474,0.0 120.291389,22.687642,0.0 120.291027,22.68776,0.0 120.290502,22.687469,0.0 120.290078,22.687264,0.0 120.289944,22.686651,0.0 120.289839,22.686267,0.0 120.28966,22.686069,0.0 120.289867,22.685789,0.0 120.290006,22.685684,0.0 120.290043,22.685559,0.0 120.290429,22.684989,0.0 120.290818,22.68513,0.0 120.291048,22.685347,0.0</coordinates></LinearRing></outerBoundaryIs></Polygon><styleUrl>#spolygon-map</styleUrl></Placemark><Placemark><Polygon><outerBoundaryIs><LinearRing><coordinates>120.292175,22.685985,0.0 120.292077,22.686111,0.0 120.291892,22.685967,0.0 120.291843,22.685934,0.0 120.291114,22.685425,0.0 120.290869,22.685113,0.0 120.29064,22.685157,0.0 120.290432,22.684922,0.0 120.290704,22.684462,0.0 120.290796,22.684261,0.0 120.291146,22.684492,0.0 120.291451,22.684324,0.0 120.291534,22.684287,0.0 120.291808,22.68402,0.0 120.292041,22.683651,0.0 120.292859,22.684121,0.0 120.292991,22.684741,0.0 120.29324,22.684972,0.0 120.292855,22.685361,0.0 120.292606,22.685574,0.0 120.292402,22.685742,0.0 120.292454,22.685857,0.0 120.292465,22.685981,0.0 120.292281,22.685861,0.0 120.292175,22.685985,0.0</coordinates></LinearRing></outerBoundaryIs></Polygon><styleUrl>#spolygon-map</styleUrl></Placemark><Placemark><Polygon><outerBoundaryIs><LinearRing><coordinates>120.291948,22.683798,0.0 120.291622,22.684277,0.0 120.291495,22.684297,0.0 120.291238,22.684574,0.0 120.291,22.684361,0.0 120.290782,22.684254,0.0 120.290832,22.684057,0.0 120.290908,22.683672,0.0 120.290929,22.683127,0.0 120.290905,22.682989,0.0 120.290843,22.682603,0.0 120.2907,22.682078,0.0 120.290637,22.681976,0.0 120.2909,22.681951,0.0 120.291069,22.682021,0.0 120.291398,22.68229,0.0 120.291877,22.682616,0.0 120.292117,22.682654,0.0 120.292723,22.682828,0.0 120.293134,22.683091,0.0 120.292859,22.684121,0.0 120.292041,22.683651,0.0 120.291948,22.683798,0.0</coordinates></LinearRing></outerBoundaryIs></Polygon><styleUrl>#spolygon-map</styleUrl></Placemark><Placemark><Polygon><outerBoundaryIs><LinearRing><coordinates>120.290859,22.68394,0.0 120.290796,22.684216,0.0 120.290704,22.684462,0.0 120.290432,22.684922,0.0 120.290422,22.685138,0.0 120.290017,22.685675,0.0 120.289998,22.68569,0.0 120.289599,22.684951,0.0 120.289237,22.684212,0.0 120.289126,22.683972,0.0 120.289445,22.683808,0.0 120.28973,22.68358,0.0 120.289915,22.683611,0.0 120.290079,22.683548,0.0 120.290104,22.68351,0.0 120.290193,22.683328,0.0 120.29054,22.683077,0.0 120.290698,22.682854,0.0 120.290905,22.682989,0.0 120.290929,22.683127,0.0 120.290908,22.683672,0.0 120.290859,22.68394,0.0</coordinates></LinearRing></outerBoundaryIs></Polygon><styleUrl>#spolygon-map</styleUrl></Placemark><Placemark><Polygon><outerBoundaryIs><LinearRing><coordinates>120.28963,22.683668,0.0 120.289376,22.683863,0.0 120.289072,22.683853,0.0 120.288719,22.683145,0.0 120.288744,22.68311,0.0 120.289061,22.682414,0.0 120.289504,22.68168,0.0 120.289716,22.681587,0.0 120.290005,22.681834,0.0 120.290123,22.681951,0.0 120.290212,22.682135,0.0 120.290521,22.682123,0.0 120.2907,22.682078,0.0 120.290843,22.682603,0.0 120.290698,22.682854,0.0 120.29054,22.683077,0.0 120.290193,22.683328,0.0 120.290104,22.68351,0.0 120.290079,22.683548,0.0 120.289915,22.683611,0.0 120.28973,22.68358,0.0 120.28963,22.683668,0.0</coordinates></LinearRing></outerBoundaryIs></Polygon><styleUrl>#spolygon-map</styleUrl></Placemark><Placemark><Polygon><outerBoundaryIs><LinearRing><coordinates>120.289909,22.685587,0.0 120.289867,22.685789,0.0 120.28966,22.686069,0.0 120.289364,22.685857,0.0 120.288998,22.685548,0.0 120.288881,22.68547,0.0 120.288527,22.68557,0.0 120.288083,22.685331,0.0 120.287932,22.685285,0.0 120.287443,22.685016,0.0 120.288523,22.683432,0.0 120.28906,22.683827,0.0 120.289126,22.683972,0.0 120.289237,22.684212,0.0 120.289599,22.684951,0.0 120.289909,22.685587,0.0</coordinates></LinearRing></outerBoundaryIs></Polygon><styleUrl>#spolygon-map</styleUrl></Placemark><Placemark><Polygon><outerBoundaryIs><LinearRing><coordinates>120.289345,22.685843,0.0 120.289568,22.686006,0.0 120.289864,22.686209,0.0 120.289841,22.686316,0.0 120.289616,22.687016,0.0 120.28946,22.686932,0.0 120.288742,22.686607,0.0 120.288198,22.686326,0.0 120.287976,22.686163,0.0 120.287107,22.685508,0.0 120.287914,22.685269,0.0 120.288007,22.685314,0.0 120.288505,22.685565,0.0 120.288582,22.685584,0.0 120.288984,22.685529,0.0 120.289345,22.685843,0.0</coordinates></LinearRing></outerBoundaryIs></Polygon><styleUrl>#spolygon-map</styleUrl></Placemark><Placemark><Polygon><outerBoundaryIs><LinearRing><coordinates>120.287152,22.680849,0.0 120.287061,22.68245,0.0 120.287383,22.682588,0.0 120.28784,22.682918,0.0 120.288255,22.68324,0.0 120.288129,22.684011,0.0 120.287107,22.685508,0.0 120.286137,22.685,0.0 120.286365,22.682619,0.0 120.286517,22.680956,0.0 120.287152,22.680835,0.0 120.287152,22.680849,0.0</coordinates></LinearRing></outerBoundaryIs></Polygon><styleUrl>#spolygon-map</styleUrl></Placemark><Placemark><Polygon><outerBoundaryIs><LinearRing><coordinates>120.289409,22.680983,0.0 120.289505,22.681236,0.0 120.289607,22.68146,0.0 120.289628,22.681519,0.0 120.289308,22.681986,0.0 120.289048,22.682437,0.0 120.288731,22.683134,0.0 120.288523,22.683432,0.0 120.288135,22.683126,0.0 120.287614,22.682777,0.0 120.287325,22.682545,0.0 120.287067,22.682334,0.0 120.287152,22.680835,0.0 120.286506,22.679306,0.0 120.287275,22.67905,0.0 120.287316,22.679052,0.0 120.287664,22.679194,0.0 120.287877,22.679592,0.0 120.288111,22.679886,0.0 120.28878,22.680108,0.0 120.289267,22.680296,0.0 120.289791,22.6806,0.0 120.289655,22.680769,0.0 120.289409,22.680983,0.0</coordinates></LinearRing></outerBoundaryIs></Polygon><styleUrl>#spolygon-map</styleUrl></Placemark><Placemark><Polygon><outerBoundaryIs><LinearRing><coordinates>120.290212,22.682135,0.0 120.290123,22.681951,0.0 120.290005,22.681834,0.0 120.289716,22.681587,0.0 120.289655,22.681485,0.0 120.289571,22.681428,0.0 120.289418,22.681009,0.0 120.289655,22.680769,0.0 120.289791,22.6806,0.0 120.289267,22.680296,0.0 120.28878,22.680108,0.0 120.288111,22.679886,0.0 120.287877,22.679592,0.0 120.287664,22.679194,0.0 120.287316,22.679052,0.0 120.287275,22.67905,0.0 120.287199,22.678365,0.0 120.287332,22.678431,0.0 120.287383,22.678449,0.0 120.287426,22.678473,0.0 120.28748,22.678507,0.0 120.28752,22.678528,0.0 120.287552,22.678546,0.0 120.287593,22.678507,0.0 120.287675,22.678511,0.0 120.287751,22.678549,0.0 120.288512,22.678443,0.0 120.288608,22.678356,0.0 120.288639,22.678298,0.0 120.288678,22.678327,0.0 120.288714,22.678298,0.0 120.28897,22.678162,0.0 120.288985,22.678143,0.0 120.288941,22.677933,0.0 120.288838,22.677903,0.0 120.288768,22.677857,0.0 120.288648,22.677857,0.0 120.288451,22.677608,0.0 120.288513,22.677531,0.0 120.28875,22.67736,0.0 120.289157,22.677362,0.0 120.289429,22.676822,0.0 120.289453,22.676713,0.0 120.289416,22.676296,0.0 120.289425,22.676232,0.0 120.289481,22.676296,0.0 120.289584,22.676445,0.0 120.289721,22.676645,0.0 120.2902,22.677857,0.0 120.290779,22.678532,0.0 120.291628,22.679252,0.0 120.291802,22.67993,0.0 120.291502,22.68011,0.0 120.290934,22.680365,0.0 120.290133,22.680358,0.0 120.289925,22.680457,0.0 120.290159,22.680954,0.0 120.290421,22.681478,0.0 120.290668,22.682086,0.0 120.290493,22.682109,0.0 120.290212,22.682135,0.0</coordinates></LinearRing></outerBoundaryIs></Polygon><styleUrl>#spolygon-map</styleUrl></Placemark><Placemark><Polygon><outerBoundaryIs><LinearRing><coordinates>120.292399,22.681957,0.0 120.292425,22.682144,0.0 120.292468,22.682416,0.0 120.292568,22.682545,0.0 120.292354,22.682703,0.0 120.291899,22.682619,0.0 120.291726,22.682501,0.0 120.291092,22.682039,0.0 120.291002,22.681981,0.0 120.29078,22.681941,0.0 120.290421,22.681478,0.0 120.290159,22.680954,0.0 120.289925,22.680457,0.0 120.290133,22.680358,0.0 120.290934,22.680365,0.0 120.291502,22.68011,0.0 120.291802,22.67993,0.0 120.291628,22.679252,0.0 120.290779,22.678532,0.0 120.2902,22.677857,0.0 120.289721,22.676645,0.0 120.289584,22.676445,0.0 120.289481,22.676296,0.0 120.289513,22.67624,0.0 120.290468,22.675263,0.0 120.290569,22.675145,0.0 120.290626,22.675066,0.0 120.29075,22.674971,0.0 120.292042,22.673975,0.0 120.292389,22.673653,0.0 120.293112,22.673032,0.0 120.293353,22.673313,0.0 120.294168,22.674269,0.0 120.294857,22.674998,0.0 120.295664,22.675851,0.0 120.297007,22.677327,0.0 120.298106,22.678552,0.0 120.297623,22.678608,0.0 120.296056,22.678386,0.0 120.293003,22.678818,0.0 120.292946,22.678899,0.0 120.292939,22.678962,0.0 120.292975,22.679034,0.0 120.29315,22.679371,0.0 120.293171,22.679441,0.0 120.293223,22.679577,0.0 120.293257,22.67974,0.0 120.293232,22.679866,0.0 120.293188,22.679956,0.0 120.293127,22.68003,0.0 120.291793,22.680821,0.0 120.292053,22.681145,0.0 120.292246,22.681575,0.0 120.292399,22.681957,0.0</coordinates></LinearRing></outerBoundaryIs></Polygon><styleUrl>#spolygon-map</styleUrl></Placemark><Placemark><Polygon><outerBoundaryIs><LinearRing><coordinates>120.290634,22.670452,0.0 120.290843,22.670653,0.0 120.290987,22.670796,0.0 120.291724,22.671549,0.0 120.291909,22.671739,0.0 120.292443,22.672314,0.0 120.292866,22.672744,0.0 120.293112,22.673032,0.0 120.292389,22.673653,0.0 120.292042,22.673975,0.0 120.29075,22.674971,0.0 120.290418,22.674727,0.0 120.289864,22.674385,0.0 120.28977,22.674317,0.0 120.28904,22.67381,0.0 120.288507,22.673401,0.0 120.288372,22.673297,0.0 120.288606,22.672027,0.0 120.289064,22.671668,0.0 120.290618,22.670429,0.0 120.290634,22.670452,0.0</coordinates></LinearRing></outerBoundaryIs></Polygon><styleUrl>#spolygon-map</styleUrl></Placemark><Placemark><Polygon><outerBoundaryIs><LinearRing><coordinates>120.264594,22.690097,0.0 120.260326,22.692208,0.0 120.260885,22.690947,0.0 120.26197,22.69003,0.0 120.258029,22.690419,0.0 120.263465,22.688899,0.0 120.263885,22.686797,0.0 120.263695,22.68406,0.0 120.264086,22.681623,0.0 120.264311,22.677759,0.0 120.264145,22.676349,0.0 120.263261,22.67323,0.0 120.261867,22.67185,0.0 120.260041,22.669973,0.0 120.259139,22.669156,0.0 120.258706,22.668747,0.0 120.258353,22.668881,0.0 120.257788,22.668847,0.0 120.257505,22.668726,0.0 120.25755,22.66839,0.0 120.257595,22.668194,0.0 120.257662,22.667948,0.0 120.257824,22.667789,0.0 120.257909,22.667721,0.0 120.258026,22.667631,0.0 120.25823,22.667496,0.0 120.258524,22.667526,0.0 120.258773,22.66767,0.0 120.259043,22.667865,0.0 120.25923,22.667912,0.0 120.259458,22.667942,0.0 120.260033,22.668264,0.0 120.2602,22.66842,0.0 120.260396,22.668862,0.0 120.260874,22.669458,0.0 120.261059,22.669759,0.0 120.261198,22.669945,0.0 120.261595,22.670209,0.0 120.262266,22.670602,0.0 120.262377,22.670692,0.0 120.262937,22.67115,0.0 120.263678,22.671676,0.0 120.263916,22.671747,0.0 120.264484,22.67182,0.0 120.265116,22.67208,0.0 120.2658,22.672225,0.0 120.266547,22.67253,0.0 120.267068,22.67261,0.0 120.268622,22.672772,0.0 120.269841,22.672976,0.0 120.270716,22.673196,0.0 120.271782,22.673219,0.0 120.272377,22.673411,0.0 120.272907,22.673716,0.0 120.273436,22.673977,0.0 120.273933,22.674014,0.0 120.27465,22.673873,0.0 120.27648,22.673438,0.0 120.277069,22.673118,0.0 120.277242,22.67297,0.0 120.277284,22.673338,0.0 120.277445,22.674741,0.0 120.27812,22.674361,0.0 120.279728,22.673037,0.0 120.280259,22.672654,0.0 120.281123,22.671964,0.0 120.281726,22.671485,0.0 120.282038,22.671452,0.0 120.282816,22.671552,0.0 120.282753,22.67213,0.0 120.28272,22.672515,0.0 120.282719,22.672648,0.0 120.28269,22.676059,0.0 120.282674,22.677081,0.0 120.283894,22.677253,0.0 120.284754,22.677308,0.0 120.285349,22.677782,0.0 120.285836,22.677734,0.0 120.286528,22.677934,0.0 120.286501,22.678503,0.0 120.286506,22.679306,0.0 120.286517,22.680956,0.0 120.286365,22.682619,0.0 120.286137,22.685,0.0 120.285948,22.687175,0.0 120.285905,22.687556,0.0 120.285931,22.687903,0.0 120.285883,22.687957,0.0 120.285148,22.687944,0.0 120.284693,22.687943,0.0 120.282594,22.687936,0.0 120.280395,22.68795,0.0 120.277495,22.687974,0.0 120.27732,22.687938,0.0 120.276698,22.687872,0.0 120.275302,22.687951,0.0 120.27239,22.687881,0.0 120.272227,22.687726,0.0 120.272216,22.687674,0.0 120.27452,22.683811,0.0 120.273134,22.682793,0.0 120.27006,22.680016,0.0 120.267715,22.680565,0.0 120.267051,22.683985,0.0 120.264594,22.690097,0.0</coordinates></LinearRing></outerBoundaryIs></Polygon><styleUrl>#spolygon-map</styleUrl></Placemark><Placemark><Polygon><outerBoundaryIs><LinearRing><coordinates>120.287269,22.679017,0.0 120.286504,22.679001,0.0 120.286522,22.678506,0.0 120.286357,22.677891,0.0 120.285756,22.677898,0.0 120.285228,22.677686,0.0 120.283928,22.677255,0.0 120.282669,22.677239,0.0 120.282682,22.676586,0.0 120.282699,22.675427,0.0 120.282719,22.672627,0.0 120.28272,22.672495,0.0 120.282755,22.671621,0.0 120.28286,22.671526,0.0 120.283079,22.671501,0.0 120.283212,22.671515,0.0 120.28418,22.67154,0.0 120.284514,22.671514,0.0 120.284794,22.67139,0.0 120.285167,22.671143,0.0 120.285318,22.671256,0.0 120.286497,22.670814,0.0 120.28652,22.672071,0.0 120.286799,22.672188,0.0 120.287852,22.672897,0.0 120.288386,22.673315,0.0 120.289027,22.673792,0.0 120.28932,22.674014,0.0 120.289783,22.674333,0.0 120.290008,22.674476,0.0 120.290675,22.674918,0.0 120.290728,22.67498,0.0 120.29054,22.675096,0.0 120.290519,22.675203,0.0 120.289726,22.676141,0.0 120.289456,22.676235,0.0 120.289416,22.676262,0.0 120.289432,22.676445,0.0 120.289446,22.676779,0.0 120.289282,22.677114,0.0 120.28908,22.677515,0.0 120.288529,22.677513,0.0 120.288432,22.67758,0.0 120.288499,22.677689,0.0 120.288688,22.677902,0.0 120.288836,22.677858,0.0 120.288839,22.677932,0.0 120.288983,22.678019,0.0 120.28897,22.678144,0.0 120.28897,22.678278,0.0 120.288717,22.678325,0.0 120.288676,22.678295,0.0 120.288645,22.678355,0.0 120.288615,22.678435,0.0 120.288516,22.678477,0.0 120.287746,22.678501,0.0 120.287675,22.678498,0.0 120.287596,22.678552,0.0 120.287555,22.678524,0.0 120.287518,22.678504,0.0 120.287475,22.678467,0.0 120.287423,22.678444,0.0 120.287379,22.678425,0.0 120.287222,22.678384,0.0 120.287269,22.679017,0.0</coordinates></LinearRing></outerBoundaryIs></Polygon><styleUrl>#spolygon-map</styleUrl></Placemark><Placemark><Polygon><outerBoundaryIs><LinearRing><coordinates>120.289632,22.671215,0.0 120.288619,22.672023,0.0 120.287852,22.672897,0.0 120.286799,22.672188,0.0 120.28652,22.672071,0.0 120.286497,22.670814,0.0 120.286503,22.670488,0.0 120.287241,22.670454,0.0 120.2873,22.670556,0.0 120.28748,22.670733,0.0 120.287737,22.670842,0.0 120.28786,22.670864,0.0 120.288228,22.670797,0.0 120.28834,22.670737,0.0 120.28854,22.67053,0.0 120.288628,22.670323,0.0 120.288634,22.670085,0.0 120.28873,22.670069,0.0 120.289039,22.670141,0.0 120.289938,22.669756,0.0 120.290039,22.669852,0.0 120.289632,22.671215,0.0</coordinates></LinearRing></outerBoundaryIs></Polygon><styleUrl>#spolygon-map</styleUrl></Placemark><Placemark><Polygon><outerBoundaryIs><LinearRing><coordinates>120.288192,22.669579,0.0 120.288358,22.669664,0.0 120.288477,22.669778,0.0 120.288627,22.670068,0.0 120.288633,22.670117,0.0 120.288585,22.67044,0.0 120.288526,22.670555,0.0 120.28826,22.67078,0.0 120.288112,22.670839,0.0 120.287754,22.670847,0.0 120.287598,22.670799,0.0 120.28738,22.670651,0.0 120.287252,22.670473,0.0 120.287183,22.670188,0.0 120.28722,22.670004,0.0 120.287355,22.669778,0.0 120.287453,22.669661,0.0 120.287662,22.66956,0.0 120.287906,22.669523,0.0 120.288192,22.669579,0.0</coordinates></LinearRing></outerBoundaryIs></Polygon><styleUrl>#spolygon-map</styleUrl></Placemark><Placemark><Polygon><outerBoundaryIs><LinearRing><coordinates>120.287906,22.669523,0.0 120.287662,22.66956,0.0 120.287453,22.669661,0.0 120.287355,22.669778,0.0 120.28722,22.670004,0.0 120.287183,22.670188,0.0 120.287038,22.67049,0.0 120.286508,22.670227,0.0 120.286544,22.669385,0.0 120.286693,22.668918,0.0 120.286731,22.668836,0.0 120.28703,22.668535,0.0 120.287706,22.668124,0.0 120.288079,22.667908,0.0 120.288414,22.667786,0.0 120.288839,22.668323,0.0 120.289075,22.668654,0.0 120.289334,22.669001,0.0 120.28975,22.669569,0.0 120.289406,22.670022,0.0 120.288788,22.670083,0.0 120.288627,22.670068,0.0 120.288477,22.669778,0.0 120.288358,22.669664,0.0 120.288192,22.669579,0.0 120.287906,22.669523,0.0</coordinates></LinearRing></outerBoundaryIs></Polygon><styleUrl>#spolygon-map</styleUrl></Placemark><Placemark><Polygon><outerBoundaryIs><LinearRing><coordinates>120.305262,22.669715,0.0 120.304812,22.669829,0.0 120.304659,22.669873,0.0 120.304621,22.669884,0.0 120.30366,22.670157,0.0 120.30346,22.670337,0.0 120.303549,22.670713,0.0 120.30358,22.670795,0.0 120.302795,22.671397,0.0 120.30222,22.671951,0.0 120.301948,22.672086,0.0 120.301487,22.672297,0.0 120.301081,22.67251,0.0 120.300568,22.672772,0.0 120.299757,22.673241,0.0 120.299766,22.673569,0.0 120.299775,22.673887,0.0 120.299843,22.674681,0.0 120.299789,22.674967,0.0 120.299768,22.675271,0.0 120.299747,22.675701,0.0 120.299654,22.676595,0.0 120.299673,22.676821,0.0 120.300106,22.677337,0.0 120.300483,22.677783,0.0 120.299656,22.678207,0.0 120.299342,22.678312,0.0 120.298553,22.678525,0.0 120.29787,22.678276,0.0 120.296263,22.67651,0.0 120.294875,22.675017,0.0 120.294187,22.674289,0.0 120.293897,22.673951,0.0 120.293265,22.67321,0.0 120.292893,22.672774,0.0 120.293291,22.672643,0.0 120.29354,22.672593,0.0 120.293682,22.672436,0.0 120.293858,22.672257,0.0 120.294199,22.671843,0.0 120.294295,22.671659,0.0 120.294517,22.671399,0.0 120.294721,22.67114,0.0 120.2948,22.670992,0.0 120.295114,22.670566,0.0 120.295396,22.670097,0.0 120.295557,22.669891,0.0 120.296062,22.669424,0.0 120.296288,22.669283,0.0 120.296767,22.668825,0.0 120.29735,22.668292,0.0 120.297513,22.668238,0.0 120.297733,22.667888,0.0 120.297705,22.667717,0.0 120.297918,22.667414,0.0 120.297678,22.667207,0.0 120.297827,22.666911,0.0 120.298161,22.666856,0.0 120.298484,22.666652,0.0 120.298612,22.666531,0.0 120.299127,22.666406,0.0 120.299642,22.665827,0.0 120.300106,22.665826,0.0 120.301026,22.665816,0.0 120.302483,22.665799,0.0 120.303214,22.665803,0.0 120.303309,22.666158,0.0 120.303925,22.666213,0.0 120.304166,22.666206,0.0 120.304823,22.666662,0.0 120.305375,22.66661,0.0 120.305582,22.667387,0.0 120.305699,22.667809,0.0 120.305819,22.668243,0.0 120.305869,22.668389,0.0 120.306901,22.66802,0.0 120.307027,22.668356,0.0 120.307279,22.669176,0.0 120.306239,22.66944,0.0 120.305262,22.669715,0.0</coordinates></LinearRing></outerBoundaryIs></Polygon><styleUrl>#spolygon-map</styleUrl></Placemark><Placemark><Polygon><outerBoundaryIs><LinearRing><coordinates>120.314535,22.668698,0.0 120.313605,22.668692,0.0 120.313549,22.668697,0.0 120.313137,22.668608,0.0 120.313019,22.66859,0.0 120.312402,22.668471,0.0 120.311523,22.668302,0.0 120.310901,22.668339,0.0 120.310734,22.668362,0.0 120.30975,22.668566,0.0 120.30957,22.668141,0.0 120.309442,22.667758,0.0 120.309296,22.667316,0.0 120.309248,22.667164,0.0 120.307902,22.667648,0.0 120.306901,22.66802,0.0 120.305869,22.668389,0.0 120.305819,22.668243,0.0 120.305699,22.667809,0.0 120.305582,22.667387,0.0 120.305375,22.66661,0.0 120.304823,22.666662,0.0 120.304166,22.666206,0.0 120.303925,22.666213,0.0 120.303309,22.666158,0.0 120.303214,22.665803,0.0 120.303236,22.664536,0.0 120.30315,22.663018,0.0 120.303192,22.662167,0.0 120.303188,22.662033,0.0 120.303098,22.661171,0.0 120.303087,22.660354,0.0 120.303078,22.659577,0.0 120.302956,22.658243,0.0 120.303101,22.656414,0.0 120.303277,22.656121,0.0 120.303884,22.656275,0.0 120.303968,22.656292,0.0 120.305169,22.656572,0.0 120.305628,22.656674,0.0 120.30609,22.656772,0.0 120.306614,22.656823,0.0 120.307318,22.656791,0.0 120.308084,22.656558,0.0 120.308221,22.656305,0.0 120.30848,22.656382,0.0 120.308729,22.656237,0.0 120.308638,22.654751,0.0 120.308653,22.654608,0.0 120.310303,22.654652,0.0 120.311195,22.654874,0.0 120.311964,22.655479,0.0 120.312332,22.656055,0.0 120.312531,22.65667,0.0 120.312492,22.657409,0.0 120.312246,22.658148,0.0 120.311964,22.659015,0.0 120.311864,22.659311,0.0 120.311672,22.659896,0.0 120.311586,22.660158,0.0 120.311456,22.660555,0.0 120.311325,22.66101,0.0 120.311135,22.661865,0.0 120.311228,22.662582,0.0 120.311417,22.663036,0.0 120.312054,22.663938,0.0 120.312737,22.664771,0.0 120.313189,22.665364,0.0 120.313933,22.666304,0.0 120.314649,22.6672,0.0 120.31484,22.667644,0.0 120.314852,22.667847,0.0 120.314786,22.668303,0.0 120.314708,22.668683,0.0 120.314535,22.668698,0.0</coordinates></LinearRing></outerBoundaryIs></Polygon><styleUrl>#spolygon-map</styleUrl></Placemark><Placemark><Polygon><outerBoundaryIs><LinearRing><coordinates>120.306742,22.671024,0.0 120.306402,22.671177,0.0 120.306013,22.67138,0.0 120.304827,22.671999,0.0 120.303763,22.671289,0.0 120.30358,22.670795,0.0 120.303549,22.670713,0.0 120.30346,22.670337,0.0 120.30366,22.670157,0.0 120.304621,22.669884,0.0 120.304659,22.669873,0.0 120.304812,22.669829,0.0 120.305262,22.669715,0.0 120.306239,22.66944,0.0 120.307279,22.669176,0.0 120.307027,22.668356,0.0 120.307902,22.667648,0.0 120.309248,22.667164,0.0 120.309296,22.667316,0.0 120.309442,22.667758,0.0 120.30957,22.668141,0.0 120.30975,22.668566,0.0 120.310734,22.668362,0.0 120.310901,22.668339,0.0 120.311523,22.668302,0.0 120.312402,22.668471,0.0 120.313019,22.66859,0.0 120.313137,22.668608,0.0 120.313549,22.668697,0.0 120.313605,22.668692,0.0 120.314535,22.668698,0.0 120.314686,22.668899,0.0 120.31459,22.669115,0.0 120.314317,22.669395,0.0 120.31415,22.669718,0.0 120.314125,22.669845,0.0 120.313977,22.670591,0.0 120.313966,22.670645,0.0 120.313955,22.670703,0.0 120.313938,22.670789,0.0 120.313926,22.670848,0.0 120.313916,22.6709,0.0 120.313902,22.67097,0.0 120.313888,22.671042,0.0 120.313863,22.671141,0.0 120.313794,22.671227,0.0 120.313763,22.671258,0.0 120.313716,22.671274,0.0 120.313654,22.671296,0.0 120.313496,22.671347,0.0 120.313394,22.671381,0.0 120.313267,22.671423,0.0 120.313131,22.67147,0.0 120.313001,22.67151,0.0 120.312747,22.671594,0.0 120.31262,22.671626,0.0 120.312553,22.671646,0.0 120.31248,22.671668,0.0 120.312353,22.67171,0.0 120.312292,22.67173,0.0 120.312202,22.671759,0.0 120.312125,22.671786,0.0 120.312067,22.671802,0.0 120.311961,22.671833,0.0 120.311868,22.671859,0.0 120.311707,22.671908,0.0 120.311644,22.671917,0.0 120.311224,22.672028,0.0 120.310246,22.671918,0.0 120.309656,22.671856,0.0 120.309049,22.671826,0.0 120.308376,22.671772,0.0 120.307819,22.67158,0.0 120.307499,22.671361,0.0 120.306998,22.671051,0.0 120.306923,22.671033,0.0 120.306742,22.671024,0.0</coordinates></LinearRing></outerBoundaryIs></Polygon><styleUrl>#spolygon-map</styleUrl></Placemark><Placemark><Polygon><outerBoundaryIs><LinearRing><coordinates>120.303755,22.67127,0.0 120.304226,22.672313,0.0 120.304403,22.672591,0.0 120.304782,22.673466,0.0 120.304992,22.673885,0.0 120.305157,22.674275,0.0 120.305355,22.674734,0.0 120.305684,22.675383,0.0 120.305986,22.675871,0.0 120.306098,22.676053,0.0 120.306313,22.676401,0.0 120.30656,22.676783,0.0 120.307032,22.677511,0.0 120.307414,22.679195,0.0 120.306542,22.680033,0.0 120.305743,22.680669,0.0 120.304226,22.681911,0.0 120.303363,22.682636,0.0 120.302587,22.683315,0.0 120.301689,22.682367,0.0 120.298951,22.679466,0.0 120.298106,22.678552,0.0 120.298926,22.678441,0.0 120.299363,22.678305,0.0 120.30014,22.677987,0.0 120.300116,22.677356,0.0 120.299686,22.676836,0.0 120.299671,22.676801,0.0 120.299721,22.676202,0.0 120.299758,22.675467,0.0 120.299815,22.675228,0.0 120.299794,22.67494,0.0 120.299798,22.674025,0.0 120.299775,22.673867,0.0 120.299758,22.673264,0.0 120.300158,22.673009,0.0 120.300579,22.672766,0.0 120.301094,22.672504,0.0 120.3015,22.672291,0.0 120.301964,22.672085,0.0 120.302338,22.671837,0.0 120.303063,22.67114,0.0 120.303755,22.67127,0.0</coordinates></LinearRing></outerBoundaryIs></Polygon><styleUrl>#spolygon-map</styleUrl></Placemark><Placemark><Polygon><outerBoundaryIs><LinearRing><coordinates>120.310448,22.685148,0.0 120.310779,22.685361,0.0 120.311295,22.685687,0.0 120.312321,22.686415,0.0 120.313439,22.687216,0.0 120.313102,22.687577,0.0 120.312805,22.687828,0.0 120.312757,22.687866,0.0 120.31123,22.689157,0.0 120.310636,22.688957,0.0 120.310154,22.688439,0.0 120.309219,22.687431,0.0 120.30795,22.686487,0.0 120.306688,22.685592,0.0 120.306535,22.685484,0.0 120.305887,22.685238,0.0 120.3056,22.685508,0.0 120.305288,22.685723,0.0 120.305036,22.685878,0.0 120.303406,22.68418,0.0 120.302587,22.683315,0.0 120.303363,22.682636,0.0 120.304226,22.681911,0.0 120.305743,22.680669,0.0 120.306542,22.680033,0.0 120.307414,22.679195,0.0 120.307032,22.677511,0.0 120.30656,22.676783,0.0 120.306313,22.676401,0.0 120.306098,22.676053,0.0 120.305986,22.675871,0.0 120.305684,22.675383,0.0 120.305355,22.674734,0.0 120.305157,22.674275,0.0 120.304992,22.673885,0.0 120.304782,22.673466,0.0 120.304403,22.672591,0.0 120.304226,22.672313,0.0 120.305171,22.671819,0.0 120.306235,22.671264,0.0 120.306625,22.671061,0.0 120.30687,22.671021,0.0 120.306983,22.671047,0.0 120.307135,22.671096,0.0 120.307583,22.671422,0.0 120.308091,22.671696,0.0 120.308765,22.671807,0.0 120.309259,22.671839,0.0 120.309941,22.671883,0.0 120.311204,22.672033,0.0 120.311299,22.672008,0.0 120.311679,22.671908,0.0 120.311847,22.671864,0.0 120.311883,22.671855,0.0 120.312035,22.67181,0.0 120.312099,22.671793,0.0 120.312171,22.67177,0.0 120.312244,22.671746,0.0 120.312321,22.671721,0.0 120.312398,22.671695,0.0 120.312495,22.671663,0.0 120.312591,22.671635,0.0 120.312645,22.671617,0.0 120.312814,22.671565,0.0 120.313104,22.671485,0.0 120.313188,22.67145,0.0 120.313307,22.67141,0.0 120.31342,22.671372,0.0 120.313589,22.671316,0.0 120.31369,22.671283,0.0 120.313744,22.671264,0.0 120.313777,22.67125,0.0 120.313843,22.671166,0.0 120.313878,22.671089,0.0 120.313896,22.670999,0.0 120.313914,22.670911,0.0 120.313921,22.670875,0.0 120.313933,22.670814,0.0 120.313947,22.670744,0.0 120.313961,22.67067,0.0 120.313972,22.670615,0.0 120.313982,22.670566,0.0 120.314137,22.669785,0.0 120.314235,22.66951,0.0 120.314437,22.669231,0.0 120.314698,22.669034,0.0 120.314775,22.669271,0.0 120.315081,22.669425,0.0 120.315491,22.669439,0.0 120.317273,22.669514,0.0 120.31759,22.669685,0.0 120.31812,22.670798,0.0 120.318486,22.671375,0.0 120.31906,22.671705,0.0 120.319426,22.671924,0.0 120.319652,22.672306,0.0 120.320104,22.673782,0.0 120.320219,22.674147,0.0 120.320433,22.674452,0.0 120.320478,22.674495,0.0 120.321243,22.675106,0.0 120.321379,22.67523,0.0 120.321726,22.675675,0.0 120.322576,22.676828,0.0 120.322566,22.677005,0.0 120.321926,22.677383,0.0 120.321692,22.677519,0.0 120.321069,22.67789,0.0 120.320518,22.678213,0.0 120.320381,22.678293,0.0 120.319863,22.678515,0.0 120.319495,22.678663,0.0 120.319068,22.678817,0.0 120.318807,22.678902,0.0 120.318141,22.679018,0.0 120.317792,22.67907,0.0 120.317445,22.679102,0.0 120.317172,22.679122,0.0 120.316991,22.679133,0.0 120.316035,22.67912,0.0 120.315159,22.679087,0.0 120.314464,22.679146,0.0 120.314283,22.679166,0.0 120.31395,22.67924,0.0 120.313662,22.679317,0.0 120.313475,22.679369,0.0 120.312949,22.679573,0.0 120.312569,22.679756,0.0 120.312075,22.679993,0.0 120.311585,22.680237,0.0 120.310632,22.680801,0.0 120.30982,22.681375,0.0 120.308936,22.68208,0.0 120.308517,22.682449,0.0 120.307742,22.683231,0.0 120.308264,22.683587,0.0 120.308725,22.683899,0.0 120.309212,22.684263,0.0 120.309738,22.68465,0.0 120.310448,22.685148,0.0</coordinates></LinearRing></outerBoundaryIs></Polygon><styleUrl>#spolygon-map</styleUrl></Placemark><Placemark><Polygon><outerBoundaryIs><LinearRing><coordinates>120.320359,22.689936,0.0 120.320093,22.690178,0.0 120.3194,22.690796,0.0 120.319035,22.691109,0.0 120.318793,22.691311,0.0 120.318442,22.691605,0.0 120.318193,22.691807,0.0 120.317708,22.692224,0.0 120.31732,22.692555,0.0 120.316888,22.692917,0.0 120.316523,22.693234,0.0 120.316217,22.693492,0.0 120.31635,22.693709,0.0 120.31641,22.693774,0.0 120.316046,22.693731,0.0 120.315249,22.693443,0.0 120.314541,22.692817,0.0 120.313315,22.691684,0.0 120.31267,22.69104,0.0 120.311763,22.690135,0.0 120.31123,22.689157,0.0 120.312757,22.687866,0.0 120.312805,22.687828,0.0 120.313102,22.687577,0.0 120.313439,22.687216,0.0 120.312321,22.686415,0.0 120.311295,22.685687,0.0 120.310779,22.685361,0.0 120.310448,22.685148,0.0 120.309663,22.684597,0.0 120.309198,22.684245,0.0 120.308674,22.683863,0.0 120.307789,22.683265,0.0 120.308024,22.68295,0.0 120.308818,22.682184,0.0 120.309185,22.681881,0.0 120.310212,22.681098,0.0 120.311293,22.680394,0.0 120.311599,22.680237,0.0 120.312164,22.67995,0.0 120.312618,22.679732,0.0 120.313107,22.679506,0.0 120.313619,22.679329,0.0 120.313772,22.679287,0.0 120.314164,22.679199,0.0 120.314358,22.679156,0.0 120.314876,22.679097,0.0 120.315414,22.679091,0.0 120.316513,22.679136,0.0 120.317153,22.679123,0.0 120.317373,22.679114,0.0 120.317759,22.679072,0.0 120.317928,22.679059,0.0 120.318522,22.678955,0.0 120.319044,22.678826,0.0 120.31936,22.678713,0.0 120.319669,22.678598,0.0 120.320164,22.678385,0.0 120.320416,22.678266,0.0 120.32088,22.678002,0.0 120.321593,22.677579,0.0 120.321731,22.677496,0.0 120.321991,22.677352,0.0 120.322672,22.676938,0.0 120.322877,22.677176,0.0 120.323675,22.677475,0.0 120.324048,22.677688,0.0 120.324377,22.678286,0.0 120.324609,22.678375,0.0 120.324964,22.678554,0.0 120.325254,22.679342,0.0 120.325416,22.679672,0.0 120.325589,22.679786,0.0 120.325823,22.67986,0.0 120.326592,22.679801,0.0 120.326365,22.680344,0.0 120.326187,22.680505,0.0 120.325868,22.680513,0.0 120.325604,22.680455,0.0 120.325238,22.680309,0.0 120.324947,22.680441,0.0 120.324722,22.680501,0.0 120.32459,22.680465,0.0 120.324312,22.680396,0.0 120.323742,22.680226,0.0 120.323489,22.680259,0.0 120.323193,22.680502,0.0 120.322874,22.680823,0.0 120.322577,22.681097,0.0 120.322341,22.681313,0.0 120.322103,22.681533,0.0 120.322065,22.681748,0.0 120.322158,22.681922,0.0 120.322316,22.682052,0.0 120.322475,22.682167,0.0 120.322926,22.682749,0.0 120.323295,22.682965,0.0 120.323767,22.683335,0.0 120.324242,22.68382,0.0 120.324368,22.684261,0.0 120.324391,22.684557,0.0 120.32442,22.684767,0.0 120.324422,22.684805,0.0 120.324643,22.685077,0.0 120.324589,22.685265,0.0 120.324253,22.685263,0.0 120.323962,22.684989,0.0 120.323654,22.685075,0.0 120.32358,22.68571,0.0 120.323528,22.685861,0.0 120.323521,22.68607,0.0 120.323639,22.686346,0.0 120.323324,22.686819,0.0 120.323347,22.686957,0.0 120.323211,22.687146,0.0 120.323103,22.687254,0.0 120.322992,22.687732,0.0 120.322845,22.688014,0.0 120.322828,22.688192,0.0 120.32218,22.689117,0.0 120.321898,22.689403,0.0 120.321783,22.689432,0.0 120.321735,22.689497,0.0 120.321556,22.689713,0.0 120.321291,22.69005,0.0 120.321242,22.690106,0.0 120.321162,22.690215,0.0 120.321003,22.690331,0.0 120.320698,22.690122,0.0 120.320418,22.689916,0.0 120.320359,22.689936,0.0</coordinates></LinearRing></outerBoundaryIs></Polygon><styleUrl>#spolygon-map</styleUrl></Placemark></Document>
</kml>
