<?xml version="1.0" encoding="UTF-8"?>
<kml xmlns="http://www.opengis.net/kml/2.2">
	<Document>
		<name>屏東縣琉球鄉</name>
		<Style id="spolygon">
			<LabelStyle>
				<scale>0.0</scale>
			</LabelStyle>
			<LineStyle>
				<color>330030ff</color>
				<width>0</width>
			</LineStyle>
			<PolyStyle>
				<color>330030ff</color>
			</PolyStyle>
		</Style>
		<StyleMap id="spolygon-map">
			<Pair>
				<key>normal</key>
				<styleUrl>#spolygon</styleUrl>
			</Pair>
		</StyleMap>
	<Placemark><Polygon><outerBoundaryIs><LinearRing><coordinates>120.372024,22.342744,0.0 120.372343,22.343217,0.0 120.372751,22.343731,0.0 120.372858,22.343849,0.0 120.372905,22.343919,0.0 120.372965,22.344028,0.0 120.373241,22.344555,0.0 120.373347,22.344779,0.0 120.373441,22.344967,0.0 120.373599,22.345211,0.0 120.373716,22.345356,0.0 120.373876,22.345535,0.0 120.373944,22.34563,0.0 120.374114,22.345836,0.0 120.374201,22.345981,0.0 120.374254,22.34609,0.0 120.374264,22.346171,0.0 120.374243,22.34625,0.0 120.37417,22.346308,0.0 120.374126,22.346407,0.0 120.374106,22.346595,0.0 120.374125,22.346703,0.0 120.374173,22.346812,0.0 120.374236,22.346884,0.0 120.374353,22.347022,0.0 120.374508,22.347235,0.0 120.374988,22.348009,0.0 120.375376,22.348589,0.0 120.375482,22.348729,0.0 120.375542,22.348779,0.0 120.375799,22.348995,0.0 120.375906,22.349085,0.0 120.376129,22.34935,0.0 120.376294,22.349565,0.0 120.376428,22.349787,0.0 120.376479,22.349887,0.0 120.376519,22.350088,0.0 120.376584,22.350354,0.0 120.376614,22.35051,0.0 120.376634,22.35063,0.0 120.376032,22.350504,0.0 120.375644,22.350484,0.0 120.37558,22.350475,0.0 120.375538,22.350468,0.0 120.375458,22.35044,0.0 120.375354,22.350379,0.0 120.374998,22.35008,0.0 120.374862,22.349984,0.0 120.374806,22.349948,0.0 120.374712,22.349898,0.0 120.37445,22.349831,0.0 120.374205,22.349799,0.0 120.374172,22.349787,0.0 120.374127,22.349767,0.0 120.373997,22.349701,0.0 120.373776,22.349603,0.0 120.37365,22.349573,0.0 120.373537,22.349566,0.0 120.373287,22.349574,0.0 120.373133,22.349544,0.0 120.372998,22.349483,0.0 120.372736,22.349321,0.0 120.372306,22.34904,0.0 120.372085,22.348991,0.0 120.371942,22.348973,0.0 120.371473,22.34891,0.0 120.371344,22.348876,0.0 120.371226,22.348835,0.0 120.371064,22.348735,0.0 120.370943,22.348644,0.0 120.370898,22.34861,0.0 120.370834,22.348549,0.0 120.370786,22.348474,0.0 120.370766,22.348429,0.0 120.370755,22.348361,0.0 120.370731,22.348173,0.0 120.370706,22.348049,0.0 120.370674,22.347927,0.0 120.37064,22.347819,0.0 120.370579,22.347687,0.0 120.370426,22.347368,0.0 120.370324,22.347221,0.0 120.370259,22.347122,0.0 120.370174,22.347015,0.0 120.369921,22.346883,0.0 120.369814,22.346849,0.0 120.369758,22.346813,0.0 120.369738,22.346758,0.0 120.369733,22.346702,0.0 120.36974,22.346217,0.0 120.369738,22.346171,0.0 120.369714,22.346095,0.0 120.369665,22.346042,0.0 120.369588,22.345956,0.0 120.368477,22.345094,0.0 120.367738,22.344534,0.0 120.367349,22.344193,0.0 120.367136,22.343998,0.0 120.36684,22.343726,0.0 120.366643,22.343552,0.0 120.366539,22.343441,0.0 120.366228,22.343132,0.0 120.36608,22.343003,0.0 120.365883,22.34284,0.0 120.365762,22.342751,0.0 120.365167,22.342248,0.0 120.364908,22.34201,0.0 120.364745,22.341819,0.0 120.364552,22.341566,0.0 120.364493,22.341439,0.0 120.364432,22.341285,0.0 120.364361,22.341086,0.0 120.364235,22.340664,0.0 120.36418,22.340397,0.0 120.364176,22.340293,0.0 120.364207,22.340189,0.0 120.364258,22.340122,0.0 120.364324,22.34009,0.0 120.364416,22.34007,0.0 120.364513,22.340071,0.0 120.364545,22.34006,0.0 120.364559,22.340024,0.0 120.364561,22.339969,0.0 120.364545,22.339899,0.0 120.364536,22.339832,0.0 120.364489,22.339777,0.0 120.364355,22.339745,0.0 120.364248,22.339718,0.0 120.364112,22.339665,0.0 120.363784,22.339388,0.0 120.363634,22.3393,0.0 120.362682,22.338892,0.0 120.362249,22.338743,0.0 120.362183,22.338716,0.0 120.36203,22.338632,0.0 120.361832,22.338457,0.0 120.36169,22.338305,0.0 120.361497,22.338104,0.0 120.361375,22.337938,0.0 120.361221,22.337723,0.0 120.361187,22.337649,0.0 120.361153,22.337542,0.0 120.361103,22.337314,0.0 120.361086,22.337253,0.0 120.361071,22.337185,0.0 120.361042,22.337138,0.0 120.361012,22.337115,0.0 120.360956,22.337068,0.0 120.360779,22.336907,0.0 120.360759,22.336875,0.0 120.360743,22.336821,0.0 120.360706,22.336525,0.0 120.361397,22.336559,0.0 120.361562,22.336539,0.0 120.361656,22.336515,0.0 120.361901,22.336428,0.0 120.36211,22.336408,0.0 120.362413,22.33641,0.0 120.362918,22.336362,0.0 120.364448,22.33609,0.0 120.364587,22.336073,0.0 120.365291,22.335996,0.0 120.365803,22.335985,0.0 120.36602,22.336001,0.0 120.366733,22.33611,0.0 120.366983,22.336443,0.0 120.367406,22.336892,0.0 120.367684,22.337279,0.0 120.367736,22.337379,0.0 120.367783,22.337496,0.0 120.367847,22.337605,0.0 120.368015,22.337843,0.0 120.368278,22.338078,0.0 120.368603,22.338357,0.0 120.369759,22.339698,0.0 120.369984,22.340009,0.0 120.37004,22.340104,0.0 120.370121,22.340239,0.0 120.370162,22.34033,0.0 120.370184,22.340425,0.0 120.370337,22.340893,0.0 120.370444,22.341029,0.0 120.370668,22.341147,0.0 120.37076,22.341231,0.0 120.371678,22.34225,0.0 120.372024,22.342744,0.0</coordinates></LinearRing></outerBoundaryIs></Polygon><styleUrl>#spolygon-map</styleUrl></Placemark><Placemark><Polygon><outerBoundaryIs><LinearRing><coordinates>120.379024,22.340759,0.0 120.378747,22.340706,0.0 120.378535,22.340683,0.0 120.378283,22.340714,0.0 120.37793,22.340861,0.0 120.377443,22.340914,0.0 120.376967,22.340889,0.0 120.376375,22.340876,0.0 120.376105,22.340827,0.0 120.375964,22.340842,0.0 120.375793,22.340918,0.0 120.375147,22.340959,0.0 120.374864,22.340901,0.0 120.374604,22.340817,0.0 120.374524,22.340783,0.0 120.374391,22.340737,0.0 120.374309,22.340707,0.0 120.374143,22.34068,0.0 120.374034,22.340638,0.0 120.373922,22.340584,0.0 120.373804,22.340536,0.0 120.373706,22.340513,0.0 120.373647,22.340499,0.0 120.373579,22.340501,0.0 120.37351,22.340517,0.0 120.373303,22.34059,0.0 120.373241,22.340626,0.0 120.373186,22.340683,0.0 120.373163,22.340725,0.0 120.373161,22.340782,0.0 120.373173,22.340832,0.0 120.373289,22.341037,0.0 120.373367,22.341157,0.0 120.373377,22.341189,0.0 120.373349,22.341234,0.0 120.373306,22.341272,0.0 120.37316,22.341373,0.0 120.372872,22.341607,0.0 120.373002,22.341775,0.0 120.373013,22.341788,0.0 120.37301,22.341813,0.0 120.372997,22.341831,0.0 120.372711,22.342085,0.0 120.372694,22.342112,0.0 120.372702,22.34213,0.0 120.372721,22.342153,0.0 120.372759,22.342185,0.0 120.372777,22.342201,0.0 120.372789,22.342216,0.0 120.372783,22.342234,0.0 120.372758,22.342257,0.0 120.372382,22.342488,0.0 120.372233,22.342575,0.0 120.372024,22.342744,0.0 120.371678,22.34225,0.0 120.37076,22.341231,0.0 120.370668,22.341147,0.0 120.370444,22.341029,0.0 120.370337,22.340893,0.0 120.370184,22.340425,0.0 120.370162,22.34033,0.0 120.370121,22.340239,0.0 120.37004,22.340104,0.0 120.369984,22.340009,0.0 120.369759,22.339698,0.0 120.368603,22.338357,0.0 120.368278,22.338078,0.0 120.368015,22.337843,0.0 120.367847,22.337605,0.0 120.367783,22.337496,0.0 120.367736,22.337379,0.0 120.367684,22.337279,0.0 120.367406,22.336892,0.0 120.366983,22.336443,0.0 120.366733,22.33611,0.0 120.366989,22.336175,0.0 120.367081,22.336186,0.0 120.367191,22.336198,0.0 120.367312,22.336201,0.0 120.367438,22.336185,0.0 120.367533,22.336116,0.0 120.367605,22.336048,0.0 120.367602,22.335944,0.0 120.367593,22.335863,0.0 120.367559,22.335739,0.0 120.367556,22.335459,0.0 120.367609,22.335317,0.0 120.367731,22.335198,0.0 120.368132,22.33494,0.0 120.368375,22.334803,0.0 120.36848,22.334763,0.0 120.368524,22.334727,0.0 120.368532,22.33469,0.0 120.368529,22.334582,0.0 120.368397,22.333963,0.0 120.368375,22.333814,0.0 120.368372,22.33362,0.0 120.368412,22.333421,0.0 120.368461,22.3332,0.0 120.368492,22.333001,0.0 120.368482,22.332889,0.0 120.368471,22.332828,0.0 120.368447,22.332757,0.0 120.368342,22.33254,0.0 120.368304,22.332423,0.0 120.368291,22.332326,0.0 120.368257,22.332176,0.0 120.368236,22.3321,0.0 120.368046,22.331792,0.0 120.367554,22.33114,0.0 120.367424,22.33099,0.0 120.367407,22.330913,0.0 120.36742,22.330821,0.0 120.367465,22.330638,0.0 120.367972,22.32917,0.0 120.368173,22.328758,0.0 120.368277,22.328616,0.0 120.368483,22.328283,0.0 120.368645,22.328069,0.0 120.368912,22.327766,0.0 120.368954,22.327716,0.0 120.368973,22.32777,0.0 120.369077,22.327933,0.0 120.369286,22.328146,0.0 120.369439,22.328458,0.0 120.369565,22.328608,0.0 120.369653,22.328741,0.0 120.369718,22.328897,0.0 120.369767,22.329091,0.0 120.369838,22.329232,0.0 120.370014,22.329402,0.0 120.370069,22.329565,0.0 120.370217,22.329786,0.0 120.370375,22.330189,0.0 120.370457,22.330302,0.0 120.37065,22.330432,0.0 120.371326,22.331127,0.0 120.371172,22.331255,0.0 120.371146,22.331226,0.0 120.371219,22.331154,0.0 120.370664,22.330583,0.0 120.370519,22.330711,0.0 120.370974,22.331167,0.0 120.371056,22.331174,0.0 120.371056,22.331235,0.0 120.370994,22.331237,0.0 120.370985,22.331221,0.0 120.370957,22.331241,0.0 120.37101,22.3313,0.0 120.370944,22.331324,0.0 120.370993,22.33153,0.0 120.37112,22.331562,0.0 120.37118,22.331531,0.0 120.371335,22.331495,0.0 120.37155,22.331539,0.0 120.371595,22.331503,0.0 120.371639,22.331508,0.0 120.371788,22.331472,0.0 120.372278,22.33172,0.0 120.372576,22.331834,0.0 120.372654,22.331868,0.0 120.372789,22.331964,0.0 120.373329,22.332454,0.0 120.373638,22.332631,0.0 120.374276,22.333186,0.0 120.374655,22.333486,0.0 120.37482,22.333631,0.0 120.374969,22.333797,0.0 120.375112,22.333899,0.0 120.375255,22.333962,0.0 120.375404,22.333963,0.0 120.375659,22.333779,0.0 120.376079,22.333738,0.0 120.376288,22.333761,0.0 120.376426,22.33373,0.0 120.376719,22.333751,0.0 120.376873,22.333784,0.0 120.377,22.333861,0.0 120.377043,22.334087,0.0 120.376734,22.334137,0.0 120.376115,22.334155,0.0 120.376033,22.334108,0.0 120.375828,22.334111,0.0 120.375718,22.334204,0.0 120.375601,22.334384,0.0 120.375606,22.334415,0.0 120.375429,22.33462,0.0 120.375209,22.33443,0.0 120.375281,22.334351,0.0 120.374418,22.33365,0.0 120.374351,22.333697,0.0 120.374268,22.333638,0.0 120.374313,22.333561,0.0 120.373246,22.33267,0.0 120.3729,22.332375,0.0 120.372632,22.332151,0.0 120.372575,22.332153,0.0 120.372186,22.332582,0.0 120.372795,22.333402,0.0 120.373086,22.333805,0.0 120.373653,22.334268,0.0 120.374085,22.333843,0.0 120.374182,22.333909,0.0 120.374029,22.334095,0.0 120.374711,22.334662,0.0 120.374511,22.334872,0.0 120.374824,22.335157,0.0 120.375259,22.335507,0.0 120.375525,22.335262,0.0 120.375601,22.335318,0.0 120.375369,22.335611,0.0 120.376409,22.336493,0.0 120.376719,22.336145,0.0 120.375792,22.334827,0.0 120.375903,22.334744,0.0 120.375941,22.334771,0.0 120.376046,22.334756,0.0 120.376244,22.33507,0.0 120.376355,22.33503,0.0 120.376415,22.335071,0.0 120.376404,22.335112,0.0 120.376343,22.335168,0.0 120.376591,22.335607,0.0 120.376743,22.335765,0.0 120.377017,22.33613,0.0 120.377342,22.336393,0.0 120.377491,22.336486,0.0 120.37759,22.336595,0.0 120.377672,22.336627,0.0 120.377903,22.336833,0.0 120.378041,22.33694,0.0 120.378167,22.337053,0.0 120.378481,22.337142,0.0 120.378724,22.337329,0.0 120.379131,22.337524,0.0 120.37933,22.337572,0.0 120.379798,22.337845,0.0 120.379842,22.337918,0.0 120.380304,22.338189,0.0 120.380299,22.338289,0.0 120.38026,22.339461,0.0 120.380295,22.33975,0.0 120.380309,22.339936,0.0 120.380357,22.340139,0.0 120.380443,22.340652,0.0 120.380554,22.341097,0.0 120.380526,22.341248,0.0 120.380521,22.34149,0.0 120.380445,22.341977,0.0 120.380414,22.342042,0.0 120.380351,22.342108,0.0 120.380258,22.342125,0.0 120.380029,22.342131,0.0 120.37999,22.342097,0.0 120.379964,22.341964,0.0 120.379953,22.341777,0.0 120.379919,22.341614,0.0 120.37983,22.341386,0.0 120.379719,22.341177,0.0 120.379526,22.34091,0.0 120.379421,22.34084,0.0 120.379024,22.340759,0.0</coordinates></LinearRing></outerBoundaryIs></Polygon><styleUrl>#spolygon-map</styleUrl></Placemark><Placemark><Polygon><outerBoundaryIs><LinearRing><coordinates>120.382778,22.353204,0.0 120.382734,22.353165,0.0 120.382556,22.353005,0.0 120.382318,22.352828,0.0 120.38221,22.35265,0.0 120.382065,22.35238,0.0 120.382012,22.352281,0.0 120.382169,22.35225,0.0 120.382439,22.352109,0.0 120.382556,22.352041,0.0 120.382595,22.351985,0.0 120.38261,22.351725,0.0 120.382629,22.351249,0.0 120.382598,22.351111,0.0 120.382509,22.351012,0.0 120.382474,22.35093,0.0 120.382398,22.350537,0.0 120.382367,22.350383,0.0 120.382397,22.349857,0.0 120.382352,22.349738,0.0 120.382306,22.349649,0.0 120.382207,22.34952,0.0 120.382133,22.349443,0.0 120.382006,22.349407,0.0 120.381888,22.349431,0.0 120.381779,22.349426,0.0 120.381651,22.349335,0.0 120.381478,22.349116,0.0 120.381278,22.348946,0.0 120.380833,22.34851,0.0 120.380552,22.348051,0.0 120.380254,22.347429,0.0 120.38011,22.347103,0.0 120.38034,22.347161,0.0 120.380447,22.347177,0.0 120.380877,22.34721,0.0 120.381007,22.347202,0.0 120.381051,22.347206,0.0 120.381078,22.347222,0.0 120.381121,22.347297,0.0 120.38114,22.347428,0.0 120.381155,22.347543,0.0 120.381169,22.347579,0.0 120.381174,22.347611,0.0 120.381193,22.34764,0.0 120.381226,22.347654,0.0 120.381264,22.347654,0.0 120.381302,22.347627,0.0 120.381351,22.347557,0.0 120.381447,22.347483,0.0 120.381518,22.347454,0.0 120.381553,22.34745,0.0 120.381653,22.347452,0.0 120.381905,22.347496,0.0 120.382022,22.34749,0.0 120.382103,22.347479,0.0 120.382197,22.347452,0.0 120.382265,22.347389,0.0 120.382313,22.347218,0.0 120.382357,22.347082,0.0 120.382425,22.346977,0.0 120.382487,22.346902,0.0 120.382553,22.346803,0.0 120.382594,22.346733,0.0 120.382638,22.346643,0.0 120.382648,22.34649,0.0 120.382669,22.346327,0.0 120.382678,22.346217,0.0 120.382718,22.346106,0.0 120.382779,22.345978,0.0 120.382799,22.345847,0.0 120.382826,22.345831,0.0 120.382863,22.345856,0.0 120.382926,22.345967,0.0 120.383076,22.346164,0.0 120.383233,22.346424,0.0 120.383326,22.346562,0.0 120.38347,22.346834,0.0 120.38363,22.347013,0.0 120.383957,22.347427,0.0 120.384061,22.347554,0.0 120.384168,22.34764,0.0 120.384758,22.347929,0.0 120.384875,22.348018,0.0 120.384979,22.348104,0.0 120.385604,22.348795,0.0 120.385918,22.349178,0.0 120.385954,22.349239,0.0 120.386145,22.349519,0.0 120.386371,22.349857,0.0 120.386504,22.350058,0.0 120.38657,22.350025,0.0 120.386894,22.349847,0.0 120.387165,22.350345,0.0 120.387208,22.350447,0.0 120.387265,22.350675,0.0 120.387321,22.350788,0.0 120.387505,22.351019,0.0 120.387623,22.351154,0.0 120.387637,22.351175,0.0 120.387541,22.351168,0.0 120.387077,22.351248,0.0 120.386822,22.351328,0.0 120.386623,22.351427,0.0 120.386523,22.351528,0.0 120.386501,22.3516,0.0 120.386506,22.351682,0.0 120.386583,22.351734,0.0 120.386532,22.351964,0.0 120.386488,22.351995,0.0 120.384677,22.353205,0.0 120.384546,22.353408,0.0 120.384509,22.353837,0.0 120.38447,22.353893,0.0 120.384303,22.354134,0.0 120.383932,22.35441,0.0 120.383806,22.354277,0.0 120.384143,22.354061,0.0 120.384299,22.353841,0.0 120.38436,22.353692,0.0 120.384362,22.353421,0.0 120.384257,22.353301,0.0 120.38408,22.35342,0.0 120.384014,22.353332,0.0 120.386212,22.351917,0.0 120.385751,22.351284,0.0 120.384703,22.351966,0.0 120.384727,22.351993,0.0 120.384699,22.35202,0.0 120.384962,22.352396,0.0 120.384558,22.352645,0.0 120.384539,22.352627,0.0 120.384294,22.35277,0.0 120.384278,22.352739,0.0 120.384512,22.352586,0.0 120.384419,22.352468,0.0 120.384239,22.352576,0.0 120.384222,22.352544,0.0 120.384395,22.352437,0.0 120.384328,22.352353,0.0 120.384164,22.352465,0.0 120.384142,22.352431,0.0 120.384307,22.352326,0.0 120.384251,22.352253,0.0 120.383757,22.352558,0.0 120.383708,22.353227,0.0 120.383562,22.353215,0.0 120.383628,22.352702,0.0 120.383547,22.352666,0.0 120.383066,22.352915,0.0 120.382939,22.353036,0.0 120.383069,22.353136,0.0 120.383032,22.353179,0.0 120.382893,22.353079,0.0 120.382778,22.353204,0.0</coordinates></LinearRing></outerBoundaryIs></Polygon><styleUrl>#spolygon-map</styleUrl></Placemark><Placemark><Polygon><outerBoundaryIs><LinearRing><coordinates>120.360706,22.336525,0.0 120.360512,22.336508,0.0 120.360466,22.336508,0.0 120.360448,22.336273,0.0 120.36052,22.336102,0.0 120.360493,22.335896,0.0 120.360533,22.335474,0.0 120.36037,22.335275,0.0 120.360141,22.334836,0.0 120.359654,22.333883,0.0 120.359377,22.333571,0.0 120.359164,22.333403,0.0 120.358869,22.333336,0.0 120.358269,22.332966,0.0 120.357914,22.332761,0.0 120.357833,22.332644,0.0 120.357697,22.332528,0.0 120.357462,22.332446,0.0 120.357113,22.332194,0.0 120.356905,22.332091,0.0 120.356681,22.332014,0.0 120.356359,22.331818,0.0 120.356065,22.331539,0.0 120.355615,22.331357,0.0 120.355012,22.330878,0.0 120.354403,22.330171,0.0 120.354278,22.329954,0.0 120.353958,22.32953,0.0 120.353718,22.329299,0.0 120.353646,22.329057,0.0 120.353615,22.328999,0.0 120.353621,22.328847,0.0 120.353583,22.328759,0.0 120.353485,22.328718,0.0 120.353485,22.328662,0.0 120.353518,22.328592,0.0 120.353409,22.328546,0.0 120.353382,22.328458,0.0 120.353377,22.328368,0.0 120.353433,22.328235,0.0 120.353287,22.328227,0.0 120.353165,22.328112,0.0 120.353133,22.328014,0.0 120.3531,22.327892,0.0 120.353167,22.3278,0.0 120.353172,22.327759,0.0 120.353112,22.327664,0.0 120.353097,22.327459,0.0 120.353076,22.327271,0.0 120.353043,22.327231,0.0 120.353055,22.327037,0.0 120.353023,22.326894,0.0 120.352941,22.326869,0.0 120.352919,22.326828,0.0 120.35293,22.326756,0.0 120.352817,22.326532,0.0 120.352846,22.326065,0.0 120.352926,22.325474,0.0 120.352944,22.325212,0.0 120.352977,22.325063,0.0 120.353071,22.324813,0.0 120.353181,22.324578,0.0 120.353314,22.324355,0.0 120.353583,22.324092,0.0 120.353847,22.323829,0.0 120.353875,22.323737,0.0 120.353908,22.323649,0.0 120.353957,22.323574,0.0 120.354133,22.323535,0.0 120.354281,22.323438,0.0 120.354605,22.323211,0.0 120.354972,22.322982,0.0 120.355116,22.322914,0.0 120.355118,22.323016,0.0 120.355114,22.3231,0.0 120.355113,22.323238,0.0 120.355136,22.323455,0.0 120.35519,22.323688,0.0 120.355239,22.323864,0.0 120.355329,22.324113,0.0 120.35544,22.32433,0.0 120.35555,22.324497,0.0 120.355616,22.324579,0.0 120.355667,22.324624,0.0 120.355763,22.324677,0.0 120.356133,22.324818,0.0 120.356383,22.324891,0.0 120.356837,22.324961,0.0 120.357713,22.325052,0.0 120.357978,22.325083,0.0 120.358442,22.325107,0.0 120.359797,22.325095,0.0 120.35998,22.325107,0.0 120.360041,22.325114,0.0 120.360089,22.325141,0.0 120.360197,22.325232,0.0 120.360339,22.325368,0.0 120.361087,22.326165,0.0 120.361384,22.326422,0.0 120.361453,22.326508,0.0 120.361532,22.326664,0.0 120.361687,22.32691,0.0 120.361741,22.326965,0.0 120.361822,22.327026,0.0 120.362104,22.327242,0.0 120.362354,22.327396,0.0 120.362641,22.327621,0.0 120.362674,22.327657,0.0 120.362694,22.327714,0.0 120.362709,22.327779,0.0 120.362714,22.32787,0.0 120.362713,22.327976,0.0 120.362691,22.328359,0.0 120.362619,22.329115,0.0 120.362572,22.329693,0.0 120.362547,22.330072,0.0 120.362563,22.330138,0.0 120.362591,22.330181,0.0 120.362653,22.330258,0.0 120.362944,22.330548,0.0 120.362958,22.330573,0.0 120.362961,22.330605,0.0 120.362901,22.330713,0.0 120.362921,22.330839,0.0 120.363125,22.331147,0.0 120.363148,22.331215,0.0 120.363158,22.331296,0.0 120.363172,22.331479,0.0 120.363176,22.33173,0.0 120.363155,22.331906,0.0 120.36314,22.33224,0.0 120.363153,22.332272,0.0 120.363184,22.332317,0.0 120.363534,22.332643,0.0 120.363571,22.332693,0.0 120.363592,22.332743,0.0 120.363612,22.332829,0.0 120.363625,22.332879,0.0 120.363653,22.332908,0.0 120.363778,22.332983,0.0 120.363973,22.333079,0.0 120.364129,22.333174,0.0 120.364272,22.333326,0.0 120.364346,22.333414,0.0 120.364604,22.333767,0.0 120.364691,22.333838,0.0 120.364888,22.333931,0.0 120.364952,22.33399,0.0 120.365097,22.334223,0.0 120.365357,22.334565,0.0 120.365438,22.334656,0.0 120.365474,22.334688,0.0 120.365899,22.335026,0.0 120.36605,22.33511,0.0 120.366101,22.335128,0.0 120.366132,22.335117,0.0 120.366178,22.335083,0.0 120.366219,22.335061,0.0 120.366268,22.335043,0.0 120.366376,22.335027,0.0 120.366455,22.335059,0.0 120.366524,22.335125,0.0 120.366675,22.335318,0.0 120.36672,22.335422,0.0 120.366756,22.335508,0.0 120.366763,22.335573,0.0 120.366745,22.335634,0.0 120.366725,22.335663,0.0 120.366691,22.335697,0.0 120.366626,22.335762,0.0 120.366616,22.335801,0.0 120.366616,22.335886,0.0 120.366641,22.335956,0.0 120.366733,22.33611,0.0 120.36602,22.336001,0.0 120.365803,22.335985,0.0 120.365291,22.335996,0.0 120.364587,22.336073,0.0 120.364448,22.33609,0.0 120.362918,22.336362,0.0 120.362413,22.33641,0.0 120.36211,22.336408,0.0 120.361901,22.336428,0.0 120.361656,22.336515,0.0 120.361562,22.336539,0.0 120.361397,22.336559,0.0 120.360706,22.336525,0.0</coordinates></LinearRing></outerBoundaryIs></Polygon><styleUrl>#spolygon-map</styleUrl></Placemark><Placemark><Polygon><outerBoundaryIs><LinearRing><coordinates>120.379583,22.35589,0.0 120.379565,22.355858,0.0 120.378739,22.354393,0.0 120.377067,22.351483,0.0 120.376747,22.350933,0.0 120.376679,22.35075,0.0 120.376634,22.35063,0.0 120.376614,22.35051,0.0 120.376584,22.350354,0.0 120.376519,22.350088,0.0 120.376479,22.349887,0.0 120.376428,22.349787,0.0 120.376294,22.349565,0.0 120.376129,22.34935,0.0 120.375906,22.349085,0.0 120.375799,22.348995,0.0 120.375542,22.348779,0.0 120.375482,22.348729,0.0 120.375376,22.348589,0.0 120.374988,22.348009,0.0 120.374508,22.347235,0.0 120.374353,22.347022,0.0 120.374236,22.346884,0.0 120.374173,22.346812,0.0 120.374125,22.346703,0.0 120.374106,22.346595,0.0 120.374126,22.346407,0.0 120.37417,22.346308,0.0 120.374243,22.34625,0.0 120.374264,22.346171,0.0 120.374254,22.34609,0.0 120.374201,22.345981,0.0 120.374114,22.345836,0.0 120.373944,22.34563,0.0 120.373876,22.345535,0.0 120.373716,22.345356,0.0 120.373599,22.345211,0.0 120.373441,22.344967,0.0 120.373347,22.344779,0.0 120.373241,22.344555,0.0 120.372965,22.344028,0.0 120.372905,22.343919,0.0 120.372858,22.343849,0.0 120.372751,22.343731,0.0 120.372343,22.343217,0.0 120.372024,22.342744,0.0 120.372233,22.342575,0.0 120.372382,22.342488,0.0 120.372758,22.342257,0.0 120.372783,22.342234,0.0 120.372789,22.342216,0.0 120.372777,22.342201,0.0 120.372759,22.342185,0.0 120.372721,22.342153,0.0 120.372702,22.34213,0.0 120.372694,22.342112,0.0 120.372711,22.342085,0.0 120.372997,22.341831,0.0 120.37301,22.341813,0.0 120.373013,22.341788,0.0 120.373002,22.341775,0.0 120.372872,22.341607,0.0 120.37316,22.341373,0.0 120.373306,22.341272,0.0 120.373349,22.341234,0.0 120.373377,22.341189,0.0 120.373367,22.341157,0.0 120.373289,22.341037,0.0 120.373173,22.340832,0.0 120.373161,22.340782,0.0 120.373163,22.340725,0.0 120.373186,22.340683,0.0 120.373241,22.340626,0.0 120.373303,22.34059,0.0 120.37351,22.340517,0.0 120.373579,22.340501,0.0 120.373647,22.340499,0.0 120.373706,22.340513,0.0 120.373804,22.340536,0.0 120.373922,22.340584,0.0 120.374034,22.340638,0.0 120.374143,22.34068,0.0 120.374309,22.340707,0.0 120.374391,22.340737,0.0 120.374524,22.340783,0.0 120.374604,22.340817,0.0 120.374864,22.340901,0.0 120.375147,22.340959,0.0 120.375793,22.340918,0.0 120.375964,22.340842,0.0 120.376105,22.340827,0.0 120.376375,22.340876,0.0 120.376967,22.340889,0.0 120.377443,22.340914,0.0 120.37793,22.340861,0.0 120.378283,22.340714,0.0 120.378535,22.340683,0.0 120.378747,22.340706,0.0 120.379024,22.340759,0.0 120.379165,22.341907,0.0 120.379183,22.342078,0.0 120.379321,22.343835,0.0 120.379543,22.345076,0.0 120.379614,22.345559,0.0 120.379749,22.346129,0.0 120.379974,22.346784,0.0 120.38011,22.347103,0.0 120.380254,22.347429,0.0 120.380552,22.348051,0.0 120.380833,22.34851,0.0 120.381278,22.348946,0.0 120.381478,22.349116,0.0 120.381651,22.349335,0.0 120.381779,22.349426,0.0 120.381888,22.349431,0.0 120.382006,22.349407,0.0 120.382133,22.349443,0.0 120.382207,22.34952,0.0 120.382306,22.349649,0.0 120.382352,22.349738,0.0 120.382397,22.349857,0.0 120.382367,22.350383,0.0 120.382398,22.350537,0.0 120.382474,22.35093,0.0 120.382509,22.351012,0.0 120.382598,22.351111,0.0 120.382629,22.351249,0.0 120.38261,22.351725,0.0 120.382595,22.351985,0.0 120.382556,22.352041,0.0 120.382439,22.352109,0.0 120.382169,22.35225,0.0 120.382012,22.352281,0.0 120.382065,22.35238,0.0 120.38221,22.35265,0.0 120.382318,22.352828,0.0 120.382556,22.353005,0.0 120.382734,22.353165,0.0 120.382778,22.353204,0.0 120.382515,22.353491,0.0 120.382228,22.353826,0.0 120.382081,22.353965,0.0 120.381999,22.353891,0.0 120.382064,22.353814,0.0 120.381655,22.353395,0.0 120.381357,22.353653,0.0 120.381763,22.354059,0.0 120.381859,22.35398,0.0 120.381969,22.354103,0.0 120.381885,22.354181,0.0 120.382157,22.354453,0.0 120.383328,22.353352,0.0 120.383405,22.353408,0.0 120.383389,22.35351,0.0 120.383305,22.353595,0.0 120.383308,22.353649,0.0 120.383472,22.353743,0.0 120.383647,22.353825,0.0 120.383623,22.353955,0.0 120.383512,22.353939,0.0 120.383424,22.353959,0.0 120.38319,22.353854,0.0 120.383012,22.353899,0.0 120.382881,22.354034,0.0 120.382419,22.354488,0.0 120.382065,22.354765,0.0 120.38205,22.354837,0.0 120.381919,22.354992,0.0 120.381804,22.355028,0.0 120.381682,22.354914,0.0 120.381474,22.355076,0.0 120.38155,22.355192,0.0 120.381059,22.355467,0.0 120.38006,22.355996,0.0 120.379853,22.356025,0.0 120.379731,22.355912,0.0 120.379583,22.35589,0.0</coordinates></LinearRing></outerBoundaryIs></Polygon><styleUrl>#spolygon-map</styleUrl></Placemark><Placemark><Polygon><outerBoundaryIs><LinearRing><coordinates>120.376634,22.35063,0.0 120.376679,22.35075,0.0 120.376747,22.350933,0.0 120.377067,22.351483,0.0 120.378739,22.354393,0.0 120.379565,22.355858,0.0 120.379583,22.35589,0.0 120.379571,22.355888,0.0 120.379282,22.355921,0.0 120.378745,22.355926,0.0 120.377859,22.355803,0.0 120.377296,22.355695,0.0 120.376585,22.355493,0.0 120.375244,22.354908,0.0 120.374654,22.354686,0.0 120.373897,22.35432,0.0 120.373643,22.354132,0.0 120.372475,22.353533,0.0 120.372002,22.353252,0.0 120.371506,22.353046,0.0 120.370312,22.352839,0.0 120.36964,22.352786,0.0 120.369185,22.352667,0.0 120.368788,22.35262,0.0 120.368535,22.352333,0.0 120.368294,22.352126,0.0 120.367911,22.352068,0.0 120.36769,22.351998,0.0 120.367107,22.351733,0.0 120.366512,22.3513,0.0 120.366184,22.35098,0.0 120.366024,22.350636,0.0 120.36585,22.350593,0.0 120.365757,22.35043,0.0 120.365202,22.34982,0.0 120.364534,22.349195,0.0 120.363606,22.348017,0.0 120.363385,22.347835,0.0 120.363218,22.34774,0.0 120.362969,22.347658,0.0 120.362622,22.34732,0.0 120.361872,22.346879,0.0 120.36139,22.346626,0.0 120.361249,22.346576,0.0 120.361081,22.346569,0.0 120.36088,22.346475,0.0 120.360927,22.346412,0.0 120.361123,22.346282,0.0 120.3612,22.345571,0.0 120.36118,22.345402,0.0 120.361228,22.345264,0.0 120.361424,22.344886,0.0 120.361526,22.344748,0.0 120.361607,22.344668,0.0 120.361685,22.344494,0.0 120.361702,22.34435,0.0 120.361824,22.344018,0.0 120.361994,22.343687,0.0 120.362123,22.343252,0.0 120.362184,22.343164,0.0 120.362393,22.343047,0.0 120.362433,22.342996,0.0 120.362407,22.34291,0.0 120.36234,22.342839,0.0 120.36232,22.342747,0.0 120.362354,22.342645,0.0 120.362456,22.34251,0.0 120.36268,22.342272,0.0 120.362758,22.341979,0.0 120.362327,22.341758,0.0 120.362235,22.341771,0.0 120.362184,22.341753,0.0 120.362157,22.341701,0.0 120.36219,22.341635,0.0 120.362169,22.341574,0.0 120.362205,22.340832,0.0 120.362139,22.340795,0.0 120.361977,22.340418,0.0 120.362207,22.340301,0.0 120.362414,22.340598,0.0 120.362467,22.340629,0.0 120.362485,22.340688,0.0 120.362386,22.340688,0.0 120.362339,22.341534,0.0 120.362917,22.341826,0.0 120.363049,22.341704,0.0 120.363092,22.340763,0.0 120.362687,22.3407,0.0 120.36272,22.340603,0.0 120.363103,22.340657,0.0 120.363252,22.340484,0.0 120.362938,22.339566,0.0 120.3626,22.339458,0.0 120.362501,22.339544,0.0 120.362418,22.339706,0.0 120.362013,22.339806,0.0 120.362006,22.339754,0.0 120.36169,22.339877,0.0 120.361641,22.339743,0.0 120.361729,22.339561,0.0 120.361741,22.339471,0.0 120.361768,22.33943,0.0 120.36196,22.339415,0.0 120.362004,22.339287,0.0 120.36201,22.339196,0.0 120.361858,22.338961,0.0 120.361684,22.338822,0.0 120.36158,22.338709,0.0 120.360953,22.337851,0.0 120.360718,22.337724,0.0 120.360494,22.336874,0.0 120.360466,22.336508,0.0 120.360512,22.336508,0.0 120.360706,22.336525,0.0 120.360743,22.336821,0.0 120.360759,22.336875,0.0 120.360779,22.336907,0.0 120.360956,22.337068,0.0 120.361012,22.337115,0.0 120.361042,22.337138,0.0 120.361071,22.337185,0.0 120.361086,22.337253,0.0 120.361103,22.337314,0.0 120.361153,22.337542,0.0 120.361187,22.337649,0.0 120.361221,22.337723,0.0 120.361375,22.337938,0.0 120.361497,22.338104,0.0 120.36169,22.338305,0.0 120.361832,22.338457,0.0 120.36203,22.338632,0.0 120.362183,22.338716,0.0 120.362249,22.338743,0.0 120.362682,22.338892,0.0 120.363634,22.3393,0.0 120.363784,22.339388,0.0 120.364112,22.339665,0.0 120.364248,22.339718,0.0 120.364355,22.339745,0.0 120.364489,22.339777,0.0 120.364536,22.339832,0.0 120.364545,22.339899,0.0 120.364561,22.339969,0.0 120.364559,22.340024,0.0 120.364545,22.34006,0.0 120.364513,22.340071,0.0 120.364416,22.34007,0.0 120.364324,22.34009,0.0 120.364258,22.340122,0.0 120.364207,22.340189,0.0 120.364176,22.340293,0.0 120.36418,22.340397,0.0 120.364235,22.340664,0.0 120.364361,22.341086,0.0 120.364432,22.341285,0.0 120.364493,22.341439,0.0 120.364552,22.341566,0.0 120.364745,22.341819,0.0 120.364908,22.34201,0.0 120.365167,22.342248,0.0 120.365762,22.342751,0.0 120.365883,22.34284,0.0 120.36608,22.343003,0.0 120.366228,22.343132,0.0 120.366539,22.343441,0.0 120.366643,22.343552,0.0 120.36684,22.343726,0.0 120.367136,22.343998,0.0 120.367349,22.344193,0.0 120.367738,22.344534,0.0 120.368477,22.345094,0.0 120.369588,22.345956,0.0 120.369665,22.346042,0.0 120.369714,22.346095,0.0 120.369738,22.346171,0.0 120.36974,22.346217,0.0 120.369733,22.346702,0.0 120.369738,22.346758,0.0 120.369758,22.346813,0.0 120.369814,22.346849,0.0 120.369921,22.346883,0.0 120.370174,22.347015,0.0 120.370259,22.347122,0.0 120.370324,22.347221,0.0 120.370426,22.347368,0.0 120.370579,22.347687,0.0 120.37064,22.347819,0.0 120.370674,22.347927,0.0 120.370706,22.348049,0.0 120.370731,22.348173,0.0 120.370755,22.348361,0.0 120.370766,22.348429,0.0 120.370786,22.348474,0.0 120.370834,22.348549,0.0 120.370898,22.34861,0.0 120.370943,22.348644,0.0 120.371064,22.348735,0.0 120.371226,22.348835,0.0 120.371344,22.348876,0.0 120.371473,22.34891,0.0 120.371942,22.348973,0.0 120.372085,22.348991,0.0 120.372306,22.34904,0.0 120.372736,22.349321,0.0 120.372998,22.349483,0.0 120.373133,22.349544,0.0 120.373287,22.349574,0.0 120.373537,22.349566,0.0 120.37365,22.349573,0.0 120.373776,22.349603,0.0 120.373997,22.349701,0.0 120.374127,22.349767,0.0 120.374172,22.349787,0.0 120.374205,22.349799,0.0 120.37445,22.349831,0.0 120.374712,22.349898,0.0 120.374806,22.349948,0.0 120.374862,22.349984,0.0 120.374998,22.35008,0.0 120.375354,22.350379,0.0 120.375458,22.35044,0.0 120.375538,22.350468,0.0 120.37558,22.350475,0.0 120.375644,22.350484,0.0 120.376032,22.350504,0.0 120.376634,22.35063,0.0</coordinates></LinearRing></outerBoundaryIs></Polygon><styleUrl>#spolygon-map</styleUrl></Placemark><Placemark><Polygon><outerBoundaryIs><LinearRing><coordinates>120.368954,22.327716,0.0 120.368912,22.327766,0.0 120.368645,22.328069,0.0 120.368483,22.328283,0.0 120.368277,22.328616,0.0 120.368173,22.328758,0.0 120.367972,22.32917,0.0 120.367465,22.330638,0.0 120.36742,22.330821,0.0 120.367407,22.330913,0.0 120.367424,22.33099,0.0 120.367554,22.33114,0.0 120.368046,22.331792,0.0 120.368236,22.3321,0.0 120.368257,22.332176,0.0 120.368291,22.332326,0.0 120.368304,22.332423,0.0 120.368342,22.33254,0.0 120.368447,22.332757,0.0 120.368471,22.332828,0.0 120.368482,22.332889,0.0 120.368492,22.333001,0.0 120.368461,22.3332,0.0 120.368412,22.333421,0.0 120.368372,22.33362,0.0 120.368375,22.333814,0.0 120.368397,22.333963,0.0 120.368529,22.334582,0.0 120.368532,22.33469,0.0 120.368524,22.334727,0.0 120.36848,22.334763,0.0 120.368375,22.334803,0.0 120.368132,22.33494,0.0 120.367731,22.335198,0.0 120.367609,22.335317,0.0 120.367556,22.335459,0.0 120.367559,22.335739,0.0 120.367593,22.335863,0.0 120.367602,22.335944,0.0 120.367605,22.336048,0.0 120.367533,22.336116,0.0 120.367438,22.336185,0.0 120.367312,22.336201,0.0 120.367191,22.336198,0.0 120.367081,22.336186,0.0 120.366989,22.336175,0.0 120.366733,22.33611,0.0 120.366641,22.335956,0.0 120.366616,22.335886,0.0 120.366616,22.335801,0.0 120.366626,22.335762,0.0 120.366691,22.335697,0.0 120.366725,22.335663,0.0 120.366745,22.335634,0.0 120.366763,22.335573,0.0 120.366756,22.335508,0.0 120.36672,22.335422,0.0 120.366675,22.335318,0.0 120.366524,22.335125,0.0 120.366455,22.335059,0.0 120.366376,22.335027,0.0 120.366268,22.335043,0.0 120.366219,22.335061,0.0 120.366178,22.335083,0.0 120.366132,22.335117,0.0 120.366101,22.335128,0.0 120.36605,22.33511,0.0 120.365899,22.335026,0.0 120.365474,22.334688,0.0 120.365438,22.334656,0.0 120.365357,22.334565,0.0 120.365097,22.334223,0.0 120.364952,22.33399,0.0 120.364888,22.333931,0.0 120.364691,22.333838,0.0 120.364604,22.333767,0.0 120.364346,22.333414,0.0 120.364272,22.333326,0.0 120.364129,22.333174,0.0 120.363973,22.333079,0.0 120.363778,22.332983,0.0 120.363653,22.332908,0.0 120.363625,22.332879,0.0 120.363612,22.332829,0.0 120.363592,22.332743,0.0 120.363571,22.332693,0.0 120.363534,22.332643,0.0 120.363184,22.332317,0.0 120.363153,22.332272,0.0 120.36314,22.33224,0.0 120.363155,22.331906,0.0 120.363176,22.33173,0.0 120.363172,22.331479,0.0 120.363158,22.331296,0.0 120.363148,22.331215,0.0 120.363125,22.331147,0.0 120.362921,22.330839,0.0 120.362901,22.330713,0.0 120.362961,22.330605,0.0 120.362958,22.330573,0.0 120.362944,22.330548,0.0 120.362653,22.330258,0.0 120.362591,22.330181,0.0 120.362563,22.330138,0.0 120.362547,22.330072,0.0 120.362572,22.329693,0.0 120.362619,22.329115,0.0 120.362691,22.328359,0.0 120.362713,22.327976,0.0 120.362714,22.32787,0.0 120.362709,22.327779,0.0 120.362694,22.327714,0.0 120.362674,22.327657,0.0 120.362641,22.327621,0.0 120.362354,22.327396,0.0 120.362104,22.327242,0.0 120.361822,22.327026,0.0 120.361741,22.326965,0.0 120.361687,22.32691,0.0 120.361532,22.326664,0.0 120.361453,22.326508,0.0 120.361384,22.326422,0.0 120.361087,22.326165,0.0 120.360339,22.325368,0.0 120.360197,22.325232,0.0 120.360089,22.325141,0.0 120.360041,22.325114,0.0 120.35998,22.325107,0.0 120.359797,22.325095,0.0 120.358442,22.325107,0.0 120.357978,22.325083,0.0 120.357713,22.325052,0.0 120.356837,22.324961,0.0 120.356383,22.324891,0.0 120.356133,22.324818,0.0 120.355763,22.324677,0.0 120.355667,22.324624,0.0 120.355616,22.324579,0.0 120.35555,22.324497,0.0 120.35544,22.32433,0.0 120.355329,22.324113,0.0 120.355239,22.323864,0.0 120.35519,22.323688,0.0 120.355136,22.323455,0.0 120.355113,22.323238,0.0 120.355114,22.3231,0.0 120.355118,22.323016,0.0 120.355116,22.322914,0.0 120.355279,22.322837,0.0 120.355597,22.322725,0.0 120.356183,22.322504,0.0 120.356375,22.32246,0.0 120.356671,22.322323,0.0 120.356819,22.322324,0.0 120.357175,22.322126,0.0 120.357273,22.322224,0.0 120.357246,22.322274,0.0 120.357746,22.322822,0.0 120.357713,22.322842,0.0 120.357566,22.322704,0.0 120.357238,22.322833,0.0 120.357362,22.323089,0.0 120.357828,22.322949,0.0 120.357882,22.323111,0.0 120.358008,22.323071,0.0 120.358085,22.323002,0.0 120.357987,22.322782,0.0 120.358026,22.322742,0.0 120.357999,22.322532,0.0 120.35795,22.322434,0.0 120.357934,22.322385,0.0 120.357782,22.322271,0.0 120.35775,22.32216,0.0 120.35764,22.322124,0.0 120.357613,22.322018,0.0 120.357537,22.322017,0.0 120.357515,22.32197,0.0 120.357592,22.321909,0.0 120.357603,22.321859,0.0 120.357998,22.321723,0.0 120.358842,22.321894,0.0 120.359454,22.321964,0.0 120.359576,22.321989,0.0 120.359658,22.322062,0.0 120.359945,22.32211,0.0 120.360899,22.322268,0.0 120.361059,22.322329,0.0 120.361202,22.322391,0.0 120.361423,22.322435,0.0 120.361588,22.322485,0.0 120.361903,22.322538,0.0 120.362095,22.322622,0.0 120.362167,22.322643,0.0 120.362454,22.322685,0.0 120.362509,22.322714,0.0 120.362608,22.322803,0.0 120.362751,22.322887,0.0 120.3629,22.322957,0.0 120.363038,22.323041,0.0 120.36318,22.323196,0.0 120.363312,22.323273,0.0 120.363753,22.323471,0.0 120.364078,22.323687,0.0 120.364326,22.323837,0.0 120.364463,22.323977,0.0 120.364727,22.324121,0.0 120.364958,22.324358,0.0 120.365211,22.324597,0.0 120.365398,22.324719,0.0 120.365579,22.32493,0.0 120.365711,22.325009,0.0 120.365821,22.325157,0.0 120.366278,22.325468,0.0 120.366598,22.325586,0.0 120.366906,22.325788,0.0 120.367203,22.325968,0.0 120.367313,22.326093,0.0 120.367489,22.326213,0.0 120.367582,22.326315,0.0 120.367643,22.326424,0.0 120.367736,22.326546,0.0 120.367866,22.326605,0.0 120.367995,22.326739,0.0 120.368243,22.326862,0.0 120.36838,22.326971,0.0 120.368594,22.327222,0.0 120.368765,22.327367,0.0 120.368918,22.327614,0.0 120.368954,22.327716,0.0</coordinates></LinearRing></outerBoundaryIs></Polygon><styleUrl>#spolygon-map</styleUrl></Placemark><Placemark><Polygon><outerBoundaryIs><LinearRing><coordinates>120.38011,22.347103,0.0 120.379974,22.346784,0.0 120.379749,22.346129,0.0 120.379614,22.345559,0.0 120.379543,22.345076,0.0 120.379321,22.343835,0.0 120.379183,22.342078,0.0 120.379165,22.341907,0.0 120.379024,22.340759,0.0 120.379421,22.34084,0.0 120.379526,22.34091,0.0 120.379719,22.341177,0.0 120.37983,22.341386,0.0 120.379919,22.341614,0.0 120.379953,22.341777,0.0 120.379964,22.341964,0.0 120.37999,22.342097,0.0 120.380029,22.342131,0.0 120.380258,22.342125,0.0 120.380351,22.342108,0.0 120.380414,22.342042,0.0 120.380445,22.341977,0.0 120.380521,22.34149,0.0 120.380526,22.341248,0.0 120.380554,22.341097,0.0 120.380443,22.340652,0.0 120.380357,22.340139,0.0 120.380309,22.339936,0.0 120.380295,22.33975,0.0 120.38026,22.339461,0.0 120.380299,22.338289,0.0 120.380304,22.338189,0.0 120.380574,22.338347,0.0 120.380866,22.338545,0.0 120.381141,22.338663,0.0 120.381559,22.338999,0.0 120.381912,22.339194,0.0 120.382301,22.33937,0.0 120.382617,22.339454,0.0 120.38294,22.339593,0.0 120.383086,22.339605,0.0 120.383708,22.339962,0.0 120.384061,22.340106,0.0 120.384392,22.340251,0.0 120.384651,22.340325,0.0 120.384786,22.340402,0.0 120.384981,22.340479,0.0 120.385224,22.340656,0.0 120.385532,22.340816,0.0 120.386028,22.341156,0.0 120.386457,22.341476,0.0 120.386732,22.341739,0.0 120.387045,22.342034,0.0 120.387144,22.342188,0.0 120.387396,22.342527,0.0 120.387856,22.343428,0.0 120.388041,22.343785,0.0 120.388152,22.344036,0.0 120.388228,22.344226,0.0 120.388566,22.345219,0.0 120.388686,22.345598,0.0 120.388932,22.346033,0.0 120.389224,22.346321,0.0 120.38957,22.346636,0.0 120.389625,22.346733,0.0 120.38984,22.346774,0.0 120.38989,22.346806,0.0 120.389934,22.346856,0.0 120.389889,22.346935,0.0 120.389817,22.346964,0.0 120.38948,22.347035,0.0 120.389452,22.347087,0.0 120.38926,22.346982,0.0 120.38927,22.347138,0.0 120.389204,22.347142,0.0 120.38916,22.346932,0.0 120.388741,22.346852,0.0 120.388592,22.346898,0.0 120.38863,22.347072,0.0 120.388541,22.347099,0.0 120.388752,22.348209,0.0 120.389249,22.348134,0.0 120.389158,22.347501,0.0 120.389384,22.347493,0.0 120.389458,22.348247,0.0 120.389083,22.348307,0.0 120.389075,22.348826,0.0 120.389012,22.349216,0.0 120.388906,22.349534,0.0 120.388656,22.350005,0.0 120.388417,22.350354,0.0 120.388061,22.350784,0.0 120.387906,22.350908,0.0 120.387861,22.351034,0.0 120.387855,22.351246,0.0 120.387767,22.351266,0.0 120.387706,22.35125,0.0 120.387673,22.351178,0.0 120.387637,22.351175,0.0 120.387623,22.351154,0.0 120.387505,22.351019,0.0 120.387321,22.350788,0.0 120.387265,22.350675,0.0 120.387208,22.350447,0.0 120.387165,22.350345,0.0 120.386894,22.349847,0.0 120.38657,22.350025,0.0 120.386504,22.350058,0.0 120.386371,22.349857,0.0 120.386145,22.349519,0.0 120.385954,22.349239,0.0 120.385918,22.349178,0.0 120.385604,22.348795,0.0 120.384979,22.348104,0.0 120.384875,22.348018,0.0 120.384758,22.347929,0.0 120.384168,22.34764,0.0 120.384061,22.347554,0.0 120.383957,22.347427,0.0 120.38363,22.347013,0.0 120.38347,22.346834,0.0 120.383326,22.346562,0.0 120.383233,22.346424,0.0 120.383076,22.346164,0.0 120.382926,22.345967,0.0 120.382863,22.345856,0.0 120.382826,22.345831,0.0 120.382799,22.345847,0.0 120.382779,22.345978,0.0 120.382718,22.346106,0.0 120.382678,22.346217,0.0 120.382669,22.346327,0.0 120.382648,22.34649,0.0 120.382638,22.346643,0.0 120.382594,22.346733,0.0 120.382553,22.346803,0.0 120.382487,22.346902,0.0 120.382425,22.346977,0.0 120.382357,22.347082,0.0 120.382313,22.347218,0.0 120.382265,22.347389,0.0 120.382197,22.347452,0.0 120.382103,22.347479,0.0 120.382022,22.34749,0.0 120.381905,22.347496,0.0 120.381653,22.347452,0.0 120.381553,22.34745,0.0 120.381518,22.347454,0.0 120.381447,22.347483,0.0 120.381351,22.347557,0.0 120.381302,22.347627,0.0 120.381264,22.347654,0.0 120.381226,22.347654,0.0 120.381193,22.34764,0.0 120.381174,22.347611,0.0 120.381169,22.347579,0.0 120.381155,22.347543,0.0 120.38114,22.347428,0.0 120.381121,22.347297,0.0 120.381078,22.347222,0.0 120.381051,22.347206,0.0 120.381007,22.347202,0.0 120.380877,22.34721,0.0 120.380447,22.347177,0.0 120.38034,22.347161,0.0 120.38011,22.347103,0.0</coordinates></LinearRing></outerBoundaryIs></Polygon><styleUrl>#spolygon-map</styleUrl></Placemark></Document>
</kml>
