<?xml version="1.0" encoding="UTF-8"?>
<kml xmlns="http://www.opengis.net/kml/2.2">
	<Document>
		<name>屏東縣南州鄉</name>
		<Style id="spolygon">
			<LabelStyle>
				<scale>0.0</scale>
			</LabelStyle>
			<LineStyle>
				<color>330030ff</color>
				<width>0</width>
			</LineStyle>
			<PolyStyle>
				<color>330030ff</color>
			</PolyStyle>
		</Style>
		<StyleMap id="spolygon-map">
			<Pair>
				<key>normal</key>
				<styleUrl>#spolygon</styleUrl>
			</Pair>
		</StyleMap>
	<Placemark><Polygon><outerBoundaryIs><LinearRing><coordinates>120.504001,22.493037,0.0 120.503948,22.493058,0.0 120.503841,22.493085,0.0 120.503642,22.493131,0.0 120.503468,22.493158,0.0 120.503336,22.493185,0.0 120.503195,22.4932,0.0 120.503002,22.493224,0.0 120.502784,22.493251,0.0 120.502626,22.493279,0.0 120.502417,22.493324,0.0 120.502245,22.493348,0.0 120.502067,22.49335,0.0 120.501927,22.493338,0.0 120.50182,22.493309,0.0 120.501739,22.49325,0.0 120.501659,22.493222,0.0 120.501501,22.493188,0.0 120.501302,22.493158,0.0 120.501127,22.493128,0.0 120.500986,22.493107,0.0 120.500812,22.493091,0.0 120.500667,22.493077,0.0 120.500509,22.493063,0.0 120.500419,22.493054,0.0 120.500259,22.493049,0.0 120.500036,22.493032,0.0 120.499752,22.493022,0.0 120.499567,22.493015,0.0 120.499344,22.493012,0.0 120.499169,22.493011,0.0 120.49909,22.493007,0.0 120.499037,22.493004,0.0 120.498863,22.492983,0.0 120.498651,22.492951,0.0 120.49848,22.492923,0.0 120.498265,22.492873,0.0 120.49811,22.492834,0.0 120.497926,22.49277,0.0 120.497789,22.492714,0.0 120.497603,22.492634,0.0 120.497458,22.492597,0.0 120.497226,22.492542,0.0 120.497007,22.492481,0.0 120.496796,22.492424,0.0 120.496593,22.492367,0.0 120.496429,22.492323,0.0 120.496252,22.492289,0.0 120.496057,22.492257,0.0 120.495959,22.492222,0.0 120.495806,22.492177,0.0 120.495692,22.492149,0.0 120.495592,22.492088,0.0 120.495461,22.492013,0.0 120.495361,22.49195,0.0 120.495279,22.491879,0.0 120.495137,22.491791,0.0 120.49496,22.491671,0.0 120.494832,22.491627,0.0 120.494767,22.491643,0.0 120.494531,22.491712,0.0 120.494283,22.49177,0.0 120.494148,22.491792,0.0 120.493953,22.491826,0.0 120.493699,22.491868,0.0 120.493482,22.491914,0.0 120.493315,22.491952,0.0 120.493141,22.491992,0.0 120.493057,22.491902,0.0 120.492948,22.4918,0.0 120.492853,22.491716,0.0 120.492742,22.491628,0.0 120.492647,22.491544,0.0 120.492555,22.491462,0.0 120.492471,22.491403,0.0 120.492429,22.491344,0.0 120.492402,22.491274,0.0 120.492393,22.491148,0.0 120.492401,22.491073,0.0 120.492417,22.490933,0.0 120.492439,22.490807,0.0 120.492455,22.490701,0.0 120.492372,22.490579,0.0 120.492301,22.490475,0.0 120.492274,22.490405,0.0 120.492218,22.490312,0.0 120.492138,22.490154,0.0 120.492053,22.490018,0.0 120.491972,22.489869,0.0 120.491929,22.489783,0.0 120.491853,22.489658,0.0 120.491803,22.489554,0.0 120.491772,22.489482,0.0 120.491691,22.489366,0.0 120.491616,22.489226,0.0 120.491562,22.48914,0.0 120.491495,22.488987,0.0 120.491406,22.488819,0.0 120.49127,22.488595,0.0 120.491166,22.488444,0.0 120.491072,22.488297,0.0 120.489431,22.488226,0.0 120.489414,22.488075,0.0 120.489405,22.487944,0.0 120.489399,22.487853,0.0 120.489385,22.487697,0.0 120.489371,22.487506,0.0 120.489356,22.487334,0.0 120.489342,22.487158,0.0 120.489333,22.487034,0.0 120.489318,22.486884,0.0 120.489309,22.48679,0.0 120.489306,22.48667,0.0 120.489285,22.486537,0.0 120.489286,22.486415,0.0 120.489274,22.486315,0.0 120.48926,22.486175,0.0 120.48925,22.48595,0.0 120.489248,22.485798,0.0 120.489233,22.485595,0.0 120.489221,22.48545,0.0 120.489213,22.485304,0.0 120.489207,22.485207,0.0 120.48919,22.485042,0.0 120.48918,22.484877,0.0 120.489164,22.484732,0.0 120.489149,22.484509,0.0 120.489139,22.484324,0.0 120.489126,22.484141,0.0 120.489114,22.484001,0.0 120.489102,22.483791,0.0 120.489079,22.483657,0.0 120.489038,22.48361,0.0 120.488874,22.483607,0.0 120.488721,22.483613,0.0 120.488636,22.483581,0.0 120.488636,22.483457,0.0 120.488652,22.483329,0.0 120.488657,22.483234,0.0 120.488638,22.483098,0.0 120.48861,22.482958,0.0 120.488572,22.482793,0.0 120.488544,22.482692,0.0 120.488497,22.48259,0.0 120.488392,22.482425,0.0 120.488309,22.482284,0.0 120.488205,22.482115,0.0 120.48817,22.48197,0.0 120.48811,22.48176,0.0 120.488084,22.481685,0.0 120.488043,22.481611,0.0 120.487955,22.4815,0.0 120.487864,22.4814,0.0 120.487781,22.481303,0.0 120.487674,22.481167,0.0 120.487588,22.481047,0.0 120.487524,22.480968,0.0 120.487445,22.480846,0.0 120.487368,22.480757,0.0 120.487305,22.480674,0.0 120.487236,22.480572,0.0 120.487219,22.480497,0.0 120.487192,22.480414,0.0 120.487161,22.480346,0.0 120.487146,22.480222,0.0 120.487139,22.480152,0.0 120.487125,22.480075,0.0 120.487111,22.479928,0.0 120.487101,22.47979,0.0 120.487094,22.479628,0.0 120.487093,22.47949,0.0 120.4871,22.479337,0.0 120.487101,22.479034,0.0 120.487108,22.47888,0.0 120.487113,22.478713,0.0 120.487117,22.478526,0.0 120.487127,22.478343,0.0 120.487137,22.478142,0.0 120.487147,22.477975,0.0 120.487174,22.477799,0.0 120.487202,22.477677,0.0 120.487239,22.477619,0.0 120.487322,22.477508,0.0 120.487452,22.477364,0.0 120.487502,22.477285,0.0 120.48755,22.477159,0.0 120.487587,22.477001,0.0 120.487623,22.476884,0.0 120.48763,22.476773,0.0 120.487644,22.476647,0.0 120.48768,22.476539,0.0 120.487696,22.476369,0.0 120.487707,22.476295,0.0 120.487721,22.476225,0.0 120.487717,22.476153,0.0 120.48773,22.476076,0.0 120.487733,22.475945,0.0 120.48772,22.475866,0.0 120.487726,22.47576,0.0 120.487742,22.475649,0.0 120.487755,22.475588,0.0 120.487758,22.475448,0.0 120.487697,22.47529,0.0 120.48765,22.475161,0.0 120.48763,22.475103,0.0 120.487584,22.474904,0.0 120.487553,22.474707,0.0 120.487538,22.474594,0.0 120.487518,22.474459,0.0 120.487487,22.474278,0.0 120.48747,22.474176,0.0 120.487457,22.473998,0.0 120.48745,22.473885,0.0 120.487453,22.473734,0.0 120.487461,22.473501,0.0 120.487465,22.47333,0.0 120.487462,22.47321,0.0 120.487458,22.472964,0.0 120.487466,22.47279,0.0 120.487477,22.472628,0.0 120.487502,22.472422,0.0 120.487524,22.472278,0.0 120.487535,22.472203,0.0 120.487588,22.471998,0.0 120.487655,22.472012,0.0 120.487675,22.472016,0.0 120.487832,22.472053,0.0 120.487913,22.472074,0.0 120.488046,22.472115,0.0 120.488185,22.472158,0.0 120.488283,22.472165,0.0 120.488335,22.472152,0.0 120.488425,22.472141,0.0 120.488494,22.472139,0.0 120.488601,22.472146,0.0 120.488725,22.472173,0.0 120.488794,22.472196,0.0 120.488905,22.472244,0.0 120.489058,22.472287,0.0 120.489171,22.47231,0.0 120.489319,22.472308,0.0 120.48945,22.472376,0.0 120.489576,22.472436,0.0 120.489715,22.472492,0.0 120.489811,22.47252,0.0 120.489878,22.472552,0.0 120.489957,22.472584,0.0 120.490083,22.472636,0.0 120.490168,22.47265,0.0 120.490255,22.472688,0.0 120.490296,22.472731,0.0 120.490285,22.472831,0.0 120.490276,22.472925,0.0 120.490264,22.473063,0.0 120.490243,22.47321,0.0 120.490236,22.473296,0.0 120.490261,22.473354,0.0 120.490304,22.473384,0.0 120.490356,22.473411,0.0 120.490441,22.473448,0.0 120.490528,22.473479,0.0 120.490603,22.473498,0.0 120.490679,22.473512,0.0 120.490743,22.473516,0.0 120.490895,22.473521,0.0 120.490994,22.473531,0.0 120.491129,22.473549,0.0 120.491243,22.473572,0.0 120.491321,22.47359,0.0 120.491366,22.473618,0.0 120.491392,22.473679,0.0 120.491401,22.473744,0.0 120.491405,22.473846,0.0 120.4914,22.473961,0.0 120.49139,22.474047,0.0 120.491383,22.474121,0.0 120.491369,22.474177,0.0 120.491328,22.474299,0.0 120.491311,22.474417,0.0 120.491294,22.474575,0.0 120.491343,22.474618,0.0 120.491464,22.474681,0.0 120.491559,22.474715,0.0 120.49167,22.474774,0.0 120.491736,22.474779,0.0 120.491869,22.474789,0.0 120.492172,22.474803,0.0 120.492262,22.474817,0.0 120.492468,22.474836,0.0 120.492653,22.474859,0.0 120.492842,22.474878,0.0 120.493029,22.474896,0.0 120.493268,22.474917,0.0 120.49341,22.474945,0.0 120.493651,22.474966,0.0 120.493843,22.474991,0.0 120.494042,22.475012,0.0 120.494161,22.475024,0.0 120.494331,22.475047,0.0 120.494521,22.475068,0.0 120.494703,22.475089,0.0 120.494904,22.475117,0.0 120.49511,22.475149,0.0 120.495323,22.475186,0.0 120.495567,22.475234,0.0 120.495752,22.475273,0.0 120.496038,22.475335,0.0 120.496244,22.475374,0.0 120.496433,22.475413,0.0 120.496715,22.475454,0.0 120.496978,22.475491,0.0 120.497201,22.475526,0.0 120.49743,22.475551,0.0 120.497634,22.475581,0.0 120.49783,22.475604,0.0 120.49798,22.475627,0.0 120.498131,22.475655,0.0 120.498309,22.475692,0.0 120.498545,22.475742,0.0 120.498711,22.475776,0.0 120.498698,22.475844,0.0 120.498678,22.47597,0.0 120.498642,22.476126,0.0 120.498463,22.476717,0.0 120.498452,22.476807,0.0 120.498454,22.477254,0.0 120.498442,22.477329,0.0 120.498173,22.477786,0.0 120.498149,22.477847,0.0 120.498128,22.477917,0.0 120.498119,22.477962,0.0 120.498121,22.478012,0.0 120.498124,22.478032,0.0 120.498135,22.478053,0.0 120.498176,22.478062,0.0 120.498612,22.478081,0.0 120.499145,22.47813,0.0 120.500399,22.478191,0.0 120.500493,22.478216,0.0 120.500749,22.478323,0.0 120.50083,22.47833,0.0 120.500965,22.47833,0.0 120.501122,22.478333,0.0 120.50139,22.478359,0.0 120.501491,22.47835,0.0 120.501531,22.478336,0.0 120.501555,22.478321,0.0 120.501566,22.478289,0.0 120.501582,22.478136,0.0 120.501604,22.478045,0.0 120.50166,22.477928,0.0 120.501754,22.477791,0.0 120.501822,22.477728,0.0 120.501903,22.477676,0.0 120.502032,22.47762,0.0 120.502146,22.477582,0.0 120.502256,22.477566,0.0 120.502387,22.477562,0.0 120.502584,22.477554,0.0 120.503601,22.477539,0.0 120.504225,22.477507,0.0 120.505244,22.477506,0.0 120.506108,22.477522,0.0 120.506159,22.477536,0.0 120.506208,22.477592,0.0 120.506221,22.477642,0.0 120.50621,22.477766,0.0 120.506201,22.4781,0.0 120.506201,22.478148,0.0 120.506208,22.478179,0.0 120.506246,22.478202,0.0 120.507178,22.478302,0.0 120.507214,22.478315,0.0 120.507236,22.478345,0.0 120.50724,22.478377,0.0 120.506743,22.480472,0.0 120.506881,22.480489,0.0 120.506909,22.480532,0.0 120.506856,22.481001,0.0 120.506879,22.481049,0.0 120.507509,22.481066,0.0 120.507531,22.481412,0.0 120.507513,22.481541,0.0 120.507452,22.481737,0.0 120.507438,22.481816,0.0 120.507421,22.481908,0.0 120.507408,22.482148,0.0 120.507419,22.482181,0.0 120.507242,22.482359,0.0 120.50714,22.482474,0.0 120.507002,22.482636,0.0 120.506944,22.482733,0.0 120.506823,22.483236,0.0 120.506719,22.483405,0.0 120.506624,22.483475,0.0 120.506524,22.483499,0.0 120.506252,22.483571,0.0 120.506143,22.4836,0.0 120.505966,22.483669,0.0 120.505548,22.483928,0.0 120.505371,22.48409,0.0 120.505149,22.484322,0.0 120.504663,22.484848,0.0 120.504439,22.485037,0.0 120.503873,22.485733,0.0 120.503797,22.48579,0.0 120.503626,22.485825,0.0 120.503429,22.485849,0.0 120.503232,22.485858,0.0 120.503064,22.485837,0.0 120.502977,22.485812,0.0 120.50286,22.485762,0.0 120.502774,22.485753,0.0 120.502622,22.485781,0.0 120.502503,22.485819,0.0 120.502405,22.48586,0.0 120.502327,22.485916,0.0 120.502431,22.48616,0.0 120.50241,22.486309,0.0 120.502457,22.486402,0.0 120.502503,22.486456,0.0 120.502566,22.486596,0.0 120.502623,22.486739,0.0 120.502575,22.487032,0.0 120.50264,22.487161,0.0 120.502639,22.487292,0.0 120.502593,22.487445,0.0 120.502611,22.487567,0.0 120.502716,22.487809,0.0 120.502674,22.488094,0.0 120.502505,22.488524,0.0 120.502276,22.490163,0.0 120.502274,22.490278,0.0 120.502322,22.490404,0.0 120.502451,22.490552,0.0 120.502646,22.490767,0.0 120.503386,22.491503,0.0 120.504098,22.492248,0.0 120.504264,22.492463,0.0 120.504106,22.492991,0.0 120.504105,22.492995,0.0 120.504001,22.493037,0.0</coordinates></LinearRing></outerBoundaryIs></Polygon><styleUrl>#spolygon-map</styleUrl></Placemark><Placemark><Polygon><outerBoundaryIs><LinearRing><coordinates>120.508423,22.4917,0.0 120.508437,22.491685,0.0 120.508665,22.491458,0.0 120.50896,22.49114,0.0 120.509334,22.490699,0.0 120.509394,22.490616,0.0 120.50944,22.490555,0.0 120.509481,22.490501,0.0 120.509566,22.490293,0.0 120.509619,22.490129,0.0 120.509619,22.490099,0.0 120.509596,22.490074,0.0 120.509579,22.490061,0.0 120.509319,22.490053,0.0 120.509297,22.489274,0.0 120.509293,22.489105,0.0 120.509335,22.489058,0.0 120.509406,22.489051,0.0 120.510715,22.489044,0.0 120.511451,22.489062,0.0 120.511505,22.489064,0.0 120.51153,22.489091,0.0 120.511541,22.489134,0.0 120.51154,22.489177,0.0 120.511532,22.489663,0.0 120.511544,22.489726,0.0 120.511573,22.48976,0.0 120.511639,22.489771,0.0 120.511698,22.489772,0.0 120.512019,22.489775,0.0 120.512066,22.490473,0.0 120.51212,22.490755,0.0 120.512133,22.490895,0.0 120.512181,22.491064,0.0 120.512193,22.491708,0.0 120.512246,22.49204,0.0 120.512253,22.492975,0.0 120.512218,22.49304,0.0 120.511705,22.493054,0.0 120.511632,22.493023,0.0 120.511593,22.493,0.0 120.511553,22.492946,0.0 120.511525,22.492805,0.0 120.511511,22.492733,0.0 120.511481,22.49269,0.0 120.511425,22.492647,0.0 120.510824,22.492085,0.0 120.510717,22.491977,0.0 120.510577,22.491886,0.0 120.510315,22.491784,0.0 120.510135,22.491717,0.0 120.510029,22.491701,0.0 120.509917,22.49171,0.0 120.509843,22.491741,0.0 120.509767,22.491786,0.0 120.509463,22.492056,0.0 120.508995,22.492461,0.0 120.508792,22.4926,0.0 120.508751,22.49263,0.0 120.508697,22.492535,0.0 120.508664,22.492465,0.0 120.508651,22.492406,0.0 120.508636,22.492092,0.0 120.508636,22.492036,0.0 120.508609,22.491972,0.0 120.508587,22.491927,0.0 120.508541,22.491819,0.0 120.508436,22.491712,0.0 120.508423,22.4917,0.0</coordinates></LinearRing></outerBoundaryIs></Polygon><styleUrl>#spolygon-map</styleUrl></Placemark><Placemark><Polygon><outerBoundaryIs><LinearRing><coordinates>120.540855,22.477833,0.0 120.54082,22.477773,0.0 120.540715,22.477613,0.0 120.540689,22.477574,0.0 120.540634,22.477516,0.0 120.54057,22.477491,0.0 120.540372,22.477461,0.0 120.5397,22.477493,0.0 120.539587,22.477495,0.0 120.539438,22.477546,0.0 120.538725,22.477758,0.0 120.538521,22.477848,0.0 120.538438,22.477868,0.0 120.538265,22.477947,0.0 120.538214,22.478003,0.0 120.53816,22.478093,0.0 120.537966,22.478404,0.0 120.537844,22.47863,0.0 120.537715,22.478767,0.0 120.537679,22.478828,0.0 120.537655,22.478896,0.0 120.537628,22.4792,0.0 120.5376,22.47927,0.0 120.537541,22.479322,0.0 120.537428,22.479414,0.0 120.537271,22.479545,0.0 120.537162,22.479621,0.0 120.537091,22.479637,0.0 120.537002,22.479625,0.0 120.536634,22.479581,0.0 120.536179,22.479492,0.0 120.535638,22.479321,0.0 120.535415,22.479259,0.0 120.535174,22.479159,0.0 120.534951,22.479091,0.0 120.534764,22.479061,0.0 120.534678,22.479018,0.0 120.534646,22.47898,0.0 120.534624,22.478864,0.0 120.534597,22.478713,0.0 120.534547,22.478641,0.0 120.534411,22.478581,0.0 120.533955,22.478474,0.0 120.533842,22.47849,0.0 120.533687,22.478527,0.0 120.533514,22.478599,0.0 120.533377,22.478671,0.0 120.533299,22.478743,0.0 120.533164,22.478833,0.0 120.533117,22.47888,0.0 120.533077,22.478937,0.0 120.533034,22.479034,0.0 120.53299,22.479101,0.0 120.532897,22.479227,0.0 120.532815,22.479372,0.0 120.53278,22.479464,0.0 120.532768,22.479554,0.0 120.532768,22.479672,0.0 120.532754,22.479735,0.0 120.532722,22.479762,0.0 120.532677,22.479775,0.0 120.532358,22.479831,0.0 120.531878,22.479906,0.0 120.531679,22.479955,0.0 120.531358,22.480004,0.0 120.531213,22.480004,0.0 120.531137,22.479985,0.0 120.53106,22.479947,0.0 120.530969,22.479865,0.0 120.53092,22.479784,0.0 120.530864,22.479716,0.0 120.530779,22.479657,0.0 120.530667,22.479587,0.0 120.530641,22.479562,0.0 120.530617,22.479528,0.0 120.530594,22.479492,0.0 120.530559,22.479401,0.0 120.530525,22.479297,0.0 120.530484,22.479209,0.0 120.530446,22.479096,0.0 120.530428,22.479003,0.0 120.530403,22.478863,0.0 120.530355,22.478755,0.0 120.530313,22.478705,0.0 120.530269,22.478655,0.0 120.530208,22.478603,0.0 120.530118,22.478555,0.0 120.529872,22.478455,0.0 120.529799,22.478415,0.0 120.529718,22.478342,0.0 120.529581,22.478206,0.0 120.529436,22.478127,0.0 120.52915,22.478033,0.0 120.529014,22.478006,0.0 120.528908,22.477999,0.0 120.528833,22.477976,0.0 120.528767,22.477964,0.0 120.528669,22.477906,0.0 120.52859,22.477829,0.0 120.528484,22.477724,0.0 120.528429,22.47767,0.0 120.528303,22.477618,0.0 120.528152,22.47757,0.0 120.528028,22.477558,0.0 120.527867,22.477562,0.0 120.527712,22.477575,0.0 120.52753,22.477622,0.0 120.527434,22.477663,0.0 120.527352,22.477685,0.0 120.527277,22.47768,0.0 120.527211,22.477675,0.0 120.527057,22.477632,0.0 120.526902,22.477539,0.0 120.526811,22.477509,0.0 120.526754,22.477512,0.0 120.526711,22.477534,0.0 120.52666,22.477615,0.0 120.526633,22.477665,0.0 120.526578,22.477687,0.0 120.526473,22.477694,0.0 120.526186,22.477749,0.0 120.526136,22.47774,0.0 120.525909,22.477566,0.0 120.525696,22.477447,0.0 120.525319,22.477243,0.0 120.524928,22.477102,0.0 120.524841,22.477054,0.0 120.524746,22.476977,0.0 120.52456,22.476792,0.0 120.524306,22.476608,0.0 120.52391,22.476451,0.0 120.523683,22.476349,0.0 120.523617,22.476328,0.0 120.523506,22.476312,0.0 120.5234,22.476328,0.0 120.523297,22.47635,0.0 120.523191,22.476356,0.0 120.523114,22.476352,0.0 120.522931,22.476317,0.0 120.522681,22.476301,0.0 120.522321,22.476273,0.0 120.521857,22.476285,0.0 120.521625,22.476284,0.0 120.521473,22.476241,0.0 120.521334,22.476182,0.0 120.521202,22.476089,0.0 120.521124,22.476043,0.0 120.521011,22.475998,0.0 120.520907,22.475973,0.0 120.520761,22.475929,0.0 120.520684,22.475918,0.0 120.52057,22.475933,0.0 120.520401,22.475969,0.0 120.520204,22.476016,0.0 120.520101,22.476054,0.0 120.520018,22.476105,0.0 120.519924,22.476207,0.0 120.519849,22.476322,0.0 120.519749,22.476423,0.0 120.519374,22.476704,0.0 120.519304,22.476799,0.0 120.519258,22.476868,0.0 120.519167,22.47695,0.0 120.519057,22.47699,0.0 120.518966,22.476994,0.0 120.518875,22.476987,0.0 120.518799,22.476964,0.0 120.518724,22.476926,0.0 120.518667,22.476883,0.0 120.518603,22.476828,0.0 120.518554,22.476767,0.0 120.518509,22.476656,0.0 120.518456,22.476509,0.0 120.518407,22.476394,0.0 120.518342,22.476313,0.0 120.518274,22.476256,0.0 120.518196,22.476206,0.0 120.518092,22.476167,0.0 120.51795,22.476151,0.0 120.517673,22.476153,0.0 120.517423,22.476141,0.0 120.517186,22.476083,0.0 120.517036,22.476049,0.0 120.516975,22.476035,0.0 120.516924,22.476001,0.0 120.516914,22.475965,0.0 120.516914,22.475839,0.0 120.516896,22.475771,0.0 120.516815,22.47566,0.0 120.516674,22.475456,0.0 120.516611,22.475375,0.0 120.516547,22.475339,0.0 120.516243,22.475173,0.0 120.516098,22.475073,0.0 120.515938,22.474985,0.0 120.515631,22.474873,0.0 120.515443,22.474805,0.0 120.515392,22.474775,0.0 120.515316,22.474687,0.0 120.51527,22.47461,0.0 120.515212,22.474474,0.0 120.51518,22.474348,0.0 120.515181,22.474224,0.0 120.515192,22.474104,0.0 120.515217,22.474039,0.0 120.515306,22.473802,0.0 120.515315,22.473773,0.0 120.515573,22.473791,0.0 120.515719,22.473774,0.0 120.515826,22.473767,0.0 120.516618,22.473639,0.0 120.517457,22.473504,0.0 120.517581,22.473488,0.0 120.517629,22.473472,0.0 120.517672,22.473452,0.0 120.517711,22.473398,0.0 120.517759,22.473218,0.0 120.518115,22.472092,0.0 120.518212,22.472031,0.0 120.518326,22.471984,0.0 120.519101,22.471738,0.0 120.519273,22.471707,0.0 120.519574,22.471697,0.0 120.520381,22.47183,0.0 120.520575,22.471847,0.0 120.520738,22.471829,0.0 120.520941,22.471757,0.0 120.521009,22.471712,0.0 120.521048,22.471629,0.0 120.521136,22.471189,0.0 120.521192,22.471079,0.0 120.52124,22.471054,0.0 120.521334,22.471059,0.0 120.52136,22.471095,0.0 120.521368,22.471151,0.0 120.521402,22.471215,0.0 120.521443,22.471276,0.0 120.521505,22.471312,0.0 120.521583,22.471315,0.0 120.521633,22.47129,0.0 120.521665,22.471236,0.0 120.521678,22.471184,0.0 120.521605,22.471028,0.0 120.521614,22.470987,0.0 120.521635,22.470971,0.0 120.521687,22.470965,0.0 120.521799,22.470965,0.0 120.522323,22.470985,0.0 120.522387,22.471021,0.0 120.522422,22.471062,0.0 120.522452,22.471105,0.0 120.522482,22.471155,0.0 120.522503,22.471259,0.0 120.522537,22.471383,0.0 120.522575,22.471435,0.0 120.52264,22.471467,0.0 120.522722,22.471465,0.0 120.522812,22.471395,0.0 120.524028,22.47034,0.0 120.524511,22.469953,0.0 120.524669,22.469811,0.0 120.524792,22.469721,0.0 120.524872,22.469678,0.0 120.525717,22.469311,0.0 120.526014,22.469095,0.0 120.526399,22.468705,0.0 120.52679,22.468298,0.0 120.527541,22.467541,0.0 120.528227,22.466832,0.0 120.530155,22.464855,0.0 120.530236,22.464773,0.0 120.53034,22.464667,0.0 120.530518,22.464707,0.0 120.530627,22.464728,0.0 120.530783,22.464767,0.0 120.530874,22.464799,0.0 120.530946,22.464826,0.0 120.531064,22.464863,0.0 120.531317,22.464954,0.0 120.531376,22.464974,0.0 120.531498,22.465022,0.0 120.531726,22.465108,0.0 120.531807,22.465145,0.0 120.531907,22.465186,0.0 120.532144,22.465281,0.0 120.532225,22.465313,0.0 120.532335,22.465361,0.0 120.532578,22.465454,0.0 120.53265,22.465486,0.0 120.532756,22.465533,0.0 120.532915,22.465606,0.0 120.533031,22.465661,0.0 120.533227,22.465731,0.0 120.533369,22.465786,0.0 120.533581,22.465868,0.0 120.53373,22.465922,0.0 120.533906,22.465982,0.0 120.534099,22.466041,0.0 120.534149,22.466057,0.0 120.534236,22.466086,0.0 120.534299,22.466118,0.0 120.534457,22.466191,0.0 120.534648,22.466289,0.0 120.534785,22.466357,0.0 120.534972,22.466466,0.0 120.535126,22.46655,0.0 120.535463,22.466724,0.0 120.535653,22.46682,0.0 120.53581,22.466901,0.0 120.535997,22.466999,0.0 120.536144,22.467074,0.0 120.536252,22.467122,0.0 120.536264,22.467167,0.0 120.536233,22.467214,0.0 120.536204,22.467275,0.0 120.536206,22.46735,0.0 120.536215,22.467393,0.0 120.536242,22.467458,0.0 120.536263,22.467555,0.0 120.536297,22.467698,0.0 120.536314,22.467772,0.0 120.536333,22.467844,0.0 120.536335,22.467908,0.0 120.536325,22.467978,0.0 120.536322,22.468052,0.0 120.536322,22.468138,0.0 120.536305,22.468267,0.0 120.536275,22.468406,0.0 120.536268,22.468467,0.0 120.536253,22.468535,0.0 120.536338,22.468542,0.0 120.536511,22.468558,0.0 120.536726,22.468564,0.0 120.53689,22.468564,0.0 120.537131,22.468562,0.0 120.537283,22.468561,0.0 120.537514,22.468561,0.0 120.537582,22.468552,0.0 120.537668,22.46855,0.0 120.5379,22.468544,0.0 120.538047,22.468538,0.0 120.53817,22.468536,0.0 120.538283,22.468527,0.0 120.53844,22.468517,0.0 120.538618,22.468504,0.0 120.538666,22.468492,0.0 120.538826,22.468475,0.0 120.539055,22.468446,0.0 120.539207,22.468422,0.0 120.539441,22.468384,0.0 120.539585,22.468364,0.0 120.539803,22.468333,0.0 120.539969,22.468304,0.0 120.540193,22.468285,0.0 120.54027,22.468285,0.0 120.540352,22.468294,0.0 120.540451,22.468324,0.0 120.540581,22.468324,0.0 120.540733,22.468304,0.0 120.540967,22.4683,0.0 120.541138,22.468319,0.0 120.541246,22.468317,0.0 120.54136,22.468306,0.0 120.5415,22.468279,0.0 120.541698,22.468158,0.0 120.541845,22.468122,0.0 120.542072,22.468075,0.0 120.542229,22.46804,0.0 120.542446,22.467995,0.0 120.542593,22.467959,0.0 120.542779,22.467888,0.0 120.542852,22.467915,0.0 120.543033,22.467875,0.0 120.543243,22.467828,0.0 120.54362,22.467746,0.0 120.543996,22.467659,0.0 120.544148,22.46763,0.0 120.544305,22.467592,0.0 120.54436,22.467621,0.0 120.544369,22.467694,0.0 120.544376,22.46777,0.0 120.544393,22.467926,0.0 120.544393,22.467974,0.0 120.544383,22.468041,0.0 120.544371,22.468113,0.0 120.544331,22.468332,0.0 120.544319,22.46847,0.0 120.544295,22.468689,0.0 120.544285,22.468829,0.0 120.544277,22.468888,0.0 120.544256,22.468951,0.0 120.544142,22.468953,0.0 120.543976,22.468966,0.0 120.543759,22.468974,0.0 120.543677,22.468985,0.0 120.543571,22.468987,0.0 120.54357,22.469168,0.0 120.543572,22.469317,0.0 120.543569,22.469538,0.0 120.54357,22.469884,0.0 120.543571,22.470256,0.0 120.543573,22.470405,0.0 120.543575,22.470545,0.0 120.543572,22.470617,0.0 120.54356,22.470678,0.0 120.543473,22.470674,0.0 120.543237,22.470664,0.0 120.54316,22.470659,0.0 120.543082,22.470652,0.0 120.542851,22.47064,0.0 120.542701,22.470628,0.0 120.542579,22.470626,0.0 120.542518,22.470637,0.0 120.542499,22.470682,0.0 120.542491,22.470817,0.0 120.542483,22.471036,0.0 120.542476,22.471174,0.0 120.542465,22.471404,0.0 120.542448,22.471538,0.0 120.542435,22.471657,0.0 120.542425,22.47175,0.0 120.542408,22.471894,0.0 120.542403,22.47196,0.0 120.542397,22.472113,0.0 120.542392,22.472183,0.0 120.542392,22.472249,0.0 120.542389,22.472479,0.0 120.542381,22.472614,0.0 120.542381,22.472836,0.0 120.542373,22.472973,0.0 120.54238,22.473138,0.0 120.542394,22.47321,0.0 120.542729,22.473211,0.0 120.542735,22.473311,0.0 120.542744,22.473358,0.0 120.542751,22.473625,0.0 120.542745,22.473681,0.0 120.542755,22.473789,0.0 120.542737,22.474049,0.0 120.542726,22.474164,0.0 120.542697,22.474471,0.0 120.542697,22.474528,0.0 120.542705,22.474584,0.0 120.542754,22.474647,0.0 120.542741,22.474873,0.0 120.542728,22.474988,0.0 120.542721,22.475045,0.0 120.54271,22.475178,0.0 120.542705,22.475307,0.0 120.542692,22.475419,0.0 120.542683,22.475474,0.0 120.542674,22.475598,0.0 120.542672,22.475733,0.0 120.542665,22.475781,0.0 120.542665,22.475848,0.0 120.542658,22.475898,0.0 120.542636,22.476049,0.0 120.542619,22.476155,0.0 120.542615,22.476214,0.0 120.542608,22.476277,0.0 120.542599,22.476325,0.0 120.54259,22.476442,0.0 120.542583,22.476589,0.0 120.542575,22.476647,0.0 120.542568,22.47674,0.0 120.542544,22.476896,0.0 120.542507,22.477135,0.0 120.542507,22.477187,0.0 120.542503,22.477345,0.0 120.542502,22.477379,0.0 120.542493,22.47744,0.0 120.542491,22.477514,0.0 120.542441,22.477518,0.0 120.542388,22.477527,0.0 120.542223,22.477527,0.0 120.54211,22.477527,0.0 120.541992,22.477528,0.0 120.541926,22.477528,0.0 120.541826,22.477523,0.0 120.541747,22.477516,0.0 120.541669,22.477548,0.0 120.54155,22.477588,0.0 120.541481,22.477606,0.0 120.541315,22.477653,0.0 120.541218,22.477637,0.0 120.541154,22.477625,0.0 120.541109,22.47765,0.0 120.54106,22.477688,0.0 120.540855,22.477833,0.0</coordinates></LinearRing></outerBoundaryIs></Polygon><styleUrl>#spolygon-map</styleUrl></Placemark><Placemark><Polygon><outerBoundaryIs><LinearRing><coordinates>120.512019,22.489775,0.0 120.512,22.489623,0.0 120.511963,22.489188,0.0 120.511916,22.488589,0.0 120.51188,22.487772,0.0 120.511796,22.484064,0.0 120.511749,22.481802,0.0 120.513902,22.480995,0.0 120.514562,22.480602,0.0 120.515289,22.480056,0.0 120.515431,22.47993,0.0 120.51547,22.479828,0.0 120.5157,22.479204,0.0 120.515826,22.478789,0.0 120.516712,22.478064,0.0 120.516769,22.478076,0.0 120.516843,22.478306,0.0 120.517023,22.478456,0.0 120.517274,22.478527,0.0 120.517559,22.478487,0.0 120.517859,22.478436,0.0 120.518071,22.478272,0.0 120.518502,22.477756,0.0 120.519167,22.47695,0.0 120.519258,22.476868,0.0 120.519304,22.476799,0.0 120.519374,22.476704,0.0 120.519749,22.476423,0.0 120.519849,22.476322,0.0 120.519924,22.476207,0.0 120.520018,22.476105,0.0 120.520101,22.476054,0.0 120.520204,22.476016,0.0 120.520401,22.475969,0.0 120.52057,22.475933,0.0 120.520684,22.475918,0.0 120.520761,22.475929,0.0 120.520907,22.475973,0.0 120.521011,22.475998,0.0 120.521124,22.476043,0.0 120.521202,22.476089,0.0 120.521334,22.476182,0.0 120.521473,22.476241,0.0 120.521625,22.476284,0.0 120.521857,22.476285,0.0 120.522321,22.476273,0.0 120.522681,22.476301,0.0 120.522931,22.476317,0.0 120.523114,22.476352,0.0 120.523191,22.476356,0.0 120.523297,22.47635,0.0 120.5234,22.476328,0.0 120.523506,22.476312,0.0 120.523617,22.476328,0.0 120.523683,22.476349,0.0 120.52391,22.476451,0.0 120.524306,22.476608,0.0 120.52456,22.476792,0.0 120.524746,22.476977,0.0 120.524841,22.477054,0.0 120.524928,22.477102,0.0 120.525319,22.477243,0.0 120.525696,22.477447,0.0 120.525909,22.477566,0.0 120.526136,22.47774,0.0 120.526186,22.477749,0.0 120.526473,22.477694,0.0 120.526578,22.477687,0.0 120.526633,22.477665,0.0 120.52666,22.477615,0.0 120.526711,22.477534,0.0 120.526754,22.477512,0.0 120.526811,22.477509,0.0 120.526902,22.477539,0.0 120.527057,22.477632,0.0 120.527211,22.477675,0.0 120.527277,22.47768,0.0 120.527352,22.477685,0.0 120.527434,22.477663,0.0 120.52753,22.477622,0.0 120.527712,22.477575,0.0 120.527867,22.477562,0.0 120.528028,22.477558,0.0 120.528152,22.47757,0.0 120.528303,22.477618,0.0 120.528429,22.47767,0.0 120.528484,22.477724,0.0 120.52859,22.477829,0.0 120.528669,22.477906,0.0 120.528767,22.477964,0.0 120.528833,22.477976,0.0 120.528908,22.477999,0.0 120.529014,22.478006,0.0 120.52915,22.478033,0.0 120.529436,22.478127,0.0 120.529581,22.478206,0.0 120.529718,22.478342,0.0 120.529799,22.478415,0.0 120.529872,22.478455,0.0 120.530118,22.478555,0.0 120.530208,22.478603,0.0 120.530269,22.478655,0.0 120.530313,22.478705,0.0 120.530355,22.478755,0.0 120.530403,22.478863,0.0 120.530428,22.479003,0.0 120.530446,22.479096,0.0 120.530484,22.479209,0.0 120.530525,22.479297,0.0 120.530559,22.479401,0.0 120.530594,22.479492,0.0 120.530617,22.479528,0.0 120.530641,22.479562,0.0 120.530667,22.479587,0.0 120.530779,22.479657,0.0 120.530864,22.479716,0.0 120.53092,22.479784,0.0 120.53003,22.480486,0.0 120.529912,22.48058,0.0 120.529722,22.480706,0.0 120.529331,22.481025,0.0 120.5276,22.482404,0.0 120.528454,22.482725,0.0 120.528592,22.482764,0.0 120.528608,22.482834,0.0 120.528624,22.482895,0.0 120.528633,22.482952,0.0 120.528681,22.483071,0.0 120.528704,22.483308,0.0 120.528734,22.483616,0.0 120.52871,22.483776,0.0 120.528682,22.48404,0.0 120.528673,22.484171,0.0 120.528676,22.484458,0.0 120.528715,22.485092,0.0 120.528716,22.485178,0.0 120.528682,22.485228,0.0 120.528611,22.485272,0.0 120.528513,22.485297,0.0 120.527857,22.48539,0.0 120.527706,22.485457,0.0 120.527626,22.485617,0.0 120.527335,22.485691,0.0 120.526923,22.485798,0.0 120.526759,22.485886,0.0 120.526453,22.486124,0.0 120.526135,22.486311,0.0 120.526022,22.486391,0.0 120.525969,22.486479,0.0 120.52594,22.486748,0.0 120.5259,22.486834,0.0 120.525891,22.486962,0.0 120.525879,22.487111,0.0 120.525855,22.487238,0.0 120.525751,22.487596,0.0 120.525776,22.487987,0.0 120.525816,22.48815,0.0 120.525902,22.488421,0.0 120.525983,22.488697,0.0 120.526061,22.489024,0.0 120.52611,22.489268,0.0 120.526131,22.489788,0.0 120.526127,22.489801,0.0 120.526101,22.489812,0.0 120.526082,22.489812,0.0 120.524005,22.489795,0.0 120.523981,22.489797,0.0 120.523943,22.489808,0.0 120.523932,22.489822,0.0 120.523929,22.489851,0.0 120.523891,22.490544,0.0 120.523079,22.490517,0.0 120.521952,22.490502,0.0 120.521889,22.490507,0.0 120.521455,22.490571,0.0 120.521106,22.490721,0.0 120.520992,22.490843,0.0 120.52091,22.490872,0.0 120.520644,22.490905,0.0 120.520361,22.490879,0.0 120.520257,22.49087,0.0 120.520082,22.490894,0.0 120.51932,22.491009,0.0 120.51847,22.491167,0.0 120.517577,22.491245,0.0 120.516509,22.491251,0.0 120.516468,22.49124,0.0 120.516463,22.491211,0.0 120.516464,22.49119,0.0 120.516526,22.489824,0.0 120.516498,22.489788,0.0 120.516441,22.489761,0.0 120.516335,22.489761,0.0 120.512019,22.489775,0.0</coordinates></LinearRing></outerBoundaryIs></Polygon><styleUrl>#spolygon-map</styleUrl></Placemark><Placemark><Polygon><outerBoundaryIs><LinearRing><coordinates>120.53034,22.464667,0.0 120.530236,22.464773,0.0 120.530155,22.464855,0.0 120.528227,22.466832,0.0 120.527541,22.467541,0.0 120.52679,22.468298,0.0 120.526399,22.468705,0.0 120.526014,22.469095,0.0 120.525717,22.469311,0.0 120.524872,22.469678,0.0 120.524792,22.469721,0.0 120.524669,22.469811,0.0 120.524511,22.469953,0.0 120.524028,22.47034,0.0 120.522812,22.471395,0.0 120.522722,22.471465,0.0 120.52264,22.471467,0.0 120.522575,22.471435,0.0 120.522537,22.471383,0.0 120.522503,22.471259,0.0 120.522482,22.471155,0.0 120.522452,22.471105,0.0 120.522422,22.471062,0.0 120.522387,22.471021,0.0 120.522323,22.470985,0.0 120.521799,22.470965,0.0 120.521687,22.470965,0.0 120.521635,22.470971,0.0 120.521614,22.470987,0.0 120.521605,22.471028,0.0 120.521678,22.471184,0.0 120.521665,22.471236,0.0 120.521633,22.47129,0.0 120.521583,22.471315,0.0 120.521505,22.471312,0.0 120.521443,22.471276,0.0 120.521402,22.471215,0.0 120.521368,22.471151,0.0 120.52136,22.471095,0.0 120.521334,22.471059,0.0 120.52124,22.471054,0.0 120.521192,22.471079,0.0 120.521136,22.471189,0.0 120.521048,22.471629,0.0 120.521009,22.471712,0.0 120.520941,22.471757,0.0 120.520738,22.471829,0.0 120.520575,22.471847,0.0 120.520381,22.47183,0.0 120.519574,22.471697,0.0 120.519273,22.471707,0.0 120.519101,22.471738,0.0 120.518326,22.471984,0.0 120.518212,22.472031,0.0 120.518115,22.472092,0.0 120.517759,22.473218,0.0 120.517711,22.473398,0.0 120.517672,22.473452,0.0 120.517629,22.473472,0.0 120.517581,22.473488,0.0 120.517457,22.473504,0.0 120.516618,22.473639,0.0 120.515826,22.473767,0.0 120.515719,22.473774,0.0 120.515573,22.473791,0.0 120.515315,22.473773,0.0 120.515352,22.473619,0.0 120.51538,22.4734,0.0 120.515402,22.473299,0.0 120.515408,22.473242,0.0 120.515404,22.473186,0.0 120.515366,22.472922,0.0 120.515337,22.472581,0.0 120.515351,22.4724,0.0 120.515382,22.472237,0.0 120.51542,22.472141,0.0 120.515485,22.472055,0.0 120.515639,22.471906,0.0 120.515789,22.471792,0.0 120.515868,22.471722,0.0 120.515928,22.47163,0.0 120.515966,22.471496,0.0 120.515969,22.471411,0.0 120.515957,22.470939,0.0 120.515966,22.470686,0.0 120.515964,22.470607,0.0 120.515955,22.470517,0.0 120.515916,22.470349,0.0 120.515862,22.470263,0.0 120.51583,22.470191,0.0 120.515796,22.470026,0.0 120.515737,22.469854,0.0 120.515585,22.469619,0.0 120.51537,22.469417,0.0 120.515268,22.469311,0.0 120.515233,22.469277,0.0 120.515168,22.46925,0.0 120.515077,22.469225,0.0 120.514897,22.469161,0.0 120.514773,22.469086,0.0 120.514717,22.469036,0.0 120.514569,22.468842,0.0 120.514478,22.468679,0.0 120.514355,22.468426,0.0 120.514261,22.468258,0.0 120.514229,22.468217,0.0 120.514178,22.468179,0.0 120.513907,22.468045,0.0 120.513732,22.467968,0.0 120.513643,22.467915,0.0 120.513606,22.467881,0.0 120.513584,22.467838,0.0 120.513555,22.467789,0.0 120.513539,22.467734,0.0 120.51352,22.467646,0.0 120.513524,22.467339,0.0 120.5135,22.46722,0.0 120.513467,22.467149,0.0 120.513428,22.467102,0.0 120.51335,22.467029,0.0 120.513323,22.466977,0.0 120.513286,22.466837,0.0 120.513258,22.466598,0.0 120.513228,22.46655,0.0 120.513184,22.466512,0.0 120.513128,22.466489,0.0 120.512964,22.466419,0.0 120.512913,22.466398,0.0 120.512881,22.466371,0.0 120.512853,22.466335,0.0 120.512782,22.466217,0.0 120.51272,22.466079,0.0 120.512693,22.466036,0.0 120.512663,22.466005,0.0 120.512621,22.465984,0.0 120.512581,22.465982,0.0 120.512529,22.465988,0.0 120.512505,22.466002,0.0 120.512359,22.466175,0.0 120.51234,22.466198,0.0 120.51231,22.466211,0.0 120.512259,22.466209,0.0 120.512157,22.466163,0.0 120.512036,22.466086,0.0 120.511921,22.466027,0.0 120.511809,22.465957,0.0 120.511767,22.465914,0.0 120.511725,22.465844,0.0 120.511714,22.465778,0.0 120.511711,22.465724,0.0 120.511696,22.46567,0.0 120.511673,22.46562,0.0 120.511613,22.465557,0.0 120.511498,22.465513,0.0 120.511424,22.465477,0.0 120.511395,22.465445,0.0 120.511373,22.465378,0.0 120.511326,22.465167,0.0 120.511307,22.465118,0.0 120.511292,22.4651,0.0 120.511047,22.464995,0.0 120.510933,22.464945,0.0 120.510859,22.464884,0.0 120.510735,22.464723,0.0 120.510553,22.464413,0.0 120.510508,22.464361,0.0 120.510389,22.464304,0.0 120.510053,22.46419,0.0 120.509932,22.464138,0.0 120.509851,22.464093,0.0 120.509774,22.464034,0.0 120.509706,22.463979,0.0 120.509649,22.463923,0.0 120.509611,22.463832,0.0 120.509583,22.463658,0.0 120.509544,22.463532,0.0 120.509372,22.463267,0.0 120.509272,22.463159,0.0 120.509185,22.463061,0.0 120.509112,22.462901,0.0 120.509085,22.462738,0.0 120.509095,22.46263,0.0 120.50911,22.462483,0.0 120.509163,22.462397,0.0 120.509264,22.462323,0.0 120.5093,22.46228,0.0 120.509312,22.46221,0.0 120.509318,22.462073,0.0 120.509275,22.461906,0.0 120.509223,22.461795,0.0 120.509191,22.461774,0.0 120.509121,22.461756,0.0 120.509025,22.461753,0.0 120.508862,22.461757,0.0 120.508779,22.461741,0.0 120.508698,22.461725,0.0 120.508525,22.461657,0.0 120.508438,22.461589,0.0 120.508394,22.461539,0.0 120.508371,22.461501,0.0 120.508338,22.461388,0.0 120.508262,22.461155,0.0 120.508246,22.461065,0.0 120.508231,22.461034,0.0 120.508199,22.460979,0.0 120.508224,22.460963,0.0 120.508237,22.460893,0.0 120.508237,22.460839,0.0 120.508209,22.46071,0.0 120.508216,22.460491,0.0 120.508253,22.460417,0.0 120.508307,22.460318,0.0 120.50842,22.460144,0.0 120.508433,22.460097,0.0 120.508446,22.460036,0.0 120.508455,22.459984,0.0 120.508477,22.459932,0.0 120.508562,22.459684,0.0 120.508584,22.459632,0.0 120.508616,22.459522,0.0 120.508666,22.459386,0.0 120.508707,22.459215,0.0 120.508732,22.4591,0.0 120.508742,22.45893,0.0 120.508746,22.458845,0.0 120.508768,22.458788,0.0 120.508815,22.458764,0.0 120.508874,22.458748,0.0 120.509143,22.458762,0.0 120.509215,22.458767,0.0 120.509333,22.458774,0.0 120.509608,22.458795,0.0 120.509789,22.458798,0.0 120.510071,22.458797,0.0 120.510261,22.458797,0.0 120.510714,22.458803,0.0 120.510989,22.458802,0.0 120.511055,22.458793,0.0 120.51112,22.458791,0.0 120.511208,22.458782,0.0 120.511452,22.458776,0.0 120.511577,22.458772,0.0 120.511639,22.458779,0.0 120.511782,22.458779,0.0 120.511901,22.458807,0.0 120.511985,22.458827,0.0 120.512091,22.458857,0.0 120.512428,22.458935,0.0 120.512547,22.458965,0.0 120.5128,22.459022,0.0 120.512872,22.459031,0.0 120.513003,22.458988,0.0 120.513016,22.45899,0.0 120.513256,22.459028,0.0 120.513315,22.45903,0.0 120.51344,22.459042,0.0 120.513525,22.459053,0.0 120.513715,22.459101,0.0 120.513745,22.45925,0.0 120.513805,22.459287,0.0 120.513864,22.459305,0.0 120.513948,22.459321,0.0 120.513995,22.459335,0.0 120.51401,22.459407,0.0 120.514004,22.459497,0.0 120.514004,22.459567,0.0 120.514013,22.459612,0.0 120.514153,22.459642,0.0 120.514216,22.459649,0.0 120.514344,22.459647,0.0 120.514513,22.459657,0.0 120.514613,22.459668,0.0 120.514675,22.459673,0.0 120.514794,22.459685,0.0 120.515056,22.45971,0.0 120.515134,22.45972,0.0 120.515259,22.459731,0.0 120.515522,22.459748,0.0 120.51565,22.459746,0.0 120.515712,22.459742,0.0 120.515822,22.459737,0.0 120.515916,22.459706,0.0 120.515962,22.459663,0.0 120.516019,22.459623,0.0 120.516141,22.459553,0.0 120.5163,22.459554,0.0 120.516379,22.459545,0.0 120.516441,22.459536,0.0 120.516566,22.459532,0.0 120.516754,22.459537,0.0 120.5169,22.459562,0.0 120.516956,22.459572,0.0 120.517018,22.459581,0.0 120.517218,22.459656,0.0 120.517337,22.459704,0.0 120.517586,22.459799,0.0 120.517742,22.45984,0.0 120.51788,22.459879,0.0 120.518148,22.45993,0.0 120.518216,22.459939,0.0 120.518248,22.459943,0.0 120.518336,22.459944,0.0 120.51862,22.459942,0.0 120.518683,22.45994,0.0 120.518873,22.459945,0.0 120.519017,22.460022,0.0 120.519038,22.460106,0.0 120.519151,22.460124,0.0 120.519335,22.460127,0.0 120.519487,22.460148,0.0 120.519603,22.460164,0.0 120.519756,22.460187,0.0 120.519878,22.460206,0.0 120.520006,22.460217,0.0 120.520068,22.460224,0.0 120.52034,22.46025,0.0 120.520412,22.460259,0.0 120.520531,22.460271,0.0 120.520796,22.460303,0.0 120.520858,22.46031,0.0 120.520996,22.460324,0.0 120.521258,22.460357,0.0 120.521446,22.460373,0.0 120.521711,22.460396,0.0 120.521786,22.460421,0.0 120.521901,22.460453,0.0 120.522157,22.460533,0.0 120.522223,22.460545,0.0 120.522344,22.460579,0.0 120.522548,22.460611,0.0 120.522613,22.460609,0.0 120.522682,22.460609,0.0 120.522801,22.460609,0.0 120.523082,22.460599,0.0 120.523141,22.460599,0.0 120.523266,22.460602,0.0 120.523535,22.460612,0.0 120.523582,22.460609,0.0 120.523604,22.460607,0.0 120.523726,22.460599,0.0 120.523873,22.460604,0.0 120.524001,22.460615,0.0 120.52406,22.460622,0.0 120.524185,22.460634,0.0 120.524301,22.460643,0.0 120.524463,22.460657,0.0 120.524478,22.460658,0.0 120.524526,22.460662,0.0 120.524644,22.460662,0.0 120.52485,22.460663,0.0 120.524919,22.460674,0.0 120.524982,22.460686,0.0 120.525041,22.460695,0.0 120.525091,22.460704,0.0 120.525359,22.460786,0.0 120.525428,22.460796,0.0 120.525481,22.4608,0.0 120.525559,22.460812,0.0 120.525825,22.46081,0.0 120.525894,22.460808,0.0 120.526003,22.460797,0.0 120.526285,22.46076,0.0 120.52635,22.460753,0.0 120.526463,22.46074,0.0 120.526747,22.460748,0.0 120.526806,22.46075,0.0 120.526928,22.460762,0.0 120.527203,22.460785,0.0 120.527266,22.46079,0.0 120.527385,22.460795,0.0 120.527656,22.460822,0.0 120.527721,22.460829,0.0 120.527846,22.460843,0.0 120.527952,22.460859,0.0 120.528171,22.460876,0.0 120.528296,22.460888,0.0 120.52848,22.460913,0.0 120.52863,22.460943,0.0 120.528755,22.460966,0.0 120.528815,22.460993,0.0 120.528915,22.461036,0.0 120.528914,22.46119,0.0 120.528907,22.461298,0.0 120.528897,22.461558,0.0 120.528894,22.461675,0.0 120.52889,22.46172,0.0 120.528874,22.461984,0.0 120.528864,22.462036,0.0 120.528858,22.46214,0.0 120.528838,22.462418,0.0 120.528828,22.462582,0.0 120.528808,22.462889,0.0 120.528802,22.463007,0.0 120.528785,22.463318,0.0 120.528775,22.463447,0.0 120.528765,22.463659,0.0 120.528765,22.463844,0.0 120.528764,22.464066,0.0 120.528801,22.464181,0.0 120.528882,22.464267,0.0 120.528938,22.464312,0.0 120.529094,22.464414,0.0 120.52916,22.46443,0.0 120.529282,22.464451,0.0 120.529522,22.464495,0.0 120.529613,22.464508,0.0 120.529735,22.464529,0.0 120.529866,22.464556,0.0 120.530066,22.464602,0.0 120.530178,22.46463,0.0 120.53034,22.464667,0.0</coordinates></LinearRing></outerBoundaryIs></Polygon><styleUrl>#spolygon-map</styleUrl></Placemark><Placemark><Polygon><outerBoundaryIs><LinearRing><coordinates>120.508751,22.49263,0.0 120.508792,22.4926,0.0 120.508995,22.492461,0.0 120.509463,22.492056,0.0 120.509767,22.491786,0.0 120.509843,22.491741,0.0 120.509917,22.49171,0.0 120.510029,22.491701,0.0 120.510135,22.491717,0.0 120.510315,22.491784,0.0 120.510577,22.491886,0.0 120.510717,22.491977,0.0 120.510824,22.492085,0.0 120.511425,22.492647,0.0 120.511481,22.49269,0.0 120.511511,22.492733,0.0 120.511525,22.492805,0.0 120.511553,22.492946,0.0 120.511593,22.493,0.0 120.511632,22.493023,0.0 120.511705,22.493054,0.0 120.512218,22.49304,0.0 120.512253,22.492975,0.0 120.512246,22.49204,0.0 120.512193,22.491708,0.0 120.512181,22.491064,0.0 120.512133,22.490895,0.0 120.51212,22.490755,0.0 120.512066,22.490473,0.0 120.512019,22.489775,0.0 120.516335,22.489761,0.0 120.516441,22.489761,0.0 120.516498,22.489788,0.0 120.516526,22.489824,0.0 120.516464,22.49119,0.0 120.516463,22.491211,0.0 120.516468,22.49124,0.0 120.516509,22.491251,0.0 120.517577,22.491245,0.0 120.51847,22.491167,0.0 120.51932,22.491009,0.0 120.520082,22.490894,0.0 120.520257,22.49087,0.0 120.520361,22.490879,0.0 120.520644,22.490905,0.0 120.52091,22.490872,0.0 120.520992,22.490843,0.0 120.521106,22.490721,0.0 120.521455,22.490571,0.0 120.521889,22.490507,0.0 120.521952,22.490502,0.0 120.523079,22.490517,0.0 120.523891,22.490544,0.0 120.523836,22.491713,0.0 120.523746,22.493774,0.0 120.523724,22.494402,0.0 120.523681,22.494784,0.0 120.523742,22.494856,0.0 120.523709,22.495459,0.0 120.523683,22.496258,0.0 120.523582,22.497795,0.0 120.523496,22.498079,0.0 120.52336,22.498223,0.0 120.523189,22.498347,0.0 120.523061,22.498376,0.0 120.52304,22.49838,0.0 120.523046,22.498347,0.0 120.523049,22.498213,0.0 120.523004,22.49817,0.0 120.522931,22.498148,0.0 120.52289,22.498118,0.0 120.522869,22.498044,0.0 120.522836,22.497935,0.0 120.522818,22.497879,0.0 120.522756,22.49768,0.0 120.522761,22.497623,0.0 120.522775,22.497513,0.0 120.522852,22.497335,0.0 120.522852,22.497271,0.0 120.522825,22.497219,0.0 120.522755,22.497079,0.0 120.522693,22.496968,0.0 120.522658,22.496898,0.0 120.522631,22.496826,0.0 120.522595,22.496724,0.0 120.522579,22.496679,0.0 120.522554,22.496616,0.0 120.522511,22.496496,0.0 120.522487,22.496424,0.0 120.522468,22.496378,0.0 120.522433,22.496326,0.0 120.522403,22.496277,0.0 120.52229,22.496102,0.0 120.52226,22.496062,0.0 120.522176,22.495967,0.0 120.522138,22.495926,0.0 120.522049,22.495842,0.0 120.521973,22.49577,0.0 120.521924,22.495756,0.0 120.52187,22.49574,0.0 120.521753,22.495717,0.0 120.521478,22.495707,0.0 120.521421,22.495712,0.0 120.52129,22.495727,0.0 120.521018,22.495755,0.0 120.520967,22.495771,0.0 120.52085,22.4958,0.0 120.520662,22.495858,0.0 120.520477,22.495858,0.0 120.520393,22.495824,0.0 120.520249,22.495767,0.0 120.520087,22.495676,0.0 120.519821,22.495524,0.0 120.519747,22.495503,0.0 120.519563,22.495446,0.0 120.519296,22.495364,0.0 120.519125,22.495307,0.0 120.518976,22.495259,0.0 120.518805,22.495209,0.0 120.518688,22.495177,0.0 120.518422,22.4951,0.0 120.518357,22.495082,0.0 120.518254,22.495025,0.0 120.517964,22.49487,0.0 120.517904,22.494866,0.0 120.517841,22.494881,0.0 120.517757,22.494892,0.0 120.517648,22.494906,0.0 120.517569,22.494935,0.0 120.51752,22.49495,0.0 120.517403,22.494993,0.0 120.517272,22.495078,0.0 120.517169,22.495137,0.0 120.517071,22.495197,0.0 120.517021,22.495229,0.0 120.516776,22.49544,0.0 120.516659,22.495494,0.0 120.516487,22.49557,0.0 120.5164,22.495572,0.0 120.516346,22.495579,0.0 120.516223,22.495583,0.0 120.515944,22.495598,0.0 120.515881,22.495605,0.0 120.515765,22.495618,0.0 120.515484,22.495642,0.0 120.515435,22.49566,0.0 120.515054,22.495785,0.0 120.514945,22.495825,0.0 120.514891,22.495846,0.0 120.514632,22.495953,0.0 120.514572,22.495964,0.0 120.514515,22.49598,0.0 120.514458,22.495989,0.0 120.514433,22.495986,0.0 120.514398,22.495982,0.0 120.514328,22.495952,0.0 120.514203,22.49588,0.0 120.514113,22.495864,0.0 120.51404,22.495834,0.0 120.513908,22.495782,0.0 120.513791,22.495756,0.0 120.513717,22.495754,0.0 120.513655,22.49577,0.0 120.513592,22.49579,0.0 120.513473,22.495834,0.0 120.513326,22.495872,0.0 120.513268,22.495884,0.0 120.513217,22.495899,0.0 120.513154,22.495926,0.0 120.512904,22.49602,0.0 120.512789,22.496065,0.0 120.512724,22.496087,0.0 120.512645,22.496139,0.0 120.512598,22.496166,0.0 120.51259,22.496231,0.0 120.512587,22.496279,0.0 120.512622,22.496385,0.0 120.512643,22.496464,0.0 120.512684,22.496584,0.0 120.51273,22.49669,0.0 120.512746,22.496733,0.0 120.51277,22.49679,0.0 120.512791,22.496873,0.0 120.512767,22.496957,0.0 120.512679,22.497008,0.0 120.512628,22.497029,0.0 120.512573,22.497035,0.0 120.512443,22.497062,0.0 120.512391,22.497068,0.0 120.512239,22.497104,0.0 120.512122,22.497131,0.0 120.512064,22.49714,0.0 120.511996,22.49714,0.0 120.511852,22.49711,0.0 120.511733,22.497087,0.0 120.511657,22.497071,0.0 120.511602,22.497062,0.0 120.511541,22.497055,0.0 120.511269,22.497052,0.0 120.511204,22.497045,0.0 120.511081,22.497053,0.0 120.510853,22.497059,0.0 120.510752,22.49703,0.0 120.510635,22.496993,0.0 120.510587,22.496982,0.0 120.510397,22.496852,0.0 120.510302,22.496796,0.0 120.510242,22.496759,0.0 120.510106,22.496675,0.0 120.510013,22.496612,0.0 120.509967,22.49658,0.0 120.509915,22.496555,0.0 120.509855,22.496521,0.0 120.509774,22.496489,0.0 120.509655,22.496363,0.0 120.50965,22.496243,0.0 120.509644,22.496193,0.0 120.509738,22.495938,0.0 120.509746,22.495886,0.0 120.509747,22.495774,0.0 120.509742,22.495512,0.0 120.509745,22.495466,0.0 120.509715,22.495347,0.0 120.509642,22.4951,0.0 120.50961,22.494994,0.0 120.509597,22.49494,0.0 120.509581,22.494816,0.0 120.50956,22.494676,0.0 120.509544,22.494567,0.0 120.509536,22.494518,0.0 120.509561,22.494389,0.0 120.509605,22.494206,0.0 120.50963,22.494089,0.0 120.50966,22.493951,0.0 120.509666,22.493841,0.0 120.509678,22.49368,0.0 120.509572,22.493493,0.0 120.509529,22.493456,0.0 120.509491,22.49342,0.0 120.509352,22.493345,0.0 120.509143,22.493227,0.0 120.509094,22.493193,0.0 120.509034,22.493164,0.0 120.508964,22.493107,0.0 120.508831,22.492919,0.0 120.508821,22.492867,0.0 120.508797,22.492754,0.0 120.508794,22.492705,0.0 120.508751,22.49263,0.0</coordinates></LinearRing></outerBoundaryIs></Polygon><styleUrl>#spolygon-map</styleUrl></Placemark><Placemark><Polygon><outerBoundaryIs><LinearRing><coordinates>120.509319,22.490053,0.0 120.507787,22.490101,0.0 120.507091,22.490083,0.0 120.506932,22.490057,0.0 120.506845,22.490016,0.0 120.506686,22.489801,0.0 120.506424,22.489433,0.0 120.50634,22.489356,0.0 120.506246,22.489308,0.0 120.506138,22.48924,0.0 120.505892,22.488964,0.0 120.505379,22.488558,0.0 120.504997,22.488173,0.0 120.504051,22.487303,0.0 120.503451,22.486782,0.0 120.50265,22.486134,0.0 120.502405,22.48586,0.0 120.502503,22.485819,0.0 120.502622,22.485781,0.0 120.502774,22.485753,0.0 120.50286,22.485762,0.0 120.502977,22.485812,0.0 120.503064,22.485837,0.0 120.503232,22.485858,0.0 120.503429,22.485849,0.0 120.503626,22.485825,0.0 120.503797,22.48579,0.0 120.503873,22.485733,0.0 120.504439,22.485037,0.0 120.504663,22.484848,0.0 120.505149,22.484322,0.0 120.505371,22.48409,0.0 120.505548,22.483928,0.0 120.505966,22.483669,0.0 120.506143,22.4836,0.0 120.506252,22.483571,0.0 120.506524,22.483499,0.0 120.506624,22.483475,0.0 120.506719,22.483405,0.0 120.506823,22.483236,0.0 120.506944,22.482733,0.0 120.507002,22.482636,0.0 120.50714,22.482474,0.0 120.507242,22.482359,0.0 120.507419,22.482181,0.0 120.507425,22.4822,0.0 120.507513,22.482288,0.0 120.507804,22.482408,0.0 120.507933,22.482461,0.0 120.508001,22.482513,0.0 120.508057,22.482588,0.0 120.508104,22.482696,0.0 120.508146,22.482856,0.0 120.508192,22.48327,0.0 120.50817,22.483358,0.0 120.508109,22.483486,0.0 120.508087,22.483674,0.0 120.508044,22.483798,0.0 120.508048,22.483886,0.0 120.508073,22.483954,0.0 120.508112,22.484017,0.0 120.508206,22.484089,0.0 120.508275,22.484126,0.0 120.50833,22.484148,0.0 120.508395,22.48416,0.0 120.508674,22.484201,0.0 120.508828,22.484249,0.0 120.509072,22.484358,0.0 120.509207,22.484469,0.0 120.509616,22.484744,0.0 120.509732,22.48478,0.0 120.509856,22.484788,0.0 120.509917,22.484776,0.0 120.510015,22.484741,0.0 120.510097,22.4847,0.0 120.510205,22.484601,0.0 120.510254,22.484538,0.0 120.510374,22.484428,0.0 120.510606,22.484257,0.0 120.510746,22.484181,0.0 120.510883,22.484122,0.0 120.511067,22.484055,0.0 120.511145,22.484035,0.0 120.511232,22.484038,0.0 120.51142,22.484027,0.0 120.511796,22.484064,0.0 120.51188,22.487772,0.0 120.511916,22.488589,0.0 120.511963,22.489188,0.0 120.512,22.489623,0.0 120.512019,22.489775,0.0 120.511698,22.489772,0.0 120.511639,22.489771,0.0 120.511573,22.48976,0.0 120.511544,22.489726,0.0 120.511532,22.489663,0.0 120.51154,22.489177,0.0 120.511541,22.489134,0.0 120.51153,22.489091,0.0 120.511505,22.489064,0.0 120.511451,22.489062,0.0 120.510715,22.489044,0.0 120.509406,22.489051,0.0 120.509335,22.489058,0.0 120.509293,22.489105,0.0 120.509297,22.489274,0.0 120.509319,22.490053,0.0</coordinates></LinearRing></outerBoundaryIs></Polygon><styleUrl>#spolygon-map</styleUrl></Placemark><Placemark><Polygon><outerBoundaryIs><LinearRing><coordinates>120.504105,22.492995,0.0 120.504106,22.492991,0.0 120.504264,22.492463,0.0 120.504098,22.492248,0.0 120.503386,22.491503,0.0 120.502646,22.490767,0.0 120.502451,22.490552,0.0 120.502322,22.490404,0.0 120.502274,22.490278,0.0 120.502276,22.490163,0.0 120.502505,22.488524,0.0 120.502674,22.488094,0.0 120.502716,22.487809,0.0 120.502611,22.487567,0.0 120.502593,22.487445,0.0 120.502639,22.487292,0.0 120.50264,22.487161,0.0 120.502575,22.487032,0.0 120.502623,22.486739,0.0 120.502566,22.486596,0.0 120.502503,22.486456,0.0 120.502457,22.486402,0.0 120.50241,22.486309,0.0 120.502431,22.48616,0.0 120.502327,22.485916,0.0 120.502405,22.48586,0.0 120.50265,22.486134,0.0 120.503451,22.486782,0.0 120.504051,22.487303,0.0 120.504997,22.488173,0.0 120.505379,22.488558,0.0 120.505892,22.488964,0.0 120.506138,22.48924,0.0 120.506246,22.489308,0.0 120.50634,22.489356,0.0 120.506424,22.489433,0.0 120.506686,22.489801,0.0 120.506845,22.490016,0.0 120.506932,22.490057,0.0 120.507091,22.490083,0.0 120.507787,22.490101,0.0 120.509319,22.490053,0.0 120.509579,22.490061,0.0 120.509596,22.490074,0.0 120.509619,22.490099,0.0 120.509619,22.490129,0.0 120.509566,22.490293,0.0 120.509481,22.490501,0.0 120.50944,22.490555,0.0 120.509394,22.490616,0.0 120.509334,22.490699,0.0 120.50896,22.49114,0.0 120.508665,22.491458,0.0 120.508437,22.491685,0.0 120.508423,22.4917,0.0 120.508354,22.491631,0.0 120.508316,22.491599,0.0 120.508165,22.491531,0.0 120.508037,22.491533,0.0 120.50787,22.491559,0.0 120.507695,22.491577,0.0 120.507505,22.491597,0.0 120.507303,22.491619,0.0 120.507125,22.491643,0.0 120.507006,22.491656,0.0 120.506923,22.491676,0.0 120.50686,22.491712,0.0 120.506693,22.491795,0.0 120.506574,22.491849,0.0 120.506312,22.491984,0.0 120.506161,22.492033,0.0 120.506112,22.492051,0.0 120.505974,22.492141,0.0 120.505844,22.49223,0.0 120.505758,22.492305,0.0 120.505622,22.492442,0.0 120.50543,22.492597,0.0 120.505304,22.492631,0.0 120.50523,22.492655,0.0 120.505005,22.492711,0.0 120.504776,22.492765,0.0 120.504555,22.492807,0.0 120.504421,22.49284,0.0 120.504328,22.492887,0.0 120.504177,22.492966,0.0 120.504105,22.492995,0.0</coordinates></LinearRing></outerBoundaryIs></Polygon><styleUrl>#spolygon-map</styleUrl></Placemark><Placemark><Polygon><outerBoundaryIs><LinearRing><coordinates>120.511796,22.484064,0.0 120.51142,22.484027,0.0 120.511232,22.484038,0.0 120.511145,22.484035,0.0 120.511067,22.484055,0.0 120.510883,22.484122,0.0 120.510746,22.484181,0.0 120.510606,22.484257,0.0 120.510374,22.484428,0.0 120.510254,22.484538,0.0 120.510205,22.484601,0.0 120.510097,22.4847,0.0 120.510015,22.484741,0.0 120.509917,22.484776,0.0 120.509856,22.484788,0.0 120.509732,22.48478,0.0 120.509616,22.484744,0.0 120.509207,22.484469,0.0 120.509072,22.484358,0.0 120.508828,22.484249,0.0 120.508674,22.484201,0.0 120.508395,22.48416,0.0 120.50833,22.484148,0.0 120.508275,22.484126,0.0 120.508206,22.484089,0.0 120.508112,22.484017,0.0 120.508073,22.483954,0.0 120.508048,22.483886,0.0 120.508044,22.483798,0.0 120.508087,22.483674,0.0 120.508109,22.483486,0.0 120.50817,22.483358,0.0 120.508192,22.48327,0.0 120.508146,22.482856,0.0 120.508104,22.482696,0.0 120.508057,22.482588,0.0 120.508001,22.482513,0.0 120.507933,22.482461,0.0 120.507804,22.482408,0.0 120.507513,22.482288,0.0 120.507425,22.4822,0.0 120.507419,22.482181,0.0 120.507408,22.482148,0.0 120.507421,22.481908,0.0 120.507438,22.481816,0.0 120.507452,22.481737,0.0 120.507513,22.481541,0.0 120.507531,22.481412,0.0 120.507509,22.481066,0.0 120.506879,22.481049,0.0 120.506856,22.481001,0.0 120.506909,22.480532,0.0 120.506881,22.480489,0.0 120.506743,22.480472,0.0 120.50724,22.478377,0.0 120.507236,22.478345,0.0 120.507214,22.478315,0.0 120.507178,22.478302,0.0 120.506246,22.478202,0.0 120.506208,22.478179,0.0 120.506201,22.478148,0.0 120.506201,22.4781,0.0 120.50621,22.477766,0.0 120.506221,22.477642,0.0 120.506208,22.477592,0.0 120.506159,22.477536,0.0 120.506108,22.477522,0.0 120.505244,22.477506,0.0 120.504225,22.477507,0.0 120.503601,22.477539,0.0 120.502584,22.477554,0.0 120.502387,22.477562,0.0 120.502256,22.477566,0.0 120.502146,22.477582,0.0 120.502032,22.47762,0.0 120.501903,22.477676,0.0 120.501822,22.477728,0.0 120.501754,22.477791,0.0 120.50166,22.477928,0.0 120.501604,22.478045,0.0 120.501582,22.478136,0.0 120.501566,22.478289,0.0 120.501555,22.478321,0.0 120.501531,22.478336,0.0 120.501491,22.47835,0.0 120.50139,22.478359,0.0 120.501122,22.478333,0.0 120.500965,22.47833,0.0 120.50083,22.47833,0.0 120.500749,22.478323,0.0 120.500493,22.478216,0.0 120.500399,22.478191,0.0 120.499145,22.47813,0.0 120.498612,22.478081,0.0 120.498176,22.478062,0.0 120.498135,22.478053,0.0 120.498124,22.478032,0.0 120.498121,22.478012,0.0 120.498119,22.477962,0.0 120.498128,22.477917,0.0 120.498149,22.477847,0.0 120.498173,22.477786,0.0 120.498442,22.477329,0.0 120.498454,22.477254,0.0 120.498452,22.476807,0.0 120.498463,22.476717,0.0 120.498642,22.476126,0.0 120.498678,22.47597,0.0 120.498698,22.475844,0.0 120.498711,22.475776,0.0 120.498744,22.475783,0.0 120.49882,22.475795,0.0 120.498837,22.475668,0.0 120.498864,22.475472,0.0 120.498896,22.475305,0.0 120.498925,22.475111,0.0 120.498949,22.474955,0.0 120.498981,22.474748,0.0 120.499022,22.47438,0.0 120.499562,22.474409,0.0 120.499778,22.474405,0.0 120.499863,22.474382,0.0 120.499913,22.474317,0.0 120.500023,22.474171,0.0 120.500092,22.474099,0.0 120.500135,22.474072,0.0 120.500234,22.474063,0.0 120.500395,22.474063,0.0 120.500551,22.47408,0.0 120.500636,22.474075,0.0 120.50078,22.474035,0.0 120.500916,22.473972,0.0 120.501093,22.473926,0.0 120.501138,22.473903,0.0 120.501247,22.473838,0.0 120.501362,22.473744,0.0 120.501332,22.473676,0.0 120.50129,22.473538,0.0 120.501259,22.473438,0.0 120.50125,22.473353,0.0 120.501243,22.47328,0.0 120.501244,22.47321,0.0 120.501244,22.473066,0.0 120.501248,22.472944,0.0 120.501264,22.472811,0.0 120.501261,22.472723,0.0 120.50123,22.472565,0.0 120.501231,22.472436,0.0 120.501239,22.472282,0.0 120.501259,22.472041,0.0 120.501277,22.471849,0.0 120.50128,22.471741,0.0 120.501244,22.471551,0.0 120.50121,22.4714,0.0 120.501142,22.471212,0.0 120.501093,22.471061,0.0 120.501039,22.470963,0.0 120.500967,22.470828,0.0 120.500894,22.470681,0.0 120.500846,22.470561,0.0 120.500823,22.470488,0.0 120.500797,22.470373,0.0 120.500682,22.470152,0.0 120.50058,22.469986,0.0 120.500536,22.469903,0.0 120.500515,22.469844,0.0 120.500485,22.469769,0.0 120.500482,22.469544,0.0 120.50049,22.469302,0.0 120.500489,22.469119,0.0 120.50049,22.468889,0.0 120.500486,22.468753,0.0 120.500481,22.468532,0.0 120.500483,22.468464,0.0 120.50053,22.468406,0.0 120.500674,22.468316,0.0 120.500724,22.468298,0.0 120.500875,22.468285,0.0 120.501104,22.468265,0.0 120.501196,22.46825,0.0 120.501256,22.468234,0.0 120.501341,22.46821,0.0 120.501399,22.468172,0.0 120.501436,22.468104,0.0 120.501465,22.468034,0.0 120.50151,22.467844,0.0 120.501512,22.46775,0.0 120.501512,22.467673,0.0 120.501523,22.467526,0.0 120.501535,22.467391,0.0 120.501552,22.467267,0.0 120.50158,22.467039,0.0 120.5016,22.466973,0.0 120.501619,22.466899,0.0 120.501633,22.466793,0.0 120.501689,22.46675,0.0 120.501806,22.466768,0.0 120.501908,22.466787,0.0 120.50192,22.466719,0.0 120.501942,22.466588,0.0 120.501965,22.466448,0.0 120.501985,22.466236,0.0 120.502008,22.465965,0.0 120.502018,22.465801,0.0 120.502027,22.465552,0.0 120.502023,22.465439,0.0 120.501983,22.465399,0.0 120.501815,22.465396,0.0 120.501657,22.465393,0.0 120.501598,22.465375,0.0 120.501526,22.465332,0.0 120.501523,22.46521,0.0 120.501535,22.465054,0.0 120.501565,22.464837,0.0 120.501593,22.464598,0.0 120.501625,22.46432,0.0 120.501644,22.464115,0.0 120.50166,22.463973,0.0 120.50167,22.463869,0.0 120.501677,22.463747,0.0 120.501693,22.463512,0.0 120.501711,22.463242,0.0 120.501725,22.463032,0.0 120.501709,22.462883,0.0 120.501703,22.462783,0.0 120.50169,22.462668,0.0 120.501629,22.462607,0.0 120.501567,22.462564,0.0 120.50157,22.462379,0.0 120.501572,22.462268,0.0 120.50159,22.462126,0.0 120.501592,22.461988,0.0 120.501599,22.461866,0.0 120.501607,22.461638,0.0 120.501619,22.461482,0.0 120.501638,22.461191,0.0 120.50165,22.461011,0.0 120.501656,22.460902,0.0 120.501662,22.460762,0.0 120.501671,22.460577,0.0 120.501673,22.460467,0.0 120.50181,22.460424,0.0 120.501851,22.46032,0.0 120.501899,22.460219,0.0 120.501944,22.460151,0.0 120.502043,22.4601,0.0 120.502225,22.460037,0.0 120.502347,22.460001,0.0 120.502564,22.459973,0.0 120.502693,22.459962,0.0 120.502803,22.459958,0.0 120.50297,22.459956,0.0 120.503135,22.459956,0.0 120.503357,22.459964,0.0 120.50346,22.459982,0.0 120.503552,22.459996,0.0 120.503655,22.460008,0.0 120.503844,22.460035,0.0 120.504035,22.460063,0.0 120.50425,22.460093,0.0 120.504353,22.460114,0.0 120.5045,22.460141,0.0 120.504676,22.460176,0.0 120.50477,22.460198,0.0 120.504956,22.460289,0.0 120.505059,22.460337,0.0 120.50524,22.460401,0.0 120.505409,22.460462,0.0 120.505539,22.460521,0.0 120.505691,22.460583,0.0 120.505738,22.460608,0.0 120.505889,22.460651,0.0 120.506035,22.460692,0.0 120.506132,22.460702,0.0 120.506274,22.4607,0.0 120.506428,22.460687,0.0 120.506621,22.460658,0.0 120.506724,22.460642,0.0 120.506847,22.460636,0.0 120.506991,22.460643,0.0 120.507199,22.460687,0.0 120.507423,22.460742,0.0 120.507591,22.460783,0.0 120.507687,22.460806,0.0 120.507797,22.460847,0.0 120.507919,22.46091,0.0 120.508035,22.460999,0.0 120.50808,22.461024,0.0 120.50813,22.461021,0.0 120.508199,22.460979,0.0 120.508231,22.461034,0.0 120.508246,22.461065,0.0 120.508262,22.461155,0.0 120.508338,22.461388,0.0 120.508371,22.461501,0.0 120.508394,22.461539,0.0 120.508438,22.461589,0.0 120.508525,22.461657,0.0 120.508698,22.461725,0.0 120.508779,22.461741,0.0 120.508862,22.461757,0.0 120.509025,22.461753,0.0 120.509121,22.461756,0.0 120.509191,22.461774,0.0 120.509223,22.461795,0.0 120.509275,22.461906,0.0 120.509318,22.462073,0.0 120.509312,22.46221,0.0 120.5093,22.46228,0.0 120.509264,22.462323,0.0 120.509163,22.462397,0.0 120.50911,22.462483,0.0 120.509095,22.46263,0.0 120.509085,22.462738,0.0 120.509112,22.462901,0.0 120.509185,22.463061,0.0 120.509272,22.463159,0.0 120.509372,22.463267,0.0 120.509544,22.463532,0.0 120.509583,22.463658,0.0 120.509611,22.463832,0.0 120.509649,22.463923,0.0 120.509706,22.463979,0.0 120.509774,22.464034,0.0 120.509851,22.464093,0.0 120.509932,22.464138,0.0 120.510053,22.46419,0.0 120.510389,22.464304,0.0 120.510508,22.464361,0.0 120.510553,22.464413,0.0 120.510735,22.464723,0.0 120.510859,22.464884,0.0 120.510933,22.464945,0.0 120.511047,22.464995,0.0 120.511292,22.4651,0.0 120.511307,22.465118,0.0 120.511326,22.465167,0.0 120.511373,22.465378,0.0 120.511395,22.465445,0.0 120.511424,22.465477,0.0 120.511498,22.465513,0.0 120.511613,22.465557,0.0 120.511673,22.46562,0.0 120.511696,22.46567,0.0 120.511711,22.465724,0.0 120.511714,22.465778,0.0 120.511725,22.465844,0.0 120.511767,22.465914,0.0 120.511809,22.465957,0.0 120.511921,22.466027,0.0 120.512036,22.466086,0.0 120.512157,22.466163,0.0 120.512259,22.466209,0.0 120.51231,22.466211,0.0 120.51234,22.466198,0.0 120.512359,22.466175,0.0 120.512505,22.466002,0.0 120.512529,22.465988,0.0 120.512581,22.465982,0.0 120.512621,22.465984,0.0 120.512663,22.466005,0.0 120.512693,22.466036,0.0 120.51272,22.466079,0.0 120.512782,22.466217,0.0 120.512853,22.466335,0.0 120.512881,22.466371,0.0 120.512913,22.466398,0.0 120.512964,22.466419,0.0 120.513128,22.466489,0.0 120.513184,22.466512,0.0 120.513228,22.46655,0.0 120.513258,22.466598,0.0 120.513286,22.466837,0.0 120.513323,22.466977,0.0 120.51335,22.467029,0.0 120.513428,22.467102,0.0 120.513467,22.467149,0.0 120.5135,22.46722,0.0 120.513524,22.467339,0.0 120.51352,22.467646,0.0 120.513539,22.467734,0.0 120.513555,22.467789,0.0 120.513584,22.467838,0.0 120.513606,22.467881,0.0 120.513643,22.467915,0.0 120.513732,22.467968,0.0 120.513907,22.468045,0.0 120.514178,22.468179,0.0 120.514229,22.468217,0.0 120.514261,22.468258,0.0 120.514355,22.468426,0.0 120.514478,22.468679,0.0 120.514569,22.468842,0.0 120.514717,22.469036,0.0 120.514773,22.469086,0.0 120.514897,22.469161,0.0 120.515077,22.469225,0.0 120.515168,22.46925,0.0 120.515233,22.469277,0.0 120.515268,22.469311,0.0 120.51537,22.469417,0.0 120.515585,22.469619,0.0 120.515737,22.469854,0.0 120.515796,22.470026,0.0 120.51583,22.470191,0.0 120.515862,22.470263,0.0 120.515916,22.470349,0.0 120.515955,22.470517,0.0 120.515964,22.470607,0.0 120.515966,22.470686,0.0 120.515957,22.470939,0.0 120.515969,22.471411,0.0 120.515966,22.471496,0.0 120.515928,22.47163,0.0 120.515868,22.471722,0.0 120.515789,22.471792,0.0 120.515639,22.471906,0.0 120.515485,22.472055,0.0 120.51542,22.472141,0.0 120.515382,22.472237,0.0 120.515351,22.4724,0.0 120.515337,22.472581,0.0 120.515366,22.472922,0.0 120.515404,22.473186,0.0 120.515408,22.473242,0.0 120.515402,22.473299,0.0 120.51538,22.4734,0.0 120.515352,22.473619,0.0 120.515315,22.473773,0.0 120.515306,22.473802,0.0 120.515217,22.474039,0.0 120.515192,22.474104,0.0 120.515181,22.474224,0.0 120.51518,22.474348,0.0 120.515212,22.474474,0.0 120.51527,22.47461,0.0 120.515316,22.474687,0.0 120.515392,22.474775,0.0 120.515443,22.474805,0.0 120.515631,22.474873,0.0 120.515938,22.474985,0.0 120.516098,22.475073,0.0 120.516243,22.475173,0.0 120.516547,22.475339,0.0 120.516611,22.475375,0.0 120.516674,22.475456,0.0 120.516815,22.47566,0.0 120.516896,22.475771,0.0 120.516914,22.475839,0.0 120.516914,22.475965,0.0 120.516924,22.476001,0.0 120.516975,22.476035,0.0 120.517036,22.476049,0.0 120.517186,22.476083,0.0 120.517423,22.476141,0.0 120.517673,22.476153,0.0 120.51795,22.476151,0.0 120.518092,22.476167,0.0 120.518196,22.476206,0.0 120.518274,22.476256,0.0 120.518342,22.476313,0.0 120.518407,22.476394,0.0 120.518456,22.476509,0.0 120.518509,22.476656,0.0 120.518554,22.476767,0.0 120.518603,22.476828,0.0 120.518667,22.476883,0.0 120.518724,22.476926,0.0 120.518799,22.476964,0.0 120.518875,22.476987,0.0 120.518966,22.476994,0.0 120.519057,22.47699,0.0 120.519167,22.47695,0.0 120.518502,22.477756,0.0 120.518071,22.478272,0.0 120.517859,22.478436,0.0 120.517559,22.478487,0.0 120.517274,22.478527,0.0 120.517023,22.478456,0.0 120.516843,22.478306,0.0 120.516769,22.478076,0.0 120.516712,22.478064,0.0 120.515826,22.478789,0.0 120.5157,22.479204,0.0 120.51547,22.479828,0.0 120.515431,22.47993,0.0 120.515289,22.480056,0.0 120.514562,22.480602,0.0 120.513902,22.480995,0.0 120.511749,22.481802,0.0 120.511796,22.484064,0.0</coordinates></LinearRing></outerBoundaryIs></Polygon><styleUrl>#spolygon-map</styleUrl></Placemark><Placemark><Polygon><outerBoundaryIs><LinearRing><coordinates>120.52304,22.49838,0.0 120.523061,22.498376,0.0 120.523189,22.498347,0.0 120.52336,22.498223,0.0 120.523496,22.498079,0.0 120.523582,22.497795,0.0 120.523683,22.496258,0.0 120.523709,22.495459,0.0 120.523742,22.494856,0.0 120.523681,22.494784,0.0 120.523724,22.494402,0.0 120.523746,22.493774,0.0 120.523836,22.491713,0.0 120.523891,22.490544,0.0 120.523929,22.489851,0.0 120.523932,22.489822,0.0 120.523943,22.489808,0.0 120.523981,22.489797,0.0 120.524005,22.489795,0.0 120.526082,22.489812,0.0 120.526101,22.489812,0.0 120.526127,22.489801,0.0 120.526131,22.489788,0.0 120.52611,22.489268,0.0 120.526061,22.489024,0.0 120.525983,22.488697,0.0 120.525902,22.488421,0.0 120.525816,22.48815,0.0 120.525776,22.487987,0.0 120.525751,22.487596,0.0 120.525855,22.487238,0.0 120.525879,22.487111,0.0 120.525891,22.486962,0.0 120.5259,22.486834,0.0 120.52594,22.486748,0.0 120.525969,22.486479,0.0 120.526022,22.486391,0.0 120.526135,22.486311,0.0 120.526453,22.486124,0.0 120.526759,22.485886,0.0 120.526923,22.485798,0.0 120.527335,22.485691,0.0 120.527626,22.485617,0.0 120.527706,22.485457,0.0 120.527857,22.48539,0.0 120.528513,22.485297,0.0 120.528611,22.485272,0.0 120.528682,22.485228,0.0 120.528716,22.485178,0.0 120.528715,22.485092,0.0 120.528676,22.484458,0.0 120.528673,22.484171,0.0 120.528682,22.48404,0.0 120.52871,22.483776,0.0 120.528734,22.483616,0.0 120.528704,22.483308,0.0 120.528681,22.483071,0.0 120.528633,22.482952,0.0 120.528624,22.482895,0.0 120.528608,22.482834,0.0 120.528592,22.482764,0.0 120.528454,22.482725,0.0 120.5276,22.482404,0.0 120.529331,22.481025,0.0 120.529722,22.480706,0.0 120.529912,22.48058,0.0 120.53003,22.480486,0.0 120.53092,22.479784,0.0 120.530969,22.479865,0.0 120.53106,22.479947,0.0 120.531137,22.479985,0.0 120.531213,22.480004,0.0 120.531358,22.480004,0.0 120.531679,22.479955,0.0 120.531878,22.479906,0.0 120.532358,22.479831,0.0 120.532677,22.479775,0.0 120.532722,22.479762,0.0 120.532754,22.479735,0.0 120.532768,22.479672,0.0 120.532768,22.479554,0.0 120.53278,22.479464,0.0 120.532815,22.479372,0.0 120.532897,22.479227,0.0 120.53299,22.479101,0.0 120.533034,22.479034,0.0 120.533077,22.478937,0.0 120.533117,22.47888,0.0 120.533164,22.478833,0.0 120.533299,22.478743,0.0 120.533377,22.478671,0.0 120.533514,22.478599,0.0 120.533687,22.478527,0.0 120.533842,22.47849,0.0 120.533955,22.478474,0.0 120.534411,22.478581,0.0 120.534547,22.478641,0.0 120.534597,22.478713,0.0 120.534624,22.478864,0.0 120.534646,22.47898,0.0 120.534678,22.479018,0.0 120.534764,22.479061,0.0 120.534951,22.479091,0.0 120.535174,22.479159,0.0 120.535415,22.479259,0.0 120.535638,22.479321,0.0 120.536179,22.479492,0.0 120.536634,22.479581,0.0 120.537002,22.479625,0.0 120.537091,22.479637,0.0 120.537162,22.479621,0.0 120.537271,22.479545,0.0 120.537428,22.479414,0.0 120.537541,22.479322,0.0 120.5376,22.47927,0.0 120.537628,22.4792,0.0 120.537655,22.478896,0.0 120.537679,22.478828,0.0 120.537715,22.478767,0.0 120.537844,22.47863,0.0 120.537966,22.478404,0.0 120.53816,22.478093,0.0 120.538214,22.478003,0.0 120.538265,22.477947,0.0 120.538438,22.477868,0.0 120.538521,22.477848,0.0 120.538725,22.477758,0.0 120.539438,22.477546,0.0 120.539587,22.477495,0.0 120.5397,22.477493,0.0 120.540372,22.477461,0.0 120.54057,22.477491,0.0 120.540634,22.477516,0.0 120.540689,22.477574,0.0 120.540715,22.477613,0.0 120.54082,22.477773,0.0 120.540855,22.477833,0.0 120.540846,22.477839,0.0 120.540816,22.477884,0.0 120.540813,22.477941,0.0 120.540856,22.47799,0.0 120.54092,22.478074,0.0 120.540928,22.478121,0.0 120.540947,22.478216,0.0 120.540979,22.478275,0.0 120.541002,22.478318,0.0 120.541022,22.478381,0.0 120.541113,22.478623,0.0 120.541153,22.478727,0.0 120.541173,22.47879,0.0 120.54124,22.47903,0.0 120.541255,22.479084,0.0 120.541274,22.479136,0.0 120.541299,22.479222,0.0 120.541354,22.479369,0.0 120.541369,22.479446,0.0 120.541382,22.479493,0.0 120.541395,22.479547,0.0 120.541418,22.479611,0.0 120.541448,22.479661,0.0 120.541505,22.479853,0.0 120.541526,22.479909,0.0 120.541541,22.479959,0.0 120.541541,22.48002,0.0 120.541545,22.480223,0.0 120.541491,22.480385,0.0 120.541475,22.480435,0.0 120.541467,22.480485,0.0 120.541501,22.480568,0.0 120.541605,22.480645,0.0 120.541667,22.480659,0.0 120.541718,22.480675,0.0 120.541759,22.480723,0.0 120.541945,22.48092,0.0 120.542022,22.481001,0.0 120.542062,22.481046,0.0 120.54223,22.481252,0.0 120.542273,22.4813,0.0 120.542324,22.481408,0.0 120.542441,22.481632,0.0 120.542494,22.481734,0.0 120.542524,22.481784,0.0 120.542554,22.481849,0.0 120.542643,22.481915,0.0 120.54272,22.48194,0.0 120.542842,22.481974,0.0 120.543058,22.482038,0.0 120.543085,22.482142,0.0 120.543102,22.482198,0.0 120.543205,22.482262,0.0 120.543429,22.482414,0.0 120.54348,22.482448,0.0 120.543583,22.482511,0.0 120.543798,22.482668,0.0 120.543851,22.482709,0.0 120.543896,22.48274,0.0 120.543958,22.482763,0.0 120.544137,22.482834,0.0 120.544193,22.482886,0.0 120.544214,22.482944,0.0 120.544233,22.482994,0.0 120.544256,22.483046,0.0 120.544313,22.483211,0.0 120.54433,22.483408,0.0 120.544338,22.483464,0.0 120.544359,22.483724,0.0 120.544357,22.483839,0.0 120.544348,22.483891,0.0 120.544364,22.484144,0.0 120.544389,22.48425,0.0 120.544432,22.484306,0.0 120.544532,22.48442,0.0 120.544624,22.484494,0.0 120.54466,22.484537,0.0 120.544728,22.484669,0.0 120.54482,22.484716,0.0 120.544826,22.484786,0.0 120.544826,22.48489,0.0 120.544837,22.484953,0.0 120.544849,22.485021,0.0 120.544895,22.485265,0.0 120.544908,22.485313,0.0 120.54491,22.485367,0.0 120.544919,22.48543,0.0 120.544948,22.485532,0.0 120.544967,22.485627,0.0 120.545035,22.485724,0.0 120.545104,22.485826,0.0 120.545214,22.485993,0.0 120.545244,22.486031,0.0 120.545289,22.486079,0.0 120.545323,22.486124,0.0 120.545368,22.486174,0.0 120.545561,22.486355,0.0 120.5456,22.486391,0.0 120.545662,22.486423,0.0 120.545792,22.486494,0.0 120.545985,22.486667,0.0 120.546008,22.486688,0.0 120.546108,22.48679,0.0 120.546258,22.48691,0.0 120.546362,22.486974,0.0 120.546418,22.487026,0.0 120.546421,22.487267,0.0 120.546423,22.48738,0.0 120.546423,22.487435,0.0 120.546422,22.487706,0.0 120.546424,22.487807,0.0 120.546417,22.487868,0.0 120.54641,22.487976,0.0 120.546391,22.488058,0.0 120.546354,22.488112,0.0 120.546256,22.488179,0.0 120.546187,22.488224,0.0 120.546095,22.488251,0.0 120.545999,22.488262,0.0 120.545866,22.488397,0.0 120.545857,22.488442,0.0 120.545894,22.4887,0.0 120.545903,22.488804,0.0 120.545998,22.488912,0.0 120.546058,22.488935,0.0 120.546094,22.489007,0.0 120.54622,22.489107,0.0 120.546254,22.489209,0.0 120.546271,22.489414,0.0 120.546204,22.489437,0.0 120.546151,22.489443,0.0 120.54596,22.489445,0.0 120.545766,22.489503,0.0 120.545701,22.489521,0.0 120.545635,22.489534,0.0 120.545539,22.489536,0.0 120.545462,22.489532,0.0 120.545338,22.489502,0.0 120.545242,22.489475,0.0 120.54512,22.489447,0.0 120.545035,22.489458,0.0 120.544923,22.489505,0.0 120.54481,22.489566,0.0 120.544435,22.489802,0.0 120.544146,22.489982,0.0 120.54379,22.490186,0.0 120.543649,22.490267,0.0 120.543364,22.490433,0.0 120.543263,22.490496,0.0 120.542977,22.490665,0.0 120.542868,22.490721,0.0 120.542808,22.490746,0.0 120.542566,22.490865,0.0 120.542461,22.490914,0.0 120.542407,22.490936,0.0 120.542155,22.491046,0.0 120.542041,22.491093,0.0 120.541979,22.491118,0.0 120.541724,22.491199,0.0 120.54166,22.491216,0.0 120.541606,22.49125,0.0 120.541557,22.491279,0.0 120.541347,22.491441,0.0 120.541296,22.491471,0.0 120.541206,22.491545,0.0 120.541146,22.491597,0.0 120.541013,22.491736,0.0 120.540966,22.491783,0.0 120.540874,22.491858,0.0 120.540672,22.492024,0.0 120.540586,22.492096,0.0 120.5405,22.492161,0.0 120.540348,22.492328,0.0 120.540224,22.492472,0.0 120.540131,22.492569,0.0 120.540046,22.492646,0.0 120.539965,22.492729,0.0 120.53992,22.492767,0.0 120.539736,22.492954,0.0 120.539688,22.492999,0.0 120.539637,22.493035,0.0 120.539586,22.493066,0.0 120.539515,22.493116,0.0 120.539463,22.493211,0.0 120.539544,22.493283,0.0 120.539518,22.493339,0.0 120.539374,22.493626,0.0 120.539348,22.493678,0.0 120.539286,22.493802,0.0 120.539221,22.493932,0.0 120.539159,22.493986,0.0 120.539071,22.494065,0.0 120.539017,22.49413,0.0 120.538949,22.494216,0.0 120.538869,22.49432,0.0 120.538807,22.494421,0.0 120.538766,22.494477,0.0 120.538714,22.494552,0.0 120.538657,22.494606,0.0 120.538595,22.494642,0.0 120.538532,22.494682,0.0 120.53847,22.4947,0.0 120.538405,22.49472,0.0 120.538249,22.494763,0.0 120.538157,22.494823,0.0 120.538071,22.494893,0.0 120.538024,22.494938,0.0 120.537935,22.495164,0.0 120.537892,22.495285,0.0 120.537836,22.495294,0.0 120.537558,22.495287,0.0 120.537503,22.495296,0.0 120.537105,22.495276,0.0 120.537041,22.495276,0.0 120.536975,22.495274,0.0 120.536919,22.495269,0.0 120.536643,22.495259,0.0 120.536522,22.495257,0.0 120.536153,22.495242,0.0 120.536148,22.495335,0.0 120.536134,22.495653,0.0 120.536132,22.495813,0.0 120.53612,22.49608,0.0 120.536119,22.496238,0.0 120.536118,22.496617,0.0 120.536116,22.496678,0.0 120.53611,22.497044,0.0 120.536104,22.497102,0.0 120.536096,22.497355,0.0 120.536091,22.497567,0.0 120.536084,22.497789,0.0 120.536082,22.497899,0.0 120.536079,22.49796,0.0 120.536071,22.498213,0.0 120.536061,22.498312,0.0 120.536053,22.498378,0.0 120.536048,22.498448,0.0 120.535973,22.498481,0.0 120.535842,22.498476,0.0 120.535698,22.498469,0.0 120.535635,22.498462,0.0 120.535506,22.498458,0.0 120.535259,22.498443,0.0 120.53517,22.498434,0.0 120.534777,22.498417,0.0 120.534709,22.498412,0.0 120.534586,22.498405,0.0 120.534314,22.498398,0.0 120.534252,22.498391,0.0 120.534199,22.498395,0.0 120.534132,22.498388,0.0 120.533851,22.498378,0.0 120.533788,22.498376,0.0 120.533671,22.498371,0.0 120.533389,22.498363,0.0 120.533331,22.498359,0.0 120.533266,22.498356,0.0 120.533036,22.498351,0.0 120.53291,22.498339,0.0 120.532792,22.498339,0.0 120.53271,22.49834,0.0 120.532674,22.498341,0.0 120.532606,22.498339,0.0 120.532328,22.498331,0.0 120.532213,22.498333,0.0 120.53187,22.498323,0.0 120.531747,22.49832,0.0 120.531414,22.49831,0.0 120.531291,22.498305,0.0 120.531226,22.498303,0.0 120.530953,22.498298,0.0 120.530888,22.498293,0.0 120.530769,22.498293,0.0 120.530713,22.498295,0.0 120.530683,22.498333,0.0 120.530684,22.498398,0.0 120.530685,22.498486,0.0 120.530698,22.498538,0.0 120.530698,22.498599,0.0 120.530688,22.498649,0.0 120.530676,22.498775,0.0 120.530675,22.498915,0.0 120.530675,22.499033,0.0 120.530667,22.499085,0.0 120.530664,22.499342,0.0 120.530659,22.49946,0.0 120.530651,22.499518,0.0 120.530655,22.499778,0.0 120.530653,22.499888,0.0 120.530644,22.500207,0.0 120.530641,22.500317,0.0 120.530636,22.500374,0.0 120.530631,22.500631,0.0 120.53063,22.500744,0.0 120.530625,22.500794,0.0 120.53062,22.50106,0.0 120.530614,22.501175,0.0 120.530613,22.501489,0.0 120.530618,22.501602,0.0 120.530618,22.501652,0.0 120.530567,22.501724,0.0 120.530504,22.501753,0.0 120.530402,22.501793,0.0 120.530335,22.501813,0.0 120.530284,22.501829,0.0 120.53022,22.501845,0.0 120.530118,22.501865,0.0 120.530005,22.501887,0.0 120.529942,22.501896,0.0 120.52986,22.501902,0.0 120.529766,22.501909,0.0 120.529636,22.501904,0.0 120.529488,22.501904,0.0 120.529377,22.501892,0.0 120.529303,22.501885,0.0 120.52917,22.50188,0.0 120.529032,22.501866,0.0 120.528972,22.501857,0.0 120.528919,22.501839,0.0 120.528861,22.501825,0.0 120.528697,22.501813,0.0 120.528576,22.50182,0.0 120.52853,22.501835,0.0 120.528475,22.501867,0.0 120.528434,22.5019,0.0 120.528376,22.50195,0.0 120.528342,22.501993,0.0 120.528318,22.502049,0.0 120.528262,22.502108,0.0 120.528212,22.502123,0.0 120.528144,22.502125,0.0 120.528084,22.502127,0.0 120.527973,22.502129,0.0 120.5279,22.502138,0.0 120.527813,22.502161,0.0 120.527753,22.502183,0.0 120.527704,22.502217,0.0 120.527668,22.502255,0.0 120.527612,22.502327,0.0 120.527561,22.50239,0.0 120.527534,22.50248,0.0 120.527505,22.502586,0.0 120.527493,22.50265,0.0 120.527456,22.502762,0.0 120.527437,22.502805,0.0 120.527388,22.502886,0.0 120.527354,22.502931,0.0 120.527291,22.503033,0.0 120.527159,22.50315,0.0 120.527084,22.503197,0.0 120.527022,22.503222,0.0 120.526966,22.50324,0.0 120.526903,22.503262,0.0 120.526741,22.50332,0.0 120.526669,22.503379,0.0 120.526613,22.503412,0.0 120.526562,22.503444,0.0 120.526514,22.503468,0.0 120.526463,22.503493,0.0 120.526395,22.503504,0.0 120.526304,22.503479,0.0 120.526253,22.503447,0.0 120.526119,22.503345,0.0 120.526054,22.503286,0.0 120.525991,22.503214,0.0 120.525919,22.503164,0.0 120.525859,22.503135,0.0 120.525796,22.503119,0.0 120.525738,22.503103,0.0 120.525663,22.503087,0.0 120.525557,22.503084,0.0 120.525489,22.503102,0.0 120.525424,22.50314,0.0 120.525373,22.503176,0.0 120.525335,22.503214,0.0 120.525281,22.503293,0.0 120.525252,22.503352,0.0 120.525218,22.503386,0.0 120.525168,22.503422,0.0 120.525107,22.503435,0.0 120.525033,22.503428,0.0 120.524977,22.503414,0.0 120.524873,22.503367,0.0 120.524739,22.503294,0.0 120.524685,22.503278,0.0 120.524628,22.503269,0.0 120.524567,22.503262,0.0 120.524488,22.503259,0.0 120.524437,22.503246,0.0 120.524309,22.503196,0.0 120.524239,22.503182,0.0 120.524186,22.503166,0.0 120.524108,22.503136,0.0 120.523925,22.503052,0.0 120.523817,22.503,0.0 120.523764,22.502979,0.0 120.523703,22.502952,0.0 120.523581,22.502864,0.0 120.523482,22.502793,0.0 120.523395,22.502723,0.0 120.523352,22.50268,0.0 120.523261,22.502529,0.0 120.523249,22.502445,0.0 120.523247,22.50233,0.0 120.523254,22.502274,0.0 120.523264,22.502158,0.0 120.523262,22.502018,0.0 120.523263,22.501901,0.0 120.523273,22.501842,0.0 120.523275,22.501793,0.0 120.52329,22.501707,0.0 120.523315,22.501639,0.0 120.523341,22.501581,0.0 120.523383,22.501481,0.0 120.523402,22.501432,0.0 120.523419,22.50138,0.0 120.523424,22.501294,0.0 120.523422,22.501247,0.0 120.523408,22.501181,0.0 120.523394,22.50112,0.0 120.523374,22.50107,0.0 120.52335,22.501012,0.0 120.523293,22.50091,0.0 120.523218,22.500795,0.0 120.523197,22.500738,0.0 120.52317,22.500688,0.0 120.523122,22.500596,0.0 120.523093,22.500553,0.0 120.523055,22.50051,0.0 120.523043,22.500462,0.0 120.523029,22.500399,0.0 120.523031,22.500349,0.0 120.523034,22.500295,0.0 120.523037,22.500234,0.0 120.523044,22.500169,0.0 120.523064,22.500094,0.0 120.523103,22.49999,0.0 120.523125,22.499932,0.0 120.523149,22.49988,0.0 120.523176,22.49983,0.0 120.523207,22.49976,0.0 120.523241,22.499713,0.0 120.523324,22.499614,0.0 120.523356,22.499558,0.0 120.52338,22.499508,0.0 120.523394,22.499449,0.0 120.523397,22.4994,0.0 120.523371,22.499291,0.0 120.523352,22.499196,0.0 120.523345,22.499145,0.0 120.523321,22.499095,0.0 120.523299,22.499043,0.0 120.523283,22.498982,0.0 120.523249,22.498934,0.0 120.52315,22.498855,0.0 120.523015,22.498821,0.0 120.522908,22.498807,0.0 120.522897,22.498759,0.0 120.522922,22.498703,0.0 120.522982,22.498599,0.0 120.523003,22.498556,0.0 120.523017,22.498502,0.0 120.523029,22.498441,0.0 120.52304,22.49838,0.0</coordinates></LinearRing></outerBoundaryIs></Polygon><styleUrl>#spolygon-map</styleUrl></Placemark></Document>
</kml>
