<?xml version="1.0" encoding="UTF-8"?>
<kml xmlns="http://www.opengis.net/kml/2.2">
	<Document>
		<name>彰化縣芬園鄉</name>
		<Style id="spolygon">
			<LabelStyle>
				<scale>0.0</scale>
			</LabelStyle>
			<LineStyle>
				<color>330030ff</color>
				<width>0</width>
			</LineStyle>
			<PolyStyle>
				<color>330030ff</color>
			</PolyStyle>
		</Style>
		<StyleMap id="spolygon-map">
			<Pair>
				<key>normal</key>
				<styleUrl>#spolygon</styleUrl>
			</Pair>
		</StyleMap>
	<Placemark><Polygon><outerBoundaryIs><LinearRing><coordinates>120.635136,23.978225,0.0 120.634528,23.97833,0.0 120.634092,23.978329,0.0 120.633591,23.978207,0.0 120.632937,23.977885,0.0 120.631848,23.977221,0.0 120.631043,23.976398,0.0 120.629999,23.975494,0.0 120.629669,23.975125,0.0 120.629278,23.974363,0.0 120.628998,23.97338,0.0 120.628542,23.972518,0.0 120.628151,23.971956,0.0 120.62776,23.971534,0.0 120.62711,23.970547,0.0 120.626335,23.969568,0.0 120.6256,23.969027,0.0 120.62519,23.968926,0.0 120.624754,23.968774,0.0 120.624336,23.968809,0.0 120.624404,23.968644,0.0 120.624594,23.968134,0.0 120.62463,23.968027,0.0 120.624622,23.967909,0.0 120.624589,23.967876,0.0 120.624562,23.967865,0.0 120.62449,23.967867,0.0 120.624403,23.967914,0.0 120.624214,23.968218,0.0 120.623964,23.968616,0.0 120.623892,23.968687,0.0 120.623717,23.96879,0.0 120.623651,23.96887,0.0 120.62351,23.969018,0.0 120.623342,23.96921,0.0 120.623215,23.969372,0.0 120.623093,23.969396,0.0 120.623018,23.969346,0.0 120.623024,23.969305,0.0 120.623063,23.969149,0.0 120.623173,23.968814,0.0 120.623324,23.968359,0.0 120.623315,23.968282,0.0 120.623255,23.968265,0.0 120.623162,23.96827,0.0 120.623014,23.968291,0.0 120.622576,23.968331,0.0 120.622496,23.968325,0.0 120.622453,23.968299,0.0 120.622397,23.968265,0.0 120.622344,23.968091,0.0 120.622233,23.968075,0.0 120.621578,23.968043,0.0 120.621479,23.967913,0.0 120.621501,23.967784,0.0 120.621557,23.967743,0.0 120.621815,23.967642,0.0 120.621956,23.96761,0.0 120.622142,23.96758,0.0 120.622239,23.967586,0.0 120.622814,23.967705,0.0 120.623014,23.967747,0.0 120.62319,23.967761,0.0 120.623289,23.967717,0.0 120.623523,23.967537,0.0 120.623685,23.967419,0.0 120.623884,23.967164,0.0 120.624158,23.966802,0.0 120.624182,23.966753,0.0 120.624179,23.96669,0.0 120.624137,23.966596,0.0 120.624111,23.966503,0.0 120.624123,23.966475,0.0 120.624339,23.966216,0.0 120.624483,23.966059,0.0 120.624795,23.965697,0.0 120.625099,23.965355,0.0 120.62515,23.965286,0.0 120.625138,23.965239,0.0 120.625105,23.965217,0.0 120.625057,23.965212,0.0 120.625009,23.965225,0.0 120.624871,23.965263,0.0 120.624521,23.965367,0.0 120.624452,23.965357,0.0 120.624341,23.965315,0.0 120.624267,23.965109,0.0 120.624271,23.964931,0.0 120.624388,23.964824,0.0 120.624493,23.964687,0.0 120.624547,23.96461,0.0 120.624622,23.964544,0.0 120.624732,23.964489,0.0 120.625028,23.964327,0.0 120.62528,23.964193,0.0 120.625394,23.964149,0.0 120.625559,23.96412,0.0 120.62596,23.964066,0.0 120.626181,23.964033,0.0 120.626262,23.964017,0.0 120.626379,23.963976,0.0 120.626489,23.963917,0.0 120.6268,23.963739,0.0 120.627163,23.963545,0.0 120.627517,23.963345,0.0 120.627787,23.9632,0.0 120.627916,23.96311,0.0 120.628044,23.963017,0.0 120.628153,23.96291,0.0 120.628246,23.962727,0.0 120.628297,23.96257,0.0 120.628421,23.962153,0.0 120.628497,23.961887,0.0 120.628512,23.961835,0.0 120.628639,23.961632,0.0 120.628696,23.961525,0.0 120.628699,23.961426,0.0 120.628681,23.961379,0.0 120.628655,23.961322,0.0 120.628583,23.961299,0.0 120.62852,23.961294,0.0 120.628475,23.961316,0.0 120.628424,23.96136,0.0 120.628258,23.961534,0.0 120.628048,23.961761,0.0 120.627946,23.961855,0.0 120.627814,23.961876,0.0 120.627619,23.961906,0.0 120.627586,23.961917,0.0 120.627514,23.961966,0.0 120.627397,23.962076,0.0 120.627289,23.962164,0.0 120.627149,23.96221,0.0 120.627032,23.962229,0.0 120.626869,23.962265,0.0 120.626789,23.96224,0.0 120.626789,23.962216,0.0 120.626796,23.962137,0.0 120.626823,23.962023,0.0 120.626944,23.961828,0.0 120.627077,23.961608,0.0 120.627175,23.961397,0.0 120.627272,23.961196,0.0 120.627362,23.961077,0.0 120.627437,23.960995,0.0 120.627684,23.960803,0.0 120.627871,23.960672,0.0 120.627947,23.960654,0.0 120.628051,23.960645,0.0 120.628101,23.960642,0.0 120.628241,23.960651,0.0 120.628464,23.960676,0.0 120.62851,23.960658,0.0 120.628527,23.960634,0.0 120.628527,23.96053,0.0 120.628534,23.960416,0.0 120.628595,23.960264,0.0 120.628721,23.960011,0.0 120.628791,23.959846,0.0 120.628815,23.959785,0.0 120.628792,23.959736,0.0 120.628745,23.959687,0.0 120.628689,23.959665,0.0 120.628622,23.959677,0.0 120.628459,23.959732,0.0 120.628172,23.959829,0.0 120.627788,23.959957,0.0 120.627648,23.959987,0.0 120.627549,23.959935,0.0 120.627512,23.959898,0.0 120.627476,23.959815,0.0 120.627479,23.95972,0.0 120.627493,23.959672,0.0 120.627567,23.959455,0.0 120.62759,23.95932,0.0 120.627571,23.959237,0.0 120.627497,23.959191,0.0 120.627424,23.959182,0.0 120.627344,23.959182,0.0 120.627201,23.959221,0.0 120.627021,23.95927,0.0 120.626818,23.959321,0.0 120.626302,23.959467,0.0 120.625688,23.959631,0.0 120.625495,23.959645,0.0 120.625362,23.959507,0.0 120.625366,23.959348,0.0 120.625409,23.959275,0.0 120.625439,23.959235,0.0 120.625496,23.959205,0.0 120.625653,23.95915,0.0 120.625833,23.959083,0.0 120.626001,23.959021,0.0 120.626251,23.95889,0.0 120.626435,23.958793,0.0 120.626585,23.958686,0.0 120.626698,23.958604,0.0 120.626815,23.958552,0.0 120.626935,23.958549,0.0 120.626982,23.958558,0.0 120.627052,23.958589,0.0 120.627208,23.958648,0.0 120.627364,23.958712,0.0 120.627468,23.958728,0.0 120.627792,23.958724,0.0 120.628126,23.958708,0.0 120.628386,23.958706,0.0 120.628489,23.958669,0.0 120.628549,23.958636,0.0 120.62873,23.958474,0.0 120.62896,23.958304,0.0 120.629284,23.958062,0.0 120.62953,23.957879,0.0 120.629635,23.957757,0.0 120.629631,23.95762,0.0 120.629661,23.957231,0.0 120.629612,23.957024,0.0 120.629585,23.956901,0.0 120.629581,23.956714,0.0 120.629589,23.956607,0.0 120.629629,23.956441,0.0 120.629632,23.956193,0.0 120.629645,23.956111,0.0 120.629779,23.95609,0.0 120.630026,23.956066,0.0 120.630197,23.956075,0.0 120.630499,23.956183,0.0 120.630694,23.956258,0.0 120.630821,23.956299,0.0 120.630958,23.956351,0.0 120.631046,23.956322,0.0 120.631114,23.956299,0.0 120.631154,23.956247,0.0 120.631173,23.956139,0.0 120.63119,23.95602,0.0 120.631233,23.955918,0.0 120.631319,23.955783,0.0 120.63132,23.955782,0.0 120.631374,23.955718,0.0 120.631473,23.955599,0.0 120.631629,23.955521,0.0 120.631776,23.955448,0.0 120.631932,23.955364,0.0 120.632189,23.955257,0.0 120.632443,23.955174,0.0 120.632707,23.955079,0.0 120.632797,23.955037,0.0 120.632917,23.954972,0.0 120.633006,23.954913,0.0 120.633168,23.954812,0.0 120.633251,23.954737,0.0 120.633536,23.954538,0.0 120.633658,23.954466,0.0 120.633791,23.954384,0.0 120.633936,23.954279,0.0 120.634133,23.954174,0.0 120.634212,23.954101,0.0 120.634329,23.954,0.0 120.634403,23.953898,0.0 120.634512,23.95375,0.0 120.634599,23.953651,0.0 120.634711,23.95357,0.0 120.63483,23.953448,0.0 120.634932,23.953338,0.0 120.634994,23.95327,0.0 120.635038,23.953212,0.0 120.635068,23.953109,0.0 120.635109,23.952982,0.0 120.63511,23.952981,0.0 120.635142,23.952824,0.0 120.635184,23.952609,0.0 120.635225,23.952481,0.0 120.635251,23.952383,0.0 120.635276,23.952345,0.0 120.635326,23.952298,0.0 120.635395,23.952248,0.0 120.635511,23.95227,0.0 120.635645,23.952387,0.0 120.635758,23.952458,0.0 120.635873,23.952525,0.0 120.635889,23.952531,0.0 120.636011,23.952577,0.0 120.636119,23.952607,0.0 120.636323,23.952628,0.0 120.636505,23.95263,0.0 120.636565,23.952644,0.0 120.636679,23.952682,0.0 120.636733,23.952697,0.0 120.636804,23.952762,0.0 120.636911,23.952868,0.0 120.636992,23.953,0.0 120.637135,23.953086,0.0 120.637302,23.953177,0.0 120.637467,23.95329,0.0 120.637604,23.953392,0.0 120.637745,23.953494,0.0 120.637854,23.953591,0.0 120.637988,23.953739,0.0 120.638116,23.953944,0.0 120.638121,23.953951,0.0 120.638258,23.954131,0.0 120.63832,23.954217,0.0 120.638357,23.954272,0.0 120.638481,23.954353,0.0 120.638639,23.954473,0.0 120.638774,23.954577,0.0 120.63896,23.954697,0.0 120.639145,23.954838,0.0 120.63924,23.95492,0.0 120.639381,23.955012,0.0 120.639559,23.955141,0.0 120.639688,23.955259,0.0 120.639736,23.955304,0.0 120.639737,23.955305,0.0 120.639779,23.955376,0.0 120.639888,23.95551,0.0 120.639965,23.955637,0.0 120.640026,23.955736,0.0 120.640103,23.955858,0.0 120.640155,23.955951,0.0 120.640275,23.956099,0.0 120.64033,23.956164,0.0 120.640445,23.956265,0.0 120.64061,23.956403,0.0 120.640772,23.95653,0.0 120.64093,23.956638,0.0 120.641159,23.956829,0.0 120.641243,23.956933,0.0 120.64135,23.957053,0.0 120.641447,23.957188,0.0 120.64152,23.957273,0.0 120.641656,23.957434,0.0 120.641881,23.957621,0.0 120.642023,23.957734,0.0 120.642174,23.957851,0.0 120.642414,23.958046,0.0 120.642559,23.958184,0.0 120.642646,23.958275,0.0 120.642671,23.958383,0.0 120.642713,23.958521,0.0 120.64274,23.958679,0.0 120.642741,23.95868,0.0 120.642772,23.958872,0.0 120.642772,23.958873,0.0 120.642784,23.95911,0.0 120.642813,23.959246,0.0 120.642833,23.95942,0.0 120.642845,23.959519,0.0 120.642893,23.959604,0.0 120.642894,23.959605,0.0 120.642975,23.959722,0.0 120.643065,23.959884,0.0 120.643178,23.960075,0.0 120.643274,23.960224,0.0 120.643358,23.960413,0.0 120.64342,23.960547,0.0 120.64342,23.960548,0.0 120.643532,23.960751,0.0 120.643627,23.960941,0.0 120.643677,23.961049,0.0 120.643731,23.961117,0.0 120.643863,23.961219,0.0 120.643878,23.961262,0.0 120.643943,23.961391,0.0 120.644007,23.961549,0.0 120.644008,23.96155,0.0 120.644048,23.96167,0.0 120.644048,23.961671,0.0 120.644092,23.961772,0.0 120.644167,23.961979,0.0 120.644168,23.96198,0.0 120.644212,23.962083,0.0 120.644302,23.962172,0.0 120.643379,23.963512,0.0 120.642241,23.964853,0.0 120.641184,23.966495,0.0 120.640525,23.967611,0.0 120.639698,23.969449,0.0 120.639176,23.97054,0.0 120.638735,23.971632,0.0 120.638196,23.972479,0.0 120.637621,23.97293,0.0 120.6371,23.97338,0.0 120.636578,23.97412,0.0 120.63611,23.975274,0.0 120.635613,23.976472,0.0 120.635324,23.977074,0.0 120.6352,23.977551,0.0 120.635117,23.977852,0.0 120.635116,23.978116,0.0 120.635136,23.978225,0.0</coordinates></LinearRing></outerBoundaryIs></Polygon><styleUrl>#spolygon-map</styleUrl></Placemark><Placemark><Polygon><outerBoundaryIs><LinearRing><coordinates>120.644302,23.962172,0.0 120.644419,23.962295,0.0 120.644557,23.96242,0.0 120.644708,23.962523,0.0 120.64491,23.96259,0.0 120.645096,23.962648,0.0 120.645294,23.962703,0.0 120.645495,23.96278,0.0 120.645686,23.962833,0.0 120.645753,23.96286,0.0 120.64589,23.962914,0.0 120.646153,23.96305,0.0 120.646479,23.963198,0.0 120.646738,23.963327,0.0 120.64684,23.963379,0.0 120.646843,23.963388,0.0 120.646856,23.963422,0.0 120.646877,23.963494,0.0 120.646835,23.963634,0.0 120.64679,23.963761,0.0 120.646747,23.963898,0.0 120.646713,23.964011,0.0 120.646703,23.96413,0.0 120.646677,23.964282,0.0 120.646676,23.964283,0.0 120.64665,23.964462,0.0 120.646628,23.964647,0.0 120.646598,23.964851,0.0 120.646581,23.965038,0.0 120.64659,23.9652,0.0 120.646596,23.965358,0.0 120.646583,23.9656,0.0 120.646588,23.965773,0.0 120.646588,23.965774,0.0 120.646605,23.965912,0.0 120.646619,23.966072,0.0 120.64663,23.966131,0.0 120.64669,23.966283,0.0 120.64669,23.966284,0.0 120.64672,23.966415,0.0 120.64679,23.966643,0.0 120.64679,23.966644,0.0 120.64683,23.966811,0.0 120.646855,23.966935,0.0 120.646859,23.967059,0.0 120.646859,23.96706,0.0 120.646865,23.967168,0.0 120.646849,23.967413,0.0 120.646846,23.967637,0.0 120.646843,23.967928,0.0 120.646843,23.968039,0.0 120.646826,23.968209,0.0 120.646829,23.968438,0.0 120.646829,23.968439,0.0 120.646817,23.968774,0.0 120.646822,23.96902,0.0 120.646813,23.96928,0.0 120.646797,23.969546,0.0 120.646806,23.96982,0.0 120.646794,23.970064,0.0 120.646784,23.970345,0.0 120.646787,23.97041,0.0 120.646799,23.970494,0.0 120.646822,23.970631,0.0 120.646823,23.970632,0.0 120.646856,23.970732,0.0 120.646874,23.97091,0.0 120.646898,23.971067,0.0 120.646915,23.97126,0.0 120.646915,23.971261,0.0 120.646944,23.97142,0.0 120.646949,23.971535,0.0 120.646937,23.971629,0.0 120.646898,23.971727,0.0 120.646825,23.971881,0.0 120.646708,23.972131,0.0 120.646624,23.972358,0.0 120.646624,23.972358,0.0 120.646509,23.972584,0.0 120.646382,23.97283,0.0 120.646297,23.972974,0.0 120.646299,23.973075,0.0 120.646303,23.973243,0.0 120.646308,23.973274,0.0 120.646352,23.973515,0.0 120.646352,23.973516,0.0 120.646408,23.973765,0.0 120.64647,23.974074,0.0 120.64653,23.974359,0.0 120.646623,23.974752,0.0 120.646752,23.975133,0.0 120.646818,23.975377,0.0 120.646987,23.975748,0.0 120.647173,23.976204,0.0 120.647314,23.976552,0.0 120.647502,23.977056,0.0 120.647699,23.977571,0.0 120.647826,23.977905,0.0 120.647907,23.978116,0.0 120.647998,23.978326,0.0 120.648162,23.978728,0.0 120.648252,23.978936,0.0 120.648352,23.979146,0.0 120.648467,23.979419,0.0 120.648588,23.979702,0.0 120.648715,23.979973,0.0 120.648831,23.980194,0.0 120.648941,23.980416,0.0 120.649045,23.980636,0.0 120.649046,23.980637,0.0 120.64915,23.980878,0.0 120.649151,23.980879,0.0 120.649222,23.98104,0.0 120.649324,23.981234,0.0 120.64941,23.981424,0.0 120.649537,23.981679,0.0 120.649624,23.981885,0.0 120.649642,23.981926,0.0 120.649762,23.982204,0.0 120.649857,23.982425,0.0 120.649897,23.982545,0.0 120.649898,23.982546,0.0 120.649954,23.982707,0.0 120.650035,23.982946,0.0 120.650036,23.982947,0.0 120.650095,23.983227,0.0 120.650096,23.983228,0.0 120.650122,23.983424,0.0 120.650165,23.983704,0.0 120.650183,23.983981,0.0 120.650194,23.984191,0.0 120.650174,23.984361,0.0 120.648617,23.983634,0.0 120.6476,23.983267,0.0 120.64554,23.982582,0.0 120.644344,23.982014,0.0 120.644193,23.981756,0.0 120.644248,23.981261,0.0 120.644303,23.980884,0.0 120.644176,23.979952,0.0 120.644058,23.979803,0.0 120.643713,23.979614,0.0 120.643508,23.979514,0.0 120.64312,23.979473,0.0 120.641983,23.979607,0.0 120.641173,23.979674,0.0 120.640763,23.979663,0.0 120.64031,23.979563,0.0 120.639328,23.979363,0.0 120.638709,23.97914,0.0 120.637133,23.978879,0.0 120.636216,23.978678,0.0 120.635872,23.97837,0.0 120.635602,23.978201,0.0 120.635397,23.978181,0.0 120.635136,23.978225,0.0 120.635116,23.978116,0.0 120.635117,23.977852,0.0 120.6352,23.977551,0.0 120.635324,23.977074,0.0 120.635613,23.976472,0.0 120.63611,23.975274,0.0 120.636578,23.97412,0.0 120.6371,23.97338,0.0 120.637621,23.97293,0.0 120.638196,23.972479,0.0 120.638735,23.971632,0.0 120.639176,23.97054,0.0 120.639698,23.969449,0.0 120.640525,23.967611,0.0 120.641184,23.966495,0.0 120.642241,23.964853,0.0 120.643379,23.963512,0.0 120.644302,23.962172,0.0</coordinates></LinearRing></outerBoundaryIs></Polygon><styleUrl>#spolygon-map</styleUrl></Placemark><Placemark><Polygon><outerBoundaryIs><LinearRing><coordinates>120.650174,23.984361,0.0 120.650158,23.984489,0.0 120.650118,23.98471,0.0 120.65008,23.984923,0.0 120.649991,23.985071,0.0 120.649843,23.985294,0.0 120.649663,23.985499,0.0 120.649409,23.985746,0.0 120.649081,23.986012,0.0 120.648767,23.986271,0.0 120.64851,23.986494,0.0 120.648271,23.986688,0.0 120.64808,23.986851,0.0 120.647864,23.98704,0.0 120.647655,23.987224,0.0 120.647488,23.987373,0.0 120.647298,23.987541,0.0 120.647167,23.987678,0.0 120.646994,23.987874,0.0 120.646789,23.988097,0.0 120.646615,23.988293,0.0 120.646443,23.988474,0.0 120.646267,23.988661,0.0 120.646086,23.988845,0.0 120.645939,23.989008,0.0 120.645709,23.989228,0.0 120.645514,23.989416,0.0 120.645313,23.989619,0.0 120.645268,23.989647,0.0 120.645109,23.989764,0.0 120.64499,23.989844,0.0 120.644785,23.989996,0.0 120.644641,23.990108,0.0 120.644323,23.990311,0.0 120.644152,23.990409,0.0 120.64403,23.990486,0.0 120.643885,23.990573,0.0 120.643683,23.99071,0.0 120.643652,23.990733,0.0 120.643546,23.990813,0.0 120.643354,23.990925,0.0 120.643174,23.991031,0.0 120.643017,23.991114,0.0 120.642825,23.991218,0.0 120.642651,23.991307,0.0 120.642545,23.991371,0.0 120.642311,23.991478,0.0 120.64101,23.990709,0.0 120.639666,23.989837,0.0 120.637991,23.988925,0.0 120.636779,23.988399,0.0 120.63484,23.987592,0.0 120.633974,23.987185,0.0 120.63416,23.987058,0.0 120.634599,23.986683,0.0 120.63475,23.986369,0.0 120.63471,23.986118,0.0 120.634369,23.985408,0.0 120.634057,23.984541,0.0 120.633882,23.983775,0.0 120.633938,23.983122,0.0 120.633954,23.982519,0.0 120.634382,23.981396,0.0 120.63478,23.980668,0.0 120.634945,23.980443,0.0 120.635069,23.980066,0.0 120.635207,23.979464,0.0 120.635251,23.978857,0.0 120.635136,23.978225,0.0 120.635397,23.978181,0.0 120.635602,23.978201,0.0 120.635872,23.97837,0.0 120.636216,23.978678,0.0 120.637133,23.978879,0.0 120.638709,23.97914,0.0 120.639328,23.979363,0.0 120.64031,23.979563,0.0 120.640763,23.979663,0.0 120.641173,23.979674,0.0 120.641983,23.979607,0.0 120.64312,23.979473,0.0 120.643508,23.979514,0.0 120.643713,23.979614,0.0 120.644058,23.979803,0.0 120.644176,23.979952,0.0 120.644303,23.980884,0.0 120.644248,23.981261,0.0 120.644193,23.981756,0.0 120.644344,23.982014,0.0 120.64554,23.982582,0.0 120.6476,23.983267,0.0 120.648617,23.983634,0.0 120.650174,23.984361,0.0</coordinates></LinearRing></outerBoundaryIs></Polygon><styleUrl>#spolygon-map</styleUrl></Placemark><Placemark><Polygon><outerBoundaryIs><LinearRing><coordinates>120.633974,23.987185,0.0 120.633841,23.987276,0.0 120.633662,23.987514,0.0 120.633553,23.987615,0.0 120.633375,23.987702,0.0 120.633306,23.98779,0.0 120.633155,23.98799,0.0 120.633168,23.988317,0.0 120.633098,23.988819,0.0 120.633015,23.989045,0.0 120.632892,23.989145,0.0 120.632468,23.989345,0.0 120.632303,23.989545,0.0 120.632069,23.990097,0.0 120.631918,23.99026,0.0 120.631521,23.990422,0.0 120.631165,23.990773,0.0 120.630095,23.9918,0.0 120.629228,23.992721,0.0 120.628528,23.993535,0.0 120.627938,23.9944,0.0 120.627539,23.99517,0.0 120.626418,23.994299,0.0 120.625284,23.993535,0.0 120.623804,23.992852,0.0 120.622623,23.992341,0.0 120.620247,23.991165,0.0 120.618751,23.990693,0.0 120.617324,23.990294,0.0 120.616127,23.990038,0.0 120.615146,23.989683,0.0 120.614548,23.989244,0.0 120.614318,23.989131,0.0 120.614243,23.98868,0.0 120.614382,23.988426,0.0 120.615014,23.98761,0.0 120.615462,23.986914,0.0 120.615621,23.986629,0.0 120.615622,23.986252,0.0 120.615117,23.985388,0.0 120.614547,23.984573,0.0 120.614409,23.98427,0.0 120.614437,23.984275,0.0 120.614552,23.984265,0.0 120.614832,23.984183,0.0 120.615095,23.984087,0.0 120.615311,23.984071,0.0 120.615518,23.984069,0.0 120.615703,23.984047,0.0 120.61578,23.984008,0.0 120.615826,23.983944,0.0 120.615931,23.983762,0.0 120.615991,23.983714,0.0 120.616096,23.983643,0.0 120.616196,23.983542,0.0 120.616315,23.98336,0.0 120.616403,23.983212,0.0 120.616431,23.983142,0.0 120.616431,23.983036,0.0 120.616386,23.982891,0.0 120.616352,23.982801,0.0 120.616275,23.982708,0.0 120.616132,23.98266,0.0 120.61602,23.982637,0.0 120.615992,23.982557,0.0 120.615972,23.982462,0.0 120.615979,23.982369,0.0 120.616035,23.982308,0.0 120.616322,23.982206,0.0 120.616665,23.982011,0.0 120.616851,23.981919,0.0 120.617018,23.981858,0.0 120.61709,23.98184,0.0 120.617234,23.981745,0.0 120.617311,23.981677,0.0 120.617307,23.981629,0.0 120.617232,23.981302,0.0 120.617201,23.981144,0.0 120.617152,23.980955,0.0 120.617128,23.98086,0.0 120.617111,23.980741,0.0 120.617094,23.980597,0.0 120.617077,23.980427,0.0 120.617098,23.980324,0.0 120.617133,23.980218,0.0 120.617193,23.980161,0.0 120.617312,23.980071,0.0 120.617532,23.979959,0.0 120.617641,23.979934,0.0 120.617823,23.979899,0.0 120.618015,23.979832,0.0 120.618349,23.979642,0.0 120.618706,23.97945,0.0 120.619108,23.9793,0.0 120.619304,23.979179,0.0 120.619483,23.978996,0.0 120.619621,23.978844,0.0 120.619678,23.978764,0.0 120.619692,23.9787,0.0 120.619689,23.978443,0.0 120.619697,23.97826,0.0 120.619732,23.978116,0.0 120.619739,23.977968,0.0 120.61974,23.977819,0.0 120.619712,23.977623,0.0 120.619626,23.97734,0.0 120.619592,23.977266,0.0 120.619556,23.977189,0.0 120.619518,23.977054,0.0 120.619494,23.976987,0.0 120.619494,23.976916,0.0 120.619505,23.976854,0.0 120.619529,23.976805,0.0 120.61953,23.976728,0.0 120.61954,23.976626,0.0 120.619537,23.976481,0.0 120.619524,23.976408,0.0 120.619496,23.976318,0.0 120.619479,23.976244,0.0 120.619479,23.976205,0.0 120.619479,23.976125,0.0 120.61949,23.976105,0.0 120.619535,23.976029,0.0 120.619651,23.975885,0.0 120.619844,23.975668,0.0 120.620121,23.975316,0.0 120.620184,23.975268,0.0 120.620415,23.975169,0.0 120.620762,23.974993,0.0 120.62087,23.974891,0.0 120.620942,23.974822,0.0 120.621036,23.974668,0.0 120.621044,23.974617,0.0 120.621009,23.974591,0.0 120.620921,23.974565,0.0 120.620796,23.974549,0.0 120.620726,23.974526,0.0 120.620677,23.974436,0.0 120.6206,23.974327,0.0 120.62045,23.974349,0.0 120.620321,23.974432,0.0 120.620187,23.974522,0.0 120.620051,23.974589,0.0 120.619937,23.974617,0.0 120.619892,23.974616,0.0 120.619819,23.974555,0.0 120.619805,23.974533,0.0 120.619819,23.974446,0.0 120.619857,23.974382,0.0 120.620029,23.974241,0.0 120.62019,23.974091,0.0 120.620345,23.973902,0.0 120.620383,23.973819,0.0 120.620405,23.973761,0.0 120.620464,23.973675,0.0 120.620545,23.973598,0.0 120.620792,23.973465,0.0 120.620946,23.973417,0.0 120.621034,23.97336,0.0 120.621063,23.973324,0.0 120.621095,23.973241,0.0 120.621112,23.973152,0.0 120.621127,23.973127,0.0 120.621175,23.973039,0.0 120.621202,23.973014,0.0 120.621271,23.973009,0.0 120.621382,23.972993,0.0 120.621528,23.972966,0.0 120.621609,23.972925,0.0 120.621687,23.972864,0.0 120.621753,23.972807,0.0 120.62182,23.972639,0.0 120.62185,23.972513,0.0 120.621836,23.972445,0.0 120.621818,23.97231,0.0 120.62183,23.972184,0.0 120.621884,23.972137,0.0 120.621932,23.972113,0.0 120.622028,23.972096,0.0 120.622088,23.972086,0.0 120.622211,23.972069,0.0 120.622304,23.972028,0.0 120.622442,23.971894,0.0 120.622538,23.97176,0.0 120.62267,23.971576,0.0 120.622798,23.971368,0.0 120.623062,23.970902,0.0 120.623174,23.970704,0.0 120.623339,23.970556,0.0 120.623474,23.970419,0.0 120.623573,23.97031,0.0 120.623684,23.970129,0.0 120.623883,23.969764,0.0 120.624084,23.969393,0.0 120.62425,23.969015,0.0 120.624336,23.968809,0.0 120.624754,23.968774,0.0 120.62519,23.968926,0.0 120.6256,23.969027,0.0 120.626335,23.969568,0.0 120.62711,23.970547,0.0 120.62776,23.971534,0.0 120.628151,23.971956,0.0 120.628542,23.972518,0.0 120.628998,23.97338,0.0 120.629278,23.974363,0.0 120.629669,23.975125,0.0 120.629999,23.975494,0.0 120.631043,23.976398,0.0 120.631848,23.977221,0.0 120.632937,23.977885,0.0 120.633591,23.978207,0.0 120.634092,23.978329,0.0 120.634528,23.97833,0.0 120.635136,23.978225,0.0 120.635251,23.978857,0.0 120.635207,23.979464,0.0 120.635069,23.980066,0.0 120.634945,23.980443,0.0 120.63478,23.980668,0.0 120.634382,23.981396,0.0 120.633954,23.982519,0.0 120.633938,23.983122,0.0 120.633882,23.983775,0.0 120.634057,23.984541,0.0 120.634369,23.985408,0.0 120.63471,23.986118,0.0 120.63475,23.986369,0.0 120.634599,23.986683,0.0 120.63416,23.987058,0.0 120.633974,23.987185,0.0</coordinates></LinearRing></outerBoundaryIs></Polygon><styleUrl>#spolygon-map</styleUrl></Placemark><Placemark><Polygon><outerBoundaryIs><LinearRing><coordinates>120.627275,24.000928,0.0 120.626903,24.002032,0.0 120.626777,24.002752,0.0 120.626666,24.003104,0.0 120.626184,24.004546,0.0 120.626101,24.004747,0.0 120.624883,24.00497,0.0 120.62377,24.005248,0.0 120.623319,24.005246,0.0 120.6231,24.005208,0.0 120.622112,24.005056,0.0 120.621455,24.005054,0.0 120.620991,24.004953,0.0 120.62054,24.004901,0.0 120.619501,24.004773,0.0 120.618968,24.004621,0.0 120.618537,24.00428,0.0 120.618443,24.004174,0.0 120.618355,24.004068,0.0 120.618193,24.003968,0.0 120.617902,24.003912,0.0 120.61751,24.003967,0.0 120.616853,24.003996,0.0 120.61663,24.004014,0.0 120.616454,24.004008,0.0 120.616312,24.003958,0.0 120.616191,24.003889,0.0 120.615826,24.003472,0.0 120.615384,24.003264,0.0 120.61531,24.003158,0.0 120.615243,24.002959,0.0 120.615237,24.002723,0.0 120.61517,24.002618,0.0 120.615041,24.002493,0.0 120.614724,24.002324,0.0 120.612774,24.00158,0.0 120.611186,24.001109,0.0 120.609191,24.000616,0.0 120.608531,24.00048,0.0 120.608656,24.000247,0.0 120.608974,23.999813,0.0 120.609143,23.999515,0.0 120.609262,23.999294,0.0 120.609334,23.998991,0.0 120.609326,23.998827,0.0 120.609321,23.998731,0.0 120.609288,23.998633,0.0 120.6092,23.998569,0.0 120.609129,23.998569,0.0 120.608881,23.998601,0.0 120.608757,23.998783,0.0 120.608663,23.998861,0.0 120.608525,23.999002,0.0 120.608459,23.999072,0.0 120.608252,23.999145,0.0 120.608144,23.9992,0.0 120.607979,23.999291,0.0 120.607842,23.999327,0.0 120.60768,23.999346,0.0 120.607548,23.99935,0.0 120.607416,23.999326,0.0 120.607264,23.999298,0.0 120.607168,23.999279,0.0 120.607021,23.999288,0.0 120.606925,23.999316,0.0 120.606839,23.99933,0.0 120.606661,23.999417,0.0 120.606575,23.999496,0.0 120.606514,23.999547,0.0 120.606417,23.999603,0.0 120.606321,23.999603,0.0 120.606235,23.999551,0.0 120.606179,23.999505,0.0 120.606149,23.999407,0.0 120.606129,23.999291,0.0 120.606175,23.99916,0.0 120.606297,23.999058,0.0 120.606444,23.998975,0.0 120.606551,23.998924,0.0 120.607134,23.998721,0.0 120.607297,23.998675,0.0 120.607494,23.998606,0.0 120.607677,23.99855,0.0 120.607849,23.998472,0.0 120.607976,23.998412,0.0 120.608144,23.998308,0.0 120.60825,23.998271,0.0 120.608307,23.998242,0.0 120.608369,23.998243,0.0 120.608532,23.998147,0.0 120.608619,23.998083,0.0 120.608953,23.997752,0.0 120.609191,23.997516,0.0 120.6094,23.997249,0.0 120.609491,23.997141,0.0 120.609532,23.997035,0.0 120.609587,23.996921,0.0 120.609605,23.996849,0.0 120.609599,23.996772,0.0 120.609593,23.9967,0.0 120.609539,23.996631,0.0 120.609429,23.996551,0.0 120.609368,23.996498,0.0 120.609331,23.996434,0.0 120.609314,23.996288,0.0 120.609311,23.996193,0.0 120.609303,23.996126,0.0 120.609254,23.996078,0.0 120.60921,23.996033,0.0 120.609176,23.995964,0.0 120.60917,23.995892,0.0 120.609174,23.995725,0.0 120.609188,23.995592,0.0 120.609235,23.995478,0.0 120.609276,23.995393,0.0 120.60936,23.995322,0.0 120.609485,23.995227,0.0 120.609584,23.995169,0.0 120.609685,23.995135,0.0 120.609761,23.995103,0.0 120.609821,23.995066,0.0 120.609917,23.994957,0.0 120.609972,23.994909,0.0 120.610033,23.994875,0.0 120.610091,23.994873,0.0 120.610152,23.994929,0.0 120.610186,23.994998,0.0 120.610215,23.995125,0.0 120.610212,23.995247,0.0 120.61017,23.995447,0.0 120.610118,23.99553,0.0 120.610074,23.995631,0.0 120.610048,23.995721,0.0 120.610054,23.99574,0.0 120.610077,23.995756,0.0 120.610144,23.995748,0.0 120.610239,23.995717,0.0 120.61034,23.995706,0.0 120.610442,23.995664,0.0 120.610559,23.995496,0.0 120.610717,23.995262,0.0 120.610876,23.995084,0.0 120.610946,23.995026,0.0 120.611033,23.994915,0.0 120.611123,23.994779,0.0 120.611208,23.994609,0.0 120.611301,23.994472,0.0 120.611399,23.994336,0.0 120.6114,23.994277,0.0 120.61138,23.994197,0.0 120.611345,23.994168,0.0 120.61122,23.994183,0.0 120.611,23.994265,0.0 120.610783,23.994373,0.0 120.610742,23.994381,0.0 120.610693,23.994349,0.0 120.610653,23.994256,0.0 120.610662,23.994131,0.0 120.610662,23.994028,0.0 120.610663,23.993887,0.0 120.610646,23.993834,0.0 120.610625,23.993797,0.0 120.610614,23.993783,0.0 120.610562,23.993781,0.0 120.610417,23.993754,0.0 120.610329,23.99375,0.0 120.610248,23.99371,0.0 120.610196,23.993672,0.0 120.610176,23.993611,0.0 120.610147,23.993571,0.0 120.610147,23.993545,0.0 120.610079,23.993263,0.0 120.610036,23.993122,0.0 120.609984,23.993042,0.0 120.609941,23.993024,0.0 120.609877,23.993037,0.0 120.609747,23.993058,0.0 120.609666,23.993084,0.0 120.609555,23.99319,0.0 120.609474,23.993238,0.0 120.609379,23.993256,0.0 120.609192,23.993271,0.0 120.609018,23.993337,0.0 120.608873,23.993389,0.0 120.608627,23.9935,0.0 120.608447,23.99363,0.0 120.608333,23.993694,0.0 120.60822,23.993763,0.0 120.608197,23.993779,0.0 120.608144,23.99378,0.0 120.608021,23.993758,0.0 120.607973,23.993704,0.0 120.607979,23.993527,0.0 120.608022,23.993473,0.0 120.608075,23.993419,0.0 120.608144,23.993404,0.0 120.608186,23.993396,0.0 120.608297,23.993349,0.0 120.608474,23.993234,0.0 120.608636,23.992998,0.0 120.608865,23.992769,0.0 120.608924,23.992567,0.0 120.608888,23.992371,0.0 120.608749,23.992107,0.0 120.608759,23.992006,0.0 120.60877,23.991914,0.0 120.60886,23.991781,0.0 120.609016,23.991741,0.0 120.609105,23.991782,0.0 120.60915,23.991859,0.0 120.609194,23.991992,0.0 120.609255,23.99212,0.0 120.609361,23.992167,0.0 120.609461,23.992172,0.0 120.609556,23.992141,0.0 120.609657,23.99205,0.0 120.609796,23.991937,0.0 120.60997,23.991835,0.0 120.610081,23.99182,0.0 120.61017,23.991892,0.0 120.610287,23.991944,0.0 120.610343,23.991923,0.0 120.610399,23.991836,0.0 120.610377,23.991724,0.0 120.610271,23.991596,0.0 120.610373,23.99146,0.0 120.610603,23.991277,0.0 120.610692,23.991149,0.0 120.610749,23.99096,0.0 120.610805,23.990786,0.0 120.610811,23.990602,0.0 120.610722,23.990504,0.0 120.610586,23.990451,0.0 120.610352,23.990394,0.0 120.610146,23.990368,0.0 120.609995,23.990352,0.0 120.609794,23.990305,0.0 120.609683,23.990249,0.0 120.609483,23.990135,0.0 120.609366,23.990115,0.0 120.609171,23.990053,0.0 120.609015,23.990032,0.0 120.608931,23.990047,0.0 120.608819,23.990124,0.0 120.608778,23.990149,0.0 120.608671,23.990077,0.0 120.608527,23.989998,0.0 120.608379,23.989886,0.0 120.608356,23.989851,0.0 120.608325,23.989801,0.0 120.608329,23.989711,0.0 120.608372,23.989651,0.0 120.608392,23.989604,0.0 120.608393,23.989418,0.0 120.608347,23.98919,0.0 120.608281,23.989044,0.0 120.608261,23.988984,0.0 120.608227,23.988898,0.0 120.608231,23.988851,0.0 120.608227,23.988808,0.0 120.608223,23.988719,0.0 120.608263,23.988648,0.0 120.608321,23.988548,0.0 120.608329,23.988455,0.0 120.608333,23.988384,0.0 120.608299,23.988294,0.0 120.60819,23.988205,0.0 120.608144,23.988161,0.0 120.607919,23.987814,0.0 120.607742,23.987506,0.0 120.607626,23.987326,0.0 120.607613,23.98717,0.0 120.60767,23.986749,0.0 120.607655,23.986645,0.0 120.607653,23.986565,0.0 120.607688,23.986443,0.0 120.607786,23.98633,0.0 120.607869,23.986254,0.0 120.607973,23.986218,0.0 120.608036,23.986239,0.0 120.608101,23.986287,0.0 120.608143,23.986313,0.0 120.608197,23.986304,0.0 120.608287,23.986204,0.0 120.608455,23.986075,0.0 120.608597,23.986005,0.0 120.608711,23.985953,0.0 120.6088,23.985903,0.0 120.608843,23.985849,0.0 120.608892,23.985772,0.0 120.608992,23.985674,0.0 120.609056,23.985656,0.0 120.609186,23.985644,0.0 120.609238,23.985649,0.0 120.609347,23.985706,0.0 120.609527,23.985702,0.0 120.609599,23.985711,0.0 120.609738,23.985784,0.0 120.609691,23.985894,0.0 120.609544,23.986099,0.0 120.609392,23.986269,0.0 120.609352,23.986332,0.0 120.609313,23.986382,0.0 120.609268,23.986487,0.0 120.609272,23.986537,0.0 120.609287,23.986553,0.0 120.609312,23.986553,0.0 120.609386,23.986523,0.0 120.609478,23.986426,0.0 120.609901,23.985881,0.0 120.610275,23.985458,0.0 120.610516,23.985136,0.0 120.610837,23.984701,0.0 120.611103,23.984376,0.0 120.611286,23.984177,0.0 120.611373,23.984073,0.0 120.61143,23.983964,0.0 120.611487,23.98388,0.0 120.611534,23.983809,0.0 120.611619,23.983771,0.0 120.611673,23.983762,0.0 120.611715,23.983805,0.0 120.611779,23.984017,0.0 120.611818,23.984133,0.0 120.611806,23.98424,0.0 120.611746,23.98436,0.0 120.611671,23.984487,0.0 120.611661,23.984634,0.0 120.611599,23.984748,0.0 120.611467,23.984873,0.0 120.611206,23.985229,0.0 120.611069,23.985408,0.0 120.610753,23.985739,0.0 120.610547,23.98595,0.0 120.610404,23.986115,0.0 120.610255,23.986303,0.0 120.610203,23.986382,0.0 120.610161,23.98645,0.0 120.610133,23.986553,0.0 120.610071,23.986666,0.0 120.610023,23.986727,0.0 120.609956,23.986781,0.0 120.609931,23.98686,0.0 120.60995,23.986931,0.0 120.60998,23.986988,0.0 120.609995,23.987022,0.0 120.610094,23.987075,0.0 120.610175,23.987063,0.0 120.610324,23.987023,0.0 120.61047,23.986978,0.0 120.610637,23.986933,0.0 120.610731,23.986899,0.0 120.610815,23.986901,0.0 120.610855,23.986922,0.0 120.610891,23.986961,0.0 120.61092,23.987047,0.0 120.61092,23.987138,0.0 120.610934,23.987202,0.0 120.610954,23.98724,0.0 120.611021,23.987291,0.0 120.611063,23.987311,0.0 120.611095,23.987268,0.0 120.611118,23.98715,0.0 120.611133,23.987043,0.0 120.611146,23.986918,0.0 120.611097,23.98672,0.0 120.611006,23.986504,0.0 120.610996,23.986441,0.0 120.610989,23.986395,0.0 120.611009,23.98635,0.0 120.611073,23.986259,0.0 120.611305,23.985905,0.0 120.61137,23.985804,0.0 120.611626,23.985543,0.0 120.611706,23.98542,0.0 120.61179,23.98527,0.0 120.612021,23.9851,0.0 120.612292,23.984839,0.0 120.61235,23.984776,0.0 120.612405,23.98474,0.0 120.612482,23.984732,0.0 120.612564,23.984734,0.0 120.612659,23.984729,0.0 120.612741,23.984708,0.0 120.612839,23.984672,0.0 120.612933,23.984595,0.0 120.613008,23.984453,0.0 120.613025,23.9844,0.0 120.613015,23.984315,0.0 120.612948,23.984216,0.0 120.612863,23.984108,0.0 120.612796,23.983959,0.0 120.612765,23.983798,0.0 120.612759,23.983667,0.0 120.612798,23.983541,0.0 120.612857,23.983426,0.0 120.612934,23.983343,0.0 120.613061,23.983266,0.0 120.613211,23.983212,0.0 120.613351,23.983196,0.0 120.613491,23.983274,0.0 120.613699,23.983653,0.0 120.613849,23.983746,0.0 120.613975,23.983795,0.0 120.614139,23.984004,0.0 120.614231,23.984159,0.0 120.61428,23.98421,0.0 120.614346,23.984258,0.0 120.614409,23.98427,0.0 120.614547,23.984573,0.0 120.615117,23.985388,0.0 120.615622,23.986252,0.0 120.615621,23.986629,0.0 120.615462,23.986914,0.0 120.615014,23.98761,0.0 120.614382,23.988426,0.0 120.614243,23.98868,0.0 120.614318,23.989131,0.0 120.614548,23.989244,0.0 120.615146,23.989683,0.0 120.616127,23.990038,0.0 120.617324,23.990294,0.0 120.618751,23.990693,0.0 120.620247,23.991165,0.0 120.622623,23.992341,0.0 120.623804,23.992852,0.0 120.625284,23.993535,0.0 120.626418,23.994299,0.0 120.627539,23.99517,0.0 120.627702,23.995459,0.0 120.627783,23.995936,0.0 120.627698,23.996878,0.0 120.627504,23.99758,0.0 120.627377,23.998602,0.0 120.627278,24.00002,0.0 120.627236,24.000413,0.0 120.627275,24.000928,0.0</coordinates></LinearRing></outerBoundaryIs></Polygon><styleUrl>#spolygon-map</styleUrl></Placemark><Placemark><Polygon><outerBoundaryIs><LinearRing><coordinates>120.642311,23.991478,0.0 120.641986,23.991635,0.0 120.641276,23.991983,0.0 120.641061,23.992082,0.0 120.640859,23.992182,0.0 120.640742,23.992228,0.0 120.640659,23.992263,0.0 120.640559,23.992303,0.0 120.640414,23.992365,0.0 120.640224,23.992448,0.0 120.640198,23.992458,0.0 120.640072,23.992505,0.0 120.639767,23.992639,0.0 120.639494,23.992771,0.0 120.639195,23.992908,0.0 120.638895,23.993047,0.0 120.638669,23.993158,0.0 120.638501,23.993223,0.0 120.638329,23.993308,0.0 120.638142,23.993403,0.0 120.637931,23.993498,0.0 120.637768,23.993575,0.0 120.637572,23.993699,0.0 120.637497,23.993741,0.0 120.637416,23.993818,0.0 120.637292,23.993944,0.0 120.637144,23.994099,0.0 120.637071,23.994172,0.0 120.636979,23.994284,0.0 120.636901,23.994399,0.0 120.636815,23.994514,0.0 120.636739,23.994668,0.0 120.63667,23.994807,0.0 120.63667,23.994808,0.0 120.636581,23.994983,0.0 120.636499,23.995148,0.0 120.636415,23.995331,0.0 120.636341,23.995502,0.0 120.636315,23.995604,0.0 120.636288,23.995709,0.0 120.636252,23.995897,0.0 120.636219,23.996075,0.0 120.636185,23.996306,0.0 120.636185,23.996307,0.0 120.636171,23.996572,0.0 120.636144,23.996849,0.0 120.636118,23.99704,0.0 120.636102,23.997269,0.0 120.636098,23.997505,0.0 120.636097,23.997741,0.0 120.636097,23.997742,0.0 120.636091,23.997928,0.0 120.636093,23.998088,0.0 120.636095,23.998248,0.0 120.636104,23.998413,0.0 120.636146,23.998533,0.0 120.636193,23.99868,0.0 120.636247,23.998822,0.0 120.636317,23.999032,0.0 120.636368,23.999192,0.0 120.636415,23.99934,0.0 120.636485,23.999537,0.0 120.636562,23.999717,0.0 120.636627,23.999871,0.0 120.636741,24.000139,0.0 120.636742,24.000139,0.0 120.636853,24.00042,0.0 120.636926,24.00058,0.0 120.636927,24.000581,0.0 120.636972,24.000706,0.0 120.636972,24.000706,0.0 120.637062,24.000872,0.0 120.637098,24.00101,0.0 120.637167,24.001146,0.0 120.637246,24.001317,0.0 120.637246,24.001318,0.0 120.637352,24.001501,0.0 120.637435,24.001652,0.0 120.637496,24.001767,0.0 120.637571,24.001952,0.0 120.637668,24.002158,0.0 120.63772,24.002293,0.0 120.637798,24.002471,0.0 120.637836,24.002562,0.0 120.637861,24.002659,0.0 120.637917,24.002833,0.0 120.637917,24.002834,0.0 120.637974,24.003032,0.0 120.638022,24.003188,0.0 120.638083,24.003401,0.0 120.638134,24.003581,0.0 120.638188,24.003759,0.0 120.638209,24.003916,0.0 120.638223,24.004094,0.0 120.63822,24.00433,0.0 120.63822,24.004331,0.0 120.638211,24.004552,0.0 120.638201,24.004759,0.0 120.638198,24.005021,0.0 120.638188,24.005294,0.0 120.63817,24.00566,0.0 120.63699,24.005602,0.0 120.63551,24.005587,0.0 120.634867,24.005519,0.0 120.634395,24.005183,0.0 120.633633,24.004391,0.0 120.632872,24.003498,0.0 120.632617,24.003341,0.0 120.632448,24.003185,0.0 120.632436,24.002984,0.0 120.632166,24.002044,0.0 120.631731,24.001419,0.0 120.631707,24.001163,0.0 120.631684,24.000873,0.0 120.631151,24.000516,0.0 120.629988,24.000067,0.0 120.629673,23.999944,0.0 120.629224,23.999898,0.0 120.629079,23.999787,0.0 120.628836,23.999652,0.0 120.628545,23.999652,0.0 120.628315,23.999718,0.0 120.62795,23.999884,0.0 120.627646,24.00014,0.0 120.627275,24.000928,0.0 120.627236,24.000413,0.0 120.627278,24.00002,0.0 120.627377,23.998602,0.0 120.627504,23.99758,0.0 120.627698,23.996878,0.0 120.627783,23.995936,0.0 120.627702,23.995459,0.0 120.627539,23.99517,0.0 120.627938,23.9944,0.0 120.628528,23.993535,0.0 120.629228,23.992721,0.0 120.630095,23.9918,0.0 120.631165,23.990773,0.0 120.631521,23.990422,0.0 120.631918,23.99026,0.0 120.632069,23.990097,0.0 120.632303,23.989545,0.0 120.632468,23.989345,0.0 120.632892,23.989145,0.0 120.633015,23.989045,0.0 120.633098,23.988819,0.0 120.633168,23.988317,0.0 120.633155,23.98799,0.0 120.633306,23.98779,0.0 120.633375,23.987702,0.0 120.633553,23.987615,0.0 120.633662,23.987514,0.0 120.633841,23.987276,0.0 120.633974,23.987185,0.0 120.63484,23.987592,0.0 120.636779,23.988399,0.0 120.637991,23.988925,0.0 120.639666,23.989837,0.0 120.64101,23.990709,0.0 120.642311,23.991478,0.0</coordinates></LinearRing></outerBoundaryIs></Polygon><styleUrl>#spolygon-map</styleUrl></Placemark><Placemark><Polygon><outerBoundaryIs><LinearRing><coordinates>120.637937,24.008562,0.0 120.634204,24.008311,0.0 120.631046,24.008337,0.0 120.628938,24.008366,0.0 120.6285,24.008454,0.0 120.627929,24.00843,0.0 120.626995,24.008182,0.0 120.626182,24.007868,0.0 120.625588,24.007421,0.0 120.625085,24.007015,0.0 120.62449,24.006757,0.0 120.623458,24.006666,0.0 120.622109,24.006785,0.0 120.621332,24.006828,0.0 120.619782,24.006576,0.0 120.617622,24.005868,0.0 120.613769,24.004818,0.0 120.612373,24.004447,0.0 120.610689,24.004319,0.0 120.610081,24.004462,0.0 120.6089,24.00524,0.0 120.608047,24.006264,0.0 120.607522,24.006947,0.0 120.606995,24.008418,0.0 120.606795,24.009317,0.0 120.606157,24.009226,0.0 120.605332,24.009215,0.0 120.604962,24.009251,0.0 120.604942,24.009212,0.0 120.60488,24.009146,0.0 120.604829,24.009108,0.0 120.604777,24.009098,0.0 120.604721,24.009126,0.0 120.604648,24.009188,0.0 120.604566,24.00924,0.0 120.604493,24.009239,0.0 120.604457,24.009206,0.0 120.604447,24.009121,0.0 120.604463,24.009036,0.0 120.604483,24.008919,0.0 120.604515,24.008811,0.0 120.604515,24.008759,0.0 120.604494,24.008697,0.0 120.604464,24.00865,0.0 120.604407,24.008621,0.0 120.604309,24.008621,0.0 120.60417,24.00863,0.0 120.604077,24.008658,0.0 120.603964,24.008724,0.0 120.60385,24.008771,0.0 120.60369,24.008827,0.0 120.603551,24.008832,0.0 120.603438,24.008808,0.0 120.603294,24.008774,0.0 120.60318,24.00867,0.0 120.603072,24.008608,0.0 120.603006,24.008532,0.0 120.602955,24.008376,0.0 120.602939,24.008305,0.0 120.602981,24.008159,0.0 120.603033,24.008022,0.0 120.603095,24.007951,0.0 120.603178,24.007899,0.0 120.60324,24.007899,0.0 120.603379,24.007885,0.0 120.603446,24.007862,0.0 120.60358,24.007801,0.0 120.603719,24.007754,0.0 120.603817,24.007754,0.0 120.603895,24.007726,0.0 120.603982,24.007657,0.0 120.604029,24.007577,0.0 120.60405,24.007506,0.0 120.60404,24.007426,0.0 120.603983,24.007364,0.0 120.603922,24.00734,0.0 120.60388,24.00734,0.0 120.603849,24.007354,0.0 120.603834,24.007383,0.0 120.603772,24.007458,0.0 120.603679,24.00751,0.0 120.60354,24.007538,0.0 120.603488,24.007462,0.0 120.603473,24.007377,0.0 120.603458,24.007292,0.0 120.603464,24.007103,0.0 120.60346,24.006493,0.0 120.603487,24.006389,0.0 120.603523,24.00628,0.0 120.603652,24.006153,0.0 120.603761,24.006039,0.0 120.603902,24.005885,0.0 120.603975,24.005809,0.0 120.603996,24.005739,0.0 120.604063,24.005677,0.0 120.604104,24.005602,0.0 120.604151,24.005484,0.0 120.604203,24.005328,0.0 120.604245,24.00521,0.0 120.604322,24.005158,0.0 120.604523,24.005092,0.0 120.604585,24.005059,0.0 120.604647,24.005017,0.0 120.604709,24.004951,0.0 120.604745,24.004894,0.0 120.604797,24.004837,0.0 120.604854,24.004785,0.0 120.604926,24.004748,0.0 120.605014,24.004705,0.0 120.605086,24.004682,0.0 120.605148,24.004687,0.0 120.605205,24.004725,0.0 120.605282,24.004782,0.0 120.605344,24.004796,0.0 120.605411,24.004792,0.0 120.605509,24.004726,0.0 120.605612,24.004679,0.0 120.60572,24.004617,0.0 120.605844,24.004509,0.0 120.605974,24.004393,0.0 120.606041,24.004327,0.0 120.606238,24.004143,0.0 120.606295,24.004096,0.0 120.606352,24.003992,0.0 120.606403,24.003878,0.0 120.606414,24.003779,0.0 120.606322,24.003623,0.0 120.60625,24.003523,0.0 120.606219,24.003443,0.0 120.60624,24.003353,0.0 120.606333,24.00323,0.0 120.606488,24.003037,0.0 120.606701,24.002812,0.0 120.606851,24.002638,0.0 120.607006,24.002449,0.0 120.607105,24.002354,0.0 120.607301,24.002204,0.0 120.607476,24.002105,0.0 120.607616,24.002039,0.0 120.607719,24.001978,0.0 120.607781,24.001874,0.0 120.607792,24.001751,0.0 120.607787,24.001618,0.0 120.607823,24.001495,0.0 120.607855,24.001415,0.0 120.607927,24.001316,0.0 120.608046,24.001189,0.0 120.608144,24.001082,0.0 120.608238,24.000988,0.0 120.608313,24.000843,0.0 120.60846,24.000614,0.0 120.608531,24.00048,0.0 120.609191,24.000616,0.0 120.611186,24.001109,0.0 120.612774,24.00158,0.0 120.614724,24.002324,0.0 120.615041,24.002493,0.0 120.61517,24.002618,0.0 120.615237,24.002723,0.0 120.615243,24.002959,0.0 120.61531,24.003158,0.0 120.615384,24.003264,0.0 120.615826,24.003472,0.0 120.616191,24.003889,0.0 120.616312,24.003958,0.0 120.616454,24.004008,0.0 120.61663,24.004014,0.0 120.616853,24.003996,0.0 120.61751,24.003967,0.0 120.617902,24.003912,0.0 120.618193,24.003968,0.0 120.618355,24.004068,0.0 120.618443,24.004174,0.0 120.618537,24.00428,0.0 120.618968,24.004621,0.0 120.619501,24.004773,0.0 120.62054,24.004901,0.0 120.620991,24.004953,0.0 120.621455,24.005054,0.0 120.622112,24.005056,0.0 120.6231,24.005208,0.0 120.623319,24.005246,0.0 120.62377,24.005248,0.0 120.624883,24.00497,0.0 120.626101,24.004747,0.0 120.626184,24.004546,0.0 120.626666,24.003104,0.0 120.626777,24.002752,0.0 120.626903,24.002032,0.0 120.627275,24.000928,0.0 120.627646,24.00014,0.0 120.62795,23.999884,0.0 120.628315,23.999718,0.0 120.628545,23.999652,0.0 120.628836,23.999652,0.0 120.629079,23.999787,0.0 120.629224,23.999898,0.0 120.629673,23.999944,0.0 120.629988,24.000067,0.0 120.631151,24.000516,0.0 120.631684,24.000873,0.0 120.631707,24.001163,0.0 120.631731,24.001419,0.0 120.632166,24.002044,0.0 120.632436,24.002984,0.0 120.632448,24.003185,0.0 120.632617,24.003341,0.0 120.632872,24.003498,0.0 120.633633,24.004391,0.0 120.634395,24.005183,0.0 120.634867,24.005519,0.0 120.63551,24.005587,0.0 120.63699,24.005602,0.0 120.63817,24.00566,0.0 120.638148,24.0061,0.0 120.63813,24.006432,0.0 120.638114,24.006783,0.0 120.638099,24.00708,0.0 120.638086,24.007312,0.0 120.638086,24.007313,0.0 120.638082,24.007407,0.0 120.638121,24.007432,0.0 120.637937,24.008562,0.0</coordinates></LinearRing></outerBoundaryIs></Polygon><styleUrl>#spolygon-map</styleUrl></Placemark><Placemark><Polygon><outerBoundaryIs><LinearRing><coordinates>120.637484,24.013603,0.0 120.63388,24.01367,0.0 120.631715,24.013715,0.0 120.630503,24.013687,0.0 120.630449,24.013524,0.0 120.630477,24.013169,0.0 120.630655,24.012919,0.0 120.630806,24.012682,0.0 120.630833,24.012495,0.0 120.630821,24.012207,0.0 120.630672,24.011844,0.0 120.630482,24.011669,0.0 120.630223,24.011606,0.0 120.629815,24.011555,0.0 120.628878,24.011665,0.0 120.627748,24.011675,0.0 120.627339,24.011636,0.0 120.626917,24.01156,0.0 120.625979,24.011196,0.0 120.625054,24.010781,0.0 120.624401,24.010542,0.0 120.62417,24.010504,0.0 120.623775,24.010515,0.0 120.623108,24.010614,0.0 120.622392,24.010575,0.0 120.62095,24.010434,0.0 120.620419,24.010395,0.0 120.620146,24.010369,0.0 120.619847,24.010406,0.0 120.619451,24.01063,0.0 120.619015,24.011004,0.0 120.618428,24.011315,0.0 120.618183,24.011339,0.0 120.617503,24.011113,0.0 120.616667,24.010834,0.0 120.615878,24.010532,0.0 120.615321,24.010156,0.0 120.614804,24.009992,0.0 120.614083,24.009965,0.0 120.613797,24.010014,0.0 120.613401,24.010226,0.0 120.613248,24.010421,0.0 120.612608,24.010209,0.0 120.61159,24.00992,0.0 120.61062,24.00984,0.0 120.609692,24.009928,0.0 120.60935,24.009928,0.0 120.608749,24.009793,0.0 120.607612,24.009488,0.0 120.606975,24.009342,0.0 120.606795,24.009317,0.0 120.606995,24.008418,0.0 120.607522,24.006947,0.0 120.608047,24.006264,0.0 120.6089,24.00524,0.0 120.610081,24.004462,0.0 120.610689,24.004319,0.0 120.612373,24.004447,0.0 120.613769,24.004818,0.0 120.617622,24.005868,0.0 120.619782,24.006576,0.0 120.621332,24.006828,0.0 120.622109,24.006785,0.0 120.623458,24.006666,0.0 120.62449,24.006757,0.0 120.625085,24.007015,0.0 120.625588,24.007421,0.0 120.626182,24.007868,0.0 120.626995,24.008182,0.0 120.627929,24.00843,0.0 120.6285,24.008454,0.0 120.628938,24.008366,0.0 120.631046,24.008337,0.0 120.634204,24.008311,0.0 120.637937,24.008562,0.0 120.637754,24.009683,0.0 120.637544,24.011105,0.0 120.637488,24.011928,0.0 120.637431,24.012855,0.0 120.637484,24.013603,0.0</coordinates></LinearRing></outerBoundaryIs></Polygon><styleUrl>#spolygon-map</styleUrl></Placemark><Placemark><Polygon><outerBoundaryIs><LinearRing><coordinates>120.637484,24.013603,0.0 120.637494,24.013738,0.0 120.637563,24.015885,0.0 120.637604,24.016838,0.0 120.637622,24.017794,0.0 120.637426,24.018588,0.0 120.637228,24.019589,0.0 120.637106,24.019934,0.0 120.63651,24.019862,0.0 120.636184,24.019756,0.0 120.635134,24.019194,0.0 120.633617,24.018317,0.0 120.632509,24.017508,0.0 120.631627,24.016658,0.0 120.630821,24.016127,0.0 120.630428,24.015896,0.0 120.629986,24.015895,0.0 120.629697,24.015939,0.0 120.629399,24.016079,0.0 120.628992,24.016476,0.0 120.628727,24.016686,0.0 120.628612,24.016774,0.0 120.62848,24.016757,0.0 120.628324,24.016712,0.0 120.62799,24.016817,0.0 120.627005,24.017038,0.0 120.62647,24.017025,0.0 120.625838,24.016901,0.0 120.624952,24.016631,0.0 120.624144,24.01637,0.0 120.623222,24.01618,0.0 120.623099,24.016155,0.0 120.622394,24.016131,0.0 120.622115,24.016041,0.0 120.621981,24.015951,0.0 120.621788,24.015705,0.0 120.621776,24.015426,0.0 120.621618,24.01492,0.0 120.621122,24.01416,0.0 120.620674,24.013679,0.0 120.62008,24.013209,0.0 120.619594,24.012929,0.0 120.618131,24.012296,0.0 120.616407,24.0116,0.0 120.613687,24.010568,0.0 120.613248,24.010421,0.0 120.613401,24.010226,0.0 120.613797,24.010014,0.0 120.614083,24.009965,0.0 120.614804,24.009992,0.0 120.615321,24.010156,0.0 120.615878,24.010532,0.0 120.616667,24.010834,0.0 120.617503,24.011113,0.0 120.618183,24.011339,0.0 120.618428,24.011315,0.0 120.619015,24.011004,0.0 120.619451,24.01063,0.0 120.619847,24.010406,0.0 120.620146,24.010369,0.0 120.620419,24.010395,0.0 120.62095,24.010434,0.0 120.622392,24.010575,0.0 120.623108,24.010614,0.0 120.623775,24.010515,0.0 120.62417,24.010504,0.0 120.624401,24.010542,0.0 120.625054,24.010781,0.0 120.625979,24.011196,0.0 120.626917,24.01156,0.0 120.627339,24.011636,0.0 120.627748,24.011675,0.0 120.628878,24.011665,0.0 120.629815,24.011555,0.0 120.630223,24.011606,0.0 120.630482,24.011669,0.0 120.630672,24.011844,0.0 120.630821,24.012207,0.0 120.630833,24.012495,0.0 120.630806,24.012682,0.0 120.630655,24.012919,0.0 120.630477,24.013169,0.0 120.630449,24.013524,0.0 120.630503,24.013687,0.0 120.631715,24.013715,0.0 120.63388,24.01367,0.0 120.637484,24.013603,0.0</coordinates></LinearRing></outerBoundaryIs></Polygon><styleUrl>#spolygon-map</styleUrl></Placemark><Placemark><Polygon><outerBoundaryIs><LinearRing><coordinates>120.605675,24.018711,0.0 120.604938,24.018891,0.0 120.604087,24.019373,0.0 120.603332,24.019746,0.0 120.602011,24.020714,0.0 120.600792,24.021561,0.0 120.600259,24.021979,0.0 120.599957,24.022185,0.0 120.599666,24.022442,0.0 120.59863,24.023358,0.0 120.597906,24.024157,0.0 120.59678,24.025384,0.0 120.596272,24.026044,0.0 120.595849,24.026854,0.0 120.595339,24.027796,0.0 120.595209,24.028013,0.0 120.59498,24.028505,0.0 120.594967,24.028456,0.0 120.594949,24.028375,0.0 120.594945,24.028293,0.0 120.594945,24.028216,0.0 120.594963,24.02811,0.0 120.594977,24.028024,0.0 120.594991,24.027959,0.0 120.595004,24.027886,0.0 120.595009,24.027853,0.0 120.595013,24.027784,0.0 120.595018,24.027702,0.0 120.595018,24.027625,0.0 120.595041,24.027503,0.0 120.595063,24.027376,0.0 120.595082,24.027234,0.0 120.5951,24.027152,0.0 120.595113,24.027062,0.0 120.59514,24.027001,0.0 120.59518,24.026896,0.0 120.595212,24.026802,0.0 120.595243,24.026724,0.0 120.595277,24.026599,0.0 120.595322,24.026467,0.0 120.595339,24.026366,0.0 120.595367,24.026208,0.0 120.595384,24.026102,0.0 120.595401,24.026005,0.0 120.595401,24.025858,0.0 120.595401,24.025746,0.0 120.595396,24.025634,0.0 120.595363,24.025512,0.0 120.595342,24.025395,0.0 120.595331,24.025294,0.0 120.595349,24.025001,0.0 120.59536,24.024803,0.0 120.595377,24.024666,0.0 120.5954,24.024544,0.0 120.595433,24.024457,0.0 120.595494,24.024381,0.0 120.595611,24.02426,0.0 120.595739,24.024133,0.0 120.595806,24.024027,0.0 120.595878,24.023925,0.0 120.595945,24.023824,0.0 120.596022,24.023743,0.0 120.596111,24.023641,0.0 120.596311,24.023545,0.0 120.596427,24.023525,0.0 120.596582,24.023516,0.0 120.596687,24.023495,0.0 120.596787,24.023481,0.0 120.596898,24.023415,0.0 120.597059,24.023319,0.0 120.597199,24.023246,0.0 120.597213,24.023225,0.0 120.597266,24.023102,0.0 120.597296,24.022945,0.0 120.597325,24.022807,0.0 120.597379,24.022302,0.0 120.597415,24.021994,0.0 120.597444,24.021782,0.0 120.597471,24.021626,0.0 120.597539,24.021375,0.0 120.597586,24.021163,0.0 120.597617,24.021073,0.0 120.597684,24.020974,0.0 120.597762,24.020908,0.0 120.597844,24.020847,0.0 120.597984,24.020771,0.0 120.598092,24.020696,0.0 120.598196,24.020625,0.0 120.598294,24.020536,0.0 120.598346,24.020466,0.0 120.598408,24.020311,0.0 120.598466,24.020169,0.0 120.598517,24.020051,0.0 120.598595,24.019947,0.0 120.598683,24.019848,0.0 120.598693,24.019786,0.0 120.598714,24.019678,0.0 120.598741,24.019583,0.0 120.598803,24.019512,0.0 120.598901,24.01947,0.0 120.599004,24.019409,0.0 120.599102,24.019343,0.0 120.599174,24.019277,0.0 120.599207,24.019208,0.0 120.599207,24.019132,0.0 120.599207,24.019038,0.0 120.599187,24.018849,0.0 120.599193,24.018749,0.0 120.599245,24.018669,0.0 120.599348,24.018584,0.0 120.599431,24.018542,0.0 120.599523,24.018504,0.0 120.599647,24.018438,0.0 120.599704,24.018372,0.0 120.599735,24.018264,0.0 120.599762,24.01816,0.0 120.599803,24.018122,0.0 120.599844,24.018037,0.0 120.599891,24.017905,0.0 120.599954,24.01773,0.0 120.600069,24.017377,0.0 120.60011,24.017235,0.0 120.600142,24.017074,0.0 120.600204,24.016918,0.0 120.600292,24.016763,0.0 120.600365,24.016621,0.0 120.600453,24.016427,0.0 120.60051,24.016285,0.0 120.600573,24.016028,0.0 120.60061,24.015905,0.0 120.600657,24.015678,0.0 120.600683,24.015569,0.0 120.600719,24.015428,0.0 120.600787,24.015314,0.0 120.600854,24.015215,0.0 120.600962,24.015111,0.0 120.601066,24.015045,0.0 120.601164,24.014994,0.0 120.601272,24.014942,0.0 120.601417,24.014881,0.0 120.60154,24.014848,0.0 120.60169,24.014792,0.0 120.601779,24.014733,0.0 120.601903,24.014596,0.0 120.602002,24.014454,0.0 120.602054,24.014327,0.0 120.602085,24.014199,0.0 120.602168,24.014019,0.0 120.602277,24.013816,0.0 120.60237,24.013604,0.0 120.602433,24.013454,0.0 120.602485,24.013298,0.0 120.602527,24.013161,0.0 120.602563,24.012982,0.0 120.6026,24.012873,0.0 120.602641,24.012812,0.0 120.602693,24.012741,0.0 120.602765,24.012661,0.0 120.602843,24.01259,0.0 120.602905,24.012528,0.0 120.602972,24.012444,0.0 120.603034,24.012344,0.0 120.603122,24.012259,0.0 120.603194,24.012227,0.0 120.603308,24.01217,0.0 120.603418,24.012134,0.0 120.603562,24.012097,0.0 120.603681,24.012059,0.0 120.603789,24.011998,0.0 120.603877,24.011908,0.0 120.603965,24.011762,0.0 120.604089,24.011606,0.0 120.604188,24.011446,0.0 120.604312,24.011309,0.0 120.604441,24.011106,0.0 120.604555,24.010912,0.0 120.604612,24.010851,0.0 120.604659,24.010771,0.0 120.604741,24.010686,0.0 120.604798,24.010639,0.0 120.604866,24.010494,0.0 120.604954,24.010272,0.0 120.605016,24.010068,0.0 120.605074,24.009842,0.0 120.60509,24.009752,0.0 120.60509,24.009595,0.0 120.605085,24.009539,0.0 120.605044,24.009421,0.0 120.604988,24.009302,0.0 120.604962,24.009251,0.0 120.605332,24.009215,0.0 120.606157,24.009226,0.0 120.606795,24.009317,0.0 120.606975,24.009342,0.0 120.607612,24.009488,0.0 120.608749,24.009793,0.0 120.60935,24.009928,0.0 120.609692,24.009928,0.0 120.61062,24.00984,0.0 120.61159,24.00992,0.0 120.612608,24.010209,0.0 120.613248,24.010421,0.0 120.613687,24.010568,0.0 120.616407,24.0116,0.0 120.618131,24.012296,0.0 120.619594,24.012929,0.0 120.62008,24.013209,0.0 120.620674,24.013679,0.0 120.621122,24.01416,0.0 120.621618,24.01492,0.0 120.621776,24.015426,0.0 120.621788,24.015705,0.0 120.621981,24.015951,0.0 120.622115,24.016041,0.0 120.622394,24.016131,0.0 120.623099,24.016155,0.0 120.623222,24.01618,0.0 120.622898,24.016433,0.0 120.62243,24.016721,0.0 120.622223,24.017158,0.0 120.621482,24.01933,0.0 120.621133,24.020582,0.0 120.621071,24.020579,0.0 120.620825,24.020485,0.0 120.620587,24.020265,0.0 120.620145,24.019944,0.0 120.620052,24.019756,0.0 120.61995,24.019584,0.0 120.619883,24.019349,0.0 120.619849,24.0192,0.0 120.619862,24.019111,0.0 120.619784,24.019056,0.0 120.619622,24.019056,0.0 120.619251,24.019055,0.0 120.619179,24.019049,0.0 120.619053,24.018988,0.0 120.619023,24.019005,0.0 120.618855,24.019114,0.0 120.618759,24.01918,0.0 120.618657,24.019196,0.0 120.618441,24.019234,0.0 120.618274,24.019256,0.0 120.618088,24.019255,0.0 120.618016,24.019233,0.0 120.617944,24.019178,0.0 120.617843,24.019029,0.0 120.617687,24.018941,0.0 120.617561,24.01899,0.0 120.617381,24.019193,0.0 120.617122,24.019445,0.0 120.616997,24.019594,0.0 120.616796,24.019673,0.0 120.616557,24.019716,0.0 120.616442,24.019716,0.0 120.616241,24.019663,0.0 120.615954,24.019469,0.0 120.615887,24.019407,0.0 120.61584,24.019231,0.0 120.615881,24.018922,0.0 120.615807,24.018848,0.0 120.614481,24.018585,0.0 120.613471,24.018557,0.0 120.612471,24.018545,0.0 120.611739,24.018593,0.0 120.610856,24.018719,0.0 120.609273,24.018725,0.0 120.608028,24.01878,0.0 120.607695,24.018779,0.0 120.606834,24.018639,0.0 120.605897,24.018656,0.0 120.605675,24.018711,0.0</coordinates></LinearRing></outerBoundaryIs></Polygon><styleUrl>#spolygon-map</styleUrl></Placemark><Placemark><Polygon><outerBoundaryIs><LinearRing><coordinates>120.637106,24.019934,0.0 120.636689,24.021169,0.0 120.636177,24.022844,0.0 120.635714,24.023703,0.0 120.635174,24.024562,0.0 120.634372,24.025562,0.0 120.633244,24.026738,0.0 120.632689,24.027203,0.0 120.632165,24.027695,0.0 120.63198,24.02809,0.0 120.631871,24.028442,0.0 120.631731,24.029175,0.0 120.631776,24.029443,0.0 120.631959,24.029867,0.0 120.632112,24.030135,0.0 120.632143,24.03038,0.0 120.631705,24.03027,0.0 120.631391,24.030155,0.0 120.631161,24.030122,0.0 120.630675,24.030024,0.0 120.630245,24.029905,0.0 120.629724,24.029803,0.0 120.629407,24.02973,0.0 120.628977,24.029667,0.0 120.628645,24.029622,0.0 120.628205,24.029621,0.0 120.627807,24.029649,0.0 120.627702,24.029658,0.0 120.627435,24.029681,0.0 120.626986,24.029733,0.0 120.626655,24.029782,0.0 120.627501,24.029235,0.0 120.628177,24.028805,0.0 120.628298,24.028673,0.0 120.628291,24.028534,0.0 120.627884,24.02788,0.0 120.627718,24.027754,0.0 120.627552,24.027594,0.0 120.627454,24.027433,0.0 120.627341,24.027204,0.0 120.627281,24.026904,0.0 120.627334,24.026734,0.0 120.627441,24.026442,0.0 120.627426,24.026344,0.0 120.627078,24.026184,0.0 120.626245,24.026168,0.0 120.626139,24.026,0.0 120.626102,24.025722,0.0 120.626188,24.024944,0.0 120.626305,24.02472,0.0 120.62656,24.024365,0.0 120.626731,24.024032,0.0 120.626754,24.023818,0.0 120.626598,24.023518,0.0 120.626441,24.023217,0.0 120.626296,24.023006,0.0 120.626115,24.022861,0.0 120.62597,24.022738,0.0 120.625741,24.022515,0.0 120.62509,24.021647,0.0 120.624945,24.02138,0.0 120.624807,24.021177,0.0 120.624372,24.020887,0.0 120.623514,24.020529,0.0 120.623126,24.020472,0.0 120.622351,24.020604,0.0 120.621709,24.020602,0.0 120.621133,24.020582,0.0 120.621482,24.01933,0.0 120.622223,24.017158,0.0 120.62243,24.016721,0.0 120.622898,24.016433,0.0 120.623222,24.01618,0.0 120.624144,24.01637,0.0 120.624952,24.016631,0.0 120.625838,24.016901,0.0 120.62647,24.017025,0.0 120.627005,24.017038,0.0 120.62799,24.016817,0.0 120.628324,24.016712,0.0 120.62848,24.016757,0.0 120.628612,24.016774,0.0 120.628727,24.016686,0.0 120.628992,24.016476,0.0 120.629399,24.016079,0.0 120.629697,24.015939,0.0 120.629986,24.015895,0.0 120.630428,24.015896,0.0 120.630821,24.016127,0.0 120.631627,24.016658,0.0 120.632509,24.017508,0.0 120.633617,24.018317,0.0 120.635134,24.019194,0.0 120.636184,24.019756,0.0 120.63651,24.019862,0.0 120.637106,24.019934,0.0</coordinates></LinearRing></outerBoundaryIs></Polygon><styleUrl>#spolygon-map</styleUrl></Placemark><Placemark><Polygon><outerBoundaryIs><LinearRing><coordinates>120.655745,24.008422,0.0 120.655867,24.008419,0.0 120.65594,24.008416,0.0 120.65625,24.008415,0.0 120.656579,24.008416,0.0 120.656889,24.008407,0.0 120.657133,24.008401,0.0 120.657322,24.008392,0.0 120.657669,24.008386,0.0 120.658064,24.00839,0.0 120.658147,24.008387,0.0 120.658315,24.008377,0.0 120.658912,24.008369,0.0 120.65949,24.008354,0.0 120.660025,24.008363,0.0 120.660215,24.008344,0.0 120.66064,24.008324,0.0 120.661085,24.008331,0.0 120.661397,24.008316,0.0 120.661788,24.008276,0.0 120.661941,24.008259,0.0 120.662088,24.008244,0.0 120.662353,24.00821,0.0 120.662442,24.008198,0.0 120.662889,24.00817,0.0 120.663125,24.008138,0.0 120.66327,24.008119,0.0 120.663578,24.008099,0.0 120.664002,24.00803,0.0 120.664303,24.007986,0.0 120.66474,24.007924,0.0 120.665057,24.007877,0.0 120.665324,24.007847,0.0 120.665499,24.007824,0.0 120.665629,24.007807,0.0 120.665891,24.007779,0.0 120.666143,24.007747,0.0 120.666292,24.007616,0.0 120.666494,24.007455,0.0 120.666647,24.007329,0.0 120.666777,24.007226,0.0 120.666977,24.007131,0.0 120.667185,24.007051,0.0 120.667222,24.007038,0.0 120.667389,24.006983,0.0 120.667572,24.006912,0.0 120.667725,24.006894,0.0 120.667938,24.006851,0.0 120.66826,24.00681,0.0 120.668607,24.006764,0.0 120.668881,24.006725,0.0 120.669159,24.006689,0.0 120.669335,24.006676,0.0 120.66941,24.006669,0.0 120.669472,24.006663,0.0 120.669648,24.00656,0.0 120.669842,24.006474,0.0 120.670074,24.0064,0.0 120.670155,24.006363,0.0 120.670218,24.006335,0.0 120.670353,24.006289,0.0 120.670534,24.006269,0.0 120.670659,24.006275,0.0 120.670714,24.006297,0.0 120.670802,24.006332,0.0 120.670974,24.006411,0.0 120.671038,24.006459,0.0 120.671147,24.006554,0.0 120.671239,24.006576,0.0 120.671418,24.00655,0.0 120.671596,24.006504,0.0 120.671693,24.006486,0.0 120.671784,24.006411,0.0 120.671833,24.006308,0.0 120.67187,24.006237,0.0 120.671935,24.006131,0.0 120.672035,24.006025,0.0 120.672178,24.005946,0.0 120.6723,24.005895,0.0 120.672475,24.005863,0.0 120.67257,24.00585,0.0 120.672697,24.005979,0.0 120.672746,24.006069,0.0 120.672844,24.006275,0.0 120.67291,24.006421,0.0 120.672911,24.006422,0.0 120.672978,24.006578,0.0 120.673088,24.006798,0.0 120.673242,24.007039,0.0 120.673242,24.00704,0.0 120.673336,24.007197,0.0 120.673457,24.007398,0.0 120.673577,24.007539,0.0 120.673709,24.007728,0.0 120.673753,24.007935,0.0 120.673686,24.008085,0.0 120.673577,24.008243,0.0 120.673394,24.008457,0.0 120.67326,24.008606,0.0 120.673073,24.00877,0.0 120.672866,24.008891,0.0 120.672584,24.00906,0.0 120.672291,24.009246,0.0 120.67206,24.009398,0.0 120.671815,24.009526,0.0 120.67161,24.009622,0.0 120.671444,24.009692,0.0 120.671178,24.009809,0.0 120.67104,24.009867,0.0 120.670842,24.009871,0.0 120.670676,24.009844,0.0 120.670455,24.009814,0.0 120.670329,24.009823,0.0 120.670225,24.009874,0.0 120.670077,24.009931,0.0 120.670079,24.009962,0.0 120.670149,24.010044,0.0 120.670263,24.010179,0.0 120.670412,24.010338,0.0 120.670531,24.010476,0.0 120.670596,24.010584,0.0 120.670632,24.010625,0.0 120.670697,24.010628,0.0 120.670866,24.010581,0.0 120.671021,24.010537,0.0 120.67114,24.010497,0.0 120.671393,24.010421,0.0 120.67156,24.010365,0.0 120.671717,24.010334,0.0 120.671986,24.01029,0.0 120.672169,24.010262,0.0 120.672319,24.010254,0.0 120.67247,24.010246,0.0 120.67256,24.010242,0.0 120.672791,24.01028,0.0 120.672905,24.010276,0.0 120.673028,24.010264,0.0 120.673121,24.010287,0.0 120.673221,24.010313,0.0 120.673334,24.010357,0.0 120.673457,24.01041,0.0 120.673578,24.010462,0.0 120.673676,24.010516,0.0 120.673807,24.010598,0.0 120.673951,24.010701,0.0 120.674024,24.01075,0.0 120.674165,24.010822,0.0 120.674248,24.010834,0.0 120.67428,24.010685,0.0 120.67433,24.010585,0.0 120.674413,24.010511,0.0 120.674558,24.010457,0.0 120.674672,24.010466,0.0 120.674841,24.010474,0.0 120.675085,24.010492,0.0 120.675298,24.010513,0.0 120.675524,24.010549,0.0 120.675681,24.010597,0.0 120.675824,24.010647,0.0 120.675982,24.010714,0.0 120.676124,24.010797,0.0 120.676252,24.010852,0.0 120.676365,24.010938,0.0 120.676461,24.011047,0.0 120.676565,24.011143,0.0 120.676652,24.011225,0.0 120.676739,24.011313,0.0 120.676832,24.011427,0.0 120.67698,24.011587,0.0 120.677111,24.011736,0.0 120.677263,24.011914,0.0 120.677399,24.012079,0.0 120.677537,24.012278,0.0 120.677671,24.012453,0.0 120.677832,24.012685,0.0 120.678009,24.012941,0.0 120.678202,24.013241,0.0 120.67838,24.013539,0.0 120.678555,24.013829,0.0 120.678635,24.014032,0.0 120.678525,24.014098,0.0 120.678329,24.014235,0.0 120.678153,24.014356,0.0 120.67791,24.014495,0.0 120.677648,24.014666,0.0 120.677327,24.014873,0.0 120.67719,24.014962,0.0 120.676907,24.015151,0.0 120.67667,24.015304,0.0 120.676424,24.015483,0.0 120.676397,24.015501,0.0 120.67619,24.015637,0.0 120.675955,24.015792,0.0 120.675728,24.015942,0.0 120.675525,24.016078,0.0 120.675413,24.016148,0.0 120.674884,24.01648,0.0 120.674373,24.016816,0.0 120.67385,24.017158,0.0 120.673442,24.01743,0.0 120.673022,24.017696,0.0 120.672673,24.017927,0.0 120.672364,24.018136,0.0 120.671694,24.018576,0.0 120.671242,24.018877,0.0 120.670762,24.0192,0.0 120.67022,24.019543,0.0 120.669807,24.019826,0.0 120.669286,24.020156,0.0 120.668829,24.020461,0.0 120.668419,24.020735,0.0 120.667832,24.021147,0.0 120.667276,24.021538,0.0 120.66674,24.021915,0.0 120.66627,24.022248,0.0 120.665775,24.022599,0.0 120.665396,24.022863,0.0 120.665051,24.023094,0.0 120.66477,24.023289,0.0 120.664715,24.023416,0.0 120.664703,24.023475,0.0 120.664673,24.023526,0.0 120.664654,24.023673,0.0 120.664601,24.023808,0.0 120.664588,24.023858,0.0 120.664588,24.023859,0.0 120.664569,24.023905,0.0 120.66455,24.02393,0.0 120.664512,24.023969,0.0 120.664439,24.02405,0.0 120.66438,24.024113,0.0 120.664271,24.024236,0.0 120.664183,24.024351,0.0 120.664092,24.024462,0.0 120.663896,24.024675,0.0 120.663844,24.0247,0.0 120.663712,24.024784,0.0 120.663593,24.024872,0.0 120.663481,24.024968,0.0 120.663348,24.025021,0.0 120.663206,24.025074,0.0 120.663103,24.025117,0.0 120.663014,24.025137,0.0 120.662848,24.025184,0.0 120.662782,24.025199,0.0 120.662151,24.025403,0.0 120.662077,24.025424,0.0 120.662059,24.02543,0.0 120.661822,24.02551,0.0 120.66154,24.02561,0.0 120.661392,24.025654,0.0 120.661222,24.025702,0.0 120.661127,24.025745,0.0 120.661068,24.025787,0.0 120.661019,24.025838,0.0 120.660901,24.025893,0.0 120.660841,24.025951,0.0 120.660755,24.026055,0.0 120.660725,24.026095,0.0 120.660655,24.026181,0.0 120.660604,24.026217,0.0 120.660528,24.02626,0.0 120.660335,24.026431,0.0 120.660177,24.026577,0.0 120.660094,24.026676,0.0 120.65995,24.026774,0.0 120.659819,24.026861,0.0 120.659789,24.026895,0.0 120.659762,24.02694,0.0 120.65962,24.027066,0.0 120.659546,24.027131,0.0 120.659447,24.027257,0.0 120.65937,24.027368,0.0 120.659131,24.027541,0.0 120.658985,24.027654,0.0 120.658819,24.027778,0.0 120.658559,24.027939,0.0 120.65836,24.028098,0.0 120.658131,24.028187,0.0 120.658131,24.028242,0.0 120.65603,24.030391,0.0 120.655882,24.030568,0.0 120.655777,24.030665,0.0 120.655705,24.030685,0.0 120.655673,24.03068,0.0 120.655649,24.030675,0.0 120.651895,24.028581,0.0 120.652111,24.028374,0.0 120.652726,24.027637,0.0 120.653546,24.026863,0.0 120.655341,24.025197,0.0 120.656216,24.024436,0.0 120.65813,24.022922,0.0 120.658681,24.022502,0.0 120.658878,24.02236,0.0 120.658868,24.022272,0.0 120.658622,24.022013,0.0 120.658372,24.021831,0.0 120.658365,24.021748,0.0 120.658433,24.021615,0.0 120.658509,24.021532,0.0 120.658601,24.021442,0.0 120.658609,24.021358,0.0 120.658374,24.021023,0.0 120.657928,24.020493,0.0 120.657777,24.020193,0.0 120.657557,24.020186,0.0 120.657428,24.02022,0.0 120.656304,24.020635,0.0 120.65612,24.020734,0.0 120.655936,24.020663,0.0 120.65563,24.020423,0.0 120.655188,24.01938,0.0 120.654746,24.018366,0.0 120.654197,24.017162,0.0 120.653572,24.015655,0.0 120.653359,24.014691,0.0 120.653163,24.013593,0.0 120.65321,24.013255,0.0 120.65361,24.012848,0.0 120.654116,24.012609,0.0 120.654852,24.012484,0.0 120.655113,24.012344,0.0 120.655236,24.012218,0.0 120.655406,24.011923,0.0 120.655437,24.011585,0.0 120.655548,24.01029,0.0 120.655628,24.008981,0.0 120.655745,24.008423,0.0 120.655745,24.008422,0.0</coordinates></LinearRing></outerBoundaryIs></Polygon><styleUrl>#spolygon-map</styleUrl></Placemark><Placemark><Polygon><outerBoundaryIs><LinearRing><coordinates>120.626346,24.029825,0.0 120.626143,24.029705,0.0 120.625778,24.029336,0.0 120.625575,24.028961,0.0 120.625459,24.028536,0.0 120.625315,24.028309,0.0 120.624856,24.028035,0.0 120.624337,24.027893,0.0 120.623477,24.027789,0.0 120.622115,24.027817,0.0 120.621096,24.027846,0.0 120.620279,24.027899,0.0 120.619725,24.027952,0.0 120.619128,24.028154,0.0 120.617181,24.028721,0.0 120.616209,24.029093,0.0 120.615723,24.029389,0.0 120.615442,24.029459,0.0 120.614846,24.029551,0.0 120.614504,24.029746,0.0 120.61418,24.029972,0.0 120.613958,24.030166,0.0 120.61383,24.030252,0.0 120.613449,24.030463,0.0 120.61316,24.030556,0.0 120.612853,24.030618,0.0 120.612632,24.030594,0.0 120.612419,24.030523,0.0 120.612172,24.030436,0.0 120.611943,24.030342,0.0 120.611688,24.030177,0.0 120.611416,24.030051,0.0 120.611168,24.029908,0.0 120.610386,24.029351,0.0 120.61009,24.028842,0.0 120.610082,24.028686,0.0 120.609988,24.028482,0.0 120.60987,24.02838,0.0 120.609682,24.028309,0.0 120.609461,24.028207,0.0 120.609351,24.028012,0.0 120.60942,24.027879,0.0 120.609505,24.027832,0.0 120.609744,24.027697,0.0 120.609914,24.027549,0.0 120.609983,24.027447,0.0 120.609983,24.027236,0.0 120.610018,24.027065,0.0 120.610351,24.026698,0.0 120.610642,24.026316,0.0 120.610719,24.025929,0.0 120.61067,24.02542,0.0 120.610492,24.025092,0.0 120.609889,24.024731,0.0 120.609795,24.024629,0.0 120.609778,24.024527,0.0 120.609651,24.024211,0.0 120.609635,24.023992,0.0 120.609695,24.023664,0.0 120.609944,24.023203,0.0 120.610218,24.022427,0.0 120.610236,24.022309,0.0 120.610126,24.022208,0.0 120.609947,24.022004,0.0 120.609948,24.021871,0.0 120.609863,24.021683,0.0 120.609599,24.021604,0.0 120.609378,24.021487,0.0 120.609175,24.021158,0.0 120.608979,24.021095,0.0 120.60869,24.020985,0.0 120.608529,24.020883,0.0 120.608461,24.020679,0.0 120.608342,24.020601,0.0 120.608172,24.020561,0.0 120.607948,24.020621,0.0 120.607769,24.020675,0.0 120.607208,24.020494,0.0 120.606876,24.020321,0.0 120.606656,24.020023,0.0 120.606402,24.019468,0.0 120.606029,24.019006,0.0 120.605675,24.018711,0.0 120.605897,24.018656,0.0 120.606834,24.018639,0.0 120.607695,24.018779,0.0 120.608028,24.01878,0.0 120.609273,24.018725,0.0 120.610856,24.018719,0.0 120.611739,24.018593,0.0 120.612471,24.018545,0.0 120.613471,24.018557,0.0 120.614481,24.018585,0.0 120.615807,24.018848,0.0 120.615881,24.018922,0.0 120.61584,24.019231,0.0 120.615887,24.019407,0.0 120.615954,24.019469,0.0 120.616241,24.019663,0.0 120.616442,24.019716,0.0 120.616557,24.019716,0.0 120.616796,24.019673,0.0 120.616997,24.019594,0.0 120.617122,24.019445,0.0 120.617381,24.019193,0.0 120.617561,24.01899,0.0 120.617687,24.018941,0.0 120.617843,24.019029,0.0 120.617944,24.019178,0.0 120.618016,24.019233,0.0 120.618088,24.019255,0.0 120.618274,24.019256,0.0 120.618441,24.019234,0.0 120.618657,24.019196,0.0 120.618759,24.01918,0.0 120.618855,24.019114,0.0 120.619023,24.019005,0.0 120.619053,24.018988,0.0 120.619179,24.019049,0.0 120.619251,24.019055,0.0 120.619622,24.019056,0.0 120.619784,24.019056,0.0 120.619862,24.019111,0.0 120.619849,24.0192,0.0 120.619883,24.019349,0.0 120.61995,24.019584,0.0 120.620052,24.019756,0.0 120.620145,24.019944,0.0 120.620587,24.020265,0.0 120.620825,24.020485,0.0 120.621071,24.020579,0.0 120.621133,24.020582,0.0 120.621709,24.020602,0.0 120.622351,24.020604,0.0 120.623126,24.020472,0.0 120.623514,24.020529,0.0 120.624372,24.020887,0.0 120.624807,24.021177,0.0 120.624945,24.02138,0.0 120.62509,24.021647,0.0 120.625741,24.022515,0.0 120.62597,24.022738,0.0 120.626115,24.022861,0.0 120.626296,24.023006,0.0 120.626441,24.023217,0.0 120.626598,24.023518,0.0 120.626754,24.023818,0.0 120.626731,24.024032,0.0 120.62656,24.024365,0.0 120.626305,24.02472,0.0 120.626188,24.024944,0.0 120.626102,24.025722,0.0 120.626139,24.026,0.0 120.626245,24.026168,0.0 120.627078,24.026184,0.0 120.627426,24.026344,0.0 120.627441,24.026442,0.0 120.627334,24.026734,0.0 120.627281,24.026904,0.0 120.627341,24.027204,0.0 120.627454,24.027433,0.0 120.627552,24.027594,0.0 120.627718,24.027754,0.0 120.627884,24.02788,0.0 120.628291,24.028534,0.0 120.628298,24.028673,0.0 120.628177,24.028805,0.0 120.627501,24.029235,0.0 120.626655,24.029782,0.0 120.626555,24.029797,0.0 120.626346,24.029825,0.0</coordinates></LinearRing></outerBoundaryIs></Polygon><styleUrl>#spolygon-map</styleUrl></Placemark><Placemark><Polygon><outerBoundaryIs><LinearRing><coordinates>120.64526,24.034313,0.0 120.645201,24.034314,0.0 120.645149,24.034301,0.0 120.645094,24.03427,0.0 120.645065,24.034229,0.0 120.645023,24.034164,0.0 120.644895,24.033923,0.0 120.64482,24.033764,0.0 120.644779,24.033706,0.0 120.644687,24.033598,0.0 120.6446,24.033438,0.0 120.644724,24.033242,0.0 120.644742,24.033171,0.0 120.644742,24.03317,0.0 120.644768,24.033093,0.0 120.644805,24.032929,0.0 120.644805,24.032929,0.0 120.644815,24.032816,0.0 120.644805,24.032787,0.0 120.644754,24.03279,0.0 120.644689,24.032822,0.0 120.644515,24.032903,0.0 120.644507,24.032867,0.0 120.64446,24.032683,0.0 120.644448,24.032601,0.0 120.644448,24.0326,0.0 120.644425,24.032454,0.0 120.644422,24.032387,0.0 120.644425,24.032311,0.0 120.644456,24.032218,0.0 120.644456,24.032217,0.0 120.644494,24.032108,0.0 120.644669,24.03159,0.0 120.644711,24.031396,0.0 120.644774,24.031262,0.0 120.644826,24.031062,0.0 120.645163,24.030449,0.0 120.645308,24.030232,0.0 120.645403,24.030131,0.0 120.645443,24.030077,0.0 120.645488,24.030018,0.0 120.645501,24.029966,0.0 120.645491,24.029889,0.0 120.645491,24.029888,0.0 120.645481,24.029806,0.0 120.645512,24.029702,0.0 120.645492,24.029596,0.0 120.645638,24.028813,0.0 120.645649,24.028714,0.0 120.645743,24.028639,0.0 120.645809,24.028597,0.0 120.645919,24.028527,0.0 120.646049,24.02845,0.0 120.646111,24.028386,0.0 120.646163,24.028338,0.0 120.646163,24.028234,0.0 120.646163,24.028233,0.0 120.646169,24.028157,0.0 120.64618,24.028096,0.0 120.64618,24.028095,0.0 120.646198,24.027808,0.0 120.646221,24.027461,0.0 120.646243,24.027021,0.0 120.646247,24.026904,0.0 120.646247,24.026903,0.0 120.646231,24.026749,0.0 120.646202,24.026673,0.0 120.64612,24.026618,0.0 120.645687,24.0264,0.0 120.645493,24.026318,0.0 120.645285,24.026194,0.0 120.645072,24.026058,0.0 120.644956,24.025997,0.0 120.644852,24.025931,0.0 120.64463,24.025881,0.0 120.644569,24.025906,0.0 120.644409,24.025973,0.0 120.644251,24.026058,0.0 120.644061,24.02613,0.0 120.643903,24.026163,0.0 120.643841,24.02617,0.0 120.6437,24.026186,0.0 120.643571,24.026217,0.0 120.643366,24.026277,0.0 120.64318,24.026364,0.0 120.643017,24.026504,0.0 120.642849,24.026662,0.0 120.642696,24.026779,0.0 120.642487,24.026939,0.0 120.642345,24.027063,0.0 120.642144,24.027214,0.0 120.642016,24.027296,0.0 120.641912,24.027369,0.0 120.641878,24.027375,0.0 120.641835,24.027381,0.0 120.641769,24.027382,0.0 120.641752,24.027382,0.0 120.64157,24.027368,0.0 120.641458,24.027392,0.0 120.641304,24.027425,0.0 120.641205,24.027444,0.0 120.641141,24.027455,0.0 120.641118,24.027449,0.0 120.640964,24.027405,0.0 120.640827,24.027346,0.0 120.64059,24.027282,0.0 120.640389,24.02727,0.0 120.640254,24.027284,0.0 120.640058,24.027342,0.0 120.639882,24.027434,0.0 120.639686,24.027522,0.0 120.63949,24.027577,0.0 120.639315,24.02761,0.0 120.639149,24.027638,0.0 120.638973,24.027699,0.0 120.638885,24.027733,0.0 120.638824,24.027754,0.0 120.63876,24.02784,0.0 120.638663,24.027948,0.0 120.638552,24.028022,0.0 120.638468,24.028077,0.0 120.638366,24.028108,0.0 120.63821,24.028228,0.0 120.637979,24.02831,0.0 120.637719,24.028438,0.0 120.637524,24.02853,0.0 120.637304,24.028676,0.0 120.63718,24.028777,0.0 120.637092,24.028858,0.0 120.636966,24.029024,0.0 120.636843,24.0292,0.0 120.636758,24.029343,0.0 120.636684,24.029494,0.0 120.636655,24.029628,0.0 120.636655,24.029629,0.0 120.636355,24.030437,0.0 120.636253,24.030772,0.0 120.636184,24.030931,0.0 120.636171,24.031007,0.0 120.636133,24.031053,0.0 120.636072,24.031061,0.0 120.635883,24.031066,0.0 120.635688,24.031078,0.0 120.635454,24.031083,0.0 120.635141,24.031123,0.0 120.635108,24.031048,0.0 120.635071,24.030964,0.0 120.634974,24.030978,0.0 120.634788,24.030989,0.0 120.63444,24.031015,0.0 120.634316,24.031035,0.0 120.634121,24.031065,0.0 120.633974,24.031082,0.0 120.633889,24.031064,0.0 120.633797,24.031034,0.0 120.633123,24.030714,0.0 120.633123,24.030715,0.0 120.633123,24.03078,0.0 120.632916,24.030682,0.0 120.632757,24.030631,0.0 120.632538,24.030532,0.0 120.632259,24.030409,0.0 120.632143,24.03038,0.0 120.632112,24.030135,0.0 120.631959,24.029867,0.0 120.631776,24.029443,0.0 120.631731,24.029175,0.0 120.631871,24.028442,0.0 120.63198,24.02809,0.0 120.632165,24.027695,0.0 120.632689,24.027203,0.0 120.633244,24.026738,0.0 120.634372,24.025562,0.0 120.635174,24.024562,0.0 120.635714,24.023703,0.0 120.636177,24.022844,0.0 120.636689,24.021169,0.0 120.637106,24.019934,0.0 120.637228,24.019589,0.0 120.637426,24.018588,0.0 120.637622,24.017794,0.0 120.637604,24.016838,0.0 120.637563,24.015885,0.0 120.637494,24.013738,0.0 120.637484,24.013603,0.0 120.637431,24.012855,0.0 120.637488,24.011928,0.0 120.637544,24.011105,0.0 120.637754,24.009683,0.0 120.637937,24.008562,0.0 120.638121,24.007432,0.0 120.638224,24.007428,0.0 120.638344,24.007408,0.0 120.638477,24.007385,0.0 120.638587,24.007308,0.0 120.638686,24.007223,0.0 120.638773,24.007117,0.0 120.638875,24.007001,0.0 120.638973,24.006862,0.0 120.639033,24.006791,0.0 120.639133,24.00668,0.0 120.639283,24.00652,0.0 120.639433,24.006388,0.0 120.639672,24.006193,0.0 120.639895,24.006023,0.0 120.640146,24.005859,0.0 120.640262,24.005751,0.0 120.640335,24.005733,0.0 120.640432,24.00576,0.0 120.640492,24.00579,0.0 120.640549,24.005839,0.0 120.640541,24.005864,0.0 120.640522,24.005966,0.0 120.640522,24.005967,0.0 120.640506,24.006048,0.0 120.640505,24.006049,0.0 120.640459,24.006223,0.0 120.640453,24.006345,0.0 120.640453,24.006346,0.0 120.640451,24.006451,0.0 120.640495,24.006571,0.0 120.640535,24.006632,0.0 120.640612,24.006722,0.0 120.640695,24.006799,0.0 120.640814,24.006892,0.0 120.640951,24.006982,0.0 120.641017,24.007037,0.0 120.641031,24.007087,0.0 120.641045,24.007154,0.0 120.641087,24.007294,0.0 120.641109,24.007416,0.0 120.641162,24.00755,0.0 120.641219,24.007604,0.0 120.641285,24.007649,0.0 120.641313,24.007684,0.0 120.64137,24.007819,0.0 120.641396,24.007896,0.0 120.64144,24.00799,0.0 120.64147,24.008067,0.0 120.641525,24.008146,0.0 120.641575,24.008174,0.0 120.641669,24.008201,0.0 120.64174,24.008205,0.0 120.641791,24.008244,0.0 120.641883,24.008304,0.0 120.64195,24.008343,0.0 120.642022,24.00843,0.0 120.642123,24.008552,0.0 120.642251,24.008703,0.0 120.642385,24.00887,0.0 120.64244,24.008945,0.0 120.642461,24.008959,0.0 120.642502,24.008968,0.0 120.642542,24.008957,0.0 120.642598,24.008929,0.0 120.642697,24.008856,0.0 120.642797,24.008775,0.0 120.642968,24.008646,0.0 120.643049,24.00857,0.0 120.643154,24.00848,0.0 120.643238,24.00839,0.0 120.64326,24.008359,0.0 120.643271,24.008345,0.0 120.643337,24.008318,0.0 120.643376,24.008313,0.0 120.643482,24.008334,0.0 120.643541,24.008341,0.0 120.643658,24.008379,0.0 120.643827,24.008457,0.0 120.644004,24.008543,0.0 120.644078,24.008586,0.0 120.644204,24.008674,0.0 120.644384,24.008808,0.0 120.644548,24.008896,0.0 120.644645,24.008926,0.0 120.644818,24.008971,0.0 120.645051,24.009015,0.0 120.645309,24.009063,0.0 120.645541,24.009103,0.0 120.645768,24.009137,0.0 120.646009,24.009158,0.0 120.646092,24.009155,0.0 120.646188,24.009153,0.0 120.646364,24.009122,0.0 120.646523,24.009059,0.0 120.646701,24.008973,0.0 120.646924,24.008808,0.0 120.646997,24.00873,0.0 120.647132,24.00859,0.0 120.647238,24.008491,0.0 120.647306,24.008423,0.0 120.647347,24.008414,0.0 120.647575,24.008411,0.0 120.647838,24.008412,0.0 120.648093,24.00843,0.0 120.648367,24.008426,0.0 120.648484,24.008425,0.0 120.648549,24.008425,0.0 120.648753,24.008406,0.0 120.648913,24.008372,0.0 120.649009,24.008327,0.0 120.64925,24.00819,0.0 120.649408,24.008083,0.0 120.649473,24.008084,0.0 120.64964,24.008165,0.0 120.649772,24.008241,0.0 120.649908,24.008265,0.0 120.650159,24.00834,0.0 120.650433,24.008401,0.0 120.650672,24.008456,0.0 120.650825,24.00849,0.0 120.650958,24.008501,0.0 120.650973,24.008502,0.0 120.651071,24.008498,0.0 120.651261,24.008498,0.0 120.651375,24.008496,0.0 120.651494,24.008495,0.0 120.65167,24.008496,0.0 120.651809,24.008497,0.0 120.652082,24.00848,0.0 120.652312,24.008472,0.0 120.652385,24.008469,0.0 120.652632,24.00847,0.0 120.652946,24.008467,0.0 120.653048,24.008466,0.0 120.653376,24.008455,0.0 120.653767,24.00845,0.0 120.654167,24.008447,0.0 120.654615,24.008443,0.0 120.655024,24.008438,0.0 120.655362,24.008436,0.0 120.655745,24.008423,0.0 120.655628,24.008981,0.0 120.655548,24.01029,0.0 120.655437,24.011585,0.0 120.655406,24.011923,0.0 120.655236,24.012218,0.0 120.655113,24.012344,0.0 120.654852,24.012484,0.0 120.654116,24.012609,0.0 120.65361,24.012848,0.0 120.65321,24.013255,0.0 120.653163,24.013593,0.0 120.653359,24.014691,0.0 120.653572,24.015655,0.0 120.654197,24.017162,0.0 120.654746,24.018366,0.0 120.655188,24.01938,0.0 120.65563,24.020423,0.0 120.655936,24.020663,0.0 120.65612,24.020734,0.0 120.656304,24.020635,0.0 120.657428,24.02022,0.0 120.657557,24.020186,0.0 120.657777,24.020193,0.0 120.657928,24.020493,0.0 120.658374,24.021023,0.0 120.658609,24.021358,0.0 120.658601,24.021442,0.0 120.658509,24.021532,0.0 120.658433,24.021615,0.0 120.658365,24.021748,0.0 120.658372,24.021831,0.0 120.658622,24.022013,0.0 120.658868,24.022272,0.0 120.658878,24.02236,0.0 120.658681,24.022502,0.0 120.65813,24.022922,0.0 120.656216,24.024436,0.0 120.655341,24.025197,0.0 120.653546,24.026863,0.0 120.652726,24.027637,0.0 120.652111,24.028374,0.0 120.651895,24.028581,0.0 120.651798,24.028516,0.0 120.651741,24.028536,0.0 120.6517,24.028581,0.0 120.651638,24.028653,0.0 120.649834,24.030556,0.0 120.649699,24.030721,0.0 120.649634,24.030768,0.0 120.649563,24.030765,0.0 120.649505,24.030779,0.0 120.649426,24.030745,0.0 120.649344,24.030702,0.0 120.649299,24.030672,0.0 120.649262,24.030679,0.0 120.649207,24.030731,0.0 120.64669,24.033759,0.0 120.646545,24.033943,0.0 120.64646,24.033997,0.0 120.646392,24.034027,0.0 120.646376,24.034029,0.0 120.646288,24.034043,0.0 120.645809,24.034169,0.0 120.645365,24.034285,0.0 120.64526,24.034313,0.0</coordinates></LinearRing></outerBoundaryIs></Polygon><styleUrl>#spolygon-map</styleUrl></Placemark><Placemark><Polygon><outerBoundaryIs><LinearRing><coordinates>120.626346,24.029825,0.0 120.6262,24.029844,0.0 120.625966,24.029879,0.0 120.625708,24.029961,0.0 120.625625,24.029982,0.0 120.625468,24.03002,0.0 120.625307,24.030083,0.0 120.625146,24.030189,0.0 120.624993,24.030364,0.0 120.624838,24.030515,0.0 120.624705,24.030664,0.0 120.624704,24.030665,0.0 120.624583,24.030828,0.0 120.624456,24.030991,0.0 120.624252,24.031391,0.0 120.624252,24.031392,0.0 120.624166,24.031611,0.0 120.624152,24.031831,0.0 120.624152,24.031832,0.0 120.624118,24.032097,0.0 120.624123,24.032401,0.0 120.624096,24.032671,0.0 120.624117,24.033033,0.0 120.624216,24.033374,0.0 120.624376,24.03362,0.0 120.624463,24.033778,0.0 120.624616,24.033952,0.0 120.624823,24.03418,0.0 120.625008,24.034351,0.0 120.625247,24.034595,0.0 120.625462,24.034807,0.0 120.625648,24.035048,0.0 120.625768,24.03522,0.0 120.625876,24.035328,0.0 120.626033,24.03546,0.0 120.626175,24.035626,0.0 120.626303,24.03577,0.0 120.626304,24.03577,0.0 120.626519,24.036139,0.0 120.626666,24.036359,0.0 120.626666,24.03636,0.0 120.626789,24.036561,0.0 120.626829,24.036619,0.0 120.626901,24.036694,0.0 120.627038,24.036898,0.0 120.627198,24.037107,0.0 120.627247,24.037183,0.0 120.627338,24.037249,0.0 120.627445,24.037339,0.0 120.627531,24.037434,0.0 120.627676,24.037579,0.0 120.627825,24.037754,0.0 120.627907,24.037895,0.0 120.628007,24.038157,0.0 120.6281,24.038352,0.0 120.628093,24.038436,0.0 120.628093,24.038437,0.0 120.628095,24.038494,0.0 120.628095,24.038495,0.0 120.628064,24.03874,0.0 120.628015,24.039087,0.0 120.628015,24.039088,0.0 120.627899,24.039482,0.0 120.627899,24.039483,0.0 120.627822,24.03978,0.0 120.627705,24.040216,0.0 120.627614,24.040391,0.0 120.627453,24.04062,0.0 120.627344,24.040762,0.0 120.627235,24.040846,0.0 120.627135,24.040919,0.0 120.626971,24.041031,0.0 120.626757,24.041145,0.0 120.626502,24.041279,0.0 120.626237,24.041416,0.0 120.62611,24.041532,0.0 120.626005,24.041622,0.0 120.62599,24.041715,0.0 120.625969,24.04185,0.0 120.625956,24.042015,0.0 120.625918,24.042385,0.0 120.625884,24.042725,0.0 120.625846,24.043177,0.0 120.625782,24.043712,0.0 120.625745,24.04408,0.0 120.62573,24.044523,0.0 120.62573,24.044524,0.0 120.625732,24.044914,0.0 120.625732,24.044915,0.0 120.625753,24.045346,0.0 120.625769,24.045768,0.0 120.62578,24.046145,0.0 120.625789,24.046535,0.0 120.625785,24.04668,0.0 120.625785,24.046695,0.0 120.625785,24.046696,0.0 120.625785,24.046721,0.0 120.625637,24.046697,0.0 120.625507,24.046691,0.0 120.625371,24.046688,0.0 120.625209,24.046663,0.0 120.625058,24.046643,0.0 120.624928,24.046626,0.0 120.624862,24.046615,0.0 120.62475,24.046584,0.0 120.62466,24.046551,0.0 120.624573,24.046526,0.0 120.624474,24.046491,0.0 120.624372,24.046441,0.0 120.624275,24.046388,0.0 120.62423,24.046352,0.0 120.624197,24.046321,0.0 120.624176,24.046277,0.0 120.624131,24.04618,0.0 120.624068,24.046086,0.0 120.623984,24.046025,0.0 120.623923,24.046013,0.0 120.623706,24.046013,0.0 120.623616,24.046004,0.0 120.623525,24.046004,0.0 120.623308,24.046006,0.0 120.622967,24.046019,0.0 120.62284,24.046016,0.0 120.622738,24.046016,0.0 120.622566,24.046018,0.0 120.622454,24.046015,0.0 120.622346,24.046018,0.0 120.622126,24.046017,0.0 120.62196,24.046022,0.0 120.621764,24.046016,0.0 120.621655,24.046019,0.0 120.621565,24.046019,0.0 120.621354,24.046024,0.0 120.621254,24.046007,0.0 120.621188,24.045993,0.0 120.621085,24.045965,0.0 120.620971,24.045923,0.0 120.620868,24.045901,0.0 120.620757,24.045875,0.0 120.620712,24.045867,0.0 120.620593,24.045815,0.0 120.620511,24.045776,0.0 120.620463,24.045749,0.0 120.620376,24.045704,0.0 120.620252,24.045635,0.0 120.620159,24.045585,0.0 120.620066,24.045532,0.0 120.619972,24.045487,0.0 120.619894,24.045457,0.0 120.619846,24.045443,0.0 120.6198,24.045412,0.0 120.619722,24.045348,0.0 120.619644,24.045276,0.0 120.619551,24.045196,0.0 120.619465,24.045136,0.0 120.619314,24.045022,0.0 120.619233,24.044963,0.0 120.619161,24.044914,0.0 120.61905,24.044838,0.0 120.618908,24.044755,0.0 120.618649,24.044597,0.0 120.618523,24.044524,0.0 120.618317,24.044401,0.0 120.618175,24.044317,0.0 120.617995,24.044212,0.0 120.617913,24.044175,0.0 120.617835,24.044123,0.0 120.617567,24.043981,0.0 120.617326,24.04385,0.0 120.617245,24.043803,0.0 120.616978,24.043652,0.0 120.616909,24.04361,0.0 120.616821,24.043568,0.0 120.616641,24.043476,0.0 120.616553,24.043432,0.0 120.616475,24.043387,0.0 120.616424,24.043362,0.0 120.616357,24.043351,0.0 120.616273,24.043334,0.0 120.616189,24.043315,0.0 120.616092,24.043306,0.0 120.615902,24.043311,0.0 120.615763,24.043311,0.0 120.61554,24.043302,0.0 120.615398,24.043299,0.0 120.615256,24.043296,0.0 120.615127,24.043287,0.0 120.614995,24.043281,0.0 120.614886,24.043275,0.0 120.614636,24.04325,0.0 120.614313,24.043221,0.0 120.614147,24.043202,0.0 120.613988,24.043185,0.0 120.613837,24.043173,0.0 120.613746,24.04317,0.0 120.613583,24.043156,0.0 120.613424,24.043142,0.0 120.613306,24.043141,0.0 120.613066,24.043153,0.0 120.612903,24.043172,0.0 120.612761,24.043199,0.0 120.612674,24.043224,0.0 120.612595,24.043265,0.0 120.612508,24.043301,0.0 120.612432,24.04337,0.0 120.612341,24.043433,0.0 120.612239,24.043497,0.0 120.612172,24.043513,0.0 120.612109,24.043521,0.0 120.611974,24.043529,0.0 120.611859,24.043568,0.0 120.611781,24.043593,0.0 120.611739,24.04362,0.0 120.61169,24.043659,0.0 120.611648,24.04372,0.0 120.611605,24.043775,0.0 120.611509,24.043841,0.0 120.611439,24.043882,0.0 120.611367,24.043901,0.0 120.611294,24.043912,0.0 120.611237,24.043915,0.0 120.611177,24.043918,0.0 120.611119,24.043929,0.0 120.611029,24.043928,0.0 120.610911,24.043917,0.0 120.610815,24.043917,0.0 120.610703,24.043925,0.0 120.610612,24.043938,0.0 120.610513,24.043935,0.0 120.610406,24.043924,0.0 120.610342,24.043904,0.0 120.61027,24.04386,0.0 120.610192,24.043774,0.0 120.610153,24.043704,0.0 120.610075,24.043646,0.0 120.609993,24.043615,0.0 120.609903,24.043585,0.0 120.609773,24.043565,0.0 120.60965,24.043562,0.0 120.609523,24.043581,0.0 120.609408,24.04363,0.0 120.609351,24.043669,0.0 120.60929,24.043722,0.0 120.609211,24.043793,0.0 120.609139,24.043857,0.0 120.609078,24.04389,0.0 120.608976,24.043898,0.0 120.608855,24.043892,0.0 120.608729,24.043875,0.0 120.608638,24.04388,0.0 120.608578,24.043902,0.0 120.608499,24.043935,0.0 120.608436,24.043949,0.0 120.608345,24.043946,0.0 120.608303,24.04394,0.0 120.608252,24.043921,0.0 120.608145,24.043881,0.0 120.607992,24.043862,0.0 120.607841,24.043849,0.0 120.607739,24.043861,0.0 120.607695,24.043881,0.0 120.607659,24.043901,0.0 120.607566,24.043913,0.0 120.607424,24.043917,0.0 120.60734,24.043899,0.0 120.607243,24.043841,0.0 120.607154,24.043776,0.0 120.607012,24.043666,0.0 120.606901,24.043612,0.0 120.606782,24.043551,0.0 120.606662,24.043514,0.0 120.606573,24.043497,0.0 120.606493,24.043497,0.0 120.60628,24.043554,0.0 120.606137,24.043606,0.0 120.606075,24.04361,0.0 120.606022,24.043594,0.0 120.605933,24.043528,0.0 120.605809,24.043426,0.0 120.605703,24.04334,0.0 120.605543,24.04325,0.0 120.605335,24.043168,0.0 120.605015,24.043045,0.0 120.604352,24.042812,0.0 120.603779,24.042595,0.0 120.603438,24.042468,0.0 120.603216,24.042381,0.0 120.603043,24.04232,0.0 120.602856,24.042254,0.0 120.602803,24.042193,0.0 120.602759,24.042103,0.0 120.602693,24.041976,0.0 120.602613,24.041862,0.0 120.602525,24.041784,0.0 120.602295,24.04166,0.0 120.602171,24.041598,0.0 120.602016,24.041549,0.0 120.601767,24.041471,0.0 120.601577,24.041417,0.0 120.601408,24.04136,0.0 120.601146,24.041253,0.0 120.600902,24.041143,0.0 120.600578,24.041011,0.0 120.600126,24.040819,0.0 120.599891,24.040728,0.0 120.599418,24.040521,0.0 120.599139,24.040406,0.0 120.59858,24.040176,0.0 120.598034,24.039942,0.0 120.597397,24.039682,0.0 120.597046,24.039535,0.0 120.596594,24.03935,0.0 120.59576,24.039005,0.0 120.595109,24.038737,0.0 120.594972,24.038679,0.0 120.594617,24.038532,0.0 120.594298,24.0384,0.0 120.593641,24.03813,0.0 120.59341,24.038035,0.0 120.59302,24.037875,0.0 120.59282,24.037793,0.0 120.592834,24.037769,0.0 120.59287,24.037671,0.0 120.592879,24.037606,0.0 120.592883,24.037545,0.0 120.592892,24.037467,0.0 120.592888,24.037414,0.0 120.592857,24.037321,0.0 120.592844,24.037232,0.0 120.592818,24.037052,0.0 120.592805,24.036954,0.0 120.592796,24.036869,0.0 120.592752,24.036689,0.0 120.592721,24.036595,0.0 120.59269,24.03653,0.0 120.592584,24.036403,0.0 120.592491,24.036313,0.0 120.592314,24.036174,0.0 120.592159,24.036048,0.0 120.592039,24.035954,0.0 120.591991,24.0359,0.0 120.591951,24.035819,0.0 120.591938,24.035725,0.0 120.591938,24.035648,0.0 120.591943,24.035611,0.0 120.591979,24.035539,0.0 120.592019,24.035466,0.0 120.592055,24.035392,0.0 120.592104,24.035282,0.0 120.592149,24.035144,0.0 120.592171,24.035075,0.0 120.592185,24.035026,0.0 120.592212,24.034961,0.0 120.592274,24.034892,0.0 120.592363,24.034814,0.0 120.592461,24.034782,0.0 120.592621,24.034746,0.0 120.59271,24.034722,0.0 120.592826,24.034685,0.0 120.592981,24.03462,0.0 120.593075,24.03458,0.0 120.593182,24.034523,0.0 120.593266,24.034434,0.0 120.593369,24.034361,0.0 120.593489,24.034279,0.0 120.593596,24.034202,0.0 120.593682,24.034123,0.0 120.593736,24.034074,0.0 120.593812,24.034038,0.0 120.593856,24.034005,0.0 120.59391,24.033952,0.0 120.594007,24.033896,0.0 120.594101,24.033855,0.0 120.594194,24.033798,0.0 120.594314,24.033721,0.0 120.594444,24.033624,0.0 120.594546,24.033551,0.0 120.594639,24.033506,0.0 120.594728,24.033457,0.0 120.5948,24.033405,0.0 120.594853,24.033331,0.0 120.594916,24.033258,0.0 120.594974,24.033181,0.0 120.595027,24.033079,0.0 120.595055,24.032998,0.0 120.595095,24.032929,0.0 120.595126,24.032864,0.0 120.595162,24.032775,0.0 120.59518,24.032685,0.0 120.59518,24.032607,0.0 120.595185,24.03251,0.0 120.595185,24.032432,0.0 120.595199,24.032314,0.0 120.595208,24.032216,0.0 120.595222,24.032127,0.0 120.59524,24.032045,0.0 120.595271,24.031964,0.0 120.595285,24.03189,0.0 120.595303,24.031822,0.0 120.595312,24.031761,0.0 120.595308,24.031684,0.0 120.595277,24.03161,0.0 120.595224,24.031524,0.0 120.595175,24.031447,0.0 120.595144,24.031378,0.0 120.595144,24.031316,0.0 120.595127,24.031263,0.0 120.595127,24.031194,0.0 120.595149,24.031113,0.0 120.595172,24.031035,0.0 120.59519,24.030929,0.0 120.595186,24.030811,0.0 120.595169,24.030685,0.0 120.595151,24.030579,0.0 120.595138,24.030477,0.0 120.595134,24.030371,0.0 120.595148,24.030314,0.0 120.59517,24.030273,0.0 120.59521,24.030228,0.0 120.595268,24.030156,0.0 120.595326,24.030079,0.0 120.595357,24.029989,0.0 120.595384,24.029903,0.0 120.595411,24.029822,0.0 120.595434,24.029741,0.0 120.595447,24.029659,0.0 120.595461,24.029553,0.0 120.595475,24.029472,0.0 120.595493,24.029382,0.0 120.595497,24.029296,0.0 120.595502,24.029178,0.0 120.595498,24.029101,0.0 120.595498,24.029036,0.0 120.595485,24.028974,0.0 120.595436,24.028897,0.0 120.595388,24.028848,0.0 120.595312,24.028795,0.0 120.595237,24.028733,0.0 120.595166,24.028672,0.0 120.595091,24.028615,0.0 120.595051,24.028586,0.0 120.59498,24.028505,0.0 120.595209,24.028013,0.0 120.595339,24.027796,0.0 120.595849,24.026854,0.0 120.596272,24.026044,0.0 120.59678,24.025384,0.0 120.597906,24.024157,0.0 120.59863,24.023358,0.0 120.599666,24.022442,0.0 120.599957,24.022185,0.0 120.600259,24.021979,0.0 120.600792,24.021561,0.0 120.602011,24.020714,0.0 120.603332,24.019746,0.0 120.604087,24.019373,0.0 120.604938,24.018891,0.0 120.605675,24.018711,0.0 120.606029,24.019006,0.0 120.606402,24.019468,0.0 120.606656,24.020023,0.0 120.606876,24.020321,0.0 120.607208,24.020494,0.0 120.607769,24.020675,0.0 120.607948,24.020621,0.0 120.608172,24.020561,0.0 120.608342,24.020601,0.0 120.608461,24.020679,0.0 120.608529,24.020883,0.0 120.60869,24.020985,0.0 120.608979,24.021095,0.0 120.609175,24.021158,0.0 120.609378,24.021487,0.0 120.609599,24.021604,0.0 120.609863,24.021683,0.0 120.609948,24.021871,0.0 120.609947,24.022004,0.0 120.610126,24.022208,0.0 120.610236,24.022309,0.0 120.610218,24.022427,0.0 120.609944,24.023203,0.0 120.609695,24.023664,0.0 120.609635,24.023992,0.0 120.609651,24.024211,0.0 120.609778,24.024527,0.0 120.609795,24.024629,0.0 120.609889,24.024731,0.0 120.610492,24.025092,0.0 120.61067,24.02542,0.0 120.610719,24.025929,0.0 120.610642,24.026316,0.0 120.610351,24.026698,0.0 120.610018,24.027065,0.0 120.609983,24.027236,0.0 120.609983,24.027447,0.0 120.609914,24.027549,0.0 120.609744,24.027697,0.0 120.609505,24.027832,0.0 120.60942,24.027879,0.0 120.609351,24.028012,0.0 120.609461,24.028207,0.0 120.609682,24.028309,0.0 120.60987,24.02838,0.0 120.609988,24.028482,0.0 120.610082,24.028686,0.0 120.61009,24.028842,0.0 120.610386,24.029351,0.0 120.611168,24.029908,0.0 120.611416,24.030051,0.0 120.611688,24.030177,0.0 120.611943,24.030342,0.0 120.612172,24.030436,0.0 120.612419,24.030523,0.0 120.612632,24.030594,0.0 120.612853,24.030618,0.0 120.61316,24.030556,0.0 120.613449,24.030463,0.0 120.61383,24.030252,0.0 120.613958,24.030166,0.0 120.61418,24.029972,0.0 120.614504,24.029746,0.0 120.614846,24.029551,0.0 120.615442,24.029459,0.0 120.615723,24.029389,0.0 120.616209,24.029093,0.0 120.617181,24.028721,0.0 120.619128,24.028154,0.0 120.619725,24.027952,0.0 120.620279,24.027899,0.0 120.621096,24.027846,0.0 120.622115,24.027817,0.0 120.623477,24.027789,0.0 120.624337,24.027893,0.0 120.624856,24.028035,0.0 120.625315,24.028309,0.0 120.625459,24.028536,0.0 120.625575,24.028961,0.0 120.625778,24.029336,0.0 120.626143,24.029705,0.0 120.626346,24.029825,0.0</coordinates></LinearRing></outerBoundaryIs></Polygon><styleUrl>#spolygon-map</styleUrl></Placemark></Document>
</kml>
