<?xml version="1.0" encoding="UTF-8"?>
<kml xmlns="http://www.opengis.net/kml/2.2">
	<Document>
		<name>彰化縣埔心鄉</name>
		<Style id="spolygon">
			<LabelStyle>
				<scale>0.0</scale>
			</LabelStyle>
			<LineStyle>
				<color>330030ff</color>
				<width>0</width>
			</LineStyle>
			<PolyStyle>
				<color>330030ff</color>
			</PolyStyle>
		</Style>
		<StyleMap id="spolygon-map">
			<Pair>
				<key>normal</key>
				<styleUrl>#spolygon</styleUrl>
			</Pair>
		</StyleMap>
	<Placemark><Polygon><outerBoundaryIs><LinearRing><coordinates>120.540935,23.941613,0.0 120.540098,23.941659,0.0 120.539804,23.941631,0.0 120.539835,23.94124,0.0 120.5398,23.941124,0.0 120.539758,23.941069,0.0 120.539771,23.940959,0.0 120.539893,23.940232,0.0 120.539934,23.940071,0.0 120.539197,23.939804,0.0 120.53829,23.939569,0.0 120.538526,23.939003,0.0 120.538818,23.938126,0.0 120.53766,23.937841,0.0 120.537139,23.93775,0.0 120.536507,23.937652,0.0 120.536229,23.937536,0.0 120.53557,23.937182,0.0 120.534776,23.93659,0.0 120.533712,23.935967,0.0 120.532749,23.935357,0.0 120.532784,23.93519,0.0 120.53283,23.934997,0.0 120.532868,23.934804,0.0 120.532984,23.934248,0.0 120.533063,23.933959,0.0 120.533086,23.933854,0.0 120.533135,23.933774,0.0 120.533213,23.933674,0.0 120.533259,23.933643,0.0 120.533276,23.933591,0.0 120.533305,23.933544,0.0 120.533334,23.933423,0.0 120.533357,23.933313,0.0 120.533363,23.933255,0.0 120.533421,23.933067,0.0 120.533484,23.932842,0.0 120.533588,23.932606,0.0 120.533686,23.932423,0.0 120.533801,23.93212,0.0 120.53395,23.9319,0.0 120.534066,23.931682,0.0 120.534255,23.931426,0.0 120.534479,23.931144,0.0 120.534628,23.930971,0.0 120.534748,23.930715,0.0 120.534966,23.930406,0.0 120.535098,23.930208,0.0 120.535362,23.92992,0.0 120.535438,23.929859,0.0 120.535666,23.929729,0.0 120.535821,23.929687,0.0 120.536203,23.929605,0.0 120.536609,23.929501,0.0 120.536854,23.929502,0.0 120.536974,23.929445,0.0 120.537151,23.929429,0.0 120.537328,23.929461,0.0 120.537641,23.929562,0.0 120.537955,23.929731,0.0 120.538228,23.92981,0.0 120.538451,23.929879,0.0 120.538639,23.929905,0.0 120.538813,23.929955,0.0 120.539001,23.930029,0.0 120.539155,23.930124,0.0 120.539583,23.930241,0.0 120.539873,23.930394,0.0 120.540073,23.930468,0.0 120.540443,23.930615,0.0 120.540694,23.930721,0.0 120.540962,23.930816,0.0 120.541315,23.930953,0.0 120.541668,23.93107,0.0 120.542081,23.931189,0.0 120.542509,23.931352,0.0 120.542845,23.931463,0.0 120.54329,23.93157,0.0 120.543689,23.931681,0.0 120.543867,23.931726,0.0 120.543924,23.931778,0.0 120.543958,23.931857,0.0 120.543958,23.931909,0.0 120.543676,23.932626,0.0 120.543486,23.933134,0.0 120.543296,23.933558,0.0 120.543186,23.933871,0.0 120.543013,23.9342,0.0 120.543002,23.934268,0.0 120.543032,23.934298,0.0 120.542855,23.934533,0.0 120.542711,23.934674,0.0 120.542603,23.934996,0.0 120.542488,23.935224,0.0 120.542208,23.935523,0.0 120.542044,23.935839,0.0 120.541948,23.936094,0.0 120.541957,23.936244,0.0 120.542004,23.936429,0.0 120.541984,23.936596,0.0 120.541945,23.936887,0.0 120.541729,23.937877,0.0 120.541496,23.938898,0.0 120.541263,23.939549,0.0 120.541203,23.940107,0.0 120.541192,23.940644,0.0 120.541047,23.941084,0.0 120.540902,23.941409,0.0 120.540911,23.941576,0.0 120.540935,23.941613,0.0</coordinates></LinearRing></outerBoundaryIs></Polygon><styleUrl>#spolygon-map</styleUrl></Placemark><Placemark><Polygon><outerBoundaryIs><LinearRing><coordinates>120.552172,23.942629,0.0 120.551937,23.942642,0.0 120.551271,23.942552,0.0 120.550602,23.942332,0.0 120.549981,23.942143,0.0 120.549742,23.942103,0.0 120.549546,23.942079,0.0 120.549325,23.942156,0.0 120.549154,23.942289,0.0 120.54906,23.942414,0.0 120.548898,23.942445,0.0 120.548676,23.942444,0.0 120.548463,23.942467,0.0 120.548318,23.94249,0.0 120.548225,23.942544,0.0 120.548087,23.942779,0.0 120.547993,23.942919,0.0 120.547917,23.942943,0.0 120.547695,23.942942,0.0 120.5473,23.942845,0.0 120.545973,23.942664,0.0 120.544334,23.942592,0.0 120.543456,23.942554,0.0 120.541986,23.942627,0.0 120.54112,23.942755,0.0 120.541086,23.942249,0.0 120.541111,23.941868,0.0 120.541035,23.941762,0.0 120.540935,23.941613,0.0 120.540911,23.941576,0.0 120.540902,23.941409,0.0 120.541047,23.941084,0.0 120.541192,23.940644,0.0 120.541203,23.940107,0.0 120.541263,23.939549,0.0 120.541496,23.938898,0.0 120.541729,23.937877,0.0 120.541945,23.936887,0.0 120.541984,23.936596,0.0 120.542004,23.936429,0.0 120.541957,23.936244,0.0 120.541948,23.936094,0.0 120.542044,23.935839,0.0 120.542208,23.935523,0.0 120.542488,23.935224,0.0 120.542603,23.934996,0.0 120.542711,23.934674,0.0 120.542855,23.934533,0.0 120.543032,23.934298,0.0 120.543121,23.934322,0.0 120.543245,23.934298,0.0 120.543342,23.934254,0.0 120.543353,23.934192,0.0 120.543391,23.934145,0.0 120.543694,23.933916,0.0 120.543965,23.933689,0.0 120.544129,23.933559,0.0 120.544257,23.933444,0.0 120.544304,23.933384,0.0 120.544379,23.933391,0.0 120.544735,23.933423,0.0 120.545181,23.933458,0.0 120.545669,23.933493,0.0 120.545968,23.933494,0.0 120.546192,23.93349,0.0 120.546571,23.933444,0.0 120.546919,23.933388,0.0 120.547132,23.933374,0.0 120.54735,23.93337,0.0 120.547693,23.933418,0.0 120.547921,23.933419,0.0 120.54814,23.93341,0.0 120.548503,23.933359,0.0 120.548883,23.933255,0.0 120.549103,23.933201,0.0 120.549285,23.933145,0.0 120.549452,23.933112,0.0 120.549576,23.933093,0.0 120.549867,23.933065,0.0 120.550236,23.933062,0.0 120.55062,23.933058,0.0 120.551026,23.933045,0.0 120.551405,23.933008,0.0 120.551701,23.932956,0.0 120.551803,23.932962,0.0 120.551886,23.933005,0.0 120.55201,23.933187,0.0 120.552243,23.93355,0.0 120.552418,23.933875,0.0 120.552516,23.934008,0.0 120.55262,23.934123,0.0 120.552686,23.934229,0.0 120.552734,23.934308,0.0 120.552811,23.934489,0.0 120.552853,23.934494,0.0 120.553092,23.93449,0.0 120.553133,23.93449,0.0 120.553206,23.934548,0.0 120.55375,23.93505,0.0 120.553988,23.935337,0.0 120.554065,23.935418,0.0 120.554133,23.935471,0.0 120.5542,23.935523,0.0 120.554246,23.935595,0.0 120.554367,23.935722,0.0 120.554523,23.935856,0.0 120.554657,23.935981,0.0 120.554807,23.93611,0.0 120.555004,23.936254,0.0 120.555274,23.936431,0.0 120.555441,23.936524,0.0 120.555607,23.936615,0.0 120.555789,23.936711,0.0 120.555866,23.936759,0.0 120.555944,23.936783,0.0 120.556131,23.936822,0.0 120.556318,23.936894,0.0 120.556494,23.93699,0.0 120.55666,23.937062,0.0 120.556805,23.937143,0.0 120.557002,23.937234,0.0 120.557261,23.937373,0.0 120.5575,23.937546,0.0 120.557593,23.937594,0.0 120.557816,23.937742,0.0 120.55792,23.937771,0.0 120.558029,23.937776,0.0 120.558136,23.937754,0.0 120.558227,23.937764,0.0 120.55829,23.937771,0.0 120.558346,23.937752,0.0 120.558452,23.937701,0.0 120.558628,23.937566,0.0 120.558867,23.937444,0.0 120.559014,23.937444,0.0 120.559309,23.937471,0.0 120.559443,23.937484,0.0 120.560088,23.937686,0.0 120.560242,23.937732,0.0 120.560558,23.937803,0.0 120.560832,23.93783,0.0 120.561126,23.937882,0.0 120.561372,23.937948,0.0 120.561492,23.937982,0.0 120.561499,23.938052,0.0 120.561492,23.93813,0.0 120.561329,23.938632,0.0 120.561293,23.938793,0.0 120.5613,23.938877,0.0 120.561321,23.938961,0.0 120.56132,23.93907,0.0 120.561285,23.939238,0.0 120.561262,23.939559,0.0 120.561226,23.939855,0.0 120.561226,23.939945,0.0 120.561247,23.940048,0.0 120.561246,23.940242,0.0 120.561231,23.94059,0.0 120.561229,23.941048,0.0 120.561243,23.941215,0.0 120.561277,23.941551,0.0 120.56127,23.941596,0.0 120.561234,23.941634,0.0 120.561185,23.941699,0.0 120.561157,23.941795,0.0 120.561135,23.941873,0.0 120.561135,23.94195,0.0 120.561114,23.942027,0.0 120.561067,23.942104,0.0 120.560245,23.94078,0.0 120.559077,23.938925,0.0 120.558849,23.938614,0.0 120.558721,23.938614,0.0 120.558613,23.938626,0.0 120.558465,23.9387,0.0 120.558148,23.93873,0.0 120.557973,23.93868,0.0 120.55786,23.938707,0.0 120.557532,23.938969,0.0 120.557082,23.93933,0.0 120.556959,23.939455,0.0 120.556958,23.93963,0.0 120.556957,23.93993,0.0 120.55697,23.94018,0.0 120.556833,23.94033,0.0 120.55656,23.940479,0.0 120.55611,23.940641,0.0 120.55562,23.940877,0.0 120.554896,23.941475,0.0 120.554199,23.942073,0.0 120.55349,23.942471,0.0 120.552823,23.942594,0.0 120.552172,23.942629,0.0</coordinates></LinearRing></outerBoundaryIs></Polygon><styleUrl>#spolygon-map</styleUrl></Placemark><Placemark><Polygon><outerBoundaryIs><LinearRing><coordinates>120.51852,23.943133,0.0 120.517624,23.943226,0.0 120.516743,23.943375,0.0 120.515491,23.943663,0.0 120.514663,23.943841,0.0 120.513698,23.944073,0.0 120.512605,23.944313,0.0 120.512517,23.944208,0.0 120.512299,23.943904,0.0 120.512143,23.943723,0.0 120.51189,23.943389,0.0 120.511665,23.943094,0.0 120.511429,23.942805,0.0 120.511206,23.942517,0.0 120.511158,23.942457,0.0 120.510969,23.942217,0.0 120.51081,23.941998,0.0 120.510696,23.941849,0.0 120.510634,23.941769,0.0 120.510522,23.941634,0.0 120.510465,23.941559,0.0 120.510396,23.941469,0.0 120.510332,23.941371,0.0 120.510265,23.941245,0.0 120.510206,23.941135,0.0 120.510057,23.940857,0.0 120.509993,23.940736,0.0 120.509968,23.940672,0.0 120.509889,23.940482,0.0 120.509798,23.940338,0.0 120.509731,23.940214,0.0 120.509625,23.939974,0.0 120.509541,23.939814,0.0 120.509449,23.939668,0.0 120.5094,23.93957,0.0 120.509286,23.939343,0.0 120.509209,23.939183,0.0 120.509103,23.939014,0.0 120.509031,23.938854,0.0 120.508977,23.938749,0.0 120.508866,23.938547,0.0 120.508747,23.938365,0.0 120.508668,23.938203,0.0 120.508596,23.938045,0.0 120.508542,23.937956,0.0 120.508406,23.937718,0.0 120.508337,23.937575,0.0 120.508265,23.937433,0.0 120.508216,23.937307,0.0 120.508169,23.937177,0.0 120.508134,23.93705,0.0 120.50806,23.936907,0.0 120.508011,23.936763,0.0 120.507954,23.936595,0.0 120.507924,23.936369,0.0 120.507902,23.936093,0.0 120.507926,23.935704,0.0 120.507974,23.935343,0.0 120.508087,23.935031,0.0 120.508134,23.934974,0.0 120.508148,23.934958,0.0 120.508224,23.934889,0.0 120.508281,23.934802,0.0 120.508393,23.934611,0.0 120.508587,23.934174,0.0 120.508746,23.933822,0.0 120.508756,23.933668,0.0 120.508727,23.93356,0.0 120.508673,23.933433,0.0 120.508477,23.933188,0.0 120.50837,23.933003,0.0 120.508267,23.932889,0.0 120.508134,23.932683,0.0 120.507981,23.932535,0.0 120.507588,23.932195,0.0 120.507496,23.932136,0.0 120.507285,23.931958,0.0 120.50739,23.93185,0.0 120.507516,23.931748,0.0 120.507547,23.931706,0.0 120.507726,23.931561,0.0 120.507874,23.931452,0.0 120.507966,23.931385,0.0 120.508134,23.931323,0.0 120.508224,23.931337,0.0 120.508343,23.931313,0.0 120.508499,23.93125,0.0 120.508682,23.931226,0.0 120.50875,23.931201,0.0 120.508783,23.931104,0.0 120.508856,23.931084,0.0 120.509002,23.931071,0.0 120.509231,23.931043,0.0 120.509254,23.931034,0.0 120.509268,23.93093,0.0 120.5093,23.930905,0.0 120.509391,23.93088,0.0 120.50946,23.93085,0.0 120.509661,23.930822,0.0 120.509857,23.93081,0.0 120.510081,23.930806,0.0 120.51015,23.930832,0.0 120.510218,23.930882,0.0 120.510259,23.930912,0.0 120.5103,23.930916,0.0 120.510351,23.930887,0.0 120.510369,23.930832,0.0 120.510365,23.93074,0.0 120.510356,23.930618,0.0 120.51037,23.930463,0.0 120.510421,23.930396,0.0 120.510515,23.930366,0.0 120.510638,23.93037,0.0 120.510707,23.930358,0.0 120.510821,23.930346,0.0 120.510963,23.930334,0.0 120.510999,23.930304,0.0 120.511009,23.930208,0.0 120.511019,23.930019,0.0 120.511019,23.929939,0.0 120.511024,23.929889,0.0 120.511042,23.929856,0.0 120.511106,23.92981,0.0 120.51123,23.929802,0.0 120.511431,23.92979,0.0 120.511513,23.929786,0.0 120.511545,23.929706,0.0 120.511564,23.929652,0.0 120.511623,23.929639,0.0 120.511737,23.929656,0.0 120.512377,23.92973,0.0 120.512399,23.929818,0.0 120.512412,23.930187,0.0 120.51242,23.930317,0.0 120.512447,23.930347,0.0 120.512763,23.930369,0.0 120.512877,23.930386,0.0 120.512968,23.930399,0.0 120.513023,23.930458,0.0 120.513041,23.930562,0.0 120.513054,23.930609,0.0 120.513091,23.930617,0.0 120.51315,23.930613,0.0 120.513251,23.930504,0.0 120.51337,23.930379,0.0 120.513434,23.930333,0.0 120.513535,23.930333,0.0 120.513931,23.930465,0.0 120.514273,23.930567,0.0 120.514487,23.930664,0.0 120.514994,23.930842,0.0 120.515099,23.93088,0.0 120.51535,23.931027,0.0 120.515496,23.931087,0.0 120.515673,23.9312,0.0 120.515883,23.931352,0.0 120.516145,23.931481,0.0 120.516177,23.931498,0.0 120.516213,23.931498,0.0 120.516273,23.931427,0.0 120.516328,23.931402,0.0 120.51647,23.931289,0.0 120.516626,23.93116,0.0 120.516768,23.931013,0.0 120.517241,23.930714,0.0 120.517594,23.930514,0.0 120.517763,23.930397,0.0 120.518029,23.930184,0.0 120.518313,23.929937,0.0 120.518542,23.9298,0.0 120.518675,23.92975,0.0 120.518817,23.929641,0.0 120.519015,23.929556,0.0 120.519148,23.929489,0.0 120.519208,23.929456,0.0 120.519286,23.929393,0.0 120.51935,23.929398,0.0 120.519377,23.929402,0.0 120.519386,23.929457,0.0 120.519347,23.929543,0.0 120.519275,23.929704,0.0 120.519229,23.929838,0.0 120.519183,23.93001,0.0 120.51916,23.93014,0.0 120.519167,23.930509,0.0 120.51919,23.930585,0.0 120.519198,23.930738,0.0 120.519221,23.930822,0.0 120.51923,23.930932,0.0 120.519238,23.931091,0.0 120.519215,23.931292,0.0 120.519196,23.931452,0.0 120.519173,23.931536,0.0 120.519145,23.931565,0.0 120.519077,23.931577,0.0 120.51899,23.931568,0.0 120.518957,23.931669,0.0 120.518943,23.931761,0.0 120.51892,23.931812,0.0 120.518861,23.931837,0.0 120.518756,23.931828,0.0 120.518601,23.931806,0.0 120.518581,23.9318,0.0 120.518493,23.932135,0.0 120.51847,23.932139,0.0 120.518411,23.932156,0.0 120.518328,23.932147,0.0 120.518205,23.932126,0.0 120.518155,23.932138,0.0 120.518132,23.932264,0.0 120.518117,23.932407,0.0 120.518108,23.932465,0.0 120.518131,23.932545,0.0 120.51819,23.932617,0.0 120.518308,23.932714,0.0 120.518317,23.932772,0.0 120.518253,23.932902,0.0 120.518175,23.933011,0.0 120.517918,23.933319,0.0 120.517739,23.933516,0.0 120.517504,23.93383,0.0 120.517399,23.933968,0.0 120.517151,23.934265,0.0 120.516562,23.934963,0.0 120.516259,23.935327,0.0 120.516277,23.935394,0.0 120.516341,23.935495,0.0 120.516409,23.935562,0.0 120.5165,23.935687,0.0 120.516787,23.935935,0.0 120.517097,23.936255,0.0 120.517324,23.936486,0.0 120.517461,23.936617,0.0 120.517766,23.936844,0.0 120.517844,23.936887,0.0 120.517944,23.936937,0.0 120.518067,23.937043,0.0 120.518228,23.937167,0.0 120.518438,23.937365,0.0 120.518652,23.937559,0.0 120.518706,23.937618,0.0 120.518784,23.937639,0.0 120.518813,23.937629,0.0 120.518822,23.937709,0.0 120.518979,23.938281,0.0 120.519137,23.938644,0.0 120.518943,23.939727,0.0 120.518858,23.940152,0.0 120.518809,23.940991,0.0 120.518776,23.941619,0.0 120.518669,23.942009,0.0 120.518453,23.942784,0.0 120.51852,23.943133,0.0</coordinates></LinearRing></outerBoundaryIs></Polygon><styleUrl>#spolygon-map</styleUrl></Placemark><Placemark><Polygon><outerBoundaryIs><LinearRing><coordinates>120.532569,23.936102,0.0 120.532636,23.936261,0.0 120.532629,23.936397,0.0 120.5325,23.936539,0.0 120.532385,23.9367,0.0 120.532358,23.936737,0.0 120.533178,23.93729,0.0 120.533825,23.937766,0.0 120.53404,23.937905,0.0 120.534761,23.938254,0.0 120.534726,23.939016,0.0 120.534658,23.939762,0.0 120.53445,23.940752,0.0 120.534275,23.941414,0.0 120.534033,23.942734,0.0 120.533858,23.943436,0.0 120.53376,23.943911,0.0 120.533791,23.944287,0.0 120.533854,23.944659,0.0 120.533972,23.944887,0.0 120.534079,23.945095,0.0 120.53411,23.945263,0.0 120.533743,23.945569,0.0 120.53317,23.946013,0.0 120.532695,23.946298,0.0 120.532499,23.94638,0.0 120.532231,23.946299,0.0 120.531658,23.946168,0.0 120.531483,23.946148,0.0 120.531328,23.946148,0.0 120.531152,23.946197,0.0 120.531092,23.94624,0.0 120.530994,23.946069,0.0 120.530813,23.945865,0.0 120.530371,23.945518,0.0 120.52974,23.945127,0.0 120.529115,23.944634,0.0 120.528861,23.944318,0.0 120.52844,23.943854,0.0 120.528293,23.943607,0.0 120.527992,23.943032,0.0 120.527353,23.941857,0.0 120.526776,23.940987,0.0 120.526497,23.940759,0.0 120.526302,23.940707,0.0 120.526045,23.940699,0.0 120.525645,23.940705,0.0 120.525464,23.940711,0.0 120.525495,23.940288,0.0 120.525759,23.938775,0.0 120.525906,23.938288,0.0 120.526168,23.937457,0.0 120.526273,23.937508,0.0 120.526511,23.937542,0.0 120.526789,23.937551,0.0 120.527059,23.937552,0.0 120.527242,23.937565,0.0 120.527356,23.937574,0.0 120.527493,23.937566,0.0 120.527694,23.937604,0.0 120.527858,23.937626,0.0 120.527945,23.937635,0.0 120.528055,23.937635,0.0 120.528183,23.937635,0.0 120.528251,23.937619,0.0 120.528434,23.937569,0.0 120.528623,23.937513,0.0 120.528985,23.937372,0.0 120.52941,23.937201,0.0 120.529873,23.936993,0.0 120.530033,23.936918,0.0 120.530193,23.936864,0.0 120.530348,23.936818,0.0 120.530623,23.936764,0.0 120.53081,23.936731,0.0 120.531169,23.936656,0.0 120.531279,23.936627,0.0 120.531407,23.936585,0.0 120.531736,23.936569,0.0 120.531946,23.936566,0.0 120.532143,23.936583,0.0 120.532257,23.936588,0.0 120.532344,23.936567,0.0 120.53239,23.936508,0.0 120.532463,23.936391,0.0 120.532541,23.936253,0.0 120.532569,23.936102,0.0</coordinates></LinearRing></outerBoundaryIs></Polygon><styleUrl>#spolygon-map</styleUrl></Placemark><Placemark><Polygon><outerBoundaryIs><LinearRing><coordinates>120.537677,23.945943,0.0 120.537231,23.946193,0.0 120.536706,23.94657,0.0 120.536208,23.947034,0.0 120.535819,23.947181,0.0 120.535604,23.94723,0.0 120.535431,23.94721,0.0 120.534882,23.947089,0.0 120.53402,23.946839,0.0 120.532499,23.94638,0.0 120.532695,23.946298,0.0 120.53317,23.946013,0.0 120.533743,23.945569,0.0 120.53411,23.945263,0.0 120.534079,23.945095,0.0 120.533972,23.944887,0.0 120.533854,23.944659,0.0 120.533791,23.944287,0.0 120.53376,23.943911,0.0 120.533858,23.943436,0.0 120.534033,23.942734,0.0 120.534275,23.941414,0.0 120.53445,23.940752,0.0 120.534658,23.939762,0.0 120.534726,23.939016,0.0 120.534761,23.938254,0.0 120.53404,23.937905,0.0 120.533825,23.937766,0.0 120.533178,23.93729,0.0 120.532358,23.936737,0.0 120.532385,23.9367,0.0 120.5325,23.936539,0.0 120.532629,23.936397,0.0 120.532636,23.936261,0.0 120.532569,23.936102,0.0 120.532599,23.935941,0.0 120.5327,23.935584,0.0 120.532749,23.935357,0.0 120.533712,23.935967,0.0 120.534776,23.93659,0.0 120.53557,23.937182,0.0 120.536229,23.937536,0.0 120.536507,23.937652,0.0 120.537139,23.93775,0.0 120.53766,23.937841,0.0 120.538818,23.938126,0.0 120.538526,23.939003,0.0 120.53829,23.939569,0.0 120.539197,23.939804,0.0 120.539934,23.940071,0.0 120.539893,23.940232,0.0 120.539771,23.940959,0.0 120.539758,23.941069,0.0 120.5398,23.941124,0.0 120.539835,23.94124,0.0 120.539804,23.941631,0.0 120.540098,23.941659,0.0 120.540935,23.941613,0.0 120.541035,23.941762,0.0 120.541111,23.941868,0.0 120.541086,23.942249,0.0 120.54112,23.942755,0.0 120.541005,23.942986,0.0 120.540777,23.943118,0.0 120.540464,23.9432,0.0 120.539884,23.943431,0.0 120.539651,23.9436,0.0 120.539538,23.943748,0.0 120.539505,23.943896,0.0 120.539482,23.944001,0.0 120.539448,23.944328,0.0 120.539231,23.944704,0.0 120.538938,23.945158,0.0 120.538636,23.945474,0.0 120.53802,23.94575,0.0 120.537677,23.945943,0.0</coordinates></LinearRing></outerBoundaryIs></Polygon><styleUrl>#spolygon-map</styleUrl></Placemark><Placemark><Polygon><outerBoundaryIs><LinearRing><coordinates>120.531092,23.94624,0.0 120.531031,23.946283,0.0 120.53101,23.946345,0.0 120.530909,23.946487,0.0 120.530861,23.946543,0.0 120.530708,23.947282,0.0 120.530535,23.948316,0.0 120.530387,23.948235,0.0 120.529828,23.947967,0.0 120.528727,23.94756,0.0 120.52835,23.947366,0.0 120.527798,23.947142,0.0 120.527285,23.946991,0.0 120.526625,23.946902,0.0 120.526342,23.946852,0.0 120.526312,23.946784,0.0 120.526285,23.946635,0.0 120.526191,23.94653,0.0 120.526111,23.946381,0.0 120.526085,23.946046,0.0 120.52541,23.946267,0.0 120.525402,23.946664,0.0 120.524181,23.946548,0.0 120.5242,23.946976,0.0 120.5234,23.946888,0.0 120.523208,23.947631,0.0 120.522062,23.947535,0.0 120.522001,23.947553,0.0 120.521945,23.947919,0.0 120.521843,23.948129,0.0 120.521776,23.948166,0.0 120.521452,23.948128,0.0 120.5205,23.948092,0.0 120.520612,23.946709,0.0 120.520705,23.946172,0.0 120.520831,23.945131,0.0 120.520064,23.945212,0.0 120.518743,23.94532,0.0 120.518711,23.945079,0.0 120.518622,23.944311,0.0 120.518631,23.944012,0.0 120.51858,23.943489,0.0 120.51852,23.943133,0.0 120.518453,23.942784,0.0 120.518669,23.942009,0.0 120.518776,23.941619,0.0 120.518809,23.940991,0.0 120.518858,23.940152,0.0 120.518943,23.939727,0.0 120.519137,23.938644,0.0 120.518979,23.938281,0.0 120.518822,23.937709,0.0 120.518813,23.937629,0.0 120.518885,23.937606,0.0 120.51899,23.937506,0.0 120.519137,23.937389,0.0 120.519233,23.937326,0.0 120.51926,23.937288,0.0 120.519398,23.937146,0.0 120.51954,23.937054,0.0 120.519693,23.936888,0.0 120.519848,23.936796,0.0 120.520009,23.936663,0.0 120.520183,23.936554,0.0 120.520339,23.936462,0.0 120.520485,23.936396,0.0 120.520632,23.936312,0.0 120.520856,23.936246,0.0 120.521025,23.936242,0.0 120.521413,23.936243,0.0 120.52182,23.936274,0.0 120.522272,23.936334,0.0 120.522763,23.93644,0.0 120.523174,23.936484,0.0 120.523567,23.936531,0.0 120.523964,23.936612,0.0 120.52432,23.936668,0.0 120.524745,23.936732,0.0 120.525141,23.936776,0.0 120.525305,23.936793,0.0 120.525515,23.93684,0.0 120.525725,23.936874,0.0 120.525876,23.936963,0.0 120.525921,23.93703,0.0 120.525966,23.937127,0.0 120.525998,23.937299,0.0 120.52603,23.937366,0.0 120.526098,23.937425,0.0 120.526168,23.937457,0.0 120.525906,23.938288,0.0 120.525759,23.938775,0.0 120.525495,23.940288,0.0 120.525464,23.940711,0.0 120.525645,23.940705,0.0 120.526045,23.940699,0.0 120.526302,23.940707,0.0 120.526497,23.940759,0.0 120.526776,23.940987,0.0 120.527353,23.941857,0.0 120.527992,23.943032,0.0 120.528293,23.943607,0.0 120.52844,23.943854,0.0 120.528861,23.944318,0.0 120.529115,23.944634,0.0 120.52974,23.945127,0.0 120.530371,23.945518,0.0 120.530813,23.945865,0.0 120.530994,23.946069,0.0 120.531092,23.94624,0.0</coordinates></LinearRing></outerBoundaryIs></Polygon><styleUrl>#spolygon-map</styleUrl></Placemark><Placemark><Polygon><outerBoundaryIs><LinearRing><coordinates>120.557599,23.950911,0.0 120.557175,23.950878,0.0 120.556538,23.950902,0.0 120.556022,23.950949,0.0 120.555822,23.950988,0.0 120.555774,23.951053,0.0 120.555707,23.951219,0.0 120.55571,23.951708,0.0 120.555718,23.952206,0.0 120.55501,23.951916,0.0 120.554416,23.951668,0.0 120.554105,23.951583,0.0 120.553459,23.951463,0.0 120.553034,23.951315,0.0 120.552571,23.950999,0.0 120.552991,23.950686,0.0 120.554034,23.950131,0.0 120.554795,23.949784,0.0 120.556008,23.949156,0.0 120.557013,23.948677,0.0 120.55766,23.948372,0.0 120.559728,23.947391,0.0 120.560565,23.946933,0.0 120.561756,23.946403,0.0 120.561925,23.946177,0.0 120.562049,23.946271,0.0 120.562141,23.946239,0.0 120.562809,23.9459,0.0 120.563048,23.945758,0.0 120.563195,23.945991,0.0 120.563474,23.946456,0.0 120.56383,23.947095,0.0 120.564033,23.947437,0.0 120.564214,23.947747,0.0 120.564396,23.948057,0.0 120.564504,23.948245,0.0 120.564563,23.948308,0.0 120.564617,23.948429,0.0 120.564878,23.94889,0.0 120.565233,23.949528,0.0 120.565596,23.950155,0.0 120.565843,23.95062,0.0 120.565833,23.950643,0.0 120.565789,23.950683,0.0 120.565662,23.950745,0.0 120.565392,23.950868,0.0 120.565226,23.950979,0.0 120.564987,23.951117,0.0 120.564724,23.951259,0.0 120.564494,23.95141,0.0 120.564333,23.95149,0.0 120.564094,23.951646,0.0 120.563992,23.951722,0.0 120.563701,23.951684,0.0 120.563445,23.951691,0.0 120.563317,23.95162,0.0 120.563155,23.951345,0.0 120.562892,23.950975,0.0 120.562815,23.950943,0.0 120.562573,23.950965,0.0 120.561965,23.951183,0.0 120.561768,23.951198,0.0 120.561546,23.951143,0.0 120.561163,23.950836,0.0 120.560591,23.950488,0.0 120.559933,23.950317,0.0 120.559383,23.950236,0.0 120.558511,23.950268,0.0 120.558222,23.950297,0.0 120.558013,23.950296,0.0 120.557885,23.950208,0.0 120.5578,23.950114,0.0 120.557667,23.95003,0.0 120.557602,23.950094,0.0 120.557607,23.950158,0.0 120.557671,23.950241,0.0 120.557671,23.95032,0.0 120.557561,23.950482,0.0 120.557549,23.950591,0.0 120.557581,23.95085,0.0 120.557599,23.950911,0.0</coordinates></LinearRing></outerBoundaryIs></Polygon><styleUrl>#spolygon-map</styleUrl></Placemark><Placemark><Polygon><outerBoundaryIs><LinearRing><coordinates>120.552571,23.950999,0.0 120.55215,23.951444,0.0 120.551777,23.951855,0.0 120.551364,23.952426,0.0 120.550979,23.952255,0.0 120.55074,23.952149,0.0 120.550633,23.951976,0.0 120.550365,23.951555,0.0 120.550319,23.951282,0.0 120.550233,23.950961,0.0 120.550279,23.950221,0.0 120.550527,23.949172,0.0 120.550678,23.948785,0.0 120.551103,23.947874,0.0 120.551472,23.947109,0.0 120.551576,23.94652,0.0 120.551697,23.945973,0.0 120.551992,23.943989,0.0 120.552106,23.943295,0.0 120.552172,23.942629,0.0 120.552823,23.942594,0.0 120.55349,23.942471,0.0 120.554199,23.942073,0.0 120.554896,23.941475,0.0 120.55562,23.940877,0.0 120.55611,23.940641,0.0 120.55656,23.940479,0.0 120.556833,23.94033,0.0 120.55697,23.94018,0.0 120.556957,23.93993,0.0 120.556958,23.93963,0.0 120.556959,23.939455,0.0 120.557082,23.93933,0.0 120.557532,23.938969,0.0 120.55786,23.938707,0.0 120.557973,23.93868,0.0 120.558148,23.93873,0.0 120.558465,23.9387,0.0 120.558613,23.938626,0.0 120.558721,23.938614,0.0 120.558849,23.938614,0.0 120.559077,23.938925,0.0 120.560245,23.94078,0.0 120.561067,23.942104,0.0 120.561028,23.942167,0.0 120.560965,23.942277,0.0 120.560965,23.942335,0.0 120.560979,23.942393,0.0 120.561013,23.942477,0.0 120.561048,23.94258,0.0 120.561012,23.942909,0.0 120.560883,23.943669,0.0 120.56084,23.944011,0.0 120.560847,23.944023,0.0 120.560882,23.944049,0.0 120.560895,23.94417,0.0 120.560874,23.944331,0.0 120.560823,23.944737,0.0 120.56078,23.945136,0.0 120.560779,23.945239,0.0 120.560828,23.94533,0.0 120.56087,23.945407,0.0 120.560933,23.945485,0.0 120.561003,23.945524,0.0 120.561255,23.945699,0.0 120.561622,23.945948,0.0 120.561925,23.946177,0.0 120.561756,23.946403,0.0 120.560565,23.946933,0.0 120.559728,23.947391,0.0 120.55766,23.948372,0.0 120.557013,23.948677,0.0 120.556008,23.949156,0.0 120.554795,23.949784,0.0 120.554034,23.950131,0.0 120.552991,23.950686,0.0 120.552571,23.950999,0.0</coordinates></LinearRing></outerBoundaryIs></Polygon><styleUrl>#spolygon-map</styleUrl></Placemark><Placemark><Polygon><outerBoundaryIs><LinearRing><coordinates>120.550979,23.952255,0.0 120.549876,23.952346,0.0 120.548998,23.952434,0.0 120.547969,23.9525,0.0 120.546762,23.952663,0.0 120.545929,23.952758,0.0 120.544613,23.95281,0.0 120.543618,23.95289,0.0 120.542884,23.952888,0.0 120.542469,23.952824,0.0 120.54237,23.952754,0.0 120.542265,23.952657,0.0 120.542228,23.952518,0.0 120.542164,23.952224,0.0 120.542136,23.951592,0.0 120.542069,23.951501,0.0 120.541902,23.951473,0.0 120.54104,23.951526,0.0 120.540275,23.951558,0.0 120.540306,23.951482,0.0 120.540344,23.951378,0.0 120.540375,23.951156,0.0 120.540353,23.950909,0.0 120.54031,23.95029,0.0 120.5402,23.949307,0.0 120.540186,23.948952,0.0 120.539873,23.947468,0.0 120.539769,23.94687,0.0 120.539741,23.946411,0.0 120.539575,23.945605,0.0 120.539539,23.945262,0.0 120.539536,23.944453,0.0 120.539575,23.94411,0.0 120.539579,23.943947,0.0 120.539505,23.943896,0.0 120.539538,23.943748,0.0 120.539651,23.9436,0.0 120.539884,23.943431,0.0 120.540464,23.9432,0.0 120.540777,23.943118,0.0 120.541005,23.942986,0.0 120.54112,23.942755,0.0 120.541986,23.942627,0.0 120.543456,23.942554,0.0 120.544334,23.942592,0.0 120.545973,23.942664,0.0 120.5473,23.942845,0.0 120.547695,23.942942,0.0 120.547917,23.942943,0.0 120.547993,23.942919,0.0 120.548087,23.942779,0.0 120.548225,23.942544,0.0 120.548318,23.94249,0.0 120.548463,23.942467,0.0 120.548676,23.942444,0.0 120.548898,23.942445,0.0 120.54906,23.942414,0.0 120.549154,23.942289,0.0 120.549325,23.942156,0.0 120.549546,23.942079,0.0 120.549742,23.942103,0.0 120.549981,23.942143,0.0 120.550602,23.942332,0.0 120.551271,23.942552,0.0 120.551937,23.942642,0.0 120.552172,23.942629,0.0 120.552106,23.943295,0.0 120.551992,23.943989,0.0 120.551697,23.945973,0.0 120.551576,23.94652,0.0 120.551472,23.947109,0.0 120.551103,23.947874,0.0 120.550678,23.948785,0.0 120.550527,23.949172,0.0 120.550279,23.950221,0.0 120.550233,23.950961,0.0 120.550319,23.951282,0.0 120.550365,23.951555,0.0 120.550633,23.951976,0.0 120.55074,23.952149,0.0 120.550979,23.952255,0.0</coordinates></LinearRing></outerBoundaryIs></Polygon><styleUrl>#spolygon-map</styleUrl></Placemark><Placemark><Polygon><outerBoundaryIs><LinearRing><coordinates>120.561133,23.959076,0.0 120.56086,23.959079,0.0 120.560471,23.959056,0.0 120.560179,23.959015,0.0 120.559922,23.958977,0.0 120.559923,23.958474,0.0 120.559882,23.957878,0.0 120.559582,23.957202,0.0 120.55913,23.956565,0.0 120.558635,23.956038,0.0 120.558214,23.955639,0.0 120.558129,23.955451,0.0 120.55814,23.955222,0.0 120.558513,23.953877,0.0 120.558754,23.952925,0.0 120.558787,23.952587,0.0 120.558606,23.951951,0.0 120.558442,23.951875,0.0 120.558345,23.951775,0.0 120.558324,23.951616,0.0 120.558249,23.951487,0.0 120.55813,23.951407,0.0 120.557872,23.951238,0.0 120.557721,23.951118,0.0 120.557624,23.950999,0.0 120.557599,23.950911,0.0 120.557581,23.95085,0.0 120.557549,23.950591,0.0 120.557561,23.950482,0.0 120.557671,23.95032,0.0 120.557671,23.950241,0.0 120.557607,23.950158,0.0 120.557602,23.950094,0.0 120.557667,23.95003,0.0 120.5578,23.950114,0.0 120.557885,23.950208,0.0 120.558013,23.950296,0.0 120.558222,23.950297,0.0 120.558511,23.950268,0.0 120.559383,23.950236,0.0 120.559933,23.950317,0.0 120.560591,23.950488,0.0 120.561163,23.950836,0.0 120.561546,23.951143,0.0 120.561768,23.951198,0.0 120.561965,23.951183,0.0 120.562573,23.950965,0.0 120.562815,23.950943,0.0 120.562892,23.950975,0.0 120.563155,23.951345,0.0 120.563317,23.95162,0.0 120.563445,23.951691,0.0 120.563701,23.951684,0.0 120.563992,23.951722,0.0 120.563831,23.9519,0.0 120.563757,23.951985,0.0 120.563655,23.952123,0.0 120.563464,23.952355,0.0 120.56343,23.952444,0.0 120.563355,23.952591,0.0 120.563311,23.952662,0.0 120.563228,23.952872,0.0 120.563218,23.952957,0.0 120.563203,23.953064,0.0 120.563203,23.953145,0.0 120.563217,23.953216,0.0 120.563241,23.953283,0.0 120.56328,23.953377,0.0 120.563338,23.953556,0.0 120.563405,23.953713,0.0 120.563448,23.953892,0.0 120.563468,23.953977,0.0 120.563492,23.954084,0.0 120.563505,23.954423,0.0 120.563494,23.954762,0.0 120.56344,23.955071,0.0 120.5634,23.95541,0.0 120.563285,23.956147,0.0 120.56325,23.956276,0.0 120.56323,23.956419,0.0 120.563225,23.95658,0.0 120.563239,23.956669,0.0 120.563249,23.956768,0.0 120.563287,23.956898,0.0 120.563296,23.957041,0.0 120.563296,23.957246,0.0 120.563252,23.957367,0.0 120.563203,23.957443,0.0 120.563139,23.957518,0.0 120.562997,23.957666,0.0 120.562856,23.95779,0.0 120.562821,23.957824,0.0 120.562713,23.957931,0.0 120.562468,23.958199,0.0 120.56219,23.958431,0.0 120.562058,23.958569,0.0 120.561965,23.958662,0.0 120.561892,23.958711,0.0 120.56176,23.958823,0.0 120.561609,23.958938,0.0 120.561439,23.959014,0.0 120.561341,23.959045,0.0 120.561245,23.959063,0.0 120.561133,23.959076,0.0</coordinates></LinearRing></outerBoundaryIs></Polygon><styleUrl>#spolygon-map</styleUrl></Placemark><Placemark><Polygon><outerBoundaryIs><LinearRing><coordinates>120.549493,23.958025,0.0 120.549289,23.957992,0.0 120.549099,23.957996,0.0 120.549031,23.958058,0.0 120.548649,23.958375,0.0 120.548344,23.958646,0.0 120.54799,23.959015,0.0 120.54774,23.959321,0.0 120.547638,23.959426,0.0 120.547452,23.959484,0.0 120.547236,23.959514,0.0 120.547033,23.95951,0.0 120.546851,23.959509,0.0 120.546758,23.959509,0.0 120.546568,23.959551,0.0 120.546366,23.959614,0.0 120.546243,23.959683,0.0 120.546103,23.959795,0.0 120.546052,23.959881,0.0 120.545827,23.960144,0.0 120.545624,23.960307,0.0 120.545381,23.960455,0.0 120.545208,23.960517,0.0 120.545127,23.960544,0.0 120.545026,23.96059,0.0 120.544983,23.960621,0.0 120.544873,23.960679,0.0 120.544784,23.960714,0.0 120.544619,23.960744,0.0 120.54453,23.960752,0.0 120.544501,23.960728,0.0 120.544404,23.960689,0.0 120.544328,23.960689,0.0 120.544302,23.960658,0.0 120.544273,23.960596,0.0 120.544181,23.960351,0.0 120.544086,23.960237,0.0 120.543719,23.959941,0.0 120.543272,23.95964,0.0 120.542981,23.959352,0.0 120.542817,23.958973,0.0 120.542669,23.958852,0.0 120.542602,23.958786,0.0 120.542539,23.958685,0.0 120.542484,23.958522,0.0 120.542447,23.958374,0.0 120.542374,23.958104,0.0 120.542307,23.958058,0.0 120.542184,23.958034,0.0 120.54168,23.958188,0.0 120.541337,23.958303,0.0 120.54102,23.958411,0.0 120.540804,23.958449,0.0 120.540783,23.958434,0.0 120.540733,23.958321,0.0 120.540692,23.957839,0.0 120.540569,23.957647,0.0 120.540476,23.957593,0.0 120.540371,23.957561,0.0 120.540157,23.957545,0.0 120.540056,23.957564,0.0 120.539476,23.957795,0.0 120.538836,23.958131,0.0 120.538525,23.958322,0.0 120.538182,23.958492,0.0 120.538059,23.958538,0.0 120.538239,23.958359,0.0 120.538399,23.958102,0.0 120.538551,23.957929,0.0 120.538786,23.957777,0.0 120.539265,23.957456,0.0 120.539712,23.957145,0.0 120.539932,23.956923,0.0 120.540099,23.956681,0.0 120.540199,23.95632,0.0 120.5402,23.956104,0.0 120.540139,23.955885,0.0 120.539741,23.955217,0.0 120.538973,23.953948,0.0 120.538544,23.953273,0.0 120.538424,23.953119,0.0 120.538265,23.953022,0.0 120.538023,23.952866,0.0 120.537864,23.952692,0.0 120.537728,23.952607,0.0 120.537539,23.952481,0.0 120.537358,23.95239,0.0 120.537214,23.952355,0.0 120.536715,23.952437,0.0 120.536662,23.952381,0.0 120.536632,23.952263,0.0 120.536678,23.952159,0.0 120.53683,23.952,0.0 120.537163,23.951848,0.0 120.537284,23.951779,0.0 120.537368,23.951682,0.0 120.537513,23.951397,0.0 120.537658,23.951166,0.0 120.537734,23.950992,0.0 120.537811,23.950548,0.0 120.538025,23.950049,0.0 120.538103,23.949358,0.0 120.538112,23.94908,0.0 120.538113,23.948767,0.0 120.538114,23.948517,0.0 120.537929,23.947027,0.0 120.537851,23.946232,0.0 120.537781,23.946031,0.0 120.537677,23.945943,0.0 120.53802,23.94575,0.0 120.538636,23.945474,0.0 120.538938,23.945158,0.0 120.539231,23.944704,0.0 120.539448,23.944328,0.0 120.539482,23.944001,0.0 120.539505,23.943896,0.0 120.539579,23.943947,0.0 120.539575,23.94411,0.0 120.539536,23.944453,0.0 120.539539,23.945262,0.0 120.539575,23.945605,0.0 120.539741,23.946411,0.0 120.539769,23.94687,0.0 120.539873,23.947468,0.0 120.540186,23.948952,0.0 120.5402,23.949307,0.0 120.54031,23.95029,0.0 120.540353,23.950909,0.0 120.540375,23.951156,0.0 120.540344,23.951378,0.0 120.540306,23.951482,0.0 120.540275,23.951558,0.0 120.54104,23.951526,0.0 120.541902,23.951473,0.0 120.542069,23.951501,0.0 120.542136,23.951592,0.0 120.542164,23.952224,0.0 120.542228,23.952518,0.0 120.542265,23.952657,0.0 120.54237,23.952754,0.0 120.542469,23.952824,0.0 120.542884,23.952888,0.0 120.543618,23.95289,0.0 120.544613,23.95281,0.0 120.545929,23.952758,0.0 120.546762,23.952663,0.0 120.547969,23.9525,0.0 120.548998,23.952434,0.0 120.549876,23.952346,0.0 120.550979,23.952255,0.0 120.551364,23.952426,0.0 120.551042,23.952986,0.0 120.550621,23.953753,0.0 120.550306,23.954446,0.0 120.550099,23.95506,0.0 120.550053,23.955236,0.0 120.549921,23.95585,0.0 120.549873,23.956527,0.0 120.549787,23.957207,0.0 120.54971,23.957395,0.0 120.549511,23.957932,0.0 120.549493,23.958025,0.0</coordinates></LinearRing></outerBoundaryIs></Polygon><styleUrl>#spolygon-map</styleUrl></Placemark><Placemark><Polygon><outerBoundaryIs><LinearRing><coordinates>120.536694,23.960316,0.0 120.536242,23.96023,0.0 120.535835,23.960234,0.0 120.535596,23.960283,0.0 120.535153,23.960425,0.0 120.534531,23.960655,0.0 120.534076,23.960824,0.0 120.533831,23.960878,0.0 120.533645,23.960866,0.0 120.533568,23.9608,0.0 120.533455,23.960602,0.0 120.53327,23.96058,0.0 120.532988,23.960634,0.0 120.532545,23.960748,0.0 120.532162,23.960818,0.0 120.530737,23.961142,0.0 120.529847,23.961386,0.0 120.529416,23.961533,0.0 120.529471,23.960642,0.0 120.529498,23.960244,0.0 120.529635,23.959846,0.0 120.529713,23.959542,0.0 120.529622,23.958652,0.0 120.529567,23.957671,0.0 120.529569,23.957403,0.0 120.529638,23.957239,0.0 120.529988,23.95692,0.0 120.530125,23.956608,0.0 120.530125,23.956475,0.0 120.530066,23.956272,0.0 120.529788,23.955764,0.0 120.52967,23.95531,0.0 120.529777,23.954247,0.0 120.529915,23.953466,0.0 120.529725,23.952097,0.0 120.529669,23.951259,0.0 120.529875,23.950736,0.0 120.529996,23.950374,0.0 120.530006,23.949898,0.0 120.529974,23.949442,0.0 120.529975,23.949293,0.0 120.529992,23.949184,0.0 120.530129,23.949005,0.0 120.530352,23.948821,0.0 120.530444,23.948677,0.0 120.530504,23.948446,0.0 120.530535,23.948316,0.0 120.530708,23.947282,0.0 120.530861,23.946543,0.0 120.530909,23.946487,0.0 120.53101,23.946345,0.0 120.531031,23.946283,0.0 120.531092,23.94624,0.0 120.531152,23.946197,0.0 120.531328,23.946148,0.0 120.531483,23.946148,0.0 120.531658,23.946168,0.0 120.532231,23.946299,0.0 120.532499,23.94638,0.0 120.53402,23.946839,0.0 120.534882,23.947089,0.0 120.535431,23.94721,0.0 120.535604,23.94723,0.0 120.535819,23.947181,0.0 120.536208,23.947034,0.0 120.536706,23.94657,0.0 120.537231,23.946193,0.0 120.537677,23.945943,0.0 120.537781,23.946031,0.0 120.537851,23.946232,0.0 120.537929,23.947027,0.0 120.538114,23.948517,0.0 120.538113,23.948767,0.0 120.538112,23.94908,0.0 120.538103,23.949358,0.0 120.538025,23.950049,0.0 120.537811,23.950548,0.0 120.537734,23.950992,0.0 120.537658,23.951166,0.0 120.537513,23.951397,0.0 120.537368,23.951682,0.0 120.537284,23.951779,0.0 120.537163,23.951848,0.0 120.53683,23.952,0.0 120.536678,23.952159,0.0 120.536632,23.952263,0.0 120.536662,23.952381,0.0 120.536715,23.952437,0.0 120.537214,23.952355,0.0 120.537358,23.95239,0.0 120.537539,23.952481,0.0 120.537728,23.952607,0.0 120.537864,23.952692,0.0 120.538023,23.952866,0.0 120.538265,23.953022,0.0 120.538424,23.953119,0.0 120.538544,23.953273,0.0 120.538973,23.953948,0.0 120.539741,23.955217,0.0 120.540139,23.955885,0.0 120.5402,23.956104,0.0 120.540199,23.95632,0.0 120.540099,23.956681,0.0 120.539932,23.956923,0.0 120.539712,23.957145,0.0 120.539265,23.957456,0.0 120.538786,23.957777,0.0 120.538551,23.957929,0.0 120.538399,23.958102,0.0 120.538239,23.958359,0.0 120.538059,23.958538,0.0 120.537745,23.958902,0.0 120.537425,23.959143,0.0 120.537116,23.959325,0.0 120.536942,23.959515,0.0 120.536835,23.959744,0.0 120.536784,23.95991,0.0 120.536732,23.960145,0.0 120.536694,23.960316,0.0</coordinates></LinearRing></outerBoundaryIs></Polygon><styleUrl>#spolygon-map</styleUrl></Placemark><Placemark><Polygon><outerBoundaryIs><LinearRing><coordinates>120.559922,23.958977,0.0 120.559722,23.958947,0.0 120.559576,23.958919,0.0 120.559478,23.958883,0.0 120.559011,23.958793,0.0 120.558895,23.958757,0.0 120.558729,23.958716,0.0 120.558209,23.958558,0.0 120.558138,23.958565,0.0 120.558089,23.95857,0.0 120.558054,23.958581,0.0 120.55795,23.958599,0.0 120.557858,23.958622,0.0 120.557781,23.958662,0.0 120.557631,23.958749,0.0 120.557288,23.958925,0.0 120.556933,23.959095,0.0 120.55661,23.959278,0.0 120.556267,23.959467,0.0 120.555952,23.959648,0.0 120.55561,23.959837,0.0 120.555272,23.960021,0.0 120.555035,23.96017,0.0 120.554591,23.960399,0.0 120.553941,23.960768,0.0 120.553569,23.960949,0.0 120.553232,23.961104,0.0 120.552878,23.961261,0.0 120.552436,23.961472,0.0 120.552176,23.961574,0.0 120.551773,23.961752,0.0 120.551324,23.961959,0.0 120.550977,23.962103,0.0 120.550764,23.962205,0.0 120.550465,23.962302,0.0 120.55028,23.96232,0.0 120.550085,23.96234,0.0 120.549988,23.962348,0.0 120.549637,23.962379,0.0 120.549199,23.962391,0.0 120.549018,23.962409,0.0 120.548834,23.962437,0.0 120.548532,23.962486,0.0 120.548399,23.962515,0.0 120.548224,23.962567,0.0 120.548064,23.962618,0.0 120.547784,23.962742,0.0 120.5476,23.962831,0.0 120.547349,23.962986,0.0 120.547225,23.963073,0.0 120.547069,23.963202,0.0 120.546911,23.963339,0.0 120.546691,23.963537,0.0 120.546219,23.963072,0.0 120.545627,23.962622,0.0 120.546108,23.962099,0.0 120.547568,23.960571,0.0 120.548133,23.95998,0.0 120.548677,23.959441,0.0 120.549012,23.959051,0.0 120.549402,23.958444,0.0 120.549472,23.958137,0.0 120.549493,23.958025,0.0 120.549511,23.957932,0.0 120.54971,23.957395,0.0 120.549787,23.957207,0.0 120.549873,23.956527,0.0 120.549921,23.95585,0.0 120.550053,23.955236,0.0 120.550099,23.95506,0.0 120.550306,23.954446,0.0 120.550621,23.953753,0.0 120.551042,23.952986,0.0 120.551364,23.952426,0.0 120.551777,23.951855,0.0 120.55215,23.951444,0.0 120.552571,23.950999,0.0 120.553034,23.951315,0.0 120.553459,23.951463,0.0 120.554105,23.951583,0.0 120.554416,23.951668,0.0 120.55501,23.951916,0.0 120.555718,23.952206,0.0 120.55571,23.951708,0.0 120.555707,23.951219,0.0 120.555774,23.951053,0.0 120.555822,23.950988,0.0 120.556022,23.950949,0.0 120.556538,23.950902,0.0 120.557175,23.950878,0.0 120.557599,23.950911,0.0 120.557624,23.950999,0.0 120.557721,23.951118,0.0 120.557872,23.951238,0.0 120.55813,23.951407,0.0 120.558249,23.951487,0.0 120.558324,23.951616,0.0 120.558345,23.951775,0.0 120.558442,23.951875,0.0 120.558606,23.951951,0.0 120.558787,23.952587,0.0 120.558754,23.952925,0.0 120.558513,23.953877,0.0 120.55814,23.955222,0.0 120.558129,23.955451,0.0 120.558214,23.955639,0.0 120.558635,23.956038,0.0 120.55913,23.956565,0.0 120.559582,23.957202,0.0 120.559882,23.957878,0.0 120.559923,23.958474,0.0 120.559922,23.958977,0.0</coordinates></LinearRing></outerBoundaryIs></Polygon><styleUrl>#spolygon-map</styleUrl></Placemark><Placemark><Polygon><outerBoundaryIs><LinearRing><coordinates>120.529416,23.961533,0.0 120.529301,23.961788,0.0 120.529012,23.962287,0.0 120.528829,23.962656,0.0 120.528576,23.963685,0.0 120.528461,23.963852,0.0 120.528326,23.963974,0.0 120.528068,23.964088,0.0 120.527829,23.964113,0.0 120.526892,23.964049,0.0 120.526601,23.963917,0.0 120.526468,23.96375,0.0 120.526315,23.963626,0.0 120.525895,23.963546,0.0 120.525398,23.963544,0.0 120.524843,23.963569,0.0 120.52447,23.963594,0.0 120.523457,23.963468,0.0 120.522324,23.963297,0.0 120.521885,23.96327,0.0 120.521569,23.96326,0.0 120.521139,23.963329,0.0 120.520947,23.963363,0.0 120.52089,23.963407,0.0 120.520535,23.963722,0.0 120.520259,23.963927,0.0 120.519993,23.964039,0.0 120.519757,23.964104,0.0 120.519834,23.963843,0.0 120.519805,23.963675,0.0 120.519737,23.963599,0.0 120.519564,23.963194,0.0 120.519557,23.962887,0.0 120.519802,23.962365,0.0 120.520047,23.961892,0.0 120.520124,23.961532,0.0 120.520387,23.960425,0.0 120.520617,23.959935,0.0 120.520655,23.959768,0.0 120.52058,23.959551,0.0 120.520385,23.958986,0.0 120.520355,23.958826,0.0 120.520379,23.958491,0.0 120.520519,23.95752,0.0 120.520536,23.957123,0.0 120.520461,23.956702,0.0 120.520319,23.956469,0.0 120.520282,23.95626,0.0 120.520358,23.9561,0.0 120.52067,23.955829,0.0 120.5208,23.955627,0.0 120.520817,23.95516,0.0 120.52101,23.954279,0.0 120.521036,23.953562,0.0 120.521016,23.952708,0.0 120.520949,23.952408,0.0 120.520911,23.952297,0.0 120.520813,23.952206,0.0 120.520737,23.952108,0.0 120.520556,23.951947,0.0 120.520442,23.951898,0.0 120.519455,23.951487,0.0 120.519311,23.951431,0.0 120.519205,23.951305,0.0 120.519168,23.951152,0.0 120.519179,23.950217,0.0 120.51918,23.949729,0.0 120.519628,23.949731,0.0 120.520182,23.949726,0.0 120.520251,23.949614,0.0 120.520367,23.949353,0.0 120.520399,23.948949,0.0 120.52043,23.948593,0.0 120.5205,23.948092,0.0 120.521452,23.948128,0.0 120.521776,23.948166,0.0 120.521843,23.948129,0.0 120.521945,23.947919,0.0 120.522001,23.947553,0.0 120.522062,23.947535,0.0 120.523208,23.947631,0.0 120.5234,23.946888,0.0 120.5242,23.946976,0.0 120.524181,23.946548,0.0 120.525402,23.946664,0.0 120.52541,23.946267,0.0 120.526085,23.946046,0.0 120.526111,23.946381,0.0 120.526191,23.94653,0.0 120.526285,23.946635,0.0 120.526312,23.946784,0.0 120.526342,23.946852,0.0 120.526625,23.946902,0.0 120.527285,23.946991,0.0 120.527798,23.947142,0.0 120.52835,23.947366,0.0 120.528727,23.94756,0.0 120.529828,23.947967,0.0 120.530387,23.948235,0.0 120.530535,23.948316,0.0 120.530504,23.948446,0.0 120.530444,23.948677,0.0 120.530352,23.948821,0.0 120.530129,23.949005,0.0 120.529992,23.949184,0.0 120.529975,23.949293,0.0 120.529974,23.949442,0.0 120.530006,23.949898,0.0 120.529996,23.950374,0.0 120.529875,23.950736,0.0 120.529669,23.951259,0.0 120.529725,23.952097,0.0 120.529915,23.953466,0.0 120.529777,23.954247,0.0 120.52967,23.95531,0.0 120.529788,23.955764,0.0 120.530066,23.956272,0.0 120.530125,23.956475,0.0 120.530125,23.956608,0.0 120.529988,23.95692,0.0 120.529638,23.957239,0.0 120.529569,23.957403,0.0 120.529567,23.957671,0.0 120.529622,23.958652,0.0 120.529713,23.959542,0.0 120.529635,23.959846,0.0 120.529498,23.960244,0.0 120.529471,23.960642,0.0 120.529416,23.961533,0.0</coordinates></LinearRing></outerBoundaryIs></Polygon><styleUrl>#spolygon-map</styleUrl></Placemark><Placemark><Polygon><outerBoundaryIs><LinearRing><coordinates>120.519757,23.964104,0.0 120.519378,23.964257,0.0 120.519017,23.964471,0.0 120.518763,23.964668,0.0 120.518587,23.964746,0.0 120.518468,23.964785,0.0 120.518345,23.964793,0.0 120.518221,23.964789,0.0 120.517946,23.964692,0.0 120.517783,23.964635,0.0 120.517603,23.964638,0.0 120.517361,23.964668,0.0 120.516947,23.964772,0.0 120.51608,23.965026,0.0 120.515699,23.965208,0.0 120.5154,23.965356,0.0 120.515274,23.965411,0.0 120.515294,23.96536,0.0 120.515302,23.965317,0.0 120.515297,23.965289,0.0 120.515269,23.965202,0.0 120.515234,23.965108,0.0 120.515187,23.964925,0.0 120.515154,23.964853,0.0 120.515121,23.964792,0.0 120.515118,23.964769,0.0 120.515116,23.964698,0.0 120.515133,23.964586,0.0 120.515153,23.964414,0.0 120.515156,23.964333,0.0 120.51517,23.964251,0.0 120.51521,23.964106,0.0 120.515269,23.963928,0.0 120.515297,23.963781,0.0 120.515311,23.963642,0.0 120.515304,23.963517,0.0 120.515279,23.963417,0.0 120.515249,23.963346,0.0 120.515224,23.963274,0.0 120.515205,23.963157,0.0 120.515197,23.962918,0.0 120.51519,23.962808,0.0 120.515176,23.962643,0.0 120.515174,23.962457,0.0 120.515191,23.962346,0.0 120.515237,23.962076,0.0 120.515268,23.961896,0.0 120.515318,23.961744,0.0 120.515409,23.961487,0.0 120.515436,23.961411,0.0 120.515481,23.96132,0.0 120.515548,23.961231,0.0 120.515645,23.961099,0.0 120.515684,23.961002,0.0 120.515707,23.960914,0.0 120.51571,23.960761,0.0 120.515728,23.960624,0.0 120.515731,23.960474,0.0 120.515731,23.96038,0.0 120.51571,23.960266,0.0 120.51571,23.960144,0.0 120.515658,23.960034,0.0 120.51557,23.959777,0.0 120.515441,23.95948,0.0 120.515361,23.959263,0.0 120.515312,23.959136,0.0 120.515312,23.959085,0.0 120.515376,23.958981,0.0 120.515518,23.958762,0.0 120.515638,23.958584,0.0 120.51573,23.95836,0.0 120.515742,23.958302,0.0 120.515739,23.958266,0.0 120.515726,23.958185,0.0 120.515682,23.958009,0.0 120.515622,23.957831,0.0 120.515457,23.9575,0.0 120.515352,23.957263,0.0 120.515236,23.956996,0.0 120.515162,23.956792,0.0 120.515055,23.956581,0.0 120.514947,23.95635,0.0 120.514857,23.956156,0.0 120.514763,23.956003,0.0 120.514713,23.95597,0.0 120.514378,23.956028,0.0 120.514293,23.956037,0.0 120.514018,23.9561,0.0 120.513841,23.956128,0.0 120.513674,23.95617,0.0 120.513624,23.956175,0.0 120.513544,23.956152,0.0 120.513497,23.956106,0.0 120.513417,23.95594,0.0 120.513357,23.955838,0.0 120.513329,23.955747,0.0 120.513209,23.955384,0.0 120.51314,23.955185,0.0 120.513047,23.954863,0.0 120.512951,23.954524,0.0 120.512921,23.954445,0.0 120.512824,23.954239,0.0 120.512755,23.954106,0.0 120.51272,23.95405,0.0 120.512578,23.954002,0.0 120.512434,23.954009,0.0 120.512384,23.954006,0.0 120.512348,23.953998,0.0 120.512326,23.95395,0.0 120.512316,23.953846,0.0 120.512322,23.953634,0.0 120.512334,23.95334,0.0 120.51231,23.953076,0.0 120.512316,23.952867,0.0 120.512349,23.952361,0.0 120.512364,23.952008,0.0 120.51239,23.951619,0.0 120.512385,23.951553,0.0 120.512355,23.951479,0.0 120.512258,23.951346,0.0 120.512228,23.951295,0.0 120.512189,23.951209,0.0 120.512159,23.951155,0.0 120.512143,23.951035,0.0 120.512115,23.950863,0.0 120.51208,23.950799,0.0 120.512041,23.95072,0.0 120.512011,23.950669,0.0 120.511992,23.950623,0.0 120.511989,23.950552,0.0 120.511998,23.950466,0.0 120.512009,23.950346,0.0 120.512093,23.950135,0.0 120.512169,23.950029,0.0 120.512352,23.949813,0.0 120.512428,23.949709,0.0 120.512523,23.949509,0.0 120.51264,23.949336,0.0 120.51283,23.949029,0.0 120.513039,23.948699,0.0 120.513042,23.948653,0.0 120.513025,23.948592,0.0 120.513009,23.948554,0.0 120.512954,23.948482,0.0 120.512929,23.948411,0.0 120.512929,23.948327,0.0 120.512941,23.948248,0.0 120.512932,23.948171,0.0 120.512902,23.948077,0.0 120.512884,23.948,0.0 120.512896,23.947928,0.0 120.512909,23.947818,0.0 120.512885,23.947686,0.0 120.512892,23.947521,0.0 120.512886,23.947383,0.0 120.512898,23.947291,0.0 120.512911,23.947186,0.0 120.512942,23.94699,0.0 120.512975,23.946828,0.0 120.513025,23.946675,0.0 120.51304,23.94659,0.0 120.513105,23.946497,0.0 120.513141,23.94642,0.0 120.513151,23.946342,0.0 120.513166,23.946207,0.0 120.513174,23.946143,0.0 120.513189,23.946041,0.0 120.51318,23.945947,0.0 120.513158,23.945856,0.0 120.513101,23.945714,0.0 120.513067,23.945618,0.0 120.512988,23.945456,0.0 120.512938,23.945383,0.0 120.512926,23.945312,0.0 120.513073,23.945148,0.0 120.513141,23.945082,0.0 120.513163,23.945041,0.0 120.513158,23.944993,0.0 120.513119,23.944931,0.0 120.513003,23.944785,0.0 120.51276,23.944497,0.0 120.512605,23.944313,0.0 120.513698,23.944073,0.0 120.514663,23.943841,0.0 120.515491,23.943663,0.0 120.516743,23.943375,0.0 120.517624,23.943226,0.0 120.51852,23.943133,0.0 120.51858,23.943489,0.0 120.518631,23.944012,0.0 120.518622,23.944311,0.0 120.518711,23.945079,0.0 120.518743,23.94532,0.0 120.520064,23.945212,0.0 120.520831,23.945131,0.0 120.520705,23.946172,0.0 120.520612,23.946709,0.0 120.5205,23.948092,0.0 120.52043,23.948593,0.0 120.520399,23.948949,0.0 120.520367,23.949353,0.0 120.520251,23.949614,0.0 120.520182,23.949726,0.0 120.519628,23.949731,0.0 120.51918,23.949729,0.0 120.519179,23.950217,0.0 120.519168,23.951152,0.0 120.519205,23.951305,0.0 120.519311,23.951431,0.0 120.519455,23.951487,0.0 120.520442,23.951898,0.0 120.520556,23.951947,0.0 120.520737,23.952108,0.0 120.520813,23.952206,0.0 120.520911,23.952297,0.0 120.520949,23.952408,0.0 120.521016,23.952708,0.0 120.521036,23.953562,0.0 120.52101,23.954279,0.0 120.520817,23.95516,0.0 120.5208,23.955627,0.0 120.52067,23.955829,0.0 120.520358,23.9561,0.0 120.520282,23.95626,0.0 120.520319,23.956469,0.0 120.520461,23.956702,0.0 120.520536,23.957123,0.0 120.520519,23.95752,0.0 120.520379,23.958491,0.0 120.520355,23.958826,0.0 120.520385,23.958986,0.0 120.52058,23.959551,0.0 120.520655,23.959768,0.0 120.520617,23.959935,0.0 120.520387,23.960425,0.0 120.520124,23.961532,0.0 120.520047,23.961892,0.0 120.519802,23.962365,0.0 120.519557,23.962887,0.0 120.519564,23.963194,0.0 120.519737,23.963599,0.0 120.519805,23.963675,0.0 120.519834,23.963843,0.0 120.519757,23.964104,0.0</coordinates></LinearRing></outerBoundaryIs></Polygon><styleUrl>#spolygon-map</styleUrl></Placemark><Placemark><Polygon><outerBoundaryIs><LinearRing><coordinates>120.537037,23.967947,0.0 120.536395,23.968122,0.0 120.535582,23.968484,0.0 120.535149,23.968648,0.0 120.534658,23.968824,0.0 120.534364,23.968878,0.0 120.533768,23.969086,0.0 120.533244,23.9693,0.0 120.532763,23.969536,0.0 120.531893,23.969877,0.0 120.531351,23.970091,0.0 120.530412,23.970386,0.0 120.529242,23.970769,0.0 120.528279,23.971147,0.0 120.527746,23.971368,0.0 120.527967,23.971766,0.0 120.527732,23.971975,0.0 120.527575,23.972152,0.0 120.527514,23.972269,0.0 120.527157,23.972925,0.0 120.526987,23.973316,0.0 120.52686,23.973522,0.0 120.526793,23.973655,0.0 120.526772,23.973832,0.0 120.526,23.973625,0.0 120.525207,23.973468,0.0 120.523948,23.973176,0.0 120.523419,23.973141,0.0 120.523071,23.973156,0.0 120.52265,23.973172,0.0 120.521812,23.973152,0.0 120.521019,23.973061,0.0 120.520418,23.972982,0.0 120.519766,23.972969,0.0 120.519628,23.972971,0.0 120.519792,23.972748,0.0 120.519917,23.972535,0.0 120.519998,23.972421,0.0 120.520087,23.97238,0.0 120.520352,23.972253,0.0 120.520449,23.972115,0.0 120.52053,23.971972,0.0 120.520863,23.971842,0.0 120.521134,23.97183,0.0 120.521281,23.971834,0.0 120.521361,23.971874,0.0 120.521413,23.971957,0.0 120.521494,23.972027,0.0 120.521579,23.972054,0.0 120.5219,23.972124,0.0 120.52212,23.972125,0.0 120.522302,23.97207,0.0 120.522387,23.971861,0.0 120.522313,23.971198,0.0 120.522251,23.970063,0.0 120.522235,23.969859,0.0 120.522295,23.969655,0.0 120.52222,23.969185,0.0 120.522085,23.968863,0.0 120.521965,23.968808,0.0 120.52188,23.968807,0.0 120.521666,23.968854,0.0 120.52153,23.968853,0.0 120.521453,23.968845,0.0 120.521609,23.968242,0.0 120.5218,23.967417,0.0 120.521879,23.966954,0.0 120.521863,23.966492,0.0 120.521864,23.966398,0.0 120.521881,23.966272,0.0 120.521925,23.96599,0.0 120.5219,23.96588,0.0 120.521824,23.965645,0.0 120.521816,23.965512,0.0 120.521808,23.965308,0.0 120.521766,23.965221,0.0 120.52132,23.965216,0.0 120.520936,23.965238,0.0 120.520455,23.965248,0.0 120.520407,23.965204,0.0 120.520395,23.965132,0.0 120.520384,23.964928,0.0 120.520361,23.964795,0.0 120.519966,23.964359,0.0 120.51981,23.964226,0.0 120.519757,23.964104,0.0 120.519993,23.964039,0.0 120.520259,23.963927,0.0 120.520535,23.963722,0.0 120.52089,23.963407,0.0 120.520947,23.963363,0.0 120.521139,23.963329,0.0 120.521569,23.96326,0.0 120.521885,23.96327,0.0 120.522324,23.963297,0.0 120.523457,23.963468,0.0 120.52447,23.963594,0.0 120.524843,23.963569,0.0 120.525398,23.963544,0.0 120.525895,23.963546,0.0 120.526315,23.963626,0.0 120.526468,23.96375,0.0 120.526601,23.963917,0.0 120.526892,23.964049,0.0 120.527829,23.964113,0.0 120.528068,23.964088,0.0 120.528326,23.963974,0.0 120.528461,23.963852,0.0 120.528576,23.963685,0.0 120.528829,23.962656,0.0 120.529012,23.962287,0.0 120.529301,23.961788,0.0 120.529416,23.961533,0.0 120.529847,23.961386,0.0 120.530737,23.961142,0.0 120.532162,23.960818,0.0 120.532545,23.960748,0.0 120.532988,23.960634,0.0 120.53327,23.96058,0.0 120.533455,23.960602,0.0 120.533568,23.9608,0.0 120.533645,23.960866,0.0 120.533831,23.960878,0.0 120.534076,23.960824,0.0 120.534531,23.960655,0.0 120.535153,23.960425,0.0 120.535596,23.960283,0.0 120.535835,23.960234,0.0 120.536242,23.96023,0.0 120.536694,23.960316,0.0 120.536676,23.960475,0.0 120.536607,23.960879,0.0 120.536508,23.962009,0.0 120.536458,23.962574,0.0 120.53634,23.963414,0.0 120.536325,23.963755,0.0 120.536378,23.964078,0.0 120.536597,23.965305,0.0 120.536796,23.96653,0.0 120.537037,23.967947,0.0</coordinates></LinearRing></outerBoundaryIs></Polygon><styleUrl>#spolygon-map</styleUrl></Placemark><Placemark><Polygon><outerBoundaryIs><LinearRing><coordinates>120.513685,23.974791,0.0 120.513419,23.974834,0.0 120.513177,23.974906,0.0 120.513026,23.974942,0.0 120.512864,23.974975,0.0 120.512666,23.975032,0.0 120.51257,23.97505,0.0 120.512483,23.97505,0.0 120.512416,23.975021,0.0 120.512297,23.974929,0.0 120.512024,23.974735,0.0 120.511755,23.974466,0.0 120.51143,23.974206,0.0 120.511299,23.974126,0.0 120.511185,23.974023,0.0 120.511101,23.973921,0.0 120.511006,23.973791,0.0 120.510954,23.973573,0.0 120.510902,23.973398,0.0 120.510863,23.9733,0.0 120.510858,23.973249,0.0 120.510818,23.973131,0.0 120.510802,23.973062,0.0 120.51077,23.972823,0.0 120.510723,23.972576,0.0 120.510694,23.9724,0.0 120.510681,23.972164,0.0 120.510689,23.972055,0.0 120.51069,23.971884,0.0 120.510718,23.971821,0.0 120.510855,23.971523,0.0 120.51095,23.971358,0.0 120.511042,23.971246,0.0 120.511089,23.971176,0.0 120.511104,23.971118,0.0 120.511082,23.970973,0.0 120.511024,23.970794,0.0 120.510857,23.970442,0.0 120.510746,23.970223,0.0 120.510661,23.97001,0.0 120.51062,23.969882,0.0 120.510604,23.969788,0.0 120.510544,23.969546,0.0 120.510508,23.969408,0.0 120.5105,23.969342,0.0 120.510501,23.969192,0.0 120.510504,23.969095,0.0 120.510518,23.96903,0.0 120.510555,23.968939,0.0 120.510644,23.968761,0.0 120.510794,23.968611,0.0 120.510936,23.968497,0.0 120.511247,23.968277,0.0 120.511406,23.968166,0.0 120.511737,23.967966,0.0 120.511823,23.967913,0.0 120.511912,23.967878,0.0 120.512057,23.967774,0.0 120.512237,23.967678,0.0 120.512477,23.967527,0.0 120.512725,23.96739,0.0 120.513072,23.967177,0.0 120.513376,23.966976,0.0 120.513571,23.966816,0.0 120.513632,23.966753,0.0 120.51369,23.966649,0.0 120.513724,23.966565,0.0 120.513783,23.966476,0.0 120.513963,23.966298,0.0 120.514176,23.966127,0.0 120.514431,23.965952,0.0 120.514759,23.965734,0.0 120.515065,23.965544,0.0 120.515243,23.965436,0.0 120.515274,23.965411,0.0 120.5154,23.965356,0.0 120.515699,23.965208,0.0 120.51608,23.965026,0.0 120.516947,23.964772,0.0 120.517361,23.964668,0.0 120.517603,23.964638,0.0 120.517783,23.964635,0.0 120.517946,23.964692,0.0 120.518221,23.964789,0.0 120.518345,23.964793,0.0 120.518468,23.964785,0.0 120.518587,23.964746,0.0 120.518763,23.964668,0.0 120.519017,23.964471,0.0 120.519378,23.964257,0.0 120.519757,23.964104,0.0 120.51981,23.964226,0.0 120.519966,23.964359,0.0 120.520361,23.964795,0.0 120.520384,23.964928,0.0 120.520395,23.965132,0.0 120.520407,23.965204,0.0 120.520455,23.965248,0.0 120.520936,23.965238,0.0 120.52132,23.965216,0.0 120.521766,23.965221,0.0 120.521808,23.965308,0.0 120.521816,23.965512,0.0 120.521824,23.965645,0.0 120.5219,23.96588,0.0 120.521925,23.96599,0.0 120.521881,23.966272,0.0 120.521864,23.966398,0.0 120.521863,23.966492,0.0 120.521879,23.966954,0.0 120.5218,23.967417,0.0 120.521609,23.968242,0.0 120.521453,23.968845,0.0 120.52153,23.968853,0.0 120.521666,23.968854,0.0 120.52188,23.968807,0.0 120.521965,23.968808,0.0 120.522085,23.968863,0.0 120.52222,23.969185,0.0 120.522295,23.969655,0.0 120.522235,23.969859,0.0 120.522251,23.970063,0.0 120.522313,23.971198,0.0 120.522387,23.971861,0.0 120.522302,23.97207,0.0 120.52212,23.972125,0.0 120.5219,23.972124,0.0 120.521579,23.972054,0.0 120.521494,23.972027,0.0 120.521413,23.971957,0.0 120.521361,23.971874,0.0 120.521281,23.971834,0.0 120.521134,23.97183,0.0 120.520863,23.971842,0.0 120.52053,23.971972,0.0 120.520449,23.972115,0.0 120.520352,23.972253,0.0 120.520087,23.97238,0.0 120.519998,23.972421,0.0 120.519917,23.972535,0.0 120.519792,23.972748,0.0 120.519628,23.972971,0.0 120.519255,23.972978,0.0 120.518558,23.972959,0.0 120.517921,23.972864,0.0 120.517227,23.972861,0.0 120.516554,23.972914,0.0 120.516091,23.973023,0.0 120.515663,23.973154,0.0 120.51502,23.973454,0.0 120.51449,23.973779,0.0 120.514114,23.974157,0.0 120.513844,23.97442,0.0 120.513685,23.974791,0.0</coordinates></LinearRing></outerBoundaryIs></Polygon><styleUrl>#spolygon-map</styleUrl></Placemark><Placemark><Polygon><outerBoundaryIs><LinearRing><coordinates>120.547167,23.975498,0.0 120.547124,23.975534,0.0 120.546827,23.975609,0.0 120.546549,23.975687,0.0 120.546371,23.975741,0.0 120.545964,23.975952,0.0 120.545682,23.976085,0.0 120.545387,23.97618,0.0 120.545258,23.976219,0.0 120.545106,23.976252,0.0 120.544961,23.976321,0.0 120.544827,23.976317,0.0 120.544743,23.976317,0.0 120.544681,23.976316,0.0 120.544619,23.976253,0.0 120.544528,23.976133,0.0 120.544442,23.975921,0.0 120.544364,23.97578,0.0 120.544153,23.975476,0.0 120.544,23.975322,0.0 120.543904,23.975198,0.0 120.543842,23.975087,0.0 120.543786,23.975045,0.0 120.543745,23.974976,0.0 120.543737,23.974784,0.0 120.543734,23.97461,0.0 120.5437,23.974458,0.0 120.543688,23.974403,0.0 120.543533,23.974188,0.0 120.543449,23.974017,0.0 120.543375,23.973828,0.0 120.54331,23.973719,0.0 120.543201,23.973601,0.0 120.543077,23.973503,0.0 120.543021,23.973437,0.0 120.54294,23.973366,0.0 120.542805,23.973247,0.0 120.542609,23.97313,0.0 120.542381,23.973016,0.0 120.542218,23.972909,0.0 120.542063,23.972775,0.0 120.541936,23.972625,0.0 120.541834,23.972483,0.0 120.541744,23.972326,0.0 120.541567,23.972079,0.0 120.54147,23.971926,0.0 120.541412,23.971776,0.0 120.541348,23.971639,0.0 120.541497,23.971536,0.0 120.541515,23.971493,0.0 120.541504,23.971419,0.0 120.541479,23.971359,0.0 120.541434,23.971318,0.0 120.541347,23.971324,0.0 120.541194,23.97131,0.0 120.541089,23.97129,0.0 120.54093,23.971253,0.0 120.540723,23.971189,0.0 120.540585,23.971132,0.0 120.540491,23.971068,0.0 120.540176,23.970991,0.0 120.53994,23.970967,0.0 120.539842,23.970976,0.0 120.539697,23.970986,0.0 120.539385,23.971018,0.0 120.539163,23.971051,0.0 120.539065,23.971067,0.0 120.538874,23.971098,0.0 120.538471,23.97116,0.0 120.538312,23.9712,0.0 120.538115,23.971273,0.0 120.537796,23.971402,0.0 120.537592,23.971494,0.0 120.537462,23.971561,0.0 120.537111,23.971003,0.0 120.536823,23.970356,0.0 120.536622,23.969838,0.0 120.536529,23.969385,0.0 120.536563,23.969211,0.0 120.536591,23.968944,0.0 120.536633,23.968696,0.0 120.53681,23.968324,0.0 120.536864,23.968225,0.0 120.536966,23.968107,0.0 120.537048,23.968012,0.0 120.537037,23.967947,0.0 120.536796,23.96653,0.0 120.536597,23.965305,0.0 120.536378,23.964078,0.0 120.536325,23.963755,0.0 120.53634,23.963414,0.0 120.536458,23.962574,0.0 120.536508,23.962009,0.0 120.536607,23.960879,0.0 120.536676,23.960475,0.0 120.536694,23.960316,0.0 120.536732,23.960145,0.0 120.536784,23.95991,0.0 120.536835,23.959744,0.0 120.536942,23.959515,0.0 120.537116,23.959325,0.0 120.537425,23.959143,0.0 120.537745,23.958902,0.0 120.538059,23.958538,0.0 120.538182,23.958492,0.0 120.538525,23.958322,0.0 120.538836,23.958131,0.0 120.539476,23.957795,0.0 120.540056,23.957564,0.0 120.540157,23.957545,0.0 120.540371,23.957561,0.0 120.540476,23.957593,0.0 120.540569,23.957647,0.0 120.540692,23.957839,0.0 120.540733,23.958321,0.0 120.540783,23.958434,0.0 120.540804,23.958449,0.0 120.54102,23.958411,0.0 120.541337,23.958303,0.0 120.54168,23.958188,0.0 120.542184,23.958034,0.0 120.542307,23.958058,0.0 120.542374,23.958104,0.0 120.542447,23.958374,0.0 120.542484,23.958522,0.0 120.542539,23.958685,0.0 120.542602,23.958786,0.0 120.542669,23.958852,0.0 120.542817,23.958973,0.0 120.542981,23.959352,0.0 120.543272,23.95964,0.0 120.543719,23.959941,0.0 120.544086,23.960237,0.0 120.544181,23.960351,0.0 120.544273,23.960596,0.0 120.544302,23.960658,0.0 120.544328,23.960689,0.0 120.544404,23.960689,0.0 120.544501,23.960728,0.0 120.54453,23.960752,0.0 120.544619,23.960744,0.0 120.544784,23.960714,0.0 120.544873,23.960679,0.0 120.544983,23.960621,0.0 120.545026,23.96059,0.0 120.545127,23.960544,0.0 120.545208,23.960517,0.0 120.545381,23.960455,0.0 120.545624,23.960307,0.0 120.545827,23.960144,0.0 120.546052,23.959881,0.0 120.546103,23.959795,0.0 120.546243,23.959683,0.0 120.546366,23.959614,0.0 120.546568,23.959551,0.0 120.546758,23.959509,0.0 120.546851,23.959509,0.0 120.547033,23.95951,0.0 120.547236,23.959514,0.0 120.547452,23.959484,0.0 120.547638,23.959426,0.0 120.54774,23.959321,0.0 120.54799,23.959015,0.0 120.548344,23.958646,0.0 120.548649,23.958375,0.0 120.549031,23.958058,0.0 120.549099,23.957996,0.0 120.549289,23.957992,0.0 120.549493,23.958025,0.0 120.549472,23.958137,0.0 120.549402,23.958444,0.0 120.549012,23.959051,0.0 120.548677,23.959441,0.0 120.548133,23.95998,0.0 120.547568,23.960571,0.0 120.546108,23.962099,0.0 120.545627,23.962622,0.0 120.546219,23.963072,0.0 120.546691,23.963537,0.0 120.546653,23.963572,0.0 120.546382,23.963809,0.0 120.54609,23.964056,0.0 120.545917,23.964204,0.0 120.545813,23.964311,0.0 120.545576,23.964527,0.0 120.545357,23.964711,0.0 120.545236,23.964821,0.0 120.544961,23.965151,0.0 120.544752,23.965435,0.0 120.544613,23.965664,0.0 120.544477,23.965909,0.0 120.544309,23.966302,0.0 120.544219,23.966579,0.0 120.544166,23.966861,0.0 120.544078,23.967294,0.0 120.544066,23.967568,0.0 120.544054,23.967652,0.0 120.544027,23.968046,0.0 120.544014,23.968291,0.0 120.543997,23.968415,0.0 120.544051,23.968545,0.0 120.544097,23.96863,0.0 120.544211,23.968852,0.0 120.544282,23.969047,0.0 120.544496,23.969534,0.0 120.544654,23.969863,0.0 120.544716,23.969988,0.0 120.544933,23.970556,0.0 120.54501,23.970738,0.0 120.545079,23.970912,0.0 120.545124,23.970986,0.0 120.545236,23.971171,0.0 120.54529,23.971227,0.0 120.545368,23.971277,0.0 120.545483,23.971301,0.0 120.545529,23.971301,0.0 120.545648,23.971303,0.0 120.545855,23.971309,0.0 120.546059,23.971325,0.0 120.546223,23.971413,0.0 120.546295,23.971463,0.0 120.546358,23.971534,0.0 120.546406,23.971646,0.0 120.546492,23.971773,0.0 120.546581,23.971929,0.0 120.546675,23.972155,0.0 120.546764,23.972414,0.0 120.546852,23.972718,0.0 120.54692,23.972967,0.0 120.546983,23.973247,0.0 120.546997,23.97332,0.0 120.547053,23.973467,0.0 120.547065,23.973638,0.0 120.547099,23.973924,0.0 120.547107,23.97411,0.0 120.547097,23.974317,0.0 120.547075,23.974519,0.0 120.547041,23.974684,0.0 120.546936,23.975017,0.0 120.546909,23.975179,0.0 120.546948,23.975279,0.0 120.54709,23.975378,0.0 120.54715,23.975458,0.0 120.547167,23.975498,0.0</coordinates></LinearRing></outerBoundaryIs></Polygon><styleUrl>#spolygon-map</styleUrl></Placemark><Placemark><Polygon><outerBoundaryIs><LinearRing><coordinates>120.537462,23.971561,0.0 120.536903,23.971847,0.0 120.536638,23.971973,0.0 120.536445,23.972079,0.0 120.536329,23.972198,0.0 120.536205,23.972334,0.0 120.536088,23.97252,0.0 120.536022,23.972627,0.0 120.535989,23.972757,0.0 120.535949,23.972817,0.0 120.535884,23.972886,0.0 120.535738,23.973006,0.0 120.535542,23.973168,0.0 120.535398,23.973247,0.0 120.535302,23.973313,0.0 120.535161,23.973393,0.0 120.535054,23.973455,0.0 120.534751,23.973622,0.0 120.534416,23.973857,0.0 120.534401,23.973955,0.0 120.534235,23.974341,0.0 120.534122,23.974639,0.0 120.53399,23.974857,0.0 120.533878,23.975008,0.0 120.533634,23.975304,0.0 120.533517,23.97545,0.0 120.533425,23.975566,0.0 120.533352,23.97573,0.0 120.533293,23.97592,0.0 120.533283,23.976009,0.0 120.533291,23.976289,0.0 120.5333,23.976592,0.0 120.53325,23.976966,0.0 120.533206,23.977166,0.0 120.533167,23.977259,0.0 120.533138,23.977292,0.0 120.533069,23.977379,0.0 120.533021,23.977488,0.0 120.532966,23.977586,0.0 120.532862,23.977691,0.0 120.53266,23.977836,0.0 120.532549,23.977901,0.0 120.532351,23.977984,0.0 120.531974,23.978113,0.0 120.531831,23.978178,0.0 120.531677,23.978214,0.0 120.531625,23.978214,0.0 120.531447,23.978264,0.0 120.531347,23.978265,0.0 120.531248,23.97825,0.0 120.531133,23.978199,0.0 120.53105,23.978173,0.0 120.530983,23.978119,0.0 120.530845,23.977976,0.0 120.530786,23.977911,0.0 120.530719,23.977834,0.0 120.530699,23.977758,0.0 120.530633,23.977583,0.0 120.530613,23.977529,0.0 120.530578,23.977481,0.0 120.530514,23.977445,0.0 120.530265,23.977415,0.0 120.529786,23.977403,0.0 120.52962,23.977395,0.0 120.529487,23.977397,0.0 120.529281,23.977437,0.0 120.52919,23.977447,0.0 120.528844,23.977548,0.0 120.528447,23.977681,0.0 120.528053,23.977804,0.0 120.527847,23.977865,0.0 120.527759,23.977876,0.0 120.527676,23.977886,0.0 120.527525,23.977882,0.0 120.527351,23.977864,0.0 120.527247,23.977874,0.0 120.527076,23.977907,0.0 120.526977,23.977921,0.0 120.52683,23.977957,0.0 120.526493,23.977967,0.0 120.526318,23.977944,0.0 120.525935,23.97787,0.0 120.526244,23.977346,0.0 120.526325,23.977223,0.0 120.52636,23.977064,0.0 120.526445,23.976816,0.0 120.526488,23.97654,0.0 120.526564,23.975633,0.0 120.526688,23.974482,0.0 120.52675,23.974024,0.0 120.526772,23.973832,0.0 120.526793,23.973655,0.0 120.52686,23.973522,0.0 120.526987,23.973316,0.0 120.527157,23.972925,0.0 120.527514,23.972269,0.0 120.527575,23.972152,0.0 120.527732,23.971975,0.0 120.527967,23.971766,0.0 120.527746,23.971368,0.0 120.528279,23.971147,0.0 120.529242,23.970769,0.0 120.530412,23.970386,0.0 120.531351,23.970091,0.0 120.531893,23.969877,0.0 120.532763,23.969536,0.0 120.533244,23.9693,0.0 120.533768,23.969086,0.0 120.534364,23.968878,0.0 120.534658,23.968824,0.0 120.535149,23.968648,0.0 120.535582,23.968484,0.0 120.536395,23.968122,0.0 120.537037,23.967947,0.0 120.537048,23.968012,0.0 120.536966,23.968107,0.0 120.536864,23.968225,0.0 120.53681,23.968324,0.0 120.536633,23.968696,0.0 120.536591,23.968944,0.0 120.536563,23.969211,0.0 120.536529,23.969385,0.0 120.536622,23.969838,0.0 120.536823,23.970356,0.0 120.537111,23.971003,0.0 120.537462,23.971561,0.0</coordinates></LinearRing></outerBoundaryIs></Polygon><styleUrl>#spolygon-map</styleUrl></Placemark><Placemark><Polygon><outerBoundaryIs><LinearRing><coordinates>120.52341,23.977384,0.0 120.523041,23.977302,0.0 120.522815,23.977243,0.0 120.522579,23.977217,0.0 120.522191,23.977194,0.0 120.521837,23.977178,0.0 120.521611,23.977218,0.0 120.521452,23.97729,0.0 120.521189,23.977511,0.0 120.520755,23.977845,0.0 120.520638,23.977924,0.0 120.520551,23.977967,0.0 120.52032,23.978058,0.0 120.520265,23.97808,0.0 120.520193,23.97809,0.0 120.52003,23.978101,0.0 120.519851,23.978162,0.0 120.519776,23.978206,0.0 120.519712,23.97822,0.0 120.519502,23.978227,0.0 120.519284,23.978211,0.0 120.519198,23.978211,0.0 120.519047,23.978199,0.0 120.518893,23.978169,0.0 120.518718,23.978143,0.0 120.518587,23.978143,0.0 120.518242,23.978171,0.0 120.517864,23.978225,0.0 120.517539,23.9783,0.0 120.517408,23.978329,0.0 120.51728,23.978325,0.0 120.517241,23.978321,0.0 120.517181,23.978288,0.0 120.517063,23.978197,0.0 120.516972,23.978043,0.0 120.516894,23.977943,0.0 120.516712,23.977841,0.0 120.516574,23.977771,0.0 120.516423,23.97776,0.0 120.516252,23.977788,0.0 120.516045,23.977893,0.0 120.515815,23.977987,0.0 120.515628,23.9781,0.0 120.515512,23.978128,0.0 120.515421,23.978146,0.0 120.515159,23.978149,0.0 120.515032,23.978138,0.0 120.514842,23.978046,0.0 120.51462,23.977892,0.0 120.514566,23.977885,0.0 120.514463,23.977896,0.0 120.514336,23.977928,0.0 120.514185,23.977983,0.0 120.514082,23.978066,0.0 120.514038,23.978113,0.0 120.514018,23.978186,0.0 120.514041,23.978433,0.0 120.514091,23.978746,0.0 120.514091,23.978867,0.0 120.514078,23.978936,0.0 120.513975,23.979059,0.0 120.513919,23.979103,0.0 120.513855,23.979139,0.0 120.513685,23.979157,0.0 120.513577,23.979157,0.0 120.513478,23.979185,0.0 120.513323,23.979258,0.0 120.513191,23.979292,0.0 120.512733,23.979596,0.0 120.512403,23.97981,0.0 120.51216,23.980032,0.0 120.511925,23.980297,0.0 120.511572,23.980801,0.0 120.511058,23.981379,0.0 120.51072,23.981633,0.0 120.510415,23.981918,0.0 120.510188,23.982118,0.0 120.509834,23.982383,0.0 120.509663,23.982433,0.0 120.509488,23.982487,0.0 120.509202,23.982505,0.0 120.509075,23.98253,0.0 120.508996,23.982555,0.0 120.508903,23.98257,0.0 120.508785,23.98258,0.0 120.508795,23.98257,0.0 120.508943,23.982439,0.0 120.509106,23.982203,0.0 120.509238,23.981963,0.0 120.50933,23.981781,0.0 120.509428,23.981528,0.0 120.509524,23.981382,0.0 120.50979,23.981266,0.0 120.510482,23.980864,0.0 120.510886,23.980576,0.0 120.511268,23.980285,0.0 120.511503,23.980151,0.0 120.511741,23.980013,0.0 120.511857,23.97993,0.0 120.511952,23.979799,0.0 120.511988,23.97973,0.0 120.512028,23.979635,0.0 120.512069,23.979523,0.0 120.51207,23.97936,0.0 120.512075,23.979148,0.0 120.51206,23.978766,0.0 120.512061,23.978569,0.0 120.512074,23.97835,0.0 120.512094,23.978197,0.0 120.512163,23.977845,0.0 120.512212,23.977601,0.0 120.51222,23.977554,0.0 120.512284,23.977557,0.0 120.512359,23.977529,0.0 120.512478,23.977525,0.0 120.512705,23.977285,0.0 120.512845,23.977155,0.0 120.512968,23.977046,0.0 120.513287,23.976843,0.0 120.51347,23.976719,0.0 120.513551,23.976666,0.0 120.513706,23.976608,0.0 120.513909,23.976481,0.0 120.514124,23.976358,0.0 120.514327,23.976191,0.0 120.51447,23.976057,0.0 120.514606,23.975933,0.0 120.514689,23.975853,0.0 120.514705,23.975755,0.0 120.514686,23.975605,0.0 120.514631,23.975489,0.0 120.514497,23.975282,0.0 120.514359,23.975117,0.0 120.514232,23.974989,0.0 120.514141,23.97492,0.0 120.513999,23.974821,0.0 120.513927,23.974806,0.0 120.513816,23.974791,0.0 120.513685,23.974791,0.0 120.513844,23.97442,0.0 120.514114,23.974157,0.0 120.51449,23.973779,0.0 120.51502,23.973454,0.0 120.515663,23.973154,0.0 120.516091,23.973023,0.0 120.516554,23.972914,0.0 120.517227,23.972861,0.0 120.517921,23.972864,0.0 120.518558,23.972959,0.0 120.519255,23.972978,0.0 120.519628,23.972971,0.0 120.519766,23.972969,0.0 120.520418,23.972982,0.0 120.521019,23.973061,0.0 120.521812,23.973152,0.0 120.52265,23.973172,0.0 120.523071,23.973156,0.0 120.523419,23.973141,0.0 120.523948,23.973176,0.0 120.525207,23.973468,0.0 120.526,23.973625,0.0 120.526772,23.973832,0.0 120.52675,23.974024,0.0 120.526688,23.974482,0.0 120.526564,23.975633,0.0 120.526488,23.97654,0.0 120.526445,23.976816,0.0 120.52636,23.977064,0.0 120.526325,23.977223,0.0 120.526244,23.977346,0.0 120.525935,23.97787,0.0 120.525594,23.977822,0.0 120.524951,23.977674,0.0 120.524412,23.97757,0.0 120.523993,23.977495,0.0 120.523589,23.977417,0.0 120.52341,23.977384,0.0</coordinates></LinearRing></outerBoundaryIs></Polygon><styleUrl>#spolygon-map</styleUrl></Placemark></Document>
</kml>
