<?xml version="1.0" encoding="UTF-8"?>
<kml xmlns="http://www.opengis.net/kml/2.2">
	<Document>
		<name>新北市深坑區</name>
		<Style id="spolygon">
			<LabelStyle>
				<scale>0.0</scale>
			</LabelStyle>
			<LineStyle>
				<color>330030ff</color>
				<width>0</width>
			</LineStyle>
			<PolyStyle>
				<color>330030ff</color>
			</PolyStyle>
		</Style>
		<StyleMap id="spolygon-map">
			<Pair>
				<key>normal</key>
				<styleUrl>#spolygon</styleUrl>
			</Pair>
		</StyleMap>
	<Placemark><Polygon><outerBoundaryIs><LinearRing><coordinates>121.61695,25.003773,0.0 121.616898,25.003779,0.0 121.616858,25.003795,0.0 121.61668,25.00389,0.0 121.616615,25.003932,0.0 121.616534,25.004009,0.0 121.616416,25.004117,0.0 121.616398,25.004135,0.0 121.616391,25.004145,0.0 121.61637,25.004193,0.0 121.616324,25.004304,0.0 121.616272,25.004427,0.0 121.616269,25.004444,0.0 121.61627,25.004461,0.0 121.616274,25.004481,0.0 121.616281,25.004496,0.0 121.616295,25.004523,0.0 121.616649,25.005146,0.0 121.616634,25.005201,0.0 121.616435,25.005951,0.0 121.615517,25.007372,0.0 121.613824,25.006797,0.0 121.613081,25.006193,0.0 121.61287,25.006022,0.0 121.612638,25.005833,0.0 121.611804,25.004543,0.0 121.611535,25.003563,0.0 121.611402,25.001493,0.0 121.611384,25.001211,0.0 121.611381,25.001157,0.0 121.611381,25.001153,0.0 121.611383,25.001069,0.0 121.611403,25.000352,0.0 121.611405,25.000269,0.0 121.611925,25.000379,0.0 121.61266,25.000462,0.0 121.612812,25.000489,0.0 121.612991,25.00052,0.0 121.613158,25.000572,0.0 121.613293,25.000592,0.0 121.613449,25.000591,0.0 121.613551,25.000571,0.0 121.613674,25.000514,0.0 121.61386,25.000376,0.0 121.61393,25.000324,0.0 121.613985,25.000275,0.0 121.614096,25.000222,0.0 121.614351,25.000146,0.0 121.615113,25.00006,0.0 121.615668,25.000029,0.0 121.616312,24.999934,0.0 121.616659,24.999883,0.0 121.617262,24.999809,0.0 121.617527,24.999808,0.0 121.617666,24.999807,0.0 121.617784,24.999788,0.0 121.617969,24.999749,0.0 121.618339,24.99972,0.0 121.618549,24.999715,0.0 121.618726,24.99968,0.0 121.618937,24.999611,0.0 121.618998,24.999573,0.0 121.619108,24.999551,0.0 121.61915,24.999542,0.0 121.619045,24.99952,0.0 121.61905,24.999507,0.0 121.619227,24.99936,0.0 121.619491,24.999309,0.0 121.61959,24.999305,0.0 121.619787,24.999298,0.0 121.620004,24.999343,0.0 121.620171,24.999437,0.0 121.620342,24.999574,0.0 121.620368,24.999635,0.0 121.620588,24.999862,0.0 121.620596,24.99987,0.0 121.620716,25.000063,0.0 121.620811,25.000182,0.0 121.620833,25.000216,0.0 121.620834,25.000256,0.0 121.620843,25.000311,0.0 121.6209,25.00043,0.0 121.621014,25.00054,0.0 121.621115,25.000598,0.0 121.621164,25.000643,0.0 121.621262,25.00072,0.0 121.621432,25.001019,0.0 121.621511,25.001053,0.0 121.621541,25.001097,0.0 121.621419,25.001144,0.0 121.621287,25.001202,0.0 121.621093,25.001291,0.0 121.62101,25.001315,0.0 121.620922,25.001323,0.0 121.620849,25.001322,0.0 121.620735,25.001308,0.0 121.620628,25.001294,0.0 121.620494,25.00129,0.0 121.620452,25.001296,0.0 121.620301,25.001318,0.0 121.620171,25.001346,0.0 121.619522,25.001491,0.0 121.619457,25.00151,0.0 121.619013,25.001644,0.0 121.618277,25.00187,0.0 121.61818,25.001924,0.0 121.61809,25.001991,0.0 121.617968,25.001977,0.0 121.617762,25.001963,0.0 121.616901,25.001904,0.0 121.6168,25.002336,0.0 121.616784,25.002389,0.0 121.616761,25.002464,0.0 121.616729,25.002517,0.0 121.616681,25.002565,0.0 121.616599,25.002617,0.0 121.616767,25.002696,0.0 121.616907,25.00272,0.0 121.616929,25.002736,0.0 121.617077,25.0028,0.0 121.617171,25.002807,0.0 121.617393,25.002823,0.0 121.617526,25.002843,0.0 121.617547,25.00285,0.0 121.61757,25.002857,0.0 121.617623,25.002881,0.0 121.617655,25.00291,0.0 121.617669,25.002922,0.0 121.617673,25.002943,0.0 121.617668,25.002971,0.0 121.617636,25.003044,0.0 121.617635,25.003049,0.0 121.617635,25.003052,0.0 121.61764,25.003122,0.0 121.617634,25.003167,0.0 121.617529,25.003498,0.0 121.617472,25.003476,0.0 121.617412,25.003564,0.0 121.617265,25.003735,0.0 121.61723,25.003759,0.0 121.617155,25.003793,0.0 121.617139,25.003795,0.0 121.617118,25.003792,0.0 121.617023,25.003777,0.0 121.616986,25.003771,0.0 121.61695,25.003773,0.0</coordinates></LinearRing></outerBoundaryIs></Polygon><styleUrl>#spolygon-map</styleUrl></Placemark><Placemark><Polygon><outerBoundaryIs><LinearRing><coordinates>121.598783,25.00456,0.0 121.598653,25.004604,0.0 121.598273,25.00472,0.0 121.598256,25.004728,0.0 121.598185,25.00476,0.0 121.597526,25.004973,0.0 121.597246,25.005058,0.0 121.597092,25.005105,0.0 121.596918,25.005164,0.0 121.596473,25.005232,0.0 121.596091,25.005291,0.0 121.596079,25.004504,0.0 121.596076,25.004305,0.0 121.596073,25.004163,0.0 121.59701,25.004341,0.0 121.597345,25.004405,0.0 121.597458,25.004426,0.0 121.59784,25.0041,0.0 121.598507,25.003529,0.0 121.598809,25.003278,0.0 121.599063,25.003065,0.0 121.599386,25.002796,0.0 121.599504,25.002762,0.0 121.600004,25.002613,0.0 121.600137,25.002485,0.0 121.600268,25.002358,0.0 121.600543,25.002236,0.0 121.600748,25.002103,0.0 121.601074,25.001894,0.0 121.601428,25.001714,0.0 121.601743,25.001527,0.0 121.601783,25.001503,0.0 121.602181,25.0013,0.0 121.602614,25.000877,0.0 121.603212,25.00044,0.0 121.603499,25.000185,0.0 121.603597,25.000129,0.0 121.604396,24.999861,0.0 121.604897,24.999669,0.0 121.605258,24.99956,0.0 121.605456,24.999589,0.0 121.605486,24.999659,0.0 121.605494,24.999682,0.0 121.605528,24.999785,0.0 121.60556,24.999847,0.0 121.605629,24.999901,0.0 121.6057,24.999915,0.0 121.605854,24.999935,0.0 121.605961,24.999926,0.0 121.606203,24.999876,0.0 121.606322,24.999833,0.0 121.606428,24.999754,0.0 121.606492,24.99969,0.0 121.606544,24.999598,0.0 121.606558,24.999527,0.0 121.606586,24.99947,0.0 121.606586,24.999408,0.0 121.606628,24.999354,0.0 121.606709,24.99933,0.0 121.606903,24.999311,0.0 121.607098,24.999281,0.0 121.607263,24.999246,0.0 121.607454,24.999241,0.0 121.607581,24.999241,0.0 121.607754,24.999294,0.0 121.607962,24.99934,0.0 121.608156,24.999378,0.0 121.608243,24.999396,0.0 121.608361,24.999443,0.0 121.60841,24.999449,0.0 121.608465,24.999446,0.0 121.608555,24.99944,0.0 121.608665,24.999432,0.0 121.608859,24.999426,0.0 121.609032,24.999438,0.0 121.609405,24.999512,0.0 121.609856,24.99966,0.0 121.610031,24.999754,0.0 121.610052,24.999767,0.0 121.610244,24.999883,0.0 121.61048,24.999995,0.0 121.610848,25.000104,0.0 121.611405,25.000269,0.0 121.611403,25.000352,0.0 121.611383,25.001069,0.0 121.611381,25.001153,0.0 121.610977,25.001036,0.0 121.610799,25.000995,0.0 121.61062,25.000969,0.0 121.610478,25.000958,0.0 121.610334,25.000963,0.0 121.610149,25.000976,0.0 121.609899,25.000997,0.0 121.609088,25.001143,0.0 121.608246,25.001332,0.0 121.608153,25.001342,0.0 121.60775,25.001411,0.0 121.607551,25.001449,0.0 121.606543,25.001638,0.0 121.606203,25.001702,0.0 121.605483,25.001846,0.0 121.605414,25.00186,0.0 121.605313,25.001893,0.0 121.605217,25.001931,0.0 121.605119,25.001972,0.0 121.605001,25.002029,0.0 121.604556,25.00225,0.0 121.604417,25.002317,0.0 121.604007,25.002531,0.0 121.6039,25.002587,0.0 121.60365,25.002723,0.0 121.603247,25.002986,0.0 121.602963,25.003152,0.0 121.602764,25.003268,0.0 121.602649,25.003314,0.0 121.602226,25.003456,0.0 121.601911,25.003547,0.0 121.601663,25.00363,0.0 121.601338,25.003738,0.0 121.601285,25.003755,0.0 121.600722,25.003929,0.0 121.600472,25.004015,0.0 121.600026,25.004154,0.0 121.599999,25.004162,0.0 121.599575,25.004292,0.0 121.598783,25.00456,0.0</coordinates></LinearRing></outerBoundaryIs></Polygon><styleUrl>#spolygon-map</styleUrl></Placemark><Placemark><Polygon><outerBoundaryIs><LinearRing><coordinates>121.63593,25.023591,0.0 121.635006,25.024147,0.0 121.633873,25.024835,0.0 121.633236,25.025222,0.0 121.632501,25.025669,0.0 121.631778,25.025711,0.0 121.631318,25.024989,0.0 121.630537,25.023721,0.0 121.630397,25.023208,0.0 121.629944,25.021547,0.0 121.629814,25.021359,0.0 121.628951,25.020072,0.0 121.628197,25.019592,0.0 121.628218,25.019554,0.0 121.628255,25.019488,0.0 121.62826,25.019481,0.0 121.628297,25.019423,0.0 121.628376,25.019329,0.0 121.628566,25.019163,0.0 121.628726,25.019012,0.0 121.628834,25.018931,0.0 121.628854,25.01892,0.0 121.628905,25.018913,0.0 121.629043,25.018878,0.0 121.629125,25.018838,0.0 121.629238,25.01878,0.0 121.629391,25.01869,0.0 121.629454,25.018639,0.0 121.629506,25.018585,0.0 121.629532,25.018562,0.0 121.62956,25.01855,0.0 121.62965,25.018531,0.0 121.629712,25.018511,0.0 121.62977,25.018482,0.0 121.62983,25.018428,0.0 121.629853,25.018395,0.0 121.629861,25.018374,0.0 121.629867,25.018284,0.0 121.629859,25.018274,0.0 121.629849,25.018262,0.0 121.629835,25.018218,0.0 121.629833,25.018188,0.0 121.629836,25.018178,0.0 121.629696,25.018077,0.0 121.629334,25.018051,0.0 121.629332,25.017871,0.0 121.629332,25.017789,0.0 121.629137,25.017483,0.0 121.629083,25.017479,0.0 121.629049,25.017473,0.0 121.630781,25.013041,0.0 121.631809,25.010411,0.0 121.632021,25.009869,0.0 121.632048,25.0098,0.0 121.632195,25.009824,0.0 121.632395,25.009826,0.0 121.632624,25.009788,0.0 121.632918,25.009706,0.0 121.633142,25.009634,0.0 121.633173,25.009634,0.0 121.633245,25.009646,0.0 121.633283,25.009633,0.0 121.633311,25.009609,0.0 121.633353,25.009561,0.0 121.633391,25.009541,0.0 121.6335,25.009524,0.0 121.633589,25.009534,0.0 121.633779,25.009576,0.0 121.633862,25.00957,0.0 121.634116,25.009481,0.0 121.634312,25.009377,0.0 121.634456,25.00926,0.0 121.634521,25.009216,0.0 121.634603,25.009192,0.0 121.634782,25.009142,0.0 121.634867,25.009097,0.0 121.635366,25.008861,0.0 121.635551,25.008814,0.0 121.635651,25.008798,0.0 121.635762,25.00875,0.0 121.635825,25.008737,0.0 121.635904,25.008739,0.0 121.635996,25.008752,0.0 121.636076,25.008767,0.0 121.636139,25.008772,0.0 121.636262,25.008782,0.0 121.63635,25.008792,0.0 121.636484,25.008779,0.0 121.636845,25.008645,0.0 121.637252,25.008544,0.0 121.637688,25.008487,0.0 121.637918,25.008482,0.0 121.638111,25.008463,0.0 121.638244,25.008437,0.0 121.638446,25.008388,0.0 121.638619,25.008366,0.0 121.639155,25.008375,0.0 121.639367,25.008415,0.0 121.639583,25.008418,0.0 121.639763,25.008414,0.0 121.639987,25.008416,0.0 121.640158,25.00843,0.0 121.640354,25.008465,0.0 121.640479,25.008514,0.0 121.640588,25.008581,0.0 121.640936,25.009031,0.0 121.640953,25.009135,0.0 121.640955,25.009143,0.0 121.64098,25.00925,0.0 121.641036,25.009373,0.0 121.64108,25.00944,0.0 121.641111,25.009491,0.0 121.641136,25.009547,0.0 121.641157,25.009617,0.0 121.641192,25.009736,0.0 121.641205,25.009815,0.0 121.64121,25.009857,0.0 121.641211,25.009865,0.0 121.641212,25.009966,0.0 121.641202,25.010042,0.0 121.6412,25.010062,0.0 121.641182,25.010163,0.0 121.641155,25.010233,0.0 121.641151,25.010242,0.0 121.64114,25.010264,0.0 121.641127,25.010293,0.0 121.641133,25.010338,0.0 121.64117,25.010377,0.0 121.641276,25.010438,0.0 121.641339,25.01048,0.0 121.64148,25.010573,0.0 121.641542,25.010617,0.0 121.641635,25.010701,0.0 121.641663,25.010735,0.0 121.641685,25.010761,0.0 121.641689,25.010765,0.0 121.641691,25.010768,0.0 121.641691,25.010813,0.0 121.641689,25.010819,0.0 121.641673,25.010853,0.0 121.641624,25.010898,0.0 121.641513,25.010932,0.0 121.641371,25.010983,0.0 121.641254,25.011051,0.0 121.64118,25.011114,0.0 121.641137,25.011181,0.0 121.641128,25.011224,0.0 121.641113,25.011294,0.0 121.641096,25.011451,0.0 121.641077,25.011539,0.0 121.641053,25.011646,0.0 121.641022,25.011708,0.0 121.640967,25.011793,0.0 121.640857,25.011934,0.0 121.640808,25.011985,0.0 121.640783,25.012058,0.0 121.640768,25.012124,0.0 121.640765,25.012136,0.0 121.640759,25.012183,0.0 121.640753,25.012221,0.0 121.640766,25.012249,0.0 121.640797,25.012344,0.0 121.640897,25.012515,0.0 121.640965,25.012604,0.0 121.64104,25.012677,0.0 121.641082,25.012714,0.0 121.641207,25.012824,0.0 121.641251,25.012862,0.0 121.641313,25.01289,0.0 121.641411,25.012889,0.0 121.641454,25.012844,0.0 121.641541,25.012816,0.0 121.641615,25.012838,0.0 121.641628,25.012868,0.0 121.641646,25.012911,0.0 121.641641,25.012934,0.0 121.641628,25.012989,0.0 121.641616,25.013023,0.0 121.641548,25.013063,0.0 121.641474,25.013108,0.0 121.641407,25.013159,0.0 121.64137,25.013221,0.0 121.641347,25.013254,0.0 121.641327,25.013283,0.0 121.641321,25.013299,0.0 121.641309,25.013328,0.0 121.641334,25.013396,0.0 121.641384,25.013452,0.0 121.641476,25.013513,0.0 121.641478,25.013525,0.0 121.641483,25.013558,0.0 121.641477,25.01367,0.0 121.641469,25.01369,0.0 121.641465,25.013699,0.0 121.641469,25.013767,0.0 121.641472,25.013817,0.0 121.641488,25.013865,0.0 121.641491,25.013873,0.0 121.641479,25.013974,0.0 121.641455,25.014053,0.0 121.641424,25.014109,0.0 121.641403,25.014183,0.0 121.641388,25.014239,0.0 121.6414,25.014323,0.0 121.641425,25.014396,0.0 121.641445,25.014484,0.0 121.641507,25.014636,0.0 121.641563,25.014759,0.0 121.641618,25.014907,0.0 121.64183,25.015476,0.0 121.64098,25.01658,0.0 121.640969,25.016897,0.0 121.640972,25.016974,0.0 121.640983,25.017194,0.0 121.64099,25.017271,0.0 121.640993,25.017313,0.0 121.641002,25.017414,0.0 121.641003,25.017497,0.0 121.641003,25.017531,0.0 121.641003,25.017577,0.0 121.641009,25.017634,0.0 121.64101,25.017639,0.0 121.64101,25.017729,0.0 121.64101,25.017773,0.0 121.640999,25.017886,0.0 121.64098,25.017959,0.0 121.640913,25.018106,0.0 121.640858,25.018218,0.0 121.640711,25.01841,0.0 121.640662,25.018495,0.0 121.640515,25.018647,0.0 121.640478,25.01872,0.0 121.640423,25.018867,0.0 121.640386,25.019029,0.0 121.640331,25.019176,0.0 121.640289,25.0193,0.0 121.640203,25.01944,0.0 121.640117,25.019553,0.0 121.640001,25.019728,0.0 121.63989,25.019824,0.0 121.639724,25.02005,0.0 121.63959,25.020253,0.0 121.639424,25.020484,0.0 121.639375,25.020585,0.0 121.639345,25.020675,0.0 121.639326,25.020763,0.0 121.639321,25.020788,0.0 121.639338,25.020864,0.0 121.63934,25.020872,0.0 121.639365,25.020962,0.0 121.639427,25.021069,0.0 121.639576,25.021276,0.0 121.639651,25.021366,0.0 121.639781,25.021539,0.0 121.639881,25.021666,0.0 121.640043,25.021856,0.0 121.640099,25.021912,0.0 121.640198,25.02203,0.0 121.640213,25.022062,0.0 121.640267,25.022182,0.0 121.6403,25.022308,0.0 121.640317,25.022373,0.0 121.640343,25.022513,0.0 121.640374,25.022682,0.0 121.640406,25.022788,0.0 121.640438,25.022974,0.0 121.640463,25.02312,0.0 121.64047,25.023176,0.0 121.640483,25.023207,0.0 121.640513,25.023438,0.0 121.640514,25.02345,0.0 121.640188,25.02353,0.0 121.639768,25.023633,0.0 121.637707,25.024137,0.0 121.637037,25.023856,0.0 121.63614,25.023464,0.0 121.63593,25.023591,0.0</coordinates></LinearRing></outerBoundaryIs></Polygon><styleUrl>#spolygon-map</styleUrl></Placemark><Placemark><Polygon><outerBoundaryIs><LinearRing><coordinates>121.632918,25.009706,0.0 121.632624,25.009788,0.0 121.632395,25.009826,0.0 121.632195,25.009824,0.0 121.632048,25.0098,0.0 121.631833,25.009686,0.0 121.631567,25.009545,0.0 121.631419,25.009428,0.0 121.631307,25.009292,0.0 121.631164,25.00901,0.0 121.63086,25.008001,0.0 121.630752,25.00779,0.0 121.630581,25.007591,0.0 121.630084,25.007156,0.0 121.629542,25.006779,0.0 121.628971,25.006381,0.0 121.628641,25.006067,0.0 121.628304,25.00572,0.0 121.62797,25.00533,0.0 121.627835,25.005227,0.0 121.627759,25.005199,0.0 121.627686,25.00519,0.0 121.627607,25.005203,0.0 121.627563,25.005225,0.0 121.627425,25.00531,0.0 121.627264,25.00543,0.0 121.627213,25.005521,0.0 121.627108,25.005918,0.0 121.627073,25.006307,0.0 121.627036,25.006524,0.0 121.626964,25.006651,0.0 121.626855,25.006743,0.0 121.626703,25.006813,0.0 121.62647,25.006861,0.0 121.626278,25.006862,0.0 121.626017,25.006788,0.0 121.625718,25.006635,0.0 121.625468,25.006475,0.0 121.625337,25.006337,0.0 121.625241,25.006164,0.0 121.625152,25.005871,0.0 121.625076,25.005751,0.0 121.625047,25.005706,0.0 121.625034,25.005642,0.0 121.62503,25.005627,0.0 121.625031,25.005535,0.0 121.625032,25.005479,0.0 121.625014,25.005319,0.0 121.624992,25.00523,0.0 121.624943,25.005166,0.0 121.624894,25.005121,0.0 121.624797,25.005033,0.0 121.624706,25.004952,0.0 121.62464,25.00485,0.0 121.624341,25.004413,0.0 121.624249,25.004233,0.0 121.624181,25.004128,0.0 121.623829,25.003801,0.0 121.623335,25.00341,0.0 121.623186,25.003242,0.0 121.622913,25.002928,0.0 121.622656,25.002646,0.0 121.622496,25.002507,0.0 121.622133,25.002261,0.0 121.622031,25.002212,0.0 121.621958,25.002186,0.0 121.621856,25.00213,0.0 121.621777,25.002086,0.0 121.621647,25.002023,0.0 121.621571,25.001946,0.0 121.621517,25.001869,0.0 121.621485,25.001819,0.0 121.62146,25.001762,0.0 121.621457,25.001716,0.0 121.621456,25.0017,0.0 121.621449,25.001645,0.0 121.621474,25.001583,0.0 121.621575,25.001399,0.0 121.621603,25.001281,0.0 121.621605,25.001272,0.0 121.621608,25.001221,0.0 121.621593,25.001173,0.0 121.621541,25.001097,0.0 121.621511,25.001053,0.0 121.621432,25.001019,0.0 121.621262,25.00072,0.0 121.621164,25.000643,0.0 121.621115,25.000598,0.0 121.621014,25.00054,0.0 121.6209,25.00043,0.0 121.620843,25.000311,0.0 121.620834,25.000256,0.0 121.620833,25.000216,0.0 121.620811,25.000182,0.0 121.620716,25.000063,0.0 121.620596,24.99987,0.0 121.620588,24.999862,0.0 121.620368,24.999635,0.0 121.620342,24.999574,0.0 121.620171,24.999437,0.0 121.620004,24.999343,0.0 121.619787,24.999298,0.0 121.61959,24.999305,0.0 121.619491,24.999309,0.0 121.619227,24.99936,0.0 121.61905,24.999507,0.0 121.619045,24.99952,0.0 121.61915,24.999542,0.0 121.619108,24.999551,0.0 121.618998,24.999573,0.0 121.618937,24.999611,0.0 121.618726,24.99968,0.0 121.618549,24.999715,0.0 121.618339,24.99972,0.0 121.617969,24.999749,0.0 121.617784,24.999788,0.0 121.617666,24.999807,0.0 121.617527,24.999808,0.0 121.617262,24.999809,0.0 121.616659,24.999883,0.0 121.616312,24.999934,0.0 121.615668,25.000029,0.0 121.615113,25.00006,0.0 121.614351,25.000146,0.0 121.614096,25.000222,0.0 121.613985,25.000275,0.0 121.61393,25.000324,0.0 121.613738,25.000237,0.0 121.613645,25.000177,0.0 121.613564,25.000103,0.0 121.613436,24.999935,0.0 121.613271,24.999713,0.0 121.613239,24.999626,0.0 121.613239,24.999619,0.0 121.613233,24.99955,0.0 121.61325,24.99946,0.0 121.613304,24.999274,0.0 121.613327,24.999151,0.0 121.613344,24.99897,0.0 121.613344,24.998941,0.0 121.613343,24.998913,0.0 121.613342,24.998856,0.0 121.613349,24.998786,0.0 121.613383,24.99869,0.0 121.613416,24.998591,0.0 121.613505,24.998432,0.0 121.61359,24.998314,0.0 121.613687,24.998229,0.0 121.61374,24.998197,0.0 121.613753,24.998189,0.0 121.613894,24.998104,0.0 121.613934,24.998072,0.0 121.613964,24.998013,0.0 121.613975,24.997932,0.0 121.613977,24.9978,0.0 121.613977,24.997781,0.0 121.613977,24.997705,0.0 121.613939,24.997558,0.0 121.613878,24.997373,0.0 121.613858,24.997285,0.0 121.613849,24.997208,0.0 121.613846,24.997177,0.0 121.613848,24.997041,0.0 121.613863,24.996937,0.0 121.613919,24.996751,0.0 121.613927,24.996669,0.0 121.613926,24.996594,0.0 121.613926,24.996539,0.0 121.613889,24.996066,0.0 121.613886,24.996035,0.0 121.613885,24.995752,0.0 121.613899,24.995639,0.0 121.613929,24.995557,0.0 121.613963,24.995509,0.0 121.614215,24.995464,0.0 121.614429,24.995466,0.0 121.614651,24.995472,0.0 121.614915,24.995481,0.0 121.615357,24.995489,0.0 121.615537,24.995506,0.0 121.615766,24.99554,0.0 121.616032,24.995569,0.0 121.616177,24.995576,0.0 121.616323,24.99557,0.0 121.616403,24.995576,0.0 121.616461,24.995598,0.0 121.616638,24.995677,0.0 121.616844,24.995746,0.0 121.616979,24.995775,0.0 121.617223,24.995798,0.0 121.617312,24.995796,0.0 121.617355,24.995782,0.0 121.617389,24.995763,0.0 121.617411,24.995738,0.0 121.61744,24.995654,0.0 121.617449,24.995542,0.0 121.617453,24.995498,0.0 121.617444,24.995441,0.0 121.617368,24.995282,0.0 121.617222,24.995004,0.0 121.617123,24.994872,0.0 121.616917,24.994563,0.0 121.616883,24.994498,0.0 121.616867,24.994459,0.0 121.616863,24.994449,0.0 121.616861,24.994407,0.0 121.616869,24.994328,0.0 121.616898,24.994276,0.0 121.616938,24.994214,0.0 121.617017,24.99415,0.0 121.617089,24.994113,0.0 121.617183,24.994097,0.0 121.617423,24.994068,0.0 121.617499,24.994053,0.0 121.617587,24.994014,0.0 121.617687,24.993951,0.0 121.617785,24.993861,0.0 121.617846,24.993789,0.0 121.617908,24.993693,0.0 121.617932,24.99363,0.0 121.617957,24.993566,0.0 121.617793,24.993445,0.0 121.617747,24.993411,0.0 121.61514,24.991285,0.0 121.615068,24.991226,0.0 121.615378,24.991111,0.0 121.615717,24.990996,0.0 121.615841,24.990954,0.0 121.6161,24.990866,0.0 121.616209,24.990728,0.0 121.616269,24.990423,0.0 121.616311,24.990193,0.0 121.616351,24.990068,0.0 121.616382,24.990024,0.0 121.61642,24.989995,0.0 121.616475,24.989976,0.0 121.616625,24.989975,0.0 121.617139,24.989996,0.0 121.617198,24.989998,0.0 121.617244,24.989989,0.0 121.617288,24.98997,0.0 121.617361,24.989915,0.0 121.617408,24.989849,0.0 121.617431,24.989779,0.0 121.617442,24.989717,0.0 121.617442,24.989614,0.0 121.617442,24.989533,0.0 121.617443,24.989473,0.0 121.617443,24.98945,0.0 121.609053,24.983894,0.0 121.609421,24.983607,0.0 121.609486,24.983577,0.0 121.609554,24.983567,0.0 121.609659,24.98358,0.0 121.609814,24.983647,0.0 121.610161,24.983791,0.0 121.610203,24.983805,0.0 121.610242,24.983804,0.0 121.61027,24.98378,0.0 121.61027,24.983749,0.0 121.610241,24.98372,0.0 121.610135,24.983653,0.0 121.609923,24.983556,0.0 121.609866,24.983521,0.0 121.609848,24.983487,0.0 121.609846,24.983469,0.0 121.609852,24.983453,0.0 121.609866,24.983441,0.0 121.60987,24.983441,0.0 121.609916,24.983434,0.0 121.610006,24.983444,0.0 121.610142,24.983476,0.0 121.61025,24.983531,0.0 121.610363,24.983633,0.0 121.610381,24.983649,0.0 121.610399,24.983663,0.0 121.610415,24.983672,0.0 121.610429,24.983675,0.0 121.610453,24.983675,0.0 121.610468,24.983657,0.0 121.610471,24.983637,0.0 121.610463,24.983625,0.0 121.610458,24.983618,0.0 121.610446,24.983601,0.0 121.610435,24.98359,0.0 121.610273,24.983426,0.0 121.610185,24.983382,0.0 121.610058,24.983346,0.0 121.609851,24.983314,0.0 121.609674,24.983304,0.0 121.609434,24.983322,0.0 121.609312,24.983323,0.0 121.609213,24.983303,0.0 121.609195,24.983294,0.0 121.609186,24.983276,0.0 121.609184,24.983252,0.0 121.609194,24.983229,0.0 121.609209,24.983217,0.0 121.609225,24.983204,0.0 121.6097,24.983035,0.0 121.609932,24.982992,0.0 121.610041,24.982989,0.0 121.610119,24.983003,0.0 121.610203,24.98303,0.0 121.610311,24.983044,0.0 121.610391,24.983044,0.0 121.61047,24.983029,0.0 121.610658,24.982965,0.0 121.61075,24.982939,0.0 121.610804,24.982939,0.0 121.610845,24.982954,0.0 121.610868,24.982973,0.0 121.610912,24.983039,0.0 121.610939,24.983147,0.0 121.610984,24.983345,0.0 121.611011,24.983388,0.0 121.611041,24.983406,0.0 121.611085,24.983406,0.0 121.611159,24.983393,0.0 121.611449,24.983316,0.0 121.611497,24.983318,0.0 121.611549,24.983332,0.0 121.611588,24.983345,0.0 121.611617,24.983362,0.0 121.611661,24.983475,0.0 121.61175,24.983641,0.0 121.611821,24.983713,0.0 121.611917,24.983762,0.0 121.612016,24.98378,0.0 121.612154,24.983816,0.0 121.612232,24.983845,0.0 121.612268,24.983875,0.0 121.612291,24.983935,0.0 121.61232,24.98418,0.0 121.612326,24.984232,0.0 121.612319,24.984301,0.0 121.612292,24.984357,0.0 121.61212,24.984551,0.0 121.61211,24.984576,0.0 121.6121,24.9846,0.0 121.6121,24.984648,0.0 121.612147,24.984698,0.0 121.6122,24.984708,0.0 121.612254,24.984705,0.0 121.612296,24.98468,0.0 121.612394,24.98454,0.0 121.612466,24.984475,0.0 121.612525,24.984401,0.0 121.612536,24.984365,0.0 121.612539,24.984304,0.0 121.612535,24.984239,0.0 121.612514,24.983843,0.0 121.612516,24.983836,0.0 121.612556,24.983632,0.0 121.612588,24.98354,0.0 121.612596,24.983489,0.0 121.612607,24.983423,0.0 121.612597,24.983381,0.0 121.61259,24.983351,0.0 121.612562,24.983316,0.0 121.612503,24.9833,0.0 121.612367,24.98329,0.0 121.61228,24.98327,0.0 121.612233,24.983244,0.0 121.612176,24.983196,0.0 121.612143,24.983154,0.0 121.612137,24.98312,0.0 121.612133,24.983045,0.0 121.612121,24.982979,0.0 121.612097,24.982925,0.0 121.612037,24.982895,0.0 121.611967,24.982885,0.0 121.61158,24.982832,0.0 121.611448,24.982802,0.0 121.611381,24.982767,0.0 121.611366,24.982749,0.0 121.611359,24.982728,0.0 121.611361,24.982708,0.0 121.611374,24.982689,0.0 121.611381,24.982684,0.0 121.611405,24.98267,0.0 121.611498,24.982658,0.0 121.611731,24.982665,0.0 121.611829,24.982676,0.0 121.611927,24.982664,0.0 121.612043,24.98264,0.0 121.61238,24.982548,0.0 121.612412,24.982546,0.0 121.612453,24.982564,0.0 121.612618,24.982716,0.0 121.61279,24.982856,0.0 121.612903,24.98291,0.0 121.613001,24.982923,0.0 121.613131,24.982911,0.0 121.61333,24.982913,0.0 121.613407,24.982932,0.0 121.613494,24.982978,0.0 121.613563,24.983036,0.0 121.613611,24.983106,0.0 121.613633,24.983168,0.0 121.613635,24.983175,0.0 121.613638,24.983247,0.0 121.613615,24.983293,0.0 121.613544,24.983332,0.0 121.613141,24.983515,0.0 121.613092,24.983551,0.0 121.613087,24.983571,0.0 121.613077,24.983618,0.0 121.613094,24.983667,0.0 121.613153,24.983706,0.0 121.613274,24.983732,0.0 121.6134,24.983731,0.0 121.614375,24.983624,0.0 121.614354,24.983541,0.0 121.61432,24.983412,0.0 121.614208,24.983009,0.0 121.614194,24.982916,0.0 121.614158,24.982586,0.0 121.61414,24.982457,0.0 121.6141,24.9823,0.0 121.614072,24.982187,0.0 121.614062,24.982145,0.0 121.614057,24.98206,0.0 121.614056,24.98199,0.0 121.614055,24.981975,0.0 121.614053,24.981896,0.0 121.614052,24.981883,0.0 121.614046,24.981793,0.0 121.614028,24.981693,0.0 121.613997,24.981598,0.0 121.61395,24.981466,0.0 121.613927,24.981411,0.0 121.613908,24.981383,0.0 121.613867,24.981368,0.0 121.613808,24.98137,0.0 121.613764,24.981388,0.0 121.613725,24.981428,0.0 121.613693,24.981485,0.0 121.613674,24.981529,0.0 121.613673,24.981534,0.0 121.613669,24.981582,0.0 121.613683,24.98164,0.0 121.613755,24.981824,0.0 121.613762,24.981856,0.0 121.61377,24.981901,0.0 121.613761,24.981961,0.0 121.613733,24.982015,0.0 121.613683,24.982071,0.0 121.613604,24.98211,0.0 121.613473,24.982133,0.0 121.613356,24.982143,0.0 121.613289,24.982134,0.0 121.613221,24.982108,0.0 121.613175,24.982071,0.0 121.613139,24.982023,0.0 121.613105,24.981913,0.0 121.6131,24.981826,0.0 121.613102,24.981814,0.0 121.613111,24.981741,0.0 121.613156,24.98162,0.0 121.613207,24.981522,0.0 121.613331,24.981357,0.0 121.613475,24.981199,0.0 121.613521,24.98112,0.0 121.613534,24.981062,0.0 121.61354,24.981009,0.0 121.613533,24.980962,0.0 121.613532,24.98095,0.0 121.613412,24.980701,0.0 121.613364,24.980606,0.0 121.613313,24.980512,0.0 121.613298,24.980471,0.0 121.613297,24.980427,0.0 121.613303,24.980407,0.0 121.613313,24.980373,0.0 121.613347,24.98032,0.0 121.613421,24.980237,0.0 121.613504,24.980173,0.0 121.613683,24.980062,0.0 121.613767,24.980003,0.0 121.613815,24.979961,0.0 121.61397,24.979772,0.0 121.614054,24.97968,0.0 121.614178,24.979551,0.0 121.614394,24.979367,0.0 121.614616,24.979269,0.0 121.614723,24.979242,0.0 121.614813,24.97924,0.0 121.614908,24.979253,0.0 121.615006,24.979288,0.0 121.615134,24.97936,0.0 121.615297,24.979449,0.0 121.615344,24.979463,0.0 121.615369,24.979467,0.0 121.615386,24.979463,0.0 121.615397,24.979455,0.0 121.615402,24.979439,0.0 121.615398,24.979417,0.0 121.615371,24.979381,0.0 121.615322,24.979315,0.0 121.615258,24.979241,0.0 121.61525,24.979225,0.0 121.615244,24.979208,0.0 121.615238,24.979189,0.0 121.615241,24.979175,0.0 121.615248,24.979162,0.0 121.615255,24.979156,0.0 121.615267,24.979155,0.0 121.615284,24.979157,0.0 121.615299,24.979162,0.0 121.615314,24.979171,0.0 121.615326,24.979183,0.0 121.615335,24.979192,0.0 121.615392,24.979249,0.0 121.615447,24.979277,0.0 121.615529,24.979297,0.0 121.61561,24.979307,0.0 121.615678,24.979319,0.0 121.615714,24.979334,0.0 121.615743,24.979355,0.0 121.615765,24.979393,0.0 121.615765,24.979397,0.0 121.61577,24.97947,0.0 121.615751,24.979591,0.0 121.615749,24.979602,0.0 121.615745,24.979658,0.0 121.61575,24.979681,0.0 121.615763,24.979693,0.0 121.615785,24.979696,0.0 121.615814,24.979692,0.0 121.615842,24.979675,0.0 121.615971,24.979597,0.0 121.616048,24.979574,0.0 121.616103,24.979571,0.0 121.616156,24.979577,0.0 121.616205,24.979591,0.0 121.616266,24.979622,0.0 121.616445,24.979714,0.0 121.616529,24.979756,0.0 121.616593,24.979768,0.0 121.616624,24.979763,0.0 121.616652,24.979747,0.0 121.61671,24.979691,0.0 121.616738,24.979658,0.0 121.616742,24.979634,0.0 121.61674,24.979608,0.0 121.616726,24.979584,0.0 121.616735,24.979573,0.0 121.626362,24.972199,0.0 121.626434,24.972232,0.0 121.626472,24.972249,0.0 121.626554,24.97229,0.0 121.626605,24.972311,0.0 121.626655,24.972331,0.0 121.626711,24.972352,0.0 121.626782,24.972376,0.0 121.626846,24.97239,0.0 121.626896,24.972413,0.0 121.626999,24.972455,0.0 121.627175,24.97253,0.0 121.627228,24.972566,0.0 121.627322,24.972606,0.0 121.627413,24.972646,0.0 121.627465,24.972675,0.0 121.627511,24.9727,0.0 121.627538,24.972715,0.0 121.627564,24.97273,0.0 121.627617,24.972763,0.0 121.62768,24.972806,0.0 121.627719,24.972837,0.0 121.62776,24.972872,0.0 121.627814,24.972923,0.0 121.627843,24.972966,0.0 121.627889,24.973013,0.0 121.627925,24.973055,0.0 121.627971,24.973097,0.0 121.628001,24.973131,0.0 121.628021,24.973161,0.0 121.62806,24.973193,0.0 121.628096,24.9732,0.0 121.628138,24.973209,0.0 121.628219,24.973243,0.0 121.628256,24.973301,0.0 121.628311,24.973356,0.0 121.628366,24.973392,0.0 121.628421,24.973436,0.0 121.628458,24.973464,0.0 121.628522,24.973511,0.0 121.628574,24.973552,0.0 121.628614,24.973588,0.0 121.628672,24.973635,0.0 121.6287,24.973663,0.0 121.628767,24.973726,0.0 121.628795,24.973768,0.0 121.628829,24.973798,0.0 121.628868,24.973856,0.0 121.628908,24.9739,0.0 121.628941,24.973945,0.0 121.628973,24.974004,0.0 121.629001,24.974046,0.0 121.629041,24.974109,0.0 121.629092,24.974202,0.0 121.629121,24.974252,0.0 121.629153,24.974309,0.0 121.629184,24.97436,0.0 121.629202,24.974366,0.0 121.629231,24.974381,0.0 121.629286,24.97441,0.0 121.629386,24.974405,0.0 121.629488,24.974407,0.0 121.629611,24.974426,0.0 121.62967,24.974437,0.0 121.629704,24.974449,0.0 121.62971,24.974452,0.0 121.629744,24.974468,0.0 121.629783,24.974485,0.0 121.629832,24.974512,0.0 121.629937,24.974573,0.0 121.629972,24.974596,0.0 121.630037,24.974625,0.0 121.63009,24.974648,0.0 121.630125,24.974667,0.0 121.630246,24.974726,0.0 121.630325,24.974772,0.0 121.630355,24.974796,0.0 121.630412,24.974839,0.0 121.630847,24.975153,0.0 121.630889,24.975174,0.0 121.630933,24.975186,0.0 121.630961,24.975203,0.0 121.631015,24.97523,0.0 121.631052,24.975247,0.0 121.631265,24.975352,0.0 121.631333,24.975375,0.0 121.631363,24.975398,0.0 121.631483,24.975472,0.0 121.631511,24.975499,0.0 121.631557,24.975537,0.0 121.631615,24.975583,0.0 121.63166,24.975612,0.0 121.631734,24.975713,0.0 121.631802,24.975781,0.0 121.631846,24.975821,0.0 121.631904,24.975871,0.0 121.631907,24.975874,0.0 121.631991,24.97595,0.0 121.632026,24.975982,0.0 121.632084,24.976005,0.0 121.632135,24.976038,0.0 121.632177,24.976061,0.0 121.632312,24.976139,0.0 121.632368,24.976175,0.0 121.632426,24.976223,0.0 121.632477,24.976261,0.0 121.632526,24.976311,0.0 121.632589,24.976362,0.0 121.632629,24.97641,0.0 121.632689,24.976475,0.0 121.632715,24.976515,0.0 121.632766,24.976583,0.0 121.632818,24.976647,0.0 121.632879,24.976701,0.0 121.632926,24.976762,0.0 121.632951,24.976806,0.0 121.632996,24.976849,0.0 121.633054,24.976922,0.0 121.633118,24.97697,0.0 121.633124,24.976975,0.0 121.633189,24.97705,0.0 121.633232,24.977056,0.0 121.63325,24.977027,0.0 121.633254,24.97702,0.0 121.63328,24.97704,0.0 121.633301,24.977063,0.0 121.63333,24.977089,0.0 121.633357,24.977126,0.0 121.633429,24.977186,0.0 121.633443,24.977201,0.0 121.633473,24.977233,0.0 121.633507,24.977273,0.0 121.633534,24.97731,0.0 121.633543,24.97734,0.0 121.633575,24.977391,0.0 121.633611,24.977452,0.0 121.633627,24.977481,0.0 121.633652,24.977515,0.0 121.633683,24.97755,0.0 121.63371,24.977576,0.0 121.633755,24.977615,0.0 121.633772,24.977629,0.0 121.6338,24.977651,0.0 121.633847,24.977677,0.0 121.633878,24.977689,0.0 121.633912,24.977699,0.0 121.633943,24.977703,0.0 121.633981,24.977707,0.0 121.634001,24.977707,0.0 121.634041,24.977703,0.0 121.634105,24.977705,0.0 121.634166,24.977703,0.0 121.634241,24.977703,0.0 121.634314,24.977717,0.0 121.634415,24.977742,0.0 121.634476,24.97777,0.0 121.634548,24.977801,0.0 121.634625,24.977834,0.0 121.634745,24.97787,0.0 121.634778,24.977882,0.0 121.634827,24.977897,0.0 121.634873,24.977914,0.0 121.634936,24.977939,0.0 121.634981,24.977952,0.0 121.635045,24.977978,0.0 121.63509,24.977987,0.0 121.635142,24.978009,0.0 121.635183,24.978023,0.0 121.635219,24.978042,0.0 121.635248,24.97806,0.0 121.63529,24.978083,0.0 121.635339,24.978112,0.0 121.635387,24.978139,0.0 121.635441,24.978174,0.0 121.635484,24.978203,0.0 121.635495,24.978215,0.0 121.635506,24.978226,0.0 121.635604,24.978297,0.0 121.635609,24.978303,0.0 121.635641,24.978335,0.0 121.635667,24.978365,0.0 121.635701,24.978401,0.0 121.635725,24.978455,0.0 121.635788,24.978562,0.0 121.635817,24.978611,0.0 121.635838,24.978635,0.0 121.635848,24.978647,0.0 121.635856,24.978655,0.0 121.635874,24.978677,0.0 121.635916,24.978707,0.0 121.635959,24.978736,0.0 121.635979,24.978747,0.0 121.636015,24.978765,0.0 121.636055,24.978782,0.0 121.636083,24.978793,0.0 121.636111,24.978801,0.0 121.636145,24.978814,0.0 121.636166,24.97882,0.0 121.636199,24.978829,0.0 121.636239,24.978839,0.0 121.636267,24.978837,0.0 121.636286,24.978836,0.0 121.636726,24.978807,0.0 121.636756,24.978843,0.0 121.636803,24.978894,0.0 121.636811,24.978903,0.0 121.636822,24.978911,0.0 121.636863,24.978939,0.0 121.636905,24.978961,0.0 121.637036,24.979096,0.0 121.63705,24.979111,0.0 121.63709,24.97915,0.0 121.6371,24.97916,0.0 121.637128,24.979198,0.0 121.637157,24.979241,0.0 121.637194,24.979295,0.0 121.637214,24.97934,0.0 121.637235,24.979398,0.0 121.637245,24.979423,0.0 121.637255,24.979447,0.0 121.637264,24.979466,0.0 121.637269,24.979488,0.0 121.637278,24.979524,0.0 121.63729,24.979577,0.0 121.637309,24.979618,0.0 121.637343,24.979719,0.0 121.637349,24.979733,0.0 121.637359,24.979755,0.0 121.63739,24.979796,0.0 121.637411,24.979832,0.0 121.637435,24.979864,0.0 121.637464,24.979888,0.0 121.637483,24.979903,0.0 121.637508,24.979925,0.0 121.637528,24.979942,0.0 121.637565,24.979961,0.0 121.637599,24.97998,0.0 121.637636,24.979997,0.0 121.637676,24.980014,0.0 121.637707,24.980027,0.0 121.637815,24.980073,0.0 121.637862,24.980096,0.0 121.637924,24.980121,0.0 121.637976,24.980142,0.0 121.638111,24.980192,0.0 121.638148,24.9802,0.0 121.638191,24.980216,0.0 121.638233,24.980235,0.0 121.638263,24.98024,0.0 121.638309,24.98026,0.0 121.638384,24.980282,0.0 121.638429,24.980294,0.0 121.638464,24.980305,0.0 121.638491,24.980315,0.0 121.638524,24.980327,0.0 121.638561,24.980343,0.0 121.638679,24.980385,0.0 121.638709,24.980403,0.0 121.638746,24.980414,0.0 121.638779,24.980432,0.0 121.638812,24.980441,0.0 121.638831,24.980454,0.0 121.638854,24.980467,0.0 121.63891,24.98049,0.0 121.638951,24.980515,0.0 121.638993,24.980537,0.0 121.639022,24.980552,0.0 121.639071,24.980579,0.0 121.639103,24.980604,0.0 121.639136,24.980649,0.0 121.639152,24.98067,0.0 121.63918,24.980709,0.0 121.639167,24.980736,0.0 121.639146,24.980766,0.0 121.639119,24.980806,0.0 121.639089,24.980848,0.0 121.639073,24.980881,0.0 121.639037,24.980948,0.0 121.639019,24.981007,0.0 121.639012,24.98104,0.0 121.638996,24.981091,0.0 121.638972,24.981278,0.0 121.638965,24.981339,0.0 121.638959,24.981408,0.0 121.638957,24.981443,0.0 121.638939,24.9815,0.0 121.63893,24.98155,0.0 121.638925,24.9816,0.0 121.638905,24.981615,0.0 121.638871,24.981717,0.0 121.638838,24.981761,0.0 121.638782,24.981835,0.0 121.638737,24.981888,0.0 121.63871,24.981936,0.0 121.638632,24.982013,0.0 121.638592,24.982064,0.0 121.638553,24.982106,0.0 121.638533,24.982125,0.0 121.638502,24.982163,0.0 121.638474,24.982204,0.0 121.638456,24.982232,0.0 121.638429,24.98227,0.0 121.638407,24.982303,0.0 121.638375,24.982345,0.0 121.638348,24.982378,0.0 121.638326,24.982433,0.0 121.638313,24.982481,0.0 121.6383,24.982521,0.0 121.638295,24.98255,0.0 121.638281,24.982591,0.0 121.638268,24.982627,0.0 121.638249,24.982656,0.0 121.638231,24.982688,0.0 121.638206,24.982731,0.0 121.638184,24.982777,0.0 121.638156,24.982815,0.0 121.63812,24.98286,0.0 121.638091,24.982889,0.0 121.63806,24.98292,0.0 121.638012,24.982966,0.0 121.63794,24.98305,0.0 121.637904,24.983083,0.0 121.637888,24.983113,0.0 121.63787,24.983144,0.0 121.637843,24.983184,0.0 121.637815,24.98324,0.0 121.637764,24.98336,0.0 121.637756,24.983403,0.0 121.637749,24.983438,0.0 121.637742,24.983479,0.0 121.637735,24.983526,0.0 121.637726,24.983568,0.0 121.637728,24.983614,0.0 121.637726,24.983667,0.0 121.637727,24.983715,0.0 121.637725,24.983757,0.0 121.637723,24.983795,0.0 121.637724,24.983853,0.0 121.637725,24.983869,0.0 121.637726,24.983887,0.0 121.637724,24.98391,0.0 121.637739,24.983936,0.0 121.63775,24.983984,0.0 121.637759,24.984009,0.0 121.637773,24.984045,0.0 121.637784,24.984089,0.0 121.637797,24.984131,0.0 121.637799,24.984173,0.0 121.637809,24.984275,0.0 121.637811,24.984304,0.0 121.637809,24.984345,0.0 121.6378,24.984388,0.0 121.637785,24.98444,0.0 121.637768,24.984485,0.0 121.63774,24.984546,0.0 121.63772,24.984598,0.0 121.637692,24.984672,0.0 121.637667,24.984733,0.0 121.637642,24.984799,0.0 121.637614,24.984909,0.0 121.637594,24.984979,0.0 121.637576,24.985035,0.0 121.637555,24.985088,0.0 121.637519,24.985159,0.0 121.637489,24.985207,0.0 121.637486,24.985211,0.0 121.637467,24.98524,0.0 121.637442,24.98528,0.0 121.637428,24.985319,0.0 121.637415,24.985356,0.0 121.637407,24.985393,0.0 121.637404,24.985425,0.0 121.637403,24.985431,0.0 121.637401,24.985451,0.0 121.637413,24.985499,0.0 121.637434,24.985543,0.0 121.637449,24.985567,0.0 121.637469,24.985596,0.0 121.637473,24.985608,0.0 121.637491,24.98566,0.0 121.637502,24.985714,0.0 121.637501,24.985778,0.0 121.637468,24.985926,0.0 121.63742,24.986004,0.0 121.637377,24.986079,0.0 121.637339,24.986153,0.0 121.637296,24.986219,0.0 121.637268,24.986264,0.0 121.637245,24.986287,0.0 121.637222,24.986327,0.0 121.637168,24.986408,0.0 121.63715,24.986481,0.0 121.637146,24.986553,0.0 121.637121,24.98666,0.0 121.637118,24.986686,0.0 121.637116,24.986731,0.0 121.637111,24.986748,0.0 121.637106,24.986763,0.0 121.637106,24.986835,0.0 121.637093,24.986924,0.0 121.637091,24.986968,0.0 121.637085,24.986996,0.0 121.63708,24.987014,0.0 121.637078,24.987066,0.0 121.637068,24.987121,0.0 121.637066,24.987177,0.0 121.637055,24.987234,0.0 121.637051,24.987321,0.0 121.637042,24.987387,0.0 121.637043,24.987409,0.0 121.637043,24.987433,0.0 121.637052,24.987486,0.0 121.637063,24.987526,0.0 121.637081,24.987556,0.0 121.63711,24.987584,0.0 121.63715,24.987616,0.0 121.637176,24.98764,0.0 121.637212,24.987674,0.0 121.637245,24.987698,0.0 121.637347,24.987801,0.0 121.637383,24.987835,0.0 121.637403,24.987855,0.0 121.637432,24.987879,0.0 121.637454,24.987901,0.0 121.637478,24.987945,0.0 121.637518,24.987993,0.0 121.637532,24.988018,0.0 121.637541,24.988035,0.0 121.637553,24.988066,0.0 121.637567,24.988111,0.0 121.637568,24.988147,0.0 121.637557,24.988191,0.0 121.637552,24.988204,0.0 121.637541,24.988269,0.0 121.63753,24.988312,0.0 121.637517,24.98837,0.0 121.637513,24.988407,0.0 121.6375,24.988443,0.0 121.637496,24.988475,0.0 121.637478,24.988527,0.0 121.637475,24.988549,0.0 121.637452,24.988601,0.0 121.637431,24.988649,0.0 121.637414,24.988684,0.0 121.637399,24.988714,0.0 121.637381,24.988757,0.0 121.637349,24.988824,0.0 121.637319,24.988888,0.0 121.637293,24.98893,0.0 121.63727,24.988984,0.0 121.637236,24.989043,0.0 121.6372,24.989117,0.0 121.637171,24.989149,0.0 121.637158,24.989224,0.0 121.637155,24.989242,0.0 121.637145,24.989267,0.0 121.637144,24.989296,0.0 121.637133,24.989315,0.0 121.637134,24.989358,0.0 121.637135,24.989374,0.0 121.63714,24.989409,0.0 121.637145,24.989461,0.0 121.637167,24.989502,0.0 121.637185,24.989545,0.0 121.63721,24.989572,0.0 121.637225,24.989598,0.0 121.637256,24.98963,0.0 121.637282,24.989653,0.0 121.637308,24.989676,0.0 121.637346,24.98971,0.0 121.637382,24.989747,0.0 121.637407,24.989771,0.0 121.637432,24.9898,0.0 121.637457,24.989829,0.0 121.637484,24.989871,0.0 121.637507,24.989903,0.0 121.637525,24.989938,0.0 121.637531,24.989955,0.0 121.637534,24.989961,0.0 121.637556,24.990036,0.0 121.637557,24.990081,0.0 121.637556,24.99011,0.0 121.637557,24.990143,0.0 121.637552,24.990173,0.0 121.637543,24.990198,0.0 121.637533,24.990244,0.0 121.637515,24.990277,0.0 121.637483,24.990341,0.0 121.637454,24.990377,0.0 121.637442,24.990397,0.0 121.637426,24.99042,0.0 121.637412,24.990435,0.0 121.637406,24.990455,0.0 121.637404,24.990479,0.0 121.637406,24.990525,0.0 121.637408,24.990544,0.0 121.637409,24.990568,0.0 121.637409,24.990584,0.0 121.637567,24.990787,0.0 121.637605,24.990822,0.0 121.637639,24.990848,0.0 121.637666,24.990873,0.0 121.637702,24.990903,0.0 121.637732,24.990938,0.0 121.637761,24.990975,0.0 121.637784,24.991023,0.0 121.637801,24.991048,0.0 121.637807,24.991057,0.0 121.637816,24.991094,0.0 121.637825,24.991149,0.0 121.637823,24.991207,0.0 121.637815,24.991239,0.0 121.637806,24.991252,0.0 121.637789,24.991296,0.0 121.63775,24.99134,0.0 121.63771,24.991384,0.0 121.63765,24.991448,0.0 121.637587,24.991513,0.0 121.637515,24.991594,0.0 121.637472,24.991645,0.0 121.63743,24.991699,0.0 121.637381,24.991753,0.0 121.637355,24.991787,0.0 121.637291,24.991876,0.0 121.637261,24.991918,0.0 121.637229,24.991963,0.0 121.6372,24.992005,0.0 121.637173,24.992054,0.0 121.637146,24.992094,0.0 121.637119,24.992141,0.0 121.637095,24.99218,0.0 121.637057,24.992217,0.0 121.637022,24.992249,0.0 121.636985,24.992277,0.0 121.636917,24.992304,0.0 121.636882,24.992324,0.0 121.636823,24.992349,0.0 121.636758,24.992375,0.0 121.636693,24.992405,0.0 121.636633,24.992432,0.0 121.636593,24.992449,0.0 121.636543,24.992472,0.0 121.636511,24.992492,0.0 121.636479,24.99251,0.0 121.63646,24.992526,0.0 121.636437,24.992544,0.0 121.636415,24.992567,0.0 121.636403,24.992581,0.0 121.636386,24.992674,0.0 121.636381,24.9927,0.0 121.636394,24.992757,0.0 121.636426,24.99279,0.0 121.636466,24.992831,0.0 121.636493,24.992873,0.0 121.636531,24.992925,0.0 121.636558,24.992962,0.0 121.636576,24.992995,0.0 121.636593,24.993027,0.0 121.6366,24.993042,0.0 121.636611,24.993065,0.0 121.636624,24.993101,0.0 121.636634,24.993133,0.0 121.636639,24.993184,0.0 121.636617,24.993232,0.0 121.636592,24.993277,0.0 121.636565,24.99332,0.0 121.636555,24.993333,0.0 121.636514,24.993402,0.0 121.636514,24.993459,0.0 121.636514,24.99347,0.0 121.636524,24.993515,0.0 121.636544,24.993571,0.0 121.636577,24.993616,0.0 121.636602,24.993659,0.0 121.636624,24.993694,0.0 121.636672,24.993771,0.0 121.636714,24.993834,0.0 121.636752,24.99389,0.0 121.636759,24.993905,0.0 121.636769,24.993924,0.0 121.636794,24.993958,0.0 121.636824,24.993996,0.0 121.636856,24.994048,0.0 121.636904,24.994111,0.0 121.636936,24.994156,0.0 121.636966,24.994192,0.0 121.636996,24.994228,0.0 121.637019,24.994271,0.0 121.637066,24.994313,0.0 121.637104,24.994372,0.0 121.637163,24.99444,0.0 121.637192,24.994477,0.0 121.637203,24.994491,0.0 121.637243,24.994529,0.0 121.6373,24.99459,0.0 121.637377,24.994669,0.0 121.63742,24.99471,0.0 121.637455,24.994746,0.0 121.63749,24.994775,0.0 121.637522,24.9948,0.0 121.637616,24.994869,0.0 121.637656,24.994896,0.0 121.637686,24.994918,0.0 121.637718,24.994945,0.0 121.63777,24.994992,0.0 121.637777,24.995002,0.0 121.637788,24.995017,0.0 121.637833,24.995055,0.0 121.637875,24.995078,0.0 121.637907,24.995089,0.0 121.637959,24.995073,0.0 121.638001,24.99505,0.0 121.638068,24.995009,0.0 121.6381,24.994993,0.0 121.638152,24.994962,0.0 121.638204,24.994941,0.0 121.638249,24.994921,0.0 121.638296,24.994894,0.0 121.63835,24.994871,0.0 121.638424,24.994848,0.0 121.638466,24.994828,0.0 121.638523,24.994807,0.0 121.638557,24.9948,0.0 121.638604,24.994789,0.0 121.638637,24.99478,0.0 121.638664,24.994775,0.0 121.638713,24.99477,0.0 121.638731,24.994772,0.0 121.638753,24.994775,0.0 121.63882,24.994783,0.0 121.638873,24.994812,0.0 121.63893,24.994835,0.0 121.638979,24.994861,0.0 121.639012,24.994875,0.0 121.639061,24.994893,0.0 121.639121,24.994924,0.0 121.639178,24.994946,0.0 121.639213,24.994962,0.0 121.639235,24.994973,0.0 121.639272,24.994989,0.0 121.639319,24.995002,0.0 121.639357,24.995015,0.0 121.639423,24.99504,0.0 121.63948,24.995049,0.0 121.639535,24.995062,0.0 121.639592,24.995071,0.0 121.639636,24.995077,0.0 121.639706,24.995088,0.0 121.639774,24.9951,0.0 121.639833,24.995111,0.0 121.63989,24.995119,0.0 121.639957,24.99513,0.0 121.639999,24.995135,0.0 121.640054,24.995143,0.0 121.640192,24.995156,0.0 121.640257,24.995156,0.0 121.640341,24.995158,0.0 121.640388,24.995158,0.0 121.640452,24.995162,0.0 121.640517,24.995168,0.0 121.640628,24.99517,0.0 121.640729,24.99517,0.0 121.640779,24.99517,0.0 121.640841,24.995172,0.0 121.640889,24.995171,0.0 121.64105,24.995171,0.0 121.641108,24.995171,0.0 121.641176,24.995171,0.0 121.641224,24.995171,0.0 121.641265,24.995171,0.0 121.641327,24.995171,0.0 121.641397,24.995171,0.0 121.64146,24.995172,0.0 121.641527,24.995171,0.0 121.641581,24.995171,0.0 121.641618,24.995173,0.0 121.641678,24.995174,0.0 121.641739,24.995173,0.0 121.6418,24.995172,0.0 121.641865,24.995174,0.0 121.641927,24.995175,0.0 121.641989,24.995175,0.0 121.642067,24.995175,0.0 121.642199,24.995176,0.0 121.642259,24.995179,0.0 121.642295,24.995182,0.0 121.642322,24.995185,0.0 121.642433,24.995187,0.0 121.642504,24.995187,0.0 121.642572,24.995189,0.0 121.642647,24.995196,0.0 121.642709,24.995199,0.0 121.642797,24.9952,0.0 121.642869,24.995211,0.0 121.642926,24.995213,0.0 121.642993,24.995212,0.0 121.643072,24.995212,0.0 121.643157,24.995212,0.0 121.643202,24.995198,0.0 121.64322,24.995195,0.0 121.643274,24.995187,0.0 121.643319,24.995177,0.0 121.643384,24.995169,0.0 121.643438,24.995162,0.0 121.643476,24.995159,0.0 121.64354,24.995154,0.0 121.643623,24.995158,0.0 121.643684,24.995158,0.0 121.643751,24.995161,0.0 121.643822,24.995167,0.0 121.643833,24.995168,0.0 121.643854,24.995184,0.0 121.643866,24.995266,0.0 121.643872,24.995298,0.0 121.643876,24.995318,0.0 121.643882,24.995367,0.0 121.643887,24.995442,0.0 121.643888,24.995499,0.0 121.643882,24.995545,0.0 121.643879,24.995588,0.0 121.643874,24.995642,0.0 121.643871,24.995744,0.0 121.643867,24.995782,0.0 121.643864,24.99582,0.0 121.643861,24.995875,0.0 121.643861,24.995916,0.0 121.643858,24.996004,0.0 121.643856,24.996058,0.0 121.643858,24.9961,0.0 121.643858,24.996106,0.0 121.643859,24.996152,0.0 121.643861,24.996168,0.0 121.643862,24.996181,0.0 121.643868,24.996216,0.0 121.64387,24.99623,0.0 121.643877,24.996276,0.0 121.643894,24.99635,0.0 121.643918,24.996409,0.0 121.643934,24.996463,0.0 121.643956,24.996508,0.0 121.643983,24.996544,0.0 121.64401,24.996576,0.0 121.644041,24.996599,0.0 121.644079,24.996625,0.0 121.644121,24.99664,0.0 121.644158,24.996641,0.0 121.644209,24.996645,0.0 121.644247,24.996641,0.0 121.644301,24.996638,0.0 121.644362,24.996639,0.0 121.644438,24.996641,0.0 121.644499,24.996652,0.0 121.644549,24.996693,0.0 121.644569,24.996726,0.0 121.644579,24.996745,0.0 121.644589,24.996762,0.0 121.644598,24.996799,0.0 121.644597,24.996843,0.0 121.644596,24.996857,0.0 121.644598,24.996895,0.0 121.644606,24.996944,0.0 121.644608,24.996963,0.0 121.644611,24.996987,0.0 121.644621,24.99704,0.0 121.644631,24.997094,0.0 121.644636,24.997117,0.0 121.644648,24.997156,0.0 121.64467,24.997217,0.0 121.644698,24.997269,0.0 121.644715,24.997301,0.0 121.644726,24.997321,0.0 121.644732,24.997333,0.0 121.644761,24.997377,0.0 121.644796,24.99742,0.0 121.644838,24.99746,0.0 121.644874,24.997495,0.0 121.644884,24.997506,0.0 121.644908,24.997533,0.0 121.644937,24.997566,0.0 121.644974,24.99762,0.0 121.645044,24.997705,0.0 121.645093,24.99776,0.0 121.645142,24.997806,0.0 121.645195,24.997863,0.0 121.645248,24.997901,0.0 121.645295,24.997927,0.0 121.64536,24.997963,0.0 121.645396,24.99798,0.0 121.645591,24.998092,0.0 121.645627,24.998118,0.0 121.645669,24.998151,0.0 121.645727,24.998201,0.0 121.645742,24.998208,0.0 121.645743,24.998253,0.0 121.645745,24.998322,0.0 121.645758,24.998366,0.0 121.645765,24.998387,0.0 121.645769,24.998413,0.0 121.645771,24.998429,0.0 121.645778,24.998477,0.0 121.645772,24.998509,0.0 121.645769,24.99852,0.0 121.645759,24.998567,0.0 121.645734,24.998656,0.0 121.645722,24.998719,0.0 121.645714,24.998764,0.0 121.645676,24.998878,0.0 121.64563,24.998979,0.0 121.645591,24.999069,0.0 121.645546,24.999153,0.0 121.6455,24.999255,0.0 121.645488,24.999297,0.0 121.645469,24.99941,0.0 121.645456,24.999482,0.0 121.645453,24.999507,0.0 121.645451,24.999529,0.0 121.64545,24.999548,0.0 121.645456,24.999613,0.0 121.645457,24.999673,0.0 121.645457,24.999751,0.0 121.645477,24.999864,0.0 121.645488,24.999957,0.0 121.645498,25.000053,0.0 121.645502,25.000145,0.0 121.645506,25.000232,0.0 121.645519,25.000363,0.0 121.64554,25.00056,0.0 121.645561,25.000704,0.0 121.645574,25.000835,0.0 121.645581,25.000866,0.0 121.645594,25.00093,0.0 121.645608,25.001032,0.0 121.645614,25.001059,0.0 121.645622,25.001098,0.0 121.645613,25.001115,0.0 121.645589,25.001163,0.0 121.645583,25.001175,0.0 121.645491,25.001212,0.0 121.645425,25.001224,0.0 121.645314,25.001212,0.0 121.645262,25.001242,0.0 121.645236,25.001278,0.0 121.645232,25.001294,0.0 121.645216,25.001362,0.0 121.645223,25.001398,0.0 121.645243,25.001434,0.0 121.645296,25.001481,0.0 121.645362,25.001553,0.0 121.645447,25.001606,0.0 121.645493,25.001657,0.0 121.6455,25.001666,0.0 121.645513,25.001743,0.0 121.645527,25.001785,0.0 121.645514,25.001887,0.0 121.645495,25.001934,0.0 121.645456,25.001976,0.0 121.645397,25.002006,0.0 121.645377,25.002013,0.0 121.645312,25.002031,0.0 121.645253,25.002013,0.0 121.645042,25.001954,0.0 121.64497,25.001949,0.0 121.644918,25.001943,0.0 121.644852,25.001949,0.0 121.644682,25.00198,0.0 121.644577,25.002016,0.0 121.644433,25.002058,0.0 121.644359,25.002068,0.0 121.64426,25.002068,0.0 121.644208,25.002063,0.0 121.644122,25.002063,0.0 121.64403,25.002057,0.0 121.643958,25.002064,0.0 121.643893,25.002076,0.0 121.643722,25.002083,0.0 121.643676,25.002083,0.0 121.643148,25.001999,0.0 121.643086,25.001977,0.0 121.643,25.001938,0.0 121.642888,25.001905,0.0 121.642814,25.001894,0.0 121.642691,25.001911,0.0 121.642604,25.001923,0.0 121.642543,25.00194,0.0 121.642401,25.001991,0.0 121.642303,25.002048,0.0 121.642198,25.002127,0.0 121.642094,25.002217,0.0 121.641928,25.002364,0.0 121.641866,25.002415,0.0 121.641752,25.002461,0.0 121.641641,25.002478,0.0 121.64156,25.002467,0.0 121.641431,25.002451,0.0 121.641369,25.002451,0.0 121.641221,25.002446,0.0 121.64106,25.002441,0.0 121.640968,25.002442,0.0 121.640918,25.002448,0.0 121.640857,25.002465,0.0 121.640733,25.00251,0.0 121.640659,25.002561,0.0 121.640592,25.00259,0.0 121.640499,25.002652,0.0 121.640364,25.002771,0.0 121.640303,25.002821,0.0 121.640211,25.002906,0.0 121.640131,25.002991,0.0 121.640051,25.00307,0.0 121.63994,25.003205,0.0 121.639917,25.003232,0.0 121.63991,25.003239,0.0 121.639842,25.003346,0.0 121.639744,25.003504,0.0 121.639714,25.003577,0.0 121.639683,25.003639,0.0 121.639627,25.003738,0.0 121.639584,25.003812,0.0 121.639542,25.003952,0.0 121.639536,25.004014,0.0 121.639524,25.004104,0.0 121.639512,25.004206,0.0 121.639482,25.004341,0.0 121.639482,25.004431,0.0 121.639477,25.004549,0.0 121.63949,25.004695,0.0 121.639491,25.004835,0.0 121.639498,25.004998,0.0 121.639498,25.005111,0.0 121.639498,25.005131,0.0 121.639498,25.005167,0.0 121.639499,25.005208,0.0 121.639499,25.005235,0.0 121.639517,25.005274,0.0 121.639567,25.005341,0.0 121.63971,25.00547,0.0 121.639828,25.005531,0.0 121.639921,25.005604,0.0 121.64004,25.005748,0.0 121.640109,25.005877,0.0 121.640158,25.005967,0.0 121.640239,25.006101,0.0 121.640295,25.00618,0.0 121.640419,25.006252,0.0 121.640549,25.006325,0.0 121.640605,25.006358,0.0 121.640686,25.006431,0.0 121.640748,25.006515,0.0 121.64081,25.006599,0.0 121.640873,25.006756,0.0 121.640916,25.00688,0.0 121.640973,25.007003,0.0 121.641023,25.007098,0.0 121.641085,25.007171,0.0 121.641166,25.007272,0.0 121.641197,25.007294,0.0 121.641228,25.007345,0.0 121.641302,25.007384,0.0 121.641389,25.007412,0.0 121.6415,25.007422,0.0 121.64158,25.007445,0.0 121.641648,25.007467,0.0 121.64171,25.007495,0.0 121.641754,25.007568,0.0 121.641773,25.007657,0.0 121.641806,25.007739,0.0 121.641899,25.007801,0.0 121.641979,25.007834,0.0 121.64209,25.007862,0.0 121.642152,25.007884,0.0 121.64222,25.007901,0.0 121.642224,25.007906,0.0 121.642235,25.007924,0.0 121.642245,25.00794,0.0 121.642239,25.008013,0.0 121.64224,25.008069,0.0 121.642184,25.00812,0.0 121.641963,25.008273,0.0 121.64179,25.008347,0.0 121.641567,25.00843,0.0 121.641562,25.008432,0.0 121.641439,25.008444,0.0 121.64134,25.008455,0.0 121.641291,25.008478,0.0 121.641168,25.008529,0.0 121.641094,25.008597,0.0 121.641051,25.008648,0.0 121.640996,25.008732,0.0 121.640959,25.008823,0.0 121.640941,25.008946,0.0 121.64094,25.008973,0.0 121.640936,25.009031,0.0 121.640588,25.008581,0.0 121.640479,25.008514,0.0 121.640354,25.008465,0.0 121.640158,25.00843,0.0 121.639987,25.008416,0.0 121.639763,25.008414,0.0 121.639583,25.008418,0.0 121.639367,25.008415,0.0 121.639155,25.008375,0.0 121.638619,25.008366,0.0 121.638446,25.008388,0.0 121.638244,25.008437,0.0 121.638111,25.008463,0.0 121.637918,25.008482,0.0 121.637688,25.008487,0.0 121.637252,25.008544,0.0 121.636845,25.008645,0.0 121.636484,25.008779,0.0 121.63635,25.008792,0.0 121.636262,25.008782,0.0 121.636139,25.008772,0.0 121.636076,25.008767,0.0 121.635996,25.008752,0.0 121.635904,25.008739,0.0 121.635825,25.008737,0.0 121.635762,25.00875,0.0 121.635651,25.008798,0.0 121.635551,25.008814,0.0 121.635366,25.008861,0.0 121.634867,25.009097,0.0 121.634782,25.009142,0.0 121.634603,25.009192,0.0 121.634521,25.009216,0.0 121.634456,25.00926,0.0 121.634312,25.009377,0.0 121.634116,25.009481,0.0 121.633862,25.00957,0.0 121.633779,25.009576,0.0 121.633589,25.009534,0.0 121.6335,25.009524,0.0 121.633391,25.009541,0.0 121.633353,25.009561,0.0 121.633311,25.009609,0.0 121.633283,25.009633,0.0 121.633245,25.009646,0.0 121.633173,25.009634,0.0 121.633142,25.009634,0.0 121.632918,25.009706,0.0</coordinates></LinearRing></outerBoundaryIs></Polygon><styleUrl>#spolygon-map</styleUrl></Placemark><Placemark><Polygon><outerBoundaryIs><LinearRing><coordinates>121.604897,24.999669,0.0 121.604396,24.999861,0.0 121.603597,25.000129,0.0 121.603499,25.000185,0.0 121.603212,25.00044,0.0 121.602614,25.000877,0.0 121.602181,25.0013,0.0 121.601783,25.001503,0.0 121.601743,25.001527,0.0 121.601428,25.001714,0.0 121.601074,25.001894,0.0 121.600748,25.002103,0.0 121.600543,25.002236,0.0 121.600268,25.002358,0.0 121.600137,25.002485,0.0 121.600004,25.002613,0.0 121.599504,25.002762,0.0 121.599386,25.002796,0.0 121.599388,25.002794,0.0 121.599694,25.00232,0.0 121.599954,25.001915,0.0 121.60008,25.00172,0.0 121.600631,25.000873,0.0 121.600618,24.999545,0.0 121.600616,24.999054,0.0 121.600607,24.998541,0.0 121.600232,24.99821,0.0 121.599716,24.997755,0.0 121.59953,24.996438,0.0 121.598843,24.996097,0.0 121.598297,24.995383,0.0 121.598095,24.994449,0.0 121.598252,24.993642,0.0 121.599402,24.992917,0.0 121.599025,24.99165,0.0 121.599449,24.991446,0.0 121.600187,24.99109,0.0 121.601499,24.990456,0.0 121.601959,24.988686,0.0 121.601708,24.987836,0.0 121.60035,24.987453,0.0 121.599853,24.986824,0.0 121.59971,24.985399,0.0 121.599871,24.984781,0.0 121.59988,24.984745,0.0 121.6002,24.983504,0.0 121.600352,24.982929,0.0 121.600274,24.982202,0.0 121.600307,24.982064,0.0 121.600619,24.980747,0.0 121.600503,24.97979,0.0 121.599277,24.978724,0.0 121.59946,24.978323,0.0 121.5996,24.977985,0.0 121.599673,24.977823,0.0 121.600052,24.976935,0.0 121.600071,24.976926,0.0 121.602266,24.9759,0.0 121.604045,24.975344,0.0 121.605279,24.97426,0.0 121.606367,24.974482,0.0 121.607917,24.97439,0.0 121.608231,24.974574,0.0 121.608741,24.974873,0.0 121.610377,24.974208,0.0 121.61132,24.97491,0.0 121.611787,24.974082,0.0 121.613606,24.973316,0.0 121.61416,24.973609,0.0 121.614435,24.973356,0.0 121.614594,24.97321,0.0 121.614976,24.972858,0.0 121.616343,24.971601,0.0 121.617829,24.970694,0.0 121.618476,24.970889,0.0 121.619818,24.97011,0.0 121.620001,24.969445,0.0 121.619856,24.969242,0.0 121.619988,24.969286,0.0 121.62001,24.969294,0.0 121.620038,24.969303,0.0 121.620118,24.96933,0.0 121.620196,24.96936,0.0 121.620252,24.969392,0.0 121.620309,24.969409,0.0 121.620369,24.969434,0.0 121.620395,24.969438,0.0 121.620447,24.96946,0.0 121.620512,24.969485,0.0 121.620568,24.969507,0.0 121.62061,24.969521,0.0 121.620637,24.96953,0.0 121.620708,24.969554,0.0 121.620815,24.969595,0.0 121.620866,24.969631,0.0 121.62093,24.969655,0.0 121.620961,24.969673,0.0 121.621026,24.969704,0.0 121.621115,24.969745,0.0 121.621169,24.969773,0.0 121.621246,24.969814,0.0 121.621306,24.969843,0.0 121.621336,24.969856,0.0 121.621405,24.969896,0.0 121.621493,24.969955,0.0 121.621552,24.969983,0.0 121.621608,24.970009,0.0 121.621649,24.970032,0.0 121.621692,24.970048,0.0 121.621753,24.970071,0.0 121.621822,24.970103,0.0 121.621894,24.970129,0.0 121.621963,24.970159,0.0 121.62202,24.970183,0.0 121.622127,24.970221,0.0 121.622177,24.970243,0.0 121.622204,24.97025,0.0 121.622236,24.970262,0.0 121.622296,24.970284,0.0 121.622338,24.970302,0.0 121.622389,24.970319,0.0 121.622463,24.970343,0.0 121.622508,24.970364,0.0 121.622554,24.97037,0.0 121.622646,24.970398,0.0 121.622702,24.970417,0.0 121.622769,24.970435,0.0 121.622814,24.970454,0.0 121.622854,24.970464,0.0 121.622894,24.970476,0.0 121.622977,24.970503,0.0 121.62304,24.97052,0.0 121.623115,24.97055,0.0 121.623169,24.970573,0.0 121.623214,24.970593,0.0 121.623264,24.97061,0.0 121.623317,24.97064,0.0 121.623388,24.970668,0.0 121.623447,24.970687,0.0 121.623526,24.97071,0.0 121.623585,24.970731,0.0 121.623635,24.97074,0.0 121.623701,24.970752,0.0 121.623774,24.970767,0.0 121.623819,24.970775,0.0 121.623872,24.970787,0.0 121.623999,24.970829,0.0 121.624007,24.970832,0.0 121.624052,24.970853,0.0 121.624085,24.97087,0.0 121.624125,24.970899,0.0 121.624166,24.970928,0.0 121.624173,24.970937,0.0 121.624217,24.970989,0.0 121.624321,24.97104,0.0 121.624383,24.971051,0.0 121.624443,24.971064,0.0 121.624483,24.971076,0.0 121.624531,24.971081,0.0 121.624603,24.971094,0.0 121.624667,24.971099,0.0 121.624724,24.971104,0.0 121.624806,24.971111,0.0 121.624859,24.971122,0.0 121.62489,24.971125,0.0 121.624937,24.97113,0.0 121.624995,24.971146,0.0 121.625046,24.97116,0.0 121.625086,24.971182,0.0 121.62512,24.971204,0.0 121.625222,24.971276,0.0 121.625264,24.971308,0.0 121.625294,24.971335,0.0 121.625341,24.971373,0.0 121.625393,24.97142,0.0 121.625488,24.971498,0.0 121.625524,24.971529,0.0 121.625556,24.971552,0.0 121.625597,24.971582,0.0 121.625625,24.971608,0.0 121.625674,24.971657,0.0 121.625713,24.971693,0.0 121.625755,24.971727,0.0 121.625794,24.971759,0.0 121.625834,24.971791,0.0 121.625883,24.971828,0.0 121.625929,24.971878,0.0 121.625969,24.971913,0.0 121.626018,24.971959,0.0 121.626091,24.972023,0.0 121.626128,24.972054,0.0 121.626139,24.972062,0.0 121.626173,24.972086,0.0 121.62622,24.972127,0.0 121.626306,24.972169,0.0 121.626356,24.972196,0.0 121.626362,24.972199,0.0 121.616735,24.979573,0.0 121.616726,24.979584,0.0 121.61674,24.979608,0.0 121.616742,24.979634,0.0 121.616738,24.979658,0.0 121.61671,24.979691,0.0 121.616652,24.979747,0.0 121.616624,24.979763,0.0 121.616593,24.979768,0.0 121.616529,24.979756,0.0 121.616445,24.979714,0.0 121.616266,24.979622,0.0 121.616205,24.979591,0.0 121.616156,24.979577,0.0 121.616103,24.979571,0.0 121.616048,24.979574,0.0 121.615971,24.979597,0.0 121.615842,24.979675,0.0 121.615814,24.979692,0.0 121.615785,24.979696,0.0 121.615763,24.979693,0.0 121.61575,24.979681,0.0 121.615745,24.979658,0.0 121.615749,24.979602,0.0 121.615751,24.979591,0.0 121.61577,24.97947,0.0 121.615765,24.979397,0.0 121.615765,24.979393,0.0 121.615743,24.979355,0.0 121.615714,24.979334,0.0 121.615678,24.979319,0.0 121.61561,24.979307,0.0 121.615529,24.979297,0.0 121.615447,24.979277,0.0 121.615392,24.979249,0.0 121.615335,24.979192,0.0 121.615326,24.979183,0.0 121.615314,24.979171,0.0 121.615299,24.979162,0.0 121.615284,24.979157,0.0 121.615267,24.979155,0.0 121.615255,24.979156,0.0 121.615248,24.979162,0.0 121.615241,24.979175,0.0 121.615238,24.979189,0.0 121.615244,24.979208,0.0 121.61525,24.979225,0.0 121.615258,24.979241,0.0 121.615322,24.979315,0.0 121.615371,24.979381,0.0 121.615398,24.979417,0.0 121.615402,24.979439,0.0 121.615397,24.979455,0.0 121.615386,24.979463,0.0 121.615369,24.979467,0.0 121.615344,24.979463,0.0 121.615297,24.979449,0.0 121.615134,24.97936,0.0 121.615006,24.979288,0.0 121.614908,24.979253,0.0 121.614813,24.97924,0.0 121.614723,24.979242,0.0 121.614616,24.979269,0.0 121.614394,24.979367,0.0 121.614178,24.979551,0.0 121.614054,24.97968,0.0 121.61397,24.979772,0.0 121.613815,24.979961,0.0 121.613767,24.980003,0.0 121.613683,24.980062,0.0 121.613504,24.980173,0.0 121.613421,24.980237,0.0 121.613347,24.98032,0.0 121.613313,24.980373,0.0 121.613303,24.980407,0.0 121.613297,24.980427,0.0 121.613298,24.980471,0.0 121.613313,24.980512,0.0 121.613364,24.980606,0.0 121.613412,24.980701,0.0 121.613532,24.98095,0.0 121.613533,24.980962,0.0 121.61354,24.981009,0.0 121.613534,24.981062,0.0 121.613521,24.98112,0.0 121.613475,24.981199,0.0 121.613331,24.981357,0.0 121.613207,24.981522,0.0 121.613156,24.98162,0.0 121.613111,24.981741,0.0 121.613102,24.981814,0.0 121.6131,24.981826,0.0 121.613105,24.981913,0.0 121.613139,24.982023,0.0 121.613175,24.982071,0.0 121.613221,24.982108,0.0 121.613289,24.982134,0.0 121.613356,24.982143,0.0 121.613473,24.982133,0.0 121.613604,24.98211,0.0 121.613683,24.982071,0.0 121.613733,24.982015,0.0 121.613761,24.981961,0.0 121.61377,24.981901,0.0 121.613762,24.981856,0.0 121.613755,24.981824,0.0 121.613683,24.98164,0.0 121.613669,24.981582,0.0 121.613673,24.981534,0.0 121.613674,24.981529,0.0 121.613693,24.981485,0.0 121.613725,24.981428,0.0 121.613764,24.981388,0.0 121.613808,24.98137,0.0 121.613867,24.981368,0.0 121.613908,24.981383,0.0 121.613927,24.981411,0.0 121.61395,24.981466,0.0 121.613997,24.981598,0.0 121.614028,24.981693,0.0 121.614046,24.981793,0.0 121.614052,24.981883,0.0 121.614053,24.981896,0.0 121.614055,24.981975,0.0 121.614056,24.98199,0.0 121.614057,24.98206,0.0 121.614062,24.982145,0.0 121.614072,24.982187,0.0 121.6141,24.9823,0.0 121.61414,24.982457,0.0 121.614158,24.982586,0.0 121.614194,24.982916,0.0 121.614208,24.983009,0.0 121.61432,24.983412,0.0 121.614354,24.983541,0.0 121.614375,24.983624,0.0 121.6134,24.983731,0.0 121.613274,24.983732,0.0 121.613153,24.983706,0.0 121.613094,24.983667,0.0 121.613077,24.983618,0.0 121.613087,24.983571,0.0 121.613092,24.983551,0.0 121.613141,24.983515,0.0 121.613544,24.983332,0.0 121.613615,24.983293,0.0 121.613638,24.983247,0.0 121.613635,24.983175,0.0 121.613633,24.983168,0.0 121.613611,24.983106,0.0 121.613563,24.983036,0.0 121.613494,24.982978,0.0 121.613407,24.982932,0.0 121.61333,24.982913,0.0 121.613131,24.982911,0.0 121.613001,24.982923,0.0 121.612903,24.98291,0.0 121.61279,24.982856,0.0 121.612618,24.982716,0.0 121.612453,24.982564,0.0 121.612412,24.982546,0.0 121.61238,24.982548,0.0 121.612043,24.98264,0.0 121.611927,24.982664,0.0 121.611829,24.982676,0.0 121.611731,24.982665,0.0 121.611498,24.982658,0.0 121.611405,24.98267,0.0 121.611381,24.982684,0.0 121.611374,24.982689,0.0 121.611361,24.982708,0.0 121.611359,24.982728,0.0 121.611366,24.982749,0.0 121.611381,24.982767,0.0 121.611448,24.982802,0.0 121.61158,24.982832,0.0 121.611967,24.982885,0.0 121.612037,24.982895,0.0 121.612097,24.982925,0.0 121.612121,24.982979,0.0 121.612133,24.983045,0.0 121.612137,24.98312,0.0 121.612143,24.983154,0.0 121.612176,24.983196,0.0 121.612233,24.983244,0.0 121.61228,24.98327,0.0 121.612367,24.98329,0.0 121.612503,24.9833,0.0 121.612562,24.983316,0.0 121.61259,24.983351,0.0 121.612597,24.983381,0.0 121.612607,24.983423,0.0 121.612596,24.983489,0.0 121.612588,24.98354,0.0 121.612556,24.983632,0.0 121.612516,24.983836,0.0 121.612514,24.983843,0.0 121.612535,24.984239,0.0 121.612539,24.984304,0.0 121.612536,24.984365,0.0 121.612525,24.984401,0.0 121.612466,24.984475,0.0 121.612394,24.98454,0.0 121.612296,24.98468,0.0 121.612254,24.984705,0.0 121.6122,24.984708,0.0 121.612147,24.984698,0.0 121.6121,24.984648,0.0 121.6121,24.9846,0.0 121.61211,24.984576,0.0 121.61212,24.984551,0.0 121.612292,24.984357,0.0 121.612319,24.984301,0.0 121.612326,24.984232,0.0 121.61232,24.98418,0.0 121.612291,24.983935,0.0 121.612268,24.983875,0.0 121.612232,24.983845,0.0 121.612154,24.983816,0.0 121.612016,24.98378,0.0 121.611917,24.983762,0.0 121.611821,24.983713,0.0 121.61175,24.983641,0.0 121.611661,24.983475,0.0 121.611617,24.983362,0.0 121.611588,24.983345,0.0 121.611549,24.983332,0.0 121.611497,24.983318,0.0 121.611449,24.983316,0.0 121.611159,24.983393,0.0 121.611085,24.983406,0.0 121.611041,24.983406,0.0 121.611011,24.983388,0.0 121.610984,24.983345,0.0 121.610939,24.983147,0.0 121.610912,24.983039,0.0 121.610868,24.982973,0.0 121.610845,24.982954,0.0 121.610804,24.982939,0.0 121.61075,24.982939,0.0 121.610658,24.982965,0.0 121.61047,24.983029,0.0 121.610391,24.983044,0.0 121.610311,24.983044,0.0 121.610203,24.98303,0.0 121.610119,24.983003,0.0 121.610041,24.982989,0.0 121.609932,24.982992,0.0 121.6097,24.983035,0.0 121.609225,24.983204,0.0 121.609209,24.983217,0.0 121.609194,24.983229,0.0 121.609184,24.983252,0.0 121.609186,24.983276,0.0 121.609195,24.983294,0.0 121.609213,24.983303,0.0 121.609312,24.983323,0.0 121.609434,24.983322,0.0 121.609674,24.983304,0.0 121.609851,24.983314,0.0 121.610058,24.983346,0.0 121.610185,24.983382,0.0 121.610273,24.983426,0.0 121.610435,24.98359,0.0 121.610446,24.983601,0.0 121.610458,24.983618,0.0 121.610463,24.983625,0.0 121.610471,24.983637,0.0 121.610468,24.983657,0.0 121.610453,24.983675,0.0 121.610429,24.983675,0.0 121.610415,24.983672,0.0 121.610399,24.983663,0.0 121.610381,24.983649,0.0 121.610363,24.983633,0.0 121.61025,24.983531,0.0 121.610142,24.983476,0.0 121.610006,24.983444,0.0 121.609916,24.983434,0.0 121.60987,24.983441,0.0 121.609866,24.983441,0.0 121.609852,24.983453,0.0 121.609846,24.983469,0.0 121.609848,24.983487,0.0 121.609866,24.983521,0.0 121.609923,24.983556,0.0 121.610135,24.983653,0.0 121.610241,24.98372,0.0 121.61027,24.983749,0.0 121.61027,24.98378,0.0 121.610242,24.983804,0.0 121.610203,24.983805,0.0 121.610161,24.983791,0.0 121.609814,24.983647,0.0 121.609659,24.98358,0.0 121.609554,24.983567,0.0 121.609486,24.983577,0.0 121.609421,24.983607,0.0 121.609053,24.983894,0.0 121.617443,24.98945,0.0 121.617443,24.989473,0.0 121.617442,24.989533,0.0 121.617442,24.989614,0.0 121.617442,24.989717,0.0 121.617431,24.989779,0.0 121.617408,24.989849,0.0 121.617361,24.989915,0.0 121.617288,24.98997,0.0 121.617244,24.989989,0.0 121.617198,24.989998,0.0 121.617139,24.989996,0.0 121.616625,24.989975,0.0 121.616475,24.989976,0.0 121.61642,24.989995,0.0 121.616382,24.990024,0.0 121.616351,24.990068,0.0 121.616311,24.990193,0.0 121.616269,24.990423,0.0 121.616209,24.990728,0.0 121.6161,24.990866,0.0 121.615841,24.990954,0.0 121.615717,24.990996,0.0 121.615378,24.991111,0.0 121.615068,24.991226,0.0 121.61514,24.991285,0.0 121.617747,24.993411,0.0 121.617793,24.993445,0.0 121.617957,24.993566,0.0 121.617932,24.99363,0.0 121.617908,24.993693,0.0 121.617846,24.993789,0.0 121.617785,24.993861,0.0 121.617687,24.993951,0.0 121.617587,24.994014,0.0 121.617499,24.994053,0.0 121.617423,24.994068,0.0 121.617183,24.994097,0.0 121.617089,24.994113,0.0 121.617017,24.99415,0.0 121.616938,24.994214,0.0 121.616898,24.994276,0.0 121.616869,24.994328,0.0 121.616861,24.994407,0.0 121.616863,24.994449,0.0 121.616867,24.994459,0.0 121.616883,24.994498,0.0 121.616917,24.994563,0.0 121.617123,24.994872,0.0 121.617222,24.995004,0.0 121.617368,24.995282,0.0 121.617444,24.995441,0.0 121.617453,24.995498,0.0 121.617449,24.995542,0.0 121.61744,24.995654,0.0 121.617411,24.995738,0.0 121.617389,24.995763,0.0 121.617355,24.995782,0.0 121.617312,24.995796,0.0 121.617223,24.995798,0.0 121.616979,24.995775,0.0 121.616844,24.995746,0.0 121.616638,24.995677,0.0 121.616461,24.995598,0.0 121.616403,24.995576,0.0 121.616323,24.99557,0.0 121.616177,24.995576,0.0 121.616032,24.995569,0.0 121.615766,24.99554,0.0 121.615537,24.995506,0.0 121.615357,24.995489,0.0 121.614915,24.995481,0.0 121.614651,24.995472,0.0 121.614429,24.995466,0.0 121.614215,24.995464,0.0 121.613963,24.995509,0.0 121.613929,24.995557,0.0 121.613899,24.995639,0.0 121.613885,24.995752,0.0 121.613886,24.996035,0.0 121.613889,24.996066,0.0 121.613926,24.996539,0.0 121.613926,24.996594,0.0 121.613927,24.996669,0.0 121.613919,24.996751,0.0 121.613863,24.996937,0.0 121.613848,24.997041,0.0 121.613846,24.997177,0.0 121.613849,24.997208,0.0 121.613858,24.997285,0.0 121.613878,24.997373,0.0 121.613939,24.997558,0.0 121.613977,24.997705,0.0 121.613977,24.997781,0.0 121.613977,24.9978,0.0 121.613975,24.997932,0.0 121.613964,24.998013,0.0 121.613934,24.998072,0.0 121.613894,24.998104,0.0 121.613753,24.998189,0.0 121.61374,24.998197,0.0 121.613687,24.998229,0.0 121.61359,24.998314,0.0 121.613505,24.998432,0.0 121.613416,24.998591,0.0 121.613383,24.99869,0.0 121.613349,24.998786,0.0 121.613342,24.998856,0.0 121.613343,24.998913,0.0 121.613344,24.998941,0.0 121.613344,24.99897,0.0 121.613327,24.999151,0.0 121.613304,24.999274,0.0 121.61325,24.99946,0.0 121.613233,24.99955,0.0 121.613239,24.999619,0.0 121.613239,24.999626,0.0 121.613271,24.999713,0.0 121.613436,24.999935,0.0 121.613564,25.000103,0.0 121.613645,25.000177,0.0 121.613738,25.000237,0.0 121.61393,25.000324,0.0 121.61386,25.000376,0.0 121.613674,25.000514,0.0 121.613551,25.000571,0.0 121.613449,25.000591,0.0 121.613293,25.000592,0.0 121.613158,25.000572,0.0 121.612991,25.00052,0.0 121.612812,25.000489,0.0 121.61266,25.000462,0.0 121.611925,25.000379,0.0 121.611405,25.000269,0.0 121.610848,25.000104,0.0 121.61048,24.999995,0.0 121.610244,24.999883,0.0 121.610052,24.999767,0.0 121.610031,24.999754,0.0 121.609856,24.99966,0.0 121.609405,24.999512,0.0 121.609032,24.999438,0.0 121.608859,24.999426,0.0 121.608665,24.999432,0.0 121.608555,24.99944,0.0 121.608465,24.999446,0.0 121.60841,24.999449,0.0 121.608361,24.999443,0.0 121.608243,24.999396,0.0 121.608156,24.999378,0.0 121.607962,24.99934,0.0 121.607754,24.999294,0.0 121.607581,24.999241,0.0 121.607454,24.999241,0.0 121.607263,24.999246,0.0 121.607098,24.999281,0.0 121.606903,24.999311,0.0 121.606709,24.99933,0.0 121.606628,24.999354,0.0 121.606586,24.999408,0.0 121.606586,24.99947,0.0 121.606558,24.999527,0.0 121.606544,24.999598,0.0 121.606492,24.99969,0.0 121.606428,24.999754,0.0 121.606322,24.999833,0.0 121.606203,24.999876,0.0 121.605961,24.999926,0.0 121.605854,24.999935,0.0 121.6057,24.999915,0.0 121.605629,24.999901,0.0 121.60556,24.999847,0.0 121.605528,24.999785,0.0 121.605494,24.999682,0.0 121.605486,24.999659,0.0 121.605456,24.999589,0.0 121.605258,24.99956,0.0 121.604897,24.999669,0.0</coordinates></LinearRing></outerBoundaryIs></Polygon><styleUrl>#spolygon-map</styleUrl></Placemark><Placemark><Polygon><outerBoundaryIs><LinearRing><coordinates>121.620669,25.007044,0.0 121.61955,25.009193,0.0 121.619506,25.009249,0.0 121.619475,25.009322,0.0 121.615897,25.007501,0.0 121.615564,25.007388,0.0 121.615517,25.007372,0.0 121.616435,25.005951,0.0 121.616634,25.005201,0.0 121.616649,25.005146,0.0 121.616295,25.004523,0.0 121.616281,25.004496,0.0 121.616274,25.004481,0.0 121.61627,25.004461,0.0 121.616269,25.004444,0.0 121.616272,25.004427,0.0 121.616324,25.004304,0.0 121.61637,25.004193,0.0 121.616391,25.004145,0.0 121.616398,25.004135,0.0 121.616416,25.004117,0.0 121.616534,25.004009,0.0 121.616615,25.003932,0.0 121.61668,25.00389,0.0 121.616858,25.003795,0.0 121.616898,25.003779,0.0 121.61695,25.003773,0.0 121.616986,25.003771,0.0 121.617023,25.003777,0.0 121.617118,25.003792,0.0 121.617139,25.003795,0.0 121.617155,25.003793,0.0 121.61723,25.003759,0.0 121.617265,25.003735,0.0 121.617412,25.003564,0.0 121.617472,25.003476,0.0 121.617529,25.003498,0.0 121.617634,25.003167,0.0 121.61764,25.003122,0.0 121.617635,25.003052,0.0 121.617635,25.003049,0.0 121.617636,25.003044,0.0 121.617668,25.002971,0.0 121.617673,25.002943,0.0 121.617669,25.002922,0.0 121.617655,25.00291,0.0 121.617623,25.002881,0.0 121.61757,25.002857,0.0 121.617547,25.00285,0.0 121.617526,25.002843,0.0 121.617393,25.002823,0.0 121.617171,25.002807,0.0 121.617077,25.0028,0.0 121.616929,25.002736,0.0 121.616907,25.00272,0.0 121.616767,25.002696,0.0 121.616599,25.002617,0.0 121.616681,25.002565,0.0 121.616729,25.002517,0.0 121.616761,25.002464,0.0 121.616784,25.002389,0.0 121.6168,25.002336,0.0 121.616901,25.001904,0.0 121.617762,25.001963,0.0 121.617968,25.001977,0.0 121.61809,25.001991,0.0 121.61818,25.001924,0.0 121.618277,25.00187,0.0 121.619013,25.001644,0.0 121.619457,25.00151,0.0 121.619522,25.001491,0.0 121.620171,25.001346,0.0 121.620301,25.001318,0.0 121.620452,25.001296,0.0 121.620494,25.00129,0.0 121.620628,25.001294,0.0 121.620735,25.001308,0.0 121.620849,25.001322,0.0 121.620922,25.001323,0.0 121.62101,25.001315,0.0 121.621093,25.001291,0.0 121.621287,25.001202,0.0 121.621419,25.001144,0.0 121.621541,25.001097,0.0 121.621593,25.001173,0.0 121.621608,25.001221,0.0 121.621605,25.001272,0.0 121.621603,25.001281,0.0 121.621575,25.001399,0.0 121.621474,25.001583,0.0 121.621449,25.001645,0.0 121.621456,25.0017,0.0 121.621457,25.001716,0.0 121.62146,25.001762,0.0 121.621485,25.001819,0.0 121.621517,25.001869,0.0 121.621571,25.001946,0.0 121.621647,25.002023,0.0 121.621777,25.002086,0.0 121.621856,25.00213,0.0 121.621958,25.002186,0.0 121.622031,25.002212,0.0 121.622133,25.002261,0.0 121.622496,25.002507,0.0 121.622656,25.002646,0.0 121.622913,25.002928,0.0 121.623186,25.003242,0.0 121.623149,25.003282,0.0 121.62188,25.004643,0.0 121.621827,25.004706,0.0 121.621602,25.00497,0.0 121.621606,25.004982,0.0 121.621622,25.005051,0.0 121.621677,25.005278,0.0 121.621687,25.005375,0.0 121.621693,25.005426,0.0 121.621687,25.005491,0.0 121.621673,25.005549,0.0 121.621568,25.005768,0.0 121.621514,25.00588,0.0 121.621392,25.006099,0.0 121.621353,25.006154,0.0 121.621302,25.006213,0.0 121.62112,25.006343,0.0 121.621069,25.006366,0.0 121.621035,25.00637,0.0 121.621021,25.006368,0.0 121.620669,25.007044,0.0</coordinates></LinearRing></outerBoundaryIs></Polygon><styleUrl>#spolygon-map</styleUrl></Placemark><Placemark><Polygon><outerBoundaryIs><LinearRing><coordinates>121.614273,25.019238,0.0 121.613591,25.019267,0.0 121.612455,25.019321,0.0 121.611055,25.019862,0.0 121.610398,25.019769,0.0 121.609621,25.019063,0.0 121.608236,25.019485,0.0 121.608103,25.019526,0.0 121.608002,25.019562,0.0 121.604395,25.019291,0.0 121.603922,25.018217,0.0 121.603691,25.017692,0.0 121.603601,25.017489,0.0 121.603516,25.0173,0.0 121.603386,25.017006,0.0 121.603099,25.01567,0.0 121.602248,25.014949,0.0 121.60146,25.015309,0.0 121.59975,25.014535,0.0 121.598095,25.014576,0.0 121.598047,25.014578,0.0 121.597765,25.014585,0.0 121.597537,25.014585,0.0 121.597419,25.012896,0.0 121.597183,25.012565,0.0 121.596312,25.01134,0.0 121.595981,25.009573,0.0 121.595965,25.009526,0.0 121.595943,25.009408,0.0 121.595736,25.008313,0.0 121.595563,25.007425,0.0 121.595874,25.006959,0.0 121.595894,25.006929,0.0 121.596015,25.006748,0.0 121.596109,25.006613,0.0 121.596106,25.006254,0.0 121.596103,25.006006,0.0 121.596091,25.005291,0.0 121.596473,25.005232,0.0 121.596918,25.005164,0.0 121.597092,25.005105,0.0 121.597246,25.005058,0.0 121.597526,25.004973,0.0 121.598185,25.00476,0.0 121.598256,25.004728,0.0 121.598273,25.00472,0.0 121.598653,25.004604,0.0 121.598783,25.00456,0.0 121.599575,25.004292,0.0 121.599999,25.004162,0.0 121.600026,25.004154,0.0 121.600472,25.004015,0.0 121.600722,25.003929,0.0 121.601285,25.003755,0.0 121.601338,25.003738,0.0 121.601663,25.00363,0.0 121.601911,25.003547,0.0 121.602226,25.003456,0.0 121.602649,25.003314,0.0 121.602764,25.003268,0.0 121.602963,25.003152,0.0 121.603247,25.002986,0.0 121.60365,25.002723,0.0 121.6039,25.002587,0.0 121.604007,25.002531,0.0 121.604417,25.002317,0.0 121.604556,25.00225,0.0 121.605001,25.002029,0.0 121.605119,25.001972,0.0 121.605217,25.001931,0.0 121.605313,25.001893,0.0 121.605414,25.00186,0.0 121.605483,25.001846,0.0 121.606203,25.001702,0.0 121.606543,25.001638,0.0 121.607551,25.001449,0.0 121.60775,25.001411,0.0 121.608153,25.001342,0.0 121.608246,25.001332,0.0 121.609088,25.001143,0.0 121.609899,25.000997,0.0 121.610149,25.000976,0.0 121.610334,25.000963,0.0 121.610478,25.000958,0.0 121.61062,25.000969,0.0 121.610799,25.000995,0.0 121.610977,25.001036,0.0 121.611381,25.001153,0.0 121.611381,25.001157,0.0 121.611384,25.001211,0.0 121.611402,25.001493,0.0 121.611535,25.003563,0.0 121.611804,25.004543,0.0 121.612638,25.005833,0.0 121.61287,25.006022,0.0 121.613081,25.006193,0.0 121.613824,25.006797,0.0 121.615517,25.007372,0.0 121.615564,25.007388,0.0 121.615897,25.007501,0.0 121.619475,25.009322,0.0 121.619394,25.009365,0.0 121.616681,25.010768,0.0 121.616567,25.011848,0.0 121.616577,25.011869,0.0 121.617143,25.013128,0.0 121.618052,25.013816,0.0 121.619419,25.014851,0.0 121.620376,25.017,0.0 121.620553,25.018282,0.0 121.620544,25.018285,0.0 121.620548,25.018314,0.0 121.620212,25.018491,0.0 121.618957,25.018043,0.0 121.617452,25.01838,0.0 121.616725,25.019026,0.0 121.616442,25.019278,0.0 121.615925,25.01973,0.0 121.615734,25.019654,0.0 121.615546,25.019584,0.0 121.615458,25.01955,0.0 121.614891,25.019327,0.0 121.614847,25.01931,0.0 121.614626,25.019223,0.0 121.614273,25.019238,0.0</coordinates></LinearRing></outerBoundaryIs></Polygon><styleUrl>#spolygon-map</styleUrl></Placemark><Placemark><Polygon><outerBoundaryIs><LinearRing><coordinates>121.627177,25.019965,0.0 121.626546,25.019725,0.0 121.626333,25.01873,0.0 121.624716,25.018019,0.0 121.623113,25.017315,0.0 121.62275,25.017155,0.0 121.620548,25.018314,0.0 121.620544,25.018285,0.0 121.620553,25.018282,0.0 121.620376,25.017,0.0 121.619419,25.014851,0.0 121.618052,25.013816,0.0 121.617143,25.013128,0.0 121.616577,25.011869,0.0 121.616567,25.011848,0.0 121.616681,25.010768,0.0 121.619394,25.009365,0.0 121.619475,25.009322,0.0 121.619506,25.009249,0.0 121.61955,25.009193,0.0 121.620669,25.007044,0.0 121.621021,25.006368,0.0 121.621035,25.00637,0.0 121.621069,25.006366,0.0 121.62112,25.006343,0.0 121.621302,25.006213,0.0 121.621353,25.006154,0.0 121.621392,25.006099,0.0 121.621514,25.00588,0.0 121.621568,25.005768,0.0 121.621673,25.005549,0.0 121.621687,25.005491,0.0 121.621693,25.005426,0.0 121.621687,25.005375,0.0 121.621677,25.005278,0.0 121.621622,25.005051,0.0 121.621606,25.004982,0.0 121.621602,25.00497,0.0 121.621827,25.004706,0.0 121.62188,25.004643,0.0 121.623149,25.003282,0.0 121.623186,25.003242,0.0 121.623335,25.00341,0.0 121.623829,25.003801,0.0 121.624181,25.004128,0.0 121.624249,25.004233,0.0 121.624341,25.004413,0.0 121.62464,25.00485,0.0 121.624706,25.004952,0.0 121.624797,25.005033,0.0 121.624894,25.005121,0.0 121.624943,25.005166,0.0 121.624992,25.00523,0.0 121.625014,25.005319,0.0 121.625032,25.005479,0.0 121.625031,25.005535,0.0 121.62503,25.005627,0.0 121.625034,25.005642,0.0 121.625047,25.005706,0.0 121.625076,25.005751,0.0 121.625152,25.005871,0.0 121.625241,25.006164,0.0 121.625337,25.006337,0.0 121.625468,25.006475,0.0 121.625718,25.006635,0.0 121.626017,25.006788,0.0 121.626278,25.006862,0.0 121.62647,25.006861,0.0 121.626703,25.006813,0.0 121.626855,25.006743,0.0 121.626964,25.006651,0.0 121.627036,25.006524,0.0 121.627073,25.006307,0.0 121.627108,25.005918,0.0 121.627213,25.005521,0.0 121.627264,25.00543,0.0 121.627425,25.00531,0.0 121.627563,25.005225,0.0 121.627607,25.005203,0.0 121.627686,25.00519,0.0 121.627759,25.005199,0.0 121.627835,25.005227,0.0 121.62797,25.00533,0.0 121.628304,25.00572,0.0 121.628641,25.006067,0.0 121.628971,25.006381,0.0 121.629542,25.006779,0.0 121.630084,25.007156,0.0 121.630581,25.007591,0.0 121.630752,25.00779,0.0 121.63086,25.008001,0.0 121.631164,25.00901,0.0 121.631307,25.009292,0.0 121.631419,25.009428,0.0 121.631567,25.009545,0.0 121.631833,25.009686,0.0 121.632048,25.0098,0.0 121.632021,25.009869,0.0 121.631809,25.010411,0.0 121.630781,25.013041,0.0 121.629049,25.017473,0.0 121.629083,25.017479,0.0 121.629137,25.017483,0.0 121.629332,25.017789,0.0 121.629332,25.017871,0.0 121.629334,25.018051,0.0 121.629696,25.018077,0.0 121.629836,25.018178,0.0 121.629833,25.018188,0.0 121.629835,25.018218,0.0 121.629849,25.018262,0.0 121.629859,25.018274,0.0 121.629867,25.018284,0.0 121.629861,25.018374,0.0 121.629853,25.018395,0.0 121.62983,25.018428,0.0 121.62977,25.018482,0.0 121.629712,25.018511,0.0 121.62965,25.018531,0.0 121.62956,25.01855,0.0 121.629532,25.018562,0.0 121.629506,25.018585,0.0 121.629454,25.018639,0.0 121.629391,25.01869,0.0 121.629238,25.01878,0.0 121.629125,25.018838,0.0 121.629043,25.018878,0.0 121.628905,25.018913,0.0 121.628854,25.01892,0.0 121.628834,25.018931,0.0 121.628726,25.019012,0.0 121.628566,25.019163,0.0 121.628376,25.019329,0.0 121.628297,25.019423,0.0 121.62826,25.019481,0.0 121.628255,25.019488,0.0 121.628218,25.019554,0.0 121.628197,25.019592,0.0 121.627724,25.019291,0.0 121.627177,25.019965,0.0</coordinates></LinearRing></outerBoundaryIs></Polygon><styleUrl>#spolygon-map</styleUrl></Placemark></Document>
</kml>
