<?xml version="1.0" encoding="UTF-8"?>
<kml xmlns="http://www.opengis.net/kml/2.2">
	<Document>
		<name>臺中市大安區</name>
		<Style id="spolygon">
			<LabelStyle>
				<scale>0.0</scale>
			</LabelStyle>
			<LineStyle>
				<color>330030ff</color>
				<width>0</width>
			</LineStyle>
			<PolyStyle>
				<color>330030ff</color>
			</PolyStyle>
		</Style>
		<StyleMap id="spolygon-map">
			<Pair>
				<key>normal</key>
				<styleUrl>#spolygon</styleUrl>
			</Pair>
		</StyleMap>
	<Placemark><Polygon><outerBoundaryIs><LinearRing><coordinates>120.561842,24.350361,0.0 120.560751,24.348902,0.0 120.560134,24.348325,0.0 120.558735,24.346724,0.0 120.5585,24.346398,0.0 120.557695,24.345468,0.0 120.5576,24.345276,0.0 120.557509,24.345151,0.0 120.557346,24.344984,0.0 120.557164,24.345142,0.0 120.557141,24.345217,0.0 120.557109,24.345221,0.0 120.557073,24.345171,0.0 120.557001,24.34507,0.0 120.556992,24.344987,0.0 120.557083,24.344854,0.0 120.557166,24.344742,0.0 120.557174,24.344698,0.0 120.557078,24.34446,0.0 120.556879,24.344174,0.0 120.556759,24.343992,0.0 120.556555,24.343816,0.0 120.556477,24.344007,0.0 120.556421,24.344071,0.0 120.556377,24.344061,0.0 120.556341,24.34402,0.0 120.556337,24.343953,0.0 120.556337,24.343865,0.0 120.55641,24.343741,0.0 120.556343,24.343557,0.0 120.556267,24.343434,0.0 120.556089,24.34322,0.0 120.556021,24.343199,0.0 120.555789,24.343394,0.0 120.555694,24.343385,0.0 120.555671,24.34336,0.0 120.555671,24.343314,0.0 120.555712,24.343227,0.0 120.555786,24.343023,0.0 120.555763,24.342977,0.0 120.555773,24.342894,0.0 120.555747,24.342814,0.0 120.555621,24.34256,0.0 120.555463,24.342348,0.0 120.555331,24.342221,0.0 120.555219,24.342191,0.0 120.555109,24.342228,0.0 120.555011,24.342265,0.0 120.554826,24.342375,0.0 120.554768,24.342428,0.0 120.554771,24.342393,0.0 120.554904,24.34219,0.0 120.554994,24.34205,0.0 120.554994,24.34199,0.0 120.554848,24.341833,0.0 120.554802,24.341743,0.0 120.554707,24.341698,0.0 120.554649,24.341714,0.0 120.5546,24.341687,0.0 120.554549,24.341608,0.0 120.554517,24.341573,0.0 120.554459,24.341533,0.0 120.554367,24.341597,0.0 120.554297,24.341684,0.0 120.554132,24.34199,0.0 120.554094,24.342061,0.0 120.554054,24.342069,0.0 120.554036,24.342003,0.0 120.554051,24.34187,0.0 120.554089,24.341754,0.0 120.554197,24.341548,0.0 120.554321,24.34134,0.0 120.554355,24.341302,0.0 120.554388,24.34127,0.0 120.554377,24.341239,0.0 120.554349,24.34121,0.0 120.554305,24.341182,0.0 120.554247,24.341218,0.0 120.554211,24.341216,0.0 120.553848,24.341035,0.0 120.553845,24.341013,0.0 120.553864,24.340987,0.0 120.554042,24.340854,0.0 120.554057,24.34082,0.0 120.554027,24.340779,0.0 120.553973,24.34073,0.0 120.553949,24.34073,0.0 120.553877,24.340809,0.0 120.553763,24.340834,0.0 120.553651,24.340812,0.0 120.553563,24.340757,0.0 120.553432,24.340811,0.0 120.553064,24.341341,0.0 120.552928,24.341411,0.0 120.55288,24.341395,0.0 120.552898,24.341313,0.0 120.552934,24.341232,0.0 120.552988,24.341124,0.0 120.553148,24.340864,0.0 120.55335,24.340681,0.0 120.553468,24.340632,0.0 120.553628,24.340655,0.0 120.553717,24.340606,0.0 120.553776,24.340541,0.0 120.553829,24.340444,0.0 120.553824,24.340411,0.0 120.553765,24.3404,0.0 120.553664,24.34047,0.0 120.553599,24.340487,0.0 120.553516,24.340454,0.0 120.553404,24.340437,0.0 120.553369,24.340405,0.0 120.553363,24.340345,0.0 120.553369,24.340258,0.0 120.553369,24.340226,0.0 120.553299,24.340166,0.0 120.553252,24.340014,0.0 120.553175,24.339965,0.0 120.553087,24.3399,0.0 120.553028,24.339797,0.0 120.552827,24.339607,0.0 120.55268,24.339362,0.0 120.552527,24.339275,0.0 120.552462,24.339178,0.0 120.552032,24.338835,0.0 120.551837,24.338753,0.0 120.551825,24.338699,0.0 120.551796,24.338612,0.0 120.551566,24.338373,0.0 120.551448,24.338335,0.0 120.551294,24.338389,0.0 120.551247,24.338378,0.0 120.551247,24.338345,0.0 120.551283,24.338302,0.0 120.551372,24.338221,0.0 120.551407,24.338167,0.0 120.551408,24.338107,0.0 120.551314,24.337966,0.0 120.551166,24.337803,0.0 120.551084,24.337653,0.0 120.551061,24.337537,0.0 120.551038,24.337423,0.0 120.551008,24.337315,0.0 120.550973,24.33718,0.0 120.550849,24.337114,0.0 120.550672,24.337103,0.0 120.550418,24.337156,0.0 120.550276,24.33715,0.0 120.550223,24.337096,0.0 120.55017,24.337009,0.0 120.550141,24.336922,0.0 120.550105,24.336819,0.0 120.550135,24.336738,0.0 120.550325,24.336587,0.0 120.550692,24.336436,0.0 120.550796,24.336462,0.0 120.551041,24.336508,0.0 120.551248,24.336525,0.0 120.551567,24.336656,0.0 120.551743,24.336835,0.0 120.552032,24.337264,0.0 120.552171,24.337253,0.0 120.552204,24.337163,0.0 120.552167,24.337095,0.0 120.552209,24.337065,0.0 120.552299,24.337137,0.0 120.55239,24.337107,0.0 120.552441,24.337046,0.0 120.552455,24.336899,0.0 120.552456,24.336835,0.0 120.552379,24.336771,0.0 120.552192,24.336528,0.0 120.55215,24.336483,0.0 120.552151,24.336419,0.0 120.552206,24.336458,0.0 120.552373,24.336611,0.0 120.552533,24.336714,0.0 120.552735,24.336766,0.0 120.552797,24.336791,0.0 120.552839,24.336843,0.0 120.552985,24.33683,0.0 120.553083,24.336811,0.0 120.553181,24.336773,0.0 120.553264,24.336723,0.0 120.553348,24.336729,0.0 120.553466,24.336781,0.0 120.553578,24.336775,0.0 120.553668,24.336763,0.0 120.553777,24.336682,0.0 120.554097,24.336575,0.0 120.554511,24.336423,0.0 120.555639,24.335975,0.0 120.555959,24.335845,0.0 120.556077,24.335769,0.0 120.556053,24.335737,0.0 120.555955,24.33571,0.0 120.554782,24.336117,0.0 120.554566,24.336175,0.0 120.55432,24.336255,0.0 120.554152,24.336286,0.0 120.553645,24.336483,0.0 120.553138,24.336653,0.0 120.552857,24.336765,0.0 120.552842,24.336747,0.0 120.553074,24.336612,0.0 120.55429,24.336165,0.0 120.554738,24.336058,0.0 120.555586,24.335768,0.0 120.556876,24.335294,0.0 120.557305,24.335155,0.0 120.557369,24.335119,0.0 120.557369,24.335061,0.0 120.55727,24.335033,0.0 120.554803,24.335752,0.0 120.55437,24.335926,0.0 120.554235,24.335983,0.0 120.554104,24.336052,0.0 120.55401,24.336097,0.0 120.553936,24.336119,0.0 120.553848,24.336096,0.0 120.553493,24.336221,0.0 120.553079,24.336391,0.0 120.552745,24.336471,0.0 120.552705,24.336458,0.0 120.552696,24.336413,0.0 120.553173,24.336243,0.0 120.553499,24.336104,0.0 120.553937,24.335961,0.0 120.554444,24.335746,0.0 120.554794,24.335621,0.0 120.555158,24.335559,0.0 120.555444,24.335465,0.0 120.555602,24.335416,0.0 120.55573,24.335344,0.0 120.555863,24.335331,0.0 120.555986,24.335291,0.0 120.556168,24.335197,0.0 120.556296,24.335152,0.0 120.556345,24.335175,0.0 120.556414,24.335135,0.0 120.556473,24.335072,0.0 120.556419,24.335062,0.0 120.556252,24.335076,0.0 120.556218,24.335057,0.0 120.556016,24.335115,0.0 120.555873,24.335214,0.0 120.555819,24.335214,0.0 120.55572,24.335304,0.0 120.555681,24.335326,0.0 120.555643,24.335334,0.0 120.555607,24.335331,0.0 120.555528,24.335339,0.0 120.555469,24.335335,0.0 120.555381,24.335364,0.0 120.555282,24.335415,0.0 120.555139,24.335446,0.0 120.554853,24.335509,0.0 120.55472,24.33558,0.0 120.554591,24.33561,0.0 120.554502,24.335611,0.0 120.554499,24.335593,0.0 120.55459,24.335504,0.0 120.554617,24.33549,0.0 120.554623,24.335502,0.0 120.554615,24.335531,0.0 120.554701,24.335486,0.0 120.554805,24.335427,0.0 120.554819,24.335396,0.0 120.554253,24.335534,0.0 120.554024,24.335582,0.0 120.553719,24.335678,0.0 120.553473,24.335732,0.0 120.553469,24.335709,0.0 120.553626,24.335628,0.0 120.553842,24.335516,0.0 120.55402,24.335431,0.0 120.554263,24.335375,0.0 120.554554,24.33532,0.0 120.55488,24.335232,0.0 120.555104,24.335186,0.0 120.555278,24.335121,0.0 120.555655,24.335037,0.0 120.555909,24.334999,0.0 120.556184,24.334895,0.0 120.556218,24.334864,0.0 120.556167,24.334825,0.0 120.55607,24.334802,0.0 120.555981,24.334805,0.0 120.555333,24.334962,0.0 120.555024,24.335058,0.0 120.554859,24.335135,0.0 120.554495,24.335239,0.0 120.554393,24.335242,0.0 120.554016,24.335327,0.0 120.553847,24.33533,0.0 120.553479,24.335449,0.0 120.55253,24.335714,0.0 120.552471,24.335714,0.0 120.552475,24.335686,0.0 120.553047,24.33551,0.0 120.55339,24.335387,0.0 120.553941,24.335233,0.0 120.555516,24.334846,0.0 120.556045,24.334732,0.0 120.557311,24.334441,0.0 120.557345,24.334425,0.0 120.557201,24.334444,0.0 120.557133,24.334432,0.0 120.557053,24.334459,0.0 120.556951,24.334498,0.0 120.556579,24.33457,0.0 120.556308,24.334616,0.0 120.55624,24.334597,0.0 120.556151,24.334573,0.0 120.556109,24.334596,0.0 120.556062,24.334596,0.0 120.556118,24.334546,0.0 120.555957,24.334561,0.0 120.555927,24.334549,0.0 120.555974,24.33453,0.0 120.556109,24.334503,0.0 120.55616,24.334457,0.0 120.556249,24.334418,0.0 120.55644,24.334341,0.0 120.556533,24.334287,0.0 120.555441,24.334598,0.0 120.555224,24.334667,0.0 120.555131,24.334729,0.0 120.554991,24.334752,0.0 120.554776,24.334782,0.0 120.554264,24.334792,0.0 120.554116,24.334796,0.0 120.554056,24.334873,0.0 120.554026,24.334892,0.0 120.553277,24.335076,0.0 120.553103,24.335087,0.0 120.552938,24.335114,0.0 120.552947,24.335083,0.0 120.553268,24.335041,0.0 120.553904,24.334869,0.0 120.553866,24.334842,0.0 120.553603,24.33488,0.0 120.553252,24.334948,0.0 120.553125,24.334987,0.0 120.553091,24.334971,0.0 120.553121,24.334936,0.0 120.553265,24.334875,0.0 120.553616,24.334806,0.0 120.553858,24.334764,0.0 120.55401,24.334718,0.0 120.554154,24.334711,0.0 120.55434,24.334715,0.0 120.554636,24.334689,0.0 120.554755,24.334709,0.0 120.554958,24.334663,0.0 120.555331,24.334563,0.0 120.555606,24.334475,0.0 120.555729,24.33439,0.0 120.557287,24.333933,0.0 120.557436,24.333879,0.0 120.557477,24.333834,0.0 120.557496,24.333784,0.0 120.557499,24.333752,0.0 120.557157,24.333836,0.0 120.556377,24.33405,0.0 120.555784,24.33425,0.0 120.555628,24.334304,0.0 120.555594,24.334289,0.0 120.555649,24.334265,0.0 120.555691,24.334219,0.0 120.555675,24.334203,0.0 120.555505,24.334273,0.0 120.555467,24.334265,0.0 120.55545,24.334249,0.0 120.555353,24.334295,0.0 120.555018,24.334438,0.0 120.554739,24.33454,0.0 120.554641,24.334538,0.0 120.55443,24.334529,0.0 120.554305,24.33455,0.0 120.553997,24.334599,0.0 120.553384,24.334759,0.0 120.553405,24.33472,0.0 120.554133,24.334508,0.0 120.554567,24.334493,0.0 120.554829,24.334436,0.0 120.55501,24.334345,0.0 120.555191,24.334263,0.0 120.555254,24.334205,0.0 120.554568,24.334278,0.0 120.553826,24.334433,0.0 120.553194,24.334547,0.0 120.552832,24.334595,0.0 120.552498,24.334644,0.0 120.552346,24.334669,0.0 120.552409,24.334484,0.0 120.552347,24.334421,0.0 120.551771,24.334363,0.0 120.551687,24.334071,0.0 120.558122,24.333632,0.0 120.558151,24.333623,0.0 120.558194,24.33361,0.0 120.558613,24.333507,0.0 120.558848,24.333449,0.0 120.559094,24.333409,0.0 120.559357,24.333365,0.0 120.559666,24.333284,0.0 120.559989,24.333213,0.0 120.56027,24.333121,0.0 120.56049,24.333072,0.0 120.560734,24.333051,0.0 120.560966,24.333017,0.0 120.561356,24.332944,0.0 120.562593,24.33272,0.0 120.562841,24.332682,0.0 120.563388,24.332629,0.0 120.563979,24.332575,0.0 120.564625,24.332522,0.0 120.565339,24.332459,0.0 120.56622,24.332441,0.0 120.566782,24.332452,0.0 120.567486,24.332413,0.0 120.568613,24.332349,0.0 120.56929,24.33231,0.0 120.570245,24.332195,0.0 120.570673,24.332147,0.0 120.571216,24.33211,0.0 120.571599,24.332082,0.0 120.572139,24.332052,0.0 120.572851,24.332013,0.0 120.573295,24.331971,0.0 120.573608,24.331952,0.0 120.573853,24.331953,0.0 120.574071,24.331971,0.0 120.574346,24.332004,0.0 120.574787,24.331989,0.0 120.575187,24.33199,0.0 120.575695,24.332025,0.0 120.5765,24.332084,0.0 120.577357,24.3321,0.0 120.578261,24.332103,0.0 120.579379,24.332049,0.0 120.579685,24.332021,0.0 120.579879,24.331994,0.0 120.580047,24.331929,0.0 120.580021,24.332182,0.0 120.580028,24.332439,0.0 120.580085,24.332914,0.0 120.580135,24.333207,0.0 120.580284,24.333742,0.0 120.580485,24.334431,0.0 120.580699,24.334997,0.0 120.580873,24.335331,0.0 120.580953,24.335449,0.0 120.581081,24.335525,0.0 120.581257,24.33556,0.0 120.581627,24.335529,0.0 120.582318,24.335441,0.0 120.582349,24.335642,0.0 120.582378,24.33638,0.0 120.582398,24.336459,0.0 120.582437,24.336525,0.0 120.582875,24.337093,0.0 120.582585,24.337421,0.0 120.5824,24.337583,0.0 120.582127,24.337772,0.0 120.581702,24.338013,0.0 120.58134,24.338276,0.0 120.58089,24.338737,0.0 120.580593,24.339014,0.0 120.580467,24.339077,0.0 120.580339,24.33911,0.0 120.579991,24.339152,0.0 120.579637,24.339198,0.0 120.579444,24.339241,0.0 120.579006,24.33934,0.0 120.578859,24.33939,0.0 120.578704,24.339465,0.0 120.57862,24.339559,0.0 120.578429,24.339832,0.0 120.578145,24.340241,0.0 120.577861,24.340625,0.0 120.577732,24.340725,0.0 120.577624,24.340791,0.0 120.577489,24.340826,0.0 120.577334,24.340825,0.0 120.577079,24.340783,0.0 120.576838,24.34074,0.0 120.576686,24.340706,0.0 120.576573,24.340725,0.0 120.576182,24.340844,0.0 120.575662,24.341052,0.0 120.575257,24.341204,0.0 120.574612,24.34147,0.0 120.574338,24.341603,0.0 120.57408,24.341772,0.0 120.573743,24.342028,0.0 120.573221,24.342481,0.0 120.572987,24.342728,0.0 120.572716,24.343049,0.0 120.57249,24.343345,0.0 120.572408,24.343433,0.0 120.572254,24.343532,0.0 120.571675,24.343719,0.0 120.571553,24.343781,0.0 120.571263,24.344036,0.0 120.571154,24.344119,0.0 120.570989,24.344202,0.0 120.5708,24.34426,0.0 120.570649,24.344293,0.0 120.570496,24.344318,0.0 120.570322,24.344342,0.0 120.570128,24.344348,0.0 120.569619,24.344378,0.0 120.569262,24.344413,0.0 120.568772,24.344441,0.0 120.568506,24.344455,0.0 120.568415,24.344451,0.0 120.568259,24.344429,0.0 120.568123,24.344378,0.0 120.568022,24.344386,0.0 120.567904,24.344427,0.0 120.567604,24.344623,0.0 120.56743,24.344774,0.0 120.56731,24.344922,0.0 120.567217,24.345035,0.0 120.567154,24.345166,0.0 120.567116,24.345312,0.0 120.567124,24.345512,0.0 120.56716,24.345654,0.0 120.567234,24.345836,0.0 120.567232,24.346333,0.0 120.567234,24.346809,0.0 120.56721,24.346967,0.0 120.567173,24.347185,0.0 120.56709,24.347441,0.0 120.567026,24.34756,0.0 120.566946,24.347664,0.0 120.566843,24.347761,0.0 120.566716,24.34785,0.0 120.566371,24.348064,0.0 120.566197,24.348174,0.0 120.56586,24.348498,0.0 120.565684,24.348713,0.0 120.565515,24.348877,0.0 120.565241,24.349052,0.0 120.565122,24.349091,0.0 120.565004,24.349107,0.0 120.564794,24.349107,0.0 120.564584,24.349123,0.0 120.564364,24.349147,0.0 120.564154,24.34918,0.0 120.563908,24.349238,0.0 120.563725,24.349288,0.0 120.563542,24.349362,0.0 120.563323,24.349471,0.0 120.561842,24.350361,0.0</coordinates></LinearRing></outerBoundaryIs></Polygon><styleUrl>#spolygon-map</styleUrl></Placemark><Placemark><Polygon><outerBoundaryIs><LinearRing><coordinates>120.596914,24.378127,0.0 120.59669,24.378253,0.0 120.595796,24.378805,0.0 120.594815,24.379405,0.0 120.593364,24.380333,0.0 120.592828,24.380666,0.0 120.592227,24.381023,0.0 120.591365,24.381415,0.0 120.590112,24.381949,0.0 120.589852,24.382071,0.0 120.589668,24.382175,0.0 120.589354,24.382389,0.0 120.58871,24.382825,0.0 120.588321,24.383043,0.0 120.588186,24.383105,0.0 120.587864,24.383209,0.0 120.58763,24.383244,0.0 120.587251,24.383243,0.0 120.586925,24.383206,0.0 120.586665,24.383146,0.0 120.586469,24.383086,0.0 120.586274,24.383002,0.0 120.585988,24.382822,0.0 120.585389,24.382402,0.0 120.58509,24.382234,0.0 120.584556,24.38197,0.0 120.584057,24.381762,0.0 120.584061,24.381714,0.0 120.583488,24.381514,0.0 120.581013,24.380307,0.0 120.579584,24.380333,0.0 120.579348,24.380228,0.0 120.579213,24.380161,0.0 120.579161,24.380075,0.0 120.579078,24.379988,0.0 120.578891,24.379854,0.0 120.578725,24.379615,0.0 120.578476,24.379032,0.0 120.578405,24.37866,0.0 120.578105,24.378038,0.0 120.577939,24.37778,0.0 120.577814,24.377589,0.0 120.577763,24.377378,0.0 120.57767,24.37713,0.0 120.57737,24.376499,0.0 120.577193,24.37626,0.0 120.576996,24.37604,0.0 120.576996,24.375877,0.0 120.576934,24.375686,0.0 120.576747,24.37538,0.0 120.576701,24.375261,0.0 120.576624,24.375055,0.0 120.576509,24.375007,0.0 120.576229,24.374663,0.0 120.575211,24.373629,0.0 120.575003,24.373418,0.0 120.574889,24.373275,0.0 120.574683,24.37272,0.0 120.574714,24.372606,0.0 120.57485,24.372559,0.0 120.575538,24.372503,0.0 120.576101,24.372362,0.0 120.576143,24.37239,0.0 120.576194,24.372445,0.0 120.576236,24.372566,0.0 120.576304,24.372637,0.0 120.576381,24.372672,0.0 120.576453,24.372712,0.0 120.576479,24.372704,0.0 120.576449,24.372634,0.0 120.576403,24.372344,0.0 120.576403,24.372258,0.0 120.576434,24.372199,0.0 120.576429,24.372148,0.0 120.576332,24.372039,0.0 120.576263,24.371976,0.0 120.576123,24.371921,0.0 120.57602,24.37194,0.0 120.575894,24.371979,0.0 120.575686,24.371959,0.0 120.575582,24.371854,0.0 120.575546,24.371798,0.0 120.575509,24.371739,0.0 120.575499,24.371634,0.0 120.575572,24.371539,0.0 120.575573,24.371463,0.0 120.57551,24.371462,0.0 120.575353,24.371596,0.0 120.575207,24.37171,0.0 120.575103,24.371748,0.0 120.57479,24.371709,0.0 120.57453,24.371651,0.0 120.574384,24.371545,0.0 120.574249,24.37143,0.0 120.573961,24.371205,0.0 120.573899,24.371084,0.0 120.573861,24.37097,0.0 120.573884,24.370913,0.0 120.573946,24.37087,0.0 120.57414,24.370885,0.0 120.574512,24.371078,0.0 120.57466,24.371128,0.0 120.574939,24.371172,0.0 120.57518,24.371158,0.0 120.575369,24.371137,0.0 120.57542,24.371099,0.0 120.575361,24.371006,0.0 120.574952,24.37074,0.0 120.574888,24.370655,0.0 120.574888,24.370584,0.0 120.574921,24.370516,0.0 120.574926,24.370483,0.0 120.574863,24.370411,0.0 120.574367,24.3699,0.0 120.574124,24.369622,0.0 120.574046,24.369546,0.0 120.573973,24.369545,0.0 120.573927,24.369524,0.0 120.573918,24.369482,0.0 120.573936,24.369406,0.0 120.573927,24.369385,0.0 120.5739,24.369377,0.0 120.573831,24.369376,0.0 120.573785,24.369368,0.0 120.573766,24.369347,0.0 120.57375,24.369298,0.0 120.573675,24.369267,0.0 120.573519,24.369216,0.0 120.573339,24.369265,0.0 120.573243,24.369257,0.0 120.573184,24.369168,0.0 120.5732,24.36907,0.0 120.573346,24.368853,0.0 120.573441,24.368613,0.0 120.575195,24.369422,0.0 120.576006,24.369801,0.0 120.576653,24.370087,0.0 120.577956,24.370668,0.0 120.578494,24.370937,0.0 120.578995,24.371148,0.0 120.579132,24.371191,0.0 120.579269,24.37122,0.0 120.579465,24.371253,0.0 120.58057,24.371341,0.0 120.582288,24.371604,0.0 120.582812,24.371653,0.0 120.58318,24.371672,0.0 120.583307,24.371672,0.0 120.583474,24.371694,0.0 120.583615,24.371716,0.0 120.583793,24.371766,0.0 120.583986,24.371833,0.0 120.58412,24.371892,0.0 120.584333,24.371986,0.0 120.584743,24.372205,0.0 120.584925,24.372285,0.0 120.585146,24.372358,0.0 120.585849,24.372533,0.0 120.586196,24.372636,0.0 120.586453,24.372661,0.0 120.58663,24.372629,0.0 120.586781,24.372573,0.0 120.586923,24.372497,0.0 120.587047,24.372412,0.0 120.587072,24.372391,0.0 120.587372,24.372896,0.0 120.587701,24.372755,0.0 120.588671,24.372317,0.0 120.589478,24.373859,0.0 120.590029,24.374901,0.0 120.591444,24.374297,0.0 120.592894,24.37366,0.0 120.593605,24.373378,0.0 120.59472,24.372911,0.0 120.595537,24.37257,0.0 120.596066,24.374793,0.0 120.596437,24.376214,0.0 120.596793,24.377623,0.0 120.596914,24.378127,0.0</coordinates></LinearRing></outerBoundaryIs></Polygon><styleUrl>#spolygon-map</styleUrl></Placemark><Placemark><Polygon><outerBoundaryIs><LinearRing><coordinates>120.590112,24.401223,0.0 120.590385,24.401245,0.0 120.590603,24.401254,0.0 120.590711,24.401241,0.0 120.590793,24.401219,0.0 120.590864,24.401167,0.0 120.590949,24.401058,0.0 120.591048,24.40088,0.0 120.591124,24.40069,0.0 120.591206,24.400467,0.0 120.59128,24.400323,0.0 120.591363,24.400212,0.0 120.591503,24.400053,0.0 120.591632,24.399938,0.0 120.591811,24.399793,0.0 120.592035,24.39964,0.0 120.592277,24.399479,0.0 120.592373,24.399366,0.0 120.592444,24.399195,0.0 120.592538,24.399091,0.0 120.593087,24.398703,0.0 120.594226,24.397992,0.0 120.594473,24.397792,0.0 120.59472,24.397479,0.0 120.59494,24.397279,0.0 120.595324,24.397042,0.0 120.595667,24.396679,0.0 120.596011,24.396292,0.0 120.596354,24.395992,0.0 120.596505,24.395779,0.0 120.59674,24.39524,0.0 120.596851,24.394877,0.0 120.596892,24.394664,0.0 120.596839,24.394351,0.0 120.596839,24.39405,0.0 120.596937,24.393573,0.0 120.596993,24.393072,0.0 120.59698,24.392784,0.0 120.597004,24.392626,0.0 120.597064,24.39242,0.0 120.59734,24.391757,0.0 120.597547,24.391155,0.0 120.597623,24.390872,0.0 120.597603,24.390692,0.0 120.597522,24.390381,0.0 120.597495,24.390278,0.0 120.597522,24.390215,0.0 120.597838,24.390065,0.0 120.598744,24.389353,0.0 120.598936,24.389241,0.0 120.600402,24.388656,0.0 120.601362,24.388269,0.0 120.601636,24.388145,0.0 120.601805,24.388052,0.0 120.6019,24.387984,0.0 120.60202,24.387882,0.0 120.602967,24.386982,0.0 120.603393,24.386595,0.0 120.603516,24.386482,0.0 120.603667,24.386432,0.0 120.606818,24.385764,0.0 120.606969,24.385701,0.0 120.607627,24.385277,0.0 120.608203,24.38489,0.0 120.608573,24.384652,0.0 120.608658,24.384619,0.0 120.610979,24.384124,0.0 120.616187,24.383049,0.0 120.619247,24.382398,0.0 120.619543,24.382151,0.0 120.620362,24.381455,0.0 120.621227,24.380947,0.0 120.621526,24.380782,0.0 120.621589,24.380768,0.0 120.621636,24.38079,0.0 120.621659,24.38084,0.0 120.621776,24.381337,0.0 120.621799,24.381459,0.0 120.621829,24.38179,0.0 120.623145,24.381661,0.0 120.625889,24.381427,0.0 120.62744,24.381279,0.0 120.62869,24.381167,0.0 120.629176,24.381134,0.0 120.629366,24.38109,0.0 120.629518,24.381025,0.0 120.629665,24.38093,0.0 120.630179,24.380478,0.0 120.630944,24.379803,0.0 120.631202,24.379575,0.0 120.631525,24.379292,0.0 120.631668,24.379188,0.0 120.63211,24.379128,0.0 120.63315,24.378991,0.0 120.63346,24.378919,0.0 120.634874,24.379419,0.0 120.635836,24.379766,0.0 120.635941,24.379804,0.0 120.636123,24.37987,0.0 120.636233,24.379886,0.0 120.636333,24.379887,0.0 120.636443,24.379862,0.0 120.636789,24.379739,0.0 120.636433,24.380348,0.0 120.635955,24.381144,0.0 120.635481,24.381917,0.0 120.635023,24.382729,0.0 120.634124,24.384205,0.0 120.633746,24.384878,0.0 120.633176,24.385896,0.0 120.63305,24.385995,0.0 120.632325,24.386324,0.0 120.631593,24.386657,0.0 120.630552,24.387122,0.0 120.629701,24.387517,0.0 120.629277,24.387654,0.0 120.628731,24.387914,0.0 120.627861,24.388456,0.0 120.627637,24.388577,0.0 120.6264,24.389193,0.0 120.625429,24.389655,0.0 120.624853,24.389988,0.0 120.624143,24.390431,0.0 120.623586,24.390818,0.0 120.622996,24.391243,0.0 120.622315,24.391722,0.0 120.621642,24.392156,0.0 120.621048,24.3925,0.0 120.620672,24.39268,0.0 120.620108,24.392933,0.0 120.619734,24.393108,0.0 120.619463,24.393207,0.0 120.618991,24.39333,0.0 120.618323,24.393489,0.0 120.617378,24.393786,0.0 120.616691,24.393997,0.0 120.616159,24.394183,0.0 120.615772,24.394369,0.0 120.615279,24.394646,0.0 120.614853,24.394893,0.0 120.614409,24.395097,0.0 120.614057,24.395265,0.0 120.613857,24.395398,0.0 120.613604,24.39561,0.0 120.613358,24.39583,0.0 120.612863,24.396305,0.0 120.612439,24.396645,0.0 120.612101,24.396897,0.0 120.611864,24.397111,0.0 120.611553,24.397417,0.0 120.611196,24.397739,0.0 120.610965,24.397912,0.0 120.610473,24.398258,0.0 120.610289,24.398391,0.0 120.610064,24.398564,0.0 120.609824,24.398765,0.0 120.609664,24.398927,0.0 120.609439,24.399174,0.0 120.609339,24.399271,0.0 120.609152,24.399395,0.0 120.608784,24.399595,0.0 120.608452,24.39975,0.0 120.608213,24.399948,0.0 120.608036,24.400051,0.0 120.606885,24.400712,0.0 120.60443,24.402103,0.0 120.599559,24.404963,0.0 120.597186,24.406332,0.0 120.594548,24.407957,0.0 120.594543,24.407945,0.0 120.594538,24.407826,0.0 120.594449,24.407487,0.0 120.594395,24.40736,0.0 120.593573,24.406688,0.0 120.593094,24.406013,0.0 120.592353,24.405168,0.0 120.591949,24.404695,0.0 120.590386,24.402067,0.0 120.590352,24.401928,0.0 120.590369,24.401843,0.0 120.590336,24.401688,0.0 120.590112,24.401223,0.0</coordinates></LinearRing></outerBoundaryIs></Polygon><styleUrl>#spolygon-map</styleUrl></Placemark><Placemark><Polygon><outerBoundaryIs><LinearRing><coordinates>120.593552,24.386402,0.0 120.593432,24.386583,0.0 120.59314,24.387009,0.0 120.593022,24.387189,0.0 120.592935,24.387362,0.0 120.592861,24.387522,0.0 120.592839,24.387609,0.0 120.592831,24.387702,0.0 120.592846,24.387782,0.0 120.592954,24.388123,0.0 120.592983,24.388263,0.0 120.592974,24.388401,0.0 120.592953,24.388523,0.0 120.592909,24.388623,0.0 120.592828,24.388709,0.0 120.592631,24.388809,0.0 120.592391,24.388888,0.0 120.592238,24.388914,0.0 120.592085,24.388921,0.0 120.591633,24.388886,0.0 120.591342,24.388865,0.0 120.590432,24.388863,0.0 120.590322,24.388876,0.0 120.590162,24.388922,0.0 120.589725,24.389074,0.0 120.589659,24.389081,0.0 120.589556,24.389054,0.0 120.58939,24.389,0.0 120.589288,24.38898,0.0 120.589157,24.388979,0.0 120.589004,24.389006,0.0 120.588807,24.389065,0.0 120.588457,24.389229,0.0 120.588355,24.38929,0.0 120.588289,24.389334,0.0 120.588205,24.389403,0.0 120.588121,24.389477,0.0 120.588032,24.389544,0.0 120.58793,24.389609,0.0 120.587739,24.389709,0.0 120.587567,24.389782,0.0 120.587156,24.38994,0.0 120.587077,24.389956,0.0 120.586983,24.389962,0.0 120.586909,24.389948,0.0 120.586838,24.389934,0.0 120.586726,24.389897,0.0 120.586554,24.389819,0.0 120.58638,24.389732,0.0 120.586294,24.389685,0.0 120.58621,24.389632,0.0 120.586095,24.389551,0.0 120.585973,24.389458,0.0 120.585773,24.389295,0.0 120.585597,24.389153,0.0 120.585531,24.389104,0.0 120.585441,24.389057,0.0 120.585241,24.388644,0.0 120.585119,24.388404,0.0 120.585039,24.388265,0.0 120.584997,24.388176,0.0 120.584879,24.388055,0.0 120.584762,24.38792,0.0 120.584692,24.387837,0.0 120.584574,24.387767,0.0 120.584464,24.387672,0.0 120.584307,24.387496,0.0 120.584139,24.387209,0.0 120.583947,24.387061,0.0 120.583885,24.386896,0.0 120.583818,24.386731,0.0 120.583812,24.38668,0.0 120.583682,24.386561,0.0 120.583583,24.386634,0.0 120.583578,24.386604,0.0 120.583585,24.38658,0.0 120.583788,24.386302,0.0 120.583868,24.386213,0.0 120.583974,24.386173,0.0 120.584001,24.386094,0.0 120.583834,24.385736,0.0 120.583799,24.385687,0.0 120.583949,24.385574,0.0 120.583742,24.385038,0.0 120.583792,24.385015,0.0 120.584029,24.385534,0.0 120.585004,24.38487,0.0 120.584647,24.384455,0.0 120.584522,24.384379,0.0 120.584434,24.384293,0.0 120.584409,24.384231,0.0 120.584409,24.384165,0.0 120.58443,24.384103,0.0 120.58425,24.383384,0.0 120.583191,24.38361,0.0 120.583407,24.384124,0.0 120.58334,24.384143,0.0 120.583123,24.383614,0.0 120.582978,24.383652,0.0 120.582962,24.383609,0.0 120.584256,24.383327,0.0 120.584199,24.383265,0.0 120.584116,24.383251,0.0 120.584028,24.383203,0.0 120.583919,24.383084,0.0 120.583769,24.383007,0.0 120.583598,24.382893,0.0 120.583458,24.382745,0.0 120.583391,24.382621,0.0 120.583272,24.382502,0.0 120.583273,24.382407,0.0 120.58346,24.382189,0.0 120.583731,24.381961,0.0 120.58405,24.381857,0.0 120.584057,24.381762,0.0 120.584556,24.38197,0.0 120.58509,24.382234,0.0 120.585389,24.382402,0.0 120.585988,24.382822,0.0 120.586274,24.383002,0.0 120.586469,24.383086,0.0 120.586665,24.383146,0.0 120.586925,24.383206,0.0 120.587251,24.383243,0.0 120.58763,24.383244,0.0 120.587864,24.383209,0.0 120.588186,24.383105,0.0 120.588321,24.383043,0.0 120.58871,24.382825,0.0 120.589354,24.382389,0.0 120.589668,24.382175,0.0 120.589852,24.382071,0.0 120.590112,24.381949,0.0 120.591365,24.381415,0.0 120.592227,24.381023,0.0 120.592828,24.380666,0.0 120.593364,24.380333,0.0 120.594815,24.379405,0.0 120.595796,24.378805,0.0 120.59669,24.378253,0.0 120.596914,24.378127,0.0 120.59827,24.377841,0.0 120.600618,24.377356,0.0 120.602727,24.376928,0.0 120.604924,24.37645,0.0 120.604998,24.376472,0.0 120.605043,24.37653,0.0 120.605079,24.376589,0.0 120.605125,24.376631,0.0 120.605189,24.376639,0.0 120.605298,24.376615,0.0 120.605388,24.376587,0.0 120.605445,24.376565,0.0 120.605473,24.376531,0.0 120.605491,24.376482,0.0 120.6055,24.37644,0.0 120.605518,24.376373,0.0 120.605547,24.376344,0.0 120.605584,24.376329,0.0 120.607377,24.37596,0.0 120.60805,24.37575,0.0 120.608429,24.375583,0.0 120.608767,24.375391,0.0 120.609052,24.375208,0.0 120.609842,24.3747,0.0 120.610311,24.374385,0.0 120.610695,24.374113,0.0 120.611243,24.373708,0.0 120.611627,24.373373,0.0 120.611969,24.373026,0.0 120.612184,24.372769,0.0 120.612486,24.372382,0.0 120.61249,24.372372,0.0 120.612565,24.372351,0.0 120.612755,24.372288,0.0 120.612885,24.37225,0.0 120.613011,24.372194,0.0 120.613189,24.372052,0.0 120.613219,24.372025,0.0 120.613244,24.372023,0.0 120.613264,24.372023,0.0 120.613288,24.372025,0.0 120.613326,24.37203,0.0 120.613366,24.372043,0.0 120.613406,24.372059,0.0 120.613421,24.372102,0.0 120.613464,24.372202,0.0 120.613539,24.372439,0.0 120.613596,24.372699,0.0 120.613661,24.373044,0.0 120.613683,24.373234,0.0 120.613701,24.373277,0.0 120.613935,24.373695,0.0 120.614008,24.373975,0.0 120.614122,24.374404,0.0 120.614162,24.374598,0.0 120.614167,24.374675,0.0 120.614178,24.374738,0.0 120.614192,24.374777,0.0 120.614233,24.374836,0.0 120.614245,24.374845,0.0 120.614273,24.374849,0.0 120.61429,24.374852,0.0 120.614329,24.374847,0.0 120.61443,24.374802,0.0 120.614653,24.374751,0.0 120.614895,24.374724,0.0 120.615087,24.374709,0.0 120.615291,24.374712,0.0 120.615726,24.374826,0.0 120.616789,24.375104,0.0 120.619059,24.375687,0.0 120.620718,24.376111,0.0 120.621148,24.377809,0.0 120.62106,24.377828,0.0 120.619187,24.378209,0.0 120.617645,24.378533,0.0 120.61739,24.378521,0.0 120.617177,24.378468,0.0 120.616895,24.378379,0.0 120.616053,24.37808,0.0 120.615753,24.378007,0.0 120.61544,24.37797,0.0 120.615056,24.377966,0.0 120.614801,24.378015,0.0 120.614237,24.378203,0.0 120.613658,24.378353,0.0 120.612997,24.378503,0.0 120.612472,24.378589,0.0 120.612084,24.378616,0.0 120.611483,24.378528,0.0 120.611264,24.378528,0.0 120.611082,24.37858,0.0 120.610919,24.37866,0.0 120.6107,24.378813,0.0 120.610154,24.379087,0.0 120.609756,24.37923,0.0 120.609443,24.379315,0.0 120.608867,24.379406,0.0 120.608084,24.379576,0.0 120.607078,24.379837,0.0 120.606226,24.38007,0.0 120.605531,24.38028,0.0 120.605104,24.380464,0.0 120.604803,24.380669,0.0 120.604433,24.380943,0.0 120.603792,24.381458,0.0 120.60324,24.381945,0.0 120.602719,24.382383,0.0 120.601932,24.383119,0.0 120.601046,24.383987,0.0 120.600797,24.38419,0.0 120.600573,24.384321,0.0 120.600379,24.38438,0.0 120.600144,24.384415,0.0 120.599872,24.384428,0.0 120.599571,24.384398,0.0 120.599379,24.384355,0.0 120.599145,24.384271,0.0 120.598715,24.384043,0.0 120.598298,24.383815,0.0 120.597855,24.383694,0.0 120.597517,24.383622,0.0 120.597112,24.383573,0.0 120.59676,24.383548,0.0 120.596408,24.383583,0.0 120.596058,24.383614,0.0 120.595745,24.383672,0.0 120.595513,24.383762,0.0 120.5954,24.383836,0.0 120.595281,24.383969,0.0 120.595161,24.384162,0.0 120.594891,24.384649,0.0 120.594519,24.385363,0.0 120.594167,24.385441,0.0 120.594026,24.385484,0.0 120.593938,24.385531,0.0 120.593881,24.385591,0.0 120.593843,24.38563,0.0 120.593799,24.38571,0.0 120.593755,24.385824,0.0 120.593674,24.386057,0.0 120.593637,24.386237,0.0 120.593608,24.386317,0.0 120.593552,24.386402,0.0</coordinates></LinearRing></outerBoundaryIs></Polygon><styleUrl>#spolygon-map</styleUrl></Placemark><Placemark><Polygon><outerBoundaryIs><LinearRing><coordinates>120.592221,24.358105,0.0 120.592171,24.357639,0.0 120.592171,24.357396,0.0 120.59219,24.357254,0.0 120.592209,24.357137,0.0 120.59231,24.356811,0.0 120.592356,24.356611,0.0 120.592379,24.356394,0.0 120.592385,24.356059,0.0 120.592359,24.355925,0.0 120.592277,24.355791,0.0 120.592131,24.355615,0.0 120.592086,24.355523,0.0 120.592068,24.35544,0.0 120.592087,24.355264,0.0 120.592124,24.35503,0.0 120.592198,24.354774,0.0 120.592299,24.354462,0.0 120.592401,24.354186,0.0 120.592428,24.354053,0.0 120.592457,24.353827,0.0 120.592457,24.353668,0.0 120.592531,24.353484,0.0 120.592595,24.353376,0.0 120.592668,24.353326,0.0 120.592745,24.353283,0.0 120.592869,24.353234,0.0 120.592979,24.353168,0.0 120.593336,24.352859,0.0 120.593464,24.352718,0.0 120.593547,24.352592,0.0 120.593684,24.352308,0.0 120.593988,24.35169,0.0 120.594092,24.351453,0.0 120.594162,24.351315,0.0 120.594327,24.351081,0.0 120.594456,24.350881,0.0 120.594933,24.350129,0.0 120.595024,24.350063,0.0 120.595106,24.35003,0.0 120.595289,24.349704,0.0 120.595345,24.349579,0.0 120.595345,24.349495,0.0 120.5953,24.349269,0.0 120.595301,24.349161,0.0 120.595347,24.34901,0.0 120.595411,24.348893,0.0 120.595649,24.348585,0.0 120.595878,24.348393,0.0 120.595997,24.348259,0.0 120.596043,24.348159,0.0 120.596055,24.348075,0.0 120.596061,24.347958,0.0 120.596071,24.347824,0.0 120.59609,24.347708,0.0 120.596127,24.347633,0.0 120.596228,24.347507,0.0 120.596292,24.347457,0.0 120.596357,24.347426,0.0 120.596411,24.347374,0.0 120.596464,24.347263,0.0 120.596577,24.346906,0.0 120.596733,24.346531,0.0 120.596797,24.346405,0.0 120.596916,24.346222,0.0 120.597035,24.346071,0.0 120.597111,24.345952,0.0 120.597164,24.345813,0.0 120.597267,24.345161,0.0 120.597441,24.343974,0.0 120.597493,24.343615,0.0 120.597565,24.343633,0.0 120.597633,24.343642,0.0 120.597652,24.343651,0.0 120.597721,24.343667,0.0 120.597772,24.343692,0.0 120.597825,24.343708,0.0 120.597879,24.343727,0.0 120.597945,24.343738,0.0 120.597984,24.343754,0.0 120.598037,24.343779,0.0 120.598089,24.343813,0.0 120.598122,24.343826,0.0 120.598147,24.343845,0.0 120.59819,24.343867,0.0 120.598228,24.343879,0.0 120.598283,24.343901,0.0 120.598372,24.343933,0.0 120.598433,24.343963,0.0 120.59865,24.344004,0.0 120.598897,24.344027,0.0 120.599079,24.344062,0.0 120.599352,24.344119,0.0 120.599387,24.344101,0.0 120.59961,24.343794,0.0 120.599785,24.343576,0.0 120.599855,24.343459,0.0 120.599935,24.343366,0.0 120.600016,24.343306,0.0 120.600073,24.343265,0.0 120.600137,24.343207,0.0 120.600221,24.343085,0.0 120.600399,24.342869,0.0 120.600493,24.342677,0.0 120.600598,24.342454,0.0 120.600824,24.341854,0.0 120.600889,24.34168,0.0 120.600981,24.341509,0.0 120.601228,24.341031,0.0 120.601238,24.341006,0.0 120.601244,24.340988,0.0 120.601253,24.340943,0.0 120.601257,24.3409,0.0 120.601264,24.340869,0.0 120.601273,24.340824,0.0 120.601278,24.34079,0.0 120.601267,24.34072,0.0 120.601208,24.340437,0.0 120.601183,24.340178,0.0 120.601138,24.339972,0.0 120.601121,24.339929,0.0 120.601117,24.339891,0.0 120.601113,24.339873,0.0 120.601119,24.33985,0.0 120.601158,24.33981,0.0 120.601185,24.339794,0.0 120.601215,24.339758,0.0 120.601256,24.339745,0.0 120.601282,24.339724,0.0 120.601296,24.339706,0.0 120.601351,24.33967,0.0 120.601365,24.339659,0.0 120.601376,24.339641,0.0 120.60138,24.339625,0.0 120.601426,24.339585,0.0 120.601462,24.339553,0.0 120.601467,24.339544,0.0 120.601484,24.339495,0.0 120.601526,24.339411,0.0 120.601562,24.339436,0.0 120.601585,24.33949,0.0 120.601605,24.33954,0.0 120.601649,24.339624,0.0 120.601683,24.339698,0.0 120.601696,24.339723,0.0 120.601735,24.339775,0.0 120.60177,24.339861,0.0 120.601783,24.339913,0.0 120.601806,24.340001,0.0 120.601819,24.340026,0.0 120.601892,24.339999,0.0 120.601923,24.339997,0.0 120.601954,24.340017,0.0 120.601984,24.34003,0.0 120.602007,24.34004,0.0 120.602078,24.340013,0.0 120.602089,24.340011,0.0 120.602122,24.340022,0.0 120.602154,24.340043,0.0 120.602191,24.340056,0.0 120.602232,24.340079,0.0 120.602263,24.340113,0.0 120.602284,24.340131,0.0 120.602317,24.340192,0.0 120.602348,24.340244,0.0 120.602418,24.340409,0.0 120.602422,24.340456,0.0 120.602427,24.340563,0.0 120.60242,24.340585,0.0 120.602406,24.34063,0.0 120.602402,24.34066,0.0 120.602376,24.340693,0.0 120.602346,24.340761,0.0 120.602333,24.340781,0.0 120.6023,24.34082,0.0 120.602287,24.340842,0.0 120.60228,24.340851,0.0 120.602268,24.340865,0.0 120.602226,24.340973,0.0 120.602217,24.341009,0.0 120.602205,24.341056,0.0 120.602197,24.341201,0.0 120.602192,24.341237,0.0 120.602185,24.341341,0.0 120.602191,24.341402,0.0 120.60219,24.341463,0.0 120.602177,24.341512,0.0 120.602164,24.341602,0.0 120.602143,24.341668,0.0 120.602093,24.341909,0.0 120.602124,24.34195,0.0 120.602149,24.341968,0.0 120.602195,24.341998,0.0 120.602207,24.342002,0.0 120.602234,24.342036,0.0 120.602243,24.342192,0.0 120.602249,24.342214,0.0 120.602271,24.342246,0.0 120.602277,24.3423,0.0 120.602253,24.342307,0.0 120.602205,24.342334,0.0 120.602207,24.342363,0.0 120.602218,24.342386,0.0 120.602276,24.342465,0.0 120.602324,24.342517,0.0 120.6024,24.342594,0.0 120.602453,24.342642,0.0 120.602513,24.342687,0.0 120.602542,24.34271,0.0 120.602579,24.342741,0.0 120.602612,24.342755,0.0 120.602705,24.342782,0.0 120.602763,24.342805,0.0 120.602799,24.342832,0.0 120.602793,24.342855,0.0 120.602775,24.342916,0.0 120.602769,24.342949,0.0 120.60276,24.343028,0.0 120.602749,24.343067,0.0 120.602731,24.343132,0.0 120.602685,24.34324,0.0 120.602593,24.343466,0.0 120.602556,24.343635,0.0 120.602434,24.344127,0.0 120.602261,24.344864,0.0 120.602108,24.34539,0.0 120.601973,24.345724,0.0 120.601985,24.345769,0.0 120.602058,24.345826,0.0 120.602291,24.346025,0.0 120.602556,24.346262,0.0 120.60265,24.346355,0.0 120.602679,24.346382,0.0 120.602875,24.346491,0.0 120.603069,24.346607,0.0 120.603097,24.346632,0.0 120.603119,24.346654,0.0 120.60314,24.346682,0.0 120.603163,24.346738,0.0 120.603208,24.346833,0.0 120.603254,24.346867,0.0 120.603645,24.347062,0.0 120.603855,24.347144,0.0 120.604064,24.347201,0.0 120.604276,24.347217,0.0 120.604526,24.347227,0.0 120.605087,24.347301,0.0 120.605177,24.34731,0.0 120.605387,24.347335,0.0 120.605888,24.34737,0.0 120.606543,24.347388,0.0 120.607126,24.347421,0.0 120.60725,24.347436,0.0 120.607572,24.347476,0.0 120.607875,24.347525,0.0 120.608087,24.347496,0.0 120.608749,24.347651,0.0 120.609187,24.347765,0.0 120.609902,24.347932,0.0 120.61056,24.348103,0.0 120.610578,24.348171,0.0 120.610594,24.348229,0.0 120.610602,24.348258,0.0 120.61059,24.348376,0.0 120.61058,24.34843,0.0 120.610544,24.348545,0.0 120.610538,24.348565,0.0 120.610502,24.348619,0.0 120.610462,24.348669,0.0 120.610415,24.348721,0.0 120.610362,24.348784,0.0 120.610319,24.348824,0.0 120.61028,24.348844,0.0 120.610246,24.348874,0.0 120.610181,24.348921,0.0 120.610105,24.348952,0.0 120.61008,24.348964,0.0 120.610023,24.348982,0.0 120.609998,24.34899,0.0 120.609939,24.34899,0.0 120.609881,24.348995,0.0 120.60983,24.349004,0.0 120.609799,24.349008,0.0 120.609771,24.34901,0.0 120.609665,24.349037,0.0 120.609625,24.349053,0.0 120.609557,24.349071,0.0 120.609461,24.349106,0.0 120.609411,24.349138,0.0 120.609355,24.349165,0.0 120.609287,24.349183,0.0 120.609213,24.349201,0.0 120.609102,24.349218,0.0 120.609081,24.349232,0.0 120.60905,24.349236,0.0 120.608993,24.349247,0.0 120.60892,24.349279,0.0 120.6089,24.349295,0.0 120.608878,24.349335,0.0 120.608871,24.349356,0.0 120.60885,24.349398,0.0 120.608824,24.349468,0.0 120.608807,24.349513,0.0 120.608802,24.34952,0.0 120.608798,24.349525,0.0 120.608778,24.349527,0.0 120.60875,24.349527,0.0 120.608736,24.349522,0.0 120.608718,24.349513,0.0 120.608691,24.349502,0.0 120.608656,24.349484,0.0 120.608635,24.349475,0.0 120.608608,24.349468,0.0 120.608493,24.349427,0.0 120.60844,24.349418,0.0 120.608367,24.349424,0.0 120.608299,24.349456,0.0 120.608258,24.349465,0.0 120.608205,24.349485,0.0 120.608194,24.349485,0.0 120.60763,24.34951,0.0 120.607352,24.349537,0.0 120.607253,24.349558,0.0 120.60712,24.349599,0.0 120.606794,24.349736,0.0 120.606549,24.349849,0.0 120.606457,24.349871,0.0 120.606138,24.349886,0.0 120.605673,24.349979,0.0 120.605316,24.350079,0.0 120.605143,24.350146,0.0 120.604996,24.350229,0.0 120.604878,24.350296,0.0 120.604749,24.350396,0.0 120.604575,24.350638,0.0 120.604016,24.351414,0.0 120.603741,24.351731,0.0 120.603668,24.351781,0.0 120.603546,24.35182,0.0 120.603321,24.351872,0.0 120.603084,24.351938,0.0 120.602819,24.352046,0.0 120.602499,24.352196,0.0 120.602288,24.352329,0.0 120.601794,24.352729,0.0 120.601694,24.352796,0.0 120.601584,24.352854,0.0 120.601136,24.352978,0.0 120.600707,24.353153,0.0 120.600488,24.353211,0.0 120.600341,24.353244,0.0 120.60025,24.353269,0.0 120.600149,24.353318,0.0 120.600044,24.353389,0.0 120.599655,24.353685,0.0 120.598997,24.35411,0.0 120.598386,24.354497,0.0 120.597927,24.354759,0.0 120.597735,24.354892,0.0 120.597204,24.355317,0.0 120.59682,24.355634,0.0 120.596408,24.355926,0.0 120.596106,24.356134,0.0 120.595603,24.356433,0.0 120.595293,24.356592,0.0 120.595128,24.356658,0.0 120.594991,24.356691,0.0 120.594836,24.356702,0.0 120.594635,24.356707,0.0 120.594252,24.356756,0.0 120.593996,24.356814,0.0 120.593786,24.35688,0.0 120.593685,24.35693,0.0 120.593548,24.35708,0.0 120.593255,24.357372,0.0 120.592934,24.357714,0.0 120.592742,24.357864,0.0 120.592596,24.357956,0.0 120.592436,24.358028,0.0 120.592221,24.358105,0.0</coordinates></LinearRing></outerBoundaryIs></Polygon><styleUrl>#spolygon-map</styleUrl></Placemark><Placemark><Polygon><outerBoundaryIs><LinearRing><coordinates>120.573441,24.368613,0.0 120.573654,24.368077,0.0 120.573571,24.367964,0.0 120.573483,24.367928,0.0 120.573139,24.367927,0.0 120.572936,24.367932,0.0 120.572716,24.367998,0.0 120.572624,24.367981,0.0 120.572545,24.367963,0.0 120.572385,24.368059,0.0 120.572283,24.36809,0.0 120.572236,24.368061,0.0 120.572147,24.367994,0.0 120.572068,24.368,0.0 120.571978,24.368023,0.0 120.571898,24.36818,0.0 120.571844,24.368241,0.0 120.571803,24.368258,0.0 120.571734,24.368246,0.0 120.571676,24.368284,0.0 120.571612,24.368276,0.0 120.571543,24.368232,0.0 120.571421,24.368303,0.0 120.571358,24.368318,0.0 120.571313,24.36828,0.0 120.571285,24.368222,0.0 120.571375,24.368182,0.0 120.571467,24.368112,0.0 120.57162,24.367973,0.0 120.571728,24.367791,0.0 120.571996,24.367577,0.0 120.572091,24.367525,0.0 120.572184,24.367546,0.0 120.572547,24.367688,0.0 120.573044,24.367739,0.0 120.573167,24.367494,0.0 120.573137,24.367395,0.0 120.572984,24.367311,0.0 120.5728,24.36736,0.0 120.572571,24.36738,0.0 120.5725,24.367369,0.0 120.572449,24.367239,0.0 120.572449,24.36712,0.0 120.572365,24.367057,0.0 120.572166,24.367007,0.0 120.572052,24.366993,0.0 120.571937,24.36693,0.0 120.571892,24.366838,0.0 120.571801,24.366551,0.0 120.571772,24.366116,0.0 120.571581,24.365934,0.0 120.571253,24.365758,0.0 120.571024,24.36554,0.0 120.570776,24.365441,0.0 120.572844,24.363981,0.0 120.573735,24.36334,0.0 120.574129,24.362963,0.0 120.574357,24.362737,0.0 120.574553,24.362492,0.0 120.574751,24.36217,0.0 120.574841,24.361958,0.0 120.574897,24.361716,0.0 120.574982,24.361035,0.0 120.575106,24.360442,0.0 120.575253,24.359974,0.0 120.575391,24.35964,0.0 120.575498,24.359451,0.0 120.575614,24.359243,0.0 120.575717,24.359089,0.0 120.575902,24.35884,0.0 120.57612,24.358686,0.0 120.576401,24.358586,0.0 120.5767,24.358565,0.0 120.577051,24.358577,0.0 120.577548,24.35865,0.0 120.577725,24.358667,0.0 120.577898,24.358701,0.0 120.577971,24.358735,0.0 120.578008,24.35876,0.0 120.578053,24.358827,0.0 120.578089,24.358944,0.0 120.578142,24.359237,0.0 120.578205,24.359347,0.0 120.578325,24.35943,0.0 120.578408,24.359467,0.0 120.578475,24.359476,0.0 120.578531,24.359475,0.0 120.578945,24.359482,0.0 120.579073,24.359507,0.0 120.579283,24.359566,0.0 120.579419,24.359617,0.0 120.579547,24.359667,0.0 120.579666,24.359693,0.0 120.579766,24.359693,0.0 120.580223,24.359593,0.0 120.58036,24.359561,0.0 120.58046,24.359586,0.0 120.580769,24.35988,0.0 120.580833,24.359922,0.0 120.580888,24.359939,0.0 120.580924,24.359922,0.0 120.580952,24.35988,0.0 120.580961,24.35983,0.0 120.580944,24.359529,0.0 120.580963,24.359432,0.0 120.58099,24.359362,0.0 120.581146,24.359187,0.0 120.581384,24.359004,0.0 120.581667,24.358829,0.0 120.582161,24.358579,0.0 120.5826,24.358363,0.0 120.584464,24.357616,0.0 120.585356,24.357309,0.0 120.586377,24.357031,0.0 120.58765,24.356741,0.0 120.588583,24.356503,0.0 120.588867,24.356449,0.0 120.589041,24.356449,0.0 120.589187,24.356474,0.0 120.589397,24.356526,0.0 120.589588,24.356601,0.0 120.589779,24.356694,0.0 120.590071,24.35687,0.0 120.590365,24.35709,0.0 120.590558,24.357266,0.0 120.590681,24.357407,0.0 120.590726,24.357524,0.0 120.590753,24.357641,0.0 120.590771,24.357767,0.0 120.590868,24.358628,0.0 120.592221,24.358105,0.0 120.592436,24.358028,0.0 120.592596,24.357956,0.0 120.592742,24.357864,0.0 120.592934,24.357714,0.0 120.593255,24.357372,0.0 120.593548,24.35708,0.0 120.593685,24.35693,0.0 120.593786,24.35688,0.0 120.593996,24.356814,0.0 120.594252,24.356756,0.0 120.594635,24.356707,0.0 120.594836,24.356702,0.0 120.594991,24.356691,0.0 120.595128,24.356658,0.0 120.595293,24.356592,0.0 120.595603,24.356433,0.0 120.596106,24.356134,0.0 120.596408,24.355926,0.0 120.59682,24.355634,0.0 120.597204,24.355317,0.0 120.597735,24.354892,0.0 120.597927,24.354759,0.0 120.598386,24.354497,0.0 120.598997,24.35411,0.0 120.599655,24.353685,0.0 120.600044,24.353389,0.0 120.600149,24.353318,0.0 120.60025,24.353269,0.0 120.600341,24.353244,0.0 120.600488,24.353211,0.0 120.600707,24.353153,0.0 120.601136,24.352978,0.0 120.601584,24.352854,0.0 120.601694,24.352796,0.0 120.601794,24.352729,0.0 120.602288,24.352329,0.0 120.602499,24.352196,0.0 120.602819,24.352046,0.0 120.603084,24.351938,0.0 120.603321,24.351872,0.0 120.603546,24.35182,0.0 120.603668,24.351781,0.0 120.603741,24.351731,0.0 120.604016,24.351414,0.0 120.604575,24.350638,0.0 120.604749,24.350396,0.0 120.604878,24.350296,0.0 120.604996,24.350229,0.0 120.605143,24.350146,0.0 120.605316,24.350079,0.0 120.605673,24.349979,0.0 120.606138,24.349886,0.0 120.606457,24.349871,0.0 120.606549,24.349849,0.0 120.606794,24.349736,0.0 120.60712,24.349599,0.0 120.607253,24.349558,0.0 120.607352,24.349537,0.0 120.60763,24.34951,0.0 120.608194,24.349485,0.0 120.608205,24.349485,0.0 120.608201,24.349537,0.0 120.608096,24.34962,0.0 120.607934,24.349802,0.0 120.607891,24.349953,0.0 120.607794,24.350116,0.0 120.607648,24.35026,0.0 120.607445,24.350456,0.0 120.60729,24.350615,0.0 120.607267,24.350631,0.0 120.607242,24.350636,0.0 120.607223,24.350622,0.0 120.607044,24.350488,0.0 120.60694,24.350621,0.0 120.606766,24.350779,0.0 120.6066,24.350993,0.0 120.606423,24.351257,0.0 120.606296,24.351507,0.0 120.606225,24.351757,0.0 120.606164,24.351969,0.0 120.606147,24.352168,0.0 120.606139,24.352226,0.0 120.60611,24.352267,0.0 120.606083,24.352314,0.0 120.606086,24.352405,0.0 120.606152,24.352421,0.0 120.606198,24.352407,0.0 120.606262,24.352387,0.0 120.6063,24.352367,0.0 120.606335,24.352349,0.0 120.606371,24.352333,0.0 120.606416,24.352326,0.0 120.606453,24.35232,0.0 120.606505,24.352313,0.0 120.606574,24.352313,0.0 120.606611,24.352313,0.0 120.606655,24.352309,0.0 120.606685,24.352307,0.0 120.60671,24.352314,0.0 120.606724,24.352361,0.0 120.606712,24.352384,0.0 120.606688,24.352447,0.0 120.606675,24.352463,0.0 120.606666,24.352508,0.0 120.60666,24.352555,0.0 120.606659,24.352648,0.0 120.606668,24.352702,0.0 120.60667,24.35274,0.0 120.606671,24.352815,0.0 120.606668,24.352855,0.0 120.606663,24.352907,0.0 120.606645,24.352995,0.0 120.606627,24.353029,0.0 120.606599,24.353052,0.0 120.606576,24.353067,0.0 120.606551,24.353083,0.0 120.606519,24.353099,0.0 120.60638,24.353148,0.0 120.606343,24.353155,0.0 120.606314,24.353161,0.0 120.606248,24.353168,0.0 120.606195,24.353186,0.0 120.606118,24.353213,0.0 120.605839,24.353481,0.0 120.605818,24.353503,0.0 120.605805,24.353517,0.0 120.605786,24.353539,0.0 120.605749,24.353575,0.0 120.605698,24.353623,0.0 120.605668,24.353668,0.0 120.605631,24.353728,0.0 120.6056,24.353805,0.0 120.605584,24.353852,0.0 120.605563,24.353916,0.0 120.60556,24.353972,0.0 120.605551,24.353997,0.0 120.60549,24.354121,0.0 120.6053,24.354364,0.0 120.605084,24.354607,0.0 120.604698,24.354929,0.0 120.604361,24.355244,0.0 120.604338,24.355274,0.0 120.604301,24.355346,0.0 120.60427,24.355418,0.0 120.604252,24.355452,0.0 120.604237,24.355492,0.0 120.604207,24.355551,0.0 120.604177,24.355612,0.0 120.604163,24.355659,0.0 120.604135,24.355736,0.0 120.604119,24.355797,0.0 120.604091,24.355858,0.0 120.604067,24.355907,0.0 120.604043,24.355957,0.0 120.604013,24.356029,0.0 120.603989,24.35609,0.0 120.603979,24.356119,0.0 120.603962,24.356162,0.0 120.603951,24.356214,0.0 120.603943,24.356268,0.0 120.603923,24.356356,0.0 120.603914,24.356406,0.0 120.603903,24.35648,0.0 120.603895,24.356555,0.0 120.603885,24.356629,0.0 120.603878,24.356652,0.0 120.603879,24.356753,0.0 120.603881,24.356825,0.0 120.603873,24.356859,0.0 120.603872,24.356922,0.0 120.603866,24.357033,0.0 120.603866,24.357085,0.0 120.603867,24.357139,0.0 120.603888,24.357205,0.0 120.603958,24.357306,0.0 120.603953,24.357322,0.0 120.603931,24.357702,0.0 120.603909,24.35797,0.0 120.60387,24.358135,0.0 120.603816,24.358279,0.0 120.603723,24.358454,0.0 120.603615,24.358613,0.0 120.603486,24.358713,0.0 120.603265,24.358855,0.0 120.603088,24.35895,0.0 120.602892,24.359021,0.0 120.602518,24.35912,0.0 120.602289,24.359203,0.0 120.60207,24.359286,0.0 120.601745,24.359444,0.0 120.601357,24.359636,0.0 120.600898,24.359867,0.0 120.600507,24.360085,0.0 120.600324,24.36021,0.0 120.600186,24.360327,0.0 120.600021,24.360544,0.0 120.59993,24.360694,0.0 120.599856,24.360836,0.0 120.599801,24.360961,0.0 120.599773,24.361095,0.0 120.599764,24.36127,0.0 120.599799,24.361563,0.0 120.599799,24.361697,0.0 120.599761,24.361931,0.0 120.599719,24.36208,0.0 120.599651,24.362223,0.0 120.599568,24.362348,0.0 120.599439,24.362446,0.0 120.599285,24.362532,0.0 120.598974,24.362631,0.0 120.598689,24.3627,0.0 120.598445,24.362738,0.0 120.597924,24.362779,0.0 120.597714,24.362812,0.0 120.597577,24.362836,0.0 120.59744,24.362886,0.0 120.597321,24.362961,0.0 120.597175,24.363086,0.0 120.596992,24.36327,0.0 120.596808,24.363512,0.0 120.59668,24.363729,0.0 120.596478,24.364063,0.0 120.596386,24.364188,0.0 120.596289,24.364291,0.0 120.596224,24.364339,0.0 120.59605,24.364432,0.0 120.595773,24.364537,0.0 120.595664,24.364604,0.0 120.595481,24.364746,0.0 120.595157,24.365043,0.0 120.594953,24.365204,0.0 120.594775,24.365309,0.0 120.594642,24.365366,0.0 120.594509,24.365398,0.0 120.594324,24.365402,0.0 120.594146,24.365421,0.0 120.593933,24.365469,0.0 120.593685,24.36555,0.0 120.593419,24.365663,0.0 120.593162,24.365816,0.0 120.59262,24.36618,0.0 120.592425,24.366325,0.0 120.592256,24.366471,0.0 120.592105,24.366641,0.0 120.591998,24.366811,0.0 120.5919,24.366989,0.0 120.591838,24.367151,0.0 120.591793,24.367346,0.0 120.591667,24.368043,0.0 120.591577,24.368376,0.0 120.591488,24.368635,0.0 120.591407,24.368797,0.0 120.59131,24.368862,0.0 120.591115,24.368934,0.0 120.590857,24.369031,0.0 120.590458,24.369192,0.0 120.589926,24.36945,0.0 120.589624,24.369628,0.0 120.589314,24.36987,0.0 120.589062,24.370094,0.0 120.588878,24.370283,0.0 120.588659,24.37053,0.0 120.588283,24.370971,0.0 120.587651,24.371797,0.0 120.58726,24.372242,0.0 120.587072,24.372391,0.0 120.587047,24.372412,0.0 120.586923,24.372497,0.0 120.586781,24.372573,0.0 120.58663,24.372629,0.0 120.586453,24.372661,0.0 120.586196,24.372636,0.0 120.585849,24.372533,0.0 120.585146,24.372358,0.0 120.584925,24.372285,0.0 120.584743,24.372205,0.0 120.584333,24.371986,0.0 120.58412,24.371892,0.0 120.583986,24.371833,0.0 120.583793,24.371766,0.0 120.583615,24.371716,0.0 120.583474,24.371694,0.0 120.583307,24.371672,0.0 120.58318,24.371672,0.0 120.582812,24.371653,0.0 120.582288,24.371604,0.0 120.58057,24.371341,0.0 120.579465,24.371253,0.0 120.579269,24.37122,0.0 120.579132,24.371191,0.0 120.578995,24.371148,0.0 120.578494,24.370937,0.0 120.577956,24.370668,0.0 120.576653,24.370087,0.0 120.576006,24.369801,0.0 120.575195,24.369422,0.0 120.573441,24.368613,0.0</coordinates></LinearRing></outerBoundaryIs></Polygon><styleUrl>#spolygon-map</styleUrl></Placemark><Placemark><Polygon><outerBoundaryIs><LinearRing><coordinates>120.56641,24.358466,0.0 120.566509,24.358411,0.0 120.570909,24.355917,0.0 120.572108,24.35516,0.0 120.57284,24.354643,0.0 120.572995,24.354552,0.0 120.573708,24.354203,0.0 120.574513,24.353728,0.0 120.574915,24.353445,0.0 120.575117,24.35332,0.0 120.575236,24.353204,0.0 120.57535,24.353052,0.0 120.575493,24.35282,0.0 120.575609,24.352648,0.0 120.575756,24.352507,0.0 120.576131,24.352257,0.0 120.576323,24.352124,0.0 120.576579,24.351848,0.0 120.576762,24.351707,0.0 120.57805,24.350733,0.0 120.578451,24.350452,0.0 120.578609,24.350282,0.0 120.578721,24.350107,0.0 120.578774,24.349909,0.0 120.5788,24.349295,0.0 120.578753,24.34895,0.0 120.578614,24.348482,0.0 120.578385,24.348032,0.0 120.578234,24.347637,0.0 120.578005,24.346923,0.0 120.57782,24.345997,0.0 120.578174,24.345991,0.0 120.578556,24.345963,0.0 120.578856,24.345943,0.0 120.579337,24.345897,0.0 120.579508,24.345872,0.0 120.579695,24.345833,0.0 120.579842,24.345802,0.0 120.580005,24.34575,0.0 120.580195,24.345706,0.0 120.580421,24.345706,0.0 120.581046,24.345724,0.0 120.581193,24.345697,0.0 120.581498,24.345544,0.0 120.581729,24.345525,0.0 120.582473,24.345527,0.0 120.582576,24.345521,0.0 120.58267,24.345505,0.0 120.583132,24.34528,0.0 120.583617,24.345002,0.0 120.584326,24.34464,0.0 120.58482,24.344384,0.0 120.585315,24.344192,0.0 120.586319,24.343826,0.0 120.587149,24.34342,0.0 120.587442,24.34345,0.0 120.587714,24.343444,0.0 120.588099,24.343452,0.0 120.588588,24.343496,0.0 120.588793,24.343567,0.0 120.588932,24.343675,0.0 120.589132,24.343981,0.0 120.589318,24.344424,0.0 120.589442,24.34466,0.0 120.58953,24.344724,0.0 120.589666,24.344718,0.0 120.58977,24.344662,0.0 120.589948,24.344529,0.0 120.590042,24.344509,0.0 120.590142,24.344541,0.0 120.590293,24.344693,0.0 120.590519,24.344829,0.0 120.590599,24.344912,0.0 120.590622,24.345064,0.0 120.590579,24.345341,0.0 120.59062,24.34549,0.0 120.590775,24.345683,0.0 120.59092,24.345788,0.0 120.591035,24.345841,0.0 120.591174,24.345873,0.0 120.591961,24.345747,0.0 120.593607,24.345449,0.0 120.594167,24.345443,0.0 120.59519,24.345577,0.0 120.597164,24.345813,0.0 120.597111,24.345952,0.0 120.597035,24.346071,0.0 120.596916,24.346222,0.0 120.596797,24.346405,0.0 120.596733,24.346531,0.0 120.596577,24.346906,0.0 120.596464,24.347263,0.0 120.596411,24.347374,0.0 120.596357,24.347426,0.0 120.596292,24.347457,0.0 120.596228,24.347507,0.0 120.596127,24.347633,0.0 120.59609,24.347708,0.0 120.596071,24.347824,0.0 120.596061,24.347958,0.0 120.596055,24.348075,0.0 120.596043,24.348159,0.0 120.595997,24.348259,0.0 120.595878,24.348393,0.0 120.595649,24.348585,0.0 120.595411,24.348893,0.0 120.595347,24.34901,0.0 120.595301,24.349161,0.0 120.5953,24.349269,0.0 120.595345,24.349495,0.0 120.595345,24.349579,0.0 120.595289,24.349704,0.0 120.595106,24.35003,0.0 120.595024,24.350063,0.0 120.594933,24.350129,0.0 120.594456,24.350881,0.0 120.594327,24.351081,0.0 120.594162,24.351315,0.0 120.594092,24.351453,0.0 120.593988,24.35169,0.0 120.593684,24.352308,0.0 120.593547,24.352592,0.0 120.593464,24.352718,0.0 120.593336,24.352859,0.0 120.592979,24.353168,0.0 120.592869,24.353234,0.0 120.592745,24.353283,0.0 120.592668,24.353326,0.0 120.592595,24.353376,0.0 120.592531,24.353484,0.0 120.592457,24.353668,0.0 120.592457,24.353827,0.0 120.592428,24.354053,0.0 120.592401,24.354186,0.0 120.592299,24.354462,0.0 120.592198,24.354774,0.0 120.592124,24.35503,0.0 120.592087,24.355264,0.0 120.592068,24.35544,0.0 120.592086,24.355523,0.0 120.592131,24.355615,0.0 120.592277,24.355791,0.0 120.592359,24.355925,0.0 120.592385,24.356059,0.0 120.592379,24.356394,0.0 120.592356,24.356611,0.0 120.59231,24.356811,0.0 120.592209,24.357137,0.0 120.59219,24.357254,0.0 120.592171,24.357396,0.0 120.592171,24.357639,0.0 120.592221,24.358105,0.0 120.590868,24.358628,0.0 120.590771,24.357767,0.0 120.590753,24.357641,0.0 120.590726,24.357524,0.0 120.590681,24.357407,0.0 120.590558,24.357266,0.0 120.590365,24.35709,0.0 120.590071,24.35687,0.0 120.589779,24.356694,0.0 120.589588,24.356601,0.0 120.589397,24.356526,0.0 120.589187,24.356474,0.0 120.589041,24.356449,0.0 120.588867,24.356449,0.0 120.588583,24.356503,0.0 120.58765,24.356741,0.0 120.586377,24.357031,0.0 120.585356,24.357309,0.0 120.584464,24.357616,0.0 120.5826,24.358363,0.0 120.582161,24.358579,0.0 120.581667,24.358829,0.0 120.581384,24.359004,0.0 120.581146,24.359187,0.0 120.58099,24.359362,0.0 120.580963,24.359432,0.0 120.580944,24.359529,0.0 120.580961,24.35983,0.0 120.580952,24.35988,0.0 120.580924,24.359922,0.0 120.580888,24.359939,0.0 120.580833,24.359922,0.0 120.580769,24.35988,0.0 120.58046,24.359586,0.0 120.58036,24.359561,0.0 120.580223,24.359593,0.0 120.579766,24.359693,0.0 120.579666,24.359693,0.0 120.579547,24.359667,0.0 120.579419,24.359617,0.0 120.579283,24.359566,0.0 120.579073,24.359507,0.0 120.578945,24.359482,0.0 120.578531,24.359475,0.0 120.578475,24.359476,0.0 120.578408,24.359467,0.0 120.578325,24.35943,0.0 120.578205,24.359347,0.0 120.578142,24.359237,0.0 120.578089,24.358944,0.0 120.578053,24.358827,0.0 120.578008,24.35876,0.0 120.577971,24.358735,0.0 120.577898,24.358701,0.0 120.577725,24.358667,0.0 120.577548,24.35865,0.0 120.577051,24.358577,0.0 120.5767,24.358565,0.0 120.576401,24.358586,0.0 120.57612,24.358686,0.0 120.575902,24.35884,0.0 120.575717,24.359089,0.0 120.575614,24.359243,0.0 120.575498,24.359451,0.0 120.575391,24.35964,0.0 120.575253,24.359974,0.0 120.575106,24.360442,0.0 120.574982,24.361035,0.0 120.574897,24.361716,0.0 120.574841,24.361958,0.0 120.574751,24.36217,0.0 120.574553,24.362492,0.0 120.574357,24.362737,0.0 120.574129,24.362963,0.0 120.573735,24.36334,0.0 120.572844,24.363981,0.0 120.570776,24.365441,0.0 120.570688,24.365406,0.0 120.570413,24.365272,0.0 120.570245,24.365152,0.0 120.570115,24.36511,0.0 120.570046,24.365187,0.0 120.569862,24.365277,0.0 120.569725,24.365256,0.0 120.569671,24.365158,0.0 120.569687,24.365025,0.0 120.569802,24.364955,0.0 120.569933,24.364857,0.0 120.56991,24.364738,0.0 120.569826,24.364647,0.0 120.569329,24.36454,0.0 120.569177,24.364442,0.0 120.56907,24.364245,0.0 120.568948,24.364084,0.0 120.568811,24.364034,0.0 120.568535,24.364173,0.0 120.568259,24.364278,0.0 120.567976,24.364305,0.0 120.567808,24.364227,0.0 120.567229,24.363704,0.0 120.565489,24.362476,0.0 120.56539,24.362385,0.0 120.56536,24.36228,0.0 120.565169,24.362083,0.0 120.565055,24.361956,0.0 120.564948,24.361823,0.0 120.564918,24.361711,0.0 120.564911,24.361613,0.0 120.564995,24.361487,0.0 120.565087,24.361368,0.0 120.565294,24.361277,0.0 120.565447,24.361285,0.0 120.565545,24.36134,0.0 120.565692,24.3613,0.0 120.565799,24.361328,0.0 120.566051,24.361511,0.0 120.566379,24.361743,0.0 120.566722,24.361898,0.0 120.567028,24.362102,0.0 120.567119,24.362243,0.0 120.567226,24.362285,0.0 120.567516,24.362335,0.0 120.567723,24.362448,0.0 120.567879,24.362513,0.0 120.567914,24.362448,0.0 120.567922,24.362315,0.0 120.5669,24.361097,0.0 120.566726,24.360904,0.0 120.566603,24.360884,0.0 120.566531,24.360817,0.0 120.566408,24.36077,0.0 120.566277,24.360703,0.0 120.566234,24.36057,0.0 120.566177,24.360457,0.0 120.566177,24.360311,0.0 120.566229,24.360099,0.0 120.566229,24.359999,0.0 120.566149,24.359972,0.0 120.565953,24.360025,0.0 120.565808,24.360164,0.0 120.565772,24.360097,0.0 120.565765,24.359991,0.0 120.565823,24.359812,0.0 120.565991,24.35958,0.0 120.566631,24.35899,0.0 120.566654,24.358851,0.0 120.566632,24.358764,0.0 120.56641,24.358466,0.0</coordinates></LinearRing></outerBoundaryIs></Polygon><styleUrl>#spolygon-map</styleUrl></Placemark><Placemark><Polygon><outerBoundaryIs><LinearRing><coordinates>120.585441,24.389057,0.0 120.585531,24.389104,0.0 120.585597,24.389153,0.0 120.585773,24.389295,0.0 120.585973,24.389458,0.0 120.586095,24.389551,0.0 120.58621,24.389632,0.0 120.586294,24.389685,0.0 120.58638,24.389732,0.0 120.586554,24.389819,0.0 120.586726,24.389897,0.0 120.586838,24.389934,0.0 120.586909,24.389948,0.0 120.586983,24.389962,0.0 120.587077,24.389956,0.0 120.587156,24.38994,0.0 120.587567,24.389782,0.0 120.587739,24.389709,0.0 120.58793,24.389609,0.0 120.588032,24.389544,0.0 120.588121,24.389477,0.0 120.588205,24.389403,0.0 120.588289,24.389334,0.0 120.588355,24.38929,0.0 120.588457,24.389229,0.0 120.588807,24.389065,0.0 120.589004,24.389006,0.0 120.589157,24.388979,0.0 120.589288,24.38898,0.0 120.58939,24.389,0.0 120.589556,24.389054,0.0 120.589659,24.389081,0.0 120.589725,24.389074,0.0 120.590162,24.388922,0.0 120.590322,24.388876,0.0 120.590432,24.388863,0.0 120.591342,24.388865,0.0 120.591633,24.388886,0.0 120.592085,24.388921,0.0 120.592238,24.388914,0.0 120.592391,24.388888,0.0 120.592631,24.388809,0.0 120.592828,24.388709,0.0 120.592909,24.388623,0.0 120.592953,24.388523,0.0 120.592974,24.388401,0.0 120.592983,24.388263,0.0 120.592954,24.388123,0.0 120.592846,24.387782,0.0 120.592831,24.387702,0.0 120.592839,24.387609,0.0 120.592861,24.387522,0.0 120.592935,24.387362,0.0 120.593022,24.387189,0.0 120.59314,24.387009,0.0 120.593432,24.386583,0.0 120.593552,24.386402,0.0 120.593608,24.386317,0.0 120.593637,24.386237,0.0 120.593674,24.386057,0.0 120.593755,24.385824,0.0 120.593799,24.38571,0.0 120.593843,24.38563,0.0 120.593881,24.385591,0.0 120.593938,24.385531,0.0 120.594026,24.385484,0.0 120.594167,24.385441,0.0 120.594519,24.385363,0.0 120.594891,24.384649,0.0 120.595161,24.384162,0.0 120.595281,24.383969,0.0 120.5954,24.383836,0.0 120.595513,24.383762,0.0 120.595745,24.383672,0.0 120.596058,24.383614,0.0 120.596408,24.383583,0.0 120.59676,24.383548,0.0 120.597112,24.383573,0.0 120.597517,24.383622,0.0 120.597855,24.383694,0.0 120.598298,24.383815,0.0 120.598715,24.384043,0.0 120.599145,24.384271,0.0 120.599379,24.384355,0.0 120.599571,24.384398,0.0 120.599872,24.384428,0.0 120.600144,24.384415,0.0 120.600379,24.38438,0.0 120.600573,24.384321,0.0 120.600797,24.38419,0.0 120.601046,24.383987,0.0 120.601932,24.383119,0.0 120.602719,24.382383,0.0 120.60324,24.381945,0.0 120.603792,24.381458,0.0 120.604433,24.380943,0.0 120.604803,24.380669,0.0 120.605104,24.380464,0.0 120.605531,24.38028,0.0 120.606226,24.38007,0.0 120.607078,24.379837,0.0 120.608084,24.379576,0.0 120.608867,24.379406,0.0 120.609443,24.379315,0.0 120.609756,24.37923,0.0 120.610154,24.379087,0.0 120.6107,24.378813,0.0 120.610919,24.37866,0.0 120.611082,24.37858,0.0 120.611264,24.378528,0.0 120.611483,24.378528,0.0 120.612084,24.378616,0.0 120.612472,24.378589,0.0 120.612997,24.378503,0.0 120.613658,24.378353,0.0 120.614237,24.378203,0.0 120.614801,24.378015,0.0 120.615056,24.377966,0.0 120.61544,24.37797,0.0 120.615753,24.378007,0.0 120.616053,24.37808,0.0 120.616895,24.378379,0.0 120.617177,24.378468,0.0 120.61739,24.378521,0.0 120.617645,24.378533,0.0 120.619187,24.378209,0.0 120.62106,24.377828,0.0 120.621148,24.377809,0.0 120.621286,24.378354,0.0 120.621558,24.379109,0.0 120.623445,24.378734,0.0 120.626227,24.378168,0.0 120.627205,24.377982,0.0 120.628328,24.377769,0.0 120.629231,24.377586,0.0 120.631158,24.377155,0.0 120.633202,24.376718,0.0 120.633357,24.376601,0.0 120.633401,24.376572,0.0 120.63345,24.376529,0.0 120.633529,24.376448,0.0 120.63464,24.376225,0.0 120.635492,24.376078,0.0 120.635575,24.376078,0.0 120.635659,24.376103,0.0 120.635781,24.376159,0.0 120.636324,24.376405,0.0 120.637725,24.377024,0.0 120.63821,24.377263,0.0 120.637871,24.377835,0.0 120.637676,24.378185,0.0 120.637371,24.378692,0.0 120.637011,24.379357,0.0 120.637001,24.379374,0.0 120.636789,24.379739,0.0 120.636443,24.379862,0.0 120.636333,24.379887,0.0 120.636233,24.379886,0.0 120.636123,24.37987,0.0 120.635941,24.379804,0.0 120.635836,24.379766,0.0 120.634874,24.379419,0.0 120.63346,24.378919,0.0 120.63315,24.378991,0.0 120.63211,24.379128,0.0 120.631668,24.379188,0.0 120.631525,24.379292,0.0 120.631202,24.379575,0.0 120.630944,24.379803,0.0 120.630179,24.380478,0.0 120.629665,24.38093,0.0 120.629518,24.381025,0.0 120.629366,24.38109,0.0 120.629176,24.381134,0.0 120.62869,24.381167,0.0 120.62744,24.381279,0.0 120.625889,24.381427,0.0 120.623145,24.381661,0.0 120.621829,24.38179,0.0 120.621799,24.381459,0.0 120.621776,24.381337,0.0 120.621659,24.38084,0.0 120.621636,24.38079,0.0 120.621589,24.380768,0.0 120.621526,24.380782,0.0 120.621227,24.380947,0.0 120.620362,24.381455,0.0 120.619543,24.382151,0.0 120.619247,24.382398,0.0 120.616187,24.383049,0.0 120.610979,24.384124,0.0 120.608658,24.384619,0.0 120.608573,24.384652,0.0 120.608203,24.38489,0.0 120.607627,24.385277,0.0 120.606969,24.385701,0.0 120.606818,24.385764,0.0 120.603667,24.386432,0.0 120.603516,24.386482,0.0 120.603393,24.386595,0.0 120.602967,24.386982,0.0 120.60202,24.387882,0.0 120.6019,24.387984,0.0 120.601805,24.388052,0.0 120.601636,24.388145,0.0 120.601362,24.388269,0.0 120.600402,24.388656,0.0 120.598936,24.389241,0.0 120.598744,24.389353,0.0 120.597838,24.390065,0.0 120.597522,24.390215,0.0 120.597495,24.390278,0.0 120.597522,24.390381,0.0 120.597603,24.390692,0.0 120.597623,24.390872,0.0 120.597547,24.391155,0.0 120.59734,24.391757,0.0 120.597064,24.39242,0.0 120.597004,24.392626,0.0 120.59698,24.392784,0.0 120.596993,24.393072,0.0 120.596937,24.393573,0.0 120.596839,24.39405,0.0 120.596839,24.394351,0.0 120.596892,24.394664,0.0 120.596851,24.394877,0.0 120.59674,24.39524,0.0 120.596505,24.395779,0.0 120.596354,24.395992,0.0 120.596011,24.396292,0.0 120.595667,24.396679,0.0 120.595324,24.397042,0.0 120.59494,24.397279,0.0 120.59472,24.397479,0.0 120.594473,24.397792,0.0 120.594226,24.397992,0.0 120.593087,24.398703,0.0 120.592538,24.399091,0.0 120.592444,24.399195,0.0 120.592373,24.399366,0.0 120.592277,24.399479,0.0 120.592035,24.39964,0.0 120.591811,24.399793,0.0 120.591632,24.399938,0.0 120.591503,24.400053,0.0 120.591363,24.400212,0.0 120.59128,24.400323,0.0 120.591206,24.400467,0.0 120.591124,24.40069,0.0 120.591048,24.40088,0.0 120.590949,24.401058,0.0 120.590864,24.401167,0.0 120.590793,24.401219,0.0 120.590711,24.401241,0.0 120.590603,24.401254,0.0 120.590385,24.401245,0.0 120.590112,24.401223,0.0 120.589992,24.400975,0.0 120.589883,24.400843,0.0 120.58979,24.400727,0.0 120.58969,24.400441,0.0 120.589707,24.400294,0.0 120.589674,24.400054,0.0 120.589615,24.399847,0.0 120.589607,24.399775,0.0 120.589692,24.399667,0.0 120.589777,24.399613,0.0 120.589828,24.399481,0.0 120.58998,24.39935,0.0 120.590082,24.399281,0.0 120.590192,24.399289,0.0 120.590377,24.399367,0.0 120.59047,24.399375,0.0 120.590514,24.399339,0.0 120.590555,24.399305,0.0 120.590496,24.399189,0.0 120.590446,24.399073,0.0 120.590354,24.398794,0.0 120.590304,24.398508,0.0 120.590195,24.398214,0.0 120.59012,24.398113,0.0 120.589926,24.397981,0.0 120.589833,24.397764,0.0 120.589733,24.397586,0.0 120.589716,24.397384,0.0 120.589708,24.397206,0.0 120.589684,24.397051,0.0 120.589583,24.396796,0.0 120.58944,24.396656,0.0 120.589389,24.396563,0.0 120.589432,24.396478,0.0 120.589491,24.396393,0.0 120.589509,24.396262,0.0 120.589475,24.396161,0.0 120.589408,24.396099,0.0 120.58929,24.395983,0.0 120.589071,24.395866,0.0 120.58897,24.395788,0.0 120.588877,24.39561,0.0 120.588768,24.39544,0.0 120.588726,24.395207,0.0 120.588702,24.394774,0.0 120.588636,24.394495,0.0 120.588526,24.39434,0.0 120.58841,24.393907,0.0 120.588436,24.393512,0.0 120.588436,24.393404,0.0 120.588395,24.393326,0.0 120.588311,24.393156,0.0 120.588258,24.393102,0.0 120.588218,24.392916,0.0 120.588075,24.392799,0.0 120.587923,24.392714,0.0 120.587864,24.392667,0.0 120.587873,24.392597,0.0 120.587967,24.392532,0.0 120.588034,24.392443,0.0 120.588178,24.39242,0.0 120.588245,24.392397,0.0 120.588196,24.391987,0.0 120.588151,24.391661,0.0 120.588121,24.391531,0.0 120.588065,24.391451,0.0 120.587845,24.391307,0.0 120.587033,24.391429,0.0 120.586908,24.391476,0.0 120.586805,24.391524,0.0 120.586691,24.391557,0.0 120.586358,24.391598,0.0 120.585925,24.391638,0.0 120.585793,24.391609,0.0 120.585688,24.391546,0.0 120.585671,24.391471,0.0 120.585689,24.391383,0.0 120.585735,24.391329,0.0 120.585835,24.391304,0.0 120.586086,24.391292,0.0 120.586573,24.391223,0.0 120.586762,24.391218,0.0 120.586856,24.391236,0.0 120.587017,24.391264,0.0 120.587895,24.39116,0.0 120.588268,24.391417,0.0 120.588713,24.391262,0.0 120.58869,24.391207,0.0 120.589034,24.391081,0.0 120.588936,24.390689,0.0 120.588481,24.390807,0.0 120.588462,24.390735,0.0 120.588734,24.39066,0.0 120.588715,24.390622,0.0 120.588701,24.39061,0.0 120.588688,24.390592,0.0 120.588694,24.390562,0.0 120.588698,24.390544,0.0 120.588686,24.390508,0.0 120.588669,24.390473,0.0 120.58864,24.390467,0.0 120.588626,24.39045,0.0 120.588626,24.390421,0.0 120.588611,24.390413,0.0 120.588393,24.390472,0.0 120.588367,24.390396,0.0 120.588812,24.39027,0.0 120.588676,24.389759,0.0 120.588208,24.38986,0.0 120.587805,24.38997,0.0 120.587827,24.39071,0.0 120.587871,24.390731,0.0 120.587923,24.390757,0.0 120.587983,24.390786,0.0 120.587994,24.390834,0.0 120.587987,24.39087,0.0 120.587955,24.390922,0.0 120.587902,24.390966,0.0 120.587819,24.390998,0.0 120.587769,24.391006,0.0 120.587682,24.390999,0.0 120.587611,24.390989,0.0 120.58757,24.39097,0.0 120.587552,24.390946,0.0 120.587547,24.390898,0.0 120.587585,24.390577,0.0 120.587571,24.390449,0.0 120.587547,24.390279,0.0 120.587478,24.390204,0.0 120.587389,24.39021,0.0 120.58699,24.390353,0.0 120.586923,24.390424,0.0 120.586852,24.390456,0.0 120.586726,24.390478,0.0 120.586669,24.390476,0.0 120.585958,24.39042,0.0 120.585908,24.390374,0.0 120.585842,24.390226,0.0 120.585787,24.390063,0.0 120.58569,24.389752,0.0 120.585528,24.389236,0.0 120.585441,24.389057,0.0</coordinates></LinearRing></outerBoundaryIs></Polygon><styleUrl>#spolygon-map</styleUrl></Placemark><Placemark><Polygon><outerBoundaryIs><LinearRing><coordinates>120.587072,24.372391,0.0 120.58726,24.372242,0.0 120.587651,24.371797,0.0 120.588283,24.370971,0.0 120.588659,24.37053,0.0 120.588878,24.370283,0.0 120.589062,24.370094,0.0 120.589314,24.36987,0.0 120.589624,24.369628,0.0 120.589926,24.36945,0.0 120.590458,24.369192,0.0 120.590857,24.369031,0.0 120.591115,24.368934,0.0 120.59131,24.368862,0.0 120.591407,24.368797,0.0 120.591488,24.368635,0.0 120.591577,24.368376,0.0 120.591667,24.368043,0.0 120.591793,24.367346,0.0 120.591838,24.367151,0.0 120.5919,24.366989,0.0 120.591998,24.366811,0.0 120.592105,24.366641,0.0 120.592256,24.366471,0.0 120.592425,24.366325,0.0 120.59262,24.36618,0.0 120.593162,24.365816,0.0 120.593419,24.365663,0.0 120.593685,24.36555,0.0 120.593933,24.365469,0.0 120.594146,24.365421,0.0 120.594324,24.365402,0.0 120.594509,24.365398,0.0 120.594642,24.365366,0.0 120.594775,24.365309,0.0 120.594953,24.365204,0.0 120.595157,24.365043,0.0 120.595537,24.365312,0.0 120.595793,24.36558,0.0 120.595916,24.365661,0.0 120.596025,24.365695,0.0 120.59612,24.365735,0.0 120.596182,24.365776,0.0 120.596217,24.365841,0.0 120.596199,24.365922,0.0 120.596146,24.365995,0.0 120.595807,24.366165,0.0 120.595686,24.366271,0.0 120.595575,24.366433,0.0 120.595574,24.366636,0.0 120.595663,24.366684,0.0 120.596219,24.366886,0.0 120.596834,24.367052,0.0 120.597322,24.367063,0.0 120.597845,24.366996,0.0 120.598424,24.366887,0.0 120.598807,24.366861,0.0 120.599574,24.366936,0.0 120.599942,24.366984,0.0 120.600219,24.3671,0.0 120.600718,24.367399,0.0 120.601208,24.367599,0.0 120.601502,24.367672,0.0 120.602116,24.367707,0.0 120.602825,24.367581,0.0 120.603931,24.367177,0.0 120.60446,24.36705,0.0 120.60497,24.366968,0.0 120.605329,24.366957,0.0 120.606279,24.367028,0.0 120.606886,24.367036,0.0 120.607121,24.367043,0.0 120.608767,24.366686,0.0 120.611982,24.365981,0.0 120.612654,24.368705,0.0 120.612921,24.369839,0.0 120.61325,24.37121,0.0 120.613363,24.371678,0.0 120.613355,24.371714,0.0 120.61334,24.371734,0.0 120.613328,24.371741,0.0 120.613299,24.371763,0.0 120.613234,24.371774,0.0 120.613127,24.371765,0.0 120.612923,24.371704,0.0 120.61272,24.371606,0.0 120.612636,24.371563,0.0 120.612622,24.371558,0.0 120.612576,24.371552,0.0 120.612564,24.371552,0.0 120.612541,24.371556,0.0 120.612501,24.371567,0.0 120.612451,24.371572,0.0 120.612411,24.371571,0.0 120.612369,24.371578,0.0 120.612334,24.37158,0.0 120.612279,24.371609,0.0 120.612239,24.371659,0.0 120.61222,24.371684,0.0 120.612207,24.37172,0.0 120.612201,24.371749,0.0 120.612196,24.371776,0.0 120.612171,24.37183,0.0 120.612165,24.371858,0.0 120.612147,24.371903,0.0 120.612111,24.371975,0.0 120.612088,24.372031,0.0 120.612068,24.372076,0.0 120.612046,24.372115,0.0 120.612023,24.372175,0.0 120.612019,24.372248,0.0 120.612031,24.37227,0.0 120.612062,24.372304,0.0 120.612084,24.372311,0.0 120.612109,24.372313,0.0 120.612146,24.372316,0.0 120.612164,24.372311,0.0 120.612198,24.372311,0.0 120.612226,24.372318,0.0 120.612241,24.372332,0.0 120.612293,24.372357,0.0 120.61232,24.372368,0.0 120.612371,24.372377,0.0 120.612449,24.372384,0.0 120.61249,24.372372,0.0 120.612486,24.372382,0.0 120.612184,24.372769,0.0 120.611969,24.373026,0.0 120.611627,24.373373,0.0 120.611243,24.373708,0.0 120.610695,24.374113,0.0 120.610311,24.374385,0.0 120.609842,24.3747,0.0 120.609052,24.375208,0.0 120.608767,24.375391,0.0 120.608429,24.375583,0.0 120.60805,24.37575,0.0 120.607377,24.37596,0.0 120.605584,24.376329,0.0 120.605547,24.376344,0.0 120.605518,24.376373,0.0 120.6055,24.37644,0.0 120.605491,24.376482,0.0 120.605473,24.376531,0.0 120.605445,24.376565,0.0 120.605388,24.376587,0.0 120.605298,24.376615,0.0 120.605189,24.376639,0.0 120.605125,24.376631,0.0 120.605079,24.376589,0.0 120.605043,24.37653,0.0 120.604998,24.376472,0.0 120.604924,24.37645,0.0 120.602727,24.376928,0.0 120.600618,24.377356,0.0 120.59827,24.377841,0.0 120.596914,24.378127,0.0 120.596793,24.377623,0.0 120.596437,24.376214,0.0 120.596066,24.374793,0.0 120.595537,24.37257,0.0 120.59472,24.372911,0.0 120.593605,24.373378,0.0 120.592894,24.37366,0.0 120.591444,24.374297,0.0 120.590029,24.374901,0.0 120.589478,24.373859,0.0 120.588671,24.372317,0.0 120.587701,24.372755,0.0 120.587372,24.372896,0.0 120.587072,24.372391,0.0</coordinates></LinearRing></outerBoundaryIs></Polygon><styleUrl>#spolygon-map</styleUrl></Placemark><Placemark><Polygon><outerBoundaryIs><LinearRing><coordinates>120.597493,24.343615,0.0 120.597441,24.343974,0.0 120.597267,24.345161,0.0 120.597164,24.345813,0.0 120.59519,24.345577,0.0 120.594167,24.345443,0.0 120.593607,24.345449,0.0 120.591961,24.345747,0.0 120.591174,24.345873,0.0 120.591035,24.345841,0.0 120.59092,24.345788,0.0 120.590775,24.345683,0.0 120.59062,24.34549,0.0 120.590579,24.345341,0.0 120.590622,24.345064,0.0 120.590599,24.344912,0.0 120.590519,24.344829,0.0 120.590293,24.344693,0.0 120.590142,24.344541,0.0 120.590042,24.344509,0.0 120.589948,24.344529,0.0 120.58977,24.344662,0.0 120.589666,24.344718,0.0 120.58953,24.344724,0.0 120.589442,24.34466,0.0 120.589318,24.344424,0.0 120.589132,24.343981,0.0 120.588932,24.343675,0.0 120.588793,24.343567,0.0 120.588588,24.343496,0.0 120.588099,24.343452,0.0 120.587714,24.343444,0.0 120.587442,24.34345,0.0 120.587149,24.34342,0.0 120.586319,24.343826,0.0 120.585315,24.344192,0.0 120.58482,24.344384,0.0 120.584326,24.34464,0.0 120.583617,24.345002,0.0 120.583132,24.34528,0.0 120.58267,24.345505,0.0 120.582576,24.345521,0.0 120.582473,24.345527,0.0 120.581729,24.345525,0.0 120.581498,24.345544,0.0 120.581193,24.345697,0.0 120.581046,24.345724,0.0 120.580421,24.345706,0.0 120.580195,24.345706,0.0 120.580005,24.34575,0.0 120.579842,24.345802,0.0 120.579695,24.345833,0.0 120.579508,24.345872,0.0 120.579337,24.345897,0.0 120.578856,24.345943,0.0 120.578556,24.345963,0.0 120.578174,24.345991,0.0 120.57782,24.345997,0.0 120.577798,24.345658,0.0 120.577826,24.345499,0.0 120.577881,24.345341,0.0 120.578061,24.344971,0.0 120.578217,24.344702,0.0 120.578401,24.344294,0.0 120.578512,24.343967,0.0 120.578586,24.343652,0.0 120.578618,24.343319,0.0 120.57861,24.343035,0.0 120.578574,24.342792,0.0 120.578502,24.342583,0.0 120.578393,24.342357,0.0 120.578202,24.342081,0.0 120.578144,24.341973,0.0 120.578112,24.341888,0.0 120.578054,24.34172,0.0 120.577624,24.340791,0.0 120.577732,24.340725,0.0 120.577861,24.340625,0.0 120.578145,24.340241,0.0 120.578429,24.339832,0.0 120.57862,24.339559,0.0 120.578704,24.339465,0.0 120.578859,24.33939,0.0 120.579006,24.33934,0.0 120.579444,24.339241,0.0 120.579637,24.339198,0.0 120.579991,24.339152,0.0 120.580339,24.33911,0.0 120.580467,24.339077,0.0 120.580593,24.339014,0.0 120.58089,24.338737,0.0 120.58134,24.338276,0.0 120.581702,24.338013,0.0 120.582127,24.337772,0.0 120.5824,24.337583,0.0 120.582585,24.337421,0.0 120.582875,24.337093,0.0 120.582437,24.336525,0.0 120.582398,24.336459,0.0 120.582378,24.33638,0.0 120.582349,24.335642,0.0 120.582318,24.335441,0.0 120.581627,24.335529,0.0 120.581257,24.33556,0.0 120.581081,24.335525,0.0 120.580953,24.335449,0.0 120.580873,24.335331,0.0 120.580699,24.334997,0.0 120.580485,24.334431,0.0 120.580284,24.333742,0.0 120.580135,24.333207,0.0 120.580085,24.332914,0.0 120.580028,24.332439,0.0 120.580021,24.332182,0.0 120.580047,24.331929,0.0 120.580176,24.331835,0.0 120.580452,24.331533,0.0 120.580705,24.331297,0.0 120.580948,24.331085,0.0 120.581239,24.330775,0.0 120.581402,24.330542,0.0 120.581495,24.330394,0.0 120.581598,24.33029,0.0 120.581754,24.330157,0.0 120.58194,24.330004,0.0 120.582232,24.329768,0.0 120.582595,24.329469,0.0 120.58281,24.329239,0.0 120.583008,24.329005,0.0 120.58318,24.328841,0.0 120.583441,24.328575,0.0 120.583511,24.328417,0.0 120.583592,24.328156,0.0 120.583672,24.327777,0.0 120.583864,24.326714,0.0 120.583973,24.326003,0.0 120.58401,24.325586,0.0 120.58404,24.32548,0.0 120.58414,24.325349,0.0 120.584362,24.325174,0.0 120.584625,24.324919,0.0 120.584837,24.324758,0.0 120.585555,24.324297,0.0 120.586249,24.323816,0.0 120.58657,24.32343,0.0 120.586977,24.323687,0.0 120.587265,24.32387,0.0 120.587768,24.324201,0.0 120.588162,24.324491,0.0 120.588546,24.324847,0.0 120.58885,24.325261,0.0 120.589063,24.325534,0.0 120.589582,24.326242,0.0 120.590055,24.326961,0.0 120.590642,24.327762,0.0 120.591001,24.328289,0.0 120.591243,24.328639,0.0 120.591296,24.328694,0.0 120.591464,24.328963,0.0 120.591511,24.329024,0.0 120.591574,24.32915,0.0 120.591639,24.329227,0.0 120.591658,24.329248,0.0 120.591716,24.329273,0.0 120.591757,24.329282,0.0 120.591899,24.329305,0.0 120.59202,24.329296,0.0 120.592104,24.329294,0.0 120.59217,24.329296,0.0 120.592238,24.329317,0.0 120.592359,24.32938,0.0 120.592457,24.329455,0.0 120.592514,24.329473,0.0 120.592608,24.329496,0.0 120.592658,24.329494,0.0 120.592683,24.329494,0.0 120.592802,24.329564,0.0 120.593114,24.329854,0.0 120.593547,24.330241,0.0 120.593859,24.330592,0.0 120.594,24.330719,0.0 120.594025,24.330823,0.0 120.594024,24.330854,0.0 120.594029,24.330909,0.0 120.594034,24.330967,0.0 120.594056,24.331026,0.0 120.594082,24.331116,0.0 120.5941,24.331159,0.0 120.594125,24.331247,0.0 120.594142,24.331304,0.0 120.59416,24.331369,0.0 120.59417,24.331444,0.0 120.594179,24.331487,0.0 120.59419,24.331588,0.0 120.5942,24.331683,0.0 120.594203,24.33176,0.0 120.594207,24.331803,0.0 120.594233,24.331911,0.0 120.594247,24.331995,0.0 120.594263,24.332081,0.0 120.59428,24.332144,0.0 120.594309,24.3322,0.0 120.594342,24.332253,0.0 120.594436,24.332339,0.0 120.594474,24.332368,0.0 120.594499,24.332386,0.0 120.594527,24.332397,0.0 120.594565,24.33244,0.0 120.594589,24.332481,0.0 120.594595,24.332499,0.0 120.594629,24.332601,0.0 120.594636,24.332653,0.0 120.594635,24.332718,0.0 120.594633,24.332795,0.0 120.594639,24.332856,0.0 120.594653,24.332908,0.0 120.594676,24.332964,0.0 120.594689,24.332994,0.0 120.594705,24.333014,0.0 120.594762,24.333096,0.0 120.594887,24.333222,0.0 120.595047,24.333372,0.0 120.595192,24.333487,0.0 120.595239,24.333539,0.0 120.595263,24.333562,0.0 120.59529,24.333591,0.0 120.595335,24.333659,0.0 120.595368,24.3337,0.0 120.595439,24.333775,0.0 120.595491,24.333829,0.0 120.595515,24.333858,0.0 120.595587,24.333942,0.0 120.595649,24.333985,0.0 120.595718,24.334035,0.0 120.595773,24.334071,0.0 120.595812,24.334096,0.0 120.595856,24.334182,0.0 120.595858,24.334227,0.0 120.595817,24.334274,0.0 120.595778,24.334306,0.0 120.595676,24.33438,0.0 120.595609,24.33443,0.0 120.595544,24.334466,0.0 120.595473,24.334515,0.0 120.595431,24.334537,0.0 120.595313,24.334614,0.0 120.595273,24.334636,0.0 120.595207,24.334668,0.0 120.595168,24.334688,0.0 120.595129,24.33471,0.0 120.59509,24.334756,0.0 120.595038,24.334792,0.0 120.594986,24.334861,0.0 120.594971,24.334877,0.0 120.594952,24.334954,0.0 120.594948,24.335003,0.0 120.594943,24.335055,0.0 120.59494,24.335094,0.0 120.594932,24.335139,0.0 120.594922,24.335191,0.0 120.594917,24.335227,0.0 120.59492,24.335274,0.0 120.594916,24.335319,0.0 120.594919,24.335369,0.0 120.594925,24.335446,0.0 120.59494,24.335527,0.0 120.594954,24.335586,0.0 120.595011,24.335536,0.0 120.595191,24.335428,0.0 120.595615,24.335208,0.0 120.59595,24.335045,0.0 120.595961,24.335038,0.0 120.596,24.335036,0.0 120.596026,24.335054,0.0 120.596066,24.335104,0.0 120.596105,24.335176,0.0 120.596122,24.335212,0.0 120.596159,24.3353,0.0 120.596192,24.335363,0.0 120.596219,24.3354,0.0 120.59623,24.335406,0.0 120.596263,24.335416,0.0 120.596549,24.335321,0.0 120.596609,24.335315,0.0 120.596631,24.33534,0.0 120.596653,24.335385,0.0 120.596663,24.335426,0.0 120.596672,24.335471,0.0 120.596697,24.335536,0.0 120.596703,24.335559,0.0 120.59671,24.335613,0.0 120.596726,24.335712,0.0 120.596725,24.335848,0.0 120.596766,24.336029,0.0 120.596771,24.336065,0.0 120.596795,24.336114,0.0 120.596828,24.336155,0.0 120.596863,24.336196,0.0 120.596901,24.33623,0.0 120.596927,24.336266,0.0 120.596958,24.336302,0.0 120.596997,24.33635,0.0 120.597017,24.336379,0.0 120.597043,24.336427,0.0 120.597063,24.336537,0.0 120.597063,24.336571,0.0 120.597059,24.336609,0.0 120.597064,24.336637,0.0 120.59707,24.33667,0.0 120.597082,24.336729,0.0 120.597091,24.336779,0.0 120.597078,24.336804,0.0 120.596986,24.336833,0.0 120.59683,24.336911,0.0 120.59664,24.336999,0.0 120.596393,24.337127,0.0 120.5962,24.337266,0.0 120.595984,24.337424,0.0 120.595755,24.33766,0.0 120.595582,24.337847,0.0 120.595581,24.337931,0.0 120.595582,24.337998,0.0 120.595593,24.338086,0.0 120.595583,24.338188,0.0 120.595575,24.338199,0.0 120.595545,24.338235,0.0 120.595508,24.338271,0.0 120.595483,24.338282,0.0 120.595404,24.338354,0.0 120.595357,24.338433,0.0 120.595331,24.338499,0.0 120.595271,24.338598,0.0 120.595183,24.338801,0.0 120.595004,24.339155,0.0 120.594843,24.339439,0.0 120.59477,24.339556,0.0 120.594748,24.339578,0.0 120.594614,24.339745,0.0 120.594565,24.339795,0.0 120.594526,24.339858,0.0 120.594506,24.339887,0.0 120.594466,24.339946,0.0 120.594434,24.339984,0.0 120.594409,24.340029,0.0 120.594373,24.340117,0.0 120.594345,24.340166,0.0 120.594321,24.34023,0.0 120.594294,24.340259,0.0 120.594284,24.340272,0.0 120.594232,24.340322,0.0 120.594154,24.340407,0.0 120.594063,24.340473,0.0 120.594033,24.340529,0.0 120.593938,24.340689,0.0 120.593813,24.340944,0.0 120.593709,24.341156,0.0 120.593653,24.341372,0.0 120.593635,24.341413,0.0 120.593643,24.341453,0.0 120.593648,24.341463,0.0 120.593715,24.341521,0.0 120.593768,24.341546,0.0 120.593822,24.341558,0.0 120.5939,24.341617,0.0 120.594041,24.341694,0.0 120.594148,24.341744,0.0 120.594321,24.341803,0.0 120.594578,24.341894,0.0 120.594785,24.341994,0.0 120.595057,24.342164,0.0 120.595155,24.342209,0.0 120.595183,24.342225,0.0 120.595232,24.342245,0.0 120.595299,24.342284,0.0 120.5954,24.342341,0.0 120.595485,24.342377,0.0 120.595518,24.342397,0.0 120.595598,24.342434,0.0 120.595637,24.342461,0.0 120.595701,24.342511,0.0 120.595807,24.342615,0.0 120.595828,24.342624,0.0 120.595887,24.342708,0.0 120.595906,24.342726,0.0 120.595946,24.342787,0.0 120.595998,24.342855,0.0 120.596102,24.342945,0.0 120.59615,24.342991,0.0 120.596216,24.343038,0.0 120.596269,24.343086,0.0 120.596322,24.343133,0.0 120.596384,24.343194,0.0 120.596452,24.343253,0.0 120.596513,24.343314,0.0 120.596551,24.343351,0.0 120.596609,24.343403,0.0 120.596674,24.343437,0.0 120.596708,24.34345,0.0 120.596754,24.343477,0.0 120.596815,24.343502,0.0 120.596867,24.343521,0.0 120.596922,24.34353,0.0 120.597004,24.343528,0.0 120.597085,24.343524,0.0 120.597121,24.343526,0.0 120.59717,24.343531,0.0 120.59722,24.343551,0.0 120.597288,24.343562,0.0 120.597339,24.343578,0.0 120.597406,24.343603,0.0 120.597457,24.34361,0.0 120.597493,24.343615,0.0</coordinates></LinearRing></outerBoundaryIs></Polygon><styleUrl>#spolygon-map</styleUrl></Placemark><Placemark><Polygon><outerBoundaryIs><LinearRing><coordinates>120.595157,24.365043,0.0 120.595481,24.364746,0.0 120.595664,24.364604,0.0 120.595773,24.364537,0.0 120.59605,24.364432,0.0 120.596224,24.364339,0.0 120.596289,24.364291,0.0 120.596386,24.364188,0.0 120.596478,24.364063,0.0 120.59668,24.363729,0.0 120.596808,24.363512,0.0 120.596992,24.36327,0.0 120.597175,24.363086,0.0 120.597321,24.362961,0.0 120.59744,24.362886,0.0 120.597577,24.362836,0.0 120.597714,24.362812,0.0 120.597924,24.362779,0.0 120.598445,24.362738,0.0 120.598689,24.3627,0.0 120.598974,24.362631,0.0 120.599285,24.362532,0.0 120.599439,24.362446,0.0 120.599568,24.362348,0.0 120.599651,24.362223,0.0 120.599719,24.36208,0.0 120.599761,24.361931,0.0 120.599799,24.361697,0.0 120.599799,24.361563,0.0 120.599764,24.36127,0.0 120.599773,24.361095,0.0 120.599801,24.360961,0.0 120.599856,24.360836,0.0 120.59993,24.360694,0.0 120.600021,24.360544,0.0 120.600186,24.360327,0.0 120.600324,24.36021,0.0 120.600507,24.360085,0.0 120.600898,24.359867,0.0 120.601357,24.359636,0.0 120.601745,24.359444,0.0 120.60207,24.359286,0.0 120.602289,24.359203,0.0 120.602518,24.35912,0.0 120.602892,24.359021,0.0 120.603088,24.35895,0.0 120.603265,24.358855,0.0 120.603486,24.358713,0.0 120.603615,24.358613,0.0 120.603723,24.358454,0.0 120.603816,24.358279,0.0 120.60387,24.358135,0.0 120.603909,24.35797,0.0 120.603931,24.357702,0.0 120.603953,24.357322,0.0 120.603958,24.357306,0.0 120.603992,24.35732,0.0 120.604065,24.357318,0.0 120.604097,24.357309,0.0 120.604151,24.357298,0.0 120.604213,24.357275,0.0 120.604294,24.357246,0.0 120.60436,24.357199,0.0 120.604394,24.357172,0.0 120.604444,24.357127,0.0 120.604526,24.357055,0.0 120.604589,24.357008,0.0 120.604603,24.356978,0.0 120.604615,24.356967,0.0 120.60464,24.356938,0.0 120.60466,24.356902,0.0 120.604707,24.356857,0.0 120.604741,24.356807,0.0 120.604779,24.356778,0.0 120.604874,24.356697,0.0 120.604905,24.356666,0.0 120.604956,24.356621,0.0 120.60497,24.356602,0.0 120.604985,24.35658,0.0 120.605017,24.356535,0.0 120.605036,24.356494,0.0 120.605051,24.356479,0.0 120.605061,24.356476,0.0 120.605106,24.356499,0.0 120.605161,24.356526,0.0 120.605196,24.35656,0.0 120.605234,24.356605,0.0 120.605273,24.356644,0.0 120.605301,24.356669,0.0 120.605364,24.356737,0.0 120.605436,24.356807,0.0 120.605498,24.35687,0.0 120.605566,24.356947,0.0 120.605603,24.356983,0.0 120.605639,24.357024,0.0 120.605702,24.35709,0.0 120.605714,24.357119,0.0 120.605763,24.357187,0.0 120.605792,24.357264,0.0 120.605819,24.357322,0.0 120.605829,24.357359,0.0 120.605839,24.357485,0.0 120.605824,24.357535,0.0 120.605801,24.357596,0.0 120.605788,24.357616,0.0 120.605748,24.357663,0.0 120.60571,24.35771,0.0 120.605692,24.35774,0.0 120.60566,24.357801,0.0 120.605636,24.357837,0.0 120.605615,24.357886,0.0 120.605594,24.357922,0.0 120.605571,24.357983,0.0 120.605543,24.358028,0.0 120.605521,24.358064,0.0 120.605507,24.358091,0.0 120.605459,24.358179,0.0 120.605452,24.3582,0.0 120.605442,24.358245,0.0 120.605443,24.358326,0.0 120.605445,24.358337,0.0 120.605461,24.358373,0.0 120.605484,24.358407,0.0 120.605518,24.358453,0.0 120.605569,24.358491,0.0 120.605583,24.358507,0.0 120.605573,24.358539,0.0 120.605517,24.358561,0.0 120.605487,24.358581,0.0 120.605426,24.358626,0.0 120.605407,24.358644,0.0 120.605386,24.35868,0.0 120.605371,24.358714,0.0 120.605368,24.358755,0.0 120.605357,24.3588,0.0 120.605349,24.358822,0.0 120.605341,24.358856,0.0 120.605353,24.358908,0.0 120.605398,24.358933,0.0 120.605437,24.358926,0.0 120.605473,24.35892,0.0 120.605507,24.358911,0.0 120.60556,24.3589,0.0 120.605599,24.358893,0.0 120.605682,24.358886,0.0 120.60572,24.35888,0.0 120.605768,24.358875,0.0 120.605812,24.35888,0.0 120.605852,24.358882,0.0 120.605882,24.358889,0.0 120.605933,24.358896,0.0 120.605956,24.358907,0.0 120.60599,24.358903,0.0 120.606002,24.358896,0.0 120.606052,24.358863,0.0 120.606086,24.358833,0.0 120.606246,24.358739,0.0 120.606384,24.358672,0.0 120.606427,24.35864,0.0 120.606578,24.358616,0.0 120.606732,24.35858,0.0 120.60682,24.358546,0.0 120.606981,24.358456,0.0 120.607181,24.358364,0.0 120.607338,24.358311,0.0 120.607701,24.358235,0.0 120.607881,24.358197,0.0 120.607938,24.358211,0.0 120.607949,24.358235,0.0 120.608004,24.358425,0.0 120.608088,24.358739,0.0 120.60813,24.358854,0.0 120.608267,24.359205,0.0 120.608317,24.359451,0.0 120.608171,24.359608,0.0 120.607967,24.359653,0.0 120.607743,24.359698,0.0 120.607329,24.3598,0.0 120.606961,24.359908,0.0 120.606688,24.360022,0.0 120.606532,24.360053,0.0 120.60619,24.360208,0.0 120.605958,24.360289,0.0 120.605754,24.360372,0.0 120.605673,24.360453,0.0 120.605458,24.360592,0.0 120.605436,24.360626,0.0 120.605427,24.360658,0.0 120.60542,24.360705,0.0 120.605441,24.36075,0.0 120.605492,24.360809,0.0 120.605591,24.360886,0.0 120.605703,24.360941,0.0 120.605818,24.360972,0.0 120.605958,24.360995,0.0 120.606073,24.360993,0.0 120.606234,24.361055,0.0 120.606656,24.361115,0.0 120.606791,24.361135,0.0 120.608123,24.361335,0.0 120.608262,24.361374,0.0 120.608317,24.361427,0.0 120.608381,24.361489,0.0 120.608474,24.361593,0.0 120.608528,24.361731,0.0 120.608561,24.361844,0.0 120.60861,24.362002,0.0 120.608624,24.362122,0.0 120.608659,24.362228,0.0 120.608738,24.362355,0.0 120.608868,24.362457,0.0 120.608999,24.362543,0.0 120.609172,24.362602,0.0 120.609326,24.362625,0.0 120.609426,24.362618,0.0 120.609617,24.36256,0.0 120.609764,24.362524,0.0 120.609926,24.362477,0.0 120.610214,24.362476,0.0 120.610253,24.362465,0.0 120.610286,24.362458,0.0 120.610335,24.362451,0.0 120.610368,24.362447,0.0 120.610412,24.362438,0.0 120.61044,24.362422,0.0 120.610456,24.362407,0.0 120.61048,24.362393,0.0 120.610508,24.36238,0.0 120.610532,24.362357,0.0 120.610562,24.362348,0.0 120.610582,24.362353,0.0 120.610601,24.362366,0.0 120.610613,24.36238,0.0 120.610639,24.362431,0.0 120.610645,24.362443,0.0 120.610662,24.362493,0.0 120.610678,24.362529,0.0 120.610684,24.362543,0.0 120.61069,24.362617,0.0 120.610695,24.362667,0.0 120.610695,24.362802,0.0 120.610691,24.362843,0.0 120.610697,24.362933,0.0 120.610749,24.363087,0.0 120.610788,24.363166,0.0 120.610878,24.363286,0.0 120.610891,24.363335,0.0 120.610944,24.363507,0.0 120.611003,24.363758,0.0 120.611123,24.364162,0.0 120.611128,24.364223,0.0 120.611123,24.364275,0.0 120.611117,24.364334,0.0 120.611109,24.364404,0.0 120.611087,24.364496,0.0 120.61104,24.364559,0.0 120.610887,24.364791,0.0 120.610759,24.364987,0.0 120.610731,24.36505,0.0 120.610706,24.365089,0.0 120.610695,24.365118,0.0 120.610702,24.365175,0.0 120.610708,24.365186,0.0 120.610743,24.365202,0.0 120.610785,24.365229,0.0 120.610848,24.365256,0.0 120.611352,24.36544,0.0 120.611902,24.365656,0.0 120.611982,24.365981,0.0 120.608767,24.366686,0.0 120.607121,24.367043,0.0 120.606886,24.367036,0.0 120.606279,24.367028,0.0 120.605329,24.366957,0.0 120.60497,24.366968,0.0 120.60446,24.36705,0.0 120.603931,24.367177,0.0 120.602825,24.367581,0.0 120.602116,24.367707,0.0 120.601502,24.367672,0.0 120.601208,24.367599,0.0 120.600718,24.367399,0.0 120.600219,24.3671,0.0 120.599942,24.366984,0.0 120.599574,24.366936,0.0 120.598807,24.366861,0.0 120.598424,24.366887,0.0 120.597845,24.366996,0.0 120.597322,24.367063,0.0 120.596834,24.367052,0.0 120.596219,24.366886,0.0 120.595663,24.366684,0.0 120.595574,24.366636,0.0 120.595575,24.366433,0.0 120.595686,24.366271,0.0 120.595807,24.366165,0.0 120.596146,24.365995,0.0 120.596199,24.365922,0.0 120.596217,24.365841,0.0 120.596182,24.365776,0.0 120.59612,24.365735,0.0 120.596025,24.365695,0.0 120.595916,24.365661,0.0 120.595793,24.36558,0.0 120.595537,24.365312,0.0 120.595157,24.365043,0.0</coordinates></LinearRing></outerBoundaryIs></Polygon><styleUrl>#spolygon-map</styleUrl></Placemark><Placemark><Polygon><outerBoundaryIs><LinearRing><coordinates>120.561842,24.350361,0.0 120.563323,24.349471,0.0 120.563542,24.349362,0.0 120.563725,24.349288,0.0 120.563908,24.349238,0.0 120.564154,24.34918,0.0 120.564364,24.349147,0.0 120.564584,24.349123,0.0 120.564794,24.349107,0.0 120.565004,24.349107,0.0 120.565122,24.349091,0.0 120.565241,24.349052,0.0 120.565515,24.348877,0.0 120.565684,24.348713,0.0 120.56586,24.348498,0.0 120.566197,24.348174,0.0 120.566371,24.348064,0.0 120.566716,24.34785,0.0 120.566843,24.347761,0.0 120.566946,24.347664,0.0 120.567026,24.34756,0.0 120.56709,24.347441,0.0 120.567173,24.347185,0.0 120.56721,24.346967,0.0 120.567234,24.346809,0.0 120.567232,24.346333,0.0 120.567234,24.345836,0.0 120.56716,24.345654,0.0 120.567124,24.345512,0.0 120.567116,24.345312,0.0 120.567154,24.345166,0.0 120.567217,24.345035,0.0 120.56731,24.344922,0.0 120.56743,24.344774,0.0 120.567604,24.344623,0.0 120.567904,24.344427,0.0 120.568022,24.344386,0.0 120.568123,24.344378,0.0 120.568259,24.344429,0.0 120.568415,24.344451,0.0 120.568506,24.344455,0.0 120.568772,24.344441,0.0 120.569262,24.344413,0.0 120.569619,24.344378,0.0 120.570128,24.344348,0.0 120.570322,24.344342,0.0 120.570496,24.344318,0.0 120.570649,24.344293,0.0 120.5708,24.34426,0.0 120.570989,24.344202,0.0 120.571154,24.344119,0.0 120.571263,24.344036,0.0 120.571553,24.343781,0.0 120.571675,24.343719,0.0 120.572254,24.343532,0.0 120.572408,24.343433,0.0 120.57249,24.343345,0.0 120.572716,24.343049,0.0 120.572987,24.342728,0.0 120.573221,24.342481,0.0 120.573743,24.342028,0.0 120.57408,24.341772,0.0 120.574338,24.341603,0.0 120.574612,24.34147,0.0 120.575257,24.341204,0.0 120.575662,24.341052,0.0 120.576182,24.340844,0.0 120.576573,24.340725,0.0 120.576686,24.340706,0.0 120.576838,24.34074,0.0 120.577079,24.340783,0.0 120.577334,24.340825,0.0 120.577489,24.340826,0.0 120.577624,24.340791,0.0 120.578054,24.34172,0.0 120.578112,24.341888,0.0 120.578144,24.341973,0.0 120.578202,24.342081,0.0 120.578393,24.342357,0.0 120.578502,24.342583,0.0 120.578574,24.342792,0.0 120.57861,24.343035,0.0 120.578618,24.343319,0.0 120.578586,24.343652,0.0 120.578512,24.343967,0.0 120.578401,24.344294,0.0 120.578217,24.344702,0.0 120.578061,24.344971,0.0 120.577881,24.345341,0.0 120.577826,24.345499,0.0 120.577798,24.345658,0.0 120.57782,24.345997,0.0 120.578005,24.346923,0.0 120.578234,24.347637,0.0 120.578385,24.348032,0.0 120.578614,24.348482,0.0 120.578753,24.34895,0.0 120.5788,24.349295,0.0 120.578774,24.349909,0.0 120.578721,24.350107,0.0 120.578609,24.350282,0.0 120.578451,24.350452,0.0 120.57805,24.350733,0.0 120.576762,24.351707,0.0 120.576579,24.351848,0.0 120.576323,24.352124,0.0 120.576131,24.352257,0.0 120.575756,24.352507,0.0 120.575609,24.352648,0.0 120.575493,24.35282,0.0 120.57535,24.353052,0.0 120.575236,24.353204,0.0 120.575117,24.35332,0.0 120.574915,24.353445,0.0 120.574513,24.353728,0.0 120.573708,24.354203,0.0 120.572995,24.354552,0.0 120.57284,24.354643,0.0 120.572108,24.35516,0.0 120.570909,24.355917,0.0 120.566509,24.358411,0.0 120.56641,24.358466,0.0 120.566329,24.358358,0.0 120.566032,24.358158,0.0 120.565916,24.358098,0.0 120.565815,24.358078,0.0 120.565415,24.358316,0.0 120.565088,24.35862,0.0 120.564709,24.359131,0.0 120.56457,24.359396,0.0 120.5645,24.359435,0.0 120.564447,24.359376,0.0 120.564448,24.358944,0.0 120.564471,24.358798,0.0 120.564403,24.358634,0.0 120.564218,24.358412,0.0 120.564088,24.358338,0.0 120.563972,24.358345,0.0 120.56379,24.35853,0.0 120.563724,24.358557,0.0 120.563696,24.358463,0.0 120.563732,24.358344,0.0 120.563878,24.358065,0.0 120.564002,24.357886,0.0 120.564003,24.357807,0.0 120.563916,24.357773,0.0 120.563697,24.357965,0.0 120.563269,24.358216,0.0 120.563152,24.358389,0.0 120.563035,24.358555,0.0 120.562977,24.358521,0.0 120.562934,24.358428,0.0 120.562928,24.358302,0.0 120.562884,24.358255,0.0 120.562899,24.358136,0.0 120.563001,24.35805,0.0 120.563153,24.358023,0.0 120.563321,24.357825,0.0 120.563299,24.357738,0.0 120.563191,24.357671,0.0 120.563053,24.357618,0.0 120.562915,24.357651,0.0 120.562741,24.357717,0.0 120.562668,24.35769,0.0 120.562625,24.357617,0.0 120.562655,24.357437,0.0 120.56275,24.357278,0.0 120.562815,24.357225,0.0 120.56291,24.357186,0.0 120.563004,24.357186,0.0 120.563054,24.357239,0.0 120.56317,24.357259,0.0 120.56325,24.357226,0.0 120.563461,24.357074,0.0 120.563563,24.357068,0.0 120.563584,24.357161,0.0 120.563627,24.357374,0.0 120.56375,24.357494,0.0 120.563967,24.357594,0.0 120.564148,24.357601,0.0 120.564577,24.357423,0.0 120.564857,24.357269,0.0 120.564973,24.357201,0.0 120.565072,24.357103,0.0 120.565164,24.356892,0.0 120.565263,24.356741,0.0 120.565462,24.356643,0.0 120.565792,24.35647,0.0 120.566197,24.356433,0.0 120.566585,24.35645,0.0 120.56675,24.356389,0.0 120.566916,24.356231,0.0 120.565824,24.355282,0.0 120.565294,24.35485,0.0 120.565171,24.354661,0.0 120.565081,24.354426,0.0 120.564959,24.354131,0.0 120.564728,24.353949,0.0 120.564547,24.353775,0.0 120.564235,24.353365,0.0 120.563002,24.351835,0.0 120.562303,24.350977,0.0 120.562046,24.350634,0.0 120.561842,24.350361,0.0</coordinates></LinearRing></outerBoundaryIs></Polygon><styleUrl>#spolygon-map</styleUrl></Placemark></Document>
</kml>
