<?xml version="1.0" encoding="UTF-8"?>
<kml xmlns="http://www.opengis.net/kml/2.2">
	<Document>
		<name>臺東縣大武鄉</name>
		<Style id="spolygon">
			<LabelStyle>
				<scale>0.0</scale>
			</LabelStyle>
			<LineStyle>
				<color>330030ff</color>
				<width>0</width>
			</LineStyle>
			<PolyStyle>
				<color>330030ff</color>
			</PolyStyle>
		</Style>
		<StyleMap id="spolygon-map">
			<Pair>
				<key>normal</key>
				<styleUrl>#spolygon</styleUrl>
			</Pair>
		</StyleMap>
	<Placemark><Polygon><outerBoundaryIs><LinearRing><coordinates>120.925171,22.462905,0.0 120.924506,22.463,0.0 120.922876,22.463092,0.0 120.921474,22.463026,0.0 120.920262,22.462968,0.0 120.918617,22.462834,0.0 120.918285,22.462774,0.0 120.918267,22.462771,0.0 120.918058,22.462681,0.0 120.917965,22.462568,0.0 120.917927,22.462523,0.0 120.91758,22.461974,0.0 120.917209,22.461677,0.0 120.917122,22.461608,0.0 120.916827,22.461364,0.0 120.916806,22.461317,0.0 120.916748,22.461188,0.0 120.916681,22.460953,0.0 120.91665,22.460847,0.0 120.916654,22.460744,0.0 120.916657,22.46067,0.0 120.91671,22.460388,0.0 120.916756,22.460147,0.0 120.916767,22.45988,0.0 120.916774,22.4597,0.0 120.916659,22.459002,0.0 120.916355,22.458446,0.0 120.916348,22.458435,0.0 120.915943,22.457852,0.0 120.915518,22.457199,0.0 120.91522,22.456741,0.0 120.914883,22.456409,0.0 120.914792,22.456319,0.0 120.914631,22.456018,0.0 120.914649,22.45577,0.0 120.914819,22.455156,0.0 120.914989,22.454637,0.0 120.915035,22.454545,0.0 120.915186,22.454239,0.0 120.915258,22.453765,0.0 120.91527,22.453694,0.0 120.915285,22.453609,0.0 120.915276,22.453501,0.0 120.91516,22.453393,0.0 120.914651,22.453176,0.0 120.913526,22.452787,0.0 120.913392,22.452712,0.0 120.913303,22.452613,0.0 120.913295,22.452573,0.0 120.913285,22.452529,0.0 120.913281,22.452491,0.0 120.913277,22.452446,0.0 120.913232,22.452297,0.0 120.913179,22.452172,0.0 120.913018,22.45184,0.0 120.91275,22.451459,0.0 120.912524,22.451113,0.0 120.912462,22.450847,0.0 120.912453,22.450641,0.0 120.912453,22.450524,0.0 120.912449,22.450462,0.0 120.912445,22.450409,0.0 120.912424,22.450363,0.0 120.9124,22.450309,0.0 120.912311,22.450226,0.0 120.912221,22.450151,0.0 120.911579,22.449993,0.0 120.91107,22.449834,0.0 120.910887,22.449759,0.0 120.910829,22.449735,0.0 120.910759,22.449684,0.0 120.91074,22.449669,0.0 120.910668,22.449595,0.0 120.910588,22.449502,0.0 120.910534,22.449378,0.0 120.910513,22.449332,0.0 120.910472,22.449245,0.0 120.910223,22.448527,0.0 120.910107,22.44819,0.0 120.910097,22.448168,0.0 120.91007,22.448104,0.0 120.910061,22.448093,0.0 120.910042,22.448066,0.0 120.910009,22.448023,0.0 120.91,22.448012,0.0 120.909937,22.447957,0.0 120.909682,22.447423,0.0 120.909619,22.447291,0.0 120.909438,22.446934,0.0 120.909047,22.446431,0.0 120.908888,22.446207,0.0 120.908818,22.446107,0.0 120.908762,22.446026,0.0 120.908598,22.445832,0.0 120.908568,22.445794,0.0 120.908535,22.445746,0.0 120.908516,22.445663,0.0 120.908568,22.445473,0.0 120.908759,22.445216,0.0 120.908826,22.445126,0.0 120.909135,22.444631,0.0 120.909222,22.444504,0.0 120.909287,22.44441,0.0 120.909339,22.444259,0.0 120.909341,22.444209,0.0 120.909342,22.444188,0.0 120.909343,22.444157,0.0 120.909342,22.44414,0.0 120.909339,22.444083,0.0 120.909331,22.444054,0.0 120.909319,22.444015,0.0 120.909289,22.443942,0.0 120.909281,22.443922,0.0 120.909303,22.443839,0.0 120.909498,22.443765,0.0 120.909968,22.443589,0.0 120.910465,22.443325,0.0 120.910696,22.443203,0.0 120.910925,22.443085,0.0 120.91146,22.44281,0.0 120.911638,22.442674,0.0 120.911699,22.442628,0.0 120.912247,22.442362,0.0 120.912399,22.442232,0.0 120.912444,22.442195,0.0 120.912502,22.442121,0.0 120.91263,22.441958,0.0 120.912795,22.44163,0.0 120.912827,22.441459,0.0 120.912822,22.44135,0.0 120.912779,22.441246,0.0 120.912662,22.441057,0.0 120.912103,22.440485,0.0 120.912055,22.440451,0.0 120.912012,22.440393,0.0 120.912012,22.440391,0.0 120.912007,22.440338,0.0 120.912034,22.440268,0.0 120.912108,22.440047,0.0 120.91213,22.439939,0.0 120.912128,22.439887,0.0 120.912125,22.43981,0.0 120.912114,22.439736,0.0 120.912061,22.439666,0.0 120.911896,22.439641,0.0 120.911407,22.439503,0.0 120.910641,22.439365,0.0 120.910189,22.439339,0.0 120.909679,22.439364,0.0 120.909615,22.439353,0.0 120.909599,22.439347,0.0 120.909567,22.439335,0.0 120.909482,22.439215,0.0 120.909455,22.439161,0.0 120.90936,22.438969,0.0 120.909114,22.438623,0.0 120.908954,22.43839,0.0 120.908929,22.438336,0.0 120.908853,22.438174,0.0 120.908625,22.437715,0.0 120.908476,22.437379,0.0 120.908434,22.43728,0.0 120.908322,22.437017,0.0 120.908227,22.43685,0.0 120.908174,22.436789,0.0 120.908161,22.436782,0.0 120.908053,22.436724,0.0 120.907972,22.436654,0.0 120.907937,22.436624,0.0 120.907834,22.436529,0.0 120.907808,22.436505,0.0 120.907777,22.436467,0.0 120.907701,22.436373,0.0 120.907683,22.436345,0.0 120.907637,22.43627,0.0 120.907567,22.436092,0.0 120.907563,22.436082,0.0 120.907459,22.435714,0.0 120.907338,22.43526,0.0 120.907251,22.434958,0.0 120.907168,22.434787,0.0 120.907079,22.434605,0.0 120.906745,22.434009,0.0 120.906647,22.433892,0.0 120.906604,22.433842,0.0 120.906416,22.433695,0.0 120.906329,22.433635,0.0 120.906217,22.433557,0.0 120.906121,22.433502,0.0 120.906096,22.433487,0.0 120.906075,22.433479,0.0 120.905806,22.433376,0.0 120.905533,22.433288,0.0 120.905398,22.43325,0.0 120.905346,22.433212,0.0 120.905294,22.433175,0.0 120.905178,22.433053,0.0 120.90508,22.43292,0.0 120.905,22.432805,0.0 120.904949,22.432735,0.0 120.904801,22.432459,0.0 120.904674,22.432201,0.0 120.904577,22.432021,0.0 120.904551,22.431995,0.0 120.904431,22.431876,0.0 120.904171,22.431666,0.0 120.904013,22.431524,0.0 120.903957,22.431495,0.0 120.903934,22.431483,0.0 120.903828,22.431438,0.0 120.903755,22.431423,0.0 120.903657,22.431404,0.0 120.903539,22.431405,0.0 120.90345,22.431406,0.0 120.903402,22.431402,0.0 120.903342,22.431397,0.0 120.903164,22.431333,0.0 120.902979,22.431266,0.0 120.902878,22.431206,0.0 120.902663,22.431078,0.0 120.902543,22.431004,0.0 120.902367,22.430895,0.0 120.902195,22.430811,0.0 120.902116,22.430787,0.0 120.902017,22.430757,0.0 120.901573,22.43063,0.0 120.901419,22.430565,0.0 120.90131,22.430509,0.0 120.901182,22.430443,0.0 120.901058,22.430391,0.0 120.900974,22.430357,0.0 120.900668,22.430265,0.0 120.900257,22.430142,0.0 120.900208,22.430136,0.0 120.900162,22.430131,0.0 120.899686,22.429997,0.0 120.899465,22.429913,0.0 120.899137,22.429857,0.0 120.898964,22.429857,0.0 120.898299,22.430053,0.0 120.898116,22.4301,0.0 120.898036,22.430093,0.0 120.89787,22.430077,0.0 120.897795,22.43005,0.0 120.897555,22.429969,0.0 120.897354,22.42987,0.0 120.897098,22.429743,0.0 120.896796,22.4296,0.0 120.896411,22.429501,0.0 120.896127,22.429424,0.0 120.895626,22.429286,0.0 120.895553,22.429306,0.0 120.895231,22.429486,0.0 120.895152,22.429547,0.0 120.894924,22.429723,0.0 120.894643,22.429922,0.0 120.894486,22.430021,0.0 120.894365,22.430098,0.0 120.894163,22.430237,0.0 120.894078,22.430287,0.0 120.894051,22.430263,0.0 120.894009,22.430226,0.0 120.893987,22.430202,0.0 120.893965,22.430179,0.0 120.893853,22.430041,0.0 120.893842,22.430027,0.0 120.893741,22.429894,0.0 120.893701,22.429824,0.0 120.89358,22.429612,0.0 120.893415,22.429324,0.0 120.893344,22.429201,0.0 120.893,22.428652,0.0 120.892895,22.428444,0.0 120.892773,22.4282,0.0 120.892714,22.428078,0.0 120.892672,22.42799,0.0 120.892662,22.427935,0.0 120.892653,22.427881,0.0 120.892643,22.427624,0.0 120.892653,22.42738,0.0 120.892653,22.427297,0.0 120.892631,22.427207,0.0 120.892612,22.427127,0.0 120.892574,22.427057,0.0 120.892565,22.427048,0.0 120.892505,22.426985,0.0 120.892417,22.426919,0.0 120.892278,22.42677,0.0 120.892183,22.426615,0.0 120.892143,22.4265,0.0 120.89213,22.426463,0.0 120.892108,22.426262,0.0 120.892086,22.426145,0.0 120.89202,22.425951,0.0 120.891912,22.425802,0.0 120.891723,22.425587,0.0 120.891361,22.425144,0.0 120.891004,22.424888,0.0 120.890948,22.424848,0.0 120.89073,22.424505,0.0 120.890654,22.424435,0.0 120.890438,22.42429,0.0 120.890288,22.424206,0.0 120.890078,22.424129,0.0 120.88988,22.424054,0.0 120.889643,22.423964,0.0 120.889477,22.423884,0.0 120.889349,22.423822,0.0 120.889218,22.423782,0.0 120.889091,22.423743,0.0 120.889039,22.423718,0.0 120.888873,22.423614,0.0 120.88864,22.423442,0.0 120.888332,22.42325,0.0 120.888287,22.42323,0.0 120.888199,22.423191,0.0 120.888155,22.423165,0.0 120.888109,22.423137,0.0 120.887991,22.423105,0.0 120.887855,22.42311,0.0 120.887778,22.423137,0.0 120.88772,22.423157,0.0 120.887615,22.423191,0.0 120.887481,22.42324,0.0 120.887253,22.423344,0.0 120.887187,22.423387,0.0 120.887044,22.423479,0.0 120.887008,22.423508,0.0 120.886867,22.423621,0.0 120.886755,22.42368,0.0 120.886691,22.423708,0.0 120.886662,22.423721,0.0 120.886568,22.42374,0.0 120.886449,22.423763,0.0 120.886377,22.423763,0.0 120.886221,22.423762,0.0 120.885919,22.423761,0.0 120.885622,22.423792,0.0 120.885482,22.423828,0.0 120.885329,22.423925,0.0 120.885265,22.423974,0.0 120.885135,22.424074,0.0 120.884981,22.424178,0.0 120.884786,22.424324,0.0 120.884732,22.42438,0.0 120.884614,22.424503,0.0 120.88446,22.424649,0.0 120.884404,22.424697,0.0 120.884344,22.424773,0.0 120.884213,22.424959,0.0 120.884175,22.425019,0.0 120.884167,22.425033,0.0 120.884125,22.425123,0.0 120.884083,22.425223,0.0 120.883981,22.425365,0.0 120.883906,22.42544,0.0 120.883804,22.425543,0.0 120.883711,22.42559,0.0 120.883676,22.425575,0.0 120.88366,22.425568,0.0 120.883581,22.425498,0.0 120.883316,22.425179,0.0 120.883052,22.42484,0.0 120.882984,22.424702,0.0 120.882906,22.42447,0.0 120.882852,22.424309,0.0 120.882784,22.424109,0.0 120.882681,22.423826,0.0 120.882629,22.423736,0.0 120.882604,22.423693,0.0 120.882572,22.423659,0.0 120.882547,22.423632,0.0 120.882502,22.423602,0.0 120.882355,22.423501,0.0 120.882192,22.423383,0.0 120.882017,22.423257,0.0 120.881936,22.423191,0.0 120.881886,22.423153,0.0 120.881765,22.423062,0.0 120.881492,22.422801,0.0 120.881394,22.422708,0.0 120.881091,22.42252,0.0 120.880832,22.422317,0.0 120.880445,22.421971,0.0 120.880063,22.421684,0.0 120.879928,22.421589,0.0 120.879754,22.421506,0.0 120.879401,22.421338,0.0 120.879068,22.421154,0.0 120.878968,22.421098,0.0 120.879117,22.420979,0.0 120.879193,22.420894,0.0 120.879484,22.420573,0.0 120.879625,22.420392,0.0 120.879778,22.420228,0.0 120.879897,22.420101,0.0 120.879957,22.420045,0.0 120.880135,22.419878,0.0 120.880543,22.419548,0.0 120.880857,22.419314,0.0 120.88098,22.419198,0.0 120.881034,22.419147,0.0 120.881178,22.418959,0.0 120.881229,22.418894,0.0 120.881505,22.418648,0.0 120.881852,22.418373,0.0 120.882592,22.417926,0.0 120.883052,22.417678,0.0 120.88352,22.41748,0.0 120.883649,22.417435,0.0 120.883968,22.417325,0.0 120.884079,22.417287,0.0 120.884187,22.41725,0.0 120.884558,22.417086,0.0 120.88478,22.416959,0.0 120.884828,22.416919,0.0 120.885085,22.416707,0.0 120.885567,22.416325,0.0 120.885775,22.416186,0.0 120.885992,22.416082,0.0 120.886136,22.416035,0.0 120.886404,22.415947,0.0 120.886648,22.415818,0.0 120.887014,22.415599,0.0 120.88713,22.41551,0.0 120.887546,22.415191,0.0 120.887791,22.414986,0.0 120.887826,22.414957,0.0 120.888013,22.414805,0.0 120.88817,22.414636,0.0 120.888279,22.414532,0.0 120.88841,22.414406,0.0 120.888481,22.414256,0.0 120.888632,22.413939,0.0 120.88878,22.41349,0.0 120.88879,22.413393,0.0 120.888831,22.413,0.0 120.888919,22.41302,0.0 120.889063,22.413149,0.0 120.889176,22.413181,0.0 120.889282,22.413156,0.0 120.889402,22.413117,0.0 120.889476,22.413043,0.0 120.889673,22.412734,0.0 120.889729,22.412551,0.0 120.889808,22.412447,0.0 120.88991,22.412404,0.0 120.890091,22.412341,0.0 120.890477,22.412062,0.0 120.890576,22.412016,0.0 120.890663,22.41198,0.0 120.891366,22.411818,0.0 120.891603,22.41185,0.0 120.891772,22.411819,0.0 120.891942,22.411767,0.0 120.89263,22.411442,0.0 120.892845,22.411474,0.0 120.893003,22.411589,0.0 120.893081,22.411756,0.0 120.893205,22.411903,0.0 120.893284,22.411966,0.0 120.8934,22.411987,0.0 120.89351,22.411955,0.0 120.89377,22.411809,0.0 120.893928,22.411768,0.0 120.894368,22.41182,0.0 120.89456,22.411757,0.0 120.89474,22.411559,0.0 120.894763,22.411328,0.0 120.894853,22.411202,0.0 120.895079,22.411076,0.0 120.895282,22.411035,0.0 120.89544,22.410949,0.0 120.895486,22.410782,0.0 120.895396,22.410584,0.0 120.895227,22.410374,0.0 120.895083,22.410279,0.0 120.894911,22.410204,0.0 120.894572,22.410143,0.0 120.894324,22.410088,0.0 120.8942,22.410005,0.0 120.894053,22.409858,0.0 120.893963,22.4097,0.0 120.893929,22.409564,0.0 120.893839,22.40949,0.0 120.893804,22.409451,0.0 120.893636,22.409375,0.0 120.893207,22.409374,0.0 120.892971,22.409029,0.0 120.892926,22.408807,0.0 120.892919,22.408566,0.0 120.892926,22.408451,0.0 120.892982,22.408367,0.0 120.893152,22.408315,0.0 120.8934,22.408273,0.0 120.893547,22.4082,0.0 120.893773,22.408158,0.0 120.893908,22.408212,0.0 120.894111,22.408348,0.0 120.894235,22.408382,0.0 120.894461,22.408368,0.0 120.89481,22.40842,0.0 120.895375,22.408515,0.0 120.895736,22.408538,0.0 120.895884,22.408642,0.0 120.896006,22.408864,0.0 120.896142,22.408956,0.0 120.896263,22.408974,0.0 120.896469,22.408988,0.0 120.896627,22.408916,0.0 120.896932,22.408758,0.0 120.897101,22.408643,0.0 120.897225,22.40858,0.0 120.897383,22.408623,0.0 120.897507,22.408738,0.0 120.897586,22.408842,0.0 120.8978,22.409167,0.0 120.89789,22.409305,0.0 120.897988,22.409436,0.0 120.898093,22.409493,0.0 120.898193,22.409511,0.0 120.898398,22.409524,0.0 120.898511,22.409515,0.0 120.898612,22.409579,0.0 120.898646,22.409725,0.0 120.898563,22.409868,0.0 120.89846,22.409983,0.0 120.898398,22.410154,0.0 120.898397,22.410439,0.0 120.898657,22.410681,0.0 120.898916,22.410816,0.0 120.899153,22.410816,0.0 120.899401,22.410658,0.0 120.899571,22.410512,0.0 120.899729,22.410155,0.0 120.900023,22.409873,0.0 120.900192,22.409726,0.0 120.900327,22.409715,0.0 120.900405,22.409747,0.0 120.900473,22.409821,0.0 120.900564,22.409937,0.0 120.900763,22.410079,0.0 120.900871,22.410287,0.0 120.900974,22.41044,0.0 120.901057,22.41058,0.0 120.901297,22.410953,0.0 120.901423,22.411019,0.0 120.901554,22.411003,0.0 120.901976,22.410834,0.0 120.902096,22.410818,0.0 120.902204,22.410839,0.0 120.902278,22.410918,0.0 120.90238,22.411166,0.0 120.902483,22.411295,0.0 120.902608,22.41139,0.0 120.902779,22.411496,0.0 120.902956,22.411528,0.0 120.903087,22.411539,0.0 120.90322,22.411498,0.0 120.903417,22.411453,0.0 120.903601,22.411476,0.0 120.903736,22.411533,0.0 120.903981,22.411564,0.0 120.90422,22.411533,0.0 120.904448,22.411477,0.0 120.904728,22.411359,0.0 120.904849,22.411301,0.0 120.904936,22.41126,0.0 120.905046,22.411233,0.0 120.905193,22.41124,0.0 120.905366,22.411301,0.0 120.905599,22.411382,0.0 120.905883,22.411403,0.0 120.906269,22.411356,0.0 120.90647,22.411308,0.0 120.906655,22.411302,0.0 120.906859,22.411302,0.0 120.907275,22.411411,0.0 120.907668,22.411384,0.0 120.90793,22.411424,0.0 120.908556,22.411648,0.0 120.909125,22.411804,0.0 120.909343,22.411954,0.0 120.909474,22.412089,0.0 120.90959,22.412137,0.0 120.90969,22.412164,0.0 120.909853,22.412137,0.0 120.909955,22.412069,0.0 120.910057,22.412022,0.0 120.910195,22.412049,0.0 120.910428,22.412191,0.0 120.910661,22.412225,0.0 120.910851,22.412198,0.0 120.91104,22.412239,0.0 120.911171,22.412314,0.0 120.911499,22.412409,0.0 120.911776,22.412456,0.0 120.912035,22.412407,0.0 120.912235,22.412348,0.0 120.912395,22.412328,0.0 120.912511,22.412348,0.0 120.912961,22.412491,0.0 120.91313,22.412511,0.0 120.913292,22.412504,0.0 120.913567,22.412491,0.0 120.913712,22.412541,0.0 120.913902,22.412667,0.0 120.914055,22.412722,0.0 120.914412,22.412742,0.0 120.914703,22.412918,0.0 120.915636,22.413434,0.0 120.916182,22.413651,0.0 120.91707,22.413902,0.0 120.917376,22.414105,0.0 120.917799,22.414295,0.0 120.918214,22.41439,0.0 120.918447,22.414363,0.0 120.918717,22.414201,0.0 120.918891,22.414167,0.0 120.919124,22.414214,0.0 120.919306,22.414404,0.0 120.919539,22.414587,0.0 120.919787,22.414689,0.0 120.919999,22.41468,0.0 120.920406,22.414635,0.0 120.920945,22.414669,0.0 120.921106,22.414723,0.0 120.921259,22.414805,0.0 120.921302,22.414913,0.0 120.921382,22.415042,0.0 120.921491,22.415103,0.0 120.921608,22.41511,0.0 120.921762,22.415096,0.0 120.921943,22.415083,0.0 120.922111,22.415137,0.0 120.922256,22.415151,0.0 120.922555,22.415144,0.0 120.922715,22.415124,0.0 120.92289,22.41507,0.0 120.922999,22.415009,0.0 120.923189,22.414907,0.0 120.923509,22.414758,0.0 120.923779,22.414698,0.0 120.924187,22.414718,0.0 120.92474,22.414739,0.0 120.925229,22.414752,0.0 120.925586,22.414834,0.0 120.926736,22.41478,0.0 120.926846,22.414706,0.0 120.927066,22.414349,0.0 120.92723,22.414245,0.0 120.92725,22.414236,0.0 120.927278,22.414318,0.0 120.927385,22.414584,0.0 120.92752,22.414878,0.0 120.927628,22.415088,0.0 120.927871,22.415765,0.0 120.928185,22.4164,0.0 120.928266,22.416592,0.0 120.928428,22.416876,0.0 120.928823,22.417412,0.0 120.929219,22.417888,0.0 120.929426,22.418207,0.0 120.929632,22.418475,0.0 120.929974,22.418767,0.0 120.930675,22.419487,0.0 120.931078,22.419883,0.0 120.931395,22.420248,0.0 120.931799,22.420833,0.0 120.931898,22.421025,0.0 120.932051,22.421319,0.0 120.932365,22.422123,0.0 120.93268,22.422566,0.0 120.933021,22.423286,0.0 120.933084,22.423487,0.0 120.933282,22.423921,0.0 120.933354,22.424137,0.0 120.93345,22.424914,0.0 120.933542,22.425343,0.0 120.933569,22.425501,0.0 120.93356,22.425752,0.0 120.933596,22.425887,0.0 120.93382,22.426422,0.0 120.934207,22.427351,0.0 120.934432,22.428037,0.0 120.934602,22.428471,0.0 120.93506,22.430002,0.0 120.935492,22.431165,0.0 120.935779,22.432102,0.0 120.935896,22.432578,0.0 120.936336,22.433865,0.0 120.93683,22.435313,0.0 120.937729,22.437187,0.0 120.938547,22.439127,0.0 120.939041,22.440583,0.0 120.939688,22.442431,0.0 120.939985,22.443485,0.0 120.940452,22.444781,0.0 120.940668,22.445233,0.0 120.941369,22.446699,0.0 120.941863,22.447986,0.0 120.942151,22.448589,0.0 120.942762,22.449968,0.0 120.943005,22.45042,0.0 120.943176,22.450705,0.0 120.943544,22.451172,0.0 120.943823,22.451667,0.0 120.943913,22.451999,0.0 120.94403,22.452495,0.0 120.944335,22.453631,0.0 120.944533,22.454293,0.0 120.94473,22.454936,0.0 120.94491,22.455406,0.0 120.94509,22.455799,0.0 120.945126,22.455966,0.0 120.945324,22.45656,0.0 120.94544,22.456786,0.0 120.945656,22.456894,0.0 120.94589,22.457395,0.0 120.94604,22.457714,0.0 120.945947,22.457752,0.0 120.944451,22.458251,0.0 120.94389,22.45842,0.0 120.943646,22.458467,0.0 120.943067,22.458512,0.0 120.941817,22.458679,0.0 120.940827,22.458794,0.0 120.940596,22.458793,0.0 120.94027,22.45878,0.0 120.939665,22.458698,0.0 120.939288,22.458676,0.0 120.938867,22.458705,0.0 120.93854,22.458709,0.0 120.938023,22.458725,0.0 120.93729,22.458722,0.0 120.937117,22.458715,0.0 120.936846,22.458724,0.0 120.936674,22.458763,0.0 120.936439,22.45883,0.0 120.935776,22.459094,0.0 120.934922,22.459437,0.0 120.934449,22.459577,0.0 120.933924,22.459671,0.0 120.933054,22.459861,0.0 120.932565,22.460057,0.0 120.931968,22.460276,0.0 120.931556,22.460318,0.0 120.931234,22.460293,0.0 120.930795,22.460298,0.0 120.930363,22.460401,0.0 120.929957,22.460573,0.0 120.929296,22.46097,0.0 120.928385,22.46162,0.0 120.927651,22.462143,0.0 120.926983,22.462459,0.0 120.926321,22.462667,0.0 120.925171,22.462905,0.0</coordinates></LinearRing></outerBoundaryIs></Polygon><styleUrl>#spolygon-map</styleUrl></Placemark><Placemark><Polygon><outerBoundaryIs><LinearRing><coordinates>120.9096,22.364676,0.0 120.909539,22.364685,0.0 120.908024,22.365091,0.0 120.907785,22.365249,0.0 120.907306,22.365436,0.0 120.906546,22.365684,0.0 120.906427,22.365749,0.0 120.906265,22.365923,0.0 120.906086,22.366153,0.0 120.906016,22.366194,0.0 120.90591,22.366255,0.0 120.905758,22.366298,0.0 120.905619,22.366365,0.0 120.905537,22.366429,0.0 120.905467,22.36655,0.0 120.905378,22.366643,0.0 120.905303,22.366677,0.0 120.905209,22.366681,0.0 120.904853,22.366634,0.0 120.904731,22.366658,0.0 120.904083,22.366854,0.0 120.903978,22.366868,0.0 120.903867,22.366872,0.0 120.903581,22.36682,0.0 120.903409,22.366831,0.0 120.902946,22.366917,0.0 120.902241,22.367093,0.0 120.901048,22.366168,0.0 120.898016,22.363243,0.0 120.897799,22.363283,0.0 120.897524,22.363367,0.0 120.897266,22.363477,0.0 120.897031,22.363574,0.0 120.896638,22.363775,0.0 120.896527,22.363854,0.0 120.896285,22.364052,0.0 120.896156,22.364165,0.0 120.896071,22.364233,0.0 120.896018,22.364244,0.0 120.895547,22.364144,0.0 120.895324,22.364173,0.0 120.894979,22.364236,0.0 120.894624,22.364236,0.0 120.894312,22.364148,0.0 120.894137,22.36401,0.0 120.894026,22.363949,0.0 120.893927,22.363899,0.0 120.893761,22.363868,0.0 120.893629,22.363818,0.0 120.893438,22.363664,0.0 120.893253,22.363477,0.0 120.892924,22.363097,0.0 120.892772,22.362989,0.0 120.892578,22.362939,0.0 120.891912,22.362715,0.0 120.891223,22.362396,0.0 120.890712,22.362188,0.0 120.890247,22.361872,0.0 120.890041,22.361822,0.0 120.889853,22.361828,0.0 120.888957,22.361787,0.0 120.887999,22.361667,0.0 120.887398,22.361768,0.0 120.887084,22.361851,0.0 120.886457,22.362332,0.0 120.885921,22.3626,0.0 120.884891,22.363085,0.0 120.883563,22.363806,0.0 120.882323,22.363821,0.0 120.881923,22.363907,0.0 120.881458,22.364223,0.0 120.881102,22.364568,0.0 120.880425,22.36536,0.0 120.879585,22.366073,0.0 120.878696,22.36663,0.0 120.878413,22.366731,0.0 120.878508,22.366627,0.0 120.8787,22.366408,0.0 120.878798,22.366266,0.0 120.878837,22.366187,0.0 120.878877,22.365729,0.0 120.878907,22.365246,0.0 120.878806,22.364925,0.0 120.878666,22.364713,0.0 120.877951,22.363362,0.0 120.877951,22.363315,0.0 120.878003,22.363258,0.0 120.878323,22.363044,0.0 120.878401,22.36296,0.0 120.878386,22.362958,0.0 120.87807,22.36298,0.0 120.877561,22.363025,0.0 120.877245,22.363115,0.0 120.876832,22.363295,0.0 120.876492,22.36334,0.0 120.876128,22.363317,0.0 120.875764,22.36343,0.0 120.875448,22.363497,0.0 120.874963,22.363452,0.0 120.87472,22.363429,0.0 120.874429,22.363519,0.0 120.87421,22.363722,0.0 120.873919,22.363993,0.0 120.873627,22.364128,0.0 120.873214,22.36424,0.0 120.872753,22.364308,0.0 120.872413,22.364353,0.0 120.872038,22.364464,0.0 120.871805,22.36453,0.0 120.871627,22.364527,0.0 120.871463,22.364438,0.0 120.871297,22.364194,0.0 120.87103,22.363697,0.0 120.870667,22.363245,0.0 120.87041,22.362985,0.0 120.870191,22.362845,0.0 120.869818,22.362703,0.0 120.869603,22.362654,0.0 120.869478,22.362612,0.0 120.869302,22.362642,0.0 120.868946,22.362704,0.0 120.868749,22.362702,0.0 120.868507,22.362679,0.0 120.868094,22.362566,0.0 120.867463,22.362272,0.0 120.867153,22.362168,0.0 120.866619,22.362053,0.0 120.866298,22.362045,0.0 120.86608,22.362,0.0 120.865619,22.361931,0.0 120.864794,22.36184,0.0 120.864374,22.361809,0.0 120.863977,22.361732,0.0 120.863604,22.361659,0.0 120.863265,22.361591,0.0 120.862854,22.361362,0.0 120.862512,22.361272,0.0 120.862197,22.361206,0.0 120.861784,22.361115,0.0 120.861469,22.36098,0.0 120.861032,22.360618,0.0 120.860402,22.360121,0.0 120.859917,22.359691,0.0 120.859602,22.359443,0.0 120.85931,22.359262,0.0 120.858971,22.359171,0.0 120.858461,22.359058,0.0 120.858194,22.358922,0.0 120.857855,22.358741,0.0 120.857564,22.35847,0.0 120.857248,22.358109,0.0 120.857054,22.357973,0.0 120.856587,22.357995,0.0 120.856013,22.357943,0.0 120.855574,22.358007,0.0 120.855258,22.357994,0.0 120.85478,22.358019,0.0 120.854578,22.357971,0.0 120.854481,22.357858,0.0 120.854482,22.357655,0.0 120.854603,22.357361,0.0 120.854773,22.357181,0.0 120.854968,22.357113,0.0 120.855235,22.357091,0.0 120.855599,22.357069,0.0 120.855866,22.357024,0.0 120.856133,22.356934,0.0 120.856473,22.356753,0.0 120.856789,22.35646,0.0 120.856935,22.356325,0.0 120.857177,22.35619,0.0 120.857469,22.356122,0.0 120.85778,22.356188,0.0 120.85804,22.356213,0.0 120.85826,22.356162,0.0 120.858465,22.356048,0.0 120.858588,22.355883,0.0 120.858698,22.355704,0.0 120.858781,22.35545,0.0 120.859109,22.355094,0.0 120.859274,22.354839,0.0 120.859384,22.354584,0.0 120.859425,22.354317,0.0 120.85948,22.354126,0.0 120.859617,22.353948,0.0 120.860068,22.353686,0.0 120.860506,22.35319,0.0 120.860968,22.352603,0.0 120.861162,22.352174,0.0 120.861333,22.351768,0.0 120.861742,22.351365,0.0 120.862413,22.350767,0.0 120.862863,22.350347,0.0 120.863082,22.350144,0.0 120.863482,22.349787,0.0 120.864003,22.349215,0.0 120.86454,22.348542,0.0 120.865196,22.347843,0.0 120.865566,22.347423,0.0 120.865705,22.34762,0.0 120.865985,22.348044,0.0 120.86606,22.348193,0.0 120.866415,22.348605,0.0 120.866749,22.349061,0.0 120.866823,22.349178,0.0 120.867016,22.349339,0.0 120.867165,22.349511,0.0 120.867217,22.349642,0.0 120.867232,22.349752,0.0 120.867269,22.350202,0.0 120.867179,22.350673,0.0 120.867186,22.350804,0.0 120.867201,22.350895,0.0 120.867246,22.350942,0.0 120.867305,22.35099,0.0 120.867485,22.351071,0.0 120.868095,22.351272,0.0 120.868266,22.351293,0.0 120.868578,22.351377,0.0 120.868876,22.351494,0.0 120.869009,22.351542,0.0 120.869069,22.351585,0.0 120.869128,22.351646,0.0 120.86924,22.35177,0.0 120.869273,22.351816,0.0 120.869643,22.351892,0.0 120.871079,22.351686,0.0 120.871945,22.351734,0.0 120.872515,22.351872,0.0 120.87329,22.352469,0.0 120.874074,22.352887,0.0 120.875237,22.353326,0.0 120.876277,22.353602,0.0 120.878108,22.354985,0.0 120.878613,22.354934,0.0 120.879098,22.354688,0.0 120.879965,22.354458,0.0 120.881104,22.354389,0.0 120.882615,22.354253,0.0 120.883036,22.354068,0.0 120.883454,22.353662,0.0 120.883924,22.352827,0.0 120.885177,22.353557,0.0 120.8874,22.354477,0.0 120.888252,22.354898,0.0 120.888637,22.355007,0.0 120.889372,22.354991,0.0 120.88969,22.354883,0.0 120.889968,22.354648,0.0 120.890464,22.354188,0.0 120.890558,22.353809,0.0 120.890687,22.35329,0.0 120.890669,22.351684,0.0 120.890693,22.351371,0.0 120.890693,22.351226,0.0 120.890562,22.351016,0.0 120.890526,22.350781,0.0 120.890557,22.35035,0.0 120.890522,22.350029,0.0 120.890506,22.349962,0.0 120.8905,22.349901,0.0 120.890516,22.349851,0.0 120.890562,22.349822,0.0 120.890829,22.349747,0.0 120.890886,22.34972,0.0 120.89096,22.349684,0.0 120.891013,22.349641,0.0 120.891259,22.349309,0.0 120.891828,22.348687,0.0 120.891933,22.34861,0.0 120.892046,22.348529,0.0 120.892274,22.348427,0.0 120.892397,22.348348,0.0 120.892535,22.348209,0.0 120.892706,22.348073,0.0 120.893163,22.346972,0.0 120.893377,22.346574,0.0 120.89352,22.346455,0.0 120.893919,22.346455,0.0 120.895075,22.346521,0.0 120.895264,22.346517,0.0 120.895433,22.346488,0.0 120.89557,22.346443,0.0 120.895739,22.346346,0.0 120.895851,22.346271,0.0 120.895964,22.346197,0.0 120.89614,22.346061,0.0 120.896399,22.345845,0.0 120.896592,22.345635,0.0 120.896809,22.345348,0.0 120.897019,22.344775,0.0 120.897075,22.344542,0.0 120.897132,22.344303,0.0 120.89718,22.344132,0.0 120.897228,22.343931,0.0 120.897285,22.343759,0.0 120.89743,22.343251,0.0 120.897627,22.343046,0.0 120.89844,22.34252,0.0 120.898861,22.34234,0.0 120.898882,22.342615,0.0 120.898989,22.343268,0.0 120.898998,22.343627,0.0 120.89906,22.344097,0.0 120.899285,22.344873,0.0 120.8995,22.345576,0.0 120.90073,22.348119,0.0 120.901008,22.348781,0.0 120.901355,22.349698,0.0 120.901547,22.350278,0.0 120.902462,22.352286,0.0 120.902776,22.35313,0.0 120.903136,22.353808,0.0 120.903423,22.354278,0.0 120.903773,22.35473,0.0 120.904142,22.355055,0.0 120.90504,22.355983,0.0 120.9054,22.356243,0.0 120.905804,22.356453,0.0 120.906343,22.356822,0.0 120.906892,22.357147,0.0 120.90735,22.357457,0.0 120.907729,22.357708,0.0 120.90797,22.357943,0.0 120.908015,22.35799,0.0 120.908222,22.358462,0.0 120.908446,22.358722,0.0 120.908509,22.358923,0.0 120.908554,22.359097,0.0 120.908635,22.359291,0.0 120.90871,22.359372,0.0 120.908782,22.359465,0.0 120.908832,22.35965,0.0 120.908886,22.359867,0.0 120.908898,22.360059,0.0 120.908931,22.360244,0.0 120.908958,22.36047,0.0 120.909065,22.361197,0.0 120.90911,22.361608,0.0 120.909149,22.361933,0.0 120.909166,22.362116,0.0 120.909181,22.362285,0.0 120.909187,22.362326,0.0 120.909208,22.362477,0.0 120.909226,22.362644,0.0 120.909262,22.362719,0.0 120.90928,22.362969,0.0 120.909356,22.36308,0.0 120.909316,22.363164,0.0 120.909316,22.363247,0.0 120.909387,22.363288,0.0 120.909378,22.363514,0.0 120.909432,22.363581,0.0 120.909459,22.363789,0.0 120.909495,22.363866,0.0 120.909468,22.364015,0.0 120.909474,22.364123,0.0 120.909477,22.364175,0.0 120.909534,22.364232,0.0 120.90954,22.364426,0.0 120.909585,22.364534,0.0 120.909622,22.364618,0.0 120.9096,22.364676,0.0</coordinates></LinearRing></outerBoundaryIs></Polygon><styleUrl>#spolygon-map</styleUrl></Placemark><Placemark><Polygon><outerBoundaryIs><LinearRing><coordinates>120.92725,22.414236,0.0 120.92723,22.414245,0.0 120.927066,22.414349,0.0 120.926846,22.414706,0.0 120.926736,22.41478,0.0 120.925586,22.414834,0.0 120.925229,22.414752,0.0 120.92474,22.414739,0.0 120.924187,22.414718,0.0 120.923779,22.414698,0.0 120.923509,22.414758,0.0 120.923189,22.414907,0.0 120.922999,22.415009,0.0 120.92289,22.41507,0.0 120.922715,22.415124,0.0 120.922555,22.415144,0.0 120.922256,22.415151,0.0 120.922111,22.415137,0.0 120.921943,22.415083,0.0 120.921762,22.415096,0.0 120.921608,22.41511,0.0 120.921491,22.415103,0.0 120.921382,22.415042,0.0 120.921302,22.414913,0.0 120.921259,22.414805,0.0 120.921106,22.414723,0.0 120.920945,22.414669,0.0 120.920406,22.414635,0.0 120.919999,22.41468,0.0 120.919787,22.414689,0.0 120.919539,22.414587,0.0 120.919306,22.414404,0.0 120.919124,22.414214,0.0 120.918891,22.414167,0.0 120.918717,22.414201,0.0 120.918447,22.414363,0.0 120.918214,22.41439,0.0 120.917799,22.414295,0.0 120.917376,22.414105,0.0 120.91707,22.413902,0.0 120.916182,22.413651,0.0 120.915636,22.413434,0.0 120.914703,22.412918,0.0 120.914412,22.412742,0.0 120.914055,22.412722,0.0 120.913902,22.412667,0.0 120.913712,22.412541,0.0 120.913567,22.412491,0.0 120.913292,22.412504,0.0 120.91313,22.412511,0.0 120.912961,22.412491,0.0 120.912511,22.412348,0.0 120.912395,22.412328,0.0 120.912235,22.412348,0.0 120.912035,22.412407,0.0 120.911776,22.412456,0.0 120.911499,22.412409,0.0 120.911171,22.412314,0.0 120.91104,22.412239,0.0 120.910851,22.412198,0.0 120.910661,22.412225,0.0 120.910428,22.412191,0.0 120.910195,22.412049,0.0 120.910057,22.412022,0.0 120.909955,22.412069,0.0 120.909853,22.412137,0.0 120.90969,22.412164,0.0 120.90959,22.412137,0.0 120.909474,22.412089,0.0 120.909343,22.411954,0.0 120.909125,22.411804,0.0 120.908556,22.411648,0.0 120.90793,22.411424,0.0 120.907668,22.411384,0.0 120.907275,22.411411,0.0 120.906859,22.411302,0.0 120.906655,22.411302,0.0 120.90647,22.411308,0.0 120.906269,22.411356,0.0 120.905883,22.411403,0.0 120.905599,22.411382,0.0 120.905366,22.411301,0.0 120.905193,22.41124,0.0 120.905046,22.411233,0.0 120.904936,22.41126,0.0 120.904849,22.411301,0.0 120.904728,22.411359,0.0 120.904448,22.411477,0.0 120.90422,22.411533,0.0 120.903981,22.411564,0.0 120.903736,22.411533,0.0 120.903601,22.411476,0.0 120.903417,22.411453,0.0 120.90322,22.411498,0.0 120.903087,22.411539,0.0 120.902956,22.411528,0.0 120.902779,22.411496,0.0 120.902608,22.41139,0.0 120.902483,22.411295,0.0 120.90238,22.411166,0.0 120.902278,22.410918,0.0 120.902204,22.410839,0.0 120.902096,22.410818,0.0 120.901976,22.410834,0.0 120.901554,22.411003,0.0 120.901423,22.411019,0.0 120.901297,22.410953,0.0 120.901057,22.41058,0.0 120.900974,22.41044,0.0 120.900871,22.410287,0.0 120.900763,22.410079,0.0 120.900564,22.409937,0.0 120.900473,22.409821,0.0 120.900405,22.409747,0.0 120.900327,22.409715,0.0 120.900192,22.409726,0.0 120.900023,22.409873,0.0 120.899729,22.410155,0.0 120.899571,22.410512,0.0 120.899401,22.410658,0.0 120.899153,22.410816,0.0 120.898916,22.410816,0.0 120.898657,22.410681,0.0 120.898397,22.410439,0.0 120.898398,22.410154,0.0 120.89846,22.409983,0.0 120.898563,22.409868,0.0 120.898646,22.409725,0.0 120.898612,22.409579,0.0 120.898511,22.409515,0.0 120.898398,22.409524,0.0 120.898193,22.409511,0.0 120.898093,22.409493,0.0 120.897988,22.409436,0.0 120.89789,22.409305,0.0 120.8978,22.409167,0.0 120.897586,22.408842,0.0 120.897507,22.408738,0.0 120.897383,22.408623,0.0 120.897225,22.40858,0.0 120.897101,22.408643,0.0 120.896932,22.408758,0.0 120.896627,22.408916,0.0 120.896469,22.408988,0.0 120.896263,22.408974,0.0 120.896142,22.408956,0.0 120.896006,22.408864,0.0 120.895884,22.408642,0.0 120.895736,22.408538,0.0 120.895375,22.408515,0.0 120.89481,22.40842,0.0 120.894461,22.408368,0.0 120.894235,22.408382,0.0 120.894111,22.408348,0.0 120.893908,22.408212,0.0 120.893773,22.408158,0.0 120.893547,22.4082,0.0 120.8934,22.408273,0.0 120.893152,22.408315,0.0 120.892982,22.408367,0.0 120.892926,22.408451,0.0 120.892919,22.408566,0.0 120.892926,22.408807,0.0 120.892971,22.409029,0.0 120.893207,22.409374,0.0 120.893636,22.409375,0.0 120.893804,22.409451,0.0 120.893839,22.40949,0.0 120.893929,22.409564,0.0 120.893963,22.4097,0.0 120.894053,22.409858,0.0 120.8942,22.410005,0.0 120.894324,22.410088,0.0 120.894572,22.410143,0.0 120.894911,22.410204,0.0 120.895083,22.410279,0.0 120.895227,22.410374,0.0 120.895396,22.410584,0.0 120.895486,22.410782,0.0 120.89544,22.410949,0.0 120.895282,22.411035,0.0 120.895079,22.411076,0.0 120.894853,22.411202,0.0 120.894763,22.411328,0.0 120.89474,22.411559,0.0 120.89456,22.411757,0.0 120.894368,22.41182,0.0 120.893928,22.411768,0.0 120.89377,22.411809,0.0 120.89351,22.411955,0.0 120.8934,22.411987,0.0 120.893284,22.411966,0.0 120.893205,22.411903,0.0 120.893081,22.411756,0.0 120.893003,22.411589,0.0 120.892845,22.411474,0.0 120.89263,22.411442,0.0 120.891942,22.411767,0.0 120.891772,22.411819,0.0 120.891603,22.41185,0.0 120.891366,22.411818,0.0 120.890663,22.41198,0.0 120.890576,22.412016,0.0 120.890477,22.412062,0.0 120.890091,22.412341,0.0 120.88991,22.412404,0.0 120.889808,22.412447,0.0 120.889729,22.412551,0.0 120.889673,22.412734,0.0 120.889476,22.413043,0.0 120.889402,22.413117,0.0 120.889282,22.413156,0.0 120.889176,22.413181,0.0 120.889063,22.413149,0.0 120.888919,22.41302,0.0 120.888831,22.413,0.0 120.888838,22.412941,0.0 120.888842,22.412884,0.0 120.888843,22.412857,0.0 120.888855,22.412695,0.0 120.888866,22.412532,0.0 120.888827,22.411629,0.0 120.888697,22.411324,0.0 120.88852,22.411132,0.0 120.888386,22.410965,0.0 120.888327,22.410891,0.0 120.888185,22.410588,0.0 120.887975,22.410371,0.0 120.887628,22.410086,0.0 120.887355,22.409926,0.0 120.886894,22.409693,0.0 120.886746,22.409618,0.0 120.886473,22.409566,0.0 120.885984,22.409491,0.0 120.885565,22.409405,0.0 120.885161,22.40929,0.0 120.884546,22.409124,0.0 120.883053,22.40888,0.0 120.882185,22.408743,0.0 120.881768,22.408605,0.0 120.881375,22.408454,0.0 120.880989,22.408318,0.0 120.88067,22.408239,0.0 120.880245,22.408157,0.0 120.879923,22.408137,0.0 120.879601,22.408103,0.0 120.879323,22.408064,0.0 120.879138,22.407989,0.0 120.87898,22.407919,0.0 120.878794,22.407761,0.0 120.878629,22.407601,0.0 120.878331,22.407329,0.0 120.878222,22.407244,0.0 120.877649,22.406902,0.0 120.877277,22.406683,0.0 120.876842,22.406482,0.0 120.876621,22.406461,0.0 120.87606,22.406569,0.0 120.87574,22.40656,0.0 120.8756,22.406517,0.0 120.875488,22.406413,0.0 120.875078,22.406002,0.0 120.874444,22.405543,0.0 120.873995,22.40526,0.0 120.873701,22.405036,0.0 120.874252,22.404567,0.0 120.874603,22.404281,0.0 120.874935,22.404037,0.0 120.875273,22.403859,0.0 120.875609,22.403767,0.0 120.875788,22.403771,0.0 120.876083,22.403794,0.0 120.876438,22.403826,0.0 120.876546,22.403824,0.0 120.87662,22.40381,0.0 120.876673,22.403795,0.0 120.877217,22.403474,0.0 120.87768,22.403161,0.0 120.878034,22.402917,0.0 120.878357,22.402678,0.0 120.878616,22.402408,0.0 120.878897,22.402141,0.0 120.879492,22.401661,0.0 120.87997,22.401381,0.0 120.880398,22.401084,0.0 120.880781,22.400788,0.0 120.881133,22.400608,0.0 120.881365,22.40056,0.0 120.881554,22.400509,0.0 120.881772,22.400428,0.0 120.88258,22.400028,0.0 120.882797,22.399904,0.0 120.883033,22.399704,0.0 120.88316,22.3996,0.0 120.88338,22.399413,0.0 120.883708,22.399131,0.0 120.8841,22.398634,0.0 120.884316,22.398339,0.0 120.884466,22.398192,0.0 120.884698,22.397842,0.0 120.884859,22.39765,0.0 120.885193,22.397289,0.0 120.885685,22.396531,0.0 120.885832,22.396303,0.0 120.88597,22.395915,0.0 120.886104,22.395574,0.0 120.886196,22.395274,0.0 120.886284,22.39498,0.0 120.886302,22.394741,0.0 120.886289,22.394454,0.0 120.886206,22.394048,0.0 120.886165,22.393603,0.0 120.886092,22.393449,0.0 120.886046,22.3934,0.0 120.885986,22.393314,0.0 120.885963,22.393253,0.0 120.885954,22.393167,0.0 120.88595,22.393052,0.0 120.885954,22.392923,0.0 120.886074,22.392639,0.0 120.886304,22.392339,0.0 120.886387,22.392242,0.0 120.886424,22.392126,0.0 120.886438,22.391968,0.0 120.886429,22.391634,0.0 120.886415,22.39142,0.0 120.886447,22.391257,0.0 120.886609,22.391063,0.0 120.886757,22.390722,0.0 120.886826,22.390422,0.0 120.886946,22.390097,0.0 120.886978,22.389995,0.0 120.886996,22.389932,0.0 120.887056,22.389846,0.0 120.887107,22.389828,0.0 120.88718,22.389813,0.0 120.887337,22.389797,0.0 120.887512,22.389802,0.0 120.887571,22.389775,0.0 120.887599,22.389693,0.0 120.887572,22.389395,0.0 120.887595,22.389255,0.0 120.887623,22.389136,0.0 120.887669,22.389023,0.0 120.887692,22.388937,0.0 120.887687,22.388869,0.0 120.887641,22.388788,0.0 120.887379,22.388571,0.0 120.887012,22.388404,0.0 120.886874,22.388365,0.0 120.886754,22.388259,0.0 120.886566,22.388135,0.0 120.886465,22.388087,0.0 120.886221,22.388069,0.0 120.886005,22.38806,0.0 120.885909,22.388057,0.0 120.885771,22.388044,0.0 120.885716,22.38803,0.0 120.88567,22.38801,0.0 120.885628,22.387962,0.0 120.885583,22.387881,0.0 120.885563,22.387694,0.0 120.8856,22.387597,0.0 120.885729,22.387468,0.0 120.885917,22.387288,0.0 120.886014,22.387157,0.0 120.886088,22.387023,0.0 120.886116,22.386884,0.0 120.886116,22.386784,0.0 120.886116,22.386622,0.0 120.886107,22.386181,0.0 120.886112,22.385946,0.0 120.886162,22.385879,0.0 120.886378,22.385802,0.0 120.886544,22.385716,0.0 120.887378,22.385241,0.0 120.887833,22.384902,0.0 120.887935,22.384771,0.0 120.887995,22.384661,0.0 120.888036,22.384523,0.0 120.888054,22.384383,0.0 120.888004,22.384083,0.0 120.888,22.383891,0.0 120.888009,22.383776,0.0 120.888081,22.383656,0.0 120.88824,22.383449,0.0 120.888502,22.382837,0.0 120.888655,22.381769,0.0 120.888687,22.381342,0.0 120.888673,22.381247,0.0 120.888637,22.381209,0.0 120.888333,22.381094,0.0 120.887915,22.380947,0.0 120.88757,22.380815,0.0 120.887104,22.380684,0.0 120.886778,22.380659,0.0 120.8863,22.380555,0.0 120.885868,22.38046,0.0 120.88556,22.380405,0.0 120.885436,22.380324,0.0 120.884935,22.380114,0.0 120.884632,22.380021,0.0 120.884434,22.379874,0.0 120.884163,22.379677,0.0 120.88375,22.379465,0.0 120.883034,22.379245,0.0 120.882892,22.379211,0.0 120.882556,22.379094,0.0 120.882272,22.378969,0.0 120.881995,22.378748,0.0 120.881835,22.378556,0.0 120.881727,22.378377,0.0 120.881681,22.378203,0.0 120.881673,22.378007,0.0 120.881727,22.377781,0.0 120.881728,22.377646,0.0 120.881717,22.37737,0.0 120.881678,22.377296,0.0 120.881628,22.377253,0.0 120.881468,22.377178,0.0 120.881295,22.377151,0.0 120.88097,22.377148,0.0 120.880816,22.377074,0.0 120.88058,22.376999,0.0 120.880444,22.376927,0.0 120.880309,22.376769,0.0 120.879981,22.376335,0.0 120.879904,22.376224,0.0 120.879779,22.376125,0.0 120.879643,22.376082,0.0 120.879374,22.376039,0.0 120.878944,22.375968,0.0 120.878626,22.375871,0.0 120.878387,22.375817,0.0 120.878236,22.375756,0.0 120.878104,22.375625,0.0 120.87806,22.37548,0.0 120.877997,22.375164,0.0 120.877957,22.374949,0.0 120.877998,22.374857,0.0 120.878179,22.374789,0.0 120.878402,22.374683,0.0 120.878473,22.374631,0.0 120.87857,22.374537,0.0 120.878719,22.374363,0.0 120.878983,22.374092,0.0 120.879097,22.373945,0.0 120.879231,22.373668,0.0 120.879323,22.373469,0.0 120.879417,22.373318,0.0 120.879459,22.373194,0.0 120.879409,22.373072,0.0 120.879399,22.372884,0.0 120.879385,22.372645,0.0 120.879392,22.372408,0.0 120.879414,22.372178,0.0 120.879381,22.371735,0.0 120.87936,22.371652,0.0 120.879333,22.371611,0.0 120.879272,22.371548,0.0 120.879031,22.371403,0.0 120.878844,22.371319,0.0 120.878442,22.37098,0.0 120.877933,22.37065,0.0 120.877467,22.370469,0.0 120.877006,22.370347,0.0 120.876927,22.370297,0.0 120.876792,22.37008,0.0 120.876734,22.369968,0.0 120.876722,22.369909,0.0 120.876701,22.369834,0.0 120.876677,22.369744,0.0 120.876655,22.36969,0.0 120.876604,22.369608,0.0 120.876543,22.369561,0.0 120.876457,22.369534,0.0 120.876332,22.369498,0.0 120.876165,22.369446,0.0 120.876034,22.369369,0.0 120.875976,22.369308,0.0 120.875976,22.369233,0.0 120.87608,22.369066,0.0 120.87644,22.368721,0.0 120.876779,22.368523,0.0 120.877057,22.368261,0.0 120.877301,22.36804,0.0 120.877603,22.36767,0.0 120.877857,22.367345,0.0 120.878413,22.366731,0.0 120.878696,22.36663,0.0 120.879585,22.366073,0.0 120.880425,22.36536,0.0 120.881102,22.364568,0.0 120.881458,22.364223,0.0 120.881923,22.363907,0.0 120.882323,22.363821,0.0 120.883563,22.363806,0.0 120.884891,22.363085,0.0 120.885921,22.3626,0.0 120.886457,22.362332,0.0 120.887084,22.361851,0.0 120.887398,22.361768,0.0 120.887999,22.361667,0.0 120.888957,22.361787,0.0 120.889853,22.361828,0.0 120.890041,22.361822,0.0 120.890247,22.361872,0.0 120.890712,22.362188,0.0 120.891223,22.362396,0.0 120.891912,22.362715,0.0 120.892578,22.362939,0.0 120.892772,22.362989,0.0 120.892924,22.363097,0.0 120.893253,22.363477,0.0 120.893438,22.363664,0.0 120.893629,22.363818,0.0 120.893761,22.363868,0.0 120.893927,22.363899,0.0 120.894026,22.363949,0.0 120.894137,22.36401,0.0 120.894312,22.364148,0.0 120.894624,22.364236,0.0 120.894979,22.364236,0.0 120.895324,22.364173,0.0 120.895547,22.364144,0.0 120.896018,22.364244,0.0 120.896071,22.364233,0.0 120.896156,22.364165,0.0 120.896285,22.364052,0.0 120.896527,22.363854,0.0 120.896638,22.363775,0.0 120.897031,22.363574,0.0 120.897266,22.363477,0.0 120.897524,22.363367,0.0 120.897799,22.363283,0.0 120.898016,22.363243,0.0 120.901048,22.366168,0.0 120.902241,22.367093,0.0 120.902946,22.366917,0.0 120.903409,22.366831,0.0 120.903581,22.36682,0.0 120.903867,22.366872,0.0 120.903978,22.366868,0.0 120.904083,22.366854,0.0 120.904731,22.366658,0.0 120.904853,22.366634,0.0 120.905209,22.366681,0.0 120.905303,22.366677,0.0 120.905378,22.366643,0.0 120.905467,22.36655,0.0 120.905537,22.366429,0.0 120.905619,22.366365,0.0 120.905758,22.366298,0.0 120.90591,22.366255,0.0 120.906016,22.366194,0.0 120.906086,22.366153,0.0 120.906265,22.365923,0.0 120.906427,22.365749,0.0 120.906546,22.365684,0.0 120.907306,22.365436,0.0 120.907785,22.365249,0.0 120.908024,22.365091,0.0 120.909539,22.364685,0.0 120.9096,22.364676,0.0 120.909587,22.364708,0.0 120.909593,22.364819,0.0 120.909611,22.364952,0.0 120.909665,22.365045,0.0 120.909692,22.365313,0.0 120.909764,22.365404,0.0 120.909764,22.365605,0.0 120.909808,22.365697,0.0 120.909844,22.365973,0.0 120.909871,22.366207,0.0 120.910015,22.366659,0.0 120.91006,22.366743,0.0 120.910095,22.367018,0.0 120.910203,22.367185,0.0 120.910218,22.367258,0.0 120.910215,22.367319,0.0 120.910275,22.367562,0.0 120.910314,22.367671,0.0 120.910356,22.367921,0.0 120.910392,22.367989,0.0 120.910391,22.368181,0.0 120.910418,22.368373,0.0 120.910391,22.368608,0.0 120.910418,22.368784,0.0 120.910436,22.368926,0.0 120.910481,22.369118,0.0 120.910499,22.369294,0.0 120.910651,22.369787,0.0 120.910768,22.370222,0.0 120.910813,22.370356,0.0 120.910848,22.370489,0.0 120.910941,22.370782,0.0 120.910959,22.370848,0.0 120.910995,22.370965,0.0 120.911028,22.371142,0.0 120.911261,22.372054,0.0 120.911342,22.37228,0.0 120.911351,22.372363,0.0 120.911494,22.373108,0.0 120.911539,22.373375,0.0 120.911638,22.373777,0.0 120.911674,22.374061,0.0 120.911727,22.374488,0.0 120.91179,22.374596,0.0 120.911898,22.375357,0.0 120.911996,22.375577,0.0 120.912014,22.375768,0.0 120.912185,22.376428,0.0 120.91222,22.376672,0.0 120.912283,22.376821,0.0 120.912283,22.376938,0.0 120.912418,22.377257,0.0 120.912472,22.377473,0.0 120.912759,22.378487,0.0 120.912831,22.378645,0.0 120.912983,22.379431,0.0 120.913001,22.379682,0.0 120.913145,22.380127,0.0 120.913234,22.380578,0.0 120.913261,22.380669,0.0 120.913288,22.380804,0.0 120.913306,22.381095,0.0 120.913405,22.381389,0.0 120.913423,22.381565,0.0 120.91353,22.381782,0.0 120.913593,22.382066,0.0 120.913638,22.382141,0.0 120.913683,22.382385,0.0 120.9138,22.382735,0.0 120.913826,22.382836,0.0 120.913852,22.3829,0.0 120.913879,22.382977,0.0 120.913934,22.383205,0.0 120.914015,22.383471,0.0 120.914065,22.383582,0.0 120.914159,22.383948,0.0 120.914185,22.384083,0.0 120.914266,22.384291,0.0 120.914311,22.384359,0.0 120.914356,22.384442,0.0 120.914715,22.385336,0.0 120.914751,22.385522,0.0 120.914832,22.385605,0.0 120.915127,22.386606,0.0 120.915272,22.387127,0.0 120.915425,22.387211,0.0 120.91546,22.387312,0.0 120.915532,22.387421,0.0 120.915766,22.387956,0.0 120.915802,22.388105,0.0 120.91591,22.388207,0.0 120.916169,22.388613,0.0 120.916449,22.389018,0.0 120.916548,22.389252,0.0 120.916655,22.389435,0.0 120.916709,22.389503,0.0 120.916746,22.389569,0.0 120.916952,22.390072,0.0 120.917257,22.390666,0.0 120.917374,22.390901,0.0 120.917509,22.391186,0.0 120.917544,22.391242,0.0 120.917626,22.391294,0.0 120.917662,22.391394,0.0 120.917715,22.391502,0.0 120.917796,22.391619,0.0 120.917787,22.391721,0.0 120.917841,22.391863,0.0 120.917859,22.391947,0.0 120.917949,22.392197,0.0 120.918182,22.392699,0.0 120.91829,22.392857,0.0 120.918335,22.392875,0.0 120.918407,22.392934,0.0 120.91847,22.393017,0.0 120.919045,22.39346,0.0 120.919269,22.393609,0.0 120.919513,22.393878,0.0 120.919676,22.394036,0.0 120.919845,22.394163,0.0 120.920609,22.394947,0.0 120.92069,22.3951,0.0 120.920784,22.395376,0.0 120.92087,22.395626,0.0 120.920996,22.396155,0.0 120.921134,22.396487,0.0 120.921238,22.396814,0.0 120.921362,22.397038,0.0 120.92157,22.397544,0.0 120.921849,22.398002,0.0 120.922033,22.398375,0.0 120.922159,22.398709,0.0 120.92224,22.399027,0.0 120.922249,22.399163,0.0 120.922313,22.399323,0.0 120.922329,22.399646,0.0 120.922383,22.399921,0.0 120.922464,22.40024,0.0 120.922512,22.400423,0.0 120.92259,22.400825,0.0 120.922617,22.400983,0.0 120.922652,22.401159,0.0 120.922895,22.402213,0.0 120.922966,22.402473,0.0 120.923146,22.403058,0.0 120.923263,22.403343,0.0 120.923505,22.404004,0.0 120.923523,22.404338,0.0 120.923604,22.404546,0.0 120.923685,22.404856,0.0 120.923875,22.405215,0.0 120.923962,22.405492,0.0 120.924035,22.405793,0.0 120.924116,22.406019,0.0 120.924242,22.406396,0.0 120.924331,22.406831,0.0 120.924547,22.407432,0.0 120.924682,22.407766,0.0 120.924762,22.408085,0.0 120.924906,22.408753,0.0 120.925005,22.409072,0.0 120.925162,22.409385,0.0 120.925191,22.40955,0.0 120.925199,22.409695,0.0 120.925382,22.410076,0.0 120.92549,22.410361,0.0 120.925643,22.410603,0.0 120.925885,22.411104,0.0 120.926083,22.411314,0.0 120.9262,22.411682,0.0 120.926254,22.411824,0.0 120.926442,22.412041,0.0 120.926567,22.412226,0.0 120.92664,22.412376,0.0 120.926667,22.412518,0.0 120.926883,22.413146,0.0 120.927098,22.413782,0.0 120.92725,22.414236,0.0</coordinates></LinearRing></outerBoundaryIs></Polygon><styleUrl>#spolygon-map</styleUrl></Placemark><Placemark><Polygon><outerBoundaryIs><LinearRing><coordinates>120.865566,22.347423,0.0 120.865524,22.347364,0.0 120.865384,22.347166,0.0 120.865319,22.347075,0.0 120.865227,22.346967,0.0 120.865162,22.346851,0.0 120.865103,22.346748,0.0 120.865064,22.34668,0.0 120.865012,22.346587,0.0 120.864907,22.346461,0.0 120.864781,22.346367,0.0 120.864684,22.346296,0.0 120.864568,22.346211,0.0 120.86454,22.346192,0.0 120.864403,22.346049,0.0 120.864348,22.345977,0.0 120.864318,22.345936,0.0 120.8642,22.345794,0.0 120.864089,22.345539,0.0 120.864063,22.345405,0.0 120.863997,22.345297,0.0 120.863742,22.344949,0.0 120.863638,22.3448,0.0 120.863585,22.34476,0.0 120.863487,22.344685,0.0 120.863394,22.344587,0.0 120.863336,22.344527,0.0 120.863258,22.344438,0.0 120.863231,22.344377,0.0 120.863153,22.344197,0.0 120.863128,22.344156,0.0 120.863094,22.344102,0.0 120.863033,22.344062,0.0 120.862996,22.344039,0.0 120.862878,22.344007,0.0 120.862714,22.343993,0.0 120.862518,22.344007,0.0 120.862419,22.343992,0.0 120.862374,22.343986,0.0 120.862243,22.343936,0.0 120.862073,22.343805,0.0 120.861922,22.343753,0.0 120.86175,22.343717,0.0 120.861686,22.343703,0.0 120.861431,22.343644,0.0 120.861405,22.343637,0.0 120.861228,22.34359,0.0 120.861082,22.343535,0.0 120.861071,22.343531,0.0 120.861069,22.34353,0.0 120.860861,22.343366,0.0 120.860715,22.343222,0.0 120.860625,22.343133,0.0 120.86053,22.343005,0.0 120.860444,22.342772,0.0 120.86042,22.342589,0.0 120.860436,22.342402,0.0 120.86047,22.342223,0.0 120.860491,22.34211,0.0 120.860565,22.341928,0.0 120.860641,22.341738,0.0 120.860665,22.341636,0.0 120.860671,22.341569,0.0 120.860673,22.341551,0.0 120.860657,22.341498,0.0 120.860625,22.34139,0.0 120.860434,22.340908,0.0 120.860337,22.340663,0.0 120.860321,22.340582,0.0 120.860325,22.340541,0.0 120.860329,22.340503,0.0 120.860376,22.34046,0.0 120.860493,22.340394,0.0 120.86087,22.340097,0.0 120.861455,22.33974,0.0 120.86209,22.339391,0.0 120.862337,22.339235,0.0 120.862536,22.339109,0.0 120.862594,22.33907,0.0 120.862645,22.339035,0.0 120.86277,22.338904,0.0 120.862936,22.33873,0.0 120.863115,22.338557,0.0 120.863201,22.338426,0.0 120.863271,22.338324,0.0 120.863284,22.338302,0.0 120.863311,22.338252,0.0 120.86353,22.337938,0.0 120.863744,22.337609,0.0 120.86378,22.337555,0.0 120.863875,22.337388,0.0 120.863926,22.337213,0.0 120.863937,22.337175,0.0 120.863969,22.337065,0.0 120.864016,22.3369,0.0 120.864037,22.336799,0.0 120.864094,22.336521,0.0 120.86413,22.336406,0.0 120.864156,22.336324,0.0 120.864211,22.336201,0.0 120.864275,22.336056,0.0 120.86433,22.335978,0.0 120.864407,22.335868,0.0 120.864524,22.335695,0.0 120.864603,22.335577,0.0 120.864838,22.335271,0.0 120.864945,22.335203,0.0 120.865018,22.335156,0.0 120.865144,22.335101,0.0 120.865222,22.335068,0.0 120.865363,22.335032,0.0 120.865472,22.334973,0.0 120.865605,22.334887,0.0 120.865785,22.334779,0.0 120.865938,22.334701,0.0 120.866027,22.334655,0.0 120.866138,22.33459,0.0 120.866175,22.334525,0.0 120.866192,22.334495,0.0 120.866196,22.334471,0.0 120.8662,22.334443,0.0 120.8662,22.334393,0.0 120.866185,22.334358,0.0 120.86616,22.334298,0.0 120.866052,22.334102,0.0 120.865983,22.33397,0.0 120.865903,22.333817,0.0 120.86577,22.333302,0.0 120.86574,22.333201,0.0 120.865572,22.332844,0.0 120.86554,22.332671,0.0 120.865518,22.332553,0.0 120.865534,22.3323,0.0 120.865549,22.332015,0.0 120.86566,22.33158,0.0 120.865699,22.331273,0.0 120.865731,22.331026,0.0 120.865762,22.330749,0.0 120.865746,22.330618,0.0 120.865719,22.33049,0.0 120.865654,22.330175,0.0 120.865627,22.329956,0.0 120.865607,22.329798,0.0 120.865497,22.329186,0.0 120.865492,22.329165,0.0 120.865435,22.328953,0.0 120.865381,22.328816,0.0 120.865302,22.328669,0.0 120.865217,22.32859,0.0 120.865184,22.328534,0.0 120.86517,22.328511,0.0 120.865162,22.328491,0.0 120.865147,22.328452,0.0 120.865121,22.328386,0.0 120.865792,22.327938,0.0 120.866139,22.327579,0.0 120.866183,22.326737,0.0 120.86652,22.325947,0.0 120.866892,22.325584,0.0 120.867211,22.325304,0.0 120.867606,22.325072,0.0 120.868107,22.324892,0.0 120.870539,22.324995,0.0 120.871301,22.324553,0.0 120.873389,22.323828,0.0 120.874186,22.323664,0.0 120.876275,22.3236,0.0 120.877868,22.3237,0.0 120.878398,22.323865,0.0 120.878793,22.324288,0.0 120.879088,22.3249,0.0 120.879252,22.325483,0.0 120.880501,22.328098,0.0 120.881023,22.329304,0.0 120.881446,22.330011,0.0 120.881827,22.330375,0.0 120.882203,22.330764,0.0 120.882518,22.330992,0.0 120.882802,22.331121,0.0 120.883217,22.331157,0.0 120.883748,22.33114,0.0 120.884198,22.331016,0.0 120.885951,22.330227,0.0 120.887226,22.329568,0.0 120.887881,22.329438,0.0 120.888359,22.329404,0.0 120.888837,22.329454,0.0 120.889527,22.32985,0.0 120.890075,22.330015,0.0 120.890429,22.329982,0.0 120.890864,22.329772,0.0 120.891368,22.329571,0.0 120.891934,22.329441,0.0 120.892928,22.329109,0.0 120.893156,22.329037,0.0 120.893189,22.329025,0.0 120.893326,22.329749,0.0 120.893371,22.330017,0.0 120.893559,22.330577,0.0 120.893667,22.331153,0.0 120.893738,22.33184,0.0 120.893819,22.332158,0.0 120.893998,22.332542,0.0 120.894218,22.333445,0.0 120.894222,22.333748,0.0 120.894357,22.334024,0.0 120.894546,22.334283,0.0 120.894698,22.334376,0.0 120.894878,22.334383,0.0 120.894959,22.334433,0.0 120.895139,22.334575,0.0 120.895902,22.334995,0.0 120.89606,22.335084,0.0 120.896253,22.335221,0.0 120.89645,22.335413,0.0 120.89654,22.335565,0.0 120.896558,22.335673,0.0 120.896558,22.335748,0.0 120.896504,22.335782,0.0 120.896432,22.335797,0.0 120.896369,22.335757,0.0 120.896351,22.335571,0.0 120.896163,22.335422,0.0 120.896109,22.335546,0.0 120.896058,22.335664,0.0 120.895893,22.335781,0.0 120.895506,22.336072,0.0 120.895398,22.336248,0.0 120.895398,22.336424,0.0 120.895452,22.336492,0.0 120.895515,22.336616,0.0 120.895685,22.336777,0.0 120.895851,22.336885,0.0 120.895905,22.336917,0.0 120.896054,22.336777,0.0 120.896117,22.336827,0.0 120.895865,22.337145,0.0 120.896054,22.337287,0.0 120.896054,22.337328,0.0 120.895847,22.337587,0.0 120.895923,22.337642,0.0 120.895811,22.337791,0.0 120.895875,22.33784,0.0 120.895995,22.337698,0.0 120.89608,22.337764,0.0 120.896161,22.337662,0.0 120.89626,22.337421,0.0 120.897231,22.337146,0.0 120.897303,22.337028,0.0 120.897206,22.335229,0.0 120.897116,22.335138,0.0 120.897044,22.334996,0.0 120.897071,22.334904,0.0 120.897134,22.334854,0.0 120.897386,22.334829,0.0 120.89753,22.334836,0.0 120.897611,22.334913,0.0 120.897649,22.335207,0.0 120.897754,22.335798,0.0 120.897825,22.336543,0.0 120.897924,22.33692,0.0 120.898023,22.337119,0.0 120.899083,22.337422,0.0 120.899128,22.337488,0.0 120.899155,22.337599,0.0 120.899074,22.337732,0.0 120.898795,22.337741,0.0 120.898517,22.337657,0.0 120.898364,22.337673,0.0 120.898229,22.337706,0.0 120.898112,22.337864,0.0 120.898094,22.337957,0.0 120.898129,22.338483,0.0 120.898102,22.338767,0.0 120.898201,22.339546,0.0 120.898497,22.339581,0.0 120.898515,22.33963,0.0 120.898479,22.339714,0.0 120.89821,22.339772,0.0 120.898119,22.340082,0.0 120.898091,22.340165,0.0 120.898182,22.340258,0.0 120.898254,22.340289,0.0 120.898515,22.34029,0.0 120.898587,22.340323,0.0 120.898596,22.340391,0.0 120.89864,22.341161,0.0 120.89873,22.34152,0.0 120.898819,22.341796,0.0 120.898861,22.34234,0.0 120.89844,22.34252,0.0 120.897627,22.343046,0.0 120.89743,22.343251,0.0 120.897285,22.343759,0.0 120.897228,22.343931,0.0 120.89718,22.344132,0.0 120.897132,22.344303,0.0 120.897075,22.344542,0.0 120.897019,22.344775,0.0 120.896809,22.345348,0.0 120.896592,22.345635,0.0 120.896399,22.345845,0.0 120.89614,22.346061,0.0 120.895964,22.346197,0.0 120.895851,22.346271,0.0 120.895739,22.346346,0.0 120.89557,22.346443,0.0 120.895433,22.346488,0.0 120.895264,22.346517,0.0 120.895075,22.346521,0.0 120.893919,22.346455,0.0 120.89352,22.346455,0.0 120.893377,22.346574,0.0 120.893163,22.346972,0.0 120.892706,22.348073,0.0 120.892535,22.348209,0.0 120.892397,22.348348,0.0 120.892274,22.348427,0.0 120.892046,22.348529,0.0 120.891933,22.34861,0.0 120.891828,22.348687,0.0 120.891259,22.349309,0.0 120.891013,22.349641,0.0 120.89096,22.349684,0.0 120.890886,22.34972,0.0 120.890829,22.349747,0.0 120.890562,22.349822,0.0 120.890516,22.349851,0.0 120.8905,22.349901,0.0 120.890506,22.349962,0.0 120.890522,22.350029,0.0 120.890557,22.35035,0.0 120.890526,22.350781,0.0 120.890562,22.351016,0.0 120.890693,22.351226,0.0 120.890693,22.351371,0.0 120.890669,22.351684,0.0 120.890687,22.35329,0.0 120.890558,22.353809,0.0 120.890464,22.354188,0.0 120.889968,22.354648,0.0 120.88969,22.354883,0.0 120.889372,22.354991,0.0 120.888637,22.355007,0.0 120.888252,22.354898,0.0 120.8874,22.354477,0.0 120.885177,22.353557,0.0 120.883924,22.352827,0.0 120.883454,22.353662,0.0 120.883036,22.354068,0.0 120.882615,22.354253,0.0 120.881104,22.354389,0.0 120.879965,22.354458,0.0 120.879098,22.354688,0.0 120.878613,22.354934,0.0 120.878108,22.354985,0.0 120.876277,22.353602,0.0 120.875237,22.353326,0.0 120.874074,22.352887,0.0 120.87329,22.352469,0.0 120.872515,22.351872,0.0 120.871945,22.351734,0.0 120.871079,22.351686,0.0 120.869643,22.351892,0.0 120.869273,22.351816,0.0 120.86924,22.35177,0.0 120.869128,22.351646,0.0 120.869069,22.351585,0.0 120.869009,22.351542,0.0 120.868876,22.351494,0.0 120.868578,22.351377,0.0 120.868266,22.351293,0.0 120.868095,22.351272,0.0 120.867485,22.351071,0.0 120.867305,22.35099,0.0 120.867246,22.350942,0.0 120.867201,22.350895,0.0 120.867186,22.350804,0.0 120.867179,22.350673,0.0 120.867269,22.350202,0.0 120.867232,22.349752,0.0 120.867217,22.349642,0.0 120.867165,22.349511,0.0 120.867016,22.349339,0.0 120.866823,22.349178,0.0 120.866749,22.349061,0.0 120.866415,22.348605,0.0 120.86606,22.348193,0.0 120.865985,22.348044,0.0 120.865705,22.34762,0.0 120.865566,22.347423,0.0</coordinates></LinearRing></outerBoundaryIs></Polygon><styleUrl>#spolygon-map</styleUrl></Placemark><Placemark><Polygon><outerBoundaryIs><LinearRing><coordinates>120.893189,22.329025,0.0 120.893156,22.329037,0.0 120.892928,22.329109,0.0 120.891934,22.329441,0.0 120.891368,22.329571,0.0 120.890864,22.329772,0.0 120.890429,22.329982,0.0 120.890075,22.330015,0.0 120.889527,22.32985,0.0 120.888837,22.329454,0.0 120.888359,22.329404,0.0 120.887881,22.329438,0.0 120.887226,22.329568,0.0 120.885951,22.330227,0.0 120.884198,22.331016,0.0 120.883748,22.33114,0.0 120.883217,22.331157,0.0 120.882802,22.331121,0.0 120.882518,22.330992,0.0 120.882203,22.330764,0.0 120.881827,22.330375,0.0 120.881446,22.330011,0.0 120.881023,22.329304,0.0 120.880501,22.328098,0.0 120.879252,22.325483,0.0 120.879088,22.3249,0.0 120.878793,22.324288,0.0 120.878398,22.323865,0.0 120.877868,22.3237,0.0 120.876275,22.3236,0.0 120.874186,22.323664,0.0 120.873389,22.323828,0.0 120.871301,22.324553,0.0 120.870539,22.324995,0.0 120.868107,22.324892,0.0 120.867606,22.325072,0.0 120.867211,22.325304,0.0 120.866892,22.325584,0.0 120.86652,22.325947,0.0 120.866183,22.326737,0.0 120.866139,22.327579,0.0 120.865792,22.327938,0.0 120.865121,22.328386,0.0 120.865119,22.32838,0.0 120.865086,22.328298,0.0 120.865016,22.32819,0.0 120.864876,22.328036,0.0 120.864657,22.327819,0.0 120.864477,22.327623,0.0 120.864366,22.327494,0.0 120.864345,22.327469,0.0 120.864317,22.327432,0.0 120.864196,22.327273,0.0 120.864111,22.327056,0.0 120.864025,22.32685,0.0 120.86397,22.326618,0.0 120.863939,22.326283,0.0 120.863955,22.325425,0.0 120.863993,22.325095,0.0 120.864058,22.324531,0.0 120.864124,22.324051,0.0 120.864114,22.323811,0.0 120.86411,22.323757,0.0 120.864106,22.32371,0.0 120.864036,22.323536,0.0 120.863862,22.323192,0.0 120.863786,22.323043,0.0 120.863643,22.322601,0.0 120.863514,22.322204,0.0 120.863492,22.322138,0.0 120.863341,22.321763,0.0 120.863259,22.321634,0.0 120.863144,22.321504,0.0 120.863085,22.321437,0.0 120.862915,22.321297,0.0 120.862793,22.321243,0.0 120.862496,22.321198,0.0 120.862452,22.321187,0.0 120.862291,22.32115,0.0 120.862175,22.321111,0.0 120.861965,22.320964,0.0 120.861895,22.320878,0.0 120.861843,22.320813,0.0 120.86172,22.320547,0.0 120.861652,22.320322,0.0 120.861645,22.320298,0.0 120.861605,22.320226,0.0 120.861522,22.320145,0.0 120.861384,22.320032,0.0 120.861336,22.319993,0.0 120.861311,22.319965,0.0 120.860965,22.319577,0.0 120.860918,22.319501,0.0 120.860918,22.319491,0.0 120.860914,22.319444,0.0 120.860907,22.319416,0.0 120.860872,22.319279,0.0 120.860821,22.319022,0.0 120.860798,22.318902,0.0 120.860757,22.318841,0.0 120.860706,22.318798,0.0 120.860613,22.318728,0.0 120.860441,22.318633,0.0 120.860283,22.318564,0.0 120.860168,22.318513,0.0 120.859983,22.318443,0.0 120.859946,22.318422,0.0 120.859859,22.318371,0.0 120.859753,22.318295,0.0 120.85964,22.318215,0.0 120.859405,22.318043,0.0 120.859196,22.317864,0.0 120.859044,22.317675,0.0 120.858945,22.317544,0.0 120.858891,22.317473,0.0 120.85878,22.317284,0.0 120.858716,22.317147,0.0 120.858711,22.317137,0.0 120.858655,22.316913,0.0 120.85861,22.316743,0.0 120.858609,22.316739,0.0 120.858595,22.316645,0.0 120.858596,22.316559,0.0 120.858589,22.316524,0.0 120.858587,22.316511,0.0 120.858583,22.316487,0.0 120.858578,22.316462,0.0 120.858569,22.316414,0.0 120.858558,22.316367,0.0 120.858555,22.316349,0.0 120.858548,22.316317,0.0 120.85855,22.31625,0.0 120.858553,22.316148,0.0 120.858559,22.316105,0.0 120.858563,22.316078,0.0 120.858582,22.316019,0.0 120.858586,22.316006,0.0 120.858625,22.315949,0.0 120.858678,22.315902,0.0 120.858688,22.315893,0.0 120.858782,22.315807,0.0 120.858955,22.315715,0.0 120.859136,22.315652,0.0 120.859266,22.315582,0.0 120.859356,22.315517,0.0 120.859419,22.315473,0.0 120.859529,22.315336,0.0 120.859569,22.315274,0.0 120.859648,22.315153,0.0 120.859749,22.315004,0.0 120.859762,22.314991,0.0 120.859831,22.314923,0.0 120.859927,22.314872,0.0 120.859964,22.314853,0.0 120.859999,22.314825,0.0 120.860098,22.314745,0.0 120.860157,22.314708,0.0 120.860194,22.314684,0.0 120.860293,22.314596,0.0 120.860399,22.314501,0.0 120.860436,22.314458,0.0 120.860557,22.314314,0.0 120.860647,22.314184,0.0 120.860682,22.314133,0.0 120.860729,22.314092,0.0 120.860811,22.314021,0.0 120.860861,22.31399,0.0 120.860984,22.313915,0.0 120.861237,22.313795,0.0 120.861365,22.313736,0.0 120.861428,22.313707,0.0 120.86159,22.313605,0.0 120.861653,22.313565,0.0 120.861745,22.313495,0.0 120.861988,22.313308,0.0 120.862038,22.313264,0.0 120.862136,22.313177,0.0 120.862276,22.313052,0.0 120.862285,22.313044,0.0 120.862671,22.312726,0.0 120.862676,22.312724,0.0 120.862863,22.312627,0.0 120.863027,22.312537,0.0 120.863173,22.312458,0.0 120.863505,22.31228,0.0 120.863601,22.312224,0.0 120.863765,22.312129,0.0 120.86395,22.311989,0.0 120.864023,22.311935,0.0 120.864215,22.311768,0.0 120.864305,22.311683,0.0 120.864447,22.311549,0.0 120.864636,22.311429,0.0 120.86478,22.311355,0.0 120.864835,22.311326,0.0 120.864889,22.311312,0.0 120.865056,22.31127,0.0 120.865135,22.311238,0.0 120.86517,22.311221,0.0 120.865249,22.311182,0.0 120.865352,22.311103,0.0 120.865408,22.311057,0.0 120.865492,22.31099,0.0 120.865623,22.310911,0.0 120.86565,22.3109,0.0 120.86572,22.310873,0.0 120.865745,22.310865,0.0 120.865823,22.310843,0.0 120.866005,22.310805,0.0 120.866104,22.310762,0.0 120.86613,22.310751,0.0 120.866272,22.310693,0.0 120.866415,22.310602,0.0 120.866446,22.310576,0.0 120.866494,22.310537,0.0 120.866536,22.310492,0.0 120.866593,22.310431,0.0 120.86675,22.310246,0.0 120.866801,22.310214,0.0 120.866904,22.310149,0.0 120.867082,22.310068,0.0 120.867117,22.310052,0.0 120.867328,22.309957,0.0 120.867474,22.309874,0.0 120.867731,22.309712,0.0 120.867938,22.30956,0.0 120.868077,22.30945,0.0 120.868252,22.309251,0.0 120.868316,22.309182,0.0 120.868444,22.309046,0.0 120.86854,22.308913,0.0 120.868559,22.308876,0.0 120.86858,22.308834,0.0 120.86859,22.308726,0.0 120.868578,22.308602,0.0 120.868558,22.308407,0.0 120.868555,22.308301,0.0 120.86857,22.308159,0.0 120.86857,22.307967,0.0 120.868556,22.307265,0.0 120.868549,22.307258,0.0 120.868503,22.307222,0.0 120.868425,22.307176,0.0 120.868353,22.307134,0.0 120.868096,22.307032,0.0 120.867875,22.306954,0.0 120.867833,22.306939,0.0 120.867694,22.306862,0.0 120.867438,22.306663,0.0 120.867324,22.306567,0.0 120.867296,22.306543,0.0 120.867256,22.306455,0.0 120.867271,22.30641,0.0 120.86747,22.306256,0.0 120.867709,22.30607,0.0 120.868146,22.305772,0.0 120.868167,22.305758,0.0 120.868609,22.305402,0.0 120.86868,22.305327,0.0 120.868761,22.305242,0.0 120.86881,22.305148,0.0 120.868861,22.30505,0.0 120.868937,22.304948,0.0 120.86899,22.304885,0.0 120.869028,22.304858,0.0 120.869193,22.304739,0.0 120.869296,22.304655,0.0 120.869378,22.304588,0.0 120.869521,22.304434,0.0 120.869574,22.304391,0.0 120.8698,22.304213,0.0 120.869895,22.304139,0.0 120.870036,22.30402,0.0 120.870099,22.303967,0.0 120.870302,22.303841,0.0 120.87036,22.303807,0.0 120.870391,22.303789,0.0 120.870562,22.303726,0.0 120.8706,22.303713,0.0 120.870698,22.303681,0.0 120.870743,22.303663,0.0 120.87083,22.303627,0.0 120.870905,22.303585,0.0 120.870919,22.303577,0.0 120.870933,22.303567,0.0 120.871022,22.303505,0.0 120.871115,22.303418,0.0 120.871293,22.303252,0.0 120.871404,22.30315,0.0 120.871475,22.303083,0.0 120.871875,22.302695,0.0 120.872023,22.302589,0.0 120.872147,22.302549,0.0 120.872267,22.302542,0.0 120.87237,22.30256,0.0 120.872394,22.302569,0.0 120.872446,22.302589,0.0 120.872475,22.30261,0.0 120.872485,22.302617,0.0 120.872575,22.302718,0.0 120.872708,22.302852,0.0 120.872828,22.302944,0.0 120.872918,22.302984,0.0 120.872973,22.303008,0.0 120.872987,22.303012,0.0 120.873062,22.303035,0.0 120.873156,22.303045,0.0 120.873191,22.303048,0.0 120.873324,22.303055,0.0 120.873598,22.303049,0.0 120.873733,22.303063,0.0 120.873767,22.303067,0.0 120.873831,22.303087,0.0 120.873908,22.30311,0.0 120.87405,22.30318,0.0 120.874123,22.303239,0.0 120.874167,22.303275,0.0 120.874341,22.303472,0.0 120.874807,22.304181,0.0 120.874945,22.304375,0.0 120.875126,22.304567,0.0 120.87517,22.304569,0.0 120.875195,22.30457,0.0 120.875369,22.304552,0.0 120.875385,22.304548,0.0 120.875438,22.304536,0.0 120.875478,22.304525,0.0 120.875502,22.304518,0.0 120.875533,22.304506,0.0 120.875571,22.304491,0.0 120.875625,22.304456,0.0 120.875677,22.304423,0.0 120.875741,22.30434,0.0 120.87581,22.304182,0.0 120.875902,22.304001,0.0 120.875954,22.303897,0.0 120.87614,22.303462,0.0 120.876249,22.30329,0.0 120.87633,22.303191,0.0 120.87645,22.303088,0.0 120.876667,22.302904,0.0 120.87697,22.302722,0.0 120.877333,22.302537,0.0 120.877527,22.30244,0.0 120.877613,22.302397,0.0 120.877854,22.302334,0.0 120.878121,22.302266,0.0 120.878414,22.302204,0.0 120.878437,22.302199,0.0 120.878559,22.302186,0.0 120.878715,22.30217,0.0 120.87908,22.302186,0.0 120.879523,22.302252,0.0 120.879666,22.302283,0.0 120.87972,22.302292,0.0 120.879815,22.302306,0.0 120.879851,22.302307,0.0 120.879897,22.302308,0.0 120.879932,22.302311,0.0 120.879966,22.302313,0.0 120.88003,22.302306,0.0 120.880091,22.302287,0.0 120.880122,22.302277,0.0 120.880289,22.30216,0.0 120.88031,22.302152,0.0 120.880459,22.302094,0.0 120.880567,22.302072,0.0 120.880664,22.302072,0.0 120.880902,22.302075,0.0 120.881029,22.302077,0.0 120.881348,22.302081,0.0 120.881458,22.302072,0.0 120.881578,22.302048,0.0 120.881622,22.302038,0.0 120.881724,22.302014,0.0 120.881788,22.301991,0.0 120.881862,22.301964,0.0 120.882225,22.301825,0.0 120.8825,22.301707,0.0 120.882711,22.301599,0.0 120.883035,22.301426,0.0 120.883185,22.301351,0.0 120.883452,22.301259,0.0 120.884354,22.300751,0.0 120.884637,22.30059,0.0 120.884971,22.3004,0.0 120.885161,22.300295,0.0 120.885338,22.300197,0.0 120.885392,22.300162,0.0 120.885563,22.300055,0.0 120.885615,22.300014,0.0 120.885665,22.299976,0.0 120.885777,22.299867,0.0 120.88581,22.299836,0.0 120.885952,22.2997,0.0 120.886118,22.299497,0.0 120.886206,22.299367,0.0 120.88627,22.299272,0.0 120.886373,22.299078,0.0 120.886377,22.299067,0.0 120.886481,22.298827,0.0 120.886506,22.298746,0.0 120.886575,22.298527,0.0 120.886603,22.298404,0.0 120.886642,22.298236,0.0 120.886647,22.298197,0.0 120.886648,22.29819,0.0 120.886653,22.298149,0.0 120.886667,22.298039,0.0 120.886644,22.297917,0.0 120.886617,22.297819,0.0 120.886614,22.297809,0.0 120.886604,22.297743,0.0 120.886625,22.297664,0.0 120.886659,22.297636,0.0 120.886681,22.297617,0.0 120.886766,22.297582,0.0 120.886798,22.29757,0.0 120.886884,22.297531,0.0 120.886965,22.297486,0.0 120.886985,22.297475,0.0 120.887052,22.297457,0.0 120.887148,22.297437,0.0 120.887274,22.297405,0.0 120.887412,22.297349,0.0 120.887445,22.297328,0.0 120.887498,22.297295,0.0 120.887605,22.297173,0.0 120.88793,22.296748,0.0 120.887997,22.296617,0.0 120.888071,22.296471,0.0 120.888118,22.2962,0.0 120.88812,22.296099,0.0 120.888122,22.295988,0.0 120.888163,22.295575,0.0 120.888267,22.295368,0.0 120.888293,22.295315,0.0 120.888322,22.295289,0.0 120.888388,22.295227,0.0 120.888321,22.295128,0.0 120.888294,22.295039,0.0 120.888293,22.295037,0.0 120.888316,22.294979,0.0 120.888486,22.294972,0.0 120.888527,22.294964,0.0 120.888588,22.294952,0.0 120.888645,22.294898,0.0 120.888645,22.294843,0.0 120.888622,22.294739,0.0 120.888557,22.294648,0.0 120.888529,22.294608,0.0 120.888514,22.29452,0.0 120.888511,22.294498,0.0 120.888507,22.29446,0.0 120.888491,22.294313,0.0 120.88845,22.294138,0.0 120.888443,22.294107,0.0 120.888266,22.293502,0.0 120.888205,22.293299,0.0 120.888106,22.292976,0.0 120.888089,22.292876,0.0 120.88808,22.292822,0.0 120.888058,22.292637,0.0 120.888064,22.292517,0.0 120.888154,22.292416,0.0 120.888229,22.292376,0.0 120.888322,22.292326,0.0 120.888513,22.292299,0.0 120.888574,22.292259,0.0 120.888626,22.292226,0.0 120.888722,22.291974,0.0 120.888826,22.291898,0.0 120.888942,22.291813,0.0 120.889462,22.291658,0.0 120.889591,22.291627,0.0 120.889922,22.29155,0.0 120.890419,22.291528,0.0 120.891132,22.291497,0.0 120.891147,22.291499,0.0 120.891162,22.291625,0.0 120.891144,22.291844,0.0 120.89118,22.292454,0.0 120.891242,22.293073,0.0 120.891214,22.293339,0.0 120.891206,22.29342,0.0 120.891217,22.293468,0.0 120.89117,22.293761,0.0 120.891186,22.29559,0.0 120.891222,22.296218,0.0 120.891275,22.29657,0.0 120.891239,22.29748,0.0 120.891256,22.298275,0.0 120.891283,22.298451,0.0 120.89121,22.299388,0.0 120.891246,22.299697,0.0 120.891228,22.300115,0.0 120.891245,22.301061,0.0 120.891235,22.302366,0.0 120.891261,22.303109,0.0 120.891297,22.303186,0.0 120.89126,22.304197,0.0 120.891322,22.305602,0.0 120.891349,22.306313,0.0 120.891357,22.306665,0.0 120.8915,22.307819,0.0 120.891491,22.308722,0.0 120.891508,22.309032,0.0 120.891571,22.309659,0.0 120.891552,22.310219,0.0 120.891633,22.310946,0.0 120.89165,22.311357,0.0 120.891641,22.31184,0.0 120.891649,22.312527,0.0 120.891694,22.31287,0.0 120.891738,22.313807,0.0 120.891801,22.31394,0.0 120.891819,22.314175,0.0 120.891774,22.314358,0.0 120.891828,22.314701,0.0 120.891854,22.314995,0.0 120.891917,22.315347,0.0 120.891881,22.315638,0.0 120.891836,22.315839,0.0 120.891835,22.316173,0.0 120.891907,22.31635,0.0 120.891917,22.316541,0.0 120.891907,22.316733,0.0 120.891943,22.317036,0.0 120.89196,22.317386,0.0 120.892005,22.317998,0.0 120.892044,22.318319,0.0 120.892031,22.318402,0.0 120.892049,22.318436,0.0 120.892022,22.31865,0.0 120.892031,22.318741,0.0 120.89211,22.318899,0.0 120.892112,22.319102,0.0 120.892166,22.319387,0.0 120.892228,22.319737,0.0 120.892174,22.320129,0.0 120.892192,22.320565,0.0 120.892245,22.320775,0.0 120.892317,22.320942,0.0 120.892326,22.321267,0.0 120.892361,22.322498,0.0 120.892432,22.323266,0.0 120.892459,22.323609,0.0 120.892548,22.324797,0.0 120.892718,22.325802,0.0 120.892745,22.326111,0.0 120.892843,22.327089,0.0 120.892905,22.327506,0.0 120.892932,22.327673,0.0 120.893189,22.329025,0.0</coordinates></LinearRing></outerBoundaryIs></Polygon><styleUrl>#spolygon-map</styleUrl></Placemark></Document>
</kml>
