<?xml version="1.0" encoding="UTF-8"?>
<kml xmlns="http://www.opengis.net/kml/2.2">
	<Document>
		<name>花蓮縣花蓮市</name>
		<Style id="spolygon">
			<LabelStyle>
				<scale>0.0</scale>
			</LabelStyle>
			<LineStyle>
				<color>330030ff</color>
				<width>0</width>
			</LineStyle>
			<PolyStyle>
				<color>330030ff</color>
			</PolyStyle>
		</Style>
		<StyleMap id="spolygon-map">
			<Pair>
				<key>normal</key>
				<styleUrl>#spolygon</styleUrl>
			</Pair>
		</StyleMap>
	<Placemark><Polygon><outerBoundaryIs><LinearRing><coordinates>121.595005,23.975998,0.0 121.596314,23.974825,0.0 121.596441,23.974707,0.0 121.598077,23.97319,0.0 121.598554,23.972749,0.0 121.598913,23.97319,0.0 121.599099,23.973419,0.0 121.598872,23.973733,0.0 121.600142,23.974548,0.0 121.600931,23.974666,0.0 121.602006,23.974468,0.0 121.602713,23.974918,0.0 121.602309,23.975437,0.0 121.600865,23.977295,0.0 121.598863,23.976913,0.0 121.597263,23.976645,0.0 121.596081,23.976402,0.0 121.595005,23.975998,0.0</coordinates></LinearRing></outerBoundaryIs></Polygon><styleUrl>#spolygon-map</styleUrl></Placemark><Placemark><Polygon><outerBoundaryIs><LinearRing><coordinates>121.604549,23.978099,0.0 121.603061,23.977138,0.0 121.601669,23.978943,0.0 121.600296,23.978027,0.0 121.600865,23.977295,0.0 121.602309,23.975437,0.0 121.603286,23.975549,0.0 121.605097,23.975756,0.0 121.605957,23.976308,0.0 121.604622,23.978007,0.0 121.604549,23.978099,0.0</coordinates></LinearRing></outerBoundaryIs></Polygon><styleUrl>#spolygon-map</styleUrl></Placemark><Placemark><Polygon><outerBoundaryIs><LinearRing><coordinates>121.598554,23.972749,0.0 121.598077,23.97319,0.0 121.596441,23.974707,0.0 121.59668,23.974068,0.0 121.595904,23.973191,0.0 121.595786,23.973057,0.0 121.597403,23.971275,0.0 121.60444,23.963566,0.0 121.60463,23.963514,0.0 121.606349,23.963276,0.0 121.60261,23.968287,0.0 121.602155,23.968942,0.0 121.601607,23.969491,0.0 121.600298,23.970606,0.0 121.598996,23.971715,0.0 121.599373,23.971989,0.0 121.598554,23.972749,0.0</coordinates></LinearRing></outerBoundaryIs></Polygon><styleUrl>#spolygon-map</styleUrl></Placemark><Placemark><Polygon><outerBoundaryIs><LinearRing><coordinates>121.604116,23.973112,0.0 121.600298,23.970606,0.0 121.601607,23.969491,0.0 121.602155,23.968942,0.0 121.60261,23.968287,0.0 121.606349,23.963276,0.0 121.607128,23.963167,0.0 121.607402,23.963117,0.0 121.607754,23.963086,0.0 121.608158,23.963077,0.0 121.608161,23.963077,0.0 121.608347,23.963063,0.0 121.608537,23.963058,0.0 121.608733,23.96305,0.0 121.608843,23.963314,0.0 121.60903,23.963552,0.0 121.609174,23.963742,0.0 121.6093,23.96394,0.0 121.609349,23.96405,0.0 121.609402,23.964118,0.0 121.609475,23.964257,0.0 121.609783,23.964699,0.0 121.609901,23.964858,0.0 121.610042,23.965061,0.0 121.610277,23.965351,0.0 121.610562,23.965686,0.0 121.610623,23.965774,0.0 121.608808,23.967074,0.0 121.608158,23.96791,0.0 121.604626,23.972456,0.0 121.604116,23.973112,0.0</coordinates></LinearRing></outerBoundaryIs></Polygon><styleUrl>#spolygon-map</styleUrl></Placemark><Placemark><Polygon><outerBoundaryIs><LinearRing><coordinates>121.603286,23.975549,0.0 121.604322,23.974222,0.0 121.604989,23.974658,0.0 121.605481,23.974027,0.0 121.606988,23.974996,0.0 121.605957,23.976308,0.0 121.605097,23.975756,0.0 121.603286,23.975549,0.0</coordinates></LinearRing></outerBoundaryIs></Polygon><styleUrl>#spolygon-map</styleUrl></Placemark><Placemark><Polygon><outerBoundaryIs><LinearRing><coordinates>121.606008,23.973352,0.0 121.605756,23.973189,0.0 121.604626,23.972456,0.0 121.608158,23.96791,0.0 121.608808,23.967074,0.0 121.610623,23.965774,0.0 121.61076,23.965972,0.0 121.610825,23.966031,0.0 121.610871,23.966128,0.0 121.611041,23.966321,0.0 121.611091,23.966411,0.0 121.611186,23.966542,0.0 121.611596,23.967037,0.0 121.61173,23.967237,0.0 121.611871,23.967458,0.0 121.612072,23.967705,0.0 121.612099,23.967762,0.0 121.612133,23.967852,0.0 121.61224,23.968066,0.0 121.612266,23.968113,0.0 121.612305,23.96819,0.0 121.612351,23.968268,0.0 121.612412,23.968361,0.0 121.612632,23.968644,0.0 121.612773,23.968831,0.0 121.612896,23.969013,0.0 121.61302,23.969196,0.0 121.613131,23.969394,0.0 121.613237,23.969543,0.0 121.61345,23.969797,0.0 121.613549,23.969945,0.0 121.613675,23.970193,0.0 121.613732,23.970288,0.0 121.612965,23.970356,0.0 121.612507,23.970312,0.0 121.612066,23.970251,0.0 121.611458,23.970219,0.0 121.610795,23.970151,0.0 121.608974,23.972469,0.0 121.608408,23.973189,0.0 121.608159,23.973507,0.0 121.607999,23.97371,0.0 121.607213,23.973189,0.0 121.606495,23.972714,0.0 121.606132,23.973189,0.0 121.606008,23.973352,0.0</coordinates></LinearRing></outerBoundaryIs></Polygon><styleUrl>#spolygon-map</styleUrl></Placemark><Placemark><Polygon><outerBoundaryIs><LinearRing><coordinates>121.605985,23.977929,0.0 121.608159,23.975114,0.0 121.609292,23.973645,0.0 121.609319,23.974599,0.0 121.609952,23.975008,0.0 121.609014,23.976208,0.0 121.608839,23.976481,0.0 121.608545,23.976835,0.0 121.608159,23.977109,0.0 121.607686,23.977444,0.0 121.607318,23.977539,0.0 121.6068,23.97773,0.0 121.606418,23.977813,0.0 121.606064,23.977915,0.0 121.605985,23.977929,0.0</coordinates></LinearRing></outerBoundaryIs></Polygon><styleUrl>#spolygon-map</styleUrl></Placemark><Placemark><Polygon><outerBoundaryIs><LinearRing><coordinates>121.604622,23.978007,0.0 121.605957,23.976308,0.0 121.606988,23.974996,0.0 121.607999,23.97371,0.0 121.608159,23.973507,0.0 121.608408,23.973189,0.0 121.608974,23.972469,0.0 121.609792,23.972981,0.0 121.609635,23.973189,0.0 121.609292,23.973645,0.0 121.608159,23.975114,0.0 121.605985,23.977929,0.0 121.605784,23.977966,0.0 121.605341,23.978018,0.0 121.60489,23.978032,0.0 121.604622,23.978007,0.0</coordinates></LinearRing></outerBoundaryIs></Polygon><styleUrl>#spolygon-map</styleUrl></Placemark><Placemark><Polygon><outerBoundaryIs><LinearRing><coordinates>121.603286,23.975549,0.0 121.602309,23.975437,0.0 121.602713,23.974918,0.0 121.604056,23.97319,0.0 121.604116,23.973112,0.0 121.604626,23.972456,0.0 121.605756,23.973189,0.0 121.606008,23.973352,0.0 121.605481,23.974027,0.0 121.604989,23.974658,0.0 121.604322,23.974222,0.0 121.603286,23.975549,0.0</coordinates></LinearRing></outerBoundaryIs></Polygon><styleUrl>#spolygon-map</styleUrl></Placemark><Placemark><Polygon><outerBoundaryIs><LinearRing><coordinates>121.605481,23.974027,0.0 121.606008,23.973352,0.0 121.606132,23.973189,0.0 121.606495,23.972714,0.0 121.607213,23.973189,0.0 121.607999,23.97371,0.0 121.606988,23.974996,0.0 121.605481,23.974027,0.0</coordinates></LinearRing></outerBoundaryIs></Polygon><styleUrl>#spolygon-map</styleUrl></Placemark><Placemark><Polygon><outerBoundaryIs><LinearRing><coordinates>121.594066,23.969144,0.0 121.594784,23.96855,0.0 121.595064,23.968341,0.0 121.595316,23.968144,0.0 121.595618,23.967896,0.0 121.59585,23.967681,0.0 121.595949,23.967604,0.0 121.596272,23.967336,0.0 121.596528,23.967114,0.0 121.596813,23.966867,0.0 121.597056,23.966672,0.0 121.597373,23.966429,0.0 121.597611,23.966239,0.0 121.59769,23.966171,0.0 121.598499,23.965626,0.0 121.599602,23.965058,0.0 121.60092,23.964488,0.0 121.601716,23.964175,0.0 121.60325,23.963887,0.0 121.60444,23.963566,0.0 121.597403,23.971275,0.0 121.594066,23.969144,0.0</coordinates></LinearRing></outerBoundaryIs></Polygon><styleUrl>#spolygon-map</styleUrl></Placemark><Placemark><Polygon><outerBoundaryIs><LinearRing><coordinates>121.602713,23.974918,0.0 121.602006,23.974468,0.0 121.600931,23.974666,0.0 121.600142,23.974548,0.0 121.598872,23.973733,0.0 121.599099,23.973419,0.0 121.598913,23.97319,0.0 121.598554,23.972749,0.0 121.599373,23.971989,0.0 121.598996,23.971715,0.0 121.600298,23.970606,0.0 121.604116,23.973112,0.0 121.604056,23.97319,0.0 121.602713,23.974918,0.0</coordinates></LinearRing></outerBoundaryIs></Polygon><styleUrl>#spolygon-map</styleUrl></Placemark><Placemark><Polygon><outerBoundaryIs><LinearRing><coordinates>121.595005,23.975998,0.0 121.59429,23.976639,0.0 121.593026,23.976975,0.0 121.592482,23.976308,0.0 121.589685,23.974836,0.0 121.5897,23.974239,0.0 121.588203,23.974112,0.0 121.58927,23.973191,0.0 121.589846,23.972694,0.0 121.594066,23.969144,0.0 121.597403,23.971275,0.0 121.595786,23.973057,0.0 121.595904,23.973191,0.0 121.59668,23.974068,0.0 121.596441,23.974707,0.0 121.596314,23.974825,0.0 121.595005,23.975998,0.0</coordinates></LinearRing></outerBoundaryIs></Polygon><styleUrl>#spolygon-map</styleUrl></Placemark><Placemark><Polygon><outerBoundaryIs><LinearRing><coordinates>121.629686,24.024801,0.0 121.629523,24.024639,0.0 121.629051,24.024185,0.0 121.628719,24.023891,0.0 121.628018,24.023196,0.0 121.628011,24.02319,0.0 121.62798,24.023147,0.0 121.627911,24.023054,0.0 121.627824,24.022962,0.0 121.627722,24.022852,0.0 121.627599,24.022704,0.0 121.627513,24.022609,0.0 121.627365,24.022445,0.0 121.627259,24.022324,0.0 121.627136,24.022186,0.0 121.62702,24.022054,0.0 121.626906,24.021921,0.0 121.626807,24.021797,0.0 121.626689,24.021669,0.0 121.626567,24.021512,0.0 121.626507,24.02143,0.0 121.626404,24.021293,0.0 121.626331,24.021187,0.0 121.626228,24.021037,0.0 121.626146,24.020906,0.0 121.626106,24.020838,0.0 121.626041,24.020708,0.0 121.625968,24.020575,0.0 121.62592,24.020489,0.0 121.625869,24.020383,0.0 121.625816,24.020284,0.0 121.625759,24.020174,0.0 121.62572,24.020095,0.0 121.625673,24.020019,0.0 121.625637,24.019974,0.0 121.625579,24.01989,0.0 121.625484,24.019771,0.0 121.625406,24.019685,0.0 121.625344,24.019591,0.0 121.625273,24.019494,0.0 121.625215,24.0194,0.0 121.625161,24.019298,0.0 121.625092,24.019172,0.0 121.625032,24.019093,0.0 121.624951,24.019006,0.0 121.624864,24.018911,0.0 121.6248,24.018844,0.0 121.624735,24.018781,0.0 121.624608,24.018657,0.0 121.62451,24.018563,0.0 121.624396,24.01845,0.0 121.624287,24.018354,0.0 121.624163,24.018239,0.0 121.624051,24.01814,0.0 121.623984,24.018075,0.0 121.623858,24.017945,0.0 121.623796,24.01787,0.0 121.623732,24.017801,0.0 121.623666,24.017711,0.0 121.623586,24.017596,0.0 121.623525,24.017508,0.0 121.623446,24.017387,0.0 121.623382,24.017285,0.0 121.623323,24.017188,0.0 121.623259,24.017085,0.0 121.623196,24.017011,0.0 121.623099,24.0169,0.0 121.622987,24.016772,0.0 121.622903,24.016666,0.0 121.622824,24.016572,0.0 121.622734,24.01645,0.0 121.622638,24.016345,0.0 121.622548,24.016243,0.0 121.622432,24.016108,0.0 121.622333,24.015989,0.0 121.622227,24.015863,0.0 121.622151,24.015769,0.0 121.62204,24.015634,0.0 121.62196,24.01553,0.0 121.621889,24.015445,0.0 121.621853,24.015379,0.0 121.621792,24.01528,0.0 121.621748,24.015206,0.0 121.621674,24.01508,0.0 121.621599,24.014947,0.0 121.621537,24.014832,0.0 121.621475,24.014717,0.0 121.621412,24.014602,0.0 121.621347,24.014481,0.0 121.621283,24.014388,0.0 121.621179,24.014231,0.0 121.621065,24.014058,0.0 121.620999,24.013961,0.0 121.620929,24.013882,0.0 121.62088,24.013835,0.0 121.620805,24.01377,0.0 121.620665,24.013646,0.0 121.62053,24.013527,0.0 121.620391,24.013401,0.0 121.620296,24.013307,0.0 121.620143,24.013154,0.0 121.62006,24.013064,0.0 121.619988,24.012987,0.0 121.619891,24.012884,0.0 121.619802,24.012783,0.0 121.619719,24.012693,0.0 121.619666,24.01263,0.0 121.619565,24.012497,0.0 121.619508,24.012427,0.0 121.619441,24.012344,0.0 121.61938,24.012272,0.0 121.619286,24.012166,0.0 121.6192,24.012054,0.0 121.619136,24.011964,0.0 121.619049,24.01186,0.0 121.61895,24.011725,0.0 121.618924,24.011692,0.0 121.618784,24.011514,0.0 121.618693,24.01139,0.0 121.618634,24.011311,0.0 121.618504,24.011172,0.0 121.618399,24.011068,0.0 121.618304,24.010965,0.0 121.618188,24.010844,0.0 121.618111,24.01076,0.0 121.617996,24.010632,0.0 121.617905,24.010533,0.0 121.617806,24.010425,0.0 121.617758,24.010362,0.0 121.61772,24.010297,0.0 121.617681,24.010211,0.0 121.617673,24.010155,0.0 121.617674,24.010008,0.0 121.617673,24.00983,0.0 121.61768,24.009636,0.0 121.617698,24.009439,0.0 121.617706,24.00929,0.0 121.617705,24.009121,0.0 121.617688,24.008985,0.0 121.617674,24.008818,0.0 121.617661,24.008697,0.0 121.617642,24.008595,0.0 121.617615,24.008485,0.0 121.617592,24.008399,0.0 121.61756,24.008336,0.0 121.617525,24.008255,0.0 121.617495,24.008178,0.0 121.617464,24.008124,0.0 121.617434,24.008081,0.0 121.617379,24.00798,0.0 121.617334,24.007861,0.0 121.61729,24.007779,0.0 121.61722,24.007646,0.0 121.617183,24.007559,0.0 121.617144,24.007464,0.0 121.617094,24.007369,0.0 121.617493,24.007004,0.0 121.618323,24.006235,0.0 121.62744,24.00882,0.0 121.628222,24.008916,0.0 121.629175,24.008733,0.0 121.629868,24.008471,0.0 121.631251,24.007589,0.0 121.63316,24.00982,0.0 121.633958,24.010754,0.0 121.637599,24.015257,0.0 121.637553,24.015751,0.0 121.637564,24.015945,0.0 121.641104,24.020291,0.0 121.640884,24.020421,0.0 121.640604,24.020575,0.0 121.64054,24.020614,0.0 121.640261,24.020825,0.0 121.640063,24.020943,0.0 121.639826,24.021093,0.0 121.639677,24.021173,0.0 121.639419,24.02135,0.0 121.639133,24.021536,0.0 121.638795,24.021754,0.0 121.638434,24.021991,0.0 121.638238,24.022127,0.0 121.638044,24.022256,0.0 121.637716,24.022493,0.0 121.637487,24.022651,0.0 121.637334,24.022765,0.0 121.637198,24.022881,0.0 121.636842,24.023187,0.0 121.636834,24.023196,0.0 121.636593,24.023457,0.0 121.636435,24.023665,0.0 121.636292,24.023767,0.0 121.636005,24.024078,0.0 121.635765,24.024255,0.0 121.635657,24.024381,0.0 121.635338,24.024627,0.0 121.634972,24.024962,0.0 121.634684,24.025277,0.0 121.634258,24.025685,0.0 121.633993,24.025941,0.0 121.63392,24.026039,0.0 121.633886,24.026104,0.0 121.633879,24.026208,0.0 121.633568,24.026559,0.0 121.633197,24.026965,0.0 121.633166,24.026954,0.0 121.633159,24.02695,0.0 121.632968,24.026858,0.0 121.632503,24.026629,0.0 121.631811,24.026296,0.0 121.631216,24.025955,0.0 121.630625,24.02559,0.0 121.630333,24.025374,0.0 121.629925,24.025037,0.0 121.629686,24.024801,0.0</coordinates></LinearRing></outerBoundaryIs></Polygon><styleUrl>#spolygon-map</styleUrl></Placemark><Placemark><Polygon><outerBoundaryIs><LinearRing><coordinates>121.613267,23.974195,0.0 121.613962,23.973733,0.0 121.613524,23.973189,0.0 121.612902,23.972417,0.0 121.614185,23.970878,0.0 121.614367,23.97112,0.0 121.614642,23.971555,0.0 121.61479,23.971801,0.0 121.614916,23.972053,0.0 121.61511,23.972336,0.0 121.615274,23.972613,0.0 121.615274,23.972717,0.0 121.615343,23.972859,0.0 121.61564,23.973188,0.0 121.615641,23.973189,0.0 121.615644,23.973194,0.0 121.615788,23.973414,0.0 121.61445,23.97432,0.0 121.615184,23.975258,0.0 121.614455,23.975724,0.0 121.613267,23.974195,0.0</coordinates></LinearRing></outerBoundaryIs></Polygon><styleUrl>#spolygon-map</styleUrl></Placemark><Placemark><Polygon><outerBoundaryIs><LinearRing><coordinates>121.610712,23.979429,0.0 121.608159,23.977754,0.0 121.607686,23.977444,0.0 121.608159,23.977109,0.0 121.608545,23.976835,0.0 121.608839,23.976481,0.0 121.609014,23.976208,0.0 121.609916,23.976345,0.0 121.61202,23.977753,0.0 121.613194,23.978483,0.0 121.613502,23.979572,0.0 121.613062,23.97972,0.0 121.612498,23.980051,0.0 121.611967,23.980273,0.0 121.610712,23.979429,0.0</coordinates></LinearRing></outerBoundaryIs></Polygon><styleUrl>#spolygon-map</styleUrl></Placemark><Placemark><Polygon><outerBoundaryIs><LinearRing><coordinates>121.628207,23.994116,0.0 121.626164,23.99171,0.0 121.621939,23.986735,0.0 121.627548,23.982672,0.0 121.629333,23.983911,0.0 121.630885,23.98497,0.0 121.632523,23.986266,0.0 121.63316,23.986932,0.0 121.633163,23.986936,0.0 121.633401,23.987543,0.0 121.63316,23.987712,0.0 121.630432,23.989625,0.0 121.63102,23.990362,0.0 121.631998,23.990455,0.0 121.631739,23.992356,0.0 121.630809,23.992237,0.0 121.628207,23.994116,0.0</coordinates></LinearRing></outerBoundaryIs></Polygon><styleUrl>#spolygon-map</styleUrl></Placemark><Placemark><Polygon><outerBoundaryIs><LinearRing><coordinates>121.614455,23.975724,0.0 121.615184,23.975258,0.0 121.61445,23.97432,0.0 121.615788,23.973414,0.0 121.616396,23.974344,0.0 121.61646,23.974443,0.0 121.616479,23.974462,0.0 121.616495,23.974496,0.0 121.616928,23.975036,0.0 121.617288,23.97519,0.0 121.61509,23.976598,0.0 121.61484,23.976167,0.0 121.614738,23.975921,0.0 121.614677,23.975822,0.0 121.614455,23.975724,0.0</coordinates></LinearRing></outerBoundaryIs></Polygon><styleUrl>#spolygon-map</styleUrl></Placemark><Placemark><Polygon><outerBoundaryIs><LinearRing><coordinates>121.631251,24.007589,0.0 121.630851,24.007099,0.0 121.630347,24.006274,0.0 121.630073,24.005724,0.0 121.62974,24.004858,0.0 121.629408,24.003456,0.0 121.629326,24.003005,0.0 121.629299,24.002227,0.0 121.629285,24.001713,0.0 121.629006,24.000539,0.0 121.629003,23.99999,0.0 121.62894,23.999665,0.0 121.62878,23.999375,0.0 121.62856,23.999219,0.0 121.628401,23.999219,0.0 121.62742,23.998191,0.0 121.626555,23.997285,0.0 121.629248,23.995342,0.0 121.630721,23.997076,0.0 121.63316,23.997353,0.0 121.635999,23.997677,0.0 121.635947,23.998188,0.0 121.635946,23.998191,0.0 121.635824,23.998936,0.0 121.635631,24.000221,0.0 121.635522,24.000951,0.0 121.635418,24.001649,0.0 121.636092,24.002522,0.0 121.636236,24.002438,0.0 121.636702,24.001212,0.0 121.636972,24.000538,0.0 121.637009,24.000489,0.0 121.637056,24.000479,0.0 121.637121,24.000479,0.0 121.637642,24.000807,0.0 121.637723,24.000872,0.0 121.637759,24.000914,0.0 121.637795,24.00098,0.0 121.637795,24.00107,0.0 121.637579,24.002184,0.0 121.637189,24.004219,0.0 121.637741,24.004867,0.0 121.638089,24.005281,0.0 121.638225,24.00519,0.0 121.638416,24.004607,0.0 121.638653,24.003927,0.0 121.638912,24.003095,0.0 121.639191,24.002245,0.0 121.639358,24.001748,0.0 121.639563,24.001128,0.0 121.639701,24.001026,0.0 121.639377,24.000648,0.0 121.638812,24.000032,0.0 121.638867,23.999894,0.0 121.639311,24.00003,0.0 121.639359,23.99993,0.0 121.640065,24.000119,0.0 121.640864,24.000348,0.0 121.641066,24.00032,0.0 121.641089,24.00023,0.0 121.640942,24.000109,0.0 121.639446,23.999673,0.0 121.639468,23.9996,0.0 121.639324,23.999558,0.0 121.639415,23.999284,0.0 121.638354,23.998661,0.0 121.638435,23.998501,0.0 121.638899,23.998684,0.0 121.638935,23.998618,0.0 121.638242,23.99824,0.0 121.638186,23.998191,0.0 121.638183,23.998188,0.0 121.638155,23.998141,0.0 121.638321,23.998034,0.0 121.638454,23.998187,0.0 121.638463,23.998191,0.0 121.63908,23.998462,0.0 121.639876,23.998842,0.0 121.640107,23.998663,0.0 121.64,23.998463,0.0 121.639841,23.998191,0.0 121.639839,23.998188,0.0 121.639526,23.997573,0.0 121.638995,23.997833,0.0 121.63896,23.997767,0.0 121.639489,23.997512,0.0 121.639123,23.996848,0.0 121.638122,23.996737,0.0 121.638059,23.997344,0.0 121.638019,23.997649,0.0 121.638042,23.997683,0.0 121.638132,23.997796,0.0 121.638467,23.997582,0.0 121.638506,23.997629,0.0 121.637971,23.997984,0.0 121.637699,23.997657,0.0 121.637702,23.997617,0.0 121.637782,23.997614,0.0 121.637801,23.997404,0.0 121.637905,23.996663,0.0 121.637927,23.99651,0.0 121.638015,23.995859,0.0 121.638122,23.995141,0.0 121.638151,23.995139,0.0 121.638206,23.995143,0.0 121.638234,23.994838,0.0 121.638173,23.994825,0.0 121.638232,23.994371,0.0 121.638225,23.994337,0.0 121.638061,23.994015,0.0 121.637883,23.993623,0.0 121.637504,23.992812,0.0 121.637097,23.99198,0.0 121.637033,23.991838,0.0 121.636999,23.991839,0.0 121.636966,23.991744,0.0 121.636976,23.991676,0.0 121.636541,23.990804,0.0 121.635843,23.989268,0.0 121.635444,23.988436,0.0 121.635429,23.988389,0.0 121.635432,23.988369,0.0 121.635459,23.988346,0.0 121.635571,23.988303,0.0 121.635529,23.988195,0.0 121.635364,23.988254,0.0 121.635342,23.988182,0.0 121.635503,23.988147,0.0 121.635499,23.98812,0.0 121.635324,23.987624,0.0 121.634738,23.986017,0.0 121.63414,23.984422,0.0 121.634102,23.984331,0.0 121.634105,23.984237,0.0 121.634157,23.982625,0.0 121.634185,23.981457,0.0 121.634207,23.980627,0.0 121.634245,23.979733,0.0 121.634131,23.979528,0.0 121.633755,23.978938,0.0 121.6335,23.978539,0.0 121.633486,23.978518,0.0 121.633163,23.977997,0.0 121.63316,23.977992,0.0 121.630083,23.973188,0.0 121.629348,23.972041,0.0 121.629141,23.972138,0.0 121.629043,23.971983,0.0 121.629233,23.971858,0.0 121.62778,23.96958,0.0 121.62802,23.969436,0.0 121.630434,23.973188,0.0 121.63316,23.977425,0.0 121.633163,23.97743,0.0 121.633209,23.977502,0.0 121.633446,23.977869,0.0 121.634019,23.978757,0.0 121.634093,23.978871,0.0 121.634622,23.979645,0.0 121.634637,23.979684,0.0 121.634641,23.979758,0.0 121.634631,23.980031,0.0 121.634606,23.981027,0.0 121.634569,23.981061,0.0 121.634547,23.981086,0.0 121.634558,23.981239,0.0 121.634556,23.981598,0.0 121.634516,23.982463,0.0 121.634481,23.983016,0.0 121.63447,23.983583,0.0 121.634464,23.983921,0.0 121.634478,23.984409,0.0 121.634496,23.984467,0.0 121.634602,23.984724,0.0 121.634761,23.985204,0.0 121.635087,23.986115,0.0 121.635155,23.986284,0.0 121.635174,23.986338,0.0 121.635219,23.986365,0.0 121.635256,23.986399,0.0 121.635271,23.986426,0.0 121.635267,23.986467,0.0 121.635771,23.987927,0.0 121.635911,23.988286,0.0 121.636532,23.989581,0.0 121.63692,23.990385,0.0 121.637116,23.990831,0.0 121.637181,23.990976,0.0 121.637274,23.991088,0.0 121.637323,23.991201,0.0 121.637342,23.991313,0.0 121.63752,23.991665,0.0 121.637765,23.992212,0.0 121.637878,23.992431,0.0 121.637938,23.992537,0.0 121.637991,23.99269,0.0 121.638142,23.993005,0.0 121.638808,23.994328,0.0 121.638864,23.994425,0.0 121.638981,23.994736,0.0 121.63903,23.994839,0.0 121.639136,23.995053,0.0 121.639433,23.995646,0.0 121.63954,23.995923,0.0 121.63977,23.996457,0.0 121.640036,23.997022,0.0 121.640093,23.997139,0.0 121.640112,23.997207,0.0 121.640236,23.997459,0.0 121.640414,23.997759,0.0 121.640574,23.998018,0.0 121.640672,23.998187,0.0 121.640675,23.998191,0.0 121.640792,23.998369,0.0 121.640879,23.998506,0.0 121.640926,23.998565,0.0 121.641133,23.998792,0.0 121.641396,23.999082,0.0 121.641562,23.999278,0.0 121.641708,23.999469,0.0 121.641782,23.999546,0.0 121.641952,23.999662,0.0 121.642009,23.999682,0.0 121.642062,23.999691,0.0 121.642098,23.999686,0.0 121.64213,23.999673,0.0 121.642154,23.999641,0.0 121.642162,23.999591,0.0 121.642153,23.999454,0.0 121.642165,23.999386,0.0 121.642188,23.999341,0.0 121.642219,23.999309,0.0 121.642307,23.999268,0.0 121.642373,23.999252,0.0 121.642443,23.999247,0.0 121.642501,23.999258,0.0 121.642554,23.99928,0.0 121.642624,23.999323,0.0 121.642655,23.999352,0.0 121.642881,23.999679,0.0 121.643085,24.000019,0.0 121.643278,24.000329,0.0 121.643418,24.000566,0.0 121.643456,24.000631,0.0 121.643564,24.000899,0.0 121.643632,24.001104,0.0 121.64368,24.00126,0.0 121.643724,24.00144,0.0 121.643734,24.001483,0.0 121.643735,24.001677,0.0 121.643722,24.001745,0.0 121.643601,24.001872,0.0 121.643483,24.001967,0.0 121.643475,24.002031,0.0 121.643497,24.002103,0.0 121.643571,24.002337,0.0 121.643625,24.002463,0.0 121.643763,24.002716,0.0 121.643852,24.002844,0.0 121.643984,24.003013,0.0 121.644051,24.003112,0.0 121.644247,24.003355,0.0 121.644368,24.003508,0.0 121.644497,24.003703,0.0 121.64453,24.003744,0.0 121.644687,24.003906,0.0 121.644876,24.004126,0.0 121.644993,24.004266,0.0 121.645063,24.004335,0.0 121.645193,24.004436,0.0 121.645284,24.004533,0.0 121.645407,24.00467,0.0 121.64547,24.004749,0.0 121.645511,24.004814,0.0 121.645605,24.00494,0.0 121.645714,24.005102,0.0 121.645891,24.005345,0.0 121.645939,24.00542,0.0 121.646028,24.005559,0.0 121.646087,24.005645,0.0 121.646208,24.005809,0.0 121.646272,24.005881,0.0 121.646392,24.005996,0.0 121.646558,24.006148,0.0 121.646597,24.006157,0.0 121.646626,24.006169,0.0 121.646645,24.006184,0.0 121.646661,24.006268,0.0 121.646646,24.006308,0.0 121.646639,24.006358,0.0 121.646675,24.006523,0.0 121.64675,24.006698,0.0 121.646788,24.006784,0.0 121.646877,24.007048,0.0 121.647063,24.00767,0.0 121.647117,24.007889,0.0 121.64715,24.008035,0.0 121.647205,24.008338,0.0 121.647214,24.00852,0.0 121.647211,24.008663,0.0 121.647182,24.008974,0.0 121.647149,24.009144,0.0 121.647082,24.009349,0.0 121.647012,24.009625,0.0 121.646924,24.009885,0.0 121.646862,24.0101,0.0 121.646836,24.01024,0.0 121.646822,24.010317,0.0 121.646741,24.010495,0.0 121.64651,24.010821,0.0 121.646432,24.010957,0.0 121.646368,24.011095,0.0 121.646326,24.011219,0.0 121.646298,24.011423,0.0 121.64628,24.011527,0.0 121.646254,24.011777,0.0 121.646229,24.011915,0.0 121.646085,24.012525,0.0 121.645935,24.013126,0.0 121.645875,24.013379,0.0 121.645781,24.013716,0.0 121.645704,24.013938,0.0 121.645613,24.014137,0.0 121.645372,24.014693,0.0 121.645218,24.01503,0.0 121.645079,24.015367,0.0 121.644941,24.015717,0.0 121.64477,24.016041,0.0 121.644633,24.016328,0.0 121.644463,24.016658,0.0 121.644315,24.017031,0.0 121.644214,24.017296,0.0 121.644067,24.017649,0.0 121.643931,24.017954,0.0 121.643894,24.018108,0.0 121.64382,24.018356,0.0 121.64368,24.01863,0.0 121.643492,24.018888,0.0 121.643366,24.019038,0.0 121.643241,24.019162,0.0 121.643093,24.019283,0.0 121.642949,24.01938,0.0 121.64273,24.019483,0.0 121.642485,24.019601,0.0 121.642208,24.019722,0.0 121.64196,24.019856,0.0 121.641702,24.019979,0.0 121.641408,24.020107,0.0 121.641235,24.020214,0.0 121.641104,24.020291,0.0 121.637564,24.015945,0.0 121.637553,24.015751,0.0 121.637599,24.015257,0.0 121.633958,24.010754,0.0 121.63316,24.00982,0.0 121.631251,24.007589,0.0</coordinates></LinearRing></outerBoundaryIs></Polygon><styleUrl>#spolygon-map</styleUrl></Placemark><Placemark><Polygon><outerBoundaryIs><LinearRing><coordinates>121.618323,24.006235,0.0 121.619636,24.002275,0.0 121.623189,23.999713,0.0 121.625298,23.998191,0.0 121.626555,23.997285,0.0 121.62742,23.998191,0.0 121.628401,23.999219,0.0 121.62856,23.999219,0.0 121.62878,23.999375,0.0 121.62894,23.999665,0.0 121.629003,23.99999,0.0 121.629006,24.000539,0.0 121.629285,24.001713,0.0 121.629299,24.002227,0.0 121.629326,24.003005,0.0 121.629408,24.003456,0.0 121.62974,24.004858,0.0 121.630073,24.005724,0.0 121.630347,24.006274,0.0 121.630851,24.007099,0.0 121.631251,24.007589,0.0 121.629868,24.008471,0.0 121.629175,24.008733,0.0 121.628222,24.008916,0.0 121.62744,24.00882,0.0 121.618323,24.006235,0.0</coordinates></LinearRing></outerBoundaryIs></Polygon><styleUrl>#spolygon-map</styleUrl></Placemark><Placemark><Polygon><outerBoundaryIs><LinearRing><coordinates>121.612464,23.974728,0.0 121.61241,23.974764,0.0 121.611567,23.974222,0.0 121.610922,23.973768,0.0 121.609952,23.975008,0.0 121.609319,23.974599,0.0 121.609292,23.973645,0.0 121.609635,23.973189,0.0 121.609792,23.972981,0.0 121.608974,23.972469,0.0 121.610795,23.970151,0.0 121.611458,23.970219,0.0 121.612066,23.970251,0.0 121.612507,23.970312,0.0 121.612965,23.970356,0.0 121.613732,23.970288,0.0 121.614082,23.97074,0.0 121.614146,23.970826,0.0 121.614185,23.970878,0.0 121.612902,23.972417,0.0 121.613524,23.973189,0.0 121.613962,23.973733,0.0 121.613267,23.974195,0.0 121.612464,23.974728,0.0</coordinates></LinearRing></outerBoundaryIs></Polygon><styleUrl>#spolygon-map</styleUrl></Placemark><Placemark><Polygon><outerBoundaryIs><LinearRing><coordinates>121.626555,23.997285,0.0 121.625298,23.998191,0.0 121.623189,23.999713,0.0 121.622396,23.998778,0.0 121.621649,23.99856,0.0 121.621771,23.998192,0.0 121.622043,23.997371,0.0 121.621348,23.997129,0.0 121.621424,23.996943,0.0 121.622258,23.994511,0.0 121.626164,23.99171,0.0 121.628207,23.994116,0.0 121.629248,23.995342,0.0 121.626555,23.997285,0.0</coordinates></LinearRing></outerBoundaryIs></Polygon><styleUrl>#spolygon-map</styleUrl></Placemark><Placemark><Polygon><outerBoundaryIs><LinearRing><coordinates>121.609014,23.976208,0.0 121.609952,23.975008,0.0 121.610922,23.973768,0.0 121.611567,23.974222,0.0 121.61241,23.974764,0.0 121.612464,23.974728,0.0 121.613682,23.976181,0.0 121.613585,23.977757,0.0 121.613194,23.978483,0.0 121.61202,23.977753,0.0 121.609916,23.976345,0.0 121.609014,23.976208,0.0</coordinates></LinearRing></outerBoundaryIs></Polygon><styleUrl>#spolygon-map</styleUrl></Placemark><Placemark><Polygon><outerBoundaryIs><LinearRing><coordinates>121.621424,23.996943,0.0 121.616459,23.99615,0.0 121.616897,23.993097,0.0 121.616497,23.990601,0.0 121.616167,23.989294,0.0 121.61544,23.987508,0.0 121.6144,23.98637,0.0 121.613359,23.985376,0.0 121.612616,23.985093,0.0 121.613343,23.984362,0.0 121.613552,23.984123,0.0 121.613717,23.983583,0.0 121.613716,23.983352,0.0 121.615034,23.984481,0.0 121.615181,23.984605,0.0 121.615203,23.981907,0.0 121.616054,23.98231,0.0 121.61674,23.982235,0.0 121.617901,23.98206,0.0 121.619866,23.984285,0.0 121.621939,23.986735,0.0 121.626164,23.99171,0.0 121.622258,23.994511,0.0 121.621424,23.996943,0.0</coordinates></LinearRing></outerBoundaryIs></Polygon><styleUrl>#spolygon-map</styleUrl></Placemark><Placemark><Polygon><outerBoundaryIs><LinearRing><coordinates>121.618323,24.006235,0.0 121.617493,24.007004,0.0 121.617094,24.007369,0.0 121.61703,24.00727,0.0 121.617014,24.007252,0.0 121.616976,24.007207,0.0 121.616947,24.007164,0.0 121.616914,24.00714,0.0 121.616857,24.007113,0.0 121.616716,24.007055,0.0 121.616628,24.007024,0.0 121.616583,24.006999,0.0 121.616506,24.006936,0.0 121.616478,24.0069,0.0 121.616443,24.006851,0.0 121.61641,24.006787,0.0 121.616387,24.006713,0.0 121.616372,24.006603,0.0 121.616367,24.006526,0.0 121.616378,24.006354,0.0 121.616389,24.006205,0.0 121.6164,24.006011,0.0 121.616401,24.005851,0.0 121.616399,24.005754,0.0 121.616385,24.005634,0.0 121.616357,24.005526,0.0 121.616336,24.005422,0.0 121.616308,24.005323,0.0 121.616271,24.005199,0.0 121.61624,24.005086,0.0 121.616215,24.004973,0.0 121.616181,24.004806,0.0 121.616154,24.004653,0.0 121.616121,24.004515,0.0 121.616088,24.004362,0.0 121.61607,24.004265,0.0 121.616035,24.004125,0.0 121.616005,24.004015,0.0 121.615979,24.003895,0.0 121.615948,24.003762,0.0 121.615909,24.003611,0.0 121.61588,24.003487,0.0 121.615843,24.003331,0.0 121.615796,24.003142,0.0 121.615765,24.003032,0.0 121.615735,24.002921,0.0 121.615717,24.002847,0.0 121.615715,24.002824,0.0 121.615729,24.002752,0.0 121.615729,24.00272,0.0 121.615726,24.002693,0.0 121.615717,24.002675,0.0 121.615699,24.002657,0.0 121.615655,24.002644,0.0 121.615516,24.002635,0.0 121.615425,24.002629,0.0 121.615367,24.00262,0.0 121.615275,24.002593,0.0 121.615208,24.002569,0.0 121.615108,24.002542,0.0 121.614951,24.0025,0.0 121.614883,24.002491,0.0 121.6148,24.002489,0.0 121.614679,24.00249,0.0 121.614527,24.002486,0.0 121.614462,24.002482,0.0 121.614316,24.002478,0.0 121.614159,24.002469,0.0 121.614045,24.00247,0.0 121.613971,24.002465,0.0 121.613874,24.002452,0.0 121.613848,24.002455,0.0 121.61382,24.002473,0.0 121.613786,24.002406,0.0 121.613687,24.002283,0.0 121.613045,23.999736,0.0 121.612523,23.998192,0.0 121.611027,23.993768,0.0 121.610985,23.993645,0.0 121.610525,23.991239,0.0 121.609815,23.98753,0.0 121.60988,23.986753,0.0 121.610273,23.985927,0.0 121.610613,23.984879,0.0 121.611162,23.984195,0.0 121.611404,23.984242,0.0 121.612616,23.985093,0.0 121.613359,23.985376,0.0 121.6144,23.98637,0.0 121.61544,23.987508,0.0 121.616167,23.989294,0.0 121.616497,23.990601,0.0 121.616897,23.993097,0.0 121.616459,23.99615,0.0 121.621424,23.996943,0.0 121.621348,23.997129,0.0 121.622043,23.997371,0.0 121.621771,23.998192,0.0 121.621649,23.99856,0.0 121.622396,23.998778,0.0 121.623189,23.999713,0.0 121.619636,24.002275,0.0 121.618323,24.006235,0.0</coordinates></LinearRing></outerBoundaryIs></Polygon><styleUrl>#spolygon-map</styleUrl></Placemark><Placemark><Polygon><outerBoundaryIs><LinearRing><coordinates>121.629248,23.995342,0.0 121.628207,23.994116,0.0 121.630809,23.992237,0.0 121.631739,23.992356,0.0 121.63316,23.992532,0.0 121.636473,23.992941,0.0 121.636549,23.993098,0.0 121.636571,23.993393,0.0 121.636491,23.99415,0.0 121.636293,23.995469,0.0 121.636115,23.996657,0.0 121.636013,23.997405,0.0 121.63602,23.99747,0.0 121.635999,23.997677,0.0 121.63316,23.997353,0.0 121.630721,23.997076,0.0 121.629248,23.995342,0.0</coordinates></LinearRing></outerBoundaryIs></Polygon><styleUrl>#spolygon-map</styleUrl></Placemark><Placemark><Polygon><outerBoundaryIs><LinearRing><coordinates>121.621939,23.986735,0.0 121.619866,23.984285,0.0 121.617901,23.98206,0.0 121.61674,23.982235,0.0 121.616054,23.98231,0.0 121.615203,23.981907,0.0 121.614611,23.981627,0.0 121.615105,23.981689,0.0 121.615696,23.981661,0.0 121.616175,23.981633,0.0 121.616597,23.981463,0.0 121.617188,23.981241,0.0 121.617525,23.980929,0.0 121.617861,23.9805,0.0 121.618028,23.980137,0.0 121.618335,23.979501,0.0 121.618503,23.979203,0.0 121.618812,23.978955,0.0 121.619233,23.978656,0.0 121.619767,23.978278,0.0 121.620286,23.977849,0.0 121.620835,23.977373,0.0 121.620949,23.977448,0.0 121.621967,23.977483,0.0 121.623448,23.97656,0.0 121.625109,23.974761,0.0 121.625806,23.974101,0.0 121.626126,23.973773,0.0 121.626303,23.973528,0.0 121.626419,23.973386,0.0 121.626627,23.973258,0.0 121.626707,23.97326,0.0 121.626747,23.973298,0.0 121.626716,23.973375,0.0 121.626634,23.973473,0.0 121.62659,23.973599,0.0 121.626654,23.974361,0.0 121.627055,23.975416,0.0 121.627539,23.976877,0.0 121.626731,23.977669,0.0 121.624704,23.979338,0.0 121.62395,23.980025,0.0 121.624054,23.980379,0.0 121.624809,23.98088,0.0 121.626116,23.981678,0.0 121.627548,23.982672,0.0 121.621939,23.986735,0.0</coordinates></LinearRing></outerBoundaryIs></Polygon><styleUrl>#spolygon-map</styleUrl></Placemark><Placemark><Polygon><outerBoundaryIs><LinearRing><coordinates>121.631739,23.992356,0.0 121.631998,23.990455,0.0 121.63102,23.990362,0.0 121.630432,23.989625,0.0 121.63316,23.987712,0.0 121.633401,23.987543,0.0 121.633965,23.988982,0.0 121.634492,23.988781,0.0 121.634887,23.989618,0.0 121.635858,23.991674,0.0 121.636473,23.992941,0.0 121.63316,23.992532,0.0 121.631739,23.992356,0.0</coordinates></LinearRing></outerBoundaryIs></Polygon><styleUrl>#spolygon-map</styleUrl></Placemark><Placemark><Polygon><outerBoundaryIs><LinearRing><coordinates>121.613502,23.979572,0.0 121.613194,23.978483,0.0 121.613585,23.977757,0.0 121.613682,23.976181,0.0 121.612464,23.974728,0.0 121.613267,23.974195,0.0 121.614455,23.975724,0.0 121.614677,23.975822,0.0 121.614738,23.975921,0.0 121.61484,23.976167,0.0 121.61509,23.976598,0.0 121.617288,23.97519,0.0 121.618009,23.975499,0.0 121.619132,23.976167,0.0 121.620146,23.976908,0.0 121.620225,23.976966,0.0 121.620276,23.977004,0.0 121.62046,23.977125,0.0 121.620835,23.977373,0.0 121.620286,23.977849,0.0 121.619767,23.978278,0.0 121.619233,23.978656,0.0 121.618812,23.978955,0.0 121.618503,23.979203,0.0 121.618335,23.979501,0.0 121.618028,23.980137,0.0 121.617861,23.9805,0.0 121.617525,23.980929,0.0 121.617188,23.981241,0.0 121.616597,23.981463,0.0 121.616175,23.981633,0.0 121.615696,23.981661,0.0 121.615105,23.981689,0.0 121.614611,23.981627,0.0 121.614328,23.98133,0.0 121.614241,23.980955,0.0 121.614225,23.980463,0.0 121.614237,23.980022,0.0 121.61408,23.979661,0.0 121.61384,23.979545,0.0 121.613502,23.979572,0.0</coordinates></LinearRing></outerBoundaryIs></Polygon><styleUrl>#spolygon-map</styleUrl></Placemark><Placemark><Polygon><outerBoundaryIs><LinearRing><coordinates>121.608061,23.987633,0.0 121.608159,23.987487,0.0 121.608385,23.98715,0.0 121.608764,23.986533,0.0 121.608159,23.986131,0.0 121.606839,23.985255,0.0 121.606897,23.98465,0.0 121.607117,23.984057,0.0 121.607073,23.983926,0.0 121.607133,23.983077,0.0 121.607425,23.982721,0.0 121.607143,23.982536,0.0 121.607823,23.981648,0.0 121.608159,23.981875,0.0 121.608581,23.982159,0.0 121.609302,23.981262,0.0 121.610712,23.979429,0.0 121.611967,23.980273,0.0 121.612498,23.980051,0.0 121.613062,23.97972,0.0 121.613502,23.979572,0.0 121.61384,23.979545,0.0 121.61408,23.979661,0.0 121.614237,23.980022,0.0 121.614225,23.980463,0.0 121.614241,23.980955,0.0 121.614328,23.98133,0.0 121.614611,23.981627,0.0 121.615203,23.981907,0.0 121.615181,23.984605,0.0 121.615034,23.984481,0.0 121.613716,23.983352,0.0 121.613717,23.983583,0.0 121.613552,23.984123,0.0 121.613343,23.984362,0.0 121.612616,23.985093,0.0 121.611404,23.984242,0.0 121.611162,23.984195,0.0 121.610613,23.984879,0.0 121.610273,23.985927,0.0 121.60988,23.986753,0.0 121.609815,23.98753,0.0 121.610525,23.991239,0.0 121.608839,23.992176,0.0 121.608175,23.991058,0.0 121.608159,23.991028,0.0 121.607851,23.990459,0.0 121.607626,23.989707,0.0 121.607667,23.989087,0.0 121.607655,23.988701,0.0 121.608061,23.987633,0.0</coordinates></LinearRing></outerBoundaryIs></Polygon><styleUrl>#spolygon-map</styleUrl></Placemark><Placemark><Polygon><outerBoundaryIs><LinearRing><coordinates>121.601465,23.987184,0.0 121.604518,23.983261,0.0 121.605793,23.981627,0.0 121.607143,23.982536,0.0 121.607425,23.982721,0.0 121.607133,23.983077,0.0 121.607073,23.983926,0.0 121.607117,23.984057,0.0 121.606897,23.98465,0.0 121.606839,23.985255,0.0 121.606398,23.984962,0.0 121.605884,23.985864,0.0 121.605489,23.985827,0.0 121.605205,23.985779,0.0 121.604799,23.985508,0.0 121.604054,23.986391,0.0 121.604501,23.98678,0.0 121.604556,23.986879,0.0 121.604263,23.987723,0.0 121.604271,23.987842,0.0 121.603106,23.987554,0.0 121.602123,23.987314,0.0 121.601465,23.987184,0.0</coordinates></LinearRing></outerBoundaryIs></Polygon><styleUrl>#spolygon-map</styleUrl></Placemark><Placemark><Polygon><outerBoundaryIs><LinearRing><coordinates>121.606216,23.9881,0.0 121.605479,23.988043,0.0 121.604271,23.987842,0.0 121.604263,23.987723,0.0 121.604556,23.986879,0.0 121.604501,23.98678,0.0 121.604054,23.986391,0.0 121.604799,23.985508,0.0 121.605205,23.985779,0.0 121.605489,23.985827,0.0 121.605884,23.985864,0.0 121.606398,23.984962,0.0 121.606839,23.985255,0.0 121.608159,23.986131,0.0 121.608764,23.986533,0.0 121.608385,23.98715,0.0 121.608159,23.987487,0.0 121.608061,23.987633,0.0 121.607444,23.987962,0.0 121.606556,23.988131,0.0 121.606216,23.9881,0.0</coordinates></LinearRing></outerBoundaryIs></Polygon><styleUrl>#spolygon-map</styleUrl></Placemark><Placemark><Polygon><outerBoundaryIs><LinearRing><coordinates>121.609302,23.981262,0.0 121.608159,23.980501,0.0 121.604549,23.978099,0.0 121.604622,23.978007,0.0 121.60489,23.978032,0.0 121.605341,23.978018,0.0 121.605784,23.977966,0.0 121.605985,23.977929,0.0 121.606064,23.977915,0.0 121.606418,23.977813,0.0 121.6068,23.97773,0.0 121.607318,23.977539,0.0 121.607686,23.977444,0.0 121.608159,23.977754,0.0 121.610712,23.979429,0.0 121.609302,23.981262,0.0</coordinates></LinearRing></outerBoundaryIs></Polygon><styleUrl>#spolygon-map</styleUrl></Placemark><Placemark><Polygon><outerBoundaryIs><LinearRing><coordinates>121.605793,23.981627,0.0 121.60318,23.979928,0.0 121.604549,23.978099,0.0 121.608159,23.980501,0.0 121.609302,23.981262,0.0 121.608581,23.982159,0.0 121.608159,23.981875,0.0 121.607823,23.981648,0.0 121.607143,23.982536,0.0 121.605793,23.981627,0.0</coordinates></LinearRing></outerBoundaryIs></Polygon><styleUrl>#spolygon-map</styleUrl></Placemark><Placemark><Polygon><outerBoundaryIs><LinearRing><coordinates>121.598137,23.98451,0.0 121.596714,23.984749,0.0 121.594797,23.980708,0.0 121.593026,23.976975,0.0 121.59429,23.976639,0.0 121.595005,23.975998,0.0 121.596081,23.976402,0.0 121.597263,23.976645,0.0 121.598863,23.976913,0.0 121.600865,23.977295,0.0 121.600296,23.978027,0.0 121.601669,23.978943,0.0 121.603061,23.977138,0.0 121.604549,23.978099,0.0 121.60318,23.979928,0.0 121.602756,23.979644,0.0 121.600917,23.980763,0.0 121.600529,23.98086,0.0 121.600412,23.980964,0.0 121.60078,23.981665,0.0 121.600821,23.98174,0.0 121.600856,23.981873,0.0 121.601332,23.98387,0.0 121.598137,23.98451,0.0</coordinates></LinearRing></outerBoundaryIs></Polygon><styleUrl>#spolygon-map</styleUrl></Placemark><Placemark><Polygon><outerBoundaryIs><LinearRing><coordinates>121.591416,24.013979,0.0 121.591152,24.01348,0.0 121.591085,24.012837,0.0 121.591146,24.012224,0.0 121.591176,24.011756,0.0 121.590697,24.011408,0.0 121.589901,24.011148,0.0 121.589517,24.010565,0.0 121.58926,24.009953,0.0 121.588908,24.009633,0.0 121.590892,24.009427,0.0 121.592365,24.008993,0.0 121.593761,24.008845,0.0 121.594533,24.007773,0.0 121.59561,24.005629,0.0 121.596223,24.004058,0.0 121.597069,24.002344,0.0 121.597916,24.000914,0.0 121.598307,24.0005,0.0 121.602285,23.998316,0.0 121.602512,23.998192,0.0 121.602594,23.998148,0.0 121.60336,23.997795,0.0 121.604797,23.997133,0.0 121.606763,23.996091,0.0 121.608159,23.99533,0.0 121.611027,23.993768,0.0 121.612523,23.998192,0.0 121.613045,23.999736,0.0 121.613687,24.002283,0.0 121.613786,24.002406,0.0 121.61382,24.002473,0.0 121.613802,24.002495,0.0 121.613778,24.002541,0.0 121.613753,24.002636,0.0 121.613729,24.002748,0.0 121.613716,24.002803,0.0 121.613711,24.002823,0.0 121.613696,24.002871,0.0 121.613685,24.002891,0.0 121.613659,24.002911,0.0 121.613631,24.002923,0.0 121.613585,24.00293,0.0 121.613422,24.002908,0.0 121.61331,24.002886,0.0 121.613149,24.002855,0.0 121.612975,24.002824,0.0 121.612743,24.002775,0.0 121.612572,24.00274,0.0 121.612414,24.002718,0.0 121.612218,24.002691,0.0 121.61207,24.002697,0.0 121.612005,24.002699,0.0 121.611931,24.002695,0.0 121.61187,24.002686,0.0 121.611848,24.002677,0.0 121.611805,24.002657,0.0 121.611746,24.002617,0.0 121.611663,24.002531,0.0 121.611612,24.002464,0.0 121.611574,24.00241,0.0 121.611519,24.002304,0.0 121.611467,24.002211,0.0 121.611391,24.002085,0.0 121.611303,24.001959,0.0 121.611234,24.00188,0.0 121.611175,24.001829,0.0 121.611115,24.001777,0.0 121.611059,24.001737,0.0 121.611034,24.001728,0.0 121.611017,24.001726,0.0 121.610992,24.00173,0.0 121.610953,24.001744,0.0 121.610924,24.001773,0.0 121.610893,24.001857,0.0 121.610864,24.001952,0.0 121.610853,24.002067,0.0 121.610852,24.0022,0.0 121.610866,24.00236,0.0 121.610884,24.002541,0.0 121.610906,24.002679,0.0 121.610917,24.002814,0.0 121.610945,24.002956,0.0 121.610978,24.003082,0.0 121.611005,24.003179,0.0 121.611032,24.003272,0.0 121.611066,24.003384,0.0 121.611105,24.003504,0.0 121.611132,24.00359,0.0 121.611162,24.003675,0.0 121.611201,24.003765,0.0 121.611216,24.003849,0.0 121.611235,24.003975,0.0 121.611265,24.004101,0.0 121.611279,24.004194,0.0 121.611284,24.004302,0.0 121.611302,24.004458,0.0 121.611316,24.004566,0.0 121.611326,24.00469,0.0 121.611338,24.004878,0.0 121.611354,24.005128,0.0 121.611349,24.005302,0.0 121.611342,24.005435,0.0 121.611332,24.005469,0.0 121.611299,24.005537,0.0 121.611248,24.005637,0.0 121.611188,24.005727,0.0 121.611148,24.005766,0.0 121.611091,24.005829,0.0 121.611021,24.005886,0.0 121.610954,24.005929,0.0 121.610853,24.005988,0.0 121.610752,24.006038,0.0 121.610671,24.006077,0.0 121.61056,24.006129,0.0 121.610472,24.006168,0.0 121.610405,24.0062,0.0 121.610284,24.006245,0.0 121.610163,24.006282,0.0 121.61006,24.006309,0.0 121.609946,24.006341,0.0 121.609809,24.00638,0.0 121.609662,24.006422,0.0 121.609533,24.006463,0.0 121.609367,24.006506,0.0 121.609284,24.006538,0.0 121.609199,24.006575,0.0 121.609084,24.006623,0.0 121.609004,24.006652,0.0 121.608944,24.006682,0.0 121.608884,24.006714,0.0 121.608785,24.00678,0.0 121.608718,24.006825,0.0 121.608696,24.006839,0.0 121.608652,24.006879,0.0 121.608601,24.006956,0.0 121.608548,24.007056,0.0 121.608511,24.007133,0.0 121.608483,24.007216,0.0 121.608454,24.007334,0.0 121.608435,24.007404,0.0 121.608409,24.007497,0.0 121.608395,24.007641,0.0 121.60839,24.007743,0.0 121.608389,24.007804,0.0 121.608385,24.007905,0.0 121.608384,24.008059,0.0 121.608383,24.008217,0.0 121.608383,24.008307,0.0 121.60839,24.008411,0.0 121.60839,24.00849,0.0 121.608388,24.008587,0.0 121.608372,24.008718,0.0 121.608361,24.00886,0.0 121.608354,24.009003,0.0 121.608346,24.009161,0.0 121.608337,24.009305,0.0 121.60834,24.009395,0.0 121.608342,24.009526,0.0 121.608353,24.009736,0.0 121.608361,24.009885,0.0 121.608375,24.009989,0.0 121.608389,24.010138,0.0 121.608412,24.010264,0.0 121.608431,24.010384,0.0 121.608448,24.010492,0.0 121.608477,24.010641,0.0 121.608498,24.010751,0.0 121.608525,24.010889,0.0 121.608548,24.011058,0.0 121.608566,24.011175,0.0 121.608586,24.011324,0.0 121.608606,24.011496,0.0 121.608615,24.011584,0.0 121.608617,24.011676,0.0 121.608626,24.011776,0.0 121.608638,24.011922,0.0 121.608642,24.012076,0.0 121.60865,24.012225,0.0 121.608649,24.012353,0.0 121.608644,24.012464,0.0 121.608642,24.012536,0.0 121.60864,24.012593,0.0 121.60863,24.012665,0.0 121.608612,24.012746,0.0 121.608602,24.012787,0.0 121.608578,24.012844,0.0 121.608538,24.012909,0.0 121.608489,24.012975,0.0 121.608444,24.013029,0.0 121.608394,24.013084,0.0 121.608302,24.013174,0.0 121.608216,24.013245,0.0 121.608158,24.013291,0.0 121.608118,24.013324,0.0 121.608013,24.013453,0.0 121.607134,24.013708,0.0 121.605408,24.013672,0.0 121.604438,24.013461,0.0 121.603914,24.013447,0.0 121.603472,24.013522,0.0 121.603112,24.013671,0.0 121.602564,24.013746,0.0 121.601875,24.013769,0.0 121.601334,24.013732,0.0 121.599417,24.013315,0.0 121.598132,24.013338,0.0 121.597501,24.013323,0.0 121.596879,24.013241,0.0 121.59633,24.013137,0.0 121.595708,24.013093,0.0 121.595323,24.01313,0.0 121.594882,24.013451,0.0 121.594456,24.013706,0.0 121.593949,24.013863,0.0 121.593409,24.013811,0.0 121.593179,24.013773,0.0 121.592958,24.013661,0.0 121.592843,24.013527,0.0 121.592777,24.013325,0.0 121.592654,24.013199,0.0 121.591975,24.013311,0.0 121.591697,24.013662,0.0 121.591525,24.013774,0.0 121.591416,24.013979,0.0</coordinates></LinearRing></outerBoundaryIs></Polygon><styleUrl>#spolygon-map</styleUrl></Placemark><Placemark><Polygon><outerBoundaryIs><LinearRing><coordinates>121.611027,23.993768,0.0 121.608159,23.99533,0.0 121.606763,23.996091,0.0 121.604797,23.997133,0.0 121.604259,23.996052,0.0 121.60496,23.993208,0.0 121.606216,23.9881,0.0 121.606556,23.988131,0.0 121.607444,23.987962,0.0 121.608061,23.987633,0.0 121.607655,23.988701,0.0 121.607667,23.989087,0.0 121.607626,23.989707,0.0 121.607851,23.990459,0.0 121.608159,23.991028,0.0 121.608175,23.991058,0.0 121.608839,23.992176,0.0 121.610525,23.991239,0.0 121.610985,23.993645,0.0 121.611027,23.993768,0.0</coordinates></LinearRing></outerBoundaryIs></Polygon><styleUrl>#spolygon-map</styleUrl></Placemark><Placemark><Polygon><outerBoundaryIs><LinearRing><coordinates>121.589911,23.990354,0.0 121.591073,23.98974,0.0 121.592225,23.991582,0.0 121.592724,23.991319,0.0 121.593131,23.99026,0.0 121.593905,23.989425,0.0 121.594325,23.988971,0.0 121.595032,23.988706,0.0 121.595567,23.988506,0.0 121.596416,23.988188,0.0 121.598065,23.987201,0.0 121.599476,23.989694,0.0 121.594558,23.996072,0.0 121.591611,23.992745,0.0 121.591064,23.992134,0.0 121.590463,23.991265,0.0 121.589911,23.990354,0.0</coordinates></LinearRing></outerBoundaryIs></Polygon><styleUrl>#spolygon-map</styleUrl></Placemark><Placemark><Polygon><outerBoundaryIs><LinearRing><coordinates>121.601332,23.98387,0.0 121.600856,23.981873,0.0 121.600821,23.98174,0.0 121.60078,23.981665,0.0 121.600412,23.980964,0.0 121.600529,23.98086,0.0 121.600917,23.980763,0.0 121.602756,23.979644,0.0 121.60318,23.979928,0.0 121.605793,23.981627,0.0 121.604518,23.983261,0.0 121.601332,23.98387,0.0</coordinates></LinearRing></outerBoundaryIs></Polygon><styleUrl>#spolygon-map</styleUrl></Placemark><Placemark><Polygon><outerBoundaryIs><LinearRing><coordinates>121.598307,24.0005,0.0 121.596338,23.998193,0.0 121.595529,23.997246,0.0 121.594558,23.996072,0.0 121.599476,23.989694,0.0 121.60336,23.997795,0.0 121.602594,23.998148,0.0 121.602512,23.998192,0.0 121.602285,23.998316,0.0 121.598307,24.0005,0.0</coordinates></LinearRing></outerBoundaryIs></Polygon><styleUrl>#spolygon-map</styleUrl></Placemark><Placemark><Polygon><outerBoundaryIs><LinearRing><coordinates>121.577149,24.018415,0.0 121.577116,24.018361,0.0 121.577064,24.018241,0.0 121.577018,24.01814,0.0 121.576981,24.018056,0.0 121.576974,24.018034,0.0 121.576963,24.018007,0.0 121.576957,24.017982,0.0 121.576956,24.017968,0.0 121.576982,24.017921,0.0 121.577033,24.017844,0.0 121.577078,24.017792,0.0 121.57713,24.017751,0.0 121.577272,24.01768,0.0 121.57735,24.017637,0.0 121.577452,24.017576,0.0 121.577512,24.017537,0.0 121.577541,24.017515,0.0 121.577558,24.017494,0.0 121.577583,24.017463,0.0 121.577597,24.017422,0.0 121.577633,24.017325,0.0 121.577642,24.017264,0.0 121.577653,24.01723,0.0 121.5777,24.017155,0.0 121.577727,24.017123,0.0 121.577778,24.017083,0.0 121.577842,24.017046,0.0 121.577884,24.01703,0.0 121.577983,24.01701,0.0 121.578023,24.017,0.0 121.578109,24.016975,0.0 121.578233,24.016909,0.0 121.578314,24.016882,0.0 121.578347,24.016868,0.0 121.578381,24.016841,0.0 121.57851,24.016737,0.0 121.578569,24.01666,0.0 121.578584,24.016619,0.0 121.578576,24.016563,0.0 121.57855,24.0165,0.0 121.578531,24.016441,0.0 121.578529,24.0164,0.0 121.578541,24.016335,0.0 121.57858,24.016256,0.0 121.578641,24.016183,0.0 121.578675,24.016142,0.0 121.578695,24.016104,0.0 121.578703,24.016059,0.0 121.578697,24.01598,0.0 121.578666,24.015885,0.0 121.578622,24.015818,0.0 121.578567,24.015752,0.0 121.578468,24.01568,0.0 121.578403,24.015611,0.0 121.578326,24.015536,0.0 121.578273,24.015494,0.0 121.578211,24.015444,0.0 121.578161,24.015418,0.0 121.578076,24.015386,0.0 121.578002,24.015355,0.0 121.577847,24.01529,0.0 121.577662,24.015167,0.0 121.577606,24.015128,0.0 121.577571,24.015108,0.0 121.577535,24.015074,0.0 121.577482,24.01503,0.0 121.5774,24.014926,0.0 121.577338,24.014859,0.0 121.577292,24.0148,0.0 121.57727,24.014773,0.0 121.577258,24.014755,0.0 121.577222,24.014708,0.0 121.577199,24.014676,0.0 121.577177,24.014631,0.0 121.577167,24.014595,0.0 121.577161,24.014541,0.0 121.577164,24.014482,0.0 121.577172,24.014426,0.0 121.577189,24.014367,0.0 121.577217,24.014315,0.0 121.577242,24.01424,0.0 121.577252,24.014184,0.0 121.577256,24.014127,0.0 121.577248,24.014073,0.0 121.577234,24.014012,0.0 121.577219,24.01397,0.0 121.577205,24.01394,0.0 121.577172,24.013902,0.0 121.577128,24.013862,0.0 121.57703,24.01379,0.0 121.576899,24.013716,0.0 121.576808,24.013655,0.0 121.576751,24.013612,0.0 121.576706,24.013576,0.0 121.576657,24.013527,0.0 121.576617,24.013466,0.0 121.576598,24.013428,0.0 121.576586,24.013401,0.0 121.576579,24.013367,0.0 121.576568,24.013295,0.0 121.576564,24.013247,0.0 121.576546,24.013189,0.0 121.576525,24.013112,0.0 121.576519,24.013096,0.0 121.576501,24.013069,0.0 121.576445,24.013,0.0 121.576383,24.012923,0.0 121.576351,24.012871,0.0 121.576284,24.012759,0.0 121.57624,24.012675,0.0 121.576216,24.012632,0.0 121.576198,24.012576,0.0 121.576164,24.012486,0.0 121.57613,24.01236,0.0 121.576114,24.012301,0.0 121.576106,24.012254,0.0 121.576102,24.012231,0.0 121.57609,24.01217,0.0 121.576067,24.012134,0.0 121.576004,24.012049,0.0 121.575939,24.011963,0.0 121.575916,24.011932,0.0 121.575849,24.011821,0.0 121.57579,24.011724,0.0 121.575743,24.011648,0.0 121.575718,24.011596,0.0 121.575682,24.011533,0.0 121.575664,24.011495,0.0 121.575654,24.011463,0.0 121.575644,24.011427,0.0 121.575639,24.011391,0.0 121.575634,24.011343,0.0 121.575621,24.011276,0.0 121.575615,24.011253,0.0 121.575597,24.011208,0.0 121.575577,24.011183,0.0 121.575559,24.011161,0.0 121.575543,24.011129,0.0 121.575525,24.01108,0.0 121.575513,24.011014,0.0 121.575505,24.010953,0.0 121.575495,24.010893,0.0 121.575483,24.010838,0.0 121.575475,24.010807,0.0 121.57546,24.010775,0.0 121.575443,24.010748,0.0 121.57541,24.01069,0.0 121.575354,24.010588,0.0 121.575316,24.010527,0.0 121.575268,24.010453,0.0 121.575219,24.010392,0.0 121.575181,24.010345,0.0 121.575145,24.010307,0.0 121.575088,24.010255,0.0 121.575044,24.010217,0.0 121.575006,24.010181,0.0 121.574985,24.010161,0.0 121.574935,24.010102,0.0 121.574911,24.010069,0.0 121.574901,24.010057,0.0 121.574882,24.010021,0.0 121.574863,24.009981,0.0 121.574833,24.009922,0.0 121.574802,24.009859,0.0 121.574768,24.009773,0.0 121.57474,24.009708,0.0 121.574725,24.009672,0.0 121.574706,24.009638,0.0 121.574677,24.009589,0.0 121.574633,24.009532,0.0 121.574579,24.009472,0.0 121.574519,24.009413,0.0 121.574464,24.00935,0.0 121.574395,24.009276,0.0 121.574344,24.009217,0.0 121.574312,24.009193,0.0 121.574258,24.009136,0.0 121.574195,24.009073,0.0 121.574167,24.009044,0.0 121.574135,24.009001,0.0 121.574117,24.008974,0.0 121.574092,24.008938,0.0 121.574067,24.008896,0.0 121.574039,24.008835,0.0 121.574021,24.008792,0.0 121.574003,24.008742,0.0 121.573984,24.008688,0.0 121.573972,24.008645,0.0 121.573965,24.008623,0.0 121.573925,24.008535,0.0 121.573872,24.008434,0.0 121.573826,24.008346,0.0 121.573767,24.008258,0.0 121.573715,24.008184,0.0 121.573672,24.008114,0.0 121.573588,24.007981,0.0 121.573555,24.007931,0.0 121.573526,24.007904,0.0 121.573475,24.007866,0.0 121.573407,24.007812,0.0 121.573324,24.007763,0.0 121.573239,24.0077,0.0 121.573146,24.007639,0.0 121.573049,24.007577,0.0 121.572982,24.007529,0.0 121.572939,24.007493,0.0 121.572839,24.007401,0.0 121.572759,24.007325,0.0 121.572714,24.007278,0.0 121.572677,24.007239,0.0 121.572656,24.007226,0.0 121.572615,24.00721,0.0 121.572583,24.007201,0.0 121.5725,24.007204,0.0 121.572463,24.007211,0.0 121.572409,24.00724,0.0 121.572331,24.007302,0.0 121.572269,24.007363,0.0 121.572216,24.007426,0.0 121.572139,24.007526,0.0 121.57207,24.007616,0.0 121.571993,24.007723,0.0 121.571913,24.007831,0.0 121.571865,24.007895,0.0 121.571843,24.007933,0.0 121.571827,24.007963,0.0 121.571806,24.008012,0.0 121.571782,24.008083,0.0 121.571772,24.00813,0.0 121.571747,24.008202,0.0 121.57172,24.008254,0.0 121.571704,24.00832,0.0 121.571704,24.008378,0.0 121.571716,24.00848,0.0 121.571722,24.008552,0.0 121.571735,24.008658,0.0 121.571754,24.008767,0.0 121.571762,24.008855,0.0 121.571775,24.008947,0.0 121.571775,24.008985,0.0 121.571779,24.009055,0.0 121.571778,24.009128,0.0 121.571769,24.009227,0.0 121.571759,24.009288,0.0 121.571738,24.009385,0.0 121.571723,24.009435,0.0 121.571697,24.009512,0.0 121.571673,24.009557,0.0 121.571632,24.009663,0.0 121.57161,24.009713,0.0 121.571595,24.009738,0.0 121.571571,24.009781,0.0 121.571537,24.009817,0.0 121.571491,24.009867,0.0 121.57146,24.009903,0.0 121.571441,24.009944,0.0 121.571433,24.009998,0.0 121.571436,24.010059,0.0 121.571439,24.010152,0.0 121.571444,24.010201,0.0 121.571472,24.010321,0.0 121.57149,24.0104,0.0 121.571502,24.010519,0.0 121.571507,24.010641,0.0 121.571511,24.010727,0.0 121.571511,24.010786,0.0 121.571507,24.010822,0.0 121.571491,24.01088,0.0 121.571462,24.01096,0.0 121.571428,24.011027,0.0 121.571403,24.011079,0.0 121.571373,24.011129,0.0 121.571342,24.011161,0.0 121.571328,24.011177,0.0 121.571284,24.011209,0.0 121.571218,24.011249,0.0 121.571192,24.011263,0.0 121.571173,24.011268,0.0 121.571132,24.011266,0.0 121.571101,24.011261,0.0 121.571025,24.011234,0.0 121.570931,24.011208,0.0 121.570859,24.011185,0.0 121.570818,24.011176,0.0 121.570768,24.01117,0.0 121.570717,24.011165,0.0 121.570632,24.01117,0.0 121.570566,24.011162,0.0 121.570497,24.011153,0.0 121.570464,24.011148,0.0 121.570385,24.011151,0.0 121.570344,24.011158,0.0 121.570306,24.011172,0.0 121.57025,24.011203,0.0 121.570188,24.011253,0.0 121.570111,24.011321,0.0 121.570073,24.011362,0.0 121.570038,24.011389,0.0 121.57001,24.01141,0.0 121.569982,24.011421,0.0 121.569956,24.01143,0.0 121.569918,24.011439,0.0 121.569874,24.011442,0.0 121.569856,24.011442,0.0 121.569777,24.011429,0.0 121.569752,24.011413,0.0 121.56972,24.011386,0.0 121.569693,24.01135,0.0 121.56968,24.011325,0.0 121.569659,24.011282,0.0 121.569627,24.011221,0.0 121.569618,24.01119,0.0 121.569612,24.011145,0.0 121.56961,24.011109,0.0 121.569613,24.011057,0.0 121.569615,24.011034,0.0 121.569623,24.011012,0.0 121.569643,24.010973,0.0 121.569668,24.01093,0.0 121.56971,24.010883,0.0 121.56977,24.010848,0.0 121.569811,24.010832,0.0 121.569849,24.010819,0.0 121.569885,24.010792,0.0 121.569925,24.010755,0.0 121.569966,24.010721,0.0 121.570068,24.010615,0.0 121.570097,24.010576,0.0 121.570126,24.010515,0.0 121.570139,24.010468,0.0 121.570145,24.010432,0.0 121.570167,24.010337,0.0 121.570174,24.010312,0.0 121.570184,24.01028,0.0 121.570185,24.010215,0.0 121.570185,24.010136,0.0 121.570174,24.010064,0.0 121.570166,24.009996,0.0 121.570169,24.009962,0.0 121.570175,24.009921,0.0 121.570176,24.009894,0.0 121.570173,24.009858,0.0 121.57016,24.009827,0.0 121.570133,24.009773,0.0 121.570105,24.009705,0.0 121.570071,24.009628,0.0 121.569999,24.009502,0.0 121.56996,24.009446,0.0 121.569936,24.009421,0.0 121.569881,24.009365,0.0 121.569812,24.009309,0.0 121.569763,24.00925,0.0 121.569721,24.009201,0.0 121.569707,24.009178,0.0 121.569667,24.009117,0.0 121.56963,24.009063,0.0 121.569603,24.009012,0.0 121.569572,24.008953,0.0 121.569531,24.008872,0.0 121.569486,24.008782,0.0 121.569445,24.008689,0.0 121.569414,24.008629,0.0 121.56939,24.008574,0.0 121.569375,24.008538,0.0 121.569368,24.008514,0.0 121.569366,24.008464,0.0 121.569363,24.008414,0.0 121.56937,24.00834,0.0 121.56938,24.008276,0.0 121.569387,24.008254,0.0 121.56938,24.008225,0.0 121.56936,24.008152,0.0 121.569337,24.008076,0.0 121.569322,24.008008,0.0 121.569316,24.007977,0.0 121.5693,24.007875,0.0 121.569288,24.007783,0.0 121.569264,24.00767,0.0 121.569242,24.00755,0.0 121.569232,24.007462,0.0 121.569225,24.007424,0.0 121.56921,24.007379,0.0 121.569187,24.007329,0.0 121.56916,24.007291,0.0 121.569145,24.007248,0.0 121.569117,24.007174,0.0 121.569081,24.007068,0.0 121.569052,24.006989,0.0 121.569015,24.006892,0.0 121.568973,24.006809,0.0 121.568938,24.006727,0.0 121.568899,24.006646,0.0 121.568859,24.006567,0.0 121.56882,24.006489,0.0 121.568791,24.006434,0.0 121.568744,24.006333,0.0 121.568711,24.006263,0.0 121.568679,24.006211,0.0 121.568661,24.006196,0.0 121.56863,24.006164,0.0 121.568609,24.006137,0.0 121.568586,24.006092,0.0 121.568562,24.006043,0.0 121.568536,24.005955,0.0 121.568503,24.005824,0.0 121.568489,24.005754,0.0 121.568481,24.005664,0.0 121.568481,24.005616,0.0 121.568481,24.005557,0.0 121.568484,24.005501,0.0 121.568485,24.005472,0.0 121.568495,24.005433,0.0 121.568523,24.005368,0.0 121.56854,24.005293,0.0 121.568538,24.005232,0.0 121.568551,24.005149,0.0 121.568568,24.005079,0.0 121.568587,24.004979,0.0 121.568598,24.004875,0.0 121.568597,24.004842,0.0 121.568589,24.004814,0.0 121.568573,24.004778,0.0 121.568549,24.004747,0.0 121.568521,24.004718,0.0 121.56846,24.004673,0.0 121.568395,24.004626,0.0 121.568343,24.004608,0.0 121.568311,24.004594,0.0 121.568269,24.004583,0.0 121.568226,24.004576,0.0 121.568194,24.004579,0.0 121.568146,24.00459,0.0 121.5681,24.004613,0.0 121.568029,24.004652,0.0 121.568002,24.00467,0.0 121.567975,24.004706,0.0 121.567926,24.00479,0.0 121.567891,24.004833,0.0 121.567854,24.004869,0.0 121.567725,24.004971,0.0 121.567646,24.00503,0.0 121.567618,24.005066,0.0 121.567578,24.005127,0.0 121.567546,24.005173,0.0 121.567523,24.005225,0.0 121.567483,24.005344,0.0 121.567445,24.005478,0.0 121.567419,24.005548,0.0 121.567376,24.005663,0.0 121.567341,24.005742,0.0 121.567315,24.00579,0.0 121.567272,24.005855,0.0 121.567246,24.005885,0.0 121.567198,24.00593,0.0 121.567112,24.006012,0.0 121.566997,24.006127,0.0 121.566896,24.00625,0.0 121.566824,24.006309,0.0 121.566763,24.006376,0.0 121.566725,24.006433,0.0 121.566671,24.006512,0.0 121.566619,24.006589,0.0 121.566569,24.006682,0.0 121.566547,24.006718,0.0 121.566492,24.006809,0.0 121.566451,24.006906,0.0 121.566418,24.006992,0.0 121.56638,24.007094,0.0 121.566348,24.007227,0.0 121.566318,24.007315,0.0 121.566293,24.007408,0.0 121.566263,24.0075,0.0 121.566231,24.007584,0.0 121.566218,24.007609,0.0 121.566202,24.007629,0.0 121.566167,24.007679,0.0 121.566102,24.007756,0.0 121.56603,24.007853,0.0 121.565996,24.007917,0.0 121.565959,24.007969,0.0 121.565953,24.007982,0.0 121.56595,24.008009,0.0 121.56595,24.008109,0.0 121.565947,24.008242,0.0 121.565953,24.008377,0.0 121.565962,24.008481,0.0 121.565986,24.008621,0.0 121.565997,24.008704,0.0 121.565999,24.008795,0.0 121.565999,24.008844,0.0 121.565998,24.008892,0.0 121.565998,24.009027,0.0 121.565984,24.009131,0.0 121.565974,24.009158,0.0 121.565955,24.009212,0.0 121.565934,24.009267,0.0 121.565912,24.009353,0.0 121.565902,24.009414,0.0 121.565879,24.009481,0.0 121.565863,24.009515,0.0 121.56582,24.00966,0.0 121.56579,24.009764,0.0 121.565744,24.009884,0.0 121.565706,24.009952,0.0 121.565678,24.009988,0.0 121.565646,24.01001,0.0 121.565621,24.010022,0.0 121.565598,24.010022,0.0 121.565555,24.010013,0.0 121.565491,24.009982,0.0 121.56535,24.00989,0.0 121.565306,24.009851,0.0 121.565287,24.009829,0.0 121.565271,24.009797,0.0 121.565262,24.009782,0.0 121.56521,24.009728,0.0 121.565137,24.009665,0.0 121.565082,24.009626,0.0 121.565026,24.009584,0.0 121.564923,24.009514,0.0 121.564861,24.009472,0.0 121.564802,24.009429,0.0 121.564765,24.0094,0.0 121.564721,24.009352,0.0 121.564659,24.009276,0.0 121.564581,24.00917,0.0 121.564512,24.009071,0.0 121.564443,24.008961,0.0 121.564403,24.008893,0.0 121.56438,24.008857,0.0 121.564362,24.008837,0.0 121.564334,24.008794,0.0 121.564322,24.008767,0.0 121.564311,24.008729,0.0 121.5643,24.008688,0.0 121.5643,24.008661,0.0 121.564305,24.0086,0.0 121.564313,24.008555,0.0 121.564333,24.008503,0.0 121.564339,24.008478,0.0 121.564353,24.00839,0.0 121.564349,24.008352,0.0 121.564351,24.008288,0.0 121.564364,24.00823,0.0 121.564368,24.008196,0.0 121.564369,24.008124,0.0 121.564363,24.008047,0.0 121.564354,24.007995,0.0 121.564345,24.007961,0.0 121.564318,24.007916,0.0 121.564301,24.007891,0.0 121.564267,24.007869,0.0 121.564198,24.007833,0.0 121.564091,24.007795,0.0 121.563943,24.007744,0.0 121.563797,24.007681,0.0 121.563597,24.007618,0.0 121.563436,24.007572,0.0 121.563319,24.007545,0.0 121.56315,24.007496,0.0 121.562955,24.007433,0.0 121.562828,24.007402,0.0 121.562735,24.007376,0.0 121.562663,24.007351,0.0 121.562534,24.007318,0.0 121.562459,24.007291,0.0 121.562435,24.00728,0.0 121.562399,24.007257,0.0 121.562376,24.007239,0.0 121.562354,24.007212,0.0 121.562312,24.007136,0.0 121.562237,24.007039,0.0 121.562164,24.006933,0.0 121.562077,24.006762,0.0 121.561988,24.006586,0.0 121.561894,24.006415,0.0 121.561837,24.006309,0.0 121.561803,24.006253,0.0 121.561744,24.006172,0.0 121.561703,24.006102,0.0 121.561648,24.006012,0.0 121.561593,24.005906,0.0 121.561562,24.005849,0.0 121.561518,24.005766,0.0 121.561483,24.005698,0.0 121.561455,24.005665,0.0 121.561424,24.005622,0.0 121.561375,24.005563,0.0 121.561356,24.005543,0.0 121.561331,24.005514,0.0 121.561304,24.005491,0.0 121.561279,24.005473,0.0 121.561247,24.005458,0.0 121.561165,24.005429,0.0 121.56107,24.005391,0.0 121.560945,24.005341,0.0 121.560817,24.005281,0.0 121.560618,24.005191,0.0 121.560285,24.005057,0.0 121.560121,24.004992,0.0 121.560014,24.004948,0.0 121.559951,24.004916,0.0 121.559935,24.004905,0.0 121.559879,24.004889,0.0 121.559807,24.004881,0.0 121.559758,24.004876,0.0 121.559733,24.004865,0.0 121.559708,24.004856,0.0 121.559601,24.004823,0.0 121.559475,24.004771,0.0 121.559325,24.004709,0.0 121.559223,24.004659,0.0 121.559117,24.004621,0.0 121.558966,24.004554,0.0 121.558851,24.004507,0.0 121.558774,24.004483,0.0 121.558713,24.004462,0.0 121.558651,24.004447,0.0 121.558537,24.004411,0.0 121.558465,24.004398,0.0 121.558373,24.004385,0.0 121.558289,24.004376,0.0 121.558192,24.004374,0.0 121.558163,24.004374,0.0 121.558155,24.004378,0.0 121.558084,24.004413,0.0 121.558002,24.004479,0.0 121.557914,24.00456,0.0 121.557809,24.004545,0.0 121.557719,24.00448,0.0 121.557701,24.004457,0.0 121.557684,24.004371,0.0 121.557689,24.00432,0.0 121.557709,24.004207,0.0 121.557768,24.004019,0.0 121.557841,24.003793,0.0 121.55792,24.003565,0.0 121.557964,24.003413,0.0 121.55806,24.003129,0.0 121.558095,24.003036,0.0 121.558155,24.00288,0.0 121.558163,24.00286,0.0 121.558356,24.002126,0.0 121.558355,24.001817,0.0 121.558155,23.999429,0.0 121.558137,23.999214,0.0 121.558155,23.999211,0.0 121.55942,23.998966,0.0 121.560278,23.998788,0.0 121.561103,23.99858,0.0 121.561644,23.998666,0.0 121.562663,23.998954,0.0 121.564319,23.999591,0.0 121.565879,24.000257,0.0 121.567279,24.000427,0.0 121.568361,24.000686,0.0 121.5697,24.001382,0.0 121.571038,24.002136,0.0 121.572568,24.002977,0.0 121.574065,24.003702,0.0 121.575512,24.004422,0.0 121.575754,24.004542,0.0 121.577633,24.005236,0.0 121.579034,24.005611,0.0 121.580658,24.006306,0.0 121.581424,24.006916,0.0 121.582347,24.007117,0.0 121.583157,24.007429,0.0 121.583398,24.007522,0.0 121.584386,24.007956,0.0 121.584928,24.008392,0.0 121.585185,24.0088,0.0 121.585632,24.009295,0.0 121.585983,24.009615,0.0 121.586524,24.00973,0.0 121.586905,24.009611,0.0 121.587381,24.009376,0.0 121.588176,24.009344,0.0 121.588908,24.009633,0.0 121.58926,24.009953,0.0 121.589517,24.010565,0.0 121.589901,24.011148,0.0 121.590697,24.011408,0.0 121.591176,24.011756,0.0 121.591146,24.012224,0.0 121.591085,24.012837,0.0 121.591152,24.01348,0.0 121.591416,24.013979,0.0 121.591264,24.014268,0.0 121.591158,24.01432,0.0 121.590569,24.01444,0.0 121.589766,24.014493,0.0 121.588938,24.014157,0.0 121.587734,24.014165,0.0 121.586809,24.014188,0.0 121.585556,24.014151,0.0 121.584877,24.014361,0.0 121.584648,24.014458,0.0 121.58446,24.014562,0.0 121.58428,24.014697,0.0 121.584018,24.014951,0.0 121.58321,24.016101,0.0 121.583157,24.016157,0.0 121.582472,24.01687,0.0 121.581883,24.017252,0.0 121.581092,24.017737,0.0 121.58063,24.018139,0.0 121.58031,24.018519,0.0 121.580063,24.018781,0.0 121.579771,24.018954,0.0 121.579707,24.018976,0.0 121.579187,24.019015,0.0 121.578671,24.019137,0.0 121.578228,24.01914,0.0 121.577625,24.019131,0.0 121.577281,24.019111,0.0 121.577303,24.019049,0.0 121.577365,24.018911,0.0 121.577149,24.018415,0.0</coordinates></LinearRing></outerBoundaryIs></Polygon><styleUrl>#spolygon-map</styleUrl></Placemark><Placemark><Polygon><outerBoundaryIs><LinearRing><coordinates>121.597575,23.98621,0.0 121.59726,23.985635,0.0 121.597768,23.985587,0.0 121.597961,23.985776,0.0 121.598211,23.985694,0.0 121.598118,23.985371,0.0 121.599037,23.985202,0.0 121.598137,23.98451,0.0 121.601332,23.98387,0.0 121.604518,23.983261,0.0 121.601465,23.987184,0.0 121.600675,23.987012,0.0 121.598739,23.986542,0.0 121.598409,23.986422,0.0 121.597575,23.98621,0.0</coordinates></LinearRing></outerBoundaryIs></Polygon><styleUrl>#spolygon-map</styleUrl></Placemark><Placemark><Polygon><outerBoundaryIs><LinearRing><coordinates>121.588908,24.009633,0.0 121.588176,24.009344,0.0 121.587381,24.009376,0.0 121.586905,24.009611,0.0 121.586524,24.00973,0.0 121.585983,24.009615,0.0 121.585632,24.009295,0.0 121.585185,24.0088,0.0 121.584928,24.008392,0.0 121.584386,24.007956,0.0 121.583398,24.007522,0.0 121.583157,24.007429,0.0 121.582347,24.007117,0.0 121.581424,24.006916,0.0 121.580658,24.006306,0.0 121.579034,24.005611,0.0 121.577633,24.005236,0.0 121.575754,24.004542,0.0 121.575512,24.004422,0.0 121.582352,23.998194,0.0 121.582479,23.998078,0.0 121.581659,23.997418,0.0 121.58134,23.997198,0.0 121.580987,23.997049,0.0 121.580599,23.996956,0.0 121.579785,23.995553,0.0 121.579649,23.995484,0.0 121.579403,23.995405,0.0 121.579174,23.995325,0.0 121.579015,23.995067,0.0 121.578325,23.993796,0.0 121.579244,23.993479,0.0 121.57819,23.991689,0.0 121.581347,23.990524,0.0 121.582125,23.990226,0.0 121.583157,23.990468,0.0 121.583202,23.990478,0.0 121.583878,23.991017,0.0 121.584354,23.991397,0.0 121.58464,23.991968,0.0 121.585341,23.992094,0.0 121.585904,23.992478,0.0 121.586549,23.992347,0.0 121.587332,23.991803,0.0 121.58765,23.991582,0.0 121.5874,23.991279,0.0 121.589204,23.990327,0.0 121.589392,23.990627,0.0 121.589911,23.990354,0.0 121.590463,23.991265,0.0 121.591064,23.992134,0.0 121.591611,23.992745,0.0 121.594558,23.996072,0.0 121.595529,23.997246,0.0 121.596338,23.998193,0.0 121.598307,24.0005,0.0 121.597916,24.000914,0.0 121.597069,24.002344,0.0 121.596223,24.004058,0.0 121.59561,24.005629,0.0 121.594533,24.007773,0.0 121.593761,24.008845,0.0 121.592365,24.008993,0.0 121.590892,24.009427,0.0 121.588908,24.009633,0.0</coordinates></LinearRing></outerBoundaryIs></Polygon><styleUrl>#spolygon-map</styleUrl></Placemark><Placemark><Polygon><outerBoundaryIs><LinearRing><coordinates>121.558137,23.999214,0.0 121.558057,23.998251,0.0 121.558111,23.998252,0.0 121.558155,23.998262,0.0 121.558162,23.998264,0.0 121.558203,23.998259,0.0 121.558405,23.998195,0.0 121.573091,23.99357,0.0 121.57819,23.991689,0.0 121.579244,23.993479,0.0 121.578325,23.993796,0.0 121.579015,23.995067,0.0 121.579174,23.995325,0.0 121.579403,23.995405,0.0 121.579649,23.995484,0.0 121.579785,23.995553,0.0 121.580599,23.996956,0.0 121.580987,23.997049,0.0 121.58134,23.997198,0.0 121.581659,23.997418,0.0 121.582479,23.998078,0.0 121.582352,23.998194,0.0 121.575512,24.004422,0.0 121.574065,24.003702,0.0 121.572568,24.002977,0.0 121.571038,24.002136,0.0 121.5697,24.001382,0.0 121.568361,24.000686,0.0 121.567279,24.000427,0.0 121.565879,24.000257,0.0 121.564319,23.999591,0.0 121.562663,23.998954,0.0 121.561644,23.998666,0.0 121.561103,23.99858,0.0 121.560278,23.998788,0.0 121.55942,23.998966,0.0 121.558155,23.999211,0.0 121.558137,23.999214,0.0</coordinates></LinearRing></outerBoundaryIs></Polygon><styleUrl>#spolygon-map</styleUrl></Placemark><Placemark><Polygon><outerBoundaryIs><LinearRing><coordinates>121.60336,23.997795,0.0 121.599476,23.989694,0.0 121.598065,23.987201,0.0 121.597973,23.987021,0.0 121.59775,23.986529,0.0 121.597575,23.98621,0.0 121.598409,23.986422,0.0 121.598739,23.986542,0.0 121.600675,23.987012,0.0 121.601465,23.987184,0.0 121.602123,23.987314,0.0 121.603106,23.987554,0.0 121.604271,23.987842,0.0 121.605479,23.988043,0.0 121.606216,23.9881,0.0 121.60496,23.993208,0.0 121.604259,23.996052,0.0 121.604797,23.997133,0.0 121.60336,23.997795,0.0</coordinates></LinearRing></outerBoundaryIs></Polygon><styleUrl>#spolygon-map</styleUrl></Placemark></Document>
</kml>
