<?xml version="1.0" encoding="UTF-8"?>
<kml xmlns="http://www.opengis.net/kml/2.2">
	<Document>
		<name>花蓮縣吉安鄉</name>
		<Style id="spolygon">
			<LabelStyle>
				<scale>0.0</scale>
			</LabelStyle>
			<LineStyle>
				<color>330030ff</color>
				<width>0</width>
			</LineStyle>
			<PolyStyle>
				<color>330030ff</color>
			</PolyStyle>
		</Style>
		<StyleMap id="spolygon-map">
			<Pair>
				<key>normal</key>
				<styleUrl>#spolygon</styleUrl>
			</Pair>
		</StyleMap>
	<Placemark><Polygon><outerBoundaryIs><LinearRing><coordinates>121.518463,23.950027,0.0 121.518338,23.949922,0.0 121.518271,23.949906,0.0 121.51803,23.949907,0.0 121.517576,23.949902,0.0 121.517341,23.949878,0.0 121.517061,23.949811,0.0 121.516724,23.94969,0.0 121.516062,23.949455,0.0 121.515908,23.949379,0.0 121.515493,23.949143,0.0 121.515111,23.948887,0.0 121.514701,23.948611,0.0 121.514454,23.948427,0.0 121.514286,23.94831,0.0 121.514099,23.948241,0.0 121.514013,23.948194,0.0 121.514091,23.948155,0.0 121.514582,23.94793,0.0 121.514669,23.947893,0.0 121.514829,23.947818,0.0 121.515126,23.947684,0.0 121.515252,23.947627,0.0 121.515408,23.947557,0.0 121.515556,23.947486,0.0 121.515684,23.947434,0.0 121.515737,23.947407,0.0 121.515901,23.947302,0.0 121.516201,23.947112,0.0 121.516442,23.946955,0.0 121.516577,23.946871,0.0 121.516735,23.94676,0.0 121.516902,23.946647,0.0 121.517121,23.946501,0.0 121.517297,23.946379,0.0 121.517424,23.946302,0.0 121.517627,23.946161,0.0 121.517787,23.946059,0.0 121.517998,23.945916,0.0 121.518263,23.945737,0.0 121.518461,23.945607,0.0 121.518609,23.945503,0.0 121.518751,23.945406,0.0 121.518941,23.945274,0.0 121.519123,23.945151,0.0 121.51934,23.944999,0.0 121.519611,23.944811,0.0 121.519922,23.944593,0.0 121.520208,23.944394,0.0 121.520322,23.944319,0.0 121.520426,23.944242,0.0 121.520493,23.94419,0.0 121.520559,23.944128,0.0 121.520645,23.944047,0.0 121.520775,23.943927,0.0 121.520862,23.943843,0.0 121.52099,23.94373,0.0 121.521212,23.943524,0.0 121.521456,23.943299,0.0 121.521726,23.94305,0.0 121.522105,23.942712,0.0 121.52242,23.942434,0.0 121.522753,23.942141,0.0 121.522862,23.942051,0.0 121.523013,23.941915,0.0 121.523157,23.941786,0.0 121.523355,23.941606,0.0 121.523485,23.941484,0.0 121.523811,23.941183,0.0 121.524083,23.940931,0.0 121.524424,23.940625,0.0 121.524637,23.940433,0.0 121.524915,23.940177,0.0 121.5252,23.939916,0.0 121.525542,23.939608,0.0 121.526026,23.939168,0.0 121.526398,23.938826,0.0 121.52673,23.938525,0.0 121.527006,23.938271,0.0 121.527155,23.938131,0.0 121.527272,23.938024,0.0 121.527294,23.938004,0.0 121.527315,23.93799,0.0 121.527338,23.937977,0.0 121.527455,23.937938,0.0 121.527653,23.937865,0.0 121.527777,23.937826,0.0 121.52836,23.937619,0.0 121.528723,23.937502,0.0 121.528826,23.937459,0.0 121.529035,23.937391,0.0 121.529057,23.937379,0.0 121.529075,23.937352,0.0 121.529225,23.93713,0.0 121.529476,23.936782,0.0 121.529707,23.93646,0.0 121.529892,23.936216,0.0 121.530136,23.935877,0.0 121.5304,23.935508,0.0 121.530503,23.935367,0.0 121.530719,23.935075,0.0 121.530943,23.934768,0.0 121.530998,23.934688,0.0 121.531036,23.934645,0.0 121.531087,23.934607,0.0 121.531242,23.9345,0.0 121.531372,23.934412,0.0 121.531604,23.934235,0.0 121.531764,23.934117,0.0 121.531933,23.933992,0.0 121.532141,23.933838,0.0 121.532581,23.933518,0.0 121.533152,23.933098,0.0 121.533157,23.933094,0.0 121.53322,23.933015,0.0 121.53334,23.932845,0.0 121.533648,23.932424,0.0 121.533854,23.932155,0.0 121.533876,23.932125,0.0 121.533898,23.932105,0.0 121.533936,23.932076,0.0 121.53412,23.931921,0.0 121.534279,23.931772,0.0 121.534384,23.931656,0.0 121.534473,23.931563,0.0 121.534533,23.931505,0.0 121.534571,23.931453,0.0 121.534624,23.931367,0.0 121.534665,23.93129,0.0 121.534697,23.931204,0.0 121.534722,23.931109,0.0 121.534728,23.931016,0.0 121.534721,23.930874,0.0 121.534705,23.930788,0.0 121.534689,23.930716,0.0 121.534685,23.930678,0.0 121.534688,23.930648,0.0 121.534704,23.930603,0.0 121.534729,23.930558,0.0 121.53478,23.930508,0.0 121.534872,23.93044,0.0 121.535055,23.930286,0.0 121.535163,23.930168,0.0 121.535281,23.930044,0.0 121.535326,23.929985,0.0 121.535379,23.929867,0.0 121.535446,23.929747,0.0 121.535543,23.929548,0.0 121.535572,23.929487,0.0 121.535594,23.929377,0.0 121.535606,23.929302,0.0 121.535622,23.929237,0.0 121.535634,23.929191,0.0 121.535665,23.929094,0.0 121.535706,23.928988,0.0 121.535751,23.928936,0.0 121.535814,23.928857,0.0 121.535928,23.928746,0.0 121.536023,23.928669,0.0 121.536194,23.928564,0.0 121.53641,23.928455,0.0 121.536621,23.92835,0.0 121.536834,23.928228,0.0 121.536983,23.928162,0.0 121.537078,23.928103,0.0 121.537338,23.92793,0.0 121.537579,23.92779,0.0 121.53776,23.927717,0.0 121.538296,23.927552,0.0 121.53875,23.927418,0.0 121.539313,23.927291,0.0 121.539664,23.927227,0.0 121.539937,23.927165,0.0 121.540353,23.927062,0.0 121.540598,23.927002,0.0 121.54102,23.926893,0.0 121.541391,23.926803,0.0 121.541556,23.926771,0.0 121.542033,23.926684,0.0 121.542309,23.926649,0.0 121.542576,23.9266,0.0 121.542814,23.926554,0.0 121.543201,23.926481,0.0 121.543563,23.926425,0.0 121.544002,23.926349,0.0 121.544304,23.926292,0.0 121.544601,23.926239,0.0 121.544964,23.92617,0.0 121.545354,23.926098,0.0 121.545682,23.926032,0.0 121.545888,23.925995,0.0 121.546136,23.925996,0.0 121.546899,23.926016,0.0 121.54716,23.926038,0.0 121.54737,23.926066,0.0 121.547628,23.92612,0.0 121.547726,23.926142,0.0 121.547806,23.926153,0.0 121.547949,23.926159,0.0 121.548108,23.926152,0.0 121.54828,23.926138,0.0 121.548425,23.926117,0.0 121.548568,23.926076,0.0 121.54885,23.926,0.0 121.549203,23.925904,0.0 121.549622,23.925799,0.0 121.550007,23.925705,0.0 121.550339,23.925616,0.0 121.550688,23.925508,0.0 121.550742,23.925495,0.0 121.550958,23.92544,0.0 121.551089,23.925398,0.0 121.551263,23.925312,0.0 121.553176,23.928634,0.0 121.55728,23.934835,0.0 121.555783,23.935392,0.0 121.556205,23.935886,0.0 121.549527,23.944717,0.0 121.552895,23.947185,0.0 121.552597,23.947461,0.0 121.553018,23.947791,0.0 121.552435,23.948192,0.0 121.550445,23.949563,0.0 121.548772,23.950947,0.0 121.543865,23.9535,0.0 121.542728,23.954,0.0 121.54129,23.954379,0.0 121.539729,23.953779,0.0 121.538467,23.953122,0.0 121.537505,23.952519,0.0 121.536485,23.952467,0.0 121.535167,23.952692,0.0 121.534207,23.952696,0.0 121.533153,23.952557,0.0 121.532167,23.952427,0.0 121.530426,23.951882,0.0 121.527965,23.951285,0.0 121.526342,23.950408,0.0 121.52418,23.949644,0.0 121.5222,23.949375,0.0 121.520582,23.949436,0.0 121.518463,23.950027,0.0</coordinates></LinearRing></outerBoundaryIs></Polygon><styleUrl>#spolygon-map</styleUrl></Placemark><Placemark><Polygon><outerBoundaryIs><LinearRing><coordinates>121.593673,23.957711,0.0 121.589466,23.948189,0.0 121.588025,23.944927,0.0 121.586814,23.942231,0.0 121.586449,23.941075,0.0 121.586561,23.939311,0.0 121.5877,23.939307,0.0 121.5892,23.939522,0.0 121.591602,23.940394,0.0 121.596406,23.941919,0.0 121.602634,23.940186,0.0 121.60617,23.939676,0.0 121.60732,23.939254,0.0 121.607551,23.939721,0.0 121.607718,23.940088,0.0 121.608158,23.941054,0.0 121.60816,23.941059,0.0 121.60843,23.941561,0.0 121.608723,23.9421,0.0 121.609095,23.942834,0.0 121.609232,23.943118,0.0 121.609179,23.943358,0.0 121.609119,23.943805,0.0 121.609031,23.944155,0.0 121.609222,23.94475,0.0 121.609228,23.944897,0.0 121.609182,23.944983,0.0 121.608972,23.945273,0.0 121.608624,23.945678,0.0 121.60845,23.945938,0.0 121.608266,23.946237,0.0 121.60816,23.946393,0.0 121.608157,23.946398,0.0 121.607817,23.946943,0.0 121.6074,23.947697,0.0 121.607185,23.948188,0.0 121.606929,23.948886,0.0 121.606762,23.949374,0.0 121.606743,23.949478,0.0 121.606725,23.949543,0.0 121.606628,23.949792,0.0 121.606625,23.949864,0.0 121.606617,23.94991,0.0 121.606427,23.950183,0.0 121.60633,23.950407,0.0 121.606201,23.950961,0.0 121.606058,23.95165,0.0 121.606019,23.952181,0.0 121.605932,23.952788,0.0 121.605866,23.95333,0.0 121.604892,23.953875,0.0 121.603943,23.954471,0.0 121.603028,23.955603,0.0 121.601957,23.956539,0.0 121.601151,23.954764,0.0 121.593673,23.957711,0.0</coordinates></LinearRing></outerBoundaryIs></Polygon><styleUrl>#spolygon-map</styleUrl></Placemark><Placemark><Polygon><outerBoundaryIs><LinearRing><coordinates>121.589846,23.972694,0.0 121.585619,23.969758,0.0 121.583157,23.968029,0.0 121.577797,23.964265,0.0 121.576473,23.963389,0.0 121.582293,23.963863,0.0 121.583157,23.963919,0.0 121.589793,23.964352,0.0 121.590574,23.964735,0.0 121.591172,23.964237,0.0 121.595064,23.968341,0.0 121.594784,23.96855,0.0 121.594066,23.969144,0.0 121.589846,23.972694,0.0</coordinates></LinearRing></outerBoundaryIs></Polygon><styleUrl>#spolygon-map</styleUrl></Placemark><Placemark><Polygon><outerBoundaryIs><LinearRing><coordinates>121.589793,23.964352,0.0 121.583157,23.963919,0.0 121.582293,23.963863,0.0 121.582461,23.961162,0.0 121.579075,23.955057,0.0 121.578953,23.954562,0.0 121.580151,23.954226,0.0 121.579968,23.953676,0.0 121.579247,23.953403,0.0 121.578467,23.953241,0.0 121.576894,23.950006,0.0 121.576116,23.94819,0.0 121.575136,23.945902,0.0 121.574335,23.944017,0.0 121.576264,23.942933,0.0 121.58117,23.940599,0.0 121.582907,23.940152,0.0 121.583156,23.940095,0.0 121.586561,23.939311,0.0 121.586449,23.941075,0.0 121.586814,23.942231,0.0 121.588025,23.944927,0.0 121.589466,23.948189,0.0 121.593673,23.957711,0.0 121.593605,23.958771,0.0 121.592413,23.960374,0.0 121.589793,23.964352,0.0</coordinates></LinearRing></outerBoundaryIs></Polygon><styleUrl>#spolygon-map</styleUrl></Placemark><Placemark><Polygon><outerBoundaryIs><LinearRing><coordinates>121.558057,23.998251,0.0 121.558025,23.99825,0.0 121.557929,23.998262,0.0 121.557695,23.998281,0.0 121.557595,23.99829,0.0 121.557507,23.998311,0.0 121.557364,23.998366,0.0 121.557221,23.998411,0.0 121.556992,23.998475,0.0 121.556626,23.998583,0.0 121.556352,23.998674,0.0 121.556079,23.998772,0.0 121.55587,23.998832,0.0 121.55561,23.998909,0.0 121.555391,23.998978,0.0 121.555006,23.999101,0.0 121.554659,23.999215,0.0 121.554356,23.999322,0.0 121.554058,23.99943,0.0 121.55381,23.999514,0.0 121.553649,23.999564,0.0 121.553188,23.99972,0.0 121.552895,23.999827,0.0 121.552667,23.999936,0.0 121.552491,24.000049,0.0 121.552368,24.000113,0.0 121.552209,24.000199,0.0 121.552152,24.000227,0.0 121.552068,24.000268,0.0 121.55198,24.000304,0.0 121.551895,24.000331,0.0 121.551856,24.000341,0.0 121.551805,24.00035,0.0 121.551786,24.000348,0.0 121.551778,24.000336,0.0 121.551769,24.000316,0.0 121.551771,24.0003,0.0 121.551784,24.000278,0.0 121.551851,24.000214,0.0 121.551994,24.000096,0.0 121.552113,23.999994,0.0 121.552241,23.999865,0.0 121.552341,23.999765,0.0 121.552429,23.999661,0.0 121.552572,23.999514,0.0 121.552717,23.999315,0.0 121.552839,23.999132,0.0 121.552948,23.99898,0.0 121.553025,23.998865,0.0 121.553131,23.998715,0.0 121.553182,23.998654,0.0 121.553266,23.998557,0.0 121.553392,23.998398,0.0 121.553476,23.998305,0.0 121.553535,23.99824,0.0 121.55357,23.998196,0.0 121.553573,23.998192,0.0 121.553765,23.998045,0.0 121.553849,23.997988,0.0 121.554017,23.997884,0.0 121.554084,23.997843,0.0 121.554201,23.997714,0.0 121.554295,23.997605,0.0 121.554413,23.997532,0.0 121.554586,23.997482,0.0 121.554754,23.99749,0.0 121.554934,23.997501,0.0 121.55513,23.997525,0.0 121.555208,23.997525,0.0 121.55527,23.9975,0.0 121.555303,23.997457,0.0 121.555286,23.997412,0.0 121.555236,23.997294,0.0 121.555173,23.997191,0.0 121.555021,23.997047,0.0 121.554486,23.996523,0.0 121.554093,23.996224,0.0 121.553711,23.995927,0.0 121.553503,23.995811,0.0 121.553261,23.995694,0.0 121.552896,23.99552,0.0 121.55263,23.995396,0.0 121.552485,23.995313,0.0 121.552327,23.995197,0.0 121.552108,23.994985,0.0 121.551809,23.994643,0.0 121.551318,23.994105,0.0 121.551138,23.993989,0.0 121.550913,23.993813,0.0 121.550688,23.993573,0.0 121.550485,23.993282,0.0 121.550343,23.99312,0.0 121.550219,23.993033,0.0 121.55,23.992884,0.0 121.549764,23.992802,0.0 121.549563,23.992733,0.0 121.549304,23.992675,0.0 121.549066,23.992628,0.0 121.54887,23.992572,0.0 121.548578,23.992429,0.0 121.548224,23.992209,0.0 121.547758,23.991933,0.0 121.547438,23.99179,0.0 121.547051,23.991613,0.0 121.546501,23.991414,0.0 121.545953,23.991217,0.0 121.545123,23.990963,0.0 121.544444,23.990776,0.0 121.544065,23.990632,0.0 121.543801,23.990552,0.0 121.543554,23.990485,0.0 121.543179,23.990441,0.0 121.542999,23.990442,0.0 121.542843,23.990472,0.0 121.542748,23.990529,0.0 121.54258,23.990705,0.0 121.542352,23.991085,0.0 121.542192,23.991533,0.0 121.542057,23.991856,0.0 121.541979,23.991938,0.0 121.541784,23.992103,0.0 121.541516,23.992249,0.0 121.541337,23.99229,0.0 121.541085,23.992291,0.0 121.540759,23.992227,0.0 121.540445,23.992151,0.0 121.540178,23.992077,0.0 121.539948,23.992049,0.0 121.539791,23.992074,0.0 121.539539,23.992132,0.0 121.539405,23.992128,0.0 121.539203,23.992088,0.0 121.538973,23.991969,0.0 121.538647,23.991733,0.0 121.538479,23.991612,0.0 121.538378,23.991549,0.0 121.538288,23.991524,0.0 121.538075,23.991489,0.0 121.537654,23.99145,0.0 121.537388,23.991451,0.0 121.537135,23.991429,0.0 121.536877,23.991385,0.0 121.536659,23.991324,0.0 121.536406,23.991221,0.0 121.535861,23.99088,0.0 121.535742,23.990775,0.0 121.53537,23.990406,0.0 121.535246,23.990237,0.0 121.53505,23.990089,0.0 121.53487,23.989981,0.0 121.534483,23.989858,0.0 121.533922,23.989767,0.0 121.533538,23.989737,0.0 121.533154,23.989729,0.0 121.53309,23.989727,0.0 121.533154,23.989682,0.0 121.533684,23.989302,0.0 121.534634,23.988763,0.0 121.537824,23.987849,0.0 121.53988,23.987531,0.0 121.5412,23.987301,0.0 121.541936,23.987072,0.0 121.542733,23.986759,0.0 121.544207,23.986669,0.0 121.545356,23.986346,0.0 121.546366,23.986231,0.0 121.546742,23.985883,0.0 121.54716,23.985882,0.0 121.54848,23.985555,0.0 121.548857,23.985355,0.0 121.549288,23.985267,0.0 121.549755,23.985296,0.0 121.55035,23.985512,0.0 121.550831,23.985537,0.0 121.551283,23.9855,0.0 121.551694,23.985175,0.0 121.551879,23.984947,0.0 121.552203,23.984838,0.0 121.552487,23.984846,0.0 121.552842,23.985088,0.0 121.553639,23.985699,0.0 121.554624,23.986335,0.0 121.555293,23.986667,0.0 121.556215,23.986739,0.0 121.558155,23.986877,0.0 121.562267,23.987168,0.0 121.5672,23.98447,0.0 121.573091,23.99357,0.0 121.558405,23.998195,0.0 121.558203,23.998259,0.0 121.558162,23.998264,0.0 121.558155,23.998262,0.0 121.558111,23.998252,0.0 121.558057,23.998251,0.0</coordinates></LinearRing></outerBoundaryIs></Polygon><styleUrl>#spolygon-map</styleUrl></Placemark><Placemark><Polygon><outerBoundaryIs><LinearRing><coordinates>121.586549,23.992347,0.0 121.583157,23.987028,0.0 121.582795,23.986461,0.0 121.583157,23.986271,0.0 121.592798,23.981207,0.0 121.594797,23.980708,0.0 121.596714,23.984749,0.0 121.598137,23.98451,0.0 121.599037,23.985202,0.0 121.598118,23.985371,0.0 121.598211,23.985694,0.0 121.597961,23.985776,0.0 121.597768,23.985587,0.0 121.59726,23.985635,0.0 121.597575,23.98621,0.0 121.59775,23.986529,0.0 121.597973,23.987021,0.0 121.598065,23.987201,0.0 121.596416,23.988188,0.0 121.595567,23.988506,0.0 121.595032,23.988706,0.0 121.594325,23.988971,0.0 121.593905,23.989425,0.0 121.593131,23.99026,0.0 121.592724,23.991319,0.0 121.592225,23.991582,0.0 121.591073,23.98974,0.0 121.589911,23.990354,0.0 121.589392,23.990627,0.0 121.589204,23.990327,0.0 121.5874,23.991279,0.0 121.58765,23.991582,0.0 121.587332,23.991803,0.0 121.586549,23.992347,0.0</coordinates></LinearRing></outerBoundaryIs></Polygon><styleUrl>#spolygon-map</styleUrl></Placemark><Placemark><Polygon><outerBoundaryIs><LinearRing><coordinates>121.573091,23.99357,0.0 121.5672,23.98447,0.0 121.577862,23.978724,0.0 121.582795,23.986461,0.0 121.583157,23.987028,0.0 121.586549,23.992347,0.0 121.585904,23.992478,0.0 121.585341,23.992094,0.0 121.58464,23.991968,0.0 121.584354,23.991397,0.0 121.583878,23.991017,0.0 121.583202,23.990478,0.0 121.583157,23.990468,0.0 121.582125,23.990226,0.0 121.581347,23.990524,0.0 121.57819,23.991689,0.0 121.573091,23.99357,0.0</coordinates></LinearRing></outerBoundaryIs></Polygon><styleUrl>#spolygon-map</styleUrl></Placemark><Placemark><Polygon><outerBoundaryIs><LinearRing><coordinates>121.563701,23.95938,0.0 121.561327,23.955696,0.0 121.558555,23.95262,0.0 121.559153,23.952122,0.0 121.558155,23.951417,0.0 121.553586,23.948192,0.0 121.553018,23.947791,0.0 121.552597,23.947461,0.0 121.552895,23.947185,0.0 121.549527,23.944717,0.0 121.556205,23.935886,0.0 121.555783,23.935392,0.0 121.55728,23.934835,0.0 121.558155,23.934556,0.0 121.559555,23.934111,0.0 121.559981,23.935597,0.0 121.561716,23.934654,0.0 121.570714,23.935613,0.0 121.572402,23.937756,0.0 121.57247,23.939519,0.0 121.573499,23.941664,0.0 121.573803,23.942765,0.0 121.574331,23.944006,0.0 121.574335,23.944017,0.0 121.575136,23.945902,0.0 121.572086,23.947655,0.0 121.572447,23.948191,0.0 121.57438,23.951063,0.0 121.571449,23.952727,0.0 121.572536,23.954542,0.0 121.563701,23.95938,0.0</coordinates></LinearRing></outerBoundaryIs></Polygon><styleUrl>#spolygon-map</styleUrl></Placemark><Placemark><Polygon><outerBoundaryIs><LinearRing><coordinates>121.586561,23.939311,0.0 121.583156,23.940095,0.0 121.582907,23.940152,0.0 121.58117,23.940599,0.0 121.576264,23.942933,0.0 121.574335,23.944017,0.0 121.574331,23.944006,0.0 121.573803,23.942765,0.0 121.573499,23.941664,0.0 121.57247,23.939519,0.0 121.572402,23.937756,0.0 121.570714,23.935613,0.0 121.561716,23.934654,0.0 121.559981,23.935597,0.0 121.559555,23.934111,0.0 121.558155,23.934556,0.0 121.55728,23.934835,0.0 121.553176,23.928634,0.0 121.551263,23.925312,0.0 121.551396,23.925224,0.0 121.551498,23.925135,0.0 121.551721,23.924933,0.0 121.551848,23.924813,0.0 121.552031,23.924621,0.0 121.552091,23.924571,0.0 121.552161,23.924521,0.0 121.552253,23.924489,0.0 121.55239,23.924471,0.0 121.552599,23.924443,0.0 121.552742,23.924435,0.0 121.552878,23.924412,0.0 121.553002,23.924421,0.0 121.553164,23.92442,0.0 121.553295,23.924422,0.0 121.553343,23.924424,0.0 121.553406,23.92442,0.0 121.553524,23.924392,0.0 121.553571,23.924362,0.0 121.55366,23.924303,0.0 121.553856,23.924156,0.0 121.554129,23.92392,0.0 121.554368,23.923678,0.0 121.554625,23.92341,0.0 121.55487,23.923191,0.0 121.554912,23.92315,0.0 121.555245,23.922943,0.0 121.555515,23.922768,0.0 121.556036,23.922432,0.0 121.556066,23.922419,0.0 121.5561,23.922416,0.0 121.556132,23.922423,0.0 121.556139,23.922428,0.0 121.556154,23.922434,0.0 121.556209,23.922445,0.0 121.556263,23.922438,0.0 121.556312,23.922416,0.0 121.556486,23.922286,0.0 121.556978,23.921942,0.0 121.557774,23.921456,0.0 121.558027,23.921324,0.0 121.558155,23.921254,0.0 121.558157,23.921253,0.0 121.558359,23.92114,0.0 121.55872,23.920904,0.0 121.559098,23.92067,0.0 121.559719,23.920331,0.0 121.560208,23.920072,0.0 121.560849,23.919751,0.0 121.561693,23.919364,0.0 121.562479,23.919014,0.0 121.562808,23.91887,0.0 121.563401,23.918622,0.0 121.564153,23.918306,0.0 121.564535,23.918146,0.0 121.5648,23.918035,0.0 121.564996,23.917946,0.0 121.565421,23.917755,0.0 121.566098,23.917432,0.0 121.5666,23.917136,0.0 121.567027,23.916907,0.0 121.567576,23.916659,0.0 121.567897,23.916531,0.0 121.568515,23.916303,0.0 121.569628,23.915877,0.0 121.570355,23.915671,0.0 121.571488,23.915337,0.0 121.572396,23.915076,0.0 121.572784,23.914969,0.0 121.573756,23.914681,0.0 121.574387,23.914498,0.0 121.575537,23.914144,0.0 121.576405,23.913858,0.0 121.576833,23.913751,0.0 121.577642,23.913542,0.0 121.578406,23.913386,0.0 121.578672,23.913331,0.0 121.578915,23.913305,0.0 121.579216,23.913277,0.0 121.579366,23.913254,0.0 121.5798,23.913141,0.0 121.580442,23.91301,0.0 121.581344,23.912783,0.0 121.581917,23.912605,0.0 121.582322,23.912486,0.0 121.582779,23.912362,0.0 121.583039,23.912303,0.0 121.583157,23.912259,0.0 121.583441,23.912166,0.0 121.584111,23.91175,0.0 121.584583,23.911405,0.0 121.585093,23.911166,0.0 121.585531,23.910862,0.0 121.585847,23.910802,0.0 121.586503,23.910748,0.0 121.587156,23.910691,0.0 121.587326,23.910627,0.0 121.588174,23.910344,0.0 121.588951,23.909829,0.0 121.589314,23.909484,0.0 121.58971,23.909304,0.0 121.589898,23.909317,0.0 121.590073,23.909416,0.0 121.590227,23.909546,0.0 121.590881,23.910286,0.0 121.591266,23.910673,0.0 121.59174,23.910958,0.0 121.592037,23.911061,0.0 121.592308,23.911152,0.0 121.592405,23.911183,0.0 121.592797,23.911324,0.0 121.592942,23.911504,0.0 121.593171,23.91186,0.0 121.593555,23.91252,0.0 121.593854,23.913067,0.0 121.594323,23.913664,0.0 121.5946,23.914049,0.0 121.594765,23.914339,0.0 121.594921,23.91474,0.0 121.59511,23.915087,0.0 121.595326,23.915445,0.0 121.595691,23.915947,0.0 121.596028,23.91661,0.0 121.596246,23.916853,0.0 121.596499,23.917165,0.0 121.596725,23.917395,0.0 121.59689,23.917665,0.0 121.597027,23.91794,0.0 121.597201,23.918341,0.0 121.597364,23.918756,0.0 121.597642,23.919441,0.0 121.597907,23.919918,0.0 121.598206,23.920448,0.0 121.598239,23.920542,0.0 121.598308,23.920736,0.0 121.598368,23.921014,0.0 121.598578,23.921336,0.0 121.598675,23.921559,0.0 121.598795,23.921743,0.0 121.598933,23.921905,0.0 121.59926,23.922247,0.0 121.600002,23.923188,0.0 121.600168,23.923442,0.0 121.600296,23.923616,0.0 121.60045,23.923888,0.0 121.600559,23.924145,0.0 121.60065,23.924524,0.0 121.600767,23.924905,0.0 121.600895,23.925209,0.0 121.601075,23.925617,0.0 121.601352,23.926266,0.0 121.601518,23.926561,0.0 121.601634,23.926811,0.0 121.601736,23.927021,0.0 121.602167,23.927893,0.0 121.602314,23.928132,0.0 121.602526,23.928503,0.0 121.602757,23.928945,0.0 121.602892,23.929172,0.0 121.603129,23.929718,0.0 121.60329,23.930191,0.0 121.603619,23.931208,0.0 121.603806,23.931878,0.0 121.603975,23.932559,0.0 121.604092,23.933077,0.0 121.604137,23.933303,0.0 121.6042,23.933465,0.0 121.604212,23.9334,0.0 121.604231,23.933479,0.0 121.604287,23.933598,0.0 121.604715,23.934605,0.0 121.604973,23.935166,0.0 121.60521,23.935556,0.0 121.605563,23.936209,0.0 121.606,23.936982,0.0 121.606147,23.937214,0.0 121.606434,23.937655,0.0 121.606646,23.937993,0.0 121.606897,23.938409,0.0 121.606993,23.938569,0.0 121.607179,23.938941,0.0 121.60732,23.939254,0.0 121.60617,23.939676,0.0 121.602634,23.940186,0.0 121.596406,23.941919,0.0 121.591602,23.940394,0.0 121.5892,23.939522,0.0 121.5877,23.939307,0.0 121.586561,23.939311,0.0</coordinates></LinearRing></outerBoundaryIs></Polygon><styleUrl>#spolygon-map</styleUrl></Placemark><Placemark><Polygon><outerBoundaryIs><LinearRing><coordinates>121.520889,23.985428,0.0 121.520576,23.984786,0.0 121.520282,23.984135,0.0 121.520248,23.983986,0.0 121.520156,23.983503,0.0 121.520127,23.983226,0.0 121.520109,23.982822,0.0 121.52009,23.982359,0.0 121.520081,23.98149,0.0 121.520068,23.981088,0.0 121.520056,23.980822,0.0 121.520027,23.980616,0.0 121.51994,23.979928,0.0 121.5199,23.979676,0.0 121.519899,23.979527,0.0 121.519881,23.979181,0.0 121.519891,23.978996,0.0 121.519907,23.978858,0.0 121.519924,23.978779,0.0 121.519946,23.97873,0.0 121.520036,23.978657,0.0 121.520136,23.978605,0.0 121.520254,23.978593,0.0 121.520595,23.978551,0.0 121.520987,23.97853,0.0 121.521312,23.978456,0.0 121.521799,23.978321,0.0 121.522327,23.978116,0.0 121.522786,23.977898,0.0 121.523312,23.977686,0.0 121.523899,23.977375,0.0 121.524489,23.977001,0.0 121.524964,23.976654,0.0 121.525182,23.976508,0.0 121.525847,23.976172,0.0 121.526507,23.975888,0.0 121.527075,23.975642,0.0 121.527752,23.975403,0.0 121.528401,23.975226,0.0 121.528798,23.975101,0.0 121.529044,23.974992,0.0 121.529201,23.974894,0.0 121.529357,23.974769,0.0 121.529463,23.97462,0.0 121.52959,23.974322,0.0 121.533153,23.974231,0.0 121.545898,23.973904,0.0 121.54842,23.973895,0.0 121.550548,23.973743,0.0 121.554679,23.973812,0.0 121.55575,23.973193,0.0 121.558155,23.971803,0.0 121.558736,23.971468,0.0 121.568183,23.966337,0.0 121.572971,23.963737,0.0 121.574549,23.966216,0.0 121.578989,23.973192,0.0 121.579018,23.973238,0.0 121.579697,23.974032,0.0 121.580718,23.976065,0.0 121.580887,23.976766,0.0 121.579949,23.976511,0.0 121.577826,23.976032,0.0 121.575897,23.975685,0.0 121.574256,23.975071,0.0 121.568278,23.974429,0.0 121.558155,23.980107,0.0 121.553142,23.982918,0.0 121.549755,23.985296,0.0 121.549288,23.985267,0.0 121.548857,23.985355,0.0 121.54848,23.985555,0.0 121.54716,23.985882,0.0 121.546742,23.985883,0.0 121.546366,23.986231,0.0 121.545356,23.986346,0.0 121.544207,23.986669,0.0 121.542733,23.986759,0.0 121.541936,23.987072,0.0 121.5412,23.987301,0.0 121.53988,23.987531,0.0 121.537824,23.987849,0.0 121.534634,23.988763,0.0 121.533684,23.989302,0.0 121.533154,23.989682,0.0 121.53309,23.989727,0.0 121.532597,23.989781,0.0 121.531825,23.989969,0.0 121.531282,23.990165,0.0 121.530602,23.990434,0.0 121.529987,23.990718,0.0 121.5293,23.991122,0.0 121.52902,23.991292,0.0 121.528447,23.991631,0.0 121.528118,23.991889,0.0 121.528056,23.99195,0.0 121.52795,23.992014,0.0 121.527737,23.992035,0.0 121.527435,23.991984,0.0 121.527345,23.991944,0.0 121.527159,23.991816,0.0 121.526907,23.991627,0.0 121.52665,23.99144,0.0 121.526347,23.99125,0.0 121.525903,23.990969,0.0 121.525616,23.990749,0.0 121.525279,23.99042,0.0 121.524719,23.989865,0.0 121.524449,23.989547,0.0 121.524251,23.9893,0.0 121.524015,23.98907,0.0 121.523459,23.988668,0.0 121.523083,23.988356,0.0 121.52274,23.988016,0.0 121.522425,23.987663,0.0 121.522183,23.98737,0.0 121.521735,23.986803,0.0 121.521465,23.986438,0.0 121.521137,23.985868,0.0 121.521128,23.985852,0.0 121.520935,23.985521,0.0 121.520889,23.985428,0.0</coordinates></LinearRing></outerBoundaryIs></Polygon><styleUrl>#spolygon-map</styleUrl></Placemark><Placemark><Polygon><outerBoundaryIs><LinearRing><coordinates>121.581435,23.976916,0.0 121.580887,23.976766,0.0 121.580718,23.976065,0.0 121.579697,23.974032,0.0 121.579018,23.973238,0.0 121.579106,23.973192,0.0 121.583157,23.971056,0.0 121.585619,23.969758,0.0 121.589846,23.972694,0.0 121.58927,23.973191,0.0 121.588203,23.974112,0.0 121.586322,23.975335,0.0 121.584697,23.97599,0.0 121.583157,23.976427,0.0 121.581435,23.976916,0.0</coordinates></LinearRing></outerBoundaryIs></Polygon><styleUrl>#spolygon-map</styleUrl></Placemark><Placemark><Polygon><outerBoundaryIs><LinearRing><coordinates>121.595064,23.968341,0.0 121.591172,23.964237,0.0 121.590574,23.964735,0.0 121.589793,23.964352,0.0 121.592413,23.960374,0.0 121.593605,23.958771,0.0 121.593673,23.957711,0.0 121.601151,23.954764,0.0 121.601957,23.956539,0.0 121.603028,23.955603,0.0 121.603943,23.954471,0.0 121.604892,23.953875,0.0 121.605866,23.95333,0.0 121.605851,23.953978,0.0 121.60585,23.954136,0.0 121.605851,23.954863,0.0 121.605807,23.955227,0.0 121.605819,23.955303,0.0 121.605846,23.955466,0.0 121.605907,23.955675,0.0 121.60596,23.955813,0.0 121.605999,23.956029,0.0 121.606061,23.956492,0.0 121.606235,23.957218,0.0 121.606391,23.957755,0.0 121.606475,23.957992,0.0 121.606669,23.958433,0.0 121.606932,23.959091,0.0 121.607026,23.959317,0.0 121.607099,23.959594,0.0 121.607202,23.959946,0.0 121.60729,23.960169,0.0 121.607309,23.960268,0.0 121.607412,23.960636,0.0 121.607579,23.960971,0.0 121.607724,23.961278,0.0 121.607891,23.961604,0.0 121.60794,23.961679,0.0 121.608069,23.962012,0.0 121.608158,23.962182,0.0 121.608161,23.962188,0.0 121.60828,23.962397,0.0 121.608364,23.962603,0.0 121.608402,23.962659,0.0 121.60841,23.962672,0.0 121.608512,23.962774,0.0 121.60855,23.962814,0.0 121.608633,23.962866,0.0 121.608687,23.962938,0.0 121.608733,23.96305,0.0 121.608537,23.963058,0.0 121.608347,23.963063,0.0 121.608161,23.963077,0.0 121.608158,23.963077,0.0 121.607754,23.963086,0.0 121.607402,23.963117,0.0 121.607128,23.963167,0.0 121.606349,23.963276,0.0 121.60463,23.963514,0.0 121.60444,23.963566,0.0 121.60325,23.963887,0.0 121.601716,23.964175,0.0 121.60092,23.964488,0.0 121.599602,23.965058,0.0 121.598499,23.965626,0.0 121.59769,23.966171,0.0 121.597611,23.966239,0.0 121.597373,23.966429,0.0 121.597056,23.966672,0.0 121.596813,23.966867,0.0 121.596528,23.967114,0.0 121.596272,23.967336,0.0 121.595949,23.967604,0.0 121.59585,23.967681,0.0 121.595618,23.967896,0.0 121.595316,23.968144,0.0 121.595064,23.968341,0.0</coordinates></LinearRing></outerBoundaryIs></Polygon><styleUrl>#spolygon-map</styleUrl></Placemark><Placemark><Polygon><outerBoundaryIs><LinearRing><coordinates>121.579018,23.973238,0.0 121.578989,23.973192,0.0 121.574549,23.966216,0.0 121.577797,23.964265,0.0 121.583157,23.968029,0.0 121.585619,23.969758,0.0 121.583157,23.971056,0.0 121.579106,23.973192,0.0 121.579018,23.973238,0.0</coordinates></LinearRing></outerBoundaryIs></Polygon><styleUrl>#spolygon-map</styleUrl></Placemark><Placemark><Polygon><outerBoundaryIs><LinearRing><coordinates>121.561327,23.955696,0.0 121.558155,23.957493,0.0 121.549183,23.962574,0.0 121.548634,23.962934,0.0 121.548556,23.963282,0.0 121.548948,23.964358,0.0 121.54883,23.964658,0.0 121.546014,23.96544,0.0 121.541641,23.966447,0.0 121.538583,23.966623,0.0 121.533153,23.966349,0.0 121.531444,23.966263,0.0 121.529824,23.966048,0.0 121.529336,23.966322,0.0 121.528766,23.965521,0.0 121.528417,23.965104,0.0 121.527758,23.964477,0.0 121.527325,23.964108,0.0 121.527156,23.963933,0.0 121.52692,23.963642,0.0 121.526799,23.963442,0.0 121.526574,23.963072,0.0 121.526371,23.96277,0.0 121.52627,23.962694,0.0 121.525967,23.962483,0.0 121.525327,23.96207,0.0 121.524925,23.9618,0.0 121.524617,23.961573,0.0 121.524414,23.961411,0.0 121.52401,23.961072,0.0 121.523807,23.960908,0.0 121.523616,23.960699,0.0 121.523368,23.960417,0.0 121.522764,23.959618,0.0 121.52255,23.959377,0.0 121.522167,23.958823,0.0 121.522103,23.958697,0.0 121.522035,23.958548,0.0 121.521871,23.958147,0.0 121.521735,23.957886,0.0 121.5216,23.957685,0.0 121.521386,23.957465,0.0 121.521178,23.957235,0.0 121.520643,23.956758,0.0 121.520143,23.956318,0.0 121.51971,23.955965,0.0 121.51946,23.955726,0.0 121.519398,23.955593,0.0 121.519353,23.955476,0.0 121.519324,23.955361,0.0 121.519352,23.955212,0.0 121.519423,23.954898,0.0 121.519423,23.954704,0.0 121.519397,23.953794,0.0 121.519354,23.952948,0.0 121.519299,23.95176,0.0 121.51927,23.951562,0.0 121.519247,23.951422,0.0 121.519173,23.951212,0.0 121.519129,23.951111,0.0 121.519077,23.950991,0.0 121.518717,23.950385,0.0 121.518463,23.950027,0.0 121.520582,23.949436,0.0 121.5222,23.949375,0.0 121.52418,23.949644,0.0 121.526342,23.950408,0.0 121.527965,23.951285,0.0 121.530426,23.951882,0.0 121.532167,23.952427,0.0 121.533153,23.952557,0.0 121.534207,23.952696,0.0 121.535167,23.952692,0.0 121.536485,23.952467,0.0 121.537505,23.952519,0.0 121.538467,23.953122,0.0 121.539729,23.953779,0.0 121.54129,23.954379,0.0 121.542728,23.954,0.0 121.543865,23.9535,0.0 121.548772,23.950947,0.0 121.550445,23.949563,0.0 121.552435,23.948192,0.0 121.553018,23.947791,0.0 121.553586,23.948192,0.0 121.558155,23.951417,0.0 121.559153,23.952122,0.0 121.558555,23.95262,0.0 121.561327,23.955696,0.0</coordinates></LinearRing></outerBoundaryIs></Polygon><styleUrl>#spolygon-map</styleUrl></Placemark><Placemark><Polygon><outerBoundaryIs><LinearRing><coordinates>121.594797,23.980708,0.0 121.592798,23.981207,0.0 121.583157,23.986271,0.0 121.582795,23.986461,0.0 121.577862,23.978724,0.0 121.58117,23.976991,0.0 121.581435,23.976916,0.0 121.583157,23.976427,0.0 121.584697,23.97599,0.0 121.586322,23.975335,0.0 121.588203,23.974112,0.0 121.5897,23.974239,0.0 121.589685,23.974836,0.0 121.592482,23.976308,0.0 121.593026,23.976975,0.0 121.594797,23.980708,0.0</coordinates></LinearRing></outerBoundaryIs></Polygon><styleUrl>#spolygon-map</styleUrl></Placemark><Placemark><Polygon><outerBoundaryIs><LinearRing><coordinates>121.568183,23.966337,0.0 121.558736,23.971468,0.0 121.558155,23.971803,0.0 121.55575,23.973193,0.0 121.554679,23.973812,0.0 121.550548,23.973743,0.0 121.54842,23.973895,0.0 121.545898,23.973904,0.0 121.533153,23.974231,0.0 121.52959,23.974322,0.0 121.529748,23.973689,0.0 121.529831,23.973468,0.0 121.530006,23.973194,0.0 121.530015,23.97318,0.0 121.530282,23.972818,0.0 121.530796,23.972103,0.0 121.531119,23.971599,0.0 121.53128,23.971244,0.0 121.53132,23.971137,0.0 121.531364,23.97092,0.0 121.531363,23.970674,0.0 121.53136,23.97062,0.0 121.531356,23.970555,0.0 121.531283,23.970277,0.0 121.531056,23.969653,0.0 121.530856,23.969058,0.0 121.530669,23.968684,0.0 121.530387,23.968138,0.0 121.529979,23.967365,0.0 121.529658,23.966811,0.0 121.529336,23.966322,0.0 121.529824,23.966048,0.0 121.531444,23.966263,0.0 121.533153,23.966349,0.0 121.538583,23.966623,0.0 121.541641,23.966447,0.0 121.546014,23.96544,0.0 121.54883,23.964658,0.0 121.548948,23.964358,0.0 121.548556,23.963282,0.0 121.548634,23.962934,0.0 121.549183,23.962574,0.0 121.558155,23.957493,0.0 121.561327,23.955696,0.0 121.563701,23.95938,0.0 121.568183,23.966337,0.0</coordinates></LinearRing></outerBoundaryIs></Polygon><styleUrl>#spolygon-map</styleUrl></Placemark><Placemark><Polygon><outerBoundaryIs><LinearRing><coordinates>121.549755,23.985296,0.0 121.553142,23.982918,0.0 121.558155,23.980107,0.0 121.568278,23.974429,0.0 121.574256,23.975071,0.0 121.575897,23.975685,0.0 121.577826,23.976032,0.0 121.579949,23.976511,0.0 121.580887,23.976766,0.0 121.581435,23.976916,0.0 121.58117,23.976991,0.0 121.577862,23.978724,0.0 121.5672,23.98447,0.0 121.562267,23.987168,0.0 121.558155,23.986877,0.0 121.556215,23.986739,0.0 121.555293,23.986667,0.0 121.554624,23.986335,0.0 121.553639,23.985699,0.0 121.552842,23.985088,0.0 121.552487,23.984846,0.0 121.552203,23.984838,0.0 121.551879,23.984947,0.0 121.551694,23.985175,0.0 121.551283,23.9855,0.0 121.550831,23.985537,0.0 121.55035,23.985512,0.0 121.549755,23.985296,0.0</coordinates></LinearRing></outerBoundaryIs></Polygon><styleUrl>#spolygon-map</styleUrl></Placemark><Placemark><Polygon><outerBoundaryIs><LinearRing><coordinates>121.577797,23.964265,0.0 121.574549,23.966216,0.0 121.572971,23.963737,0.0 121.568183,23.966337,0.0 121.563701,23.95938,0.0 121.572536,23.954542,0.0 121.571449,23.952727,0.0 121.57438,23.951063,0.0 121.572447,23.948191,0.0 121.572086,23.947655,0.0 121.575136,23.945902,0.0 121.576116,23.94819,0.0 121.576894,23.950006,0.0 121.578467,23.953241,0.0 121.579247,23.953403,0.0 121.579968,23.953676,0.0 121.580151,23.954226,0.0 121.578953,23.954562,0.0 121.579075,23.955057,0.0 121.582461,23.961162,0.0 121.582293,23.963863,0.0 121.576473,23.963389,0.0 121.577797,23.964265,0.0</coordinates></LinearRing></outerBoundaryIs></Polygon><styleUrl>#spolygon-map</styleUrl></Placemark></Document>
</kml>
