<?xml version="1.0" encoding="UTF-8"?>
<kml xmlns="http://www.opengis.net/kml/2.2">
	<Document>
		<name>花蓮縣壽豐鄉</name>
		<Style id="spolygon">
			<LabelStyle>
				<scale>0.0</scale>
			</LabelStyle>
			<LineStyle>
				<color>330030ff</color>
				<width>0</width>
			</LineStyle>
			<PolyStyle>
				<color>330030ff</color>
			</PolyStyle>
		</Style>
		<StyleMap id="spolygon-map">
			<Pair>
				<key>normal</key>
				<styleUrl>#spolygon</styleUrl>
			</Pair>
		</StyleMap>
	<Placemark><Polygon><outerBoundaryIs><LinearRing><coordinates>121.592308,23.911152,0.0 121.591422,23.909402,0.0 121.590536,23.908191,0.0 121.588989,23.906714,0.0 121.587589,23.905101,0.0 121.586557,23.904026,0.0 121.584865,23.902886,0.0 121.584051,23.901204,0.0 121.584044,23.89972,0.0 121.583305,23.898442,0.0 121.583157,23.898255,0.0 121.583106,23.89819,0.0 121.581977,23.896761,0.0 121.580873,23.895687,0.0 121.579326,23.894344,0.0 121.578075,23.893337,0.0 121.577482,23.891748,0.0 121.575864,23.89081,0.0 121.573593,23.891358,0.0 121.572421,23.891565,0.0 121.570585,23.890965,0.0 121.568822,23.890365,0.0 121.566843,23.890507,0.0 121.565155,23.890176,0.0 121.563832,23.889641,0.0 121.561701,23.888503,0.0 121.559493,23.886758,0.0 121.558155,23.885854,0.0 121.557508,23.885417,0.0 121.556428,23.884444,0.0 121.556695,23.881484,0.0 121.556533,23.88083,0.0 121.556214,23.880176,0.0 121.550401,23.87319,0.0 121.543881,23.865354,0.0 121.542292,23.864049,0.0 121.540536,23.860634,0.0 121.538778,23.856636,0.0 121.537901,23.854965,0.0 121.536633,23.852727,0.0 121.535349,23.85046,0.0 121.533954,23.848189,0.0 121.533152,23.846883,0.0 121.533118,23.846828,0.0 121.530333,23.843125,0.0 121.528899,23.8408,0.0 121.527305,23.838112,0.0 121.526266,23.83564,0.0 121.525622,23.833022,0.0 121.525375,23.830591,0.0 121.527904,23.829636,0.0 121.530433,23.828899,0.0 121.532724,23.827872,0.0 121.53315,23.827754,0.0 121.536439,23.82684,0.0 121.540155,23.826026,0.0 121.543554,23.824995,0.0 121.546876,23.824547,0.0 121.549409,23.824683,0.0 121.551752,23.825132,0.0 121.552501,23.826157,0.0 121.554409,23.828189,0.0 121.556236,23.829711,0.0 121.558151,23.830555,0.0 121.558694,23.830794,0.0 121.561626,23.83173,0.0 121.562769,23.832216,0.0 121.56351,23.832395,0.0 121.564326,23.832767,0.0 121.565756,23.833823,0.0 121.566778,23.834631,0.0 121.567392,23.835316,0.0 121.567869,23.835876,0.0 121.568279,23.836499,0.0 121.568758,23.837372,0.0 121.569305,23.838244,0.0 121.570282,23.838468,0.0 121.571075,23.838829,0.0 121.571868,23.839191,0.0 121.572583,23.83977,0.0 121.57298,23.840353,0.0 121.572849,23.841415,0.0 121.572922,23.842477,0.0 121.57313,23.843413,0.0 121.573541,23.844285,0.0 121.574223,23.845032,0.0 121.574769,23.845592,0.0 121.575246,23.84609,0.0 121.575249,23.846652,0.0 121.574845,23.847403,0.0 121.574461,23.848188,0.0 121.574104,23.848917,0.0 121.573568,23.850355,0.0 121.573573,23.851604,0.0 121.573511,23.852978,0.0 121.573245,23.854228,0.0 121.57264,23.855479,0.0 121.5721,23.856292,0.0 121.571424,23.857044,0.0 121.571157,23.857982,0.0 121.570889,23.858732,0.0 121.570959,23.859356,0.0 121.571439,23.860354,0.0 121.571714,23.861164,0.0 121.572127,23.862474,0.0 121.572811,23.863471,0.0 121.573357,23.864218,0.0 121.573292,23.864955,0.0 121.574044,23.865952,0.0 121.574589,23.866387,0.0 121.574859,23.866136,0.0 121.575197,23.865822,0.0 121.57554,23.866445,0.0 121.575748,23.867381,0.0 121.576026,23.868879,0.0 121.576034,23.870752,0.0 121.576311,23.872063,0.0 121.576926,23.87281,0.0 121.577148,23.873189,0.0 121.577473,23.873744,0.0 121.577273,23.874407,0.0 121.577075,23.875844,0.0 121.577422,23.877404,0.0 121.577697,23.878214,0.0 121.578445,23.878399,0.0 121.579058,23.878834,0.0 121.579873,23.878955,0.0 121.581232,23.879075,0.0 121.582592,23.87957,0.0 121.583157,23.879473,0.0 121.583339,23.879442,0.0 121.584288,23.879126,0.0 121.585647,23.879246,0.0 121.586464,23.879805,0.0 121.586602,23.880241,0.0 121.586605,23.880991,0.0 121.586476,23.882427,0.0 121.587024,23.883487,0.0 121.587298,23.88411,0.0 121.587437,23.884797,0.0 121.587779,23.885295,0.0 121.58812,23.885606,0.0 121.588393,23.885979,0.0 121.588056,23.886355,0.0 121.587513,23.886607,0.0 121.58738,23.887232,0.0 121.588131,23.888103,0.0 121.588678,23.888788,0.0 121.589496,23.889409,0.0 121.589976,23.890469,0.0 121.589913,23.891593,0.0 121.590191,23.892904,0.0 121.590332,23.894152,0.0 121.589588,23.894717,0.0 121.589659,23.895591,0.0 121.590477,23.896087,0.0 121.591989,23.89659,0.0 121.592602,23.898189,0.0 121.592831,23.898786,0.0 121.593146,23.899359,0.0 121.593149,23.900028,0.0 121.594092,23.901554,0.0 121.595244,23.903175,0.0 121.596604,23.905083,0.0 121.596815,23.905751,0.0 121.597129,23.906132,0.0 121.597236,23.906801,0.0 121.596615,23.907378,0.0 121.596515,23.908239,0.0 121.597141,23.908714,0.0 121.598185,23.909571,0.0 121.598917,23.910428,0.0 121.599342,23.912339,0.0 121.599558,23.913964,0.0 121.599356,23.915303,0.0 121.598529,23.916359,0.0 121.59689,23.917665,0.0 121.596725,23.917395,0.0 121.596499,23.917165,0.0 121.596246,23.916853,0.0 121.596028,23.91661,0.0 121.595691,23.915947,0.0 121.595326,23.915445,0.0 121.59511,23.915087,0.0 121.594921,23.91474,0.0 121.594765,23.914339,0.0 121.5946,23.914049,0.0 121.594323,23.913664,0.0 121.593854,23.913067,0.0 121.593555,23.91252,0.0 121.593171,23.91186,0.0 121.592942,23.911504,0.0 121.592797,23.911324,0.0 121.592405,23.911183,0.0 121.592308,23.911152,0.0</coordinates></LinearRing></outerBoundaryIs></Polygon><styleUrl>#spolygon-map</styleUrl></Placemark><Placemark><Polygon><outerBoundaryIs><LinearRing><coordinates>121.551752,23.825132,0.0 121.550591,23.823543,0.0 121.550372,23.823187,0.0 121.548758,23.820565,0.0 121.547483,23.818313,0.0 121.545971,23.816425,0.0 121.545092,23.814244,0.0 121.54374,23.81272,0.0 121.542547,23.811123,0.0 121.541355,23.810035,0.0 121.540797,23.809018,0.0 121.540314,23.806908,0.0 121.538631,23.798187,0.0 121.538292,23.796432,0.0 121.537968,23.794468,0.0 121.536929,23.792069,0.0 121.534693,23.786835,0.0 121.533339,23.784772,0.0 121.533144,23.784567,0.0 121.532306,23.783684,0.0 121.532458,23.782082,0.0 121.532291,23.779971,0.0 121.532279,23.776986,0.0 121.532424,23.773637,0.0 121.532103,23.773187,0.0 121.530355,23.770732,0.0 121.529001,23.768334,0.0 121.526144,23.766087,0.0 121.522335,23.763115,0.0 121.517838,23.7591,0.0 121.517876,23.759088,0.0 121.517894,23.759066,0.0 121.517897,23.759045,0.0 121.517873,23.759014,0.0 121.517705,23.758845,0.0 121.517507,23.758676,0.0 121.517263,23.758503,0.0 121.517074,23.758346,0.0 121.516885,23.758155,0.0 121.516777,23.758013,0.0 121.516675,23.757848,0.0 121.516614,23.757738,0.0 121.516559,23.757533,0.0 121.51651,23.75735,0.0 121.516507,23.75721,0.0 121.516533,23.757011,0.0 121.516577,23.756835,0.0 121.516585,23.756575,0.0 121.516612,23.756447,0.0 121.516653,23.756259,0.0 121.516694,23.755979,0.0 121.516707,23.755733,0.0 121.516748,23.755424,0.0 121.516747,23.755241,0.0 121.516764,23.755047,0.0 121.516794,23.754936,0.0 121.516865,23.754784,0.0 121.516927,23.754655,0.0 121.517028,23.754445,0.0 121.517141,23.754248,0.0 121.517207,23.754165,0.0 121.517254,23.754047,0.0 121.51726,23.753955,0.0 121.517229,23.753842,0.0 121.517148,23.753664,0.0 121.517064,23.753474,0.0 121.51703,23.753335,0.0 121.516939,23.753093,0.0 121.516858,23.752888,0.0 121.516827,23.752793,0.0 121.516803,23.752633,0.0 121.516787,23.75236,0.0 121.516779,23.752033,0.0 121.516763,23.751678,0.0 121.516765,23.751471,0.0 121.516756,23.751381,0.0 121.51672,23.751254,0.0 121.51668,23.75115,0.0 121.516671,23.751024,0.0 121.516667,23.750731,0.0 121.516647,23.750324,0.0 121.516637,23.750024,0.0 121.516632,23.749652,0.0 121.516622,23.749336,0.0 121.516618,23.749063,0.0 121.516612,23.74892,0.0 121.516557,23.748627,0.0 121.516541,23.748508,0.0 121.51655,23.74844,0.0 121.516574,23.748395,0.0 121.516642,23.748363,0.0 121.51678,23.748342,0.0 121.516956,23.748344,0.0 121.517247,23.748365,0.0 121.517487,23.748403,0.0 121.517654,23.748427,0.0 121.517902,23.748415,0.0 121.518105,23.748403,0.0 121.518292,23.748427,0.0 121.518435,23.748424,0.0 121.51862,23.748397,0.0 121.51871,23.748363,0.0 121.518805,23.748295,0.0 121.518916,23.74819,0.0 121.518917,23.748188,0.0 121.518945,23.748138,0.0 121.519226,23.747988,0.0 121.519468,23.747843,0.0 121.519617,23.747673,0.0 121.519663,23.747483,0.0 121.519634,23.747165,0.0 121.519483,23.746784,0.0 121.519313,23.746248,0.0 121.519226,23.745972,0.0 121.519188,23.745717,0.0 121.519196,23.745422,0.0 121.519224,23.745121,0.0 121.51931,23.744767,0.0 121.519453,23.744434,0.0 121.519586,23.744125,0.0 121.519649,23.743914,0.0 121.519681,23.743684,0.0 121.519651,23.743416,0.0 121.519598,23.743287,0.0 121.519529,23.743025,0.0 121.519499,23.742682,0.0 121.519531,23.742186,0.0 121.519559,23.741906,0.0 121.519624,23.741589,0.0 121.519623,23.741382,0.0 121.519628,23.741075,0.0 121.519659,23.740673,0.0 121.519709,23.740338,0.0 121.519813,23.73995,0.0 121.520051,23.739294,0.0 121.520108,23.739134,0.0 121.520216,23.738939,0.0 121.520362,23.738722,0.0 121.520474,23.738557,0.0 121.520505,23.738345,0.0 121.520504,23.73811,0.0 121.520523,23.737866,0.0 121.520652,23.737522,0.0 121.520716,23.737204,0.0 121.520774,23.736976,0.0 121.520914,23.736648,0.0 121.521068,23.736451,0.0 121.521287,23.73638,0.0 121.521546,23.73626,0.0 121.521967,23.736042,0.0 121.522173,23.735915,0.0 121.52219,23.73579,0.0 121.5222,23.735445,0.0 121.522257,23.735296,0.0 121.522486,23.73504,0.0 121.522709,23.734811,0.0 121.522886,23.734675,0.0 121.523195,23.734541,0.0 121.523401,23.734477,0.0 121.523494,23.734402,0.0 121.523586,23.734282,0.0 121.523711,23.734074,0.0 121.523866,23.733891,0.0 121.523957,23.733728,0.0 121.524088,23.733441,0.0 121.524134,23.733118,0.0 121.524122,23.732538,0.0 121.524117,23.7321,0.0 121.52414,23.732,0.0 121.52418,23.731896,0.0 121.524248,23.73184,0.0 121.524356,23.731801,0.0 121.524526,23.731789,0.0 121.524706,23.731786,0.0 121.524901,23.73172,0.0 121.525092,23.731638,0.0 121.525288,23.731554,0.0 121.525467,23.731474,0.0 121.525798,23.731369,0.0 121.526042,23.731301,0.0 121.52627,23.731266,0.0 121.526503,23.731272,0.0 121.526678,23.731314,0.0 121.526923,23.731366,0.0 121.527213,23.731504,0.0 121.52743,23.731635,0.0 121.527686,23.731787,0.0 121.527827,23.731918,0.0 121.52789,23.732035,0.0 121.527951,23.732098,0.0 121.528078,23.732116,0.0 121.52823,23.732097,0.0 121.528511,23.731976,0.0 121.528646,23.731937,0.0 121.528896,23.731998,0.0 121.529136,23.732062,0.0 121.529252,23.732087,0.0 121.529523,23.732111,0.0 121.529917,23.73213,0.0 121.530264,23.732149,0.0 121.530691,23.73212,0.0 121.531052,23.73211,0.0 121.531416,23.732124,0.0 121.531649,23.732139,0.0 121.531843,23.732166,0.0 121.531926,23.73222,0.0 121.532035,23.732303,0.0 121.532107,23.732361,0.0 121.532412,23.732656,0.0 121.532825,23.733018,0.0 121.533138,23.733265,0.0 121.533144,23.73327,0.0 121.533304,23.733312,0.0 121.533618,23.733345,0.0 121.534026,23.733368,0.0 121.534513,23.733373,0.0 121.534842,23.733354,0.0 121.535034,23.733347,0.0 121.535586,23.73334,0.0 121.535845,23.733317,0.0 121.536059,23.733294,0.0 121.536224,23.733255,0.0 121.536367,23.733182,0.0 121.536557,23.733053,0.0 121.536721,23.732993,0.0 121.536856,23.732981,0.0 121.537025,23.732967,0.0 121.537259,23.732939,0.0 121.537408,23.732885,0.0 121.537593,23.732792,0.0 121.537747,23.732755,0.0 121.537962,23.732736,0.0 121.538305,23.732744,0.0 121.53844,23.732766,0.0 121.5386,23.732872,0.0 121.538895,23.733137,0.0 121.539085,23.733364,0.0 121.539276,23.733643,0.0 121.539406,23.733817,0.0 121.539571,23.733936,0.0 121.539841,23.734059,0.0 121.54018,23.734142,0.0 121.540614,23.734158,0.0 121.540779,23.734225,0.0 121.540979,23.734303,0.0 121.541223,23.73444,0.0 121.541484,23.734667,0.0 121.541764,23.734964,0.0 121.542064,23.735221,0.0 121.542154,23.73534,0.0 121.542255,23.735486,0.0 121.542355,23.735712,0.0 121.542496,23.735973,0.0 121.542574,23.73607,0.0 121.542765,23.736257,0.0 121.542989,23.736445,0.0 121.543234,23.736677,0.0 121.543341,23.736839,0.0 121.543389,23.737018,0.0 121.543471,23.737284,0.0 121.543623,23.737545,0.0 121.543749,23.737867,0.0 121.543794,23.738036,0.0 121.543925,23.738352,0.0 121.544031,23.738539,0.0 121.544171,23.738715,0.0 121.544331,23.738843,0.0 121.544536,23.738993,0.0 121.544706,23.739153,0.0 121.544942,23.739362,0.0 121.545222,23.73956,0.0 121.545412,23.739724,0.0 121.545473,23.739843,0.0 121.545468,23.739934,0.0 121.545443,23.740049,0.0 121.545324,23.740261,0.0 121.545189,23.740476,0.0 121.545126,23.74065,0.0 121.545101,23.740849,0.0 121.545132,23.741018,0.0 121.545232,23.741183,0.0 121.545337,23.741302,0.0 121.545458,23.741403,0.0 121.545618,23.741536,0.0 121.545733,23.741682,0.0 121.545833,23.74186,0.0 121.545934,23.741993,0.0 121.546019,23.74202,0.0 121.546123,23.742019,0.0 121.546257,23.741965,0.0 121.546472,23.741894,0.0 121.546816,23.741825,0.0 121.547065,23.741754,0.0 121.547393,23.741681,0.0 121.547552,23.741646,0.0 121.547727,23.741637,0.0 121.548021,23.741679,0.0 121.54821,23.741678,0.0 121.548605,23.741667,0.0 121.549008,23.741652,0.0 121.549267,23.741595,0.0 121.549467,23.741585,0.0 121.549602,23.741598,0.0 121.549791,23.74165,0.0 121.549921,23.741749,0.0 121.550191,23.742041,0.0 121.550327,23.742156,0.0 121.550487,23.742343,0.0 121.550612,23.742509,0.0 121.550798,23.742709,0.0 121.550912,23.742847,0.0 121.551073,23.743006,0.0 121.551338,23.743213,0.0 121.551663,23.74339,0.0 121.55185,23.743466,0.0 121.55233,23.743713,0.0 121.55249,23.743787,0.0 121.552726,23.743858,0.0 121.552855,23.743901,0.0 121.55298,23.743972,0.0 121.55314,23.744096,0.0 121.553255,23.744136,0.0 121.553425,23.744095,0.0 121.553608,23.744015,0.0 121.553792,23.743841,0.0 121.554007,23.743768,0.0 121.554122,23.743772,0.0 121.554286,23.743826,0.0 121.554485,23.743866,0.0 121.554805,23.743864,0.0 121.555239,23.743818,0.0 121.555409,23.743835,0.0 121.555553,23.743914,0.0 121.555649,23.743999,0.0 121.555754,23.744118,0.0 121.555934,23.744314,0.0 121.556105,23.744478,0.0 121.556339,23.744538,0.0 121.556473,23.744574,0.0 121.556634,23.744693,0.0 121.556734,23.744853,0.0 121.55687,23.745105,0.0 121.557011,23.74543,0.0 121.557083,23.745728,0.0 121.55719,23.746384,0.0 121.557225,23.746504,0.0 121.557381,23.746731,0.0 121.557607,23.747049,0.0 121.557841,23.747328,0.0 121.558088,23.747501,0.0 121.558141,23.747525,0.0 121.558146,23.747527,0.0 121.558185,23.747629,0.0 121.558346,23.748186,0.0 121.558365,23.748231,0.0 121.558414,23.7484,0.0 121.558442,23.748578,0.0 121.558476,23.748689,0.0 121.558509,23.748723,0.0 121.558527,23.748725,0.0 121.558534,23.748718,0.0 121.558564,23.748655,0.0 121.558589,23.748607,0.0 121.55866,23.748544,0.0 121.558738,23.74846,0.0 121.558806,23.748399,0.0 121.558899,23.748313,0.0 121.558944,23.748247,0.0 121.558994,23.748185,0.0 121.559067,23.748082,0.0 121.559113,23.748014,0.0 121.559189,23.747964,0.0 121.559358,23.747947,0.0 121.559545,23.747895,0.0 121.559701,23.747818,0.0 121.559782,23.747763,0.0 121.559806,23.747767,0.0 121.559904,23.747853,0.0 121.559991,23.747909,0.0 121.560149,23.747931,0.0 121.560212,23.747947,0.0 121.560278,23.748012,0.0 121.560327,23.748093,0.0 121.560414,23.748124,0.0 121.560507,23.748185,0.0 121.56051,23.748187,0.0 121.560617,23.748252,0.0 121.560835,23.748357,0.0 121.561023,23.74847,0.0 121.561153,23.748562,0.0 121.5613,23.74869,0.0 121.561427,23.748786,0.0 121.561561,23.748879,0.0 121.561701,23.748912,0.0 121.56182,23.748941,0.0 121.561935,23.74894,0.0 121.562094,23.748931,0.0 121.562208,23.748906,0.0 121.562362,23.748828,0.0 121.56248,23.748767,0.0 121.562609,23.748672,0.0 121.562738,23.748556,0.0 121.562834,23.748429,0.0 121.562937,23.748282,0.0 121.562991,23.748187,0.0 121.562993,23.748185,0.0 121.563223,23.747958,0.0 121.563297,23.747834,0.0 121.563343,23.747707,0.0 121.56343,23.74754,0.0 121.563523,23.747395,0.0 121.563607,23.747223,0.0 121.563646,23.747061,0.0 121.563712,23.746988,0.0 121.563873,23.74687,0.0 121.563966,23.746766,0.0 121.564069,23.746637,0.0 121.564137,23.746587,0.0 121.564212,23.746569,0.0 121.564399,23.746545,0.0 121.564514,23.746563,0.0 121.564683,23.746626,0.0 121.564721,23.746686,0.0 121.564755,23.746745,0.0 121.564896,23.746837,0.0 121.565014,23.746902,0.0 121.565196,23.746969,0.0 121.565232,23.747019,0.0 121.56535,23.747099,0.0 121.565439,23.74714,0.0 121.565606,23.747153,0.0 121.565734,23.74713,0.0 121.565925,23.747003,0.0 121.566126,23.746832,0.0 121.566357,23.746737,0.0 121.566607,23.746628,0.0 121.567015,23.746412,0.0 121.567089,23.746533,0.0 121.567318,23.746695,0.0 121.567459,23.746807,0.0 121.567682,23.746892,0.0 121.567807,23.746959,0.0 121.567907,23.747056,0.0 121.56812,23.747349,0.0 121.568266,23.747567,0.0 121.568453,23.748005,0.0 121.568483,23.748113,0.0 121.568495,23.748185,0.0 121.568496,23.748187,0.0 121.56855,23.748356,0.0 121.568569,23.748487,0.0 121.56858,23.748575,0.0 121.568602,23.748636,0.0 121.568687,23.748744,0.0 121.568818,23.748863,0.0 121.568916,23.748962,0.0 121.56905,23.749156,0.0 121.569085,23.749246,0.0 121.569132,23.749429,0.0 121.569139,23.749533,0.0 121.569134,23.749785,0.0 121.569142,23.750029,0.0 121.569173,23.750295,0.0 121.569198,23.750365,0.0 121.569276,23.750521,0.0 121.569319,23.750663,0.0 121.569356,23.750875,0.0 121.56961,23.751079,0.0 121.569734,23.751178,0.0 121.56987,23.751392,0.0 121.569837,23.751568,0.0 121.569821,23.751783,0.0 121.569912,23.751875,0.0 121.569996,23.751936,0.0 121.570087,23.752048,0.0 121.570228,23.752213,0.0 121.570319,23.752334,0.0 121.570476,23.752586,0.0 121.570505,23.752801,0.0 121.570553,23.753026,0.0 121.570621,23.753274,0.0 121.570767,23.75368,0.0 121.570906,23.754018,0.0 121.57098,23.754341,0.0 121.570971,23.754503,0.0 121.570928,23.754702,0.0 121.570926,23.754824,0.0 121.570952,23.755041,0.0 121.570971,23.755135,0.0 121.571099,23.755498,0.0 121.571244,23.75571,0.0 121.571338,23.755832,0.0 121.571499,23.755996,0.0 121.571606,23.756088,0.0 121.571757,23.756216,0.0 121.571875,23.756435,0.0 121.571913,23.756545,0.0 121.571939,23.756669,0.0 121.571942,23.756818,0.0 121.571903,23.75694,0.0 121.571899,23.756997,0.0 121.571913,23.757076,0.0 121.572007,23.757278,0.0 121.572075,23.757416,0.0 121.572147,23.757468,0.0 121.572236,23.757571,0.0 121.572256,23.757783,0.0 121.572228,23.757932,0.0 121.572122,23.758086,0.0 121.572028,23.758346,0.0 121.572005,23.758443,0.0 121.571998,23.75854,0.0 121.572019,23.758976,0.0 121.572092,23.759231,0.0 121.572111,23.759366,0.0 121.572156,23.759432,0.0 121.572207,23.759506,0.0 121.572289,23.759555,0.0 121.57241,23.759602,0.0 121.572557,23.759631,0.0 121.572612,23.759649,0.0 121.572713,23.759705,0.0 121.572829,23.759865,0.0 121.572896,23.760016,0.0 121.572911,23.760162,0.0 121.572879,23.760406,0.0 121.572801,23.760551,0.0 121.572724,23.760696,0.0 121.572585,23.760909,0.0 121.572503,23.7612,0.0 121.572485,23.761295,0.0 121.572472,23.761557,0.0 121.572461,23.761679,0.0 121.572338,23.762054,0.0 121.572311,23.762126,0.0 121.572214,23.762233,0.0 121.571992,23.76238,0.0 121.571901,23.762421,0.0 121.571813,23.762431,0.0 121.571643,23.762397,0.0 121.571434,23.762353,0.0 121.571306,23.76232,0.0 121.571122,23.762305,0.0 121.571044,23.762373,0.0 121.570924,23.762499,0.0 121.570831,23.762655,0.0 121.570769,23.76285,0.0 121.570681,23.763297,0.0 121.570677,23.763421,0.0 121.570625,23.76385,0.0 121.570576,23.76428,0.0 121.570454,23.764628,0.0 121.570401,23.764795,0.0 121.570354,23.765161,0.0 121.570293,23.765664,0.0 121.570264,23.765911,0.0 121.570254,23.76633,0.0 121.570247,23.766775,0.0 121.570291,23.767301,0.0 121.57032,23.767615,0.0 121.570328,23.767777,0.0 121.570388,23.76812,0.0 121.57045,23.768522,0.0 121.570473,23.768991,0.0 121.570475,23.769461,0.0 121.570457,23.769969,0.0 121.57044,23.770339,0.0 121.570403,23.771068,0.0 121.570358,23.771856,0.0 121.570332,23.772811,0.0 121.570326,23.773186,0.0 121.570337,23.773665,0.0 121.570329,23.774324,0.0 121.570315,23.774665,0.0 121.570312,23.775037,0.0 121.57029,23.775347,0.0 121.570263,23.775796,0.0 121.570238,23.776182,0.0 121.570219,23.77646,0.0 121.570221,23.776943,0.0 121.570216,23.777349,0.0 121.570225,23.777719,0.0 121.570213,23.778053,0.0 121.570193,23.778464,0.0 121.570189,23.778952,0.0 121.570183,23.779257,0.0 121.570179,23.77948,0.0 121.570189,23.780017,0.0 121.570182,23.780388,0.0 121.570185,23.78074,0.0 121.570229,23.781142,0.0 121.570282,23.78162,0.0 121.570363,23.782114,0.0 121.570411,23.782432,0.0 121.570459,23.782841,0.0 121.570487,23.783186,0.0 121.570503,23.783423,0.0 121.570571,23.783881,0.0 121.570644,23.784382,0.0 121.570703,23.784788,0.0 121.570811,23.785857,0.0 121.570859,23.786322,0.0 121.570946,23.786861,0.0 121.570992,23.787259,0.0 121.571042,23.787753,0.0 121.571079,23.788116,0.0 121.57111,23.788565,0.0 121.571151,23.788915,0.0 121.571171,23.789019,0.0 121.571261,23.789416,0.0 121.571304,23.78961,0.0 121.571333,23.789772,0.0 121.571363,23.789977,0.0 121.571444,23.790318,0.0 121.571511,23.790616,0.0 121.571541,23.790756,0.0 121.57161,23.791042,0.0 121.571682,23.791401,0.0 121.571721,23.79164,0.0 121.571813,23.792197,0.0 121.571808,23.792608,0.0 121.571795,23.793028,0.0 121.571786,23.793561,0.0 121.57182,23.79419,0.0 121.571841,23.794615,0.0 121.571889,23.795511,0.0 121.571896,23.795669,0.0 121.571949,23.796235,0.0 121.57195,23.796763,0.0 121.571949,23.797057,0.0 121.572031,23.797555,0.0 121.572092,23.797986,0.0 121.572117,23.798186,0.0 121.572117,23.798187,0.0 121.572126,23.798388,0.0 121.572138,23.798551,0.0 121.572188,23.798812,0.0 121.572315,23.79939,0.0 121.572409,23.79989,0.0 121.572453,23.800084,0.0 121.572546,23.800558,0.0 121.572602,23.800845,0.0 121.572756,23.801605,0.0 121.572808,23.801851,0.0 121.572853,23.802024,0.0 121.572956,23.802385,0.0 121.57304,23.802766,0.0 121.573076,23.80292,0.0 121.57311,23.802971,0.0 121.573236,23.803079,0.0 121.57334,23.803162,0.0 121.573395,23.803219,0.0 121.573425,23.803252,0.0 121.573457,23.8033,0.0 121.573481,23.803374,0.0 121.573544,23.803575,0.0 121.573652,23.803924,0.0 121.573741,23.804213,0.0 121.573913,23.804772,0.0 121.574095,23.805327,0.0 121.574157,23.805521,0.0 121.574221,23.805617,0.0 121.574477,23.806005,0.0 121.57455,23.806174,0.0 121.574787,23.806665,0.0 121.57484,23.806766,0.0 121.574902,23.807256,0.0 121.574964,23.807734,0.0 121.575137,23.808508,0.0 121.575346,23.809239,0.0 121.575655,23.80996,0.0 121.575957,23.810672,0.0 121.576324,23.811328,0.0 121.57645,23.811569,0.0 121.576559,23.811735,0.0 121.576846,23.812059,0.0 121.577115,23.812352,0.0 121.575314,23.81297,0.0 121.573494,23.812977,0.0 121.571991,23.813128,0.0 121.57104,23.812694,0.0 121.569775,23.813063,0.0 121.568829,23.813722,0.0 121.567722,23.81409,0.0 121.565272,23.814681,0.0 121.564801,23.815629,0.0 121.563939,23.817598,0.0 121.562605,23.820151,0.0 121.562849,23.821752,0.0 121.562776,23.823135,0.0 121.562807,23.823187,0.0 121.563254,23.823934,0.0 121.563574,23.824734,0.0 121.563498,23.825389,0.0 121.563026,23.825901,0.0 121.563108,23.826701,0.0 121.563193,23.828084,0.0 121.56304,23.829249,0.0 121.562884,23.82976,0.0 121.562332,23.830344,0.0 121.561626,23.83173,0.0 121.558694,23.830794,0.0 121.558151,23.830555,0.0 121.556236,23.829711,0.0 121.554409,23.828189,0.0 121.552501,23.826157,0.0 121.551752,23.825132,0.0</coordinates></LinearRing></outerBoundaryIs></Polygon><styleUrl>#spolygon-map</styleUrl></Placemark><Placemark><Polygon><outerBoundaryIs><LinearRing><coordinates>121.564996,23.917946,0.0 121.562843,23.913623,0.0 121.56195,23.911875,0.0 121.561014,23.910133,0.0 121.559511,23.90733,0.0 121.558394,23.9051,0.0 121.558155,23.90374,0.0 121.557986,23.902778,0.0 121.557372,23.900467,0.0 121.557323,23.898621,0.0 121.557371,23.898191,0.0 121.557486,23.897158,0.0 121.535323,23.88803,0.0 121.534414,23.891852,0.0 121.533981,23.894057,0.0 121.533153,23.894205,0.0 121.531681,23.894469,0.0 121.529721,23.894985,0.0 121.526905,23.895549,0.0 121.526604,23.895828,0.0 121.525819,23.896745,0.0 121.521274,23.898192,0.0 121.514988,23.900193,0.0 121.514944,23.899782,0.0 121.514485,23.89821,0.0 121.514485,23.898192,0.0 121.514476,23.896082,0.0 121.515025,23.894692,0.0 121.515373,23.893673,0.0 121.515069,23.893128,0.0 121.513956,23.891744,0.0 121.512353,23.8897,0.0 121.51323,23.88909,0.0 121.51462,23.888074,0.0 121.515421,23.886656,0.0 121.516295,23.885169,0.0 121.516876,23.883819,0.0 121.517534,23.88321,0.0 121.518117,23.882331,0.0 121.517816,23.880579,0.0 121.518107,23.879769,0.0 121.518764,23.879227,0.0 121.518762,23.878553,0.0 121.520295,23.876862,0.0 121.521463,23.875645,0.0 121.522486,23.87463,0.0 121.524317,23.874219,0.0 121.525782,23.873809,0.0 121.526401,23.873191,0.0 121.526731,23.872862,0.0 121.528491,23.872856,0.0 121.52934,23.873191,0.0 121.530694,23.873725,0.0 121.532018,23.874664,0.0 121.53239,23.875877,0.0 121.533129,23.877425,0.0 121.533153,23.877462,0.0 121.534236,23.879107,0.0 121.536293,23.880179,0.0 121.538058,23.881251,0.0 121.540405,23.881311,0.0 121.545829,23.880954,0.0 121.549276,23.880942,0.0 121.556428,23.884444,0.0 121.557508,23.885417,0.0 121.558155,23.885854,0.0 121.559493,23.886758,0.0 121.561701,23.888503,0.0 121.563832,23.889641,0.0 121.565155,23.890176,0.0 121.566843,23.890507,0.0 121.568822,23.890365,0.0 121.570585,23.890965,0.0 121.572421,23.891565,0.0 121.573593,23.891358,0.0 121.575864,23.89081,0.0 121.577482,23.891748,0.0 121.578075,23.893337,0.0 121.579326,23.894344,0.0 121.580873,23.895687,0.0 121.581977,23.896761,0.0 121.583106,23.89819,0.0 121.583157,23.898255,0.0 121.583305,23.898442,0.0 121.584044,23.89972,0.0 121.584051,23.901204,0.0 121.584865,23.902886,0.0 121.586557,23.904026,0.0 121.587589,23.905101,0.0 121.588989,23.906714,0.0 121.590536,23.908191,0.0 121.591422,23.909402,0.0 121.592308,23.911152,0.0 121.592037,23.911061,0.0 121.59174,23.910958,0.0 121.591266,23.910673,0.0 121.590881,23.910286,0.0 121.590227,23.909546,0.0 121.590073,23.909416,0.0 121.589898,23.909317,0.0 121.58971,23.909304,0.0 121.589314,23.909484,0.0 121.588951,23.909829,0.0 121.588174,23.910344,0.0 121.587326,23.910627,0.0 121.587156,23.910691,0.0 121.586503,23.910748,0.0 121.585847,23.910802,0.0 121.585531,23.910862,0.0 121.585093,23.911166,0.0 121.584583,23.911405,0.0 121.584111,23.91175,0.0 121.583441,23.912166,0.0 121.583157,23.912259,0.0 121.583039,23.912303,0.0 121.582779,23.912362,0.0 121.582322,23.912486,0.0 121.581917,23.912605,0.0 121.581344,23.912783,0.0 121.580442,23.91301,0.0 121.5798,23.913141,0.0 121.579366,23.913254,0.0 121.579216,23.913277,0.0 121.578915,23.913305,0.0 121.578672,23.913331,0.0 121.578406,23.913386,0.0 121.577642,23.913542,0.0 121.576833,23.913751,0.0 121.576405,23.913858,0.0 121.575537,23.914144,0.0 121.574387,23.914498,0.0 121.573756,23.914681,0.0 121.572784,23.914969,0.0 121.572396,23.915076,0.0 121.571488,23.915337,0.0 121.570355,23.915671,0.0 121.569628,23.915877,0.0 121.568515,23.916303,0.0 121.567897,23.916531,0.0 121.567576,23.916659,0.0 121.567027,23.916907,0.0 121.5666,23.917136,0.0 121.566098,23.917432,0.0 121.565421,23.917755,0.0 121.564996,23.917946,0.0</coordinates></LinearRing></outerBoundaryIs></Polygon><styleUrl>#spolygon-map</styleUrl></Placemark><Placemark><Polygon><outerBoundaryIs><LinearRing><coordinates>121.501202,23.883307,0.0 121.503302,23.881814,0.0 121.504692,23.880865,0.0 121.5077,23.881327,0.0 121.508151,23.880876,0.0 121.509526,23.879501,0.0 121.510839,23.877609,0.0 121.511716,23.876864,0.0 121.512525,23.87767,0.0 121.513262,23.878477,0.0 121.51363,23.878746,0.0 121.514355,23.87672,0.0 121.516268,23.878332,0.0 121.517736,23.877615,0.0 121.518762,23.878553,0.0 121.518764,23.879227,0.0 121.518107,23.879769,0.0 121.517816,23.880579,0.0 121.518117,23.882331,0.0 121.517534,23.88321,0.0 121.516876,23.883819,0.0 121.516295,23.885169,0.0 121.515421,23.886656,0.0 121.51462,23.888074,0.0 121.51323,23.88909,0.0 121.512353,23.8897,0.0 121.511549,23.890512,0.0 121.510523,23.890583,0.0 121.509861,23.890045,0.0 121.508151,23.889827,0.0 121.507293,23.889717,0.0 121.505529,23.888846,0.0 121.504054,23.886626,0.0 121.501843,23.883801,0.0 121.501202,23.883307,0.0</coordinates></LinearRing></outerBoundaryIs></Polygon><styleUrl>#spolygon-map</styleUrl></Placemark><Placemark><Polygon><outerBoundaryIs><LinearRing><coordinates>121.517736,23.877615,0.0 121.517071,23.87655,0.0 121.516368,23.875784,0.0 121.515528,23.87466,0.0 121.514785,23.87359,0.0 121.514489,23.873192,0.0 121.512733,23.870826,0.0 121.510759,23.868312,0.0 121.509821,23.866921,0.0 121.509644,23.866403,0.0 121.509506,23.865956,0.0 121.509115,23.865493,0.0 121.50849,23.864673,0.0 121.508151,23.864181,0.0 121.507826,23.863709,0.0 121.507474,23.863282,0.0 121.507105,23.863479,0.0 121.50664,23.863678,0.0 121.506269,23.863303,0.0 121.502224,23.857711,0.0 121.501678,23.857128,0.0 121.503057,23.856327,0.0 121.503118,23.856299,0.0 121.507668,23.854222,0.0 121.50815,23.854045,0.0 121.510084,23.853337,0.0 121.512647,23.852722,0.0 121.515336,23.852654,0.0 121.517155,23.85276,0.0 121.517708,23.853029,0.0 121.518824,23.854563,0.0 121.519985,23.856235,0.0 121.521152,23.857812,0.0 121.522739,23.85834,0.0 121.52495,23.858743,0.0 121.526492,23.859149,0.0 121.527151,23.858788,0.0 121.528798,23.857731,0.0 121.531207,23.856398,0.0 121.533152,23.855252,0.0 121.533868,23.854831,0.0 121.534924,23.854087,0.0 121.536633,23.852727,0.0 121.537901,23.854965,0.0 121.538778,23.856636,0.0 121.540536,23.860634,0.0 121.542292,23.864049,0.0 121.543881,23.865354,0.0 121.550401,23.87319,0.0 121.556214,23.880176,0.0 121.556533,23.88083,0.0 121.556695,23.881484,0.0 121.556428,23.884444,0.0 121.549276,23.880942,0.0 121.545829,23.880954,0.0 121.540405,23.881311,0.0 121.538058,23.881251,0.0 121.536293,23.880179,0.0 121.534236,23.879107,0.0 121.533153,23.877462,0.0 121.533129,23.877425,0.0 121.53239,23.875877,0.0 121.532018,23.874664,0.0 121.530694,23.873725,0.0 121.52934,23.873191,0.0 121.528491,23.872856,0.0 121.526731,23.872862,0.0 121.526401,23.873191,0.0 121.525782,23.873809,0.0 121.524317,23.874219,0.0 121.522486,23.87463,0.0 121.521463,23.875645,0.0 121.520295,23.876862,0.0 121.518762,23.878553,0.0 121.517736,23.877615,0.0</coordinates></LinearRing></outerBoundaryIs></Polygon><styleUrl>#spolygon-map</styleUrl></Placemark><Placemark><Polygon><outerBoundaryIs><LinearRing><coordinates>121.511898,23.947916,0.0 121.511566,23.947847,0.0 121.511516,23.947841,0.0 121.511376,23.947821,0.0 121.511282,23.947812,0.0 121.511137,23.947815,0.0 121.510991,23.947813,0.0 121.510885,23.947809,0.0 121.510812,23.947802,0.0 121.510773,23.947794,0.0 121.510739,23.947782,0.0 121.510716,23.947764,0.0 121.510695,23.947735,0.0 121.51067,23.947692,0.0 121.510646,23.947638,0.0 121.510612,23.947534,0.0 121.510586,23.947474,0.0 121.510556,23.947422,0.0 121.510532,23.947399,0.0 121.510443,23.947343,0.0 121.510351,23.947305,0.0 121.510289,23.947285,0.0 121.510193,23.947276,0.0 121.510099,23.947274,0.0 121.510007,23.947284,0.0 121.509923,23.9473,0.0 121.509772,23.947336,0.0 121.509642,23.947355,0.0 121.509516,23.947362,0.0 121.509355,23.947363,0.0 121.509264,23.947354,0.0 121.509202,23.947336,0.0 121.509133,23.947311,0.0 121.509043,23.947258,0.0 121.508944,23.94719,0.0 121.50885,23.947102,0.0 121.508797,23.947044,0.0 121.508767,23.946994,0.0 121.508737,23.946942,0.0 121.508728,23.946897,0.0 121.508735,23.946814,0.0 121.508746,23.94676,0.0 121.508748,23.946721,0.0 121.508732,23.946647,0.0 121.508718,23.946586,0.0 121.508695,23.946552,0.0 121.508632,23.94648,0.0 121.508577,23.946419,0.0 121.508545,23.946395,0.0 121.508524,23.946381,0.0 121.508474,23.946359,0.0 121.508456,23.946341,0.0 121.50842,23.946293,0.0 121.508319,23.946179,0.0 121.508227,23.94608,0.0 121.508158,23.946014,0.0 121.508151,23.94601,0.0 121.507872,23.945839,0.0 121.507525,23.945529,0.0 121.507187,23.945149,0.0 121.507037,23.944889,0.0 121.506965,23.944653,0.0 121.506949,23.944465,0.0 121.506995,23.944264,0.0 121.507034,23.944063,0.0 121.507072,23.943803,0.0 121.507095,23.943596,0.0 121.507157,23.943422,0.0 121.507235,23.94327,0.0 121.507368,23.943177,0.0 121.507587,23.943125,0.0 121.507807,23.943074,0.0 121.50794,23.943015,0.0 121.508057,23.9429,0.0 121.508151,23.942699,0.0 121.508158,23.942685,0.0 121.508219,23.942596,0.0 121.508348,23.942352,0.0 121.508427,23.942196,0.0 121.508482,23.94207,0.0 121.508519,23.941957,0.0 121.508524,23.94186,0.0 121.508514,23.94179,0.0 121.508482,23.941668,0.0 121.508458,23.941569,0.0 121.508448,23.941449,0.0 121.50846,23.941343,0.0 121.508477,23.941282,0.0 121.508506,23.941171,0.0 121.508529,23.94111,0.0 121.508545,23.941047,0.0 121.508552,23.94099,0.0 121.50855,23.940907,0.0 121.508544,23.940835,0.0 121.50854,23.940803,0.0 121.50853,23.940778,0.0 121.508502,23.940733,0.0 121.508425,23.940643,0.0 121.508371,23.940603,0.0 121.508346,23.94058,0.0 121.508322,23.940549,0.0 121.508301,23.940506,0.0 121.508277,23.94047,0.0 121.50824,23.940395,0.0 121.508219,23.940362,0.0 121.508179,23.940317,0.0 121.508157,23.940294,0.0 121.508151,23.940281,0.0 121.508044,23.940055,0.0 121.507771,23.939742,0.0 121.507538,23.939565,0.0 121.50735,23.939414,0.0 121.50705,23.93907,0.0 121.506791,23.938913,0.0 121.506366,23.938763,0.0 121.505668,23.9386,0.0 121.505534,23.938499,0.0 121.505463,23.938391,0.0 121.505431,23.93824,0.0 121.505414,23.937917,0.0 121.50546,23.937635,0.0 121.505404,23.937312,0.0 121.505204,23.936405,0.0 121.505195,23.936037,0.0 121.505342,23.935102,0.0 121.505504,23.934316,0.0 121.505713,23.933747,0.0 121.506093,23.932592,0.0 121.506163,23.932332,0.0 121.506224,23.931858,0.0 121.506291,23.931043,0.0 121.506259,23.930704,0.0 121.506195,23.930481,0.0 121.50595,23.930051,0.0 121.505492,23.929434,0.0 121.505223,23.928902,0.0 121.505025,23.928419,0.0 121.504953,23.928124,0.0 121.504951,23.927663,0.0 121.504926,23.92716,0.0 121.504756,23.926691,0.0 121.504323,23.926182,0.0 121.504078,23.925707,0.0 121.503975,23.925341,0.0 121.503662,23.924132,0.0 121.503574,23.923873,0.0 121.503417,23.92363,0.0 121.503031,23.923392,0.0 121.502777,23.923193,0.0 121.502646,23.923091,0.0 121.502237,23.922783,0.0 121.502079,23.922488,0.0 121.501975,23.922043,0.0 121.501871,23.921583,0.0 121.501666,23.921216,0.0 121.501382,23.920799,0.0 121.501271,23.920562,0.0 121.501207,23.920109,0.0 121.501197,23.919596,0.0 121.501133,23.919188,0.0 121.501124,23.918922,0.0 121.501146,23.918547,0.0 121.501286,23.918221,0.0 121.501794,23.917579,0.0 121.502168,23.917038,0.0 121.502434,23.916484,0.0 121.502854,23.915582,0.0 121.502954,23.915223,0.0 121.503039,23.914818,0.0 121.503305,23.914142,0.0 121.50367,23.913362,0.0 121.504003,23.91226,0.0 121.504097,23.911806,0.0 121.504149,23.911115,0.0 121.504349,23.910229,0.0 121.504434,23.909653,0.0 121.504518,23.909071,0.0 121.504586,23.908501,0.0 121.504756,23.907946,0.0 121.504802,23.907636,0.0 121.504799,23.906801,0.0 121.504812,23.906137,0.0 121.504896,23.905518,0.0 121.504879,23.905042,0.0 121.504815,23.904805,0.0 121.504649,23.904526,0.0 121.50449,23.904355,0.0 121.504089,23.904018,0.0 121.503963,23.903916,0.0 121.503908,23.903765,0.0 121.503867,23.90337,0.0 121.503858,23.903118,0.0 121.503785,23.902664,0.0 121.503539,23.901967,0.0 121.503483,23.901615,0.0 121.503504,23.901168,0.0 121.503486,23.900392,0.0 121.503413,23.899893,0.0 121.503419,23.899462,0.0 121.503488,23.899015,0.0 121.503518,23.898633,0.0 121.503451,23.898193,0.0 121.503451,23.898192,0.0 121.502132,23.895818,0.0 121.501984,23.895584,0.0 121.501915,23.895365,0.0 121.50188,23.895194,0.0 121.501836,23.894835,0.0 121.501776,23.894673,0.0 121.501563,23.894353,0.0 121.501486,23.894267,0.0 121.501485,23.894197,0.0 121.501502,23.894039,0.0 121.501587,23.893969,0.0 121.502155,23.893773,0.0 121.502418,23.89356,0.0 121.502494,23.893467,0.0 121.502502,23.89342,0.0 121.502494,23.893372,0.0 121.502391,23.89314,0.0 121.502409,23.893,0.0 121.502425,23.89293,0.0 121.50251,23.892783,0.0 121.502527,23.892704,0.0 121.502509,23.892641,0.0 121.502415,23.892422,0.0 121.502201,23.892048,0.0 121.502124,23.891972,0.0 121.502064,23.891925,0.0 121.501928,23.891887,0.0 121.50141,23.891825,0.0 121.500984,23.891763,0.0 121.500678,23.891726,0.0 121.500525,23.891688,0.0 121.500457,23.891625,0.0 121.499928,23.891065,0.0 121.499864,23.890975,0.0 121.499838,23.890873,0.0 121.499838,23.89074,0.0 121.499862,23.890552,0.0 121.499853,23.890419,0.0 121.499802,23.890264,0.0 121.499571,23.889906,0.0 121.499503,23.889867,0.0 121.499324,23.889868,0.0 121.498976,23.889907,0.0 121.498849,23.889908,0.0 121.498712,23.889877,0.0 121.498593,23.889785,0.0 121.498456,23.889645,0.0 121.49826,23.889357,0.0 121.498123,23.889091,0.0 121.498071,23.888895,0.0 121.498044,23.888545,0.0 121.498067,23.888265,0.0 121.498142,23.888093,0.0 121.498277,23.887788,0.0 121.498353,23.88746,0.0 121.498496,23.887038,0.0 121.498646,23.886538,0.0 121.498705,23.886294,0.0 121.498704,23.886078,0.0 121.498687,23.885992,0.0 121.498644,23.885915,0.0 121.498414,23.885719,0.0 121.498005,23.885572,0.0 121.497597,23.885458,0.0 121.496686,23.88521,0.0 121.496363,23.885094,0.0 121.496193,23.885002,0.0 121.496013,23.88486,0.0 121.495809,23.884674,0.0 121.495681,23.884557,0.0 121.495527,23.884472,0.0 121.495246,23.884348,0.0 121.494892,23.884167,0.0 121.494721,23.884072,0.0 121.494577,23.883949,0.0 121.494363,23.883708,0.0 121.493638,23.882945,0.0 121.493237,23.882547,0.0 121.492963,23.882182,0.0 121.492849,23.882035,0.0 121.492584,23.881777,0.0 121.492303,23.881561,0.0 121.491979,23.881248,0.0 121.491749,23.881014,0.0 121.491484,23.880672,0.0 121.491321,23.880431,0.0 121.491176,23.880251,0.0 121.490878,23.880026,0.0 121.490699,23.879855,0.0 121.490596,23.879699,0.0 121.490468,23.879535,0.0 121.490348,23.879434,0.0 121.490204,23.879357,0.0 121.489872,23.879248,0.0 121.489514,23.879147,0.0 121.489229,23.87909,0.0 121.488923,23.879052,0.0 121.488412,23.87893,0.0 121.488157,23.878899,0.0 121.488021,23.878922,0.0 121.48786,23.878954,0.0 121.487614,23.879079,0.0 121.487436,23.879159,0.0 121.487342,23.879159,0.0 121.487061,23.879135,0.0 121.486908,23.879081,0.0 121.486738,23.878989,0.0 121.486602,23.878895,0.0 121.486192,23.878585,0.0 121.485903,23.878389,0.0 121.485605,23.878234,0.0 121.485307,23.878143,0.0 121.485097,23.87811,0.0 121.484663,23.878088,0.0 121.48423,23.878033,0.0 121.483949,23.877996,0.0 121.483566,23.87788,0.0 121.48315,23.877668,0.0 121.483106,23.877646,0.0 121.482749,23.877453,0.0 121.482493,23.877368,0.0 121.482272,23.877283,0.0 121.481923,23.877113,0.0 121.481718,23.876933,0.0 121.481318,23.876607,0.0 121.481134,23.876406,0.0 121.480733,23.875994,0.0 121.48028,23.875434,0.0 121.480075,23.875168,0.0 121.479699,23.87474,0.0 121.479341,23.874358,0.0 121.479042,23.87411,0.0 121.478673,23.87387,0.0 121.478604,23.8738,0.0 121.478493,23.873636,0.0 121.478442,23.873512,0.0 121.478365,23.873277,0.0 121.47835,23.873193,0.0 121.478295,23.87288,0.0 121.478192,23.87242,0.0 121.47808,23.8721,0.0 121.478027,23.872012,0.0 121.477951,23.87189,0.0 121.477644,23.871561,0.0 121.477548,23.87144,0.0 121.478991,23.87113,0.0 121.480528,23.870384,0.0 121.481698,23.869436,0.0 121.48315,23.86826,0.0 121.483452,23.868014,0.0 121.483967,23.86835,0.0 121.486242,23.86895,0.0 121.48947,23.869411,0.0 121.491524,23.869742,0.0 121.492776,23.871087,0.0 121.494248,23.872768,0.0 121.494734,23.873192,0.0 121.496014,23.874313,0.0 121.497125,23.877276,0.0 121.498012,23.878959,0.0 121.49949,23.881988,0.0 121.501202,23.883307,0.0 121.501843,23.883801,0.0 121.504054,23.886626,0.0 121.505529,23.888846,0.0 121.507293,23.889717,0.0 121.508151,23.889827,0.0 121.509861,23.890045,0.0 121.510523,23.890583,0.0 121.511549,23.890512,0.0 121.512353,23.8897,0.0 121.513956,23.891744,0.0 121.515069,23.893128,0.0 121.515373,23.893673,0.0 121.515025,23.894692,0.0 121.514476,23.896082,0.0 121.514485,23.898192,0.0 121.514485,23.89821,0.0 121.514944,23.899782,0.0 121.514988,23.900193,0.0 121.515101,23.901262,0.0 121.515611,23.903019,0.0 121.516219,23.903896,0.0 121.51708,23.905327,0.0 121.517133,23.906021,0.0 121.516231,23.906922,0.0 121.515679,23.907525,0.0 121.515431,23.908451,0.0 121.515838,23.909375,0.0 121.516344,23.910253,0.0 121.5167,23.911038,0.0 121.517006,23.911963,0.0 121.51731,23.912609,0.0 121.517869,23.914014,0.0 121.518526,23.91466,0.0 121.519488,23.915906,0.0 121.520198,23.91743,0.0 121.520503,23.918123,0.0 121.521216,23.920064,0.0 121.522077,23.921588,0.0 121.522637,23.92302,0.0 121.522697,23.923192,0.0 121.523044,23.924176,0.0 121.524457,23.925004,0.0 121.526422,23.925599,0.0 121.530002,23.927067,0.0 121.532775,23.927983,0.0 121.533152,23.928074,0.0 121.535928,23.928746,0.0 121.535814,23.928857,0.0 121.535751,23.928936,0.0 121.535706,23.928988,0.0 121.535665,23.929094,0.0 121.535634,23.929191,0.0 121.535622,23.929237,0.0 121.535606,23.929302,0.0 121.535594,23.929377,0.0 121.535572,23.929487,0.0 121.535543,23.929548,0.0 121.535446,23.929747,0.0 121.535379,23.929867,0.0 121.535326,23.929985,0.0 121.535281,23.930044,0.0 121.535163,23.930168,0.0 121.535055,23.930286,0.0 121.534872,23.93044,0.0 121.53478,23.930508,0.0 121.534729,23.930558,0.0 121.534704,23.930603,0.0 121.534688,23.930648,0.0 121.534685,23.930678,0.0 121.534689,23.930716,0.0 121.534705,23.930788,0.0 121.534721,23.930874,0.0 121.534728,23.931016,0.0 121.534722,23.931109,0.0 121.534697,23.931204,0.0 121.534665,23.93129,0.0 121.534624,23.931367,0.0 121.534571,23.931453,0.0 121.534533,23.931505,0.0 121.534473,23.931563,0.0 121.534384,23.931656,0.0 121.534279,23.931772,0.0 121.53412,23.931921,0.0 121.533936,23.932076,0.0 121.533898,23.932105,0.0 121.533876,23.932125,0.0 121.533854,23.932155,0.0 121.533648,23.932424,0.0 121.53334,23.932845,0.0 121.53322,23.933015,0.0 121.533157,23.933094,0.0 121.533152,23.933098,0.0 121.532581,23.933518,0.0 121.532141,23.933838,0.0 121.531933,23.933992,0.0 121.531764,23.934117,0.0 121.531604,23.934235,0.0 121.531372,23.934412,0.0 121.531242,23.9345,0.0 121.531087,23.934607,0.0 121.531036,23.934645,0.0 121.530998,23.934688,0.0 121.530943,23.934768,0.0 121.530719,23.935075,0.0 121.530503,23.935367,0.0 121.5304,23.935508,0.0 121.530136,23.935877,0.0 121.529892,23.936216,0.0 121.529707,23.93646,0.0 121.529476,23.936782,0.0 121.529225,23.93713,0.0 121.529075,23.937352,0.0 121.529057,23.937379,0.0 121.529035,23.937391,0.0 121.528826,23.937459,0.0 121.528723,23.937502,0.0 121.52836,23.937619,0.0 121.527777,23.937826,0.0 121.527653,23.937865,0.0 121.527455,23.937938,0.0 121.527338,23.937977,0.0 121.527315,23.93799,0.0 121.527294,23.938004,0.0 121.527272,23.938024,0.0 121.527155,23.938131,0.0 121.527006,23.938271,0.0 121.52673,23.938525,0.0 121.526398,23.938826,0.0 121.526026,23.939168,0.0 121.525542,23.939608,0.0 121.5252,23.939916,0.0 121.524915,23.940177,0.0 121.524637,23.940433,0.0 121.524424,23.940625,0.0 121.524083,23.940931,0.0 121.523811,23.941183,0.0 121.523485,23.941484,0.0 121.523355,23.941606,0.0 121.523157,23.941786,0.0 121.523013,23.941915,0.0 121.522862,23.942051,0.0 121.522753,23.942141,0.0 121.52242,23.942434,0.0 121.522105,23.942712,0.0 121.521726,23.94305,0.0 121.521456,23.943299,0.0 121.521212,23.943524,0.0 121.52099,23.94373,0.0 121.520862,23.943843,0.0 121.520775,23.943927,0.0 121.520645,23.944047,0.0 121.520559,23.944128,0.0 121.520493,23.94419,0.0 121.520426,23.944242,0.0 121.520322,23.944319,0.0 121.520208,23.944394,0.0 121.519922,23.944593,0.0 121.519611,23.944811,0.0 121.51934,23.944999,0.0 121.519123,23.945151,0.0 121.518941,23.945274,0.0 121.518751,23.945406,0.0 121.518609,23.945503,0.0 121.518461,23.945607,0.0 121.518263,23.945737,0.0 121.517998,23.945916,0.0 121.517787,23.946059,0.0 121.517627,23.946161,0.0 121.517424,23.946302,0.0 121.517297,23.946379,0.0 121.517121,23.946501,0.0 121.516902,23.946647,0.0 121.516735,23.94676,0.0 121.516577,23.946871,0.0 121.516442,23.946955,0.0 121.516201,23.947112,0.0 121.515901,23.947302,0.0 121.515737,23.947407,0.0 121.515684,23.947434,0.0 121.515556,23.947486,0.0 121.515408,23.947557,0.0 121.515252,23.947627,0.0 121.515126,23.947684,0.0 121.514829,23.947818,0.0 121.514669,23.947893,0.0 121.514582,23.94793,0.0 121.514091,23.948155,0.0 121.514013,23.948194,0.0 121.51384,23.948253,0.0 121.513706,23.948294,0.0 121.513644,23.948305,0.0 121.513532,23.948295,0.0 121.513364,23.948193,0.0 121.513052,23.948129,0.0 121.51274,23.948078,0.0 121.512424,23.948023,0.0 121.512174,23.947972,0.0 121.511947,23.947927,0.0 121.511898,23.947916,0.0</coordinates></LinearRing></outerBoundaryIs></Polygon><styleUrl>#spolygon-map</styleUrl></Placemark><Placemark><Polygon><outerBoundaryIs><LinearRing><coordinates>121.525375,23.830591,0.0 121.525291,23.829383,0.0 121.525123,23.827054,0.0 121.525036,23.825088,0.0 121.524475,23.82327,0.0 121.524438,23.823189,0.0 121.523677,23.821526,0.0 121.523573,23.819236,0.0 121.523508,23.817584,0.0 121.52355,23.815557,0.0 121.523552,23.81555,0.0 121.523551,23.815433,0.0 121.5235,23.815013,0.0 121.523382,23.814228,0.0 121.523302,23.813652,0.0 121.523279,23.813312,0.0 121.523256,23.812939,0.0 121.523182,23.81258,0.0 121.523008,23.811888,0.0 121.522797,23.811078,0.0 121.522551,23.810163,0.0 121.52237,23.809432,0.0 121.522124,23.808546,0.0 121.521906,23.807725,0.0 121.521827,23.807495,0.0 121.521662,23.807215,0.0 121.521532,23.806985,0.0 121.521273,23.806524,0.0 121.520957,23.805897,0.0 121.520768,23.805532,0.0 121.520531,23.80516,0.0 121.520281,23.804859,0.0 121.519937,23.80446,0.0 121.519622,23.804199,0.0 121.519369,23.803988,0.0 121.519076,23.803741,0.0 121.518882,23.803549,0.0 121.518739,23.803354,0.0 121.518538,23.803054,0.0 121.518381,23.802811,0.0 121.518215,23.802534,0.0 121.518064,23.802245,0.0 121.517956,23.801925,0.0 121.517855,23.801632,0.0 121.517746,23.801208,0.0 121.517608,23.800658,0.0 121.517491,23.799954,0.0 121.51741,23.7992,0.0 121.517386,23.798706,0.0 121.517378,23.798437,0.0 121.517411,23.798191,0.0 121.517412,23.798189,0.0 121.51742,23.798155,0.0 121.517471,23.797893,0.0 121.517502,23.797667,0.0 121.517521,23.797387,0.0 121.517548,23.797014,0.0 121.517574,23.796549,0.0 121.517616,23.795989,0.0 121.517631,23.795587,0.0 121.517653,23.795294,0.0 121.5177,23.794964,0.0 121.517759,23.794682,0.0 121.517852,23.794435,0.0 121.517963,23.79422,0.0 121.518083,23.793965,0.0 121.518162,23.793761,0.0 121.518246,23.793538,0.0 121.518326,23.793386,0.0 121.518429,23.79325,0.0 121.518557,23.79306,0.0 121.518713,23.792895,0.0 121.519001,23.792621,0.0 121.519234,23.792374,0.0 121.519378,23.792193,0.0 121.519474,23.792073,0.0 121.519549,23.791915,0.0 121.519565,23.791791,0.0 121.519569,23.791621,0.0 121.519631,23.791271,0.0 121.519694,23.790923,0.0 121.519786,23.790555,0.0 121.519825,23.790316,0.0 121.519844,23.790124,0.0 121.519847,23.789945,0.0 121.519842,23.789652,0.0 121.519805,23.789395,0.0 121.519735,23.789065,0.0 121.519661,23.788765,0.0 121.519503,23.788389,0.0 121.519305,23.787906,0.0 121.519211,23.787694,0.0 121.518989,23.787366,0.0 121.51873,23.787012,0.0 121.51856,23.786807,0.0 121.51829,23.786528,0.0 121.517968,23.786249,0.0 121.517576,23.78595,0.0 121.51725,23.785667,0.0 121.516916,23.785411,0.0 121.516576,23.785146,0.0 121.516407,23.785006,0.0 121.516226,23.784842,0.0 121.516012,23.78461,0.0 121.51585,23.784385,0.0 121.515685,23.784149,0.0 121.515485,23.783815,0.0 121.515316,23.783549,0.0 121.515231,23.783446,0.0 121.515171,23.783405,0.0 121.51503,23.783381,0.0 121.514741,23.783323,0.0 121.514427,23.78325,0.0 121.514094,23.783158,0.0 121.513883,23.78308,0.0 121.513496,23.782894,0.0 121.513114,23.782663,0.0 121.51294,23.782532,0.0 121.512734,23.782407,0.0 121.512477,23.782272,0.0 121.512151,23.782099,0.0 121.511857,23.78196,0.0 121.511532,23.781844,0.0 121.511275,23.781759,0.0 121.511111,23.781692,0.0 121.51093,23.781668,0.0 121.510673,23.781657,0.0 121.51042,23.781669,0.0 121.5102,23.781693,0.0 121.510044,23.781723,0.0 121.509979,23.781734,0.0 121.509931,23.781734,0.0 121.509722,23.781665,0.0 121.509324,23.781506,0.0 121.509048,23.781389,0.0 121.508931,23.781329,0.0 121.508807,23.781246,0.0 121.508686,23.781165,0.0 121.508452,23.781048,0.0 121.508355,23.780972,0.0 121.508147,23.780806,0.0 121.508143,23.780805,0.0 121.507963,23.780779,0.0 121.50763,23.780703,0.0 121.507406,23.780668,0.0 121.507126,23.780633,0.0 121.506967,23.780608,0.0 121.506888,23.7806,0.0 121.506778,23.780575,0.0 121.506389,23.7805,0.0 121.506261,23.780484,0.0 121.506148,23.780476,0.0 121.50603,23.780451,0.0 121.505754,23.780373,0.0 121.505576,23.780349,0.0 121.505144,23.78028,0.0 121.504936,23.780243,0.0 121.504491,23.780136,0.0 121.50404,23.78002,0.0 121.503741,23.779953,0.0 121.503518,23.779893,0.0 121.503336,23.779839,0.0 121.503124,23.779768,0.0 121.502791,23.779584,0.0 121.502466,23.779406,0.0 121.502124,23.779195,0.0 121.501999,23.77911,0.0 121.501669,23.778861,0.0 121.501493,23.778694,0.0 121.501348,23.778532,0.0 121.501143,23.778309,0.0 121.501079,23.778257,0.0 121.500825,23.778075,0.0 121.500404,23.777813,0.0 121.500055,23.777611,0.0 121.499885,23.777519,0.0 121.499735,23.77744,0.0 121.499602,23.777359,0.0 121.499397,23.777197,0.0 121.499253,23.77711,0.0 121.498988,23.776937,0.0 121.498684,23.776737,0.0 121.498385,23.776487,0.0 121.498079,23.776267,0.0 121.497708,23.776024,0.0 121.497605,23.775935,0.0 121.497473,23.775824,0.0 121.497362,23.775714,0.0 121.497233,23.77555,0.0 121.497038,23.775304,0.0 121.496897,23.77511,0.0 121.496806,23.774964,0.0 121.496665,23.774707,0.0 121.496547,23.774482,0.0 121.496401,23.774157,0.0 121.496332,23.773979,0.0 121.496271,23.77379,0.0 121.496214,23.7736,0.0 121.496156,23.773348,0.0 121.49614,23.773239,0.0 121.496133,23.773192,0.0 121.496134,23.773189,0.0 121.496147,23.773147,0.0 121.496172,23.773047,0.0 121.496293,23.772645,0.0 121.496409,23.772306,0.0 121.4965,23.772071,0.0 121.496629,23.771752,0.0 121.496694,23.771508,0.0 121.496763,23.771341,0.0 121.496802,23.771269,0.0 121.496849,23.771201,0.0 121.496994,23.771013,0.0 121.497085,23.7709,0.0 121.497241,23.770757,0.0 121.497488,23.770567,0.0 121.497627,23.770478,0.0 121.497679,23.770446,0.0 121.497731,23.770383,0.0 121.497822,23.770243,0.0 121.497848,23.77017,0.0 121.497882,23.770026,0.0 121.497907,23.769773,0.0 121.497921,23.769364,0.0 121.49792,23.769238,0.0 121.497904,23.769042,0.0 121.497877,23.768809,0.0 121.497842,23.768658,0.0 121.497731,23.76808,0.0 121.497732,23.767999,0.0 121.497742,23.767954,0.0 121.49784,23.767877,0.0 121.497936,23.767843,0.0 121.498044,23.767824,0.0 121.498153,23.767786,0.0 121.498314,23.767693,0.0 121.498457,23.76759,0.0 121.498544,23.767552,0.0 121.498635,23.767533,0.0 121.498755,23.767535,0.0 121.498864,23.76753,0.0 121.498902,23.767515,0.0 121.498951,23.767465,0.0 121.499016,23.767379,0.0 121.499129,23.76727,0.0 121.499231,23.767215,0.0 121.499344,23.767165,0.0 121.499574,23.767079,0.0 121.499851,23.766983,0.0 121.500017,23.766933,0.0 121.500128,23.766881,0.0 121.500236,23.766815,0.0 121.500314,23.766749,0.0 121.500355,23.766706,0.0 121.500497,23.766541,0.0 121.500545,23.766475,0.0 121.500618,23.766344,0.0 121.500633,23.766281,0.0 121.500633,23.766242,0.0 121.500628,23.766175,0.0 121.500603,23.766089,0.0 121.50057,23.76599,0.0 121.500565,23.76594,0.0 121.500567,23.765884,0.0 121.500595,23.765832,0.0 121.500641,23.765805,0.0 121.500719,23.765793,0.0 121.500802,23.76579,0.0 121.500889,23.765806,0.0 121.501131,23.765857,0.0 121.501476,23.765901,0.0 121.501872,23.765965,0.0 121.502247,23.766036,0.0 121.50242,23.766083,0.0 121.502738,23.766143,0.0 121.502806,23.766141,0.0 121.502901,23.766136,0.0 121.503001,23.766113,0.0 121.503069,23.766086,0.0 121.50311,23.766054,0.0 121.503144,23.766022,0.0 121.503199,23.765934,0.0 121.503224,23.765855,0.0 121.503239,23.765755,0.0 121.503241,23.765701,0.0 121.503248,23.765631,0.0 121.503287,23.765545,0.0 121.503328,23.765496,0.0 121.503378,23.765453,0.0 121.503458,23.765423,0.0 121.503526,23.765416,0.0 121.503589,23.765425,0.0 121.503674,23.765447,0.0 121.503811,23.765498,0.0 121.503904,23.765528,0.0 121.504002,23.765552,0.0 121.504146,23.765565,0.0 121.5042,23.765565,0.0 121.504329,23.765537,0.0 121.504492,23.765508,0.0 121.504581,23.765503,0.0 121.504664,23.765509,0.0 121.50472,23.76552,0.0 121.504764,23.765541,0.0 121.504849,23.765615,0.0 121.50489,23.765644,0.0 121.504925,23.765669,0.0 121.505082,23.765729,0.0 121.505293,23.765801,0.0 121.505406,23.765836,0.0 121.505476,23.765852,0.0 121.505541,23.765854,0.0 121.505605,23.765849,0.0 121.505687,23.765835,0.0 121.50573,23.765829,0.0 121.505774,23.765804,0.0 121.505817,23.765774,0.0 121.505859,23.765731,0.0 121.505891,23.765693,0.0 121.505952,23.765571,0.0 121.505977,23.765469,0.0 121.505975,23.765401,0.0 121.505959,23.765336,0.0 121.505939,23.765245,0.0 121.505933,23.765178,0.0 121.50593,23.76513,0.0 121.505959,23.76499,0.0 121.506071,23.764658,0.0 121.50614,23.764495,0.0 121.506179,23.764434,0.0 121.50624,23.764371,0.0 121.506342,23.764301,0.0 121.50645,23.764244,0.0 121.506661,23.764155,0.0 121.506761,23.764116,0.0 121.506812,23.764105,0.0 121.506962,23.764102,0.0 121.507176,23.764119,0.0 121.507428,23.764119,0.0 121.507498,23.764114,0.0 121.507615,23.764089,0.0 121.507774,23.764036,0.0 121.507874,23.764016,0.0 121.508055,23.764001,0.0 121.508141,23.763978,0.0 121.508145,23.763976,0.0 121.508173,23.763963,0.0 121.508379,23.763885,0.0 121.508532,23.763853,0.0 121.508702,23.76383,0.0 121.508845,23.76382,0.0 121.508962,23.763807,0.0 121.509081,23.763756,0.0 121.509195,23.763711,0.0 121.509305,23.763686,0.0 121.509401,23.763685,0.0 121.509531,23.76366,0.0 121.509614,23.763606,0.0 121.509686,23.763517,0.0 121.509757,23.763413,0.0 121.509825,23.763314,0.0 121.509954,23.763205,0.0 121.510112,23.76311,0.0 121.510168,23.763053,0.0 121.510228,23.762963,0.0 121.510273,23.762877,0.0 121.510312,23.762847,0.0 121.510357,23.762829,0.0 121.510398,23.762829,0.0 121.510503,23.762862,0.0 121.510584,23.7629,0.0 121.51071,23.762952,0.0 121.510901,23.762999,0.0 121.511082,23.763034,0.0 121.511205,23.76307,0.0 121.511328,23.763126,0.0 121.511424,23.763196,0.0 121.511567,23.76322,0.0 121.511711,23.763251,0.0 121.511882,23.763327,0.0 121.511983,23.763352,0.0 121.512031,23.763338,0.0 121.51207,23.763311,0.0 121.512108,23.7632,0.0 121.512161,23.762965,0.0 121.512205,23.762766,0.0 121.512256,23.762493,0.0 121.512273,23.762317,0.0 121.512291,23.762229,0.0 121.512329,23.762154,0.0 121.512457,23.761944,0.0 121.51252,23.761849,0.0 121.512633,23.761745,0.0 121.512839,23.761595,0.0 121.513047,23.761414,0.0 121.513314,23.761203,0.0 121.513507,23.761006,0.0 121.513805,23.760736,0.0 121.51394,23.760571,0.0 121.514029,23.760426,0.0 121.514198,23.76024,0.0 121.514365,23.760073,0.0 121.514515,23.759928,0.0 121.514697,23.759794,0.0 121.514834,23.759712,0.0 121.514935,23.759676,0.0 121.515013,23.759671,0.0 121.515112,23.759689,0.0 121.515226,23.759747,0.0 121.515353,23.759787,0.0 121.515509,23.759773,0.0 121.515709,23.759709,0.0 121.515831,23.759657,0.0 121.515956,23.759639,0.0 121.516118,23.759636,0.0 121.516273,23.759644,0.0 121.516399,23.759633,0.0 121.516557,23.759607,0.0 121.516818,23.759534,0.0 121.517009,23.759455,0.0 121.517153,23.759366,0.0 121.517305,23.759287,0.0 121.51746,23.759227,0.0 121.517651,23.759159,0.0 121.517815,23.759104,0.0 121.517838,23.7591,0.0 121.522335,23.763115,0.0 121.526144,23.766087,0.0 121.529001,23.768334,0.0 121.530355,23.770732,0.0 121.532103,23.773187,0.0 121.532424,23.773637,0.0 121.532279,23.776986,0.0 121.532291,23.779971,0.0 121.532458,23.782082,0.0 121.532306,23.783684,0.0 121.533144,23.784567,0.0 121.533339,23.784772,0.0 121.534693,23.786835,0.0 121.536929,23.792069,0.0 121.537968,23.794468,0.0 121.538292,23.796432,0.0 121.538631,23.798187,0.0 121.540314,23.806908,0.0 121.540797,23.809018,0.0 121.541355,23.810035,0.0 121.542547,23.811123,0.0 121.54374,23.81272,0.0 121.545092,23.814244,0.0 121.545971,23.816425,0.0 121.547483,23.818313,0.0 121.548758,23.820565,0.0 121.550372,23.823187,0.0 121.550591,23.823543,0.0 121.551752,23.825132,0.0 121.549409,23.824683,0.0 121.546876,23.824547,0.0 121.543554,23.824995,0.0 121.540155,23.826026,0.0 121.536439,23.82684,0.0 121.53315,23.827754,0.0 121.532724,23.827872,0.0 121.530433,23.828899,0.0 121.527904,23.829636,0.0 121.525375,23.830591,0.0</coordinates></LinearRing></outerBoundaryIs></Polygon><styleUrl>#spolygon-map</styleUrl></Placemark><Placemark><Polygon><outerBoundaryIs><LinearRing><coordinates>121.535928,23.928746,0.0 121.533152,23.928074,0.0 121.532775,23.927983,0.0 121.530002,23.927067,0.0 121.526422,23.925599,0.0 121.524457,23.925004,0.0 121.523044,23.924176,0.0 121.522697,23.923192,0.0 121.522637,23.92302,0.0 121.522077,23.921588,0.0 121.521216,23.920064,0.0 121.520503,23.918123,0.0 121.520198,23.91743,0.0 121.519488,23.915906,0.0 121.518526,23.91466,0.0 121.517869,23.914014,0.0 121.51731,23.912609,0.0 121.517006,23.911963,0.0 121.5167,23.911038,0.0 121.516344,23.910253,0.0 121.515838,23.909375,0.0 121.515431,23.908451,0.0 121.515679,23.907525,0.0 121.516231,23.906922,0.0 121.517133,23.906021,0.0 121.51708,23.905327,0.0 121.516219,23.903896,0.0 121.515611,23.903019,0.0 121.515101,23.901262,0.0 121.514988,23.900193,0.0 121.521274,23.898192,0.0 121.525819,23.896745,0.0 121.526604,23.895828,0.0 121.526905,23.895549,0.0 121.529721,23.894985,0.0 121.531681,23.894469,0.0 121.533153,23.894205,0.0 121.533981,23.894057,0.0 121.534414,23.891852,0.0 121.535323,23.88803,0.0 121.557486,23.897158,0.0 121.557371,23.898191,0.0 121.557323,23.898621,0.0 121.557372,23.900467,0.0 121.557986,23.902778,0.0 121.558155,23.90374,0.0 121.558394,23.9051,0.0 121.559511,23.90733,0.0 121.561014,23.910133,0.0 121.56195,23.911875,0.0 121.562843,23.913623,0.0 121.564996,23.917946,0.0 121.5648,23.918035,0.0 121.564535,23.918146,0.0 121.564153,23.918306,0.0 121.563401,23.918622,0.0 121.562808,23.91887,0.0 121.562479,23.919014,0.0 121.561693,23.919364,0.0 121.560849,23.919751,0.0 121.560208,23.920072,0.0 121.559719,23.920331,0.0 121.559098,23.92067,0.0 121.55872,23.920904,0.0 121.558359,23.92114,0.0 121.558157,23.921253,0.0 121.558155,23.921254,0.0 121.558027,23.921324,0.0 121.557774,23.921456,0.0 121.556978,23.921942,0.0 121.556486,23.922286,0.0 121.556312,23.922416,0.0 121.556263,23.922438,0.0 121.556209,23.922445,0.0 121.556154,23.922434,0.0 121.556139,23.922428,0.0 121.556132,23.922423,0.0 121.5561,23.922416,0.0 121.556066,23.922419,0.0 121.556036,23.922432,0.0 121.555515,23.922768,0.0 121.555245,23.922943,0.0 121.554912,23.92315,0.0 121.55487,23.923191,0.0 121.554625,23.92341,0.0 121.554368,23.923678,0.0 121.554129,23.92392,0.0 121.553856,23.924156,0.0 121.55366,23.924303,0.0 121.553571,23.924362,0.0 121.553524,23.924392,0.0 121.553406,23.92442,0.0 121.553343,23.924424,0.0 121.553295,23.924422,0.0 121.553164,23.92442,0.0 121.553002,23.924421,0.0 121.552878,23.924412,0.0 121.552742,23.924435,0.0 121.552599,23.924443,0.0 121.55239,23.924471,0.0 121.552253,23.924489,0.0 121.552161,23.924521,0.0 121.552091,23.924571,0.0 121.552031,23.924621,0.0 121.551848,23.924813,0.0 121.551721,23.924933,0.0 121.551498,23.925135,0.0 121.551396,23.925224,0.0 121.551263,23.925312,0.0 121.551089,23.925398,0.0 121.550958,23.92544,0.0 121.550742,23.925495,0.0 121.550688,23.925508,0.0 121.550339,23.925616,0.0 121.550007,23.925705,0.0 121.549622,23.925799,0.0 121.549203,23.925904,0.0 121.54885,23.926,0.0 121.548568,23.926076,0.0 121.548425,23.926117,0.0 121.54828,23.926138,0.0 121.548108,23.926152,0.0 121.547949,23.926159,0.0 121.547806,23.926153,0.0 121.547726,23.926142,0.0 121.547628,23.92612,0.0 121.54737,23.926066,0.0 121.54716,23.926038,0.0 121.546899,23.926016,0.0 121.546136,23.925996,0.0 121.545888,23.925995,0.0 121.545682,23.926032,0.0 121.545354,23.926098,0.0 121.544964,23.92617,0.0 121.544601,23.926239,0.0 121.544304,23.926292,0.0 121.544002,23.926349,0.0 121.543563,23.926425,0.0 121.543201,23.926481,0.0 121.542814,23.926554,0.0 121.542576,23.9266,0.0 121.542309,23.926649,0.0 121.542033,23.926684,0.0 121.541556,23.926771,0.0 121.541391,23.926803,0.0 121.54102,23.926893,0.0 121.540598,23.927002,0.0 121.540353,23.927062,0.0 121.539937,23.927165,0.0 121.539664,23.927227,0.0 121.539313,23.927291,0.0 121.53875,23.927418,0.0 121.538296,23.927552,0.0 121.53776,23.927717,0.0 121.537579,23.92779,0.0 121.537338,23.92793,0.0 121.537078,23.928103,0.0 121.536983,23.928162,0.0 121.536834,23.928228,0.0 121.536621,23.92835,0.0 121.53641,23.928455,0.0 121.536194,23.928564,0.0 121.536023,23.928669,0.0 121.535928,23.928746,0.0</coordinates></LinearRing></outerBoundaryIs></Polygon><styleUrl>#spolygon-map</styleUrl></Placemark><Placemark><Polygon><outerBoundaryIs><LinearRing><coordinates>121.485098,23.831336,0.0 121.483245,23.831039,0.0 121.483147,23.83092,0.0 121.482021,23.829549,0.0 121.480909,23.827999,0.0 121.480728,23.828094,0.0 121.480083,23.828596,0.0 121.478817,23.828862,0.0 121.477601,23.828675,0.0 121.475739,23.828705,0.0 121.473515,23.828688,0.0 121.471652,23.828598,0.0 121.470049,23.828579,0.0 121.469066,23.828582,0.0 121.468548,23.828322,0.0 121.467072,23.827803,0.0 121.465546,23.827737,0.0 121.463709,23.827694,0.0 121.461717,23.827439,0.0 121.459724,23.827088,0.0 121.458146,23.826979,0.0 121.457732,23.826951,0.0 121.456128,23.826694,0.0 121.454473,23.826651,0.0 121.453069,23.826815,0.0 121.453036,23.826379,0.0 121.453022,23.826198,0.0 121.453009,23.826022,0.0 121.452982,23.825878,0.0 121.452934,23.82556,0.0 121.452823,23.825283,0.0 121.452785,23.825174,0.0 121.452716,23.824797,0.0 121.452594,23.82441,0.0 121.452435,23.824103,0.0 121.452104,23.823589,0.0 121.451803,23.823195,0.0 121.451802,23.823193,0.0 121.451605,23.82278,0.0 121.450587,23.821962,0.0 121.449594,23.821332,0.0 121.449221,23.821067,0.0 121.449011,23.821025,0.0 121.44774,23.820782,0.0 121.447565,23.82076,0.0 121.446051,23.820839,0.0 121.445574,23.820906,0.0 121.445167,23.820982,0.0 121.443412,23.82098,0.0 121.442453,23.820983,0.0 121.441866,23.820757,0.0 121.441848,23.820723,0.0 121.441562,23.819705,0.0 121.441327,23.818753,0.0 121.441302,23.818693,0.0 121.441484,23.818593,0.0 121.441888,23.818332,0.0 121.442271,23.81813,0.0 121.442508,23.818016,0.0 121.442948,23.81783,0.0 121.443387,23.817612,0.0 121.443891,23.817319,0.0 121.444277,23.817081,0.0 121.444445,23.816972,0.0 121.444949,23.816623,0.0 121.445293,23.81636,0.0 121.445517,23.81619,0.0 121.445974,23.815805,0.0 121.446413,23.815423,0.0 121.446752,23.815117,0.0 121.447103,23.814829,0.0 121.447349,23.814637,0.0 121.447784,23.814299,0.0 121.448172,23.813989,0.0 121.448473,23.813771,0.0 121.448726,23.813565,0.0 121.449169,23.813229,0.0 121.449491,23.812996,0.0 121.449677,23.812896,0.0 121.450028,23.812751,0.0 121.450493,23.812546,0.0 121.450847,23.812349,0.0 121.451031,23.812238,0.0 121.451367,23.812009,0.0 121.451622,23.811836,0.0 121.451787,23.81175,0.0 121.452159,23.811625,0.0 121.452601,23.811447,0.0 121.453111,23.811182,0.0 121.45353,23.810898,0.0 121.453893,23.81066,0.0 121.454298,23.810478,0.0 121.454596,23.810338,0.0 121.454948,23.810228,0.0 121.455274,23.81013,0.0 121.455619,23.80998,0.0 121.455951,23.809821,0.0 121.456349,23.809653,0.0 121.456444,23.809619,0.0 121.456609,23.809571,0.0 121.456973,23.809488,0.0 121.45727,23.809382,0.0 121.457389,23.809329,0.0 121.457437,23.809295,0.0 121.457613,23.80915,0.0 121.457866,23.808926,0.0 121.457996,23.808801,0.0 121.458065,23.80874,0.0 121.458084,23.808729,0.0 121.458144,23.808724,0.0 121.458147,23.808724,0.0 121.458263,23.808713,0.0 121.458545,23.808687,0.0 121.458794,23.808668,0.0 121.458905,23.80865,0.0 121.459062,23.80862,0.0 121.459442,23.808551,0.0 121.459801,23.808478,0.0 121.460135,23.808393,0.0 121.460447,23.80832,0.0 121.460886,23.808247,0.0 121.461226,23.808185,0.0 121.461717,23.80814,0.0 121.462025,23.80811,0.0 121.462404,23.808084,0.0 121.46283,23.808065,0.0 121.463201,23.808045,0.0 121.463502,23.80802,0.0 121.463816,23.808007,0.0 121.464183,23.807993,0.0 121.464543,23.807987,0.0 121.464877,23.807986,0.0 121.465237,23.807967,0.0 121.465348,23.807949,0.0 121.465623,23.807898,0.0 121.465879,23.807825,0.0 121.466049,23.807777,0.0 121.466498,23.807722,0.0 121.466891,23.807673,0.0 121.467192,23.807647,0.0 121.467546,23.807621,0.0 121.467965,23.807584,0.0 121.468273,23.807572,0.0 121.468757,23.807559,0.0 121.469046,23.807551,0.0 121.469515,23.807575,0.0 121.469842,23.807574,0.0 121.470287,23.807572,0.0 121.470641,23.807576,0.0 121.471041,23.807545,0.0 121.471348,23.807544,0.0 121.471741,23.807518,0.0 121.472114,23.807488,0.0 121.472396,23.807469,0.0 121.472866,23.807436,0.0 121.473232,23.807405,0.0 121.473632,23.807386,0.0 121.474058,23.807374,0.0 121.474359,23.807377,0.0 121.474817,23.807394,0.0 121.475105,23.807388,0.0 121.475387,23.807399,0.0 121.475961,23.807379,0.0 121.476393,23.80736,0.0 121.476806,23.80734,0.0 121.477028,23.80734,0.0 121.47748,23.807327,0.0 121.477788,23.807326,0.0 121.478122,23.807318,0.0 121.478528,23.807317,0.0 121.478991,23.807284,0.0 121.479285,23.807276,0.0 121.479626,23.807275,0.0 121.479914,23.807299,0.0 121.480209,23.807316,0.0 121.480484,23.807297,0.0 121.480759,23.807285,0.0 121.481302,23.807216,0.0 121.48165,23.807192,0.0 121.481911,23.807173,0.0 121.482023,23.807148,0.0 121.482324,23.8071,0.0 121.482612,23.807049,0.0 121.482946,23.807019,0.0 121.483144,23.807014,0.0 121.483148,23.807013,0.0 121.483374,23.806995,0.0 121.483925,23.80695,0.0 121.484186,23.80694,0.0 121.484718,23.80695,0.0 121.485212,23.807002,0.0 121.485601,23.807062,0.0 121.486143,23.807158,0.0 121.486624,23.807235,0.0 121.487234,23.807364,0.0 121.487681,23.807478,0.0 121.488013,23.807551,0.0 121.488236,23.80758,0.0 121.488467,23.807588,0.0 121.488693,23.807592,0.0 121.488944,23.807582,0.0 121.489309,23.807563,0.0 121.489796,23.807568,0.0 121.490382,23.807584,0.0 121.490816,23.807608,0.0 121.49131,23.807631,0.0 121.491892,23.807679,0.0 121.492688,23.807755,0.0 121.493504,23.807825,0.0 121.494008,23.807869,0.0 121.494452,23.807899,0.0 121.494828,23.807929,0.0 121.495244,23.807937,0.0 121.495698,23.807944,0.0 121.496239,23.807956,0.0 121.496689,23.807966,0.0 121.496991,23.807969,0.0 121.497207,23.807978,0.0 121.497539,23.808002,0.0 121.497888,23.808043,0.0 121.498349,23.808141,0.0 121.498996,23.808254,0.0 121.499446,23.80833,0.0 121.499832,23.808391,0.0 121.500073,23.808445,0.0 121.500608,23.808554,0.0 121.501278,23.808685,0.0 121.501882,23.808809,0.0 121.502224,23.80888,0.0 121.502806,23.809007,0.0 121.503345,23.809134,0.0 121.503549,23.80918,0.0 121.502112,23.813731,0.0 121.501097,23.817431,0.0 121.500829,23.818576,0.0 121.500464,23.819614,0.0 121.500234,23.820419,0.0 121.499944,23.820778,0.0 121.499653,23.821011,0.0 121.499149,23.821209,0.0 121.497343,23.821555,0.0 121.496605,23.821629,0.0 121.494547,23.822189,0.0 121.493498,23.822336,0.0 121.491791,23.823074,0.0 121.491592,23.823191,0.0 121.490569,23.823793,0.0 121.490106,23.82467,0.0 121.487728,23.827932,0.0 121.486781,23.829168,0.0 121.485716,23.830244,0.0 121.485252,23.830925,0.0 121.485098,23.831336,0.0</coordinates></LinearRing></outerBoundaryIs></Polygon><styleUrl>#spolygon-map</styleUrl></Placemark><Placemark><Polygon><outerBoundaryIs><LinearRing><coordinates>121.517736,23.877615,0.0 121.516268,23.878332,0.0 121.514355,23.87672,0.0 121.51363,23.878746,0.0 121.513262,23.878477,0.0 121.512525,23.87767,0.0 121.511716,23.876864,0.0 121.510839,23.877609,0.0 121.509526,23.879501,0.0 121.508151,23.880876,0.0 121.5077,23.881327,0.0 121.504692,23.880865,0.0 121.503302,23.881814,0.0 121.501202,23.883307,0.0 121.49949,23.881988,0.0 121.498012,23.878959,0.0 121.497125,23.877276,0.0 121.496014,23.874313,0.0 121.494734,23.873192,0.0 121.494248,23.872768,0.0 121.492776,23.871087,0.0 121.491524,23.869742,0.0 121.48947,23.869411,0.0 121.486242,23.86895,0.0 121.483967,23.86835,0.0 121.483452,23.868014,0.0 121.484841,23.866864,0.0 121.486525,23.866184,0.0 121.488136,23.865707,0.0 121.489892,23.86469,0.0 121.491574,23.863673,0.0 121.495012,23.861572,0.0 121.497059,23.860015,0.0 121.499181,23.858727,0.0 121.501375,23.857304,0.0 121.501678,23.857128,0.0 121.502224,23.857711,0.0 121.506269,23.863303,0.0 121.50664,23.863678,0.0 121.507105,23.863479,0.0 121.507474,23.863282,0.0 121.507826,23.863709,0.0 121.508151,23.864181,0.0 121.50849,23.864673,0.0 121.509115,23.865493,0.0 121.509506,23.865956,0.0 121.509644,23.866403,0.0 121.509821,23.866921,0.0 121.510759,23.868312,0.0 121.512733,23.870826,0.0 121.514489,23.873192,0.0 121.514785,23.87359,0.0 121.515528,23.87466,0.0 121.516368,23.875784,0.0 121.517071,23.87655,0.0 121.517736,23.877615,0.0</coordinates></LinearRing></outerBoundaryIs></Polygon><styleUrl>#spolygon-map</styleUrl></Placemark><Placemark><Polygon><outerBoundaryIs><LinearRing><coordinates>121.490981,23.839488,0.0 121.489263,23.840452,0.0 121.487449,23.840374,0.0 121.484828,23.840796,0.0 121.483148,23.841819,0.0 121.478712,23.844517,0.0 121.475147,23.846784,0.0 121.473837,23.84738,0.0 121.471684,23.84814,0.0 121.47157,23.848193,0.0 121.470307,23.848778,0.0 121.468758,23.849814,0.0 121.467638,23.850175,0.0 121.465917,23.851171,0.0 121.464712,23.851849,0.0 121.462862,23.852886,0.0 121.461615,23.853881,0.0 121.460747,23.854669,0.0 121.460532,23.854439,0.0 121.460076,23.853906,0.0 121.4597,23.853457,0.0 121.459545,23.853316,0.0 121.459443,23.853246,0.0 121.459312,23.853201,0.0 121.45901,23.853128,0.0 121.458568,23.853066,0.0 121.458206,23.853028,0.0 121.45815,23.853024,0.0 121.458148,23.853024,0.0 121.458084,23.853006,0.0 121.457412,23.852886,0.0 121.45665,23.852825,0.0 121.456116,23.85282,0.0 121.455819,23.852821,0.0 121.45556,23.852793,0.0 121.455324,23.852732,0.0 121.454759,23.852538,0.0 121.454073,23.852237,0.0 121.453396,23.851934,0.0 121.453091,23.851782,0.0 121.452595,23.851503,0.0 121.452328,23.851335,0.0 121.451732,23.850883,0.0 121.451357,23.850561,0.0 121.450803,23.850019,0.0 121.450153,23.84949,0.0 121.449878,23.849245,0.0 121.449458,23.848889,0.0 121.44916,23.848694,0.0 121.448824,23.848498,0.0 121.448363,23.848195,0.0 121.448362,23.848193,0.0 121.447825,23.847661,0.0 121.447767,23.84758,0.0 121.447746,23.847533,0.0 121.447745,23.847486,0.0 121.447964,23.847128,0.0 121.448323,23.846687,0.0 121.448705,23.846372,0.0 121.448856,23.846257,0.0 121.449112,23.846136,0.0 121.449343,23.846072,0.0 121.449484,23.846013,0.0 121.449677,23.845884,0.0 121.450003,23.84563,0.0 121.450133,23.845479,0.0 121.45031,23.845196,0.0 121.45044,23.844911,0.0 121.450509,23.844739,0.0 121.450524,23.844545,0.0 121.450502,23.844446,0.0 121.450439,23.844358,0.0 121.450045,23.843984,0.0 121.449625,23.84353,0.0 121.449073,23.84312,0.0 121.448772,23.842873,0.0 121.448619,23.842695,0.0 121.448393,23.842398,0.0 121.448246,23.84227,0.0 121.44812,23.842164,0.0 121.447905,23.842049,0.0 121.447475,23.841924,0.0 121.447271,23.841877,0.0 121.447211,23.841841,0.0 121.44719,23.841817,0.0 121.447153,23.841758,0.0 121.447148,23.84172,0.0 121.447148,23.841672,0.0 121.447408,23.841319,0.0 121.447752,23.840892,0.0 121.447919,23.84062,0.0 121.447972,23.840489,0.0 121.44808,23.84018,0.0 121.44822,23.839746,0.0 121.448319,23.839511,0.0 121.448486,23.839251,0.0 121.448675,23.838981,0.0 121.44892,23.83871,0.0 121.449202,23.838454,0.0 121.449478,23.838151,0.0 121.449655,23.837886,0.0 121.449902,23.837511,0.0 121.450115,23.837126,0.0 121.450178,23.836972,0.0 121.450281,23.836582,0.0 121.450312,23.836394,0.0 121.450338,23.836144,0.0 121.4504,23.835895,0.0 121.450529,23.835321,0.0 121.45058,23.834973,0.0 121.450606,23.834822,0.0 121.450632,23.834754,0.0 121.450679,23.83463,0.0 121.450898,23.834316,0.0 121.451346,23.833736,0.0 121.451765,23.83316,0.0 121.452151,23.832678,0.0 121.452229,23.832549,0.0 121.452296,23.832404,0.0 121.452432,23.832085,0.0 121.452589,23.831841,0.0 121.452974,23.831309,0.0 121.453136,23.831065,0.0 121.453177,23.830972,0.0 121.453213,23.830848,0.0 121.45326,23.830609,0.0 121.453275,23.830387,0.0 121.453259,23.830189,0.0 121.45319,23.829891,0.0 121.453031,23.829406,0.0 121.452988,23.829253,0.0 121.452972,23.829088,0.0 121.452997,23.82881,0.0 121.453094,23.828054,0.0 121.453088,23.82786,0.0 121.453071,23.827354,0.0 121.453069,23.826815,0.0 121.454473,23.826651,0.0 121.456128,23.826694,0.0 121.457732,23.826951,0.0 121.458146,23.826979,0.0 121.459724,23.827088,0.0 121.461717,23.827439,0.0 121.463709,23.827694,0.0 121.465546,23.827737,0.0 121.467072,23.827803,0.0 121.468548,23.828322,0.0 121.469066,23.828582,0.0 121.470049,23.828579,0.0 121.471652,23.828598,0.0 121.473515,23.828688,0.0 121.475739,23.828705,0.0 121.477601,23.828675,0.0 121.478817,23.828862,0.0 121.480083,23.828596,0.0 121.480728,23.828094,0.0 121.480909,23.827999,0.0 121.482021,23.829549,0.0 121.483147,23.83092,0.0 121.483245,23.831039,0.0 121.485098,23.831336,0.0 121.490981,23.839488,0.0</coordinates></LinearRing></outerBoundaryIs></Polygon><styleUrl>#spolygon-map</styleUrl></Placemark><Placemark><Polygon><outerBoundaryIs><LinearRing><coordinates>121.477548,23.87144,0.0 121.477497,23.871361,0.0 121.477454,23.871291,0.0 121.47742,23.871158,0.0 121.477419,23.871009,0.0 121.477418,23.870822,0.0 121.477367,23.870612,0.0 121.477307,23.870472,0.0 121.477212,23.870253,0.0 121.477076,23.870105,0.0 121.476923,23.870045,0.0 121.476599,23.869935,0.0 121.476327,23.869866,0.0 121.476191,23.869819,0.0 121.476105,23.869726,0.0 121.476054,23.869609,0.0 121.476054,23.869492,0.0 121.476121,23.869282,0.0 121.476144,23.869056,0.0 121.476135,23.868963,0.0 121.4761,23.86883,0.0 121.476032,23.868666,0.0 121.47581,23.868409,0.0 121.475639,23.868206,0.0 121.475408,23.86781,0.0 121.475169,23.867436,0.0 121.475066,23.867296,0.0 121.47493,23.867202,0.0 121.474802,23.867155,0.0 121.474675,23.867139,0.0 121.474377,23.86714,0.0 121.474123,23.867173,0.0 121.473919,23.867189,0.0 121.473689,23.867206,0.0 121.473502,23.86719,0.0 121.473349,23.867159,0.0 121.473221,23.867099,0.0 121.473108,23.867016,0.0 121.472865,23.866642,0.0 121.472621,23.866306,0.0 121.472536,23.866232,0.0 121.472481,23.8662,0.0 121.472383,23.866185,0.0 121.472196,23.866221,0.0 121.471869,23.866315,0.0 121.471232,23.866498,0.0 121.470995,23.866541,0.0 121.470902,23.866532,0.0 121.470822,23.866517,0.0 121.470732,23.866486,0.0 121.470681,23.866441,0.0 121.470583,23.866296,0.0 121.470433,23.865922,0.0 121.470304,23.865575,0.0 121.470206,23.865395,0.0 121.470095,23.865248,0.0 121.469979,23.865127,0.0 121.469724,23.864936,0.0 121.469251,23.864689,0.0 121.46874,23.864446,0.0 121.468525,23.864321,0.0 121.468304,23.86417,0.0 121.468086,23.864065,0.0 121.467648,23.863915,0.0 121.467239,23.863735,0.0 121.466806,23.863554,0.0 121.466522,23.863394,0.0 121.466334,23.863293,0.0 121.466075,23.863186,0.0 121.465811,23.863042,0.0 121.465713,23.862957,0.0 121.465636,23.862855,0.0 121.465555,23.8627,0.0 121.465434,23.862407,0.0 121.46533,23.862048,0.0 121.465128,23.861342,0.0 121.465059,23.861062,0.0 121.464951,23.860769,0.0 121.46481,23.860528,0.0 121.464532,23.860111,0.0 121.464251,23.859742,0.0 121.464066,23.859528,0.0 121.463618,23.859069,0.0 121.463268,23.858679,0.0 121.463096,23.858438,0.0 121.462959,23.85822,0.0 121.462834,23.857934,0.0 121.462727,23.857672,0.0 121.462676,23.857487,0.0 121.46262,23.857207,0.0 121.462529,23.856973,0.0 121.462418,23.856743,0.0 121.462217,23.856389,0.0 121.462011,23.856085,0.0 121.461807,23.855833,0.0 121.4616,23.855569,0.0 121.461297,23.855193,0.0 121.460978,23.854894,0.0 121.460747,23.854669,0.0 121.461615,23.853881,0.0 121.462862,23.852886,0.0 121.464712,23.851849,0.0 121.465917,23.851171,0.0 121.467638,23.850175,0.0 121.468758,23.849814,0.0 121.470307,23.848778,0.0 121.47157,23.848193,0.0 121.471684,23.84814,0.0 121.473837,23.84738,0.0 121.475147,23.846784,0.0 121.478712,23.844517,0.0 121.483148,23.841819,0.0 121.484828,23.840796,0.0 121.487449,23.840374,0.0 121.489263,23.840452,0.0 121.490981,23.839488,0.0 121.497264,23.848191,0.0 121.503118,23.856299,0.0 121.503057,23.856327,0.0 121.501678,23.857128,0.0 121.501375,23.857304,0.0 121.499181,23.858727,0.0 121.497059,23.860015,0.0 121.495012,23.861572,0.0 121.491574,23.863673,0.0 121.489892,23.86469,0.0 121.488136,23.865707,0.0 121.486525,23.866184,0.0 121.484841,23.866864,0.0 121.483452,23.868014,0.0 121.48315,23.86826,0.0 121.481698,23.869436,0.0 121.480528,23.870384,0.0 121.478991,23.87113,0.0 121.477548,23.87144,0.0</coordinates></LinearRing></outerBoundaryIs></Polygon><styleUrl>#spolygon-map</styleUrl></Placemark><Placemark><Polygon><outerBoundaryIs><LinearRing><coordinates>121.536633,23.852727,0.0 121.534924,23.854087,0.0 121.533868,23.854831,0.0 121.533152,23.855252,0.0 121.531207,23.856398,0.0 121.528798,23.857731,0.0 121.527151,23.858788,0.0 121.526492,23.859149,0.0 121.52495,23.858743,0.0 121.522739,23.85834,0.0 121.521152,23.857812,0.0 121.519985,23.856235,0.0 121.518824,23.854563,0.0 121.517708,23.853029,0.0 121.517628,23.852918,0.0 121.516873,23.851516,0.0 121.516785,23.850542,0.0 121.516865,23.849491,0.0 121.517115,23.848477,0.0 121.516801,23.848191,0.0 121.516435,23.847856,0.0 121.51533,23.846886,0.0 121.514861,23.845953,0.0 121.514772,23.844979,0.0 121.514981,23.844161,0.0 121.514215,23.84326,0.0 121.51213,23.840657,0.0 121.510684,23.839026,0.0 121.509416,23.839731,0.0 121.508149,23.840641,0.0 121.507727,23.840944,0.0 121.50645,23.839235,0.0 121.504875,23.837059,0.0 121.503598,23.835349,0.0 121.502448,23.833717,0.0 121.501258,23.832397,0.0 121.50072,23.830926,0.0 121.499561,23.831662,0.0 121.497956,23.832563,0.0 121.496562,23.833502,0.0 121.496137,23.833192,0.0 121.495074,23.831832,0.0 121.494264,23.830433,0.0 121.493115,23.828878,0.0 121.491922,23.826935,0.0 121.490858,23.825536,0.0 121.490106,23.82467,0.0 121.490569,23.823793,0.0 121.491592,23.823191,0.0 121.491791,23.823074,0.0 121.493498,23.822336,0.0 121.494547,23.822189,0.0 121.496605,23.821629,0.0 121.497343,23.821555,0.0 121.499149,23.821209,0.0 121.499653,23.821011,0.0 121.499944,23.820778,0.0 121.500234,23.820419,0.0 121.500464,23.819614,0.0 121.500829,23.818576,0.0 121.501097,23.817431,0.0 121.502112,23.813731,0.0 121.503549,23.80918,0.0 121.503934,23.809268,0.0 121.504494,23.809365,0.0 121.5047,23.809401,0.0 121.505177,23.809514,0.0 121.505777,23.809652,0.0 121.506153,23.809739,0.0 121.506569,23.809862,0.0 121.507189,23.810038,0.0 121.507766,23.810217,0.0 121.508146,23.81033,0.0 121.508149,23.810331,0.0 121.508329,23.810418,0.0 121.509372,23.810893,0.0 121.510322,23.811328,0.0 121.511019,23.811637,0.0 121.512776,23.812496,0.0 121.513645,23.812931,0.0 121.515324,23.813745,0.0 121.51685,23.814489,0.0 121.518279,23.815191,0.0 121.519262,23.815646,0.0 121.519555,23.815749,0.0 121.519911,23.815833,0.0 121.520304,23.815877,0.0 121.521024,23.815908,0.0 121.521381,23.815907,0.0 121.52178,23.815917,0.0 121.522051,23.815898,0.0 121.522365,23.815877,0.0 121.522771,23.815889,0.0 121.523118,23.815865,0.0 121.523446,23.815778,0.0 121.523509,23.815701,0.0 121.52355,23.815557,0.0 121.523508,23.817584,0.0 121.523573,23.819236,0.0 121.523677,23.821526,0.0 121.524438,23.823189,0.0 121.524475,23.82327,0.0 121.525036,23.825088,0.0 121.525123,23.827054,0.0 121.525291,23.829383,0.0 121.525375,23.830591,0.0 121.525622,23.833022,0.0 121.526266,23.83564,0.0 121.527305,23.838112,0.0 121.528899,23.8408,0.0 121.530333,23.843125,0.0 121.533118,23.846828,0.0 121.533152,23.846883,0.0 121.533954,23.848189,0.0 121.535349,23.85046,0.0 121.536633,23.852727,0.0</coordinates></LinearRing></outerBoundaryIs></Polygon><styleUrl>#spolygon-map</styleUrl></Placemark><Placemark><Polygon><outerBoundaryIs><LinearRing><coordinates>121.503118,23.856299,0.0 121.497264,23.848191,0.0 121.490981,23.839488,0.0 121.485098,23.831336,0.0 121.485252,23.830925,0.0 121.485716,23.830244,0.0 121.486781,23.829168,0.0 121.487728,23.827932,0.0 121.490106,23.82467,0.0 121.490858,23.825536,0.0 121.491922,23.826935,0.0 121.493115,23.828878,0.0 121.494264,23.830433,0.0 121.495074,23.831832,0.0 121.496137,23.833192,0.0 121.496562,23.833502,0.0 121.497956,23.832563,0.0 121.499561,23.831662,0.0 121.50072,23.830926,0.0 121.501258,23.832397,0.0 121.502448,23.833717,0.0 121.503598,23.835349,0.0 121.504875,23.837059,0.0 121.50645,23.839235,0.0 121.507727,23.840944,0.0 121.508149,23.840641,0.0 121.509416,23.839731,0.0 121.510684,23.839026,0.0 121.51213,23.840657,0.0 121.514215,23.84326,0.0 121.514981,23.844161,0.0 121.514772,23.844979,0.0 121.514861,23.845953,0.0 121.51533,23.846886,0.0 121.516435,23.847856,0.0 121.516801,23.848191,0.0 121.517115,23.848477,0.0 121.516865,23.849491,0.0 121.516785,23.850542,0.0 121.516873,23.851516,0.0 121.517628,23.852918,0.0 121.517708,23.853029,0.0 121.517155,23.85276,0.0 121.515336,23.852654,0.0 121.512647,23.852722,0.0 121.510084,23.853337,0.0 121.50815,23.854045,0.0 121.507668,23.854222,0.0 121.503118,23.856299,0.0</coordinates></LinearRing></outerBoundaryIs></Polygon><styleUrl>#spolygon-map</styleUrl></Placemark><Placemark><Polygon><outerBoundaryIs><LinearRing><coordinates>121.60732,23.939254,0.0 121.607179,23.938941,0.0 121.606993,23.938569,0.0 121.606897,23.938409,0.0 121.606646,23.937993,0.0 121.606434,23.937655,0.0 121.606147,23.937214,0.0 121.606,23.936982,0.0 121.605563,23.936209,0.0 121.60521,23.935556,0.0 121.604973,23.935166,0.0 121.604715,23.934605,0.0 121.604287,23.933598,0.0 121.604231,23.933479,0.0 121.604212,23.9334,0.0 121.6042,23.933465,0.0 121.604137,23.933303,0.0 121.604092,23.933077,0.0 121.603975,23.932559,0.0 121.603806,23.931878,0.0 121.603619,23.931208,0.0 121.60329,23.930191,0.0 121.603129,23.929718,0.0 121.602892,23.929172,0.0 121.602757,23.928945,0.0 121.602526,23.928503,0.0 121.602314,23.928132,0.0 121.602167,23.927893,0.0 121.601736,23.927021,0.0 121.601634,23.926811,0.0 121.601518,23.926561,0.0 121.601352,23.926266,0.0 121.601075,23.925617,0.0 121.600895,23.925209,0.0 121.600767,23.924905,0.0 121.60065,23.924524,0.0 121.600559,23.924145,0.0 121.60045,23.923888,0.0 121.600296,23.923616,0.0 121.600168,23.923442,0.0 121.600002,23.923188,0.0 121.59926,23.922247,0.0 121.598933,23.921905,0.0 121.598795,23.921743,0.0 121.598675,23.921559,0.0 121.598578,23.921336,0.0 121.598368,23.921014,0.0 121.598308,23.920736,0.0 121.598239,23.920542,0.0 121.598206,23.920448,0.0 121.597907,23.919918,0.0 121.597642,23.919441,0.0 121.597364,23.918756,0.0 121.597201,23.918341,0.0 121.597027,23.91794,0.0 121.59689,23.917665,0.0 121.598529,23.916359,0.0 121.599356,23.915303,0.0 121.599558,23.913964,0.0 121.599342,23.912339,0.0 121.598917,23.910428,0.0 121.598185,23.909571,0.0 121.597141,23.908714,0.0 121.596515,23.908239,0.0 121.596615,23.907378,0.0 121.597236,23.906801,0.0 121.597129,23.906132,0.0 121.596815,23.905751,0.0 121.596604,23.905083,0.0 121.595244,23.903175,0.0 121.594092,23.901554,0.0 121.593149,23.900028,0.0 121.593146,23.899359,0.0 121.592831,23.898786,0.0 121.592602,23.898189,0.0 121.591989,23.89659,0.0 121.590477,23.896087,0.0 121.589659,23.895591,0.0 121.589588,23.894717,0.0 121.590332,23.894152,0.0 121.590191,23.892904,0.0 121.589913,23.891593,0.0 121.589976,23.890469,0.0 121.589496,23.889409,0.0 121.588678,23.888788,0.0 121.588131,23.888103,0.0 121.58738,23.887232,0.0 121.587513,23.886607,0.0 121.588056,23.886355,0.0 121.588393,23.885979,0.0 121.58812,23.885606,0.0 121.587779,23.885295,0.0 121.587437,23.884797,0.0 121.587298,23.88411,0.0 121.587024,23.883487,0.0 121.586476,23.882427,0.0 121.586605,23.880991,0.0 121.586602,23.880241,0.0 121.586464,23.879805,0.0 121.585647,23.879246,0.0 121.584288,23.879126,0.0 121.583339,23.879442,0.0 121.583157,23.879473,0.0 121.582592,23.87957,0.0 121.581232,23.879075,0.0 121.579873,23.878955,0.0 121.579058,23.878834,0.0 121.578445,23.878399,0.0 121.577697,23.878214,0.0 121.577422,23.877404,0.0 121.577075,23.875844,0.0 121.577273,23.874407,0.0 121.577473,23.873744,0.0 121.577148,23.873189,0.0 121.576926,23.87281,0.0 121.576311,23.872063,0.0 121.576034,23.870752,0.0 121.576026,23.868879,0.0 121.575748,23.867381,0.0 121.57554,23.866445,0.0 121.575197,23.865822,0.0 121.574859,23.866136,0.0 121.574589,23.866387,0.0 121.574044,23.865952,0.0 121.573292,23.864955,0.0 121.573357,23.864218,0.0 121.572811,23.863471,0.0 121.572127,23.862474,0.0 121.571714,23.861164,0.0 121.571439,23.860354,0.0 121.570959,23.859356,0.0 121.570889,23.858732,0.0 121.571157,23.857982,0.0 121.571424,23.857044,0.0 121.5721,23.856292,0.0 121.57264,23.855479,0.0 121.573245,23.854228,0.0 121.573511,23.852978,0.0 121.573573,23.851604,0.0 121.573568,23.850355,0.0 121.574104,23.848917,0.0 121.574461,23.848188,0.0 121.574845,23.847403,0.0 121.575249,23.846652,0.0 121.575246,23.84609,0.0 121.574769,23.845592,0.0 121.574223,23.845032,0.0 121.573541,23.844285,0.0 121.57313,23.843413,0.0 121.572922,23.842477,0.0 121.572849,23.841415,0.0 121.57298,23.840353,0.0 121.572583,23.83977,0.0 121.571868,23.839191,0.0 121.571075,23.838829,0.0 121.570282,23.838468,0.0 121.569305,23.838244,0.0 121.568758,23.837372,0.0 121.568279,23.836499,0.0 121.567869,23.835876,0.0 121.567392,23.835316,0.0 121.566778,23.834631,0.0 121.565756,23.833823,0.0 121.564326,23.832767,0.0 121.56351,23.832395,0.0 121.562769,23.832216,0.0 121.561626,23.83173,0.0 121.562332,23.830344,0.0 121.562884,23.82976,0.0 121.56304,23.829249,0.0 121.563193,23.828084,0.0 121.563108,23.826701,0.0 121.563026,23.825901,0.0 121.563498,23.825389,0.0 121.563574,23.824734,0.0 121.563254,23.823934,0.0 121.562807,23.823187,0.0 121.562776,23.823135,0.0 121.562849,23.821752,0.0 121.562605,23.820151,0.0 121.563939,23.817598,0.0 121.564801,23.815629,0.0 121.565272,23.814681,0.0 121.567722,23.81409,0.0 121.568829,23.813722,0.0 121.569775,23.813063,0.0 121.57104,23.812694,0.0 121.571991,23.813128,0.0 121.573494,23.812977,0.0 121.575314,23.81297,0.0 121.577115,23.812352,0.0 121.577351,23.812592,0.0 121.577606,23.812772,0.0 121.577776,23.812859,0.0 121.578001,23.81308,0.0 121.578023,23.813102,0.0 121.578264,23.813431,0.0 121.578493,23.813769,0.0 121.578697,23.814091,0.0 121.578974,23.814451,0.0 121.579115,23.81462,0.0 121.579402,23.814901,0.0 121.579837,23.815265,0.0 121.580191,23.81562,0.0 121.580652,23.816029,0.0 121.580915,23.816351,0.0 121.580962,23.816448,0.0 121.581,23.816532,0.0 121.581096,23.816786,0.0 121.581299,23.81739,0.0 121.58135,23.817521,0.0 121.581581,23.817866,0.0 121.581807,23.818163,0.0 121.582113,23.818563,0.0 121.582253,23.818764,0.0 121.582429,23.819066,0.0 121.58247,23.819154,0.0 121.582506,23.819291,0.0 121.582618,23.819618,0.0 121.582809,23.820159,0.0 121.582885,23.820351,0.0 121.583065,23.820634,0.0 121.583151,23.820747,0.0 121.583808,23.823187,0.0 121.583922,23.823724,0.0 121.584039,23.824216,0.0 121.584086,23.824457,0.0 121.584143,23.82482,0.0 121.584173,23.825025,0.0 121.584251,23.825307,0.0 121.584264,23.825416,0.0 121.584317,23.825492,0.0 121.584338,23.825623,0.0 121.584329,23.825763,0.0 121.584282,23.825858,0.0 121.58427,23.825908,0.0 121.584267,23.826138,0.0 121.584281,23.826373,0.0 121.584258,23.826601,0.0 121.584244,23.82689,0.0 121.584254,23.827149,0.0 121.584298,23.827377,0.0 121.584379,23.827776,0.0 121.584484,23.828065,0.0 121.584668,23.82836,0.0 121.584731,23.828509,0.0 121.584793,23.828691,0.0 121.584842,23.828847,0.0 121.584961,23.828993,0.0 121.585125,23.829162,0.0 121.585247,23.829272,0.0 121.585311,23.829267,0.0 121.585463,23.829183,0.0 121.585705,23.829022,0.0 121.585711,23.828968,0.0 121.585758,23.828911,0.0 121.585831,23.828906,0.0 121.585886,23.828942,0.0 121.585913,23.829001,0.0 121.585907,23.829071,0.0 121.585861,23.829112,0.0 121.585813,23.829112,0.0 121.585767,23.829087,0.0 121.585364,23.829344,0.0 121.585358,23.829371,0.0 121.585674,23.829679,0.0 121.585688,23.829751,0.0 121.585841,23.829823,0.0 121.585882,23.829829,0.0 121.58598,23.829788,0.0 121.586079,23.829786,0.0 121.586254,23.829672,0.0 121.58677,23.829343,0.0 121.586535,23.829048,0.0 121.5866,23.829005,0.0 121.586838,23.829298,0.0 121.587353,23.828952,0.0 121.587434,23.828891,0.0 121.587283,23.828425,0.0 121.587299,23.828366,0.0 121.587334,23.82832,0.0 121.587452,23.828302,0.0 121.587499,23.828388,0.0 121.587543,23.828534,0.0 121.587659,23.828926,0.0 121.587647,23.828958,0.0 121.587529,23.82904,0.0 121.587292,23.829176,0.0 121.587089,23.829326,0.0 121.587065,23.829394,0.0 121.587073,23.829482,0.0 121.587103,23.829662,0.0 121.587247,23.829973,0.0 121.587403,23.830185,0.0 121.587459,23.830282,0.0 121.587597,23.830636,0.0 121.587739,23.830965,0.0 121.587847,23.831273,0.0 121.587874,23.831346,0.0 121.587933,23.831713,0.0 121.587985,23.832056,0.0 121.588048,23.832311,0.0 121.588085,23.832471,0.0 121.588152,23.832837,0.0 121.588191,23.83297,0.0 121.588258,23.833152,0.0 121.588361,23.83345,0.0 121.588395,23.833741,0.0 121.58846,23.834018,0.0 121.588555,23.834352,0.0 121.588667,23.834697,0.0 121.588797,23.835076,0.0 121.588841,23.835231,0.0 121.588897,23.835428,0.0 121.588991,23.835592,0.0 121.589074,23.83572,0.0 121.589132,23.836036,0.0 121.589188,23.836192,0.0 121.589217,23.836332,0.0 121.58929,23.836625,0.0 121.589338,23.836972,0.0 121.589397,23.837159,0.0 121.589529,23.837576,0.0 121.589626,23.837818,0.0 121.589824,23.838313,0.0 121.589932,23.838539,0.0 121.590082,23.838827,0.0 121.590255,23.839136,0.0 121.590351,23.839284,0.0 121.590681,23.839782,0.0 121.590873,23.840086,0.0 121.59114,23.840543,0.0 121.591307,23.840852,0.0 121.591406,23.841061,0.0 121.591509,23.841318,0.0 121.591635,23.841645,0.0 121.591821,23.84211,0.0 121.591874,23.842234,0.0 121.592108,23.842731,0.0 121.592302,23.843148,0.0 121.592488,23.843574,0.0 121.592589,23.843858,0.0 121.592779,23.844361,0.0 121.592955,23.844796,0.0 121.592993,23.844897,0.0 121.593047,23.845067,0.0 121.593178,23.845454,0.0 121.593315,23.84584,0.0 121.593372,23.846031,0.0 121.593495,23.846455,0.0 121.59354,23.846618,0.0 121.593637,23.846963,0.0 121.593765,23.847276,0.0 121.59384,23.847492,0.0 121.593922,23.847722,0.0 121.593978,23.84788,0.0 121.594086,23.848187,0.0 121.594108,23.848263,0.0 121.594323,23.848886,0.0 121.594407,23.849134,0.0 121.594537,23.849535,0.0 121.594608,23.849799,0.0 121.594716,23.850182,0.0 121.594892,23.850545,0.0 121.594927,23.850631,0.0 121.595015,23.850915,0.0 121.595049,23.850998,0.0 121.595234,23.851372,0.0 121.595312,23.851564,0.0 121.595481,23.851954,0.0 121.595522,23.852141,0.0 121.595597,23.852477,0.0 121.595719,23.852948,0.0 121.59586,23.853498,0.0 121.595912,23.853769,0.0 121.595946,23.853931,0.0 121.595995,23.854058,0.0 121.596051,23.854202,0.0 121.596154,23.854391,0.0 121.596198,23.854486,0.0 121.596289,23.854772,0.0 121.596487,23.855367,0.0 121.596675,23.855843,0.0 121.596716,23.855951,0.0 121.596793,23.856199,0.0 121.596813,23.856267,0.0 121.596869,23.856296,0.0 121.596932,23.856393,0.0 121.596966,23.856573,0.0 121.59703,23.856722,0.0 121.597096,23.857099,0.0 121.597133,23.85725,0.0 121.597251,23.857579,0.0 121.597263,23.857696,0.0 121.597308,23.857924,0.0 121.597343,23.858034,0.0 121.597445,23.858309,0.0 121.597478,23.858657,0.0 121.597533,23.859052,0.0 121.597612,23.85946,0.0 121.597638,23.85962,0.0 121.597682,23.859735,0.0 121.597771,23.859852,0.0 121.597793,23.859886,0.0 121.59793,23.860323,0.0 121.59798,23.860461,0.0 121.598005,23.860551,0.0 121.598051,23.860932,0.0 121.598053,23.861384,0.0 121.598072,23.861788,0.0 121.598108,23.862291,0.0 121.598161,23.86265,0.0 121.598181,23.86274,0.0 121.598299,23.86313,0.0 121.598426,23.863477,0.0 121.598624,23.863926,0.0 121.598756,23.864277,0.0 121.598874,23.864645,0.0 121.598998,23.865046,0.0 121.599055,23.865342,0.0 121.599107,23.86561,0.0 121.599131,23.865978,0.0 121.599152,23.866396,0.0 121.599163,23.866689,0.0 121.599179,23.867075,0.0 121.599188,23.867389,0.0 121.599221,23.8677,0.0 121.599306,23.867912,0.0 121.59946,23.868128,0.0 121.599533,23.868247,0.0 121.599581,23.868342,0.0 121.599703,23.868509,0.0 121.599818,23.868729,0.0 121.599906,23.868995,0.0 121.599948,23.869162,0.0 121.599987,23.869338,0.0 121.600054,23.869683,0.0 121.600097,23.869992,0.0 121.600111,23.870108,0.0 121.600198,23.870629,0.0 121.600256,23.871089,0.0 121.600271,23.871247,0.0 121.600353,23.871601,0.0 121.600465,23.87195,0.0 121.600576,23.872223,0.0 121.600682,23.872686,0.0 121.600652,23.873049,0.0 121.600655,23.873187,0.0 121.600655,23.873188,0.0 121.600699,23.873415,0.0 121.600806,23.873798,0.0 121.600932,23.874179,0.0 121.601039,23.874443,0.0 121.601127,23.874594,0.0 121.601165,23.874738,0.0 121.601175,23.874912,0.0 121.601171,23.875015,0.0 121.601098,23.875171,0.0 121.601122,23.87549,0.0 121.601152,23.875928,0.0 121.601199,23.876121,0.0 121.601222,23.876223,0.0 121.60132,23.876442,0.0 121.601487,23.876863,0.0 121.601553,23.877104,0.0 121.601609,23.877237,0.0 121.601715,23.877393,0.0 121.601762,23.877485,0.0 121.601813,23.877616,0.0 121.601836,23.877697,0.0 121.601865,23.877941,0.0 121.601877,23.878523,0.0 121.601873,23.878737,0.0 121.601911,23.878931,0.0 121.601954,23.879261,0.0 121.601955,23.879446,0.0 121.601928,23.879767,0.0 121.601924,23.879814,0.0 121.601924,23.87983,0.0 121.601917,23.880171,0.0 121.601938,23.880719,0.0 121.601998,23.880913,0.0 121.602068,23.881161,0.0 121.602162,23.881368,0.0 121.602218,23.881583,0.0 121.602279,23.881786,0.0 121.602404,23.882063,0.0 121.602585,23.882407,0.0 121.602688,23.882707,0.0 121.602753,23.882917,0.0 121.602795,23.883061,0.0 121.602773,23.883319,0.0 121.602715,23.883655,0.0 121.602722,23.884043,0.0 121.602737,23.884276,0.0 121.602788,23.884508,0.0 121.602849,23.884625,0.0 121.602895,23.884668,0.0 121.602937,23.884772,0.0 121.60309,23.885211,0.0 121.603161,23.885615,0.0 121.603232,23.885901,0.0 121.603292,23.886046,0.0 121.603403,23.886226,0.0 121.603413,23.886269,0.0 121.603414,23.886605,0.0 121.603383,23.886775,0.0 121.603389,23.88698,0.0 121.60339,23.887348,0.0 121.603433,23.887634,0.0 121.603452,23.887871,0.0 121.60354,23.888018,0.0 121.603583,23.888259,0.0 121.603602,23.888376,0.0 121.60359,23.888693,0.0 121.603638,23.889196,0.0 121.603703,23.889487,0.0 121.603746,23.889717,0.0 121.603839,23.889978,0.0 121.603905,23.89024,0.0 121.603957,23.89058,0.0 121.603999,23.890802,0.0 121.604028,23.891025,0.0 121.604145,23.891386,0.0 121.604159,23.891496,0.0 121.604174,23.891803,0.0 121.604218,23.892273,0.0 121.604246,23.892408,0.0 121.604293,23.892631,0.0 121.604323,23.892992,0.0 121.604333,23.89318,0.0 121.604361,23.893313,0.0 121.604459,23.893694,0.0 121.604488,23.894039,0.0 121.604532,23.894549,0.0 121.60452,23.894802,0.0 121.604494,23.895211,0.0 121.604459,23.895549,0.0 121.60448,23.895739,0.0 121.604543,23.896055,0.0 121.604552,23.896368,0.0 121.604541,23.896425,0.0 121.604522,23.896468,0.0 121.604522,23.896581,0.0 121.604528,23.896989,0.0 121.604545,23.897274,0.0 121.604557,23.897413,0.0 121.604601,23.897729,0.0 121.604629,23.897781,0.0 121.604691,23.897905,0.0 121.604758,23.898015,0.0 121.604807,23.898187,0.0 121.604807,23.898188,0.0 121.604815,23.898363,0.0 121.604818,23.898512,0.0 121.604873,23.898825,0.0 121.604927,23.899392,0.0 121.604996,23.900055,0.0 121.604975,23.900238,0.0 121.604818,23.900884,0.0 121.60467,23.901332,0.0 121.60461,23.901729,0.0 121.604559,23.902233,0.0 121.604543,23.902635,0.0 121.604517,23.902739,0.0 121.604411,23.902897,0.0 121.604394,23.902958,0.0 121.604395,23.903186,0.0 121.604219,23.903426,0.0 121.60418,23.903487,0.0 121.604144,23.903517,0.0 121.604032,23.903611,0.0 121.603992,23.903924,0.0 121.603994,23.904261,0.0 121.603945,23.904444,0.0 121.603956,23.904909,0.0 121.60399,23.905139,0.0 121.603949,23.905245,0.0 121.603999,23.905414,0.0 121.604167,23.905727,0.0 121.604178,23.906323,0.0 121.604121,23.906714,0.0 121.604123,23.907127,0.0 121.604201,23.907725,0.0 121.604168,23.907829,0.0 121.604136,23.908197,0.0 121.604189,23.908784,0.0 121.604156,23.908883,0.0 121.604315,23.909119,0.0 121.604333,23.909266,0.0 121.604175,23.90935,0.0 121.604243,23.90968,0.0 121.604654,23.910342,0.0 121.604613,23.910473,0.0 121.604664,23.910793,0.0 121.604764,23.910908,0.0 121.605092,23.91171,0.0 121.605204,23.912658,0.0 121.605233,23.913542,0.0 121.60518,23.914561,0.0 121.605222,23.91475,0.0 121.605173,23.914843,0.0 121.605182,23.914958,0.0 121.605257,23.915003,0.0 121.605358,23.915309,0.0 121.605343,23.915675,0.0 121.605327,23.915835,0.0 121.605402,23.915874,0.0 121.605528,23.916042,0.0 121.60552,23.91618,0.0 121.60562,23.916347,0.0 121.605688,23.916615,0.0 121.605806,23.916852,0.0 121.60609,23.917155,0.0 121.606158,23.917446,0.0 121.606276,23.917744,0.0 121.606285,23.91792,0.0 121.606344,23.918064,0.0 121.60633,23.918346,0.0 121.606346,23.918653,0.0 121.606515,23.919171,0.0 121.606549,23.91937,0.0 121.606641,23.91937,0.0 121.606724,23.919484,0.0 121.606733,23.919615,0.0 121.606792,23.919798,0.0 121.606968,23.92005,0.0 121.60701,23.920233,0.0 121.607135,23.920287,0.0 121.60752,23.92075,0.0 121.607689,23.921201,0.0 121.607932,23.92159,0.0 121.608075,23.92191,0.0 121.608112,23.922912,0.0 121.608158,23.922996,0.0 121.608262,23.923187,0.0 121.608353,23.923354,0.0 121.608445,23.923459,0.0 121.608461,23.923572,0.0 121.608472,23.923606,0.0 121.608519,23.9238,0.0 121.60855,23.924046,0.0 121.608536,23.924265,0.0 121.608506,23.924441,0.0 121.608483,23.924936,0.0 121.608471,23.925518,0.0 121.608483,23.925726,0.0 121.608586,23.9261,0.0 121.608655,23.926305,0.0 121.608727,23.926497,0.0 121.60872,23.926601,0.0 121.608758,23.926731,0.0 121.608847,23.927097,0.0 121.608881,23.927275,0.0 121.608912,23.927471,0.0 121.608992,23.927663,0.0 121.609057,23.927834,0.0 121.609107,23.928148,0.0 121.609139,23.928495,0.0 121.609178,23.928728,0.0 121.609289,23.929251,0.0 121.609328,23.929515,0.0 121.609398,23.92986,0.0 121.609474,23.930054,0.0 121.609584,23.930254,0.0 121.60964,23.930342,0.0 121.609693,23.930392,0.0 121.609744,23.930459,0.0 121.609797,23.930567,0.0 121.609959,23.930743,0.0 121.610178,23.930961,0.0 121.610322,23.931172,0.0 121.610353,23.931224,0.0 121.610383,23.931305,0.0 121.610501,23.931474,0.0 121.610524,23.931553,0.0 121.610603,23.931702,0.0 121.610702,23.931821,0.0 121.610751,23.931945,0.0 121.610839,23.932127,0.0 121.610926,23.932269,0.0 121.611116,23.932641,0.0 121.611161,23.932772,0.0 121.611196,23.932916,0.0 121.61123,23.932995,0.0 121.611246,23.933157,0.0 121.611273,23.933295,0.0 121.611327,23.933638,0.0 121.611317,23.933798,0.0 121.611303,23.934026,0.0 121.61125,23.934146,0.0 121.611214,23.93425,0.0 121.61121,23.93432,0.0 121.611203,23.93451,0.0 121.611177,23.934582,0.0 121.611144,23.934799,0.0 121.611122,23.934876,0.0 121.611096,23.934928,0.0 121.611089,23.935023,0.0 121.611074,23.935086,0.0 121.611071,23.935228,0.0 121.611053,23.935314,0.0 121.611038,23.935366,0.0 121.611038,23.935445,0.0 121.611024,23.935538,0.0 121.610979,23.935628,0.0 121.610953,23.9357,0.0 121.61095,23.935811,0.0 121.610947,23.936021,0.0 121.610892,23.936317,0.0 121.610812,23.936823,0.0 121.610748,23.937033,0.0 121.610722,23.937069,0.0 121.610707,23.93716,0.0 121.610667,23.937309,0.0 121.610607,23.937429,0.0 121.610504,23.937847,0.0 121.61033,23.938445,0.0 121.610297,23.93859,0.0 121.610252,23.938798,0.0 121.610216,23.939001,0.0 121.610184,23.939399,0.0 121.610125,23.93985,0.0 121.610134,23.940126,0.0 121.610117,23.9403,0.0 121.610061,23.940508,0.0 121.60991,23.940946,0.0 121.609727,23.941527,0.0 121.609506,23.942146,0.0 121.609369,23.942657,0.0 121.609232,23.943118,0.0 121.609095,23.942834,0.0 121.608723,23.9421,0.0 121.60843,23.941561,0.0 121.60816,23.941059,0.0 121.608158,23.941054,0.0 121.607718,23.940088,0.0 121.607551,23.939721,0.0 121.60732,23.939254,0.0</coordinates></LinearRing></outerBoundaryIs></Polygon><styleUrl>#spolygon-map</styleUrl></Placemark></Document>
</kml>
