<?xml version="1.0" encoding="UTF-8"?>
<kml xmlns="http://www.opengis.net/kml/2.2">
	<Document>
		<name>高雄市橋頭區</name>
		<Style id="spolygon">
			<LabelStyle>
				<scale>0.0</scale>
			</LabelStyle>
			<LineStyle>
				<color>330030ff</color>
				<width>0</width>
			</LineStyle>
			<PolyStyle>
				<color>330030ff</color>
			</PolyStyle>
		</Style>
		<StyleMap id="spolygon-map">
			<Pair>
				<key>normal</key>
				<styleUrl>#spolygon</styleUrl>
			</Pair>
		</StyleMap>
	<Placemark><Polygon><outerBoundaryIs><LinearRing><coordinates>120.313257,22.75903,0.0 120.314106,22.759404,0.0 120.314851,22.759741,0.0 120.315332,22.75994,0.0 120.315917,22.760191,0.0 120.316374,22.760457,0.0 120.316451,22.760502,0.0 120.315952,22.761392,0.0 120.315476,22.761855,0.0 120.315271,22.761931,0.0 120.314565,22.76205,0.0 120.313901,22.762133,0.0 120.312978,22.762379,0.0 120.311985,22.762885,0.0 120.310556,22.763617,0.0 120.310174,22.763848,0.0 120.309974,22.764041,0.0 120.309655,22.764598,0.0 120.309523,22.764972,0.0 120.309199,22.765887,0.0 120.308931,22.766514,0.0 120.30869,22.76684,0.0 120.308405,22.767078,0.0 120.307885,22.767383,0.0 120.30745,22.767516,0.0 120.305525,22.767551,0.0 120.305502,22.767548,0.0 120.305851,22.76692,0.0 120.305855,22.766913,0.0 120.30609,22.766494,0.0 120.3065,22.765744,0.0 120.306977,22.764875,0.0 120.307171,22.764519,0.0 120.30739,22.764121,0.0 120.30763,22.763681,0.0 120.30765,22.763645,0.0 120.306707,22.763154,0.0 120.306609,22.763104,0.0 120.305969,22.762694,0.0 120.305877,22.762635,0.0 120.305478,22.762392,0.0 120.305418,22.762349,0.0 120.305183,22.762187,0.0 120.304962,22.762017,0.0 120.304917,22.761963,0.0 120.304877,22.761917,0.0 120.304784,22.761806,0.0 120.305531,22.7605,0.0 120.305793,22.760043,0.0 120.306202,22.759327,0.0 120.306635,22.75857,0.0 120.306367,22.758486,0.0 120.306236,22.758444,0.0 120.30623,22.758442,0.0 120.305769,22.75844,0.0 120.305362,22.758438,0.0 120.304999,22.758437,0.0 120.304971,22.758437,0.0 120.304974,22.758421,0.0 120.305013,22.758222,0.0 120.305107,22.75774,0.0 120.305223,22.757146,0.0 120.305342,22.756533,0.0 120.3054,22.756366,0.0 120.305536,22.756039,0.0 120.305809,22.75562,0.0 120.307125,22.75585,0.0 120.307663,22.755949,0.0 120.308407,22.756083,0.0 120.309216,22.756215,0.0 120.309664,22.75629,0.0 120.309777,22.756094,0.0 120.309916,22.755864,0.0 120.310051,22.755632,0.0 120.310228,22.755328,0.0 120.310772,22.755782,0.0 120.310991,22.755968,0.0 120.310873,22.7562,0.0 120.311016,22.756259,0.0 120.311113,22.756318,0.0 120.311202,22.75638,0.0 120.311237,22.756436,0.0 120.311235,22.756509,0.0 120.311165,22.7567,0.0 120.311542,22.756901,0.0 120.311548,22.756903,0.0 120.311591,22.756844,0.0 120.311836,22.75699,0.0 120.311874,22.757006,0.0 120.311886,22.757071,0.0 120.311978,22.757146,0.0 120.312193,22.757287,0.0 120.312066,22.757546,0.0 120.312007,22.757666,0.0 120.312274,22.757854,0.0 120.312317,22.757909,0.0 120.312305,22.757974,0.0 120.312142,22.758303,0.0 120.311941,22.758677,0.0 120.311924,22.758812,0.0 120.311936,22.758842,0.0 120.312104,22.758915,0.0 120.312939,22.758907,0.0 120.313257,22.75903,0.0</coordinates></LinearRing></outerBoundaryIs></Polygon><styleUrl>#spolygon-map</styleUrl></Placemark><Placemark><Polygon><outerBoundaryIs><LinearRing><coordinates>120.317265,22.759169,0.0 120.317037,22.759491,0.0 120.316735,22.759966,0.0 120.316451,22.760502,0.0 120.316374,22.760457,0.0 120.315917,22.760191,0.0 120.315332,22.75994,0.0 120.314851,22.759741,0.0 120.314106,22.759404,0.0 120.313257,22.75903,0.0 120.312939,22.758907,0.0 120.312104,22.758915,0.0 120.311936,22.758842,0.0 120.311924,22.758812,0.0 120.311941,22.758677,0.0 120.312142,22.758303,0.0 120.312305,22.757974,0.0 120.312317,22.757909,0.0 120.312274,22.757854,0.0 120.312007,22.757666,0.0 120.312066,22.757546,0.0 120.312193,22.757287,0.0 120.311978,22.757146,0.0 120.311886,22.757071,0.0 120.311874,22.757006,0.0 120.311836,22.75699,0.0 120.311591,22.756844,0.0 120.311548,22.756903,0.0 120.311542,22.756901,0.0 120.311165,22.7567,0.0 120.311235,22.756509,0.0 120.311237,22.756436,0.0 120.311202,22.75638,0.0 120.311113,22.756318,0.0 120.311016,22.756259,0.0 120.310873,22.7562,0.0 120.310991,22.755968,0.0 120.3112,22.75556,0.0 120.311244,22.755479,0.0 120.311709,22.75463,0.0 120.311962,22.754171,0.0 120.312343,22.753466,0.0 120.312606,22.752941,0.0 120.312777,22.752625,0.0 120.313016,22.752179,0.0 120.313042,22.752132,0.0 120.313284,22.751688,0.0 120.313356,22.751558,0.0 120.313597,22.751119,0.0 120.313798,22.750731,0.0 120.314156,22.749999,0.0 120.314216,22.749875,0.0 120.314747,22.748916,0.0 120.315041,22.748375,0.0 120.315386,22.747708,0.0 120.315893,22.746726,0.0 120.316303,22.745482,0.0 120.316599,22.744453,0.0 120.31686,22.743578,0.0 120.317006,22.743033,0.0 120.317718,22.740591,0.0 120.318412,22.73821,0.0 120.318453,22.738068,0.0 120.318884,22.736602,0.0 120.319123,22.735777,0.0 120.319187,22.735556,0.0 120.319346,22.735005,0.0 120.319404,22.734803,0.0 120.319463,22.734792,0.0 120.319632,22.734749,0.0 120.319801,22.734705,0.0 120.320071,22.734636,0.0 120.320153,22.734625,0.0 120.32021,22.734623,0.0 120.320244,22.734639,0.0 120.320253,22.734682,0.0 120.320269,22.734727,0.0 120.320297,22.734809,0.0 120.320344,22.734886,0.0 120.320407,22.734904,0.0 120.320642,22.734812,0.0 120.320818,22.734763,0.0 120.32086,22.734755,0.0 120.321031,22.734715,0.0 120.3214,22.734592,0.0 120.321598,22.734548,0.0 120.321705,22.734544,0.0 120.321834,22.734578,0.0 120.321996,22.734606,0.0 120.322002,22.734608,0.0 120.322067,22.734633,0.0 120.322122,22.73462,0.0 120.322207,22.734582,0.0 120.322233,22.734546,0.0 120.32224,22.734408,0.0 120.322226,22.734207,0.0 120.322221,22.733954,0.0 120.322233,22.733907,0.0 120.322259,22.733882,0.0 120.32233,22.733887,0.0 120.322388,22.733926,0.0 120.322538,22.734051,0.0 120.322724,22.734182,0.0 120.323039,22.734398,0.0 120.32319,22.734557,0.0 120.323339,22.734747,0.0 120.323568,22.735001,0.0 120.323765,22.735291,0.0 120.323819,22.735392,0.0 120.324041,22.735646,0.0 120.324172,22.735818,0.0 120.324372,22.736013,0.0 120.324594,22.736154,0.0 120.324669,22.736193,0.0 120.324837,22.736173,0.0 120.325012,22.736115,0.0 120.325321,22.735984,0.0 120.325618,22.736095,0.0 120.325455,22.736318,0.0 120.325231,22.736613,0.0 120.324847,22.737115,0.0 120.324525,22.737547,0.0 120.324248,22.7379,0.0 120.323936,22.738296,0.0 120.323474,22.738902,0.0 120.322997,22.739561,0.0 120.323033,22.739588,0.0 120.323264,22.73977,0.0 120.323567,22.740022,0.0 120.323872,22.740278,0.0 120.324222,22.740582,0.0 120.324411,22.740784,0.0 120.324788,22.740856,0.0 120.325046,22.741046,0.0 120.325374,22.741314,0.0 120.325634,22.741527,0.0 120.325808,22.741688,0.0 120.325559,22.741915,0.0 120.325332,22.742133,0.0 120.325046,22.742439,0.0 120.324759,22.742727,0.0 120.324233,22.743244,0.0 120.323928,22.74355,0.0 120.323644,22.743829,0.0 120.323336,22.744134,0.0 120.323254,22.744227,0.0 120.323124,22.744375,0.0 120.32318,22.744493,0.0 120.323269,22.744617,0.0 120.323309,22.744665,0.0 120.323579,22.744971,0.0 120.323694,22.745131,0.0 120.323815,22.745292,0.0 120.323944,22.745383,0.0 120.324089,22.745573,0.0 120.324118,22.745607,0.0 120.324346,22.745875,0.0 120.324488,22.746049,0.0 120.324748,22.74636,0.0 120.325077,22.746686,0.0 120.3254,22.746997,0.0 120.325655,22.747246,0.0 120.326056,22.747627,0.0 120.326515,22.748065,0.0 120.32661,22.748167,0.0 120.32652,22.748202,0.0 120.32621,22.748305,0.0 120.326124,22.74835,0.0 120.325978,22.748388,0.0 120.325886,22.748432,0.0 120.325833,22.748489,0.0 120.32577,22.748592,0.0 120.32568,22.748698,0.0 120.325613,22.748797,0.0 120.325529,22.748928,0.0 120.325483,22.749033,0.0 120.325412,22.749146,0.0 120.325337,22.749295,0.0 120.325272,22.74945,0.0 120.325242,22.749561,0.0 120.325253,22.749692,0.0 120.325281,22.749778,0.0 120.325325,22.749875,0.0 120.325388,22.750002,0.0 120.325457,22.750133,0.0 120.325525,22.750253,0.0 120.325603,22.7504,0.0 120.325675,22.750639,0.0 120.325745,22.750863,0.0 120.325811,22.751055,0.0 120.325854,22.751275,0.0 120.325914,22.75148,0.0 120.325982,22.751756,0.0 120.326032,22.752043,0.0 120.32605,22.752188,0.0 120.326053,22.752332,0.0 120.326029,22.752537,0.0 120.325975,22.752661,0.0 120.325923,22.752756,0.0 120.325867,22.752832,0.0 120.325765,22.752925,0.0 120.325685,22.75299,0.0 120.325582,22.753075,0.0 120.325491,22.753169,0.0 120.325367,22.753216,0.0 120.32525,22.753257,0.0 120.325154,22.753297,0.0 120.325065,22.753348,0.0 120.324976,22.753407,0.0 120.324915,22.753481,0.0 120.324837,22.753596,0.0 120.324819,22.753686,0.0 120.32481,22.753749,0.0 120.324804,22.753794,0.0 120.324802,22.753916,0.0 120.324793,22.754045,0.0 120.324815,22.754167,0.0 120.324835,22.754408,0.0 120.324828,22.754521,0.0 120.324827,22.754623,0.0 120.324846,22.754752,0.0 120.324895,22.755066,0.0 120.324917,22.755181,0.0 120.324919,22.755235,0.0 120.324712,22.7553,0.0 120.32424,22.755408,0.0 120.324199,22.755469,0.0 120.324201,22.755582,0.0 120.324308,22.75607,0.0 120.324414,22.75647,0.0 120.324504,22.757234,0.0 120.324561,22.757886,0.0 120.324532,22.758125,0.0 120.324417,22.758452,0.0 120.324133,22.758693,0.0 120.323818,22.758843,0.0 120.323428,22.7589,0.0 120.323132,22.758826,0.0 120.322088,22.758201,0.0 120.321153,22.757802,0.0 120.32098,22.757729,0.0 120.320952,22.757717,0.0 120.320395,22.757476,0.0 120.319777,22.757367,0.0 120.319532,22.75742,0.0 120.319016,22.75759,0.0 120.318795,22.757742,0.0 120.318531,22.757937,0.0 120.317663,22.758744,0.0 120.317265,22.759169,0.0</coordinates></LinearRing></outerBoundaryIs></Polygon><styleUrl>#spolygon-map</styleUrl></Placemark><Placemark><Polygon><outerBoundaryIs><LinearRing><coordinates>120.310051,22.755632,0.0 120.309916,22.755864,0.0 120.309777,22.756094,0.0 120.309664,22.75629,0.0 120.309216,22.756215,0.0 120.308407,22.756083,0.0 120.307663,22.755949,0.0 120.307125,22.75585,0.0 120.305809,22.75562,0.0 120.306229,22.755051,0.0 120.306408,22.754831,0.0 120.306622,22.754567,0.0 120.306931,22.754212,0.0 120.306985,22.754149,0.0 120.307292,22.753785,0.0 120.30737,22.753692,0.0 120.307728,22.753242,0.0 120.307956,22.752961,0.0 120.308172,22.752696,0.0 120.308386,22.752433,0.0 120.308606,22.752151,0.0 120.308635,22.752113,0.0 120.308647,22.752097,0.0 120.309045,22.751591,0.0 120.309216,22.751357,0.0 120.309602,22.750828,0.0 120.309738,22.750878,0.0 120.309833,22.750874,0.0 120.309895,22.750852,0.0 120.310035,22.750728,0.0 120.310135,22.750652,0.0 120.310168,22.750627,0.0 120.310385,22.750439,0.0 120.310514,22.75034,0.0 120.310613,22.750277,0.0 120.310644,22.750257,0.0 120.310836,22.750147,0.0 120.310845,22.750143,0.0 120.311118,22.749997,0.0 120.311225,22.749939,0.0 120.311242,22.74984,0.0 120.311299,22.749736,0.0 120.311377,22.749689,0.0 120.311677,22.749471,0.0 120.311788,22.749404,0.0 120.31243,22.749021,0.0 120.313052,22.749371,0.0 120.314008,22.749914,0.0 120.314156,22.749999,0.0 120.313798,22.750731,0.0 120.313597,22.751119,0.0 120.313356,22.751558,0.0 120.313284,22.751688,0.0 120.313042,22.752132,0.0 120.313016,22.752179,0.0 120.312777,22.752625,0.0 120.312606,22.752941,0.0 120.312343,22.753466,0.0 120.311962,22.754171,0.0 120.311709,22.75463,0.0 120.311244,22.755479,0.0 120.3112,22.75556,0.0 120.310991,22.755968,0.0 120.310772,22.755782,0.0 120.310228,22.755328,0.0 120.310051,22.755632,0.0</coordinates></LinearRing></outerBoundaryIs></Polygon><styleUrl>#spolygon-map</styleUrl></Placemark><Placemark><Polygon><outerBoundaryIs><LinearRing><coordinates>120.309216,22.751357,0.0 120.309045,22.751591,0.0 120.308795,22.751326,0.0 120.308657,22.751237,0.0 120.308604,22.751203,0.0 120.308107,22.750892,0.0 120.30799,22.75083,0.0 120.307613,22.750628,0.0 120.307515,22.750532,0.0 120.307313,22.750392,0.0 120.307125,22.75026,0.0 120.306802,22.749985,0.0 120.306659,22.749867,0.0 120.305992,22.749289,0.0 120.30572,22.749037,0.0 120.305395,22.748717,0.0 120.305044,22.748361,0.0 120.304873,22.748187,0.0 120.304266,22.747574,0.0 120.303712,22.747059,0.0 120.303274,22.746671,0.0 120.30313,22.746556,0.0 120.302912,22.746354,0.0 120.3031,22.746208,0.0 120.303281,22.746073,0.0 120.303691,22.745757,0.0 120.303896,22.745593,0.0 120.303955,22.745541,0.0 120.304069,22.745456,0.0 120.304147,22.745391,0.0 120.304152,22.74535,0.0 120.304147,22.745285,0.0 120.304111,22.745232,0.0 120.30394,22.745026,0.0 120.303943,22.744961,0.0 120.303954,22.744941,0.0 120.304015,22.744864,0.0 120.304233,22.744745,0.0 120.304412,22.744647,0.0 120.304567,22.74457,0.0 120.305334,22.74419,0.0 120.305403,22.744281,0.0 120.305582,22.744525,0.0 120.30594,22.744992,0.0 120.306087,22.745187,0.0 120.306288,22.745456,0.0 120.30638,22.745572,0.0 120.306531,22.745733,0.0 120.306649,22.745833,0.0 120.306901,22.746053,0.0 120.307108,22.746167,0.0 120.308078,22.746692,0.0 120.308208,22.746763,0.0 120.308898,22.747116,0.0 120.309459,22.747421,0.0 120.310033,22.747733,0.0 120.310276,22.747865,0.0 120.310624,22.748053,0.0 120.311018,22.748267,0.0 120.311309,22.748388,0.0 120.3118,22.748666,0.0 120.31243,22.749021,0.0 120.311788,22.749404,0.0 120.311677,22.749471,0.0 120.311377,22.749689,0.0 120.311299,22.749736,0.0 120.311242,22.74984,0.0 120.311225,22.749939,0.0 120.311118,22.749997,0.0 120.310845,22.750143,0.0 120.310836,22.750147,0.0 120.310644,22.750257,0.0 120.310613,22.750277,0.0 120.310514,22.75034,0.0 120.310385,22.750439,0.0 120.310168,22.750627,0.0 120.310135,22.750652,0.0 120.310035,22.750728,0.0 120.309895,22.750852,0.0 120.309833,22.750874,0.0 120.309738,22.750878,0.0 120.309602,22.750828,0.0 120.309216,22.751357,0.0</coordinates></LinearRing></outerBoundaryIs></Polygon><styleUrl>#spolygon-map</styleUrl></Placemark><Placemark><Polygon><outerBoundaryIs><LinearRing><coordinates>120.27762,22.767985,0.0 120.277301,22.768071,0.0 120.27646,22.7683,0.0 120.276194,22.768276,0.0 120.275962,22.768189,0.0 120.275739,22.768028,0.0 120.275351,22.767649,0.0 120.274879,22.767268,0.0 120.2748,22.767182,0.0 120.274632,22.766998,0.0 120.274417,22.766719,0.0 120.274344,22.76652,0.0 120.27432,22.766326,0.0 120.274371,22.766143,0.0 120.274413,22.76602,0.0 120.274538,22.765828,0.0 120.27468,22.765682,0.0 120.274906,22.765421,0.0 120.275015,22.765275,0.0 120.275048,22.765128,0.0 120.275049,22.765029,0.0 120.275008,22.764882,0.0 120.274926,22.764744,0.0 120.274687,22.764443,0.0 120.274349,22.76401,0.0 120.274152,22.763632,0.0 120.274094,22.763501,0.0 120.274087,22.763354,0.0 120.274104,22.763178,0.0 120.274155,22.763038,0.0 120.274247,22.76284,0.0 120.274331,22.762678,0.0 120.274456,22.762554,0.0 120.274665,22.762379,0.0 120.274939,22.762173,0.0 120.275107,22.762042,0.0 120.275374,22.761651,0.0 120.275474,22.761475,0.0 120.275559,22.761221,0.0 120.275703,22.760643,0.0 120.275924,22.759644,0.0 120.276028,22.758936,0.0 120.276063,22.758575,0.0 120.276063,22.758412,0.0 120.275987,22.75715,0.0 120.275956,22.756804,0.0 120.276301,22.756763,0.0 120.276412,22.75675,0.0 120.276952,22.756669,0.0 120.277481,22.756597,0.0 120.278044,22.756525,0.0 120.27823,22.756503,0.0 120.278491,22.756486,0.0 120.278579,22.756337,0.0 120.278575,22.756315,0.0 120.278568,22.75629,0.0 120.278546,22.756014,0.0 120.278545,22.755278,0.0 120.278538,22.755233,0.0 120.278529,22.755226,0.0 120.278508,22.755204,0.0 120.278501,22.755179,0.0 120.278374,22.75474,0.0 120.278308,22.754483,0.0 120.278291,22.754435,0.0 120.27835,22.754417,0.0 120.278389,22.754404,0.0 120.278572,22.75431,0.0 120.278713,22.754234,0.0 120.278992,22.754095,0.0 120.279025,22.75407,0.0 120.279062,22.754039,0.0 120.279133,22.753938,0.0 120.279436,22.753467,0.0 120.279652,22.753202,0.0 120.279821,22.753033,0.0 120.279936,22.752941,0.0 120.280102,22.752838,0.0 120.280167,22.752802,0.0 120.280498,22.752677,0.0 120.2809,22.752539,0.0 120.281559,22.752296,0.0 120.282036,22.752097,0.0 120.282176,22.752037,0.0 120.282377,22.751921,0.0 120.28255,22.751835,0.0 120.28264,22.751804,0.0 120.282759,22.751782,0.0 120.282808,22.751778,0.0 120.282862,22.751762,0.0 120.282932,22.75174,0.0 120.283045,22.751695,0.0 120.283179,22.751637,0.0 120.283469,22.751512,0.0 120.283696,22.751421,0.0 120.283772,22.751414,0.0 120.283865,22.751417,0.0 120.283922,22.751431,0.0 120.284255,22.751423,0.0 120.284322,22.751419,0.0 120.284474,22.751408,0.0 120.284657,22.751418,0.0 120.284761,22.751437,0.0 120.284837,22.751471,0.0 120.284893,22.751514,0.0 120.284982,22.751632,0.0 120.285025,22.751731,0.0 120.285081,22.75184,0.0 120.28515,22.752016,0.0 120.285203,22.752136,0.0 120.285226,22.752204,0.0 120.285242,22.752245,0.0 120.285262,22.752263,0.0 120.285295,22.752286,0.0 120.285628,22.752371,0.0 120.285744,22.752401,0.0 120.285801,22.752408,0.0 120.285927,22.752413,0.0 120.285973,22.752408,0.0 120.286027,22.752415,0.0 120.28616,22.752427,0.0 120.286466,22.752476,0.0 120.286572,22.752508,0.0 120.286847,22.752683,0.0 120.286934,22.752729,0.0 120.287067,22.752772,0.0 120.28712,22.752788,0.0 120.287233,22.752823,0.0 120.287418,22.752875,0.0 120.287498,22.752903,0.0 120.2875,22.752928,0.0 120.287507,22.752993,0.0 120.287468,22.753273,0.0 120.287433,22.753557,0.0 120.287423,22.75363,0.0 120.287404,22.753688,0.0 120.287367,22.753758,0.0 120.287286,22.753891,0.0 120.287185,22.754039,0.0 120.287111,22.754154,0.0 120.287073,22.754238,0.0 120.287063,22.754258,0.0 120.287056,22.75435,0.0 120.28707,22.754475,0.0 120.287102,22.754649,0.0 120.287138,22.754795,0.0 120.28714,22.755039,0.0 120.287117,22.755414,0.0 120.287117,22.755439,0.0 120.287133,22.755498,0.0 120.287168,22.755559,0.0 120.287203,22.755618,0.0 120.287247,22.755661,0.0 120.289075,22.755524,0.0 120.289292,22.755408,0.0 120.289744,22.755392,0.0 120.290192,22.755845,0.0 120.29015,22.755902,0.0 120.290118,22.755967,0.0 120.29057,22.756269,0.0 120.291092,22.756326,0.0 120.291192,22.75631,0.0 120.291183,22.756121,0.0 120.291182,22.755947,0.0 120.291283,22.755654,0.0 120.291378,22.755717,0.0 120.291688,22.755922,0.0 120.293422,22.757086,0.0 120.294246,22.757681,0.0 120.294249,22.757724,0.0 120.294145,22.757728,0.0 120.294029,22.757736,0.0 120.293783,22.757724,0.0 120.293197,22.757705,0.0 120.293119,22.757696,0.0 120.292827,22.757625,0.0 120.291949,22.757402,0.0 120.291865,22.757392,0.0 120.291796,22.757401,0.0 120.291717,22.757408,0.0 120.291597,22.757432,0.0 120.291523,22.757447,0.0 120.290718,22.758823,0.0 120.291638,22.759243,0.0 120.290973,22.760425,0.0 120.289674,22.759868,0.0 120.289292,22.759702,0.0 120.288509,22.760556,0.0 120.288225,22.760943,0.0 120.287486,22.7618,0.0 120.287277,22.762325,0.0 120.287106,22.763496,0.0 120.287029,22.763588,0.0 120.284967,22.76387,0.0 120.284821,22.76382,0.0 120.28424,22.763906,0.0 120.284098,22.763912,0.0 120.283473,22.764647,0.0 120.283039,22.764903,0.0 120.282889,22.764997,0.0 120.282704,22.765066,0.0 120.282027,22.76539,0.0 120.281518,22.765711,0.0 120.28136,22.766096,0.0 120.281319,22.766186,0.0 120.280654,22.766052,0.0 120.280312,22.765999,0.0 120.280095,22.76598,0.0 120.279935,22.766013,0.0 120.279798,22.766076,0.0 120.279638,22.766181,0.0 120.279557,22.766296,0.0 120.279471,22.766476,0.0 120.279407,22.766661,0.0 120.279354,22.766983,0.0 120.279295,22.767353,0.0 120.279202,22.767687,0.0 120.279127,22.767818,0.0 120.279041,22.767892,0.0 120.278927,22.767927,0.0 120.278693,22.767922,0.0 120.278128,22.767908,0.0 120.27762,22.767985,0.0</coordinates></LinearRing></outerBoundaryIs></Polygon><styleUrl>#spolygon-map</styleUrl></Placemark><Placemark><Polygon><outerBoundaryIs><LinearRing><coordinates>120.300831,22.766815,0.0 120.300482,22.766863,0.0 120.299737,22.766961,0.0 120.299274,22.767002,0.0 120.298911,22.767032,0.0 120.298428,22.767073,0.0 120.298173,22.767115,0.0 120.296958,22.767328,0.0 120.296474,22.767437,0.0 120.296266,22.767492,0.0 120.296057,22.767566,0.0 120.295871,22.767658,0.0 120.295842,22.767671,0.0 120.295237,22.768011,0.0 120.294807,22.768242,0.0 120.294437,22.768487,0.0 120.2942,22.768641,0.0 120.293635,22.76898,0.0 120.292983,22.769257,0.0 120.292182,22.769608,0.0 120.291792,22.769836,0.0 120.291281,22.770078,0.0 120.291059,22.770144,0.0 120.290918,22.770182,0.0 120.290784,22.770186,0.0 120.29059,22.770156,0.0 120.290362,22.770117,0.0 120.2901,22.770052,0.0 120.289473,22.769857,0.0 120.289615,22.769445,0.0 120.290378,22.767954,0.0 120.290497,22.767406,0.0 120.291148,22.766307,0.0 120.291214,22.766188,0.0 120.291353,22.765974,0.0 120.291455,22.765818,0.0 120.29161,22.765582,0.0 120.291823,22.765292,0.0 120.291939,22.765143,0.0 120.292103,22.765004,0.0 120.292221,22.764885,0.0 120.292224,22.764871,0.0 120.29225,22.764779,0.0 120.292258,22.76468,0.0 120.292264,22.764587,0.0 120.292246,22.764508,0.0 120.292215,22.76437,0.0 120.29217,22.764386,0.0 120.292159,22.76439,0.0 120.292098,22.764385,0.0 120.292016,22.764356,0.0 120.291974,22.764333,0.0 120.291901,22.764292,0.0 120.291869,22.764274,0.0 120.291647,22.764173,0.0 120.291783,22.76391,0.0 120.291846,22.763772,0.0 120.291957,22.763446,0.0 120.29196,22.763439,0.0 120.292135,22.762886,0.0 120.292138,22.762877,0.0 120.292208,22.762666,0.0 120.292298,22.762447,0.0 120.292376,22.76224,0.0 120.292382,22.762222,0.0 120.292538,22.7618,0.0 120.292639,22.761512,0.0 120.29274,22.761189,0.0 120.292433,22.761055,0.0 120.292206,22.760957,0.0 120.291266,22.76055,0.0 120.291255,22.760546,0.0 120.290973,22.760425,0.0 120.291638,22.759243,0.0 120.290718,22.758823,0.0 120.291523,22.757447,0.0 120.291597,22.757432,0.0 120.291717,22.757408,0.0 120.291796,22.757401,0.0 120.291865,22.757392,0.0 120.291949,22.757402,0.0 120.292827,22.757625,0.0 120.293119,22.757696,0.0 120.293197,22.757705,0.0 120.293783,22.757724,0.0 120.294029,22.757736,0.0 120.294145,22.757728,0.0 120.294249,22.757724,0.0 120.294307,22.75769,0.0 120.294997,22.757266,0.0 120.295785,22.756775,0.0 120.296741,22.758091,0.0 120.297787,22.759532,0.0 120.298622,22.76068,0.0 120.300242,22.762882,0.0 120.300843,22.763729,0.0 120.301291,22.764356,0.0 120.301295,22.764586,0.0 120.301375,22.764616,0.0 120.302083,22.764883,0.0 120.30229,22.764591,0.0 120.302294,22.764586,0.0 120.302739,22.764773,0.0 120.302732,22.764784,0.0 120.302403,22.765372,0.0 120.302295,22.765401,0.0 120.302274,22.765405,0.0 120.302075,22.7658,0.0 120.302305,22.765916,0.0 120.301751,22.766543,0.0 120.301706,22.766819,0.0 120.301663,22.766814,0.0 120.301335,22.766788,0.0 120.301153,22.766787,0.0 120.300831,22.766815,0.0</coordinates></LinearRing></outerBoundaryIs></Polygon><styleUrl>#spolygon-map</styleUrl></Placemark><Placemark><Polygon><outerBoundaryIs><LinearRing><coordinates>120.286782,22.771272,0.0 120.28663,22.771285,0.0 120.286307,22.771268,0.0 120.285995,22.77126,0.0 120.285842,22.771257,0.0 120.285662,22.771263,0.0 120.28557,22.771251,0.0 120.285458,22.771221,0.0 120.285309,22.771162,0.0 120.285129,22.771053,0.0 120.284969,22.770912,0.0 120.284904,22.770824,0.0 120.284852,22.770702,0.0 120.284854,22.770604,0.0 120.284868,22.770435,0.0 120.284895,22.770352,0.0 120.284945,22.770268,0.0 120.285035,22.770156,0.0 120.285094,22.770089,0.0 120.285203,22.769978,0.0 120.285294,22.769929,0.0 120.285363,22.769902,0.0 120.285492,22.769871,0.0 120.285574,22.76986,0.0 120.285643,22.769818,0.0 120.285688,22.769762,0.0 120.28573,22.769701,0.0 120.285737,22.769638,0.0 120.285714,22.769527,0.0 120.285645,22.769371,0.0 120.285584,22.769253,0.0 120.285503,22.769115,0.0 120.28544,22.769009,0.0 120.285321,22.768886,0.0 120.285242,22.768829,0.0 120.285156,22.76877,0.0 120.285049,22.768727,0.0 120.284948,22.768688,0.0 120.28482,22.768665,0.0 120.284734,22.768653,0.0 120.284614,22.768657,0.0 120.284543,22.768677,0.0 120.284463,22.768718,0.0 120.284305,22.768758,0.0 120.284258,22.768773,0.0 120.284198,22.768795,0.0 120.284157,22.768829,0.0 120.284075,22.768901,0.0 120.283871,22.769029,0.0 120.283666,22.769163,0.0 120.283509,22.769289,0.0 120.283344,22.769399,0.0 120.283239,22.76943,0.0 120.283139,22.769443,0.0 120.283046,22.769422,0.0 120.282923,22.769392,0.0 120.282771,22.769308,0.0 120.282678,22.769202,0.0 120.282592,22.769079,0.0 120.282583,22.768985,0.0 120.282589,22.768711,0.0 120.282607,22.768454,0.0 120.282631,22.768335,0.0 120.282651,22.768138,0.0 120.282655,22.767865,0.0 120.282654,22.767639,0.0 120.282631,22.767502,0.0 120.282599,22.767359,0.0 120.282515,22.767192,0.0 120.282462,22.767088,0.0 120.282369,22.766986,0.0 120.282091,22.76677,0.0 120.281792,22.766572,0.0 120.281475,22.766336,0.0 120.281319,22.766186,0.0 120.28136,22.766096,0.0 120.281518,22.765711,0.0 120.282027,22.76539,0.0 120.282704,22.765066,0.0 120.282889,22.764997,0.0 120.283039,22.764903,0.0 120.283473,22.764647,0.0 120.284098,22.763912,0.0 120.28424,22.763906,0.0 120.284821,22.76382,0.0 120.284967,22.76387,0.0 120.287029,22.763588,0.0 120.287106,22.763496,0.0 120.287277,22.762325,0.0 120.287486,22.7618,0.0 120.288225,22.760943,0.0 120.288509,22.760556,0.0 120.289292,22.759702,0.0 120.289674,22.759868,0.0 120.290973,22.760425,0.0 120.291255,22.760546,0.0 120.291266,22.76055,0.0 120.292206,22.760957,0.0 120.292433,22.761055,0.0 120.29274,22.761189,0.0 120.292639,22.761512,0.0 120.292538,22.7618,0.0 120.292382,22.762222,0.0 120.292376,22.76224,0.0 120.292298,22.762447,0.0 120.292208,22.762666,0.0 120.292138,22.762877,0.0 120.292135,22.762886,0.0 120.29196,22.763439,0.0 120.291957,22.763446,0.0 120.291846,22.763772,0.0 120.291783,22.76391,0.0 120.291647,22.764173,0.0 120.291869,22.764274,0.0 120.291901,22.764292,0.0 120.291974,22.764333,0.0 120.292016,22.764356,0.0 120.292098,22.764385,0.0 120.292159,22.76439,0.0 120.29217,22.764386,0.0 120.292215,22.76437,0.0 120.292246,22.764508,0.0 120.292264,22.764587,0.0 120.292258,22.76468,0.0 120.29225,22.764779,0.0 120.292224,22.764871,0.0 120.292221,22.764885,0.0 120.292103,22.765004,0.0 120.291939,22.765143,0.0 120.291823,22.765292,0.0 120.29161,22.765582,0.0 120.291455,22.765818,0.0 120.291353,22.765974,0.0 120.291214,22.766188,0.0 120.291148,22.766307,0.0 120.290497,22.767406,0.0 120.290378,22.767954,0.0 120.289615,22.769445,0.0 120.289473,22.769857,0.0 120.289386,22.77011,0.0 120.289355,22.770101,0.0 120.289341,22.770098,0.0 120.289107,22.770046,0.0 120.288858,22.770022,0.0 120.288669,22.77003,0.0 120.288513,22.770083,0.0 120.288347,22.770144,0.0 120.288274,22.770164,0.0 120.288221,22.770204,0.0 120.288149,22.770303,0.0 120.288042,22.770452,0.0 120.287879,22.770634,0.0 120.287726,22.770816,0.0 120.287589,22.770924,0.0 120.287424,22.771038,0.0 120.287314,22.771108,0.0 120.287217,22.77115,0.0 120.286957,22.771232,0.0 120.286782,22.771272,0.0</coordinates></LinearRing></outerBoundaryIs></Polygon><styleUrl>#spolygon-map</styleUrl></Placemark><Placemark><Polygon><outerBoundaryIs><LinearRing><coordinates>120.300843,22.763729,0.0 120.300242,22.762882,0.0 120.298622,22.76068,0.0 120.297787,22.759532,0.0 120.296741,22.758091,0.0 120.295785,22.756775,0.0 120.295804,22.756764,0.0 120.296284,22.756482,0.0 120.296697,22.756233,0.0 120.297051,22.756013,0.0 120.297467,22.755735,0.0 120.297742,22.755587,0.0 120.297999,22.755566,0.0 120.298116,22.755578,0.0 120.298238,22.755596,0.0 120.298804,22.755834,0.0 120.299552,22.756185,0.0 120.300252,22.756533,0.0 120.300777,22.756777,0.0 120.301497,22.757227,0.0 120.302797,22.755567,0.0 120.303096,22.755184,0.0 120.303521,22.754606,0.0 120.30422,22.754686,0.0 120.304593,22.754821,0.0 120.304796,22.754932,0.0 120.305134,22.755193,0.0 120.305809,22.75562,0.0 120.305536,22.756039,0.0 120.3054,22.756366,0.0 120.305342,22.756533,0.0 120.305223,22.757146,0.0 120.305107,22.75774,0.0 120.305013,22.758222,0.0 120.304974,22.758421,0.0 120.304971,22.758437,0.0 120.304999,22.758437,0.0 120.305362,22.758438,0.0 120.305769,22.75844,0.0 120.30623,22.758442,0.0 120.306236,22.758444,0.0 120.306367,22.758486,0.0 120.306635,22.75857,0.0 120.306202,22.759327,0.0 120.305793,22.760043,0.0 120.305531,22.7605,0.0 120.304784,22.761806,0.0 120.304877,22.761917,0.0 120.304917,22.761963,0.0 120.304962,22.762017,0.0 120.305183,22.762187,0.0 120.305418,22.762349,0.0 120.30525,22.762646,0.0 120.30508,22.762948,0.0 120.30497,22.763142,0.0 120.304601,22.762921,0.0 120.304543,22.762887,0.0 120.304285,22.763093,0.0 120.30425,22.76312,0.0 120.303941,22.763692,0.0 120.303929,22.763715,0.0 120.303755,22.76361,0.0 120.303619,22.763483,0.0 120.303449,22.763255,0.0 120.303188,22.763441,0.0 120.302534,22.763077,0.0 120.301834,22.763561,0.0 120.30179,22.763554,0.0 120.301268,22.763469,0.0 120.301281,22.763213,0.0 120.30119,22.763157,0.0 120.300843,22.763729,0.0</coordinates></LinearRing></outerBoundaryIs></Polygon><styleUrl>#spolygon-map</styleUrl></Placemark><Placemark><Polygon><outerBoundaryIs><LinearRing><coordinates>120.303603,22.776801,0.0 120.300052,22.777878,0.0 120.299847,22.777819,0.0 120.299896,22.777724,0.0 120.300239,22.777107,0.0 120.300145,22.777009,0.0 120.299961,22.776783,0.0 120.299653,22.776427,0.0 120.299531,22.776323,0.0 120.299354,22.77622,0.0 120.299011,22.776119,0.0 120.298589,22.776066,0.0 120.29804,22.776027,0.0 120.297132,22.776039,0.0 120.296267,22.776017,0.0 120.295617,22.774445,0.0 120.29538,22.773972,0.0 120.295408,22.773857,0.0 120.2954,22.773595,0.0 120.295399,22.773503,0.0 120.295397,22.773421,0.0 120.295397,22.773234,0.0 120.295387,22.773135,0.0 120.29531,22.772972,0.0 120.295245,22.772865,0.0 120.295162,22.772748,0.0 120.295146,22.772673,0.0 120.295089,22.772476,0.0 120.294989,22.772067,0.0 120.294898,22.771789,0.0 120.294847,22.77162,0.0 120.294811,22.771452,0.0 120.294692,22.771086,0.0 120.294632,22.770856,0.0 120.294577,22.770697,0.0 120.294554,22.770761,0.0 120.294535,22.770824,0.0 120.294469,22.770945,0.0 120.294236,22.771351,0.0 120.294149,22.771483,0.0 120.293922,22.771911,0.0 120.293826,22.772055,0.0 120.293637,22.772353,0.0 120.293533,22.772485,0.0 120.293447,22.772553,0.0 120.29335,22.772618,0.0 120.293205,22.772685,0.0 120.293076,22.772734,0.0 120.292823,22.77281,0.0 120.292643,22.772867,0.0 120.292498,22.772926,0.0 120.292307,22.77297,0.0 120.292208,22.772985,0.0 120.292134,22.772976,0.0 120.29206,22.772957,0.0 120.291993,22.77293,0.0 120.291862,22.772855,0.0 120.291808,22.77281,0.0 120.291733,22.772735,0.0 120.291663,22.772646,0.0 120.291604,22.772563,0.0 120.291512,22.772384,0.0 120.291464,22.772282,0.0 120.29139,22.77216,0.0 120.29129,22.772033,0.0 120.291177,22.77187,0.0 120.291099,22.771757,0.0 120.290988,22.771643,0.0 120.29088,22.771525,0.0 120.290786,22.771439,0.0 120.290744,22.771401,0.0 120.290631,22.771244,0.0 120.290545,22.771102,0.0 120.290438,22.770968,0.0 120.290322,22.770821,0.0 120.290182,22.770669,0.0 120.290076,22.770558,0.0 120.289963,22.770415,0.0 120.289897,22.770327,0.0 120.289846,22.770281,0.0 120.289775,22.770245,0.0 120.289546,22.770154,0.0 120.289386,22.77011,0.0 120.289473,22.769857,0.0 120.2901,22.770052,0.0 120.290362,22.770117,0.0 120.29059,22.770156,0.0 120.290784,22.770186,0.0 120.290918,22.770182,0.0 120.291059,22.770144,0.0 120.291281,22.770078,0.0 120.291792,22.769836,0.0 120.292182,22.769608,0.0 120.292983,22.769257,0.0 120.293635,22.76898,0.0 120.2942,22.768641,0.0 120.294437,22.768487,0.0 120.294807,22.768242,0.0 120.295237,22.768011,0.0 120.295842,22.767671,0.0 120.295871,22.767658,0.0 120.296057,22.767566,0.0 120.296266,22.767492,0.0 120.296474,22.767437,0.0 120.296958,22.767328,0.0 120.298173,22.767115,0.0 120.298428,22.767073,0.0 120.298911,22.767032,0.0 120.299274,22.767002,0.0 120.299737,22.766961,0.0 120.300482,22.766863,0.0 120.300831,22.766815,0.0 120.301153,22.766787,0.0 120.301335,22.766788,0.0 120.301663,22.766814,0.0 120.301706,22.766819,0.0 120.301958,22.766858,0.0 120.302414,22.766928,0.0 120.303399,22.767151,0.0 120.304351,22.767322,0.0 120.305502,22.767548,0.0 120.305525,22.767551,0.0 120.30745,22.767516,0.0 120.307885,22.767383,0.0 120.308405,22.767078,0.0 120.30869,22.76684,0.0 120.308931,22.766514,0.0 120.309199,22.765887,0.0 120.309523,22.764972,0.0 120.309655,22.764598,0.0 120.309974,22.764041,0.0 120.310174,22.763848,0.0 120.310556,22.763617,0.0 120.311985,22.762885,0.0 120.312978,22.762379,0.0 120.313901,22.762133,0.0 120.314565,22.76205,0.0 120.315271,22.761931,0.0 120.315476,22.761855,0.0 120.315952,22.761392,0.0 120.316451,22.760502,0.0 120.31654,22.760555,0.0 120.316718,22.760659,0.0 120.316931,22.760782,0.0 120.317019,22.760834,0.0 120.317227,22.761027,0.0 120.317819,22.761761,0.0 120.318123,22.762164,0.0 120.318342,22.76245,0.0 120.318507,22.762665,0.0 120.318729,22.762934,0.0 120.318926,22.763138,0.0 120.319032,22.763263,0.0 120.319761,22.763993,0.0 120.320341,22.764607,0.0 120.320502,22.764782,0.0 120.320687,22.765033,0.0 120.321095,22.76562,0.0 120.321139,22.765683,0.0 120.321755,22.766582,0.0 120.32204,22.766994,0.0 120.322544,22.767712,0.0 120.322884,22.768194,0.0 120.323136,22.768609,0.0 120.323145,22.768622,0.0 120.323093,22.768615,0.0 120.322586,22.76866,0.0 120.321618,22.768814,0.0 120.320952,22.768951,0.0 120.319906,22.769177,0.0 120.319214,22.769335,0.0 120.319107,22.769336,0.0 120.319014,22.769336,0.0 120.318801,22.769247,0.0 120.318524,22.769045,0.0 120.318391,22.768952,0.0 120.318157,22.768797,0.0 120.317984,22.76872,0.0 120.317846,22.768672,0.0 120.317567,22.768637,0.0 120.317407,22.768661,0.0 120.316988,22.768758,0.0 120.316923,22.768785,0.0 120.316776,22.768857,0.0 120.316567,22.76896,0.0 120.316389,22.769106,0.0 120.316167,22.769317,0.0 120.315986,22.769477,0.0 120.315855,22.769607,0.0 120.315768,22.76974,0.0 120.315729,22.769877,0.0 120.315679,22.769897,0.0 120.315566,22.769897,0.0 120.31541,22.769865,0.0 120.31528,22.769887,0.0 120.315204,22.76992,0.0 120.315086,22.770017,0.0 120.315005,22.77012,0.0 120.314934,22.770265,0.0 120.314893,22.770492,0.0 120.314851,22.770802,0.0 120.314837,22.770856,0.0 120.314705,22.770905,0.0 120.314538,22.770951,0.0 120.314514,22.770956,0.0 120.31431,22.77095,0.0 120.313972,22.770874,0.0 120.313609,22.770758,0.0 120.313414,22.770978,0.0 120.31308,22.771293,0.0 120.311641,22.772648,0.0 120.311055,22.773203,0.0 120.310674,22.773511,0.0 120.309437,22.774316,0.0 120.309022,22.774511,0.0 120.308821,22.77416,0.0 120.308711,22.774006,0.0 120.308601,22.773935,0.0 120.308445,22.773901,0.0 120.308233,22.773893,0.0 120.308113,22.773823,0.0 120.308049,22.773754,0.0 120.307986,22.77349,0.0 120.307922,22.773386,0.0 120.307812,22.773327,0.0 120.307601,22.773258,0.0 120.307435,22.773264,0.0 120.306865,22.772921,0.0 120.306479,22.772833,0.0 120.306249,22.772789,0.0 120.306011,22.772499,0.0 120.305818,22.772404,0.0 120.305266,22.77218,0.0 120.303603,22.776801,0.0</coordinates></LinearRing></outerBoundaryIs></Polygon><styleUrl>#spolygon-map</styleUrl></Placemark><Placemark><Polygon><outerBoundaryIs><LinearRing><coordinates>120.301497,22.757227,0.0 120.300777,22.756777,0.0 120.300252,22.756533,0.0 120.299552,22.756185,0.0 120.298804,22.755834,0.0 120.298238,22.755596,0.0 120.298116,22.755578,0.0 120.297999,22.755566,0.0 120.297742,22.755587,0.0 120.297467,22.755735,0.0 120.297051,22.756013,0.0 120.296697,22.756233,0.0 120.296284,22.756482,0.0 120.295804,22.756764,0.0 120.295785,22.756775,0.0 120.29501,22.755706,0.0 120.295006,22.755702,0.0 120.294923,22.755595,0.0 120.294313,22.754773,0.0 120.294236,22.754669,0.0 120.293882,22.754184,0.0 120.293371,22.753487,0.0 120.292948,22.752902,0.0 120.292914,22.752855,0.0 120.292755,22.752635,0.0 120.292742,22.752617,0.0 120.292336,22.752042,0.0 120.292252,22.751904,0.0 120.292154,22.75175,0.0 120.292078,22.7516,0.0 120.292042,22.751503,0.0 120.292003,22.751415,0.0 120.29195,22.751257,0.0 120.291914,22.751157,0.0 120.291801,22.750646,0.0 120.29179,22.750592,0.0 120.291785,22.750565,0.0 120.291765,22.750493,0.0 120.291769,22.750389,0.0 120.291767,22.750217,0.0 120.291762,22.750043,0.0 120.291774,22.749879,0.0 120.291794,22.749775,0.0 120.29187,22.749337,0.0 120.291947,22.749042,0.0 120.292062,22.748762,0.0 120.292236,22.748438,0.0 120.292347,22.748242,0.0 120.292515,22.747976,0.0 120.292565,22.747895,0.0 120.292779,22.747551,0.0 120.293015,22.747191,0.0 120.293065,22.747114,0.0 120.293071,22.747105,0.0 120.293183,22.747176,0.0 120.294097,22.74781,0.0 120.295043,22.74848,0.0 120.295371,22.74873,0.0 120.295887,22.749071,0.0 120.296459,22.749482,0.0 120.296643,22.749241,0.0 120.297019,22.748793,0.0 120.297771,22.747869,0.0 120.298089,22.747484,0.0 120.29823,22.747318,0.0 120.298503,22.746971,0.0 120.298757,22.746674,0.0 120.298774,22.746652,0.0 120.298943,22.746438,0.0 120.299133,22.746209,0.0 120.298584,22.745829,0.0 120.297787,22.74527,0.0 120.297276,22.744911,0.0 120.296773,22.744557,0.0 120.296608,22.744441,0.0 120.296671,22.744401,0.0 120.296889,22.744316,0.0 120.29693,22.744321,0.0 120.297055,22.744366,0.0 120.2972,22.744421,0.0 120.297253,22.744437,0.0 120.297307,22.744437,0.0 120.297363,22.744415,0.0 120.297403,22.744379,0.0 120.297974,22.74367,0.0 120.298005,22.743632,0.0 120.298354,22.743221,0.0 120.298673,22.742793,0.0 120.299278,22.742841,0.0 120.299571,22.742578,0.0 120.300289,22.742021,0.0 120.300602,22.741779,0.0 120.300613,22.741756,0.0 120.300685,22.741693,0.0 120.300737,22.741648,0.0 120.301005,22.741435,0.0 120.301099,22.741314,0.0 120.301178,22.741233,0.0 120.301371,22.741062,0.0 120.3014,22.741037,0.0 120.30149,22.740945,0.0 120.30156,22.740851,0.0 120.301614,22.74076,0.0 120.301181,22.740361,0.0 120.301176,22.74026,0.0 120.30149,22.73992,0.0 120.300873,22.739317,0.0 120.300649,22.739291,0.0 120.299925,22.738633,0.0 120.299984,22.738582,0.0 120.300051,22.738539,0.0 120.300208,22.73844,0.0 120.300377,22.738339,0.0 120.300585,22.7382,0.0 120.300657,22.738167,0.0 120.30079,22.738091,0.0 120.30084,22.738066,0.0 120.300745,22.737955,0.0 120.300716,22.737923,0.0 120.30059,22.737776,0.0 120.300413,22.73757,0.0 120.30005,22.737171,0.0 120.299934,22.737044,0.0 120.299853,22.736955,0.0 120.299732,22.736809,0.0 120.29958,22.736625,0.0 120.299497,22.736687,0.0 120.299422,22.736714,0.0 120.299318,22.736732,0.0 120.299097,22.736733,0.0 120.298943,22.736732,0.0 120.298827,22.736745,0.0 120.298744,22.736779,0.0 120.298479,22.736981,0.0 120.298394,22.737064,0.0 120.298364,22.736827,0.0 120.297761,22.733926,0.0 120.297588,22.733038,0.0 120.297015,22.733125,0.0 120.29512,22.733467,0.0 120.294659,22.733551,0.0 120.293407,22.733778,0.0 120.293408,22.733771,0.0 120.293413,22.733748,0.0 120.293472,22.733703,0.0 120.293636,22.733605,0.0 120.293843,22.733477,0.0 120.293988,22.733381,0.0 120.294269,22.733208,0.0 120.29466,22.732968,0.0 120.295007,22.732762,0.0 120.294985,22.732663,0.0 120.294952,22.732543,0.0 120.294876,22.732326,0.0 120.29489,22.732202,0.0 120.294947,22.732118,0.0 120.295182,22.731914,0.0 120.295807,22.731438,0.0 120.295733,22.731293,0.0 120.295719,22.731266,0.0 120.295607,22.731105,0.0 120.295496,22.730904,0.0 120.295496,22.730836,0.0 120.295589,22.730789,0.0 120.295694,22.730742,0.0 120.295874,22.730662,0.0 120.295885,22.730614,0.0 120.295824,22.73051,0.0 120.295738,22.730361,0.0 120.295544,22.730017,0.0 120.295767,22.729991,0.0 120.295466,22.72949,0.0 120.29526,22.72951,0.0 120.295249,22.729492,0.0 120.295224,22.729446,0.0 120.295377,22.729303,0.0 120.295766,22.728993,0.0 120.295936,22.728836,0.0 120.296075,22.728728,0.0 120.296279,22.728564,0.0 120.296368,22.728454,0.0 120.296389,22.72844,0.0 120.296464,22.728393,0.0 120.296567,22.728371,0.0 120.296635,22.728374,0.0 120.296645,22.728473,0.0 120.29666,22.728581,0.0 120.29668,22.728762,0.0 120.296704,22.728889,0.0 120.29674,22.729029,0.0 120.296777,22.729158,0.0 120.296873,22.729316,0.0 120.296934,22.729407,0.0 120.296977,22.729517,0.0 120.297104,22.729678,0.0 120.297205,22.729807,0.0 120.297296,22.729914,0.0 120.29741,22.730025,0.0 120.297536,22.730114,0.0 120.297642,22.730198,0.0 120.297738,22.730311,0.0 120.297881,22.730452,0.0 120.298085,22.730595,0.0 120.298314,22.730815,0.0 120.298388,22.73088,0.0 120.298436,22.730969,0.0 120.298491,22.731077,0.0 120.298529,22.731195,0.0 120.298568,22.731349,0.0 120.298585,22.731477,0.0 120.298645,22.73162,0.0 120.298737,22.731753,0.0 120.298814,22.73181,0.0 120.298985,22.731949,0.0 120.2991,22.73203,0.0 120.299166,22.732067,0.0 120.299206,22.732087,0.0 120.29937,22.732095,0.0 120.299503,22.732053,0.0 120.299658,22.732022,0.0 120.299761,22.731979,0.0 120.299868,22.731892,0.0 120.299927,22.731783,0.0 120.299933,22.731747,0.0 120.299953,22.731628,0.0 120.299945,22.731458,0.0 120.299951,22.731258,0.0 120.299921,22.731045,0.0 120.299915,22.730806,0.0 120.299905,22.730591,0.0 120.299891,22.730424,0.0 120.299909,22.730273,0.0 120.299943,22.73007,0.0 120.300004,22.729896,0.0 120.300077,22.729718,0.0 120.300201,22.729597,0.0 120.300316,22.729446,0.0 120.300341,22.729408,0.0 120.300492,22.729289,0.0 120.300606,22.729183,0.0 120.300711,22.729134,0.0 120.300807,22.729085,0.0 120.300966,22.729029,0.0 120.301109,22.729014,0.0 120.301317,22.729028,0.0 120.301485,22.729063,0.0 120.301572,22.729084,0.0 120.301711,22.729141,0.0 120.301834,22.729205,0.0 120.301968,22.729282,0.0 120.30206,22.729339,0.0 120.302167,22.729432,0.0 120.302192,22.729448,0.0 120.30229,22.729516,0.0 120.302355,22.729602,0.0 120.302461,22.729672,0.0 120.302624,22.729759,0.0 120.302674,22.729802,0.0 120.302723,22.729843,0.0 120.302832,22.729907,0.0 120.302877,22.729932,0.0 120.303049,22.73007,0.0 120.30318,22.730163,0.0 120.303226,22.730197,0.0 120.303426,22.730311,0.0 120.303576,22.730346,0.0 120.303788,22.73041,0.0 120.303913,22.730342,0.0 120.303988,22.730295,0.0 120.303993,22.730291,0.0 120.304079,22.730221,0.0 120.30426,22.730109,0.0 120.304562,22.729995,0.0 120.304673,22.729973,0.0 120.304852,22.729936,0.0 120.30494,22.72981,0.0 120.305015,22.729708,0.0 120.305038,22.729677,0.0 120.305209,22.729436,0.0 120.305305,22.72929,0.0 120.305386,22.729279,0.0 120.305481,22.729302,0.0 120.305681,22.729334,0.0 120.306064,22.729424,0.0 120.306375,22.729534,0.0 120.306721,22.729641,0.0 120.307066,22.729749,0.0 120.307239,22.72979,0.0 120.307393,22.729832,0.0 120.307692,22.729876,0.0 120.307841,22.729874,0.0 120.308008,22.729868,0.0 120.308491,22.729845,0.0 120.308605,22.729832,0.0 120.308781,22.729831,0.0 120.308958,22.729838,0.0 120.309177,22.729857,0.0 120.309348,22.729887,0.0 120.309733,22.729826,0.0 120.309924,22.729793,0.0 120.310116,22.729805,0.0 120.310175,22.729848,0.0 120.310225,22.729925,0.0 120.310266,22.730011,0.0 120.310343,22.73014,0.0 120.310392,22.730197,0.0 120.310493,22.730283,0.0 120.310666,22.730383,0.0 120.310817,22.730465,0.0 120.310972,22.730549,0.0 120.311308,22.730736,0.0 120.311392,22.730808,0.0 120.31144,22.730899,0.0 120.311458,22.730998,0.0 120.311459,22.731093,0.0 120.311439,22.731206,0.0 120.311414,22.731307,0.0 120.311373,22.731479,0.0 120.311293,22.731643,0.0 120.311218,22.731796,0.0 120.311191,22.731832,0.0 120.311086,22.73197,0.0 120.310964,22.732127,0.0 120.310813,22.732323,0.0 120.310701,22.732438,0.0 120.310394,22.732691,0.0 120.31008,22.732956,0.0 120.309928,22.733066,0.0 120.309906,22.733105,0.0 120.309899,22.733202,0.0 120.309887,22.733251,0.0 120.30989,22.73336,0.0 120.309924,22.733561,0.0 120.309919,22.733744,0.0 120.30995,22.733949,0.0 120.30994,22.734087,0.0 120.309928,22.734191,0.0 120.309902,22.734301,0.0 120.309791,22.734457,0.0 120.30965,22.734621,0.0 120.309571,22.734702,0.0 120.309459,22.734787,0.0 120.309359,22.734888,0.0 120.309204,22.735055,0.0 120.309076,22.735203,0.0 120.308982,22.735297,0.0 120.308866,22.735374,0.0 120.30876,22.735407,0.0 120.308567,22.735433,0.0 120.308396,22.735435,0.0 120.308348,22.735471,0.0 120.308125,22.735743,0.0 120.308107,22.735808,0.0 120.308102,22.73589,0.0 120.308093,22.735953,0.0 120.308086,22.735996,0.0 120.308099,22.736077,0.0 120.30812,22.736197,0.0 120.308127,22.736197,0.0 120.308206,22.736269,0.0 120.308321,22.736333,0.0 120.308444,22.736386,0.0 120.308626,22.736418,0.0 120.308831,22.736405,0.0 120.309007,22.73639,0.0 120.309101,22.73637,0.0 120.309253,22.736337,0.0 120.309419,22.736261,0.0 120.309573,22.736119,0.0 120.309807,22.735908,0.0 120.309889,22.735886,0.0 120.31009,22.73588,0.0 120.310279,22.735854,0.0 120.310403,22.735825,0.0 120.310706,22.735763,0.0 120.310918,22.735726,0.0 120.311118,22.735697,0.0 120.311503,22.735624,0.0 120.311849,22.735563,0.0 120.312255,22.735515,0.0 120.312461,22.735507,0.0 120.312618,22.735523,0.0 120.312883,22.735635,0.0 120.313138,22.735733,0.0 120.313319,22.735804,0.0 120.313537,22.735854,0.0 120.313734,22.735932,0.0 120.313914,22.736039,0.0 120.314028,22.736152,0.0 120.31422,22.736273,0.0 120.314446,22.73635,0.0 120.31456,22.736407,0.0 120.314598,22.736426,0.0 120.314739,22.73655,0.0 120.314881,22.73672,0.0 120.315221,22.736918,0.0 120.3154,22.736987,0.0 120.315589,22.737033,0.0 120.315703,22.737035,0.0 120.315849,22.736986,0.0 120.316,22.736897,0.0 120.316113,22.736744,0.0 120.316262,22.736555,0.0 120.316422,22.736262,0.0 120.316544,22.736064,0.0 120.316685,22.73587,0.0 120.316858,22.735656,0.0 120.317,22.735537,0.0 120.317109,22.73547,0.0 120.317332,22.735374,0.0 120.317687,22.735287,0.0 120.317936,22.735246,0.0 120.318131,22.735217,0.0 120.318335,22.735173,0.0 120.318508,22.735094,0.0 120.318667,22.734987,0.0 120.318809,22.734915,0.0 120.318961,22.734862,0.0 120.319139,22.734826,0.0 120.31929,22.734827,0.0 120.319404,22.734803,0.0 120.319346,22.735005,0.0 120.319187,22.735556,0.0 120.319123,22.735777,0.0 120.318884,22.736602,0.0 120.318453,22.738068,0.0 120.318412,22.73821,0.0 120.317718,22.740591,0.0 120.317006,22.743033,0.0 120.31686,22.743578,0.0 120.316599,22.744453,0.0 120.316303,22.745482,0.0 120.315893,22.746726,0.0 120.315386,22.747708,0.0 120.315041,22.748375,0.0 120.314747,22.748916,0.0 120.314216,22.749875,0.0 120.314156,22.749999,0.0 120.314008,22.749914,0.0 120.313052,22.749371,0.0 120.31243,22.749021,0.0 120.3118,22.748666,0.0 120.311309,22.748388,0.0 120.311018,22.748267,0.0 120.310624,22.748053,0.0 120.310276,22.747865,0.0 120.310033,22.747733,0.0 120.309459,22.747421,0.0 120.308898,22.747116,0.0 120.308208,22.746763,0.0 120.308078,22.746692,0.0 120.307108,22.746167,0.0 120.306901,22.746053,0.0 120.306649,22.745833,0.0 120.306531,22.745733,0.0 120.30638,22.745572,0.0 120.306288,22.745456,0.0 120.306087,22.745187,0.0 120.30594,22.744992,0.0 120.305582,22.744525,0.0 120.305403,22.744281,0.0 120.305334,22.74419,0.0 120.304567,22.74457,0.0 120.304412,22.744647,0.0 120.304233,22.744745,0.0 120.304015,22.744864,0.0 120.303954,22.744941,0.0 120.303943,22.744961,0.0 120.30394,22.745026,0.0 120.304111,22.745232,0.0 120.304147,22.745285,0.0 120.304152,22.74535,0.0 120.304147,22.745391,0.0 120.304069,22.745456,0.0 120.303955,22.745541,0.0 120.303896,22.745593,0.0 120.303691,22.745757,0.0 120.303281,22.746073,0.0 120.3031,22.746208,0.0 120.302912,22.746354,0.0 120.302776,22.746498,0.0 120.30267,22.746635,0.0 120.302646,22.746671,0.0 120.302647,22.746698,0.0 120.302621,22.746766,0.0 120.302606,22.746786,0.0 120.302552,22.746847,0.0 120.302357,22.747042,0.0 120.302266,22.747139,0.0 120.302181,22.747218,0.0 120.302099,22.747326,0.0 120.301602,22.747942,0.0 120.301586,22.747987,0.0 120.301039,22.748646,0.0 120.300233,22.749593,0.0 120.300225,22.749602,0.0 120.300218,22.749611,0.0 120.299637,22.750333,0.0 120.299568,22.750396,0.0 120.298921,22.751195,0.0 120.29888,22.751244,0.0 120.298825,22.751314,0.0 120.297818,22.752535,0.0 120.297523,22.752895,0.0 120.298636,22.753681,0.0 120.299663,22.754411,0.0 120.300519,22.754995,0.0 120.301332,22.754088,0.0 120.301622,22.754169,0.0 120.301896,22.754396,0.0 120.302272,22.754517,0.0 120.302795,22.754488,0.0 120.303279,22.754521,0.0 120.303521,22.754606,0.0 120.303096,22.755184,0.0 120.302797,22.755567,0.0 120.301497,22.757227,0.0</coordinates></LinearRing></outerBoundaryIs></Polygon><styleUrl>#spolygon-map</styleUrl></Placemark><Placemark><Polygon><outerBoundaryIs><LinearRing><coordinates>120.296671,22.744401,0.0 120.296608,22.744441,0.0 120.296773,22.744557,0.0 120.297276,22.744911,0.0 120.297787,22.74527,0.0 120.298584,22.745829,0.0 120.299133,22.746209,0.0 120.298943,22.746438,0.0 120.298774,22.746652,0.0 120.298757,22.746674,0.0 120.298503,22.746971,0.0 120.29823,22.747318,0.0 120.298089,22.747484,0.0 120.297771,22.747869,0.0 120.297019,22.748793,0.0 120.296643,22.749241,0.0 120.296459,22.749482,0.0 120.295887,22.749071,0.0 120.295371,22.74873,0.0 120.295043,22.74848,0.0 120.294097,22.74781,0.0 120.293183,22.747176,0.0 120.293071,22.747105,0.0 120.293255,22.746824,0.0 120.29339,22.746628,0.0 120.293647,22.746227,0.0 120.293917,22.74582,0.0 120.294067,22.745586,0.0 120.29421,22.745376,0.0 120.294283,22.745266,0.0 120.294081,22.745173,0.0 120.294103,22.744979,0.0 120.294148,22.744791,0.0 120.294243,22.744616,0.0 120.294357,22.744442,0.0 120.294401,22.744393,0.0 120.294496,22.744375,0.0 120.294602,22.744177,0.0 120.294713,22.743954,0.0 120.294853,22.743691,0.0 120.294989,22.743468,0.0 120.29513,22.74324,0.0 120.29507,22.743211,0.0 120.294866,22.743104,0.0 120.294834,22.742923,0.0 120.294777,22.742798,0.0 120.29463,22.742644,0.0 120.294579,22.742615,0.0 120.294166,22.742545,0.0 120.294114,22.742536,0.0 120.294018,22.742522,0.0 120.293963,22.742499,0.0 120.293863,22.742424,0.0 120.293901,22.742395,0.0 120.294143,22.742145,0.0 120.294103,22.742084,0.0 120.294134,22.741965,0.0 120.294257,22.741699,0.0 120.294331,22.741577,0.0 120.294465,22.741293,0.0 120.294519,22.741174,0.0 120.294838,22.740539,0.0 120.294838,22.740505,0.0 120.294828,22.740455,0.0 120.294813,22.740378,0.0 120.294786,22.740105,0.0 120.294772,22.739945,0.0 120.294707,22.739622,0.0 120.294652,22.739353,0.0 120.29459,22.739102,0.0 120.294572,22.738998,0.0 120.294466,22.738629,0.0 120.294443,22.738566,0.0 120.29436,22.738331,0.0 120.29433,22.738241,0.0 120.294167,22.737888,0.0 120.294151,22.737849,0.0 120.293728,22.737026,0.0 120.29372,22.736958,0.0 120.29372,22.73687,0.0 120.293651,22.736757,0.0 120.293625,22.7367,0.0 120.293443,22.736313,0.0 120.293236,22.735872,0.0 120.292939,22.735243,0.0 120.292825,22.734981,0.0 120.292923,22.734929,0.0 120.293361,22.73471,0.0 120.293723,22.734533,0.0 120.293443,22.733995,0.0 120.293415,22.733909,0.0 120.293397,22.733825,0.0 120.293407,22.733778,0.0 120.294659,22.733551,0.0 120.29512,22.733467,0.0 120.297015,22.733125,0.0 120.297588,22.733038,0.0 120.297761,22.733926,0.0 120.298364,22.736827,0.0 120.298394,22.737064,0.0 120.298479,22.736981,0.0 120.298744,22.736779,0.0 120.298827,22.736745,0.0 120.298943,22.736732,0.0 120.299097,22.736733,0.0 120.299318,22.736732,0.0 120.299422,22.736714,0.0 120.299497,22.736687,0.0 120.29958,22.736625,0.0 120.299732,22.736809,0.0 120.299853,22.736955,0.0 120.299934,22.737044,0.0 120.30005,22.737171,0.0 120.300413,22.73757,0.0 120.30059,22.737776,0.0 120.300716,22.737923,0.0 120.300745,22.737955,0.0 120.30084,22.738066,0.0 120.30079,22.738091,0.0 120.300657,22.738167,0.0 120.300585,22.7382,0.0 120.300377,22.738339,0.0 120.300208,22.73844,0.0 120.300051,22.738539,0.0 120.299984,22.738582,0.0 120.299925,22.738633,0.0 120.300649,22.739291,0.0 120.300873,22.739317,0.0 120.30149,22.73992,0.0 120.301176,22.74026,0.0 120.301181,22.740361,0.0 120.301614,22.74076,0.0 120.30156,22.740851,0.0 120.30149,22.740945,0.0 120.3014,22.741037,0.0 120.301371,22.741062,0.0 120.301178,22.741233,0.0 120.301099,22.741314,0.0 120.301005,22.741435,0.0 120.300737,22.741648,0.0 120.300685,22.741693,0.0 120.300613,22.741756,0.0 120.300602,22.741779,0.0 120.300289,22.742021,0.0 120.299571,22.742578,0.0 120.299278,22.742841,0.0 120.298673,22.742793,0.0 120.298354,22.743221,0.0 120.298005,22.743632,0.0 120.297974,22.74367,0.0 120.297403,22.744379,0.0 120.297363,22.744415,0.0 120.297307,22.744437,0.0 120.297253,22.744437,0.0 120.2972,22.744421,0.0 120.297055,22.744366,0.0 120.29693,22.744321,0.0 120.296889,22.744316,0.0 120.296671,22.744401,0.0</coordinates></LinearRing></outerBoundaryIs></Polygon><styleUrl>#spolygon-map</styleUrl></Placemark><Placemark><Polygon><outerBoundaryIs><LinearRing><coordinates>120.293647,22.746227,0.0 120.29339,22.746628,0.0 120.293255,22.746824,0.0 120.293071,22.747105,0.0 120.293065,22.747114,0.0 120.293015,22.747191,0.0 120.292779,22.747551,0.0 120.292565,22.747895,0.0 120.292515,22.747976,0.0 120.292347,22.748242,0.0 120.292236,22.748438,0.0 120.292062,22.748762,0.0 120.291947,22.749042,0.0 120.291671,22.749117,0.0 120.291314,22.749217,0.0 120.29089,22.74934,0.0 120.290692,22.749395,0.0 120.29066,22.749305,0.0 120.290597,22.749117,0.0 120.290543,22.748952,0.0 120.290445,22.748654,0.0 120.290387,22.748459,0.0 120.290302,22.748215,0.0 120.290283,22.748158,0.0 120.290174,22.747833,0.0 120.290152,22.747758,0.0 120.290134,22.747688,0.0 120.290087,22.747557,0.0 120.290019,22.747349,0.0 120.290002,22.747288,0.0 120.289957,22.747152,0.0 120.289778,22.746612,0.0 120.289529,22.745857,0.0 120.287394,22.746468,0.0 120.287294,22.746158,0.0 120.287289,22.746145,0.0 120.287226,22.745962,0.0 120.286994,22.745297,0.0 120.286936,22.745096,0.0 120.286794,22.744664,0.0 120.286689,22.744352,0.0 120.286641,22.7442,0.0 120.286531,22.743864,0.0 120.286432,22.743561,0.0 120.286338,22.743271,0.0 120.286306,22.743176,0.0 120.286184,22.742799,0.0 120.286067,22.742448,0.0 120.285947,22.742077,0.0 120.285819,22.741689,0.0 120.285719,22.741379,0.0 120.285651,22.741184,0.0 120.285527,22.740807,0.0 120.285415,22.740481,0.0 120.285361,22.740318,0.0 120.28528,22.740343,0.0 120.285022,22.740418,0.0 120.284805,22.740478,0.0 120.284594,22.740541,0.0 120.28439,22.740596,0.0 120.284302,22.740621,0.0 120.282901,22.736417,0.0 120.282948,22.736404,0.0 120.282976,22.736393,0.0 120.283945,22.736086,0.0 120.285038,22.735738,0.0 120.285108,22.73587,0.0 120.285406,22.736781,0.0 120.285714,22.737672,0.0 120.286741,22.737401,0.0 120.288839,22.73685,0.0 120.288888,22.736839,0.0 120.288968,22.736819,0.0 120.289214,22.736771,0.0 120.289585,22.736718,0.0 120.289664,22.736714,0.0 120.289769,22.736724,0.0 120.289895,22.736772,0.0 120.290028,22.736847,0.0 120.290045,22.736853,0.0 120.290182,22.736917,0.0 120.290297,22.736963,0.0 120.29035,22.736984,0.0 120.290467,22.737034,0.0 120.290625,22.737057,0.0 120.290775,22.737087,0.0 120.290883,22.737119,0.0 120.291249,22.737229,0.0 120.291393,22.737128,0.0 120.291519,22.737032,0.0 120.291768,22.73687,0.0 120.291914,22.73679,0.0 120.292112,22.73668,0.0 120.292762,22.736355,0.0 120.2928,22.736313,0.0 120.292697,22.7361,0.0 120.292644,22.735991,0.0 120.292491,22.735679,0.0 120.292325,22.735243,0.0 120.292379,22.735213,0.0 120.292825,22.734981,0.0 120.292939,22.735243,0.0 120.293236,22.735872,0.0 120.293443,22.736313,0.0 120.293625,22.7367,0.0 120.293651,22.736757,0.0 120.29372,22.73687,0.0 120.29372,22.736958,0.0 120.293728,22.737026,0.0 120.294151,22.737849,0.0 120.294167,22.737888,0.0 120.29433,22.738241,0.0 120.29436,22.738331,0.0 120.294443,22.738566,0.0 120.294466,22.738629,0.0 120.294572,22.738998,0.0 120.29459,22.739102,0.0 120.294652,22.739353,0.0 120.294707,22.739622,0.0 120.294772,22.739945,0.0 120.294786,22.740105,0.0 120.294813,22.740378,0.0 120.294828,22.740455,0.0 120.294838,22.740505,0.0 120.294838,22.740539,0.0 120.294519,22.741174,0.0 120.294465,22.741293,0.0 120.294331,22.741577,0.0 120.294257,22.741699,0.0 120.294134,22.741965,0.0 120.294103,22.742084,0.0 120.294143,22.742145,0.0 120.293901,22.742395,0.0 120.293863,22.742424,0.0 120.293963,22.742499,0.0 120.294018,22.742522,0.0 120.294114,22.742536,0.0 120.294166,22.742545,0.0 120.294579,22.742615,0.0 120.29463,22.742644,0.0 120.294777,22.742798,0.0 120.294834,22.742923,0.0 120.294866,22.743104,0.0 120.29507,22.743211,0.0 120.29513,22.74324,0.0 120.294989,22.743468,0.0 120.294853,22.743691,0.0 120.294713,22.743954,0.0 120.294602,22.744177,0.0 120.294496,22.744375,0.0 120.294401,22.744393,0.0 120.294357,22.744442,0.0 120.294243,22.744616,0.0 120.294148,22.744791,0.0 120.294103,22.744979,0.0 120.294081,22.745173,0.0 120.294283,22.745266,0.0 120.29421,22.745376,0.0 120.294067,22.745586,0.0 120.293917,22.74582,0.0 120.293647,22.746227,0.0</coordinates></LinearRing></outerBoundaryIs></Polygon><styleUrl>#spolygon-map</styleUrl></Placemark><Placemark><Polygon><outerBoundaryIs><LinearRing><coordinates>120.283696,22.751421,0.0 120.283469,22.751512,0.0 120.283179,22.751637,0.0 120.283045,22.751695,0.0 120.282932,22.75174,0.0 120.282862,22.751762,0.0 120.282808,22.751778,0.0 120.282759,22.751782,0.0 120.28264,22.751804,0.0 120.28255,22.751835,0.0 120.282377,22.751921,0.0 120.282176,22.752037,0.0 120.282036,22.752097,0.0 120.281559,22.752296,0.0 120.2809,22.752539,0.0 120.280498,22.752677,0.0 120.280167,22.752802,0.0 120.280102,22.752838,0.0 120.279936,22.752941,0.0 120.279821,22.753033,0.0 120.279652,22.753202,0.0 120.279436,22.753467,0.0 120.279133,22.753938,0.0 120.279062,22.754039,0.0 120.279025,22.75407,0.0 120.278992,22.754095,0.0 120.278713,22.754234,0.0 120.278572,22.75431,0.0 120.278389,22.754404,0.0 120.27835,22.754417,0.0 120.278291,22.754435,0.0 120.278308,22.754483,0.0 120.278374,22.75474,0.0 120.278501,22.755179,0.0 120.278508,22.755204,0.0 120.278529,22.755226,0.0 120.278538,22.755233,0.0 120.278545,22.755278,0.0 120.278546,22.756014,0.0 120.278568,22.75629,0.0 120.278575,22.756315,0.0 120.278579,22.756337,0.0 120.278491,22.756486,0.0 120.27823,22.756503,0.0 120.278044,22.756525,0.0 120.277481,22.756597,0.0 120.276952,22.756669,0.0 120.276412,22.75675,0.0 120.276301,22.756763,0.0 120.275956,22.756804,0.0 120.27593,22.756515,0.0 120.275893,22.756111,0.0 120.275853,22.755903,0.0 120.275729,22.755695,0.0 120.275663,22.755579,0.0 120.275284,22.755146,0.0 120.274408,22.754334,0.0 120.274004,22.753892,0.0 120.273781,22.753584,0.0 120.273601,22.753174,0.0 120.273577,22.752915,0.0 120.273722,22.752281,0.0 120.273799,22.751773,0.0 120.273826,22.751428,0.0 120.273802,22.751173,0.0 120.273721,22.75092,0.0 120.273606,22.750702,0.0 120.273449,22.750526,0.0 120.273226,22.750355,0.0 120.273035,22.750223,0.0 120.272721,22.75003,0.0 120.272365,22.749789,0.0 120.272167,22.749592,0.0 120.272109,22.749535,0.0 120.271978,22.749286,0.0 120.271888,22.749056,0.0 120.271848,22.748816,0.0 120.271849,22.748586,0.0 120.271918,22.74804,0.0 120.271956,22.747778,0.0 120.27197,22.747686,0.0 120.271946,22.7475,0.0 120.271816,22.747008,0.0 120.271615,22.746365,0.0 120.271301,22.745366,0.0 120.271171,22.744979,0.0 120.270819,22.744441,0.0 120.270586,22.744085,0.0 120.269788,22.742849,0.0 120.269599,22.742525,0.0 120.269483,22.742324,0.0 120.269401,22.742109,0.0 120.269369,22.741923,0.0 120.269358,22.741811,0.0 120.269322,22.741431,0.0 120.269297,22.741106,0.0 120.269283,22.74093,0.0 120.269227,22.740645,0.0 120.269161,22.740437,0.0 120.269096,22.740297,0.0 120.268914,22.740097,0.0 120.268443,22.739709,0.0 120.268303,22.739602,0.0 120.268093,22.739439,0.0 120.267129,22.738694,0.0 120.266442,22.738133,0.0 120.266269,22.73799,0.0 120.265594,22.737506,0.0 120.265194,22.737285,0.0 120.264309,22.736773,0.0 120.264265,22.736735,0.0 120.263953,22.736462,0.0 120.263805,22.73627,0.0 120.263773,22.736069,0.0 120.263807,22.735838,0.0 120.263917,22.735555,0.0 120.26436,22.734879,0.0 120.265072,22.733812,0.0 120.265657,22.732991,0.0 120.266368,22.731924,0.0 120.266417,22.731301,0.0 120.266431,22.731078,0.0 120.266415,22.730886,0.0 120.266408,22.730685,0.0 120.266335,22.730439,0.0 120.266244,22.730221,0.0 120.266007,22.72992,0.0 120.266107,22.7299,0.0 120.266245,22.729851,0.0 120.266327,22.729824,0.0 120.266466,22.729762,0.0 120.266586,22.729742,0.0 120.266686,22.729738,0.0 120.266838,22.729746,0.0 120.266856,22.72975,0.0 120.266959,22.729769,0.0 120.267095,22.72988,0.0 120.267192,22.729982,0.0 120.267302,22.730075,0.0 120.267384,22.730159,0.0 120.267571,22.730302,0.0 120.26772,22.730404,0.0 120.267888,22.730509,0.0 120.267976,22.730573,0.0 120.268209,22.730741,0.0 120.26852,22.731002,0.0 120.268696,22.73114,0.0 120.268886,22.731304,0.0 120.269108,22.731497,0.0 120.269152,22.73154,0.0 120.269177,22.731562,0.0 120.269204,22.731612,0.0 120.269252,22.731646,0.0 120.26932,22.731667,0.0 120.269392,22.731663,0.0 120.269499,22.7316,0.0 120.269543,22.73158,0.0 120.269644,22.731528,0.0 120.269776,22.73143,0.0 120.269919,22.731302,0.0 120.27007,22.731169,0.0 120.270232,22.731034,0.0 120.270355,22.730933,0.0 120.270513,22.73079,0.0 120.270656,22.730693,0.0 120.270802,22.730552,0.0 120.270903,22.730457,0.0 120.270919,22.730453,0.0 120.271002,22.730501,0.0 120.271018,22.730514,0.0 120.271143,22.730612,0.0 120.271376,22.730764,0.0 120.27145,22.730807,0.0 120.271477,22.730821,0.0 120.271519,22.730846,0.0 120.271608,22.730867,0.0 120.271745,22.730901,0.0 120.271945,22.730954,0.0 120.272119,22.730987,0.0 120.272314,22.731037,0.0 120.272501,22.731072,0.0 120.272625,22.731102,0.0 120.272747,22.73112,0.0 120.272972,22.731185,0.0 120.273225,22.731229,0.0 120.273945,22.731385,0.0 120.274125,22.731422,0.0 120.274277,22.731477,0.0 120.274508,22.731514,0.0 120.274636,22.731551,0.0 120.274822,22.731588,0.0 120.274921,22.731627,0.0 120.275172,22.731689,0.0 120.275209,22.731716,0.0 120.275191,22.731845,0.0 120.275177,22.73203,0.0 120.275133,22.732264,0.0 120.275107,22.732531,0.0 120.275045,22.732828,0.0 120.275027,22.732991,0.0 120.275004,22.733117,0.0 120.274982,22.733341,0.0 120.274944,22.733528,0.0 120.274942,22.733575,0.0 120.274941,22.73362,0.0 120.275057,22.733625,0.0 120.275571,22.733714,0.0 120.275989,22.733758,0.0 120.276163,22.733798,0.0 120.276216,22.733857,0.0 120.276313,22.734171,0.0 120.276417,22.734485,0.0 120.276526,22.734858,0.0 120.276738,22.735448,0.0 120.27691,22.735986,0.0 120.277065,22.736481,0.0 120.277259,22.737042,0.0 120.277446,22.737583,0.0 120.277551,22.737915,0.0 120.277581,22.737908,0.0 120.277655,22.737895,0.0 120.277922,22.737799,0.0 120.278299,22.737704,0.0 120.278688,22.73757,0.0 120.279148,22.737464,0.0 120.279465,22.737371,0.0 120.279693,22.73732,0.0 120.2798,22.737295,0.0 120.280102,22.737213,0.0 120.280458,22.737095,0.0 120.28087,22.736989,0.0 120.281311,22.736857,0.0 120.281631,22.736766,0.0 120.281835,22.736708,0.0 120.281966,22.736671,0.0 120.282364,22.736566,0.0 120.282695,22.73648,0.0 120.282901,22.736417,0.0 120.284302,22.740621,0.0 120.28439,22.740596,0.0 120.284594,22.740541,0.0 120.284805,22.740478,0.0 120.285022,22.740418,0.0 120.28528,22.740343,0.0 120.285361,22.740318,0.0 120.285415,22.740481,0.0 120.285527,22.740807,0.0 120.285651,22.741184,0.0 120.285719,22.741379,0.0 120.285819,22.741689,0.0 120.285947,22.742077,0.0 120.286067,22.742448,0.0 120.286184,22.742799,0.0 120.286306,22.743176,0.0 120.286338,22.743271,0.0 120.286432,22.743561,0.0 120.286531,22.743864,0.0 120.286641,22.7442,0.0 120.286689,22.744352,0.0 120.286794,22.744664,0.0 120.286936,22.745096,0.0 120.286994,22.745297,0.0 120.287226,22.745962,0.0 120.287289,22.746145,0.0 120.287294,22.746158,0.0 120.287394,22.746468,0.0 120.287435,22.746602,0.0 120.287518,22.746859,0.0 120.285383,22.747484,0.0 120.285453,22.747699,0.0 120.285596,22.748142,0.0 120.285744,22.748576,0.0 120.285773,22.748685,0.0 120.285838,22.748877,0.0 120.28594,22.749171,0.0 120.286035,22.749483,0.0 120.286135,22.749768,0.0 120.286428,22.750652,0.0 120.286611,22.751188,0.0 120.286646,22.751312,0.0 120.286673,22.751393,0.0 120.286701,22.75147,0.0 120.286733,22.751558,0.0 120.286764,22.751647,0.0 120.286863,22.75195,0.0 120.286924,22.752133,0.0 120.28698,22.752314,0.0 120.287114,22.752723,0.0 120.287119,22.752757,0.0 120.28712,22.752788,0.0 120.287067,22.752772,0.0 120.286934,22.752729,0.0 120.286847,22.752683,0.0 120.286572,22.752508,0.0 120.286466,22.752476,0.0 120.28616,22.752427,0.0 120.286027,22.752415,0.0 120.285973,22.752408,0.0 120.285927,22.752413,0.0 120.285801,22.752408,0.0 120.285744,22.752401,0.0 120.285628,22.752371,0.0 120.285295,22.752286,0.0 120.285262,22.752263,0.0 120.285242,22.752245,0.0 120.285226,22.752204,0.0 120.285203,22.752136,0.0 120.28515,22.752016,0.0 120.285081,22.75184,0.0 120.285025,22.751731,0.0 120.284982,22.751632,0.0 120.284893,22.751514,0.0 120.284837,22.751471,0.0 120.284761,22.751437,0.0 120.284657,22.751418,0.0 120.284474,22.751408,0.0 120.284322,22.751419,0.0 120.284255,22.751423,0.0 120.283922,22.751431,0.0 120.283865,22.751417,0.0 120.283772,22.751414,0.0 120.283696,22.751421,0.0</coordinates></LinearRing></outerBoundaryIs></Polygon><styleUrl>#spolygon-map</styleUrl></Placemark><Placemark><Polygon><outerBoundaryIs><LinearRing><coordinates>120.333834,22.764321,0.0 120.333406,22.765076,0.0 120.333098,22.765381,0.0 120.332851,22.766008,0.0 120.33232,22.767844,0.0 120.332556,22.767946,0.0 120.331564,22.770583,0.0 120.331421,22.770955,0.0 120.331257,22.771476,0.0 120.331231,22.771756,0.0 120.331192,22.771824,0.0 120.331021,22.7722,0.0 120.330981,22.772249,0.0 120.33084,22.772339,0.0 120.330674,22.772494,0.0 120.3306,22.772586,0.0 120.330918,22.772832,0.0 120.330505,22.773536,0.0 120.329943,22.774433,0.0 120.329747,22.774723,0.0 120.32961,22.774605,0.0 120.328257,22.773434,0.0 120.327626,22.772885,0.0 120.326338,22.771726,0.0 120.32537,22.770858,0.0 120.324756,22.770306,0.0 120.324513,22.770086,0.0 120.323548,22.769215,0.0 120.323145,22.768622,0.0 120.323136,22.768609,0.0 120.322884,22.768194,0.0 120.322544,22.767712,0.0 120.32204,22.766994,0.0 120.321755,22.766582,0.0 120.321139,22.765683,0.0 120.321095,22.76562,0.0 120.320687,22.765033,0.0 120.320502,22.764782,0.0 120.320341,22.764607,0.0 120.319761,22.763993,0.0 120.319032,22.763263,0.0 120.318926,22.763138,0.0 120.318729,22.762934,0.0 120.318507,22.762665,0.0 120.318342,22.76245,0.0 120.318123,22.762164,0.0 120.317819,22.761761,0.0 120.317227,22.761027,0.0 120.317019,22.760834,0.0 120.316931,22.760782,0.0 120.316718,22.760659,0.0 120.31654,22.760555,0.0 120.316451,22.760502,0.0 120.316735,22.759966,0.0 120.317037,22.759491,0.0 120.317265,22.759169,0.0 120.317663,22.758744,0.0 120.318531,22.757937,0.0 120.318795,22.757742,0.0 120.319016,22.75759,0.0 120.319532,22.75742,0.0 120.319777,22.757367,0.0 120.320395,22.757476,0.0 120.320952,22.757717,0.0 120.32098,22.757729,0.0 120.321153,22.757802,0.0 120.322088,22.758201,0.0 120.323132,22.758826,0.0 120.323428,22.7589,0.0 120.323818,22.758843,0.0 120.324133,22.758693,0.0 120.324417,22.758452,0.0 120.324532,22.758125,0.0 120.324561,22.757886,0.0 120.324504,22.757234,0.0 120.324414,22.75647,0.0 120.324308,22.75607,0.0 120.324201,22.755582,0.0 120.324199,22.755469,0.0 120.32424,22.755408,0.0 120.324712,22.7553,0.0 120.324919,22.755235,0.0 120.324922,22.755325,0.0 120.324962,22.755619,0.0 120.324961,22.755721,0.0 120.324972,22.755881,0.0 120.324986,22.755969,0.0 120.32502,22.756032,0.0 120.325086,22.756107,0.0 120.325138,22.756175,0.0 120.32524,22.756216,0.0 120.325352,22.756244,0.0 120.325469,22.756251,0.0 120.325639,22.756227,0.0 120.325767,22.756207,0.0 120.325912,22.756169,0.0 120.326079,22.75612,0.0 120.32627,22.756067,0.0 120.326385,22.756063,0.0 120.326573,22.756037,0.0 120.326786,22.756011,0.0 120.326916,22.755961,0.0 120.327006,22.755833,0.0 120.32708,22.75566,0.0 120.327179,22.755432,0.0 120.327225,22.755215,0.0 120.327265,22.755049,0.0 120.327301,22.754888,0.0 120.32735,22.754848,0.0 120.327462,22.754855,0.0 120.327572,22.754878,0.0 120.327714,22.754895,0.0 120.327922,22.754893,0.0 120.328061,22.754898,0.0 120.328272,22.754908,0.0 120.328482,22.754925,0.0 120.32855,22.754984,0.0 120.328647,22.755039,0.0 120.328777,22.755123,0.0 120.328904,22.755186,0.0 120.329012,22.755237,0.0 120.32912,22.755244,0.0 120.329291,22.755208,0.0 120.329413,22.755213,0.0 120.32954,22.755241,0.0 120.329721,22.755282,0.0 120.329905,22.755297,0.0 120.330035,22.755318,0.0 120.330245,22.75535,0.0 120.330402,22.755348,0.0 120.330571,22.755338,0.0 120.330705,22.755302,0.0 120.330894,22.755229,0.0 120.331075,22.755085,0.0 120.331107,22.755189,0.0 120.331141,22.75537,0.0 120.33117,22.755559,0.0 120.331202,22.755731,0.0 120.331213,22.755873,0.0 120.331216,22.756068,0.0 120.331232,22.756226,0.0 120.33127,22.756454,0.0 120.331338,22.756621,0.0 120.331442,22.756757,0.0 120.331593,22.756941,0.0 120.331654,22.756997,0.0 120.331739,22.757065,0.0 120.331804,22.75709,0.0 120.331929,22.757093,0.0 120.332041,22.757091,0.0 120.33211,22.757076,0.0 120.332223,22.756912,0.0 120.332305,22.75677,0.0 120.332348,22.75668,0.0 120.332371,22.756635,0.0 120.332564,22.756615,0.0 120.332726,22.7566,0.0 120.332747,22.756593,0.0 120.332892,22.756585,0.0 120.333046,22.756549,0.0 120.333238,22.756577,0.0 120.33356,22.756583,0.0 120.333655,22.756613,0.0 120.333781,22.756719,0.0 120.333906,22.756781,0.0 120.334055,22.756809,0.0 120.334117,22.75682,0.0 120.334273,22.756877,0.0 120.334482,22.757018,0.0 120.334659,22.757168,0.0 120.334714,22.757195,0.0 120.33484,22.757137,0.0 120.334924,22.757054,0.0 120.334996,22.756998,0.0 120.33505,22.756991,0.0 120.335186,22.757037,0.0 120.335305,22.757082,0.0 120.335434,22.757167,0.0 120.335582,22.757226,0.0 120.335669,22.757233,0.0 120.335743,22.757206,0.0 120.335811,22.757168,0.0 120.335957,22.757029,0.0 120.336055,22.756948,0.0 120.336265,22.756831,0.0 120.336401,22.756796,0.0 120.336533,22.756805,0.0 120.336601,22.756821,0.0 120.336849,22.75685,0.0 120.337256,22.756944,0.0 120.337398,22.757003,0.0 120.337491,22.757101,0.0 120.337549,22.757166,0.0 120.337581,22.757234,0.0 120.337615,22.757345,0.0 120.337635,22.757406,0.0 120.337634,22.757532,0.0 120.337605,22.757618,0.0 120.337562,22.75769,0.0 120.337494,22.757762,0.0 120.337299,22.757971,0.0 120.337221,22.758054,0.0 120.336955,22.758329,0.0 120.336838,22.758448,0.0 120.336618,22.758664,0.0 120.336476,22.758803,0.0 120.336192,22.75908,0.0 120.335952,22.75932,0.0 120.335829,22.759437,0.0 120.335653,22.759619,0.0 120.335498,22.75975,0.0 120.335419,22.759846,0.0 120.335308,22.759988,0.0 120.335221,22.76008,0.0 120.335042,22.76029,0.0 120.335016,22.760346,0.0 120.335083,22.760434,0.0 120.335177,22.76052,0.0 120.335218,22.760586,0.0 120.335257,22.76064,0.0 120.335266,22.760692,0.0 120.335246,22.760778,0.0 120.335194,22.760857,0.0 120.335149,22.76094,0.0 120.335061,22.761003,0.0 120.334964,22.761075,0.0 120.334893,22.761149,0.0 120.334834,22.761185,0.0 120.334695,22.761322,0.0 120.33462,22.761403,0.0 120.334578,22.761507,0.0 120.334555,22.761563,0.0 120.334551,22.761653,0.0 120.334547,22.76171,0.0 120.334549,22.761805,0.0 120.335132,22.762091,0.0 120.335371,22.762262,0.0 120.33558,22.762446,0.0 120.336098,22.762967,0.0 120.336264,22.76318,0.0 120.336184,22.763279,0.0 120.336181,22.763283,0.0 120.336107,22.763387,0.0 120.336091,22.763829,0.0 120.336174,22.763848,0.0 120.336179,22.764331,0.0 120.3362,22.764317,0.0 120.336205,22.7645,0.0 120.336168,22.764505,0.0 120.335806,22.76451,0.0 120.335146,22.764421,0.0 120.334698,22.764404,0.0 120.334644,22.764288,0.0 120.334259,22.764271,0.0 120.333834,22.764321,0.0</coordinates></LinearRing></outerBoundaryIs></Polygon><styleUrl>#spolygon-map</styleUrl></Placemark><Placemark><Polygon><outerBoundaryIs><LinearRing><coordinates>120.306622,22.754567,0.0 120.306408,22.754831,0.0 120.306229,22.755051,0.0 120.305809,22.75562,0.0 120.305134,22.755193,0.0 120.304796,22.754932,0.0 120.304593,22.754821,0.0 120.30422,22.754686,0.0 120.303521,22.754606,0.0 120.303279,22.754521,0.0 120.302795,22.754488,0.0 120.302272,22.754517,0.0 120.301896,22.754396,0.0 120.301622,22.754169,0.0 120.301332,22.754088,0.0 120.300519,22.754995,0.0 120.299663,22.754411,0.0 120.298636,22.753681,0.0 120.297523,22.752895,0.0 120.297818,22.752535,0.0 120.298825,22.751314,0.0 120.29888,22.751244,0.0 120.298921,22.751195,0.0 120.299568,22.750396,0.0 120.299637,22.750333,0.0 120.300218,22.749611,0.0 120.300225,22.749602,0.0 120.300233,22.749593,0.0 120.301039,22.748646,0.0 120.301586,22.747987,0.0 120.301602,22.747942,0.0 120.302099,22.747326,0.0 120.302181,22.747218,0.0 120.302266,22.747139,0.0 120.302357,22.747042,0.0 120.302552,22.746847,0.0 120.302606,22.746786,0.0 120.302621,22.746766,0.0 120.302647,22.746698,0.0 120.302646,22.746671,0.0 120.30267,22.746635,0.0 120.302776,22.746498,0.0 120.302912,22.746354,0.0 120.30313,22.746556,0.0 120.303274,22.746671,0.0 120.303712,22.747059,0.0 120.304266,22.747574,0.0 120.304873,22.748187,0.0 120.305044,22.748361,0.0 120.305395,22.748717,0.0 120.30572,22.749037,0.0 120.305992,22.749289,0.0 120.306659,22.749867,0.0 120.306802,22.749985,0.0 120.307125,22.75026,0.0 120.307313,22.750392,0.0 120.307515,22.750532,0.0 120.307613,22.750628,0.0 120.30799,22.75083,0.0 120.308107,22.750892,0.0 120.308604,22.751203,0.0 120.308657,22.751237,0.0 120.308795,22.751326,0.0 120.309045,22.751591,0.0 120.308647,22.752097,0.0 120.308635,22.752113,0.0 120.308606,22.752151,0.0 120.308386,22.752433,0.0 120.308172,22.752696,0.0 120.307956,22.752961,0.0 120.307728,22.753242,0.0 120.30737,22.753692,0.0 120.307292,22.753785,0.0 120.306985,22.754149,0.0 120.306931,22.754212,0.0 120.306622,22.754567,0.0</coordinates></LinearRing></outerBoundaryIs></Polygon><styleUrl>#spolygon-map</styleUrl></Placemark><Placemark><Polygon><outerBoundaryIs><LinearRing><coordinates>120.306977,22.764875,0.0 120.3065,22.765744,0.0 120.30609,22.766494,0.0 120.305855,22.766913,0.0 120.305851,22.76692,0.0 120.305502,22.767548,0.0 120.304351,22.767322,0.0 120.303399,22.767151,0.0 120.302414,22.766928,0.0 120.301958,22.766858,0.0 120.301706,22.766819,0.0 120.301751,22.766543,0.0 120.302305,22.765916,0.0 120.302075,22.7658,0.0 120.302274,22.765405,0.0 120.302295,22.765401,0.0 120.302403,22.765372,0.0 120.302732,22.764784,0.0 120.302739,22.764773,0.0 120.302294,22.764586,0.0 120.30229,22.764591,0.0 120.302083,22.764883,0.0 120.301375,22.764616,0.0 120.301295,22.764586,0.0 120.301291,22.764356,0.0 120.300843,22.763729,0.0 120.30119,22.763157,0.0 120.301281,22.763213,0.0 120.301268,22.763469,0.0 120.30179,22.763554,0.0 120.301834,22.763561,0.0 120.302534,22.763077,0.0 120.303188,22.763441,0.0 120.303449,22.763255,0.0 120.303619,22.763483,0.0 120.303755,22.76361,0.0 120.303929,22.763715,0.0 120.303941,22.763692,0.0 120.30425,22.76312,0.0 120.304285,22.763093,0.0 120.304543,22.762887,0.0 120.304601,22.762921,0.0 120.30497,22.763142,0.0 120.30508,22.762948,0.0 120.30525,22.762646,0.0 120.305418,22.762349,0.0 120.305478,22.762392,0.0 120.305877,22.762635,0.0 120.305969,22.762694,0.0 120.306609,22.763104,0.0 120.306707,22.763154,0.0 120.30765,22.763645,0.0 120.30763,22.763681,0.0 120.30739,22.764121,0.0 120.307171,22.764519,0.0 120.306977,22.764875,0.0</coordinates></LinearRing></outerBoundaryIs></Polygon><styleUrl>#spolygon-map</styleUrl></Placemark><Placemark><Polygon><outerBoundaryIs><LinearRing><coordinates>120.295006,22.755702,0.0 120.29501,22.755706,0.0 120.295785,22.756775,0.0 120.294997,22.757266,0.0 120.294307,22.75769,0.0 120.294249,22.757724,0.0 120.294246,22.757681,0.0 120.293422,22.757086,0.0 120.291688,22.755922,0.0 120.291378,22.755717,0.0 120.291283,22.755654,0.0 120.291182,22.755947,0.0 120.291183,22.756121,0.0 120.291192,22.75631,0.0 120.291092,22.756326,0.0 120.29057,22.756269,0.0 120.290118,22.755967,0.0 120.29015,22.755902,0.0 120.290192,22.755845,0.0 120.289744,22.755392,0.0 120.289292,22.755408,0.0 120.289075,22.755524,0.0 120.287247,22.755661,0.0 120.287203,22.755618,0.0 120.287168,22.755559,0.0 120.287133,22.755498,0.0 120.287117,22.755439,0.0 120.287117,22.755414,0.0 120.28714,22.755039,0.0 120.287138,22.754795,0.0 120.287102,22.754649,0.0 120.28707,22.754475,0.0 120.287056,22.75435,0.0 120.287063,22.754258,0.0 120.287073,22.754238,0.0 120.287111,22.754154,0.0 120.287185,22.754039,0.0 120.287286,22.753891,0.0 120.287367,22.753758,0.0 120.287404,22.753688,0.0 120.287423,22.75363,0.0 120.287433,22.753557,0.0 120.287468,22.753273,0.0 120.287507,22.752993,0.0 120.2875,22.752928,0.0 120.287498,22.752903,0.0 120.287418,22.752875,0.0 120.287233,22.752823,0.0 120.28712,22.752788,0.0 120.287119,22.752757,0.0 120.287114,22.752723,0.0 120.28698,22.752314,0.0 120.286924,22.752133,0.0 120.286863,22.75195,0.0 120.286764,22.751647,0.0 120.286733,22.751558,0.0 120.286701,22.75147,0.0 120.286673,22.751393,0.0 120.286646,22.751312,0.0 120.286611,22.751188,0.0 120.286428,22.750652,0.0 120.286135,22.749768,0.0 120.286035,22.749483,0.0 120.28594,22.749171,0.0 120.285838,22.748877,0.0 120.285773,22.748685,0.0 120.285744,22.748576,0.0 120.285596,22.748142,0.0 120.285453,22.747699,0.0 120.285383,22.747484,0.0 120.287518,22.746859,0.0 120.287435,22.746602,0.0 120.287394,22.746468,0.0 120.289529,22.745857,0.0 120.289778,22.746612,0.0 120.289957,22.747152,0.0 120.290002,22.747288,0.0 120.290019,22.747349,0.0 120.290087,22.747557,0.0 120.290134,22.747688,0.0 120.290152,22.747758,0.0 120.290174,22.747833,0.0 120.290283,22.748158,0.0 120.290302,22.748215,0.0 120.290387,22.748459,0.0 120.290445,22.748654,0.0 120.290543,22.748952,0.0 120.290597,22.749117,0.0 120.29066,22.749305,0.0 120.290692,22.749395,0.0 120.29089,22.74934,0.0 120.291314,22.749217,0.0 120.291671,22.749117,0.0 120.291947,22.749042,0.0 120.29187,22.749337,0.0 120.291794,22.749775,0.0 120.291774,22.749879,0.0 120.291762,22.750043,0.0 120.291767,22.750217,0.0 120.291769,22.750389,0.0 120.291765,22.750493,0.0 120.291785,22.750565,0.0 120.29179,22.750592,0.0 120.291801,22.750646,0.0 120.291914,22.751157,0.0 120.29195,22.751257,0.0 120.292003,22.751415,0.0 120.292042,22.751503,0.0 120.292078,22.7516,0.0 120.292154,22.75175,0.0 120.292252,22.751904,0.0 120.292336,22.752042,0.0 120.292742,22.752617,0.0 120.292755,22.752635,0.0 120.292914,22.752855,0.0 120.292948,22.752902,0.0 120.293371,22.753487,0.0 120.293882,22.754184,0.0 120.294236,22.754669,0.0 120.294313,22.754773,0.0 120.294923,22.755595,0.0 120.295006,22.755702,0.0</coordinates></LinearRing></outerBoundaryIs></Polygon><styleUrl>#spolygon-map</styleUrl></Placemark></Document>
</kml>
